Wav.Time	B5.03822.P01.CH0	Frame	State	Q0	Qx	Qy	Qz	Tx	Ty	Tz	B5.03822.P02.CH0	Frame.1	State.1	Q0.1	Qx.1	Qy.1	Qz.1	Tx.1	Ty.1	Tz.1	B5.03822.P02.CH1	Frame.2	State.2	Q0.2	Qx.2	Qy.2	Qz.2	Tx.2	Ty.2	Tz.2	B5.03822.P03.CH0	Frame.3	State.3	Q0.3	Qx.3	Qy.3	Qz.3	Tx.3	Ty.3	Tz.3	B5.03822.P03.CH1	Frame.4	State.4	Q0.4	Qx.4	Qy.4	Qz.4	Tx.4	Ty.4	Tz.4	B5.03822.P04.CH0	Frame.5	State.5	Q0.5	Qx.5	Qy.5	Qz.5	Tx.5	Ty.5	Tz.5	B5.03822.P04.CH1	Frame.6	State.6	Q0.6	Qx.6	Qy.6	Qz.6	Tx.6	Ty.6	Tz.6	X
0	B5-03822-P01-CH0	218552	OK	0.2321929	0.0842745	0.0279324	-0.9686093	94.266	-4.05	-265.356	B5-03822-P02-CH0	218552	OK	0.6771927	0.3468794	-0.6489104	0	-77.122	-97.785	5.075	B5-03822-P02-CH1	218552	OK	0.6583631	-0.1306995	-0.7412662	0	-74.393	-75.154	1.645	B5-03822-P03-CH0	218552	OK	0.7134547	-0.6561053	-0.2459844	0	-91.15	-59.457	1.206	B5-03822-P03-CH1	218552	OK	0.7185562	-0.6775636	0.1567945	0	-99.593	-26.916	-7.546	B5-03822-P04-CH0	218552	OK	0.7389991	0.071671	0.6698833	0	-123.393	-36.517	3.492	B5-03822-P04-CH1	218552	OK	0.7048204	-0.7078607	0.0464909	0	-109.465	-46.668	-3.368	NA
0.00999206349206349	B5-03822-P01-CH0	218560	OK	0.2323196	0.0841806	0.0278638	-0.9685891	94.241	-4.072	-265.402	B5-03822-P02-CH0	218560	OK	0.6770769	0.3479239	-0.6484719	0	-77.205	-97.45	5.428	B5-03822-P02-CH1	218560	OK	0.6560231	-0.127535	-0.7438874	0	-73.709	-75.727	1.715	B5-03822-P03-CH0	218560	OK	0.7073483	-0.6544748	-0.2670602	0	-89.621	-59.605	1.405	B5-03822-P03-CH1	218560	OK	0.7185031	-0.6777039	0.1564313	0	-99.477	-26.805	-7.637	B5-03822-P04-CH0	218560	OK	0.738872	0.0724987	0.6699344	0	-123.36	-36.533	3.503	B5-03822-P04-CH1	218560	OK	0.7047872	-0.7079203	0.0460853	0	-109.467	-46.64	-3.346	NA
0.019984126984127	B5-03822-P01-CH0	218568	OK	0.2325738	0.0840367	0.0284729	-0.9685229	94.216	-3.989	-265.47	B5-03822-P02-CH0	218568	OK	0.6799266	0.3561575	-0.6409772	0	-77.471	-97.08	5.454	B5-03822-P02-CH1	218568	OK	0.6528971	-0.124595	-0.7471288	0	-73.222	-75.461	0.468	B5-03822-P03-CH0	218568	OK	0.7000491	-0.6515027	-0.292362	0	-89.26	-59.285	1.231	B5-03822-P03-CH1	218568	OK	0.7187395	-0.6774611	0.1563969	0	-99.617	-26.843	-7.644	B5-03822-P04-CH0	218568	OK	0.7384732	0.0738409	0.6702274	0	-123.228	-36.41	3.561	B5-03822-P04-CH1	218568	OK	0.7053336	-0.7073925	0.0458287	0	-109.302	-46.484	-3.088	NA
0.0299761904761905	B5-03822-P01-CH0	218576	OK	0.2324309	0.0843093	0.0278433	-0.9685518	94.243	-4.009	-265.424	B5-03822-P02-CH0	218576	OK	0.6832557	0.3592489	-0.6356901	0	-77.572	-98.22	5.114	B5-03822-P02-CH1	218576	OK	0.64859	-0.1184684	-0.7518619	0	-73.072	-76.001	-0.272	B5-03822-P03-CH0	218576	OK	0.6898462	-0.6480142	-0.3227845	0	-89.392	-58.137	-0.506	B5-03822-P03-CH1	218576	OK	0.7182163	-0.6780673	0.1561732	0	-99.65	-26.834	-7.748	B5-03822-P04-CH0	218576	OK	0.7385348	0.0745128	0.6700852	0	-123.286	-36.417	3.584	B5-03822-P04-CH1	218576	OK	0.7046957	-0.7080614	0.0453102	0	-109.235	-46.544	-2.957	NA
0.039968253968254	B5-03822-P01-CH0	218584	OK	0.2323941	0.0841432	0.0278669	-0.9685744	94.166	-3.999	-265.46	B5-03822-P02-CH0	218584	OK	0.6864325	0.3639774	-0.6295481	0	-77.32	-98.067	4.375	B5-03822-P02-CH1	218584	OK	0.6436993	-0.1123598	-0.7569851	0	-72.928	-75.997	0.299	B5-03822-P03-CH0	218584	OK	0.6772588	-0.6440006	-0.3557861	0	-87.735	-57.918	-0.768	B5-03822-P03-CH1	218584	OK	0.7181103	-0.6782697	0.1557814	0	-99.445	-26.737	-7.814	B5-03822-P04-CH0	218584	OK	0.7382972	0.0757042	0.6702135	0	-123.189	-36.294	3.651	B5-03822-P04-CH1	218584	OK	0.7047772	-0.7080246	0.0446119	0	-109.225	-46.397	-3.119	NA
0.0499603174603175	B5-03822-P01-CH0	218592	OK	0.2325919	0.0841189	0.0283209	-0.9685159	94.187	-3.949	-265.515	B5-03822-P02-CH0	218592	OK	0.6871227	0.3703281	-0.6250756	0	-78.117	-96.768	4.123	B5-03822-P02-CH1	218592	OK	0.639606	-0.1070772	-0.7612087	0	-72.751	-75.571	0.005	B5-03822-P03-CH0	218592	OK	0.6633998	-0.6412045	-0.385691	0	-87.301	-57.759	-0.247	B5-03822-P03-CH1	218592	OK	0.7182734	-0.6781474	0.1555613	0	-99.313	-26.704	-7.741	B5-03822-P04-CH0	218592	OK	0.7384119	0.0774126	0.6698919	0	-123.205	-36.352	3.948	B5-03822-P04-CH1	218592	OK	0.7048619	-0.7079519	0.0444271	0	-109.256	-46.496	-3.375	NA
0.059952380952381	B5-03822-P01-CH0	218600	OK	0.2324981	0.0842065	0.0281384	-0.9685361	94.201	-3.95	-265.478	B5-03822-P02-CH0	218600	OK	0.6909419	0.376117	-0.6173616	0	-78.576	-97.217	4.839	B5-03822-P02-CH1	218600	OK	0.6356824	-0.0999517	-0.7654525	0	-73.009	-75.402	1.5	B5-03822-P03-CH0	218600	OK	0.6515536	-0.6378561	-0.4106307	0	-86.523	-57.02	-2.068	B5-03822-P03-CH1	218600	OK	0.7180664	-0.6784799	0.155067	0	-99.295	-26.655	-7.505	B5-03822-P04-CH0	218600	OK	0.7384649	0.0790046	0.6696476	0	-123.275	-36.341	3.999	B5-03822-P04-CH1	218600	OK	0.7046605	-0.7081871	0.0438709	0	-109.245	-46.488	-3.361	NA
0.0699444444444444	B5-03822-P01-CH0	218608	OK	0.2325067	0.0840741	0.0285494	-0.9685335	94.183	-3.906	-265.555	B5-03822-P02-CH0	218608	OK	0.6920981	0.382703	-0.6119957	0	-79.928	-96.937	7.445	B5-03822-P02-CH1	218608	OK	0.6351901	-0.0967038	-0.766278	0	-72.449	-74.779	0.091	B5-03822-P03-CH0	218608	OK	0.6428344	-0.6362878	-0.4264995	0	-85.052	-57.567	-1.957	B5-03822-P03-CH1	218608	OK	0.7181752	-0.6785407	0.1542949	0	-99.302	-26.619	-7.226	B5-03822-P04-CH0	218608	OK	0.7385161	0.0813894	0.6693054	0	-123.255	-36.456	4.275	B5-03822-P04-CH1	218608	OK	0.7049502	-0.7079494	0.0430448	0	-109.199	-46.332	-3.427	NA
0.0799365079365079	B5-03822-P01-CH0	218616	OK	0.2326804	0.0837338	0.0296147	-0.9684893	94.052	-3.801	-265.56	B5-03822-P02-CH0	218616	OK	0.696211	0.3872211	-0.604442	0	-80.05	-96.95	5.993	B5-03822-P02-CH1	218616	OK	0.6348887	-0.0895949	-0.7673911	0	-72.061	-74.775	0.061	B5-03822-P03-CH0	218616	OK	0.6379325	-0.6352393	-0.4353311	0	-84.459	-57.472	-2.194	B5-03822-P03-CH1	218616	OK	0.7186032	-0.6782784	0.1534534	0	-99.171	-26.584	-7.054	B5-03822-P04-CH0	218616	OK	0.7382388	0.0975964	0.6674417	0	-123.612	-35.364	2.509	B5-03822-P04-CH1	218616	OK	0.705724	-0.7072006	0.0426716	0	-108.873	-46.151	-3.695	NA
0.0899285714285714	B5-03822-P01-CH0	218624	OK	0.2325945	0.0835784	0.029926	-0.9685138	93.978	-3.794	-265.507	B5-03822-P02-CH0	218624	OK	0.7025252	0.3908569	-0.5947178	0	-78.772	-96.661	4.454	B5-03822-P02-CH1	218624	OK	0.6353944	-0.0825197	-0.7677659	0	-71.654	-75.05	-0.519	B5-03822-P03-CH0	218624	OK	0.6337994	-0.6342676	-0.4427222	0	-84.99	-57.01	-3.742	B5-03822-P03-CH1	218624	OK	0.7186746	-0.678584	0.1517581	0	-99.041	-26.502	-6.864	B5-03822-P04-CH0	218624	OK	0.7367975	0.1070985	0.6675772	0	-123.606	-34.86	0.947	B5-03822-P04-CH1	218624	OK	0.7059472	-0.7070314	0.0417751	0	-108.719	-45.991	-3.849	NA
0.0999206349206349	B5-03822-P01-CH0	218632	OK	0.2325708	0.0836184	0.0302696	-0.9685053	94.022	-3.764	-265.543	B5-03822-P02-CH0	218632	OK	0.7046672	0.3948475	-0.5895249	0	-79.565	-96.399	5.288	B5-03822-P02-CH1	218632	OK	0.6337395	-0.0758429	-0.7698195	0	-72.437	-75.766	-0.578	B5-03822-P03-CH0	218632	OK	0.6303643	-0.6336259	-0.4485075	0	-85.375	-56.982	-2.842	B5-03822-P03-CH1	218632	OK	0.7187391	-0.6790064	0.1495475	0	-99.153	-26.49	-6.696	B5-03822-P04-CH0	218632	OK	0.7369629	0.1181962	0.6655188	0	-123.829	-35.948	1.304	B5-03822-P04-CH1	218632	OK	0.7061708	-0.7068459	0.0411294	0	-108.809	-45.898	-4.02	NA
0.109912698412698	B5-03822-P01-CH0	218640	OK	0.2323929	0.0838005	0.0302132	-0.968534	94.113	-3.719	-265.647	B5-03822-P02-CH0	218640	OK	0.7078965	0.3976594	-0.5837375	0	-80.339	-97.408	6.551	B5-03822-P02-CH1	218640	OK	0.6336775	-0.0712938	-0.7703052	0	-72.479	-75.461	0.356	B5-03822-P03-CH0	218640	OK	0.6301668	-0.6321059	-0.4509235	0	-84.618	-56.599	-1.611	B5-03822-P03-CH1	218640	OK	0.7184786	-0.6797905	0.1472187	0	-99.108	-26.504	-6.179	B5-03822-P04-CH0	218640	OK	0.7363459	0.1272662	0.6645284	0	-123.312	-36.662	2.372	B5-03822-P04-CH1	218640	OK	0.7061326	-0.7069258	0.0404054	0	-108.794	-45.787	-3.964	NA
0.119904761904762	B5-03822-P01-CH0	218648	OK	0.2320118	0.0837048	0.0296579	-0.9686508	94.045	-3.797	-265.57	B5-03822-P02-CH0	218648	OK	0.7112544	0.4017216	-0.5768335	0	-79.918	-96.905	4.915	B5-03822-P02-CH1	218648	OK	0.6341411	-0.0678253	-0.7702369	0	-72.437	-75.115	0.189	B5-03822-P03-CH0	218648	OK	0.6301861	-0.6331596	-0.4494156	0	-84.501	-56.642	-0.954	B5-03822-P03-CH1	218648	OK	0.7185465	-0.6838493	0.1266531	0	-99.5	-24.767	-8.903	B5-03822-P04-CH0	218648	OK	0.7357556	0.1341616	0.6638256	0	-123.824	-35.845	0.786	B5-03822-P04-CH1	218648	OK	0.7056418	-0.7074746	0.0393623	0	-108.823	-45.733	-4.22	NA
0.129896825396825	B5-03822-P01-CH0	218656	OK	0.2319186	0.0834941	0.030027	-0.96868	94.017	-3.778	-265.608	B5-03822-P02-CH0	218656	OK	0.7113402	0.4058781	-0.5738102	0	-80.92	-95.986	4.797	B5-03822-P02-CH1	218656	OK	0.634009	-0.0670382	-0.7704145	0	-72.569	-74.94	1.049	B5-03822-P03-CH0	218656	OK	0.6312455	-0.6336151	-0.4472817	0	-84.66	-56.723	-2.354	B5-03822-P03-CH1	218656	OK	0.7178903	-0.6851397	0.1233576	0	-98.738	-24.751	-11.06	B5-03822-P04-CH0	218656	OK	0.7361303	0.1437457	0.6613995	0	-123.796	-36.012	2.958	B5-03822-P04-CH1	218656	OK	0.7058977	-0.7072467	0.0388666	0	-108.797	-45.648	-4.255	NA
0.139888888888889	B5-03822-P01-CH0	218664	OK	0.2318759	0.083523	0.0298538	-0.9686931	94.009	-3.785	-265.54	B5-03822-P02-CH0	218664	OK	0.7137159	0.4068515	-0.5701592	0	-80.978	-96.606	5.659	B5-03822-P02-CH1	218664	OK	0.6351523	-0.0650641	-0.7696416	0	-72.147	-75.697	1.097	B5-03822-P03-CH0	218664	OK	0.6318543	-0.6364641	-0.44235	0	-85.321	-56.724	-3.347	B5-03822-P03-CH1	218664	OK	0.7178128	-0.6852551	0.1231671	0	-99.039	-25.506	-6.302	B5-03822-P04-CH0	218664	OK	0.7354841	0.1505457	0.6606051	0	-123.42	-36.006	3.437	B5-03822-P04-CH1	218664	OK	0.7057103	-0.7074474	0.038615	0	-108.703	-45.669	-4.02	NA
0.149880952380952	B5-03822-P01-CH0	218672	OK	0.2319147	0.083288	0.0298559	-0.9687039	93.933	-3.785	-265.616	B5-03822-P02-CH0	218672	OK	0.7153277	0.4094366	-0.5662755	0	-81.141	-96.464	4.914	B5-03822-P02-CH1	218672	OK	0.6353753	-0.0643334	-0.7695189	0	-71.991	-75.181	-0.058	B5-03822-P03-CH0	218672	OK	0.6341192	-0.6393095	-0.434944	0	-83.932	-57.175	-2.76	B5-03822-P03-CH1	218672	OK	0.717349	-0.6858252	0.1226956	0	-98.484	-25.735	-6.264	B5-03822-P04-CH0	218672	OK	0.7361097	0.156342	0.6585588	0	-123.568	-37.167	4.486	B5-03822-P04-CH1	218672	OK	0.7056227	-0.7075403	0.0385139	0	-108.543	-45.718	-3.963	NA
0.159873015873016	B5-03822-P01-CH0	218680	OK	0.2321623	0.0832737	0.0301001	-0.9686383	93.94	-3.739	-265.649	B5-03822-P02-CH0	218680	OK	0.7172716	0.4107694	-0.5628409	0	-80.538	-96.401	4.323	B5-03822-P02-CH1	218680	OK	0.6335371	-0.0644383	-0.7710243	0	-72.626	-75.352	1.383	B5-03822-P03-CH0	218680	OK	0.6359286	-0.6430626	-0.4266911	0	-84.805	-57.058	-3.507	B5-03822-P03-CH1	218680	OK	0.7181094	-0.6849131	0.1233405	0	-98.651	-25.572	-5.056	B5-03822-P04-CH0	218680	OK	0.7356757	0.1573841	0.6587955	0	-123.622	-36.04	4.366	B5-03822-P04-CH1	218680	OK	0.7058763	-0.7072904	0.0384563	0	-108.581	-45.615	-4.16	NA
0.169865079365079	B5-03822-P01-CH0	218688	OK	0.2319748	0.0837344	0.029047	-0.9686756	94.081	-3.855	-265.595	B5-03822-P02-CH0	218688	OK	0.717477	0.4126235	-0.5612207	0	-81.07	-96.213	5.663	B5-03822-P02-CH1	218688	OK	0.6349158	-0.069786	-0.769423	0	-71.893	-75.223	0.509	B5-03822-P03-CH0	218688	OK	0.6383239	-0.6456233	-0.4191815	0	-85.001	-57.22	-2.09	B5-03822-P03-CH1	218688	OK	0.7174556	-0.6844914	0.1293409	0	-98.913	-25.767	-6.716	B5-03822-P04-CH0	218688	OK	0.7365871	0.1565663	0.6579715	0	-124.291	-36.123	4.234	B5-03822-P04-CH1	218688	OK	0.7050277	-0.7081421	0.0383503	0	-108.554	-45.81	-4.012	NA
0.179857142857143	B5-03822-P01-CH0	218696	OK	0.2316386	0.0839953	0.0282608	-0.9687568	94.183	-3.9	-265.576	B5-03822-P02-CH0	218696	OK	0.7154465	0.414442	-0.5624714	0	-82.34	-95.627	7.542	B5-03822-P02-CH1	218696	OK	0.6341945	-0.0671543	-0.7702516	0	-72.179	-75.454	0.924	B5-03822-P03-CH0	218696	OK	0.6427099	-0.6494111	-0.4064348	0	-85.222	-57.141	-2.295	B5-03822-P03-CH1	218696	OK	0.7169973	-0.6854026	0.1270363	0	-99.095	-25.739	-6.837	B5-03822-P04-CH0	218696	OK	0.7351922	0.1568895	0.6594529	0	-123.67	-36.582	3.919	B5-03822-P04-CH1	218696	OK	0.7044488	-0.7087419	0.0379058	0	-108.792	-45.851	-3.5	NA
0.189849206349206	B5-03822-P01-CH0	218704	OK	0.2317134	0.0840754	0.0284586	-0.9687261	94.241	-3.811	-265.648	B5-03822-P02-CH0	218704	OK	0.7181347	0.4120324	-0.5608136	0	-81.09	-96.98	5.15	B5-03822-P02-CH1	218704	OK	0.6334422	-0.0660631	-0.7709647	0	-72.442	-75.478	1.28	B5-03822-P03-CH0	218704	OK	0.6480055	-0.6546634	-0.389236	0	-85.864	-57.601	-1.699	B5-03822-P03-CH1	218704	OK	0.7172693	-0.6853448	0.1258063	0	-99.15	-25.653	-6.883	B5-03822-P04-CH0	218704	OK	0.7365041	0.1557295	0.6582629	0	-124.696	-36.669	3.936	B5-03822-P04-CH1	218704	OK	0.7045352	-0.7086487	0.0380416	0	-109.03	-45.818	-3.572	NA
0.19984126984127	B5-03822-P01-CH0	218712	OK	0.2317007	0.0837933	0.0285252	-0.9687517	94.151	-3.849	-265.594	B5-03822-P02-CH0	218712	OK	0.7169952	0.4093841	-0.5642008	0	-80.244	-96.476	5.837	B5-03822-P02-CH1	218712	OK	0.6333013	-0.0657768	-0.771105	0	-72.399	-75.495	1.261	B5-03822-P03-CH0	218712	OK	0.6554424	-0.6584984	-0.3698312	0	-85.465	-58.486	-1.319	B5-03822-P03-CH1	218712	OK	0.7176296	-0.685057	0.1253181	0	-98.994	-25.522	-7.162	B5-03822-P04-CH0	218712	OK	0.7360124	0.1570831	0.6584912	0	-124.587	-37.398	3.173	B5-03822-P04-CH1	218712	OK	0.7045187	-0.7086422	0.038467	0	-109.039	-45.907	-3.659	NA
0.209833333333333	B5-03822-P01-CH0	218720	OK	0.2318595	0.0836779	0.028905	-0.9687124	94.096	-3.81	-265.447	B5-03822-P02-CH0	218720	OK	0.7136336	0.405441	-0.5712658	0	-80.61	-96.427	6.329	B5-03822-P02-CH1	218720	OK	0.632922	-0.0662214	-0.7713783	0	-72.414	-75.684	1.139	B5-03822-P03-CH0	218720	OK	0.668502	-0.6614362	-0.3400106	0	-84.875	-59.119	-1.528	B5-03822-P03-CH1	218720	OK	0.7182308	-0.6843591	0.1256867	0	-99.038	-25.446	-7.559	B5-03822-P04-CH0	218720	OK	0.7364914	0.1540499	0.6586722	0	-124.353	-37.045	3.274	B5-03822-P04-CH1	218720	OK	0.7050226	-0.7081058	0.0391058	0	-109.245	-45.799	-3.856	NA
0.219825396825397	B5-03822-P01-CH0	218728	OK	0.231912	0.08373	0.0288604	-0.9686967	94.128	-3.769	-265.49	B5-03822-P02-CH0	218728	OK	0.7105185	0.399862	-0.5790283	0	-80.584	-96.997	6.185	B5-03822-P02-CH1	218728	OK	0.6327479	-0.0672763	-0.7714298	0	-72.454	-75.806	1.012	B5-03822-P03-CH0	218728	OK	0.6848171	-0.6613335	-0.3060451	0	-86.299	-59.364	-0.992	B5-03822-P03-CH1	218728	OK	0.7184819	-0.6838539	0.1269942	0	-99.047	-25.53	-7.59	B5-03822-P04-CH0	218728	OK	0.736451	0.1557564	0.6583159	0	-124.456	-37.094	3.483	B5-03822-P04-CH1	218728	OK	0.7050123	-0.7080542	0.0402103	0	-109.333	-45.884	-4.117	NA
0.22981746031746	B5-03822-P01-CH0	218736	OK	0.2319447	0.0838344	0.0288652	-0.9686796	94.159	-3.718	-265.49	B5-03822-P02-CH0	218736	OK	0.7064275	0.3923159	-0.5891081	0	-80.564	-97.581	6.144	B5-03822-P02-CH1	218736	OK	0.6348494	-0.0805139	-0.7684294	0	-72.16	-75.591	-0.586	B5-03822-P03-CH0	218736	OK	0.7025105	-0.658576	-0.2697345	0	-87.683	-59.994	-1.058	B5-03822-P03-CH1	218736	OK	0.7188907	-0.6830869	0.1287962	0	-98.986	-25.581	-7.444	B5-03822-P04-CH0	218736	OK	0.7364905	0.1565039	0.6580944	0	-124.649	-37.151	3.372	B5-03822-P04-CH1	218736	OK	0.7051862	-0.7078199	0.0412735	0	-109.44	-45.881	-4.047	NA
0.239809523809524	B5-03822-P01-CH0	218744	OK	0.2319646	0.0838927	0.0290302	-0.9686649	94.196	-3.652	-265.51	B5-03822-P02-CH0	218744	OK	0.7006684	0.3870661	-0.5993694	0	-80.683	-96.854	6.64	B5-03822-P02-CH1	218744	OK	0.638627	-0.086287	-0.7646634	0	-72.77	-76.856	-0.065	B5-03822-P03-CH0	218744	OK	0.7214327	-0.6530887	-0.230239	0	-88.337	-60.425	3.018	B5-03822-P03-CH1	218744	OK	0.7200627	-0.6785271	0.1452952	0	-98.147	-27.335	-6.417	B5-03822-P04-CH0	218744	OK	0.7366164	0.1560003	0.6580731	0	-124.96	-37.202	3.062	B5-03822-P04-CH1	218744	OK	0.7052257	-0.7076751	0.0430433	0	-109.826	-46.053	-4.404	NA
0.249801587301587	B5-03822-P01-CH0	218752	OK	0.2320125	0.0838759	0.0292367	-0.9686487	94.2	-3.573	-265.571	B5-03822-P02-CH0	218752	OK	0.6945914	0.3825713	-0.609247	0	-81.044	-96.473	9.041	B5-03822-P02-CH1	218752	OK	0.64467	-0.0952768	-0.7585005	0	-72.782	-76.722	0.845	B5-03822-P03-CH0	218752	OK	0.7362533	-0.648293	-0.1940291	0	-89.101	-61.49	4.205	B5-03822-P03-CH1	218752	OK	0.7217987	-0.6758183	0.1492523	0	-98.893	-27.046	-4.904	B5-03822-P04-CH0	218752	OK	0.7369778	0.1549114	0.6579256	0	-125.343	-37.24	3.014	B5-03822-P04-CH1	218752	OK	0.7055676	-0.7072168	0.0449314	0	-109.981	-46.055	-4.248	NA
0.259793650793651	B5-03822-P01-CH0	218760	OK	0.2320652	0.0838508	0.029215	-0.9686389	94.218	-3.586	-265.57	B5-03822-P02-CH0	218760	OK	0.6931169	0.376443	-0.6147191	0	-79.91	-97.303	6.511	B5-03822-P02-CH1	218760	OK	0.6496552	-0.1014151	-0.7534342	0	-73.313	-76.562	2.813	B5-03822-P03-CH0	218760	OK	0.7474892	-0.6437326	-0.163915	0	-90.756	-61.816	5.483	B5-03822-P03-CH1	218760	OK	0.7223462	-0.6746631	0.1518081	0	-99.838	-27.132	-5.625	B5-03822-P04-CH0	218760	OK	0.7370326	0.1534374	0.6582096	0	-125.55	-37.55	2.824	B5-03822-P04-CH1	218760	OK	0.7055551	-0.7070623	0.0474861	0	-110.127	-46.394	-4.055	NA
0.269785714285714	B5-03822-P01-CH0	218768	OK	0.2319084	0.0837479	0.0292014	-0.9686857	94.189	-3.536	-265.492	B5-03822-P02-CH0	218768	OK	0.6908917	0.3708664	-0.6205858	0	-79.093	-97.222	5.331	B5-03822-P02-CH1	218768	OK	0.6543482	-0.1055641	-0.7487888	0	-73.843	-77.493	0.273	B5-03822-P03-CH0	218768	OK	0.7542883	-0.6426745	-0.1342336	0	-90.957	-62.432	4.59	B5-03822-P03-CH1	218768	OK	0.7225167	-0.6734032	0.1565175	0	-99.263	-27.513	-4.138	B5-03822-P04-CH0	218768	OK	0.7388855	0.1390241	0.6593334	0	-127.184	-39.815	2.587	B5-03822-P04-CH1	218768	OK	0.7056178	-0.7068346	0.0498844	0	-110.666	-46.582	-4.078	NA
0.279777777777778	B5-03822-P01-CH0	218776	OK	0.2320291	0.0837378	0.029245	-0.9686564	94.19	-3.494	-265.484	B5-03822-P02-CH0	218776	OK	0.6878308	0.3644614	-0.6277394	0	-78.855	-97.648	6.03	B5-03822-P02-CH1	218776	OK	0.6564899	-0.1141661	-0.7456455	0	-74.438	-78.112	1.425	B5-03822-P03-CH0	218776	OK	0.7572081	-0.6437512	-0.110546	0	-90.836	-63.114	6.46	B5-03822-P03-CH1	218776	OK	0.722621	-0.6731669	0.1570514	0	-99.229	-26.907	-7.501	B5-03822-P04-CH0	218776	OK	0.7402804	0.1355567	0.6584902	0	-127.49	-40.862	3.96	B5-03822-P04-CH1	218776	OK	0.7060579	-0.7049319	0.0674771	0	-112.576	-48.578	-2.442	NA
0.289769841269841	B5-03822-P01-CH0	218784	OK	0.2318665	0.08381	0.028542	-0.96871	94.21	-3.567	-265.455	B5-03822-P02-CH0	218784	OK	0.6859979	0.3573182	-0.6338222	0	-78.585	-98.072	6.337	B5-03822-P02-CH1	218784	OK	0.6589218	-0.1240931	-0.7419049	0	-74.06	-77.582	0.402	B5-03822-P03-CH0	218784	OK	0.7581774	-0.6450581	-0.0952213	0	-91.013	-62.944	5.975	B5-03822-P03-CH1	218784	OK	0.7239966	-0.6716984	0.1570039	0	-100.241	-25.626	-7.464	B5-03822-P04-CH0	218784	OK	0.7412511	0.1320207	0.6581165	0	-127.764	-40.9	5.318	B5-03822-P04-CH1	218784	OK	0.7050831	-0.7057124	0.0694823	0	-113.48	-49.049	-5.378	NA
0.299761904761905	B5-03822-P01-CH0	218792	OK	0.2318368	0.0837991	0.0281444	-0.9687297	94.169	-3.561	-265.443	B5-03822-P02-CH0	218792	OK	0.6835918	0.352593	-0.6390465	0	-78.734	-97.561	4.782	B5-03822-P02-CH1	218792	OK	0.6599477	-0.1350302	-0.7390777	0	-73.842	-78.094	-1.686	B5-03822-P03-CH0	218792	OK	0.7572511	-0.6474386	-0.0859885	0	-91.823	-63.472	6.662	B5-03822-P03-CH1	218792	OK	0.7219411	-0.6726995	0.1621001	0	-98.869	-26.978	-7.156	B5-03822-P04-CH0	218792	OK	0.740853	0.129871	0.6589919	0	-127.834	-40.825	5.082	B5-03822-P04-CH1	218792	OK	0.7047342	-0.7056663	0.0733809	0	-113.454	-49.731	-3.9	NA
0.309753968253968	B5-03822-P01-CH0	218800	OK	0.2318213	0.0836209	0.0280018	-0.968753	94.112	-3.55	-265.538	B5-03822-P02-CH0	218800	OK	0.6826171	0.3466224	-0.6433403	0	-78.252	-97.614	5.278	B5-03822-P02-CH1	218800	OK	0.6596256	-0.1459864	-0.7372801	0	-74.258	-78.031	0.593	B5-03822-P03-CH0	218800	OK	0.7569445	-0.6488535	-0.077615	0	-91.451	-64.172	6.447	B5-03822-P03-CH1	218800	OK	0.7229078	-0.6713112	0.1635409	0	-99.718	-26.588	-6.573	B5-03822-P04-CH0	218800	OK	0.7417725	0.1264979	0.6586136	0	-128.693	-41.653	4.697	B5-03822-P04-CH1	218800	OK	0.7040067	-0.7061126	0.0760233	0	-112.681	-50.252	-1.771	NA
0.319746031746032	B5-03822-P01-CH0	218808	OK	0.2318941	0.0835999	0.0282895	-0.968729	94.116	-3.5	-265.579	B5-03822-P02-CH0	218808	OK	0.6816679	0.340956	-0.6473623	0	-78.176	-98.821	5.284	B5-03822-P02-CH1	218808	OK	0.6611112	-0.1543485	-0.7342401	0	-74.284	-78.627	-0.452	B5-03822-P03-CH0	218808	OK	0.7583728	-0.6475551	-0.0744521	0	-91.859	-63.75	7.015	B5-03822-P03-CH1	218808	OK	0.7220248	-0.6742159	0.1552839	0	-99.328	-26.442	-7.517	B5-03822-P04-CH0	218808	OK	0.7423899	0.1256182	0.6580861	0	-129.022	-41.918	4.679	B5-03822-P04-CH1	218808	OK	0.7048536	-0.7062948	0.0657958	0	-112.204	-48.5	-3.967	NA
0.329738095238095	B5-03822-P01-CH0	218816	OK	0.2319931	0.0834147	0.0285125	-0.9687147	94.075	-3.497	-265.601	B5-03822-P02-CH0	218816	OK	0.6799402	0.3351908	-0.6521721	0	-77.906	-98.134	4.754	B5-03822-P02-CH1	218816	OK	0.6630268	-0.1600742	-0.7312809	0	-74.318	-78.825	-0.689	B5-03822-P03-CH0	218816	OK	0.759096	-0.6468265	-0.0734085	0	-93.05	-63.819	6.246	B5-03822-P03-CH1	218816	OK	0.7223797	-0.6732376	0.1578565	0	-99.397	-26.509	-7.541	B5-03822-P04-CH0	218816	OK	0.7413439	0.1235394	0.659657	0	-128.573	-41.305	4.474	B5-03822-P04-CH1	218816	OK	0.7049774	-0.7058745	0.0689063	0	-112.431	-48.869	-4.025	NA
0.339730158730159	B5-03822-P01-CH0	218824	OK	0.2318787	0.0836428	0.027756	-0.9687444	94.179	-3.586	-265.692	B5-03822-P02-CH0	218824	OK	0.676611	0.3296416	-0.658433	0	-78.861	-98.112	7.42	B5-03822-P02-CH1	218824	OK	0.6655207	-0.1663649	-0.7276021	0	-74.313	-78.576	-1.059	B5-03822-P03-CH0	218824	OK	0.75971	-0.6460952	-0.0734962	0	-93.778	-63.685	6.708	B5-03822-P03-CH1	218824	OK	0.721936	-0.6731471	0.160254	0	-99.493	-26.788	-6.857	B5-03822-P04-CH0	218824	OK	0.7413222	0.1235054	0.6596877	0	-128.515	-41.315	4.058	B5-03822-P04-CH1	218824	OK	0.7044915	-0.7061468	0.0710521	0	-112.671	-49.229	-3.739	NA
0.349722222222222	B5-03822-P01-CH0	218832	OK	0.2316442	0.0839653	0.0268778	-0.9687974	94.302	-3.714	-265.639	B5-03822-P02-CH0	218832	OK	0.6771385	0.324004	-0.6606852	0	-78.237	-98.368	5.65	B5-03822-P02-CH1	218832	OK	0.6656318	-0.1718914	-0.7262146	0	-75.058	-78.396	1.209	B5-03822-P03-CH0	218832	OK	0.7581886	-0.6481423	-0.0711453	0	-93.841	-65.186	6.634	B5-03822-P03-CH1	218832	OK	0.7212747	-0.67345	0.1619503	0	-99.573	-27.013	-6.569	B5-03822-P04-CH0	218832	OK	0.7435734	0.1234649	0.6571567	0	-129.139	-42.31	5.058	B5-03822-P04-CH1	218832	OK	0.7038408	-0.7066083	0.0728891	0	-113.049	-49.625	-3.66	NA
0.359714285714286	B5-03822-P01-CH0	218840	OK	0.2316152	0.0839162	0.0271539	-0.9688009	94.302	-3.659	-265.676	B5-03822-P02-CH0	218840	OK	0.6783399	0.3195125	-0.6616394	0	-77.559	-98.943	3.933	B5-03822-P02-CH1	218840	OK	0.6672346	-0.1754058	-0.7238997	0	-75.316	-77.661	2.01	B5-03822-P03-CH0	218840	OK	0.7606613	-0.6449246	-0.0739372	0	-94.173	-64.197	7.88	B5-03822-P03-CH1	218840	OK	0.7213345	-0.6730229	0.1634525	0	-99.575	-27.034	-6.072	B5-03822-P04-CH0	218840	OK	0.741234	0.1265864	0.6592026	0	-128.186	-41.122	4.506	B5-03822-P04-CH1	218840	OK	0.7041379	-0.7061472	0.0744714	0	-113.209	-49.693	-3.642	NA
0.369706349206349	B5-03822-P01-CH0	218848	OK	0.2319522	0.0836487	0.0278667	-0.9687231	94.233	-3.591	-265.788	B5-03822-P02-CH0	218848	OK	0.676478	0.3155983	-0.6654135	0	-78.312	-99.141	5.434	B5-03822-P02-CH1	218848	OK	0.6691114	-0.1821569	-0.720492	0	-75.31	-78.41	0.292	B5-03822-P03-CH0	218848	OK	0.7608165	-0.6447385	-0.073963	0	-93.417	-65.109	7.111	B5-03822-P03-CH1	218848	OK	0.7216764	-0.6723169	0.1648425	0	-99.646	-26.968	-6.12	B5-03822-P04-CH0	218848	OK	0.7414342	0.1251688	0.6592481	0	-128.159	-41.281	4.694	B5-03822-P04-CH1	218848	OK	0.7047586	-0.7053303	0.0763178	0	-113.212	-49.783	-3.67	NA
0.379698412698413	B5-03822-P01-CH0	218856	OK	0.2321365	0.0834751	0.0280594	-0.9686884	94.221	-3.637	-265.859	B5-03822-P02-CH0	218856	OK	0.6753823	0.3136067	-0.667465	0	-78.331	-97.93	7.722	B5-03822-P02-CH1	218856	OK	0.6690727	-0.1884342	-0.7189118	0	-75.881	-79	0.981	B5-03822-P03-CH0	218856	OK	0.7627773	-0.641864	-0.0786212	0	-93.895	-64.598	8.416	B5-03822-P03-CH1	218856	OK	0.721533	-0.6721317	0.16622	0	-99.446	-27.081	-5.872	B5-03822-P04-CH0	218856	OK	0.7415953	0.1238685	0.6593125	0	-128.151	-41.485	4.649	B5-03822-P04-CH1	218856	OK	0.704953	-0.7049841	0.0777082	0	-113.286	-49.971	-3.476	NA
0.389690476190476	B5-03822-P01-CH0	218864	OK	0.2322465	0.0834344	0.028213	-0.9686611	94.212	-3.653	-265.86	B5-03822-P02-CH0	218864	OK	0.677633	0.3124979	-0.6657016	0	-77.623	-98.095	6.152	B5-03822-P02-CH1	218864	OK	0.6704565	-0.1915504	-0.7167961	0	-75.644	-78.198	0.437	B5-03822-P03-CH0	218864	OK	0.7634547	-0.640913	-0.0797965	0	-93.883	-64.971	8.492	B5-03822-P03-CH1	218864	OK	0.7212858	-0.6720354	0.1676758	0	-99.342	-27.283	-5.459	B5-03822-P04-CH0	218864	OK	0.7418583	0.1225857	0.6592565	0	-128.086	-41.656	4.701	B5-03822-P04-CH1	218864	OK	0.7049955	-0.7048016	0.0789687	0	-113.114	-50.17	-3.233	NA
0.39968253968254	B5-03822-P01-CH0	218872	OK	0.232326	0.0834981	0.028474	-0.9686289	94.29	-3.618	-265.9	B5-03822-P02-CH0	218872	OK	0.6789883	0.3119684	-0.664568	0	-77.552	-99.161	5.201	B5-03822-P02-CH1	218872	OK	0.6704657	-0.1940688	-0.7161096	0	-76.303	-78.519	0.552	B5-03822-P03-CH0	218872	OK	0.7643572	-0.6394943	-0.0824928	0	-94.325	-64.852	8.024	B5-03822-P03-CH1	218872	OK	0.7211875	-0.6719675	0.1683691	0	-99.443	-27.302	-5.551	B5-03822-P04-CH0	218872	OK	0.7423086	0.1212668	0.6589934	0	-128.114	-41.787	4.918	B5-03822-P04-CH1	218872	OK	0.7052822	-0.7044484	0.0795574	0	-113.161	-50.172	-3.275	NA
0.409674603174603	B5-03822-P01-CH0	218880	OK	0.2324942	0.0837777	0.0284958	-0.9685638	94.386	-3.608	-265.833	B5-03822-P02-CH0	218880	OK	0.677728	0.312594	-0.6655597	0	-78.225	-99.096	5.457	B5-03822-P02-CH1	218880	OK	0.6723487	-0.196562	-0.71366	0	-75.728	-79.245	0.639	B5-03822-P03-CH0	218880	OK	0.7655932	-0.6381692	-0.081284	0	-93.695	-64.763	8.571	B5-03822-P03-CH1	218880	OK	0.7209746	-0.6719975	0.1691596	0	-99.396	-27.365	-5.533	B5-03822-P04-CH0	218880	OK	0.7426383	0.1200897	0.6588374	0	-128.063	-41.759	4.858	B5-03822-P04-CH1	218880	OK	0.7053907	-0.7042794	0.0800898	0	-113.421	-50.24	-3.295	NA
0.419666666666667	B5-03822-P01-CH0	218888	OK	0.2328141	0.0837852	0.028773	-0.9684781	94.429	-3.595	-265.864	B5-03822-P02-CH0	218888	OK	0.6771474	0.3164132	-0.6643449	0	-78.336	-99.606	5.827	B5-03822-P02-CH1	218888	OK	0.6732396	-0.1986833	-0.7122312	0	-75.876	-79.182	0.034	B5-03822-P03-CH0	218888	OK	0.7657985	-0.6377632	-0.0825274	0	-94.247	-65	8.146	B5-03822-P03-CH1	218888	OK	0.7208132	-0.6719569	0.1700068	0	-99.348	-27.569	-5.335	B5-03822-P04-CH0	218888	OK	0.7429408	0.1192073	0.6586566	0	-127.964	-41.893	4.904	B5-03822-P04-CH1	218888	OK	0.7055244	-0.7040611	0.0808289	0	-113.401	-50.411	-3.326	NA
0.42965873015873	B5-03822-P01-CH0	218896	OK	0.2328727	0.0840007	0.0283229	-0.9684586	94.495	-3.631	-265.858	B5-03822-P02-CH0	218896	OK	0.6771046	0.3139873	-0.6655384	0	-78.268	-99.705	5.93	B5-03822-P02-CH1	218896	OK	0.6729963	-0.1989688	-0.7123815	0	-76.855	-77.943	0.512	B5-03822-P03-CH0	218896	OK	0.7661041	-0.6373184	-0.0831248	0	-94.499	-64.962	8.734	B5-03822-P03-CH1	218896	OK	0.7202682	-0.6724915	0.1702026	0	-99.387	-27.649	-5.345	B5-03822-P04-CH0	218896	OK	0.7432939	0.1177835	0.6585144	0	-127.903	-41.881	4.806	B5-03822-P04-CH1	218896	OK	0.7053601	-0.704216	0.0809132	0	-113.586	-50.433	-2.958	NA
0.439650793650794	B5-03822-P01-CH0	218904	OK	0.2331526	0.0838398	0.0291266	-0.9683813	94.478	-3.549	-265.845	B5-03822-P02-CH0	218904	OK	0.6769753	0.3119	-0.6666505	0	-78.08	-99.68	5.485	B5-03822-P02-CH1	218904	OK	0.6741863	-0.2011964	-0.7106285	0	-76.88	-78.368	1.313	B5-03822-P03-CH0	218904	OK	0.7674907	-0.6353869	-0.0850973	0	-94.977	-64.43	8.245	B5-03822-P03-CH1	218904	OK	0.7206347	-0.6721359	0.1700556	0	-99.29	-27.547	-5.469	B5-03822-P04-CH0	218904	OK	0.7432908	0.1157671	0.6588754	0	-127.725	-41.592	4.514	B5-03822-P04-CH1	218904	OK	0.7059218	-0.7036055	0.081325	0	-113.512	-50.462	-2.681	NA
0.449642857142857	B5-03822-P01-CH0	218912	OK	0.2333848	0.0835111	0.0298915	-0.9683305	94.396	-3.487	-265.912	B5-03822-P02-CH0	218912	OK	0.6768884	0.3099999	-0.6676243	0	-77.863	-99.665	5.44	B5-03822-P02-CH1	218912	OK	0.67651	-0.2028108	-0.7079562	0	-76.704	-78.794	1.606	B5-03822-P03-CH0	218912	OK	0.7679197	-0.6350208	-0.083952	0	-94.381	-64.737	8.351	B5-03822-P03-CH1	218912	OK	0.720757	-0.6720137	0.1700204	0	-99.131	-27.592	-5.542	B5-03822-P04-CH0	218912	OK	0.743534	0.1133501	0.6590212	0	-127.551	-41.422	4.399	B5-03822-P04-CH1	218912	OK	0.7065266	-0.7029993	0.0813145	0	-113.546	-50.354	-2.867	NA
0.459634920634921	B5-03822-P01-CH0	218920	OK	0.233363	0.0835641	0.0296182	-0.9683396	94.423	-3.532	-265.949	B5-03822-P02-CH0	218920	OK	0.6767094	0.3087665	-0.6683769	0	-77.902	-99.597	5.898	B5-03822-P02-CH1	218920	OK	0.6787596	-0.2015622	-0.7061573	0	-77.095	-79.409	0.148	B5-03822-P03-CH0	218920	OK	0.7675035	-0.6355336	-0.0838773	0	-94.072	-65.356	7.955	B5-03822-P03-CH1	218920	OK	0.7202163	-0.6727137	0.1695429	0	-99.073	-27.649	-5.736	B5-03822-P04-CH0	218920	OK	0.7474939	0.0945638	0.6575033	0	-127.686	-41.01	4.74	B5-03822-P04-CH1	218920	OK	0.7063671	-0.7031847	0.0810976	0	-113.613	-50.406	-2.695	NA
0.469626984126984	B5-03822-P01-CH0	218928	OK	0.2333906	0.0835806	0.0293123	-0.9683408	94.416	-3.566	-265.937	B5-03822-P02-CH0	218928	OK	0.6773604	0.3072714	-0.6684064	0	-77.682	-99.826	5.613	B5-03822-P02-CH1	218928	OK	0.6823295	-0.1998504	-0.7031972	0	-77	-78.72	1.002	B5-03822-P03-CH0	218928	OK	0.7691034	-0.633128	-0.087343	0	-94.553	-64.732	8.211	B5-03822-P03-CH1	218928	OK	0.7195068	-0.6735892	0.1690783	0	-99.073	-27.747	-5.714	B5-03822-P04-CH0	218928	OK	0.7465726	0.0868905	0.6596055	0	-126.85	-40.161	3.027	B5-03822-P04-CH1	218928	OK	0.7061893	-0.7034186	0.0806159	0	-113.531	-50.368	-2.63	NA
0.479619047619048	B5-03822-P01-CH0	218936	OK	0.2332258	0.0836213	0.0291402	-0.9683822	94.416	-3.587	-265.945	B5-03822-P02-CH0	218936	OK	0.6774863	0.3062691	-0.6687387	0	-77.758	-100.027	5.478	B5-03822-P02-CH1	218936	OK	0.6852622	-0.1994312	-0.7004591	0	-76.751	-78.445	1.71	B5-03822-P03-CH0	218936	OK	0.7710658	-0.630135	-0.0915828	0	-95.277	-64.097	9.168	B5-03822-P03-CH1	218936	OK	0.7187651	-0.6745998	0.1682017	0	-99.331	-27.794	-5.42	B5-03822-P04-CH0	218936	OK	0.747303	0.0776075	0.6599358	0	-126.572	-38.977	3.103	B5-03822-P04-CH1	218936	OK	0.7060271	-0.7036901	0.0796616	0	-113.483	-50.308	-2.631	NA
0.489611111111111	B5-03822-P01-CH0	218944	OK	0.2331124	0.083688	0.0293054	-0.9683987	94.446	-3.526	-265.995	B5-03822-P02-CH0	218944	OK	0.6770845	0.3050563	-0.6696994	0	-78.013	-100.131	5.726	B5-03822-P02-CH1	218944	OK	0.6863593	-0.1982454	-0.6997212	0	-77.043	-79.385	1.411	B5-03822-P03-CH0	218944	OK	0.7738528	-0.62657	-0.0925304	0	-95.014	-63.556	9.046	B5-03822-P03-CH1	218944	OK	0.7130584	-0.6819831	0.1626247	0	-100.305	-26.71	-6.975	B5-03822-P04-CH0	218944	OK	0.7473714	0.0672292	0.6609963	0	-125.763	-38.648	4.121	B5-03822-P04-CH1	218944	OK	0.7062546	-0.7035784	0.0786247	0	-113.404	-50.133	-2.4	NA
0.499603174603175	B5-03822-P01-CH0	218952	OK	0.2329677	0.0836874	0.0291012	-0.9684398	94.42	-3.577	-265.994	B5-03822-P02-CH0	218952	OK	0.6772112	0.3033331	-0.6703536	0	-78.029	-100.281	5.659	B5-03822-P02-CH1	218952	OK	0.6876009	-0.1942461	-0.6996238	0	-77.247	-79.452	0.955	B5-03822-P03-CH0	218952	OK	0.7749104	-0.6253219	-0.0921215	0	-94.212	-64.386	7.417	B5-03822-P03-CH1	218952	OK	0.7102279	-0.6845582	0.1641842	0	-100.176	-26.562	-7.053	B5-03822-P04-CH0	218952	OK	0.7482467	0.0534542	0.6612636	0	-124.783	-37.57	4.503	B5-03822-P04-CH1	218952	OK	0.706048	-0.7039083	0.0775203	0	-113.316	-50.134	-2.287	NA
0.509595238095238	B5-03822-P01-CH0	218960	OK	0.2327578	0.0836573	0.02916	-0.9684911	94.42	-3.601	-266.023	B5-03822-P02-CH0	218960	OK	0.6773559	0.3014759	-0.6710449	0	-77.98	-100.277	5.734	B5-03822-P02-CH1	218960	OK	0.6905053	-0.1871094	-0.6987078	0	-76.633	-78.939	1.864	B5-03822-P03-CH0	218960	OK	0.777953	-0.6201659	-0.100913	0	-94.998	-63.608	8.517	B5-03822-P03-CH1	218960	OK	0.7085605	-0.6853844	0.1678999	0	-100.224	-26.243	-7.407	B5-03822-P04-CH0	218960	OK	0.7497377	0.0344884	0.6608358	0	-123.982	-36.78	3.732	B5-03822-P04-CH1	218960	OK	0.7061923	-0.7039286	0.0760066	0	-112.923	-49.967	-2.003	NA
0.519587301587302	B5-03822-P01-CH0	218968	OK	0.2324051	0.0835843	0.0288613	-0.968591	94.351	-3.647	-266.019	B5-03822-P02-CH0	218968	OK	0.680611	0.2900275	-0.6727947	0	-77.173	-100.002	4.631	B5-03822-P02-CH1	218968	OK	0.6901228	-0.1795516	-0.7010647	0	-77.892	-78.732	2.974	B5-03822-P03-CH0	218968	OK	0.7808673	-0.6145379	-0.1122027	0	-95.175	-62.649	9.779	B5-03822-P03-CH1	218968	OK	0.7078534	-0.6854	0.1707933	0	-100.74	-24.759	-9.553	B5-03822-P04-CH0	218968	OK	0.7506512	0.0167256	0.660487	0	-122.64	-36.076	4.468	B5-03822-P04-CH1	218968	OK	0.7061459	-0.7042057	0.0738395	0	-112.801	-49.692	-2.216	NA
0.529579365079365	B5-03822-P01-CH0	218976	OK	0.2321563	0.0833645	0.0287748	-0.9686722	94.265	-3.699	-266.02	B5-03822-P02-CH0	218976	OK	0.6799583	0.291139	-0.6729746	0	-78.313	-100.383	4.55	B5-03822-P02-CH1	218976	OK	0.6925967	-0.1708812	-0.700792	0	-77.488	-79.013	2.401	B5-03822-P03-CH0	218976	OK	0.7806868	-0.6136381	-0.118222	0	-94.28	-63.53	10.264	B5-03822-P03-CH1	218976	OK	0.7058707	-0.6859772	0.1765836	0	-100.609	-25.213	-9.844	B5-03822-P04-CH0	218976	OK	0.7521597	0.0027942	0.6589749	0	-121.811	-36.564	5.083	B5-03822-P04-CH1	218976	OK	0.706106	-0.7044595	0.0717715	0	-112.473	-49.539	-2.472	NA
0.539571428571429	B5-03822-P01-CH0	218984	OK	0.2320594	0.083331	0.0286396	-0.9687023	94.195	-3.746	-265.97	B5-03822-P02-CH0	218984	OK	0.680805	0.2916548	-0.6718944	0	-77.954	-99.883	4.532	B5-03822-P02-CH1	218984	OK	0.6953359	-0.1614408	-0.7003176	0	-77.613	-78.85	1.655	B5-03822-P03-CH0	218984	OK	0.7798375	-0.6136537	-0.1236229	0	-94.227	-64.302	8.824	B5-03822-P03-CH1	218984	OK	0.7064364	-0.6848634	0.1786329	0	-101.138	-24.682	-8.908	B5-03822-P04-CH0	218984	OK	0.7529431	-0.0061764	0.6580567	0	-120.785	-36.151	4.048	B5-03822-P04-CH1	218984	OK	0.7062462	-0.7045647	0.0693169	0	-112.307	-49.239	-2.432	NA
0.549563492063492	B5-03822-P01-CH0	218992	OK	0.2319468	0.0832197	0.0286677	-0.968738	94.142	-3.763	-265.969	B5-03822-P02-CH0	218992	OK	0.6806408	0.2941536	-0.6709708	0	-78.437	-100.082	5.083	B5-03822-P02-CH1	218992	OK	0.6975681	-0.1542119	-0.6997267	0	-78.037	-78.996	2.29	B5-03822-P03-CH0	218992	OK	0.781194	-0.6103636	-0.1311191	0	-94.705	-63.466	7.879	B5-03822-P03-CH1	218992	OK	0.7064317	-0.685319	0.1768958	0	-101.278	-24.084	-11.048	B5-03822-P04-CH0	218992	OK	0.7554766	-0.0096463	0.6551046	0	-120.702	-35.595	4.634	B5-03822-P04-CH1	218992	OK	0.7064044	-0.7046208	0.0670992	0	-111.868	-49.02	-2.454	NA
0.559555555555556	B5-03822-P01-CH0	219000	OK	0.232038	0.0833296	0.0288592	-0.968701	94.16	-3.733	-265.95	B5-03822-P02-CH0	219000	OK	0.6795154	0.2949903	-0.6717437	0	-77.987	-99.959	4.601	B5-03822-P02-CH1	219000	OK	0.6984829	-0.1473803	-0.7002862	0	-78.601	-80.196	0.89	B5-03822-P03-CH0	219000	OK	0.7825393	-0.6076419	-0.13566	0	-94.226	-62.706	8.985	B5-03822-P03-CH1	219000	OK	0.7056195	-0.6863718	0.1760535	0	-100.219	-24.742	-11.082	B5-03822-P04-CH0	219000	OK	0.7553924	-0.0094057	0.6552053	0	-119.85	-34.675	4.179	B5-03822-P04-CH1	219000	OK	0.7066116	-0.704601	0.0650961	0	-111.729	-48.872	-2.421	NA
0.569547619047619	B5-03822-P01-CH0	219008	OK	0.2319138	0.0833836	0.0288325	-0.9687269	94.185	-3.729	-265.932	B5-03822-P02-CH0	219008	OK	0.6797895	0.2946171	-0.6716301	0	-78.154	-99.923	4.756	B5-03822-P02-CH1	219008	OK	0.7003066	-0.1427775	-0.6994178	0	-78.026	-79.007	2.077	B5-03822-P03-CH0	219008	OK	0.7818804	-0.6080875	-0.1374506	0	-94.447	-63.216	8.357	B5-03822-P03-CH1	219008	OK	0.7057092	-0.6868099	0.173973	0	-99.844	-25.317	-10.323	B5-03822-P04-CH0	219008	OK	0.7568518	-0.0077529	0.6535406	0	-120.173	-35.401	6.118	B5-03822-P04-CH1	219008	OK	0.7066386	-0.7047826	0.0627965	0	-111.636	-48.723	-2.53	NA
0.579539682539683	B5-03822-P01-CH0	219016	OK	0.2319541	0.0836637	0.0284379	-0.9687048	94.253	-3.706	-265.957	B5-03822-P02-CH0	219016	OK	0.6805557	0.2941588	-0.6710547	0	-78.12	-100.047	4.728	B5-03822-P02-CH1	219016	OK	0.7005489	-0.1426781	-0.6991954	0	-78.312	-79.595	1.532	B5-03822-P03-CH0	219016	OK	0.7817637	-0.6083234	-0.1370699	0	-94.147	-63.515	9.242	B5-03822-P03-CH1	219016	OK	0.707083	-0.6865271	0.1694524	0	-100.255	-24.952	-12.537	B5-03822-P04-CH0	219016	OK	0.7569609	-0.0043092	0.6534459	0	-120.956	-35.246	4.478	B5-03822-P04-CH1	219016	OK	0.7063858	-0.7051868	0.0610788	0	-111.536	-48.642	-2.593	NA
0.589531746031746	B5-03822-P01-CH0	219024	OK	0.232094	0.0837495	0.0282385	-0.9686697	94.284	-3.717	-265.933	B5-03822-P02-CH0	219024	OK	0.6812068	0.2938972	-0.6705086	0	-78.061	-100.237	4.633	B5-03822-P02-CH1	219024	OK	0.7005986	-0.1404317	-0.6996002	0	-77.982	-79.93	2.222	B5-03822-P03-CH0	219024	OK	0.7815378	-0.6086764	-0.1367905	0	-94.622	-63.482	8.756	B5-03822-P03-CH1	219024	OK	0.7077989	-0.686601	0.1661321	0	-99.585	-25.255	-12.449	B5-03822-P04-CH0	219024	OK	0.7564329	0.002358	0.654067	0	-121.164	-35.712	5.245	B5-03822-P04-CH1	219024	OK	0.7062963	-0.7053942	0.0597041	0	-111.43	-48.56	-2.596	NA
0.59952380952381	B5-03822-P01-CH0	219032	OK	0.2322615	0.0837919	0.0282824	-0.9686246	94.294	-3.642	-265.921	B5-03822-P02-CH0	219032	OK	0.6813915	0.2937521	-0.6703845	0	-78.129	-100.434	4.88	B5-03822-P02-CH1	219032	OK	0.6998809	-0.1385758	-0.7006878	0	-78.081	-79.565	3.171	B5-03822-P03-CH0	219032	OK	0.7817596	-0.6089238	-0.1344016	0	-94.32	-63.485	9.773	B5-03822-P03-CH1	219032	OK	0.7105293	-0.6842971	0.1639685	0	-100.288	-24.792	-9.382	B5-03822-P04-CH0	219032	OK	0.7555519	0.0130635	0.6549585	0	-121.876	-36.362	6.414	B5-03822-P04-CH1	219032	OK	0.7064595	-0.705338	0.0584238	0	-111.409	-48.356	-2.642	NA
0.609515873015873	B5-03822-P01-CH0	219040	OK	0.2322672	0.0836727	0.0281388	-0.9686377	94.265	-3.616	-265.991	B5-03822-P02-CH0	219040	OK	0.6811033	0.294088	-0.67053	0	-78.391	-100.559	5.317	B5-03822-P02-CH1	219040	OK	0.6991417	-0.1388284	-0.7013755	0	-77.792	-79.744	3.402	B5-03822-P03-CH0	219040	OK	0.7811975	-0.6098361	-0.1335305	0	-94.494	-63.435	9.65	B5-03822-P03-CH1	219040	OK	0.7113294	-0.6843534	0.1602217	0	-100.215	-25.385	-9.663	B5-03822-P04-CH0	219040	OK	0.7519327	0.0256914	0.6587391	0	-122.069	-36.703	5.392	B5-03822-P04-CH1	219040	OK	0.7063021	-0.7055901	0.0572705	0	-111.349	-48.251	-2.708	NA
0.619507936507937	B5-03822-P01-CH0	219048	OK	0.2323883	0.0836726	0.0284181	-0.9686005	94.293	-3.535	-265.97	B5-03822-P02-CH0	219048	OK	0.6753619	0.2923448	-0.6770678	0	-79.357	-100.056	7.285	B5-03822-P02-CH1	219048	OK	0.6980998	-0.1384417	-0.7024888	0	-77.805	-80.007	2.456	B5-03822-P03-CH0	219048	OK	0.7813617	-0.6100319	-0.1316622	0	-94.205	-63.36	9.409	B5-03822-P03-CH1	219048	OK	0.7127562	-0.6837167	0.1565571	0	-99.913	-26.607	-8.213	B5-03822-P04-CH0	219048	OK	0.748383	0.0390318	0.6621174	0	-121.997	-37.342	6.842	B5-03822-P04-CH1	219048	OK	0.7064385	-0.7055096	0.0565753	0	-111.239	-48.145	-2.505	NA
0.6295	B5-03822-P01-CH0	219056	OK	0.2326201	0.0838465	0.0287383	-0.9685204	94.395	-3.432	-265.999	B5-03822-P02-CH0	219056	OK	0.6735742	0.2877123	-0.6808226	0	-78.927	-100.088	6.584	B5-03822-P02-CH1	219056	OK	0.6955475	-0.13936	-0.7048351	0	-78.396	-79.32	2.755	B5-03822-P03-CH0	219056	OK	0.7813065	-0.6099109	-0.1325476	0	-94.465	-63.297	9.365	B5-03822-P03-CH1	219056	OK	0.7159003	-0.6810143	0.1539685	0	-99.962	-26.794	-6.538	B5-03822-P04-CH0	219056	OK	0.7476096	0.0502724	0.662233	0	-124.322	-37.073	4.342	B5-03822-P04-CH1	219056	OK	0.7065698	-0.7054072	0.0562119	0	-111.42	-48.073	-2.593	NA
0.639492063492064	B5-03822-P01-CH0	219064	OK	0.2328334	0.0837956	0.0290946	-0.9684629	94.439	-3.322	-266.071	B5-03822-P02-CH0	219064	OK	0.6729168	0.2838947	-0.6830715	0	-78.124	-100.469	5.904	B5-03822-P02-CH1	219064	OK	0.6932088	-0.1390263	-0.707201	0	-78.624	-78.738	2.778	B5-03822-P03-CH0	219064	OK	0.7787753	-0.6148071	-0.1245848	0	-94.316	-62.521	9.393	B5-03822-P03-CH1	219064	OK	0.7184632	-0.6784334	0.1534234	0	-99.593	-26.68	-5.639	B5-03822-P04-CH0	219064	OK	0.7448768	0.0560163	0.6648464	0	-124.575	-37.379	3.931	B5-03822-P04-CH1	219064	OK	0.7067311	-0.705242	0.0562569	0	-111.33	-47.998	-2.795	NA
0.649484126984127	B5-03822-P01-CH0	219072	OK	0.2329543	0.0840241	0.0288935	-0.9684201	94.548	-3.308	-266.034	B5-03822-P02-CH0	219072	OK	0.6693238	0.2792121	-0.6885102	0	-78.033	-99.589	7.016	B5-03822-P02-CH1	219072	OK	0.6917703	-0.1423461	-0.7079487	0	-77.723	-78.229	2.978	B5-03822-P03-CH0	219072	OK	0.7751995	-0.6199929	-0.1211382	0	-93.769	-62.653	8.493	B5-03822-P03-CH1	219072	OK	0.7200435	-0.6764155	0.1549178	0	-100.118	-27.499	-4.133	B5-03822-P04-CH0	219072	OK	0.7425356	0.0616623	0.6669623	0	-124.158	-38.251	4.273	B5-03822-P04-CH1	219072	OK	0.7066231	-0.7053492	0.0562698	0	-111.478	-47.925	-2.799	NA
0.659476190476191	B5-03822-P01-CH0	219080	OK	0.2328763	0.083691	0.0287932	-0.9684707	94.45	-3.311	-266.002	B5-03822-P02-CH0	219080	OK	0.6694577	0.2748346	-0.6901394	0	-76.564	-99.462	5.499	B5-03822-P02-CH1	219080	OK	0.6890125	-0.1447988	-0.7101373	0	-77.27	-78.765	1.823	B5-03822-P03-CH0	219080	OK	0.7721734	-0.6236999	-0.1214357	0	-93.69	-62.098	8.754	B5-03822-P03-CH1	219080	OK	0.7222117	-0.6746382	0.1525566	0	-99.849	-26.309	-8.57	B5-03822-P04-CH0	219080	OK	0.7437522	0.069193	0.6648647	0	-125.39	-38.913	5.252	B5-03822-P04-CH1	219080	OK	0.7064885	-0.705494	0.0561448	0	-111.276	-47.788	-2.935	NA
0.669468253968254	B5-03822-P01-CH0	219088	OK	0.2332072	0.083644	0.0294769	-0.9683745	94.488	-3.175	-266.052	B5-03822-P02-CH0	219088	OK	0.6665869	0.2722756	-0.6939222	0	-76.464	-98.814	5.513	B5-03822-P02-CH1	219088	OK	0.6865567	-0.1491494	-0.7116139	0	-76.963	-77.766	2.177	B5-03822-P03-CH0	219088	OK	0.7689438	-0.6277737	-0.1209365	0	-93.673	-62.149	7.417	B5-03822-P03-CH1	219088	OK	0.7237666	-0.6722506	0.1556953	0	-99.435	-27.459	-6.915	B5-03822-P04-CH0	219088	OK	0.7418731	0.0772931	0.6660706	0	-124.79	-38.472	4.946	B5-03822-P04-CH1	219088	OK	0.7069014	-0.7050303	0.0567694	0	-111.298	-47.72	-2.712	NA
0.679460317460318	B5-03822-P01-CH0	219096	OK	0.2330863	0.0835449	0.0292722	-0.9684184	94.479	-3.226	-265.96	B5-03822-P02-CH0	219096	OK	0.6649594	0.2707803	-0.6960654	0	-76.469	-98.96	4.849	B5-03822-P02-CH1	219096	OK	0.6845423	-0.1517834	-0.7129963	0	-76.766	-77.23	3.828	B5-03822-P03-CH0	219096	OK	0.7663713	-0.6299978	-0.1256096	0	-93.878	-61.453	7.312	B5-03822-P03-CH1	219096	OK	0.7239682	-0.6722389	0.1548061	0	-99.316	-27.835	-4.315	B5-03822-P04-CH0	219096	OK	0.7416734	0.0806336	0.665897	0	-125.219	-39.441	4.786	B5-03822-P04-CH1	219096	OK	0.7067644	-0.7051885	0.0565099	0	-111.316	-47.621	-2.703	NA
0.689452380952381	B5-03822-P01-CH0	219104	OK	0.2332979	0.0833923	0.0297435	-0.9683662	94.459	-3.201	-265.929	B5-03822-P02-CH0	219104	OK	0.6634367	0.2678682	-0.6986404	0	-76.169	-99.097	5.33	B5-03822-P02-CH1	219104	OK	0.6829861	-0.1555225	-0.7136825	0	-76.744	-77.393	2.121	B5-03822-P03-CH0	219104	OK	0.7640672	-0.6326203	-0.1264632	0	-92.998	-61.332	7.052	B5-03822-P03-CH1	219104	OK	0.7241546	-0.6722965	0.1536801	0	-99.448	-27.926	-6.079	B5-03822-P04-CH0	219104	OK	0.7409997	0.0825203	0.6664157	0	-125.146	-39.3	4.969	B5-03822-P04-CH1	219104	OK	0.7069606	-0.7049914	0.0565135	0	-111.27	-47.582	-2.92	NA
0.699444444444445	B5-03822-P01-CH0	219112	OK	0.2336073	0.0834234	0.030305	-0.9682715	94.503	-3.139	-265.943	B5-03822-P02-CH0	219112	OK	0.6622347	0.2650307	-0.7008594	0	-75.578	-98.744	4.631	B5-03822-P02-CH1	219112	OK	0.6830388	-0.1561266	-0.7135001	0	-75.853	-77.058	1.999	B5-03822-P03-CH0	219112	OK	0.7613241	-0.6353422	-0.1293286	0	-93.2	-61.397	7.001	B5-03822-P03-CH1	219112	OK	0.7244553	-0.6716174	0.1552245	0	-99.05	-28.221	-5.28	B5-03822-P04-CH0	219112	OK	0.7411801	0.0822885	0.6662437	0	-125.669	-38.566	4.219	B5-03822-P04-CH1	219112	OK	0.7073294	-0.7046133	0.0566144	0	-111.303	-47.489	-2.987	NA
0.709436507936508	B5-03822-P01-CH0	219120	OK	0.2336654	0.0835455	0.0301083	-0.9682531	94.566	-3.145	-265.92	B5-03822-P02-CH0	219120	OK	0.661826	0.2631777	-0.7019429	0	-74.701	-98.546	4.489	B5-03822-P02-CH1	219120	OK	0.6802454	-0.1561084	-0.7161679	0	-76.412	-77.25	2.878	B5-03822-P03-CH0	219120	OK	0.7607535	-0.6354059	-0.1323386	0	-93.07	-59.891	6.814	B5-03822-P03-CH1	219120	OK	0.7257276	-0.670339	0.1548065	0	-99.09	-27.325	-5.582	B5-03822-P04-CH0	219120	OK	0.7395599	0.0809547	0.6682047	0	-124.718	-38.828	4.359	B5-03822-P04-CH1	219120	OK	0.707168	-0.7047813	0.0565403	0	-111.382	-47.429	-3.112	NA
0.719428571428572	B5-03822-P01-CH0	219128	OK	0.2339	0.0838108	0.0300326	-0.9681759	94.693	-3.173	-265.904	B5-03822-P02-CH0	219128	OK	0.6599675	0.2617966	-0.7042055	0	-74.912	-98.468	5.372	B5-03822-P02-CH1	219128	OK	0.6799812	-0.1563366	-0.7163689	0	-75.796	-77.102	2.654	B5-03822-P03-CH0	219128	OK	0.7586105	-0.6379075	-0.1326048	0	-92.556	-60.075	6.783	B5-03822-P03-CH1	219128	OK	0.7268192	-0.6693363	0.1540221	0	-99.987	-27.12	-5.807	B5-03822-P04-CH0	219128	OK	0.7414513	0.0797598	0.6662494	0	-125.555	-38.463	4.535	B5-03822-P04-CH1	219128	OK	0.7069767	-0.7049582	0.0567253	0	-111.435	-47.545	-3.106	NA
0.729420634920635	B5-03822-P01-CH0	219136	OK	0.2340364	0.0837055	0.0302708	-0.9681446	94.65	-3.165	-265.899	B5-03822-P02-CH0	219136	OK	0.6588502	0.2612078	-0.7054693	0	-75.082	-98.953	4.34	B5-03822-P02-CH1	219136	OK	0.6795857	-0.1575783	-0.7164722	0	-75.524	-76.496	1.27	B5-03822-P03-CH0	219136	OK	0.7561512	-0.6405666	-0.1338272	0	-92.581	-60.224	6.293	B5-03822-P03-CH1	219136	OK	0.7266219	-0.6693183	0.1550277	0	-98.955	-27.112	-6.228	B5-03822-P04-CH0	219136	OK	0.7419386	0.0768703	0.6660466	0	-125.297	-38.939	4.304	B5-03822-P04-CH1	219136	OK	0.7071754	-0.7047699	0.0565893	0	-111.274	-47.43	-3.13	NA
0.739412698412699	B5-03822-P01-CH0	219144	OK	0.233973	0.0836179	0.0299194	-0.9681785	94.587	-3.224	-265.808	B5-03822-P02-CH0	219144	OK	0.6566796	0.2613985	-0.7074198	0	-75.267	-98.282	4.755	B5-03822-P02-CH1	219144	OK	0.6775264	-0.1580646	-0.718313	0	-75.901	-76.416	1.258	B5-03822-P03-CH0	219144	OK	0.754068	-0.6427004	-0.1353426	0	-92.523	-59.891	6.2	B5-03822-P03-CH1	219144	OK	0.7250336	-0.6711372	0.1545999	0	-99.341	-27.29	-6.719	B5-03822-P04-CH0	219144	OK	0.7415834	0.0784967	0.6662524	0	-125.042	-38.98	4.765	B5-03822-P04-CH1	219144	OK	0.70691	-0.7050559	0.0563425	0	-111.194	-47.407	-3.003	NA
0.749404761904762	B5-03822-P01-CH0	219152	OK	0.2339153	0.0837159	0.0294639	-0.9681979	94.602	-3.303	-265.752	B5-03822-P02-CH0	219152	OK	0.6544689	0.2615608	-0.7094057	0	-75.376	-97.344	5.402	B5-03822-P02-CH1	219152	OK	0.6760872	-0.1591169	-0.7194358	0	-75.88	-76.481	1.428	B5-03822-P03-CH0	219152	OK	0.7509047	-0.6461086	-0.1366962	0	-91.984	-60.202	5.424	B5-03822-P03-CH1	219152	OK	0.7250826	-0.6710773	0.1546303	0	-99.309	-27.47	-6.533	B5-03822-P04-CH0	219152	OK	0.7413827	0.0792495	0.6663867	0	-124.831	-38.875	4.949	B5-03822-P04-CH1	219152	OK	0.7063893	-0.7055944	0.0561309	0	-111.099	-47.511	-3.057	NA
0.759396825396826	B5-03822-P01-CH0	219160	OK	0.2341467	0.0842418	0.0296959	-0.9680893	94.806	-3.212	-265.734	B5-03822-P02-CH0	219160	OK	0.6550237	0.2621303	-0.708683	0	-74.806	-98.044	5.278	B5-03822-P02-CH1	219160	OK	0.6758616	-0.161567	-0.7191016	0	-75.112	-77.059	1.064	B5-03822-P03-CH0	219160	OK	0.7491851	-0.6470773	-0.1414659	0	-92.71	-59.757	6.383	B5-03822-P03-CH1	219160	OK	0.7252868	-0.6707025	0.1552972	0	-99.489	-27.817	-5.647	B5-03822-P04-CH0	219160	OK	0.7415419	0.079187	0.666217	0	-124.856	-38.669	4.828	B5-03822-P04-CH1	219160	OK	0.7063209	-0.7056477	0.0563214	0	-111.246	-47.611	-3.029	NA
0.769388888888889	B5-03822-P01-CH0	219168	OK	0.233948	0.0842894	0.0290172	-0.9681537	94.802	-3.39	-265.686	B5-03822-P02-CH0	219168	OK	0.6548847	0.2624632	-0.7086883	0	-74.572	-98.663	4.948	B5-03822-P02-CH1	219168	OK	0.6760797	-0.1629139	-0.7185926	0	-74.667	-76.137	0.191	B5-03822-P03-CH0	219168	OK	0.7470191	-0.6492717	-0.1428595	0	-92.306	-59.833	5.768	B5-03822-P03-CH1	219168	OK	0.7251972	-0.6709085	0.1548247	0	-99.579	-27.771	-5.485	B5-03822-P04-CH0	219168	OK	0.7417122	0.0779359	0.6661749	0	-124.724	-38.607	4.843	B5-03822-P04-CH1	219168	OK	0.7057802	-0.7062391	0.0556834	0	-111.046	-47.668	-3.018	NA
0.779380952380953	B5-03822-P01-CH0	219176	OK	0.2341473	0.0843539	0.0295759	-0.968083	94.84	-3.31	-265.734	B5-03822-P02-CH0	219176	OK	0.6544561	0.2628679	-0.7089342	0	-74.077	-98.536	5.448	B5-03822-P02-CH1	219176	OK	0.6740327	-0.1634087	-0.7204009	0	-75.478	-75.139	1.702	B5-03822-P03-CH0	219176	OK	0.7448907	-0.6517385	-0.14274	0	-92.361	-60.359	4.808	B5-03822-P03-CH1	219176	OK	0.7256271	-0.6703997	0.1550148	0	-99.68	-27.749	-5.533	B5-03822-P04-CH0	219176	OK	0.741958	0.0768719	0.6660248	0	-124.615	-38.365	4.93	B5-03822-P04-CH1	219176	OK	0.7060761	-0.705939	0.0557375	0	-110.92	-47.636	-3.074	NA
0.789373015873016	B5-03822-P01-CH0	219184	OK	0.2342601	0.0845732	0.0294607	-0.9680401	94.906	-3.293	-265.792	B5-03822-P02-CH0	219184	OK	0.6545653	0.2627953	-0.7088603	0	-73.433	-98.729	4.59	B5-03822-P02-CH1	219184	OK	0.6743282	-0.1651068	-0.7197369	0	-74.902	-75.589	1.392	B5-03822-P03-CH0	219184	OK	0.7435844	-0.6533327	-0.1422627	0	-91.83	-60.224	4.647	B5-03822-P03-CH1	219184	OK	0.72562	-0.6703519	0.1552547	0	-99.741	-27.762	-5.327	B5-03822-P04-CH0	219184	OK	0.7423704	0.0755246	0.6657193	0	-124.577	-38.211	4.992	B5-03822-P04-CH1	219184	OK	0.7060234	-0.706006	0.0555565	0	-110.858	-47.563	-2.962	NA
0.799365079365079	B5-03822-P01-CH0	219192	OK	0.2340644	0.084535	0.0292879	-0.968096	94.902	-3.37	-265.68	B5-03822-P02-CH0	219192	OK	0.6508284	0.264129	-0.7117993	0	-74.438	-97.616	6.725	B5-03822-P02-CH1	219192	OK	0.6738057	-0.1658594	-0.7200532	0	-74.929	-75.617	1.779	B5-03822-P03-CH0	219192	OK	0.7426162	-0.6534906	-0.1465304	0	-93.082	-59.336	4.686	B5-03822-P03-CH1	219192	OK	0.7255191	-0.6705694	0.154786	0	-99.699	-27.7	-5.544	B5-03822-P04-CH0	219192	OK	0.742744	0.0740969	0.665463	0	-124.536	-38.228	4.902	B5-03822-P04-CH1	219192	OK	0.7058304	-0.7062456	0.0549599	0	-110.747	-47.566	-2.934	NA
