Wav.Time	B5.03822.P01.CH0	Frame	State	Q0	Qx	Qy	Qz	Tx	Ty	Tz	B5.03822.P02.CH0	Frame.1	State.1	Q0.1	Qx.1	Qy.1	Qz.1	Tx.1	Ty.1	Tz.1	B5.03822.P02.CH1	Frame.2	State.2	Q0.2	Qx.2	Qy.2	Qz.2	Tx.2	Ty.2	Tz.2	B5.03822.P03.CH0	Frame.3	State.3	Q0.3	Qx.3	Qy.3	Qz.3	Tx.3	Ty.3	Tz.3	B5.03822.P03.CH1	Frame.4	State.4	Q0.4	Qx.4	Qy.4	Qz.4	Tx.4	Ty.4	Tz.4	B5.03822.P04.CH0	Frame.5	State.5	Q0.5	Qx.5	Qy.5	Qz.5	Tx.5	Ty.5	Tz.5	B5.03822.P04.CH1	Frame.6	State.6	Q0.6	Qx.6	Qy.6	Qz.6	Tx.6	Ty.6	Tz.6	X
0	B5-03822-P01-CH0	2072768	OK	0.2063413	0.1118658	0.127131	-0.9637152	148.894	-27.431	-251.994	B5-03822-P02-CH0	2072768	OK	0.6209015	0.4029147	-0.6724144	0	-83.067	-104.707	-0.512	B5-03822-P02-CH1	2072768	OK	0.7504389	0.0568829	-0.6584875	0	-83.973	-79.493	-0.733	B5-03822-P03-CH0	2072768	OK	0.7681399	-0.1312251	-0.6266905	0	-96.432	-56.27	2.156	B5-03822-P03-CH1	2072768	OK	0.7636378	-0.6382803	0.09724	0	-97.766	-11.402	-4.324	B5-03822-P04-CH0	2072768	OK	0.7669211	-0.4411516	0.4660658	0	-126.067	-42.574	15.839	B5-03822-P04-CH1	2072768	OK	0.8060309	-0.586639	0.0785421	0	-107.69	-43.643	-0.868	NA
0.0099921329075848	B5-03822-P01-CH0	2072776	OK	0.2062004	0.1121826	0.1268066	-0.9637513	148.969	-27.446	-251.915	B5-03822-P02-CH0	2072776	OK	0.6211615	0.4006724	-0.6735132	0	-83.082	-105.226	-1.482	B5-03822-P02-CH1	2072776	OK	0.7515827	0.0565135	-0.6572136	0	-84.055	-79.627	-0.727	B5-03822-P03-CH0	2072776	OK	0.7679314	-0.1318941	-0.6268057	0	-98.014	-55.995	0.903	B5-03822-P03-CH1	2072776	OK	0.7636589	-0.638328	0.0967592	0	-97.814	-11.081	-4.854	B5-03822-P04-CH0	2072776	OK	0.7671536	-0.4409445	0.4658791	0	-126.203	-42.607	15.732	B5-03822-P04-CH1	2072776	OK	0.8057158	-0.586989	0.0791579	0	-107.869	-43.874	-0.792	NA
0.0199842658151696	B5-03822-P01-CH0	2072784	OK	0.2060334	0.1123446	0.1261607	-0.9638529	149.026	-27.537	-251.926	B5-03822-P02-CH0	2072784	OK	0.6205442	0.3991577	-0.67498	0	-83.694	-106.369	-0.419	B5-03822-P02-CH1	2072784	OK	0.7532361	0.0574396	-0.6552374	0	-83.78	-79.718	0.073	B5-03822-P03-CH0	2072784	OK	0.7724737	-0.1307889	-0.6214328	0	-96.909	-56.327	1.86	B5-03822-P03-CH1	2072784	OK	0.7634534	-0.6386219	0.0964414	0	-97.859	-10.986	-5.024	B5-03822-P04-CH0	2072784	OK	0.7670289	-0.4405023	0.4665023	0	-126.205	-43.108	16.244	B5-03822-P04-CH1	2072784	OK	0.805416	-0.5873316	0.0796657	0	-108.045	-43.947	-0.906	NA
0.0299763987227544	B5-03822-P01-CH0	2072792	OK	0.2058173	0.1121431	0.1260747	-0.9639338	148.897	-27.58	-251.842	B5-03822-P02-CH0	2072792	OK	0.618152	0.3967473	-0.6785865	0	-83.78	-104.803	0.781	B5-03822-P02-CH1	2072792	OK	0.7533961	0.0587607	-0.6549363	0	-84.366	-79.538	-0.518	B5-03822-P03-CH0	2072792	OK	0.7748487	-0.1328321	-0.6180332	0	-97.135	-56.818	1.86	B5-03822-P03-CH1	2072792	OK	0.7635495	-0.6385423	0.0962074	0	-97.733	-10.788	-5.312	B5-03822-P04-CH0	2072792	OK	0.7673001	-0.4406391	0.4659267	0	-126.163	-42.902	15.906	B5-03822-P04-CH1	2072792	OK	0.8053392	-0.5873836	0.0800587	0	-108.065	-43.952	-1.132	NA
0.0399685316303392	B5-03822-P01-CH0	2072800	OK	0.2059018	0.1120364	0.1262243	-0.9639085	148.838	-27.575	-251.788	B5-03822-P02-CH0	2072800	OK	0.617224	0.3943178	-0.6808437	0	-83.969	-104.259	0.667	B5-03822-P02-CH1	2072800	OK	0.7552712	0.0585435	-0.6527925	0	-84.053	-79.711	-0.239	B5-03822-P03-CH0	2072800	OK	0.7768114	-0.1344245	-0.6152187	0	-97.391	-57.112	1.526	B5-03822-P03-CH1	2072800	OK	0.7637668	-0.6382619	0.096343	0	-97.699	-10.638	-5.582	B5-03822-P04-CH0	2072800	OK	0.7675672	-0.4402937	0.4658134	0	-126.133	-42.867	15.589	B5-03822-P04-CH1	2072800	OK	0.8055638	-0.586995	0.0806466	0	-108.142	-43.931	-1.307	NA
0.049960664537924	B5-03822-P01-CH0	2072808	OK	0.2058117	0.1121767	0.1263982	-0.9638887	148.836	-27.495	-251.693	B5-03822-P02-CH0	2072808	OK	0.6195206	0.3915811	-0.680337	0	-83.333	-104.514	-0.842	B5-03822-P02-CH1	2072808	OK	0.7563556	0.0578516	-0.6515976	0	-84.044	-79.91	-0.902	B5-03822-P03-CH0	2072808	OK	0.7776513	-0.1339238	-0.6142661	0	-98.049	-57.094	1.844	B5-03822-P03-CH1	2072808	OK	0.764134	-0.6378662	0.0960515	0	-97.727	-10.346	-5.667	B5-03822-P04-CH0	2072808	OK	0.7680212	-0.4393548	0.4659515	0	-126.258	-42.977	15.756	B5-03822-P04-CH1	2072808	OK	0.805539	-0.58695	0.0812192	0	-108.138	-43.983	-1.553	NA
0.0599527974455088	B5-03822-P01-CH0	2072816	OK	0.2058616	0.1123463	0.1262441	-0.9638785	148.954	-27.491	-251.705	B5-03822-P02-CH0	2072816	OK	0.6194104	0.391924	-0.6802399	0	-84.388	-106.173	0.496	B5-03822-P02-CH1	2072816	OK	0.7558242	0.0560073	-0.6523749	0	-84.802	-80.585	-1.212	B5-03822-P03-CH0	2072816	OK	0.7798802	-0.1338775	-0.611444	0	-97.707	-57.805	2.807	B5-03822-P03-CH1	2072816	OK	0.7644588	-0.6375768	0.0953866	0	-97.749	-9.92	-6.131	B5-03822-P04-CH0	2072816	OK	0.7683882	-0.4387256	0.4659393	0	-126.467	-42.908	15.632	B5-03822-P04-CH1	2072816	OK	0.8055971	-0.5867668	0.0819639	0	-108.378	-44.093	-1.348	NA
0.0699449303530936	B5-03822-P01-CH0	2072824	OK	0.205888	0.1125655	0.1262092	-0.9638518	149.015	-27.41	-251.683	B5-03822-P02-CH0	2072824	OK	0.6224117	0.3892975	-0.6790074	0	-83.112	-105.634	-2.094	B5-03822-P02-CH1	2072824	OK	0.7562772	0.0573582	-0.6517322	0	-84.947	-80.111	-1.141	B5-03822-P03-CH0	2072824	OK	0.7806638	-0.1331756	-0.6105966	0	-98.101	-57.817	2.974	B5-03822-P03-CH1	2072824	OK	0.7646896	-0.6373427	0.0951001	0	-97.798	-9.632	-6.33	B5-03822-P04-CH0	2072824	OK	0.768819	-0.4376183	0.4662699	0	-126.739	-42.943	15.625	B5-03822-P04-CH1	2072824	OK	0.8056059	-0.586666	0.0825962	0	-108.566	-44.024	-1.689	NA
0.0799370632606784	B5-03822-P01-CH0	2072832	OK	0.2056823	0.1125592	0.1258921	-0.963938	148.996	-27.419	-251.606	B5-03822-P02-CH0	2072832	OK	0.6209216	0.3957367	-0.6766453	0	-83.785	-105.786	-0.716	B5-03822-P02-CH1	2072832	OK	0.7562228	0.0587571	-0.6516706	0	-85.594	-80.672	-0.379	B5-03822-P03-CH0	2072832	OK	0.7810392	-0.1321804	-0.6103328	0	-98.905	-58.074	2.531	B5-03822-P03-CH1	2072832	OK	0.7643897	-0.6376609	0.0953781	0	-97.823	-9.731	-6.437	B5-03822-P04-CH0	2072832	OK	0.7688316	-0.4371613	0.4666776	0	-126.836	-42.899	15.376	B5-03822-P04-CH1	2072832	OK	0.8053058	-0.5869812	0.0832802	0	-108.662	-44.268	-1.572	NA
0.0899291961682632	B5-03822-P01-CH0	2072840	OK	0.2058161	0.1126007	0.1262011	-0.9638642	149.032	-27.373	-251.643	B5-03822-P02-CH0	2072840	OK	0.6208	0.393992	-0.677774	0	-83.786	-105.813	-0.652	B5-03822-P02-CH1	2072840	OK	0.7582683	0.0629273	-0.6488985	0	-85.168	-80.64	-1.326	B5-03822-P03-CH0	2072840	OK	0.7830861	-0.1289141	-0.6084056	0	-98.786	-57.732	2.09	B5-03822-P03-CH1	2072840	OK	0.7643995	-0.6375867	0.095795	0	-97.863	-9.946	-6.371	B5-03822-P04-CH0	2072840	OK	0.7692386	-0.4361123	0.4669883	0	-126.927	-42.876	15.267	B5-03822-P04-CH1	2072840	OK	0.8054917	-0.5865946	0.0842019	0	-108.832	-44.475	-1.437	NA
0.099921329075848	B5-03822-P01-CH0	2072848	OK	0.2059875	0.1121374	0.1266377	-0.9638243	148.872	-27.259	-251.77	B5-03822-P02-CH0	2072848	OK	0.6208483	0.3925832	-0.6785469	0	-83.744	-105.682	-0.681	B5-03822-P02-CH1	2072848	OK	0.7590655	0.0682814	-0.6474236	0	-85.137	-80.974	-0.669	B5-03822-P03-CH0	2072848	OK	0.7858727	-0.1240523	-0.6058178	0	-98.066	-58.1	2.202	B5-03822-P03-CH1	2072848	OK	0.7638956	-0.6379564	0.0973402	0	-97.971	-10.72	-5.707	B5-03822-P04-CH0	2072848	OK	0.769444	-0.4356162	0.4671129	0	-126.722	-42.498	14.93	B5-03822-P04-CH1	2072848	OK	0.8057932	-0.5860653	0.0849985	0	-108.754	-44.465	-1.467	NA
0.109913461983433	B5-03822-P01-CH0	2072856	OK	0.206166	0.1116204	0.1271901	-0.9637734	148.696	-27.193	-251.882	B5-03822-P02-CH0	2072856	OK	0.6209493	0.3917135	-0.6789569	0	-83.661	-105.481	-0.743	B5-03822-P02-CH1	2072856	OK	0.758496	0.0730527	-0.6475702	0	-86.167	-81.82	0.635	B5-03822-P03-CH0	2072856	OK	0.7845159	-0.1193172	-0.6085213	0	-99.271	-58.483	2.117	B5-03822-P03-CH1	2072856	OK	0.7622291	-0.6394862	0.1003203	0	-98.257	-12.741	-4.156	B5-03822-P04-CH0	2072856	OK	0.7698092	-0.434265	0.4677688	0	-126.635	-42.592	15.143	B5-03822-P04-CH1	2072856	OK	0.8063438	-0.5852274	0.0855483	0	-108.71	-44.369	-1.43	NA
0.119905594891018	B5-03822-P01-CH0	2072864	OK	0.2058654	0.1118985	0.126721	-0.9638672	148.719	-27.194	-251.844	B5-03822-P02-CH0	2072864	OK	0.6244608	0.3984227	-0.6717947	0	-84.341	-106.703	-1.484	B5-03822-P02-CH1	2072864	OK	0.7603885	0.0803165	-0.6444832	0	-85.969	-81.46	0.303	B5-03822-P03-CH0	2072864	OK	0.7843486	-0.1090107	-0.6106668	0	-99.15	-58.67	3.141	B5-03822-P03-CH1	2072864	OK	0.7559808	-0.6483392	0.0902737	0	-99.02	-14.85	-1.558	B5-03822-P04-CH0	2072864	OK	0.7699783	-0.4346167	0.4671636	0	-126.732	-42.115	14.692	B5-03822-P04-CH1	2072864	OK	0.8059764	-0.585702	0.0857625	0	-108.845	-44.647	-1.015	NA
0.129897727798602	B5-03822-P01-CH0	2072872	OK	0.2061343	0.11181	0.1275166	-0.963715	148.744	-27.122	-251.889	B5-03822-P02-CH0	2072872	OK	0.6253189	0.4077705	-0.6653567	0	-84.724	-107.83	-2.837	B5-03822-P02-CH1	2072872	OK	0.7618992	0.0860732	-0.641951	0	-86.055	-81.915	0.915	B5-03822-P03-CH0	2072872	OK	0.7851826	-0.095872	-0.6117981	0	-98.086	-58.325	3.345	B5-03822-P03-CH1	2072872	OK	0.7561332	-0.650061	0.0753881	0	-98.771	-11.925	-2.2	B5-03822-P04-CH0	2072872	OK	0.7704901	-0.4348484	0.4661028	0	-126.573	-41.595	14.205	B5-03822-P04-CH1	2072872	OK	0.8064858	-0.5849626	0.0860197	0	-108.825	-44.809	-0.757	NA
0.139889860706187	B5-03822-P01-CH0	2072880	OK	0.2060921	0.1118074	0.1276811	-0.9637026	148.772	-27.166	-251.888	B5-03822-P02-CH0	2072880	OK	0.6246469	0.4209688	-0.6577245	0	-84.886	-107.937	-2.595	B5-03822-P02-CH1	2072880	OK	0.7630646	0.0944303	-0.6393867	0	-86.791	-82.081	0.203	B5-03822-P03-CH0	2072880	OK	0.7818854	-0.0791227	-0.6183808	0	-98.13	-58.14	2.136	B5-03822-P03-CH1	2072880	OK	0.7518355	-0.6560477	0.0659153	0	-99.743	-12.694	-0.893	B5-03822-P04-CH0	2072880	OK	0.7707126	-0.4370926	0.4636293	0	-126.192	-40.643	13.614	B5-03822-P04-CH1	2072880	OK	0.8066495	-0.584733	0.0860467	0	-108.86	-45.001	-0.467	NA
0.149881993613772	B5-03822-P01-CH0	2072888	OK	0.2060162	0.111759	0.1275473	-0.9637422	148.726	-27.202	-251.827	B5-03822-P02-CH0	2072888	OK	0.6229062	0.4392035	-0.6473701	0	-85.999	-109.035	-2.52	B5-03822-P02-CH1	2072888	OK	0.764314	0.1026258	-0.6366255	0	-87.363	-81.931	-0.511	B5-03822-P03-CH0	2072888	OK	0.7759626	-0.0644701	-0.6274757	0	-99.03	-58.391	3.674	B5-03822-P03-CH1	2072888	OK	0.7468505	-0.6623733	0.0589569	0	-100.414	-13.948	-0.205	B5-03822-P04-CH0	2072888	OK	0.7678372	-0.4475503	0.4583936	0	-125.218	-43.869	16.925	B5-03822-P04-CH1	2072888	OK	0.8065834	-0.5848514	0.0858608	0	-108.97	-45.206	-0.148	NA
0.159874126521357	B5-03822-P01-CH0	2072896	OK	0.2056515	0.1116115	0.1273485	-0.9638634	148.655	-27.2	-251.916	B5-03822-P02-CH0	2072896	OK	0.6181701	0.4658705	-0.6331117	0	-87.167	-108.109	0.332	B5-03822-P02-CH1	2072896	OK	0.7648706	0.1080292	-0.6350611	0	-87.41	-81.806	1.014	B5-03822-P03-CH0	2072896	OK	0.7730065	-0.0471344	-0.6326447	0	-97.629	-57.378	4.352	B5-03822-P03-CH1	2072896	OK	0.744185	-0.6661083	0.0498847	0	-100.433	-13.528	1.144	B5-03822-P04-CH0	2072896	OK	0.7664905	-0.4533242	0.4549611	0	-123.885	-42.534	17.486	B5-03822-P04-CH1	2072896	OK	0.8064099	-0.585197	0.0851324	0	-108.872	-45.256	0.093	NA
0.169866259428942	B5-03822-P01-CH0	2072904	OK	0.2054883	0.1111988	0.1276953	-0.9639	148.519	-27.174	-251.938	B5-03822-P02-CH0	2072904	OK	0.6151528	0.4922258	-0.615874	0	-88.11	-107.469	0.55	B5-03822-P02-CH1	2072904	OK	0.7636091	0.1106507	-0.636127	0	-87.591	-81.136	-0.168	B5-03822-P03-CH0	2072904	OK	0.7671929	-0.0389578	-0.6402323	0	-97.476	-57.309	4.046	B5-03822-P03-CH1	2072904	OK	0.7419068	-0.6692595	0.0408176	0	-100.725	-12.277	-0.184	B5-03822-P04-CH0	2072904	OK	0.766333	-0.4488953	0.459594	0	-124.227	-41.688	16.104	B5-03822-P04-CH1	2072904	OK	0.8067568	-0.5848594	0.0841597	0	-108.692	-45.04	0.128	NA
0.179858392336526	B5-03822-P01-CH0	2072912	OK	0.2053587	0.1110794	0.1276755	-0.9639441	148.462	-27.183	-251.966	B5-03822-P02-CH0	2072912	OK	0.6154495	0.5160137	-0.5957783	0	-88.81	-107.827	0.785	B5-03822-P02-CH1	2072912	OK	0.7623576	0.1095082	-0.6378235	0	-86.742	-80.289	0.996	B5-03822-P03-CH0	2072912	OK	0.7601302	-0.0320547	-0.6489797	0	-97.341	-56.346	2.407	B5-03822-P03-CH1	2072912	OK	0.740969	-0.6706979	0.0336046	0	-101.436	-11.019	-0.583	B5-03822-P04-CH0	2072912	OK	0.7650173	-0.4408387	0.4694782	0	-123.231	-42.266	18.068	B5-03822-P04-CH1	2072912	OK	0.8068223	-0.584892	0.083301	0	-108.696	-44.984	0.198	NA
0.189850525244111	B5-03822-P01-CH0	2072920	OK	0.2050314	0.1109398	0.1275441	-0.9640472	148.38	-27.162	-251.976	B5-03822-P02-CH0	2072920	OK	0.6176611	0.5354934	-0.5759701	0	-88.371	-107.213	0.589	B5-03822-P02-CH1	2072920	OK	0.7601936	0.1052647	-0.6411124	0	-85.492	-79.19	-0.045	B5-03822-P03-CH0	2072920	OK	0.7528963	-0.0320871	-0.6573565	0	-96.746	-56.685	4.333	B5-03822-P03-CH1	2072920	OK	0.7385943	-0.6736567	0.0257906	0	-100.745	-11.481	1.432	B5-03822-P04-CH0	2072920	OK	0.7652506	-0.4403203	0.4695845	0	-122.268	-37.841	13.479	B5-03822-P04-CH1	2072920	OK	0.8067367	-0.5851673	0.0821896	0	-108.647	-44.9	0.287	NA
0.199842658151696	B5-03822-P01-CH0	2072928	OK	0.2049599	0.111104	0.1276222	-0.9640332	148.455	-27.18	-251.902	B5-03822-P02-CH0	2072928	OK	0.6160559	0.5518344	-0.5620978	0	-88.435	-104.563	0.485	B5-03822-P02-CH1	2072928	OK	0.7533043	0.0958275	-0.6506533	0	-84.926	-79.019	-1.118	B5-03822-P03-CH0	2072928	OK	0.7457773	-0.034236	-0.6653151	0	-95.966	-55.367	1.837	B5-03822-P03-CH1	2072928	OK	0.7408664	-0.6715415	0.0122022	0	-99.79	-8.151	0.466	B5-03822-P04-CH0	2072928	OK	0.7659976	-0.4308425	0.4770979	0	-122.903	-37.985	13.483	B5-03822-P04-CH1	2072928	OK	0.8069094	-0.5850754	0.0811418	0	-108.614	-44.892	0.579	NA
0.209834791059281	B5-03822-P01-CH0	2072936	OK	0.2046702	0.1111623	0.127604	-0.9640904	148.455	-27.156	-251.828	B5-03822-P02-CH0	2072936	OK	0.618009	0.5651614	-0.5464956	0	-88.504	-104.722	0.869	B5-03822-P02-CH1	2072936	OK	0.7426076	0.0876904	-0.6639612	0	-84.039	-77.907	-1.934	B5-03822-P03-CH0	2072936	OK	0.7377912	-0.0368146	-0.6740243	0	-95.444	-54.488	0.626	B5-03822-P03-CH1	2072936	OK	0.735011	-0.6779511	0.0118756	0	-100.44	-11.594	2.298	B5-03822-P04-CH0	2072936	OK	0.7664514	-0.420691	0.4853569	0	-123.74	-37.942	12.035	B5-03822-P04-CH1	2072936	OK	0.8068433	-0.5853171	0.0800488	0	-108.566	-44.84	0.625	NA
0.219826923966866	B5-03822-P01-CH0	2072944	OK	0.204365	0.110655	0.1276258	-0.9642106	148.314	-27.222	-251.836	B5-03822-P02-CH0	2072944	OK	0.6176062	0.577728	-0.5336599	0	-88.152	-103.38	0.53	B5-03822-P02-CH1	2072944	OK	0.7306667	0.0812061	-0.6778877	0	-81.698	-75.239	-2.762	B5-03822-P03-CH0	2072944	OK	0.7305846	-0.0399262	-0.6816539	0	-94.136	-53.364	-0.091	B5-03822-P03-CH1	2072944	OK	0.7275078	-0.6859149	0.0159114	0	-101.616	-17.103	5.775	B5-03822-P04-CH0	2072944	OK	0.7669379	-0.4081379	0.4952068	0	-124.16	-39.024	13.964	B5-03822-P04-CH1	2072944	OK	0.8069412	-0.5853489	0.0788199	0	-108.214	-44.501	0.26	NA
0.22981905687445	B5-03822-P01-CH0	2072952	OK	0.2037262	0.1108303	0.1267385	-0.9644427	148.312	-27.236	-251.744	B5-03822-P02-CH0	2072952	OK	0.6129396	0.5906517	-0.5248195	0	-88.26	-100.533	1.986	B5-03822-P02-CH1	2072952	OK	0.7179512	0.0717139	-0.6923895	0	-80.79	-74.238	-3.228	B5-03822-P03-CH0	2072952	OK	0.7228735	-0.0479079	-0.6893176	0	-93.449	-52.601	-0.149	B5-03822-P03-CH1	2072952	OK	0.7270401	-0.6865388	0.0087858	0	-101.434	-16.378	5.497	B5-03822-P04-CH0	2072952	OK	0.7662248	-0.3954805	0.5064531	0	-124.907	-39.895	14.955	B5-03822-P04-CH1	2072952	OK	0.8064746	-0.5861678	0.0774991	0	-108.29	-44.258	0.226	NA
0.239811189782035	B5-03822-P01-CH0	2072960	OK	0.2033179	0.1110111	0.1260696	-0.9645957	148.38	-27.217	-251.798	B5-03822-P02-CH0	2072960	OK	0.6113814	0.6006764	-0.5151705	0	-87.864	-99.511	1.79	B5-03822-P02-CH1	2072960	OK	0.7097267	0.0680919	-0.7011786	0	-79.356	-73.577	-2.895	B5-03822-P03-CH0	2072960	OK	0.7154547	-0.0624279	-0.6958644	0	-93.687	-52.222	-1.2	B5-03822-P03-CH1	2072960	OK	0.7270267	-0.686592	0.0048529	0	-101.178	-16.339	5.384	B5-03822-P04-CH0	2072960	OK	0.7652497	-0.3821875	0.5180015	0	-125.776	-39.771	13.704	B5-03822-P04-CH1	2072960	OK	0.8060431	-0.5869072	0.0763837	0	-108.29	-44.042	0.101	NA
0.24980332268962	B5-03822-P01-CH0	2072968	OK	0.2031192	0.1108681	0.1260764	-0.9646531	148.361	-27.146	-251.855	B5-03822-P02-CH0	2072968	OK	0.6092083	0.6090986	-0.5078033	0	-87.638	-98.63	1.885	B5-03822-P02-CH1	2072968	OK	0.7035275	0.0678258	-0.707424	0	-77.788	-72.409	-2.941	B5-03822-P03-CH0	2072968	OK	0.7124089	-0.0775568	-0.6974657	0	-92.538	-52.316	0.279	B5-03822-P03-CH1	2072968	OK	0.7290651	-0.684423	0.005407	0	-101.488	-16.781	6.17	B5-03822-P04-CH0	2072968	OK	0.7650411	-0.3694127	0.5274907	0	-126.182	-39.832	13.962	B5-03822-P04-CH1	2072968	OK	0.8061106	-0.5869215	0.0755574	0	-108.129	-43.664	-0.223	NA
0.259795455597205	B5-03822-P01-CH0	2072976	OK	0.2030505	0.1109207	0.1257163	-0.9647085	148.364	-27.197	-251.763	B5-03822-P02-CH0	2072976	OK	0.6103635	0.6140255	-0.5004289	0	-86.921	-98.556	0.965	B5-03822-P02-CH1	2072976	OK	0.6964017	0.0673871	-0.7144814	0	-77.903	-72.854	-2.519	B5-03822-P03-CH0	2072976	OK	0.7099264	-0.0934118	-0.6980536	0	-91.883	-52.199	-1.441	B5-03822-P03-CH1	2072976	OK	0.7322904	-0.6809281	0.0093622	0	-101.77	-17.323	5.474	B5-03822-P04-CH0	2072976	OK	0.7651823	-0.3553511	0.5368627	0	-127.059	-41.159	13.449	B5-03822-P04-CH1	2072976	OK	0.8060565	-0.5870542	0.0751019	0	-108.211	-43.468	-0.411	NA
0.26978758850479	B5-03822-P01-CH0	2072984	OK	0.2030263	0.1108461	0.1252983	-0.9647766	148.375	-27.264	-251.771	B5-03822-P02-CH0	2072984	OK	0.6097061	0.6185666	-0.4956147	0	-86.211	-97.266	0.372	B5-03822-P02-CH1	2072984	OK	0.6906342	0.0672692	-0.7200689	0	-77.786	-72.775	-3.46	B5-03822-P03-CH0	2072984	OK	0.7070204	-0.1048518	-0.699377	0	-91.035	-52.261	-0.985	B5-03822-P03-CH1	2072984	OK	0.7438234	-0.6683628	0.0042382	0	-100.552	-9.883	0.508	B5-03822-P04-CH0	2072984	OK	0.7650853	-0.3552525	0.5370662	0	-126.384	-38.292	11.101	B5-03822-P04-CH1	2072984	OK	0.8056911	-0.5875359	0.0752559	0	-108.157	-43.699	-0.296	NA
0.279779721412375	B5-03822-P01-CH0	2072992	OK	0.2028174	0.1109521	0.12466	-0.964891	148.384	-27.307	-251.661	B5-03822-P02-CH0	2072992	OK	0.6098727	0.6201981	-0.4933656	0	-85.439	-97.169	-0.328	B5-03822-P02-CH1	2072992	OK	0.6856527	0.0650316	-0.7250181	0	-76.723	-71.835	-2.72	B5-03822-P03-CH0	2072992	OK	0.7025413	-0.11299	-0.7026158	0	-91.228	-51.666	-0.696	B5-03822-P03-CH1	2072992	OK	0.7383987	-0.6737254	0.0293488	0	-101.581	-16.997	4.042	B5-03822-P04-CH0	2072992	OK	0.7656256	-0.3565242	0.5354511	0	-127.837	-42.854	14.398	B5-03822-P04-CH1	2072992	OK	0.8054633	-0.5879089	0.0747788	0	-108.087	-43.448	-0.472	NA
0.289771854319959	B5-03822-P01-CH0	2073000	OK	0.2026843	0.1110213	0.1238357	-0.9650171	148.408	-27.448	-251.498	B5-03822-P02-CH0	2073000	OK	0.6084036	0.6207603	-0.4944711	0	-85.845	-97.597	-0.072	B5-03822-P02-CH1	2073000	OK	0.6810965	0.0585218	-0.7298512	0	-75.844	-70.53	-3.282	B5-03822-P03-CH0	2073000	OK	0.7031734	-0.1188017	-0.701023	0	-90.814	-50.575	-2.329	B5-03822-P03-CH1	2073000	OK	0.7464331	-0.6649803	0.0252742	0	-100.156	-10.785	-0.926	B5-03822-P04-CH0	2073000	OK	0.7645433	-0.3648254	0.5313907	0	-125.95	-40.376	12.768	B5-03822-P04-CH1	2073000	OK	0.8050194	-0.5885201	0.0747524	0	-108.03	-43.603	-0.242	NA
0.299763987227544	B5-03822-P01-CH0	2073008	OK	0.202623	0.1109341	0.1239212	-0.9650291	148.447	-27.433	-251.586	B5-03822-P02-CH0	2073008	OK	0.6100486	0.621248	-0.4918248	0	-85.059	-98.306	-1.096	B5-03822-P02-CH1	2073008	OK	0.6771968	0.0503409	-0.7340779	0	-75.785	-70.76	-2.833	B5-03822-P03-CH0	2073008	OK	0.7044914	-0.1217088	-0.6991987	0	-90.957	-51.775	-1.502	B5-03822-P03-CH1	2073008	OK	0.7457124	-0.6653069	0.0357744	0	-99.926	-13.253	0.742	B5-03822-P04-CH0	2073008	OK	0.7652273	-0.3601055	0.5336208	0	-127.263	-41.837	13.462	B5-03822-P04-CH1	2073008	OK	0.8049665	-0.58861	0.0746141	0	-107.987	-43.579	-0.34	NA
0.309756120135129	B5-03822-P01-CH0	2073016	OK	0.202853	0.1108793	0.1240798	-0.9649667	148.538	-27.432	-251.64	B5-03822-P02-CH0	2073016	OK	0.6077199	0.6235194	-0.4918334	0	-85.557	-97.755	2.174	B5-03822-P02-CH1	2073016	OK	0.6779324	0.0429366	-0.7338693	0	-74.323	-71.05	-2.45	B5-03822-P03-CH0	2073016	OK	0.7070137	-0.1190399	-0.6971091	0	-90.594	-52.242	-0.232	B5-03822-P03-CH1	2073016	OK	0.7472615	-0.6631666	0.0425482	0	-100.41	-13.318	0.242	B5-03822-P04-CH0	2073016	OK	0.7649754	-0.3601676	0.53394	0	-127.21	-41.556	13.561	B5-03822-P04-CH1	2073016	OK	0.8051059	-0.5883954	0.0748018	0	-108	-43.659	-0.163	NA
0.319748253042714	B5-03822-P01-CH0	2073024	OK	0.2029575	0.1112117	0.1239705	-0.9649205	148.588	-27.343	-251.458	B5-03822-P02-CH0	2073024	OK	0.6092324	0.622286	-0.4915241	0	-85.237	-97.482	1.225	B5-03822-P02-CH1	2073024	OK	0.6767816	0.0325251	-0.735465	0	-74.914	-71.423	-3.085	B5-03822-P03-CH0	2073024	OK	0.7079133	-0.1136702	-0.6970924	0	-90.906	-51.937	-0.573	B5-03822-P03-CH1	2073024	OK	0.7484338	-0.6617645	0.0437573	0	-99.727	-12.583	-0.475	B5-03822-P04-CH0	2073024	OK	0.764838	-0.3585015	0.5352565	0	-127.547	-41.941	14.436	B5-03822-P04-CH1	2073024	OK	0.8052079	-0.5882615	0.0747571	0	-108.169	-43.477	-0.155	NA
0.329740385950299	B5-03822-P01-CH0	2073032	OK	0.2034011	0.1111963	0.1244227	-0.9647706	148.665	-27.311	-251.465	B5-03822-P02-CH0	2073032	OK	0.6117394	0.6181	-0.4936875	0	-84.611	-97.874	0.098	B5-03822-P02-CH1	2073032	OK	0.6768343	0.0211787	-0.7358307	0	-75.103	-71.417	-2.577	B5-03822-P03-CH0	2073032	OK	0.7094578	-0.1044336	-0.6969672	0	-90.712	-52.184	-1.507	B5-03822-P03-CH1	2073032	OK	0.7510994	-0.6584368	0.0480691	0	-99.651	-12.196	0.469	B5-03822-P04-CH0	2073032	OK	0.7649899	-0.358015	0.535365	0	-128.154	-42.643	14.213	B5-03822-P04-CH1	2073032	OK	0.8055664	-0.587713	0.0752077	0	-108.2	-43.481	-0.233	NA
0.339732518857883	B5-03822-P01-CH0	2073040	OK	0.203672	0.1108213	0.1249406	-0.9646897	148.521	-27.223	-251.376	B5-03822-P02-CH0	2073040	OK	0.6152043	0.6077046	-0.5022138	0	-83.516	-98.072	-0.502	B5-03822-P02-CH1	2073040	OK	0.6793389	0.0081733	-0.7337792	0	-74.696	-71.004	-3.117	B5-03822-P03-CH0	2073040	OK	0.711942	-0.0946819	-0.6958261	0	-90.461	-52.453	-0.142	B5-03822-P03-CH1	2073040	OK	0.7538134	-0.6551033	0.0510393	0	-99.711	-11.37	0.856	B5-03822-P04-CH0	2073040	OK	0.7651511	-0.3584272	0.5348586	0	-127.392	-41.542	13.399	B5-03822-P04-CH1	2073040	OK	0.8059822	-0.5871037	0.0755118	0	-108.06	-43.411	-0.153	NA
0.349724651765468	B5-03822-P01-CH0	2073048	OK	0.2038138	0.1108229	0.1250354	-0.9646473	148.517	-27.256	-251.264	B5-03822-P02-CH0	2073048	OK	0.6183867	0.5893096	-0.5199154	0	-82.84	-98.33	0.408	B5-03822-P02-CH1	2073048	OK	0.6823584	-0.006093	-0.7309924	0	-75.214	-71.538	-2.211	B5-03822-P03-CH0	2073048	OK	0.7124737	-0.0827818	-0.6967987	0	-91.317	-52.985	-0.192	B5-03822-P03-CH1	2073048	OK	0.752452	-0.6564224	0.0540898	0	-98.875	-12.591	-0.216	B5-03822-P04-CH0	2073048	OK	0.7635948	-0.3668285	0.5313755	0	-126.877	-41.907	13.654	B5-03822-P04-CH1	2073048	OK	0.8060731	-0.5869789	0.0755109	0	-108.06	-43.493	-0.096	NA
0.359716784673053	B5-03822-P01-CH0	2073056	OK	0.2041206	0.1105886	0.125638	-0.964531	148.496	-27.176	-251.287	B5-03822-P02-CH0	2073056	OK	0.623743	0.5616866	-0.5435557	0	-81.811	-99.41	-0.787	B5-03822-P02-CH1	2073056	OK	0.6894325	-0.0210261	-0.7240447	0	-75.422	-71.4	-2.665	B5-03822-P03-CH0	2073056	OK	0.7133824	-0.0664071	-0.6976214	0	-91.418	-52.896	-0.547	B5-03822-P03-CH1	2073056	OK	0.7535371	-0.6547179	0.0593826	0	-98.914	-12.821	-0.728	B5-03822-P04-CH0	2073056	OK	0.7638734	-0.3713492	0.5278231	0	-126.433	-42.083	14.968	B5-03822-P04-CH1	2073056	OK	0.8063082	-0.5866252	0.0757494	0	-107.904	-43.625	-0.097	NA
0.369708917580638	B5-03822-P01-CH0	2073064	OK	0.2040454	0.1106301	0.125415	-0.9645712	148.477	-27.188	-251.179	B5-03822-P02-CH0	2073064	OK	0.6281541	0.5308793	-0.5688494	0	-80.772	-99.881	-1.675	B5-03822-P02-CH1	2073064	OK	0.6969418	-0.03226	-0.7164017	0	-76.665	-72.116	-3.237	B5-03822-P03-CH0	2073064	OK	0.7128189	-0.0469849	-0.6997726	0	-91.19	-52.937	-1.057	B5-03822-P03-CH1	2073064	OK	0.756009	-0.6518477	0.0595395	0	-98.353	-10.997	-2.433	B5-03822-P04-CH0	2073064	OK	0.7641429	-0.3756423	0.5243839	0	-127.093	-41.84	13.398	B5-03822-P04-CH1	2073064	OK	0.8063222	-0.5866691	0.0752592	0	-107.863	-43.478	-0.043	NA
0.379701050488223	B5-03822-P01-CH0	2073072	OK	0.2044076	0.1102626	0.1260477	-0.9644541	148.396	-27.07	-251.231	B5-03822-P02-CH0	2073072	OK	0.6264704	0.5014794	-0.596702	0	-81.298	-99.068	0.203	B5-03822-P02-CH1	2073072	OK	0.7094005	-0.0420015	-0.7035529	0	-76.048	-72.808	-3.559	B5-03822-P03-CH0	2073072	OK	0.7090252	-0.0247112	-0.7047501	0	-90.639	-53.545	-0.165	B5-03822-P03-CH1	2073072	OK	0.7568017	-0.6504533	0.064511	0	-98.555	-11.5	-2.702	B5-03822-P04-CH0	2073072	OK	0.7636135	-0.3782278	0.5232954	0	-126.029	-41.51	14.961	B5-03822-P04-CH1	2073072	OK	0.8068209	-0.5859875	0.0752243	0	-107.759	-43.359	0.001	NA
0.389693183395807	B5-03822-P01-CH0	2073080	OK	0.2047289	0.1103816	0.1263388	-0.9643342	148.412	-26.933	-251.145	B5-03822-P02-CH0	2073080	OK	0.6286328	0.4712812	-0.6186394	0	-80.425	-98.5	-0.383	B5-03822-P02-CH1	2073080	OK	0.7198072	-0.0535978	-0.6921018	0	-77.246	-73.231	-3.208	B5-03822-P03-CH0	2073080	OK	0.7020594	-0.0075869	-0.712078	0	-91.336	-54.138	-0.255	B5-03822-P03-CH1	2073080	OK	0.7573764	-0.6491593	0.0705206	0	-98.889	-12.629	-1.68	B5-03822-P04-CH0	2073080	OK	0.7636546	-0.3768288	0.524244	0	-126.529	-42.379	15.776	B5-03822-P04-CH1	2073080	OK	0.8071035	-0.5856367	0.0749242	0	-107.733	-43.039	-0.406	NA
0.399685316303392	B5-03822-P01-CH0	2073088	OK	0.2046629	0.1104338	0.1258281	-0.964409	148.347	-26.968	-250.97	B5-03822-P02-CH0	2073088	OK	0.6350349	0.4410575	-0.6341915	0	-79.324	-99.348	-1.403	B5-03822-P02-CH1	2073088	OK	0.7298434	-0.0627313	-0.68073	0	-78.708	-73.488	-2.524	B5-03822-P03-CH0	2073088	OK	0.6973717	0.0035162	-0.716701	0	-91.543	-54.998	0.471	B5-03822-P03-CH1	2073088	OK	0.7590686	-0.6471404	0.0708815	0	-98.585	-11.825	-2.576	B5-03822-P04-CH0	2073088	OK	0.7626695	-0.3804045	0.5230943	0	-125.948	-42.011	15.885	B5-03822-P04-CH1	2073088	OK	0.8068835	-0.5859806	0.0746045	0	-107.646	-42.93	-0.59	NA
0.409677449210977	B5-03822-P01-CH0	2073096	OK	0.2046187	0.1105888	0.1254053	-0.9644557	148.295	-26.932	-250.794	B5-03822-P02-CH0	2073096	OK	0.6421064	0.4093382	-0.6481834	0	-78.1	-99.154	-2.457	B5-03822-P02-CH1	2073096	OK	0.7412769	-0.0713893	-0.667392	0	-79.621	-73.47	-2.783	B5-03822-P03-CH0	2073096	OK	0.6940022	0.0119372	-0.7198739	0	-92.65	-54.957	-0.485	B5-03822-P03-CH1	2073096	OK	0.7606659	-0.6452779	0.0707376	0	-97.763	-10.645	-3.242	B5-03822-P04-CH0	2073096	OK	0.7619985	-0.3830123	0.5221684	0	-125.876	-41.691	15.033	B5-03822-P04-CH1	2073096	OK	0.8066623	-0.5863474	0.0741123	0	-107.623	-42.757	-0.799	NA
0.419669582118562	B5-03822-P01-CH0	2073104	OK	0.204733	0.1102807	0.1255466	-0.9644484	148.196	-26.942	-250.798	B5-03822-P02-CH0	2073104	OK	0.6459831	0.3789809	-0.6626306	0	-77.854	-97.163	-2.261	B5-03822-P02-CH1	2073104	OK	0.7533519	-0.0816273	-0.652532	0	-80.723	-73.71	-1.951	B5-03822-P03-CH0	2073104	OK	0.697804	0.0242104	-0.7158795	0	-90.876	-52.753	-0.616	B5-03822-P03-CH1	2073104	OK	0.7606264	-0.6449725	0.0738777	0	-97.627	-10.961	-3.674	B5-03822-P04-CH0	2073104	OK	0.7622927	-0.3888428	0.5174081	0	-125.382	-39.539	13.567	B5-03822-P04-CH1	2073104	OK	0.8066376	-0.5863847	0.0740861	0	-107.467	-42.8	-0.984	NA
0.429661715026147	B5-03822-P01-CH0	2073112	OK	0.2046648	0.1102429	0.1256132	-0.9644585	148.168	-26.915	-250.811	B5-03822-P02-CH0	2073112	OK	0.6539951	0.3502399	-0.6705389	0	-77.706	-99.148	-3.297	B5-03822-P02-CH1	2073112	OK	0.763483	-0.0893644	-0.6396152	0	-82.294	-74.002	-1.563	B5-03822-P03-CH0	2073112	OK	0.7008236	0.0283784	-0.7127699	0	-91.679	-52.531	-1.441	B5-03822-P03-CH1	2073112	OK	0.7584554	-0.6465306	0.0821192	0	-98.208	-13.773	-1.639	B5-03822-P04-CH0	2073112	OK	0.7619247	-0.3920481	0.5155279	0	-125.59	-39.206	12.512	B5-03822-P04-CH1	2073112	OK	0.8066661	-0.5864178	0.0735122	0	-107.428	-42.709	-0.949	NA
0.439653847933731	B5-03822-P01-CH0	2073120	OK	0.204725	0.110406	0.1255304	-0.9644378	148.172	-26.891	-250.717	B5-03822-P02-CH0	2073120	OK	0.6579298	0.3271563	-0.6783046	0	-77.526	-97.434	-1.89	B5-03822-P02-CH1	2073120	OK	0.77216	-0.0941163	-0.6284195	0	-83.369	-73.818	-1.814	B5-03822-P03-CH0	2073120	OK	0.7040236	0.0305382	-0.7095197	0	-92.028	-52.295	0.232	B5-03822-P03-CH1	2073120	OK	0.7598991	-0.6446689	0.0833987	0	-98.261	-12.937	-2.079	B5-03822-P04-CH0	2073120	OK	0.7619664	-0.3935667	0.5143078	0	-125.902	-39.703	12.817	B5-03822-P04-CH1	2073120	OK	0.8064597	-0.5867353	0.0732423	0	-107.417	-42.693	-1.103	NA
0.449645980841316	B5-03822-P01-CH0	2073128	OK	0.2045657	0.1106695	0.1249154	-0.9645213	148.226	-26.878	-250.737	B5-03822-P02-CH0	2073128	OK	0.6639603	0.308522	-0.6811541	0	-77.108	-96.74	-2.952	B5-03822-P02-CH1	2073128	OK	0.7797908	-0.0974832	-0.6184038	0	-83.914	-73.73	-0.567	B5-03822-P03-CH0	2073128	OK	0.7080543	0.0297331	-0.7055317	0	-92.284	-51.828	-0.188	B5-03822-P03-CH1	2073128	OK	0.7640767	-0.6403439	0.0783994	0	-97.068	-8.643	-5.168	B5-03822-P04-CH0	2073128	OK	0.7612465	-0.3989475	0.5112188	0	-125.566	-39.841	13.239	B5-03822-P04-CH1	2073128	OK	0.8059558	-0.5874642	0.0729456	0	-107.421	-42.684	-1.002	NA
0.459638113748901	B5-03822-P01-CH0	2073136	OK	0.2042865	0.111138	0.1244494	-0.9645868	148.272	-26.876	-250.505	B5-03822-P02-CH0	2073136	OK	0.6681815	0.2951914	-0.6829316	0	-77.783	-96.698	-1.996	B5-03822-P02-CH1	2073136	OK	0.7860005	-0.0981288	-0.6103884	0	-84.382	-74.02	-0.213	B5-03822-P03-CH0	2073136	OK	0.7130884	0.0280579	-0.7005125	0	-92.145	-52.318	-0.444	B5-03822-P03-CH1	2073136	OK	0.7600795	-0.6433882	0.0912725	0	-98.28	-13.496	-2.403	B5-03822-P04-CH0	2073136	OK	0.7607837	-0.4004948	0.5106975	0	-126.535	-41.294	13.261	B5-03822-P04-CH1	2073136	OK	0.8056087	-0.5880163	0.0723287	0	-107.486	-42.518	-1.072	NA
0.469630246656486	B5-03822-P01-CH0	2073144	OK	0.2044088	0.1113366	0.1243112	-0.9645558	148.245	-26.894	-250.369	B5-03822-P02-CH0	2073144	OK	0.6727607	0.2873772	-0.6817679	0	-78.608	-98.191	-3.809	B5-03822-P02-CH1	2073144	OK	0.7905382	-0.0951405	-0.6049773	0	-85.308	-74.596	-0.166	B5-03822-P03-CH0	2073144	OK	0.7158327	0.0223008	-0.6979157	0	-93.515	-53.451	0.76	B5-03822-P03-CH1	2073144	OK	0.7625699	-0.6405009	0.0908062	0	-97.436	-11.088	-4.439	B5-03822-P04-CH0	2073144	OK	0.7610924	-0.4036943	0.5077099	0	-126.919	-41.187	12.926	B5-03822-P04-CH1	2073144	OK	0.8054209	-0.5882646	0.0724015	0	-107.498	-42.464	-1.342	NA
0.479622379564071	B5-03822-P01-CH0	2073152	OK	0.2039606	0.1117275	0.1235489	-0.9647034	148.264	-26.957	-250.283	B5-03822-P02-CH0	2073152	OK	0.6757109	0.2863339	-0.6792847	0	-78.651	-97.895	-3.093	B5-03822-P02-CH1	2073152	OK	0.7946221	-0.087952	-0.6006998	0	-85.92	-74.515	0.289	B5-03822-P03-CH0	2073152	OK	0.7212596	0.0174026	-0.6924461	0	-93.914	-52.652	0.372	B5-03822-P03-CH1	2073152	OK	0.7625879	-0.6400836	0.0935557	0	-97.935	-11.297	-3.569	B5-03822-P04-CH0	2073152	OK	0.7613606	-0.4052116	0.5060964	0	-127.54	-42.322	14.743	B5-03822-P04-CH1	2073152	OK	0.8047416	-0.5892333	0.0720768	0	-107.489	-42.346	-1.659	NA
0.489614512471655	B5-03822-P01-CH0	2073160	OK	0.2038886	0.1114661	0.124037	-0.9646863	148.15	-26.937	-250.343	B5-03822-P02-CH0	2073160	OK	0.6773091	0.2882619	-0.6768733	0	-78.864	-98.094	-3.967	B5-03822-P02-CH1	2073160	OK	0.7966908	-0.0803799	-0.5990183	0	-86.966	-75.064	-0.306	B5-03822-P03-CH0	2073160	OK	0.7281304	0.0077652	-0.6853947	0	-94.24	-52.976	-0.805	B5-03822-P03-CH1	2073160	OK	0.7631238	-0.6395683	0.0927069	0	-96.546	-9.975	-6.026	B5-03822-P04-CH0	2073160	OK	0.7619484	-0.4078638	0.5030723	0	-127.707	-42.25	14.619	B5-03822-P04-CH1	2073160	OK	0.804712	-0.5892263	0.0724638	0	-107.462	-42.468	-1.653	NA
0.49960664537924	B5-03822-P01-CH0	2073168	OK	0.2038577	0.1117553	0.1238101	-0.9646885	148.17	-26.971	-250.262	B5-03822-P02-CH0	2073168	OK	0.6758532	0.2898315	-0.6776579	0	-80.365	-98.742	-2.205	B5-03822-P02-CH1	2073168	OK	0.8005093	-0.072733	-0.5948906	0	-86.619	-75.16	0.24	B5-03822-P03-CH0	2073168	OK	0.7341238	-0.0024955	-0.679011	0	-94.826	-53.186	0.272	B5-03822-P03-CH1	2073168	OK	0.762039	-0.6402574	0.0967835	0	-96.893	-10.711	-5.983	B5-03822-P04-CH0	2073168	OK	0.7612269	-0.4091601	0.5031119	0	-128.141	-43.307	14.164	B5-03822-P04-CH1	2073168	OK	0.8044204	-0.5895841	0.0727895	0	-107.692	-42.546	-1.649	NA
0.509598778286825	B5-03822-P01-CH0	2073176	OK	0.203754	0.1118731	0.1238253	-0.9646948	148.146	-26.955	-250.289	B5-03822-P02-CH0	2073176	OK	0.6777197	0.2891114	-0.6760996	0	-79.604	-98.06	-2.273	B5-03822-P02-CH1	2073176	OK	0.8024426	-0.0683014	-0.5928076	0	-86.982	-75.355	0.219	B5-03822-P03-CH0	2073176	OK	0.7392023	-0.0127059	-0.6733636	0	-95.081	-53.355	1.098	B5-03822-P03-CH1	2073176	OK	0.7628303	-0.6392786	0.097019	0	-97.133	-9.655	-7.391	B5-03822-P04-CH0	2073176	OK	0.7623531	-0.4181802	0.4939058	0	-127.102	-38.824	11.385	B5-03822-P04-CH1	2073176	OK	0.8042648	-0.5897258	0.0733596	0	-107.789	-42.581	-1.647	NA
0.51959091119441	B5-03822-P01-CH0	2073184	OK	0.2034413	0.1120298	0.1233589	-0.9648023	148.105	-26.961	-250.32	B5-03822-P02-CH0	2073184	OK	0.6796834	0.2871696	-0.6749549	0	-79.205	-98.005	-3.319	B5-03822-P02-CH1	2073184	OK	0.8039497	-0.0662013	-0.5910011	0	-87.116	-75.72	1.011	B5-03822-P03-CH0	2073184	OK	0.741636	-0.0217942	-0.6704484	0	-95.085	-53.522	0.817	B5-03822-P03-CH1	2073184	OK	0.7630289	-0.6386239	0.0997314	0	-97.78	-10.11	-5.82	B5-03822-P04-CH0	2073184	OK	0.7614408	-0.4149973	0.497981	0	-128	-42.778	14.718	B5-03822-P04-CH1	2073184	OK	0.8038458	-0.5902706	0.0735702	0	-107.808	-42.482	-1.738	NA
0.529583044101995	B5-03822-P01-CH0	2073192	OK	0.2033442	0.112129	0.1234084	-0.964805	148.036	-26.913	-250.242	B5-03822-P02-CH0	2073192	OK	0.6790475	0.2853099	-0.6763821	0	-80.007	-98.585	-2.6	B5-03822-P02-CH1	2073192	OK	0.8032537	-0.0659193	-0.5919782	0	-87.779	-76.346	1.073	B5-03822-P03-CH0	2073192	OK	0.7410162	-0.0285369	-0.6708804	0	-95.307	-53.965	0.75	B5-03822-P03-CH1	2073192	OK	0.7621821	-0.6393157	0.1017541	0	-97.082	-10.9	-5.061	B5-03822-P04-CH0	2073192	OK	0.7615962	-0.4206028	0.4930158	0	-128.001	-41.852	13.758	B5-03822-P04-CH1	2073192	OK	0.8037534	-0.5903299	0.0741021	0	-108.01	-42.419	-1.964	NA
0.539575177009579	B5-03822-P01-CH0	2073200	OK	0.2032134	0.1122355	0.1235861	-0.9647974	148.013	-26.893	-250.275	B5-03822-P02-CH0	2073200	OK	0.6799809	0.285914	-0.6751883	0	-79.271	-97.515	-2.423	B5-03822-P02-CH1	2073200	OK	0.8044534	-0.0605899	-0.5909176	0	-86.919	-76.102	0.103	B5-03822-P03-CH0	2073200	OK	0.7394717	-0.0316476	-0.6724433	0	-95.08	-53.742	0.075	B5-03822-P03-CH1	2073200	OK	0.7622854	-0.6394531	0.100103	0	-96.124	-10.462	-5.618	B5-03822-P04-CH0	2073200	OK	0.7610105	-0.4257443	0.4894944	0	-127.796	-42.088	13.435	B5-03822-P04-CH1	2073200	OK	0.803711	-0.5902965	0.074825	0	-108.193	-42.583	-1.711	NA
0.549567309917164	B5-03822-P01-CH0	2073208	OK	0.203042	0.1122017	0.1238979	-0.9647974	147.913	-26.909	-250.216	B5-03822-P02-CH0	2073208	OK	0.6810971	0.2876397	-0.6733276	0	-79.543	-98.97	-4.011	B5-03822-P02-CH1	2073208	OK	0.8033513	-0.0533955	-0.5931067	0	-86.852	-76.039	0.639	B5-03822-P03-CH0	2073208	OK	0.7383914	-0.034209	-0.6735042	0	-94.714	-54.004	0.863	B5-03822-P03-CH1	2073208	OK	0.7638796	-0.6385939	0.0931974	0	-96.613	-8.834	-6.622	B5-03822-P04-CH0	2073208	OK	0.7607525	-0.4318504	0.4845212	0	-126.539	-40.77	13.601	B5-03822-P04-CH1	2073208	OK	0.8037806	-0.5901261	0.0754187	0	-108.378	-42.713	-1.595	NA
0.559559442824749	B5-03822-P01-CH0	2073216	OK	0.2029543	0.1124811	0.1234838	-0.9648364	147.918	-26.927	-250.166	B5-03822-P02-CH0	2073216	OK	0.6824768	0.2897777	-0.6710099	0	-79.293	-99.217	-4.982	B5-03822-P02-CH1	2073216	OK	0.8027485	-0.0466009	-0.5944941	0	-86.622	-76.049	0.843	B5-03822-P03-CH0	2073216	OK	0.7367367	-0.0356509	-0.6752392	0	-94.78	-53.593	0.279	B5-03822-P03-CH1	2073216	OK	0.7632112	-0.6390264	0.0956755	0	-96.695	-9.37	-6.518	B5-03822-P04-CH0	2073216	OK	0.7604327	-0.4307898	0.4859654	0	-127.193	-43.155	15.44	B5-03822-P04-CH1	2073216	OK	0.8033869	-0.590572	0.0761197	0	-108.547	-42.834	-1.673	NA
0.569551575732334	B5-03822-P01-CH0	2073224	OK	0.2025549	0.1125385	0.12358	-0.9649013	147.915	-26.892	-250.283	B5-03822-P02-CH0	2073224	OK	0.6803328	0.2918435	-0.6722906	0	-79.989	-97.717	-2.221	B5-03822-P02-CH1	2073224	OK	0.8017597	-0.0419797	-0.5961703	0	-86.659	-76.05	1.192	B5-03822-P03-CH0	2073224	OK	0.735117	-0.0334647	-0.6771138	0	-94.227	-53.584	2.122	B5-03822-P03-CH1	2073224	OK	0.7632328	-0.6388771	0.0964971	0	-96.647	-9.356	-6.455	B5-03822-P04-CH0	2073224	OK	0.7613822	-0.4378862	0.478072	0	-127.019	-40.169	12.748	B5-03822-P04-CH1	2073224	OK	0.8032803	-0.5907026	0.0762313	0	-108.757	-42.867	-1.583	NA
0.579543708639919	B5-03822-P01-CH0	2073232	OK	0.2025124	0.112595	0.12403	-0.9648459	147.936	-26.916	-250.332	B5-03822-P02-CH0	2073232	OK	0.6808968	0.2904465	-0.6723246	0	-80.285	-98.181	-2.875	B5-03822-P02-CH1	2073232	OK	0.8020279	-0.0388265	-0.5960233	0	-85.877	-75.853	0.195	B5-03822-P03-CH0	2073232	OK	0.7326444	-0.0318055	-0.6798681	0	-94.336	-53.307	0.161	B5-03822-P03-CH1	2073232	OK	0.7631097	-0.6387541	0.0982687	0	-96.789	-9.755	-6.523	B5-03822-P04-CH0	2073232	OK	0.7613105	-0.4357582	0.4801262	0	-127.773	-43.37	15.496	B5-03822-P04-CH1	2073232	OK	0.803366	-0.5905336	0.0766365	0	-108.944	-43.177	-1.187	NA
0.589535841547503	B5-03822-P01-CH0	2073240	OK	0.2021243	0.1127601	0.1238452	-0.9649318	147.952	-26.96	-250.313	B5-03822-P02-CH0	2073240	OK	0.6817217	0.2916104	-0.6709835	0	-80.195	-98.553	-3.234	B5-03822-P02-CH1	2073240	OK	0.7992326	-0.0376944	-0.5998387	0	-86.797	-76.379	0.743	B5-03822-P03-CH0	2073240	OK	0.7302219	-0.0278344	-0.6826428	0	-94.196	-53.409	-0.222	B5-03822-P03-CH1	2073240	OK	0.7632735	-0.638583	0.0981081	0	-96.71	-9.405	-6.742	B5-03822-P04-CH0	2073240	OK	0.7617726	-0.4417781	0.4738508	0	-127.108	-40.97	14.458	B5-03822-P04-CH1	2073240	OK	0.8031835	-0.590815	0.0763804	0	-109.057	-43.179	-1.1	NA
0.599527974455088	B5-03822-P01-CH0	2073248	OK	0.2019239	0.1127969	0.1239901	-0.9649508	147.946	-26.923	-250.387	B5-03822-P02-CH0	2073248	OK	0.6807206	0.2902934	-0.6725691	0	-79.683	-98.225	-3.529	B5-03822-P02-CH1	2073248	OK	0.7978369	-0.0363081	-0.601779	0	-87.036	-76.235	0.958	B5-03822-P03-CH0	2073248	OK	0.7262838	-0.0241635	-0.6869702	0	-94.833	-53.282	-0.549	B5-03822-P03-CH1	2073248	OK	0.7634581	-0.6383351	0.0982852	0	-96.739	-9.258	-6.794	B5-03822-P04-CH0	2073248	OK	0.7615349	-0.4453482	0.4708818	0	-126.953	-40.021	13.145	B5-03822-P04-CH1	2073248	OK	0.8031714	-0.5908578	0.0761764	0	-109.118	-43.105	-1.144	NA
0.609520107362673	B5-03822-P01-CH0	2073256	OK	0.2018659	0.1126798	0.1244996	-0.964911	147.923	-26.956	-250.411	B5-03822-P02-CH0	2073256	OK	0.6808103	0.2898225	-0.6726814	0	-79.785	-98.454	-3.693	B5-03822-P02-CH1	2073256	OK	0.7967245	-0.0379088	-0.6031525	0	-87.307	-75.966	0.889	B5-03822-P03-CH0	2073256	OK	0.7233684	-0.018865	-0.6902045	0	-94.34	-53.439	-0.005	B5-03822-P03-CH1	2073256	OK	0.7636443	-0.6379983	0.0990234	0	-96.815	-9.488	-6.585	B5-03822-P04-CH0	2073256	OK	0.761308	-0.4427749	0.4736671	0	-126.987	-42.828	16.091	B5-03822-P04-CH1	2073256	OK	0.8034644	-0.5905072	0.0758038	0	-109.14	-43.104	-1.007	NA
0.619512240270258	B5-03822-P01-CH0	2073264	OK	0.2019267	0.1125782	0.1253341	-0.9648021	147.923	-26.899	-250.451	B5-03822-P02-CH0	2073264	OK	0.6807312	0.2892263	-0.6730179	0	-79.86	-98.462	-3.798	B5-03822-P02-CH1	2073264	OK	0.7967121	-0.0387374	-0.6031162	0	-87.086	-75.905	-0.163	B5-03822-P03-CH0	2073264	OK	0.72078	-0.0151416	-0.6929985	0	-93.913	-53.448	-0.167	B5-03822-P03-CH1	2073264	OK	0.7636056	-0.6378857	0.1000415	0	-96.834	-9.976	-6.398	B5-03822-P04-CH0	2073264	OK	0.7622508	-0.4465242	0.4686041	0	-126.596	-40.153	13.141	B5-03822-P04-CH1	2073264	OK	0.8038863	-0.5899664	0.0755412	0	-109.168	-43.062	-1.023	NA
0.629504373177843	B5-03822-P01-CH0	2073272	OK	0.2014828	0.1126318	0.1250027	-0.9649316	147.866	-26.942	-250.401	B5-03822-P02-CH0	2073272	OK	0.6813703	0.288372	-0.6727378	0	-79.828	-98.553	-3.839	B5-03822-P02-CH1	2073272	OK	0.795074	-0.0384765	-0.6052907	0	-87.41	-76.026	-0.651	B5-03822-P03-CH0	2073272	OK	0.7185773	-0.0116095	-0.6953502	0	-93.235	-52.912	-0.552	B5-03822-P03-CH1	2073272	OK	0.7632546	-0.6383138	0.0999894	0	-96.891	-10.031	-6.401	B5-03822-P04-CH0	2073272	OK	0.7620573	-0.4438933	0.47141	0	-126.651	-41.532	15.66	B5-03822-P04-CH1	2073272	OK	0.8035522	-0.5905249	0.0747272	0	-109.01	-42.908	-1.097	NA
0.639496506085427	B5-03822-P01-CH0	2073280	OK	0.2012606	0.1124395	0.1247855	-0.9650286	147.816	-27.077	-250.477	B5-03822-P02-CH0	2073280	OK	0.6821121	0.2871192	-0.6725219	0	-79.754	-98.873	-4.108	B5-03822-P02-CH1	2073280	OK	0.792324	-0.0345063	-0.6091239	0	-87.437	-75.698	-0.821	B5-03822-P03-CH0	2073280	OK	0.713908	-0.0144407	-0.7000906	0	-94.108	-53.193	-0.192	B5-03822-P03-CH1	2073280	OK	0.7629996	-0.6385724	0.1002842	0	-96.996	-10.204	-6.435	B5-03822-P04-CH0	2073280	OK	0.7617088	-0.4443882	0.4715069	0	-126.203	-39.781	13.422	B5-03822-P04-CH1	2073280	OK	0.8033485	-0.5909192	0.0737952	0	-108.738	-42.701	-1.505	NA
0.649488638993012	B5-03822-P01-CH0	2073288	OK	0.2010412	0.1122681	0.1248212	-0.9650896	147.75	-27.092	-250.507	B5-03822-P02-CH0	2073288	OK	0.6862913	0.2724708	-0.6743619	0	-78.315	-99.012	-4.36	B5-03822-P02-CH1	2073288	OK	0.7912981	-0.0330547	-0.6105364	0	-86.91	-75.092	-0.156	B5-03822-P03-CH0	2073288	OK	0.7122299	-0.0134147	-0.701818	0	-93.389	-52.669	0.245	B5-03822-P03-CH1	2073288	OK	0.7629343	-0.6386445	0.1003221	0	-97.065	-10.188	-6.395	B5-03822-P04-CH0	2073288	OK	0.7616946	-0.4454421	0.4705345	0	-126.271	-39.888	13.375	B5-03822-P04-CH1	2073288	OK	0.8032582	-0.5911454	0.0729614	0	-108.558	-42.493	-1.763	NA
0.659480771900597	B5-03822-P01-CH0	2073296	OK	0.2012268	0.1118221	0.1256681	-0.9649928	147.641	-27.037	-250.621	B5-03822-P02-CH0	2073296	OK	0.684011	0.2690951	-0.6780242	0	-79.091	-98.357	-1.832	B5-03822-P02-CH1	2073296	OK	0.7914637	-0.0345721	-0.6102376	0	-86.348	-75.056	-0.339	B5-03822-P03-CH0	2073296	OK	0.711115	-0.0147533	-0.7029209	0	-93.184	-52.44	0.102	B5-03822-P03-CH1	2073296	OK	0.7636411	-0.6378636	0.0999111	0	-96.929	-9.785	-6.593	B5-03822-P04-CH0	2073296	OK	0.7620708	-0.4456728	0.4697061	0	-126.169	-39.855	13.365	B5-03822-P04-CH1	2073296	OK	0.8037893	-0.590489	0.072426	0	-108.427	-42.267	-1.874	NA
0.669472904808182	B5-03822-P01-CH0	2073304	OK	0.2015426	0.1116874	0.1262606	-0.9648651	147.62	-26.962	-250.665	B5-03822-P02-CH0	2073304	OK	0.6853284	0.2662625	-0.6778122	0	-78.015	-97.832	-3.709	B5-03822-P02-CH1	2073304	OK	0.7891079	-0.0372896	-0.6131216	0	-87.172	-75.611	-0.543	B5-03822-P03-CH0	2073304	OK	0.7106047	-0.0183575	-0.703352	0	-93.119	-52.466	-1.081	B5-03822-P03-CH1	2073304	OK	0.7638649	-0.6375338	0.1003048	0	-96.948	-9.795	-6.584	B5-03822-P04-CH0	2073304	OK	0.7623518	-0.4454427	0.4694683	0	-126.116	-40.016	13.65	B5-03822-P04-CH1	2073304	OK	0.8042027	-0.5899704	0.072062	0	-108.317	-42.06	-1.923	NA
0.679465037715767	B5-03822-P01-CH0	2073312	OK	0.2013947	0.1116938	0.1258131	-0.9649538	147.583	-26.987	-250.64	B5-03822-P02-CH0	2073312	OK	0.6848242	0.2624364	-0.679811	0	-78.241	-98.398	-4.391	B5-03822-P02-CH1	2073312	OK	0.7889722	-0.0373276	-0.613294	0	-86.241	-74.901	-0.811	B5-03822-P03-CH0	2073312	OK	0.7098769	-0.0219927	-0.7039823	0	-93.218	-52.176	-1.057	B5-03822-P03-CH1	2073312	OK	0.7635903	-0.6379051	0.100035	0	-96.912	-9.674	-6.578	B5-03822-P04-CH0	2073312	OK	0.7621155	-0.4465045	0.4688428	0	-125.985	-39.686	13.392	B5-03822-P04-CH1	2073312	OK	0.8039008	-0.5904463	0.0715315	0	-108.332	-41.9	-2.119	NA
0.689457170623351	B5-03822-P01-CH0	2073320	OK	0.201432	0.1117076	0.1257109	-0.9649577	147.595	-26.98	-250.722	B5-03822-P02-CH0	2073320	OK	0.6848008	0.2586685	-0.6812771	0	-77.839	-98.568	-2.93	B5-03822-P02-CH1	2073320	OK	0.7880801	-0.0381926	-0.6143868	0	-85.531	-74.833	-0.104	B5-03822-P03-CH0	2073320	OK	0.7097754	-0.0239927	-0.7040193	0	-93.298	-51.185	-2.003	B5-03822-P03-CH1	2073320	OK	0.7629923	-0.638482	0.1009129	0	-97.055	-10.121	-6.403	B5-03822-P04-CH0	2073320	OK	0.762143	-0.4471142	0.4682167	0	-125.829	-39.494	13.477	B5-03822-P04-CH1	2073320	OK	0.8039951	-0.5903995	0.0708546	0	-108.212	-41.593	-2.162	NA
0.699449303530936	B5-03822-P01-CH0	2073328	OK	0.2012688	0.1116133	0.1254502	-0.9650366	147.564	-27.039	-250.768	B5-03822-P02-CH0	2073328	OK	0.6837763	0.257953	-0.6825762	0	-77.687	-97.802	-3.39	B5-03822-P02-CH1	2073328	OK	0.7848006	-0.0395607	-0.6184844	0	-86.026	-74.515	-1.497	B5-03822-P03-CH0	2073328	OK	0.7114914	-0.0250446	-0.7022483	0	-92.23	-50.724	-2.615	B5-03822-P03-CH1	2073328	OK	0.7624571	-0.6390444	0.1013976	0	-97.072	-10.472	-6.044	B5-03822-P04-CH0	2073328	OK	0.7620458	-0.4471664	0.4683251	0	-125.834	-39.639	13.671	B5-03822-P04-CH1	2073328	OK	0.8038957	-0.5906153	0.0701806	0	-108.11	-41.413	-2.161	NA
0.709441436438521	B5-03822-P01-CH0	2073336	OK	0.2008928	0.1117824	0.1244685	-0.9652225	147.586	-27.155	-250.748	B5-03822-P02-CH0	2073336	OK	0.6837649	0.2573834	-0.6828025	0	-77.631	-98.353	-4.393	B5-03822-P02-CH1	2073336	OK	0.7830425	-0.0388511	-0.6207536	0	-85.412	-74.212	-1.167	B5-03822-P03-CH0	2073336	OK	0.7101794	-0.0267794	-0.7035113	0	-92.848	-50.776	-2.105	B5-03822-P03-CH1	2073336	OK	0.7618965	-0.639841	0.1005843	0	-96.937	-10.262	-6.276	B5-03822-P04-CH0	2073336	OK	0.7617317	-0.4484942	0.4675658	0	-125.754	-39.286	13.544	B5-03822-P04-CH1	2073336	OK	0.8031576	-0.5916928	0.0695514	0	-108.061	-41.403	-2.233	NA
0.719433569346106	B5-03822-P01-CH0	2073344	OK	0.2008977	0.1120274	0.1243291	-0.965211	147.707	-27.14	-250.801	B5-03822-P02-CH0	2073344	OK	0.6804593	0.2569476	-0.6862602	0	-78.253	-97.313	-3.189	B5-03822-P02-CH1	2073344	OK	0.7793923	-0.0390385	-0.6253188	0	-85.549	-74.079	-1.035	B5-03822-P03-CH0	2073344	OK	0.7101266	-0.0312646	-0.7033795	0	-93.146	-51.381	0.077	B5-03822-P03-CH1	2073344	OK	0.7619488	-0.6398284	0.1002676	0	-97.038	-10.064	-6.257	B5-03822-P04-CH0	2073344	OK	0.7618786	-0.4482238	0.4675857	0	-125.858	-39.531	14.142	B5-03822-P04-CH1	2073344	OK	0.8029849	-0.591951	0.0693486	0	-108.203	-41.582	-1.779	NA
0.729425702253691	B5-03822-P01-CH0	2073352	OK	0.2011348	0.1121819	0.124282	-0.9651497	147.778	-27.194	-250.713	B5-03822-P02-CH0	2073352	OK	0.6801294	0.2580727	-0.6861651	0	-77.264	-96.747	-3.437	B5-03822-P02-CH1	2073352	OK	0.7749901	-0.0386807	-0.6307885	0	-85.643	-74.041	-0.901	B5-03822-P03-CH0	2073352	OK	0.7121388	-0.0356337	-0.7011337	0	-92.627	-51.274	0.675	B5-03822-P03-CH1	2073352	OK	0.7618278	-0.6398852	0.1008234	0	-97.145	-10.195	-6.34	B5-03822-P04-CH0	2073352	OK	0.7620878	-0.4476208	0.4678225	0	-126.019	-39.821	14.302	B5-03822-P04-CH1	2073352	OK	0.8029081	-0.5920451	0.0694349	0	-108.318	-41.746	-1.693	NA
0.739417835161275	B5-03822-P01-CH0	2073360	OK	0.2012313	0.1122757	0.1242879	-0.9651179	147.806	-27.134	-250.625	B5-03822-P02-CH0	2073360	OK	0.6767343	0.2588035	-0.6892398	0	-77.891	-96.245	-2.449	B5-03822-P02-CH1	2073360	OK	0.7725514	-0.0393155	-0.6337339	0	-84.918	-74.19	-1.377	B5-03822-P03-CH0	2073360	OK	0.712372	-0.039845	-0.70067	0	-93.496	-51.715	-0.512	B5-03822-P03-CH1	2073360	OK	0.7616922	-0.6400226	0.1009756	0	-97.202	-10.129	-6.452	B5-03822-P04-CH0	2073360	OK	0.7624447	-0.4471041	0.467735	0	-126.194	-39.861	14.54	B5-03822-P04-CH1	2073360	OK	0.8030068	-0.591942	0.069172	0	-108.482	-41.556	-1.747	NA
0.74940996806886	B5-03822-P01-CH0	2073368	OK	0.2014732	0.1121554	0.1243716	-0.9650707	147.896	-27.164	-250.771	B5-03822-P02-CH0	2073368	OK	0.6758104	0.2608131	-0.6893888	0	-77.834	-97.526	-2.677	B5-03822-P02-CH1	2073368	OK	0.7702461	-0.0402349	-0.6364763	0	-84.032	-73.572	-2.287	B5-03822-P03-CH0	2073368	OK	0.7155546	-0.0417486	-0.6973082	0	-93.144	-51.718	-1.042	B5-03822-P03-CH1	2073368	OK	0.7617128	-0.6399778	0.1011039	0	-97.179	-10.215	-6.349	B5-03822-P04-CH0	2073368	OK	0.7627702	-0.447124	0.467185	0	-126.163	-39.763	14.779	B5-03822-P04-CH1	2073368	OK	0.8032444	-0.5916325	0.0690603	0	-108.581	-41.422	-1.865	NA
0.759402100976445	B5-03822-P01-CH0	2073376	OK	0.2013235	0.1124033	0.123685	-0.9651613	148.062	-27.22	-250.83	B5-03822-P02-CH0	2073376	OK	0.6749324	0.2644979	-0.6888447	0	-77.005	-96.628	-2.783	B5-03822-P02-CH1	2073376	OK	0.7662434	-0.0440295	-0.6410401	0	-83.583	-73.18	-1.953	B5-03822-P03-CH0	2073376	OK	0.7186842	-0.0448926	-0.6938859	0	-93.033	-51.164	-0.331	B5-03822-P03-CH1	2073376	OK	0.761552	-0.6403123	0.1001938	0	-97.105	-9.922	-6.547	B5-03822-P04-CH0	2073376	OK	0.7627889	-0.448252	0.466072	0	-126.23	-39.465	14.724	B5-03822-P04-CH1	2073376	OK	0.8028173	-0.5922521	0.0687162	0	-108.654	-41.442	-1.741	NA
0.76939423388403	B5-03822-P01-CH0	2073384	OK	0.2013059	0.1126666	0.1229032	-0.9652342	148.241	-27.32	-250.829	B5-03822-P02-CH0	2073384	OK	0.6736065	0.2685639	-0.6885693	0	-76.633	-97.313	-2.964	B5-03822-P02-CH1	2073384	OK	0.7607581	-0.0479684	-0.6472605	0	-83.916	-73.134	-2.722	B5-03822-P03-CH0	2073384	OK	0.7213008	-0.0527631	-0.6906093	0	-93.475	-51.497	-0.966	B5-03822-P03-CH1	2073384	OK	0.7612389	-0.6407012	0.1000862	0	-97.205	-9.917	-6.527	B5-03822-P04-CH0	2073384	OK	0.7626007	-0.4487046	0.4659446	0	-126.366	-39.594	14.758	B5-03822-P04-CH1	2073384	OK	0.8022403	-0.5930201	0.0688305	0	-108.763	-41.598	-1.824	NA
0.779386366791615	B5-03822-P01-CH0	2073392	OK	0.2016719	0.1127295	0.1225333	-0.9651974	148.326	-27.335	-250.848	B5-03822-P02-CH0	2073392	OK	0.6704439	0.2705776	-0.6908638	0	-76.941	-98.073	-2.47	B5-03822-P02-CH1	2073392	OK	0.7558116	-0.0493188	-0.6529292	0	-83.723	-72.947	-3.829	B5-03822-P03-CH0	2073392	OK	0.7246768	-0.061588	-0.6863311	0	-93.154	-51.888	-0.055	B5-03822-P03-CH1	2073392	OK	0.7610191	-0.6409236	0.100334	0	-97.15	-10.036	-6.572	B5-03822-P04-CH0	2073392	OK	0.7626153	-0.448336	0.4662754	0	-126.432	-39.861	14.987	B5-03822-P04-CH1	2073392	OK	0.8021868	-0.5930515	0.0691823	0	-108.668	-41.533	-1.866	NA
0.789378499699199	B5-03822-P01-CH0	2073400	OK	0.2020754	0.1127603	0.1222758	-0.9651421	148.437	-27.382	-250.85	B5-03822-P02-CH0	2073400	OK	0.6677152	0.2756852	-0.6914868	0	-76.332	-96.998	-2.32	B5-03822-P02-CH1	2073400	OK	0.7509883	-0.0473169	-0.658618	0	-82.951	-72.578	-3.034	B5-03822-P03-CH0	2073400	OK	0.7271414	-0.0681514	-0.6830964	0	-93.332	-51.237	-0.43	B5-03822-P03-CH1	2073400	OK	0.7612934	-0.6406579	0.0999485	0	-97.036	-9.84	-6.703	B5-03822-P04-CH0	2073400	OK	0.7626149	-0.4475433	0.467037	0	-126.572	-40.324	15.219	B5-03822-P04-CH1	2073400	OK	0.8020894	-0.5931244	0.069685	0	-108.784	-41.669	-1.869	NA
0.799370632606784	B5-03822-P01-CH0	2073408	OK	0.2025648	0.1127507	0.1222527	-0.9650436	148.542	-27.361	-250.885	B5-03822-P02-CH0	2073408	OK	0.6641044	0.2788357	-0.6936973	0	-76.452	-96.674	-1.67	B5-03822-P02-CH1	2073408	OK	0.7466523	-0.0483245	-0.6634569	0	-82.181	-73.324	-2.796	B5-03822-P03-CH0	2073408	OK	0.7285782	-0.0769518	-0.6806264	0	-93.788	-51.746	0.378	B5-03822-P03-CH1	2073408	OK	0.7617021	-0.6402302	0.0995748	0	-96.961	-9.623	-6.899	B5-03822-P04-CH0	2073408	OK	0.7627738	-0.4474061	0.466909	0	-126.602	-40.274	15.028	B5-03822-P04-CH1	2073408	OK	0.8019648	-0.5931987	0.0704825	0	-108.81	-41.952	-1.731	NA
0.809362765514369	B5-03822-P01-CH0	2073416	OK	0.2033412	0.1126894	0.1228063	-0.9648171	148.659	-27.231	-250.946	B5-03822-P02-CH0	2073416	OK	0.6627989	0.2829927	-0.6932624	0	-75.827	-96.728	-3.177	B5-03822-P02-CH1	2073416	OK	0.7415667	-0.0481057	-0.6691522	0	-82.095	-73.658	-3.577	B5-03822-P03-CH0	2073416	OK	0.7298365	-0.0827466	-0.6785953	0	-93.846	-51.816	0.527	B5-03822-P03-CH1	2073416	OK	0.7619616	-0.6397537	0.1006471	0	-97.094	-9.948	-6.686	B5-03822-P04-CH0	2073416	OK	0.763332	-0.4474477	0.4659558	0	-126.595	-39.832	14.5	B5-03822-P04-CH1	2073416	OK	0.8024108	-0.5925133	0.0711676	0	-108.89	-41.919	-1.817	NA
0.819354898421954	B5-03822-P01-CH0	2073424	OK	0.203812	0.112631	0.1225177	-0.9647613	148.715	-27.263	-250.947	B5-03822-P02-CH0	2073424	OK	0.6587396	0.2847549	-0.6964027	0	-76.806	-97.172	-1.277	B5-03822-P02-CH1	2073424	OK	0.7378646	-0.0478041	-0.6732537	0	-81.472	-73.675	-3.26	B5-03822-P03-CH0	2073424	OK	0.7310252	-0.0878348	-0.6766736	0	-94.083	-52.059	-0.182	B5-03822-P03-CH1	2073424	OK	0.7619322	-0.639737	0.1009749	0	-97.131	-10.107	-6.602	B5-03822-P04-CH0	2073424	OK	0.7632381	-0.4485929	0.4650076	0	-126.438	-39.351	13.723	B5-03822-P04-CH1	2073424	OK	0.8023931	-0.5925064	0.0714239	0	-108.877	-41.734	-2.259	NA
0.829347031329539	B5-03822-P01-CH0	2073432	OK	0.2040007	0.1123601	0.1222556	-0.9647862	148.731	-27.258	-251.114	B5-03822-P02-CH0	2073432	OK	0.6585803	0.2881341	-0.6951624	0	-75.793	-97.305	-2.974	B5-03822-P02-CH1	2073432	OK	0.7339156	-0.0494572	-0.6774377	0	-81.34	-73.506	-3.126	B5-03822-P03-CH0	2073432	OK	0.7313414	-0.0925175	-0.6757073	0	-94.685	-52.399	-0.702	B5-03822-P03-CH1	2073432	OK	0.7619189	-0.6397858	0.100766	0	-97.097	-10.073	-6.542	B5-03822-P04-CH0	2073432	OK	0.7630623	-0.450277	0.4636664	0	-126.2	-38.722	13.109	B5-03822-P04-CH1	2073432	OK	0.8023141	-0.5925875	0.0716393	0	-108.631	-41.529	-2.573	NA
0.839339164237124	B5-03822-P01-CH0	2073440	OK	0.2045729	0.1123422	0.1223558	-0.9646545	148.873	-27.217	-251.291	B5-03822-P02-CH0	2073440	OK	0.6567432	0.2917874	-0.6953765	0	-75.663	-97.785	-2.888	B5-03822-P02-CH1	2073440	OK	0.7299722	-0.0511206	-0.6815624	0	-81.002	-73.452	-3.531	B5-03822-P03-CH0	2073440	OK	0.7338619	-0.0939014	-0.6727773	0	-93.774	-52.643	0.655	B5-03822-P03-CH1	2073440	OK	0.7619802	-0.6396429	0.1012082	0	-97.158	-10.359	-6.17	B5-03822-P04-CH0	2073440	OK	0.7631264	-0.4508093	0.4630432	0	-126.214	-38.61	12.808	B5-03822-P04-CH1	2073440	OK	0.8023279	-0.5924668	0.0724784	0	-108.609	-41.788	-2.361	NA
0.849331297144708	B5-03822-P01-CH0	2073448	OK	0.2049346	0.1126804	0.1221096	-0.9645694	149.058	-27.173	-251.283	B5-03822-P02-CH0	2073448	OK	0.6533508	0.2971747	-0.6962901	0	-75.724	-97.269	-1.514	B5-03822-P02-CH1	2073448	OK	0.7255132	-0.0495027	-0.6864256	0	-80.199	-72.614	-3.313	B5-03822-P03-CH0	2073448	OK	0.7347765	-0.0962321	-0.6714483	0	-94.108	-52.35	0.861	B5-03822-P03-CH1	2073448	OK	0.7618836	-0.639736	0.1013473	0	-97.355	-10.475	-6.025	B5-03822-P04-CH0	2073448	OK	0.7629941	-0.4514791	0.4626085	0	-126.239	-38.62	12.699	B5-03822-P04-CH1	2073448	OK	0.8022135	-0.5925746	0.0728614	0	-108.748	-41.818	-2.27	NA
0.859323430052293	B5-03822-P01-CH0	2073456	OK	0.205578	0.1124919	0.1227391	-0.9643746	149.077	-27.104	-251.359	B5-03822-P02-CH0	2073456	OK	0.6495353	0.3013704	-0.6980542	0	-76.168	-96.982	-1.543	B5-03822-P02-CH1	2073456	OK	0.719427	-0.0507751	-0.6927097	0	-80.435	-73.053	-3.236	B5-03822-P03-CH0	2073456	OK	0.7358089	-0.0992694	-0.6698738	0	-94.137	-52.224	0.166	B5-03822-P03-CH1	2073456	OK	0.7619759	-0.6394687	0.1023349	0	-97.504	-10.95	-5.577	B5-03822-P04-CH0	2073456	OK	0.7630862	-0.4509096	0.463012	0	-126.216	-39.023	12.893	B5-03822-P04-CH1	2073456	OK	0.8025964	-0.5919664	0.0735849	0	-108.728	-41.836	-2.392	NA
0.869315562959878	B5-03822-P01-CH0	2073464	OK	0.2061474	0.1123653	0.123526	-0.9641673	149.127	-26.974	-251.411	B5-03822-P02-CH0	2073464	OK	0.6499189	0.3053112	-0.6959816	0	-75.003	-97.494	-3.42	B5-03822-P02-CH1	2073464	OK	0.7174076	-0.0503801	-0.6948296	0	-79.607	-73.091	-4.279	B5-03822-P03-CH0	2073464	OK	0.7353609	-0.1020298	-0.6699509	0	-94.794	-52.202	-0.011	B5-03822-P03-CH1	2073464	OK	0.7622796	-0.6390273	0.1028293	0	-97.704	-11.166	-5.297	B5-03822-P04-CH0	2073464	OK	0.7635366	-0.4503	0.4628625	0	-126.325	-39.206	13.031	B5-03822-P04-CH1	2073464	OK	0.8031347	-0.5911813	0.0740223	0	-108.726	-41.835	-2.181	NA
0.879307695867463	B5-03822-P01-CH0	2073472	OK	0.2063982	0.1121794	0.1242848	-0.9640378	149.163	-26.898	-251.522	B5-03822-P02-CH0	2073472	OK	0.6471904	0.3083671	-0.697176	0	-75.24	-97.747	-2.498	B5-03822-P02-CH1	2073472	OK	0.7156797	-0.0496003	-0.6966652	0	-79.088	-73.013	-4.382	B5-03822-P03-CH0	2073472	OK	0.7363239	-0.1031255	-0.6687243	0	-94.368	-53.051	1.426	B5-03822-P03-CH1	2073472	OK	0.7629979	-0.6383528	0.1016854	0	-97.56	-10.694	-5.539	B5-03822-P04-CH0	2073472	OK	0.7639179	-0.4504786	0.4620588	0	-126.392	-39.132	12.844	B5-03822-P04-CH1	2073472	OK	0.8034277	-0.5907809	0.0740396	0	-108.724	-41.869	-2.15	NA
0.889299828775048	B5-03822-P01-CH0	2073480	OK	0.2067669	0.1118543	0.1253455	-0.9638592	149.119	-26.75	-251.567	B5-03822-P02-CH0	2073480	OK	0.645517	0.3117224	-0.6972353	0	-74.642	-97.431	-2.978	B5-03822-P02-CH1	2073480	OK	0.7117341	-0.0505463	-0.700628	0	-80.113	-73.266	-3.327	B5-03822-P03-CH0	2073480	OK	0.7370178	-0.1016926	-0.6681791	0	-94.252	-52.464	0.105	B5-03822-P03-CH1	2073480	OK	0.7634811	-0.6377425	0.1018874	0	-97.673	-10.681	-5.474	B5-03822-P04-CH0	2073480	OK	0.7643153	-0.4511088	0.4607852	0	-126.212	-38.677	12.347	B5-03822-P04-CH1	2073480	OK	0.8039315	-0.5900622	0.0743017	0	-108.717	-41.713	-2.52	NA
0.899291961682632	B5-03822-P01-CH0	2073488	OK	0.2067952	0.1116553	0.1254444	-0.9638633	149.042	-26.712	-251.58	B5-03822-P02-CH0	2073488	OK	0.6432541	0.3160944	-0.6973582	0	-75.186	-98.744	-3.374	B5-03822-P02-CH1	2073488	OK	0.7101313	-0.0481857	-0.7024185	0	-79.665	-73.083	-2.908	B5-03822-P03-CH0	2073488	OK	0.7348279	-0.0983855	-0.6710799	0	-94.472	-52.272	-0.24	B5-03822-P03-CH1	2073488	OK	0.7633045	-0.6380141	0.1015099	0	-97.529	-10.655	-5.437	B5-03822-P04-CH0	2073488	OK	0.7642638	-0.4512456	0.4607367	0	-126.217	-38.842	12.429	B5-03822-P04-CH1	2073488	OK	0.8039968	-0.5899839	0.0742172	0	-108.661	-41.509	-2.706	NA
0.909284094590217	B5-03822-P01-CH0	2073496	OK	0.2071798	0.1114364	0.126028	-0.9637299	149.075	-26.656	-251.743	B5-03822-P02-CH0	2073496	OK	0.6386339	0.3202791	-0.6996914	0	-75.471	-97.725	-1.293	B5-03822-P02-CH1	2073496	OK	0.7097945	-0.0473151	-0.7028179	0	-78.886	-72.926	-3.933	B5-03822-P03-CH0	2073496	OK	0.7357554	-0.0997809	-0.6698565	0	-94.386	-52.341	-0.076	B5-03822-P03-CH1	2073496	OK	0.7634543	-0.6377982	0.1017399	0	-97.6	-10.767	-5.288	B5-03822-P04-CH0	2073496	OK	0.7642898	-0.4501959	0.4617192	0	-126.245	-39.476	12.905	B5-03822-P04-CH1	2073496	OK	0.8042783	-0.589568	0.0744717	0	-108.609	-41.518	-2.772	NA
0.919276227497802	B5-03822-P01-CH0	2073504	OK	0.2073461	0.1113256	0.1266031	-0.9636316	149.087	-26.56	-251.795	B5-03822-P02-CH0	2073504	OK	0.6345545	0.3231611	-0.7020737	0	-76.259	-97.357	-0.804	B5-03822-P02-CH1	2073504	OK	0.7076895	-0.0450824	-0.7050838	0	-78.945	-72.501	-4.554	B5-03822-P03-CH0	2073504	OK	0.736531	-0.1003705	-0.6689154	0	-94.313	-52.332	0.036	B5-03822-P03-CH1	2073504	OK	0.7639234	-0.6373789	0.1008423	0	-97.495	-10.304	-5.538	B5-03822-P04-CH0	2073504	OK	0.7647213	-0.45012	0.4610783	0	-126.289	-39.262	12.784	B5-03822-P04-CH1	2073504	OK	0.8044729	-0.5892961	0.0745214	0	-108.494	-41.424	-2.991	NA
0.929268360405387	B5-03822-P01-CH0	2073512	OK	0.2075013	0.1112301	0.1267785	-0.9635862	149.101	-26.499	-251.896	B5-03822-P02-CH0	2073512	OK	0.6342362	0.3280882	-0.7000733	0	-75.971	-97.441	-1.569	B5-03822-P02-CH1	2073512	OK	0.7060615	-0.0421594	-0.7068944	0	-78.686	-72.775	-2.929	B5-03822-P03-CH0	2073512	OK	0.7372716	-0.1010224	-0.6680008	0	-94.278	-52.297	-0.003	B5-03822-P03-CH1	2073512	OK	0.7638485	-0.6374929	0.1006887	0	-97.492	-10.319	-5.44	B5-03822-P04-CH0	2073512	OK	0.7647422	-0.4498211	0.4613354	0	-126.255	-39.442	12.982	B5-03822-P04-CH1	2073512	OK	0.8044281	-0.5893099	0.0748954	0	-108.707	-41.794	-2.284	NA
0.939260493312971	B5-03822-P01-CH0	2073520	OK	0.2074185	0.1111336	0.1267227	-0.9636224	149.117	-26.479	-252.005	B5-03822-P02-CH0	2073520	OK	0.6341968	0.3341935	-0.6972153	0	-75.919	-98.296	-1.6	B5-03822-P02-CH1	2073520	OK	0.7038712	-0.0406014	-0.7091663	0	-79.295	-72.658	-4.106	B5-03822-P03-CH0	2073520	OK	0.7378269	-0.1012219	-0.6673572	0	-94.263	-52.422	0.124	B5-03822-P03-CH1	2073520	OK	0.7639759	-0.6374708	0.0998589	0	-97.404	-9.995	-5.616	B5-03822-P04-CH0	2073520	OK	0.7646298	-0.4501729	0.4611785	0	-126.153	-39.475	13.12	B5-03822-P04-CH1	2073520	OK	0.8043904	-0.5893761	0.0747787	0	-108.755	-41.661	-2.376	NA
0.949252626220556	B5-03822-P01-CH0	2073528	OK	0.2077183	0.110807	0.1276284	-0.9634759	149.104	-26.402	-252.075	B5-03822-P02-CH0	2073528	OK	0.6343432	0.3385405	-0.6949813	0	-74.737	-96.972	-3.266	B5-03822-P02-CH1	2073528	OK	0.7034252	-0.0384346	-0.7097294	0	-78.851	-73.227	-3.302	B5-03822-P03-CH0	2073528	OK	0.7384811	-0.1012423	-0.66663	0	-94.229	-52.389	-0.034	B5-03822-P03-CH1	2073528	OK	0.7641753	-0.6371862	0.1001493	0	-97.295	-10.208	-5.546	B5-03822-P04-CH0	2073528	OK	0.7651281	-0.4486815	0.4618051	0	-126.278	-39.912	13.427	B5-03822-P04-CH1	2073528	OK	0.8049169	-0.5886158	0.0751017	0	-108.699	-41.752	-2.157	NA
0.959244759128141	B5-03822-P01-CH0	2073536	OK	0.207507	0.1108317	0.1272949	-0.9635628	149.14	-26.503	-252.058	B5-03822-P02-CH0	2073536	OK	0.6343667	0.3439439	-0.6923016	0	-75.397	-99.575	-3.443	B5-03822-P02-CH1	2073536	OK	0.701261	-0.0360714	-0.7119914	0	-79.144	-73.471	-3.629	B5-03822-P03-CH0	2073536	OK	0.7386989	-0.1009078	-0.6664395	0	-94.327	-52.561	0.173	B5-03822-P03-CH1	2073536	OK	0.7639335	-0.6375369	0.0997615	0	-97.284	-10.275	-5.518	B5-03822-P04-CH0	2073536	OK	0.7652094	-0.4490514	0.4613105	0	-126.285	-39.822	13.356	B5-03822-P04-CH1	2073536	OK	0.8046627	-0.5889765	0.074998	0	-108.755	-41.965	-1.956	NA
0.969236892035726	B5-03822-P01-CH0	2073544	OK	0.2074974	0.1108338	0.1272975	-0.9635642	149.17	-26.47	-252.107	B5-03822-P02-CH0	2073544	OK	0.6307823	0.3484211	-0.6933371	0	-76.306	-98.974	-1.869	B5-03822-P02-CH1	2073544	OK	0.6996753	-0.0345317	-0.7136259	0	-79.103	-73.378	-2.949	B5-03822-P03-CH0	2073544	OK	0.7390242	-0.1005097	-0.6661389	0	-94.332	-52.752	0.389	B5-03822-P03-CH1	2073544	OK	0.7638711	-0.6376641	0.0994257	0	-97.143	-10.267	-5.654	B5-03822-P04-CH0	2073544	OK	0.7653459	-0.4492926	0.460849	0	-126.27	-39.704	13.285	B5-03822-P04-CH1	2073544	OK	0.8047131	-0.5889265	0.0748492	0	-108.761	-41.92	-1.866	NA
0.979229024943311	B5-03822-P01-CH0	2073552	OK	0.2076612	0.1106927	0.1276465	-0.963499	149.202	-26.437	-252.177	B5-03822-P02-CH0	2073552	OK	0.6276221	0.3499627	-0.6954254	0	-77.375	-98.197	-0.208	B5-03822-P02-CH1	2073552	OK	0.6995466	-0.0345904	-0.7137493	0	-78.802	-73.445	-4.183	B5-03822-P03-CH0	2073552	OK	0.7391828	-0.1000202	-0.6660366	0	-94.405	-52.842	0.508	B5-03822-P03-CH1	2073552	OK	0.7640703	-0.6373666	0.0998021	0	-97.249	-10.506	-5.313	B5-03822-P04-CH0	2073552	OK	0.7656093	-0.4492603	0.4604427	0	-126.122	-39.691	13.454	B5-03822-P04-CH1	2073552	OK	0.8049671	-0.5885582	0.0750149	0	-108.76	-41.998	-1.785	NA
