Wav.Time	B5.03822.P01.CH0	Frame	State	Q0	Qx	Qy	Qz	Tx	Ty	Tz	B5.03822.P02.CH0	Frame.1	State.1	Q0.1	Qx.1	Qy.1	Qz.1	Tx.1	Ty.1	Tz.1	B5.03822.P02.CH1	Frame.2	State.2	Q0.2	Qx.2	Qy.2	Qz.2	Tx.2	Ty.2	Tz.2	B5.03822.P03.CH0	Frame.3	State.3	Q0.3	Qx.3	Qy.3	Qz.3	Tx.3	Ty.3	Tz.3	B5.03822.P03.CH1	Frame.4	State.4	Q0.4	Qx.4	Qy.4	Qz.4	Tx.4	Ty.4	Tz.4	B5.03822.P04.CH0	Frame.5	State.5	Q0.5	Qx.5	Qy.5	Qz.5	Tx.5	Ty.5	Tz.5	B5.03822.P04.CH1	Frame.6	State.6	Q0.6	Qx.6	Qy.6	Qz.6	Tx.6	Ty.6	Tz.6	X
0	B5-03822-P01-CH0	1047520	OK	0.2512288	0.0865651	0.0970826	-0.9591483	164.918	-28.994	-272.669	B5-03822-P02-CH0	1047520	OK	0.5541327	0.3566781	-0.752142	0	-82.209	-102.764	3.93	B5-03822-P02-CH1	1047520	OK	0.8055332	-0.1640481	-0.5693895	0	-85.149	-81.355	0.482	B5-03822-P03-CH0	1047520	OK	0.8408169	-0.3984478	-0.3664237	0	-97.684	-61.567	3.58	B5-03822-P03-CH1	1047520	OK	0.6013754	0.7972426	0.0524581	0	-100.512	-28.234	0.059	B5-03822-P04-CH0	1047520	OK	0.7776568	-0.291326	0.5571167	0	-127.286	-39.731	4.821	B5-03822-P04-CH1	1047520	OK	0.7437081	-0.6534077	0.1412677	0	-113.834	-35.003	-7.467	NA
0.00999185090702948	B5-03822-P01-CH0	1047528	OK	0.2511674	0.0862697	0.097368	-0.9591621	164.804	-29.005	-272.71	B5-03822-P02-CH0	1047528	OK	0.5536659	0.3613095	-0.7502729	0	-82.488	-102.7	4.612	B5-03822-P02-CH1	1047528	OK	0.8061408	-0.1630368	-0.5688199	0	-85.132	-81.254	0.272	B5-03822-P03-CH0	1047528	OK	0.8412647	-0.3983474	-0.3655038	0	-99.132	-61.585	5.307	B5-03822-P03-CH1	1047528	OK	0.6014994	0.7971979	0.0517099	0	-100.468	-28.348	0.252	B5-03822-P04-CH0	1047528	OK	0.7775607	-0.2911795	0.5573274	0	-127.252	-39.556	4.711	B5-03822-P04-CH1	1047528	OK	0.7438549	-0.6531316	0.1417707	0	-113.773	-35.075	-7.516	NA
0.019983701814059	B5-03822-P01-CH0	1047536	OK	0.251441	0.085751	0.0981303	-0.9590592	164.614	-28.945	-272.775	B5-03822-P02-CH0	1047536	OK	0.5552553	0.3655481	-0.7470383	0	-81.917	-102.726	4.461	B5-03822-P02-CH1	1047536	OK	0.8077611	-0.1644333	-0.5661129	0	-86.641	-81.685	1.023	B5-03822-P03-CH0	1047536	OK	0.8432382	-0.3977049	-0.3616354	0	-98.979	-61.539	4.844	B5-03822-P03-CH1	1047536	OK	0.601079	0.7975979	0.0504149	0	-100.334	-28.317	0.323	B5-03822-P04-CH0	1047536	OK	0.7776846	-0.2903557	0.5575843	0	-127.263	-39.452	4.729	B5-03822-P04-CH1	1047536	OK	0.7440425	-0.6526931	0.1428023	0	-113.63	-35.375	-7.464	NA
0.0299755527210884	B5-03822-P01-CH0	1047544	OK	0.2514613	0.0856767	0.0982633	-0.9590469	164.627	-28.754	-273.009	B5-03822-P02-CH0	1047544	OK	0.5571232	0.3708436	-0.7430268	0	-81.707	-102.966	4.515	B5-03822-P02-CH1	1047544	OK	0.8100853	-0.1670067	-0.5620237	0	-86.201	-81.772	2.357	B5-03822-P03-CH0	1047544	OK	0.8446231	-0.3983251	-0.3576995	0	-99.042	-61.824	4.701	B5-03822-P03-CH1	1047544	OK	0.6014769	0.7973665	0.0493177	0	-100.484	-28.397	0.743	B5-03822-P04-CH0	1047544	OK	0.7774175	-0.2904684	0.557898	0	-127.25	-39.38	5.251	B5-03822-P04-CH1	1047544	OK	0.7443083	-0.6523633	0.1429242	0	-113.669	-35.171	-7.234	NA
0.0399674036281179	B5-03822-P01-CH0	1047552	OK	0.2511363	0.0856645	0.0978372	-0.9591767	164.578	-28.789	-272.978	B5-03822-P02-CH0	1047552	OK	0.5580041	0.3760721	-0.7397305	0	-82.132	-103.114	3.58	B5-03822-P02-CH1	1047552	OK	0.8114773	-0.1701126	-0.5590762	0	-85.777	-82.261	0.618	B5-03822-P03-CH0	1047552	OK	0.8462742	-0.397862	-0.3542961	0	-99.497	-61.665	4.763	B5-03822-P03-CH1	1047552	OK	0.6020354	0.7969692	0.0489226	0	-100.46	-28.138	0.39	B5-03822-P04-CH0	1047552	OK	0.7769023	-0.290932	0.5583739	0	-127.274	-39.415	5.21	B5-03822-P04-CH1	1047552	OK	0.7441891	-0.6524871	0.1429798	0	-113.748	-35.039	-7.384	NA
0.0499592545351474	B5-03822-P01-CH0	1047560	OK	0.2510252	0.0857905	0.0981068	-0.959167	164.618	-28.76	-272.925	B5-03822-P02-CH0	1047560	OK	0.5573407	0.3794156	-0.7385223	0	-82.552	-102.784	3.744	B5-03822-P02-CH1	1047560	OK	0.8128992	-0.1713837	-0.556617	0	-85.44	-82.4	1.462	B5-03822-P03-CH0	1047560	OK	0.8484349	-0.3974057	-0.3496097	0	-99.217	-62.274	5.741	B5-03822-P03-CH1	1047560	OK	0.6020356	0.7969963	0.0484771	0	-100.322	-27.947	0.263	B5-03822-P04-CH0	1047560	OK	0.776839	-0.2905762	0.5586471	0	-127.5	-39.675	5.379	B5-03822-P04-CH1	1047560	OK	0.7442824	-0.6522471	0.1435879	0	-113.923	-35.149	-7.391	NA
0.0599511054421769	B5-03822-P01-CH0	1047568	OK	0.2508894	0.086062	0.0978595	-0.9592035	164.601	-28.665	-272.743	B5-03822-P02-CH0	1047568	OK	0.5569555	0.3843845	-0.7362399	0	-82.885	-102.548	4.2	B5-03822-P02-CH1	1047568	OK	0.8124293	-0.1731613	-0.5567529	0	-86.107	-81.723	1.028	B5-03822-P03-CH0	1047568	OK	0.8487535	-0.3983057	-0.3478075	0	-100.069	-62.252	5.236	B5-03822-P03-CH1	1047568	OK	0.6020779	0.7969801	0.0482178	0	-100.51	-27.315	-0.115	B5-03822-P04-CH0	1047568	OK	0.7766325	-0.2900154	0.5592254	0	-127.811	-39.969	5.489	B5-03822-P04-CH1	1047568	OK	0.7445765	-0.6518956	0.1436593	0	-114.183	-34.732	-7.594	NA
0.0699429563492063	B5-03822-P01-CH0	1047576	OK	0.2506849	0.0859221	0.0979238	-0.959263	164.543	-28.602	-272.758	B5-03822-P02-CH0	1047576	OK	0.5568803	0.3904281	-0.73311	0	-83.132	-102.273	5.054	B5-03822-P02-CH1	1047576	OK	0.8111859	-0.1749003	-0.5580208	0	-86.967	-81.634	1.153	B5-03822-P03-CH0	1047576	OK	0.8499306	-0.3990492	-0.3440605	0	-101.058	-62.633	6.18	B5-03822-P03-CH1	1047576	OK	0.6023009	0.796848	0.0476123	0	-100.602	-27.133	-0.172	B5-03822-P04-CH0	1047576	OK	0.7762016	-0.2898514	0.5599082	0	-127.953	-40.264	5.388	B5-03822-P04-CH1	1047576	OK	0.7452257	-0.6512712	0.1431238	0	-114.049	-34.014	-7.951	NA
0.0799348072562358	B5-03822-P01-CH0	1047584	OK	0.2506469	0.0855986	0.0986605	-0.9592263	164.404	-28.537	-272.733	B5-03822-P02-CH0	1047584	OK	0.5595998	0.3961475	-0.7279528	0	-82.78	-103.032	3.515	B5-03822-P02-CH1	1047584	OK	0.8115964	-0.1762616	-0.5569948	0	-86.489	-81.653	1.05	B5-03822-P03-CH0	1047584	OK	0.8534892	-0.398752	-0.3354892	0	-100.335	-62.585	5.416	B5-03822-P03-CH1	1047584	OK	0.6018659	0.7972115	0.0470229	0	-100.502	-26.884	-0.229	B5-03822-P04-CH0	1047584	OK	0.7761047	-0.2885774	0.5607001	0	-128.118	-40.598	5.423	B5-03822-P04-CH1	1047584	OK	0.7457565	-0.6504233	0.1442111	0	-114.222	-33.98	-8.167	NA
0.0899266581632653	B5-03822-P01-CH0	1047592	OK	0.2505288	0.0855183	0.0985049	-0.9592803	164.285	-28.478	-272.617	B5-03822-P02-CH0	1047592	OK	0.5583007	0.4031909	-0.7250775	0	-83.533	-103.179	2.885	B5-03822-P02-CH1	1047592	OK	0.8117045	-0.1827829	-0.5547308	0	-86.654	-81.79	1.336	B5-03822-P03-CH0	1047592	OK	0.8558407	-0.3978711	-0.3305075	0	-101.678	-62.075	4.468	B5-03822-P03-CH1	1047592	OK	0.6022861	0.7969506	0.0460576	0	-100.479	-26.711	-0.447	B5-03822-P04-CH0	1047592	OK	0.7756847	-0.2873143	0.5619285	0	-128.2	-40.887	5.628	B5-03822-P04-CH1	1047592	OK	0.7461107	-0.6499442	0.1445384	0	-114.172	-33.507	-8.57	NA
0.0999185090702948	B5-03822-P01-CH0	1047600	OK	0.2509111	0.0851149	0.0989592	-0.9591695	164.24	-28.456	-272.863	B5-03822-P02-CH0	1047600	OK	0.5551908	0.4089285	-0.7242518	0	-84.222	-103.512	3.595	B5-03822-P02-CH1	1047600	OK	0.8137028	-0.187691	-0.5501453	0	-86.312	-81.306	1.379	B5-03822-P03-CH0	1047600	OK	0.8609426	-0.3970953	-0.3179514	0	-100.753	-63.382	6.798	B5-03822-P03-CH1	1047600	OK	0.6017468	0.7974449	0.0445242	0	-100.487	-26.489	-0.484	B5-03822-P04-CH0	1047600	OK	0.7755694	-0.2843541	0.563591	0	-128.46	-41.429	5.893	B5-03822-P04-CH1	1047600	OK	0.7463422	-0.6491739	0.1467875	0	-114.306	-33.904	-8.287	NA
0.109910359977324	B5-03822-P01-CH0	1047608	OK	0.251128	0.0854681	0.0996726	-0.9590075	164.394	-28.336	-272.784	B5-03822-P02-CH0	1047608	OK	0.5516987	0.4099697	-0.7263287	0	-84.75	-103.531	5.092	B5-03822-P02-CH1	1047608	OK	0.8156846	-0.1936114	-0.545136	0	-85.761	-81.638	2.085	B5-03822-P03-CH0	1047608	OK	0.8653481	-0.3950561	-0.3083884	0	-101.726	-64.176	7.09	B5-03822-P03-CH1	1047608	OK	0.6012265	0.7979001	0.0433836	0	-100.66	-26.221	-0.653	B5-03822-P04-CH0	1047608	OK	0.7758441	-0.2807333	0.5650264	0	-129.087	-42.193	5.937	B5-03822-P04-CH1	1047608	OK	0.7469467	-0.6481784	0.1481063	0	-114.77	-33.857	-8.518	NA
0.119902210884354	B5-03822-P01-CH0	1047616	OK	0.2505354	0.0861051	0.0984679	-0.9592299	164.558	-28.355	-272.73	B5-03822-P02-CH0	1047616	OK	0.550605	0.4117427	-0.7261557	0	-84.934	-103.202	4.296	B5-03822-P02-CH1	1047616	OK	0.8153183	-0.2018889	-0.5426757	0	-86.757	-82.096	3.539	B5-03822-P03-CH0	1047616	OK	0.87021	-0.3924054	-0.2979138	0	-101.779	-65.103	8.56	B5-03822-P03-CH1	1047616	OK	0.6021936	0.7971633	0.0435136	0	-100.904	-25.831	-0.945	B5-03822-P04-CH0	1047616	OK	0.7749138	-0.2593926	0.5763888	0	-131.124	-44.247	5.24	B5-03822-P04-CH1	1047616	OK	0.746437	-0.648655	0.1485883	0	-114.985	-33.595	-8.778	NA
0.129894061791383	B5-03822-P01-CH0	1047624	OK	0.2509405	0.0856579	0.0996776	-0.9590391	164.408	-28.289	-272.71	B5-03822-P02-CH0	1047624	OK	0.5501869	0.4116668	-0.7265155	0	-84.482	-103.481	3.114	B5-03822-P02-CH1	1047624	OK	0.8162164	-0.2093101	-0.5384979	0	-87.051	-81.355	1.651	B5-03822-P03-CH0	1047624	OK	0.87412	-0.3885316	-0.2914745	0	-102.453	-65.755	8.585	B5-03822-P03-CH1	1047624	OK	0.6011212	0.7980649	0.041782	0	-100.686	-25.589	-1.271	B5-03822-P04-CH0	1047624	OK	0.7747514	-0.2518332	0.5799486	0	-130.724	-43.964	5.877	B5-03822-P04-CH1	1047624	OK	0.7472507	-0.6472352	0.1506748	0	-115.06	-33.576	-9.255	NA
0.139885912698413	B5-03822-P01-CH0	1047632	OK	0.2515422	0.0852723	0.1015728	-0.9587169	164.375	-28.08	-272.833	B5-03822-P02-CH0	1047632	OK	0.5482263	0.4073865	-0.7304	0	-84.571	-104.013	4.329	B5-03822-P02-CH1	1047632	OK	0.8186157	-0.218011	-0.5313563	0	-86.745	-81.458	2.312	B5-03822-P03-CH0	1047632	OK	0.8779618	-0.3851279	-0.2843583	0	-102.06	-66.348	7.73	B5-03822-P03-CH1	1047632	OK	0.6001303	0.7989483	0.0390545	0	-100.739	-25.885	-1.135	B5-03822-P04-CH0	1047632	OK	0.7750072	-0.2457306	0.5822202	0	-131.39	-45.482	6.06	B5-03822-P04-CH1	1047632	OK	0.7484939	-0.6452771	0.1528866	0	-115.185	-33.588	-9.521	NA
0.149877763605442	B5-03822-P01-CH0	1047640	OK	0.2517728	0.0850808	0.1012803	-0.9587043	164.359	-28.038	-273.081	B5-03822-P02-CH0	1047640	OK	0.5494845	0.3989463	-0.7341039	0	-83.85	-103.67	3.72	B5-03822-P02-CH1	1047640	OK	0.819348	-0.2282237	-0.5259114	0	-87.367	-81.706	1.93	B5-03822-P03-CH0	1047640	OK	0.8800366	-0.3820578	-0.282077	0	-102.779	-67.28	8.416	B5-03822-P03-CH1	1047640	OK	0.6007107	0.7986236	0.0367017	0	-100.84	-26.146	-0.789	B5-03822-P04-CH0	1047640	OK	0.7741764	-0.2429164	0.584502	0	-131.026	-45.672	5.849	B5-03822-P04-CH1	1047640	OK	0.7482604	-0.6449943	0.1552055	0	-115.278	-33.811	-9.607	NA
0.159869614512472	B5-03822-P01-CH0	1047648	OK	0.2520887	0.0851179	0.1016851	-0.9585752	164.476	-28.018	-273.136	B5-03822-P02-CH0	1047648	OK	0.5479427	0.3917538	-0.7391128	0	-84.276	-103.719	3.44	B5-03822-P02-CH1	1047648	OK	0.8222151	-0.2378882	-0.5170799	0	-86.906	-81.514	1.97	B5-03822-P03-CH0	1047648	OK	0.8826369	-0.3778766	-0.2795735	0	-103.153	-67.759	8.332	B5-03822-P03-CH1	1047648	OK	0.6006934	0.7987348	0.0344988	0	-100.794	-26.388	-0.672	B5-03822-P04-CH0	1047648	OK	0.7739529	-0.2388598	0.5864664	0	-131.828	-47.422	5.71	B5-03822-P04-CH1	1047648	OK	0.747548	-0.6448081	0.1593567	0	-115.677	-35.123	-9.126	NA
0.169861465419501	B5-03822-P01-CH0	1047656	OK	0.2521541	0.0848204	0.1021085	-0.9585393	164.396	-27.925	-273.252	B5-03822-P02-CH0	1047656	OK	0.5476798	0.3843221	-0.743198	0	-84.162	-104.212	3.96	B5-03822-P02-CH1	1047656	OK	0.8236535	-0.2456341	-0.5111349	0	-87.016	-81.328	2.257	B5-03822-P03-CH0	1047656	OK	0.8843373	-0.3729546	-0.2808068	0	-104.432	-68.113	8.667	B5-03822-P03-CH1	1047656	OK	0.600289	0.7991076	0.0328661	0	-100.725	-26.154	-0.727	B5-03822-P04-CH0	1047656	OK	0.775159	-0.2380216	0.585213	0	-132.149	-45.703	5.433	B5-03822-P04-CH1	1047656	OK	0.747213	-0.6443856	0.1626038	0	-115.961	-35.832	-8.979	NA
0.179853316326531	B5-03822-P01-CH0	1047664	OK	0.2524243	0.0848772	0.102403	-0.9584318	164.477	-27.859	-273.336	B5-03822-P02-CH0	1047664	OK	0.5462329	0.3749425	-0.7490312	0	-84.527	-104.001	4.773	B5-03822-P02-CH1	1047664	OK	0.8236884	-0.252306	-0.507818	0	-87.302	-81.164	1.387	B5-03822-P03-CH0	1047664	OK	0.8869501	-0.369342	-0.2773194	0	-103.194	-69.149	9.384	B5-03822-P03-CH1	1047664	OK	0.6002094	0.7992525	0.0307258	0	-100.693	-26.162	-0.888	B5-03822-P04-CH0	1047664	OK	0.7749056	-0.2394049	0.5849843	0	-131.704	-44.585	4.518	B5-03822-P04-CH1	1047664	OK	0.7476464	-0.64352	0.1640332	0	-115.999	-35.703	-9.311	NA
0.18984516723356	B5-03822-P01-CH0	1047672	OK	0.2526149	0.0851436	0.1020878	-0.9583915	164.6	-27.982	-273.309	B5-03822-P02-CH0	1047672	OK	0.5465869	0.3616528	-0.7552814	0	-84.072	-103.174	4.276	B5-03822-P02-CH1	1047672	OK	0.8228976	-0.2583698	-0.5060479	0	-87.854	-81.853	0.883	B5-03822-P03-CH0	1047672	OK	0.88621	-0.3650141	-0.2853008	0	-104.067	-69.736	9.313	B5-03822-P03-CH1	1047672	OK	0.6003435	0.7992146	0.0290453	0	-100.717	-26.18	-0.986	B5-03822-P04-CH0	1047672	OK	0.7754143	-0.2381109	0.5848383	0	-131.793	-46.593	7.471	B5-03822-P04-CH1	1047672	OK	0.7471236	-0.6433363	0.1671066	0	-116.495	-36.588	-8.998	NA
0.19983701814059	B5-03822-P01-CH0	1047680	OK	0.2524238	0.0853623	0.1020486	-0.9584266	164.693	-28.01	-273.268	B5-03822-P02-CH0	1047680	OK	0.5498081	0.3476733	-0.7594961	0	-83.156	-102.801	3.18	B5-03822-P02-CH1	1047680	OK	0.8242416	-0.2602812	-0.5028712	0	-87.021	-81.894	0.617	B5-03822-P03-CH0	1047680	OK	0.8853679	-0.358108	-0.2964496	0	-104.188	-69.39	9.34	B5-03822-P03-CH1	1047680	OK	0.6008077	0.7989048	0.0279514	0	-100.724	-26.488	-0.751	B5-03822-P04-CH0	1047680	OK	0.7754348	-0.2427469	0.582902	0	-132.002	-46.782	6.469	B5-03822-P04-CH1	1047680	OK	0.7472136	-0.6430566	0.1677797	0	-116.631	-36.466	-9.585	NA
0.209828869047619	B5-03822-P01-CH0	1047688	OK	0.2522439	0.0852294	0.1017831	-0.958514	164.665	-27.931	-273.436	B5-03822-P02-CH0	1047688	OK	0.5526995	0.33256	-0.7641512	0	-82.968	-101.942	3.54	B5-03822-P02-CH1	1047688	OK	0.8236154	-0.258728	-0.5046955	0	-87.31	-82.17	1.713	B5-03822-P03-CH0	1047688	OK	0.8828631	-0.3491459	-0.3140858	0	-104.034	-68.758	9.186	B5-03822-P03-CH1	1047688	OK	0.6015104	0.7984074	0.0270353	0	-100.631	-26.694	-0.486	B5-03822-P04-CH0	1047688	OK	0.7751981	-0.2430754	0.5830799	0	-131.733	-46.142	6.481	B5-03822-P04-CH1	1047688	OK	0.7468513	-0.6432397	0.1686887	0	-116.637	-36.603	-9.559	NA
0.219820719954648	B5-03822-P01-CH0	1047696	OK	0.2521032	0.0849984	0.1017367	-0.9585765	164.673	-28.051	-273.539	B5-03822-P02-CH0	1047696	OK	0.5580331	0.3220036	-0.7647959	0	-83.077	-103.889	3.602	B5-03822-P02-CH1	1047696	OK	0.8225482	-0.2544773	-0.5085821	0	-87.91	-82.536	1.971	B5-03822-P03-CH0	1047696	OK	0.8783485	-0.3386796	-0.3373427	0	-104.21	-68.152	8.834	B5-03822-P03-CH1	1047696	OK	0.601528	0.7984157	0.026391	0	-100.464	-26.698	-0.461	B5-03822-P04-CH0	1047696	OK	0.7749803	-0.2451826	0.5824869	0	-131.193	-45.497	6.286	B5-03822-P04-CH1	1047696	OK	0.7465374	-0.6432875	0.1698914	0	-116.731	-37.155	-9.298	NA
0.229812570861678	B5-03822-P01-CH0	1047704	OK	0.2519654	0.0848166	0.1018509	-0.9586167	164.691	-28.049	-273.622	B5-03822-P02-CH0	1047704	OK	0.5607567	0.3080791	-0.7685306	0	-82.926	-102.954	3.34	B5-03822-P02-CH1	1047704	OK	0.8215964	-0.2458581	-0.5143279	0	-88.386	-82.406	1.435	B5-03822-P03-CH0	1047704	OK	0.8724425	-0.32946	-0.3609712	0	-103.416	-67.722	7.527	B5-03822-P03-CH1	1047704	OK	0.6017566	0.7982533	0.0260907	0	-100.58	-26.774	-0.291	B5-03822-P04-CH0	1047704	OK	0.7772899	-0.2664588	0.56993	0	-130.863	-46.343	5.88	B5-03822-P04-CH1	1047704	OK	0.7461959	-0.6435893	0.1702485	0	-116.668	-37.585	-9.111	NA
0.239804421768707	B5-03822-P01-CH0	1047712	OK	0.2518077	0.0847525	0.101713	-0.9586784	164.735	-28.061	-273.706	B5-03822-P02-CH0	1047712	OK	0.5621003	0.2986683	-0.771259	0	-82.944	-102.084	3.421	B5-03822-P02-CH1	1047712	OK	0.8205004	-0.236481	-0.5204381	0	-88.585	-82.366	1.403	B5-03822-P03-CH0	1047712	OK	0.8632233	-0.3111746	-0.3975121	0	-105.016	-66.462	6.555	B5-03822-P03-CH1	1047712	OK	0.6019033	0.7981329	0.0263872	0	-100.6	-26.603	-0.139	B5-03822-P04-CH0	1047712	OK	0.7772546	-0.2819167	0.5624929	0	-129.049	-44.222	4.11	B5-03822-P04-CH1	1047712	OK	0.7457038	-0.644043	0.1706882	0	-116.84	-38.148	-8.439	NA
0.249796272675737	B5-03822-P01-CH0	1047720	OK	0.2521404	0.0845602	0.1029396	-0.9584771	164.686	-27.947	-273.52	B5-03822-P02-CH0	1047720	OK	0.5621726	0.2916013	-0.7739061	0	-83.337	-101.637	3.406	B5-03822-P02-CH1	1047720	OK	0.8202894	-0.2255875	-0.5255813	0	-88.945	-81.947	1.51	B5-03822-P03-CH0	1047720	OK	0.8547824	-0.279115	-0.4375408	0	-104.163	-65.636	6.501	B5-03822-P03-CH1	1047720	OK	0.6008589	0.7989204	0.0263561	0	-100.606	-26.175	-0.475	B5-03822-P04-CH0	1047720	OK	0.7790859	-0.2905486	0.5555238	0	-128.025	-43.977	6.479	B5-03822-P04-CH1	1047720	OK	0.7464771	-0.6433902	0.1697672	0	-116.729	-38.075	-8.557	NA
0.259788123582766	B5-03822-P01-CH0	1047728	OK	0.2519093	0.0844127	0.1028891	-0.9585562	164.679	-27.906	-273.679	B5-03822-P02-CH0	1047728	OK	0.5634705	0.2886251	-0.7740779	0	-83.414	-101.605	3.662	B5-03822-P02-CH1	1047728	OK	0.8214902	-0.2144086	-0.5283775	0	-88.175	-81.44	1.117	B5-03822-P03-CH0	1047728	OK	0.8411754	-0.2312492	-0.4888229	0	-103.409	-64.618	6.241	B5-03822-P03-CH1	1047728	OK	0.6014782	0.7984465	0.0265918	0	-100.554	-26.264	-0.239	B5-03822-P04-CH0	1047728	OK	0.7788399	-0.3032321	0.5490525	0	-127.336	-43.493	5.705	B5-03822-P04-CH1	1047728	OK	0.7468735	-0.643734	0.1666929	0	-116.354	-37.31	-8.798	NA
0.269779974489796	B5-03822-P01-CH0	1047736	OK	0.252099	0.0840744	0.103364	-0.958485	164.647	-27.967	-273.748	B5-03822-P02-CH0	1047736	OK	0.5647983	0.2827253	-0.7752866	0	-82.64	-100.958	3.895	B5-03822-P02-CH1	1047736	OK	0.8205153	-0.2049853	-0.5336063	0	-88.277	-81.205	1.334	B5-03822-P03-CH0	1047736	OK	0.823803	-0.1762469	-0.5387815	0	-103.058	-63.105	4.655	B5-03822-P03-CH1	1047736	OK	0.6019161	0.7981271	0.0262681	0	-100.324	-26.653	-0.114	B5-03822-P04-CH0	1047736	OK	0.7799634	-0.3199272	0.5378695	0	-126.518	-41.58	4.97	B5-03822-P04-CH1	1047736	OK	0.7475667	-0.6435918	0.1641144	0	-116.166	-36.933	-8.943	NA
0.279771825396825	B5-03822-P01-CH0	1047744	OK	0.2516638	0.0842251	0.1023113	-0.9586991	164.645	-28.02	-273.731	B5-03822-P02-CH0	1047744	OK	0.5639335	0.2811718	-0.7764801	0	-83.543	-100.932	2.958	B5-03822-P02-CH1	1047744	OK	0.8188589	-0.1971544	-0.5390734	0	-88.342	-81.025	1.702	B5-03822-P03-CH0	1047744	OK	0.8086076	-0.1305819	-0.5736742	0	-102.634	-62.739	4.493	B5-03822-P03-CH1	1047744	OK	0.6040269	0.7965214	0.0265535	0	-100.492	-27.204	0.37	B5-03822-P04-CH0	1047744	OK	0.7803555	-0.3374136	0.5264954	0	-125.776	-40.67	6.604	B5-03822-P04-CH1	1047744	OK	0.7475788	-0.6476667	0.1471526	0	-115.461	-35.183	-9.68	NA
0.289763676303855	B5-03822-P01-CH0	1047752	OK	0.251586	0.0838894	0.1027405	-0.958703	164.573	-27.884	-273.83	B5-03822-P02-CH0	1047752	OK	0.5647737	0.2743682	-0.7783012	0	-82.937	-98.852	2.35	B5-03822-P02-CH1	1047752	OK	0.8191441	-0.1902246	-0.5411263	0	-88.048	-80.856	2.418	B5-03822-P03-CH0	1047752	OK	0.8042315	-0.1114341	-0.5837758	0	-102.413	-63.435	5.878	B5-03822-P03-CH1	1047752	OK	0.6048677	0.7958752	0.0267925	0	-100.44	-27.506	0.693	B5-03822-P04-CH0	1047752	OK	0.7791248	-0.3497621	0.5202221	0	-126.221	-42.867	7.245	B5-03822-P04-CH1	1047752	OK	0.7457979	-0.6502046	0.1449809	0	-114.741	-36.364	-8.141	NA
0.299755527210884	B5-03822-P01-CH0	1047760	OK	0.2516578	0.0835843	0.1028784	-0.958696	164.463	-27.777	-273.847	B5-03822-P02-CH0	1047760	OK	0.5690512	0.2757253	-0.7746975	0	-82.477	-100.404	2.673	B5-03822-P02-CH1	1047760	OK	0.8196071	-0.1823682	-0.5431262	0	-87.298	-79.578	1.273	B5-03822-P03-CH0	1047760	OK	0.8085484	-0.1118433	-0.5777028	0	-100.892	-62.046	5.884	B5-03822-P03-CH1	1047760	OK	0.6051161	0.795665	0.0274167	0	-100.362	-27.042	0.452	B5-03822-P04-CH0	1047760	OK	0.7780749	-0.3652162	0.5110936	0	-124.013	-39.991	6.287	B5-03822-P04-CH1	1047760	OK	0.7480857	-0.6486636	0.140012	0	-113.972	-34.006	-8.378	NA
0.309747378117914	B5-03822-P01-CH0	1047768	OK	0.2517665	0.0831878	0.103206	-0.9586668	164.299	-27.807	-273.734	B5-03822-P02-CH0	1047768	OK	0.568994	0.2778989	-0.7739626	0	-83.158	-100.066	3.65	B5-03822-P02-CH1	1047768	OK	0.8172286	-0.1777221	-0.5482264	0	-86.974	-80.05	1.429	B5-03822-P03-CH0	1047768	OK	0.807224	-0.1246753	-0.5769276	0	-102.306	-63.368	5.532	B5-03822-P03-CH1	1047768	OK	0.6053196	0.7955071	0.0275074	0	-100.195	-26.837	0.099	B5-03822-P04-CH0	1047768	OK	0.7788024	-0.3727725	0.5044874	0	-124.755	-40.455	5.509	B5-03822-P04-CH1	1047768	OK	0.7482484	-0.6491592	0.1368087	0	-113.129	-33.659	-8.513	NA
0.319739229024943	B5-03822-P01-CH0	1047776	OK	0.2521926	0.0832068	0.1038568	-0.9584828	164.331	-27.633	-273.685	B5-03822-P02-CH0	1047776	OK	0.5715168	0.2825138	-0.7704249	0	-82.593	-99.593	2.501	B5-03822-P02-CH1	1047776	OK	0.8149577	-0.1722227	-0.5533383	0	-86.084	-80.05	1.88	B5-03822-P03-CH0	1047776	OK	0.8105295	-0.1430677	-0.5679556	0	-102.433	-62.126	3.229	B5-03822-P03-CH1	1047776	OK	0.6053223	0.7955128	0.0272819	0	-100.093	-26.668	0.064	B5-03822-P04-CH0	1047776	OK	0.7787355	-0.3800227	0.4991531	0	-123.777	-39.211	4.901	B5-03822-P04-CH1	1047776	OK	0.7469337	-0.6503801	0.1381873	0	-112.941	-35.298	-6.478	NA
0.329731079931973	B5-03822-P01-CH0	1047784	OK	0.25206	0.0837559	0.1025872	-0.9586066	164.363	-27.611	-273.442	B5-03822-P02-CH0	1047784	OK	0.5739979	0.2919054	-0.7650605	0	-82.54	-99.513	2.394	B5-03822-P02-CH1	1047784	OK	0.8108042	-0.162953	-0.5621769	0	-85.403	-79.341	1.311	B5-03822-P03-CH0	1047784	OK	0.8174989	-0.1702603	-0.5501881	0	-101.997	-61.232	3.376	B5-03822-P03-CH1	1047784	OK	0.6065711	0.7945297	0.0281787	0	-99.844	-26.224	-0.382	B5-03822-P04-CH0	1047784	OK	0.7787167	-0.3847802	0.4955244	0	-123.745	-38.007	2.027	B5-03822-P04-CH1	1047784	OK	0.7490113	-0.6495699	0.130541	0	-111.998	-31.293	-10.121	NA
0.339722930839002	B5-03822-P01-CH0	1047792	OK	0.2524149	0.0838639	0.102363	-0.9585277	164.345	-27.52	-273.384	B5-03822-P02-CH0	1047792	OK	0.5775885	0.308386	-0.755837	0	-81.954	-100.074	2.029	B5-03822-P02-CH1	1047792	OK	0.8039607	-0.1493438	-0.5756245	0	-84.878	-79.514	-0.166	B5-03822-P03-CH0	1047792	OK	0.8234658	-0.2001602	-0.530886	0	-101.188	-60.285	1.126	B5-03822-P03-CH1	1047792	OK	0.6067289	0.7944031	0.0283502	0	-99.753	-25.903	-0.464	B5-03822-P04-CH0	1047792	OK	0.7799291	-0.3789773	0.4980832	0	-124.29	-39.831	6.243	B5-03822-P04-CH1	1047792	OK	0.7464275	-0.6496888	0.1440504	0	-113.913	-35.011	-8.479	NA
0.349714781746032	B5-03822-P01-CH0	1047800	OK	0.2523543	0.0841712	0.1021367	-0.9585409	164.498	-27.541	-273.415	B5-03822-P02-CH0	1047800	OK	0.5760726	0.3315694	-0.7471292	0	-83.321	-101.095	3.963	B5-03822-P02-CH1	1047800	OK	0.7967169	-0.1302804	-0.5901434	0	-84.118	-80.33	-0.413	B5-03822-P03-CH0	1047800	OK	0.8321124	-0.2339706	-0.5028386	0	-99.329	-61.639	3.061	B5-03822-P03-CH1	1047800	OK	0.6072584	0.7939759	0.0289753	0	-99.595	-26.06	-0.358	B5-03822-P04-CH0	1047800	OK	0.7804064	-0.3761346	0.4994883	0	-123.866	-37.672	4.298	B5-03822-P04-CH1	1047800	OK	0.7464128	-0.650231	0.1416604	0	-113.932	-34.759	-8.351	NA
0.359706632653061	B5-03822-P01-CH0	1047808	OK	0.2524187	0.0845025	0.1022019	-0.9584878	164.632	-27.578	-273.293	B5-03822-P02-CH0	1047808	OK	0.5752941	0.350212	-0.7391808	0	-83.489	-100.582	2.796	B5-03822-P02-CH1	1047808	OK	0.7918433	-0.1095929	-0.6008108	0	-83.193	-80.74	-1.024	B5-03822-P03-CH0	1047808	OK	0.844142	-0.2784961	-0.4581093	0	-101.582	-62.766	3.772	B5-03822-P03-CH1	1047808	OK	0.6069757	0.7941666	0.0296631	0	-99.749	-25.914	-0.515	B5-03822-P04-CH0	1047808	OK	0.7812215	-0.3659319	0.5057537	0	-125.633	-40.226	6.265	B5-03822-P04-CH1	1047808	OK	0.7462908	-0.6506725	0.1402689	0	-113.844	-34.881	-8.172	NA
0.369698483560091	B5-03822-P01-CH0	1047816	OK	0.2520682	0.0854047	0.1008382	-0.9586445	164.797	-27.688	-272.984	B5-03822-P02-CH0	1047816	OK	0.5778897	0.369897	-0.7274749	0	-83.056	-102.27	2.455	B5-03822-P02-CH1	1047816	OK	0.7879686	-0.0900745	-0.6090912	0	-82.775	-81.784	1.385	B5-03822-P03-CH0	1047816	OK	0.8586351	-0.3106639	-0.4077176	0	-99.929	-64.808	5.675	B5-03822-P03-CH1	1047816	OK	0.6077816	0.7935182	0.030504	0	-99.994	-25.831	-0.604	B5-03822-P04-CH0	1047816	OK	0.780849	-0.3588354	0.5113825	0	-124.6	-36.528	4.477	B5-03822-P04-CH1	1047816	OK	0.7452857	-0.6521639	0.1386776	0	-113.843	-34.877	-7.991	NA
0.37969033446712	B5-03822-P01-CH0	1047824	OK	0.2518588	0.0859323	0.0997484	-0.9587664	164.877	-27.846	-272.811	B5-03822-P02-CH0	1047824	OK	0.5758799	0.3876224	-0.7197994	0	-84.02	-102.442	3.233	B5-03822-P02-CH1	1047824	OK	0.7842219	-0.0732673	-0.6161395	0	-82.718	-82.962	0.481	B5-03822-P03-CH0	1047824	OK	0.8656504	-0.3258801	-0.3800679	0	-99.038	-65.575	5.857	B5-03822-P03-CH1	1047824	OK	0.6076113	0.7935961	0.0318393	0	-99.823	-25.342	-1.057	B5-03822-P04-CH0	1047824	OK	0.7786977	-0.3451648	0.5239191	0	-124.975	-37.683	4.003	B5-03822-P04-CH1	1047824	OK	0.7452575	-0.6525932	0.1367967	0	-113.739	-34.239	-8.164	NA
0.38968218537415	B5-03822-P01-CH0	1047832	OK	0.2517459	0.0860734	0.0993594	-0.9588238	164.841	-27.941	-272.695	B5-03822-P02-CH0	1047832	OK	0.5744355	0.405552	-0.7110214	0	-84.832	-102.689	4.769	B5-03822-P02-CH1	1047832	OK	0.7797842	-0.0548099	-0.6236445	0	-82.872	-83.738	-0.561	B5-03822-P03-CH0	1047832	OK	0.8657566	-0.334356	-0.3723862	0	-98.67	-65.014	5.219	B5-03822-P03-CH1	1047832	OK	0.6072586	0.7938433	0.0324019	0	-99.7	-25.252	-1.283	B5-03822-P04-CH0	1047832	OK	0.7779575	-0.3252201	0.5376002	0	-126.991	-40.339	3.782	B5-03822-P04-CH1	1047832	OK	0.7448205	-0.6531679	0.1364337	0	-113.597	-34.374	-8.05	NA
0.399674036281179	B5-03822-P01-CH0	1047840	OK	0.2516189	0.0859565	0.1000029	-0.9588007	164.749	-27.901	-272.627	B5-03822-P02-CH0	1047840	OK	0.5758423	0.4222059	-0.7001056	0	-84.522	-102.225	3.452	B5-03822-P02-CH1	1047840	OK	0.7767733	-0.0393855	-0.6285475	0	-82.121	-83.809	-1.011	B5-03822-P03-CH0	1047840	OK	0.8624656	-0.3437495	-0.3714693	0	-97.115	-65.467	5.316	B5-03822-P03-CH1	1047840	OK	0.6060743	0.7947722	0.0317979	0	-100.251	-28.499	0.991	B5-03822-P04-CH0	1047840	OK	0.777983	-0.3064737	0.5484672	0	-127.396	-40.644	4.829	B5-03822-P04-CH1	1047840	OK	0.7453918	-0.6527107	0.1354986	0	-113.535	-33.975	-8.267	NA
0.409665887188209	B5-03822-P01-CH0	1047848	OK	0.2514265	0.0860485	0.0998562	-0.9588582	164.689	-27.86	-272.612	B5-03822-P02-CH0	1047848	OK	0.5769056	0.4386104	-0.689058	0	-84.874	-102.755	4.033	B5-03822-P02-CH1	1047848	OK	0.7746366	-0.0292639	-0.6317292	0	-81.169	-83.248	-1.171	B5-03822-P03-CH0	1047848	OK	0.8573423	-0.3538633	-0.3738249	0	-96.424	-65.543	4.714	B5-03822-P03-CH1	1047848	OK	0.6054546	0.7951537	0.0339886	0	-100.923	-27.8	-0.516	B5-03822-P04-CH0	1047848	OK	0.7765861	-0.2882504	0.5602015	0	-127.622	-42.179	6.914	B5-03822-P04-CH1	1047848	OK	0.7456952	-0.6525104	0.1347922	0	-113.517	-33.457	-8.319	NA
0.419657738095238	B5-03822-P01-CH0	1047856	OK	0.2510815	0.0858049	0.0996951	-0.9589872	164.534	-27.986	-272.661	B5-03822-P02-CH0	1047856	OK	0.5786296	0.4496234	-0.6804605	0	-84.805	-102.837	3.222	B5-03822-P02-CH1	1047856	OK	0.7730135	-0.024112	-0.6339312	0	-80.747	-83.198	-1.762	B5-03822-P03-CH0	1047856	OK	0.8529412	-0.3601422	-0.3778742	0	-95.224	-65.257	4.792	B5-03822-P03-CH1	1047856	OK	0.6037252	0.7963441	0.0367681	0	-100.815	-26.581	-0.124	B5-03822-P04-CH0	1047856	OK	0.7749118	-0.2753023	0.5689642	0	-126.681	-38.945	5.161	B5-03822-P04-CH1	1047856	OK	0.7452277	-0.652942	0.1352865	0	-113.538	-33.795	-8.075	NA
0.429649589002268	B5-03822-P01-CH0	1047864	OK	0.2510999	0.0854081	0.1009463	-0.9588869	164.41	-27.922	-272.789	B5-03822-P02-CH0	1047864	OK	0.5793685	0.4551133	-0.6761686	0	-84.539	-102.329	2.624	B5-03822-P02-CH1	1047864	OK	0.7738205	-0.0226918	-0.6329983	0	-79.262	-81.577	-2.628	B5-03822-P03-CH0	1047864	OK	0.8465494	-0.3601227	-0.3920022	0	-95.959	-63.44	4.189	B5-03822-P03-CH1	1047864	OK	0.6045268	0.7958172	0.0349618	0	-99.883	-26.181	-0.498	B5-03822-P04-CH0	1047864	OK	0.7744872	-0.261749	0.5758967	0	-127.003	-37.234	3.729	B5-03822-P04-CH1	1047864	OK	0.7460676	-0.6518411	0.1359645	0	-113.75	-33.873	-7.693	NA
0.439641439909297	B5-03822-P01-CH0	1047872	OK	0.2500461	0.0856829	0.0997351	-0.9592644	164.31	-28.135	-272.636	B5-03822-P02-CH0	1047872	OK	0.5800546	0.4576097	-0.6738917	0	-85.308	-102.418	3.439	B5-03822-P02-CH1	1047872	OK	0.7741493	-0.0278593	-0.6323897	0	-78.652	-80.519	-2.354	B5-03822-P03-CH0	1047872	OK	0.8366545	-0.3650185	-0.4083757	0	-95.368	-62.565	2.925	B5-03822-P03-CH1	1047872	OK	0.6053571	0.7950913	0.0370483	0	-99.808	-26.335	-0.566	B5-03822-P04-CH0	1047872	OK	0.7720981	-0.2491282	0.5846363	0	-127.388	-39.431	4.367	B5-03822-P04-CH1	1047872	OK	0.7449969	-0.6530397	0.1360835	0	-113.83	-34.148	-7.402	NA
0.449633290816326	B5-03822-P01-CH0	1047880	OK	0.2493686	0.0854632	0.0988946	-0.9595474	164.115	-28.293	-272.742	B5-03822-P02-CH0	1047880	OK	0.5822274	0.4531109	-0.6750569	0	-84.986	-102.122	3.608	B5-03822-P02-CH1	1047880	OK	0.7733686	-0.0406338	-0.6326531	0	-79.78	-81.733	0.001	B5-03822-P03-CH0	1047880	OK	0.8265461	-0.3661353	-0.427512	0	-93.939	-62.007	1.535	B5-03822-P03-CH1	1047880	OK	0.6055078	0.7948981	0.0386953	0	-99.803	-26.244	-0.567	B5-03822-P04-CH0	1047880	OK	0.7704956	-0.2416285	0.5898747	0	-126.867	-39.871	5.629	B5-03822-P04-CH1	1047880	OK	0.7443088	-0.6538198	0.1361032	0	-113.687	-34.201	-7.179	NA
0.459625141723356	B5-03822-P01-CH0	1047888	OK	0.2494618	0.0849228	0.0995745	-0.9595008	163.837	-28.228	-272.808	B5-03822-P02-CH0	1047888	OK	0.5850338	0.4410048	-0.6806249	0	-84.484	-101.625	3.535	B5-03822-P02-CH1	1047888	OK	0.7749706	-0.0557643	-0.6295323	0	-80.335	-80.741	-0.664	B5-03822-P03-CH0	1047888	OK	0.8154313	-0.3677604	-0.4470168	0	-95.299	-59.29	0.342	B5-03822-P03-CH1	1047888	OK	0.6046811	0.795508	0.0390866	0	-99.56	-26.323	-0.444	B5-03822-P04-CH0	1047888	OK	0.7721949	-0.231718	0.5916265	0	-128.304	-40.995	7.514	B5-03822-P04-CH1	1047888	OK	0.7447002	-0.6533201	0.1363615	0	-113.627	-34.104	-7.138	NA
0.469616992630385	B5-03822-P01-CH0	1047896	OK	0.2493863	0.0847032	0.1003847	-0.9594555	163.772	-28.043	-273.06	B5-03822-P02-CH0	1047896	OK	0.5896288	0.4239014	-0.6874922	0	-84.303	-100.671	3.01	B5-03822-P02-CH1	1047896	OK	0.7800683	-0.0727242	-0.6214537	0	-79.906	-79.284	-0.434	B5-03822-P03-CH0	1047896	OK	0.8098479	-0.3779272	-0.448684	0	-92.237	-58.556	1.916	B5-03822-P03-CH1	1047896	OK	0.6039148	0.7960408	0.0400732	0	-99.528	-26.271	-0.311	B5-03822-P04-CH0	1047896	OK	0.7720609	-0.2267243	0.5937323	0	-128.596	-40.296	6.239	B5-03822-P04-CH1	1047896	OK	0.7451553	-0.6528027	0.1363533	0	-113.511	-33.951	-6.931	NA
0.479608843537415	B5-03822-P01-CH0	1047904	OK	0.2492719	0.0844195	0.1012834	-0.9594157	163.571	-27.882	-273.069	B5-03822-P02-CH0	1047904	OK	0.5959703	0.4048274	-0.6934941	0	-83.642	-99.706	2.305	B5-03822-P02-CH1	1047904	OK	0.78476	-0.0987124	-0.6118886	0	-80.934	-79.243	-0.353	B5-03822-P03-CH0	1047904	OK	0.8055466	-0.3852115	-0.4502296	0	-92.33	-57.866	1.696	B5-03822-P03-CH1	1047904	OK	0.6032797	0.7964928	0.0406549	0	-99.475	-26.314	-0.257	B5-03822-P04-CH0	1047904	OK	0.7726335	-0.2227768	0.5944812	0	-128.484	-39.335	5.536	B5-03822-P04-CH1	1047904	OK	0.7457605	-0.6521822	0.1360133	0	-113.428	-33.693	-6.861	NA
0.489600694444444	B5-03822-P01-CH0	1047912	OK	0.2493302	0.0847038	0.1013161	-0.9593721	163.6	-27.861	-272.95	B5-03822-P02-CH0	1047912	OK	0.6021468	0.3856116	-0.6990872	0	-83.359	-99.525	1.736	B5-03822-P02-CH1	1047912	OK	0.7888059	-0.1247851	-0.6018421	0	-82.09	-79.044	-1.783	B5-03822-P03-CH0	1047912	OK	0.8029723	-0.3874893	-0.4528659	0	-94.212	-56.262	0.345	B5-03822-P03-CH1	1047912	OK	0.6028206	0.7967932	0.0415677	0	-99.54	-26.063	-0.431	B5-03822-P04-CH0	1047912	OK	0.7732509	-0.2202794	0.5946091	0	-127.83	-39.412	6.101	B5-03822-P04-CH1	1047912	OK	0.7462337	-0.6517732	0.1353768	0	-113.448	-33.248	-7	NA
0.499592545351474	B5-03822-P01-CH0	1047920	OK	0.248834	0.0855513	0.0994266	-0.9596233	163.785	-28.112	-272.844	B5-03822-P02-CH0	1047920	OK	0.606677	0.3702773	-0.703447	0	-83.756	-98.882	1.423	B5-03822-P02-CH1	1047920	OK	0.7936669	-0.1430535	-0.591294	0	-81.921	-78.511	-0.719	B5-03822-P03-CH0	1047920	OK	0.8010085	-0.3901196	-0.4540837	0	-94.747	-56.793	0.511	B5-03822-P03-CH1	1047920	OK	0.6037998	0.7959865	0.0427932	0	-99.624	-25.892	-0.68	B5-03822-P04-CH0	1047920	OK	0.7746252	-0.2145811	0.594904	0	-129.082	-41.413	7.489	B5-03822-P04-CH1	1047920	OK	0.7448842	-0.6533699	0.135112	0	-113.524	-33.549	-6.756	NA
0.509584396258503	B5-03822-P01-CH0	1047928	OK	0.2488798	0.085553	0.0997817	-0.9595745	163.821	-28.119	-272.836	B5-03822-P02-CH0	1047928	OK	0.6094217	0.3590045	-0.7069094	0	-83.794	-98.068	1.775	B5-03822-P02-CH1	1047928	OK	0.7966577	-0.1546097	-0.5843221	0	-83.063	-79.262	-0.497	B5-03822-P03-CH0	1047928	OK	0.8003909	-0.3896279	-0.4555925	0	-95.531	-57.342	1.93	B5-03822-P03-CH1	1047928	OK	0.6033138	0.7963459	0.0429599	0	-99.578	-26.087	-0.423	B5-03822-P04-CH0	1047928	OK	0.7744303	-0.2121497	0.5960288	0	-129.013	-40.311	5.939	B5-03822-P04-CH1	1047928	OK	0.7450369	-0.6532282	0.134955	0	-113.603	-33.611	-6.725	NA
0.519576247165533	B5-03822-P01-CH0	1047936	OK	0.2484977	0.0858	0.0992001	-0.9597117	163.847	-28.2	-272.79	B5-03822-P02-CH0	1047936	OK	0.613715	0.3520264	-0.7067045	0	-83.078	-99.103	1.512	B5-03822-P02-CH1	1047936	OK	0.7988858	-0.159969	-0.5798201	0	-84.699	-78.942	0.266	B5-03822-P03-CH0	1047936	OK	0.8030064	-0.3861404	-0.4539563	0	-96.846	-55.839	1.783	B5-03822-P03-CH1	1047936	OK	0.6030482	0.7964819	0.0441523	0	-99.32	-25.684	-0.798	B5-03822-P04-CH0	1047936	OK	0.7738681	-0.2124328	0.5966577	0	-128.222	-39.335	5.892	B5-03822-P04-CH1	1047936	OK	0.7450425	-0.6535122	0.1335417	0	-113.56	-33.136	-7.086	NA
0.529568098072562	B5-03822-P01-CH0	1047944	OK	0.2487795	0.0858394	0.0997087	-0.9595825	163.937	-28.165	-272.847	B5-03822-P02-CH0	1047944	OK	0.6135306	0.3460113	-0.7098284	0	-83.437	-99.491	1.954	B5-03822-P02-CH1	1047944	OK	0.8025942	-0.1640659	-0.5735198	0	-84.816	-78.669	-0.417	B5-03822-P03-CH0	1047944	OK	0.8094169	-0.3835288	-0.4446908	0	-95.598	-56.638	2.946	B5-03822-P03-CH1	1047944	OK	0.6022416	0.797107	0.0438807	0	-99.465	-25.8	-0.629	B5-03822-P04-CH0	1047944	OK	0.7740486	-0.2118955	0.5966147	0	-128.326	-39.597	5.603	B5-03822-P04-CH1	1047944	OK	0.7454144	-0.6531738	0.1331213	0	-113.455	-33.041	-7.217	NA
0.539559948979592	B5-03822-P01-CH0	1047952	OK	0.2492749	0.0859442	0.1001036	-0.9594034	163.923	-28.079	-272.616	B5-03822-P02-CH0	1047952	OK	0.6121289	0.3413762	-0.7132745	0	-83.341	-97.875	1.317	B5-03822-P02-CH1	1047952	OK	0.8056043	-0.1685118	-0.5679836	0	-84.445	-78.981	1.495	B5-03822-P03-CH0	1047952	OK	0.8135436	-0.3808902	-0.4393966	0	-96.989	-57.361	3.986	B5-03822-P03-CH1	1047952	OK	0.6015149	0.7977055	0.0429623	0	-99.529	-25.898	-0.746	B5-03822-P04-CH0	1047952	OK	0.7740249	-0.2128748	0.5962967	0	-127.804	-39.795	6.609	B5-03822-P04-CH1	1047952	OK	0.7459125	-0.6526702	0.1328007	0	-113.44	-32.749	-7.625	NA
0.549551799886621	B5-03822-P01-CH0	1047960	OK	0.2492482	0.0865293	0.0993537	-0.9594357	164.052	-27.992	-272.45	B5-03822-P02-CH0	1047960	OK	0.6135537	0.3428649	-0.7113337	0	-82.868	-98.233	-0.033	B5-03822-P02-CH1	1047960	OK	0.8075999	-0.1747814	-0.5632351	0	-84.868	-78.499	0.599	B5-03822-P03-CH0	1047960	OK	0.819486	-0.379602	-0.4293542	0	-96.615	-57.24	3.528	B5-03822-P03-CH1	1047960	OK	0.6019624	0.7973915	0.0425214	0	-99.674	-26.124	-0.643	B5-03822-P04-CH0	1047960	OK	0.7743774	-0.2152855	0.5949721	0	-129.249	-41.318	7.058	B5-03822-P04-CH1	1047960	OK	0.745977	-0.6528224	0.1316864	0	-113.419	-32.066	-8.132	NA
0.559543650793651	B5-03822-P01-CH0	1047968	OK	0.248808	0.086918	0.0982264	-0.9596309	164.144	-28.109	-272.334	B5-03822-P02-CH0	1047968	OK	0.6130337	0.3470049	-0.7097727	0	-83.597	-99.624	0.861	B5-03822-P02-CH1	1047968	OK	0.8079467	-0.1802808	-0.561	0	-85.561	-79.404	1.488	B5-03822-P03-CH0	1047968	OK	0.8241143	-0.3841674	-0.4162344	0	-97.181	-57.808	4.212	B5-03822-P03-CH1	1047968	OK	0.6027872	0.7967434	0.0429838	0	-99.725	-26.347	-0.668	B5-03822-P04-CH0	1047968	OK	0.7741642	-0.215911	0.5950228	0	-128.992	-40.662	6.569	B5-03822-P04-CH1	1047968	OK	0.7455249	-0.6534566	0.1310997	0	-113.495	-31.815	-8.312	NA
0.56953550170068	B5-03822-P01-CH0	1047976	OK	0.2488487	0.0870938	0.097596	-0.9596687	164.138	-28.191	-272.139	B5-03822-P02-CH0	1047976	OK	0.6134444	0.35188	-0.7070123	0	-82.534	-98.886	-0.721	B5-03822-P02-CH1	1047976	OK	0.8089001	-0.1837649	-0.5584901	0	-85.337	-79.42	0.453	B5-03822-P03-CH0	1047976	OK	0.8283435	-0.3895747	-0.4025898	0	-98.84	-57.878	3.881	B5-03822-P03-CH1	1047976	OK	0.6033824	0.7963296	0.0422957	0	-99.673	-26.867	-0.532	B5-03822-P04-CH0	1047976	OK	0.7739924	-0.216872	0.5948969	0	-128.567	-39.998	5.993	B5-03822-P04-CH1	1047976	OK	0.7444928	-0.6543189	0.1326545	0	-113.649	-32.577	-8.034	NA
0.57952735260771	B5-03822-P01-CH0	1047984	OK	0.2496537	0.0867599	0.0989486	-0.9593513	164.149	-28.052	-272.189	B5-03822-P02-CH0	1047984	OK	0.6095151	0.3583346	-0.7071688	0	-83.204	-99.344	0.858	B5-03822-P02-CH1	1047984	OK	0.8090074	-0.1871482	-0.5572096	0	-85.136	-79.308	0.102	B5-03822-P03-CH0	1047984	OK	0.8364615	-0.3946733	-0.3802171	0	-97.497	-59.762	6.171	B5-03822-P03-CH1	1047984	OK	0.6021108	0.797343	0.0413114	0	-99.91	-27.17	-0.134	B5-03822-P04-CH0	1047984	OK	0.7745318	-0.2163962	0.5943679	0	-128.568	-39.712	5.558	B5-03822-P04-CH1	1047984	OK	0.7452119	-0.6531695	0.1342714	0	-113.807	-32.802	-8.214	NA
0.589519203514739	B5-03822-P01-CH0	1047992	OK	0.2494571	0.0868893	0.098907	-0.959395	164.255	-28.037	-272.221	B5-03822-P02-CH0	1047992	OK	0.6065741	0.3666471	-0.7054345	0	-83.68	-100.025	1.846	B5-03822-P02-CH1	1047992	OK	0.8071984	-0.1890161	-0.5591991	0	-84.932	-79.118	-0.334	B5-03822-P03-CH0	1047992	OK	0.8412874	-0.4005044	-0.3630863	0	-98.499	-60.252	6.172	B5-03822-P03-CH1	1047992	OK	0.6019839	0.7974192	0.0416899	0	-99.923	-27.284	-0.028	B5-03822-P04-CH0	1047992	OK	0.7744773	-0.2187857	0.5935636	0	-128.418	-39.145	5.186	B5-03822-P04-CH1	1047992	OK	0.7449408	-0.653278	0.1352442	0	-114.103	-33.094	-8.213	NA
0.599511054421769	B5-03822-P01-CH0	1048000	OK	0.2492988	0.0867919	0.098525	-0.9594843	164.23	-28.028	-272.315	B5-03822-P02-CH0	1048000	OK	0.6054666	0.3767523	-0.7010478	0	-82.57	-100.085	0.418	B5-03822-P02-CH1	1048000	OK	0.802777	-0.1899841	-0.5652036	0	-85.075	-79.253	-0.185	B5-03822-P03-CH0	1048000	OK	0.8460872	-0.4060856	-0.3452983	0	-98.202	-60.41	6.443	B5-03822-P03-CH1	1048000	OK	0.6027755	0.7968229	0.0416542	0	-100.005	-27.894	0.66	B5-03822-P04-CH0	1048000	OK	0.7746697	-0.2351483	0.5870197	0	-128.761	-40.083	4.597	B5-03822-P04-CH1	1048000	OK	0.7443151	-0.6536851	0.1367145	0	-114.193	-33.506	-8.013	NA
0.609502905328798	B5-03822-P01-CH0	1048008	OK	0.2490282	0.0872052	0.0977401	-0.9595974	164.347	-28.068	-272.257	B5-03822-P02-CH0	1048008	OK	0.5991859	0.38969	-0.6993697	0	-83.05	-99.55	1.196	B5-03822-P02-CH1	1048008	OK	0.7975025	-0.1896603	-0.5727292	0	-83.863	-78.531	-1.668	B5-03822-P03-CH0	1048008	OK	0.8492431	-0.4131653	-0.328756	0	-98.691	-60.808	6.828	B5-03822-P03-CH1	1048008	OK	0.6035532	0.7962064	0.0421778	0	-100.031	-27.88	0.476	B5-03822-P04-CH0	1048008	OK	0.7764624	-0.2371133	0.5838523	0	-130.806	-42.701	6.928	B5-03822-P04-CH1	1048008	OK	0.7441506	-0.65375	0.1372982	0	-114.452	-33.314	-8.184	NA
0.619494756235828	B5-03822-P01-CH0	1048016	OK	0.2493127	0.0873045	0.0982511	-0.9594622	164.363	-27.825	-272.237	B5-03822-P02-CH0	1048016	OK	0.5947113	0.4028058	-0.6957485	0	-82.469	-98.645	0.418	B5-03822-P02-CH1	1048016	OK	0.7894374	-0.1886556	-0.5841212	0	-82.912	-78.798	-1.97	B5-03822-P03-CH0	1048016	OK	0.8545247	-0.4198081	-0.3058571	0	-97.738	-61.746	6.965	B5-03822-P03-CH1	1048016	OK	0.6038686	0.7960021	0.0415135	0	-100.279	-28.245	0.801	B5-03822-P04-CH0	1048016	OK	0.7761615	-0.2437811	0.5815016	0	-129.961	-40.918	7.252	B5-03822-P04-CH1	1048016	OK	0.7444336	-0.653121	0.1387498	0	-114.736	-33.289	-8.255	NA
0.629486607142857	B5-03822-P01-CH0	1048024	OK	0.2492106	0.0872358	0.0978843	-0.9595325	164.337	-27.873	-272.28	B5-03822-P02-CH0	1048024	OK	0.5918693	0.4168972	-0.689846	0	-82.787	-100.104	0.747	B5-03822-P02-CH1	1048024	OK	0.7805246	-0.1833469	-0.597633	0	-82.33	-78.206	-2.392	B5-03822-P03-CH0	1048024	OK	0.8589757	-0.4232864	-0.2880786	0	-97.972	-62.802	7.829	B5-03822-P03-CH1	1048024	OK	0.6044219	0.7955766	0.0416169	0	-100.231	-28.32	0.721	B5-03822-P04-CH0	1048024	OK	0.7750637	-0.2493249	0.5806146	0	-130.062	-42.228	5.983	B5-03822-P04-CH1	1048024	OK	0.7440494	-0.6532556	0.1401699	0	-114.921	-33.662	-7.993	NA
0.639478458049887	B5-03822-P01-CH0	1048032	OK	0.2489518	0.0871295	0.0978232	-0.9596156	164.366	-27.839	-272.51	B5-03822-P02-CH0	1048032	OK	0.5861831	0.4296215	-0.6868877	0	-83.767	-100.833	3.087	B5-03822-P02-CH1	1048032	OK	0.7727257	-0.1728814	-0.6107431	0	-81.627	-77.896	-2.327	B5-03822-P03-CH0	1048032	OK	0.8635184	-0.4231694	-0.2743421	0	-97.438	-64.441	9.445	B5-03822-P03-CH1	1048032	OK	0.6049165	0.7951815	0.0419812	0	-100.362	-28.44	1.082	B5-03822-P04-CH0	1048032	OK	0.7747191	-0.2544637	0.5788424	0	-129.738	-40.566	4.344	B5-03822-P04-CH1	1048032	OK	0.7439033	-0.653233	0.1410482	0	-115.042	-33.81	-7.697	NA
0.649470308956916	B5-03822-P01-CH0	1048040	OK	0.2490713	0.0870744	0.0981982	-0.9595513	164.397	-27.81	-272.595	B5-03822-P02-CH0	1048040	OK	0.5805995	0.4391009	-0.6856345	0	-83.388	-99.75	2.45	B5-03822-P02-CH1	1048040	OK	0.7680725	-0.1595968	-0.6201561	0	-79.967	-78.065	-1.38	B5-03822-P03-CH0	1048040	OK	0.8700141	-0.4177254	-0.2618797	0	-95.895	-65.423	10.775	B5-03822-P03-CH1	1048040	OK	0.6047579	0.79529	0.0422104	0	-100.347	-28.267	0.959	B5-03822-P04-CH0	1048040	OK	0.7756474	-0.2551889	0.5772778	0	-130.307	-40.891	5.118	B5-03822-P04-CH1	1048040	OK	0.7440562	-0.6528147	0.1421738	0	-115.281	-34.05	-7.572	NA
0.659462159863946	B5-03822-P01-CH0	1048048	OK	0.2491245	0.0871313	0.0980825	-0.9595441	164.395	-27.764	-272.59	B5-03822-P02-CH0	1048048	OK	0.5776124	0.4493552	-0.6815012	0	-83.09	-100.327	1.611	B5-03822-P02-CH1	1048048	OK	0.7621635	-0.1459222	-0.6307245	0	-80.093	-78.406	-2.067	B5-03822-P03-CH0	1048048	OK	0.8746664	-0.4075065	-0.2624827	0	-97.859	-64.416	9.071	B5-03822-P03-CH1	1048048	OK	0.6049633	0.7951279	0.0423198	0	-100.456	-28.094	1.025	B5-03822-P04-CH0	1048048	OK	0.7760385	-0.2576251	0.5756679	0	-130.077	-41.866	6.238	B5-03822-P04-CH1	1048048	OK	0.74384	-0.6528019	0.1433584	0	-115.443	-34.339	-7.269	NA
0.669454010770975	B5-03822-P01-CH0	1048056	OK	0.2489889	0.0870192	0.0982773	-0.9595696	164.371	-27.732	-272.661	B5-03822-P02-CH0	1048056	OK	0.5720986	0.4591167	-0.6796434	0	-83.958	-100.078	3.503	B5-03822-P02-CH1	1048056	OK	0.7570493	-0.1339863	-0.6394716	0	-80.526	-78.391	-2.052	B5-03822-P03-CH0	1048056	OK	0.8785286	-0.4011931	-0.2592907	0	-96.862	-65.909	10.202	B5-03822-P03-CH1	1048056	OK	0.604736	0.7952543	0.0431849	0	-100.496	-27.637	0.876	B5-03822-P04-CH0	1048056	OK	0.775138	-0.2627859	0.5745473	0	-128.696	-41.019	5.311	B5-03822-P04-CH1	1048056	OK	0.7440176	-0.652525	0.1436973	0	-115.579	-34.314	-7.264	NA
0.679445861678004	B5-03822-P01-CH0	1048064	OK	0.2484424	0.0874458	0.0967784	-0.9598247	164.419	-27.874	-272.553	B5-03822-P02-CH0	1048064	OK	0.5731976	0.4675248	-0.6729525	0	-83.363	-100.708	3.489	B5-03822-P02-CH1	1048064	OK	0.7547292	-0.1189024	-0.6451713	0	-79.587	-78.546	-2.879	B5-03822-P03-CH0	1048064	OK	0.879648	-0.3937085	-0.2668575	0	-98.381	-65.522	10.678	B5-03822-P03-CH1	1048064	OK	0.6062858	0.794031	0.0439581	0	-100.489	-27.594	0.753	B5-03822-P04-CH0	1048064	OK	0.774731	-0.270305	0.5716005	0	-127.365	-39.756	6.216	B5-03822-P04-CH1	1048064	OK	0.7431957	-0.6535894	0.1431118	0	-115.604	-34.198	-7.353	NA
0.689437712585034	B5-03822-P01-CH0	1048072	OK	0.2486652	0.0868346	0.0974077	-0.9597589	164.237	-27.97	-272.587	B5-03822-P02-CH0	1048072	OK	0.5711561	0.4763251	-0.6685021	0	-83.332	-100.645	3.01	B5-03822-P02-CH1	1048072	OK	0.7540869	-0.104228	-0.6484516	0	-78.234	-78.462	-1.885	B5-03822-P03-CH0	1048072	OK	0.8823705	-0.385584	-0.269717	0	-97.592	-65.383	10.798	B5-03822-P03-CH1	1048072	OK	0.6062061	0.794121	0.0434278	0	-100.49	-27.801	0.684	B5-03822-P04-CH0	1048072	OK	0.7761813	-0.2714478	0.5690859	0	-128.337	-40.714	6.507	B5-03822-P04-CH1	1048072	OK	0.743694	-0.652987	0.1432734	0	-115.38	-34.191	-7.494	NA
0.699429563492063	B5-03822-P01-CH0	1048080	OK	0.2492297	0.0863509	0.0986939	-0.9595247	164.103	-27.829	-272.663	B5-03822-P02-CH0	1048080	OK	0.5667579	0.4836799	-0.6669627	0	-84.196	-99.855	3.264	B5-03822-P02-CH1	1048080	OK	0.752044	-0.0941034	-0.6523606	0	-78.174	-79.093	-0.969	B5-03822-P03-CH0	1048080	OK	0.8835525	-0.3802639	-0.2733759	0	-97.511	-65.752	11.049	B5-03822-P03-CH1	1048080	OK	0.6048933	0.7951276	0.0433148	0	-100.278	-27.303	0.209	B5-03822-P04-CH0	1048080	OK	0.7770032	-0.2727948	0.5673174	0	-128.389	-40.41	6.169	B5-03822-P04-CH1	1048080	OK	0.7445665	-0.6518977	0.1437013	0	-115.314	-34.134	-7.507	NA
0.709421414399093	B5-03822-P01-CH0	1048088	OK	0.2496027	0.086059	0.0992748	-0.959394	164.017	-27.772	-272.706	B5-03822-P02-CH0	1048088	OK	0.5661522	0.4924128	-0.6610608	0	-84.97	-101.008	3.929	B5-03822-P02-CH1	1048088	OK	0.749679	-0.0865248	-0.656121	0	-78.449	-80.192	-2.118	B5-03822-P03-CH0	1048088	OK	0.8838321	-0.3795408	-0.2734768	0	-96.656	-65.53	9.331	B5-03822-P03-CH1	1048088	OK	0.6041331	0.7957078	0.0432698	0	-100.223	-27.058	0.117	B5-03822-P04-CH0	1048088	OK	0.7766687	-0.2756917	0.5663743	0	-127.273	-39.084	6.611	B5-03822-P04-CH1	1048088	OK	0.7449242	-0.6514801	0.1437417	0	-115.133	-34.132	-7.558	NA
0.719413265306122	B5-03822-P01-CH0	1048096	OK	0.2497478	0.0857222	0.0994773	-0.9593654	163.947	-27.87	-272.744	B5-03822-P02-CH0	1048096	OK	0.5680789	0.5012623	-0.652704	0	-84.746	-101.802	2.843	B5-03822-P02-CH1	1048096	OK	0.7487748	-0.0794737	-0.6580427	0	-78.8	-79.543	-2.037	B5-03822-P03-CH0	1048096	OK	0.8830558	-0.3793222	-0.2762737	0	-96.371	-65.539	9.926	B5-03822-P03-CH1	1048096	OK	0.603739	0.7960072	0.0432628	0	-100.126	-26.994	0.001	B5-03822-P04-CH0	1048096	OK	0.7757348	-0.2745455	0.568208	0	-128.08	-41.812	7.017	B5-03822-P04-CH1	1048096	OK	0.7454578	-0.6510937	0.1427222	0	-114.777	-33.762	-7.892	NA
0.729405116213152	B5-03822-P01-CH0	1048104	OK	0.2497395	0.0859533	0.0992084	-0.9593747	164.054	-27.956	-272.723	B5-03822-P02-CH0	1048104	OK	0.5673227	0.5091952	-0.647198	0	-84.91	-100.975	3.096	B5-03822-P02-CH1	1048104	OK	0.7496785	-0.0716392	-0.6579134	0	-78.149	-78.934	-2.862	B5-03822-P03-CH0	1048104	OK	0.8799298	-0.3807808	-0.2841294	0	-96.007	-65.374	8.531	B5-03822-P03-CH1	1048104	OK	0.6039908	0.7958008	0.043545	0	-100.044	-27.143	0.025	B5-03822-P04-CH0	1048104	OK	0.775402	-0.2691411	0.5712396	0	-127.565	-39.476	5.346	B5-03822-P04-CH1	1048104	OK	0.7452357	-0.6513479	0.1427224	0	-114.828	-33.985	-7.665	NA
0.739396967120181	B5-03822-P01-CH0	1048112	OK	0.250101	0.0856669	0.099596	-0.959266	164.002	-27.99	-272.809	B5-03822-P02-CH0	1048112	OK	0.5696743	0.5205884	-0.6359708	0	-84.832	-101.908	1.866	B5-03822-P02-CH1	1048112	OK	0.7495971	-0.067787	-0.658414	0	-78.181	-79.05	-2.536	B5-03822-P03-CH0	1048112	OK	0.8749082	-0.3824364	-0.2971163	0	-96.112	-65.414	7.971	B5-03822-P03-CH1	1048112	OK	0.6034803	0.7961965	0.0433886	0	-99.875	-27.111	-0.233	B5-03822-P04-CH0	1048112	OK	0.7755156	-0.270553	0.570418	0	-127.413	-39.633	5.555	B5-03822-P04-CH1	1048112	OK	0.7455075	-0.6509537	0.1431009	0	-114.762	-34.174	-7.492	NA
0.749388818027211	B5-03822-P01-CH0	1048120	OK	0.250022	0.0856217	0.0994374	-0.9593071	163.978	-28.07	-272.745	B5-03822-P02-CH0	1048120	OK	0.5669401	0.5344501	-0.6268509	0	-85.871	-100.536	2.981	B5-03822-P02-CH1	1048120	OK	0.7492593	-0.0608408	-0.6594762	0	-78.318	-78.868	-2.589	B5-03822-P03-CH0	1048120	OK	0.8666585	-0.3855398	-0.3166418	0	-96.72	-64.727	7.484	B5-03822-P03-CH1	1048120	OK	0.6037112	0.7960116	0.0435695	0	-99.748	-27.39	-0.242	B5-03822-P04-CH0	1048120	OK	0.7753392	-0.2719004	0.5700169	0	-127.479	-39.938	5.305	B5-03822-P04-CH1	1048120	OK	0.7453468	-0.6511634	0.1429836	0	-114.742	-34.321	-7.316	NA
0.75938066893424	B5-03822-P01-CH0	1048128	OK	0.2503091	0.0854569	0.0997672	-0.9592127	163.933	-28.021	-272.758	B5-03822-P02-CH0	1048128	OK	0.5688387	0.543789	-0.6170219	0	-85.9	-100.564	2.846	B5-03822-P02-CH1	1048128	OK	0.7502774	-0.0552004	-0.6588147	0	-78.166	-79.191	-3.093	B5-03822-P03-CH0	1048128	OK	0.8566803	-0.3910582	-0.3364111	0	-95.89	-63.884	5.821	B5-03822-P03-CH1	1048128	OK	0.6033075	0.7963172	0.043577	0	-99.714	-27.462	-0.38	B5-03822-P04-CH0	1048128	OK	0.7753552	-0.2723356	0.5697873	0	-127.433	-39.862	5.307	B5-03822-P04-CH1	1048128	OK	0.7453952	-0.6510999	0.1430209	0	-114.6	-34.353	-7.533	NA
0.76937251984127	B5-03822-P01-CH0	1048136	OK	0.2505924	0.0855602	0.0998433	-0.9591216	163.973	-27.938	-272.652	B5-03822-P02-CH0	1048136	OK	0.5697778	0.5512093	-0.6095257	0	-87.051	-100.848	3.556	B5-03822-P02-CH1	1048136	OK	0.7497388	-0.0547179	-0.6594677	0	-79.194	-80.232	-2.337	B5-03822-P03-CH0	1048136	OK	0.8476982	-0.3982894	-0.3503902	0	-94.216	-63.528	5.254	B5-03822-P03-CH1	1048136	OK	0.6027191	0.7967544	0.0437284	0	-99.817	-27.187	-0.761	B5-03822-P04-CH0	1048136	OK	0.7754325	-0.2714962	0.5700827	0	-127.795	-40.257	5.425	B5-03822-P04-CH1	1048136	OK	0.7455668	-0.6509643	0.1427433	0	-114.603	-34.191	-7.729	NA
0.779364370748299	B5-03822-P01-CH0	1048144	OK	0.2508003	0.0854333	0.1004352	-0.9590167	164.072	-27.866	-272.85	B5-03822-P02-CH0	1048144	OK	0.5728744	0.5574089	-0.6009244	0	-87.231	-100.963	3.652	B5-03822-P02-CH1	1048144	OK	0.7511302	-0.0545637	-0.6578953	0	-78.797	-78.885	-2.539	B5-03822-P03-CH0	1048144	OK	0.84128	-0.4028509	-0.3604984	0	-94.781	-62.234	4.829	B5-03822-P03-CH1	1048144	OK	0.601931	0.7973537	0.0436595	0	-99.789	-27.251	-0.659	B5-03822-P04-CH0	1048144	OK	0.7757258	-0.2697984	0.5704895	0	-128.311	-40.752	5.727	B5-03822-P04-CH1	1048144	OK	0.7458194	-0.6507017	0.1426211	0	-114.428	-34.323	-7.405	NA
0.789356221655329	B5-03822-P01-CH0	1048152	OK	0.25055	0.0858322	0.0995021	-0.9591438	164.184	-27.79	-272.895	B5-03822-P02-CH0	1048152	OK	0.5759035	0.5620183	-0.5936923	0	-86.871	-99.634	2.968	B5-03822-P02-CH1	1048152	OK	0.7525373	-0.0621223	-0.655613	0	-78.72	-78.931	-1.86	B5-03822-P03-CH0	1048152	OK	0.83749	-0.4070331	-0.3646019	0	-95.196	-61.531	4.964	B5-03822-P03-CH1	1048152	OK	0.6024218	0.796939	0.0444538	0	-99.834	-27.169	-0.637	B5-03822-P04-CH0	1048152	OK	0.7751586	-0.2697272	0.5712937	0	-128.443	-40.741	5.842	B5-03822-P04-CH1	1048152	OK	0.7449299	-0.6517407	0.1425251	0	-114.543	-34.532	-7.025	NA
0.799348072562358	B5-03822-P01-CH0	1048160	OK	0.2501886	0.0863038	0.0986114	-0.9592878	164.31	-27.861	-272.783	B5-03822-P02-CH0	1048160	OK	0.5805415	0.5665034	-0.5848465	0	-86.532	-99.949	2.229	B5-03822-P02-CH1	1048160	OK	0.7526756	-0.0729497	-0.6543377	0	-79.728	-78.885	-0.642	B5-03822-P03-CH0	1048160	OK	0.8353626	-0.4086108	-0.3677045	0	-95.692	-61.494	6.277	B5-03822-P03-CH1	1048160	OK	0.6028699	0.7965611	0.0451478	0	-99.917	-27.106	-0.794	B5-03822-P04-CH0	1048160	OK	0.7748231	-0.2690458	0.5720695	0	-128.793	-41.129	6.011	B5-03822-P04-CH1	1048160	OK	0.7445482	-0.652419	0.141412	0	-114.622	-34.35	-7.09	NA
0.809339923469388	B5-03822-P01-CH0	1048168	OK	0.2503222	0.0863282	0.0984123	-0.9592712	164.373	-27.958	-272.773	B5-03822-P02-CH0	1048168	OK	0.5828874	0.5711097	-0.577993	0	-87.196	-100.491	2.566	B5-03822-P02-CH1	1048168	OK	0.7548634	-0.0851955	-0.6503253	0	-79.913	-78.077	-1.491	B5-03822-P03-CH0	1048168	OK	0.8335071	-0.4094668	-0.3709486	0	-95.104	-61.151	5.074	B5-03822-P03-CH1	1048168	OK	0.6031503	0.7963559	0.0450229	0	-100.014	-27.51	-0.729	B5-03822-P04-CH0	1048168	OK	0.7745804	-0.2677728	0.5729947	0	-128.955	-41.443	6.041	B5-03822-P04-CH1	1048168	OK	0.7442334	-0.6528041	0.1412922	0	-114.563	-34.678	-7.004	NA
0.819331774376417	B5-03822-P01-CH0	1048176	OK	0.2507267	0.0864336	0.0985906	-0.9591378	164.479	-27.868	-272.839	B5-03822-P02-CH0	1048176	OK	0.5866123	0.5722159	-0.57311	0	-86.553	-100.185	1.667	B5-03822-P02-CH1	1048176	OK	0.7573377	-0.1023024	-0.6449604	0	-80.162	-78.104	-1.399	B5-03822-P03-CH0	1048176	OK	0.8308686	-0.410019	-0.3762204	0	-94.576	-60.022	3.947	B5-03822-P03-CH1	1048176	OK	0.6025449	0.7968093	0.0451074	0	-100.009	-27.305	-0.859	B5-03822-P04-CH0	1048176	OK	0.7745778	-0.2666329	0.5735295	0	-128.929	-41.264	6.305	B5-03822-P04-CH1	1048176	OK	0.7441489	-0.65273	0.1420774	0	-114.69	-35.073	-6.486	NA
0.829323625283447	B5-03822-P01-CH0	1048184	OK	0.2506311	0.0863648	0.0982403	-0.9592049	164.349	-27.831	-272.685	B5-03822-P02-CH0	1048184	OK	0.5866521	0.5720762	-0.5732087	0	-86.364	-98.918	2.124	B5-03822-P02-CH1	1048184	OK	0.7618605	-0.1184905	-0.6368112	0	-79.559	-76.741	-1.892	B5-03822-P03-CH0	1048184	OK	0.8281783	-0.4116435	-0.3803555	0	-94.097	-59.702	4.053	B5-03822-P03-CH1	1048184	OK	0.6027361	0.7966592	0.0452044	0	-100.146	-27.244	-0.986	B5-03822-P04-CH0	1048184	OK	0.7743779	-0.2665615	0.5738326	0	-128.857	-40.72	5.89	B5-03822-P04-CH1	1048184	OK	0.7441593	-0.6529566	0.1409775	0	-114.445	-34.536	-7.009	NA
0.839315476190476	B5-03822-P01-CH0	1048192	OK	0.2505486	0.0867017	0.0980182	-0.9592188	164.513	-27.76	-272.802	B5-03822-P02-CH0	1048192	OK	0.5875155	0.5680365	-0.5763332	0	-85.917	-98.897	3.073	B5-03822-P02-CH1	1048192	OK	0.7643446	-0.1352146	-0.6304715	0	-80.171	-76.906	-1.988	B5-03822-P03-CH0	1048192	OK	0.8237005	-0.4132979	-0.3882039	0	-95.234	-59.867	4.234	B5-03822-P03-CH1	1048192	OK	0.6029795	0.7964657	0.0453673	0	-100.321	-27.427	-0.558	B5-03822-P04-CH0	1048192	OK	0.7743273	-0.2663321	0.5740073	0	-128.897	-40.564	6.132	B5-03822-P04-CH1	1048192	OK	0.7441366	-0.6531569	0.1401672	0	-114.522	-34.351	-6.877	NA
0.849307327097506	B5-03822-P01-CH0	1048200	OK	0.2512266	0.0862587	0.0997821	-0.9588995	164.497	-27.607	-272.938	B5-03822-P02-CH0	1048200	OK	0.5854825	0.561972	-0.5842925	0	-86.531	-99.455	3.818	B5-03822-P02-CH1	1048200	OK	0.7688679	-0.1535145	-0.6207056	0	-79.848	-76.81	-2.047	B5-03822-P03-CH0	1048200	OK	0.821055	-0.4115572	-0.3955875	0	-95.067	-58.993	3.817	B5-03822-P03-CH1	1048200	OK	0.6014964	0.7976247	0.0446876	0	-100.478	-27.436	-0.457	B5-03822-P04-CH0	1048200	OK	0.7746864	-0.2653342	0.5739849	0	-128.67	-40.319	6.11	B5-03822-P04-CH1	1048200	OK	0.7450939	-0.6519914	0.140507	0	-114.417	-34.567	-6.624	NA
0.859299178004535	B5-03822-P01-CH0	1048208	OK	0.2510618	0.0866569	0.0993076	-0.958956	164.648	-27.673	-272.933	B5-03822-P02-CH0	1048208	OK	0.5861446	0.5517905	-0.5932636	0	-86.345	-99.813	3.307	B5-03822-P02-CH1	1048208	OK	0.7734953	-0.1722772	-0.609939	0	-80.361	-77.042	-0.656	B5-03822-P03-CH0	1048208	OK	0.818189	-0.4084243	-0.4046682	0	-95.306	-57.647	2.791	B5-03822-P03-CH1	1048208	OK	0.602024	0.7972301	0.0446249	0	-100.563	-27.56	-0.448	B5-03822-P04-CH0	1048208	OK	0.7746348	-0.2660226	0.573736	0	-128.657	-40.259	6.315	B5-03822-P04-CH1	1048208	OK	0.744526	-0.6527498	0.1399955	0	-114.282	-34.903	-6.267	NA
0.869291028911565	B5-03822-P01-CH0	1048216	OK	0.2511347	0.086665	0.0998483	-0.95888	164.752	-27.697	-273.045	B5-03822-P02-CH0	1048216	OK	0.5875001	0.5357285	-0.606497	0	-85.219	-99.448	2.498	B5-03822-P02-CH1	1048216	OK	0.7784355	-0.1879127	-0.5989382	0	-81.438	-76.336	-0.86	B5-03822-P03-CH0	1048216	OK	0.8151529	-0.4019701	-0.4170681	0	-96.816	-57.124	4.339	B5-03822-P03-CH1	1048216	OK	0.6017583	0.7974325	0.0445906	0	-100.612	-27.87	-0.086	B5-03822-P04-CH0	1048216	OK	0.7747837	-0.2663533	0.5733813	0	-128.639	-40.429	6.48	B5-03822-P04-CH1	1048216	OK	0.7451051	-0.6523255	0.1388881	0	-114.123	-34.703	-6.226	NA
0.879282879818594	B5-03822-P01-CH0	1048224	OK	0.2512599	0.0867165	0.0996979	-0.9588582	164.751	-27.744	-272.998	B5-03822-P02-CH0	1048224	OK	0.5882025	0.5179075	-0.6211197	0	-85.418	-99.671	3.196	B5-03822-P02-CH1	1048224	OK	0.7828435	-0.2029536	-0.5881886	0	-82.845	-76.514	-1.629	B5-03822-P03-CH0	1048224	OK	0.814621	-0.3970796	-0.4227533	0	-95.346	-56.632	3.563	B5-03822-P03-CH1	1048224	OK	0.6019424	0.7972969	0.0445316	0	-100.374	-27.843	-0.439	B5-03822-P04-CH0	1048224	OK	0.7745212	-0.2678832	0.5730231	0	-128.312	-40.047	6.153	B5-03822-P04-CH1	1048224	OK	0.7451493	-0.6523132	0.138708	0	-114.271	-34.683	-6.201	NA
0.889274730725623	B5-03822-P01-CH0	1048232	OK	0.2513798	0.0870153	0.0997224	-0.9587972	164.882	-27.836	-272.98	B5-03822-P02-CH0	1048232	OK	0.5899258	0.4968414	-0.6365031	0	-85.183	-100.394	3.816	B5-03822-P02-CH1	1048232	OK	0.7884732	-0.2153412	-0.5761407	0	-83.373	-77.399	-1.646	B5-03822-P03-CH0	1048232	OK	0.8107256	-0.3949356	-0.4321457	0	-96.982	-56.52	3.314	B5-03822-P03-CH1	1048232	OK	0.6022803	0.7970679	0.0440589	0	-100.397	-28.338	-0.018	B5-03822-P04-CH0	1048232	OK	0.774636	-0.2683365	0.5726557	0	-128.271	-40.278	6.312	B5-03822-P04-CH1	1048232	OK	0.7450022	-0.6525303	0.1384774	0	-114.254	-34.936	-6.044	NA
0.899266581632653	B5-03822-P01-CH0	1048240	OK	0.2517938	0.0869581	0.1001788	-0.9586461	164.902	-27.783	-272.92	B5-03822-P02-CH0	1048240	OK	0.5943658	0.4707451	-0.6520186	0	-83.51	-100.284	2.241	B5-03822-P02-CH1	1048240	OK	0.7928901	-0.2218665	-0.5675391	0	-84.292	-78.201	0.16	B5-03822-P03-CH0	1048240	OK	0.8074595	-0.3925739	-0.4403351	0	-98.028	-56.764	3.626	B5-03822-P03-CH1	1048240	OK	0.6023567	0.7970551	0.0432394	0	-100.391	-28.759	0.16	B5-03822-P04-CH0	1048240	OK	0.774729	-0.2686003	0.5724062	0	-128.116	-40.002	6.087	B5-03822-P04-CH1	1048240	OK	0.7452762	-0.6522165	0.1384814	0	-114.302	-35.017	-5.959	NA
0.909258432539682	B5-03822-P01-CH0	1048248	OK	0.2518461	0.0869427	0.1006952	-0.9585797	164.889	-27.598	-272.971	B5-03822-P02-CH0	1048248	OK	0.5949236	0.4440118	-0.6700145	0	-83.576	-99.877	2.069	B5-03822-P02-CH1	1048248	OK	0.7974083	-0.2256327	-0.5596694	0	-84.419	-78.487	0.291	B5-03822-P03-CH0	1048248	OK	0.8066511	-0.3888871	-0.4450627	0	-97.463	-56.639	4.537	B5-03822-P03-CH1	1048248	OK	0.6020483	0.7972943	0.0431246	0	-100.44	-28.716	0.391	B5-03822-P04-CH0	1048248	OK	0.7748729	-0.2688872	0.5720767	0	-128.07	-39.915	6.204	B5-03822-P04-CH1	1048248	OK	0.7456305	-0.6519289	0.1379272	0	-114.198	-34.814	-5.651	NA
0.919250283446712	B5-03822-P01-CH0	1048256	OK	0.2512694	0.0869209	0.0999691	-0.958809	164.805	-27.699	-272.98	B5-03822-P02-CH0	1048256	OK	0.5968535	0.4182589	-0.6847083	0	-82.944	-99.848	2.221	B5-03822-P02-CH1	1048256	OK	0.8020355	-0.2317857	-0.5504675	0	-83.792	-77.796	-0.589	B5-03822-P03-CH0	1048256	OK	0.8063065	-0.3851816	-0.4488931	0	-97.052	-55.43	3.67	B5-03822-P03-CH1	1048256	OK	0.6027755	0.7967254	0.0434773	0	-100.446	-28.83	0.616	B5-03822-P04-CH0	1048256	OK	0.774595	-0.269789	0.5720284	0	-128.09	-39.945	6.001	B5-03822-P04-CH1	1048256	OK	0.7447942	-0.6530502	0.1371384	0	-114.078	-34.984	-5.448	NA
0.929242134353741	B5-03822-P01-CH0	1048264	OK	0.251188	0.0869777	0.1000012	-0.9588218	164.886	-27.69	-273.123	B5-03822-P02-CH0	1048264	OK	0.6010639	0.3893098	-0.6979686	0	-81	-99.288	1.002	B5-03822-P02-CH1	1048264	OK	0.802525	-0.2384804	-0.5468828	0	-84.867	-78.123	0.345	B5-03822-P03-CH0	1048264	OK	0.8056392	-0.3841627	-0.4509595	0	-97.023	-55.261	2.65	B5-03822-P03-CH1	1048264	OK	0.6026283	0.7968164	0.0438485	0	-100.339	-28.782	0.768	B5-03822-P04-CH0	1048264	OK	0.7745908	-0.269508	0.5721665	0	-128.192	-40.174	6.237	B5-03822-P04-CH1	1048264	OK	0.744609	-0.6533108	0.1369033	0	-114.136	-35.208	-5.048	NA
0.939233985260771	B5-03822-P01-CH0	1048272	OK	0.2510852	0.08705	0.0993537	-0.9589095	164.871	-27.739	-272.982	B5-03822-P02-CH0	1048272	OK	0.6022237	0.3603132	-0.7123911	0	-80.847	-98.266	1.632	B5-03822-P02-CH1	1048272	OK	0.8044931	-0.2409149	-0.5429096	0	-84.731	-77.66	0.715	B5-03822-P03-CH0	1048272	OK	0.8039371	-0.3837738	-0.4543157	0	-97.843	-55.089	2.066	B5-03822-P03-CH1	1048272	OK	0.6031922	0.7963827	0.0439741	0	-100.269	-28.763	0.45	B5-03822-P04-CH0	1048272	OK	0.7743169	-0.2694155	0.5725807	0	-128.19	-40.354	6.249	B5-03822-P04-CH1	1048272	OK	0.7442622	-0.6538947	0.1359983	0	-113.91	-34.998	-5.31	NA
0.9492258361678	B5-03822-P01-CH0	1048280	OK	0.2506614	0.0871118	0.0982879	-0.9591245	164.869	-27.817	-273.021	B5-03822-P02-CH0	1048280	OK	0.6070489	0.3363574	-0.719969	0	-80.293	-99.09	1.859	B5-03822-P02-CH1	1048280	OK	0.8060469	-0.2438264	-0.5392932	0	-85.498	-77.832	-0.024	B5-03822-P03-CH0	1048280	OK	0.8040935	-0.3832427	-0.4544872	0	-97.077	-55.738	3.546	B5-03822-P03-CH1	1048280	OK	0.6037206	0.7959382	0.0447633	0	-100.168	-28.576	0.567	B5-03822-P04-CH0	1048280	OK	0.7738304	-0.2697832	0.573065	0	-128.124	-40.448	6.405	B5-03822-P04-CH1	1048280	OK	0.7435832	-0.6548519	0.1351036	0	-113.799	-34.804	-5.509	NA
0.95921768707483	B5-03822-P01-CH0	1048288	OK	0.2508279	0.0872508	0.0984863	-0.959048	164.971	-27.784	-273.05	B5-03822-P02-CH0	1048288	OK	0.6118255	0.3124121	-0.7266831	0	-78.926	-98.988	-0.154	B5-03822-P02-CH1	1048288	OK	0.8103079	-0.2443806	-0.5326154	0	-84.78	-77.887	-0.004	B5-03822-P03-CH0	1048288	OK	0.8031371	-0.3841071	-0.4554475	0	-97.565	-56.253	4.168	B5-03822-P03-CH1	1048288	OK	0.6035079	0.7961046	0.0446742	0	-100.134	-28.622	0.657	B5-03822-P04-CH0	1048288	OK	0.7738081	-0.2693151	0.5733153	0	-128.069	-40.451	6.364	B5-03822-P04-CH1	1048288	OK	0.7439094	-0.6545131	0.1349498	0	-113.992	-34.696	-5.355	NA
0.969209537981859	B5-03822-P01-CH0	1048296	OK	0.2510332	0.0870943	0.098481	-0.9590091	164.966	-27.791	-273.083	B5-03822-P02-CH0	1048296	OK	0.6118226	0.2917264	-0.7352339	0	-78.855	-98.88	0.651	B5-03822-P02-CH1	1048296	OK	0.8113082	-0.2462676	-0.5302182	0	-85.99	-78.502	-0.544	B5-03822-P03-CH0	1048296	OK	0.8039789	-0.3843366	-0.4537657	0	-96.608	-56.229	4.421	B5-03822-P03-CH1	1048296	OK	0.60329	0.7962798	0.0444947	0	-100.048	-28.474	0.51	B5-03822-P04-CH0	1048296	OK	0.7736218	-0.2696698	0.5734	0	-127.804	-39.875	5.915	B5-03822-P04-CH1	1048296	OK	0.7439387	-0.6545177	0.1347656	0	-113.96	-34.627	-5.529	NA
0.979201388888889	B5-03822-P01-CH0	1048304	OK	0.2513333	0.0872066	0.0985258	-0.9589157	165.088	-27.717	-273.203	B5-03822-P02-CH0	1048304	OK	0.6099974	0.2756284	-0.7429213	0	-78.558	-99.055	2.009	B5-03822-P02-CH1	1048304	OK	0.814018	-0.2487554	-0.5248766	0	-85.624	-79.138	0.585	B5-03822-P03-CH0	1048304	OK	0.8047045	-0.3873211	-0.4499255	0	-97.126	-56.722	4.732	B5-03822-P03-CH1	1048304	OK	0.6030985	0.7964464	0.0441057	0	-100.197	-28.468	0.661	B5-03822-P04-CH0	1048304	OK	0.7737747	-0.2685804	0.5737049	0	-127.939	-40.294	6.548	B5-03822-P04-CH1	1048304	OK	0.7440693	-0.6544102	0.1345666	0	-113.911	-34.502	-5.526	NA
0.989193239795918	B5-03822-P01-CH0	1048312	OK	0.2517781	0.0868248	0.0996871	-0.9587136	165.022	-27.546	-273.22	B5-03822-P02-CH0	1048312	OK	0.604936	0.2642066	-0.751164	0	-79.566	-99.668	2.116	B5-03822-P02-CH1	1048312	OK	0.8154352	-0.2496258	-0.5222571	0	-85.536	-78.694	0.413	B5-03822-P03-CH0	1048312	OK	0.8045595	-0.385982	-0.4513335	0	-97.235	-56.241	4.318	B5-03822-P03-CH1	1048312	OK	0.6019378	0.7973326	0.0439497	0	-100.084	-28.136	0.335	B5-03822-P04-CH0	1048312	OK	0.7741002	-0.2676371	0.5737065	0	-127.981	-40.271	6.416	B5-03822-P04-CH1	1048312	OK	0.7454547	-0.6530106	0.1336953	0	-113.82	-33.74	-5.998	NA
0.999185090702948	B5-03822-P01-CH0	1048320	OK	0.2518795	0.0866882	0.0995568	-0.9587128	165.015	-27.504	-273.373	B5-03822-P02-CH0	1048320	OK	0.6040964	0.2515754	-0.7561596	0	-78.481	-98.401	1.413	B5-03822-P02-CH1	1048320	OK	0.8153768	-0.2529795	-0.5207323	0	-85.722	-78.725	1.127	B5-03822-P03-CH0	1048320	OK	0.804273	-0.3853122	-0.4524151	0	-97.37	-55.723	3.78	B5-03822-P03-CH1	1048320	OK	0.6017268	0.7974905	0.0439745	0	-100.125	-27.957	0.378	B5-03822-P04-CH0	1048320	OK	0.7739449	-0.2675447	0.5739592	0	-127.925	-40.349	6.501	B5-03822-P04-CH1	1048320	OK	0.7454491	-0.6530225	0.1336685	0	-113.706	-33.672	-5.758	NA
1.00917694160998	B5-03822-P01-CH0	1048328	OK	0.2522814	0.0867868	0.0994173	-0.9586127	165.108	-27.578	-273.257	B5-03822-P02-CH0	1048328	OK	0.6050921	0.2436539	-0.7579553	0	-77.512	-98.581	0.305	B5-03822-P02-CH1	1048328	OK	0.8160662	-0.2537271	-0.5192866	0	-84.916	-78.729	1.439	B5-03822-P03-CH0	1048328	OK	0.80425	-0.3852295	-0.4525263	0	-97.512	-55.553	3.118	B5-03822-P03-CH1	1048328	OK	0.6016022	0.7975939	0.0438039	0	-100.125	-27.906	0.076	B5-03822-P04-CH0	1048328	OK	0.7739114	-0.266962	0.5742756	0	-127.903	-40.504	6.403	B5-03822-P04-CH1	1048328	OK	0.7458082	-0.65261	0.1336799	0	-113.831	-33.449	-6.092	NA
1.01916879251701	B5-03822-P01-CH0	1048336	OK	0.2527424	0.086851	0.0999222	-0.958433	165.207	-27.478	-273.197	B5-03822-P02-CH0	1048336	OK	0.6024523	0.2359507	-0.7624818	0	-78.035	-98.309	1.608	B5-03822-P02-CH1	1048336	OK	0.8125666	-0.2545297	-0.524357	0	-87.024	-79.284	0.331	B5-03822-P03-CH0	1048336	OK	0.8074689	-0.3821928	-0.4493581	0	-98.066	-56.765	4.621	B5-03822-P03-CH1	1048336	OK	0.6010171	0.7980367	0.0437714	0	-100.147	-27.792	-0.033	B5-03822-P04-CH0	1048336	OK	0.7741344	-0.265976	0.5744325	0	-127.927	-40.69	6.724	B5-03822-P04-CH1	1048336	OK	0.7461433	-0.6521321	0.1341416	0	-113.85	-33.521	-5.898	NA
1.02916064342404	B5-03822-P01-CH0	1048344	OK	0.2530259	0.0866377	0.10022	-0.9583464	165.149	-27.428	-273.141	B5-03822-P02-CH0	1048344	OK	0.6037378	0.2308781	-0.7630176	0	-77.11	-98.787	-0.209	B5-03822-P02-CH1	1048344	OK	0.8152831	-0.2524859	-0.5211183	0	-85.17	-78.922	0.234	B5-03822-P03-CH0	1048344	OK	0.8111789	-0.3783064	-0.4459518	0	-98.168	-55.79	3.328	B5-03822-P03-CH1	1048344	OK	0.6006863	0.7982902	0.0436898	0	-100.049	-27.712	-0.152	B5-03822-P04-CH0	1048344	OK	0.7742783	-0.2655027	0.5744575	0	-127.9	-40.571	6.671	B5-03822-P04-CH1	1048344	OK	0.7463374	-0.6518174	0.1345904	0	-113.866	-33.546	-5.937	NA
1.03915249433107	B5-03822-P01-CH0	1048352	OK	0.2530204	0.0867575	0.0998196	-0.9583788	165.183	-27.456	-273.119	B5-03822-P02-CH0	1048352	OK	0.6005722	0.228931	-0.7660964	0	-77.575	-99.508	1.785	B5-03822-P02-CH1	1048352	OK	0.813734	-0.2501647	-0.524647	0	-86.042	-78.742	-0.113	B5-03822-P03-CH0	1048352	OK	0.8134219	-0.3773398	-0.4426731	0	-98.622	-55.714	3.626	B5-03822-P03-CH1	1048352	OK	0.6009638	0.7980679	0.0439339	0	-99.879	-27.681	-0.163	B5-03822-P04-CH0	1048352	OK	0.7741036	-0.2663774	0.574288	0	-127.753	-40.076	6.246	B5-03822-P04-CH1	1048352	OK	0.7463295	-0.6518705	0.1343769	0	-113.856	-33.309	-6.158	NA
1.0491443452381	B5-03822-P01-CH0	1048360	OK	0.2535212	0.0868491	0.100068	-0.9582122	165.201	-27.337	-273.013	B5-03822-P02-CH0	1048360	OK	0.5966388	0.2271856	-0.769681	0	-77.439	-98.914	1.47	B5-03822-P02-CH1	1048360	OK	0.8139872	-0.2512193	-0.5237497	0	-85.629	-78.926	0.308	B5-03822-P03-CH0	1048360	OK	0.8159312	-0.3789797	-0.4366127	0	-98.616	-56.281	3.924	B5-03822-P03-CH1	1048360	OK	0.6011227	0.7979949	0.043078	0	-99.819	-27.992	-0.112	B5-03822-P04-CH0	1048360	OK	0.7744425	-0.2662222	0.5739029	0	-127.868	-39.738	5.939	B5-03822-P04-CH1	1048360	OK	0.7463654	-0.6516014	0.1354782	0	-113.897	-33.544	-5.938	NA
1.05913619614512	B5-03822-P01-CH0	1048368	OK	0.2538316	0.0868479	0.0997501	-0.9581633	165.228	-27.381	-273.001	B5-03822-P02-CH0	1048368	OK	0.5921292	0.2230093	-0.7743706	0	-76.872	-97.214	2.256	B5-03822-P02-CH1	1048368	OK	0.8094892	-0.2468622	-0.532716	0	-85.066	-79.974	0.777	B5-03822-P03-CH0	1048368	OK	0.819055	-0.3820908	-0.4279668	0	-97.907	-57.221	4.793	B5-03822-P03-CH1	1048368	OK	0.6011942	0.7979361	0.0431674	0	-99.992	-27.993	-0.053	B5-03822-P04-CH0	1048368	OK	0.7744066	-0.2660902	0.5740126	0	-127.985	-40.07	5.967	B5-03822-P04-CH1	1048368	OK	0.7460814	-0.6516866	0.1366277	0	-114.055	-33.816	-5.918	NA
1.06912804705215	B5-03822-P01-CH0	1048376	OK	0.2538331	0.0870636	0.0993832	-0.9581814	165.274	-27.376	-272.92	B5-03822-P02-CH0	1048376	OK	0.5873828	0.2260365	-0.7771029	0	-77.569	-98.145	2.131	B5-03822-P02-CH1	1048376	OK	0.806325	-0.2448762	-0.5384009	0	-84.776	-79.356	0.235	B5-03822-P03-CH0	1048376	OK	0.8203127	-0.3854662	-0.422496	0	-98.927	-57.128	4.615	B5-03822-P03-CH1	1048376	OK	0.6016605	0.7975762	0.0433225	0	-99.921	-28.166	0.117	B5-03822-P04-CH0	1048376	OK	0.7744825	-0.2662663	0.5738285	0	-128.116	-40.153	6.126	B5-03822-P04-CH1	1048376	OK	0.7459305	-0.651827	0.1367818	0	-114.055	-33.765	-5.778	NA
1.07911989795918	B5-03822-P01-CH0	1048384	OK	0.2538518	0.0869776	0.1001007	-0.9581096	165.245	-27.342	-272.763	B5-03822-P02-CH0	1048384	OK	0.5834157	0.224911	-0.7804109	0	-77.22	-96.98	2.296	B5-03822-P02-CH1	1048384	OK	0.8036081	-0.2447466	-0.5425064	0	-85.344	-79.07	0.155	B5-03822-P03-CH0	1048384	OK	0.822549	-0.3878138	-0.4159491	0	-98.998	-57.453	3.87	B5-03822-P03-CH1	1048384	OK	0.6006413	0.798284	0.0444153	0	-100.041	-27.745	0.009	B5-03822-P04-CH0	1048384	OK	0.7746607	-0.266644	0.5734124	0	-128.061	-39.789	5.523	B5-03822-P04-CH1	1048384	OK	0.7464136	-0.6512074	0.1370972	0	-114.195	-33.696	-6.084	NA
1.08911174886621	B5-03822-P01-CH0	1048392	OK	0.2538562	0.0870172	0.1002124	-0.9580932	165.293	-27.264	-272.793	B5-03822-P02-CH0	1048392	OK	0.5804157	0.2289874	-0.7814617	0	-77.841	-97.643	2.286	B5-03822-P02-CH1	1048392	OK	0.8039009	-0.2423024	-0.5431692	0	-84.468	-78.249	-0.846	B5-03822-P03-CH0	1048392	OK	0.8267271	-0.3889286	-0.4065179	0	-97.726	-57.437	4.569	B5-03822-P03-CH1	1048392	OK	0.6005393	0.7983348	0.0448778	0	-100.19	-27.647	0.147	B5-03822-P04-CH0	1048392	OK	0.7748151	-0.2664936	0.5732736	0	-128.192	-39.745	5.724	B5-03822-P04-CH1	1048392	OK	0.746426	-0.6510789	0.1376393	0	-114.418	-33.749	-6.072	NA
1.09910359977324	B5-03822-P01-CH0	1048400	OK	0.2545039	0.0868281	0.1016946	-0.9577822	165.389	-27.218	-272.779	B5-03822-P02-CH0	1048400	OK	0.5805259	0.2318178	-0.7805448	0	-76.806	-98.166	1.18	B5-03822-P02-CH1	1048400	OK	0.8024346	-0.23886	-0.5468497	0	-85.013	-78.832	0.052	B5-03822-P03-CH0	1048400	OK	0.827512	-0.3914679	-0.4024633	0	-99.294	-57.375	5.287	B5-03822-P03-CH1	1048400	OK	0.5992754	0.7992927	0.0447247	0	-100.204	-27.611	-0.003	B5-03822-P04-CH0	1048400	OK	0.7753283	-0.2654941	0.5730435	0	-128.203	-39.766	5.811	B5-03822-P04-CH1	1048400	OK	0.7472799	-0.6498758	0.1386876	0	-114.506	-33.936	-6.283	NA
1.10909545068027	B5-03822-P01-CH0	1048408	OK	0.2543868	0.0870352	0.1014163	-0.9578241	165.462	-27.24	-272.766	B5-03822-P02-CH0	1048408	OK	0.5791819	0.2387826	-0.7794428	0	-76.595	-98.609	0.974	B5-03822-P02-CH1	1048408	OK	0.8018285	-0.2343937	-0.5496641	0	-84.402	-78.678	-1.017	B5-03822-P03-CH0	1048408	OK	0.8287621	-0.3949103	-0.3964837	0	-99.012	-57.515	4.743	B5-03822-P03-CH1	1048408	OK	0.5993528	0.7992039	0.04527	0	-100.221	-27.445	0.027	B5-03822-P04-CH0	1048408	OK	0.7753797	-0.2660915	0.5726969	0	-128.304	-39.689	5.886	B5-03822-P04-CH1	1048408	OK	0.746619	-0.6505009	0.1393145	0	-114.526	-34.29	-6.314	NA
1.1190873015873	B5-03822-P01-CH0	1048416	OK	0.2543505	0.0871192	0.1009441	-0.957876	165.466	-27.333	-272.669	B5-03822-P02-CH0	1048416	OK	0.5773973	0.2448003	-0.7789	0	-76.792	-99.301	0.938	B5-03822-P02-CH1	1048416	OK	0.7983895	-0.2295557	-0.5566672	0	-85.036	-79.016	-0.761	B5-03822-P03-CH0	1048416	OK	0.8287701	-0.3986693	-0.3926868	0	-98.617	-58.458	5.28	B5-03822-P03-CH1	1048416	OK	0.5997879	0.7988684	0.0454282	0	-100.261	-27.522	0.065	B5-03822-P04-CH0	1048416	OK	0.7752555	-0.2670958	0.5723973	0	-128.285	-39.508	5.562	B5-03822-P04-CH1	1048416	OK	0.7463507	-0.6507127	0.1397627	0	-114.674	-34.256	-6.71	NA
1.12907915249433	B5-03822-P01-CH0	1048424	OK	0.2544219	0.087298	0.1004735	-0.9578902	165.541	-27.389	-272.705	B5-03822-P02-CH0	1048424	OK	0.5754516	0.2515176	-0.7781994	0	-76.938	-99.575	1.261	B5-03822-P02-CH1	1048424	OK	0.7964156	-0.2249733	-0.5613459	0	-84.545	-79.253	-0.69	B5-03822-P03-CH0	1048424	OK	0.8288796	-0.4012481	-0.3898186	0	-98.133	-58.578	4.983	B5-03822-P03-CH1	1048424	OK	0.6002506	0.7985222	0.0454032	0	-100.433	-27.625	0.288	B5-03822-P04-CH0	1048424	OK	0.7750826	-0.267752	0.5723249	0	-128.304	-39.721	5.542	B5-03822-P04-CH1	1048424	OK	0.7460508	-0.6509879	0.140082	0	-114.666	-34.32	-6.709	NA
1.13907100340136	B5-03822-P01-CH0	1048432	OK	0.2543673	0.0870379	0.100904	-0.9578831	165.461	-27.454	-272.613	B5-03822-P02-CH0	1048432	OK	0.5725158	0.2554376	-0.7790875	0	-77.039	-98.719	1.882	B5-03822-P02-CH1	1048432	OK	0.7950287	-0.2224633	-0.5643044	0	-84.426	-79.994	0.027	B5-03822-P03-CH0	1048432	OK	0.828886	-0.4020378	-0.3889906	0	-98.558	-57.943	3.45	B5-03822-P03-CH1	1048432	OK	0.5997071	0.7988996	0.0459432	0	-100.579	-27.452	0.243	B5-03822-P04-CH0	1048432	OK	0.7752467	-0.2677921	0.5720838	0	-128.355	-40.041	5.703	B5-03822-P04-CH1	1048432	OK	0.7459891	-0.6509344	0.140658	0	-114.721	-34.622	-6.649	NA
1.14906285430839	B5-03822-P01-CH0	1048440	OK	0.2541017	0.0872885	0.1004285	-0.9579808	165.595	-27.608	-272.605	B5-03822-P02-CH0	1048440	OK	0.5712313	0.2616194	-0.7779783	0	-77.401	-100.043	2.823	B5-03822-P02-CH1	1048440	OK	0.7940311	-0.2185663	-0.5672243	0	-84.85	-78.93	0.128	B5-03822-P03-CH0	1048440	OK	0.8290672	-0.402721	-0.3878961	0	-97.688	-59.132	5.067	B5-03822-P03-CH1	1048440	OK	0.5998896	0.7987	0.0470187	0	-100.763	-27.23	0.146	B5-03822-P04-CH0	1048440	OK	0.7751732	-0.2687725	0.5717236	0	-128.311	-40.108	5.864	B5-03822-P04-CH1	1048440	OK	0.7461911	-0.6509501	0.1395095	0	-114.738	-34.088	-6.974	NA
1.15905470521542	B5-03822-P01-CH0	1048448	OK	0.2542226	0.0870461	0.1009631	-0.9579146	165.534	-27.66	-272.524	B5-03822-P02-CH0	1048448	OK	0.5694054	0.2607379	-0.7796109	0	-77.292	-98.877	2.659	B5-03822-P02-CH1	1048448	OK	0.7945106	-0.2169583	-0.5671701	0	-84.788	-79.147	-0.873	B5-03822-P03-CH0	1048448	OK	0.8281887	-0.4034678	-0.3889952	0	-98.205	-59.362	4.287	B5-03822-P03-CH1	1048448	OK	0.5993405	0.7991047	0.0471446	0	-100.587	-27.129	0.066	B5-03822-P04-CH0	1048448	OK	0.7752184	-0.26943	0.5713527	0	-128.087	-39.8	5.337	B5-03822-P04-CH1	1048448	OK	0.7466283	-0.650487	0.1393302	0	-114.573	-33.867	-7.355	NA
1.16904655612245	B5-03822-P01-CH0	1048456	OK	0.2545342	0.0869828	0.1014794	-0.957783	165.555	-27.62	-272.513	B5-03822-P02-CH0	1048456	OK	0.5678403	0.2625962	-0.7801286	0	-77.709	-99.215	2.294	B5-03822-P02-CH1	1048456	OK	0.7950412	-0.2149318	-0.5671982	0	-84.518	-79.605	-0.783	B5-03822-P03-CH0	1048456	OK	0.8286439	-0.4014655	-0.3900958	0	-98.641	-58.52	3.953	B5-03822-P03-CH1	1048456	OK	0.5990357	0.7993408	0.0470158	0	-100.769	-27.14	0.054	B5-03822-P04-CH0	1048456	OK	0.7755432	-0.2688545	0.571183	0	-128.211	-39.925	5.241	B5-03822-P04-CH1	1048456	OK	0.7469572	-0.6500792	0.1394705	0	-114.476	-33.751	-7.682	NA
1.17903840702948	B5-03822-P01-CH0	1048464	OK	0.2541092	0.0869633	0.1007915	-0.9579702	165.507	-27.693	-272.493	B5-03822-P02-CH0	1048464	OK	0.565489	0.2668104	-0.7804066	0	-78.646	-99.604	2.987	B5-03822-P02-CH1	1048464	OK	0.7962305	-0.2114341	-0.5668445	0	-83.959	-78.859	-0.54	B5-03822-P03-CH0	1048464	OK	0.8283177	-0.3990877	-0.393216	0	-98.785	-58.187	3.965	B5-03822-P03-CH1	1048464	OK	0.5999947	0.7985917	0.0475153	0	-100.6	-27.323	0.148	B5-03822-P04-CH0	1048464	OK	0.7753189	-0.2697025	0.5710877	0	-128.209	-39.943	5.277	B5-03822-P04-CH1	1048464	OK	0.7460391	-0.6510829	0.1397023	0	-114.471	-34.094	-7.375	NA
1.18903025793651	B5-03822-P01-CH0	1048472	OK	0.2540384	0.0867688	0.100323	-0.9580558	165.396	-27.782	-272.497	B5-03822-P02-CH0	1048472	OK	0.5651271	0.2667371	-0.7806937	0	-78.188	-99.266	3.249	B5-03822-P02-CH1	1048472	OK	0.7943513	-0.2106386	-0.5697695	0	-84.512	-79.573	0.249	B5-03822-P03-CH0	1048472	OK	0.8285943	-0.4005061	-0.3911857	0	-98.588	-58.275	3.912	B5-03822-P03-CH1	1048472	OK	0.6004139	0.7982714	0.0476021	0	-100.505	-27.332	0.068	B5-03822-P04-CH0	1048472	OK	0.7750262	-0.2708118	0.57096	0	-127.932	-39.588	4.917	B5-03822-P04-CH1	1048472	OK	0.7455894	-0.6515767	0.1398009	0	-114.241	-34.172	-7.265	NA
1.19902210884354	B5-03822-P01-CH0	1048480	OK	0.2541181	0.0867346	0.1002503	-0.9580454	165.31	-27.78	-272.457	B5-03822-P02-CH0	1048480	OK	0.564895	0.2671381	-0.7807246	0	-77.499	-98.951	2.786	B5-03822-P02-CH1	1048480	OK	0.7931827	-0.2082853	-0.5722572	0	-84.752	-79.288	0.18	B5-03822-P03-CH0	1048480	OK	0.8288529	-0.4016457	-0.3894659	0	-98.357	-58.395	4.009	B5-03822-P03-CH1	1048480	OK	0.6004142	0.7982699	0.0476224	0	-100.546	-27.249	0.18	B5-03822-P04-CH0	1048480	OK	0.7751177	-0.2709857	0.5707532	0	-127.934	-39.621	4.774	B5-03822-P04-CH1	1048480	OK	0.7455212	-0.6516143	0.1399887	0	-114.132	-34.107	-7.319	NA
1.20901395975057	B5-03822-P01-CH0	1048488	OK	0.2541039	0.0868395	0.10018	-0.958047	165.333	-27.792	-272.41	B5-03822-P02-CH0	1048488	OK	0.5636842	0.2726914	-0.7796792	0	-78.087	-99.828	2.864	B5-03822-P02-CH1	1048488	OK	0.7953141	-0.2151691	-0.5667254	0	-84.149	-79.192	-0.346	B5-03822-P03-CH0	1048488	OK	0.828905	-0.402389	-0.3885866	0	-98.326	-58.492	4.046	B5-03822-P03-CH1	1048488	OK	0.600783	0.7979916	0.0476372	0	-100.593	-27.449	0.301	B5-03822-P04-CH0	1048488	OK	0.7752421	-0.271346	0.570413	0	-128.005	-39.498	4.427	B5-03822-P04-CH1	1048488	OK	0.7456817	-0.651391	0.1401733	0	-114.29	-33.991	-7.15	NA
1.2190058106576	B5-03822-P01-CH0	1048496	OK	0.2541461	0.0869182	0.1005233	-0.9579927	165.402	-27.91	-272.429	B5-03822-P02-CH0	1048496	OK	0.5633275	0.2736467	-0.7796022	0	-77.846	-99.504	2.12	B5-03822-P02-CH1	1048496	OK	0.7949125	-0.2133557	-0.5679732	0	-84.208	-79.183	-0.902	B5-03822-P03-CH0	1048496	OK	0.8290291	-0.4025854	-0.3881183	0	-98.231	-58.76	4.077	B5-03822-P03-CH1	1048496	OK	0.6008081	0.797964	0.0477809	0	-100.471	-27.676	0.162	B5-03822-P04-CH0	1048496	OK	0.7753904	-0.2717129	0.5700366	0	-127.886	-39.526	4.504	B5-03822-P04-CH1	1048496	OK	0.7460992	-0.6509278	0.1401034	0	-114.341	-33.966	-7.062	NA
1.22899766156463	B5-03822-P01-CH0	1048504	OK	0.2543403	0.087094	0.1007484	-0.9579016	165.433	-27.958	-272.229	B5-03822-P02-CH0	1048504	OK	0.5624631	0.276363	-0.7792681	0	-78.418	-100.661	2.161	B5-03822-P02-CH1	1048504	OK	0.7947234	-0.2119569	-0.5687609	0	-84.301	-79.131	-1.313	B5-03822-P03-CH0	1048504	OK	0.8291271	-0.402556	-0.3879393	0	-98.142	-58.936	4.026	B5-03822-P03-CH1	1048504	OK	0.6007348	0.7980227	0.0477226	0	-100.492	-27.731	-0.179	B5-03822-P04-CH0	1048504	OK	0.7755488	-0.2717191	0.5698182	0	-127.872	-39.605	4.391	B5-03822-P04-CH1	1048504	OK	0.7462968	-0.6506887	0.1401615	0	-114.281	-33.883	-7.332	NA
1.23898951247166	B5-03822-P01-CH0	1048512	OK	0.2544853	0.0874254	0.1007934	-0.9578281	165.564	-27.913	-272.279	B5-03822-P02-CH0	1048512	OK	0.560324	0.2757227	-0.781034	0	-78.71	-99.414	2.444	B5-03822-P02-CH1	1048512	OK	0.7946604	-0.2104897	-0.5693935	0	-84.377	-79.056	-1.333	B5-03822-P03-CH0	1048512	OK	0.8289044	-0.402549	-0.3884223	0	-98.317	-59.1	4.405	B5-03822-P03-CH1	1048512	OK	0.6006362	0.7980888	0.0478579	0	-100.461	-27.692	-0.061	B5-03822-P04-CH0	1048512	OK	0.7757538	-0.271816	0.5694929	0	-127.992	-39.515	4.327	B5-03822-P04-CH1	1048512	OK	0.7464299	-0.6505242	0.1402164	0	-114.301	-33.769	-7.364	NA
1.24898136337868	B5-03822-P01-CH0	1048520	OK	0.2545197	0.0870399	0.1015269	-0.9577766	165.386	-27.906	-272.263	B5-03822-P02-CH0	1048520	OK	0.5592987	0.2802052	-0.7801731	0	-78.435	-98.954	2.617	B5-03822-P02-CH1	1048520	OK	0.7949729	-0.208846	-0.5695624	0	-84.16	-79.164	-1.249	B5-03822-P03-CH0	1048520	OK	0.8294998	-0.4014363	-0.3883026	0	-98.147	-58.788	4.015	B5-03822-P03-CH1	1048520	OK	0.6000095	0.7985548	0.0479456	0	-100.365	-27.688	0.004	B5-03822-P04-CH0	1048520	OK	0.7756904	-0.2721277	0.5694304	0	-127.747	-39.342	4.002	B5-03822-P04-CH1	1048520	OK	0.7467965	-0.6500431	0.1404955	0	-114.247	-33.733	-7.636	NA
1.25897321428571	B5-03822-P01-CH0	1048528	OK	0.2542847	0.0870243	0.1014231	-0.9578515	165.382	-27.83	-272.442	B5-03822-P02-CH0	1048528	OK	0.5597982	0.2897945	-0.7763022	0	-78.553	-100.488	2.847	B5-03822-P02-CH1	1048528	OK	0.7946889	-0.2071634	-0.5705724	0	-84.233	-79.08	-0.881	B5-03822-P03-CH0	1048528	OK	0.8292543	-0.4009316	-0.3893472	0	-98.398	-58.626	4.346	B5-03822-P03-CH1	1048528	OK	0.6003744	0.7982641	0.0482182	0	-100.301	-27.741	-0.008	B5-03822-P04-CH0	1048528	OK	0.7756419	-0.2723692	0.5693809	0	-127.813	-39.382	4.459	B5-03822-P04-CH1	1048528	OK	0.7470137	-0.6498949	0.1400256	0	-114.315	-33.394	-7.438	NA
1.26896506519274	B5-03822-P01-CH0	1048536	OK	0.2540461	0.0865613	0.1016824	-0.9579292	165.269	-27.903	-272.631	B5-03822-P02-CH0	1048536	OK	0.5594915	0.2951618	-0.774499	0	-78.732	-100.273	2.725	B5-03822-P02-CH1	1048536	OK	0.7942728	-0.2055453	-0.5717358	0	-84.226	-79.252	-0.722	B5-03822-P03-CH0	1048536	OK	0.8295555	-0.4002869	-0.3893687	0	-98.281	-58.571	4.385	B5-03822-P03-CH1	1048536	OK	0.6000688	0.7984686	0.0486343	0	-100.137	-27.759	0.057	B5-03822-P04-CH0	1048536	OK	0.7754531	-0.2727344	0.5694633	0	-127.635	-39.492	4.742	B5-03822-P04-CH1	1048536	OK	0.7473762	-0.6494496	0.140157	0	-114.426	-33.295	-7.355	NA
1.27895691609977	B5-03822-P01-CH0	1048544	OK	0.2543626	0.0866552	0.1016784	-0.9578372	165.343	-27.994	-272.651	B5-03822-P02-CH0	1048544	OK	0.5580293	0.2985164	-0.7742682	0	-79.04	-99.778	3.187	B5-03822-P02-CH1	1048544	OK	0.7936304	-0.2047761	-0.5729028	0	-84.188	-79.549	-0.765	B5-03822-P03-CH0	1048544	OK	0.8294342	-0.4006629	-0.3892404	0	-98.153	-58.963	4.58	B5-03822-P03-CH1	1048544	OK	0.6001322	0.7984593	0.0479998	0	-100.21	-28.073	0.213	B5-03822-P04-CH0	1048544	OK	0.7756187	-0.2723418	0.5694256	0	-127.759	-39.773	4.842	B5-03822-P04-CH1	1048544	OK	0.747327	-0.6493401	0.140925	0	-114.409	-33.645	-7.031	NA
