Wav.Time	B5.03822.P01.CH0	Frame	State	Q0	Qx	Qy	Qz	Tx	Ty	Tz	B5.03822.P02.CH0	Frame.1	State.1	Q0.1	Qx.1	Qy.1	Qz.1	Tx.1	Ty.1	Tz.1	B5.03822.P02.CH1	Frame.2	State.2	Q0.2	Qx.2	Qy.2	Qz.2	Tx.2	Ty.2	Tz.2	B5.03822.P03.CH0	Frame.3	State.3	Q0.3	Qx.3	Qy.3	Qz.3	Tx.3	Ty.3	Tz.3	B5.03822.P03.CH1	Frame.4	State.4	Q0.4	Qx.4	Qy.4	Qz.4	Tx.4	Ty.4	Tz.4	B5.03822.P04.CH0	Frame.5	State.5	Q0.5	Qx.5	Qy.5	Qz.5	Tx.5	Ty.5	Tz.5	B5.03822.P04.CH1	Frame.6	State.6	Q0.6	Qx.6	Qy.6	Qz.6	Tx.6	Ty.6	Tz.6	X
0	B5-03822-P01-CH0	3640304	OK	0.246361	0.0172436	0.0573206	-0.9673279	98.405	-16.303	-231.224	B5-03822-P02-CH0	3640304	OK	0.6788671	0.4210266	-0.6015614	0	-73.331	-100.731	3.086	B5-03822-P02-CH1	3640304	OK	0.7427049	-0.1780103	-0.6455244	0	-74.299	-79.669	2.716	B5-03822-P03-CH0	3640304	OK	0.8088631	-0.1872432	-0.5573871	0	-91.311	-58.945	8.139	B5-03822-P03-CH1	3640304	OK	0.8233798	-0.1461461	-0.5483493	0	-99.634	-32.251	7.73	B5-03822-P04-CH0	3640304	OK	0.7317184	-0.3110016	0.6065198	0	-119.118	-42.124	8.011	B5-03822-P04-CH1	3640304	OK	0.7428548	-0.6670296	0.0569048	0	-107.426	-47.588	2.737	NA
0.00999215070643642	B5-03822-P01-CH0	3640312	OK	0.24659	0.0169207	0.0582927	-0.9672171	98.32	-16.237	-231.255	B5-03822-P02-CH0	3640312	OK	0.6786401	0.4213633	-0.6015818	0	-73.14	-100.794	2.848	B5-03822-P02-CH1	3640312	OK	0.7432259	-0.1765626	-0.6453223	0	-74.428	-79.884	2.116	B5-03822-P03-CH0	3640312	OK	0.8098391	-0.1855874	-0.5565231	0	-91.338	-58.894	7.885	B5-03822-P03-CH1	3640312	OK	0.8235856	-0.1460643	-0.548062	0	-99.596	-32.21	7.643	B5-03822-P04-CH0	3640312	OK	0.7317983	-0.3102229	0.6068221	0	-119.071	-42.139	8.174	B5-03822-P04-CH1	3640312	OK	0.7435221	-0.6662495	0.0573272	0	-107.285	-47.646	2.825	NA
0.0199843014128728	B5-03822-P01-CH0	3640320	OK	0.2466677	0.0170744	0.0583892	-0.9671888	98.356	-16.224	-231.233	B5-03822-P02-CH0	3640320	OK	0.6784596	0.4216769	-0.6015657	0	-73.192	-100.952	2.834	B5-03822-P02-CH1	3640320	OK	0.7446478	-0.1755551	-0.6439566	0	-74.099	-80.119	2.695	B5-03822-P03-CH0	3640320	OK	0.81135	-0.1858904	-0.5542165	0	-91.059	-59.102	8.068	B5-03822-P03-CH1	3640320	OK	0.8236417	-0.1463575	-0.5478995	0	-99.598	-32.265	7.665	B5-03822-P04-CH0	3640320	OK	0.7317933	-0.3092728	0.6073129	0	-119.174	-42.474	8.528	B5-03822-P04-CH1	3640320	OK	0.7436216	-0.6661466	0.0572331	0	-107.257	-47.65	2.74	NA
0.0299764521193093	B5-03822-P01-CH0	3640328	OK	0.2466847	0.017157	0.058265	-0.9671905	98.368	-16.236	-231.215	B5-03822-P02-CH0	3640328	OK	0.6784481	0.4218749	-0.6014397	0	-73.184	-101.077	2.835	B5-03822-P02-CH1	3640328	OK	0.7459052	-0.1747817	-0.6427105	0	-73.915	-80.104	2.568	B5-03822-P03-CH0	3640328	OK	0.8121193	-0.1860337	-0.5530404	0	-91.401	-59.248	8.087	B5-03822-P03-CH1	3640328	OK	0.823721	-0.146705	-0.5476873	0	-99.574	-32.278	7.691	B5-03822-P04-CH0	3640328	OK	0.7315679	-0.3090034	0.6077214	0	-119.12	-42.491	8.606	B5-03822-P04-CH1	3640328	OK	0.7435805	-0.6662134	0.0569883	0	-107.329	-47.64	2.674	NA
0.0399686028257457	B5-03822-P01-CH0	3640336	OK	0.2468191	0.0170169	0.0586638	-0.9671346	98.346	-16.212	-231.226	B5-03822-P02-CH0	3640336	OK	0.6782793	0.4218565	-0.601643	0	-73.134	-101.232	2.796	B5-03822-P02-CH1	3640336	OK	0.7455057	-0.1747205	-0.6431905	0	-74.527	-80.345	2.405	B5-03822-P03-CH0	3640336	OK	0.8138942	-0.1849153	-0.5508018	0	-91.583	-59.4	8.585	B5-03822-P03-CH1	3640336	OK	0.82391	-0.1469423	-0.5473392	0	-99.518	-32.318	7.677	B5-03822-P04-CH0	3640336	OK	0.7316036	-0.3080866	0.6081437	0	-119.128	-42.619	8.645	B5-03822-P04-CH1	3640336	OK	0.7438552	-0.6659013	0.0570521	0	-107.323	-47.657	2.615	NA
0.0499607535321821	B5-03822-P01-CH0	3640344	OK	0.2468136	0.0170764	0.0587184	-0.9671316	98.383	-16.183	-231.286	B5-03822-P02-CH0	3640344	OK	0.6781587	0.4217593	-0.601847	0	-73.184	-101.392	2.831	B5-03822-P02-CH1	3640344	OK	0.7472035	-0.1766117	-0.640699	0	-74.337	-80.489	2.199	B5-03822-P03-CH0	3640344	OK	0.8167046	-0.1838151	-0.546997	0	-91.645	-59.753	8.727	B5-03822-P03-CH1	3640344	OK	0.8239323	-0.1472357	-0.5472268	0	-99.554	-32.319	7.703	B5-03822-P04-CH0	3640344	OK	0.7316566	-0.3073672	0.608444	0	-119.216	-42.718	8.788	B5-03822-P04-CH1	3640344	OK	0.7438913	-0.6658268	0.0574493	0	-107.312	-47.786	2.981	NA
0.0599529042386185	B5-03822-P01-CH0	3640352	OK	0.2467536	0.0171755	0.0585072	-0.967158	98.416	-16.179	-231.256	B5-03822-P02-CH0	3640352	OK	0.67821	0.4215152	-0.6019602	0	-73.199	-101.519	2.781	B5-03822-P02-CH1	3640352	OK	0.7482874	-0.1779668	-0.639057	0	-74.704	-80.828	3.432	B5-03822-P03-CH0	3640352	OK	0.8195477	-0.1810733	-0.5436488	0	-91.985	-59.801	8.571	B5-03822-P03-CH1	3640352	OK	0.8237469	-0.1476566	-0.5473925	0	-99.647	-32.299	7.697	B5-03822-P04-CH0	3640352	OK	0.7316005	-0.3067943	0.6088004	0	-119.257	-42.769	8.827	B5-03822-P04-CH1	3640352	OK	0.7438522	-0.6658686	0.0574707	0	-107.357	-47.768	3.092	NA
0.069945054945055	B5-03822-P01-CH0	3640360	OK	0.2466208	0.0171736	0.0584424	-0.9671958	98.409	-16.148	-231.191	B5-03822-P02-CH0	3640360	OK	0.6782768	0.4210812	-0.6021887	0	-73.229	-101.603	2.64	B5-03822-P02-CH1	3640360	OK	0.7498788	-0.1775396	-0.637308	0	-74.947	-80.65	3.188	B5-03822-P03-CH0	3640360	OK	0.822516	-0.1779416	-0.5401891	0	-92.425	-59.971	8.466	B5-03822-P03-CH1	3640360	OK	0.8237939	-0.147814	-0.5472793	0	-99.623	-32.21	7.645	B5-03822-P04-CH0	3640360	OK	0.731612	-0.3066904	0.608839	0	-119.289	-42.585	8.628	B5-03822-P04-CH1	3640360	OK	0.743871	-0.6658644	0.0572765	0	-107.4	-47.621	2.712	NA
0.0799372056514914	B5-03822-P01-CH0	3640368	OK	0.2465885	0.0171296	0.0581476	-0.9672226	98.381	-16.136	-231.214	B5-03822-P02-CH0	3640368	OK	0.6784098	0.4203686	-0.6025366	0	-73.275	-101.708	2.702	B5-03822-P02-CH1	3640368	OK	0.7523283	-0.1771672	-0.6345186	0	-74.714	-80.912	3.289	B5-03822-P03-CH0	3640368	OK	0.8261617	-0.1756157	-0.5353653	0	-92.507	-60.217	8.855	B5-03822-P03-CH1	3640368	OK	0.8236679	-0.1482808	-0.5473427	0	-99.633	-32.189	7.638	B5-03822-P04-CH0	3640368	OK	0.7313856	-0.3062377	0.6093386	0	-119.263	-42.574	8.579	B5-03822-P04-CH1	3640368	OK	0.7436594	-0.6660828	0.0574848	0	-107.391	-47.626	2.759	NA
0.0899293563579278	B5-03822-P01-CH0	3640376	OK	0.2467631	0.0171101	0.0582079	-0.9671748	98.413	-16.151	-231.213	B5-03822-P02-CH0	3640376	OK	0.6784045	0.4191502	-0.6033908	0	-73.366	-101.937	2.682	B5-03822-P02-CH1	3640376	OK	0.7541104	-0.17672	-0.6325248	0	-74.931	-81.311	3.086	B5-03822-P03-CH0	3640376	OK	0.8294538	-0.1736254	-0.5309054	0	-92.824	-60.769	8.866	B5-03822-P03-CH1	3640376	OK	0.8236488	-0.148958	-0.5471875	0	-99.599	-32.276	7.612	B5-03822-P04-CH0	3640376	OK	0.731341	-0.304946	0.6100396	0	-119.276	-42.818	8.718	B5-03822-P04-CH1	3640376	OK	0.7436795	-0.6660214	0.0579336	0	-107.321	-47.735	2.754	NA
0.0999215070643642	B5-03822-P01-CH0	3640384	OK	0.2467615	0.0172311	0.0577863	-0.9671983	98.47	-16.142	-231.242	B5-03822-P02-CH0	3640384	OK	0.6793303	0.4105769	-0.6082244	0	-74.159	-102.725	3.287	B5-03822-P02-CH1	3640384	OK	0.7547298	-0.1772028	-0.6316503	0	-75.711	-81.532	3.273	B5-03822-P03-CH0	3640384	OK	0.8327555	-0.1696569	-0.5270055	0	-93.404	-60.993	9.32	B5-03822-P03-CH1	3640384	OK	0.8234503	-0.1495261	-0.5473314	0	-99.647	-32.259	7.685	B5-03822-P04-CH0	3640384	OK	0.7311395	-0.3039973	0.6107542	0	-119.369	-42.944	8.835	B5-03822-P04-CH1	3640384	OK	0.7433246	-0.6663727	0.0584463	0	-107.441	-47.815	2.898	NA
0.109913657770801	B5-03822-P01-CH0	3640392	OK	0.2465866	0.0174362	0.0570835	-0.967281	98.549	-16.179	-231.256	B5-03822-P02-CH0	3640392	OK	0.6803394	0.4085635	-0.6084524	0	-74.341	-102.903	3.402	B5-03822-P02-CH1	3640392	OK	0.756127	-0.1804183	-0.6290637	0	-75.855	-82.021	3.451	B5-03822-P03-CH0	3640392	OK	0.8371929	-0.1641189	-0.5217021	0	-93.861	-61.314	9.618	B5-03822-P03-CH1	3640392	OK	0.8231707	-0.1502715	-0.5475477	0	-99.694	-32.314	7.802	B5-03822-P04-CH0	3640392	OK	0.7307727	-0.303827	0.6112777	0	-119.441	-42.9	8.683	B5-03822-P04-CH1	3640392	OK	0.7427775	-0.6669694	0.0585943	0	-107.554	-47.814	2.595	NA
0.119905808477237	B5-03822-P01-CH0	3640400	OK	0.246628	0.0173141	0.056979	-0.9672788	98.551	-16.177	-231.29	B5-03822-P02-CH0	3640400	OK	0.6816223	0.4049165	-0.6094535	0	-74.246	-103.587	3.437	B5-03822-P02-CH1	3640400	OK	0.7582346	-0.1837872	-0.6255418	0	-75.962	-82.442	3.459	B5-03822-P03-CH0	3640400	OK	0.8429081	-0.1594342	-0.5138936	0	-94.34	-62.055	9.81	B5-03822-P03-CH1	3640400	OK	0.8230251	-0.1507531	-0.5476341	0	-99.707	-32.277	7.781	B5-03822-P04-CH0	3640400	OK	0.7305242	-0.3022793	0.6123411	0	-119.505	-43.062	8.725	B5-03822-P04-CH1	3640400	OK	0.7426216	-0.6670698	0.0594226	0	-107.718	-47.933	2.55	NA
0.129897959183673	B5-03822-P01-CH0	3640408	OK	0.2465098	0.0173194	0.0568512	-0.9673164	98.588	-16.183	-231.309	B5-03822-P02-CH0	3640408	OK	0.6810321	0.4012889	-0.6125052	0	-74.178	-103.618	3.124	B5-03822-P02-CH1	3640408	OK	0.759125	-0.1866843	-0.623601	0	-76.429	-83.038	3.206	B5-03822-P03-CH0	3640408	OK	0.8495437	-0.1524759	-0.5050017	0	-94.528	-62.918	10.055	B5-03822-P03-CH1	3640408	OK	0.8228714	-0.1508061	-0.5478504	0	-99.706	-32.22	7.841	B5-03822-P04-CH0	3640408	OK	0.7298794	-0.2918732	0.6181311	0	-120.272	-43.636	8.263	B5-03822-P04-CH1	3640408	OK	0.7423162	-0.6673271	0.060342	0	-107.742	-48.101	2.345	NA
0.13989010989011	B5-03822-P01-CH0	3640416	OK	0.2466033	0.0174456	0.0568681	-0.9672892	98.678	-16.152	-231.378	B5-03822-P02-CH0	3640416	OK	0.6803333	0.397846	-0.6155202	0	-74.402	-104.308	3.31	B5-03822-P02-CH1	3640416	OK	0.7605751	-0.1903494	-0.6207194	0	-76.368	-83.357	3.508	B5-03822-P03-CH0	3640416	OK	0.8561047	-0.1423914	-0.4967993	0	-95.206	-63.736	10.711	B5-03822-P03-CH1	3640416	OK	0.8225603	-0.1508925	-0.5482937	0	-99.821	-32.172	7.846	B5-03822-P04-CH0	3640416	OK	0.7293081	-0.2898182	0.6197702	0	-120.515	-42.64	7.067	B5-03822-P04-CH1	3640416	OK	0.7409755	-0.6680227	0.0685638	0	-108.836	-49.517	2.194	NA
0.149882260596546	B5-03822-P01-CH0	3640424	OK	0.2466922	0.0173483	0.0567413	-0.9672758	98.662	-16.183	-231.343	B5-03822-P02-CH0	3640424	OK	0.6793466	0.3954193	-0.618168	0	-74.383	-104.933	3.153	B5-03822-P02-CH1	3640424	OK	0.7615751	-0.1930011	-0.6186711	0	-76.772	-83.52	3.061	B5-03822-P03-CH0	3640424	OK	0.8620842	-0.1305991	-0.4896476	0	-96.063	-64.418	10.577	B5-03822-P03-CH1	3640424	OK	0.8224941	-0.1509702	-0.5483716	0	-99.788	-32.152	7.694	B5-03822-P04-CH0	3640424	OK	0.729216	-0.2835705	0.6227614	0	-121.025	-43.736	8.2	B5-03822-P04-CH1	3640424	OK	0.7407728	-0.6680427	0.070531	0	-109.376	-50.015	2.432	NA
0.159874411302983	B5-03822-P01-CH0	3640432	OK	0.2467291	0.0173834	0.056694	-0.9672685	98.695	-16.194	-231.372	B5-03822-P02-CH0	3640432	OK	0.6766471	0.3946708	-0.6215977	0	-74.737	-105.72	3.24	B5-03822-P02-CH1	3640432	OK	0.7618918	-0.1952056	-0.6175886	0	-77.252	-84.264	2.932	B5-03822-P03-CH0	3640432	OK	0.8686642	-0.1173869	-0.4812929	0	-96.213	-65.125	11.117	B5-03822-P03-CH1	3640432	OK	0.8224544	-0.1508745	-0.5484575	0	-99.817	-32.11	7.616	B5-03822-P04-CH0	3640432	OK	0.7283986	-0.2833999	0.6237948	0	-120.729	-43.338	8.042	B5-03822-P04-CH1	3640432	OK	0.7420534	-0.6665579	0.0711142	0	-109.114	-49.124	1.173	NA
0.169866562009419	B5-03822-P01-CH0	3640440	OK	0.246702	0.0172626	0.0568412	-0.9672689	98.679	-16.207	-231.433	B5-03822-P02-CH0	3640440	OK	0.6738207	0.3940045	-0.6250809	0	-74.565	-105.963	3.043	B5-03822-P02-CH1	3640440	OK	0.7626752	-0.1967512	-0.6161294	0	-77.024	-84.731	3.538	B5-03822-P03-CH0	3640440	OK	0.8736271	-0.102042	-0.4757764	0	-96.738	-65.732	11.408	B5-03822-P03-CH1	3640440	OK	0.8223048	-0.1507404	-0.5487187	0	-99.968	-32.035	7.545	B5-03822-P04-CH0	3640440	OK	0.7284558	-0.2832389	0.6238011	0	-120.618	-43.126	7.117	B5-03822-P04-CH1	3640440	OK	0.7422486	-0.6659455	0.0747238	0	-109.082	-49.935	3.36	NA
0.179858712715856	B5-03822-P01-CH0	3640448	OK	0.2467236	0.0171079	0.05717	-0.9672468	98.674	-16.226	-231.51	B5-03822-P02-CH0	3640448	OK	0.6706362	0.393681	-0.628699	0	-74.216	-106.33	2.916	B5-03822-P02-CH1	3640448	OK	0.7621964	-0.1982446	-0.6162433	0	-76.866	-85.154	3.111	B5-03822-P03-CH0	3640448	OK	0.8790151	-0.0857682	-0.4690162	0	-96.77	-66.776	11.862	B5-03822-P03-CH1	3640448	OK	0.8224355	-0.1507372	-0.5485237	0	-100.097	-31.958	7.533	B5-03822-P04-CH0	3640448	OK	0.7288906	-0.2817109	0.6239852	0	-120.243	-43.554	8.176	B5-03822-P04-CH1	3640448	OK	0.7419902	-0.6662341	0.0747169	0	-109.276	-50.378	2.868	NA
0.189850863422292	B5-03822-P01-CH0	3640456	OK	0.2465431	0.0170557	0.0572876	-0.9672868	98.66	-16.191	-231.558	B5-03822-P02-CH0	3640456	OK	0.6658402	0.3924786	-0.6345214	0	-73.907	-106.213	3.147	B5-03822-P02-CH1	3640456	OK	0.7598304	-0.1992111	-0.6188478	0	-76.76	-85.564	2.474	B5-03822-P03-CH0	3640456	OK	0.8840515	-0.0693856	-0.4622105	0	-96.985	-67.579	12.593	B5-03822-P03-CH1	3640456	OK	0.8243587	-0.1542424	-0.5446485	0	-100.968	-31.631	7.733	B5-03822-P04-CH0	3640456	OK	0.7304997	-0.2808348	0.6224966	0	-119.836	-43.356	9.554	B5-03822-P04-CH1	3640456	OK	0.7423514	-0.6661831	0.0715159	0	-109.377	-49.754	1.699	NA
0.199843014128728	B5-03822-P01-CH0	3640464	OK	0.2465691	0.0169197	0.0576296	-0.9672622	98.646	-16.22	-231.599	B5-03822-P02-CH0	3640464	OK	0.6607803	0.3892168	-0.6417786	0	-73.313	-106.18	2.592	B5-03822-P02-CH1	3640464	OK	0.7572638	-0.2029907	-0.6207628	0	-76.256	-85.51	2.681	B5-03822-P03-CH0	3640464	OK	0.8880274	-0.0565135	-0.4563043	0	-97.355	-68.151	12.453	B5-03822-P03-CH1	3640464	OK	0.8249646	-0.1572233	-0.5428759	0	-101.071	-31.73	7.823	B5-03822-P04-CH0	3640464	OK	0.7322187	-0.2789212	0.6213363	0	-119.183	-43.109	9.183	B5-03822-P04-CH1	3640464	OK	0.7422837	-0.6664708	0.0695102	0	-108.932	-49.392	1.474	NA
0.209835164835165	B5-03822-P01-CH0	3640472	OK	0.2465151	0.0168193	0.057898	-0.9672617	98.614	-16.221	-231.641	B5-03822-P02-CH0	3640472	OK	0.655469	0.3857424	-0.6492789	0	-72.933	-106.74	2.66	B5-03822-P02-CH1	3640472	OK	0.7551596	-0.2079187	-0.6216943	0	-75.919	-85.493	2.534	B5-03822-P03-CH0	3640472	OK	0.8919671	-0.0475257	-0.4495953	0	-98.075	-68.021	11.413	B5-03822-P03-CH1	3640472	OK	0.8251403	-0.1559293	-0.542982	0	-101.116	-31.278	7.814	B5-03822-P04-CH0	3640472	OK	0.7337876	-0.2685193	0.6240618	0	-119.338	-44.233	9.523	B5-03822-P04-CH1	3640472	OK	0.7425372	-0.6660756	0.0705817	0	-109.038	-49.578	1.784	NA
0.219827315541601	B5-03822-P01-CH0	3640480	OK	0.2463953	0.0166389	0.0583637	-0.9672674	98.563	-16.19	-231.704	B5-03822-P02-CH0	3640480	OK	0.6491981	0.3829776	-0.6571682	0	-72.817	-107.192	2.851	B5-03822-P02-CH1	3640480	OK	0.7550343	-0.2093504	-0.6213659	0	-75.805	-85.79	2.237	B5-03822-P03-CH0	3640480	OK	0.8963067	-0.0451415	-0.441131	0	-97.623	-68.224	12.015	B5-03822-P03-CH1	3640480	OK	0.8248428	-0.1526756	-0.544357	0	-101.494	-30.892	8.228	B5-03822-P04-CH0	3640480	OK	0.7333643	-0.2644901	0.6262762	0	-118.652	-42.31	8.343	B5-03822-P04-CH1	3640480	OK	0.7428689	-0.6656334	0.0712603	0	-109.192	-49.633	1.798	NA
0.229819466248038	B5-03822-P01-CH0	3640488	OK	0.2463742	0.0165346	0.0585429	-0.9672637	98.516	-16.201	-231.717	B5-03822-P02-CH0	3640488	OK	0.6427092	0.3798322	-0.6653213	0	-72.567	-107.153	2.57	B5-03822-P02-CH1	3640488	OK	0.7549053	-0.2103366	-0.6211896	0	-75.801	-86.063	2.224	B5-03822-P03-CH0	3640488	OK	0.8982338	-0.0489888	-0.4367792	0	-97.816	-70.068	12.189	B5-03822-P03-CH1	3640488	OK	0.8249886	-0.1488873	-0.5451847	0	-101.526	-30.511	7.981	B5-03822-P04-CH0	3640488	OK	0.7323996	-0.2586939	0.6298161	0	-118.308	-40.851	7.254	B5-03822-P04-CH1	3640488	OK	0.7430734	-0.6653321	0.0719388	0	-109.231	-49.643	1.656	NA
0.239811616954474	B5-03822-P01-CH0	3640496	OK	0.2460483	0.016534	0.0580277	-0.9673777	98.469	-16.272	-231.679	B5-03822-P02-CH0	3640496	OK	0.6363045	0.3783927	-0.6722615	0	-72.613	-107.656	2.221	B5-03822-P02-CH1	3640496	OK	0.7541849	-0.212938	-0.6211783	0	-75.402	-86.402	2.02	B5-03822-P03-CH0	3640496	OK	0.9010572	-0.0486237	-0.430966	0	-98.048	-70.785	12.371	B5-03822-P03-CH1	3640496	OK	0.8253955	-0.14558	-0.5454619	0	-101.28	-30.537	8.399	B5-03822-P04-CH0	3640496	OK	0.7329004	-0.2462991	0.6341875	0	-119.309	-42.225	8.798	B5-03822-P04-CH1	3640496	OK	0.7429066	-0.6654951	0.0721529	0	-109.22	-49.535	1.408	NA
0.249803767660911	B5-03822-P01-CH0	3640504	OK	0.2459273	0.0165943	0.0583042	-0.9673908	98.491	-16.243	-231.709	B5-03822-P02-CH0	3640504	OK	0.6286241	0.3753889	-0.6811131	0	-72.455	-107.191	2.218	B5-03822-P02-CH1	3640504	OK	0.7519021	-0.2181725	-0.6221286	0	-75.276	-86.584	1.677	B5-03822-P03-CH0	3640504	OK	0.9042838	-0.0461461	-0.4244307	0	-98.093	-70.852	12.423	B5-03822-P03-CH1	3640504	OK	0.8252818	-0.1431628	-0.5462732	0	-101.487	-30.389	8.363	B5-03822-P04-CH0	3640504	OK	0.7325219	-0.2356282	0.6386635	0	-119.68	-42.959	9.389	B5-03822-P04-CH1	3640504	OK	0.7431316	-0.6651773	0.072764	0	-109.341	-49.57	1.651	NA
0.259795918367347	B5-03822-P01-CH0	3640512	OK	0.2460055	0.0163903	0.0589325	-0.9673363	98.447	-16.206	-231.782	B5-03822-P02-CH0	3640512	OK	0.6228232	0.3711891	-0.6887016	0	-72.138	-107.605	2.445	B5-03822-P02-CH1	3640512	OK	0.7496246	-0.2255196	-0.6222571	0	-74.984	-86.765	2.275	B5-03822-P03-CH0	3640512	OK	0.9072306	-0.049536	-0.4177067	0	-98.345	-71.572	12.249	B5-03822-P03-CH1	3640512	OK	0.8248839	-0.1405191	-0.547559	0	-101.586	-30.043	8.363	B5-03822-P04-CH0	3640512	OK	0.7312857	-0.2273751	0.6430567	0	-119.725	-42.349	7.735	B5-03822-P04-CH1	3640512	OK	0.7435028	-0.6646775	0.0735346	0	-109.441	-49.648	1.691	NA
0.269788069073783	B5-03822-P01-CH0	3640520	OK	0.246185	0.0163342	0.0592946	-0.9672695	98.463	-16.184	-231.861	B5-03822-P02-CH0	3640520	OK	0.6173555	0.3634349	-0.6977014	0	-71.287	-107.515	2.001	B5-03822-P02-CH1	3640520	OK	0.7476778	-0.2361286	-0.6206619	0	-74.448	-86.941	1.735	B5-03822-P03-CH0	3640520	OK	0.9108891	-0.0542243	-0.4090731	0	-98.613	-72.295	12.206	B5-03822-P03-CH1	3640520	OK	0.8249004	-0.1362291	-0.5486173	0	-101.228	-30.003	8.675	B5-03822-P04-CH0	3640520	OK	0.7318982	-0.2121229	0.6475561	0	-120.782	-43.123	7.981	B5-03822-P04-CH1	3640520	OK	0.7428324	-0.6647268	0.0796135	0	-110.283	-50.205	-0.136	NA
0.27978021978022	B5-03822-P01-CH0	3640528	OK	0.2462537	0.0162325	0.059657	-0.9672314	98.422	-16.147	-231.8	B5-03822-P02-CH0	3640528	OK	0.6109357	0.3590185	-0.7055943	0	-71.058	-107.579	2.276	B5-03822-P02-CH1	3640528	OK	0.7456091	-0.245793	-0.6193972	0	-74.252	-87.24	1.749	B5-03822-P03-CH0	3640528	OK	0.9145467	-0.0558009	-0.4006128	0	-98.651	-72.788	12.306	B5-03822-P03-CH1	3640528	OK	0.8234305	-0.1313512	-0.5520046	0	-101.331	-29.603	8.288	B5-03822-P04-CH0	3640528	OK	0.7326494	-0.1958281	0.6518253	0	-121.247	-43.811	9.324	B5-03822-P04-CH1	3640528	OK	0.7439263	-0.6633271	0.081061	0	-110.713	-49.913	0.315	NA
0.289772370486656	B5-03822-P01-CH0	3640536	OK	0.2463393	0.0161475	0.0596955	-0.9672087	98.412	-16.151	-231.753	B5-03822-P02-CH0	3640536	OK	0.6066549	0.3561045	-0.7107457	0	-70.461	-108.095	1.786	B5-03822-P02-CH1	3640536	OK	0.7444087	-0.2536007	-0.6176912	0	-73.64	-87.561	1.078	B5-03822-P03-CH0	3640536	OK	0.9166018	-0.0576113	-0.3956286	0	-99.194	-73.38	12.216	B5-03822-P03-CH1	3640536	OK	0.8218503	-0.1266788	-0.5554409	0	-101.375	-29.352	8.182	B5-03822-P04-CH0	3640536	OK	0.732691	-0.1819836	0.6557789	0	-121.458	-43.833	8.667	B5-03822-P04-CH1	3640536	OK	0.7444114	-0.6621111	0.0863741	0	-111.13	-51.129	3.55	NA
0.299764521193093	B5-03822-P01-CH0	3640544	OK	0.2463713	0.0161722	0.0594642	-0.9672144	98.42	-16.147	-231.717	B5-03822-P02-CH0	3640544	OK	0.6029547	0.3541219	-0.7148729	0	-69.856	-107.922	1.701	B5-03822-P02-CH1	3640544	OK	0.7426697	-0.2600836	-0.6170885	0	-73.653	-87.665	1.324	B5-03822-P03-CH0	3640544	OK	0.9195822	-0.055423	-0.388969	0	-98.809	-73.97	12.079	B5-03822-P03-CH1	3640544	OK	0.8200747	-0.1227239	-0.5589422	0	-101.493	-29.277	7.914	B5-03822-P04-CH0	3640544	OK	0.7330382	-0.169962	0.6586106	0	-121.872	-43.93	7.891	B5-03822-P04-CH1	3640544	OK	0.7445816	-0.6618576	0.086849	0	-111.755	-50.514	0.931	NA
0.309756671899529	B5-03822-P01-CH0	3640552	OK	0.2466212	0.0160479	0.0598217	-0.9671307	98.413	-16.061	-231.736	B5-03822-P02-CH0	3640552	OK	0.6008947	0.3546359	-0.7163511	0	-69.675	-107.829	1.829	B5-03822-P02-CH1	3640552	OK	0.7422397	-0.2658149	-0.6151607	0	-73.193	-87.648	1.152	B5-03822-P03-CH0	3640552	OK	0.9207825	-0.0489444	-0.3869937	0	-98.888	-74.088	12.315	B5-03822-P03-CH1	3640552	OK	0.8202576	-0.1197467	-0.5593194	0	-101.111	-29.229	8.361	B5-03822-P04-CH0	3640552	OK	0.7338125	-0.1606605	0.6600814	0	-122.364	-44.298	8.042	B5-03822-P04-CH1	3640552	OK	0.7448796	-0.6614303	0.0875462	0	-111.579	-50.498	0.854	NA
0.319748822605965	B5-03822-P01-CH0	3640560	OK	0.2466628	0.0161577	0.0595044	-0.9671379	98.472	-16.052	-231.747	B5-03822-P02-CH0	3640560	OK	0.6045526	0.3527084	-0.7142219	0	-69.144	-106.911	2.071	B5-03822-P02-CH1	3640560	OK	0.7408768	-0.2712074	-0.6144495	0	-72.922	-87.243	1.398	B5-03822-P03-CH0	3640560	OK	0.9213728	-0.0444122	-0.3861343	0	-98.833	-74.589	12.448	B5-03822-P03-CH1	3640560	OK	0.8205017	-0.1188783	-0.5591466	0	-100.772	-29.338	9.077	B5-03822-P04-CH0	3640560	OK	0.7340861	-0.1557035	0.6609645	0	-122.51	-45.113	8.891	B5-03822-P04-CH1	3640560	OK	0.7446313	-0.6616943	0.0876634	0	-111.83	-50.741	0.486	NA
0.329740973312402	B5-03822-P01-CH0	3640568	OK	0.2467973	0.016072	0.0598809	-0.9670817	98.505	-15.974	-231.793	B5-03822-P02-CH0	3640568	OK	0.6135024	0.3516898	-0.7070566	0	-68.668	-106.531	2.317	B5-03822-P02-CH1	3640568	OK	0.7391577	-0.2775749	-0.6136758	0	-72.796	-86.343	0.918	B5-03822-P03-CH0	3640568	OK	0.9223601	-0.0372575	-0.3845306	0	-98.636	-73.908	12.69	B5-03822-P03-CH1	3640568	OK	0.8203902	-0.1189784	-0.5592889	0	-100.819	-29.265	8.425	B5-03822-P04-CH0	3640568	OK	0.7353222	-0.1556916	0.6595918	0	-122.809	-44.79	8.366	B5-03822-P04-CH1	3640568	OK	0.7450511	-0.6608107	0.0907088	0	-111.403	-51.311	1.784	NA
0.339733124018838	B5-03822-P01-CH0	3640576	OK	0.2471386	0.0158278	0.0606102	-0.9669531	98.508	-15.914	-231.826	B5-03822-P02-CH0	3640576	OK	0.6202719	0.3561538	-0.6988685	0	-68.703	-105.41	1.631	B5-03822-P02-CH1	3640576	OK	0.7374416	-0.2773274	-0.6158486	0	-72.598	-85.484	1.322	B5-03822-P03-CH0	3640576	OK	0.9233563	-0.0362301	-0.382231	0	-98.31	-73.25	12.733	B5-03822-P03-CH1	3640576	OK	0.8205639	-0.1180117	-0.5592389	0	-100.705	-29.251	8.6	B5-03822-P04-CH0	3640576	OK	0.73634	-0.1555837	0.6584809	0	-122.495	-45.384	8.404	B5-03822-P04-CH1	3640576	OK	0.7452786	-0.6612487	0.0854977	0	-111.28	-50.359	0.853	NA
0.349725274725275	B5-03822-P01-CH0	3640584	OK	0.247282	0.0157917	0.0604155	-0.9669293	98.518	-15.897	-231.815	B5-03822-P02-CH0	3640584	OK	0.6277503	0.3766539	-0.6812205	0	-69.609	-105.389	1.892	B5-03822-P02-CH1	3640584	OK	0.7332626	-0.2707634	-0.6237091	0	-72.23	-85.07	1.757	B5-03822-P03-CH0	3640584	OK	0.9221965	-0.0414755	-0.384491	0	-97.935	-72.413	12.886	B5-03822-P03-CH1	3640584	OK	0.8202727	-0.1207448	-0.5590826	0	-100.77	-29.811	8.667	B5-03822-P04-CH0	3640584	OK	0.7378561	-0.1567398	0.6565067	0	-122.305	-45.462	8.001	B5-03822-P04-CH1	3640584	OK	0.7453942	-0.6609457	0.0868234	0	-111.443	-50.452	0.807	NA
0.359717425431711	B5-03822-P01-CH0	3640592	OK	0.2473938	0.0157821	0.0602785	-0.9669094	98.54	-15.847	-231.781	B5-03822-P02-CH0	3640592	OK	0.637234	0.4052807	-0.6555002	0	-70.545	-105.04	1.929	B5-03822-P02-CH1	3640592	OK	0.7266643	-0.2565447	-0.6372942	0	-72.009	-84.579	1.501	B5-03822-P03-CH0	3640592	OK	0.9172055	-0.0536745	-0.3947823	0	-97.028	-71.368	12.603	B5-03822-P03-CH1	3640592	OK	0.8210026	-0.1240363	-0.5572879	0	-100.562	-30.297	8.639	B5-03822-P04-CH0	3640592	OK	0.7416594	-0.1585904	0.6517595	0	-123.047	-46.081	7.84	B5-03822-P04-CH1	3640592	OK	0.7455182	-0.6606039	0.0883467	0	-111.561	-50.582	0.877	NA
0.369709576138148	B5-03822-P01-CH0	3640600	OK	0.2473797	0.0156907	0.0602991	-0.9669132	98.536	-15.792	-231.752	B5-03822-P02-CH0	3640600	OK	0.649905	0.4317282	-0.6254872	0	-71.359	-104.815	2.174	B5-03822-P02-CH1	3640600	OK	0.7208453	-0.2418461	-0.6495325	0	-71.763	-83.448	2.08	B5-03822-P03-CH0	3640600	OK	0.9079052	-0.0762724	-0.4121779	0	-95.997	-69.891	12.34	B5-03822-P03-CH1	3640600	OK	0.8205514	-0.1289953	-0.5568264	0	-100.952	-30.682	8.526	B5-03822-P04-CH0	3640600	OK	0.7452719	-0.1647619	0.6460831	0	-122.864	-45.712	8.384	B5-03822-P04-CH1	3640600	OK	0.7458427	-0.6600884	0.0894537	0	-111.651	-50.672	1.344	NA
0.379701726844584	B5-03822-P01-CH0	3640608	OK	0.2475032	0.0158695	0.0600236	-0.9668958	98.622	-15.778	-231.744	B5-03822-P02-CH0	3640608	OK	0.664281	0.4528924	-0.594659	0	-72.448	-104.196	2.326	B5-03822-P02-CH1	3640608	OK	0.7169906	-0.2346044	-0.6564185	0	-71.621	-82.096	1.404	B5-03822-P03-CH0	3640608	OK	0.8956199	-0.1103511	-0.4309149	0	-95.264	-68.089	12.272	B5-03822-P03-CH1	3640608	OK	0.8204602	-0.1245137	-0.5579797	0	-101.161	-29.967	8.643	B5-03822-P04-CH0	3640608	OK	0.7488632	-0.1719052	0.640041	0	-122.755	-46.288	8.98	B5-03822-P04-CH1	3640608	OK	0.7457848	-0.6600051	0.0905442	0	-111.733	-50.893	1.639	NA
0.38969387755102	B5-03822-P01-CH0	3640616	OK	0.2474011	0.0158431	0.059738	-0.96694	98.621	-15.747	-231.776	B5-03822-P02-CH0	3640616	OK	0.6766441	0.4694794	-0.5672229	0	-73.302	-102.82	2.458	B5-03822-P02-CH1	3640616	OK	0.7146506	-0.2327588	-0.6596195	0	-71.21	-80.496	1.435	B5-03822-P03-CH0	3640616	OK	0.8822093	-0.1493404	-0.446547	0	-94.181	-65.771	12.002	B5-03822-P03-CH1	3640616	OK	0.8222118	-0.1384344	-0.5520903	0	-100.578	-31.51	8.231	B5-03822-P04-CH0	3640616	OK	0.7511358	-0.1833207	0.6341834	0	-122.144	-45.701	9.011	B5-03822-P04-CH1	3640616	OK	0.7455874	-0.6601893	0.0908272	0	-111.655	-50.911	1.538	NA
0.399686028257457	B5-03822-P01-CH0	3640624	OK	0.2474336	0.015874	0.0597038	-0.9669333	98.617	-15.666	-231.726	B5-03822-P02-CH0	3640624	OK	0.682487	0.4794308	-0.5516861	0	-73.937	-99.648	2.083	B5-03822-P02-CH1	3640624	OK	0.7113492	-0.2306635	-0.6639102	0	-70.706	-77.919	1.021	B5-03822-P03-CH0	3640624	OK	0.8622452	-0.1910571	-0.4690741	0	-93.838	-62.643	10.889	B5-03822-P03-CH1	3640624	OK	0.8234362	-0.1422268	-0.5492944	0	-100.177	-31.828	8.619	B5-03822-P04-CH0	3640624	OK	0.7540486	-0.1949149	0.6272312	0	-122.429	-46.256	8.912	B5-03822-P04-CH1	3640624	OK	0.7456542	-0.6601039	0.0908992	0	-111.64	-50.92	1.747	NA
0.409678178963893	B5-03822-P01-CH0	3640632	OK	0.2471681	0.0159922	0.0590523	-0.9670393	98.621	-15.703	-231.644	B5-03822-P02-CH0	3640632	OK	0.6877598	0.4837631	-0.5412575	0	-74.668	-97.565	1.75	B5-03822-P02-CH1	3640632	OK	0.7070861	-0.2246881	-0.6704808	0	-71.085	-76.471	1.867	B5-03822-P03-CH0	3640632	OK	0.842841	-0.2251655	-0.4887939	0	-92.004	-60.823	11.115	B5-03822-P03-CH1	3640632	OK	0.8237731	-0.1465212	-0.5476582	0	-100.197	-32.1	8.668	B5-03822-P04-CH0	3640632	OK	0.7559032	-0.2101323	0.6200441	0	-122.218	-46.431	10.164	B5-03822-P04-CH1	3640632	OK	0.745196	-0.6606607	0.0906113	0	-111.536	-50.984	1.963	NA
0.41967032967033	B5-03822-P01-CH0	3640640	OK	0.2471588	0.0159653	0.0591452	-0.9670365	98.596	-15.661	-231.594	B5-03822-P02-CH0	3640640	OK	0.694187	0.4857197	-0.5312069	0	-75.126	-96.646	1.282	B5-03822-P02-CH1	3640640	OK	0.7053379	-0.2206829	-0.6736449	0	-71.333	-74.837	2.202	B5-03822-P03-CH0	3640640	OK	0.8274515	-0.2424444	-0.5065024	0	-91.726	-58.879	10.031	B5-03822-P03-CH1	3640640	OK	0.824047	-0.1506788	-0.5461157	0	-100.28	-32.091	8.445	B5-03822-P04-CH0	3640640	OK	0.7569927	-0.2271822	0.6126584	0	-121.785	-45.392	9.677	B5-03822-P04-CH1	3640640	OK	0.7451574	-0.6607744	0.0900977	0	-111.336	-50.998	2.144	NA
0.429662480376766	B5-03822-P01-CH0	3640648	OK	0.2472956	0.0159082	0.0592554	-0.9669957	98.566	-15.621	-231.533	B5-03822-P02-CH0	3640648	OK	0.6989504	0.4877267	-0.5230593	0	-75.446	-95.205	1.42	B5-03822-P02-CH1	3640648	OK	0.7042985	-0.2197623	-0.6750319	0	-71.341	-74.176	1.711	B5-03822-P03-CH0	3640648	OK	0.819002	-0.2480815	-0.5173889	0	-91.331	-57.359	9.179	B5-03822-P03-CH1	3640648	OK	0.8236609	-0.1551817	-0.5454369	0	-100.854	-32.126	8.746	B5-03822-P04-CH0	3640648	OK	0.7586105	-0.2421224	0.6048858	0	-121.366	-45.754	10.431	B5-03822-P04-CH1	3640648	OK	0.7451722	-0.6608913	0.0891126	0	-111.195	-50.93	2.117	NA
0.439654631083203	B5-03822-P01-CH0	3640656	OK	0.2471372	0.016024	0.0589617	-0.9670522	98.551	-15.55	-231.451	B5-03822-P02-CH0	3640656	OK	0.7036631	0.490408	-0.5141578	0	-75.712	-94.435	1.103	B5-03822-P02-CH1	3640656	OK	0.7024842	-0.2195041	-0.6770036	0	-71.56	-73.403	1.77	B5-03822-P03-CH0	3640656	OK	0.8132587	-0.2432748	-0.5286092	0	-91.704	-56.158	8.055	B5-03822-P03-CH1	3640656	OK	0.8245582	-0.1602213	-0.5426168	0	-100.979	-32.161	8.805	B5-03822-P04-CH0	3640656	OK	0.7588668	-0.2605947	0.5968347	0	-120.095	-44.844	10.228	B5-03822-P04-CH1	3640656	OK	0.7447885	-0.6628317	0.0770987	0	-110.167	-49.622	1.471	NA
0.449646781789639	B5-03822-P01-CH0	3640664	OK	0.2469114	0.0159365	0.0586588	-0.9671297	98.492	-15.508	-231.462	B5-03822-P02-CH0	3640664	OK	0.707231	0.4922963	-0.5074137	0	-76.243	-94.029	1.206	B5-03822-P02-CH1	3640664	OK	0.7023848	-0.2180833	-0.6775657	0	-71.432	-72.704	1.85	B5-03822-P03-CH0	3640664	OK	0.8089094	-0.231703	-0.5403511	0	-91.533	-55.313	7.687	B5-03822-P03-CH1	3640664	OK	0.8262326	-0.1622784	-0.5394491	0	-100.712	-32.099	9.058	B5-03822-P04-CH0	3640664	OK	0.7601337	-0.2747521	0.5888192	0	-119.202	-44.671	11.164	B5-03822-P04-CH1	3640664	OK	0.7449597	-0.6627336	0.0762846	0	-109.365	-49.481	2.722	NA
0.459638932496075	B5-03822-P01-CH0	3640672	OK	0.2468145	0.0159883	0.0584926	-0.9671637	98.465	-15.465	-231.387	B5-03822-P02-CH0	3640672	OK	0.7112929	0.4922212	-0.5017775	0	-76.587	-94.149	1.071	B5-03822-P02-CH1	3640672	OK	0.7037412	-0.2175767	-0.67632	0	-71.454	-72.75	1.849	B5-03822-P03-CH0	3640672	OK	0.8061901	-0.2186975	-0.5497536	0	-91.368	-55.166	7.256	B5-03822-P03-CH1	3640672	OK	0.8263338	-0.1632695	-0.5389949	0	-101.025	-31.963	8.5	B5-03822-P04-CH0	3640672	OK	0.761212	-0.2848401	0.5825997	0	-118.865	-44.676	11.458	B5-03822-P04-CH1	3640672	OK	0.7443674	-0.6638497	0.0722549	0	-109.759	-48.861	0.268	NA
0.469631083202512	B5-03822-P01-CH0	3640680	OK	0.2469827	0.0160766	0.0583162	-0.9671299	98.478	-15.436	-231.331	B5-03822-P02-CH0	3640680	OK	0.716098	0.4884055	-0.498662	0	-76.489	-94.386	1.09	B5-03822-P02-CH1	3640680	OK	0.7076822	-0.2214453	-0.6709306	0	-71.29	-72.746	1.632	B5-03822-P03-CH0	3640680	OK	0.8049681	-0.2041632	-0.5570851	0	-91.706	-55.626	7.892	B5-03822-P03-CH1	3640680	OK	0.8281875	-0.1630583	-0.5362066	0	-100.302	-31.94	8.952	B5-03822-P04-CH0	3640680	OK	0.761336	-0.2929597	0.5783962	0	-118.543	-43.149	10.409	B5-03822-P04-CH1	3640680	OK	0.7440071	-0.6645428	0.0695444	0	-109.863	-48.67	0.17	NA
0.479623233908948	B5-03822-P01-CH0	3640688	OK	0.2468399	0.0162699	0.0577456	-0.9671974	98.522	-15.39	-231.345	B5-03822-P02-CH0	3640688	OK	0.7204344	0.4806891	-0.4999123	0	-76.637	-94.714	1.259	B5-03822-P02-CH1	3640688	OK	0.713184	-0.2262071	-0.6634749	0	-72.017	-73.151	1.651	B5-03822-P03-CH0	3640688	OK	0.809764	-0.1889244	-0.5555087	0	-91.347	-55.481	8.115	B5-03822-P03-CH1	3640688	OK	0.8274299	-0.1627602	-0.5374652	0	-100.625	-31.858	8.662	B5-03822-P04-CH0	3640688	OK	0.760304	-0.2968868	0.5777509	0	-118.457	-43.279	10.817	B5-03822-P04-CH1	3640688	OK	0.7431599	-0.6656705	0.0677947	0	-109.756	-48.746	0.129	NA
0.489615384615385	B5-03822-P01-CH0	3640696	OK	0.2468761	0.0164365	0.057517	-0.967199	98.549	-15.375	-231.293	B5-03822-P02-CH0	3640696	OK	0.7244362	0.4684162	-0.5057454	0	-76.37	-95.274	0.151	B5-03822-P02-CH1	3640696	OK	0.7228389	-0.2263676	-0.6528871	0	-72.51	-74.086	1.534	B5-03822-P03-CH0	3640696	OK	0.8161452	-0.1749751	-0.5507183	0	-91.725	-55.755	8.098	B5-03822-P03-CH1	3640696	OK	0.8268085	-0.1631294	-0.5383089	0	-100.709	-32.227	8.883	B5-03822-P04-CH0	3640696	OK	0.7584509	-0.2991249	0.5790306	0	-117.879	-42.794	10.93	B5-03822-P04-CH1	3640696	OK	0.7425098	-0.6662069	0.0696247	0	-109.167	-49.348	1.642	NA
0.499607535321821	B5-03822-P01-CH0	3640704	OK	0.2468341	0.0164918	0.0572777	-0.9672229	98.562	-15.325	-231.279	B5-03822-P02-CH0	3640704	OK	0.7262475	0.4552588	-0.5150767	0	-76.537	-95.982	0.105	B5-03822-P02-CH1	3640704	OK	0.7349617	-0.2194138	-0.6416299	0	-73.239	-74.785	2.094	B5-03822-P03-CH0	3640704	OK	0.8232578	-0.1605098	-0.5445028	0	-92.212	-57.092	9.418	B5-03822-P03-CH1	3640704	OK	0.8259881	-0.1610491	-0.5401914	0	-101.007	-31.824	9.045	B5-03822-P04-CH0	3640704	OK	0.7565659	-0.3005304	0.5807663	0	-117.462	-41.953	10.125	B5-03822-P04-CH1	3640704	OK	0.7441854	-0.6646183	0.0668629	0	-110.045	-48.037	2.728	NA
0.509599686028257	B5-03822-P01-CH0	3640712	OK	0.2469134	0.0165484	0.0569352	-0.967222	98.576	-15.32	-231.235	B5-03822-P02-CH0	3640712	OK	0.7266622	0.4445124	-0.5238041	0	-76.562	-97.28	0.325	B5-03822-P02-CH1	3640712	OK	0.7476799	-0.2072927	-0.630876	0	-74.324	-76.226	2.86	B5-03822-P03-CH0	3640712	OK	0.8303409	-0.1471695	-0.5374711	0	-92.777	-58.262	9.773	B5-03822-P03-CH1	3640712	OK	0.8261508	-0.1592058	-0.540489	0	-100.877	-31.548	8.607	B5-03822-P04-CH0	3640712	OK	0.756064	-0.2975161	0.5829678	0	-118.131	-42.63	10.384	B5-03822-P04-CH1	3640712	OK	0.7428636	-0.665477	0.0727598	0	-109.903	-49.171	1.503	NA
0.519591836734694	B5-03822-P01-CH0	3640720	OK	0.2469227	0.0167157	0.0566758	-0.9672319	98.627	-15.27	-231.168	B5-03822-P02-CH0	3640720	OK	0.7238158	0.4389572	-0.5323601	0	-76.73	-98.004	0.878	B5-03822-P02-CH1	3640720	OK	0.7596801	-0.1918701	-0.6213469	0	-75.663	-77.508	3.125	B5-03822-P03-CH0	3640720	OK	0.836671	-0.1377351	-0.5301044	0	-93.308	-58.813	10.219	B5-03822-P03-CH1	3640720	OK	0.8257623	-0.1620792	-0.5402286	0	-101.034	-31.823	8.697	B5-03822-P04-CH0	3640720	OK	0.7546698	-0.2956924	0.5856957	0	-118.544	-42.611	10.12	B5-03822-P04-CH1	3640720	OK	0.7426959	-0.6658075	0.0714361	0	-109.915	-48.928	1.33	NA
0.52958398744113	B5-03822-P01-CH0	3640728	OK	0.2468707	0.0168462	0.056166	-0.9672727	98.651	-15.24	-231.191	B5-03822-P02-CH0	3640728	OK	0.7184089	0.4371013	-0.5411387	0	-77.105	-99.184	0.689	B5-03822-P02-CH1	3640728	OK	0.7678684	-0.1775865	-0.6155008	0	-76.95	-78.636	3.012	B5-03822-P03-CH0	3640728	OK	0.8415077	-0.1322478	-0.5238085	0	-93.58	-59.594	10.431	B5-03822-P03-CH1	3640728	OK	0.8261142	-0.1623928	-0.539596	0	-100.928	-31.75	8.806	B5-03822-P04-CH0	3640728	OK	0.7521692	-0.2941019	0.5896996	0	-118.717	-42.58	9.661	B5-03822-P04-CH1	3640728	OK	0.7423539	-0.6662714	0.0706615	0	-109.886	-48.806	1.592	NA
0.539576138147567	B5-03822-P01-CH0	3640736	OK	0.2469693	0.0167404	0.0561864	-0.9672482	98.641	-15.237	-231.222	B5-03822-P02-CH0	3640736	OK	0.7097577	0.4386018	-0.5512463	0	-77.5	-99.716	1.424	B5-03822-P02-CH1	3640736	OK	0.7716744	-0.1663819	-0.6138695	0	-77.632	-79.508	3.919	B5-03822-P03-CH0	3640736	OK	0.8427569	-0.1330961	-0.5215806	0	-93.896	-60.341	10.439	B5-03822-P03-CH1	3640736	OK	0.8263791	-0.1626313	-0.5391185	0	-100.775	-31.824	8.898	B5-03822-P04-CH0	3640736	OK	0.7513549	-0.2884081	0.5935373	0	-119.79	-44.104	10.621	B5-03822-P04-CH1	3640736	OK	0.7422121	-0.6664657	0.0703188	0	-109.814	-48.797	1.502	NA
0.549568288854003	B5-03822-P01-CH0	3640744	OK	0.2471167	0.0166703	0.0566038	-0.9671874	98.659	-15.208	-231.194	B5-03822-P02-CH0	3640744	OK	0.7030515	0.4386891	-0.5597057	0	-77.401	-100.267	1.292	B5-03822-P02-CH1	3640744	OK	0.7725746	-0.1613653	-0.6140763	0	-77.894	-80.1	3.627	B5-03822-P03-CH0	3640744	OK	0.8406802	-0.1407064	-0.5229327	0	-94.359	-60.617	9.902	B5-03822-P03-CH1	3640744	OK	0.8263697	-0.1629044	-0.5390504	0	-100.692	-31.95	8.908	B5-03822-P04-CH0	3640744	OK	0.7506034	-0.2869322	0.5952012	0	-120.27	-44.905	10.42	B5-03822-P04-CH1	3640744	OK	0.7424073	-0.6662708	0.0701046	0	-109.877	-48.712	1.191	NA
0.55956043956044	B5-03822-P01-CH0	3640752	OK	0.2472451	0.0165632	0.0569094	-0.9671385	98.676	-15.189	-231.205	B5-03822-P02-CH0	3640752	OK	0.6996567	0.4373455	-0.5649862	0	-77.681	-101.171	1.042	B5-03822-P02-CH1	3640752	OK	0.772755	-0.1602856	-0.6141321	0	-78.203	-80.706	4.087	B5-03822-P03-CH0	3640752	OK	0.8380135	-0.1481449	-0.5251537	0	-94.015	-61.328	9.951	B5-03822-P03-CH1	3640752	OK	0.8242303	-0.1684967	-0.5406045	0	-100.582	-32.608	8.717	B5-03822-P04-CH0	3640752	OK	0.7505064	-0.2846357	0.5964249	0	-120.836	-46.113	11.054	B5-03822-P04-CH1	3640752	OK	0.7425939	-0.6660232	0.0704793	0	-109.833	-48.679	0.996	NA
0.569552590266876	B5-03822-P01-CH0	3640760	OK	0.2470811	0.0163993	0.0566295	-0.9671996	98.624	-15.212	-231.187	B5-03822-P02-CH0	3640760	OK	0.6989646	0.4366871	-0.5663505	0	-77.936	-102.153	1.606	B5-03822-P02-CH1	3640760	OK	0.7751081	-0.1587988	-0.6115475	0	-78.47	-80.947	3.225	B5-03822-P03-CH0	3640760	OK	0.8350747	-0.1501285	-0.5292557	0	-93.893	-61.616	9.846	B5-03822-P03-CH1	3640760	OK	0.8238245	-0.1708331	-0.5404898	0	-100.083	-32.596	8.85	B5-03822-P04-CH0	3640760	OK	0.7494886	-0.2819189	0.5989896	0	-121.2	-45.994	10.514	B5-03822-P04-CH1	3640760	OK	0.7423886	-0.6661632	0.071315	0	-109.797	-48.727	1.186	NA
0.579544740973312	B5-03822-P01-CH0	3640768	OK	0.2470807	0.0162491	0.0566337	-0.967202	98.548	-15.18	-231.119	B5-03822-P02-CH0	3640768	OK	0.6983312	0.4359151	-0.5677248	0	-78.088	-102.376	1.047	B5-03822-P02-CH1	3640768	OK	0.7785056	-0.1572884	-0.6076095	0	-79.105	-81.361	3.734	B5-03822-P03-CH0	3640768	OK	0.8323976	-0.148792	-0.5338306	0	-93.793	-61.698	9.506	B5-03822-P03-CH1	3640768	OK	0.8225858	-0.1714608	-0.5421751	0	-99.926	-32.512	8.319	B5-03822-P04-CH0	3640768	OK	0.7483135	-0.2748091	0.6037441	0	-121.521	-46.434	10.444	B5-03822-P04-CH1	3640768	OK	0.742381	-0.666048	0.0724602	0	-109.782	-48.717	1.255	NA
0.589536891679749	B5-03822-P01-CH0	3640776	OK	0.2472426	0.016019	0.0572009	-0.9671311	98.513	-15.125	-231.161	B5-03822-P02-CH0	3640776	OK	0.6977522	0.4331767	-0.5705259	0	-78.382	-102.319	1.83	B5-03822-P02-CH1	3640776	OK	0.7817165	-0.1576133	-0.6033882	0	-79.564	-81.495	3.677	B5-03822-P03-CH0	3640776	OK	0.8304289	-0.1476052	-0.5372155	0	-93.598	-61.529	9.608	B5-03822-P03-CH1	3640776	OK	0.822658	-0.1689137	-0.5428646	0	-99.77	-32.914	8.589	B5-03822-P04-CH0	3640776	OK	0.7482943	-0.2683234	0.606678	0	-121.985	-45.031	7.793	B5-03822-P04-CH1	3640776	OK	0.7426662	-0.6656053	0.0735962	0	-109.856	-48.778	1.248	NA
0.599529042386185	B5-03822-P01-CH0	3640784	OK	0.2472227	0.0158936	0.0574696	-0.9671223	98.5	-15.148	-231.214	B5-03822-P02-CH0	3640784	OK	0.6991637	0.4283124	-0.5724671	0	-78.392	-102.681	1.211	B5-03822-P02-CH1	3640784	OK	0.7835794	-0.1581251	-0.6008326	0	-79.971	-81.749	3.238	B5-03822-P03-CH0	3640784	OK	0.827236	-0.1475652	-0.5421301	0	-94.041	-61.486	9.41	B5-03822-P03-CH1	3640784	OK	0.8224729	-0.1651672	-0.544296	0	-99.821	-32.537	8.058	B5-03822-P04-CH0	3640784	OK	0.7486277	-0.2593396	0.6101636	0	-122.912	-46.749	9.347	B5-03822-P04-CH1	3640784	OK	0.7425536	-0.6655847	0.0749075	0	-109.835	-48.983	0.934	NA
0.609521193092622	B5-03822-P01-CH0	3640792	OK	0.2473565	0.0157715	0.0581466	-0.9670496	98.484	-15.059	-231.29	B5-03822-P02-CH0	3640792	OK	0.7007884	0.4238317	-0.5738139	0	-78.462	-102.353	1.305	B5-03822-P02-CH1	3640792	OK	0.7858843	-0.1556674	-0.5984594	0	-80.038	-81.511	3.546	B5-03822-P03-CH0	3640792	OK	0.8258137	-0.1464218	-0.544603	0	-93.71	-61.212	9.294	B5-03822-P03-CH1	3640792	OK	0.8227384	-0.1651631	-0.5438958	0	-99.609	-32.473	8.604	B5-03822-P04-CH0	3640792	OK	0.7484763	-0.2586615	0.6106369	0	-123.149	-46.433	9.371	B5-03822-P04-CH1	3640792	OK	0.7429612	-0.6649601	0.0763984	0	-109.792	-49.16	1.522	NA
0.619513343799058	B5-03822-P01-CH0	3640800	OK	0.2473596	0.0156889	0.057995	-0.9670593	98.449	-15.108	-231.316	B5-03822-P02-CH0	3640800	OK	0.7032013	0.4189521	-0.574445	0	-78.242	-102.15	0.963	B5-03822-P02-CH1	3640800	OK	0.7875071	-0.1510047	-0.59752	0	-80.589	-81.462	3.651	B5-03822-P03-CH0	3640800	OK	0.8219274	-0.1434132	-0.5512422	0	-93.99	-61.272	8.908	B5-03822-P03-CH1	3640800	OK	0.8228385	-0.1641263	-0.5440583	0	-99.423	-32.239	8.482	B5-03822-P04-CH0	3640800	OK	0.7477264	-0.2582203	0.6117414	0	-123.23	-47.377	10.104	B5-03822-P04-CH1	3640800	OK	0.7427889	-0.6650638	0.0771677	0	-109.701	-49.32	1.69	NA
0.629505494505495	B5-03822-P01-CH0	3640808	OK	0.2472896	0.0158623	0.0578056	-0.9670857	98.494	-15.153	-231.245	B5-03822-P02-CH0	3640808	OK	0.7054412	0.4137781	-0.575448	0	-78.285	-102.428	0.686	B5-03822-P02-CH1	3640808	OK	0.7886287	-0.1475181	-0.5969114	0	-80.926	-81.41	4.008	B5-03822-P03-CH0	3640808	OK	0.8192935	-0.1379537	-0.5565312	0	-93.646	-60.949	8.852	B5-03822-P03-CH1	3640808	OK	0.822361	-0.164456	-0.5446802	0	-99.452	-32.382	8.018	B5-03822-P04-CH0	3640808	OK	0.7457662	-0.2640702	0.6116369	0	-122.157	-45.547	8.443	B5-03822-P04-CH1	3640808	OK	0.7426011	-0.6652186	0.0776388	0	-109.662	-49.362	1.506	NA
0.639497645211931	B5-03822-P01-CH0	3640816	OK	0.2472404	0.0160964	0.0574537	-0.9671154	98.551	-15.185	-231.223	B5-03822-P02-CH0	3640816	OK	0.7075649	0.4100815	-0.5754868	0	-78.246	-102.363	0.81	B5-03822-P02-CH1	3640816	OK	0.7895883	-0.1469222	-0.5957887	0	-80.747	-81.547	4.04	B5-03822-P03-CH0	3640816	OK	0.8150939	-0.134239	-0.5635617	0	-93.594	-61.138	8.495	B5-03822-P03-CH1	3640816	OK	0.8216256	-0.1642707	-0.5458448	0	-99.545	-32.448	8.143	B5-03822-P04-CH0	3640816	OK	0.7459131	-0.2655701	0.6108078	0	-122.469	-45.63	8.308	B5-03822-P04-CH1	3640816	OK	0.7423618	-0.6654416	0.0780154	0	-109.706	-49.435	1.704	NA
0.649489795918367	B5-03822-P01-CH0	3640824	OK	0.2472373	0.0163005	0.057344	-0.9671193	98.598	-15.184	-231.241	B5-03822-P02-CH0	3640824	OK	0.7084453	0.407348	-0.5763444	0	-78.571	-101.979	0.681	B5-03822-P02-CH1	3640824	OK	0.7891811	-0.1464328	-0.5964484	0	-80.645	-81.286	3.39	B5-03822-P03-CH0	3640824	OK	0.8112285	-0.1275313	-0.5706523	0	-93.017	-60.755	7.907	B5-03822-P03-CH1	3640824	OK	0.8226929	-0.166253	-0.5436326	0	-99.576	-32.613	8.786	B5-03822-P04-CH0	3640824	OK	0.7451326	-0.2673589	0.6109801	0	-122.444	-46.275	9.541	B5-03822-P04-CH1	3640824	OK	0.7420398	-0.6657435	0.0785024	0	-109.67	-49.686	2.021	NA
0.659481946624804	B5-03822-P01-CH0	3640832	OK	0.2472591	0.0163857	0.057367	-0.9671109	98.625	-15.205	-231.274	B5-03822-P02-CH0	3640832	OK	0.7103341	0.4031552	-0.5769674	0	-78.517	-101.817	0.935	B5-03822-P02-CH1	3640832	OK	0.7876521	-0.1460086	-0.5985697	0	-80.645	-80.931	3.725	B5-03822-P03-CH0	3640832	OK	0.8065749	-0.115808	-0.579677	0	-92.196	-60.409	7.766	B5-03822-P03-CH1	3640832	OK	0.8223709	-0.1653012	-0.5444094	0	-99.541	-32.536	8.671	B5-03822-P04-CH0	3640832	OK	0.7439352	-0.2747248	0.6091688	0	-122.255	-44.878	7.728	B5-03822-P04-CH1	3640832	OK	0.7419482	-0.6658581	0.0783953	0	-109.624	-49.819	2.321	NA
0.66947409733124	B5-03822-P01-CH0	3640840	OK	0.2472696	0.0166778	0.0575542	-0.9670921	98.699	-15.159	-231.308	B5-03822-P02-CH0	3640840	OK	0.7123722	0.3989333	-0.577389	0	-78.321	-101.447	1.138	B5-03822-P02-CH1	3640840	OK	0.7856077	-0.1476213	-0.6008564	0	-80.472	-80.892	3.822	B5-03822-P03-CH0	3640840	OK	0.8008338	-0.1006364	-0.5903707	0	-91.915	-60.324	7.036	B5-03822-P03-CH1	3640840	OK	0.8221655	-0.1639461	-0.5451289	0	-99.573	-32.434	8.519	B5-03822-P04-CH0	3640840	OK	0.7429267	-0.2792539	0.6083397	0	-121.73	-44.758	8.843	B5-03822-P04-CH1	3640840	OK	0.7420436	-0.6658651	0.077427	0	-109.671	-49.702	2.239	NA
0.679466248037677	B5-03822-P01-CH0	3640848	OK	0.2473536	0.0167234	0.05793	-0.9670474	98.731	-15.179	-231.363	B5-03822-P02-CH0	3640848	OK	0.7140923	0.3951822	-0.5778436	0	-77.916	-100.833	0.372	B5-03822-P02-CH1	3640848	OK	0.7838076	-0.1516171	-0.6022109	0	-80.191	-80.094	4.018	B5-03822-P03-CH0	3640848	OK	0.7976424	-0.0850182	-0.5971085	0	-91.123	-59.879	7.015	B5-03822-P03-CH1	3640848	OK	0.8221837	-0.16265	-0.5454896	0	-99.537	-32.525	8.52	B5-03822-P04-CH0	3640848	OK	0.7416859	-0.2836801	0.6078056	0	-121.194	-45.038	9.065	B5-03822-P04-CH1	3640848	OK	0.7422962	-0.6656759	0.0766286	0	-109.511	-49.678	2.208	NA
0.689458398744113	B5-03822-P01-CH0	3640856	OK	0.2471746	0.0169147	0.0574816	-0.9671166	98.73	-15.236	-231.315	B5-03822-P02-CH0	3640856	OK	0.7161412	0.391406	-0.5778782	0	-77.713	-100.947	1.288	B5-03822-P02-CH1	3640856	OK	0.7800218	-0.1586954	-0.6052947	0	-80.472	-79.942	4.051	B5-03822-P03-CH0	3640856	OK	0.7957143	-0.0777481	-0.6006612	0	-91.068	-59.298	6.987	B5-03822-P03-CH1	3640856	OK	0.8217933	-0.1565144	-0.5478678	0	-99.953	-32.75	8.037	B5-03822-P04-CH0	3640856	OK	0.7405815	-0.2895653	0.6063752	0	-120.837	-44.058	7.777	B5-03822-P04-CH1	3640856	OK	0.7420559	-0.6660654	0.0755635	0	-109.311	-49.652	2.615	NA
0.69945054945055	B5-03822-P01-CH0	3640864	OK	0.2471907	0.0169525	0.0576889	-0.9670995	98.712	-15.207	-231.286	B5-03822-P02-CH0	3640864	OK	0.7155781	0.3876551	-0.5810951	0	-77.817	-100.394	1.393	B5-03822-P02-CH1	3640864	OK	0.776923	-0.1674188	-0.606928	0	-79.828	-79.608	3.563	B5-03822-P03-CH0	3640864	OK	0.7967157	-0.081999	-0.5987656	0	-91.347	-59.118	7.234	B5-03822-P03-CH1	3640864	OK	0.8232565	-0.1539338	-0.5464001	0	-99.446	-32.699	7.924	B5-03822-P04-CH0	3640864	OK	0.7405529	-0.2907867	0.6058254	0	-120.898	-43.755	7.995	B5-03822-P04-CH1	3640864	OK	0.7422153	-0.6660093	0.0744853	0	-109.116	-49.519	2.703	NA
0.709442700156986	B5-03822-P01-CH0	3640872	OK	0.2470055	0.0171273	0.0572469	-0.9671699	98.736	-15.256	-231.258	B5-03822-P02-CH0	3640872	OK	0.7155891	0.3841737	-0.583389	0	-77.596	-100.316	1.243	B5-03822-P02-CH1	3640872	OK	0.7724451	-0.1772347	-0.6098496	0	-79.702	-79.471	3.094	B5-03822-P03-CH0	3640872	OK	0.7991678	-0.0841645	-0.5951866	0	-90.964	-59.055	7.766	B5-03822-P03-CH1	3640872	OK	0.823205	-0.1510442	-0.5472835	0	-99.462	-32.444	7.93	B5-03822-P04-CH0	3640872	OK	0.7399036	-0.2896614	0.6071564	0	-120.995	-44.775	8.918	B5-03822-P04-CH1	3640872	OK	0.7420523	-0.6663749	0.0728212	0	-109.073	-49.277	2.56	NA
0.719434850863422	B5-03822-P01-CH0	3640880	OK	0.2468643	0.0172106	0.0573309	-0.9671996	98.759	-15.245	-231.261	B5-03822-P02-CH0	3640880	OK	0.7151764	0.3821789	-0.5852025	0	-77.058	-99.982	1.208	B5-03822-P02-CH1	3640880	OK	0.7682987	-0.1866166	-0.6122837	0	-79.491	-79.538	3.477	B5-03822-P03-CH0	3640880	OK	0.7989374	-0.0845695	-0.5954386	0	-91.472	-59.387	7.438	B5-03822-P03-CH1	3640880	OK	0.8227393	-0.1493665	-0.548443	0	-99.683	-32.541	7.759	B5-03822-P04-CH0	3640880	OK	0.7392857	-0.2933002	0.6061614	0	-120.604	-43.177	7.04	B5-03822-P04-CH1	3640880	OK	0.7420836	-0.6664539	0.0717714	0	-109.031	-49.182	2.652	NA
0.729427001569859	B5-03822-P01-CH0	3640888	OK	0.2469178	0.0170789	0.0577179	-0.9671652	98.719	-15.22	-231.291	B5-03822-P02-CH0	3640888	OK	0.7126174	0.3805182	-0.5893916	0	-77.069	-99.644	1.341	B5-03822-P02-CH1	3640888	OK	0.7653823	-0.1950044	-0.6133215	0	-79.079	-79.148	3.466	B5-03822-P03-CH0	3640888	OK	0.7993858	-0.0853671	-0.5947224	0	-91.458	-59.23	7.095	B5-03822-P03-CH1	3640888	OK	0.8234171	-0.1492758	-0.5474495	0	-99.338	-32.877	7.65	B5-03822-P04-CH0	3640888	OK	0.7398989	-0.293326	0.6054002	0	-120.689	-42.959	7.419	B5-03822-P04-CH1	3640888	OK	0.7423064	-0.6662854	0.0710279	0	-108.9	-49.173	2.851	NA
0.739419152276295	B5-03822-P01-CH0	3640896	OK	0.2469846	0.0169004	0.0581998	-0.9671224	98.663	-15.191	-231.3	B5-03822-P02-CH0	3640896	OK	0.7101964	0.3788951	-0.593346	0	-76.858	-99.664	1.578	B5-03822-P02-CH1	3640896	OK	0.7613131	-0.2046796	-0.6152306	0	-79.102	-79.298	2.294	B5-03822-P03-CH0	3640896	OK	0.7992489	-0.0892221	-0.5943406	0	-91.202	-59.066	6.368	B5-03822-P03-CH1	3640896	OK	0.8231456	-0.1472005	-0.5484189	0	-99.635	-32.741	7.998	B5-03822-P04-CH0	3640896	OK	0.7399724	-0.2915496	0.606168	0	-120.789	-44.118	8.964	B5-03822-P04-CH1	3640896	OK	0.7425433	-0.6660902	0.0703793	0	-108.844	-49.121	2.61	NA
0.749411302982732	B5-03822-P01-CH0	3640904	OK	0.2469838	0.0168942	0.0581332	-0.9671267	98.646	-15.182	-231.313	B5-03822-P02-CH0	3640904	OK	0.7076613	0.3782418	-0.5967818	0	-76.485	-99.569	0.873	B5-03822-P02-CH1	3640904	OK	0.758761	-0.2132129	-0.6154852	0	-78.426	-78.83	2.692	B5-03822-P03-CH0	3640904	OK	0.797228	-0.0976248	-0.5957323	0	-90.987	-58.85	6.928	B5-03822-P03-CH1	3640904	OK	0.8234041	-0.1457823	-0.5484097	0	-99.65	-32.343	7.552	B5-03822-P04-CH0	3640904	OK	0.740624	-0.2905429	0.6058555	0	-120.824	-43.283	7.333	B5-03822-P04-CH1	3640904	OK	0.7426934	-0.666034	0.0693198	0	-108.759	-48.831	2.392	NA
0.759403453689168	B5-03822-P01-CH0	3640912	OK	0.2467993	0.0168497	0.0577205	-0.9671993	98.572	-15.203	-231.271	B5-03822-P02-CH0	3640912	OK	0.7049116	0.3768786	-0.6008844	0	-76.087	-99.614	1.441	B5-03822-P02-CH1	3640912	OK	0.7560528	-0.222756	-0.6154381	0	-78.069	-78.46	2.706	B5-03822-P03-CH0	3640912	OK	0.7943996	-0.1070935	-0.5978798	0	-90.708	-59.229	6.658	B5-03822-P03-CH1	3640912	OK	0.8240594	-0.1434933	-0.548029	0	-99.372	-31.891	7.19	B5-03822-P04-CH0	3640912	OK	0.7401169	-0.2920405	0.6057552	0	-120.708	-43.261	7.458	B5-03822-P04-CH1	3640912	OK	0.7424705	-0.6663811	0.0683659	0	-108.732	-48.648	2.267	NA
0.769395604395605	B5-03822-P01-CH0	3640920	OK	0.2468714	0.0167492	0.0577551	-0.9671806	98.554	-15.217	-231.291	B5-03822-P02-CH0	3640920	OK	0.7021337	0.3752721	-0.6051273	0	-75.434	-99.4	1.376	B5-03822-P02-CH1	3640920	OK	0.7534752	-0.2314296	-0.6153986	0	-77.927	-78.619	3.095	B5-03822-P03-CH0	3640920	OK	0.792561	-0.11437	-0.5989713	0	-90.194	-59.179	6.906	B5-03822-P03-CH1	3640920	OK	0.8228798	-0.1430659	-0.54991	0	-99.825	-32.096	7.319	B5-03822-P04-CH0	3640920	OK	0.7398069	-0.2928944	0.6057216	0	-120.628	-43.271	7.505	B5-03822-P04-CH1	3640920	OK	0.7424325	-0.6664103	0.0684925	0	-108.666	-48.73	2.422	NA
0.779387755102041	B5-03822-P01-CH0	3640928	OK	0.2469752	0.0165951	0.0580285	-0.9671404	98.524	-15.182	-231.331	B5-03822-P02-CH0	3640928	OK	0.6988414	0.3732254	-0.6101832	0	-75.476	-99.448	1.581	B5-03822-P02-CH1	3640928	OK	0.7526157	-0.2380666	-0.6139169	0	-77.324	-78.78	2.667	B5-03822-P03-CH0	3640928	OK	0.7905379	-0.1204293	-0.6004554	0	-90.346	-59.028	6.652	B5-03822-P03-CH1	3640928	OK	0.8236831	-0.1469741	-0.5476721	0	-99.338	-32.211	7.603	B5-03822-P04-CH0	3640928	OK	0.739737	-0.2930366	0.6057381	0	-120.618	-43.264	7.633	B5-03822-P04-CH1	3640928	OK	0.7425472	-0.6663139	0.0681864	0	-108.752	-48.698	2.266	NA
0.789379905808477	B5-03822-P01-CH0	3640936	OK	0.2472321	0.016538	0.0583433	-0.9670568	98.55	-15.137	-231.393	B5-03822-P02-CH0	3640936	OK	0.6962129	0.3708368	-0.614628	0	-75.044	-99.207	1.212	B5-03822-P02-CH1	3640936	OK	0.7508314	-0.242248	-0.6144658	0	-77.181	-78.917	2.227	B5-03822-P03-CH0	3640936	OK	0.7895111	-0.1270493	-0.6004421	0	-90.079	-58.657	6.592	B5-03822-P03-CH1	3640936	OK	0.823639	-0.1459122	-0.5480224	0	-99.37	-32.267	7.68	B5-03822-P04-CH0	3640936	OK	0.7396922	-0.2928424	0.6058867	0	-120.6	-43.317	7.822	B5-03822-P04-CH1	3640936	OK	0.742696	-0.6661615	0.0680548	0	-108.898	-48.636	1.786	NA
0.799372056514914	B5-03822-P01-CH0	3640944	OK	0.2471972	0.0165178	0.0580664	-0.9670827	98.557	-15.148	-231.408	B5-03822-P02-CH0	3640944	OK	0.6937832	0.3693561	-0.6182564	0	-74.882	-99.426	2.384	B5-03822-P02-CH1	3640944	OK	0.748296	-0.2433487	-0.6171179	0	-77.421	-78.836	2.209	B5-03822-P03-CH0	3640944	OK	0.7876892	-0.134212	-0.6012761	0	-90.064	-58.858	6.154	B5-03822-P03-CH1	3640944	OK	0.8234935	-0.1450397	-0.5484723	0	-99.426	-32.257	7.698	B5-03822-P04-CH0	3640944	OK	0.739393	-0.2932943	0.6060333	0	-120.488	-43.277	8.021	B5-03822-P04-CH1	3640944	OK	0.7425558	-0.6663398	0.0678398	0	-108.915	-48.627	1.968	NA
0.80936420722135	B5-03822-P01-CH0	3640952	OK	0.2473888	0.0164725	0.0584546	-0.9670111	98.601	-15.148	-231.466	B5-03822-P02-CH0	3640952	OK	0.6908508	0.3686388	-0.6219571	0	-74.709	-98.987	1.696	B5-03822-P02-CH1	3640952	OK	0.7474884	-0.2426847	-0.6183569	0	-76.724	-78.872	2.306	B5-03822-P03-CH0	3640952	OK	0.786626	-0.139306	-0.6015093	0	-89.997	-58.935	6.298	B5-03822-P03-CH1	3640952	OK	0.8234235	-0.1443717	-0.5487536	0	-99.453	-32.335	7.728	B5-03822-P04-CH0	3640952	OK	0.7396118	-0.2928954	0.6059592	0	-120.52	-43.394	8.184	B5-03822-P04-CH1	3640952	OK	0.742806	-0.6660505	0.0679405	0	-108.92	-48.694	2.12	NA
0.819356357927787	B5-03822-P01-CH0	3640960	OK	0.2475161	0.0163329	0.0586076	-0.9669716	98.587	-15.148	-231.504	B5-03822-P02-CH0	3640960	OK	0.6897866	0.3676949	-0.6236946	0	-74.375	-99.178	1.387	B5-03822-P02-CH1	3640960	OK	0.7461252	-0.2432213	-0.6197907	0	-76.493	-78.904	2.298	B5-03822-P03-CH0	3640960	OK	0.7865152	-0.142049	-0.6010124	0	-89.73	-59.113	6.567	B5-03822-P03-CH1	3640960	OK	0.8233849	-0.1436522	-0.5490003	0	-99.459	-32.29	7.736	B5-03822-P04-CH0	3640960	OK	0.7395918	-0.2931845	0.6058439	0	-120.497	-43.346	8.117	B5-03822-P04-CH1	3640960	OK	0.7428181	-0.6660461	0.0678518	0	-108.897	-48.713	1.961	NA
0.829348508634223	B5-03822-P01-CH0	3640968	OK	0.2477243	0.0161515	0.0587273	-0.9669141	98.553	-15.115	-231.547	B5-03822-P02-CH0	3640968	OK	0.6892906	0.3668737	-0.6247257	0	-74.032	-99.114	1.288	B5-03822-P02-CH1	3640968	OK	0.7451268	-0.243887	-0.6207295	0	-76.403	-78.95	1.312	B5-03822-P03-CH0	3640968	OK	0.7875948	-0.1429388	-0.5993854	0	-89.186	-58.873	6.075	B5-03822-P03-CH1	3640968	OK	0.8233869	-0.1432641	-0.5490987	0	-99.456	-32.248	7.743	B5-03822-P04-CH0	3640968	OK	0.7395957	-0.29302	0.6059188	0	-120.493	-43.365	8.133	B5-03822-P04-CH1	3640968	OK	0.7429135	-0.6659542	0.0677093	0	-108.933	-48.608	1.716	NA
0.839340659340659	B5-03822-P01-CH0	3640976	OK	0.2477712	0.0161942	0.058461	-0.9669175	98.602	-15.136	-231.602	B5-03822-P02-CH0	3640976	OK	0.6889133	0.3669559	-0.6250934	0	-73.921	-99.157	1.598	B5-03822-P02-CH1	3640976	OK	0.7446501	-0.2439219	-0.6212877	0	-76.27	-78.773	1.588	B5-03822-P03-CH0	3640976	OK	0.7872228	-0.1439088	-0.599642	0	-89.742	-59.071	6.721	B5-03822-P03-CH1	3640976	OK	0.8232613	-0.1430123	-0.5493527	0	-99.476	-32.277	7.778	B5-03822-P04-CH0	3640976	OK	0.7394545	-0.2929422	0.6061286	0	-120.541	-43.474	8.169	B5-03822-P04-CH1	3640976	OK	0.7427199	-0.6661909	0.0675042	0	-108.962	-48.648	1.878	NA
0.849332810047096	B5-03822-P01-CH0	3640984	OK	0.2478591	0.0161991	0.0584245	-0.9668971	98.624	-15.155	-231.64	B5-03822-P02-CH0	3640984	OK	0.6880446	0.3673902	-0.6257947	0	-73.939	-98.957	1.885	B5-03822-P02-CH1	3640984	OK	0.7444227	-0.2432433	-0.621826	0	-76.05	-78.399	1.746	B5-03822-P03-CH0	3640984	OK	0.7882632	-0.1437611	-0.5983092	0	-89.94	-58.732	6.518	B5-03822-P03-CH1	3640984	OK	0.8231225	-0.1428251	-0.5496093	0	-99.507	-32.297	7.838	B5-03822-P04-CH0	3640984	OK	0.7393365	-0.2932883	0.6061052	0	-120.494	-43.309	8.038	B5-03822-P04-CH1	3640984	OK	0.7426917	-0.6662155	0.0675722	0	-108.923	-48.713	2.088	NA
0.859324960753532	B5-03822-P01-CH0	3640992	OK	0.2480016	0.0162264	0.0585269	-0.9668539	98.671	-15.178	-231.668	B5-03822-P02-CH0	3640992	OK	0.6882281	0.3675176	-0.6255181	0	-73.499	-98.995	1.623	B5-03822-P02-CH1	3640992	OK	0.7439609	-0.2412108	-0.623169	0	-75.983	-78.343	2.164	B5-03822-P03-CH0	3640992	OK	0.7897476	-0.1456696	-0.5958851	0	-89.775	-58.936	6.871	B5-03822-P03-CH1	3640992	OK	0.8231101	-0.142773	-0.5496414	0	-99.504	-32.37	7.89	B5-03822-P04-CH0	3640992	OK	0.7393125	-0.2930221	0.6062632	0	-120.488	-43.345	8.126	B5-03822-P04-CH1	3640992	OK	0.7427944	-0.6660843	0.0677364	0	-108.835	-48.744	2.257	NA
0.869317111459969	B5-03822-P01-CH0	3641000	OK	0.2479807	0.0161483	0.0584051	-0.966868	98.665	-15.221	-231.711	B5-03822-P02-CH0	3641000	OK	0.6878083	0.3679739	-0.6257116	0	-73.386	-98.974	1.513	B5-03822-P02-CH1	3641000	OK	0.74288	-0.238094	-0.6256521	0	-76.266	-78.412	1.964	B5-03822-P03-CH0	3641000	OK	0.7898143	-0.1477937	-0.5952733	0	-90.041	-58.992	6.714	B5-03822-P03-CH1	3641000	OK	0.8231202	-0.1429319	-0.549585	0	-99.474	-32.431	7.915	B5-03822-P04-CH0	3641000	OK	0.7391589	-0.2929187	0.6065004	0	-120.486	-43.411	8.211	B5-03822-P04-CH1	3641000	OK	0.7427346	-0.6661976	0.0672763	0	-108.759	-48.661	2.134	NA
0.879309262166405	B5-03822-P01-CH0	3641008	OK	0.2478677	0.0160528	0.0581725	-0.9669126	98.639	-15.269	-231.734	B5-03822-P02-CH0	3641008	OK	0.686265	0.3681688	-0.6272894	0	-73.786	-98.76	2.057	B5-03822-P02-CH1	3641008	OK	0.7427915	-0.2347949	-0.6270025	0	-76.098	-78.446	2.436	B5-03822-P03-CH0	3641008	OK	0.7900202	-0.1503172	-0.5943676	0	-90.134	-58.919	6.521	B5-03822-P03-CH1	3641008	OK	0.8231694	-0.1428369	-0.5495359	0	-99.458	-32.368	7.884	B5-03822-P04-CH0	3641008	OK	0.73892	-0.2934057	0.6065562	0	-120.417	-43.309	8.222	B5-03822-P04-CH1	3641008	OK	0.7427883	-0.6661864	0.0667932	0	-108.653	-48.519	2.335	NA
0.889301412872841	B5-03822-P01-CH0	3641016	OK	0.2478186	0.0159385	0.0582018	-0.9669253	98.632	-15.329	-231.76	B5-03822-P02-CH0	3641016	OK	0.6853739	0.369047	-0.6277475	0	-73.71	-98.688	2.212	B5-03822-P02-CH1	3641016	OK	0.7429658	-0.2315001	-0.6280204	0	-75.918	-78.413	1.809	B5-03822-P03-CH0	3641016	OK	0.7902991	-0.1540743	-0.5930333	0	-90.023	-59.225	6.764	B5-03822-P03-CH1	3641016	OK	0.8232896	-0.1429837	-0.5493176	0	-99.441	-32.39	7.836	B5-03822-P04-CH0	3641016	OK	0.7388234	-0.2933601	0.6066959	0	-120.381	-43.362	8.373	B5-03822-P04-CH1	3641016	OK	0.742778	-0.6661756	0.067014	0	-108.519	-48.639	2.641	NA
0.899293563579278	B5-03822-P01-CH0	3641024	OK	0.2478773	0.016127	0.0581385	-0.9669109	98.686	-15.366	-231.756	B5-03822-P02-CH0	3641024	OK	0.6858399	0.3696929	-0.6268579	0	-73.204	-98.851	1.398	B5-03822-P02-CH1	3641024	OK	0.7433003	-0.2301936	-0.6281047	0	-75.728	-78.482	2.082	B5-03822-P03-CH0	3641024	OK	0.7901903	-0.1569338	-0.5924282	0	-90.084	-59.16	6.995	B5-03822-P03-CH1	3641024	OK	0.8231629	-0.1432244	-0.5494448	0	-99.525	-32.407	7.811	B5-03822-P04-CH0	3641024	OK	0.7389113	-0.2928749	0.6068232	0	-120.511	-43.621	8.491	B5-03822-P04-CH1	3641024	OK	0.7427868	-0.6661842	0.0668305	0	-108.558	-48.583	2.572	NA
0.909285714285714	B5-03822-P01-CH0	3641032	OK	0.2477393	0.0162681	0.0577159	-0.9669692	98.678	-15.405	-231.698	B5-03822-P02-CH0	3641032	OK	0.6858053	0.370676	-0.6263149	0	-73.332	-99.239	2.246	B5-03822-P02-CH1	3641032	OK	0.7435325	-0.2275375	-0.6287973	0	-75.72	-78.649	2.464	B5-03822-P03-CH0	3641032	OK	0.7906694	-0.1592654	-0.5911654	0	-90.126	-59.093	7.134	B5-03822-P03-CH1	3641032	OK	0.8231992	-0.1433747	-0.5493513	0	-99.53	-32.339	7.721	B5-03822-P04-CH0	3641032	OK	0.7386712	-0.293621	0.606755	0	-120.455	-43.424	8.383	B5-03822-P04-CH1	3641032	OK	0.7424363	-0.666592	0.0666592	0	-108.528	-48.545	2.323	NA
0.919277864992151	B5-03822-P01-CH0	3641040	OK	0.247673	0.0164298	0.0573644	-0.9670044	98.695	-15.449	-231.664	B5-03822-P02-CH0	3641040	OK	0.6859044	0.3718211	-0.6255272	0	-72.934	-98.732	1.807	B5-03822-P02-CH1	3641040	OK	0.7443234	-0.2257937	-0.6284901	0	-75.405	-78.799	1.816	B5-03822-P03-CH0	3641040	OK	0.7910112	-0.1621412	-0.589925	0	-90.187	-59.393	6.91	B5-03822-P03-CH1	3641040	OK	0.8231685	-0.1437016	-0.5493118	0	-99.565	-32.365	7.671	B5-03822-P04-CH0	3641040	OK	0.7385646	-0.2939145	0.6067426	0	-120.444	-43.382	8.405	B5-03822-P04-CH1	3641040	OK	0.7423237	-0.6667327	0.0665057	0	-108.496	-48.457	2.381	NA
0.929270015698587	B5-03822-P01-CH0	3641048	OK	0.247482	0.0166224	0.0571251	-0.9670641	98.752	-15.524	-231.694	B5-03822-P02-CH0	3641048	OK	0.6858682	0.3733021	-0.6246842	0	-73.076	-99.081	1.941	B5-03822-P02-CH1	3641048	OK	0.7434493	-0.2239096	-0.6301965	0	-75.509	-78.703	1.209	B5-03822-P03-CH0	3641048	OK	0.7913674	-0.1645764	-0.5887718	0	-90.372	-59.262	7.402	B5-03822-P03-CH1	3641048	OK	0.8231061	-0.1436323	-0.5494234	0	-99.63	-32.362	7.787	B5-03822-P04-CH0	3641048	OK	0.7384707	-0.2941611	0.6067375	0	-120.427	-43.448	8.747	B5-03822-P04-CH1	3641048	OK	0.7421376	-0.666981	0.0660917	0	-108.513	-48.489	2.413	NA
0.939262166405024	B5-03822-P01-CH0	3641056	OK	0.2475426	0.0165923	0.0574961	-0.9670272	98.726	-15.504	-231.683	B5-03822-P02-CH0	3641056	OK	0.6846217	0.3747057	-0.625211	0	-73.343	-99.174	2.053	B5-03822-P02-CH1	3641056	OK	0.7419871	-0.2237236	-0.6319833	0	-75.664	-78.637	1.957	B5-03822-P03-CH0	3641056	OK	0.7924377	-0.1668477	-0.5866893	0	-90.192	-58.788	7.017	B5-03822-P03-CH1	3641056	OK	0.8233201	-0.143524	-0.5491311	0	-99.59	-32.284	7.756	B5-03822-P04-CH0	3641056	OK	0.738573	-0.2945032	0.6064469	0	-120.336	-43.245	8.72	B5-03822-P04-CH1	3641056	OK	0.7425117	-0.6665875	0.0658604	0	-108.434	-48.305	2.246	NA
0.94925431711146	B5-03822-P01-CH0	3641064	OK	0.2474963	0.0166486	0.0574969	-0.967038	98.705	-15.498	-231.596	B5-03822-P02-CH0	3641064	OK	0.6833024	0.3768255	-0.6253802	0	-73.407	-98.917	2.378	B5-03822-P02-CH1	3641064	OK	0.7401638	-0.2229415	-0.6343932	0	-75.665	-78.388	1.787	B5-03822-P03-CH0	3641064	OK	0.7929115	-0.1698279	-0.5851921	0	-90.084	-58.957	7.351	B5-03822-P03-CH1	3641064	OK	0.8232904	-0.1437257	-0.5491229	0	-99.63	-32.272	7.712	B5-03822-P04-CH0	3641064	OK	0.7385148	-0.2949465	0.6063023	0	-120.291	-43.196	8.606	B5-03822-P04-CH1	3641064	OK	0.7424987	-0.6666406	0.0654678	0	-108.511	-48.166	1.863	NA
0.959246467817896	B5-03822-P01-CH0	3641072	OK	0.2474335	0.0166932	0.057491	-0.9670537	98.715	-15.513	-231.617	B5-03822-P02-CH0	3641072	OK	0.6828182	0.3787894	-0.6247223	0	-73.35	-99.247	1.868	B5-03822-P02-CH1	3641072	OK	0.7386287	-0.221592	-0.6366511	0	-75.461	-78.483	1.923	B5-03822-P03-CH0	3641072	OK	0.7928012	-0.1722888	-0.5846219	0	-90.196	-59.228	6.968	B5-03822-P03-CH1	3641072	OK	0.8231828	-0.1436926	-0.5492927	0	-99.712	-32.253	7.744	B5-03822-P04-CH0	3641072	OK	0.7385543	-0.2954191	0.6060239	0	-120.294	-43.215	8.739	B5-03822-P04-CH1	3641072	OK	0.7424155	-0.6667429	0.0653693	0	-108.516	-48.203	1.913	NA
0.969238618524333	B5-03822-P01-CH0	3641080	OK	0.2474219	0.0167834	0.0574687	-0.9670564	98.743	-15.54	-231.598	B5-03822-P02-CH0	3641080	OK	0.6818658	0.3803977	-0.6247853	0	-73.224	-98.811	1.963	B5-03822-P02-CH1	3641080	OK	0.7377367	-0.2207993	-0.6379594	0	-75.394	-78.388	1.542	B5-03822-P03-CH0	3641080	OK	0.7923954	-0.1742573	-0.5845887	0	-90.597	-59.194	7.372	B5-03822-P03-CH1	3641080	OK	0.82318	-0.1435584	-0.549332	0	-99.763	-32.208	7.688	B5-03822-P04-CH0	3641080	OK	0.7386278	-0.2957335	0.605781	0	-120.313	-43.245	8.78	B5-03822-P04-CH1	3641080	OK	0.7423755	-0.666791	0.0653323	0	-108.584	-48.227	1.936	NA
0.979230769230769	B5-03822-P01-CH0	3641088	OK	0.247446	0.0169952	0.0575557	-0.9670414	98.813	-15.556	-231.533	B5-03822-P02-CH0	3641088	OK	0.6818134	0.3815854	-0.6241178	0	-73.295	-99.209	2.445	B5-03822-P02-CH1	3641088	OK	0.7375063	-0.2194732	-0.638683	0	-75.263	-78.364	1.335	B5-03822-P03-CH0	3641088	OK	0.7929749	-0.1753574	-0.5834729	0	-90.431	-59	7.69	B5-03822-P03-CH1	3641088	OK	0.8230882	-0.1435378	-0.549475	0	-99.837	-32.232	7.66	B5-03822-P04-CH0	3641088	OK	0.7386924	-0.2959735	0.6055851	0	-120.331	-43.295	8.737	B5-03822-P04-CH1	3641088	OK	0.7422486	-0.6669376	0.0652785	0	-108.634	-48.34	1.805	NA
0.989222919937206	B5-03822-P01-CH0	3641096	OK	0.2473664	0.0170622	0.0573814	-0.9670709	98.786	-15.554	-231.436	B5-03822-P02-CH0	3641096	OK	0.6809056	0.3828539	-0.624332	0	-73.417	-98.56	2.798	B5-03822-P02-CH1	3641096	OK	0.7371356	-0.2191332	-0.6392275	0	-75.012	-78.507	1.899	B5-03822-P03-CH0	3641096	OK	0.7924724	-0.1766695	-0.5837596	0	-90.459	-59.135	7.659	B5-03822-P03-CH1	3641096	OK	0.8231263	-0.1433055	-0.5494785	0	-99.835	-32.152	7.631	B5-03822-P04-CH0	3641096	OK	0.7386442	-0.2966824	0.6052969	0	-120.339	-43.137	8.521	B5-03822-P04-CH1	3641096	OK	0.7421363	-0.6671313	0.0645714	0	-108.638	-48.188	1.635	NA
0.999215070643642	B5-03822-P01-CH0	3641104	OK	0.247417	0.0169244	0.0576423	-0.9670449	98.763	-15.554	-231.462	B5-03822-P02-CH0	3641104	OK	0.6819663	0.3834698	-0.6227945	0	-73.245	-99.269	2.074	B5-03822-P02-CH1	3641104	OK	0.7366711	-0.2193269	-0.6396963	0	-74.977	-78.473	1.481	B5-03822-P03-CH0	3641104	OK	0.7927467	-0.176252	-0.5835134	0	-90.365	-58.911	6.915	B5-03822-P03-CH1	3641104	OK	0.82332	-0.1430164	-0.5492636	0	-99.8	-32.134	7.684	B5-03822-P04-CH0	3641104	OK	0.738519	-0.2973753	0.6051096	0	-120.211	-42.905	8.32	B5-03822-P04-CH1	3641104	OK	0.7422722	-0.6670069	0.0642938	0	-108.566	-48.198	1.695	NA
1.00920722135008	B5-03822-P01-CH0	3641112	OK	0.2476696	0.0167543	0.0581336	-0.9669537	98.747	-15.539	-231.479	B5-03822-P02-CH0	3641112	OK	0.6803399	0.3845053	-0.6239338	0	-73.573	-98.775	2.397	B5-03822-P02-CH1	3641112	OK	0.7364905	-0.2193708	-0.6398892	0	-74.986	-78.393	1.171	B5-03822-P03-CH0	3641112	OK	0.793207	-0.1780255	-0.5823484	0	-90.285	-59.133	6.643	B5-03822-P03-CH1	3641112	OK	0.8234715	-0.1428745	-0.5490734	0	-99.782	-32.164	7.685	B5-03822-P04-CH0	3641112	OK	0.7384449	-0.297645	0.6050674	0	-120.109	-42.784	8.133	B5-03822-P04-CH1	3641112	OK	0.7425895	-0.6666363	0.0644735	0	-108.425	-48.239	1.718	NA
1.01919937205651	B5-03822-P01-CH0	3641120	OK	0.2479462	0.0166845	0.0585177	-0.9668609	98.752	-15.531	-231.488	B5-03822-P02-CH0	3641120	OK	0.6813223	0.3845011	-0.6228634	0	-73.023	-99.203	1.509	B5-03822-P02-CH1	3641120	OK	0.7352935	-0.2194267	-0.6412452	0	-75.389	-78.522	2.01	B5-03822-P03-CH0	3641120	OK	0.7942808	-0.1788751	-0.5806218	0	-89.899	-59.174	7.052	B5-03822-P03-CH1	3641120	OK	0.8235354	-0.1427548	-0.5490087	0	-99.786	-32.177	7.714	B5-03822-P04-CH0	3641120	OK	0.7383798	-0.297371	0.6052816	0	-120.08	-42.899	8.121	B5-03822-P04-CH1	3641120	OK	0.7428806	-0.6663094	0.0644994	0	-108.402	-48.248	1.748	NA
1.02919152276295	B5-03822-P01-CH0	3641128	OK	0.248224	0.0166694	0.0587655	-0.9667749	98.762	-15.523	-231.45	B5-03822-P02-CH0	3641128	OK	0.6812724	0.3812287	-0.6249261	0	-73.115	-98.986	2.109	B5-03822-P02-CH1	3641128	OK	0.7350664	-0.2186757	-0.6417619	0	-74.937	-78.564	1.264	B5-03822-P03-CH0	3641128	OK	0.7928054	-0.1762523	-0.5834335	0	-90.353	-59.354	6.948	B5-03822-P03-CH1	3641128	OK	0.8236082	-0.1429792	-0.548841	0	-99.76	-32.266	7.612	B5-03822-P04-CH0	3641128	OK	0.7382093	-0.2972407	0.6055535	0	-120.024	-42.945	7.942	B5-03822-P04-CH1	3641128	OK	0.7430507	-0.6660962	0.0647429	0	-108.297	-48.223	1.62	NA
1.03918367346939	B5-03822-P01-CH0	3641136	OK	0.248177	0.0168019	0.0584342	-0.9668047	98.808	-15.558	-231.455	B5-03822-P02-CH0	3641136	OK	0.6811144	0.382398	-0.6243837	0	-73.097	-99.061	2.186	B5-03822-P02-CH1	3641136	OK	0.7341087	-0.2176431	-0.6432075	0	-74.867	-78.406	1.891	B5-03822-P03-CH0	3641136	OK	0.7928963	-0.1776694	-0.5828799	0	-90.345	-59.426	6.979	B5-03822-P03-CH1	3641136	OK	0.8234829	-0.143188	-0.5489747	0	-99.825	-32.325	7.672	B5-03822-P04-CH0	3641136	OK	0.7378168	-0.2976344	0.6058384	0	-119.99	-42.98	7.861	B5-03822-P04-CH1	3641136	OK	0.7427728	-0.6664163	0.0646363	0	-108.287	-48.263	1.733	NA
