Wav.Time	B5.03822.P01.CH0	Frame	State	Q0	Qx	Qy	Qz	Tx	Ty	Tz	B5.03822.P02.CH0	Frame.1	State.1	Q0.1	Qx.1	Qy.1	Qz.1	Tx.1	Ty.1	Tz.1	B5.03822.P02.CH1	Frame.2	State.2	Q0.2	Qx.2	Qy.2	Qz.2	Tx.2	Ty.2	Tz.2	B5.03822.P03.CH0	Frame.3	State.3	Q0.3	Qx.3	Qy.3	Qz.3	Tx.3	Ty.3	Tz.3	B5.03822.P03.CH1	Frame.4	State.4	Q0.4	Qx.4	Qy.4	Qz.4	Tx.4	Ty.4	Tz.4	B5.03822.P04.CH0	Frame.5	State.5	Q0.5	Qx.5	Qy.5	Qz.5	Tx.5	Ty.5	Tz.5	B5.03822.P04.CH1	Frame.6	State.6	Q0.6	Qx.6	Qy.6	Qz.6	Tx.6	Ty.6	Tz.6	X
0	B5-03822-P01-CH0	3580768	OK	0.2278945	0.0702915	0.0765226	-0.9681258	100.177	38.283	-262.484	B5-03822-P02-CH0	3580768	OK	0.7231636	0.2824234	-0.6302947	0	-90.403	-99.072	3.175	B5-03822-P02-CH1	3580768	OK	0.7451908	-0.0283557	-0.6662482	0	-84.691	-76.287	2.24	B5-03822-P03-CH0	3580768	OK	0.7604389	-0.6057122	-0.234191	0	-99.876	-57.179	6.48	B5-03822-P03-CH1	3580768	OK	0.7571608	-0.6373399	0.1431968	0	-104.866	-27.172	2.988	B5-03822-P04-CH0	3580768	OK	0.6782882	-0.139779	0.7213785	0	-130.917	-31.821	11.284	B5-03822-P04-CH1	3580768	OK	0.7666173	-0.6404684	0.0458056	0	-114.634	-45.48	5.089	NA
0.00999199679871949	B5-03822-P01-CH0	3580776	OK	0.2278721	0.0704673	0.0765036	-0.9681197	100.227	38.272	-262.428	B5-03822-P02-CH0	3580776	OK	0.7222683	0.2780598	-0.6332545	0	-90.968	-99.75	3.925	B5-03822-P02-CH1	3580776	OK	0.7443259	-0.0222874	-0.6674446	0	-85.223	-77.027	2.57	B5-03822-P03-CH0	3580776	OK	0.7652142	-0.6055718	-0.2184718	0	-99.377	-58.088	6.517	B5-03822-P03-CH1	3580776	OK	0.7570978	-0.6373661	0.1434133	0	-104.957	-27.173	2.965	B5-03822-P04-CH0	3580776	OK	0.678399	-0.1393634	0.7213547	0	-131.01	-31.85	11.313	B5-03822-P04-CH1	3580776	OK	0.7664781	-0.6406066	0.0461996	0	-114.733	-45.642	5.099	NA
0.019983993597439	B5-03822-P01-CH0	3580784	OK	0.2277828	0.0703205	0.0760494	-0.9681872	100.158	38.138	-262.385	B5-03822-P02-CH0	3580784	OK	0.7239755	0.2725405	-0.6337043	0	-89.788	-99.896	2.583	B5-03822-P02-CH1	3580784	OK	0.7440329	-0.0174319	-0.6679156	0	-85.366	-78.115	2.123	B5-03822-P03-CH0	3580784	OK	0.770642	-0.6024589	-0.207736	0	-99.706	-58.314	7.216	B5-03822-P03-CH1	3580784	OK	0.7565783	-0.6378719	0.1439052	0	-104.904	-27.357	2.824	B5-03822-P04-CH0	3580784	OK	0.6783655	-0.1386842	0.7215171	0	-131.069	-32.023	11.224	B5-03822-P04-CH1	3580784	OK	0.7661442	-0.6409925	0.0463859	0	-114.572	-45.754	4.991	NA
0.0299759903961585	B5-03822-P01-CH0	3580792	OK	0.2277573	0.0704511	0.0761505	-0.9681758	100.24	38.184	-262.457	B5-03822-P02-CH0	3580792	OK	0.722628	0.268874	-0.636801	0	-90.646	-100.572	2.42	B5-03822-P02-CH1	3580792	OK	0.7438617	-0.0109862	-0.6682433	0	-85.277	-78.425	2.029	B5-03822-P03-CH0	3580792	OK	0.7766657	-0.598881	-0.1952739	0	-99.521	-58.822	7.864	B5-03822-P03-CH1	3580792	OK	0.7566642	-0.6376982	0.1442229	0	-104.984	-27.271	2.838	B5-03822-P04-CH0	3580792	OK	0.6784159	-0.13751	0.7216944	0	-131.203	-32.293	11.445	B5-03822-P04-CH1	3580792	OK	0.7659932	-0.6411442	0.0467825	0	-114.702	-45.946	5.078	NA
0.039967987194878	B5-03822-P01-CH0	3580800	OK	0.2277262	0.0701231	0.0761171	-0.9682095	100.104	38.147	-262.477	B5-03822-P02-CH0	3580800	OK	0.7225165	0.2625879	-0.6395448	0	-90.38	-100.693	1.311	B5-03822-P02-CH1	3580800	OK	0.7432022	-0.0053832	-0.6690452	0	-85.272	-77.787	2.5	B5-03822-P03-CH0	3580800	OK	0.7827891	-0.594899	-0.1825825	0	-99.501	-59.657	7.802	B5-03822-P03-CH1	3580800	OK	0.7567225	-0.6375794	0.1444425	0	-105.073	-27.211	3.089	B5-03822-P04-CH0	3580800	OK	0.6781382	-0.137421	0.7219723	0	-131.106	-32.179	11.345	B5-03822-P04-CH1	3580800	OK	0.766004	-0.6411034	0.0471629	0	-114.515	-45.947	5.057	NA
0.0499599839935974	B5-03822-P01-CH0	3580808	OK	0.2275764	0.0700989	0.0757731	-0.9682735	100.076	38.093	-262.473	B5-03822-P02-CH0	3580808	OK	0.721741	0.2552109	-0.6433951	0	-90.355	-100.512	1.828	B5-03822-P02-CH1	3580808	OK	0.7445381	0.0016369	-0.667578	0	-83.988	-79.277	0.923	B5-03822-P03-CH0	3580808	OK	0.7895423	-0.5897699	-0.1696892	0	-99.787	-59.844	8.892	B5-03822-P03-CH1	3580808	OK	0.7563387	-0.6379863	0.1446553	0	-105.034	-27.206	3.152	B5-03822-P04-CH0	3580808	OK	0.6777615	-0.1370429	0.7223978	0	-131.064	-32.193	11.235	B5-03822-P04-CH1	3580808	OK	0.7658532	-0.6412797	0.0472147	0	-114.579	-45.937	5.017	NA
0.0599519807923169	B5-03822-P01-CH0	3580816	OK	0.2275469	0.0702458	0.0758219	-0.968266	100.148	38.081	-262.464	B5-03822-P02-CH0	3580816	OK	0.7226458	0.2460817	-0.645931	0	-89.761	-101.123	1.882	B5-03822-P02-CH1	3580816	OK	0.7411703	0.0123726	-0.671203	0	-84.807	-79.216	1.326	B5-03822-P03-CH0	3580816	OK	0.7969875	-0.5832936	-0.1567784	0	-100.152	-59.629	10.152	B5-03822-P03-CH1	3580816	OK	0.7562809	-0.6379803	0.1449838	0	-105.146	-27.181	3.13	B5-03822-P04-CH0	3580816	OK	0.6778804	-0.1359506	0.7224927	0	-131.206	-32.437	11.361	B5-03822-P04-CH1	3580816	OK	0.7660114	-0.6410747	0.0474314	0	-114.695	-45.959	5.146	NA
0.0699439775910364	B5-03822-P01-CH0	3580824	OK	0.2276295	0.0702334	0.076027	-0.9682314	100.127	38.052	-262.418	B5-03822-P02-CH0	3580824	OK	0.723317	0.2368281	-0.6486331	0	-89.7	-101.572	1.41	B5-03822-P02-CH1	3580824	OK	0.7384813	0.024309	-0.6738356	0	-84.775	-78.701	1.984	B5-03822-P03-CH0	3580824	OK	0.8032693	-0.5794309	-0.1379065	0	-99.634	-60.438	10.228	B5-03822-P03-CH1	3580824	OK	0.7561488	-0.637998	0.1455937	0	-105.186	-27.258	2.893	B5-03822-P04-CH0	3580824	OK	0.6780266	-0.1353529	0.7224676	0	-131.301	-32.435	11.25	B5-03822-P04-CH1	3580824	OK	0.7661338	-0.6409088	0.0476964	0	-114.802	-46.043	4.977	NA
0.0799359743897559	B5-03822-P01-CH0	3580832	OK	0.2273625	0.0699068	0.075965	-0.9683226	99.989	38.013	-262.453	B5-03822-P02-CH0	3580832	OK	0.7227316	0.2271771	-0.6527248	0	-90.448	-100.781	1.375	B5-03822-P02-CH1	3580832	OK	0.7364515	0.0373674	-0.6754576	0	-84.514	-78.888	2.462	B5-03822-P03-CH0	3580832	OK	0.8085875	-0.5756428	-0.1217444	0	-99.3	-61.229	11.057	B5-03822-P03-CH1	3580832	OK	0.756051	-0.6381141	0.1455928	0	-105.097	-27.055	2.822	B5-03822-P04-CH0	3580832	OK	0.6776937	-0.1358315	0.7226902	0	-131.145	-32.093	11.333	B5-03822-P04-CH1	3580832	OK	0.7661068	-0.6409333	0.0478005	0	-114.669	-46.025	5.013	NA
0.0899279711884754	B5-03822-P01-CH0	3580840	OK	0.2273571	0.069828	0.0762592	-0.9683064	99.985	38.062	-262.503	B5-03822-P02-CH0	3580840	OK	0.7222516	0.2183081	-0.6562729	0	-91.319	-101.179	2.064	B5-03822-P02-CH1	3580840	OK	0.7333083	0.0504697	-0.6780205	0	-84.651	-79.05	3.288	B5-03822-P03-CH0	3580840	OK	0.813783	-0.5715289	-0.1054133	0	-99.456	-62.073	10.861	B5-03822-P03-CH1	3580840	OK	0.7560767	-0.6379795	0.1460485	0	-105.219	-26.987	2.667	B5-03822-P04-CH0	3580840	OK	0.6773363	-0.1355099	0.7230855	0	-131.078	-31.99	11.292	B5-03822-P04-CH1	3580840	OK	0.7664827	-0.6404693	0.047992	0	-114.658	-45.961	5.385	NA
0.0999199679871949	B5-03822-P01-CH0	3580848	OK	0.2271043	0.070144	0.076162	-0.9683506	100.107	38.05	-262.499	B5-03822-P02-CH0	3580848	OK	0.7257351	0.2062455	-0.6563318	0	-90.095	-102.574	1.925	B5-03822-P02-CH1	3580848	OK	0.7325939	0.0636021	-0.6776879	0	-83.026	-80.568	1.248	B5-03822-P03-CH0	3580848	OK	0.8193606	-0.566048	-0.0907628	0	-99.523	-62.187	11.103	B5-03822-P03-CH1	3580848	OK	0.7557792	-0.6382836	0.1462591	0	-105.291	-26.983	2.599	B5-03822-P04-CH0	3580848	OK	0.6772383	-0.13523	0.7232297	0	-131.179	-31.962	11.296	B5-03822-P04-CH1	3580848	OK	0.7663939	-0.6405762	0.0479851	0	-114.686	-46.016	5.559	NA
0.109911964785914	B5-03822-P01-CH0	3580856	OK	0.2268924	0.0700777	0.0760754	-0.9684118	100.064	38.036	-262.517	B5-03822-P02-CH0	3580856	OK	0.7279445	0.1972828	-0.6566402	0	-89.592	-102.001	1.778	B5-03822-P02-CH1	3580856	OK	0.7284334	0.0797529	-0.6804589	0	-82.735	-80.294	0.294	B5-03822-P03-CH0	3580856	OK	0.8231522	-0.5638911	-0.0666876	0	-97.426	-63.208	11.379	B5-03822-P03-CH1	3580856	OK	0.7556047	-0.638423	0.1465523	0	-105.257	-26.898	2.573	B5-03822-P04-CH0	3580856	OK	0.6767836	-0.135264	0.7236488	0	-131.142	-31.904	11.034	B5-03822-P04-CH1	3580856	OK	0.7663653	-0.6406107	0.0479812	0	-114.635	-45.968	5.524	NA
0.119903961584634	B5-03822-P01-CH0	3580864	OK	0.2265348	0.0700175	0.0760881	-0.9684989	100.024	38.073	-262.574	B5-03822-P02-CH0	3580864	OK	0.7307773	0.1882676	-0.6561401	0	-89.435	-103.102	1.109	B5-03822-P02-CH1	3580864	OK	0.7244706	0.0994594	-0.6820925	0	-82.42	-79.683	0.686	B5-03822-P03-CH0	3580864	OK	0.8281905	-0.5576514	-0.055906	0	-99.524	-63.125	10.978	B5-03822-P03-CH1	3580864	OK	0.7554962	-0.6385585	0.1465215	0	-105.176	-26.724	2.533	B5-03822-P04-CH0	3580864	OK	0.6762986	-0.1354796	0.7240618	0	-131.078	-31.798	10.97	B5-03822-P04-CH1	3580864	OK	0.7664648	-0.640514	0.0476817	0	-114.775	-45.827	5.588	NA
0.129895958383353	B5-03822-P01-CH0	3580872	OK	0.2262505	0.0700308	0.075883	-0.9685805	99.984	37.982	-262.516	B5-03822-P02-CH0	3580872	OK	0.7308715	0.1806538	-0.6581725	0	-90.113	-102.456	2.125	B5-03822-P02-CH1	3580872	OK	0.721841	0.1176124	-0.6819919	0	-81.912	-80.047	1.227	B5-03822-P03-CH0	3580872	OK	0.8323404	-0.5525921	-0.0430287	0	-99.846	-63.434	11.646	B5-03822-P03-CH1	3580872	OK	0.755266	-0.6387637	0.1468136	0	-105.136	-26.742	2.486	B5-03822-P04-CH0	3580872	OK	0.6759132	-0.1360057	0.724323	0	-131.028	-31.602	10.734	B5-03822-P04-CH1	3580872	OK	0.7665004	-0.6404971	0.0473352	0	-114.74	-45.727	5.662	NA
0.139887955182073	B5-03822-P01-CH0	3580880	OK	0.2259405	0.0700849	0.0756363	-0.9686682	99.954	37.901	-262.435	B5-03822-P02-CH0	3580880	OK	0.732575	0.1736982	-0.6581511	0	-90.387	-102.077	1.794	B5-03822-P02-CH1	3580880	OK	0.720093	0.1340982	-0.6807964	0	-80.99	-79.385	0.6	B5-03822-P03-CH0	3580880	OK	0.8349959	-0.5495586	-0.0276995	0	-99.191	-64.063	11.426	B5-03822-P03-CH1	3580880	OK	0.7548608	-0.6391578	0.1471815	0	-105.072	-26.842	2.179	B5-03822-P04-CH0	3580880	OK	0.675521	-0.1362139	0.7246497	0	-130.997	-31.632	10.648	B5-03822-P04-CH1	3580880	OK	0.7663823	-0.6406616	0.0470193	0	-114.791	-45.686	5.577	NA
0.149879951980792	B5-03822-P01-CH0	3580888	OK	0.225676	0.0699391	0.0755675	-0.9687458	99.89	37.832	-262.427	B5-03822-P02-CH0	3580888	OK	0.7370777	0.1680163	-0.6545892	0	-89.688	-102.435	1.436	B5-03822-P02-CH1	3580888	OK	0.7173285	0.152489	-0.6798433	0	-81.271	-80.02	1.233	B5-03822-P03-CH0	3580888	OK	0.8386967	-0.5443593	-0.0161499	0	-98.714	-64.059	12.03	B5-03822-P03-CH1	3580888	OK	0.7546355	-0.6393028	0.1477064	0	-105.013	-26.949	2.036	B5-03822-P04-CH0	3580888	OK	0.6751097	-0.1368325	0.7249164	0	-130.933	-31.575	10.443	B5-03822-P04-CH1	3580888	OK	0.7662535	-0.6408223	0.0469289	0	-114.608	-45.719	5.475	NA
0.159871948779512	B5-03822-P01-CH0	3580896	OK	0.225414	0.0697752	0.0752492	-0.9688434	99.785	37.741	-262.397	B5-03822-P02-CH0	3580896	OK	0.7424002	0.1648975	-0.6493464	0	-89.257	-102.485	-0.098	B5-03822-P02-CH1	3580896	OK	0.7163039	0.1721544	-0.6762186	0	-80.549	-79.324	1.641	B5-03822-P03-CH0	3580896	OK	0.8429757	-0.5379116	-0.0065675	0	-98.461	-63.411	11.896	B5-03822-P03-CH1	3580896	OK	0.7544072	-0.6394591	0.148195	0	-104.996	-27.011	1.956	B5-03822-P04-CH0	3580896	OK	0.6742594	-0.1382447	0.7254396	0	-130.726	-31.387	10.06	B5-03822-P04-CH1	3580896	OK	0.7659555	-0.6411872	0.0468096	0	-114.427	-45.745	5.277	NA
0.169863945578231	B5-03822-P01-CH0	3580904	OK	0.2249792	0.069727	0.0753849	-0.9689374	99.722	37.811	-262.405	B5-03822-P02-CH0	3580904	OK	0.7442987	0.1639851	-0.6474012	0	-90.518	-101.946	1.008	B5-03822-P02-CH1	3580904	OK	0.7147456	0.1918261	-0.6725633	0	-80.781	-79	1.058	B5-03822-P03-CH0	3580904	OK	0.8438734	-0.5365315	0.0034108	0	-97.861	-63.957	12.335	B5-03822-P03-CH1	3580904	OK	0.7544918	-0.6393578	0.148202	0	-105.118	-26.857	2.1	B5-03822-P04-CH0	3580904	OK	0.6736683	-0.1401284	0.7256273	0	-130.573	-31.108	9.986	B5-03822-P04-CH1	3580904	OK	0.7660329	-0.6411476	0.0460811	0	-114.404	-45.548	5.272	NA
0.179855942376951	B5-03822-P01-CH0	3580912	OK	0.2248134	0.0695707	0.0757061	-0.968962	99.618	37.833	-262.371	B5-03822-P02-CH0	3580912	OK	0.7466066	0.1624553	-0.6451255	0	-91.168	-101.331	1.667	B5-03822-P02-CH1	3580912	OK	0.7177074	0.2021239	-0.6663648	0	-79.813	-78.706	1.578	B5-03822-P03-CH0	3580912	OK	0.8445312	-0.5355002	0.0025746	0	-98.275	-64.037	12.068	B5-03822-P03-CH1	3580912	OK	0.7545901	-0.6390834	0.1488831	0	-105.284	-26.824	1.908	B5-03822-P04-CH0	3580912	OK	0.6734123	-0.1415648	0.7255862	0	-130.479	-31.031	9.947	B5-03822-P04-CH1	3580912	OK	0.7662259	-0.6409582	0.0455016	0	-114.326	-45.424	5.119	NA
0.18984793917567	B5-03822-P01-CH0	3580920	OK	0.2247198	0.069492	0.0757807	-0.9689836	99.571	37.793	-262.385	B5-03822-P02-CH0	3580920	OK	0.7501297	0.1593142	-0.6418134	0	-90.747	-100.484	1.029	B5-03822-P02-CH1	3580920	OK	0.7218091	0.2095292	-0.6596129	0	-80.148	-80.204	0.667	B5-03822-P03-CH0	3580920	OK	0.8447593	-0.5351361	-0.0033189	0	-98.852	-63.616	11.542	B5-03822-P03-CH1	3580920	OK	0.7543635	-0.6391019	0.1499483	0	-105.332	-26.949	1.856	B5-03822-P04-CH0	3580920	OK	0.673013	-0.1433156	0.7256129	0	-130.338	-31.038	9.91	B5-03822-P04-CH1	3580920	OK	0.7661854	-0.6410364	0.0450815	0	-114.204	-45.435	5.014	NA
0.19983993597439	B5-03822-P01-CH0	3580928	OK	0.2248441	0.0693334	0.0763254	-0.9689233	99.501	37.845	-262.409	B5-03822-P02-CH0	3580928	OK	0.7531507	0.1550125	-0.639324	0	-90.516	-100.855	0.983	B5-03822-P02-CH1	3580928	OK	0.7233961	0.222643	-0.6535504	0	-80.718	-79.38	1.775	B5-03822-P03-CH0	3580928	OK	0.8449135	-0.5348526	-0.0073475	0	-97.522	-62.902	12.072	B5-03822-P03-CH1	3580928	OK	0.7545996	-0.6385246	0.1512144	0	-105.42	-26.922	1.97	B5-03822-P04-CH0	3580928	OK	0.6726445	-0.1456731	0.7254851	0	-130.103	-30.835	9.984	B5-03822-P04-CH1	3580928	OK	0.7667025	-0.6404415	0.0447437	0	-114.167	-45.298	5.055	NA
0.209831932773109	B5-03822-P01-CH0	3580936	OK	0.2245671	0.0689809	0.0762275	-0.9690204	99.392	37.754	-262.465	B5-03822-P02-CH0	3580936	OK	0.7545148	0.1555783	-0.6375757	0	-91.049	-100.334	0.395	B5-03822-P02-CH1	3580936	OK	0.7275034	0.2368029	-0.6439435	0	-79.963	-78.877	1.933	B5-03822-P03-CH0	3580936	OK	0.8423559	-0.5386667	-0.0165752	0	-96.854	-62.899	11.302	B5-03822-P03-CH1	3580936	OK	0.7543041	-0.638618	0.1522905	0	-105.392	-26.973	1.889	B5-03822-P04-CH0	3580936	OK	0.6722981	-0.1482664	0.7252809	0	-129.929	-30.685	10.114	B5-03822-P04-CH1	3580936	OK	0.7667297	-0.6404526	0.0441135	0	-113.938	-45.207	5.122	NA
0.219823929571829	B5-03822-P01-CH0	3580944	OK	0.2244116	0.0687195	0.0758301	-0.9691062	99.276	37.629	-262.476	B5-03822-P02-CH0	3580944	OK	0.7563146	0.1563364	-0.6352536	0	-91.12	-99.643	-0.143	B5-03822-P02-CH1	3580944	OK	0.7298086	0.2484168	-0.6369211	0	-80.534	-78.427	2.691	B5-03822-P03-CH0	3580944	OK	0.8377789	-0.5450309	-0.0326764	0	-97.459	-63.166	10.755	B5-03822-P03-CH1	3580944	OK	0.7539137	-0.6387423	0.1536956	0	-105.357	-27.043	1.9	B5-03822-P04-CH0	3580944	OK	0.6717621	-0.1501719	0.7253854	0	-129.678	-30.642	10.1	B5-03822-P04-CH1	3580944	OK	0.7665368	-0.6407152	0.0436497	0	-113.707	-45.211	5.157	NA
0.229815926370548	B5-03822-P01-CH0	3580952	OK	0.2241777	0.0685718	0.0756103	-0.969188	99.201	37.588	-262.448	B5-03822-P02-CH0	3580952	OK	0.7584253	0.155785	-0.6328682	0	-90.747	-100.109	-0.566	B5-03822-P02-CH1	3580952	OK	0.7339837	0.2523533	-0.630544	0	-80.461	-78.199	1.705	B5-03822-P03-CH0	3580952	OK	0.8327058	-0.5514534	-0.0500013	0	-97.297	-62.856	10.705	B5-03822-P03-CH1	3580952	OK	0.7536006	-0.6388385	0.1548274	0	-105.361	-27.036	1.897	B5-03822-P04-CH0	3580952	OK	0.6714136	-0.1518076	0.7253677	0	-129.498	-30.612	10.138	B5-03822-P04-CH1	3580952	OK	0.7662904	-0.6410477	0.0430906	0	-113.662	-45.207	4.92	NA
0.239807923169268	B5-03822-P01-CH0	3580960	OK	0.2243437	0.0686222	0.0762552	-0.9690955	99.28	37.642	-262.44	B5-03822-P02-CH0	3580960	OK	0.7563666	0.1590864	-0.6345086	0	-92.184	-99.26	0.266	B5-03822-P02-CH1	3580960	OK	0.738187	0.2510533	-0.6261407	0	-80.27	-78.11	1.621	B5-03822-P03-CH0	3580960	OK	0.8264121	-0.5593494	-0.0645853	0	-96.308	-62.877	10.32	B5-03822-P03-CH1	3580960	OK	0.7539813	-0.6380893	0.1560584	0	-105.482	-27.069	1.952	B5-03822-P04-CH0	3580960	OK	0.6717207	-0.1517903	0.7250869	0	-129.528	-30.797	10.535	B5-03822-P04-CH1	3580960	OK	0.7667552	-0.6404937	0.0430603	0	-113.75	-45.213	4.852	NA
0.249799919967987	B5-03822-P01-CH0	3580968	OK	0.2244457	0.0685113	0.0762004	-0.969084	99.241	37.64	-262.412	B5-03822-P02-CH0	3580968	OK	0.756056	0.1638099	-0.6336762	0	-93.089	-99.433	0.939	B5-03822-P02-CH1	3580968	OK	0.7419479	0.2425578	-0.6250433	0	-80.551	-77.837	1.489	B5-03822-P03-CH0	3580968	OK	0.8198246	-0.5664057	-0.0840968	0	-96.321	-61.943	9.793	B5-03822-P03-CH1	3580968	OK	0.7541556	-0.6376142	0.1571543	0	-105.467	-26.961	2.038	B5-03822-P04-CH0	3580968	OK	0.6717497	-0.1507355	0.7252801	0	-129.587	-31.075	10.592	B5-03822-P04-CH1	3580968	OK	0.7668846	-0.6403335	0.0431388	0	-113.839	-45.16	4.769	NA
0.259791916766707	B5-03822-P01-CH0	3580976	OK	0.2242488	0.0683802	0.0758418	-0.969167	99.182	37.619	-262.405	B5-03822-P02-CH0	3580976	OK	0.7548701	0.1736664	-0.6324643	0	-94.072	-98.034	2.115	B5-03822-P02-CH1	3580976	OK	0.7483411	0.2238333	-0.6244072	0	-79.901	-78.271	-0.063	B5-03822-P03-CH0	3580976	OK	0.811285	-0.5759238	-0.1006403	0	-95.905	-61.585	9.412	B5-03822-P03-CH1	3580976	OK	0.7538692	-0.6377585	0.1579409	0	-105.382	-27.039	2.151	B5-03822-P04-CH0	3580976	OK	0.6719927	-0.1487213	0.7254707	0	-129.756	-31.332	10.862	B5-03822-P04-CH1	3580976	OK	0.7666865	-0.6405681	0.0431773	0	-113.946	-45.145	4.636	NA
0.269783913565426	B5-03822-P01-CH0	3580984	OK	0.2242412	0.0682378	0.0756169	-0.9691963	99.187	37.499	-262.382	B5-03822-P02-CH0	3580984	OK	0.7574847	0.1844084	-0.6262671	0	-93.208	-97.658	0.67	B5-03822-P02-CH1	3580984	OK	0.7524695	0.1970092	-0.628472	0	-80.34	-77.486	0.672	B5-03822-P03-CH0	3580984	OK	0.8043556	-0.5831357	-0.1138629	0	-96.655	-61.287	8.998	B5-03822-P03-CH1	3580984	OK	0.7538027	-0.6376005	0.1588937	0	-105.254	-27.239	1.952	B5-03822-P04-CH0	3580984	OK	0.6732691	-0.1243798	0.7288611	0	-131.384	-32.405	10.858	B5-03822-P04-CH1	3580984	OK	0.7666403	-0.6405561	0.044165	0	-113.922	-45.291	4.461	NA
0.279775910364146	B5-03822-P01-CH0	3580992	OK	0.2241382	0.0686263	0.0748571	-0.9692517	99.354	37.426	-262.389	B5-03822-P02-CH0	3580992	OK	0.7581494	0.1980999	-0.6212615	0	-93.852	-98.384	1.269	B5-03822-P02-CH1	3580992	OK	0.755997	0.168651	-0.6324756	0	-81.371	-77.138	1.368	B5-03822-P03-CH0	3580992	OK	0.8009686	-0.5865032	-0.1202636	0	-96.955	-60.278	9.876	B5-03822-P03-CH1	3580992	OK	0.7535425	-0.637762	0.1594783	0	-105.181	-27.455	2.314	B5-03822-P04-CH0	3580992	OK	0.6743648	-0.1137226	0.7295884	0	-132.524	-33.453	11.948	B5-03822-P04-CH1	3580992	OK	0.7660476	-0.6412033	0.0450498	0	-114.254	-45.581	4.643	NA
0.289767907162865	B5-03822-P01-CH0	3581000	OK	0.2242209	0.0684533	0.07511	-0.9692253	99.305	37.435	-262.336	B5-03822-P02-CH0	3581000	OK	0.7574814	0.2201721	-0.6146106	0	-95.08	-97.506	2.472	B5-03822-P02-CH1	3581000	OK	0.7568564	0.1489509	-0.636382	0	-82.931	-77.021	3.248	B5-03822-P03-CH0	3581000	OK	0.7974244	-0.5892407	-0.1300371	0	-96.909	-59.761	8.576	B5-03822-P03-CH1	3581000	OK	0.7541367	-0.6370355	0.1595731	0	-104.941	-27.407	2.428	B5-03822-P04-CH0	3581000	OK	0.6728421	-0.1088093	0.7317404	0	-131.964	-33.791	12.476	B5-03822-P04-CH1	3581000	OK	0.7663302	-0.640777	0.0462905	0	-114.399	-45.638	4.48	NA
0.299759903961585	B5-03822-P01-CH0	3581008	OK	0.2240988	0.0684157	0.0750158	-0.9692635	99.313	37.431	-262.407	B5-03822-P02-CH0	3581008	OK	0.7626767	0.2441757	-0.5989177	0	-93.73	-98.31	-0.837	B5-03822-P02-CH1	3581008	OK	0.757632	0.135696	-0.6384202	0	-82.948	-76.828	3.036	B5-03822-P03-CH0	3581008	OK	0.7923201	-0.5925041	-0.1454914	0	-96.621	-59.474	8.697	B5-03822-P03-CH1	3581008	OK	0.754583	-0.6365676	0.1593307	0	-104.767	-27.357	2.76	B5-03822-P04-CH0	3581008	OK	0.6759215	-0.1056048	0.7293681	0	-133.562	-33.663	11.795	B5-03822-P04-CH1	3581008	OK	0.7663816	-0.6406484	0.0472103	0	-114.678	-45.667	4.557	NA
0.309751900760304	B5-03822-P01-CH0	3581016	OK	0.2240544	0.0687642	0.074903	-0.9692578	99.416	37.496	-262.33	B5-03822-P02-CH0	3581016	OK	0.7652119	0.2676647	-0.5854967	0	-93.354	-98	-1.552	B5-03822-P02-CH1	3581016	OK	0.7576083	0.1219778	-0.6412106	0	-82.284	-76.537	2.25	B5-03822-P03-CH0	3581016	OK	0.7855197	-0.5972469	-0.1620335	0	-96.216	-59.536	8.421	B5-03822-P03-CH1	3581016	OK	0.7549433	-0.6362443	0.1589142	0	-104.838	-27.336	2.832	B5-03822-P04-CH0	3581016	OK	0.6763645	-0.1020293	0.7294663	0	-133.773	-34.121	12.766	B5-03822-P04-CH1	3581016	OK	0.7662537	-0.6407265	0.0482163	0	-115.1	-45.788	4.568	NA
0.319743897559024	B5-03822-P01-CH0	3581024	OK	0.2239966	0.0691601	0.0748444	-0.9692475	99.589	37.604	-262.418	B5-03822-P02-CH0	3581024	OK	0.7621038	0.2874429	-0.5801503	0	-95.471	-96.467	1.552	B5-03822-P02-CH1	3581024	OK	0.7554538	0.1071305	-0.6463843	0	-82.013	-75.74	1.243	B5-03822-P03-CH0	3581024	OK	0.7773967	-0.6014221	-0.1842438	0	-96.544	-58.698	7.633	B5-03822-P03-CH1	3581024	OK	0.7553341	-0.6358678	0.1585638	0	-104.926	-27.315	3.033	B5-03822-P04-CH0	3581024	OK	0.6752997	-0.1020673	0.7304468	0	-133.738	-34.272	11.528	B5-03822-P04-CH1	3581024	OK	0.7662437	-0.6406582	0.0492724	0	-115.424	-45.825	4.852	NA
0.329735894357743	B5-03822-P01-CH0	3581032	OK	0.2243241	0.0691102	0.0751005	-0.9691555	99.575	37.652	-262.467	B5-03822-P02-CH0	3581032	OK	0.7647092	0.300391	-0.5700746	0	-94.189	-95.413	1.009	B5-03822-P02-CH1	3581032	OK	0.7510278	0.0896822	-0.6541516	0	-82.503	-74.797	2.467	B5-03822-P03-CH0	3581032	OK	0.7664887	-0.6065646	-0.2111266	0	-96.756	-58.306	6.616	B5-03822-P03-CH1	3581032	OK	0.756074	-0.6350184	0.1584419	0	-104.96	-27.269	3.093	B5-03822-P04-CH0	3581032	OK	0.6754048	-0.10087	0.730516	0	-133.441	-34.193	12.313	B5-03822-P04-CH1	3581032	OK	0.7665952	-0.6401507	0.0503866	0	-115.578	-45.84	5.022	NA
0.339727891156463	B5-03822-P01-CH0	3581040	OK	0.2241237	0.0691794	0.0744015	-0.9692508	99.534	37.606	-262.461	B5-03822-P02-CH0	3581040	OK	0.7690359	0.3063378	-0.5610177	0	-92.602	-95.887	-1.044	B5-03822-P02-CH1	3581040	OK	0.7467377	0.0737339	-0.6610191	0	-82.504	-73.829	1.849	B5-03822-P03-CH0	3581040	OK	0.7531459	-0.6136565	-0.237059	0	-95.614	-58.415	5.429	B5-03822-P03-CH1	3581040	OK	0.7558852	-0.635274	0.1583175	0	-104.904	-27.357	3.307	B5-03822-P04-CH0	3581040	OK	0.6754127	-0.1022859	0.7303118	0	-133.429	-33.956	11.592	B5-03822-P04-CH1	3581040	OK	0.7662084	-0.6405733	0.0508975	0	-115.672	-45.846	5.238	NA
0.349719887955182	B5-03822-P01-CH0	3581048	OK	0.2242287	0.0692158	0.0746088	-0.969208	99.547	37.686	-262.566	B5-03822-P02-CH0	3581048	OK	0.7692175	0.3106328	-0.558401	0	-92.63	-94.721	-0.774	B5-03822-P02-CH1	3581048	OK	0.741536	0.0619186	-0.6680497	0	-83.032	-74.321	2.26	B5-03822-P03-CH0	3581048	OK	0.7398885	-0.6176767	-0.2665341	0	-94.763	-57.087	4.417	B5-03822-P03-CH1	3581048	OK	0.756303	-0.6347959	0.1582399	0	-104.927	-27.353	3.573	B5-03822-P04-CH0	3581048	OK	0.6758068	-0.1065821	0.7293322	0	-133.437	-34.07	12.16	B5-03822-P04-CH1	3581048	OK	0.7664214	-0.6402734	0.0514596	0	-115.742	-45.814	5.629	NA
0.359711884753902	B5-03822-P01-CH0	3581056	OK	0.2245504	0.0692298	0.075007	-0.9691018	99.591	37.666	-262.562	B5-03822-P02-CH0	3581056	OK	0.7687861	0.313275	-0.5575183	0	-93.33	-94.901	1.082	B5-03822-P02-CH1	3581056	OK	0.7390048	0.0553098	-0.6714259	0	-81.478	-73.995	0.073	B5-03822-P03-CH0	3581056	OK	0.7224488	-0.6211527	-0.3037056	0	-95.218	-56.747	2.424	B5-03822-P03-CH1	3581056	OK	0.7568418	-0.6340971	0.1584657	0	-104.916	-27.359	3.58	B5-03822-P04-CH0	3581056	OK	0.676061	-0.1043906	0.7294136	0	-133.545	-34.113	12.476	B5-03822-P04-CH1	3581056	OK	0.7667393	-0.6398652	0.0518009	0	-115.749	-45.874	5.857	NA
0.369703881552621	B5-03822-P01-CH0	3581064	OK	0.2247599	0.069067	0.0753099	-0.9690414	99.511	37.701	-262.512	B5-03822-P02-CH0	3581064	OK	0.7705868	0.316161	-0.5533879	0	-92.022	-94.145	-0.721	B5-03822-P02-CH1	3581064	OK	0.7343097	0.0513356	-0.6768707	0	-81.072	-73.625	0.8	B5-03822-P03-CH0	3581064	OK	0.703753	-0.619993	-0.346901	0	-94.307	-56.385	0.531	B5-03822-P03-CH1	3581064	OK	0.7572269	-0.6335652	0.1587529	0	-104.868	-27.227	3.595	B5-03822-P04-CH0	3581064	OK	0.6759262	-0.1035024	0.7296651	0	-133.41	-34.043	12.635	B5-03822-P04-CH1	3581064	OK	0.7670283	-0.6395405	0.0515326	0	-115.659	-45.716	5.99	NA
0.379695878351341	B5-03822-P01-CH0	3581072	OK	0.2249933	0.0686954	0.0762568	-0.9689395	99.373	37.774	-262.454	B5-03822-P02-CH0	3581072	OK	0.771378	0.3169533	-0.5518302	0	-91.197	-93.676	-1.762	B5-03822-P02-CH1	3581072	OK	0.7280765	0.0499641	-0.6836726	0	-81.635	-71.828	2.694	B5-03822-P03-CH0	3581072	OK	0.6874163	-0.6090195	-0.3956691	0	-91.795	-55.142	-0.336	B5-03822-P03-CH1	3581072	OK	0.7578978	-0.6327457	0.15882	0	-104.842	-27.097	3.595	B5-03822-P04-CH0	3581072	OK	0.6761968	-0.1034336	0.729424	0	-133.395	-33.857	12.596	B5-03822-P04-CH1	3581072	OK	0.7677784	-0.6386863	0.0509511	0	-115.555	-45.447	5.91	NA
0.38968787515006	B5-03822-P01-CH0	3581080	OK	0.2249652	0.0690286	0.0757469	-0.9689624	99.453	37.729	-262.371	B5-03822-P02-CH0	3581080	OK	0.7704621	0.3182121	-0.552385	0	-91.787	-93.615	-0.76	B5-03822-P02-CH1	3581080	OK	0.7249555	0.0504907	-0.6869426	0	-81.344	-72.397	1.706	B5-03822-P03-CH0	3581080	OK	0.6691144	-0.5923814	-0.448743	0	-91.72	-54.363	-1.196	B5-03822-P03-CH1	3581080	OK	0.7575053	-0.6331026	0.1592693	0	-104.929	-27.241	3.731	B5-03822-P04-CH0	3581080	OK	0.6764516	-0.1043345	0.7290593	0	-133.46	-33.657	12.593	B5-03822-P04-CH1	3581080	OK	0.767465	-0.6391614	0.0497015	0	-115.569	-45.333	6.133	NA
0.39967987194878	B5-03822-P01-CH0	3581088	OK	0.2250071	0.0690145	0.0757021	-0.9689572	99.414	37.679	-262.23	B5-03822-P02-CH0	3581088	OK	0.7741498	0.3188907	-0.5468097	0	-89.456	-93.873	-3.917	B5-03822-P02-CH1	3581088	OK	0.7236339	0.0524106	-0.6881912	0	-80.894	-72.743	0.665	B5-03822-P03-CH0	3581088	OK	0.6574402	-0.5785304	-0.4827784	0	-89.65	-54.784	0.162	B5-03822-P03-CH1	3581088	OK	0.7573481	-0.6332244	0.1595328	0	-104.939	-27.317	3.427	B5-03822-P04-CH0	3581088	OK	0.6762258	-0.1051765	0.7291478	0	-133.204	-33.549	12.609	B5-03822-P04-CH1	3581088	OK	0.7672987	-0.6394478	0.0485718	0	-115.423	-45.277	6.133	NA
0.409671868747499	B5-03822-P01-CH0	3581096	OK	0.2253366	0.06903	0.0762651	-0.9688353	99.414	37.683	-262.151	B5-03822-P02-CH0	3581096	OK	0.7728782	0.3194841	-0.5482601	0	-89.239	-93.996	-2.742	B5-03822-P02-CH1	3581096	OK	0.7227259	0.05601	-0.6888615	0	-80.618	-72.345	0.173	B5-03822-P03-CH0	3581096	OK	0.6527356	-0.5657497	-0.5038486	0	-91.217	-53.951	-1.888	B5-03822-P03-CH1	3581096	OK	0.7576735	-0.6327556	0.1598474	0	-104.95	-27.385	3.547	B5-03822-P04-CH0	3581096	OK	0.676476	-0.1061878	0.7287691	0	-133.071	-33.388	12.657	B5-03822-P04-CH1	3581096	OK	0.7677643	-0.638961	0.0476107	0	-115.265	-45.09	6.185	NA
0.419663865546218	B5-03822-P01-CH0	3581104	OK	0.22556	0.0688608	0.0765146	-0.9687757	99.319	37.614	-262.007	B5-03822-P02-CH0	3581104	OK	0.7687582	0.3212491	-0.5530007	0	-89.918	-94.004	-1.251	B5-03822-P02-CH1	3581104	OK	0.7200895	0.0562845	-0.6915947	0	-81.64	-73.074	0.516	B5-03822-P03-CH0	3581104	OK	0.6549317	-0.5528841	-0.5151541	0	-89.029	-54.075	-0.701	B5-03822-P03-CH1	3581104	OK	0.7579011	-0.6324827	0.1598486	0	-104.849	-27.302	3.582	B5-03822-P04-CH0	3581104	OK	0.6764511	-0.1074773	0.7286031	0	-132.811	-33.205	12.537	B5-03822-P04-CH1	3581104	OK	0.7679493	-0.6388301	0.0463682	0	-115.053	-44.917	6.012	NA
0.429655862344938	B5-03822-P01-CH0	3581112	OK	0.2254575	0.0690056	0.0766834	-0.9687759	99.345	37.667	-261.901	B5-03822-P02-CH0	3581112	OK	0.7636091	0.32386	-0.5585838	0	-90.403	-92.806	-0.735	B5-03822-P02-CH1	3581112	OK	0.7196047	0.0571827	-0.6920254	0	-81.236	-71.996	1.067	B5-03822-P03-CH0	3581112	OK	0.6519441	-0.5444004	-0.5278231	0	-90.767	-54.834	-1.154	B5-03822-P03-CH1	3581112	OK	0.7577304	-0.6327338	0.1596643	0	-104.744	-27.322	3.506	B5-03822-P04-CH0	3581112	OK	0.6765798	-0.1089578	0.7282636	0	-132.672	-32.99	12.615	B5-03822-P04-CH1	3581112	OK	0.7681094	-0.6387411	0.0449204	0	-114.919	-44.573	6.011	NA
0.439647859143657	B5-03822-P01-CH0	3581120	OK	0.2254883	0.0689008	0.0769699	-0.9687535	99.297	37.685	-261.853	B5-03822-P02-CH0	3581120	OK	0.7583489	0.3235943	-0.5658567	0	-91.179	-93.432	0.276	B5-03822-P02-CH1	3581120	OK	0.7200439	0.0555337	-0.6917028	0	-80.509	-73.14	0.104	B5-03822-P03-CH0	3581120	OK	0.6530193	-0.5369313	-0.5341072	0	-90.85	-54.265	-4.624	B5-03822-P03-CH1	3581120	OK	0.7580081	-0.6325579	0.1590413	0	-104.588	-27.074	3.327	B5-03822-P04-CH0	3581120	OK	0.6765445	-0.1103538	0.7280863	0	-132.436	-32.729	12.687	B5-03822-P04-CH1	3581120	OK	0.7683202	-0.6385972	0.0433322	0	-114.743	-44.282	5.896	NA
0.449639855942377	B5-03822-P01-CH0	3581128	OK	0.2254901	0.0690379	0.0768509	-0.9687528	99.292	37.627	-261.732	B5-03822-P02-CH0	3581128	OK	0.7515552	0.3240856	-0.5745723	0	-92.349	-92.774	2.02	B5-03822-P02-CH1	3581128	OK	0.7187417	0.0522991	-0.6933075	0	-80.714	-73.435	0.738	B5-03822-P03-CH0	3581128	OK	0.6574303	-0.5315067	-0.5341218	0	-88.677	-54.081	-1.68	B5-03822-P03-CH1	3581128	OK	0.7578088	-0.6329186	0.1585557	0	-104.477	-27.111	3.204	B5-03822-P04-CH0	3581128	OK	0.6764539	-0.1112153	0.7280394	0	-132.07	-32.639	13.099	B5-03822-P04-CH1	3581128	OK	0.7682124	-0.6388274	0.0418242	0	-114.599	-44.098	5.792	NA
0.459631852741096	B5-03822-P01-CH0	3581136	OK	0.2253321	0.069081	0.0767777	-0.9687923	99.246	37.637	-261.637	B5-03822-P02-CH0	3581136	OK	0.7509875	0.3207936	-0.5771562	0	-90.932	-93.908	1.09	B5-03822-P02-CH1	3581136	OK	0.7179252	0.0483994	-0.6944357	0	-81.304	-74.034	1.156	B5-03822-P03-CH0	3581136	OK	0.658209	-0.5282843	-0.536355	0	-88.648	-55.996	-0.372	B5-03822-P03-CH1	3581136	OK	0.757709	-0.6332088	0.1578723	0	-104.307	-27.016	3.204	B5-03822-P04-CH0	3581136	OK	0.676309	-0.1128616	0.7279206	0	-131.833	-32.322	12.732	B5-03822-P04-CH1	3581136	OK	0.7681254	-0.6390407	0.040129	0	-114.493	-43.785	5.619	NA
0.469623849539816	B5-03822-P01-CH0	3581144	OK	0.2250026	0.0694016	0.0761242	-0.9688975	99.348	37.535	-261.677	B5-03822-P02-CH0	3581144	OK	0.7485844	0.316579	-0.5825798	0	-89.856	-93.446	1.347	B5-03822-P02-CH1	3581144	OK	0.7187367	0.0433016	-0.6939327	0	-81.389	-73.412	1.372	B5-03822-P03-CH0	3581144	OK	0.6614437	-0.5218152	-0.5387031	0	-90.16	-55.747	-0.492	B5-03822-P03-CH1	3581144	OK	0.7572386	-0.6340272	0.1568414	0	-104.332	-27.137	3.432	B5-03822-P04-CH0	3581144	OK	0.6763268	-0.1144687	0.7276531	0	-131.728	-32.141	12.599	B5-03822-P04-CH1	3581144	OK	0.7674562	-0.6399497	0.0384106	0	-114.563	-43.759	5.677	NA
0.479615846338535	B5-03822-P01-CH0	3581152	OK	0.2247647	0.06951	0.0754217	-0.9689999	99.346	37.494	-261.737	B5-03822-P02-CH0	3581152	OK	0.7443842	0.3080971	-0.5924258	0	-90.275	-93.773	2.45	B5-03822-P02-CH1	3581152	OK	0.7216728	0.0400446	-0.6910751	0	-80.84	-73.685	0.482	B5-03822-P03-CH0	3581152	OK	0.6690098	-0.5148817	-0.5360249	0	-92.09	-54.615	-2.923	B5-03822-P03-CH1	3581152	OK	0.7567629	-0.6347916	0.1560431	0	-104.185	-27.105	3.355	B5-03822-P04-CH0	3581152	OK	0.6762129	-0.1160368	0.7275105	0	-131.546	-31.855	12.512	B5-03822-P04-CH1	3581152	OK	0.7669546	-0.6406341	0.0369946	0	-114.421	-43.565	5.718	NA
0.489607843137255	B5-03822-P01-CH0	3581160	OK	0.2244834	0.0695326	0.0754578	-0.9690606	99.341	37.528	-261.72	B5-03822-P02-CH0	3581160	OK	0.7402306	0.2996262	-0.6018993	0	-90.744	-93.899	1.787	B5-03822-P02-CH1	3581160	OK	0.7218569	0.0383071	-0.6909813	0	-82.449	-73.989	0.752	B5-03822-P03-CH0	3581160	OK	0.6805498	-0.5107005	-0.5253922	0	-92.349	-55.026	-2.191	B5-03822-P03-CH1	3581160	OK	0.7568405	-0.6350162	0.1547477	0	-104.202	-26.942	3.425	B5-03822-P04-CH0	3581160	OK	0.6759817	-0.1175209	0.7274871	0	-131.427	-31.652	12.048	B5-03822-P04-CH1	3581160	OK	0.7668535	-0.6408291	0.0356912	0	-114.475	-43.311	5.507	NA
0.499599839935974	B5-03822-P01-CH0	3581168	OK	0.2245202	0.0694638	0.0756689	-0.9690406	99.282	37.634	-261.731	B5-03822-P02-CH0	3581168	OK	0.7392393	0.2884004	-0.6085643	0	-89.794	-95.178	0.721	B5-03822-P02-CH1	3581168	OK	0.7234019	0.0367165	-0.6894502	0	-83.393	-74.229	2.384	B5-03822-P03-CH0	3581168	OK	0.6924107	-0.5099972	-0.5103629	0	-91.252	-55.729	0.287	B5-03822-P03-CH1	3581168	OK	0.7570451	-0.6349319	0.1540917	0	-104.215	-26.813	3.546	B5-03822-P04-CH0	3581168	OK	0.6757587	-0.1190154	0.7274514	0	-131.242	-31.302	11.797	B5-03822-P04-CH1	3581168	OK	0.7668694	-0.6408479	0.0350033	0	-114.435	-43.072	5.243	NA
0.509591836734694	B5-03822-P01-CH0	3581176	OK	0.2243971	0.0694431	0.0754556	-0.9690872	99.249	37.654	-261.723	B5-03822-P02-CH0	3581176	OK	0.7345478	0.2789081	-0.6185869	0	-90.281	-94.95	2.195	B5-03822-P02-CH1	3581176	OK	0.7279394	0.0367285	-0.684657	0	-82.492	-74.602	1.904	B5-03822-P03-CH0	3581176	OK	0.7009557	-0.5133393	-0.4951201	0	-91.214	-57.393	1.534	B5-03822-P03-CH1	3581176	OK	0.756907	-0.635227	0.1535528	0	-104.013	-26.705	3.416	B5-03822-P04-CH0	3581176	OK	0.675634	-0.1200532	0.7273967	0	-131.185	-31.177	11.519	B5-03822-P04-CH1	3581176	OK	0.7667105	-0.6410711	0.0343924	0	-114.424	-42.871	5.103	NA
0.519583833533413	B5-03822-P01-CH0	3581184	OK	0.2242053	0.0694097	0.0753763	-0.9691402	99.217	37.698	-261.733	B5-03822-P02-CH0	3581184	OK	0.7309409	0.2746062	-0.6247534	0	-90.652	-94.525	2.55	B5-03822-P02-CH1	3581184	OK	0.7310713	0.0366126	-0.681318	0	-82.067	-75.54	-0.091	B5-03822-P03-CH0	3581184	OK	0.7097876	-0.5162107	-0.4792995	0	-92.684	-57.131	1.413	B5-03822-P03-CH1	3581184	OK	0.7567213	-0.6355993	0.1529261	0	-103.956	-26.742	3.283	B5-03822-P04-CH0	3581184	OK	0.6755237	-0.1212581	0.7272992	0	-131.126	-30.977	11.552	B5-03822-P04-CH1	3581184	OK	0.7665768	-0.6412571	0.0339005	0	-114.499	-42.691	4.788	NA
0.529575830332133	B5-03822-P01-CH0	3581192	OK	0.2241808	0.0691029	0.0754243	-0.9691641	99.11	37.623	-261.704	B5-03822-P02-CH0	3581192	OK	0.7308243	0.2731525	-0.6255267	0	-89.723	-94.704	0.917	B5-03822-P02-CH1	3581192	OK	0.7312225	0.0352751	-0.6812264	0	-82.735	-76.585	-0.54	B5-03822-P03-CH0	3581192	OK	0.7174103	-0.5246194	-0.4583634	0	-93.919	-57.292	0.299	B5-03822-P03-CH1	3581192	OK	0.7569944	-0.6353885	0.15245	0	-103.936	-26.656	3.247	B5-03822-P04-CH0	3581192	OK	0.6754377	-0.1224247	0.7271837	0	-131.115	-30.926	11.123	B5-03822-P04-CH1	3581192	OK	0.766373	-0.6415038	0.0338428	0	-114.525	-42.796	4.428	NA
0.539567827130852	B5-03822-P01-CH0	3581200	OK	0.2240511	0.0692864	0.0749714	-0.9692161	99.172	37.573	-261.711	B5-03822-P02-CH0	3581200	OK	0.7290908	0.2745617	-0.626931	0	-90.344	-94.654	2.037	B5-03822-P02-CH1	3581200	OK	0.7318177	0.0336832	-0.6806676	0	-82.454	-75.637	0.793	B5-03822-P03-CH0	3581200	OK	0.7237156	-0.5346943	-0.4362771	0	-93.882	-57.434	1.219	B5-03822-P03-CH1	3581200	OK	0.756522	-0.6359748	0.15235	0	-103.92	-26.901	3.39	B5-03822-P04-CH0	3581200	OK	0.675593	-0.1234796	0.726861	0	-131.279	-30.916	11.023	B5-03822-P04-CH1	3581200	OK	0.7659422	-0.6420105	0.033985	0	-114.724	-42.884	4.407	NA
0.549559823929572	B5-03822-P01-CH0	3581208	OK	0.2240486	0.0692163	0.0755268	-0.9691785	99.155	37.752	-261.777	B5-03822-P02-CH0	3581208	OK	0.7281873	0.2765882	-0.6270902	0	-91.105	-94.688	2.545	B5-03822-P02-CH1	3581208	OK	0.731158	0.0298526	-0.6815547	0	-82.698	-75.568	1.802	B5-03822-P03-CH0	3581208	OK	0.7278957	-0.5439959	-0.4174163	0	-93.599	-57.457	2.049	B5-03822-P03-CH1	3581208	OK	0.7571421	-0.6352963	0.1521002	0	-104.051	-26.706	3.663	B5-03822-P04-CH0	3581208	OK	0.6757163	-0.124816	0.726518	0	-131.442	-30.744	10.716	B5-03822-P04-CH1	3581208	OK	0.7660574	-0.6418407	0.0345924	0	-114.884	-42.851	4.213	NA
0.559551820728291	B5-03822-P01-CH0	3581216	OK	0.2240197	0.0694003	0.0757584	-0.969154	99.207	37.852	-261.747	B5-03822-P02-CH0	3581216	OK	0.7304631	0.2802711	-0.6227935	0	-90.196	-94.982	2.027	B5-03822-P02-CH1	3581216	OK	0.7288955	0.0253941	-0.6841538	0	-83.256	-75.018	2.684	B5-03822-P03-CH0	3581216	OK	0.7297035	-0.5545869	-0.3999578	0	-94.548	-57.379	2.33	B5-03822-P03-CH1	3581216	OK	0.7573789	-0.635104	0.1517238	0	-104.354	-26.652	3.633	B5-03822-P04-CH0	3581216	OK	0.6761385	-0.1254466	0.7260165	0	-131.661	-30.761	10.852	B5-03822-P04-CH1	3581216	OK	0.7663951	-0.6414094	0.0351079	0	-115.095	-42.707	4.318	NA
0.569543817527011	B5-03822-P01-CH0	3581224	OK	0.2241389	0.0694613	0.0760762	-0.9690972	99.196	37.918	-261.675	B5-03822-P02-CH0	3581224	OK	0.7328479	0.2871483	-0.6168304	0	-89.066	-95.457	1.335	B5-03822-P02-CH1	3581224	OK	0.7270246	0.0171392	-0.6863975	0	-82.487	-74.793	2.371	B5-03822-P03-CH0	3581224	OK	0.728583	-0.5693069	-0.3808629	0	-94.806	-57.295	1.101	B5-03822-P03-CH1	3581224	OK	0.7576852	-0.6347391	0.1517214	0	-104.45	-26.584	3.889	B5-03822-P04-CH0	3581224	OK	0.6764615	-0.1257885	0.7256564	0	-131.774	-30.786	10.967	B5-03822-P04-CH1	3581224	OK	0.766625	-0.6410837	0.0360252	0	-115.18	-42.723	4.187	NA
0.57953581432573	B5-03822-P01-CH0	3581232	OK	0.2241183	0.0696919	0.0760564	-0.9690869	99.258	37.934	-261.56	B5-03822-P02-CH0	3581232	OK	0.7335055	0.2932951	-0.6131457	0	-88.695	-95.566	1.169	B5-03822-P02-CH1	3581232	OK	0.7242008	0.0045226	-0.6895743	0	-81.392	-75.522	0.177	B5-03822-P03-CH0	3581232	OK	0.7234116	-0.5892259	-0.359845	0	-95.509	-57.029	0.69	B5-03822-P03-CH1	3581232	OK	0.7576831	-0.6347596	0.1516466	0	-104.653	-26.569	3.956	B5-03822-P04-CH0	3581232	OK	0.6770193	-0.1257195	0.7251479	0	-132.015	-31.035	11.233	B5-03822-P04-CH1	3581232	OK	0.7664904	-0.6411885	0.0370103	0	-115.307	-42.897	4.114	NA
0.58952781112445	B5-03822-P01-CH0	3581240	OK	0.2242533	0.0697843	0.0761272	-0.9690435	99.255	37.989	-261.534	B5-03822-P02-CH0	3581240	OK	0.7306166	0.3016929	-0.61252	0	-89.811	-94.959	2.535	B5-03822-P02-CH1	3581240	OK	0.7184872	-0.0079095	-0.6954952	0	-81.087	-74.613	0.735	B5-03822-P03-CH0	3581240	OK	0.7195352	-0.608337	-0.3349556	0	-94.387	-56.738	1.602	B5-03822-P03-CH1	3581240	OK	0.7575966	-0.6348103	0.151866	0	-104.672	-26.59	4.019	B5-03822-P04-CH0	3581240	OK	0.6775074	-0.125759	0.724685	0	-132.127	-31.095	11.54	B5-03822-P04-CH1	3581240	OK	0.7665605	-0.6410324	0.038243	0	-115.406	-43.007	4.225	NA
0.599519807923169	B5-03822-P01-CH0	3581248	OK	0.2241722	0.0701173	0.075924	-0.9690541	99.369	38.001	-261.504	B5-03822-P02-CH0	3581248	OK	0.7290745	0.3131073	-0.6086166	0	-89.749	-94.984	2.943	B5-03822-P02-CH1	3581248	OK	0.7112259	-0.0202362	-0.7026722	0	-81.185	-74.591	0.719	B5-03822-P03-CH0	3581248	OK	0.7149753	-0.6226093	-0.3180693	0	-94.839	-56.066	0.945	B5-03822-P03-CH1	3581248	OK	0.7570292	-0.6354945	0.1518338	0	-104.704	-26.78	3.951	B5-03822-P04-CH0	3581248	OK	0.6780834	-0.1258883	0.7241236	0	-132.379	-31.298	11.688	B5-03822-P04-CH1	3581248	OK	0.7666104	-0.6409357	0.0388581	0	-115.59	-43.083	4.549	NA
0.609511804721889	B5-03822-P01-CH0	3581256	OK	0.2243429	0.0702868	0.0761305	-0.9689862	99.42	38.061	-261.525	B5-03822-P02-CH0	3581256	OK	0.7277863	0.3288624	-0.6018111	0	-88.944	-95.173	2.91	B5-03822-P02-CH1	3581256	OK	0.7027288	-0.035695	-0.7105619	0	-80.742	-72.796	0.935	B5-03822-P03-CH0	3581256	OK	0.7107332	-0.6343726	-0.3040227	0	-95.013	-55.705	1.054	B5-03822-P03-CH1	3581256	OK	0.7570367	-0.6354943	0.1517973	0	-104.874	-26.806	3.963	B5-03822-P04-CH0	3581256	OK	0.6785829	-0.1262991	0.723584	0	-132.49	-31.389	11.833	B5-03822-P04-CH1	3581256	OK	0.7666046	-0.6408857	0.0397845	0	-115.686	-43.342	4.63	NA
0.619503801520608	B5-03822-P01-CH0	3581264	OK	0.2241519	0.0704189	0.0754102	-0.9690771	99.462	37.952	-261.5	B5-03822-P02-CH0	3581264	OK	0.7241135	0.3467717	-0.5961619	0	-88.925	-94.775	2.268	B5-03822-P02-CH1	3581264	OK	0.6963208	-0.0520099	-0.7158437	0	-79.538	-72.106	1.167	B5-03822-P03-CH0	3581264	OK	0.7069659	-0.6441633	-0.2919809	0	-94.788	-55.73	1.467	B5-03822-P03-CH1	3581264	OK	0.7563872	-0.6362969	0.1516729	0	-104.952	-26.905	4.022	B5-03822-P04-CH0	3581264	OK	0.6786613	-0.1273413	0.7233277	0	-132.524	-31.429	11.619	B5-03822-P04-CH1	3581264	OK	0.7661738	-0.6413801	0.0401169	0	-115.725	-43.521	4.764	NA
0.629495798319328	B5-03822-P01-CH0	3581272	OK	0.2242589	0.070706	0.0754202	-0.9690306	99.564	38.03	-261.577	B5-03822-P02-CH0	3581272	OK	0.7184312	0.3661988	-0.5914009	0	-89.513	-94.794	4.698	B5-03822-P02-CH1	3581272	OK	0.692082	-0.0691504	-0.7184989	0	-78.384	-70.992	0.487	B5-03822-P03-CH0	3581272	OK	0.7050463	-0.6521036	-0.2786947	0	-95.124	-55.664	1.959	B5-03822-P03-CH1	3581272	OK	0.7559765	-0.6367503	0.1518178	0	-105.094	-27.095	4.257	B5-03822-P04-CH0	3581272	OK	0.6790883	-0.1279873	0.7228128	0	-132.603	-31.425	11.83	B5-03822-P04-CH1	3581272	OK	0.7663649	-0.6411137	0.0407191	0	-115.896	-43.545	5.094	NA
0.639487795118047	B5-03822-P01-CH0	3581280	OK	0.2243466	0.0707672	0.0755213	-0.968998	99.539	38.055	-261.49	B5-03822-P02-CH0	3581280	OK	0.7133742	0.386968	-0.5842543	0	-89.381	-94.74	4.779	B5-03822-P02-CH1	3581280	OK	0.6911485	-0.0804998	-0.7182155	0	-78.542	-72.921	0.108	B5-03822-P03-CH0	3581280	OK	0.7044681	-0.6587838	-0.2640616	0	-95.386	-54.994	2.048	B5-03822-P03-CH1	3581280	OK	0.7558678	-0.6368851	0.1517933	0	-105.163	-27.067	4.131	B5-03822-P04-CH0	3581280	OK	0.6790725	-0.1290286	0.7226425	0	-132.469	-31.467	11.572	B5-03822-P04-CH1	3581280	OK	0.7665058	-0.6408952	0.0414979	0	-115.726	-43.576	4.979	NA
0.649479791916767	B5-03822-P01-CH0	3581288	OK	0.2243719	0.0708009	0.075332	-0.9690044	99.539	37.959	-261.4	B5-03822-P02-CH0	3581288	OK	0.7121392	0.4058935	-0.5728073	0	-87.605	-95.284	4.567	B5-03822-P02-CH1	3581288	OK	0.6912797	-0.0891643	-0.7170649	0	-79.374	-72.929	0.422	B5-03822-P03-CH0	3581288	OK	0.7021118	-0.6656669	-0.2528373	0	-96.787	-54.949	1.057	B5-03822-P03-CH1	3581288	OK	0.7553611	-0.6375235	0.1516359	0	-105.194	-27.257	3.961	B5-03822-P04-CH0	3581288	OK	0.6793928	-0.1299262	0.7221805	0	-132.495	-31.509	11.473	B5-03822-P04-CH1	3581288	OK	0.7665038	-0.6408755	0.0418393	0	-115.717	-43.723	4.961	NA
0.659471788715486	B5-03822-P01-CH0	3581296	OK	0.2240294	0.0707554	0.0743735	-0.969161	99.492	37.824	-261.445	B5-03822-P02-CH0	3581296	OK	0.7088317	0.425006	-0.5629631	0	-87.441	-94.007	5.355	B5-03822-P02-CH1	3581296	OK	0.6930314	-0.0962567	-0.7144523	0	-79.236	-72.143	0.959	B5-03822-P03-CH0	3581296	OK	0.7007224	-0.6705943	-0.2434982	0	-96.793	-54.555	0.742	B5-03822-P03-CH1	3581296	OK	0.7544632	-0.6386816	0.1512317	0	-105.081	-27.323	3.907	B5-03822-P04-CH0	3581296	OK	0.6793172	-0.1317176	0.721927	0	-132.423	-31.426	11.424	B5-03822-P04-CH1	3581296	OK	0.7657663	-0.6417434	0.0420392	0	-115.624	-43.926	4.956	NA
0.669463785514206	B5-03822-P01-CH0	3581304	OK	0.2239722	0.0707194	0.0742328	-0.9691877	99.447	37.822	-261.443	B5-03822-P02-CH0	3581304	OK	0.707029	0.4368251	-0.556142	0	-87.178	-94.447	5.47	B5-03822-P02-CH1	3581304	OK	0.6937757	-0.1020686	-0.7129217	0	-79.348	-72.178	0.902	B5-03822-P03-CH0	3581304	OK	0.6996508	-0.6751581	-0.233774	0	-96.771	-54.832	0.358	B5-03822-P03-CH1	3581304	OK	0.7541826	-0.6390811	0.1509433	0	-104.948	-27.336	3.725	B5-03822-P04-CH0	3581304	OK	0.6792207	-0.1334016	0.7217086	0	-132.28	-31.338	11.301	B5-03822-P04-CH1	3581304	OK	0.7656816	-0.6418259	0.042322	0	-115.561	-43.988	4.948	NA
0.679455782312925	B5-03822-P01-CH0	3581312	OK	0.2241063	0.0706696	0.0748114	-0.9691158	99.426	37.897	-261.384	B5-03822-P02-CH0	3581312	OK	0.7025908	0.4489046	-0.552133	0	-87.749	-94.801	6.081	B5-03822-P02-CH1	3581312	OK	0.694902	-0.1083747	-0.7108911	0	-79.033	-72.02	1.338	B5-03822-P03-CH0	3581312	OK	0.7004472	-0.6765876	-0.2271626	0	-96.494	-54.924	1.714	B5-03822-P03-CH1	3581312	OK	0.7544258	-0.6388354	0.1507681	0	-104.912	-27.356	3.586	B5-03822-P04-CH0	3581312	OK	0.6788162	-0.1353678	0.721723	0	-132.053	-31.218	10.654	B5-03822-P04-CH1	3581312	OK	0.7660888	-0.6413246	0.0425526	0	-115.591	-43.996	4.888	NA
0.689447779111645	B5-03822-P01-CH0	3581320	OK	0.2240479	0.0708006	0.0746977	-0.9691285	99.481	37.871	-261.422	B5-03822-P02-CH0	3581320	OK	0.6984475	0.4602155	-0.5480628	0	-87.594	-94.491	5.984	B5-03822-P02-CH1	3581320	OK	0.6952785	-0.1136172	-0.7097034	0	-78.903	-71.768	1.078	B5-03822-P03-CH0	3581320	OK	0.7010388	-0.6776183	-0.2222116	0	-96.377	-54.542	2.038	B5-03822-P03-CH1	3581320	OK	0.7542962	-0.6390384	0.150556	0	-104.9	-27.447	3.509	B5-03822-P04-CH0	3581320	OK	0.6789388	-0.1371983	0.7212619	0	-132.048	-31.185	10.65	B5-03822-P04-CH1	3581320	OK	0.765964	-0.641476	0.042516	0	-115.584	-44.13	4.881	NA
0.699439775910364	B5-03822-P01-CH0	3581328	OK	0.2241275	0.0706602	0.0744506	-0.9691394	99.394	37.772	-261.414	B5-03822-P02-CH0	3581328	OK	0.6959804	0.4667011	-0.5457118	0	-86.564	-94.966	5.199	B5-03822-P02-CH1	3581328	OK	0.6952585	-0.1159544	-0.7093449	0	-78.672	-71.702	0.982	B5-03822-P03-CH0	3581328	OK	0.7007482	-0.677986	-0.2220066	0	-96.873	-54.149	1.003	B5-03822-P03-CH1	3581328	OK	0.7543075	-0.6390449	0.150472	0	-104.794	-27.467	3.505	B5-03822-P04-CH0	3581328	OK	0.6787173	-0.1390457	0.7211166	0	-131.831	-31.061	10.515	B5-03822-P04-CH1	3581328	OK	0.7658018	-0.6416543	0.042748	0	-115.407	-44.245	4.679	NA
0.709431772709084	B5-03822-P01-CH0	3581336	OK	0.2236762	0.0707382	0.0736574	-0.9692985	99.39	37.689	-261.408	B5-03822-P02-CH0	3581336	OK	0.6883883	0.4739076	-0.5491203	0	-87.428	-93.965	6.04	B5-03822-P02-CH1	3581336	OK	0.6941723	-0.1191464	-0.7098795	0	-78.903	-71.743	1.076	B5-03822-P03-CH0	3581336	OK	0.7002648	-0.6783623	-0.2223821	0	-97.416	-54.184	1.383	B5-03822-P03-CH1	3581336	OK	0.7539266	-0.6396668	0.1497366	0	-104.849	-27.427	3.688	B5-03822-P04-CH0	3581336	OK	0.6783717	-0.1407354	0.721114	0	-131.667	-31.054	10.572	B5-03822-P04-CH1	3581336	OK	0.7652546	-0.6423242	0.0424858	0	-115.391	-44.284	4.679	NA
0.719423769507803	B5-03822-P01-CH0	3581344	OK	0.2237383	0.0709441	0.0737872	-0.9692593	99.448	37.774	-261.412	B5-03822-P02-CH0	3581344	OK	0.6850954	0.474063	-0.5530901	0	-86.67	-95.316	5.996	B5-03822-P02-CH1	3581344	OK	0.6929835	-0.1211943	-0.7106939	0	-79.428	-72.095	1.164	B5-03822-P03-CH0	3581344	OK	0.7009069	-0.6786599	-0.2194315	0	-97.686	-54.11	1.285	B5-03822-P03-CH1	3581344	OK	0.754131	-0.6394819	0.1494969	0	-104.937	-27.394	3.84	B5-03822-P04-CH0	3581344	OK	0.6786943	-0.1418249	0.7205968	0	-131.756	-31.108	10.616	B5-03822-P04-CH1	3581344	OK	0.765146	-0.6424132	0.0430924	0	-115.437	-44.454	4.794	NA
0.729415766306523	B5-03822-P01-CH0	3581352	OK	0.2234623	0.0711889	0.0730369	-0.9693618	99.498	37.705	-261.382	B5-03822-P02-CH0	3581352	OK	0.6798969	0.4743291	-0.5592425	0	-86.128	-95.285	5.684	B5-03822-P02-CH1	3581352	OK	0.69267	-0.1236908	-0.7105694	0	-79.241	-71.945	0.088	B5-03822-P03-CH0	3581352	OK	0.7009836	-0.6795968	-0.216264	0	-97.998	-54.536	2.212	B5-03822-P03-CH1	3581352	OK	0.7537343	-0.6400689	0.1489848	0	-104.946	-27.427	4.003	B5-03822-P04-CH0	3581352	OK	0.6785261	-0.1435112	0.7204213	0	-131.7	-31.084	10.604	B5-03822-P04-CH1	3581352	OK	0.764634	-0.643025	0.0430537	0	-115.307	-44.529	4.908	NA
0.739407763105242	B5-03822-P01-CH0	3581360	OK	0.2233317	0.0713762	0.072677	-0.9694052	99.57	37.726	-261.442	B5-03822-P02-CH0	3581360	OK	0.6755725	0.4747887	-0.5640723	0	-85.852	-95.162	5.658	B5-03822-P02-CH1	3581360	OK	0.6933448	-0.1262546	-0.7094594	0	-78.783	-71.44	1.435	B5-03822-P03-CH0	3581360	OK	0.7019709	-0.6790621	-0.214736	0	-98.444	-54.306	2.694	B5-03822-P03-CH1	3581360	OK	0.7536842	-0.640243	0.1484889	0	-105.009	-27.328	4.156	B5-03822-P04-CH0	3581360	OK	0.6786644	-0.1445893	0.7200754	0	-131.8	-31.032	10.772	B5-03822-P04-CH1	3581360	OK	0.764377	-0.643334	0.0430011	0	-115.415	-44.598	5.183	NA
0.749399759903962	B5-03822-P01-CH0	3581368	OK	0.2232144	0.0716916	0.0724572	-0.9694254	99.687	37.743	-261.442	B5-03822-P02-CH0	3581368	OK	0.6724651	0.4739781	-0.5684501	0	-85.311	-94.212	5.654	B5-03822-P02-CH1	3581368	OK	0.6923925	-0.1280427	-0.7100688	0	-79.338	-71.481	1.821	B5-03822-P03-CH0	3581368	OK	0.702412	-0.6797541	-0.2110729	0	-97.465	-54.596	2.276	B5-03822-P03-CH1	3581368	OK	0.7535281	-0.6404951	0.1481941	0	-105.007	-27.298	4.024	B5-03822-P04-CH0	3581368	OK	0.6787488	-0.1457284	0.7197661	0	-131.855	-31.087	10.872	B5-03822-P04-CH1	3581368	OK	0.7642417	-0.6434954	0.0429926	0	-115.435	-44.626	5.327	NA
0.759391756702681	B5-03822-P01-CH0	3581376	OK	0.2236221	0.071687	0.0733978	-0.969261	99.731	37.827	-261.45	B5-03822-P02-CH0	3581376	OK	0.6719861	0.4707601	-0.5716813	0	-84.499	-94.852	6.035	B5-03822-P02-CH1	3581376	OK	0.6928058	-0.1280498	-0.7096643	0	-79.113	-71.449	0.667	B5-03822-P03-CH0	3581376	OK	0.7039952	-0.6781124	-0.2110792	0	-97.646	-54.341	2.032	B5-03822-P03-CH1	3581376	OK	0.7541626	-0.6396548	0.1485949	0	-104.903	-27.362	4.065	B5-03822-P04-CH0	3581376	OK	0.6788032	-0.1463928	0.71958	0	-131.784	-31.149	10.914	B5-03822-P04-CH1	3581376	OK	0.7649233	-0.6426671	0.0432603	0	-115.433	-44.661	5.505	NA
0.769383753501401	B5-03822-P01-CH0	3581384	OK	0.2237405	0.0716958	0.0734034	-0.9692326	99.748	37.822	-261.453	B5-03822-P02-CH0	3581384	OK	0.6686075	0.4699954	-0.5762537	0	-85.72	-94.712	6.671	B5-03822-P02-CH1	3581384	OK	0.6913637	-0.1288531	-0.7109241	0	-79.92	-70.591	2.026	B5-03822-P03-CH0	3581384	OK	0.7054203	-0.6755743	-0.2144333	0	-97.979	-53.797	2.475	B5-03822-P03-CH1	3581384	OK	0.7540354	-0.6398041	0.1485983	0	-104.823	-27.485	3.986	B5-03822-P04-CH0	3581384	OK	0.6787528	-0.1471342	0.7194763	0	-131.794	-31.205	10.844	B5-03822-P04-CH1	3581384	OK	0.7649677	-0.6426211	0.0431565	0	-115.47	-44.683	5.534	NA
0.77937575030012	B5-03822-P01-CH0	3581392	OK	0.223731	0.0719296	0.0729076	-0.9692549	99.848	37.759	-261.486	B5-03822-P02-CH0	3581392	OK	0.6703493	0.467945	-0.5758987	0	-85.275	-96.056	6.721	B5-03822-P02-CH1	3581392	OK	0.6922431	-0.1245534	-0.7108346	0	-79.617	-71.842	1.765	B5-03822-P03-CH0	3581392	OK	0.7053016	-0.6746116	-0.2178276	0	-97.988	-54.113	2.74	B5-03822-P03-CH1	3581392	OK	0.7537837	-0.6401733	0.1482848	0	-104.848	-27.562	4.05	B5-03822-P04-CH0	3581392	OK	0.6789098	-0.148011	0.7191482	0	-131.878	-31.164	11.056	B5-03822-P04-CH1	3581392	OK	0.7647009	-0.6429299	0.0432848	0	-115.393	-44.75	5.722	NA
0.78936774709884	B5-03822-P01-CH0	3581400	OK	0.2238305	0.0718527	0.0730133	-0.9692297	99.815	37.74	-261.426	B5-03822-P02-CH0	3581400	OK	0.6689506	0.468063	-0.5774271	0	-85.651	-95.237	6.474	B5-03822-P02-CH1	3581400	OK	0.6922276	-0.1263699	-0.7105291	0	-79.508	-71.845	1.447	B5-03822-P03-CH0	3581400	OK	0.705879	-0.6730565	-0.2207482	0	-97.96	-54.498	2.886	B5-03822-P03-CH1	3581400	OK	0.7538205	-0.6401868	0.1480389	0	-104.848	-27.604	3.789	B5-03822-P04-CH0	3581400	OK	0.6788156	-0.1485221	0.7191318	0	-131.82	-31.222	10.94	B5-03822-P04-CH1	3581400	OK	0.7648176	-0.6427949	0.0432285	0	-115.398	-44.735	5.651	NA
0.799359743897559	B5-03822-P01-CH0	3581408	OK	0.2238418	0.0719875	0.0730232	-0.9692163	99.879	37.766	-261.449	B5-03822-P02-CH0	3581408	OK	0.6699587	0.4652382	-0.5785402	0	-84.97	-94.41	6.601	B5-03822-P02-CH1	3581408	OK	0.6920377	-0.1280195	-0.7104188	0	-79.529	-71.858	1.334	B5-03822-P03-CH0	3581408	OK	0.7071915	-0.6707247	-0.223626	0	-97.618	-54.85	2.672	B5-03822-P03-CH1	3581408	OK	0.7539085	-0.6401678	0.1476725	0	-104.967	-27.562	3.757	B5-03822-P04-CH0	3581408	OK	0.6787958	-0.1490078	0.7190501	0	-131.851	-31.316	10.983	B5-03822-P04-CH1	3581408	OK	0.764805	-0.6427996	0.043382	0	-115.467	-44.766	5.774	NA
0.809351740696278	B5-03822-P01-CH0	3581416	OK	0.2242196	0.071847	0.0738622	-0.9690758	99.873	37.83	-261.479	B5-03822-P02-CH0	3581416	OK	0.6727888	0.4622488	-0.5776515	0	-84.318	-94.975	6.422	B5-03822-P02-CH1	3581416	OK	0.6921589	-0.1297788	-0.7099813	0	-79.417	-71.838	1.148	B5-03822-P03-CH0	3581416	OK	0.7097967	-0.6668743	-0.226864	0	-98.215	-54.363	2.126	B5-03822-P03-CH1	3581416	OK	0.7543926	-0.6395562	0.1478499	0	-104.858	-27.622	3.677	B5-03822-P04-CH0	3581416	OK	0.678949	-0.1496455	0.7187729	0	-131.885	-31.228	10.888	B5-03822-P04-CH1	3581416	OK	0.7654337	-0.6420266	0.0437393	0	-115.399	-44.707	5.675	NA
0.819343737494998	B5-03822-P01-CH0	3581424	OK	0.2244418	0.0716624	0.0744658	-0.9689919	99.814	37.882	-261.459	B5-03822-P02-CH0	3581424	OK	0.6730994	0.463687	-0.5761351	0	-85.287	-95.09	6.603	B5-03822-P02-CH1	3581424	OK	0.6923655	-0.1312847	-0.7095028	0	-79.28	-71.796	0.847	B5-03822-P03-CH0	3581424	OK	0.712087	-0.6640585	-0.2279438	0	-97.766	-54.015	2.744	B5-03822-P03-CH1	3581424	OK	0.7547563	-0.6391744	0.1476451	0	-104.751	-27.59	3.466	B5-03822-P04-CH0	3581424	OK	0.6789283	-0.1500923	0.7186993	0	-131.842	-31.145	10.864	B5-03822-P04-CH1	3581424	OK	0.7659616	-0.6413898	0.0438393	0	-115.317	-44.598	5.638	NA
0.829335734293717	B5-03822-P01-CH0	3581432	OK	0.2246197	0.0715058	0.0749837	-0.9689223	99.77	37.893	-261.408	B5-03822-P02-CH0	3581432	OK	0.6737117	0.4647653	-0.5745484	0	-85.472	-94.63	5.748	B5-03822-P02-CH1	3581432	OK	0.6925119	-0.1326811	-0.7091001	0	-79.22	-71.705	0.728	B5-03822-P03-CH0	3581432	OK	0.7116497	-0.6637042	-0.230329	0	-97.816	-54.574	1.876	B5-03822-P03-CH1	3581432	OK	0.7551321	-0.6387852	0.1474074	0	-104.682	-27.527	3.219	B5-03822-P04-CH0	3581432	OK	0.6788259	-0.1501966	0.7187742	0	-131.729	-31.165	10.923	B5-03822-P04-CH1	3581432	OK	0.7662546	-0.6410351	0.0439089	0	-115.31	-44.607	5.495	NA
0.839327731092437	B5-03822-P01-CH0	3581440	OK	0.2247725	0.0714483	0.0753652	-0.9688615	99.767	37.897	-261.37	B5-03822-P02-CH0	3581440	OK	0.6767434	0.4642117	-0.5714245	0	-84.96	-95.472	5.075	B5-03822-P02-CH1	3581440	OK	0.6923988	-0.1337762	-0.7090049	0	-79.295	-71.668	0.548	B5-03822-P03-CH0	3581440	OK	0.7111648	-0.6624823	-0.235291	0	-97.858	-54.348	2.052	B5-03822-P03-CH1	3581440	OK	0.7553751	-0.6385469	0.1471951	0	-104.614	-27.535	3.039	B5-03822-P04-CH0	3581440	OK	0.6787956	-0.1505272	0.7187337	0	-131.659	-31.203	10.919	B5-03822-P04-CH1	3581440	OK	0.7665578	-0.6406823	0.0437644	0	-115.335	-44.592	5.557	NA
0.849319727891156	B5-03822-P01-CH0	3581448	OK	0.224833	0.0714103	0.0752144	-0.968862	99.764	37.837	-261.351	B5-03822-P02-CH0	3581448	OK	0.675013	0.4660673	-0.5719604	0	-86.047	-94.375	5.588	B5-03822-P02-CH1	3581448	OK	0.6921645	-0.1348861	-0.7090233	0	-79.373	-71.693	0.592	B5-03822-P03-CH0	3581448	OK	0.7094569	-0.6614746	-0.2431508	0	-97.447	-54.457	1.333	B5-03822-P03-CH1	3581448	OK	0.7553184	-0.6386294	0.1471276	0	-104.632	-27.676	3.207	B5-03822-P04-CH0	3581448	OK	0.6785834	-0.1507693	0.7188833	0	-131.574	-31.197	10.823	B5-03822-P04-CH1	3581448	OK	0.7662573	-0.6410377	0.0438218	0	-115.324	-44.77	5.418	NA
0.859311724689876	B5-03822-P01-CH0	3581456	OK	0.2250263	0.0714667	0.0751994	-0.9688141	99.782	37.837	-261.302	B5-03822-P02-CH0	3581456	OK	0.6772223	0.4643154	-0.5707725	0	-85.905	-94.353	5.559	B5-03822-P02-CH1	3581456	OK	0.69194	-0.136209	-0.7089895	0	-79.442	-71.627	0.558	B5-03822-P03-CH0	3581456	OK	0.7079771	-0.6598684	-0.2516784	0	-98.044	-54.062	0.954	B5-03822-P03-CH1	3581456	OK	0.7553518	-0.638593	0.1471143	0	-104.791	-27.743	3.179	B5-03822-P04-CH0	3581456	OK	0.6786017	-0.1503165	0.7189609	0	-131.555	-31.347	10.755	B5-03822-P04-CH1	3581456	OK	0.7660931	-0.6412091	0.0441844	0	-115.301	-44.897	5.328	NA
0.869303721488595	B5-03822-P01-CH0	3581464	OK	0.225106	0.071606	0.07563	-0.9687518	99.884	37.853	-261.277	B5-03822-P02-CH0	3581464	OK	0.6787805	0.4616301	-0.5710995	0	-86.366	-94.181	5.319	B5-03822-P02-CH1	3581464	OK	0.6916522	-0.1372853	-0.7090628	0	-79.606	-71.572	0.573	B5-03822-P03-CH0	3581464	OK	0.7075309	-0.6576959	-0.2585267	0	-97.645	-54.06	3.053	B5-03822-P03-CH1	3581464	OK	0.7556852	-0.6382259	0.1469952	0	-104.969	-27.761	3.103	B5-03822-P04-CH0	3581464	OK	0.6788523	-0.150268	0.7187344	0	-131.558	-31.37	11.005	B5-03822-P04-CH1	3581464	OK	0.7663651	-0.6408759	0.0443003	0	-115.285	-44.921	5.32	NA
0.879295718287315	B5-03822-P01-CH0	3581472	OK	0.2252977	0.0715834	0.0759891	-0.9686808	99.902	37.893	-261.29	B5-03822-P02-CH0	3581472	OK	0.682099	0.4557205	-0.5718914	0	-86.877	-94.838	5.957	B5-03822-P02-CH1	3581472	OK	0.6914908	-0.1382858	-0.7090258	0	-79.691	-71.525	0.572	B5-03822-P03-CH0	3581472	OK	0.7070599	-0.6547719	-0.2670957	0	-97.63	-54.123	1.611	B5-03822-P03-CH1	3581472	OK	0.7558261	-0.6379685	0.1473876	0	-104.931	-27.823	3.11	B5-03822-P04-CH0	3581472	OK	0.6792181	-0.1498927	0.7184671	0	-131.606	-31.407	11.238	B5-03822-P04-CH1	3581472	OK	0.766524	-0.6406809	0.0443717	0	-115.416	-44.986	5.163	NA
0.889287715086034	B5-03822-P01-CH0	3581480	OK	0.225216	0.0716424	0.0757562	-0.9687136	99.929	37.877	-261.258	B5-03822-P02-CH0	3581480	OK	0.6846065	0.4493649	-0.5739208	0	-87.145	-94.034	5.595	B5-03822-P02-CH1	3581480	OK	0.6913458	-0.1390465	-0.7090184	0	-79.802	-71.466	0.531	B5-03822-P03-CH0	3581480	OK	0.7069363	-0.6518597	-0.2744449	0	-97.428	-53.805	2.559	B5-03822-P03-CH1	3581480	OK	0.7556822	-0.6381432	0.1473691	0	-104.932	-27.801	3.227	B5-03822-P04-CH0	3581480	OK	0.6790408	-0.1502556	0.7185589	0	-131.492	-31.327	11.245	B5-03822-P04-CH1	3581480	OK	0.7664171	-0.6408002	0.0444966	0	-115.232	-44.939	5.169	NA
0.899279711884754	B5-03822-P01-CH0	3581488	OK	0.2250423	0.0714753	0.0751045	-0.9688171	99.888	37.717	-261.304	B5-03822-P02-CH0	3581488	OK	0.6894631	0.4408563	-0.5747054	0	-86.639	-94.249	5.803	B5-03822-P02-CH1	3581488	OK	0.6921152	-0.1394848	-0.7081812	0	-79.609	-71.287	0.185	B5-03822-P03-CH0	3581488	OK	0.7061569	-0.650278	-0.2801446	0	-97.361	-53.862	1.781	B5-03822-P03-CH1	3581488	OK	0.7552825	-0.638618	0.1473613	0	-104.854	-27.877	3.315	B5-03822-P04-CH0	3581488	OK	0.6787509	-0.1505219	0.718777	0	-131.32	-31.392	11.338	B5-03822-P04-CH1	3581488	OK	0.7660312	-0.6412717	0.0443483	0	-115.017	-44.992	5.209	NA
0.909271708683473	B5-03822-P01-CH0	3581496	OK	0.2250667	0.0714927	0.0749084	-0.9688253	99.912	37.669	-261.255	B5-03822-P02-CH0	3581496	OK	0.6916599	0.4318345	-0.5789003	0	-87.111	-94.311	5.704	B5-03822-P02-CH1	3581496	OK	0.6985585	-0.1397402	-0.7017753	0	-79.637	-70.88	1.417	B5-03822-P03-CH0	3581496	OK	0.7052034	-0.6506404	-0.2817006	0	-97.026	-54.674	1.523	B5-03822-P03-CH1	3581496	OK	0.7551873	-0.6387242	0.1473892	0	-104.885	-27.886	3.205	B5-03822-P04-CH0	3581496	OK	0.678725	-0.1499552	0.7189199	0	-131.266	-31.622	11.385	B5-03822-P04-CH1	3581496	OK	0.765864	-0.641466	0.0444265	0	-114.987	-45.106	5.312	NA
0.919263705482193	B5-03822-P01-CH0	3581504	OK	0.2252173	0.0713708	0.0748089	-0.968807	99.891	37.565	-261.228	B5-03822-P02-CH0	3581504	OK	0.6918662	0.4222295	-0.585699	0	-87.888	-93.642	5.245	B5-03822-P02-CH1	3581504	OK	0.7045686	-0.1359004	-0.6965013	0	-79.868	-70.869	1.173	B5-03822-P03-CH0	3581504	OK	0.7061507	-0.6486728	-0.2838568	0	-97.763	-54.564	1.329	B5-03822-P03-CH1	3581504	OK	0.7550676	-0.6387804	0.1477583	0	-104.872	-28.026	3.119	B5-03822-P04-CH0	3581504	OK	0.6784955	-0.1499894	0.7191293	0	-131.067	-31.6	11.28	B5-03822-P04-CH1	3581504	OK	0.7657984	-0.6415415	0.0444668	0	-114.86	-45.199	5.179	NA
0.929255702280912	B5-03822-P01-CH0	3581512	OK	0.2250389	0.0714655	0.0743874	-0.9688739	99.965	37.518	-261.289	B5-03822-P02-CH0	3581512	OK	0.694513	0.4102286	-0.5910704	0	-87.953	-94.035	5.256	B5-03822-P02-CH1	3581512	OK	0.710478	-0.1322437	-0.6911821	0	-80.578	-71.232	1.572	B5-03822-P03-CH0	3581512	OK	0.7078944	-0.6457916	-0.2860747	0	-98.122	-54.567	1.541	B5-03822-P03-CH1	3581512	OK	0.75492	-0.6390003	0.1475618	0	-104.925	-27.953	3.178	B5-03822-P04-CH0	3581512	OK	0.6786402	-0.1503009	0.7189278	0	-131.152	-31.523	11.269	B5-03822-P04-CH1	3581512	OK	0.765546	-0.6418633	0.0441676	0	-114.94	-45.196	5.2	NA
0.939247699079632	B5-03822-P01-CH0	3581520	OK	0.225212	0.0713474	0.0745186	-0.9688323	99.996	37.468	-261.37	B5-03822-P02-CH0	3581520	OK	0.6943789	0.4001677	-0.5980834	0	-88.507	-93.506	5.195	B5-03822-P02-CH1	3581520	OK	0.7176258	-0.1302714	-0.6841363	0	-80.164	-71.827	0.731	B5-03822-P03-CH0	3581520	OK	0.711225	-0.6415405	-0.2873756	0	-97.339	-54.268	2.307	B5-03822-P03-CH1	3581520	OK	0.7548902	-0.6389368	0.1479886	0	-104.887	-28.05	3.095	B5-03822-P04-CH0	3581520	OK	0.6785182	-0.1501437	0.7190758	0	-131.055	-31.562	11.208	B5-03822-P04-CH1	3581520	OK	0.7657322	-0.6416237	0.0444212	0	-114.871	-45.223	5.128	NA
0.949239695878351	B5-03822-P01-CH0	3581528	OK	0.2251419	0.0712364	0.0742317	-0.9688788	100.01	37.389	-261.413	B5-03822-P02-CH0	3581528	OK	0.696525	0.3910782	-0.6015903	0	-88.174	-93.758	5.283	B5-03822-P02-CH1	3581528	OK	0.721373	-0.126546	-0.680887	0	-81.189	-72.374	1.597	B5-03822-P03-CH0	3581528	OK	0.7120855	-0.6388032	-0.2913154	0	-97.526	-54.34	2.715	B5-03822-P03-CH1	3581528	OK	0.7546945	-0.6391874	0.1479039	0	-104.794	-28.025	2.904	B5-03822-P04-CH0	3581528	OK	0.6784228	-0.1503843	0.7191155	0	-130.997	-31.581	11.173	B5-03822-P04-CH1	3581528	OK	0.7656731	-0.6417112	0.0441745	0	-114.876	-45.184	5.218	NA
0.959231692677071	B5-03822-P01-CH0	3581536	OK	0.224975	0.0712204	0.0737023	-0.9689592	100.02	37.317	-261.462	B5-03822-P02-CH0	3581536	OK	0.6991452	0.3836188	-0.6033511	0	-87.839	-94.487	5.148	B5-03822-P02-CH1	3581536	OK	0.7256137	-0.1224589	-0.6771179	0	-81.588	-73.221	1.925	B5-03822-P03-CH0	3581536	OK	0.7123986	-0.6379172	-0.292489	0	-97.57	-54.49	3.836	B5-03822-P03-CH1	3581536	OK	0.7544182	-0.6395579	0.1477121	0	-104.713	-27.93	2.886	B5-03822-P04-CH0	3581536	OK	0.6783607	-0.1506223	0.7191242	0	-130.975	-31.521	11.195	B5-03822-P04-CH1	3581536	OK	0.7654257	-0.6420211	0.043959	0	-114.733	-45.154	5.242	NA
0.96922368947579	B5-03822-P01-CH0	3581544	OK	0.225262	0.0709491	0.0735087	-0.9689271	99.924	37.272	-261.499	B5-03822-P02-CH0	3581544	OK	0.7016437	0.3769499	-0.6046527	0	-86.749	-94.532	4.315	B5-03822-P02-CH1	3581544	OK	0.7302312	-0.1189089	-0.6727726	0	-81.883	-73.113	1.761	B5-03822-P03-CH0	3581544	OK	0.7114712	-0.6381114	-0.294317	0	-98.095	-55.024	1.792	B5-03822-P03-CH1	3581544	OK	0.7544168	-0.639489	0.1480175	0	-104.579	-27.859	2.721	B5-03822-P04-CH0	3581544	OK	0.6781682	-0.1507445	0.7192802	0	-130.861	-31.428	10.965	B5-03822-P04-CH1	3581544	OK	0.765292	-0.642147	0.0444449	0	-114.561	-45.246	5.239	NA
0.97921568627451	B5-03822-P01-CH0	3581552	OK	0.225273	0.070975	0.0729884	-0.968962	99.963	37.203	-261.592	B5-03822-P02-CH0	3581552	OK	0.7010003	0.374033	-0.607205	0	-87.736	-94.417	5.237	B5-03822-P02-CH1	3581552	OK	0.7338155	-0.1185806	-0.6689196	0	-82.298	-72.802	1.734	B5-03822-P03-CH0	3581552	OK	0.710268	-0.6383378	-0.2967226	0	-97.667	-55.855	1.078	B5-03822-P03-CH1	3581552	OK	0.7541501	-0.6397961	0.1480492	0	-104.589	-27.9	2.793	B5-03822-P04-CH0	3581552	OK	0.6779426	-0.1507594	0.7194897	0	-130.789	-31.508	10.998	B5-03822-P04-CH1	3581552	OK	0.7650372	-0.6424626	0.0442711	0	-114.467	-45.257	5.426	NA
0.989207683073229	B5-03822-P01-CH0	3581560	OK	0.2257266	0.0707179	0.0738098	-0.968813	99.934	37.258	-261.654	B5-03822-P02-CH0	3581560	OK	0.7020718	0.3693202	-0.6088495	0	-87.266	-94.489	4.839	B5-03822-P02-CH1	3581560	OK	0.7364979	-0.1176135	-0.6661365	0	-82.722	-72.487	2.401	B5-03822-P03-CH0	3581560	OK	0.7121561	-0.6358131	-0.2976161	0	-97.844	-55.008	2.628	B5-03822-P03-CH1	3581560	OK	0.7548768	-0.6389178	0.1481389	0	-104.705	-27.863	2.77	B5-03822-P04-CH0	3581560	OK	0.6780433	-0.1504938	0.7194504	0	-130.732	-31.552	10.923	B5-03822-P04-CH1	3581560	OK	0.7654087	-0.641985	0.0447752	0	-114.475	-45.428	5.417	NA
0.999199679871949	B5-03822-P01-CH0	3581568	OK	0.2260828	0.0707738	0.074472	-0.9686752	99.969	37.365	-261.532	B5-03822-P02-CH0	3581568	OK	0.7044643	0.3647031	-0.6088692	0	-86.884	-95.763	2.941	B5-03822-P02-CH1	3581568	OK	0.7386011	-0.1170998	-0.6638946	0	-83.125	-72.507	3.568	B5-03822-P03-CH0	3581568	OK	0.7126531	-0.635849	-0.2963471	0	-97.281	-55.244	2.72	B5-03822-P03-CH1	3581568	OK	0.7553133	-0.6383743	0.1482566	0	-104.717	-27.83	2.504	B5-03822-P04-CH0	3581568	OK	0.6785677	-0.1503543	0.7189851	0	-130.895	-31.458	10.82	B5-03822-P04-CH1	3581568	OK	0.7657435	-0.6415656	0.0450601	0	-114.598	-45.459	5.181	NA
1.00919167667067	B5-03822-P01-CH0	3581576	OK	0.2261329	0.070957	0.0744794	-0.9686495	100.039	37.415	-261.562	B5-03822-P02-CH0	3581576	OK	0.7036745	0.3616795	-0.6115801	0	-87.741	-95.883	3.688	B5-03822-P02-CH1	3581576	OK	0.7399191	-0.1170872	-0.6624276	0	-83.493	-73.744	2.681	B5-03822-P03-CH0	3581576	OK	0.7118076	-0.6356018	-0.2988986	0	-98.17	-55.404	1.521	B5-03822-P03-CH1	3581576	OK	0.755407	-0.638293	0.1481295	0	-104.808	-27.825	2.745	B5-03822-P04-CH0	3581576	OK	0.6787362	-0.1507444	0.7187443	0	-130.9	-31.303	11.012	B5-03822-P04-CH1	3581576	OK	0.7657534	-0.6415837	0.0446328	0	-114.742	-45.41	5.25	NA
1.01918367346939	B5-03822-P01-CH0	3581584	OK	0.2258706	0.071497	0.0738337	-0.9687204	100.259	37.482	-261.656	B5-03822-P02-CH0	3581584	OK	0.7015762	0.3603009	-0.6147959	0	-88.759	-94.913	4.942	B5-03822-P02-CH1	3581584	OK	0.7422034	-0.1152167	-0.6601963	0	-83.275	-73.346	2.426	B5-03822-P03-CH0	3581584	OK	0.7115363	-0.6361544	-0.2983685	0	-98.28	-55.481	2.181	B5-03822-P03-CH1	3581584	OK	0.755189	-0.6386696	0.1476168	0	-104.973	-27.701	3.113	B5-03822-P04-CH0	3581584	OK	0.6789743	-0.1512931	0.718404	0	-131.139	-31.265	11.102	B5-03822-P04-CH1	3581584	OK	0.7653053	-0.6421477	0.0442059	0	-115.001	-45.375	5.542	NA
