Wav.Time	B5.03822.P01.CH0	Frame	State	Q0	Qx	Qy	Qz	Tx	Ty	Tz	B5.03822.P02.CH0	Frame.1	State.1	Q0.1	Qx.1	Qy.1	Qz.1	Tx.1	Ty.1	Tz.1	B5.03822.P02.CH1	Frame.2	State.2	Q0.2	Qx.2	Qy.2	Qz.2	Tx.2	Ty.2	Tz.2	B5.03822.P03.CH0	Frame.3	State.3	Q0.3	Qx.3	Qy.3	Qz.3	Tx.3	Ty.3	Tz.3	B5.03822.P03.CH1	Frame.4	State.4	Q0.4	Qx.4	Qy.4	Qz.4	Tx.4	Ty.4	Tz.4	B5.03822.P04.CH0	Frame.5	State.5	Q0.5	Qx.5	Qy.5	Qz.5	Tx.5	Ty.5	Tz.5	B5.03822.P04.CH1	Frame.6	State.6	Q0.6	Qx.6	Qy.6	Qz.6	Tx.6	Ty.6	Tz.6	X
0	B5-03822-P01-CH0	555136	OK	0.2457473	0.0174311	0.0892873	-0.9650555	107.026	-30.994	-257.887	B5-03822-P02-CH0	555136	OK	0.64889	0.5342824	-0.5417416	0	-72.9	-103.26	-4.58	B5-03822-P02-CH1	555136	OK	0.6878154	0.2211365	-0.6913816	0	-73.43	-83.277	-4.844	B5-03822-P03-CH0	555136	OK	0.8376298	-0.3395499	-0.427881	0	-91.781	-64.963	0.581	B5-03822-P03-CH1	555136	OK	0.7690043	-0.5589533	0.3101671	0	-96.617	-26.35	-16.035	B5-03822-P04-CH0	555136	OK	0.7678173	-0.4340482	0.4712311	0	-119.778	-45.226	-6.244	B5-03822-P04-CH1	555136	OK	0.7202609	-0.6427544	0.2609427	0	-106.601	-40.36	-17.769	NA
0.00999206349206349	B5-03822-P01-CH0	555144	OK	0.2455617	0.0175235	0.0888973	-0.9651371	106.998	-31.026	-257.865	B5-03822-P02-CH0	555144	OK	0.6506266	0.5365928	-0.5373576	0	-73.059	-103.716	-4.083	B5-03822-P02-CH1	555144	OK	0.6879031	0.2216241	-0.6911382	0	-73.35	-83.167	-4.974	B5-03822-P03-CH0	555144	OK	0.8412768	-0.3392267	-0.4209258	0	-91.102	-64.897	0.377	B5-03822-P03-CH1	555144	OK	0.7688259	-0.5590449	0.3104442	0	-96.607	-26.352	-15.957	B5-03822-P04-CH0	555144	OK	0.7673506	-0.4342442	0.4718103	0	-119.752	-45.267	-6.244	B5-03822-P04-CH1	555144	OK	0.7198026	-0.642684	0.2623767	0	-106.782	-40.792	-17.299	NA
0.019984126984127	B5-03822-P01-CH0	555152	OK	0.2456636	0.0176459	0.0890647	-0.9650935	107.033	-30.99	-257.939	B5-03822-P02-CH0	555152	OK	0.6500651	0.5393299	-0.535293	0	-73.45	-103.381	-2.617	B5-03822-P02-CH1	555152	OK	0.6879954	0.2220004	-0.6909256	0	-73.261	-83.171	-4.977	B5-03822-P03-CH0	555152	OK	0.8430632	-0.3379188	-0.4183961	0	-92.223	-64.709	1.398	B5-03822-P03-CH1	555152	OK	0.768968	-0.5584445	0.3111719	0	-96.631	-26.377	-15.808	B5-03822-P04-CH0	555152	OK	0.7672483	-0.4338683	0.4723223	0	-119.801	-45.331	-6.212	B5-03822-P04-CH1	555152	OK	0.7202184	-0.6420959	0.2626754	0	-106.973	-40.588	-17.862	NA
0.0299761904761905	B5-03822-P01-CH0	555160	OK	0.2453412	0.0178619	0.0883585	-0.9652365	107.009	-31.02	-257.802	B5-03822-P02-CH0	555160	OK	0.6526487	0.5402347	-0.5312214	0	-73.483	-103.817	-3.481	B5-03822-P02-CH1	555160	OK	0.6884703	0.2230874	-0.6901019	0	-73.21	-83.244	-5.175	B5-03822-P03-CH0	555160	OK	0.8469101	-0.339895	-0.4089189	0	-91.674	-65.23	1.415	B5-03822-P03-CH1	555160	OK	0.7686191	-0.5584895	0.3119522	0	-96.751	-26.62	-15.367	B5-03822-P04-CH0	555160	OK	0.7668866	-0.4336627	0.4730978	0	-119.941	-45.606	-5.972	B5-03822-P04-CH1	555160	OK	0.7197732	-0.6420215	0.2640737	0	-107.334	-40.857	-17.772	NA
0.039968253968254	B5-03822-P01-CH0	555168	OK	0.2455112	0.0176961	0.0889902	-0.9651382	106.957	-30.947	-257.853	B5-03822-P02-CH0	555168	OK	0.652513	0.5410972	-0.5305098	0	-74.148	-103.563	-3.282	B5-03822-P02-CH1	555168	OK	0.6885717	0.2234372	-0.6898875	0	-73.169	-83.176	-5.268	B5-03822-P03-CH0	555168	OK	0.8498608	-0.3418614	-0.4010828	0	-92.125	-65.727	0.366	B5-03822-P03-CH1	555168	OK	0.7691276	-0.5575068	0.3124562	0	-96.764	-26.569	-15.3	B5-03822-P04-CH0	555168	OK	0.7671456	-0.4322754	0.4739468	0	-120.026	-45.884	-5.763	B5-03822-P04-CH1	555168	OK	0.7203715	-0.6410802	0.2647282	0	-107.475	-40.651	-18.299	NA
0.0499603174603175	B5-03822-P01-CH0	555176	OK	0.2455228	0.0175404	0.0891562	-0.9651228	106.885	-30.95	-257.887	B5-03822-P02-CH0	555176	OK	0.6562545	0.5395719	-0.5274393	0	-73.833	-104.293	-4.431	B5-03822-P02-CH1	555176	OK	0.6905794	0.2260612	-0.68702	0	-73.305	-84.02	-5.512	B5-03822-P03-CH0	555176	OK	0.8542538	-0.344069	-0.3897011	0	-91.712	-66.584	2.085	B5-03822-P03-CH1	555176	OK	0.769298	-0.556982	0.3129723	0	-96.677	-26.585	-15.312	B5-03822-P04-CH0	555176	OK	0.7672978	-0.4303574	0.4754436	0	-120.156	-46.648	-4.878	B5-03822-P04-CH1	555176	OK	0.7206782	-0.6406514	0.2649314	0	-107.499	-40.33	-18.983	NA
0.059952380952381	B5-03822-P01-CH0	555184	OK	0.2455931	0.017758	0.0889377	-0.9651211	106.952	-30.952	-257.899	B5-03822-P02-CH0	555184	OK	0.6572112	0.5381026	-0.5277491	0	-74.144	-103.803	-3.14	B5-03822-P02-CH1	555184	OK	0.6892869	0.2240164	-0.688985	0	-73.206	-83.643	-5.265	B5-03822-P03-CH0	555184	OK	0.8548598	-0.3445013	-0.3879866	0	-92.988	-66.725	1.84	B5-03822-P03-CH1	555184	OK	0.7693154	-0.5566305	0.3135543	0	-96.702	-26.651	-15.536	B5-03822-P04-CH0	555184	OK	0.7674174	-0.4276483	0.4776897	0	-120.469	-47.982	-3.446	B5-03822-P04-CH1	555184	OK	0.7205491	-0.6400022	0.2668448	0	-107.87	-40.681	-18.829	NA
0.0699444444444444	B5-03822-P01-CH0	555192	OK	0.2455413	0.0179327	0.0887061	-0.9651524	107	-30.956	-257.885	B5-03822-P02-CH0	555192	OK	0.6601105	0.5350538	-0.52723	0	-74.042	-104.265	-3.218	B5-03822-P02-CH1	555192	OK	0.6894099	0.223473	-0.6890384	0	-73.501	-84.046	-5.06	B5-03822-P03-CH0	555192	OK	0.8549757	-0.3429133	-0.3891363	0	-93.466	-66.982	2.422	B5-03822-P03-CH1	555192	OK	0.769499	-0.556157	0.3139437	0	-96.778	-26.651	-15.618	B5-03822-P04-CH0	555192	OK	0.7700938	-0.4123573	0.4867412	0	-121.61	-52.777	0.86	B5-03822-P04-CH1	555192	OK	0.7202647	-0.6395405	0.2687131	0	-108.125	-40.987	-19.185	NA
0.0799365079365079	B5-03822-P01-CH0	555200	OK	0.2453815	0.0182743	0.0878711	-0.965263	107.064	-30.988	-257.811	B5-03822-P02-CH0	555200	OK	0.6611303	0.5313228	-0.5297195	0	-74.693	-104.337	-2.586	B5-03822-P02-CH1	555200	OK	0.6897971	0.2221204	-0.6890881	0	-73.786	-84.607	-4.98	B5-03822-P03-CH0	555200	OK	0.8535161	-0.3400221	-0.3948357	0	-93.237	-67.091	1.328	B5-03822-P03-CH1	555200	OK	0.7693948	-0.5562367	0.3140579	0	-96.615	-26.48	-15.923	B5-03822-P04-CH0	555200	OK	0.7713421	-0.4107149	0.4861529	0	-121.973	-52.244	-0.439	B5-03822-P04-CH1	555200	OK	0.7197792	-0.6393655	0.2704248	0	-108.4	-41.248	-19.126	NA
0.0899285714285714	B5-03822-P01-CH0	555208	OK	0.2452729	0.0184678	0.0876996	-0.9653025	107.115	-30.961	-257.757	B5-03822-P02-CH0	555208	OK	0.663308	0.5256109	-0.5326872	0	-74.446	-104.751	-2.092	B5-03822-P02-CH1	555208	OK	0.6909259	0.2020955	-0.6941029	0	-74.239	-85.041	-4.46	B5-03822-P03-CH0	555208	OK	0.8518221	-0.3363015	-0.4016222	0	-93.782	-67.354	2.182	B5-03822-P03-CH1	555208	OK	0.7691557	-0.555562	0.3158327	0	-96.755	-27.377	-14.964	B5-03822-P04-CH0	555208	OK	0.7728007	-0.410283	0.4841972	0	-122.212	-51.022	-2.417	B5-03822-P04-CH1	555208	OK	0.7198216	-0.6387941	0.2716597	0	-108.862	-41.203	-20.079	NA
0.0999206349206349	B5-03822-P01-CH0	555216	OK	0.2452122	0.0184548	0.0874766	-0.9653384	107.102	-30.957	-257.768	B5-03822-P02-CH0	555216	OK	0.6653243	0.51997	-0.5357004	0	-73.868	-104.564	-2.023	B5-03822-P02-CH1	555216	OK	0.6919785	0.1916251	-0.6960213	0	-74.055	-84.383	-4.562	B5-03822-P03-CH0	555216	OK	0.8516592	-0.3380135	-0.400529	0	-94.739	-68.255	2.075	B5-03822-P03-CH1	555216	OK	0.7693815	-0.5547345	0.3167362	0	-96.892	-27.57	-14.787	B5-03822-P04-CH0	555216	OK	0.7740595	-0.4077571	0.4843202	0	-122.982	-51.073	-3.455	B5-03822-P04-CH1	555216	OK	0.7196449	-0.6382379	0.2734293	0	-108.971	-41.327	-20.498	NA
0.109912698412698	B5-03822-P01-CH0	555224	OK	0.245255	0.0187286	0.0872115	-0.9653463	107.171	-30.957	-257.657	B5-03822-P02-CH0	555224	OK	0.6666127	0.5138021	-0.5400324	0	-73.896	-104.182	-3.064	B5-03822-P02-CH1	555224	OK	0.6928102	0.1801293	-0.6982603	0	-74.178	-84.661	-5.442	B5-03822-P03-CH0	555224	OK	0.8542402	-0.3394022	-0.3938019	0	-94.369	-69.048	1.931	B5-03822-P03-CH1	555224	OK	0.7694751	-0.5540038	0.3177859	0	-96.96	-27.791	-14.792	B5-03822-P04-CH0	555224	OK	0.7749792	-0.402039	0.4876185	0	-123.283	-53.668	0.408	B5-03822-P04-CH1	555224	OK	0.7193549	-0.6377362	0.2753563	0	-109.129	-41.509	-21.048	NA
0.119904761904762	B5-03822-P01-CH0	555232	OK	0.2450953	0.0189108	0.0865438	-0.9654434	107.212	-30.995	-257.632	B5-03822-P02-CH0	555232	OK	0.6685906	0.5085531	-0.5425499	0	-74.126	-104.493	-2.725	B5-03822-P02-CH1	555232	OK	0.6937652	0.1705862	-0.6997073	0	-73.882	-84.616	-4.337	B5-03822-P03-CH0	555232	OK	0.8548884	-0.3387167	-0.3929846	0	-95.211	-69.48	2.087	B5-03822-P03-CH1	555232	OK	0.7693423	-0.5535517	0.3188933	0	-97.109	-28.15	-14.456	B5-03822-P04-CH0	555232	OK	0.7745144	-0.4035594	0.4871008	0	-123.328	-53.218	-2.738	B5-03822-P04-CH1	555232	OK	0.718838	-0.6375547	0.2771208	0	-109.292	-41.678	-21.298	NA
0.129896825396825	B5-03822-P01-CH0	555240	OK	0.2453564	0.0185825	0.0872224	-0.9653223	107.171	-30.947	-257.798	B5-03822-P02-CH0	555240	OK	0.670086	0.5036422	-0.545279	0	-73.678	-104.195	-2.982	B5-03822-P02-CH1	555240	OK	0.6937414	0.1626153	-0.7016261	0	-73.798	-84.003	-4.654	B5-03822-P03-CH0	555240	OK	0.8574757	-0.3346815	-0.3907987	0	-95.283	-69.738	1.906	B5-03822-P03-CH1	555240	OK	0.7698231	-0.5520415	0.3203476	0	-97.087	-28.511	-13.854	B5-03822-P04-CH0	555240	OK	0.7750554	-0.4026254	0.4870132	0	-123.477	-52.809	-3.924	B5-03822-P04-CH1	555240	OK	0.7193041	-0.6361119	0.2792191	0	-109.436	-41.828	-21.441	NA
0.139888888888889	B5-03822-P01-CH0	555248	OK	0.2452825	0.0188596	0.0868078	-0.9653731	107.276	-30.999	-257.814	B5-03822-P02-CH0	555248	OK	0.6713097	0.4994645	-0.5476117	0	-74.24	-104.515	-2.52	B5-03822-P02-CH1	555248	OK	0.6941476	0.1553394	-0.7028718	0	-74.146	-84.771	-3.946	B5-03822-P03-CH0	555248	OK	0.8580713	-0.3297993	-0.3936319	0	-95.745	-70.212	2.611	B5-03822-P03-CH1	555248	OK	0.769846	-0.5515895	0.3210703	0	-97.109	-28.538	-13.981	B5-03822-P04-CH0	555248	OK	0.7758668	-0.3991483	0.488581	0	-123.998	-53.832	-0.802	B5-03822-P04-CH1	555248	OK	0.7188838	-0.6354263	0.2818502	0	-109.72	-42.421	-21.062	NA
0.149880952380952	B5-03822-P01-CH0	555256	OK	0.2451643	0.0189502	0.0866668	-0.965414	107.31	-30.997	-257.817	B5-03822-P02-CH0	555256	OK	0.6730068	0.4956656	-0.5489785	0	-73.839	-104.161	-3.436	B5-03822-P02-CH1	555256	OK	0.6955434	0.1483799	-0.7029956	0	-74.644	-85.157	-3.964	B5-03822-P03-CH0	555256	OK	0.8590956	-0.3254574	-0.3950091	0	-95.389	-70.875	2.422	B5-03822-P03-CH1	555256	OK	0.7699161	-0.55091	0.3220673	0	-97.128	-28.624	-13.838	B5-03822-P04-CH0	555256	OK	0.7755287	-0.3971326	0.4907555	0	-124.814	-55.268	0.181	B5-03822-P04-CH1	555256	OK	0.7186789	-0.6348128	0.2837487	0	-109.864	-42.712	-21.078	NA
0.159873015873016	B5-03822-P01-CH0	555264	OK	0.2451873	0.0188769	0.0870072	-0.965379	107.317	-30.977	-257.867	B5-03822-P02-CH0	555264	OK	0.6738965	0.49168	-0.5514656	0	-73.565	-104.243	-3.14	B5-03822-P02-CH1	555264	OK	0.6977741	0.1425345	-0.7019937	0	-74.461	-85.186	-5.006	B5-03822-P03-CH0	555264	OK	0.8581414	-0.320523	-0.4010715	0	-95.801	-71.031	2.188	B5-03822-P03-CH1	555264	OK	0.7702257	-0.5499398	0.3229838	0	-97.173	-28.73	-13.616	B5-03822-P04-CH0	555264	OK	0.7747285	-0.3973866	0.4918126	0	-124.332	-55.455	1.495	B5-03822-P04-CH1	555264	OK	0.7188295	-0.6340351	0.2851027	0	-109.979	-42.785	-21.496	NA
0.169865079365079	B5-03822-P01-CH0	555272	OK	0.2449945	0.0188282	0.0869148	-0.9654372	107.312	-31.036	-257.879	B5-03822-P02-CH0	555272	OK	0.6751246	0.4882401	-0.5530176	0	-73.644	-104.575	-2.856	B5-03822-P02-CH1	555272	OK	0.6997214	0.1396688	-0.7006301	0	-74.021	-84.49	-5.327	B5-03822-P03-CH0	555272	OK	0.8568813	-0.3172578	-0.4063273	0	-94.947	-71.17	1.781	B5-03822-P03-CH1	555272	OK	0.770194	-0.5494875	0.3238281	0	-97.171	-28.821	-13.489	B5-03822-P04-CH0	555272	OK	0.7743737	-0.4024686	0.4882258	0	-123.742	-53.739	-0.792	B5-03822-P04-CH1	555272	OK	0.718792	-0.633595	0.2861738	0	-110.026	-42.928	-21.161	NA
0.179857142857143	B5-03822-P01-CH0	555280	OK	0.2447854	0.018596	0.0872265	-0.9654666	107.266	-31.096	-257.904	B5-03822-P02-CH0	555280	OK	0.6757751	0.4862732	-0.5539552	0	-74.083	-104.76	-2.959	B5-03822-P02-CH1	555280	OK	0.7019029	0.1353327	-0.6992978	0	-74.339	-84.828	-5.385	B5-03822-P03-CH0	555280	OK	0.8533608	-0.3127243	-0.4171078	0	-94.972	-71.462	1.597	B5-03822-P03-CH1	555280	OK	0.770245	-0.5488225	0.3248332	0	-97.304	-28.989	-13.488	B5-03822-P04-CH0	555280	OK	0.7744731	-0.4023101	0.4881988	0	-123.738	-53.612	-1.219	B5-03822-P04-CH1	555280	OK	0.7188832	-0.6328599	0.2875679	0	-110.225	-43.186	-21.103	NA
0.189849206349206	B5-03822-P01-CH0	555288	OK	0.2445382	0.0186627	0.0870088	-0.9655476	107.286	-31.145	-257.981	B5-03822-P02-CH0	555288	OK	0.678319	0.4837473	-0.5530569	0	-73.824	-104.368	-3.527	B5-03822-P02-CH1	555288	OK	0.7059759	0.1350605	-0.6952386	0	-74.158	-84.443	-6.138	B5-03822-P03-CH0	555288	OK	0.8488629	-0.3052575	-0.4315666	0	-95.352	-71.114	1.311	B5-03822-P03-CH1	555288	OK	0.7701609	-0.5486484	0.3253262	0	-97.36	-28.793	-13.535	B5-03822-P04-CH0	555288	OK	0.7742454	-0.402088	0.4887425	0	-123.84	-54.081	-0.84	B5-03822-P04-CH1	555288	OK	0.718291	-0.6327337	0.2893199	0	-110.17	-43.791	-20.081	NA
0.19984126984127	B5-03822-P01-CH0	555296	OK	0.2444848	0.0183502	0.0875359	-0.9655195	107.185	-31.138	-258.066	B5-03822-P02-CH0	555296	OK	0.6813758	0.4834011	-0.5495912	0	-73.616	-104.355	-4.816	B5-03822-P02-CH1	555296	OK	0.70803	0.1384244	-0.6924827	0	-75.005	-85.447	-5.377	B5-03822-P03-CH0	555296	OK	0.8450796	-0.2961865	-0.4451	0	-93.806	-71.274	1.849	B5-03822-P03-CH1	555296	OK	0.769977	-0.5479625	0.3269137	0	-97.404	-29.267	-12.837	B5-03822-P04-CH0	555296	OK	0.7741859	-0.4031918	0.4879268	0	-123.692	-53.556	-1.657	B5-03822-P04-CH1	555296	OK	0.7181276	-0.6323005	0.2906697	0	-110.036	-44.251	-19.347	NA
0.209833333333333	B5-03822-P01-CH0	555304	OK	0.2442598	0.0181193	0.0877815	-0.9655585	107.101	-31.15	-258.188	B5-03822-P02-CH0	555304	OK	0.6810704	0.4877843	-0.5460858	0	-74.667	-103.943	-3.826	B5-03822-P02-CH1	555304	OK	0.7104635	0.1441328	-0.6888159	0	-74.559	-85.54	-5.878	B5-03822-P03-CH0	555304	OK	0.8305777	-0.2741922	-0.484726	0	-94.293	-70.67	0.648	B5-03822-P03-CH1	555304	OK	0.7699557	-0.5477297	0.3273535	0	-97.501	-29.256	-12.679	B5-03822-P04-CH0	555304	OK	0.7739999	-0.4045888	0.4870647	0	-123.566	-53.274	-1.743	B5-03822-P04-CH1	555304	OK	0.7181769	-0.6320198	0.2911579	0	-110.122	-44.468	-18.679	NA
0.219825396825397	B5-03822-P01-CH0	555312	OK	0.2440424	0.0177373	0.0882205	-0.9655806	106.964	-31.184	-258.236	B5-03822-P02-CH0	555312	OK	0.6816605	0.4926379	-0.5409685	0	-74.877	-103.883	-3.89	B5-03822-P02-CH1	555312	OK	0.708544	0.1492017	-0.6897132	0	-74.962	-86.004	-4.557	B5-03822-P03-CH0	555312	OK	0.8086387	-0.2399357	-0.537154	0	-92.442	-69.123	-1.74	B5-03822-P03-CH1	555312	OK	0.7701482	-0.5478597	0.3266827	0	-97.302	-28.564	-13.484	B5-03822-P04-CH0	555312	OK	0.7719294	-0.4161912	0.4805309	0	-122.658	-53.954	0.872	B5-03822-P04-CH1	555312	OK	0.7185579	-0.6321069	0.2900265	0	-109.95	-44.1	-19.083	NA
0.22981746031746	B5-03822-P01-CH0	555320	OK	0.2436956	0.0176417	0.0882915	-0.9656634	106.917	-31.217	-258.289	B5-03822-P02-CH0	555320	OK	0.6816984	0.4977865	-0.5361864	0	-74.55	-102.968	-3.465	B5-03822-P02-CH1	555320	OK	0.7052851	0.1533334	-0.6921429	0	-74.938	-85.048	-5.277	B5-03822-P03-CH0	555320	OK	0.7816189	-0.198984	-0.591166	0	-91.282	-67.72	-4.054	B5-03822-P03-CH1	555320	OK	0.7700866	-0.5483284	0.3260409	0	-97.291	-28.044	-14.329	B5-03822-P04-CH0	555320	OK	0.7719649	-0.4246149	0.4730458	0	-121.991	-51.223	-2.009	B5-03822-P04-CH1	555320	OK	0.7180881	-0.6328723	0.2895206	0	-109.663	-44.353	-18.508	NA
0.239809523809524	B5-03822-P01-CH0	555328	OK	0.243482	0.017251	0.0889604	-0.965663	106.785	-31.243	-258.324	B5-03822-P02-CH0	555328	OK	0.6829617	0.5010402	-0.531528	0	-74.442	-103	-4.604	B5-03822-P02-CH1	555328	OK	0.7035267	0.1563827	-0.6932494	0	-74.251	-83.928	-6.096	B5-03822-P03-CH0	555328	OK	0.7613327	-0.1605302	-0.628174	0	-89.004	-66.19	-4.507	B5-03822-P03-CH1	555328	OK	0.7703122	-0.5481155	0.3258658	0	-97.188	-27.79	-14.42	B5-03822-P04-CH0	555328	OK	0.7708022	-0.4290003	0.4709805	0	-120.982	-51.174	-2.238	B5-03822-P04-CH1	555328	OK	0.7184596	-0.6332559	0.2877549	0	-109.538	-44.076	-18.772	NA
0.249801587301587	B5-03822-P01-CH0	555336	OK	0.2432653	0.0171993	0.0892696	-0.96569	106.747	-31.208	-258.369	B5-03822-P02-CH0	555336	OK	0.6845082	0.5049109	-0.5258455	0	-75.158	-102.604	-4.954	B5-03822-P02-CH1	555336	OK	0.7038359	0.1596157	-0.6921978	0	-73.471	-82.933	-4.827	B5-03822-P03-CH0	555336	OK	0.7550739	-0.1377861	-0.640998	0	-86.886	-64.923	-3.251	B5-03822-P03-CH1	555336	OK	0.7702479	-0.5482943	0.3257169	0	-97.246	-27.776	-14.333	B5-03822-P04-CH0	555336	OK	0.7713796	-0.4310299	0.4681739	0	-121.021	-50.481	-0.816	B5-03822-P04-CH1	555336	OK	0.718163	-0.6338938	0.2870898	0	-109.542	-44.324	-18.36	NA
0.259793650793651	B5-03822-P01-CH0	555344	OK	0.2426474	0.0170706	0.0889101	-0.9658809	106.657	-31.323	-258.373	B5-03822-P02-CH0	555344	OK	0.6878596	0.5071975	-0.5192301	0	-75.147	-102.449	-4.921	B5-03822-P02-CH1	555344	OK	0.7062191	0.1642858	-0.6886688	0	-74.045	-83.629	-4.88	B5-03822-P03-CH0	555344	OK	0.7598231	-0.1464281	-0.6334253	0	-87.647	-64.004	-4.129	B5-03822-P03-CH1	555344	OK	0.7698714	-0.5492747	0.3249542	0	-97.094	-27.504	-14.575	B5-03822-P04-CH0	555344	OK	0.7706892	-0.4372737	0.4634975	0	-120.852	-48.011	-4.618	B5-03822-P04-CH1	555344	OK	0.7177043	-0.6354114	0.2848733	0	-109.276	-44.155	-18.307	NA
0.269785714285714	B5-03822-P01-CH0	555352	OK	0.2423063	0.0170362	0.0885523	-0.966	106.573	-31.368	-258.407	B5-03822-P02-CH0	555352	OK	0.6907872	0.5087836	-0.5137629	0	-74.782	-102.192	-5.262	B5-03822-P02-CH1	555352	OK	0.7075901	0.1682502	-0.6863003	0	-74.375	-83.616	-5.382	B5-03822-P03-CH0	555352	OK	0.7663386	-0.1643312	-0.621064	0	-89.115	-64.132	-3.699	B5-03822-P03-CH1	555352	OK	0.7695057	-0.5500073	0.324581	0	-97.075	-27.387	-14.715	B5-03822-P04-CH0	555352	OK	0.7701905	-0.4441719	0.4577312	0	-120.129	-44.011	-9.724	B5-03822-P04-CH1	555352	OK	0.7174118	-0.6366446	0.2828497	0	-109.063	-43.918	-18.202	NA
0.279777777777778	B5-03822-P01-CH0	555360	OK	0.2420828	0.0170345	0.0884156	-0.9660685	106.529	-31.385	-258.501	B5-03822-P02-CH0	555360	OK	0.6916128	0.5108982	-0.5105437	0	-75.094	-102.293	-5.396	B5-03822-P02-CH1	555360	OK	0.7068145	0.1742752	-0.6855957	0	-74.565	-83.518	-4.821	B5-03822-P03-CH0	555360	OK	0.7733801	-0.1873568	-0.6056242	0	-90.133	-64.872	-2.878	B5-03822-P03-CH1	555360	OK	0.7693895	-0.5506095	0.3238347	0	-97.006	-27.165	-14.748	B5-03822-P04-CH0	555360	OK	0.7690951	-0.4418432	0.4618087	0	-120.263	-47.098	-5.427	B5-03822-P04-CH1	555360	OK	0.7169086	-0.6380332	0.2809906	0	-108.693	-43.925	-17.801	NA
0.289769841269841	B5-03822-P01-CH0	555368	OK	0.2420182	0.0165788	0.088813	-0.9660562	106.362	-31.433	-258.581	B5-03822-P02-CH0	555368	OK	0.6921348	0.51326	-0.507458	0	-74.37	-102.23	-5.902	B5-03822-P02-CH1	555368	OK	0.7027742	0.1792715	-0.6884549	0	-75.505	-85.416	-3.319	B5-03822-P03-CH0	555368	OK	0.7865144	-0.2195147	-0.5772421	0	-90.449	-65.377	-1.205	B5-03822-P03-CH1	555368	OK	0.7694263	-0.5507349	0.3235341	0	-96.864	-27.127	-14.89	B5-03822-P04-CH0	555368	OK	0.7693643	-0.4421673	0.4610495	0	-120.306	-46.829	-5.177	B5-03822-P04-CH1	555368	OK	0.7170588	-0.6385532	0.2794217	0	-108.589	-43.828	-17.657	NA
0.299761904761905	B5-03822-P01-CH0	555376	OK	0.2416045	0.0166565	0.0884947	-0.9661876	106.326	-31.452	-258.501	B5-03822-P02-CH0	555376	OK	0.6888755	0.5155672	-0.5095499	0	-74.638	-101.889	-4.521	B5-03822-P02-CH1	555376	OK	0.6971072	0.1813657	-0.6936483	0	-73.593	-83.601	-5.94	B5-03822-P03-CH0	555376	OK	0.8003985	-0.2563094	-0.5419111	0	-91.635	-64.204	-2.77	B5-03822-P03-CH1	555376	OK	0.7692884	-0.5517863	0.3220671	0	-96.603	-26.529	-15.686	B5-03822-P04-CH0	555376	OK	0.7690709	-0.4428531	0.4608808	0	-120.398	-47.118	-5.004	B5-03822-P04-CH1	555376	OK	0.7175883	-0.639803	0.2751711	0	-108.563	-42.653	-18.642	NA
0.309753968253968	B5-03822-P01-CH0	555384	OK	0.2415916	0.016536	0.088486	-0.9661937	106.271	-31.482	-258.49	B5-03822-P02-CH0	555384	OK	0.683512	0.5171755	-0.5151124	0	-74.769	-102.431	-4.342	B5-03822-P02-CH1	555384	OK	0.683126	0.1752289	-0.7089666	0	-72.87	-83.141	-4.898	B5-03822-P03-CH0	555384	OK	0.813834	-0.2871447	-0.5051951	0	-91.763	-64.284	-1.839	B5-03822-P03-CH1	555384	OK	0.768868	-0.5520362	0.3226422	0	-96.534	-26.979	-15.325	B5-03822-P04-CH0	555384	OK	0.7686995	-0.4440815	0.4603181	0	-120.8	-47.647	-6.255	B5-03822-P04-CH1	555384	OK	0.7175194	-0.6407012	0.2732541	0	-108.341	-42.418	-18.777	NA
0.319746031746032	B5-03822-P01-CH0	555392	OK	0.2415737	0.0163655	0.088839	-0.9661687	106.218	-31.47	-258.598	B5-03822-P02-CH0	555392	OK	0.675809	0.5206977	-0.5216859	0	-73.902	-101.878	-3.277	B5-03822-P02-CH1	555392	OK	0.6679851	0.1657229	-0.7254873	0	-71.918	-82.701	-5.152	B5-03822-P03-CH0	555392	OK	0.8284151	-0.3189444	-0.4604376	0	-92.789	-64.799	-1.258	B5-03822-P03-CH1	555392	OK	0.7689261	-0.5520059	0.3225555	0	-96.469	-27.074	-15.194	B5-03822-P04-CH0	555392	OK	0.7698629	-0.4405627	0.4617529	0	-120.25	-47.182	-5.351	B5-03822-P04-CH1	555392	OK	0.7176362	-0.6410535	0.272119	0	-108.176	-42.385	-18.384	NA
0.329738095238095	B5-03822-P01-CH0	555400	OK	0.2416633	0.0163372	0.089447	-0.9660907	106.207	-31.405	-258.661	B5-03822-P02-CH0	555400	OK	0.6672618	0.5240367	-0.5292894	0	-73.252	-101.734	-3.273	B5-03822-P02-CH1	555400	OK	0.6528818	0.1506174	-0.742334	0	-71.062	-82.795	-4.689	B5-03822-P03-CH0	555400	OK	0.8406844	-0.3500571	-0.4131704	0	-93.374	-65.612	-1.702	B5-03822-P03-CH1	555400	OK	0.769331	-0.5517226	0.3220745	0	-96.458	-26.999	-14.999	B5-03822-P04-CH0	555400	OK	0.7698538	-0.4414856	0.4608857	0	-120.194	-47.109	-5.42	B5-03822-P04-CH1	555400	OK	0.7183399	-0.6410503	0.2702635	0	-108.092	-41.93	-18.304	NA
0.339730158730159	B5-03822-P01-CH0	555408	OK	0.2415278	0.0165949	0.089157	-0.966147	106.275	-31.404	-258.748	B5-03822-P02-CH0	555408	OK	0.6603353	0.5254438	-0.5365316	0	-71.889	-102.122	-3.54	B5-03822-P02-CH1	555408	OK	0.636481	0.1300443	-0.7602503	0	-69.569	-80.564	-4.382	B5-03822-P03-CH0	555408	OK	0.8475591	-0.3712133	-0.379268	0	-93.073	-66.397	-0.297	B5-03822-P03-CH1	555408	OK	0.7690068	-0.5521837	0.3220585	0	-96.601	-27.362	-14.579	B5-03822-P04-CH0	555408	OK	0.7698095	-0.4439332	0.4586029	0	-120.131	-45.945	-6.721	B5-03822-P04-CH1	555408	OK	0.7181909	-0.6416722	0.2691815	0	-108.087	-41.824	-18.074	NA
0.349722222222222	B5-03822-P01-CH0	555416	OK	0.2413797	0.0165316	0.0887863	-0.9662192	106.199	-31.485	-258.766	B5-03822-P02-CH0	555416	OK	0.6509497	0.52523	-0.5480857	0	-70.982	-101.68	-2.653	B5-03822-P02-CH1	555416	OK	0.6192518	0.109779	-0.7774804	0	-69.092	-80.846	-3.148	B5-03822-P03-CH0	555416	OK	0.8497829	-0.3816597	-0.3636	0	-93.321	-66.562	0.118	B5-03822-P03-CH1	555416	OK	0.7688695	-0.5527433	0.3214257	0	-96.525	-27.221	-14.833	B5-03822-P04-CH0	555416	OK	0.769483	-0.4451513	0.4579697	0	-119.988	-45.664	-7.109	B5-03822-P04-CH1	555416	OK	0.7182487	-0.642145	0.2678965	0	-108.039	-41.541	-17.979	NA
0.359714285714286	B5-03822-P01-CH0	555424	OK	0.2416767	0.0166009	0.0889539	-0.9661284	106.17	-31.422	-258.809	B5-03822-P02-CH0	555424	OK	0.6417466	0.519675	-0.5640028	0	-69.628	-101.806	-2.011	B5-03822-P02-CH1	555424	OK	0.6077396	0.0897842	-0.7890446	0	-67.767	-80.965	-3.066	B5-03822-P03-CH0	555424	OK	0.85017	-0.3901676	-0.3535253	0	-93.152	-66.77	-0.258	B5-03822-P03-CH1	555424	OK	0.7689495	-0.5525919	0.3214946	0	-96.597	-27.345	-14.734	B5-03822-P04-CH0	555424	OK	0.769533	-0.4443266	0.458686	0	-120.048	-46.221	-6.126	B5-03822-P04-CH1	555424	OK	0.7182814	-0.6420211	0.2681057	0	-108.053	-41.63	-17.755	NA
0.369706349206349	B5-03822-P01-CH0	555432	OK	0.2419758	0.0164156	0.0898337	-0.9659752	106.1	-31.316	-258.905	B5-03822-P02-CH0	555432	OK	0.6286496	0.5116214	-0.5856989	0	-68.241	-101.076	-2.318	B5-03822-P02-CH1	555432	OK	0.6036218	0.0539431	-0.7954438	0	-66.312	-76.93	-2.907	B5-03822-P03-CH0	555432	OK	0.8494501	-0.3963578	-0.3483319	0	-93.602	-66.558	-0.025	B5-03822-P03-CH1	555432	OK	0.7692668	-0.5521578	0.3214815	0	-96.605	-27.473	-14.674	B5-03822-P04-CH0	555432	OK	0.7698187	-0.4431908	0.459305	0	-120.06	-46.815	-5.185	B5-03822-P04-CH1	555432	OK	0.7190795	-0.6416433	0.2668679	0	-107.948	-41.085	-18.472	NA
0.379698412698413	B5-03822-P01-CH0	555440	OK	0.2420964	0.0165361	0.0900019	-0.9659273	106.098	-31.315	-258.84	B5-03822-P02-CH0	555440	OK	0.6137462	0.5009447	-0.6102212	0	-67.262	-101.491	-1.872	B5-03822-P02-CH1	555440	OK	0.610212	0.0365317	-0.7913955	0	-66.72	-78.97	-4.644	B5-03822-P03-CH0	555440	OK	0.8499758	-0.4044146	-0.3376239	0	-92.234	-67.038	-0.74	B5-03822-P03-CH1	555440	OK	0.7692692	-0.552169	0.3214565	0	-96.643	-27.602	-14.688	B5-03822-P04-CH0	555440	OK	0.7700836	-0.4437711	0.4582995	0	-119.999	-46.385	-5.784	B5-03822-P04-CH1	555440	OK	0.7190418	-0.641777	0.266648	0	-107.874	-41.176	-18.408	NA
0.389690476190476	B5-03822-P01-CH0	555448	OK	0.2421012	0.0166004	0.0906149	-0.9658677	106.08	-31.243	-258.814	B5-03822-P02-CH0	555448	OK	0.5975543	0.4848966	-0.6385954	0	-65.754	-99.738	-1.54	B5-03822-P02-CH1	555448	OK	0.6170367	0.0302136	-0.7863542	0	-67.505	-78.402	-3.389	B5-03822-P03-CH0	555448	OK	0.8502039	-0.4069303	-0.3340075	0	-93.733	-66.393	-0.932	B5-03822-P03-CH1	555448	OK	0.7696805	-0.5519428	0.3208599	0	-96.703	-27.518	-14.642	B5-03822-P04-CH0	555448	OK	0.7704275	-0.4437513	0.4577404	0	-119.987	-46.418	-5.722	B5-03822-P04-CH1	555448	OK	0.7199023	-0.6416352	0.2646602	0	-107.808	-40.447	-19.249	NA
0.39968253968254	B5-03822-P01-CH0	555456	OK	0.2418822	0.0167714	0.0902366	-0.965955	106.064	-31.261	-258.801	B5-03822-P02-CH0	555456	OK	0.5892499	0.4657485	-0.6601991	0	-64.634	-99.793	-1.507	B5-03822-P02-CH1	555456	OK	0.6276141	0.0297515	-0.7779559	0	-66.576	-77.997	-3.902	B5-03822-P03-CH0	555456	OK	0.8508903	-0.4114133	-0.3266877	0	-93.272	-66.244	-0.455	B5-03822-P03-CH1	555456	OK	0.7693663	-0.5525651	0.3205423	0	-96.786	-27.712	-14.423	B5-03822-P04-CH0	555456	OK	0.7704181	-0.445048	0.4564955	0	-119.936	-45.881	-6.368	B5-03822-P04-CH1	555456	OK	0.7194383	-0.6420792	0.264845	0	-107.793	-40.686	-18.786	NA
0.409674603174603	B5-03822-P01-CH0	555464	OK	0.2413631	0.0168161	0.0900718	-0.9660995	105.99	-31.277	-258.788	B5-03822-P02-CH0	555464	OK	0.5823012	0.4408801	-0.6830447	0	-64.017	-99.69	-1.135	B5-03822-P02-CH1	555464	OK	0.6336711	0.0280053	-0.7730955	0	-66.851	-78.242	-4.058	B5-03822-P03-CH0	555464	OK	0.8494816	-0.4154606	-0.3252284	0	-92.458	-66.361	-0.229	B5-03822-P03-CH1	555464	OK	0.7694124	-0.5535656	0.3187	0	-96.652	-27.087	-15.175	B5-03822-P04-CH0	555464	OK	0.7705593	-0.4463848	0.4549494	0	-119.83	-45.152	-6.793	B5-03822-P04-CH1	555464	OK	0.7191213	-0.6426166	0.2644019	0	-107.783	-40.722	-18.585	NA
0.419666666666667	B5-03822-P01-CH0	555472	OK	0.2412028	0.0174052	0.0893416	-0.9661968	106.061	-31.286	-258.601	B5-03822-P02-CH0	555472	OK	0.5743827	0.407345	-0.7100384	0	-63.307	-98.401	-1.781	B5-03822-P02-CH1	555472	OK	0.6379252	0.0241515	-0.7697195	0	-66.282	-77.553	-4.512	B5-03822-P03-CH0	555472	OK	0.8447126	-0.4148911	-0.3381213	0	-94.042	-65.39	-1.205	B5-03822-P03-CH1	555472	OK	0.7688242	-0.554433	0.3186118	0	-96.747	-27.397	-14.887	B5-03822-P04-CH0	555472	OK	0.7703748	-0.4470107	0.4546471	0	-119.991	-45.104	-6.956	B5-03822-P04-CH1	555472	OK	0.718626	-0.6434147	0.2638071	0	-107.803	-40.609	-18.763	NA
0.42965873015873	B5-03822-P01-CH0	555480	OK	0.2409924	0.0175723	0.088907	-0.9662864	106.082	-31.343	-258.582	B5-03822-P02-CH0	555480	OK	0.569932	0.3786663	-0.7292388	0	-62.531	-98.463	-1.287	B5-03822-P02-CH1	555480	OK	0.6388274	0.019414	-0.7691051	0	-66.822	-77.073	-4.37	B5-03822-P03-CH0	555480	OK	0.8410367	-0.4163453	-0.3454183	0	-93.996	-65.642	-0.582	B5-03822-P03-CH1	555480	OK	0.7684858	-0.5550081	0.3184266	0	-96.824	-27.576	-14.754	B5-03822-P04-CH0	555480	OK	0.7702306	-0.4476678	0.4542448	0	-120.001	-44.996	-6.902	B5-03822-P04-CH1	555480	OK	0.7182693	-0.6439855	0.2633855	0	-107.773	-40.605	-18.796	NA
0.439650793650794	B5-03822-P01-CH0	555488	OK	0.2407236	0.0176009	0.088633	-0.9663781	105.99	-31.336	-258.429	B5-03822-P02-CH0	555488	OK	0.5681257	0.3594679	-0.740281	0	-61.664	-98.669	-1.413	B5-03822-P02-CH1	555488	OK	0.6392632	0.0196858	-0.768736	0	-67.383	-77.268	-4.351	B5-03822-P03-CH0	555488	OK	0.8382852	-0.4181238	-0.3499292	0	-93.139	-65.691	-0.679	B5-03822-P03-CH1	555488	OK	0.7681375	-0.5556965	0.3180663	0	-96.777	-27.618	-14.85	B5-03822-P04-CH0	555488	OK	0.7701344	-0.4473634	0.4547075	0	-120.135	-45.365	-6.237	B5-03822-P04-CH1	555488	OK	0.718139	-0.6445558	0.2623437	0	-107.579	-40.264	-19.071	NA
0.449642857142857	B5-03822-P01-CH0	555496	OK	0.240646	0.0179474	0.0886537	-0.9663891	106.1	-31.333	-258.426	B5-03822-P02-CH0	555496	OK	0.5650234	0.3489534	-0.7476497	0	-61.796	-98.377	-1.178	B5-03822-P02-CH1	555496	OK	0.6406973	0.0169988	-0.7676054	0	-67.361	-77.012	-4.492	B5-03822-P03-CH0	555496	OK	0.8351345	-0.4176964	-0.3578827	0	-92.947	-65.574	-1.105	B5-03822-P03-CH1	555496	OK	0.7680204	-0.5558855	0.3180187	0	-96.978	-27.961	-14.38	B5-03822-P04-CH0	555496	OK	0.7702321	-0.4472419	0.4546616	0	-120.323	-45.657	-5.68	B5-03822-P04-CH1	555496	OK	0.7180662	-0.6446084	0.2624135	0	-107.666	-40.385	-18.938	NA
0.459634920634921	B5-03822-P01-CH0	555504	OK	0.2405931	0.0179517	0.0890292	-0.9663677	106.092	-31.331	-258.39	B5-03822-P02-CH0	555504	OK	0.5629877	0.345891	-0.7506026	0	-62.113	-98.085	-1.403	B5-03822-P02-CH1	555504	OK	0.641066	0.0154573	-0.7673301	0	-67.516	-76.916	-4.084	B5-03822-P03-CH0	555504	OK	0.8317994	-0.4162597	-0.3672024	0	-92.23	-65.048	-2.328	B5-03822-P03-CH1	555504	OK	0.7682702	-0.5559352	0.3173278	0	-96.966	-27.812	-14.387	B5-03822-P04-CH0	555504	OK	0.7704572	-0.4477216	0.4538072	0	-120.219	-45.236	-6.076	B5-03822-P04-CH1	555504	OK	0.7185438	-0.644242	0.2620057	0	-107.686	-40.228	-18.633	NA
0.469626984126984	B5-03822-P01-CH0	555512	OK	0.2405433	0.0179572	0.0888736	-0.9663943	106.073	-31.355	-258.348	B5-03822-P02-CH0	555512	OK	0.5631224	0.3475204	-0.7497484	0	-61.868	-97.989	-1.235	B5-03822-P02-CH1	555512	OK	0.642999	0.0169217	-0.7656801	0	-66.797	-76.417	-4.647	B5-03822-P03-CH0	555512	OK	0.8279553	-0.4127312	-0.3796616	0	-92.305	-64.739	-1.954	B5-03822-P03-CH1	555512	OK	0.7681678	-0.5563539	0.3168415	0	-96.863	-27.679	-14.298	B5-03822-P04-CH0	555512	OK	0.7705457	-0.4486249	0.4527638	0	-120.184	-44.462	-6.973	B5-03822-P04-CH1	555512	OK	0.7184758	-0.6444608	0.2616538	0	-107.642	-40.202	-18.456	NA
0.479619047619048	B5-03822-P01-CH0	555520	OK	0.2405545	0.0177741	0.0893163	-0.9663541	105.999	-31.297	-258.357	B5-03822-P02-CH0	555520	OK	0.5643472	0.3544581	-0.745568	0	-61.849	-97.968	-1.237	B5-03822-P02-CH1	555520	OK	0.6424819	0.0217143	-0.7659932	0	-67.326	-76.754	-4.116	B5-03822-P03-CH0	555520	OK	0.825615	-0.4094083	-0.3882587	0	-92.135	-64.409	-2.007	B5-03822-P03-CH1	555520	OK	0.7684152	-0.5563305	0.3162821	0	-96.864	-27.509	-14.365	B5-03822-P04-CH0	555520	OK	0.7706389	-0.4482507	0.4529757	0	-120.133	-44.435	-6.724	B5-03822-P04-CH1	555520	OK	0.7190114	-0.6440123	0.2612868	0	-107.62	-39.98	-18.211	NA
0.489611111111111	B5-03822-P01-CH0	555528	OK	0.240581	0.0179861	0.0887993	-0.9663912	106.089	-31.344	-258.363	B5-03822-P02-CH0	555528	OK	0.5649505	0.3651665	-0.7399218	0	-62.561	-97.389	-1.067	B5-03822-P02-CH1	555528	OK	0.642599	0.0251823	-0.7657888	0	-67.55	-76.88	-3.523	B5-03822-P03-CH0	555528	OK	0.8235782	-0.4077391	-0.3942941	0	-91.888	-64.323	-1.709	B5-03822-P03-CH1	555528	OK	0.7681399	-0.5571599	0.31549	0	-96.781	-27.306	-14.652	B5-03822-P04-CH0	555528	OK	0.7704726	-0.4484048	0.4531061	0	-120.237	-44.315	-6.779	B5-03822-P04-CH1	555528	OK	0.7186996	-0.6443253	0.2613731	0	-107.634	-40.066	-17.932	NA
0.499603174603175	B5-03822-P01-CH0	555536	OK	0.240747	0.0182612	0.088528	-0.9663696	106.188	-31.406	-258.314	B5-03822-P02-CH0	555536	OK	0.568959	0.3811297	-0.7287152	0	-62.965	-98.16	-0.862	B5-03822-P02-CH1	555536	OK	0.6436313	0.026423	-0.7648795	0	-67.461	-76.923	-4.152	B5-03822-P03-CH0	555536	OK	0.8214321	-0.4050073	-0.4015201	0	-91.765	-63.962	-2.075	B5-03822-P03-CH1	555536	OK	0.7683035	-0.557454	0.3145707	0	-96.804	-26.895	-15.121	B5-03822-P04-CH0	555536	OK	0.7702828	-0.4480271	0.4538019	0	-120.194	-44.505	-6.397	B5-03822-P04-CH1	555536	OK	0.7185624	-0.644551	0.2611934	0	-107.58	-40.106	-17.928	NA
0.509595238095238	B5-03822-P01-CH0	555544	OK	0.2411963	0.0180974	0.088987	-0.9662185	106.179	-31.375	-258.305	B5-03822-P02-CH0	555544	OK	0.572926	0.3953735	-0.7179385	0	-63.23	-97.797	-1.166	B5-03822-P02-CH1	555544	OK	0.6446971	0.0279552	-0.7639268	0	-66.875	-76.579	-4.874	B5-03822-P03-CH0	555544	OK	0.8191501	-0.4009808	-0.4101311	0	-91.562	-63.471	-2.595	B5-03822-P03-CH1	555544	OK	0.7686917	-0.5571296	0.3141969	0	-96.747	-26.654	-15.288	B5-03822-P04-CH0	555544	OK	0.7702438	-0.4463002	0.4555663	0	-120.215	-45.312	-5.456	B5-03822-P04-CH1	555544	OK	0.719196	-0.6438171	0.2612596	0	-107.538	-39.913	-17.864	NA
0.519587301587302	B5-03822-P01-CH0	555552	OK	0.2410658	0.0180447	0.0885594	-0.9662913	106.175	-31.515	-258.258	B5-03822-P02-CH0	555552	OK	0.5790622	0.411285	-0.70394	0	-63.527	-97.18	-0.852	B5-03822-P02-CH1	555552	OK	0.6440027	0.0332586	-0.7642999	0	-67.179	-76.594	-5.152	B5-03822-P03-CH0	555552	OK	0.8166844	-0.3984957	-0.417406	0	-91.055	-64.135	-1.758	B5-03822-P03-CH1	555552	OK	0.7684854	-0.5576042	0.3138596	0	-96.804	-26.756	-15.233	B5-03822-P04-CH0	555552	OK	0.7698218	-0.4463893	0.4561917	0	-120.076	-45.452	-5.329	B5-03822-P04-CH1	555552	OK	0.7191165	-0.6442074	0.2605154	0	-107.438	-39.768	-18.041	NA
0.529579365079365	B5-03822-P01-CH0	555560	OK	0.2412872	0.0180242	0.0886495	-0.9662282	106.182	-31.559	-258.21	B5-03822-P02-CH0	555560	OK	0.5889374	0.4262477	-0.6866335	0	-64.038	-97.389	-0.734	B5-03822-P02-CH1	555560	OK	0.6433285	0.0420203	-0.7644363	0	-67.188	-76.582	-4.806	B5-03822-P03-CH0	555560	OK	0.8142727	-0.3957781	-0.4246406	0	-91.217	-63.873	-1.997	B5-03822-P03-CH1	555560	OK	0.7684199	-0.5577514	0.3137582	0	-96.774	-26.895	-15.142	B5-03822-P04-CH0	555560	OK	0.7698761	-0.4458225	0.4566543	0	-120.093	-45.457	-5.341	B5-03822-P04-CH1	555560	OK	0.7191721	-0.64409	0.2606522	0	-107.469	-39.812	-18.311	NA
0.539571428571429	B5-03822-P01-CH0	555568	OK	0.2416039	0.018117	0.0886225	-0.9661498	106.268	-31.586	-258.258	B5-03822-P02-CH0	555568	OK	0.6031047	0.4351763	-0.6684956	0	-64.941	-98.066	-0.475	B5-03822-P02-CH1	555568	OK	0.642049	0.0536485	-0.7647842	0	-67.765	-77.305	-4.168	B5-03822-P03-CH0	555568	OK	0.8134622	-0.3935961	-0.4282072	0	-90.224	-63.929	-2.717	B5-03822-P03-CH1	555568	OK	0.7684347	-0.5577403	0.3137417	0	-96.825	-26.966	-15.026	B5-03822-P04-CH0	555568	OK	0.7697019	-0.4462123	0.4565671	0	-119.945	-45.144	-5.829	B5-03822-P04-CH1	555568	OK	0.7192709	-0.6437272	0.2612752	0	-107.698	-39.95	-18.346	NA
0.549563492063492	B5-03822-P01-CH0	555576	OK	0.2418473	0.0180772	0.0884933	-0.9661015	106.273	-31.628	-258.192	B5-03822-P02-CH0	555576	OK	0.6178211	0.4391047	-0.6522914	0	-66.102	-98.333	-1.098	B5-03822-P02-CH1	555576	OK	0.6439711	0.0650017	-0.7622834	0	-67.296	-76.782	-4.251	B5-03822-P03-CH0	555576	OK	0.8108024	-0.3904578	-0.4360529	0	-90.848	-63.553	-2.388	B5-03822-P03-CH1	555576	OK	0.7683228	-0.5578659	0.3137925	0	-96.776	-26.957	-15.086	B5-03822-P04-CH0	555576	OK	0.7695532	-0.4459004	0.4571222	0	-119.911	-45.199	-5.925	B5-03822-P04-CH1	555576	OK	0.7195876	-0.643907	0.2599567	0	-107.401	-39.396	-18.937	NA
0.559555555555556	B5-03822-P01-CH0	555584	OK	0.242162	0.018122	0.0886377	-0.9660085	106.317	-31.536	-258.182	B5-03822-P02-CH0	555584	OK	0.6340321	0.4425313	-0.6341683	0	-66.544	-99.24	-1.162	B5-03822-P02-CH1	555584	OK	0.6492138	0.0783246	-0.7565624	0	-67.945	-77.626	-4.604	B5-03822-P03-CH0	555584	OK	0.8088207	-0.3869799	-0.4427817	0	-90.303	-63.01	-3.25	B5-03822-P03-CH1	555584	OK	0.7684014	-0.5579419	0.3134648	0	-96.745	-26.702	-15.496	B5-03822-P04-CH0	555584	OK	0.7694392	-0.4455629	0.4576429	0	-119.855	-45.256	-5.723	B5-03822-P04-CH1	555584	OK	0.719837	-0.6437027	0.2597719	0	-107.429	-39.175	-19.244	NA
0.569547619047619	B5-03822-P01-CH0	555592	OK	0.2420715	0.0183899	0.0882054	-0.9660657	106.439	-31.601	-258.123	B5-03822-P02-CH0	555592	OK	0.6450135	0.4490985	-0.6182783	0	-67.284	-99.351	-1.766	B5-03822-P02-CH1	555592	OK	0.6540306	0.091664	-0.7508939	0	-68.938	-77.956	-3.083	B5-03822-P03-CH0	555592	OK	0.8072901	-0.3818373	-0.4499811	0	-89.883	-63.323	-2.563	B5-03822-P03-CH1	555592	OK	0.7683647	-0.5585	0.3125595	0	-96.801	-26.41	-15.964	B5-03822-P04-CH0	555592	OK	0.7690761	-0.4453628	0.4584473	0	-119.954	-45.788	-5.16	B5-03822-P04-CH1	555592	OK	0.7195726	-0.6441158	0.2594806	0	-107.413	-39.21	-19.279	NA
0.579539682539683	B5-03822-P01-CH0	555600	OK	0.2419761	0.0188046	0.086861	-0.9662035	106.558	-31.741	-258.021	B5-03822-P02-CH0	555600	OK	0.6512377	0.4571062	-0.6057585	0	-68.15	-99.491	-1.412	B5-03822-P02-CH1	555600	OK	0.6578477	0.1042412	-0.7459022	0	-69.308	-78.016	-3.856	B5-03822-P03-CH0	555600	OK	0.8066229	-0.3767275	-0.4554513	0	-90.451	-62.921	-2.187	B5-03822-P03-CH1	555600	OK	0.7676713	-0.5597455	0.3120349	0	-96.725	-26.267	-16.369	B5-03822-P04-CH0	555600	OK	0.7684562	-0.4460458	0.4588226	0	-120.106	-46.012	-5.131	B5-03822-P04-CH1	555600	OK	0.7186389	-0.6451922	0.2593938	0	-107.366	-39.363	-19.287	NA
0.589531746031746	B5-03822-P01-CH0	555608	OK	0.2420889	0.0187505	0.0868449	-0.9661777	106.523	-31.696	-257.962	B5-03822-P02-CH0	555608	OK	0.654158	0.463014	-0.5980763	0	-68.698	-99.608	-0.97	B5-03822-P02-CH1	555608	OK	0.6604317	0.1138932	-0.7421983	0	-69.332	-78.538	-4.145	B5-03822-P03-CH0	555608	OK	0.8066721	-0.3739566	-0.4576424	0	-90.668	-62.985	-4.156	B5-03822-P03-CH1	555608	OK	0.7674848	-0.5597025	0.3125703	0	-96.849	-26.51	-16.154	B5-03822-P04-CH0	555608	OK	0.7681815	-0.446277	0.4590578	0	-119.932	-45.926	-5.259	B5-03822-P04-CH1	555608	OK	0.7185521	-0.6451718	0.2596849	0	-107.307	-39.489	-19.047	NA
0.59952380952381	B5-03822-P01-CH0	555616	OK	0.2423233	0.0187339	0.0870287	-0.9661027	106.544	-31.644	-257.986	B5-03822-P02-CH0	555616	OK	0.6545562	0.4667342	-0.5947397	0	-68.991	-99.478	-0.456	B5-03822-P02-CH1	555616	OK	0.6613856	0.1206129	-0.7402848	0	-69.624	-79.283	-4.096	B5-03822-P03-CH0	555616	OK	0.8072694	-0.3702883	-0.459568	0	-90.429	-63.784	-3	B5-03822-P03-CH1	555616	OK	0.7673895	-0.5596166	0.3129578	0	-96.876	-26.786	-15.765	B5-03822-P04-CH0	555616	OK	0.7681367	-0.4457077	0.4596854	0	-119.996	-46.213	-4.917	B5-03822-P04-CH1	555616	OK	0.718794	-0.6449774	0.2594983	0	-107.255	-39.356	-19.254	NA
0.609515873015873	B5-03822-P01-CH0	555624	OK	0.2425066	0.0189722	0.0868391	-0.9660691	106.639	-31.619	-258.006	B5-03822-P02-CH0	555624	OK	0.6551692	0.4684095	-0.5927443	0	-68.696	-100.081	-0.57	B5-03822-P02-CH1	555624	OK	0.6628815	0.1254627	-0.7381377	0	-69.084	-78.682	-4.341	B5-03822-P03-CH0	555624	OK	0.8079426	-0.3659425	-0.4618601	0	-90.648	-63.838	-2.758	B5-03822-P03-CH1	555624	OK	0.7672855	-0.5597599	0.3129566	0	-96.922	-26.848	-15.689	B5-03822-P04-CH0	555624	OK	0.7679868	-0.4456946	0.4599485	0	-120.04	-46.24	-4.885	B5-03822-P04-CH1	555624	OK	0.7185675	-0.6451026	0.2598141	0	-107.199	-39.565	-19.037	NA
0.619507936507937	B5-03822-P01-CH0	555632	OK	0.2425712	0.0191619	0.0867009	-0.9660616	106.696	-31.527	-257.929	B5-03822-P02-CH0	555632	OK	0.6524804	0.4695187	-0.5948289	0	-69.043	-99.662	-1.24	B5-03822-P02-CH1	555632	OK	0.6638641	0.1294222	-0.7365693	0	-68.727	-77.872	-5.346	B5-03822-P03-CH0	555632	OK	0.80835	-0.3606301	-0.4653129	0	-91.232	-63.528	-2.093	B5-03822-P03-CH1	555632	OK	0.7672883	-0.5600324	0.3124618	0	-96.858	-26.605	-15.856	B5-03822-P04-CH0	555632	OK	0.7681738	-0.4455839	0.4597434	0	-120.149	-45.948	-4.852	B5-03822-P04-CH1	555632	OK	0.7187383	-0.6451679	0.2591787	0	-107.24	-39.276	-19.231	NA
0.6295	B5-03822-P01-CH0	555640	OK	0.2426406	0.0194234	0.0862839	-0.9660763	106.728	-31.454	-257.803	B5-03822-P02-CH0	555640	OK	0.6496895	0.4681084	-0.5989808	0	-69.258	-99.642	-0.731	B5-03822-P02-CH1	555640	OK	0.6630628	0.13172	-0.7368837	0	-69.731	-79.261	-3.597	B5-03822-P03-CH0	555640	OK	0.8094934	-0.3574477	-0.4657806	0	-91.148	-63.578	-2.153	B5-03822-P03-CH1	555640	OK	0.7672192	-0.5604077	0.3119581	0	-96.893	-26.311	-16.234	B5-03822-P04-CH0	555640	OK	0.7680716	-0.4459989	0.4595116	0	-120.11	-45.608	-5.065	B5-03822-P04-CH1	555640	OK	0.7184617	-0.6452984	0.2596203	0	-107.258	-39.379	-18.942	NA
0.639492063492064	B5-03822-P01-CH0	555648	OK	0.2427114	0.0194107	0.0863031	-0.966057	106.701	-31.433	-257.729	B5-03822-P02-CH0	555648	OK	0.6481514	0.4650119	-0.6030453	0	-68.467	-99.142	-1.634	B5-03822-P02-CH1	555648	OK	0.6639488	0.1333015	-0.7358007	0	-69.669	-79.598	-4.047	B5-03822-P03-CH0	555648	OK	0.8107663	-0.3543368	-0.4659436	0	-90.747	-63.569	-2.129	B5-03822-P03-CH1	555648	OK	0.7673466	-0.5607232	0.3110768	0	-96.765	-25.906	-16.808	B5-03822-P04-CH0	555648	OK	0.7681118	-0.4453791	0.4600453	0	-120.12	-45.817	-4.646	B5-03822-P04-CH1	555648	OK	0.71831	-0.6453259	0.2599716	0	-107.076	-39.6	-18.489	NA
0.649484126984127	B5-03822-P01-CH0	555656	OK	0.2428644	0.0195354	0.086522	-0.9659965	106.731	-31.354	-257.689	B5-03822-P02-CH0	555656	OK	0.6456259	0.4602635	-0.6093642	0	-68.192	-98.964	-1.524	B5-03822-P02-CH1	555656	OK	0.6643061	0.1330628	-0.7355213	0	-69.599	-79.473	-4.335	B5-03822-P03-CH0	555656	OK	0.8099883	-0.3515502	-0.4693947	0	-91.405	-63.201	-2.133	B5-03822-P03-CH1	555656	OK	0.7675668	-0.5608069	0.3103818	0	-96.738	-25.649	-17.137	B5-03822-P04-CH0	555656	OK	0.7682404	-0.4460434	0.4591862	0	-119.897	-45.153	-5.32	B5-03822-P04-CH1	555656	OK	0.7182139	-0.6449374	0.2611982	0	-107.249	-40.08	-17.884	NA
0.659476190476191	B5-03822-P01-CH0	555664	OK	0.2427914	0.019665	0.0860608	-0.9660534	106.739	-31.411	-257.653	B5-03822-P02-CH0	555664	OK	0.6444517	0.4552079	-0.6143841	0	-67.944	-99.586	-1.585	B5-03822-P02-CH1	555664	OK	0.6638978	0.1317922	-0.7361186	0	-69.707	-79.657	-3.38	B5-03822-P03-CH0	555664	OK	0.8098131	-0.3516817	-0.4695984	0	-90.83	-63.374	-2.405	B5-03822-P03-CH1	555664	OK	0.7673563	-0.5613354	0.3099465	0	-96.671	-25.587	-17.197	B5-03822-P04-CH0	555664	OK	0.7681433	-0.4460425	0.4593496	0	-119.925	-45.189	-5.265	B5-03822-P04-CH1	555664	OK	0.7179182	-0.6454912	0.2606427	0	-107.114	-40.088	-18.042	NA
0.669468253968254	B5-03822-P01-CH0	555672	OK	0.2430854	0.0199718	0.0864033	-0.9659426	106.825	-31.311	-257.594	B5-03822-P02-CH0	555672	OK	0.6415015	0.4511467	-0.6204373	0	-68.308	-99.563	-1.366	B5-03822-P02-CH1	555672	OK	0.6647489	0.1288175	-0.735877	0	-69.188	-78.476	-4.226	B5-03822-P03-CH0	555672	OK	0.8083434	-0.3518847	-0.4719726	0	-90.999	-63.492	-2.995	B5-03822-P03-CH1	555672	OK	0.7675833	-0.5609647	0.3100556	0	-96.844	-25.709	-17.002	B5-03822-P04-CH0	555672	OK	0.7684997	-0.4455476	0.4592337	0	-119.979	-45.001	-5.518	B5-03822-P04-CH1	555672	OK	0.717708	-0.644959	0.2625323	0	-107.273	-40.799	-17.077	NA
0.679460317460318	B5-03822-P01-CH0	555680	OK	0.2433807	0.0198949	0.0874798	-0.9657729	106.852	-31.212	-257.607	B5-03822-P02-CH0	555680	OK	0.638874	0.4482474	-0.6252313	0	-68.045	-99.042	-1.316	B5-03822-P02-CH1	555680	OK	0.665084	0.1272928	-0.7358396	0	-69.176	-78.386	-4.433	B5-03822-P03-CH0	555680	OK	0.8080066	-0.3486471	-0.4749426	0	-91.24	-62.545	-2.54	B5-03822-P03-CH1	555680	OK	0.7682524	-0.5601523	0.3098673	0	-96.828	-25.7	-16.658	B5-03822-P04-CH0	555680	OK	0.7690094	-0.444971	0.4589393	0	-119.801	-44.749	-5.626	B5-03822-P04-CH1	555680	OK	0.7188646	-0.6438582	0.2620692	0	-107.385	-40.408	-17.424	NA
0.689452380952381	B5-03822-P01-CH0	555688	OK	0.2433191	0.0201912	0.087331	-0.9657957	106.969	-31.227	-257.614	B5-03822-P02-CH0	555688	OK	0.6384087	0.4473203	-0.6263696	0	-67.885	-99.606	-1.626	B5-03822-P02-CH1	555688	OK	0.6634933	0.1284356	-0.737076	0	-69.456	-78.574	-4.548	B5-03822-P03-CH0	555688	OK	0.8063135	-0.3484234	-0.4779747	0	-91.689	-62.524	-2.154	B5-03822-P03-CH1	555688	OK	0.7681239	-0.5604231	0.309696	0	-96.957	-25.912	-16.386	B5-03822-P04-CH0	555688	OK	0.7690764	-0.4440358	0.4597321	0	-120.057	-45.407	-4.666	B5-03822-P04-CH1	555688	OK	0.7186629	-0.6440488	0.2621541	0	-107.395	-40.611	-16.995	NA
0.699444444444445	B5-03822-P01-CH0	555696	OK	0.2432669	0.0202063	0.0870792	-0.9658313	106.951	-31.227	-257.609	B5-03822-P02-CH0	555696	OK	0.6367658	0.4469073	-0.6283337	0	-67.842	-99.429	-1.331	B5-03822-P02-CH1	555696	OK	0.6636612	0.1292683	-0.7367792	0	-69.542	-78.783	-4.429	B5-03822-P03-CH0	555696	OK	0.8054594	-0.3486787	-0.4792269	0	-91.438	-62.875	-2.717	B5-03822-P03-CH1	555696	OK	0.7679706	-0.5608211	0.3093557	0	-96.966	-25.874	-16.413	B5-03822-P04-CH0	555696	OK	0.7690275	-0.4443629	0.4594979	0	-120.002	-45.244	-4.669	B5-03822-P04-CH1	555696	OK	0.7177466	-0.644251	0.26416	0	-107.442	-41.561	-15.839	NA
0.709436507936508	B5-03822-P01-CH0	555704	OK	0.2431927	0.0203715	0.0870146	-0.9658524	106.974	-31.214	-257.517	B5-03822-P02-CH0	555704	OK	0.6365358	0.4472822	-0.6283	0	-67.143	-98.981	-1.984	B5-03822-P02-CH1	555704	OK	0.6635793	0.129689	-0.736779	0	-69.675	-78.884	-4.367	B5-03822-P03-CH0	555704	OK	0.8048778	-0.3484886	-0.480341	0	-91.369	-62.777	-2.813	B5-03822-P03-CH1	555704	OK	0.7679408	-0.5611487	0.308835	0	-96.949	-25.735	-16.472	B5-03822-P04-CH0	555704	OK	0.7691815	-0.4456335	0.4580072	0	-119.884	-44.313	-5.8	B5-03822-P04-CH1	555704	OK	0.717842	-0.6445051	0.2632794	0	-107.491	-41.276	-16.333	NA
0.719428571428572	B5-03822-P01-CH0	555712	OK	0.2436048	0.0202739	0.0878131	-0.9656783	107	-31.182	-257.59	B5-03822-P02-CH0	555712	OK	0.6347245	0.44902	-0.6288925	0	-67.82	-99.347	-0.927	B5-03822-P02-CH1	555712	OK	0.6633554	0.1292363	-0.7370601	0	-69.77	-79.098	-4.259	B5-03822-P03-CH0	555712	OK	0.8055111	-0.347362	-0.4800953	0	-90.96	-62.992	-1.797	B5-03822-P03-CH1	555712	OK	0.7685142	-0.5606024	0.3084006	0	-96.984	-25.463	-16.859	B5-03822-P04-CH0	555712	OK	0.7693479	-0.4451969	0.4581522	0	-119.783	-44.458	-5.889	B5-03822-P04-CH1	555712	OK	0.7180806	-0.6436276	0.2647713	0	-107.702	-41.763	-15.84	NA
0.729420634920635	B5-03822-P01-CH0	555720	OK	0.2436216	0.0201811	0.0877668	-0.9656802	106.997	-31.287	-257.638	B5-03822-P02-CH0	555720	OK	0.6358293	0.450851	-0.6264619	0	-68.008	-99.439	-2.048	B5-03822-P02-CH1	555720	OK	0.6636806	0.1296558	-0.7366936	0	-69.622	-79.049	-4.466	B5-03822-P03-CH0	555720	OK	0.8066895	-0.3473448	-0.4781251	0	-90.613	-63.037	-1.535	B5-03822-P03-CH1	555720	OK	0.7683864	-0.5609248	0.3081326	0	-96.823	-25.439	-16.943	B5-03822-P04-CH0	555720	OK	0.7690952	-0.4456897	0.4580974	0	-119.679	-44.578	-6.045	B5-03822-P04-CH1	555720	OK	0.7177249	-0.6438037	0.265307	0	-107.666	-42.103	-15.624	NA
0.739412698412699	B5-03822-P01-CH0	555728	OK	0.243798	0.0203693	0.0878931	-0.9656202	107.082	-31.286	-257.655	B5-03822-P02-CH0	555728	OK	0.6369432	0.452959	-0.623804	0	-68.252	-99.824	-1.475	B5-03822-P02-CH1	555728	OK	0.6637474	0.1299145	-0.7365878	0	-69.603	-78.986	-4.528	B5-03822-P03-CH0	555728	OK	0.8071783	-0.3490607	-0.476046	0	-91.186	-63.2	-2.062	B5-03822-P03-CH1	555728	OK	0.7684644	-0.5608533	0.3080684	0	-96.884	-25.369	-17.022	B5-03822-P04-CH0	555728	OK	0.7691924	-0.4467659	0.4568843	0	-119.615	-43.922	-7.106	B5-03822-P04-CH1	555728	OK	0.7177995	-0.6438899	0.2648958	0	-107.633	-41.93	-16.008	NA
0.749404761904762	B5-03822-P01-CH0	555736	OK	0.2438852	0.0204437	0.0877911	-0.9656059	107.088	-31.333	-257.616	B5-03822-P02-CH0	555736	OK	0.63782	0.454979	-0.6214336	0	-68.278	-99.79	-1.47	B5-03822-P02-CH1	555736	OK	0.6641603	0.1306409	-0.7360869	0	-69.456	-78.893	-4.672	B5-03822-P03-CH0	555736	OK	0.8069456	-0.3488075	-0.4766258	0	-91.251	-63.144	-2.301	B5-03822-P03-CH1	555736	OK	0.7683535	-0.5611038	0.3078886	0	-96.799	-25.272	-17.207	B5-03822-P04-CH0	555736	OK	0.7691367	-0.4474151	0.4563425	0	-119.556	-43.519	-7.766	B5-03822-P04-CH1	555736	OK	0.7176152	-0.6441634	0.2647298	0	-107.615	-41.912	-16.319	NA
0.759396825396826	B5-03822-P01-CH0	555744	OK	0.2440081	0.0208355	0.0876751	-0.965577	107.212	-31.359	-257.574	B5-03822-P02-CH0	555744	OK	0.637957	0.4580545	-0.6190291	0	-68.663	-100.022	-0.904	B5-03822-P02-CH1	555744	OK	0.6651945	0.1416417	-0.7331125	0	-70.165	-80.409	-3.843	B5-03822-P03-CH0	555744	OK	0.8093293	-0.3468055	-0.4740381	0	-91.54	-63.41	-2.495	B5-03822-P03-CH1	555744	OK	0.7681595	-0.5613493	0.3079253	0	-96.856	-25.388	-17.182	B5-03822-P04-CH0	555744	OK	0.7690041	-0.448463	0.4555367	0	-119.493	-42.996	-8.614	B5-03822-P04-CH1	555744	OK	0.7172599	-0.6443019	0.265355	0	-107.709	-42.172	-16.136	NA
0.769388888888889	B5-03822-P01-CH0	555752	OK	0.244054	0.0209717	0.0873882	-0.9655885	107.233	-31.442	-257.627	B5-03822-P02-CH0	555752	OK	0.6391797	0.461921	-0.6148808	0	-68.4	-100.27	-1.577	B5-03822-P02-CH1	555752	OK	0.6656484	0.1439263	-0.732255	0	-70.066	-79.984	-4.06	B5-03822-P03-CH0	555752	OK	0.8107425	-0.3469515	-0.4715096	0	-91.216	-63.659	-1.889	B5-03822-P03-CH1	555752	OK	0.7680503	-0.5617702	0.3074298	0	-96.745	-25.146	-17.415	B5-03822-P04-CH0	555752	OK	0.7686593	-0.4490083	0.4555814	0	-119.418	-43.058	-8.485	B5-03822-P04-CH1	555752	OK	0.7176414	-0.6447708	0.2631756	0	-107.558	-41.273	-17.395	NA
0.779380952380953	B5-03822-P01-CH0	555760	OK	0.2442891	0.0207454	0.0878761	-0.9654896	107.111	-31.402	-257.654	B5-03822-P02-CH0	555760	OK	0.6386489	0.4650295	-0.6130865	0	-68.745	-100.577	-1.45	B5-03822-P02-CH1	555760	OK	0.6677255	0.1446588	-0.7302167	0	-69.271	-80.009	-4.726	B5-03822-P03-CH0	555760	OK	0.8124268	-0.3473021	-0.4683416	0	-90.809	-63.48	-1.955	B5-03822-P03-CH1	555760	OK	0.7679689	-0.5615672	0.3080032	0	-96.764	-25.329	-17.364	B5-03822-P04-CH0	555760	OK	0.7687383	-0.4488986	0.4555563	0	-119.351	-42.864	-8.631	B5-03822-P04-CH1	555760	OK	0.7174372	-0.6448428	0.263556	0	-107.311	-41.452	-17.325	NA
0.789373015873016	B5-03822-P01-CH0	555768	OK	0.2445068	0.0207045	0.0883937	-0.9653882	107.065	-31.436	-257.598	B5-03822-P02-CH0	555768	OK	0.638131	0.466102	-0.6128114	0	-68.298	-99.938	-1.457	B5-03822-P02-CH1	555768	OK	0.6682534	0.1445473	-0.7297557	0	-69.482	-80.032	-4.567	B5-03822-P03-CH0	555768	OK	0.8122031	-0.3469301	-0.4690049	0	-91.527	-63.259	-2.298	B5-03822-P03-CH1	555768	OK	0.7682691	-0.5613847	0.307587	0	-96.622	-25.076	-17.692	B5-03822-P04-CH0	555768	OK	0.7688041	-0.4488855	0.4554581	0	-119.263	-42.756	-8.85	B5-03822-P04-CH1	555768	OK	0.7176678	-0.644502	0.2637615	0	-107.307	-41.438	-17.72	NA
0.799365079365079	B5-03822-P01-CH0	555776	OK	0.2445813	0.0207529	0.0889523	-0.9653169	107.047	-31.461	-257.546	B5-03822-P02-CH0	555776	OK	0.6390214	0.4676075	-0.610733	0	-68.017	-100.541	-2.667	B5-03822-P02-CH1	555776	OK	0.667118	0.145025	-0.7306992	0	-70.842	-80.842	-4.467	B5-03822-P03-CH0	555776	OK	0.8125439	-0.3464371	-0.4687789	0	-91.518	-63.501	-1.55	B5-03822-P03-CH1	555776	OK	0.7684514	-0.561271	0.3073389	0	-96.536	-24.953	-18.002	B5-03822-P04-CH0	555776	OK	0.7688918	-0.4494967	0.4547067	0	-119.109	-42.214	-9.747	B5-03822-P04-CH1	555776	OK	0.7182255	-0.644098	0.2632299	0	-107.431	-41.114	-18.305	NA
