Wav.Time	B5.03822.P01.CH0	Frame	State	Q0	Qx	Qy	Qz	Tx	Ty	Tz	B5.03822.P02.CH0	Frame.1	State.1	Q0.1	Qx.1	Qy.1	Qz.1	Tx.1	Ty.1	Tz.1	B5.03822.P02.CH1	Frame.2	State.2	Q0.2	Qx.2	Qy.2	Qz.2	Tx.2	Ty.2	Tz.2	B5.03822.P03.CH0	Frame.3	State.3	Q0.3	Qx.3	Qy.3	Qz.3	Tx.3	Ty.3	Tz.3	B5.03822.P03.CH1	Frame.4	State.4	Q0.4	Qx.4	Qy.4	Qz.4	Tx.4	Ty.4	Tz.4	B5.03822.P04.CH0	Frame.5	State.5	Q0.5	Qx.5	Qy.5	Qz.5	Tx.5	Ty.5	Tz.5	B5.03822.P04.CH1	Frame.6	State.6	Q0.6	Qx.6	Qy.6	Qz.6	Tx.6	Ty.6	Tz.6	X
0	B5-03822-P01-CH0	897896	OK	0.2118152	0.0698122	0.0704334	-0.9722653	95.897	24.071	-263.455	B5-03822-P02-CH0	897896	OK	0.7676592	0.1776058	-0.615756	0	-89.564	-95.292	1.402	B5-03822-P02-CH1	897896	OK	0.7088467	-0.0009153	-0.7053619	0	-86.093	-74.701	0.578	B5-03822-P03-CH0	897896	OK	0.746781	-0.5439769	-0.382632	0	-97.881	-54.125	4.82	B5-03822-P03-CH1	897896	OK	0.7416495	-0.6444566	0.1860962	0	-106.262	-23.861	-1.879	B5-03822-P04-CH0	897896	OK	0.6791263	-0.2375675	0.6945136	0	-130.233	-29.75	11.737	B5-03822-P04-CH1	897896	OK	0.7641332	-0.6440936	0.0352681	0	-114.633	-43.352	4.245	NA
0.00999181803305515	B5-03822-P01-CH0	897904	OK	0.211687	0.0697543	0.0700524	-0.9723249	95.883	24.071	-263.592	B5-03822-P02-CH0	897904	OK	0.7684046	0.192959	-0.6101813	0	-90.824	-96.14	1.454	B5-03822-P02-CH1	897904	OK	0.7075881	0.0060013	-0.7065997	0	-86.456	-74.834	1.005	B5-03822-P03-CH0	897904	OK	0.7457588	-0.5361085	-0.3955142	0	-98.892	-53.938	4.947	B5-03822-P03-CH1	897904	OK	0.7390253	-0.6458162	0.1917369	0	-106.216	-23.432	-1.431	B5-03822-P04-CH0	897904	OK	0.6763619	-0.233431	0.6986019	0	-129.563	-30.649	13.945	B5-03822-P04-CH1	897904	OK	0.7638483	-0.6444279	0.0353337	0	-114.675	-43.358	4.304	NA
0.0199836360661103	B5-03822-P01-CH0	897912	OK	0.2120879	0.0695354	0.0711085	-0.9721765	95.84	24.213	-263.671	B5-03822-P02-CH0	897912	OK	0.7659706	0.1968749	-0.611988	0	-92.152	-95.709	4.193	B5-03822-P02-CH1	897912	OK	0.7074095	0.01444	-0.7066564	0	-86.347	-75.164	1.632	B5-03822-P03-CH0	897912	OK	0.7468062	-0.5317127	-0.3994522	0	-98.629	-54.626	5.101	B5-03822-P03-CH1	897912	OK	0.7413246	-0.6430595	0.1921259	0	-107.289	-21.398	-2.282	B5-03822-P04-CH0	897912	OK	0.6767994	-0.2310599	0.6989663	0	-129.751	-29.473	13.449	B5-03822-P04-CH1	897912	OK	0.7644229	-0.6437037	0.036099	0	-114.599	-43.455	4.528	NA
0.0299754540991654	B5-03822-P01-CH0	897920	OK	0.2119883	0.0695833	0.0705967	-0.9722321	95.857	24.137	-263.629	B5-03822-P02-CH0	897920	OK	0.7691997	0.2008413	-0.6066256	0	-91.365	-95.896	2.231	B5-03822-P02-CH1	897920	OK	0.7085783	0.0226747	-0.7052678	0	-86.449	-75.041	0.796	B5-03822-P03-CH0	897920	OK	0.7470168	-0.527014	-0.4052432	0	-99.145	-55.172	4.83	B5-03822-P03-CH1	897920	OK	0.7404104	-0.6430317	0.1957105	0	-107.051	-22.039	-1.406	B5-03822-P04-CH0	897920	OK	0.6775933	-0.2239321	0.7005154	0	-130.323	-30.215	13.285	B5-03822-P04-CH1	897920	OK	0.7640817	-0.6441116	0.0360486	0	-114.644	-43.471	4.449	NA
0.0399672721322206	B5-03822-P01-CH0	897928	OK	0.211903	0.0696789	0.0702251	-0.9722707	95.872	24.114	-263.631	B5-03822-P02-CH0	897928	OK	0.7704854	0.2027093	-0.6043685	0	-92.144	-97.513	2.165	B5-03822-P02-CH1	897928	OK	0.7112359	0.0310556	-0.702267	0	-86.681	-75.678	1.454	B5-03822-P03-CH0	897928	OK	0.7496615	-0.5213962	-0.4076196	0	-98.675	-54.939	5.356	B5-03822-P03-CH1	897928	OK	0.7414426	-0.6419254	0.1954345	0	-106.715	-21.043	-3.105	B5-03822-P04-CH0	897928	OK	0.679363	-0.216908	0.7010113	0	-130.681	-30.372	14.513	B5-03822-P04-CH1	897928	OK	0.763623	-0.644639	0.0363381	0	-114.644	-43.607	4.25	NA
0.0499590901652757	B5-03822-P01-CH0	897936	OK	0.2116366	0.0694011	0.0693477	-0.9724116	95.699	23.934	-263.609	B5-03822-P02-CH0	897936	OK	0.7711036	0.204798	-0.6028739	0	-92.61	-97.597	2.633	B5-03822-P02-CH1	897936	OK	0.715426	0.0372804	-0.6976932	0	-86.646	-76.4	0.726	B5-03822-P03-CH0	897936	OK	0.752141	-0.5149527	-0.411227	0	-99.139	-54.955	5.143	B5-03822-P03-CH1	897936	OK	0.7411643	-0.6422011	0.1955844	0	-106.023	-21.679	-2.027	B5-03822-P04-CH0	897936	OK	0.6785653	-0.2137609	0.7027485	0	-130.289	-29.799	13.152	B5-03822-P04-CH1	897936	OK	0.7629199	-0.6454551	0.0366187	0	-114.466	-43.776	4.13	NA
0.0599509081983309	B5-03822-P01-CH0	897944	OK	0.211401	0.0696958	0.0693264	-0.9724433	95.814	23.983	-263.686	B5-03822-P02-CH0	897944	OK	0.7714294	0.2062391	-0.6019652	0	-93.184	-97.612	2.671	B5-03822-P02-CH1	897944	OK	0.7178062	0.0419542	-0.6949777	0	-87.494	-76.182	1.317	B5-03822-P03-CH0	897944	OK	0.7545568	-0.5109945	-0.4117386	0	-99.383	-55.689	4.108	B5-03822-P03-CH1	897944	OK	0.7415568	-0.641612	0.1960294	0	-106.662	-22.904	-0.249	B5-03822-P04-CH0	897944	OK	0.6809253	-0.2055258	0.7029224	0	-131.238	-30.105	12.926	B5-03822-P04-CH1	897944	OK	0.7628998	-0.6454842	0.0365251	0	-114.602	-43.69	4.207	NA
0.069942726231386	B5-03822-P01-CH0	897952	OK	0.2110314	0.0695662	0.0688953	-0.9725635	95.749	23.891	-263.65	B5-03822-P02-CH0	897952	OK	0.7734985	0.2061769	-0.5993256	0	-92.784	-97.853	1.749	B5-03822-P02-CH1	897952	OK	0.7194994	0.0457061	-0.6929874	0	-88.319	-76.756	2.684	B5-03822-P03-CH0	897952	OK	0.7588962	-0.5078509	-0.4076322	0	-98.951	-56.232	5.346	B5-03822-P03-CH1	897952	OK	0.743145	-0.6405987	0.1933102	0	-106.829	-22.471	-0.506	B5-03822-P04-CH0	897952	OK	0.6810477	-0.1996446	0.704497	0	-130.518	-30.443	14.483	B5-03822-P04-CH1	897952	OK	0.7625	-0.6459661	0.0363536	0	-114.603	-43.713	3.911	NA
0.0799345442644412	B5-03822-P01-CH0	897960	OK	0.2110107	0.0697259	0.0687954	-0.9725636	95.81	23.906	-263.679	B5-03822-P02-CH0	897960	OK	0.7753979	0.2030917	-0.597923	0	-92.704	-99.417	1.313	B5-03822-P02-CH1	897960	OK	0.7232251	0.0511529	-0.6887153	0	-88.011	-76.584	2.163	B5-03822-P03-CH0	897960	OK	0.7651375	-0.5055814	-0.3986879	0	-99.396	-55.806	5.735	B5-03822-P03-CH1	897960	OK	0.7448106	-0.6390771	0.1919313	0	-106.767	-22.594	0.747	B5-03822-P04-CH0	897960	OK	0.67926	-0.1981918	0.7066299	0	-130.151	-30.124	12.391	B5-03822-P04-CH1	897960	OK	0.7623571	-0.6461193	0.0366271	0	-114.682	-43.769	3.86	NA
0.0899263622974963	B5-03822-P01-CH0	897968	OK	0.2109268	0.0699881	0.0682294	-0.9726028	95.876	23.842	-263.618	B5-03822-P02-CH0	897968	OK	0.7786228	0.1997614	-0.5948461	0	-92.171	-100.293	-0.284	B5-03822-P02-CH1	897968	OK	0.7245748	0.0544402	-0.6870427	0	-88.961	-77.188	1.574	B5-03822-P03-CH0	897968	OK	0.7692443	-0.5081777	-0.3873223	0	-99.93	-56.886	6.224	B5-03822-P03-CH1	897968	OK	0.745429	-0.6390148	0.1897253	0	-106.413	-22.92	-1.344	B5-03822-P04-CH0	897968	OK	0.680484	-0.1897835	0.7077597	0	-131.247	-31.002	11.877	B5-03822-P04-CH1	897968	OK	0.7619261	-0.646599	0.0371258	0	-114.741	-43.874	3.83	NA
0.0999181803305515	B5-03822-P01-CH0	897976	OK	0.2109964	0.06985	0.0687174	-0.9725633	95.87	23.852	-263.69	B5-03822-P02-CH0	897976	OK	0.7772521	0.1979786	-0.59723	0	-93.693	-99.133	2.818	B5-03822-P02-CH1	897976	OK	0.7262838	0.0579869	-0.6849448	0	-89.181	-77.645	2.215	B5-03822-P03-CH0	897976	OK	0.7750886	-0.5078956	-0.3758719	0	-99.578	-57.418	6.93	B5-03822-P03-CH1	897976	OK	0.7483687	-0.6360301	0.1881755	0	-106.233	-24.061	-0.894	B5-03822-P04-CH0	897976	OK	0.6800342	-0.1772411	0.7114345	0	-131.86	-32.284	10.066	B5-03822-P04-CH1	897976	OK	0.7622777	-0.6461474	0.0377654	0	-114.802	-43.931	3.698	NA
0.109909998363607	B5-03822-P01-CH0	897984	OK	0.2109772	0.0699628	0.0689602	-0.9725422	95.902	23.879	-263.674	B5-03822-P02-CH0	897984	OK	0.7793045	0.192284	-0.5964154	0	-93.974	-99.751	2.598	B5-03822-P02-CH1	897984	OK	0.7283757	0.0564619	-0.6828477	0	-89.343	-78.195	1.667	B5-03822-P03-CH0	897984	OK	0.7801466	-0.5076021	-0.3656658	0	-100.201	-57.149	7.155	B5-03822-P03-CH1	897984	OK	0.7541305	-0.6305081	0.1837026	0	-106.643	-24.106	0.282	B5-03822-P04-CH0	897984	OK	0.6818937	-0.1610945	0.7134911	0	-132.454	-33.2	11.732	B5-03822-P04-CH1	897984	OK	0.7624391	-0.6459049	0.038645	0	-114.964	-43.964	3.506	NA
0.119901816396662	B5-03822-P01-CH0	897992	OK	0.2107543	0.0701515	0.0685616	-0.9726051	95.936	23.815	-263.547	B5-03822-P02-CH0	897992	OK	0.7779655	0.1868822	-0.5998706	0	-95.335	-99.017	5.199	B5-03822-P02-CH1	897992	OK	0.7297401	0.0510002	-0.6818199	0	-89.549	-78.356	1.463	B5-03822-P03-CH0	897992	OK	0.7837289	-0.5103508	-0.353993	0	-100.692	-58.02	7.697	B5-03822-P03-CH1	897992	OK	0.7585055	-0.6256235	0.1823857	0	-106.526	-25.229	2.342	B5-03822-P04-CH0	897992	OK	0.6845959	-0.1484406	0.7136482	0	-133.233	-33.52	13.506	B5-03822-P04-CH1	897992	OK	0.7621519	-0.646169	0.0398768	0	-115.016	-44.123	3.38	NA
0.129893634429717	B5-03822-P01-CH0	898000	OK	0.2106725	0.0702092	0.068611	-0.9726152	95.944	23.843	-263.601	B5-03822-P02-CH0	898000	OK	0.7788744	0.1787029	-0.6011821	0	-95.56	-100.087	5.785	B5-03822-P02-CH1	898000	OK	0.7316727	0.0414554	-0.6803944	0	-89.638	-78.394	2.511	B5-03822-P03-CH0	898000	OK	0.7850884	-0.5147908	-0.3444222	0	-101.288	-59.039	7.124	B5-03822-P03-CH1	898000	OK	0.7620225	-0.6223665	0.1788343	0	-106.303	-25.549	2.908	B5-03822-P04-CH0	898000	OK	0.6850452	-0.140458	0.7148319	0	-133.902	-34.399	13.491	B5-03822-P04-CH1	898000	OK	0.7620807	-0.646147	0.0415579	0	-115.242	-44.385	3.455	NA
0.139885452462772	B5-03822-P01-CH0	898008	OK	0.2107521	0.0703102	0.0687899	-0.972578	95.999	23.915	-263.689	B5-03822-P02-CH0	898008	OK	0.781023	0.1673844	-0.6016523	0	-94.431	-100.961	4.114	B5-03822-P02-CH1	898008	OK	0.7323711	0.0316519	-0.6801696	0	-90.151	-79.053	2.416	B5-03822-P03-CH0	898008	OK	0.7865144	-0.5162292	-0.3389727	0	-102.12	-58.982	7.358	B5-03822-P03-CH1	898008	OK	0.7664108	-0.6172763	0.1777202	0	-105.904	-26.312	5.939	B5-03822-P04-CH0	898008	OK	0.6846958	-0.136099	0.7160089	0	-134.669	-35.346	8.106	B5-03822-P04-CH1	898008	OK	0.7622656	-0.6457976	0.0435498	0	-115.479	-44.546	3.437	NA
0.149877270495827	B5-03822-P01-CH0	898016	OK	0.2109196	0.0702697	0.0696834	-0.972481	96.012	24.053	-263.693	B5-03822-P02-CH0	898016	OK	0.7804756	0.1577884	-0.6049468	0	-93.157	-100.457	2.483	B5-03822-P02-CH1	898016	OK	0.7309896	0.0146418	-0.6822315	0	-90.363	-78.509	2.676	B5-03822-P03-CH0	898016	OK	0.7880961	-0.5247079	-0.321848	0	-100.87	-59.932	8.582	B5-03822-P03-CH1	898016	OK	0.7691615	-0.6162037	0.169362	0	-105.906	-25.813	3.769	B5-03822-P04-CH0	898016	OK	0.689876	-0.1133534	0.7149979	0	-135.122	-35.95	12.851	B5-03822-P04-CH1	898016	OK	0.7634543	-0.643179	0.058807	0	-116.745	-46.256	4.72	NA
0.159869088528882	B5-03822-P01-CH0	898024	OK	0.210971	0.0700909	0.0695145	-0.9724949	95.93	24.009	-263.643	B5-03822-P02-CH0	898024	OK	0.7778716	0.1472584	-0.6109262	0	-93.301	-101.338	2.545	B5-03822-P02-CH1	898024	OK	0.7318008	-0.0002982	-0.6815186	0	-90.259	-78.784	2.243	B5-03822-P03-CH0	898024	OK	0.7885861	-0.5296192	-0.3124666	0	-101.605	-60.381	8.053	B5-03822-P03-CH1	898024	OK	0.7685747	-0.6182706	0.1644211	0	-105.832	-25.834	3.31	B5-03822-P04-CH0	898024	OK	0.6908926	-0.106537	0.7150646	0	-136.378	-37.372	12.44	B5-03822-P04-CH1	898024	OK	0.7639277	-0.6424541	0.0605565	0	-117.52	-46.225	4.898	NA
0.169860906561938	B5-03822-P01-CH0	898032	OK	0.2109685	0.0701997	0.0689711	-0.9725262	95.959	23.942	-263.684	B5-03822-P02-CH0	898032	OK	0.7783296	0.1418317	-0.6116264	0	-92.747	-100.88	2.556	B5-03822-P02-CH1	898032	OK	0.7349	-0.0118077	-0.6780726	0	-89.239	-79.461	1.576	B5-03822-P03-CH0	898032	OK	0.7894773	-0.5300345	-0.3094981	0	-101.752	-60.06	8.676	B5-03822-P03-CH1	898032	OK	0.7680072	-0.6191424	0.1637915	0	-105.737	-25.875	3.044	B5-03822-P04-CH0	898032	OK	0.6908423	-0.105927	0.7152037	0	-136.209	-36.607	12.907	B5-03822-P04-CH1	898032	OK	0.7634293	-0.642935	0.0617278	0	-118.029	-46.776	4.011	NA
0.179852724594993	B5-03822-P01-CH0	898040	OK	0.2108284	0.0703466	0.0687188	-0.9725639	95.986	23.955	-263.736	B5-03822-P02-CH0	898040	OK	0.7790108	0.1351205	-0.6122783	0	-92.221	-99.55	3.832	B5-03822-P02-CH1	898040	OK	0.7349585	-0.0168971	-0.6779015	0	-90.028	-78.884	2.869	B5-03822-P03-CH0	898040	OK	0.7879557	-0.5279945	-0.3167769	0	-102.418	-59.916	8.449	B5-03822-P03-CH1	898040	OK	0.7672998	-0.6198383	0.1644737	0	-105.503	-26.086	3.48	B5-03822-P04-CH0	898040	OK	0.6906326	-0.1057299	0.7154354	0	-136.418	-36.78	12.004	B5-03822-P04-CH1	898040	OK	0.7637115	-0.6427474	0.0601699	0	-118.337	-46.619	5.452	NA
0.189844542628048	B5-03822-P01-CH0	898048	OK	0.2107425	0.0701955	0.0693668	-0.9725474	95.926	24.074	-263.806	B5-03822-P02-CH0	898048	OK	0.7762955	0.1253475	-0.6177809	0	-93.522	-99.235	6.239	B5-03822-P02-CH1	898048	OK	0.7370249	-0.0204835	-0.6755551	0	-90.335	-78.26	3.609	B5-03822-P03-CH0	898048	OK	0.7849636	-0.5215956	-0.3343206	0	-102.572	-59.682	7.058	B5-03822-P03-CH1	898048	OK	0.7675084	-0.6195132	0.1647246	0	-104.862	-25.831	3.605	B5-03822-P04-CH0	898048	OK	0.6917166	-0.1074106	0.7141366	0	-136.773	-36.213	12.203	B5-03822-P04-CH1	898048	OK	0.7631874	-0.6438564	0.0547165	0	-116.989	-45.788	4.25	NA
0.199836360661103	B5-03822-P01-CH0	898056	OK	0.2104167	0.0704071	0.0688928	-0.9726363	95.93	24.094	-263.799	B5-03822-P02-CH0	898056	OK	0.7771534	0.110055	-0.6196132	0	-93.575	-99.935	5.379	B5-03822-P02-CH1	898056	OK	0.7409453	-0.0235542	-0.6711521	0	-90.413	-78.347	2.966	B5-03822-P03-CH0	898056	OK	0.7804378	-0.5099777	-0.3617176	0	-102.118	-59.032	8.282	B5-03822-P03-CH1	898056	OK	0.7679001	-0.6194249	0.1632244	0	-104.855	-25.04	4.318	B5-03822-P04-CH0	898056	OK	0.6913389	-0.1071787	0.714537	0	-136.131	-36.393	13.624	B5-03822-P04-CH1	898056	OK	0.7629301	-0.6440639	0.055851	0	-117.219	-45.929	4.536	NA
0.209828178694158	B5-03822-P01-CH0	898064	OK	0.2098978	0.0701637	0.0680553	-0.972825	95.797	23.956	-263.761	B5-03822-P02-CH0	898064	OK	0.7810723	0.0938685	-0.6173449	0	-92.319	-99.846	4.484	B5-03822-P02-CH1	898064	OK	0.744057	-0.0194756	-0.6678322	0	-90.928	-77.219	4.619	B5-03822-P03-CH0	898064	OK	0.7747179	-0.4951838	-0.3931987	0	-101.148	-58.51	8.051	B5-03822-P03-CH1	898064	OK	0.7667266	-0.6208364	0.1633782	0	-104.728	-25.592	3.705	B5-03822-P04-CH0	898064	OK	0.689575	-0.1097327	0.7158527	0	-135.158	-36.47	13.23	B5-03822-P04-CH1	898064	OK	0.7625719	-0.6444546	0.0562347	0	-117.168	-45.998	4.827	NA
0.219819996727213	B5-03822-P01-CH0	898072	OK	0.2095187	0.070126	0.0673315	-0.9729598	95.743	23.851	-263.831	B5-03822-P02-CH0	898072	OK	0.7821991	0.0748344	-0.6185179	0	-92.016	-99.553	4.098	B5-03822-P02-CH1	898072	OK	0.7473111	-0.0164108	-0.6642716	0	-90.878	-78.027	3.849	B5-03822-P03-CH0	898072	OK	0.7673421	-0.4758961	-0.429778	0	-101.213	-57.736	7.051	B5-03822-P03-CH1	898072	OK	0.7656893	-0.622358	0.1624513	0	-104.16	-26.108	3.505	B5-03822-P04-CH0	898072	OK	0.688615	-0.1163553	0.715731	0	-134.747	-35.464	12.26	B5-03822-P04-CH1	898072	OK	0.7621752	-0.6449414	0.056032	0	-117.273	-46.07	5.004	NA
0.229811814760268	B5-03822-P01-CH0	898080	OK	0.2094148	0.0703815	0.0670842	-0.9729808	95.804	23.882	-263.818	B5-03822-P02-CH0	898080	OK	0.7831125	0.0564281	-0.6193147	0	-91.084	-98.151	4.888	B5-03822-P02-CH1	898080	OK	0.7465215	-0.0160094	-0.6651687	0	-91.552	-77.728	4.478	B5-03822-P03-CH0	898080	OK	0.7620967	-0.4570424	-0.4586075	0	-99.851	-57.591	5.092	B5-03822-P03-CH1	898080	OK	0.7664984	-0.6209261	0.1641065	0	-104.923	-25.746	4.187	B5-03822-P04-CH0	898080	OK	0.68989	-0.1127545	0.7150792	0	-135.519	-36.205	12.975	B5-03822-P04-CH1	898080	OK	0.7621818	-0.6449833	0.0554566	0	-117.217	-45.953	5.3	NA
0.239803632793324	B5-03822-P01-CH0	898088	OK	0.2090136	0.0702611	0.0668067	-0.9730948	95.717	23.858	-263.77	B5-03822-P02-CH0	898088	OK	0.7815667	0.0366194	-0.622746	0	-90.739	-98.814	5.691	B5-03822-P02-CH1	898088	OK	0.7468338	-0.0190601	-0.6647376	0	-90.662	-76.761	3.982	B5-03822-P03-CH0	898088	OK	0.7607464	-0.4350117	-0.4816946	0	-99.41	-56.902	5.915	B5-03822-P03-CH1	898088	OK	0.7663822	-0.6215788	0.1621669	0	-104.994	-25.645	3.925	B5-03822-P04-CH0	898088	OK	0.6872895	-0.1325012	0.7141965	0	-133.568	-33.646	11.297	B5-03822-P04-CH1	898088	OK	0.7621082	-0.6452192	0.0536952	0	-117.002	-45.714	5.511	NA
0.249795450826379	B5-03822-P01-CH0	898096	OK	0.2086891	0.0702672	0.0660775	-0.9732138	95.7	23.807	-263.813	B5-03822-P02-CH0	898096	OK	0.7802348	0.0228787	-0.6250682	0	-89.585	-98.223	5.084	B5-03822-P02-CH1	898096	OK	0.746255	-0.0306556	-0.6649539	0	-90.402	-76.431	4.715	B5-03822-P03-CH0	898096	OK	0.7583881	-0.4167394	-0.5011744	0	-99.375	-54.921	4.651	B5-03822-P03-CH1	898096	OK	0.7659943	-0.6222145	0.1615608	0	-104.92	-25.596	3.823	B5-03822-P04-CH0	898096	OK	0.6877948	-0.1399667	0.7122834	0	-132.528	-33.153	13.801	B5-03822-P04-CH1	898096	OK	0.761072	-0.6475024	0.0388599	0	-114.739	-44.385	4.815	NA
0.259787268859434	B5-03822-P01-CH0	898104	OK	0.2087445	0.0702247	0.0664797	-0.9731776	95.686	23.881	-263.826	B5-03822-P02-CH0	898104	OK	0.7738818	0.0153904	-0.6331431	0	-89.614	-97.419	4.051	B5-03822-P02-CH1	898104	OK	0.7452487	-0.0457916	-0.6652124	0	-90.328	-74.493	4.264	B5-03822-P03-CH0	898104	OK	0.7514193	-0.4191118	-0.5096218	0	-97.706	-54.43	5.858	B5-03822-P03-CH1	898104	OK	0.7663162	-0.6218132	0.1615793	0	-104.799	-25.565	3.905	B5-03822-P04-CH0	898104	OK	0.689453	-0.1476	0.7091324	0	-132.505	-32.364	13.545	B5-03822-P04-CH1	898104	OK	0.7614227	-0.6474116	0.0330703	0	-115.806	-43.578	4.215	NA
0.269779086892489	B5-03822-P01-CH0	898112	OK	0.2089002	0.0700405	0.0671502	-0.9731115	95.615	23.998	-263.753	B5-03822-P02-CH0	898112	OK	0.7672577	0.0122833	-0.6412213	0	-87.892	-95.47	2.415	B5-03822-P02-CH1	898112	OK	0.7432682	-0.0674749	-0.6655821	0	-89.53	-73.918	3.887	B5-03822-P03-CH0	898112	OK	0.7428619	-0.4291753	-0.513775	0	-97.745	-53.578	5.633	B5-03822-P03-CH1	898112	OK	0.7668736	-0.6211034	0.1616645	0	-104.693	-25.445	3.795	B5-03822-P04-CH0	898112	OK	0.6885356	-0.1556466	0.7083028	0	-131.935	-30.49	11.041	B5-03822-P04-CH1	898112	OK	0.7615314	-0.6473577	0.0315897	0	-115.201	-43.133	4.189	NA
0.279770904925544	B5-03822-P01-CH0	898120	OK	0.2089172	0.0699053	0.0676405	-0.9730836	95.556	24.093	-263.679	B5-03822-P02-CH0	898120	OK	0.7567901	0.0125829	-0.6535369	0	-86.451	-95.743	3.066	B5-03822-P02-CH1	898120	OK	0.7392588	-0.090855	-0.6672645	0	-88.314	-74.157	1.881	B5-03822-P03-CH0	898120	OK	0.7356281	-0.4470299	-0.5089358	0	-97.89	-53.02	4.282	B5-03822-P03-CH1	898120	OK	0.7671893	-0.6207159	0.1616552	0	-104.585	-25.399	3.702	B5-03822-P04-CH0	898120	OK	0.6876783	-0.1592727	0.7083296	0	-131.23	-30.519	11.558	B5-03822-P04-CH1	898120	OK	0.7625716	-0.6462396	0.0293078	0	-114.912	-42.437	5.16	NA
0.289762722958599	B5-03822-P01-CH0	898128	OK	0.2089325	0.0699189	0.0672857	-0.9731039	95.564	24.054	-263.666	B5-03822-P02-CH0	898128	OK	0.7426648	0.0231343	-0.6692636	0	-84.842	-96.011	1.666	B5-03822-P02-CH1	898128	OK	0.7320172	-0.1206577	-0.6705167	0	-86.785	-72.48	2.409	B5-03822-P03-CH0	898128	OK	0.7299364	-0.467514	-0.4986215	0	-97.98	-52.45	3.478	B5-03822-P03-CH1	898128	OK	0.7670223	-0.6208707	0.161853	0	-104.55	-25.524	3.658	B5-03822-P04-CH0	898128	OK	0.685782	-0.1615425	0.7096527	0	-130.437	-30.606	11.443	B5-03822-P04-CH1	898128	OK	0.76192	-0.6470599	0.0281316	0	-114.787	-42.453	4.76	NA
0.299754540991654	B5-03822-P01-CH0	898136	OK	0.2091156	0.0698286	0.0672144	-0.973076	95.555	24.033	-263.613	B5-03822-P02-CH0	898136	OK	0.7286109	0.0390387	-0.6838144	0	-81.656	-94.676	-0.194	B5-03822-P02-CH1	898136	OK	0.7247823	-0.1563484	-0.6710035	0	-84.935	-72.305	0.493	B5-03822-P03-CH0	898136	OK	0.7283257	-0.4894798	-0.4795323	0	-96.713	-51.973	4.044	B5-03822-P03-CH1	898136	OK	0.767031	-0.6207958	0.1620988	0	-104.576	-25.681	3.507	B5-03822-P04-CH0	898136	OK	0.6862318	-0.1614837	0.7092312	0	-130.971	-31.597	11.286	B5-03822-P04-CH1	898136	OK	0.7617252	-0.647267	0.0286395	0	-114.14	-42.417	4.259	NA
0.30974635902471	B5-03822-P01-CH0	898144	OK	0.2094115	0.0700305	0.0677293	-0.9729621	95.629	24.211	-263.638	B5-03822-P02-CH0	898144	OK	0.7150958	0.0540282	-0.6969354	0	-80.175	-93.985	-0.679	B5-03822-P02-CH1	898144	OK	0.717705	-0.1889352	-0.6702261	0	-83.972	-72.145	0.813	B5-03822-P03-CH0	898144	OK	0.7265282	-0.513123	-0.4570138	0	-97.282	-52.427	2.256	B5-03822-P03-CH1	898144	OK	0.7675872	-0.6200598	0.1622832	0	-104.707	-25.572	3.531	B5-03822-P04-CH0	898144	OK	0.6854498	-0.1629007	0.7096633	0	-130.732	-30.99	11.428	B5-03822-P04-CH1	898144	OK	0.7618586	-0.6471553	0.0275938	0	-114.313	-42.189	4.229	NA
0.319738177057765	B5-03822-P01-CH0	898152	OK	0.2097519	0.0699888	0.0686491	-0.9728273	95.629	24.357	-263.568	B5-03822-P02-CH0	898152	OK	0.7068114	0.0716948	-0.7037596	0	-79.559	-93.454	-0.338	B5-03822-P02-CH1	898152	OK	0.710559	-0.2107837	-0.6713241	0	-83.258	-71.195	0.638	B5-03822-P03-CH0	898152	OK	0.7283411	-0.5376206	-0.4248333	0	-98.028	-52.426	3.249	B5-03822-P03-CH1	898152	OK	0.7680805	-0.6193413	0.1626921	0	-104.73	-25.601	3.204	B5-03822-P04-CH0	898152	OK	0.6868402	-0.1615323	0.708631	0	-131.562	-30.524	11.741	B5-03822-P04-CH1	898152	OK	0.7629075	-0.6456393	0.0334969	0	-114.946	-43.011	5.039	NA
0.32972999509082	B5-03822-P01-CH0	898160	OK	0.2096542	0.06983	0.0690063	-0.9728345	95.587	24.386	-263.482	B5-03822-P02-CH0	898160	OK	0.7028947	0.0904383	-0.705521	0	-79.361	-92.965	-0.063	B5-03822-P02-CH1	898160	OK	0.7014173	-0.2133007	-0.6800857	0	-81.768	-70.651	-0.671	B5-03822-P03-CH0	898160	OK	0.7312528	-0.5657436	-0.3810559	0	-97.645	-51.742	3.608	B5-03822-P03-CH1	898160	OK	0.7685361	-0.6188154	0.1625415	0	-104.672	-25.421	3.381	B5-03822-P04-CH0	898160	OK	0.6869029	-0.1569632	0.7095964	0	-131.419	-30.7	11.428	B5-03822-P04-CH1	898160	OK	0.7628933	-0.6457419	0.0318005	0	-114.886	-42.801	4.623	NA
0.339721813123875	B5-03822-P01-CH0	898168	OK	0.2100262	0.0698748	0.0695889	-0.9727096	95.613	24.445	-263.479	B5-03822-P02-CH0	898168	OK	0.7055213	0.103058	-0.7011553	0	-78.827	-93.034	-1.242	B5-03822-P02-CH1	898168	OK	0.6903339	-0.200227	-0.6952325	0	-81.065	-69.41	0.445	B5-03822-P03-CH0	898168	OK	0.7329518	-0.5940118	-0.3315594	0	-96.1	-52.2	4.495	B5-03822-P03-CH1	898168	OK	0.7688497	-0.6182749	0.1631145	0	-104.652	-25.474	3.262	B5-03822-P04-CH0	898168	OK	0.6869589	-0.1590123	0.7090857	0	-131.362	-30.62	11.199	B5-03822-P04-CH1	898168	OK	0.7632261	-0.6453824	0.0311037	0	-114.974	-42.639	4.52	NA
0.34971363115693	B5-03822-P01-CH0	898176	OK	0.2100666	0.0697753	0.0701969	-0.9726643	95.567	24.521	-263.491	B5-03822-P02-CH0	898176	OK	0.7105344	0.1157605	-0.6940752	0	-80.106	-93.196	-0.362	B5-03822-P02-CH1	898176	OK	0.6844697	-0.1842914	-0.7053636	0	-79.824	-68.516	-0.37	B5-03822-P03-CH0	898176	OK	0.7382074	-0.6065617	-0.2951826	0	-97.101	-52.685	4.566	B5-03822-P03-CH1	898176	OK	0.7691594	-0.6179169	0.1630108	0	-104.678	-25.419	3.541	B5-03822-P04-CH0	898176	OK	0.6867897	-0.1610564	0.7087883	0	-131.392	-30.388	10.653	B5-03822-P04-CH1	898176	OK	0.7634819	-0.6450931	0.0308249	0	-114.902	-42.494	4.309	NA
0.359705449189985	B5-03822-P01-CH0	898184	OK	0.2098715	0.0699022	0.0697244	-0.9727313	95.564	24.445	-263.48	B5-03822-P02-CH0	898184	OK	0.7201814	0.1282114	-0.6818362	0	-80.753	-92.952	-0.781	B5-03822-P02-CH1	898184	OK	0.6789294	-0.1684128	-0.7146272	0	-79.554	-69.614	-0.767	B5-03822-P03-CH0	898184	OK	0.7485506	-0.6085943	-0.2632205	0	-97.457	-52.714	5.784	B5-03822-P03-CH1	898184	OK	0.7685931	-0.6186928	0.1627388	0	-104.761	-25.501	3.674	B5-03822-P04-CH0	898184	OK	0.6863952	-0.1624514	0.7088521	0	-131.434	-30.276	10.467	B5-03822-P04-CH1	898184	OK	0.7630486	-0.645596	0.0310276	0	-114.75	-42.543	4.35	NA
0.36969726722304	B5-03822-P01-CH0	898192	OK	0.2096261	0.0698989	0.0695536	-0.9727967	95.516	24.411	-263.512	B5-03822-P02-CH0	898192	OK	0.7316721	0.1388839	-0.6673584	0	-82.365	-93.912	-1.36	B5-03822-P02-CH1	898192	OK	0.6748263	-0.1453842	-0.7235143	0	-79.021	-69.597	-1.685	B5-03822-P03-CH0	898192	OK	0.7611312	-0.6042768	-0.2356458	0	-97.504	-52.391	7.393	B5-03822-P03-CH1	898192	OK	0.7680765	-0.619494	0.1621286	0	-104.704	-25.471	3.853	B5-03822-P04-CH0	898192	OK	0.6860088	-0.1631643	0.7090623	0	-131.468	-30.384	10.548	B5-03822-P04-CH1	898192	OK	0.7627907	-0.6458905	0.0312386	0	-114.766	-42.576	4.311	NA
0.379689085256096	B5-03822-P01-CH0	898200	OK	0.2093862	0.0701074	0.069258	-0.9728544	95.55	24.331	-263.535	B5-03822-P02-CH0	898200	OK	0.7439914	0.1489194	-0.651383	0	-84.125	-94.422	-0.081	B5-03822-P02-CH1	898200	OK	0.6725704	-0.1071023	-0.7322419	0	-80.523	-70.483	0.731	B5-03822-P03-CH0	898200	OK	0.7704629	-0.5994956	-0.2167761	0	-97.259	-53.127	7.723	B5-03822-P03-CH1	898200	OK	0.7625007	-0.6271978	0.1587944	0	-104.63	-25.553	2.215	B5-03822-P04-CH0	898200	OK	0.6856286	-0.1645323	0.7091139	0	-131.618	-30.288	10.358	B5-03822-P04-CH1	898200	OK	0.7623547	-0.6463837	0.0316782	0	-114.882	-42.767	4.107	NA
0.389680903289151	B5-03822-P01-CH0	898208	OK	0.2090013	0.0697612	0.0692797	-0.9729605	95.375	24.278	-263.513	B5-03822-P02-CH0	898208	OK	0.7542104	0.1574389	-0.6374792	0	-86.336	-95.029	1.656	B5-03822-P02-CH1	898208	OK	0.6756189	-0.0699857	-0.7339217	0	-81.436	-71.211	1.105	B5-03822-P03-CH0	898208	OK	0.7761793	-0.5937674	-0.2120988	0	-97.234	-54.087	7.625	B5-03822-P03-CH1	898208	OK	0.7605363	-0.629934	0.1573776	0	-105.66	-25.171	1.687	B5-03822-P04-CH0	898208	OK	0.6849515	-0.1661927	0.709381	0	-131.529	-30.127	10.398	B5-03822-P04-CH1	898208	OK	0.7623497	-0.6463684	0.0321057	0	-114.828	-42.754	3.963	NA
0.399672721322206	B5-03822-P01-CH0	898216	OK	0.2088215	0.0696389	0.0696577	-0.9729809	95.282	24.271	-263.564	B5-03822-P02-CH0	898216	OK	0.7619863	0.1676361	-0.6255197	0	-87.962	-94.532	2.184	B5-03822-P02-CH1	898216	OK	0.6800044	-0.0400552	-0.7321131	0	-81.898	-72.529	0.248	B5-03822-P03-CH0	898216	OK	0.7834801	-0.5828544	-0.2154988	0	-97.3	-54.407	9.809	B5-03822-P03-CH1	898216	OK	0.7597347	-0.6302907	0.1598025	0	-105.551	-24.741	3.659	B5-03822-P04-CH0	898216	OK	0.6818418	-0.1740933	0.710481	0	-131.466	-31.265	11.747	B5-03822-P04-CH1	898216	OK	0.7625076	-0.6461357	0.0330269	0	-114.906	-42.891	3.918	NA
0.409664539355261	B5-03822-P01-CH0	898224	OK	0.2087383	0.0696097	0.0698215	-0.9729891	95.235	24.167	-263.466	B5-03822-P02-CH0	898224	OK	0.7677498	0.1760367	-0.6160936	0	-89.246	-95.216	2.87	B5-03822-P02-CH1	898224	OK	0.6842497	-0.0179908	-0.7290259	0	-82.188	-73.336	1.056	B5-03822-P03-CH0	898224	OK	0.7907971	-0.5704532	-0.2218628	0	-98.301	-55.291	9.913	B5-03822-P03-CH1	898224	OK	0.7568626	-0.6324187	0.1649416	0	-105.201	-24.978	1.344	B5-03822-P04-CH0	898224	OK	0.6795186	-0.186442	0.709573	0	-131.16	-30.566	8.745	B5-03822-P04-CH1	898224	OK	0.7627647	-0.6457752	0.0341217	0	-115.084	-43.025	3.893	NA
0.419656357388316	B5-03822-P01-CH0	898232	OK	0.208691	0.0696206	0.069709	-0.9730065	95.233	24.101	-263.549	B5-03822-P02-CH0	898232	OK	0.7719565	0.1792015	-0.6098934	0	-90.441	-97.004	2.08	B5-03822-P02-CH1	898232	OK	0.6871242	-0.002684	-0.726535	0	-83.25	-74.39	2.527	B5-03822-P03-CH0	898232	OK	0.7975886	-0.5569056	-0.2317513	0	-99.807	-56.182	9.395	B5-03822-P03-CH1	898232	OK	0.7559469	-0.6319562	0.1708088	0	-105.056	-24.487	-0.294	B5-03822-P04-CH0	898232	OK	0.6790111	-0.1959371	0.7074974	0	-130.94	-31.007	10.145	B5-03822-P04-CH1	898232	OK	0.7627749	-0.6456934	0.0354181	0	-115.089	-43.199	4.034	NA
0.429648175421371	B5-03822-P01-CH0	898240	OK	0.2086691	0.069447	0.0699849	-0.9730038	95.116	24.054	-263.654	B5-03822-P02-CH0	898240	OK	0.7733394	0.1796927	-0.607994	0	-90.531	-96.757	2.4	B5-03822-P02-CH1	898240	OK	0.6902712	0.0075364	-0.7235115	0	-83.417	-75.877	1.319	B5-03822-P03-CH0	898240	OK	0.804778	-0.5453599	-0.2343393	0	-99.249	-57.219	10.478	B5-03822-P03-CH1	898240	OK	0.7566941	-0.6297044	0.1757453	0	-105.802	-23.987	0.681	B5-03822-P04-CH0	898240	OK	0.6786825	-0.2069569	0.7046694	0	-129.889	-31.304	12.816	B5-03822-P04-CH1	898240	OK	0.763017	-0.6453389	0.0366435	0	-115.043	-43.354	4.149	NA
0.439639993454426	B5-03822-P01-CH0	898248	OK	0.2084421	0.0693549	0.0696511	-0.973083	95.02	23.982	-263.657	B5-03822-P02-CH0	898248	OK	0.77219	0.1743939	-0.6109905	0	-91.097	-98.162	3.565	B5-03822-P02-CH1	898248	OK	0.6928276	0.0147636	-0.7209521	0	-82.819	-76.565	0.09	B5-03822-P03-CH0	898248	OK	0.810601	-0.5354172	-0.2371804	0	-99.788	-58.004	10.474	B5-03822-P03-CH1	898248	OK	0.7553067	-0.6296878	0.1816727	0	-106.124	-25.015	2.141	B5-03822-P04-CH0	898248	OK	0.6782524	-0.2179019	0.7017781	0	-129.661	-30.81	12.13	B5-03822-P04-CH1	898248	OK	0.7627398	-0.6456079	0.037662	0	-115.049	-43.551	4.001	NA
0.449631811487482	B5-03822-P01-CH0	898256	OK	0.2083555	0.069393	0.0697337	-0.9730929	94.987	23.896	-263.65	B5-03822-P02-CH0	898256	OK	0.770349	0.1706496	-0.6143623	0	-90.911	-99.166	2.36	B5-03822-P02-CH1	898256	OK	0.6915312	0.017761	-0.7221282	0	-83.87	-76.535	1.398	B5-03822-P03-CH0	898256	OK	0.817641	-0.5244951	-0.2374198	0	-99.729	-58.297	11.172	B5-03822-P03-CH1	898256	OK	0.7539697	-0.6302618	0.1852022	0	-105.997	-25.213	1.68	B5-03822-P04-CH0	898256	OK	0.6799592	-0.2203822	0.6993476	0	-130.174	-30.558	12.355	B5-03822-P04-CH1	898256	OK	0.7628588	-0.645428	0.0383303	0	-115.133	-43.69	4.087	NA
0.459623629520537	B5-03822-P01-CH0	898264	OK	0.208127	0.0695785	0.0697241	-0.9731293	95.041	23.832	-263.683	B5-03822-P02-CH0	898264	OK	0.7681558	0.1624464	-0.6193124	0	-89.767	-100.404	0.903	B5-03822-P02-CH1	898264	OK	0.6931707	0.0171101	-0.7205704	0	-84.235	-76.873	1.193	B5-03822-P03-CH0	898264	OK	0.8232687	-0.5141964	-0.2404802	0	-99.878	-58.642	11.512	B5-03822-P03-CH1	898264	OK	0.7532245	-0.6309937	0.1857416	0	-106.156	-24.529	1.03	B5-03822-P04-CH0	898264	OK	0.6784489	-0.2213611	0.7005044	0	-129.625	-29.929	12.956	B5-03822-P04-CH1	898264	OK	0.7629652	-0.6452915	0.0385104	0	-115.287	-43.735	4.261	NA
0.469615447553592	B5-03822-P01-CH0	898272	OK	0.2082213	0.0694841	0.0704505	-0.9730635	94.988	23.812	-263.648	B5-03822-P02-CH0	898272	OK	0.7604977	0.1506016	-0.6316347	0	-89.961	-99.523	1.45	B5-03822-P02-CH1	898272	OK	0.6956995	0.0134661	-0.7182067	0	-84.925	-77.801	2.035	B5-03822-P03-CH0	898272	OK	0.8295485	-0.5018888	-0.2448609	0	-100.018	-58.939	12.023	B5-03822-P03-CH1	898272	OK	0.7538417	-0.6304116	0.1852131	0	-106.179	-23.594	0.783	B5-03822-P04-CH0	898272	OK	0.6774735	-0.2197018	0.7019692	0	-129.673	-30.163	12.552	B5-03822-P04-CH1	898272	OK	0.7635927	-0.6445124	0.0391148	0	-115.265	-43.739	4.113	NA
0.479607265586647	B5-03822-P01-CH0	898280	OK	0.2081505	0.069436	0.070364	-0.9730883	94.912	23.765	-263.634	B5-03822-P02-CH0	898280	OK	0.7522999	0.1369526	-0.6444291	0	-90.081	-100.858	0.391	B5-03822-P02-CH1	898280	OK	0.7000929	0.0056602	-0.7140293	0	-84.704	-78.904	0.741	B5-03822-P03-CH0	898280	OK	0.8347363	-0.4887825	-0.2535882	0	-101.536	-59.132	12.02	B5-03822-P03-CH1	898280	OK	0.7525697	-0.6317204	0.1859252	0	-106.213	-24.114	0.115	B5-03822-P04-CH0	898280	OK	0.6773173	-0.2169953	0.7029611	0	-130.302	-30.183	11.886	B5-03822-P04-CH1	898280	OK	0.7635833	-0.6444999	0.0395013	0	-115.203	-43.781	4.227	NA
0.489599083619702	B5-03822-P01-CH0	898288	OK	0.2084083	0.0694713	0.0706569	-0.9730094	94.88	23.743	-263.662	B5-03822-P02-CH0	898288	OK	0.746873	0.1231239	-0.6534686	0	-87.607	-102.387	-1.695	B5-03822-P02-CH1	898288	OK	0.7002655	-0.0008386	-0.713882	0	-85.935	-79.252	1.984	B5-03822-P03-CH0	898288	OK	0.8401759	-0.4754415	-0.2608828	0	-102.051	-59.142	12.098	B5-03822-P03-CH1	898288	OK	0.7527628	-0.6313129	0.1865269	0	-106.164	-24.293	1.161	B5-03822-P04-CH0	898288	OK	0.6749169	-0.2164458	0.7054349	0	-129.812	-29.913	11.094	B5-03822-P04-CH1	898288	OK	0.7637732	-0.6442432	0.040014	0	-115.275	-43.866	4.185	NA
0.499590901652757	B5-03822-P01-CH0	898296	OK	0.2083222	0.0698555	0.0703618	-0.9730217	95.001	23.659	-263.645	B5-03822-P02-CH0	898296	OK	0.7383655	0.1115622	-0.6651092	0	-86.944	-103.181	-0.817	B5-03822-P02-CH1	898296	OK	0.7018841	-0.0065296	-0.7122612	0	-86.804	-78.777	0.528	B5-03822-P03-CH0	898296	OK	0.8434433	-0.4654306	-0.2682868	0	-102.47	-59.493	12.577	B5-03822-P03-CH1	898296	OK	0.7525686	-0.6314801	0.1867441	0	-105.974	-24.865	1.049	B5-03822-P04-CH0	898296	OK	0.6740218	-0.2115187	0.7077814	0	-129.921	-29.856	12.403	B5-03822-P04-CH1	898296	OK	0.7635548	-0.6444983	0.0400754	0	-115.365	-43.948	4.238	NA
0.509582719685812	B5-03822-P01-CH0	898304	OK	0.2080395	0.0701683	0.0696963	-0.9731076	95.096	23.544	-263.682	B5-03822-P02-CH0	898304	OK	0.7312659	0.1030247	-0.6742671	0	-86.774	-103.476	-0.746	B5-03822-P02-CH1	898304	OK	0.7080019	-0.0124435	-0.7061009	0	-86.804	-79.461	1.985	B5-03822-P03-CH0	898304	OK	0.8465982	-0.4561105	-0.2742896	0	-103.253	-59.324	13.36	B5-03822-P03-CH1	898304	OK	0.7541408	-0.6302404	0.1845771	0	-106.653	-24.856	1.454	B5-03822-P04-CH0	898304	OK	0.6748196	-0.2040973	0.7091987	0	-130.937	-30.305	13.084	B5-03822-P04-CH1	898304	OK	0.7629226	-0.6452559	0.0399233	0	-115.292	-44.072	4.299	NA
0.519574537718868	B5-03822-P01-CH0	898312	OK	0.2079111	0.0701491	0.0699947	-0.973115	95.076	23.502	-263.691	B5-03822-P02-CH0	898312	OK	0.7237723	0.0966933	-0.6832306	0	-87.556	-102.922	0.266	B5-03822-P02-CH1	898312	OK	0.7156133	-0.0184807	-0.6982522	0	-87.715	-81.301	3.223	B5-03822-P03-CH0	898312	OK	0.8487863	-0.451294	-0.2754916	0	-103.457	-60.072	12.678	B5-03822-P03-CH1	898312	OK	0.7558227	-0.6287936	0.1826216	0	-106.518	-25.196	1.345	B5-03822-P04-CH0	898312	OK	0.6740105	-0.1945019	0.7126562	0	-131.338	-31.322	13.195	B5-03822-P04-CH1	898312	OK	0.7631785	-0.6449734	0.0395957	0	-115.393	-44.01	4.344	NA
0.529566355751923	B5-03822-P01-CH0	898320	OK	0.2077619	0.0704526	0.0695713	-0.9731553	95.157	23.463	-263.618	B5-03822-P02-CH0	898320	OK	0.7195758	0.0904554	-0.6884972	0	-87.593	-102.487	-0.447	B5-03822-P02-CH1	898320	OK	0.7235511	-0.0235469	-0.6898691	0	-88.544	-80.88	2.595	B5-03822-P03-CH0	898320	OK	0.8503539	-0.4484243	-0.2753431	0	-103.48	-60.28	12.82	B5-03822-P03-CH1	898320	OK	0.7571443	-0.6287842	0.1770957	0	-106.554	-25.618	1.48	B5-03822-P04-CH0	898320	OK	0.6727902	-0.1855793	0.7161799	0	-131.966	-32.036	11.453	B5-03822-P04-CH1	898320	OK	0.7629164	-0.6452945	0.0394167	0	-115.529	-43.977	4.279	NA
0.539558173784978	B5-03822-P01-CH0	898328	OK	0.2078605	0.0704966	0.070183	-0.9730871	95.2	23.434	-263.613	B5-03822-P02-CH0	898328	OK	0.7179657	0.0807584	-0.6913778	0	-86.904	-102.814	-0.062	B5-03822-P02-CH1	898328	OK	0.7297318	-0.0296939	-0.6830884	0	-88.793	-81.251	3.081	B5-03822-P03-CH0	898328	OK	0.8507696	-0.4476354	-0.2753426	0	-103.623	-60.707	12.295	B5-03822-P03-CH1	898328	OK	0.7583278	-0.6290106	0.1711276	0	-105.946	-26.398	1.875	B5-03822-P04-CH0	898328	OK	0.6728672	-0.1771568	0.7182376	0	-132.374	-32.014	11.563	B5-03822-P04-CH1	898328	OK	0.7632693	-0.6448642	0.0396248	0	-115.538	-44.071	4.315	NA
0.549549991818033	B5-03822-P01-CH0	898336	OK	0.2080803	0.0705023	0.0700174	-0.9730517	95.208	23.38	-263.626	B5-03822-P02-CH0	898336	OK	0.7185345	0.0699276	-0.691967	0	-85.903	-103.821	0.106	B5-03822-P02-CH1	898336	OK	0.7352566	-0.0382198	-0.6767104	0	-89.218	-81.453	3.02	B5-03822-P03-CH0	898336	OK	0.8499245	-0.4463433	-0.2800109	0	-104.515	-60.869	11.763	B5-03822-P03-CH1	898336	OK	0.7609516	-0.6277879	0.1638141	0	-105.811	-25.544	2.787	B5-03822-P04-CH0	898336	OK	0.6733878	-0.1650017	0.7206409	0	-132.757	-32.483	12.754	B5-03822-P04-CH1	898336	OK	0.7632375	-0.6448723	0.0401019	0	-115.487	-44.154	4.344	NA
0.559541809851088	B5-03822-P01-CH0	898344	OK	0.2080292	0.0700082	0.0698536	-0.97311	95.01	23.247	-263.554	B5-03822-P02-CH0	898344	OK	0.7203088	0.060257	-0.6910314	0	-84.966	-104.412	-0.965	B5-03822-P02-CH1	898344	OK	0.7406515	-0.0466142	-0.6702705	0	-90.041	-81.307	4.883	B5-03822-P03-CH0	898344	OK	0.8499557	-0.4440465	-0.2835455	0	-104.663	-60.588	12.158	B5-03822-P03-CH1	898344	OK	0.7621673	-0.627948	0.1574239	0	-105.286	-25.454	3.686	B5-03822-P04-CH0	898344	OK	0.6717897	-0.1576319	0.7237753	0	-132.933	-32.798	10.834	B5-03822-P04-CH1	898344	OK	0.7631462	-0.6449429	0.0406998	0	-115.283	-44.257	4.033	NA
0.569533627884143	B5-03822-P01-CH0	898352	OK	0.2078888	0.0701355	0.0693207	-0.973169	95.072	23.179	-263.588	B5-03822-P02-CH0	898352	OK	0.7210647	0.0536745	-0.6907856	0	-85.158	-104.887	-0.738	B5-03822-P02-CH1	898352	OK	0.7470238	-0.0536954	-0.6626253	0	-90.706	-82.274	5.532	B5-03822-P03-CH0	898352	OK	0.8496197	-0.4439457	-0.2847078	0	-104.411	-61.125	12.439	B5-03822-P03-CH1	898352	OK	0.7616345	-0.6296417	0.1531803	0	-104.678	-25.971	2.56	B5-03822-P04-CH0	898352	OK	0.6721362	-0.1464421	0.7258014	0	-133.297	-34.129	11.685	B5-03822-P04-CH1	898352	OK	0.7628065	-0.6453205	0.0410822	0	-115.303	-44.403	4.208	NA
0.579525445917198	B5-03822-P01-CH0	898360	OK	0.2082231	0.0699378	0.069947	-0.9730669	95.043	23.192	-263.595	B5-03822-P02-CH0	898360	OK	0.7207476	0.0504275	-0.6913609	0	-85.729	-105.552	-1.164	B5-03822-P02-CH1	898360	OK	0.7538231	-0.0555371	-0.6547261	0	-90.722	-82.065	5.338	B5-03822-P03-CH0	898360	OK	0.8500319	-0.4404887	-0.2888174	0	-104.401	-61.001	12.471	B5-03822-P03-CH1	898360	OK	0.764599	-0.6271436	0.1485908	0	-105.577	-25.142	2.902	B5-03822-P04-CH0	898360	OK	0.6722306	-0.1373105	0.727497	0	-133.52	-34.17	11.495	B5-03822-P04-CH1	898360	OK	0.7633793	-0.6445771	0.0420997	0	-115.248	-44.457	4.14	NA
0.589517263950254	B5-03822-P01-CH0	898368	OK	0.2082097	0.0698696	0.0704382	-0.9730393	95.04	23.247	-263.553	B5-03822-P02-CH0	898368	OK	0.7202039	0.0498463	-0.6919694	0	-85.712	-106.014	0.012	B5-03822-P02-CH1	898368	OK	0.7579864	-0.0580084	-0.6496858	0	-91.506	-81.962	5.597	B5-03822-P03-CH0	898368	OK	0.8508101	-0.4346768	-0.2952596	0	-104.291	-60.22	12.796	B5-03822-P03-CH1	898368	OK	0.7641664	-0.6280925	0.1467973	0	-105.34	-25.994	2.442	B5-03822-P04-CH0	898368	OK	0.6712326	-0.1306599	0.7296402	0	-133.6	-33.686	11.4	B5-03822-P04-CH1	898368	OK	0.7638006	-0.6440331	0.0427779	0	-115.149	-44.47	4.258	NA
0.599509081983309	B5-03822-P01-CH0	898376	OK	0.2082556	0.0696448	0.0705431	-0.973038	94.969	23.233	-263.551	B5-03822-P02-CH0	898376	OK	0.7217768	0.0479239	-0.6904647	0	-84.741	-106.762	-1.061	B5-03822-P02-CH1	898376	OK	0.7622552	-0.0620277	-0.6442978	0	-91.54	-81.583	5.537	B5-03822-P03-CH0	898376	OK	0.8480246	-0.433921	-0.304248	0	-104.745	-60.669	12.916	B5-03822-P03-CH1	898376	OK	0.7641091	-0.6283671	0.145918	0	-104.796	-25.986	0.793	B5-03822-P04-CH0	898376	OK	0.671007	-0.1241946	0.7309756	0	-133.618	-34.799	12.406	B5-03822-P04-CH1	898376	OK	0.7640316	-0.643716	0.0434214	0	-115.085	-44.508	4.303	NA
0.609500900016364	B5-03822-P01-CH0	898384	OK	0.2083995	0.0695316	0.070584	-0.9730123	94.945	23.235	-263.616	B5-03822-P02-CH0	898384	OK	0.7220268	0.0462457	-0.6903178	0	-84.81	-106.328	-1.301	B5-03822-P02-CH1	898384	OK	0.7643729	-0.0647409	-0.641516	0	-93.148	-82.025	7.191	B5-03822-P03-CH0	898384	OK	0.8456307	-0.4334121	-0.311549	0	-104.575	-60.803	12.385	B5-03822-P03-CH1	898384	OK	0.7657948	-0.6266209	0.1445841	0	-105.399	-25.505	3.228	B5-03822-P04-CH0	898384	OK	0.6696903	-0.1275543	0.7316043	0	-133.174	-34.097	11.642	B5-03822-P04-CH1	898384	OK	0.7643786	-0.6432712	0.0439046	0	-115.163	-44.519	4.481	NA
0.619492718049419	B5-03822-P01-CH0	898392	OK	0.2082123	0.0694709	0.0700567	-0.9730948	94.89	23.227	-263.568	B5-03822-P02-CH0	898392	OK	0.7220847	0.0462471	-0.6902571	0	-85.42	-106.492	-0.869	B5-03822-P02-CH1	898392	OK	0.7703446	-0.064274	-0.6343801	0	-93.408	-82.03	6.646	B5-03822-P03-CH0	898392	OK	0.8423791	-0.4342706	-0.3190713	0	-104.344	-61.208	11.938	B5-03822-P03-CH1	898392	OK	0.7644135	-0.6281176	0.1453969	0	-104.587	-26.106	3.164	B5-03822-P04-CH0	898392	OK	0.6706868	-0.1278488	0.7306393	0	-133.092	-33.99	13.007	B5-03822-P04-CH1	898392	OK	0.7641001	-0.6435865	0.0441304	0	-115.135	-44.509	4.338	NA
0.629484536082474	B5-03822-P01-CH0	898400	OK	0.2083711	0.0691706	0.0703461	-0.9730613	94.804	23.2	-263.551	B5-03822-P02-CH0	898400	OK	0.7229108	0.0452518	-0.6894579	0	-85.74	-106.693	-0.882	B5-03822-P02-CH1	898400	OK	0.7763027	-0.064521	-0.6270495	0	-93.617	-82.463	7.538	B5-03822-P03-CH0	898400	OK	0.8402795	-0.4327949	-0.3265255	0	-104.366	-60.685	11.646	B5-03822-P03-CH1	898400	OK	0.765959	-0.6266289	0.1436772	0	-104.586	-24.98	2.795	B5-03822-P04-CH0	898400	OK	0.6710952	-0.1324479	0.7294441	0	-133.408	-33.226	11.127	B5-03822-P04-CH1	898400	OK	0.7644067	-0.6431824	0.0447067	0	-115.032	-44.622	4.411	NA
0.639476354115529	B5-03822-P01-CH0	898408	OK	0.2083161	0.0693082	0.0699233	-0.9730938	94.88	23.208	-263.546	B5-03822-P02-CH0	898408	OK	0.721865	0.0451084	-0.6905622	0	-86.907	-106.123	-0.695	B5-03822-P02-CH1	898408	OK	0.783045	-0.0643148	-0.6186308	0	-93.334	-82.417	7.672	B5-03822-P03-CH0	898408	OK	0.8364606	-0.4351831	-0.3330905	0	-104.12	-60.75	10.962	B5-03822-P03-CH1	898408	OK	0.7645821	-0.627857	0.1456357	0	-104.021	-25.779	2.135	B5-03822-P04-CH0	898408	OK	0.6723369	-0.1344887	0.7279258	0	-133.089	-33.775	12.412	B5-03822-P04-CH1	898408	OK	0.7642916	-0.6433219	0.0446687	0	-115.123	-44.581	4.436	NA
0.649468172148585	B5-03822-P01-CH0	898416	OK	0.2081066	0.0692334	0.0697954	-0.9731531	94.855	23.226	-263.476	B5-03822-P02-CH0	898416	OK	0.7246982	0.0412848	-0.6878285	0	-85.784	-106.685	-0.085	B5-03822-P02-CH1	898416	OK	0.7872823	-0.0647231	-0.6131863	0	-94.173	-82.345	9.067	B5-03822-P03-CH0	898416	OK	0.8330989	-0.4364739	-0.3397599	0	-103.74	-60.653	11.191	B5-03822-P03-CH1	898416	OK	0.7643766	-0.6277604	0.1471234	0	-104.568	-25.507	2.619	B5-03822-P04-CH0	898416	OK	0.6714462	-0.1347094	0.7287067	0	-133.138	-33.969	12.07	B5-03822-P04-CH1	898416	OK	0.7642468	-0.6433843	0.0445358	0	-115.128	-44.544	4.333	NA
0.65945999018164	B5-03822-P01-CH0	898424	OK	0.2083781	0.0696592	0.0703941	-0.9730215	95.092	23.424	-263.557	B5-03822-P02-CH0	898424	OK	0.7254335	0.0396233	-0.6871508	0	-86.022	-106.919	0.503	B5-03822-P02-CH1	898424	OK	0.7912443	-0.0640409	-0.6081374	0	-95.259	-82.127	9.246	B5-03822-P03-CH0	898424	OK	0.8299152	-0.4364035	-0.3475526	0	-104.052	-60.558	10.528	B5-03822-P03-CH1	898424	OK	0.7650372	-0.6271228	0.1464071	0	-104.846	-25.581	2.649	B5-03822-P04-CH0	898424	OK	0.6746198	-0.1467061	0.72344	0	-132.534	-32.916	12.322	B5-03822-P04-CH1	898424	OK	0.7647489	-0.6427834	0.0445932	0	-115.277	-44.474	4.619	NA
0.669451808214695	B5-03822-P01-CH0	898432	OK	0.2085431	0.0697452	0.0705094	-0.9729716	95.142	23.491	-263.52	B5-03822-P02-CH0	898432	OK	0.725169	0.0400293	-0.6874065	0	-86.815	-106.238	0.397	B5-03822-P02-CH1	898432	OK	0.7969576	-0.0636405	-0.6006733	0	-95.257	-81.304	9.631	B5-03822-P03-CH0	898432	OK	0.8266443	-0.4375165	-0.3538906	0	-103.936	-60.459	10.256	B5-03822-P03-CH1	898432	OK	0.7654325	-0.6266892	0.1461976	0	-104.909	-25.546	2.508	B5-03822-P04-CH0	898432	OK	0.6754312	-0.1516191	0.7216678	0	-132.726	-32.53	11.232	B5-03822-P04-CH1	898432	OK	0.7649109	-0.6425986	0.0444779	0	-115.315	-44.448	4.757	NA
0.67944362624775	B5-03822-P01-CH0	898440	OK	0.2085049	0.0698853	0.0701083	-0.9729988	95.203	23.509	-263.515	B5-03822-P02-CH0	898440	OK	0.7277523	0.0395468	-0.684699	0	-86.641	-107.436	-0.964	B5-03822-P02-CH1	898440	OK	0.8006442	-0.0609806	-0.5960287	0	-95.89	-81.096	9.959	B5-03822-P03-CH0	898440	OK	0.8226296	-0.4401764	-0.3598962	0	-103.823	-60.512	9.927	B5-03822-P03-CH1	898440	OK	0.7653249	-0.626824	0.1461829	0	-104.835	-25.589	2.357	B5-03822-P04-CH0	898440	OK	0.6772097	-0.1543291	0.7194231	0	-133.237	-32.704	11.07	B5-03822-P04-CH1	898440	OK	0.7646801	-0.6429015	0.0440682	0	-115.396	-44.444	4.904	NA
0.689435444280805	B5-03822-P01-CH0	898448	OK	0.2085079	0.0702616	0.0694748	-0.9730165	95.349	23.518	-263.549	B5-03822-P02-CH0	898448	OK	0.7276436	0.0406519	-0.6847497	0	-87.612	-107.232	0.985	B5-03822-P02-CH1	898448	OK	0.8026533	-0.0569446	-0.5937213	0	-96.38	-81.906	10.075	B5-03822-P03-CH0	898448	OK	0.817733	-0.442657	-0.3679232	0	-104.203	-60.211	10.682	B5-03822-P03-CH1	898448	OK	0.7652694	-0.6268766	0.1462479	0	-104.944	-25.638	2.659	B5-03822-P04-CH0	898448	OK	0.6771037	-0.1589115	0.7185247	0	-132.393	-31.717	11.766	B5-03822-P04-CH1	898448	OK	0.7641452	-0.6435552	0.0438056	0	-115.581	-44.576	5.016	NA
0.69942726231386	B5-03822-P01-CH0	898456	OK	0.2087863	0.0704413	0.0697669	-0.9729229	95.473	23.653	-263.602	B5-03822-P02-CH0	898456	OK	0.7291583	0.0449824	-0.6828651	0	-88.12	-106.215	1.662	B5-03822-P02-CH1	898456	OK	0.8038438	-0.0458044	-0.5930743	0	-96.153	-81.018	10.754	B5-03822-P03-CH0	898456	OK	0.8142583	-0.4472857	-0.3700256	0	-103.057	-60.302	11.003	B5-03822-P03-CH1	898456	OK	0.7657393	-0.6262449	0.1464943	0	-104.917	-25.61	2.87	B5-03822-P04-CH0	898456	OK	0.6779436	-0.1597198	0.7175528	0	-132.301	-32.61	12.569	B5-03822-P04-CH1	898456	OK	0.7643219	-0.6433515	0.0437129	0	-115.594	-44.56	5.217	NA
0.709419080346915	B5-03822-P01-CH0	898464	OK	0.2088202	0.070257	0.0701054	-0.9729046	95.435	23.732	-263.564	B5-03822-P02-CH0	898464	OK	0.7321879	0.0498128	-0.6792787	0	-88.02	-106.386	1.08	B5-03822-P02-CH1	898464	OK	0.8025287	-0.0398017	-0.5952844	0	-96.93	-81.834	10.619	B5-03822-P03-CH0	898464	OK	0.8104209	-0.4506285	-0.3743687	0	-102.986	-59.765	10.574	B5-03822-P03-CH1	898464	OK	0.7659833	-0.6258765	0.1467931	0	-104.81	-25.65	2.614	B5-03822-P04-CH0	898464	OK	0.6766664	-0.1632555	0.7179625	0	-131.43	-32.333	11.889	B5-03822-P04-CH1	898464	OK	0.7644255	-0.6432492	0.0434061	0	-115.465	-44.499	5.071	NA
0.719410898379971	B5-03822-P01-CH0	898472	OK	0.2091399	0.0703912	0.0704641	-0.9728003	95.556	23.848	-263.619	B5-03822-P02-CH0	898472	OK	0.7346607	0.0542826	-0.6762597	0	-88.106	-107.161	0.808	B5-03822-P02-CH1	898472	OK	0.8039882	-0.0317257	-0.5937983	0	-96.218	-81.147	10.184	B5-03822-P03-CH0	898472	OK	0.8068518	-0.4545129	-0.3773701	0	-102.838	-59.391	10.294	B5-03822-P03-CH1	898472	OK	0.7664145	-0.6252705	0.1471249	0	-104.88	-25.664	2.614	B5-03822-P04-CH0	898472	OK	0.6766304	-0.1668832	0.717162	0	-131.406	-32.688	11.475	B5-03822-P04-CH1	898472	OK	0.7647012	-0.642942	0.0431006	0	-115.564	-44.433	5.222	NA
0.729402716413026	B5-03822-P01-CH0	898480	OK	0.2090939	0.0707789	0.0697582	-0.9728329	95.75	23.889	-263.756	B5-03822-P02-CH0	898480	OK	0.7360342	0.0627158	-0.6740329	0	-88.646	-107.533	1.398	B5-03822-P02-CH1	898480	OK	0.8016765	-0.0260804	-0.5971889	0	-96.544	-82.186	10.139	B5-03822-P03-CH0	898480	OK	0.8038225	-0.4604269	-0.3766649	0	-102.131	-59.219	9.89	B5-03822-P03-CH1	898480	OK	0.7660766	-0.6256367	0.1473275	0	-105.023	-25.813	2.892	B5-03822-P04-CH0	898480	OK	0.677805	-0.170761	0.7151371	0	-131.765	-32.605	12.547	B5-03822-P04-CH1	898480	OK	0.7641709	-0.6436146	0.042464	0	-115.622	-44.435	5.476	NA
0.739394534446081	B5-03822-P01-CH0	898488	OK	0.2092071	0.070664	0.0693655	-0.972845	95.724	23.883	-263.809	B5-03822-P02-CH0	898488	OK	0.7387258	0.075177	-0.6698005	0	-88.373	-107.092	-0.659	B5-03822-P02-CH1	898488	OK	0.8004975	-0.0162232	-0.5991165	0	-95.654	-81.023	10.781	B5-03822-P03-CH0	898488	OK	0.8000116	-0.4674342	-0.3761471	0	-102.048	-59.245	9.69	B5-03822-P03-CH1	898488	OK	0.7659806	-0.6256975	0.1475681	0	-104.977	-25.907	3.033	B5-03822-P04-CH0	898488	OK	0.6779943	-0.1748074	0.713979	0	-131.756	-31.862	12.052	B5-03822-P04-CH1	898488	OK	0.7638603	-0.6439937	0.042303	0	-115.445	-44.482	5.642	NA
0.749386352479136	B5-03822-P01-CH0	898496	OK	0.2093341	0.0708573	0.0689858	-0.9728306	95.839	23.9	-263.869	B5-03822-P02-CH0	898496	OK	0.7394729	0.0902193	-0.6671134	0	-89.059	-106.09	2.145	B5-03822-P02-CH1	898496	OK	0.7957905	-0.0086781	-0.6055099	0	-95.938	-81.455	10.173	B5-03822-P03-CH0	898496	OK	0.7970225	-0.4737874	-0.3745404	0	-102.031	-59.051	9.808	B5-03822-P03-CH1	898496	OK	0.76578	-0.6259056	0.147727	0	-105.053	-26.056	3.014	B5-03822-P04-CH0	898496	OK	0.6795969	-0.1753424	0.7123223	0	-132.334	-32.26	11.884	B5-03822-P04-CH1	898496	OK	0.763491	-0.6444557	0.0419325	0	-115.578	-44.569	5.768	NA
0.759378170512191	B5-03822-P01-CH0	898504	OK	0.2094634	0.0705798	0.0687575	-0.9728391	95.721	23.915	-263.87	B5-03822-P02-CH0	898504	OK	0.7412936	0.1075746	-0.662504	0	-89.292	-106.671	1.517	B5-03822-P02-CH1	898504	OK	0.7912648	-0.0020137	-0.6114703	0	-95.302	-81.366	10.147	B5-03822-P03-CH0	898504	OK	0.7939458	-0.4785372	-0.3750362	0	-102.134	-58.641	9.62	B5-03822-P03-CH1	898504	OK	0.7657783	-0.6258863	0.1478175	0	-104.893	-25.979	2.856	B5-03822-P04-CH0	898504	OK	0.6793477	-0.1762696	0.7123312	0	-131.171	-32.093	13.801	B5-03822-P04-CH1	898504	OK	0.7632718	-0.6447468	0.0414459	0	-115.541	-44.547	5.665	NA
0.769369988545246	B5-03822-P01-CH0	898512	OK	0.2095256	0.0706176	0.0684607	-0.9728439	95.76	23.948	-263.908	B5-03822-P02-CH0	898512	OK	0.7434742	0.125494	-0.6568846	0	-88.976	-106.627	1.75	B5-03822-P02-CH1	898512	OK	0.7852238	0.0052997	-0.6191894	0	-94.84	-80.807	9.229	B5-03822-P03-CH0	898512	OK	0.7913496	-0.4864023	-0.3703762	0	-101.206	-58.144	9.638	B5-03822-P03-CH1	898512	OK	0.7656632	-0.6260525	0.1477097	0	-104.965	-26.078	2.99	B5-03822-P04-CH0	898512	OK	0.6807619	-0.1802791	0.7099738	0	-131.652	-30.845	11.905	B5-03822-P04-CH1	898512	OK	0.7629869	-0.6451176	0.0409186	0	-115.522	-44.511	5.574	NA
0.779361806578301	B5-03822-P01-CH0	898520	OK	0.2096985	0.0704594	0.0686591	-0.9728042	95.732	23.989	-263.84	B5-03822-P02-CH0	898520	OK	0.7424092	0.1418079	-0.6547664	0	-89.936	-104.267	2.518	B5-03822-P02-CH1	898520	OK	0.7792548	0.0086949	-0.6266469	0	-93.858	-81.473	8.298	B5-03822-P03-CH0	898520	OK	0.7882864	-0.4953685	-0.3649858	0	-100.536	-57.953	9.632	B5-03822-P03-CH1	898520	OK	0.7657121	-0.6259307	0.147972	0	-104.911	-26.206	2.895	B5-03822-P04-CH0	898520	OK	0.6824522	-0.1801862	0.7083727	0	-131.737	-31.47	13.402	B5-03822-P04-CH1	898520	OK	0.7629794	-0.6451443	0.0406357	0	-115.367	-44.518	5.38	NA
0.789353624611357	B5-03822-P01-CH0	898528	OK	0.2099328	0.0702802	0.0688443	-0.9727535	95.725	23.995	-263.861	B5-03822-P02-CH0	898528	OK	0.7431465	0.1529751	-0.6514076	0	-90.283	-103.423	2.195	B5-03822-P02-CH1	898528	OK	0.7737961	0.0098395	-0.6333583	0	-92.988	-81.648	6.35	B5-03822-P03-CH0	898528	OK	0.7847503	-0.5067509	-0.35689	0	-100.419	-58.006	8.106	B5-03822-P03-CH1	898528	OK	0.7659114	-0.6256215	0.1482482	0	-105.01	-26.271	2.876	B5-03822-P04-CH0	898528	OK	0.6838502	-0.1796256	0.7071658	0	-132.074	-31.372	13.482	B5-03822-P04-CH1	898528	OK	0.7633765	-0.6447201	0.0399038	0	-115.289	-44.289	5.431	NA
0.799345442644412	B5-03822-P01-CH0	898536	OK	0.2101408	0.0699325	0.0692339	-0.972706	95.622	24.05	-263.87	B5-03822-P02-CH0	898536	OK	0.7458789	0.1576925	-0.6471458	0	-89.432	-103.603	2.428	B5-03822-P02-CH1	898536	OK	0.7676078	0.0098174	-0.6408447	0	-92.166	-80.416	6.755	B5-03822-P03-CH0	898536	OK	0.7822283	-0.5153815	-0.350001	0	-99.957	-57.43	8.249	B5-03822-P03-CH1	898536	OK	0.7662796	-0.6250584	0.1487195	0	-105.006	-26.186	2.789	B5-03822-P04-CH0	898536	OK	0.6818814	-0.186475	0.707294	0	-130.953	-29.77	11.552	B5-03822-P04-CH1	898536	OK	0.7636573	-0.6444282	0.0392402	0	-115.239	-44.14	5.242	NA
0.809337260677467	B5-03822-P01-CH0	898544	OK	0.2104346	0.0699154	0.0694455	-0.9726286	95.653	24.137	-263.905	B5-03822-P02-CH0	898544	OK	0.7476235	0.1593686	-0.6447176	0	-88.888	-103.012	0.666	B5-03822-P02-CH1	898544	OK	0.7623112	0.0071183	-0.6471715	0	-91.211	-78.827	7.486	B5-03822-P03-CH0	898544	OK	0.7785579	-0.5229862	-0.3468905	0	-100.529	-57.106	8.002	B5-03822-P03-CH1	898544	OK	0.7665597	-0.6246408	0.1490307	0	-105.018	-26.095	2.941	B5-03822-P04-CH0	898544	OK	0.6801676	-0.1782255	0.7110609	0	-131.258	-31.267	13.07	B5-03822-P04-CH1	898544	OK	0.7637567	-0.644335	0.0388337	0	-115.38	-44.087	5.279	NA
0.819329078710522	B5-03822-P01-CH0	898552	OK	0.2106081	0.0701367	0.0692018	-0.9725925	95.735	24.164	-263.922	B5-03822-P02-CH0	898552	OK	0.746614	0.1582998	-0.6461492	0	-89.495	-101.877	1.737	B5-03822-P02-CH1	898552	OK	0.7582945	0.0029538	-0.6519054	0	-90.544	-78.686	6.552	B5-03822-P03-CH0	898552	OK	0.7761886	-0.5290343	-0.3430072	0	-100.506	-56.648	7.762	B5-03822-P03-CH1	898552	OK	0.7663238	-0.624834	0.1494334	0	-104.962	-26.194	2.975	B5-03822-P04-CH0	898552	OK	0.6810346	-0.17922	0.7099804	0	-131.38	-31.223	13.228	B5-03822-P04-CH1	898552	OK	0.7636428	-0.6444807	0.0386556	0	-115.263	-44.056	5.449	NA
0.829320896743577	B5-03822-P01-CH0	898560	OK	0.2110026	0.0698151	0.0697378	-0.9724918	95.606	24.203	-263.737	B5-03822-P02-CH0	898560	OK	0.748337	0.1569782	-0.6444763	0	-88.813	-100.631	1.663	B5-03822-P02-CH1	898560	OK	0.7536699	-0.0035351	-0.6572436	0	-90.207	-78.538	5.812	B5-03822-P03-CH0	898560	OK	0.775548	-0.5325811	-0.3389433	0	-100.008	-56.092	7.804	B5-03822-P03-CH1	898560	OK	0.7667861	-0.6241473	0.1499303	0	-104.977	-26.182	2.853	B5-03822-P04-CH0	898560	OK	0.681735	-0.1798689	0.7091436	0	-131.318	-31.082	13.054	B5-03822-P04-CH1	898560	OK	0.7641991	-0.6438304	0.0384974	0	-115.135	-43.817	5.21	NA
0.839312714776632	B5-03822-P01-CH0	898568	OK	0.2114443	0.0696677	0.0706084	-0.9723436	95.6	24.313	-263.654	B5-03822-P02-CH0	898568	OK	0.7503774	0.1522977	-0.6432256	0	-88.671	-101.214	0.782	B5-03822-P02-CH1	898568	OK	0.7516886	-0.0078429	-0.6594716	0	-89.176	-77.414	5.604	B5-03822-P03-CH0	898568	OK	0.7740827	-0.5320715	-0.3430683	0	-100.271	-55.604	6.669	B5-03822-P03-CH1	898568	OK	0.767554	-0.6231174	0.1502849	0	-104.981	-26.003	2.75	B5-03822-P04-CH0	898568	OK	0.6823936	-0.1798606	0.7085119	0	-131.28	-31.071	12.968	B5-03822-P04-CH1	898568	OK	0.7647944	-0.6431343	0.0383116	0	-115.152	-43.671	4.981	NA
0.849304532809687	B5-03822-P01-CH0	898576	OK	0.2114889	0.0696417	0.0705169	-0.9723425	95.581	24.359	-263.644	B5-03822-P02-CH0	898576	OK	0.7535753	0.1483655	-0.6403998	0	-87.981	-101.024	1.22	B5-03822-P02-CH1	898576	OK	0.7493218	-0.0128585	-0.6620812	0	-88.967	-77.563	5.082	B5-03822-P03-CH0	898576	OK	0.7740362	-0.5295869	-0.3469953	0	-99.683	-55.179	7.317	B5-03822-P03-CH1	898576	OK	0.7675799	-0.6230298	0.1505156	0	-104.935	-25.95	2.977	B5-03822-P04-CH0	898576	OK	0.6828035	-0.1806795	0.7079084	0	-131.309	-30.806	12.674	B5-03822-P04-CH1	898576	OK	0.7648343	-0.6431203	0.0377471	0	-115.159	-43.451	4.97	NA
0.859296350842743	B5-03822-P01-CH0	898584	OK	0.2118935	0.0697972	0.0709138	-0.9722143	95.71	24.382	-263.646	B5-03822-P02-CH0	898584	OK	0.7549163	0.1471425	-0.6391013	0	-87.829	-99.582	1.272	B5-03822-P02-CH1	898584	OK	0.7478952	-0.015666	-0.663632	0	-88.688	-76.983	4.348	B5-03822-P03-CH0	898584	OK	0.7741655	-0.5279233	-0.3492344	0	-99.499	-55.662	6.95	B5-03822-P03-CH1	898584	OK	0.7679756	-0.6224666	0.150827	0	-105.052	-26.007	3.147	B5-03822-P04-CH0	898584	OK	0.6834011	-0.1808197	0.7072957	0	-131.391	-30.812	12.506	B5-03822-P04-CH1	898584	OK	0.7650251	-0.6428903	0.0377974	0	-115.256	-43.531	4.977	NA
0.869288168875798	B5-03822-P01-CH0	898592	OK	0.2120247	0.0699384	0.0707154	-0.9721901	95.787	24.344	-263.654	B5-03822-P02-CH0	898592	OK	0.7551757	0.1443676	-0.6394276	0	-88.299	-99.902	2.618	B5-03822-P02-CH1	898592	OK	0.7463206	-0.0159975	-0.6653943	0	-88.383	-77.069	4.754	B5-03822-P03-CH0	898592	OK	0.7752664	-0.5261559	-0.3494596	0	-99.388	-55.712	7.525	B5-03822-P03-CH1	898592	OK	0.7679319	-0.6224752	0.1510141	0	-104.97	-26.044	3.255	B5-03822-P04-CH0	898592	OK	0.683728	-0.1810035	0.7069327	0	-131.419	-30.809	12.39	B5-03822-P04-CH1	898592	OK	0.7649348	-0.6430063	0.0376521	0	-115.373	-43.542	5.147	NA
0.879279986908853	B5-03822-P01-CH0	898600	OK	0.2120524	0.0701571	0.070414	-0.9721901	95.91	24.36	-263.738	B5-03822-P02-CH0	898600	OK	0.756877	0.1434572	-0.6376184	0	-88.217	-99.343	2.703	B5-03822-P02-CH1	898600	OK	0.7448549	-0.0155333	-0.6670457	0	-87.486	-76.674	3.743	B5-03822-P03-CH0	898600	OK	0.7762852	-0.5239101	-0.3505703	0	-99.886	-55.684	7.548	B5-03822-P03-CH1	898600	OK	0.7678654	-0.6225614	0.1509965	0	-105.05	-26.034	3.504	B5-03822-P04-CH0	898600	OK	0.6839816	-0.1814665	0.7065685	0	-131.45	-30.672	12.293	B5-03822-P04-CH1	898600	OK	0.7647456	-0.6432537	0.0372657	0	-115.511	-43.446	5.203	NA
0.889271804941908	B5-03822-P01-CH0	898608	OK	0.2120547	0.0702593	0.0701345	-0.9722024	95.976	24.346	-263.725	B5-03822-P02-CH0	898608	OK	0.7594765	0.1410499	-0.6350594	0	-87.569	-99.756	0.783	B5-03822-P02-CH1	898608	OK	0.7411137	-0.0153783	-0.6712034	0	-87.717	-76.567	4.317	B5-03822-P03-CH0	898608	OK	0.7779305	-0.5248803	-0.3454342	0	-99.423	-56.183	7.727	B5-03822-P03-CH1	898608	OK	0.7677229	-0.6227369	0.1509976	0	-104.908	-26.001	3.491	B5-03822-P04-CH0	898608	OK	0.6841555	-0.1811636	0.7064779	0	-131.516	-30.741	12.039	B5-03822-P04-CH1	898608	OK	0.7645032	-0.6435472	0.0371744	0	-115.576	-43.435	5.219	NA
0.899263622974963	B5-03822-P01-CH0	898616	OK	0.2118268	0.0705473	0.0689914	-0.9723131	96.052	24.21	-263.624	B5-03822-P02-CH0	898616	OK	0.7595956	0.140196	-0.635106	0	-87.576	-98.71	1.494	B5-03822-P02-CH1	898616	OK	0.7391808	-0.0149464	-0.6733412	0	-86.968	-77.057	2.762	B5-03822-P03-CH0	898616	OK	0.7781395	-0.525553	-0.3439374	0	-99.258	-56.908	7.555	B5-03822-P03-CH1	898616	OK	0.7669256	-0.6237572	0.1508381	0	-104.88	-26.185	3.558	B5-03822-P04-CH0	898616	OK	0.684642	-0.1803573	0.7062129	0	-131.609	-30.892	12.391	B5-03822-P04-CH1	898616	OK	0.7637292	-0.6444778	0.0369615	0	-115.781	-43.451	5.106	NA
0.909255441008018	B5-03822-P01-CH0	898624	OK	0.2118492	0.0707349	0.0685707	-0.9723243	96.111	24.129	-263.534	B5-03822-P02-CH0	898624	OK	0.7587354	0.1383761	-0.6365318	0	-88.301	-98.085	2.166	B5-03822-P02-CH1	898624	OK	0.7357347	-0.0165538	-0.6770675	0	-86.863	-76.717	2.61	B5-03822-P03-CH0	898624	OK	0.7778522	-0.5231063	-0.3482899	0	-100.183	-56.882	8.103	B5-03822-P03-CH1	898624	OK	0.7668228	-0.6239159	0.1507043	0	-104.914	-26.212	3.445	B5-03822-P04-CH0	898624	OK	0.6849185	-0.1799376	0.7060518	0	-131.682	-30.878	12.023	B5-03822-P04-CH1	898624	OK	0.7633199	-0.6449525	0.0371356	0	-115.851	-43.556	4.969	NA
0.919247259041074	B5-03822-P01-CH0	898632	OK	0.2118428	0.0706866	0.0683842	-0.9723423	96.106	24.057	-263.403	B5-03822-P02-CH0	898632	OK	0.7591811	0.1352921	-0.6366633	0	-88.156	-97.28	2.066	B5-03822-P02-CH1	898632	OK	0.7330415	-0.019048	-0.6799172	0	-86.745	-76.32	3.326	B5-03822-P03-CH0	898632	OK	0.7778436	-0.5228549	-0.3486864	0	-99.738	-57.256	8.304	B5-03822-P03-CH1	898632	OK	0.7669576	-0.623801	0.1504938	0	-105.073	-26.171	3.213	B5-03822-P04-CH0	898632	OK	0.6852504	-0.1794462	0.7058547	0	-131.696	-30.802	11.757	B5-03822-P04-CH1	898632	OK	0.7629746	-0.6453543	0.0372501	0	-116.01	-43.657	4.723	NA
0.929239077074129	B5-03822-P01-CH0	898640	OK	0.2118653	0.0706075	0.068582	-0.9723293	96.12	24.049	-263.497	B5-03822-P02-CH0	898640	OK	0.7588172	0.1300943	-0.6381786	0	-88.441	-97.599	2.416	B5-03822-P02-CH1	898640	OK	0.7314785	-0.0220079	-0.6815093	0	-86.148	-76.205	2.482	B5-03822-P03-CH0	898640	OK	0.7784058	-0.5219666	-0.3487624	0	-99.004	-57.348	9.125	B5-03822-P03-CH1	898640	OK	0.7672913	-0.6234448	0.1502682	0	-104.924	-26.08	3.289	B5-03822-P04-CH0	898640	OK	0.6855589	-0.1788274	0.7057122	0	-131.702	-30.682	11.504	B5-03822-P04-CH1	898640	OK	0.7628939	-0.6454413	0.0373965	0	-116.135	-43.74	4.67	NA
0.939230895107184	B5-03822-P01-CH0	898648	OK	0.2117141	0.0708395	0.0686994	-0.972337	96.22	24.105	-263.533	B5-03822-P02-CH0	898648	OK	0.760361	0.1249106	-0.6373763	0	-87.46	-97.978	1.352	B5-03822-P02-CH1	898648	OK	0.7278473	-0.0252751	-0.6852733	0	-86.972	-76.198	3.256	B5-03822-P03-CH0	898648	OK	0.7768609	-0.520396	-0.354507	0	-99.864	-57.035	9.346	B5-03822-P03-CH1	898648	OK	0.7673858	-0.6234046	0.1499523	0	-105.074	-26.152	3.463	B5-03822-P04-CH0	898648	OK	0.6863446	-0.1783779	0.705062	0	-131.898	-30.501	11.581	B5-03822-P04-CH1	898648	OK	0.7627899	-0.64556	0.0374664	0	-116.357	-43.752	4.746	NA
0.949222713140239	B5-03822-P01-CH0	898656	OK	0.2121262	0.0706829	0.0697658	-0.9721827	96.219	24.178	-263.548	B5-03822-P02-CH0	898656	OK	0.7574711	0.123217	-0.6411358	0	-88.141	-96.614	1.83	B5-03822-P02-CH1	898656	OK	0.7283834	-0.0287907	-0.6845646	0	-86.037	-76.057	1.52	B5-03822-P03-CH0	898656	OK	0.7752135	-0.5219484	-0.3558285	0	-99.739	-57.662	7.906	B5-03822-P03-CH1	898656	OK	0.768235	-0.6223783	0.149867	0	-105.197	-26.137	3.388	B5-03822-P04-CH0	898656	OK	0.6870057	-0.1769165	0.7047863	0	-131.929	-30.529	11.554	B5-03822-P04-CH1	898656	OK	0.7634074	-0.6447874	0.0381897	0	-116.344	-43.76	4.676	NA
0.959214531173294	B5-03822-P01-CH0	898664	OK	0.211952	0.0705441	0.0696194	-0.9722412	96.137	24.19	-263.561	B5-03822-P02-CH0	898664	OK	0.7578952	0.1229809	-0.6406798	0	-87.119	-95.961	1.089	B5-03822-P02-CH1	898664	OK	0.7278076	-0.0323226	-0.6850192	0	-85.695	-75.825	2.394	B5-03822-P03-CH0	898664	OK	0.7747008	-0.5232373	-0.3550512	0	-99.02	-57.256	7.826	B5-03822-P03-CH1	898664	OK	0.768247	-0.6224483	0.1495148	0	-105.225	-26.054	3.428	B5-03822-P04-CH0	898664	OK	0.6872763	-0.1766006	0.7046017	0	-132.024	-30.255	11.2	B5-03822-P04-CH1	898664	OK	0.7633262	-0.6448734	0.03836	0	-116.222	-43.553	4.676	NA
0.969206349206349	B5-03822-P01-CH0	898672	OK	0.2120908	0.0705132	0.0701989	-0.9721715	96.155	24.255	-263.55	B5-03822-P02-CH0	898672	OK	0.7556217	0.1223671	-0.6434766	0	-87.34	-95.87	1.833	B5-03822-P02-CH1	898672	OK	0.7268306	-0.0369084	-0.6858243	0	-85.952	-75.329	2.528	B5-03822-P03-CH0	898672	OK	0.7744009	-0.525835	-0.3518534	0	-98.524	-56.654	9.168	B5-03822-P03-CH1	898672	OK	0.7686401	-0.6219688	0.14949	0	-105.304	-26.039	3.536	B5-03822-P04-CH0	898672	OK	0.6878418	-0.175464	0.7043338	0	-132.14	-30.264	11.226	B5-03822-P04-CH1	898672	OK	0.7636188	-0.6445085	0.0386656	0	-116.314	-43.461	4.601	NA
