Wav.Time	B5.03822.P01.CH0	Frame	State	Q0	Qx	Qy	Qz	Tx	Ty	Tz	B5.03822.P02.CH0	Frame.1	State.1	Q0.1	Qx.1	Qy.1	Qz.1	Tx.1	Ty.1	Tz.1	B5.03822.P02.CH1	Frame.2	State.2	Q0.2	Qx.2	Qy.2	Qz.2	Tx.2	Ty.2	Tz.2	B5.03822.P03.CH0	Frame.3	State.3	Q0.3	Qx.3	Qy.3	Qz.3	Tx.3	Ty.3	Tz.3	B5.03822.P03.CH1	Frame.4	State.4	Q0.4	Qx.4	Qy.4	Qz.4	Tx.4	Ty.4	Tz.4	B5.03822.P04.CH0	Frame.5	State.5	Q0.5	Qx.5	Qy.5	Qz.5	Tx.5	Ty.5	Tz.5	B5.03822.P04.CH1	Frame.6	State.6	Q0.6	Qx.6	Qy.6	Qz.6	Tx.6	Ty.6	Tz.6	X
0	B5-03822-P01-CH0	392232	OK	0.2003403	0.1071321	0.1417553	-0.9634791	154.747	-32.549	-259.761	B5-03822-P02-CH0	392232	OK	0.6058695	0.5160313	-0.605503	0	-81.723	-103.257	-2.966	B5-03822-P02-CH1	392232	OK	0.7207047	-0.069682	-0.6897313	0	-79.496	-78.276	-4.074	B5-03822-P03-CH0	392232	OK	0.7236499	-0.022911	-0.6897868	0	-94.895	-57.329	0.633	B5-03822-P03-CH1	392232	OK	0.7635144	-0.6407266	0.0807166	0	-98.612	-9.671	-1.103	B5-03822-P04-CH0	392232	OK	0.7801004	-0.4243661	0.4597355	0	-125.034	-41.519	13.282	B5-03822-P04-CH1	392232	OK	0.8106702	-0.5802708	0.0780999	0	-107.869	-42.803	-2.467	NA
0.00999211278714384	B5-03822-P01-CH0	392240	OK	0.2002021	0.1069273	0.1413966	-0.9635833	154.653	-32.638	-259.789	B5-03822-P02-CH0	392240	OK	0.6064835	0.51526	-0.6055452	0	-81.764	-103.459	-3.186	B5-03822-P02-CH1	392240	OK	0.7216743	-0.0652466	-0.6891509	0	-80.055	-78.489	-4.61	B5-03822-P03-CH0	392240	OK	0.7224232	-0.0156131	-0.6912748	0	-96.013	-57.803	-0.284	B5-03822-P03-CH1	392240	OK	0.7579432	-0.6463686	0.0879186	0	-99.197	-15.01	2.574	B5-03822-P04-CH0	392240	OK	0.7815494	-0.4242605	0.4573659	0	-124.512	-40.119	11.801	B5-03822-P04-CH1	392240	OK	0.810473	-0.5805437	0.078119	0	-107.695	-42.743	-2.717	NA
0.0199842255742877	B5-03822-P01-CH0	392248	OK	0.2001884	0.1069839	0.1408966	-0.963653	154.653	-32.643	-259.791	B5-03822-P02-CH0	392248	OK	0.6068289	0.5145943	-0.6057651	0	-81.877	-103.493	-3.076	B5-03822-P02-CH1	392248	OK	0.7222245	-0.0610147	-0.6889623	0	-80.453	-78.74	-3.962	B5-03822-P03-CH0	392248	OK	0.7240128	-0.0054691	-0.6897649	0	-95.411	-57.614	0.402	B5-03822-P03-CH1	392248	OK	0.7582195	-0.6469265	0.0811745	0	-99.189	-13.253	1.384	B5-03822-P04-CH0	392248	OK	0.7794587	-0.4176794	0.4668919	0	-123.996	-39.684	11.313	B5-03822-P04-CH1	392248	OK	0.8101285	-0.5809824	0.0784301	0	-107.681	-42.895	-2.563	NA
0.0299763383614315	B5-03822-P01-CH0	392256	OK	0.1999969	0.1069043	0.1405405	-0.9637536	154.594	-32.738	-259.755	B5-03822-P02-CH0	392256	OK	0.6073117	0.5142629	-0.6055627	0	-81.95	-103.637	-3.19	B5-03822-P02-CH1	392256	OK	0.7241715	-0.0574188	-0.6872254	0	-80.082	-78.99	-3.87	B5-03822-P03-CH0	392256	OK	0.7236451	0.0019589	-0.6901695	0	-95.661	-58.066	0.987	B5-03822-P03-CH1	392256	OK	0.7591047	-0.646392	0.0770545	0	-99.816	-12.274	1.701	B5-03822-P04-CH0	392256	OK	0.7795109	-0.4112352	0.4724917	0	-123.69	-39.19	11.451	B5-03822-P04-CH1	392256	OK	0.8099828	-0.5812172	0.0781947	0	-107.613	-42.787	-2.782	NA
0.0399684511485754	B5-03822-P01-CH0	392264	OK	0.1996686	0.1069048	0.1402148	-0.9638691	154.534	-32.715	-259.742	B5-03822-P02-CH0	392264	OK	0.6078658	0.5140842	-0.6051583	0	-82.149	-103.79	-3.211	B5-03822-P02-CH1	392264	OK	0.723672	-0.0560777	-0.687862	0	-81.275	-79.672	-2.857	B5-03822-P03-CH0	392264	OK	0.7235342	0.0097485	-0.6902197	0	-96.041	-58.72	0.649	B5-03822-P03-CH1	392264	OK	0.7581995	-0.6476801	0.0751265	0	-100.415	-12.321	2.186	B5-03822-P04-CH0	392264	OK	0.7798825	-0.4011825	0.4804538	0	-123.888	-39.031	10.98	B5-03822-P04-CH1	392264	OK	0.8096858	-0.581636	0.0781567	0	-107.664	-42.775	-2.817	NA
0.0499605639357192	B5-03822-P01-CH0	392272	OK	0.1998221	0.1067271	0.141036	-0.9637372	154.486	-32.681	-259.747	B5-03822-P02-CH0	392272	OK	0.607407	0.51357	-0.606055	0	-82.331	-103.767	-3.242	B5-03822-P02-CH1	392272	OK	0.726315	-0.0541452	-0.6852261	0	-80.986	-79.565	-3.503	B5-03822-P03-CH0	392272	OK	0.7257338	0.0165591	-0.6877763	0	-95.544	-58.041	-0.765	B5-03822-P03-CH1	392272	OK	0.7563774	-0.6499438	0.0739337	0	-100.265	-13.143	1.414	B5-03822-P04-CH0	392272	OK	0.7809806	-0.3908674	0.4871263	0	-123.936	-38.517	10.247	B5-03822-P04-CH1	392272	OK	0.8100457	-0.5810623	0.0786924	0	-107.662	-42.891	-2.97	NA
0.0599526767228631	B5-03822-P01-CH0	392280	OK	0.1998645	0.106896	0.1412409	-0.9636796	154.506	-32.629	-259.686	B5-03822-P02-CH0	392280	OK	0.6077053	0.5131398	-0.6061203	0	-82.5	-103.832	-3.51	B5-03822-P02-CH1	392280	OK	0.7291819	-0.0535383	-0.6822224	0	-81.109	-79.894	-3.534	B5-03822-P03-CH0	392280	OK	0.7277218	0.0177044	-0.6856439	0	-95.612	-58.429	-0.192	B5-03822-P03-CH1	392280	OK	0.7538743	-0.6527095	0.0751255	0	-100.534	-15.36	3.081	B5-03822-P04-CH0	392280	OK	0.7810649	-0.3823808	0.4936826	0	-123.923	-38.673	9.404	B5-03822-P04-CH1	392280	OK	0.8102598	-0.5807366	0.0788928	0	-107.757	-42.739	-3.148	NA
0.0699447895100069	B5-03822-P01-CH0	392288	OK	0.1997691	0.1068946	0.1405794	-0.9637963	154.486	-32.758	-259.679	B5-03822-P02-CH0	392288	OK	0.6088215	0.5124135	-0.6056144	0	-82.594	-104.089	-3.671	B5-03822-P02-CH1	392288	OK	0.7321827	-0.0526871	-0.6790675	0	-81.595	-79.903	-3.865	B5-03822-P03-CH0	392288	OK	0.7302543	0.0162883	-0.6829812	0	-96.208	-58.864	0.455	B5-03822-P03-CH1	392288	OK	0.7573816	-0.6496898	0.0653933	0	-99.449	-11.166	0.3	B5-03822-P04-CH0	392288	OK	0.7813189	-0.3720901	0.5010886	0	-124.598	-39.607	10.184	B5-03822-P04-CH1	392288	OK	0.8098361	-0.5812436	0.0795076	0	-107.839	-42.903	-3.198	NA
0.0799369022971507	B5-03822-P01-CH0	392296	OK	0.1990153	0.1069577	0.1392484	-0.9641384	154.386	-32.87	-259.557	B5-03822-P02-CH0	392296	OK	0.610017	0.5125262	-0.6043146	0	-82.868	-104.071	-3.544	B5-03822-P02-CH1	392296	OK	0.735965	-0.0522143	-0.6750031	0	-81.766	-79.82	-3.219	B5-03822-P03-CH0	392296	OK	0.7345937	0.0142994	-0.6783566	0	-96.284	-59.346	1.288	B5-03822-P03-CH1	392296	OK	0.7552145	-0.6520528	0.0669196	0	-99.298	-12.421	1.017	B5-03822-P04-CH0	392296	OK	0.7811717	-0.3648538	0.5066088	0	-124.612	-39.194	10.956	B5-03822-P04-CH1	392296	OK	0.8090947	-0.5823107	0.0792463	0	-107.743	-42.763	-3.255	NA
0.0899290150842946	B5-03822-P01-CH0	392304	OK	0.1987238	0.1069584	0.1390024	-0.9642339	154.413	-32.928	-259.573	B5-03822-P02-CH0	392304	OK	0.6140484	0.5071855	-0.6047375	0	-84.179	-105.235	-4.053	B5-03822-P02-CH1	392304	OK	0.7390809	-0.0540048	-0.6714484	0	-82.175	-80.184	-2.927	B5-03822-P03-CH0	392304	OK	0.7387425	0.0107483	-0.6739021	0	-96.621	-59.511	0.981	B5-03822-P03-CH1	392304	OK	0.7569882	-0.6503244	0.063616	0	-98.845	-11.091	0.785	B5-03822-P04-CH0	392304	OK	0.7806196	-0.3539653	0.5151132	0	-125.626	-40.978	12.081	B5-03822-P04-CH1	392304	OK	0.8088433	-0.582604	0.0796555	0	-107.852	-42.884	-3.266	NA
0.0999211278714384	B5-03822-P01-CH0	392312	OK	0.1987483	0.106966	0.1392215	-0.9641964	154.454	-32.915	-259.595	B5-03822-P02-CH0	392312	OK	0.6125453	0.5048916	-0.6081717	0	-84.852	-104.886	-2.857	B5-03822-P02-CH1	392312	OK	0.7412512	-0.0575804	-0.6687534	0	-83.265	-81.027	-3.221	B5-03822-P03-CH0	392312	OK	0.7426792	0.0047902	-0.6696302	0	-97.067	-58.828	0.588	B5-03822-P03-CH1	392312	OK	0.7549439	-0.6516738	0.0733541	0	-99.689	-13.703	1.601	B5-03822-P04-CH0	392312	OK	0.7795979	-0.3479793	0.5207086	0	-125.673	-39.578	9.475	B5-03822-P04-CH1	392312	OK	0.809047	-0.5822095	0.0804673	0	-107.988	-42.781	-3.533	NA
0.109913240658582	B5-03822-P01-CH0	392320	OK	0.1985019	0.107238	0.1387018	-0.9642919	154.559	-32.949	-259.52	B5-03822-P02-CH0	392320	OK	0.6162353	0.5006733	-0.6079312	0	-84.651	-106.428	-3.004	B5-03822-P02-CH1	392320	OK	0.7433933	-0.0616898	-0.6660036	0	-84.74	-80.487	-4.156	B5-03822-P03-CH0	392320	OK	0.7462296	-0.0081997	-0.6656381	0	-97.499	-60.112	0.942	B5-03822-P03-CH1	392320	OK	0.7553446	-0.6514801	0.0709102	0	-99.931	-12.95	1.365	B5-03822-P04-CH0	392320	OK	0.780663	-0.3367806	0.5264449	0	-127.131	-42.735	11.546	B5-03822-P04-CH1	392320	OK	0.8087776	-0.5824682	0.0812996	0	-108.233	-42.717	-3.811	NA
0.119905353445726	B5-03822-P01-CH0	392328	OK	0.1982353	0.1069622	0.1388458	-0.9643566	154.438	-32.906	-259.5	B5-03822-P02-CH0	392328	OK	0.6171706	0.4933769	-0.6129271	0	-84.602	-105.925	-3.075	B5-03822-P02-CH1	392328	OK	0.7493891	-0.0683001	-0.6585978	0	-84.519	-80.434	-3.562	B5-03822-P03-CH0	392328	OK	0.7497408	-0.0171095	-0.6615103	0	-96.898	-59.949	1.184	B5-03822-P03-CH1	392328	OK	0.7570366	-0.6498697	0.0675643	0	-99.542	-11.41	0.746	B5-03822-P04-CH0	392328	OK	0.7830735	-0.3290011	0.5277823	0	-128.236	-44.475	12.959	B5-03822-P04-CH1	392328	OK	0.8089205	-0.582134	0.0822656	0	-108.275	-42.484	-4.17	NA
0.12989746623287	B5-03822-P01-CH0	392336	OK	0.1980021	0.1068156	0.1387575	-0.9644335	154.385	-32.906	-259.546	B5-03822-P02-CH0	392336	OK	0.6178505	0.480925	-0.6220706	0	-84.468	-104.922	-2.669	B5-03822-P02-CH1	392336	OK	0.7538836	-0.0790889	-0.6522304	0	-84.528	-80.8	-3.316	B5-03822-P03-CH0	392336	OK	0.7479029	-0.0286238	-0.6631907	0	-98.235	-59.413	0.262	B5-03822-P03-CH1	392336	OK	0.7586113	-0.648241	0.0655178	0	-99.072	-10.139	0.131	B5-03822-P04-CH0	392336	OK	0.7848483	-0.3280068	0.525761	0	-127.95	-43.376	11.201	B5-03822-P04-CH1	392336	OK	0.8090033	-0.5818366	0.0835459	0	-108.42	-42.353	-4.437	NA
0.139889579020014	B5-03822-P01-CH0	392344	OK	0.1980809	0.1067024	0.1391245	-0.964377	154.374	-32.81	-259.572	B5-03822-P02-CH0	392344	OK	0.6225602	0.4656629	-0.628949	0	-83.226	-104.732	-3.337	B5-03822-P02-CH1	392344	OK	0.7583771	-0.0921323	-0.6452719	0	-83.644	-80.661	-3.403	B5-03822-P03-CH0	392344	OK	0.7472327	-0.0424479	-0.6632055	0	-97.72	-59.494	0.176	B5-03822-P03-CH1	392344	OK	0.7621377	-0.6416694	0.086061	0	-98.769	-12.122	-0.519	B5-03822-P04-CH0	392344	OK	0.7869016	-0.3275871	0.522946	0	-128.595	-44.585	9.88	B5-03822-P04-CH1	392344	OK	0.8093	-0.5811664	0.0853179	0	-108.659	-42.504	-4.187	NA
0.149881691807158	B5-03822-P01-CH0	392352	OK	0.1979986	0.1065845	0.1391436	-0.9644042	154.332	-32.805	-259.581	B5-03822-P02-CH0	392352	OK	0.6276059	0.4542239	-0.6322907	0	-83.325	-105.264	-3.24	B5-03822-P02-CH1	392352	OK	0.76161	-0.103893	-0.6396534	0	-83.61	-79.929	-3.615	B5-03822-P03-CH0	392352	OK	0.7440682	-0.0506013	-0.6661847	0	-97.585	-59.032	-0.741	B5-03822-P03-CH1	392352	OK	0.7627812	-0.6392045	0.09789	0	-99.219	-13.095	-0.746	B5-03822-P04-CH0	392352	OK	0.7891422	-0.3284752	0.5189977	0	-129.088	-44.402	9.377	B5-03822-P04-CH1	392352	OK	0.8094193	-0.5807465	0.0870286	0	-108.931	-42.698	-3.972	NA
0.159873804594301	B5-03822-P01-CH0	392360	OK	0.1975933	0.1066933	0.1393919	-0.9644394	154.369	-32.829	-259.523	B5-03822-P02-CH0	392360	OK	0.6291101	0.4445407	-0.6376552	0	-83.666	-103.404	-1.715	B5-03822-P02-CH1	392360	OK	0.7643345	-0.1127431	-0.6348872	0	-84.346	-79.228	-3.965	B5-03822-P03-CH0	392360	OK	0.7398902	-0.0517982	-0.6707306	0	-97.09	-58.563	0.332	B5-03822-P03-CH1	392360	OK	0.7635127	-0.6372353	0.1047833	0	-98.522	-12.776	-2.259	B5-03822-P04-CH0	392360	OK	0.7910608	-0.3260387	0.5176113	0	-129.866	-46.379	11.237	B5-03822-P04-CH1	392360	OK	0.809531	-0.5804108	0.0882206	0	-109.221	-42.786	-4.12	NA
0.169865917381445	B5-03822-P01-CH0	392368	OK	0.197879	0.1066602	0.1404589	-0.9642296	154.398	-32.656	-259.639	B5-03822-P02-CH0	392368	OK	0.6336995	0.4326726	-0.6412638	0	-83.816	-104.27	-2.213	B5-03822-P02-CH1	392368	OK	0.7668687	-0.1211098	-0.6302736	0	-85.666	-79.934	-2.18	B5-03822-P03-CH0	392368	OK	0.7352257	-0.0482061	-0.676106	0	-97.112	-58.556	-0.632	B5-03822-P03-CH1	392368	OK	0.7670353	-0.6322104	0.1093928	0	-97.578	-10.843	-2.087	B5-03822-P04-CH0	392368	OK	0.7931619	-0.3277586	0.5132918	0	-129.351	-44.74	10.474	B5-03822-P04-CH1	392368	OK	0.8101357	-0.5792964	0.0899769	0	-109.429	-43.032	-3.844	NA
0.179858030168589	B5-03822-P01-CH0	392376	OK	0.1982427	0.1063313	0.1416403	-0.9640184	154.321	-32.475	-259.747	B5-03822-P02-CH0	392376	OK	0.6389855	0.4196253	-0.6446798	0	-83.186	-103.997	-3.076	B5-03822-P02-CH1	392376	OK	0.7721502	-0.1284614	-0.6223196	0	-85.759	-79.503	-1.836	B5-03822-P03-CH0	392376	OK	0.7301567	-0.033656	-0.6824504	0	-95.614	-58.337	-0.558	B5-03822-P03-CH1	392376	OK	0.7694909	-0.6285638	0.1130985	0	-96.514	-8.538	-4.452	B5-03822-P04-CH0	392376	OK	0.7939984	-0.3297298	0.5107297	0	-129.237	-44.005	9.905	B5-03822-P04-CH1	392376	OK	0.8108384	-0.5780556	0.0916124	0	-109.686	-43.166	-3.829	NA
0.189850142955733	B5-03822-P01-CH0	392384	OK	0.1984133	0.1061703	0.142373	-0.9638931	154.254	-32.384	-259.766	B5-03822-P02-CH0	392384	OK	0.6449561	0.4054294	-0.6478106	0	-83.071	-103.406	-2.447	B5-03822-P02-CH1	392384	OK	0.7747189	-0.1312061	-0.6185431	0	-86.724	-78.632	-2.579	B5-03822-P03-CH0	392384	OK	0.7174972	-0.0075904	-0.69652	0	-95.884	-57.759	-0.906	B5-03822-P03-CH1	392384	OK	0.7689924	-0.6277101	0.1209571	0	-97.225	-9.714	-3.807	B5-03822-P04-CH0	392384	OK	0.793483	-0.3338674	0.5088393	0	-128.309	-43.751	9.823	B5-03822-P04-CH1	392384	OK	0.8112718	-0.577285	0.0926289	0	-109.747	-43.331	-3.648	NA
0.199842255742877	B5-03822-P01-CH0	392392	OK	0.1984731	0.1063766	0.1429924	-0.9637664	154.3	-32.23	-259.776	B5-03822-P02-CH0	392392	OK	0.6526569	0.3888578	-0.6502527	0	-83.299	-102.726	-3.898	B5-03822-P02-CH1	392392	OK	0.776955	-0.136017	-0.6146872	0	-86.664	-78.281	-2.531	B5-03822-P03-CH0	392392	OK	0.7034122	0.0332646	-0.7100033	0	-94.439	-56.093	-2.116	B5-03822-P03-CH1	392392	OK	0.7678642	-0.6283354	0.1248169	0	-96.766	-10.973	-2.689	B5-03822-P04-CH0	392392	OK	0.7935566	-0.3377717	0.5061404	0	-128.359	-44.522	10.496	B5-03822-P04-CH1	392392	OK	0.8114794	-0.5769093	0.0931498	0	-109.914	-43.537	-3.405	NA
0.209834368530021	B5-03822-P01-CH0	392400	OK	0.1983819	0.1059868	0.1439783	-0.9636813	154.14	-32.115	-259.834	B5-03822-P02-CH0	392400	OK	0.6582531	0.3735015	-0.6536051	0	-83.551	-102.271	-4.067	B5-03822-P02-CH1	392400	OK	0.7756678	-0.1422956	-0.6148914	0	-87.531	-77.061	-3.671	B5-03822-P03-CH0	392400	OK	0.6886223	0.0773896	-0.7209786	0	-94.136	-55.868	-2.087	B5-03822-P03-CH1	392400	OK	0.7719971	-0.6254081	0.1135131	0	-95.235	-6.396	-5.18	B5-03822-P04-CH0	392400	OK	0.7937886	-0.3441434	0.5014627	0	-128.038	-44.141	11.042	B5-03822-P04-CH1	392400	OK	0.8118013	-0.5764214	0.0933652	0	-109.885	-43.845	-2.998	NA
0.219826481317165	B5-03822-P01-CH0	392408	OK	0.198376	0.1061048	0.1446405	-0.9635704	154.216	-32.068	-259.923	B5-03822-P02-CH0	392408	OK	0.6614136	0.3626296	-0.6565301	0	-82.547	-99.589	-4.799	B5-03822-P02-CH1	392408	OK	0.777353	-0.1459934	-0.6118891	0	-86.176	-76.464	-2.821	B5-03822-P03-CH0	392408	OK	0.6780873	0.1190552	-0.7252748	0	-93.614	-55.675	-0.531	B5-03822-P03-CH1	392408	OK	0.7692696	-0.6275807	0.119861	0	-96.851	-10.29	-2.904	B5-03822-P04-CH0	392408	OK	0.7935475	-0.3521355	0.4962691	0	-127.831	-44.561	11.671	B5-03822-P04-CH1	392408	OK	0.8120763	-0.5761161	0.0928566	0	-109.942	-44.145	-2.398	NA
0.229818594104308	B5-03822-P01-CH0	392416	OK	0.1983704	0.1062223	0.1446964	-0.9635502	154.204	-32.073	-259.886	B5-03822-P02-CH0	392416	OK	0.6648487	0.3543323	-0.6575902	0	-82.067	-99.036	-5.49	B5-03822-P02-CH1	392416	OK	0.777309	-0.1469301	-0.6117207	0	-86.031	-76.574	-3.221	B5-03822-P03-CH0	392416	OK	0.6737289	0.1483507	-0.7239347	0	-92.613	-54.106	-1.45	B5-03822-P03-CH1	392416	OK	0.7663794	-0.6294733	0.1281643	0	-98.785	-14.022	-0.131	B5-03822-P04-CH0	392416	OK	0.7932781	-0.3629668	0.4888404	0	-127.179	-43.839	12.452	B5-03822-P04-CH1	392416	OK	0.8118474	-0.5765608	0.0920948	0	-109.87	-44.352	-2.235	NA
0.239810706891452	B5-03822-P01-CH0	392424	OK	0.1980743	0.1064808	0.1442826	-0.9636446	154.242	-32.214	-259.839	B5-03822-P02-CH0	392424	OK	0.6674372	0.3500055	-0.6572851	0	-82.218	-99.923	-4.631	B5-03822-P02-CH1	392424	OK	0.7762278	-0.1445408	-0.6136598	0	-86.527	-76.61	-3.944	B5-03822-P03-CH0	392424	OK	0.6697015	0.1622433	-0.7246909	0	-94.199	-55.804	-3.136	B5-03822-P03-CH1	392424	OK	0.768264	-0.6286078	0.1209245	0	-97.587	-11.165	-1.717	B5-03822-P04-CH0	392424	OK	0.7927901	-0.3746815	0.4807262	0	-126.495	-41.373	10.591	B5-03822-P04-CH1	392424	OK	0.8113392	-0.5774733	0.0908476	0	-109.8	-44.587	-2.148	NA
0.249802819678596	B5-03822-P01-CH0	392432	OK	0.1973892	0.1067554	0.1430424	-0.9639397	154.221	-32.258	-259.875	B5-03822-P02-CH0	392432	OK	0.6684352	0.3470091	-0.6578595	0	-83.13	-99.917	-4.747	B5-03822-P02-CH1	392432	OK	0.7742566	-0.1410894	-0.6169445	0	-86.839	-76.61	-2.686	B5-03822-P03-CH0	392432	OK	0.667572	0.1722318	-0.7243506	0	-94.322	-55.287	-3.371	B5-03822-P03-CH1	392432	OK	0.7691157	-0.628558	0.1156541	0	-97.037	-9.286	-3.024	B5-03822-P04-CH0	392432	OK	0.7909319	-0.3871085	0.4738921	0	-125.649	-38.142	7.142	B5-03822-P04-CH1	392432	OK	0.8105716	-0.5789349	0.0883629	0	-109.548	-44.118	-2.309	NA
0.25979493246574	B5-03822-P01-CH0	392440	OK	0.1972467	0.1067114	0.1424984	-0.9640543	154.16	-32.234	-259.908	B5-03822-P02-CH0	392440	OK	0.6681955	0.343905	-0.6597303	0	-82.991	-98.118	-3.599	B5-03822-P02-CH1	392440	OK	0.771574	-0.1353524	-0.6215733	0	-87.019	-76.068	-1.518	B5-03822-P03-CH0	392440	OK	0.6673085	0.1741635	-0.7241315	0	-92.837	-53.149	-2.962	B5-03822-P03-CH1	392440	OK	0.7672655	-0.6299864	0.1200863	0	-97.36	-10.788	-2.1	B5-03822-P04-CH0	392440	OK	0.7893392	-0.3887659	0.4751892	0	-126.564	-41.65	10.886	B5-03822-P04-CH1	392440	OK	0.8101333	-0.579824	0.0865341	0	-109.345	-43.924	-2.258	NA
0.269787045252884	B5-03822-P01-CH0	392448	OK	0.1971238	0.1066018	0.1425088	-0.96409	154.128	-32.159	-259.925	B5-03822-P02-CH0	392448	OK	0.6714444	0.3386142	-0.6591683	0	-83.01	-99.592	-4.79	B5-03822-P02-CH1	392448	OK	0.770419	-0.1329162	-0.6235286	0	-86.483	-75.384	-3.578	B5-03822-P03-CH0	392448	OK	0.666956	0.169123	-0.7256495	0	-92.831	-53.639	-2.78	B5-03822-P03-CH1	392448	OK	0.7663233	-0.6307937	0.1218519	0	-97.461	-11.27	-1.998	B5-03822-P04-CH0	392448	OK	0.7879724	-0.3939169	0.4732113	0	-126.247	-41.431	11.671	B5-03822-P04-CH1	392448	OK	0.810161	-0.5801062	0.0843558	0	-109.166	-43.546	-2.164	NA
0.279779158040028	B5-03822-P01-CH0	392456	OK	0.196776	0.1067009	0.1419048	-0.9642392	154.089	-32.202	-259.829	B5-03822-P02-CH0	392456	OK	0.6750983	0.3334655	-0.6580601	0	-82.069	-98.744	-4.531	B5-03822-P02-CH1	392456	OK	0.7690693	-0.1340517	-0.62495	0	-86.152	-75.857	-3.186	B5-03822-P03-CH0	392456	OK	0.6687226	0.1627938	-0.725471	0	-91.704	-53.448	-1.387	B5-03822-P03-CH1	392456	OK	0.7652407	-0.6320209	0.1222956	0	-97.524	-11.546	-1.914	B5-03822-P04-CH0	392456	OK	0.7865574	-0.401675	0.4690251	0	-125.047	-39.324	11.04	B5-03822-P04-CH1	392456	OK	0.8097345	-0.5810454	0.0819534	0	-108.902	-43.196	-2.176	NA
0.289771270827171	B5-03822-P01-CH0	392464	OK	0.1965808	0.1069657	0.1415424	-0.9643029	154.176	-32.219	-259.783	B5-03822-P02-CH0	392464	OK	0.6773769	0.3296809	-0.6576254	0	-81.286	-97.373	-4.346	B5-03822-P02-CH1	392464	OK	0.7677357	-0.1338788	-0.6266245	0	-85.973	-76.235	-2.114	B5-03822-P03-CH0	392464	OK	0.6689371	0.1566344	-0.7266284	0	-91.4	-53.038	-1.334	B5-03822-P03-CH1	392464	OK	0.7643888	-0.6331243	0.121915	0	-97.478	-11.662	-1.873	B5-03822-P04-CH0	392464	OK	0.7856229	-0.4037216	0.4688342	0	-125.404	-40.207	11.339	B5-03822-P04-CH1	392464	OK	0.8093285	-0.581871	0.0800841	0	-108.843	-43.165	-1.912	NA
0.299763383614315	B5-03822-P01-CH0	392472	OK	0.1965288	0.1065085	0.1418636	-0.9643169	154.059	-32.218	-259.873	B5-03822-P02-CH0	392472	OK	0.6804528	0.3207845	-0.6588485	0	-81.711	-98.544	-6.107	B5-03822-P02-CH1	392472	OK	0.7671411	-0.133362	-0.6274624	0	-85.736	-75.571	-3.558	B5-03822-P03-CH0	392472	OK	0.6677377	0.1496809	-0.7291927	0	-92.596	-54.062	-2.295	B5-03822-P03-CH1	392472	OK	0.7635283	-0.6339022	0.1232577	0	-97.637	-12.382	-1.319	B5-03822-P04-CH0	392472	OK	0.7841647	-0.4057617	0.4695137	0	-124.923	-39.855	10.139	B5-03822-P04-CH1	392472	OK	0.8094694	-0.5819194	0.0782886	0	-108.567	-42.886	-1.938	NA
0.309755496401459	B5-03822-P01-CH0	392480	OK	0.1965517	0.1069486	0.1412328	-0.9643561	154.177	-32.206	-259.777	B5-03822-P02-CH0	392480	OK	0.6814656	0.3099224	-0.6629878	0	-81.884	-98.312	-3.527	B5-03822-P02-CH1	392480	OK	0.7658871	-0.1332801	-0.6290098	0	-85.581	-75.667	-2.42	B5-03822-P03-CH0	392480	OK	0.6682659	0.1455926	-0.7295365	0	-92.135	-53.508	-2.296	B5-03822-P03-CH1	392480	OK	0.7622744	-0.635114	0.1247718	0	-97.955	-12.8	-1.12	B5-03822-P04-CH0	392480	OK	0.7845079	-0.404588	0.4699531	0	-124.849	-40.161	12.027	B5-03822-P04-CH1	392480	OK	0.809221	-0.5825122	0.0764264	0	-108.44	-42.49	-1.94	NA
0.319747609188603	B5-03822-P01-CH0	392488	OK	0.1962339	0.1070288	0.1401277	-0.9645731	154.081	-32.243	-259.667	B5-03822-P02-CH0	392488	OK	0.6848218	0.3021516	-0.6631165	0	-81.041	-98.278	-4.812	B5-03822-P02-CH1	392488	OK	0.7641618	-0.1327614	-0.631214	0	-85.462	-75.615	-2.41	B5-03822-P03-CH0	392488	OK	0.6688899	0.1419069	-0.7296909	0	-91.484	-54.291	-1.781	B5-03822-P03-CH1	392488	OK	0.7617835	-0.6360276	0.123105	0	-97.511	-11.865	-1.666	B5-03822-P04-CH0	392488	OK	0.7849368	-0.4063638	0.4676993	0	-124.765	-38.491	10.832	B5-03822-P04-CH1	392488	OK	0.8085575	-0.5836669	0.074617	0	-108.32	-41.983	-2.465	NA
0.329739721975747	B5-03822-P01-CH0	392496	OK	0.1960143	0.1071619	0.1397175	-0.9646625	154.121	-32.208	-259.729	B5-03822-P02-CH0	392496	OK	0.6854497	0.2946315	-0.6658461	0	-81.281	-99.044	-4.864	B5-03822-P02-CH1	392496	OK	0.763193	-0.1317416	-0.6325983	0	-85.033	-76.231	-2.805	B5-03822-P03-CH0	392496	OK	0.6691323	0.1387437	-0.7300768	0	-90.68	-54.043	-1.296	B5-03822-P03-CH1	392496	OK	0.7610634	-0.6368513	0.1233	0	-97.463	-11.757	-1.741	B5-03822-P04-CH0	392496	OK	0.7858653	-0.4046615	0.4676161	0	-125.894	-39.956	12.197	B5-03822-P04-CH1	392496	OK	0.8083478	-0.5841418	0.0731585	0	-108.279	-41.672	-2.381	NA
0.339731834762891	B5-03822-P01-CH0	392504	OK	0.1960638	0.1071564	0.1399311	-0.9646221	154.118	-32.082	-259.736	B5-03822-P02-CH0	392504	OK	0.6853513	0.2878597	-0.6689024	0	-81.019	-98.685	-3.393	B5-03822-P02-CH1	392504	OK	0.7625305	-0.1320822	-0.6333258	0	-85.103	-75.896	-3.696	B5-03822-P03-CH0	392504	OK	0.6668718	0.1335254	-0.7331119	0	-91.185	-53.86	-1.074	B5-03822-P03-CH1	392504	OK	0.760769	-0.6370868	0.1238989	0	-97.42	-11.574	-1.847	B5-03822-P04-CH0	392504	OK	0.7859341	-0.4050338	0.4671778	0	-126.257	-40.588	11.451	B5-03822-P04-CH1	392504	OK	0.8085483	-0.5840346	0.0717855	0	-108.236	-41.157	-2.646	NA
0.349723947550034	B5-03822-P01-CH0	392512	OK	0.1962321	0.1069628	0.1401736	-0.9645741	154.077	-32.04	-259.74	B5-03822-P02-CH0	392512	OK	0.683746	0.2845021	-0.6719747	0	-80.851	-97.429	-3.118	B5-03822-P02-CH1	392512	OK	0.7605428	-0.1335268	-0.6354095	0	-85.289	-76.07	-3.678	B5-03822-P03-CH0	392512	OK	0.6649497	0.1275776	-0.7359116	0	-91.473	-54.375	-0.798	B5-03822-P03-CH1	392512	OK	0.7602622	-0.6374349	0.1252124	0	-97.355	-11.857	-1.741	B5-03822-P04-CH0	392512	OK	0.7854894	-0.4065013	0.466651	0	-124.771	-38.123	10.05	B5-03822-P04-CH1	392512	OK	0.8085753	-0.5840554	0.0713115	0	-108.13	-41.202	-2.504	NA
0.359716060337178	B5-03822-P01-CH0	392520	OK	0.1963444	0.1067315	0.1406075	-0.9645138	154.007	-31.981	-259.756	B5-03822-P02-CH0	392520	OK	0.683884	0.2827373	-0.6725788	0	-79.782	-97.252	-4.825	B5-03822-P02-CH1	392520	OK	0.7589784	-0.1348208	-0.6370048	0	-84.725	-76.114	-2.854	B5-03822-P03-CH0	392520	OK	0.6636214	0.1216239	-0.7381154	0	-91.413	-54.115	-1.252	B5-03822-P03-CH1	392520	OK	0.7607622	-0.6368646	0.1250779	0	-97.152	-11.199	-2.184	B5-03822-P04-CH0	392520	OK	0.7855948	-0.4070217	0.4660195	0	-124.728	-38.356	10.589	B5-03822-P04-CH1	392520	OK	0.8088666	-0.5837423	0.0705669	0	-108.004	-41.077	-2.361	NA
0.369708173124322	B5-03822-P01-CH0	392528	OK	0.1965365	0.1069867	0.1403866	-0.9644785	154.115	-32.018	-259.793	B5-03822-P02-CH0	392528	OK	0.6816143	0.2800787	-0.6759866	0	-79.741	-97.827	-3.913	B5-03822-P02-CH1	392528	OK	0.756582	-0.1362998	-0.6395357	0	-83.784	-76.034	-3.137	B5-03822-P03-CH0	392528	OK	0.6631143	0.1155064	-0.7395523	0	-90.723	-54.826	-0.412	B5-03822-P03-CH1	392528	OK	0.7606924	-0.636884	0.1254027	0	-97.021	-10.96	-2.37	B5-03822-P04-CH0	392528	OK	0.7855882	-0.4073756	0.4657213	0	-124.8	-38.768	11.068	B5-03822-P04-CH1	392528	OK	0.8087296	-0.5839744	0.0702166	0	-107.998	-41.18	-2.178	NA
0.379700285911466	B5-03822-P01-CH0	392536	OK	0.1966463	0.1070166	0.1402331	-0.9644752	154.207	-32.096	-259.939	B5-03822-P02-CH0	392536	OK	0.6772059	0.280668	-0.68016	0	-80.466	-98.491	-2.041	B5-03822-P02-CH1	392536	OK	0.7512446	-0.1377781	-0.6454834	0	-83.271	-75.887	-3.03	B5-03822-P03-CH0	392536	OK	0.6634688	0.1097426	-0.7401119	0	-89.66	-53.829	0.582	B5-03822-P03-CH1	392536	OK	0.7606834	-0.6368169	0.1257979	0	-96.852	-10.911	-2.227	B5-03822-P04-CH0	392536	OK	0.7855427	-0.4073476	0.4658226	0	-124.96	-39.305	11.403	B5-03822-P04-CH1	392536	OK	0.8086347	-0.5841397	0.0699339	0	-108.042	-41.254	-2.214	NA
0.38969239869861	B5-03822-P01-CH0	392544	OK	0.1965916	0.1070007	0.1399592	-0.9645279	154.181	-32.088	-259.948	B5-03822-P02-CH0	392544	OK	0.6750608	0.2839509	-0.6809293	0	-79.633	-98.216	-4.04	B5-03822-P02-CH1	392544	OK	0.7418987	-0.1373718	-0.6562891	0	-83.574	-75.35	-3.453	B5-03822-P03-CH0	392544	OK	0.6652578	0.1033461	-0.7394265	0	-91.146	-54.75	-0.594	B5-03822-P03-CH1	392544	OK	0.7605382	-0.6368248	0.1266328	0	-96.895	-10.877	-2.231	B5-03822-P04-CH0	392544	OK	0.785493	-0.4079584	0.4653715	0	-124.89	-39.242	11.415	B5-03822-P04-CH1	392544	OK	0.8086124	-0.5842357	0.0693875	0	-107.99	-40.955	-2.463	NA
0.399684511485754	B5-03822-P01-CH0	392552	OK	0.1969281	0.1070757	0.139977	-0.9644483	154.295	-32.082	-260.034	B5-03822-P02-CH0	392552	OK	0.670282	0.2864821	-0.6845802	0	-79.845	-97.968	-3.096	B5-03822-P02-CH1	392552	OK	0.7346472	-0.1361565	-0.6646464	0	-81.844	-74.883	-3.353	B5-03822-P03-CH0	392552	OK	0.6709921	0.0969037	-0.7351049	0	-91.523	-54.986	-0.744	B5-03822-P03-CH1	392552	OK	0.7613598	-0.6360298	0.1256872	0	-96.713	-10.05	-2.822	B5-03822-P04-CH0	392552	OK	0.7857528	-0.4081322	0.4647802	0	-124.959	-39.126	11.234	B5-03822-P04-CH1	392552	OK	0.8087034	-0.584097	0.069495	0	-107.987	-41.014	-2.325	NA
0.409676624272898	B5-03822-P01-CH0	392560	OK	0.1969353	0.1069331	0.1401704	-0.9644346	154.234	-32.08	-260.048	B5-03822-P02-CH0	392560	OK	0.6655651	0.2911772	-0.6871964	0	-79.515	-97.076	-2.68	B5-03822-P02-CH1	392560	OK	0.7272506	-0.1350782	-0.6729491	0	-80.681	-74.325	-3.992	B5-03822-P03-CH0	392560	OK	0.676086	0.0970497	-0.7304034	0	-91.623	-54.634	-0.264	B5-03822-P03-CH1	392560	OK	0.7619552	-0.6354489	0.1250158	0	-96.415	-9.631	-2.956	B5-03822-P04-CH0	392560	OK	0.786038	-0.4085311	0.4639468	0	-124.966	-39.022	11.218	B5-03822-P04-CH1	392560	OK	0.808771	-0.5840081	0.0694546	0	-108.022	-41.093	-2.254	NA
0.419668737060041	B5-03822-P01-CH0	392568	OK	0.1969923	0.1068827	0.1403675	-0.9643999	154.297	-32.135	-260.118	B5-03822-P02-CH0	392568	OK	0.6637862	0.2949527	-0.6873069	0	-78.517	-97.345	-4.018	B5-03822-P02-CH1	392568	OK	0.7211064	-0.1327465	-0.6799882	0	-80.124	-75.007	-4.093	B5-03822-P03-CH0	392568	OK	0.6766791	0.100366	-0.7294053	0	-92.806	-54.326	-2.013	B5-03822-P03-CH1	392568	OK	0.7618585	-0.6353245	0.1262318	0	-96.579	-10.123	-2.765	B5-03822-P04-CH0	392568	OK	0.7861642	-0.4087692	0.463523	0	-125.073	-39.371	11.382	B5-03822-P04-CH1	392568	OK	0.8089542	-0.5837738	0.0692907	0	-107.991	-41.143	-2.156	NA
0.429660849847185	B5-03822-P01-CH0	392576	OK	0.1972203	0.1065844	0.1411426	-0.9642731	154.25	-32.106	-260.109	B5-03822-P02-CH0	392576	OK	0.6591902	0.2960404	-0.6912513	0	-79.836	-98.947	-2.939	B5-03822-P02-CH1	392576	OK	0.7169715	-0.1289384	-0.6850743	0	-80.287	-75.305	-4.518	B5-03822-P03-CH0	392576	OK	0.6793938	0.1043726	-0.7263129	0	-90.972	-53.562	-0.337	B5-03822-P03-CH1	392576	OK	0.7629113	-0.6341691	0.1256813	0	-96.385	-9.709	-2.836	B5-03822-P04-CH0	392576	OK	0.7864887	-0.4089849	0.4627817	0	-124.976	-39.275	11.168	B5-03822-P04-CH1	392576	OK	0.8093828	-0.5831498	0.0695397	0	-107.914	-41.106	-2.464	NA
0.439652962634329	B5-03822-P01-CH0	392584	OK	0.1972605	0.1065279	0.1409405	-0.9643007	154.237	-32.133	-260.11	B5-03822-P02-CH0	392584	OK	0.6559053	0.2980534	-0.6935074	0	-79.61	-98.086	-2.593	B5-03822-P02-CH1	392584	OK	0.7142704	-0.1267083	-0.6883043	0	-80.672	-75.408	-4.684	B5-03822-P03-CH0	392584	OK	0.6809185	0.1074289	-0.7244371	0	-92.012	-55.407	-0.74	B5-03822-P03-CH1	392584	OK	0.7628831	-0.6341642	0.1258774	0	-96.33	-9.875	-2.593	B5-03822-P04-CH0	392584	OK	0.7865209	-0.409462	0.4623049	0	-124.976	-39.185	11.082	B5-03822-P04-CH1	392584	OK	0.8093504	-0.5831701	0.069746	0	-107.88	-41.113	-2.421	NA
0.449645075421473	B5-03822-P01-CH0	392592	OK	0.1975629	0.1065475	0.1415208	-0.9641517	154.268	-32.096	-260.071	B5-03822-P02-CH0	392592	OK	0.6540089	0.3012107	-0.693934	0	-79.294	-97.692	-4.749	B5-03822-P02-CH1	392592	OK	0.7126216	-0.1224327	-0.6907826	0	-81.014	-75.987	-3.835	B5-03822-P03-CH0	392592	OK	0.685636	0.1055675	-0.7202491	0	-92.133	-54.804	-1.067	B5-03822-P03-CH1	392592	OK	0.7632305	-0.6336606	0.1263067	0	-96.422	-10.087	-2.511	B5-03822-P04-CH0	392592	OK	0.7869538	-0.4081997	0.4626842	0	-125.291	-39.618	11.23	B5-03822-P04-CH1	392592	OK	0.8097507	-0.5825438	0.0703312	0	-108.06	-41.192	-2.376	NA
0.459637188208617	B5-03822-P01-CH0	392600	OK	0.1973298	0.1065208	0.1408746	-0.964297	154.204	-32.137	-260.061	B5-03822-P02-CH0	392600	OK	0.6523298	0.3042083	-0.6942068	0	-79.829	-98.805	-4.053	B5-03822-P02-CH1	392600	OK	0.714677	-0.1164952	-0.6896852	0	-79.264	-75.525	-4.38	B5-03822-P03-CH0	392600	OK	0.6915081	0.0917802	-0.7165144	0	-93.453	-56.15	-0.631	B5-03822-P03-CH1	392600	OK	0.7625363	-0.6344245	0.1266644	0	-96.368	-10.497	-2.215	B5-03822-P04-CH0	392600	OK	0.7865917	-0.4078729	0.4635874	0	-125.535	-40.137	11.43	B5-03822-P04-CH1	392600	OK	0.8093907	-0.5830167	0.0705563	0	-108.04	-40.975	-2.792	NA
0.469629300995761	B5-03822-P01-CH0	392608	OK	0.1970924	0.106495	0.1407873	-0.9643611	154.174	-32.189	-260.022	B5-03822-P02-CH0	392608	OK	0.6491891	0.3077819	-0.6955744	0	-80.555	-99.004	-2.445	B5-03822-P02-CH1	392608	OK	0.7129976	-0.1102752	-0.6924405	0	-80.232	-76.606	-3.49	B5-03822-P03-CH0	392608	OK	0.7012374	0.0756106	-0.708907	0	-93.396	-56.475	-0.478	B5-03822-P03-CH1	392608	OK	0.7623972	-0.6345957	0.1266443	0	-96.417	-10.694	-2.097	B5-03822-P04-CH0	392608	OK	0.7865977	-0.4075372	0.4638723	0	-125.669	-40.25	11.423	B5-03822-P04-CH1	392608	OK	0.8094526	-0.5828942	0.0708581	0	-108.136	-40.732	-3.223	NA
0.479621413782904	B5-03822-P01-CH0	392616	OK	0.1971347	0.1064186	0.1409349	-0.9643393	154.099	-32.108	-259.935	B5-03822-P02-CH0	392616	OK	0.6484789	0.3107086	-0.6949354	0	-80.426	-99.212	-4.115	B5-03822-P02-CH1	392616	OK	0.7125107	-0.1024745	-0.694138	0	-80.491	-76.525	-4.196	B5-03822-P03-CH0	392616	OK	0.709331	0.052564	-0.7029129	0	-94.428	-55.929	-1.853	B5-03822-P03-CH1	392616	OK	0.7622397	-0.6345828	0.1276533	0	-96.687	-11.106	-1.874	B5-03822-P04-CH0	392616	OK	0.7867536	-0.4062506	0.4647357	0	-125.853	-40.546	11.604	B5-03822-P04-CH1	392616	OK	0.8096346	-0.5825207	0.0718423	0	-108.147	-40.542	-3.55	NA
0.489613526570048	B5-03822-P01-CH0	392624	OK	0.1970774	0.106451	0.1408962	-0.9643531	154.12	-32.164	-259.984	B5-03822-P02-CH0	392624	OK	0.6460762	0.3130293	-0.6961309	0	-81.319	-100.149	-2.131	B5-03822-P02-CH1	392624	OK	0.7115757	-0.0986506	-0.6956494	0	-81.033	-76.773	-3.898	B5-03822-P03-CH0	392624	OK	0.72222	0.0205188	-0.691359	0	-94.303	-57.082	-0.637	B5-03822-P03-CH1	392624	OK	0.761932	-0.6348945	0.1279395	0	-96.7	-11.552	-1.581	B5-03822-P04-CH0	392624	OK	0.7870152	-0.4052359	0.4651784	0	-126.013	-40.865	12.009	B5-03822-P04-CH1	392624	OK	0.8095986	-0.58241	0.0731343	0	-108.295	-40.758	-3.594	NA
0.499605639357192	B5-03822-P01-CH0	392632	OK	0.1967412	0.1065534	0.1399238	-0.964552	154.006	-32.255	-259.818	B5-03822-P02-CH0	392632	OK	0.6466031	0.3171186	-0.6937869	0	-81.199	-100.187	-3.503	B5-03822-P02-CH1	392632	OK	0.710938	-0.0969548	-0.6965393	0	-81.384	-77.667	-3.419	B5-03822-P03-CH0	392632	OK	0.7367944	-0.0191454	-0.6758457	0	-95.82	-57.272	-1.741	B5-03822-P03-CH1	392632	OK	0.7613469	-0.6356355	0.1277433	0	-96.634	-11.671	-1.459	B5-03822-P04-CH0	392632	OK	0.7868333	-0.4046037	0.4660356	0	-126.25	-41.294	12.246	B5-03822-P04-CH1	392632	OK	0.8090065	-0.5830458	0.0746059	0	-108.451	-40.885	-3.876	NA
0.509597752144336	B5-03822-P01-CH0	392640	OK	0.1970938	0.1063331	0.1405644	-0.9644112	154.013	-32.2	-259.933	B5-03822-P02-CH0	392640	OK	0.6461152	0.3194666	-0.6931639	0	-81.846	-100.801	-3.561	B5-03822-P02-CH1	392640	OK	0.7140076	-0.0961917	-0.6934986	0	-80.347	-77.726	-3.977	B5-03822-P03-CH0	392640	OK	0.7510579	-0.0558285	-0.6578717	0	-96.562	-58.504	-0.046	B5-03822-P03-CH1	392640	OK	0.7614133	-0.6353055	0.128983	0	-96.87	-12.28	-1.055	B5-03822-P04-CH0	392640	OK	0.7871702	-0.4034304	0.4664835	0	-126.347	-41.427	11.963	B5-03822-P04-CH1	392640	OK	0.8094997	-0.5820958	0.0766472	0	-108.621	-41.009	-4.015	NA
0.51958986493148	B5-03822-P01-CH0	392648	OK	0.1970003	0.1062986	0.1400924	-0.9645028	153.921	-32.235	-259.897	B5-03822-P02-CH0	392648	OK	0.6473106	0.3235878	-0.6901304	0	-81.774	-101.529	-2.319	B5-03822-P02-CH1	392648	OK	0.715176	-0.0954468	-0.6923967	0	-80.442	-78.015	-4.263	B5-03822-P03-CH0	392648	OK	0.760624	-0.0840048	-0.6437346	0	-97.367	-59.015	0.344	B5-03822-P03-CH1	392648	OK	0.761181	-0.6356951	0.1284336	0	-96.755	-12.181	-1.265	B5-03822-P04-CH0	392648	OK	0.7872183	-0.4028408	0.4669118	0	-126.417	-41.388	11.813	B5-03822-P04-CH1	392648	OK	0.8091602	-0.582285	0.078766	0	-108.843	-41.369	-3.939	NA
0.529581977718624	B5-03822-P01-CH0	392656	OK	0.1969312	0.1068223	0.1395314	-0.9645404	154.096	-32.246	-259.93	B5-03822-P02-CH0	392656	OK	0.647435	0.3276319	-0.6881026	0	-82.305	-101.982	-1.689	B5-03822-P02-CH1	392656	OK	0.715897	-0.0943163	-0.6918062	0	-80.457	-77.419	-4.568	B5-03822-P03-CH0	392656	OK	0.7652815	-0.1028362	-0.6354281	0	-97.707	-58.998	0.261	B5-03822-P03-CH1	392656	OK	0.7607449	-0.6362544	0.1282483	0	-96.918	-12.377	-1.193	B5-03822-P04-CH0	392656	OK	0.7874343	-0.4020444	0.4672339	0	-126.767	-41.625	11.987	B5-03822-P04-CH1	392656	OK	0.8087824	-0.5825748	0.0804835	0	-109.231	-41.818	-3.673	NA
0.539574090505767	B5-03822-P01-CH0	392664	OK	0.1968458	0.1067182	0.1394387	-0.9645827	154.006	-32.307	-259.889	B5-03822-P02-CH0	392664	OK	0.6484685	0.3311935	-0.6854192	0	-81.865	-101.242	-2.477	B5-03822-P02-CH1	392664	OK	0.7153998	-0.0950231	-0.6922237	0	-81.281	-77.664	-4.125	B5-03822-P03-CH0	392664	OK	0.7657152	-0.1144053	-0.6329231	0	-98.215	-58.566	-0.008	B5-03822-P03-CH1	392664	OK	0.7605033	-0.6365267	0.12833	0	-96.932	-12.531	-1.41	B5-03822-P04-CH0	392664	OK	0.7874499	-0.4017267	0.4674809	0	-126.774	-41.694	11.674	B5-03822-P04-CH1	392664	OK	0.8086943	-0.5824638	0.0821553	0	-109.324	-42.052	-3.87	NA
0.549566203292911	B5-03822-P01-CH0	392672	OK	0.1965187	0.107025	0.1387841	-0.9647098	154.065	-32.35	-259.863	B5-03822-P02-CH0	392672	OK	0.6502642	0.3323482	-0.6831553	0	-82.298	-102.863	-2.116	B5-03822-P02-CH1	392672	OK	0.7178855	-0.0932348	-0.6898896	0	-80.933	-77.042	-3.867	B5-03822-P03-CH0	392672	OK	0.7651907	-0.1180044	-0.6328966	0	-97.907	-58.095	0.242	B5-03822-P03-CH1	392672	OK	0.7600849	-0.6370909	0.1280082	0	-97.075	-12.581	-1.335	B5-03822-P04-CH0	392672	OK	0.7875644	-0.4015286	0.4674581	0	-127.047	-41.905	11.902	B5-03822-P04-CH1	392672	OK	0.8081746	-0.5829713	0.0836554	0	-109.476	-42.426	-3.743	NA
0.559558316080055	B5-03822-P01-CH0	392680	OK	0.1967736	0.1072008	0.139161	-0.964584	154.156	-32.335	-259.863	B5-03822-P02-CH0	392680	OK	0.6509726	0.3330327	-0.6821465	0	-82.346	-102.702	-2.762	B5-03822-P02-CH1	392680	OK	0.7200007	-0.0926666	-0.6877586	0	-81.548	-77.866	-3.243	B5-03822-P03-CH0	392680	OK	0.7625339	-0.111455	-0.6372753	0	-97.844	-58.537	-0.045	B5-03822-P03-CH1	392680	OK	0.7609966	-0.6362871	0.1265815	0	-97.012	-11.914	-1.792	B5-03822-P04-CH0	392680	OK	0.787986	-0.4018425	0.4664768	0	-126.984	-41.6	11.5	B5-03822-P04-CH1	392680	OK	0.8084238	-0.582362	0.0854723	0	-109.683	-42.818	-3.606	NA
0.569550428867199	B5-03822-P01-CH0	392688	OK	0.1967943	0.107121	0.1387675	-0.9646454	154.027	-32.321	-259.779	B5-03822-P02-CH0	392688	OK	0.6498504	0.3347268	-0.6823873	0	-83.021	-101.794	-2.278	B5-03822-P02-CH1	392688	OK	0.7213716	-0.0905113	-0.6866081	0	-82.139	-78.127	-2.79	B5-03822-P03-CH0	392688	OK	0.7586	-0.0970416	-0.6442895	0	-97.721	-57.888	-0.399	B5-03822-P03-CH1	392688	OK	0.7609778	-0.636445	0.1258991	0	-96.885	-11.611	-2.054	B5-03822-P04-CH0	392688	OK	0.7880462	-0.4025999	0.4657216	0	-126.902	-41.352	11.229	B5-03822-P04-CH1	392688	OK	0.8080487	-0.5826553	0.0870063	0	-109.743	-43.27	-3.278	NA
0.579542541654343	B5-03822-P01-CH0	392696	OK	0.1970712	0.1071082	0.1395173	-0.9644821	154.051	-32.265	-259.825	B5-03822-P02-CH0	392696	OK	0.6505785	0.3354758	-0.6813249	0	-83.057	-102.43	-3.644	B5-03822-P02-CH1	392696	OK	0.7235129	-0.0877416	-0.684712	0	-82.024	-78.08	-2.57	B5-03822-P03-CH0	392696	OK	0.7532333	-0.0776654	-0.6531522	0	-97.259	-58.33	0.211	B5-03822-P03-CH1	392696	OK	0.762031	-0.6355441	0.1240666	0	-96.614	-10.856	-2.564	B5-03822-P04-CH0	392696	OK	0.78861	-0.4031459	0.4642926	0	-126.892	-41.064	10.87	B5-03822-P04-CH1	392696	OK	0.8085325	-0.5818589	0.0878377	0	-109.804	-43.482	-3.06	NA
0.589534654441487	B5-03822-P01-CH0	392704	OK	0.1971197	0.1070581	0.1394257	-0.964491	153.967	-32.2	-259.79	B5-03822-P02-CH0	392704	OK	0.6517831	0.3379489	-0.6789473	0	-82.441	-101.811	-4.787	B5-03822-P02-CH1	392704	OK	0.7250814	-0.0871845	-0.6831221	0	-82.402	-78.547	-3.357	B5-03822-P03-CH0	392704	OK	0.7463464	-0.0514596	-0.6635653	0	-96.847	-58.082	-0.508	B5-03822-P03-CH1	392704	OK	0.7622212	-0.635455	0.123352	0	-96.652	-10.456	-2.88	B5-03822-P04-CH0	392704	OK	0.7886983	-0.4042682	0.4631654	0	-126.878	-40.857	10.544	B5-03822-P04-CH1	392704	OK	0.808479	-0.5818584	0.0883321	0	-109.751	-43.533	-2.971	NA
0.599526767228631	B5-03822-P01-CH0	392712	OK	0.1973205	0.107068	0.1399475	-0.9643733	154.016	-32.166	-259.827	B5-03822-P02-CH0	392712	OK	0.6515904	0.3385866	-0.6788144	0	-82.464	-101.813	-2.863	B5-03822-P02-CH1	392712	OK	0.7277848	-0.0852619	-0.6804849	0	-82.212	-77.921	-4.208	B5-03822-P03-CH0	392712	OK	0.7376628	-0.0199292	-0.6748751	0	-96.869	-58.346	-0.5	B5-03822-P03-CH1	392712	OK	0.7616121	-0.6359052	0.124786	0	-96.965	-11.408	-2.453	B5-03822-P04-CH0	392712	OK	0.7892069	-0.405163	0.4615142	0	-126.849	-40.552	10.34	B5-03822-P04-CH1	392712	OK	0.8089071	-0.5812564	0.0883759	0	-109.849	-43.618	-2.681	NA
0.609518880015774	B5-03822-P01-CH0	392720	OK	0.1971957	0.1071061	0.1397192	-0.9644277	154	-32.227	-259.792	B5-03822-P02-CH0	392720	OK	0.6526073	0.3381689	-0.6780453	0	-82.118	-101.04	-3.227	B5-03822-P02-CH1	392720	OK	0.7285436	-0.0864735	-0.6795193	0	-83.208	-78.464	-3.252	B5-03822-P03-CH0	392720	OK	0.7284224	0.0198521	-0.6848406	0	-96.133	-58.242	-2.088	B5-03822-P03-CH1	392720	OK	0.7613525	-0.6362893	0.1244119	0	-97.061	-11.416	-2.529	B5-03822-P04-CH0	392720	OK	0.7891636	-0.4063885	0.4605097	0	-126.767	-40.68	10.482	B5-03822-P04-CH1	392720	OK	0.8086541	-0.5816518	0.0880896	0	-109.738	-43.708	-2.725	NA
0.619510992802918	B5-03822-P01-CH0	392728	OK	0.1974355	0.10703	0.1404554	-0.9642801	154.039	-32.113	-259.835	B5-03822-P02-CH0	392728	OK	0.654312	0.3360984	-0.6774316	0	-82.169	-101.868	-4.328	B5-03822-P02-CH1	392728	OK	0.7302963	-0.0869301	-0.6775769	0	-83.149	-77.316	-4.879	B5-03822-P03-CH0	392728	OK	0.7156275	0.0656549	-0.6953896	0	-96.092	-57.66	-2.141	B5-03822-P03-CH1	392728	OK	0.7617616	-0.6358501	0.1241528	0	-97.175	-11.367	-2.39	B5-03822-P04-CH0	392728	OK	0.7894406	-0.4074211	0.4591204	0	-126.691	-40.587	10.346	B5-03822-P04-CH1	392728	OK	0.8091556	-0.5810381	0.087533	0	-109.586	-43.456	-2.896	NA
0.629503105590062	B5-03822-P01-CH0	392736	OK	0.1974148	0.1067018	0.1407776	-0.9642737	153.9	-32.113	-259.777	B5-03822-P02-CH0	392736	OK	0.6547178	0.337268	-0.6764576	0	-81.639	-100.738	-4.59	B5-03822-P02-CH1	392736	OK	0.7307787	-0.0898317	-0.6766777	0	-82.408	-76.999	-5.257	B5-03822-P03-CH0	392736	OK	0.7027531	0.1115425	-0.7026353	0	-95.449	-57.029	-0.927	B5-03822-P03-CH1	392736	OK	0.7618006	-0.6359112	0.1235994	0	-97.092	-11.292	-2.493	B5-03822-P04-CH0	392736	OK	0.7893063	-0.408986	0.4579585	0	-126.459	-40.422	9.995	B5-03822-P04-CH1	392736	OK	0.8094067	-0.5807852	0.0868872	0	-109.436	-43.384	-2.686	NA
0.639495218377206	B5-03822-P01-CH0	392744	OK	0.1975558	0.1064994	0.1414335	-0.9641712	153.916	-32.095	-259.885	B5-03822-P02-CH0	392744	OK	0.6518142	0.3424427	-0.6766619	0	-81.995	-100.125	-2.402	B5-03822-P02-CH1	392744	OK	0.7299059	-0.091725	-0.6773654	0	-81.899	-77.01	-4.406	B5-03822-P03-CH0	392744	OK	0.6957024	0.1428598	-0.703981	0	-94.211	-56.955	-1.193	B5-03822-P03-CH1	392744	OK	0.7621374	-0.6356361	0.1229358	0	-97.072	-11.27	-2.377	B5-03822-P04-CH0	392744	OK	0.7895589	-0.4098209	0.4567753	0	-126.337	-40.599	10.486	B5-03822-P04-CH1	392744	OK	0.8097015	-0.5804557	0.0863405	0	-109.341	-43.535	-2.333	NA
0.64948733116435	B5-03822-P01-CH0	392752	OK	0.1977344	0.1065176	0.1413851	-0.9641397	153.974	-32.145	-259.934	B5-03822-P02-CH0	392752	OK	0.6517808	0.3389602	-0.6784451	0	-81.817	-100.859	-3.666	B5-03822-P02-CH1	392752	OK	0.7280396	-0.0963581	-0.6787293	0	-82.157	-76.732	-3.488	B5-03822-P03-CH0	392752	OK	0.6943604	0.1557688	-0.7025666	0	-94.934	-57.703	-2.763	B5-03822-P03-CH1	392752	OK	0.7620669	-0.6358002	0.1225241	0	-97.093	-11.328	-2.367	B5-03822-P04-CH0	392752	OK	0.7894391	-0.411922	0.4550892	0	-126.044	-40.276	10.28	B5-03822-P04-CH1	392752	OK	0.8099206	-0.580318	0.0852038	0	-109.315	-43.261	-2.35	NA
0.659479443951494	B5-03822-P01-CH0	392760	OK	0.1976441	0.1066637	0.1410448	-0.9641919	154.057	-32.172	-259.924	B5-03822-P02-CH0	392760	OK	0.6516671	0.3560578	-0.6697409	0	-80.848	-100.562	-2.652	B5-03822-P02-CH1	392760	OK	0.7282223	-0.1021	-0.677693	0	-81.366	-76.516	-3.621	B5-03822-P03-CH0	392760	OK	0.6972071	0.1626035	-0.698185	0	-94.71	-57.458	-2.256	B5-03822-P03-CH1	392760	OK	0.76189	-0.6362189	0.1214459	0	-97.088	-11.267	-2.345	B5-03822-P04-CH0	392760	OK	0.7892831	-0.4135283	0.4539014	0	-126.029	-40.337	10.512	B5-03822-P04-CH1	392760	OK	0.8095395	-0.5809723	0.0843624	0	-109.281	-43.458	-1.926	NA
0.669471556738637	B5-03822-P01-CH0	392768	OK	0.197518	0.1066886	0.1411252	-0.9642032	154.142	-32.198	-259.997	B5-03822-P02-CH0	392768	OK	0.6521316	0.3645521	-0.6647	0	-80.429	-100.119	-4.398	B5-03822-P02-CH1	392768	OK	0.7277392	-0.1073902	-0.6773943	0	-80.689	-76.373	-3.584	B5-03822-P03-CH0	392768	OK	0.6993847	0.1614214	-0.6962788	0	-94.949	-57.103	-3.446	B5-03822-P03-CH1	392768	OK	0.7615774	-0.6366506	0.1211442	0	-97.187	-11.614	-2.048	B5-03822-P04-CH0	392768	OK	0.7892161	-0.4150044	0.452669	0	-125.998	-40.429	10.722	B5-03822-P04-CH1	392768	OK	0.8095004	-0.5811835	0.0832762	0	-109.209	-43.504	-1.625	NA
0.679463669525781	B5-03822-P01-CH0	392776	OK	0.1971253	0.1067865	0.1400398	-0.964431	154.136	-32.281	-259.916	B5-03822-P02-CH0	392776	OK	0.6541776	0.3721202	-0.6584665	0	-80.631	-101.03	-4.403	B5-03822-P02-CH1	392776	OK	0.7252652	-0.1122335	-0.6792599	0	-81.455	-76.449	-2.119	B5-03822-P03-CH0	392776	OK	0.7024622	0.1559143	-0.6944333	0	-94.784	-55.878	-4.396	B5-03822-P03-CH1	392776	OK	0.7603554	-0.638051	0.1214524	0	-97.316	-12.14	-1.629	B5-03822-P04-CH0	392776	OK	0.7886028	-0.4173077	0.4516193	0	-125.841	-40.387	10.914	B5-03822-P04-CH1	392776	OK	0.8087504	-0.5823902	0.0821246	0	-109.128	-43.456	-1.488	NA
0.689455782312925	B5-03822-P01-CH0	392784	OK	0.1973411	0.1066498	0.140409	-0.9643483	154.156	-32.273	-259.903	B5-03822-P02-CH0	392784	OK	0.6535737	0.3785116	-0.6554162	0	-80.506	-99.389	-3.183	B5-03822-P02-CH1	392784	OK	0.7251636	-0.1146981	-0.6789566	0	-81.638	-76.539	-3.772	B5-03822-P03-CH0	392784	OK	0.7076692	0.1386141	-0.6928134	0	-94.581	-55.704	-2.008	B5-03822-P03-CH1	392784	OK	0.7601852	-0.6381829	0.1218239	0	-97.368	-12.495	-1.461	B5-03822-P04-CH0	392784	OK	0.7886743	-0.4183189	0.4505576	0	-125.721	-40.289	10.985	B5-03822-P04-CH1	392784	OK	0.8089787	-0.5822029	0.0811989	0	-109.084	-43.262	-1.646	NA
0.699447895100069	B5-03822-P01-CH0	392792	OK	0.1975607	0.1068365	0.1404284	-0.9642798	154.282	-32.237	-259.855	B5-03822-P02-CH0	392792	OK	0.6550458	0.3838261	-0.6508399	0	-80.535	-99.899	-3.016	B5-03822-P02-CH1	392792	OK	0.726389	-0.1162395	-0.6773828	0	-80.763	-76.298	-4.198	B5-03822-P03-CH0	392792	OK	0.7145457	0.1095317	-0.6909611	0	-94.377	-55.673	-1.89	B5-03822-P03-CH1	392792	OK	0.7605665	-0.6379	0.1209226	0	-97.434	-12.092	-1.614	B5-03822-P04-CH0	392792	OK	0.7884957	-0.4190678	0.4501742	0	-125.764	-40.516	11.207	B5-03822-P04-CH1	392792	OK	0.8088225	-0.5825172	0.0804981	0	-108.944	-43.185	-1.896	NA
0.709440007887213	B5-03822-P01-CH0	392800	OK	0.1975546	0.1070226	0.1397795	-0.9643547	154.359	-32.262	-259.824	B5-03822-P02-CH0	392800	OK	0.655851	0.3859218	-0.6487865	0	-81.647	-101.505	-2.372	B5-03822-P02-CH1	392800	OK	0.7248584	-0.1176653	-0.6787747	0	-80.618	-75.957	-3.749	B5-03822-P03-CH0	392800	OK	0.7151774	0.074724	-0.6949372	0	-95.853	-57.036	-1.144	B5-03822-P03-CH1	392800	OK	0.7600595	-0.6385637	0.1206066	0	-97.398	-12.112	-1.668	B5-03822-P04-CH0	392800	OK	0.7880493	-0.4208185	0.4493218	0	-125.613	-40.225	11.132	B5-03822-P04-CH1	392800	OK	0.8085078	-0.5830547	0.0797644	0	-108.988	-43.159	-1.551	NA
0.719432120674357	B5-03822-P01-CH0	392808	OK	0.1975842	0.107253	0.1391383	-0.9644158	154.456	-32.342	-259.75	B5-03822-P02-CH0	392808	OK	0.6564748	0.3882081	-0.6467884	0	-80.641	-99.92	-2.997	B5-03822-P02-CH1	392808	OK	0.7229749	-0.1202477	-0.6803292	0	-79.986	-76.032	-4.139	B5-03822-P03-CH0	392808	OK	0.7152696	0.0426835	-0.6975439	0	-95.259	-55.915	-0.895	B5-03822-P03-CH1	392808	OK	0.7594123	-0.6392918	0.1208258	0	-97.466	-12.451	-1.361	B5-03822-P04-CH0	392808	OK	0.7876507	-0.4218299	0.4490724	0	-125.579	-40.228	11.237	B5-03822-P04-CH1	392808	OK	0.8080499	-0.5837589	0.0792524	0	-108.956	-43.3	-1.41	NA
0.729424233461501	B5-03822-P01-CH0	392816	OK	0.1973484	0.1074434	0.1379966	-0.9646069	154.505	-32.396	-259.721	B5-03822-P02-CH0	392816	OK	0.6575179	0.3894188	-0.6449987	0	-80.088	-99.995	-3.058	B5-03822-P02-CH1	392816	OK	0.7209704	-0.1237896	-0.6818195	0	-79.311	-75.846	-4.268	B5-03822-P03-CH0	392816	OK	0.7166382	0.0092457	-0.6973838	0	-93.991	-56.017	-1.168	B5-03822-P03-CH1	392816	OK	0.7583623	-0.6405202	0.1209155	0	-97.506	-12.762	-1.15	B5-03822-P04-CH0	392816	OK	0.787081	-0.4228075	0.4491518	0	-125.603	-40.422	11.759	B5-03822-P04-CH1	392816	OK	0.8073438	-0.584834	0.0785185	0	-108.814	-43.128	-1.541	NA
0.739416346248644	B5-03822-P01-CH0	392824	OK	0.1976382	0.1075769	0.1377315	-0.9645706	154.595	-32.31	-259.707	B5-03822-P02-CH0	392824	OK	0.6583069	0.3866868	-0.6458369	0	-80.018	-101.287	-3.354	B5-03822-P02-CH1	392824	OK	0.71729	-0.1271312	-0.6850786	0	-80.216	-76.267	-4.056	B5-03822-P03-CH0	392824	OK	0.7166494	-0.0207995	-0.6971234	0	-93.422	-56.286	-1.234	B5-03822-P03-CH1	392824	OK	0.7579111	-0.6409494	0.1214689	0	-97.637	-12.972	-1.069	B5-03822-P04-CH0	392824	OK	0.7868217	-0.423292	0.4491497	0	-125.607	-40.257	11.597	B5-03822-P04-CH1	392824	OK	0.8072401	-0.5850105	0.0782695	0	-108.764	-43.004	-1.526	NA
0.749408459035788	B5-03822-P01-CH0	392832	OK	0.1979901	0.107599	0.1376479	-0.9645079	154.569	-32.185	-259.521	B5-03822-P02-CH0	392832	OK	0.6578784	0.3825984	-0.6487021	0	-79.733	-101.062	-2.518	B5-03822-P02-CH1	392832	OK	0.7160361	-0.1289826	-0.6860436	0	-79.975	-76.694	-2.74	B5-03822-P03-CH0	392832	OK	0.7166641	-0.0447632	-0.6959804	0	-93.18	-56.527	-1.165	B5-03822-P03-CH1	392832	OK	0.7578121	-0.6410765	0.1214156	0	-97.555	-12.808	-1.289	B5-03822-P04-CH0	392832	OK	0.7867024	-0.4235238	0.4491401	0	-125.516	-39.833	11.283	B5-03822-P04-CH1	392832	OK	0.8071471	-0.5851386	0.0782711	0	-108.621	-42.833	-1.764	NA
0.759400571822932	B5-03822-P01-CH0	392840	OK	0.1983668	0.1074199	0.1378871	-0.9644163	154.546	-32.09	-259.529	B5-03822-P02-CH0	392840	OK	0.6570415	0.3805985	-0.6507237	0	-78.966	-99.995	-2.73	B5-03822-P02-CH1	392840	OK	0.7157912	-0.1306137	-0.6859906	0	-79.406	-76.359	-3.457	B5-03822-P03-CH0	392840	OK	0.7166145	-0.0615863	-0.6947451	0	-92.971	-56.403	-1.756	B5-03822-P03-CH1	392840	OK	0.7579364	-0.6409156	0.121489	0	-97.507	-12.67	-1.39	B5-03822-P04-CH0	392840	OK	0.7866869	-0.4235451	0.4491473	0	-125.382	-39.515	11.121	B5-03822-P04-CH1	392840	OK	0.8075757	-0.5846219	0.0777089	0	-108.435	-42.258	-2.294	NA
0.769392684610076	B5-03822-P01-CH0	392848	OK	0.1989366	0.1075795	0.1379935	-0.9642659	154.707	-32.058	-259.543	B5-03822-P02-CH0	392848	OK	0.657236	0.3783858	-0.6518167	0	-78.57	-100.486	-4.011	B5-03822-P02-CH1	392848	OK	0.7152724	-0.133475	-0.6859809	0	-78.84	-76.026	-3.832	B5-03822-P03-CH0	392848	OK	0.7154512	-0.0719152	-0.6949516	0	-93.046	-56.535	-1.287	B5-03822-P03-CH1	392848	OK	0.7579733	-0.6407054	0.1223646	0	-97.726	-12.881	-1.283	B5-03822-P04-CH0	392848	OK	0.7866629	-0.4233578	0.4493659	0	-125.346	-39.472	11.045	B5-03822-P04-CH1	392848	OK	0.8077604	-0.584347	0.0778571	0	-108.495	-42.264	-2.324	NA
0.77938479739722	B5-03822-P01-CH0	392856	OK	0.1994091	0.1075632	0.1384632	-0.9641027	154.794	-31.963	-259.638	B5-03822-P02-CH0	392856	OK	0.6562806	0.3754625	-0.6544644	0	-78.461	-99.958	-3.941	B5-03822-P02-CH1	392856	OK	0.7143774	-0.1374652	-0.6861255	0	-78.647	-76.327	-2.789	B5-03822-P03-CH0	392856	OK	0.7144377	-0.0780191	-0.6953358	0	-93.428	-55.64	-2.017	B5-03822-P03-CH1	392856	OK	0.7579175	-0.6405892	0.1233152	0	-97.895	-13.262	-1.032	B5-03822-P04-CH0	392856	OK	0.7867914	-0.4230124	0.4494662	0	-125.306	-39.4	11.055	B5-03822-P04-CH1	392856	OK	0.8078842	-0.5841197	0.0782775	0	-108.451	-42.44	-2.273	NA
0.789376910184364	B5-03822-P01-CH0	392864	OK	0.1998444	0.1076975	0.1385936	-0.9639789	154.917	-31.939	-259.631	B5-03822-P02-CH0	392864	OK	0.6559007	0.373252	-0.6561076	0	-77.548	-99.16	-3.518	B5-03822-P02-CH1	392864	OK	0.7138825	-0.1406037	-0.6860047	0	-78.54	-75.728	-2.994	B5-03822-P03-CH0	392864	OK	0.7121001	-0.0795543	-0.6975561	0	-94.052	-55.828	-1.251	B5-03822-P03-CH1	392864	OK	0.7586453	-0.6400052	0.1218632	0	-97.609	-12.653	-1.248	B5-03822-P04-CH0	392864	OK	0.7867736	-0.4224396	0.4500356	0	-125.32	-39.589	11.164	B5-03822-P04-CH1	392864	OK	0.807921	-0.5840311	0.0785578	0	-108.418	-42.616	-2.152	NA
0.799369022971507	B5-03822-P01-CH0	392872	OK	0.2000277	0.1075377	0.1386918	-0.9639446	154.888	-31.916	-259.639	B5-03822-P02-CH0	392872	OK	0.6557459	0.3715086	-0.6572509	0	-77.092	-99.345	-3.915	B5-03822-P02-CH1	392872	OK	0.7135413	-0.1421928	-0.6860321	0	-78.313	-75.413	-3.783	B5-03822-P03-CH0	392872	OK	0.7115189	-0.0789068	-0.6982224	0	-93.589	-55.232	-1.783	B5-03822-P03-CH1	392872	OK	0.7590101	-0.6397318	0.1210245	0	-97.342	-12.309	-1.402	B5-03822-P04-CH0	392872	OK	0.7865495	-0.42253	0.4503425	0	-125.139	-39.641	11.231	B5-03822-P04-CH1	392872	OK	0.8080715	-0.5838613	0.0782723	0	-108.267	-42.456	-2.241	NA
0.809361135758651	B5-03822-P01-CH0	392880	OK	0.2002177	0.1075069	0.1391186	-0.9638471	154.932	-31.818	-259.686	B5-03822-P02-CH0	392880	OK	0.6557433	0.3682151	-0.6591042	0	-77.007	-100.149	-3.653	B5-03822-P02-CH1	392880	OK	0.712531	-0.1440161	-0.6867015	0	-78.364	-75.642	-3.569	B5-03822-P03-CH0	392880	OK	0.7102203	-0.0788488	-0.6995499	0	-93.691	-55.648	-1.582	B5-03822-P03-CH1	392880	OK	0.7591245	-0.6395738	0.1211423	0	-97.371	-12.485	-1.096	B5-03822-P04-CH0	392880	OK	0.7867458	-0.4221865	0.4503217	0	-125.158	-39.66	11.461	B5-03822-P04-CH1	392880	OK	0.8081646	-0.5837604	0.0780623	0	-108.152	-42.409	-2.466	NA
0.819353248545795	B5-03822-P01-CH0	392888	OK	0.2008566	0.1073767	0.1401007	-0.9635864	154.989	-31.707	-259.787	B5-03822-P02-CH0	392888	OK	0.6528701	0.3676974	-0.662238	0	-77.057	-99.033	-3.227	B5-03822-P02-CH1	392888	OK	0.7121103	-0.1457201	-0.6867784	0	-78.215	-75.465	-3.643	B5-03822-P03-CH0	392888	OK	0.710674	-0.0777618	-0.6992107	0	-92.895	-55.434	-2.977	B5-03822-P03-CH1	392888	OK	0.7597617	-0.6387527	0.1214788	0	-97.404	-12.565	-0.904	B5-03822-P04-CH0	392888	OK	0.7872366	-0.4211226	0.4504601	0	-125.192	-39.827	11.75	B5-03822-P04-CH1	392888	OK	0.8088655	-0.582748	0.0783675	0	-108.098	-42.436	-2.201	NA
0.829345361332939	B5-03822-P01-CH0	392896	OK	0.201744	0.1075259	0.1408557	-0.9632742	155.185	-31.667	-259.806	B5-03822-P02-CH0	392896	OK	0.6528059	0.3679644	-0.6621531	0	-75.927	-99.068	-4.332	B5-03822-P02-CH1	392896	OK	0.7103553	-0.1485084	-0.6879975	0	-78.831	-76.064	-3.561	B5-03822-P03-CH0	392896	OK	0.7102539	-0.0770844	-0.6997124	0	-92.553	-54.85	-2.809	B5-03822-P03-CH1	392896	OK	0.760582	-0.6377404	0.1216644	0	-97.542	-12.458	-0.995	B5-03822-P04-CH0	392896	OK	0.7876247	-0.4197994	0.4510164	0	-125.363	-40.162	11.839	B5-03822-P04-CH1	392896	OK	0.8095106	-0.5818339	0.0784985	0	-108.053	-42.343	-2.436	NA
0.839337474120083	B5-03822-P01-CH0	392904	OK	0.2020082	0.1075513	0.1410418	-0.9631888	155.231	-31.731	-259.735	B5-03822-P02-CH0	392904	OK	0.6512538	0.3670709	-0.6641743	0	-76.493	-100.101	-3.485	B5-03822-P02-CH1	392904	OK	0.7101755	-0.1478045	-0.6883346	0	-78.208	-75.705	-4.01	B5-03822-P03-CH0	392904	OK	0.7087704	-0.0765673	-0.7012716	0	-92.653	-55.724	-1.802	B5-03822-P03-CH1	392904	OK	0.7608611	-0.637396	0.121724	0	-97.655	-12.458	-1.092	B5-03822-P04-CH0	392904	OK	0.7875543	-0.4196225	0.4513039	0	-125.36	-40.343	11.801	B5-03822-P04-CH1	392904	OK	0.8096832	-0.5815963	0.0784781	0	-107.942	-42.424	-2.431	NA
0.849329586907227	B5-03822-P01-CH0	392912	OK	0.2020792	0.1074227	0.1417484	-0.9630845	155.261	-31.697	-259.823	B5-03822-P02-CH0	392912	OK	0.6485223	0.3674162	-0.6666515	0	-77.239	-100.029	-2.378	B5-03822-P02-CH1	392912	OK	0.7096984	-0.1468556	-0.6890295	0	-77.805	-75.088	-4.492	B5-03822-P03-CH0	392912	OK	0.7078568	-0.0747972	-0.7023846	0	-92.426	-55.822	-1.525	B5-03822-P03-CH1	392912	OK	0.7616251	-0.6366251	0.1209782	0	-97.654	-12.207	-0.948	B5-03822-P04-CH0	392912	OK	0.7875944	-0.4190783	0.4517394	0	-125.443	-40.76	12.116	B5-03822-P04-CH1	392912	OK	0.8100249	-0.5811592	0.0781896	0	-107.844	-42.457	-2.477	NA
0.85932169969437	B5-03822-P01-CH0	392920	OK	0.2024107	0.1075021	0.1416822	-0.9630158	155.337	-31.754	-259.832	B5-03822-P02-CH0	392920	OK	0.6497974	0.367982	-0.6650959	0	-76.15	-99.831	-3.968	B5-03822-P02-CH1	392920	OK	0.7094617	-0.1478057	-0.6890701	0	-77.515	-75.774	-4.292	B5-03822-P03-CH0	392920	OK	0.7067308	-0.073362	-0.7036687	0	-92.433	-55.42	-2.173	B5-03822-P03-CH1	392920	OK	0.7618969	-0.6363577	0.1206725	0	-97.64	-12.1	-1.046	B5-03822-P04-CH0	392920	OK	0.787282	-0.418889	0.4524588	0	-125.425	-41.213	12.256	B5-03822-P04-CH1	392920	OK	0.8099889	-0.5811594	0.078561	0	-107.8	-42.694	-2.313	NA
0.869313812481514	B5-03822-P01-CH0	392928	OK	0.202331	0.1074487	0.1415069	-0.9630642	155.301	-31.794	-259.837	B5-03822-P02-CH0	392928	OK	0.6472096	0.3688036	-0.6671609	0	-77.442	-100.577	-0.871	B5-03822-P02-CH1	392928	OK	0.7099963	-0.1464606	-0.6888066	0	-77.04	-76.6	-3.901	B5-03822-P03-CH0	392928	OK	0.7050135	-0.0723142	-0.7054974	0	-92.7	-56.147	-0.551	B5-03822-P03-CH1	392928	OK	0.7620228	-0.6364036	0.1196316	0	-97.409	-11.82	-1.213	B5-03822-P04-CH0	392928	OK	0.787152	-0.4192366	0.4523631	0	-125.391	-41.07	12.12	B5-03822-P04-CH1	392928	OK	0.8098408	-0.5813925	0.0783619	0	-107.648	-42.655	-2.458	NA
0.879305925268658	B5-03822-P01-CH0	392936	OK	0.2023831	0.1078621	0.1413112	-0.9630358	155.44	-31.835	-259.713	B5-03822-P02-CH0	392936	OK	0.6485278	0.3703074	-0.6650445	0	-76.811	-100.221	-3.779	B5-03822-P02-CH1	392936	OK	0.7112461	-0.144741	-0.6878801	0	-76.531	-76.184	-4.557	B5-03822-P03-CH0	392936	OK	0.7049464	-0.0706899	-0.7057291	0	-92.587	-56.532	-1.191	B5-03822-P03-CH1	392936	OK	0.7626259	-0.6359798	0.1180313	0	-97.284	-11.192	-1.52	B5-03822-P04-CH0	392936	OK	0.7871833	-0.4187677	0.4527428	0	-125.578	-41.329	12.434	B5-03822-P04-CH1	392936	OK	0.8099545	-0.5812832	0.0779973	0	-107.747	-42.535	-2.46	NA
0.889298038055802	B5-03822-P01-CH0	392944	OK	0.2025519	0.1076478	0.1417061	-0.9629663	155.415	-31.787	-259.801	B5-03822-P02-CH0	392944	OK	0.648228	0.3730673	-0.6637931	0	-76.905	-100.918	-3.492	B5-03822-P02-CH1	392944	OK	0.7104822	-0.1469571	-0.6881995	0	-77.976	-76.22	-3.718	B5-03822-P03-CH0	392944	OK	0.7059731	-0.0679525	-0.7049712	0	-92.084	-55.857	-2.587	B5-03822-P03-CH1	392944	OK	0.7627637	-0.6357034	0.1186285	0	-97.453	-11.434	-1.383	B5-03822-P04-CH0	392944	OK	0.7871261	-0.4192472	0.4523984	0	-125.312	-41.019	12.2	B5-03822-P04-CH1	392944	OK	0.8102128	-0.5809175	0.0780387	0	-107.625	-42.523	-2.444	NA
0.899290150842946	B5-03822-P01-CH0	392952	OK	0.2023663	0.1081202	0.1410056	-0.9630552	155.572	-31.866	-259.755	B5-03822-P02-CH0	392952	OK	0.6460742	0.3737237	-0.6655214	0	-77.528	-100.397	-2.639	B5-03822-P02-CH1	392952	OK	0.7098962	-0.1466299	-0.6888738	0	-78.017	-76.257	-3.676	B5-03822-P03-CH0	392952	OK	0.7070424	-0.0738243	-0.7033072	0	-92.649	-56.17	-1.268	B5-03822-P03-CH1	392952	OK	0.7622938	-0.6363153	0.1183679	0	-97.635	-11.522	-1.571	B5-03822-P04-CH0	392952	OK	0.7869374	-0.419466	0.4525238	0	-125.424	-41.175	12.549	B5-03822-P04-CH1	392952	OK	0.8098234	-0.5814807	0.0778863	0	-107.778	-42.665	-2.293	NA
0.90928226363009	B5-03822-P01-CH0	392960	OK	0.2021097	0.1082625	0.1405816	-0.9631551	155.554	-31.938	-259.574	B5-03822-P02-CH0	392960	OK	0.6484017	0.370458	-0.6650835	0	-77.093	-100.34	-2.515	B5-03822-P02-CH1	392960	OK	0.7097575	-0.1459413	-0.6891628	0	-77.906	-76.216	-3.804	B5-03822-P03-CH0	392960	OK	0.7063709	-0.0723567	-0.704134	0	-92.679	-56.037	-1.551	B5-03822-P03-CH1	392960	OK	0.762577	-0.6363117	0.1165494	0	-97.421	-10.833	-2.247	B5-03822-P04-CH0	392960	OK	0.7866688	-0.419805	0.4526764	0	-125.419	-41.194	12.51	B5-03822-P04-CH1	392960	OK	0.8097183	-0.5816796	0.0774925	0	-107.818	-42.619	-2.129	NA
0.919274376417234	B5-03822-P01-CH0	392968	OK	0.2017908	0.1083509	0.1400429	-0.9632905	155.525	-31.943	-259.555	B5-03822-P02-CH0	392968	OK	0.6441476	0.3797311	-0.6639865	0	-78.129	-101.266	-2.851	B5-03822-P02-CH1	392968	OK	0.7096391	-0.1447614	-0.6895335	0	-77.789	-76.107	-3.769	B5-03822-P03-CH0	392968	OK	0.7057283	-0.0709315	-0.7049229	0	-92.738	-56.002	-1.379	B5-03822-P03-CH1	392968	OK	0.7627814	-0.6363957	0.1147391	0	-97.203	-10.11	-2.917	B5-03822-P04-CH0	392968	OK	0.7862421	-0.4210422	0.4522685	0	-125.247	-40.681	11.959	B5-03822-P04-CH1	392968	OK	0.8093631	-0.5822375	0.0770127	0	-107.881	-42.491	-2.324	NA
