Wav.Time	B5.03822.P01.CH0	Frame	State	Q0	Qx	Qy	Qz	Tx	Ty	Tz	B5.03822.P02.CH0	Frame.1	State.1	Q0.1	Qx.1	Qy.1	Qz.1	Tx.1	Ty.1	Tz.1	B5.03822.P02.CH1	Frame.2	State.2	Q0.2	Qx.2	Qy.2	Qz.2	Tx.2	Ty.2	Tz.2	B5.03822.P03.CH0	Frame.3	State.3	Q0.3	Qx.3	Qy.3	Qz.3	Tx.3	Ty.3	Tz.3	B5.03822.P03.CH1	Frame.4	State.4	Q0.4	Qx.4	Qy.4	Qz.4	Tx.4	Ty.4	Tz.4	B5.03822.P04.CH0	Frame.5	State.5	Q0.5	Qx.5	Qy.5	Qz.5	Tx.5	Ty.5	Tz.5	B5.03822.P04.CH1	Frame.6	State.6	Q0.6	Qx.6	Qy.6	Qz.6	Tx.6	Ty.6	Tz.6	X
0	B5-03822-P01-CH0	3497352	OK	0.2181024	0.0658113	0.0515708	-0.9723377	137.234	-39.217	-259.296	B5-03822-P02-CH0	3497352	OK	0.8327724	0.175633	-0.5250172	0	-85.806	-101.338	9.163	B5-03822-P02-CH1	3497352	OK	0.6662468	0.0044114	-0.7457182	0	-75.106	-79.765	0.276	B5-03822-P03-CH0	3497352	OK	0.7886329	-0.3597386	-0.4986445	0	-93.367	-61.143	1.3	B5-03822-P03-CH1	3497352	OK	0.7152593	-0.6558787	0.2413033	0	-99.141	-13.863	-12.482	B5-03822-P04-CH0	3497352	OK	0.7508968	-0.1051135	0.6520008	0	-123.409	-37.927	3.461	B5-03822-P04-CH1	3497352	OK	0.7083255	-0.6729025	0.2132539	0	-107.582	-31.694	-12.945	NA
0.00999198332531666	B5-03822-P01-CH0	3497360	OK	0.2176465	0.0657654	0.0512027	-0.9724624	137.186	-39.188	-259.308	B5-03822-P02-CH0	3497360	OK	0.834512	0.1763054	-0.5220211	0	-85.973	-101.556	9.721	B5-03822-P02-CH1	3497360	OK	0.6565105	0.0163983	-0.7541387	0	-73.479	-80.356	-0.672	B5-03822-P03-CH0	3497360	OK	0.7936144	-0.3790076	-0.4759511	0	-94.765	-61.927	1.228	B5-03822-P03-CH1	3497360	OK	0.7088672	-0.661014	0.2461051	0	-100.913	-18.064	-8.054	B5-03822-P04-CH0	3497360	OK	0.7507421	-0.0995866	0.6530458	0	-123.651	-37.442	3.079	B5-03822-P04-CH1	3497360	OK	0.7084385	-0.6734702	0.2110754	0	-107.296	-31.003	-13.913	NA
0.0199839666506333	B5-03822-P01-CH0	3497368	OK	0.2176732	0.06578	0.0513979	-0.9724452	137.265	-39.126	-259.418	B5-03822-P02-CH0	3497368	OK	0.8361479	0.1782515	-0.5187322	0	-86.07	-101.796	9.164	B5-03822-P02-CH1	3497368	OK	0.6483125	0.0245174	-0.7609795	0	-72.512	-79.839	0.795	B5-03822-P03-CH0	3497368	OK	0.8017202	-0.3965575	-0.4471988	0	-92.801	-63.441	3.246	B5-03822-P03-CH1	3497368	OK	0.7100862	-0.6636204	0.2353413	0	-100.768	-15.743	-9.032	B5-03822-P04-CH0	3497368	OK	0.7488767	-0.0914402	0.6563706	0	-122.661	-36.996	3.386	B5-03822-P04-CH1	3497368	OK	0.7087461	-0.6734003	0.2102641	0	-107.128	-30.737	-14.239	NA
0.02997594997595	B5-03822-P01-CH0	3497376	OK	0.2179384	0.0654392	0.0522357	-0.9723641	137.114	-38.948	-259.417	B5-03822-P02-CH0	3497376	OK	0.8380117	0.1806697	-0.5148737	0	-85.816	-102.343	8.563	B5-03822-P02-CH1	3497376	OK	0.642643	0.0299773	-0.7655791	0	-72.231	-80.835	0.367	B5-03822-P03-CH0	3497376	OK	0.8088451	-0.4110321	-0.4205023	0	-91.619	-64.058	3.47	B5-03822-P03-CH1	3497376	OK	0.7052163	-0.6659993	0.2431357	0	-102.441	-20.015	-4.837	B5-03822-P04-CH0	3497376	OK	0.7479647	-0.0818499	0.6586725	0	-122.341	-36.03	1.746	B5-03822-P04-CH1	3497376	OK	0.7091476	-0.6729069	0.2104897	0	-107.049	-30.656	-14.465	NA
0.0399679333012666	B5-03822-P01-CH0	3497384	OK	0.2179137	0.0650392	0.0527976	-0.9723662	136.969	-38.865	-259.495	B5-03822-P02-CH0	3497384	OK	0.8388113	0.1839299	-0.5124114	0	-86.081	-102.322	9.384	B5-03822-P02-CH1	3497384	OK	0.63743	0.0324157	-0.7698261	0	-71.408	-80.449	0.395	B5-03822-P03-CH0	3497384	OK	0.8153557	-0.4220771	-0.3962903	0	-91.772	-64.305	4.065	B5-03822-P03-CH1	3497384	OK	0.7058478	-0.6679047	0.2359709	0	-101.826	-18.406	-5.905	B5-03822-P04-CH0	3497384	OK	0.7479276	-0.0686034	0.6602257	0	-122.445	-36.554	3.027	B5-03822-P04-CH1	3497384	OK	0.7097579	-0.6722907	0.2104018	0	-107.156	-30.398	-14.39	NA
0.0499599166265833	B5-03822-P01-CH0	3497392	OK	0.217884	0.0651369	0.0526737	-0.972373	136.977	-38.778	-259.518	B5-03822-P02-CH0	3497392	OK	0.8411181	0.1895732	-0.5065396	0	-85.764	-101.043	9.914	B5-03822-P02-CH1	3497392	OK	0.6351195	0.0305046	-0.7718113	0	-71.258	-79.537	1.113	B5-03822-P03-CH0	3497392	OK	0.8235095	-0.4334095	-0.3660441	0	-90.421	-66.057	6.079	B5-03822-P03-CH1	3497392	OK	0.710328	-0.6689519	0.2189465	0	-100.599	-13.107	-8.802	B5-03822-P04-CH0	3497392	OK	0.7483553	-0.05632	0.6609028	0	-122.631	-36.788	3.975	B5-03822-P04-CH1	3497392	OK	0.7095763	-0.6724179	0.2106078	0	-107.205	-30.343	-14.297	NA
0.0599518999519	B5-03822-P01-CH0	3497400	OK	0.2181379	0.0649222	0.0539087	-0.9722627	136.953	-38.63	-259.555	B5-03822-P02-CH0	3497400	OK	0.8439809	0.1861256	-0.5030442	0	-85.91	-102.032	9.282	B5-03822-P02-CH1	3497400	OK	0.6425083	0.0279822	-0.7657677	0	-71.385	-80.957	-0.045	B5-03822-P03-CH0	3497400	OK	0.8314495	-0.4386531	-0.3409916	0	-91.508	-66.5	5.873	B5-03822-P03-CH1	3497400	OK	0.7101943	-0.6697418	0.2169562	0	-100.883	-13.259	-9.073	B5-03822-P04-CH0	3497400	OK	0.747802	-0.0452314	0.6623793	0	-122.888	-35.814	1.177	B5-03822-P04-CH1	3497400	OK	0.7106119	-0.6716137	0.20968	0	-107.034	-29.838	-14.702	NA
0.0699438832772166	B5-03822-P01-CH0	3497408	OK	0.2181034	0.0646925	0.0536983	-0.9722974	136.862	-38.604	-259.593	B5-03822-P02-CH0	3497408	OK	0.8474791	0.1799614	-0.4993927	0	-86.22	-102.844	9.911	B5-03822-P02-CH1	3497408	OK	0.6508537	0.0209887	-0.758913	0	-71.33	-80.694	-0.109	B5-03822-P03-CH0	3497408	OK	0.8397547	-0.4409707	-0.3167916	0	-92.544	-67.046	6.821	B5-03822-P03-CH1	3497408	OK	0.7095807	-0.6711635	0.2145571	0	-100.87	-13.203	-8.551	B5-03822-P04-CH0	3497408	OK	0.746019	-0.0359028	0.6649562	0	-122.084	-35.427	0.964	B5-03822-P04-CH1	3497408	OK	0.7107514	-0.6718945	0.2083034	0	-106.754	-29.208	-15.638	NA
0.0799358666025333	B5-03822-P01-CH0	3497416	OK	0.2181559	0.0646563	0.0537386	-0.9722858	136.793	-38.585	-259.406	B5-03822-P02-CH0	3497416	OK	0.8507969	0.1784002	-0.4942854	0	-86.028	-102.279	8.312	B5-03822-P02-CH1	3497416	OK	0.6570179	0.0173438	-0.7536755	0	-71.119	-81.014	-1.584	B5-03822-P03-CH0	3497416	OK	0.849412	-0.4406819	-0.2903424	0	-92.246	-67.654	8.255	B5-03822-P03-CH1	3497416	OK	0.7131091	-0.6693649	0.208389	0	-99.852	-10.821	-11.011	B5-03822-P04-CH0	3497416	OK	0.7480714	-0.0230182	0.6632189	0	-123.887	-37.63	3.262	B5-03822-P04-CH1	3497416	OK	0.7107524	-0.6720411	0.2078261	0	-106.549	-28.893	-16.313	NA
0.0899278499278499	B5-03822-P01-CH0	3497424	OK	0.2176165	0.0646947	0.0530045	-0.9724444	136.791	-38.658	-259.424	B5-03822-P02-CH0	3497424	OK	0.85327	0.1738222	-0.4916463	0	-85.924	-101.807	9.118	B5-03822-P02-CH1	3497424	OK	0.6604037	0.0144232	-0.7507723	0	-71.254	-81.128	-1.125	B5-03822-P03-CH0	3497424	OK	0.8573683	-0.4392084	-0.268357	0	-92.898	-67.938	8.266	B5-03822-P03-CH1	3497424	OK	0.7104872	-0.6687618	0.2190105	0	-100.67	-15.27	-7.736	B5-03822-P04-CH0	3497424	OK	0.7458467	-0.0182154	0.6658685	0	-123.348	-36.579	1.812	B5-03822-P04-CH1	3497424	OK	0.7098922	-0.6727601	0.2084392	0	-106.841	-29.262	-15.939	NA
0.0999198332531666	B5-03822-P01-CH0	3497432	OK	0.2174268	0.0647077	0.0523473	-0.9725216	136.772	-38.715	-259.446	B5-03822-P02-CH0	3497432	OK	0.8544757	0.1638039	-0.4929904	0	-86.387	-102.498	10.336	B5-03822-P02-CH1	3497432	OK	0.6613777	0.0112667	-0.7499684	0	-71.468	-81.514	-0.893	B5-03822-P03-CH0	3497432	OK	0.8657222	-0.4384627	-0.2414034	0	-91.857	-69.144	8.904	B5-03822-P03-CH1	3497432	OK	0.7139362	-0.6646695	0.220249	0	-100.077	-15.24	-7.998	B5-03822-P04-CH0	3497432	OK	0.7453868	-0.0138392	0.6664886	0	-123.814	-38.098	1.868	B5-03822-P04-CH1	3497432	OK	0.70937	-0.6731296	0.2090235	0	-106.864	-29.252	-16.148	NA
0.109911816578483	B5-03822-P01-CH0	3497440	OK	0.2177463	0.0646991	0.0528606	-0.9724229	136.824	-38.662	-259.439	B5-03822-P02-CH0	3497440	OK	0.8551359	0.1526039	-0.4954338	0	-87.029	-103.307	10.884	B5-03822-P02-CH1	3497440	OK	0.6636925	0.0053516	-0.7479863	0	-70.255	-80.657	-0.899	B5-03822-P03-CH0	3497440	OK	0.8730065	-0.4333261	-0.2238036	0	-93.741	-69.525	10.391	B5-03822-P03-CH1	3497440	OK	0.7211883	-0.6558711	0.2229809	0	-100.099	-14.847	-9.781	B5-03822-P04-CH0	3497440	OK	0.7450438	-0.0097402	0.6669444	0	-123.892	-36.562	1.35	B5-03822-P04-CH1	3497440	OK	0.7098813	-0.6722338	0.2101673	0	-107.031	-29.232	-15.953	NA
0.1199037999038	B5-03822-P01-CH0	3497448	OK	0.2177572	0.0645064	0.0529131	-0.9724304	136.717	-38.665	-259.32	B5-03822-P02-CH0	3497448	OK	0.8587595	0.1473877	-0.490723	0	-85.721	-102.704	10.061	B5-03822-P02-CH1	3497448	OK	0.6651207	-0.0006452	-0.7467356	0	-70.388	-80.61	-1.598	B5-03822-P03-CH0	3497448	OK	0.8793381	-0.430129	-0.204337	0	-94.022	-70.293	10.629	B5-03822-P03-CH1	3497448	OK	0.7304403	-0.6462346	0.220993	0	-98.563	-11.741	-15.693	B5-03822-P04-CH0	3497448	OK	0.7460756	-0.0072387	0.6658219	0	-124.708	-38.656	2.556	B5-03822-P04-CH1	3497448	OK	0.7100973	-0.6717031	0.2111321	0	-107.181	-29.035	-16.395	NA
0.129895783229117	B5-03822-P01-CH0	3497456	OK	0.2177228	0.0643998	0.0528811	-0.9724469	136.689	-38.679	-259.297	B5-03822-P02-CH0	3497456	OK	0.8612038	0.1412747	-0.4882309	0	-84.886	-101.993	8.571	B5-03822-P02-CH1	3497456	OK	0.6664302	-0.0065302	-0.7455388	0	-70.88	-80.345	-0.257	B5-03822-P03-CH0	3497456	OK	0.8838198	-0.4256156	-0.1942005	0	-94.862	-69.829	10.081	B5-03822-P03-CH1	3497456	OK	0.7408175	-0.6361347	0.2156896	0	-96.374	-6.921	-19.734	B5-03822-P04-CH0	3497456	OK	0.7454678	-0.009853	0.6664688	0	-125.641	-40.567	3.28	B5-03822-P04-CH1	3497456	OK	0.7104117	-0.6714317	0.2109378	0	-107.015	-28.526	-17.249	NA
0.139887766554433	B5-03822-P01-CH0	3497464	OK	0.21804	0.0643864	0.052808	-0.9723807	136.736	-38.763	-259.3	B5-03822-P02-CH0	3497464	OK	0.8618686	0.1302773	-0.4901126	0	-84.638	-102.533	8.755	B5-03822-P02-CH1	3497464	OK	0.6670696	-0.021497	-0.7446852	0	-72.033	-81.337	0.354	B5-03822-P03-CH0	3497464	OK	0.8866668	-0.423911	-0.1847198	0	-94.426	-70.594	10.444	B5-03822-P03-CH1	3497464	OK	0.7452436	-0.6279911	0.2241409	0	-95.891	-7.973	-20.09	B5-03822-P04-CH0	3497464	OK	0.7432682	-0.0111643	0.6689004	0	-125.877	-40.796	2.51	B5-03822-P04-CH1	3497464	OK	0.7098056	-0.6710225	0.2142542	0	-107.333	-29.415	-16.81	NA
0.14987974987975	B5-03822-P01-CH0	3497472	OK	0.2179602	0.0639946	0.0530405	-0.9724118	136.632	-38.791	-259.344	B5-03822-P02-CH0	3497472	OK	0.8618168	0.1259397	-0.4913359	0	-84.135	-101.714	9.303	B5-03822-P02-CH1	3497472	OK	0.6752363	-0.0561095	-0.7354643	0	-70.113	-79.581	-0.836	B5-03822-P03-CH0	3497472	OK	0.8885762	-0.420027	-0.1844169	0	-94.105	-71.09	10.542	B5-03822-P03-CH1	3497472	OK	0.7525675	-0.6196865	0.2227795	0	-94.406	-4.148	-24.141	B5-03822-P04-CH0	3497472	OK	0.7443924	-0.0146097	0.6675826	0	-126.912	-42.862	3.483	B5-03822-P04-CH1	3497472	OK	0.7105395	-0.6701252	0.2146295	0	-107.223	-28.929	-17.388	NA
0.159871733205067	B5-03822-P01-CH0	3497480	OK	0.2179798	0.0639916	0.0527424	-0.9724238	136.6	-38.802	-259.352	B5-03822-P02-CH0	3497480	OK	0.8600118	0.120163	-0.495924	0	-84.324	-102.243	8.722	B5-03822-P02-CH1	3497480	OK	0.679908	-0.0818612	-0.7287138	0	-70.627	-80.419	-2.208	B5-03822-P03-CH0	3497480	OK	0.8887812	-0.4132457	-0.1982321	0	-94.457	-70.766	11.371	B5-03822-P03-CH1	3497480	OK	0.7513253	-0.6168452	0.2345471	0	-94.768	-8.271	-22.008	B5-03822-P04-CH0	3497480	OK	0.743982	-0.0176491	0.6679665	0	-126.773	-42.406	4.093	B5-03822-P04-CH1	3497480	OK	0.7093468	-0.6699512	0.2190719	0	-107.758	-30.189	-16.688	NA
0.169863716530383	B5-03822-P01-CH0	3497488	OK	0.217668	0.0642943	0.0520874	-0.972509	136.673	-38.947	-259.247	B5-03822-P02-CH0	3497488	OK	0.859113	0.1163808	-0.4983778	0	-83.801	-101.542	8.388	B5-03822-P02-CH1	3497488	OK	0.6830019	-0.0915204	-0.7246602	0	-70.934	-80.978	-1.384	B5-03822-P03-CH0	3497488	OK	0.8858035	-0.4062302	-0.2243415	0	-94.546	-70.315	11.311	B5-03822-P03-CH1	3497488	OK	0.7505072	-0.6158818	0.2396424	0	-94.92	-9.634	-23.492	B5-03822-P04-CH0	3497488	OK	0.7437034	-0.0198783	0.6682141	0	-126.862	-41.364	3.628	B5-03822-P04-CH1	3497488	OK	0.7084297	-0.6700153	0.2218263	0	-108.223	-31.013	-16.511	NA
0.1798556998557	B5-03822-P01-CH0	3497496	OK	0.2173975	0.0642703	0.0517761	-0.9725877	136.664	-39.02	-259.31	B5-03822-P02-CH0	3497496	OK	0.8572945	0.1100488	-0.5029269	0	-83.901	-101.027	8.386	B5-03822-P02-CH1	3497496	OK	0.6872073	-0.0988269	-0.7197078	0	-71.365	-80.705	-1.057	B5-03822-P03-CH0	3497496	OK	0.8789473	-0.3990782	-0.2611286	0	-94.134	-69.625	10.405	B5-03822-P03-CH1	3497496	OK	0.7507229	-0.6137329	0.2444321	0	-94.986	-10.831	-19.302	B5-03822-P04-CH0	3497496	OK	0.7434015	-0.0179168	0.6686054	0	-126.974	-41	4.498	B5-03822-P04-CH1	3497496	OK	0.7085388	-0.6695987	0.2227339	0	-108.465	-30.988	-16.856	NA
0.189847683181017	B5-03822-P01-CH0	3497504	OK	0.2173909	0.064281	0.0519798	-0.9725776	136.578	-38.926	-259.156	B5-03822-P02-CH0	3497504	OK	0.8550281	0.1019677	-0.508458	0	-84.209	-100.671	8.918	B5-03822-P02-CH1	3497504	OK	0.6918551	-0.1018508	-0.7148167	0	-72.418	-80.778	-0.372	B5-03822-P03-CH0	3497504	OK	0.8671034	-0.3890665	-0.3110612	0	-94.288	-68.191	8.527	B5-03822-P03-CH1	3497504	OK	0.7482809	-0.6124857	0.2548275	0	-96.717	-14.732	-15.6	B5-03822-P04-CH0	3497504	OK	0.7440535	-0.0157299	0.6679348	0	-127.191	-42.904	4.736	B5-03822-P04-CH1	3497504	OK	0.7084132	-0.6690548	0.2247587	0	-108.541	-31.296	-16.841	NA
0.199839666506333	B5-03822-P01-CH0	3497512	OK	0.2172835	0.0640098	0.0524286	-0.9725954	136.5	-38.948	-259.163	B5-03822-P02-CH0	3497512	OK	0.8532063	0.0956245	-0.5127328	0	-84.341	-100.183	9.292	B5-03822-P02-CH1	3497512	OK	0.6965017	-0.0988271	-0.7107169	0	-73.21	-80.076	-1.185	B5-03822-P03-CH0	3497512	OK	0.8532509	-0.3768942	-0.3604353	0	-92.871	-67.539	7.678	B5-03822-P03-CH1	3497512	OK	0.7503004	-0.6131854	0.2470891	0	-94.4	-9.971	-22.99	B5-03822-P04-CH0	3497512	OK	0.7449778	-0.0129308	0.6669639	0	-127.142	-42.975	4.276	B5-03822-P04-CH1	3497512	OK	0.7082233	-0.6686407	0.226582	0	-108.702	-31.951	-16.467	NA
0.20983164983165	B5-03822-P01-CH0	3497520	OK	0.2169459	0.0641774	0.0513193	-0.9727189	136.463	-39.092	-259.126	B5-03822-P02-CH0	3497520	OK	0.8530376	0.092343	-0.5136142	0	-83.9	-100.137	9.191	B5-03822-P02-CH1	3497520	OK	0.7000171	-0.0900414	-0.7084268	0	-73.46	-80.183	-0.816	B5-03822-P03-CH0	3497520	OK	0.8335378	-0.359846	-0.4191964	0	-93.183	-65.506	4.697	B5-03822-P03-CH1	3497520	OK	0.7498836	-0.613096	0.2485717	0	-94.459	-10.049	-20.467	B5-03822-P04-CH0	3497520	OK	0.745889	-0.0083447	0.666018	0	-126.691	-43.07	5.287	B5-03822-P04-CH1	3497520	OK	0.7072703	-0.6691873	0.2279409	0	-108.852	-32.458	-16.189	NA
0.219823633156966	B5-03822-P01-CH0	3497528	OK	0.2165404	0.0647933	0.050309	-0.9728212	136.603	-39.11	-259.038	B5-03822-P02-CH0	3497528	OK	0.8529004	0.0951562	-0.5133285	0	-83.597	-99.726	9.177	B5-03822-P02-CH1	3497528	OK	0.7011338	-0.0765976	-0.7089035	0	-73.888	-80.378	-0.482	B5-03822-P03-CH0	3497528	OK	0.8083943	-0.3425603	-0.4786973	0	-93.338	-64.331	3.216	B5-03822-P03-CH1	3497528	OK	0.7489731	-0.6147057	0.2473383	0	-94.279	-9.205	-21.78	B5-03822-P04-CH0	3497528	OK	0.746537	-0.0047481	0.665327	0	-126.015	-42.259	5.278	B5-03822-P04-CH1	3497528	OK	0.7064344	-0.6699353	0.2283357	0	-108.972	-32.733	-15.892	NA
0.229815616482283	B5-03822-P01-CH0	3497536	OK	0.2163066	0.0649669	0.0496606	-0.972895	136.625	-39.167	-259.053	B5-03822-P02-CH0	3497536	OK	0.849556	0.096044	-0.5186811	0	-84.793	-100.807	9.263	B5-03822-P02-CH1	3497536	OK	0.7005668	-0.0639413	-0.7107163	0	-74.035	-81.105	-0.68	B5-03822-P03-CH0	3497536	OK	0.7831493	-0.3230762	-0.5313181	0	-90.98	-62.966	0.189	B5-03822-P03-CH1	3497536	OK	0.7480225	-0.616247	0.2463779	0	-93.949	-8.853	-22.021	B5-03822-P04-CH0	3497536	OK	0.7465511	-0.0021711	0.6653246	0	-124.911	-41.722	4.13	B5-03822-P04-CH1	3497536	OK	0.7051684	-0.6706671	0.2300937	0	-109.095	-33.773	-14.794	NA
0.2398075998076	B5-03822-P01-CH0	3497544	OK	0.2161083	0.0652261	0.0493531	-0.9729373	136.68	-39.172	-258.957	B5-03822-P02-CH0	3497544	OK	0.8472146	0.1014796	-0.5214684	0	-85.068	-100.213	9.342	B5-03822-P02-CH1	3497544	OK	0.6983573	-0.0549773	-0.7136348	0	-74.123	-80.644	-0.557	B5-03822-P03-CH0	3497544	OK	0.756917	-0.2956829	-0.5827935	0	-88.17	-61.841	-0.639	B5-03822-P03-CH1	3497544	OK	0.7478147	-0.6174317	0.2440314	0	-93.172	-7.808	-23.111	B5-03822-P04-CH0	3497544	OK	0.7486629	0.0008279	0.6629504	0	-125.612	-40.731	2.704	B5-03822-P04-CH1	3497544	OK	0.7052713	-0.6712095	0.2281889	0	-108.984	-33.378	-15.093	NA
0.249799583132916	B5-03822-P01-CH0	3497552	OK	0.2158566	0.0656062	0.0483659	-0.9730172	136.753	-39.206	-258.94	B5-03822-P02-CH0	3497552	OK	0.8461006	0.1020144	-0.5231701	0	-84.438	-99.898	9.589	B5-03822-P02-CH1	3497552	OK	0.6960942	-0.0477463	-0.716361	0	-74.575	-80.475	-0.168	B5-03822-P03-CH0	3497552	OK	0.7301009	-0.2648548	-0.6299243	0	-86.686	-60.911	-1.111	B5-03822-P03-CH1	3497552	OK	0.7474005	-0.6174694	0.245202	0	-94.784	-9.999	-21.532	B5-03822-P04-CH0	3497552	OK	0.7494008	0.0025817	0.6621116	0	-125.112	-40.896	4.056	B5-03822-P04-CH1	3497552	OK	0.7038409	-0.6725197	0.2287473	0	-109.148	-34.1	-14.318	NA
0.259791566458233	B5-03822-P01-CH0	3497560	OK	0.2156607	0.0656672	0.0481506	-0.9730672	136.744	-39.262	-258.821	B5-03822-P02-CH0	3497560	OK	0.8442223	0.0979843	-0.5269609	0	-84.646	-99.778	9.04	B5-03822-P02-CH1	3497560	OK	0.6977678	-0.0470131	-0.7147796	0	-74.656	-80.114	1.45	B5-03822-P03-CH0	3497560	OK	0.7147549	-0.2380304	-0.6576221	0	-84.376	-58.867	-1.169	B5-03822-P03-CH1	3497560	OK	0.7468356	-0.6175876	0.2466216	0	-94.876	-10.249	-21.197	B5-03822-P04-CH0	3497560	OK	0.7485422	0.0047251	0.6630703	0	-124.125	-39.96	3.255	B5-03822-P04-CH1	3497560	OK	0.7041668	-0.6730776	0.2260876	0	-108.869	-33.5	-14.641	NA
0.26978354978355	B5-03822-P01-CH0	3497568	OK	0.2156449	0.065681	0.0485753	-0.9730487	136.722	-39.119	-258.745	B5-03822-P02-CH0	3497568	OK	0.8440183	0.0908698	-0.5285601	0	-84.392	-99.309	8.752	B5-03822-P02-CH1	3497568	OK	0.7030355	-0.053893	-0.7091098	0	-74.62	-79.67	0.023	B5-03822-P03-CH0	3497568	OK	0.708479	-0.2334561	-0.6659998	0	-86.195	-60.498	-0.166	B5-03822-P03-CH1	3497568	OK	0.7462438	-0.6177938	0.2478932	0	-95.039	-10.655	-20.372	B5-03822-P04-CH0	3497568	OK	0.7504149	0.0067404	0.6609327	0	-124.293	-39.431	3.634	B5-03822-P04-CH1	3497568	OK	0.7049406	-0.6731394	0.2234773	0	-108.505	-32.733	-14.343	NA
0.279775533108866	B5-03822-P01-CH0	3497576	OK	0.2155695	0.0657697	0.0484039	-0.9730679	136.747	-39.078	-258.671	B5-03822-P02-CH0	3497576	OK	0.8447072	0.0842757	-0.5285521	0	-83.697	-98.515	8.595	B5-03822-P02-CH1	3497576	OK	0.7068403	-0.0617449	-0.7046733	0	-74.586	-79.852	-1.109	B5-03822-P03-CH0	3497576	OK	0.7104526	-0.2387776	-0.6619987	0	-86.982	-60.191	-1.709	B5-03822-P03-CH1	3497576	OK	0.7484517	-0.6229728	0.2274311	0	-91.796	-3.184	-25.426	B5-03822-P04-CH0	3497576	OK	0.7498819	0.0108211	0.6614832	0	-123.449	-39.277	4.389	B5-03822-P04-CH1	3497576	OK	0.704936	-0.6740174	0.2208299	0	-108.152	-32.222	-14.566	NA
0.289767516434183	B5-03822-P01-CH0	3497584	OK	0.2157786	0.0655727	0.0486813	-0.973021	136.767	-39.104	-258.759	B5-03822-P02-CH0	3497584	OK	0.843838	0.0779091	-0.530912	0	-82.947	-98.684	8.061	B5-03822-P02-CH1	3497584	OK	0.7076755	-0.0663374	-0.7034165	0	-74.304	-79.254	-0.714	B5-03822-P03-CH0	3497584	OK	0.7094368	-0.2417113	-0.6620235	0	-86.135	-59.591	-2.105	B5-03822-P03-CH1	3497584	OK	0.7441249	-0.6272506	0.2298584	0	-94.505	-8.204	-19.79	B5-03822-P04-CH0	3497584	OK	0.7483734	0.0176277	0.6630433	0	-122.775	-38.081	2.988	B5-03822-P04-CH1	3497584	OK	0.7053035	-0.6743578	0.2186059	0	-107.948	-31.922	-14.564	NA
0.2997594997595	B5-03822-P01-CH0	3497592	OK	0.2155037	0.0659509	0.0477708	-0.9731015	136.833	-39.076	-258.608	B5-03822-P02-CH0	3497592	OK	0.8413678	0.0761977	-0.5350646	0	-82.747	-98.561	7.26	B5-03822-P02-CH1	3497592	OK	0.7060739	-0.0708415	-0.7045858	0	-74.584	-78.998	-0.569	B5-03822-P03-CH0	3497592	OK	0.7050304	-0.2388253	-0.6677534	0	-85.738	-59.227	-1.48	B5-03822-P03-CH1	3497592	OK	0.741774	-0.6328093	0.2220897	0	-94.491	-7.989	-21.915	B5-03822-P04-CH0	3497592	OK	0.7502552	0.0221604	0.6607768	0	-123.665	-38.576	3.735	B5-03822-P04-CH1	3497592	OK	0.704931	-0.675601	0.2159528	0	-107.674	-31.319	-14.961	NA
0.309751483084816	B5-03822-P01-CH0	3497600	OK	0.2157584	0.0656721	0.0483176	-0.973037	136.82	-38.995	-258.658	B5-03822-P02-CH0	3497600	OK	0.8372036	0.0754661	-0.5416595	0	-82.88	-98.58	7.438	B5-03822-P02-CH1	3497600	OK	0.7044096	-0.0773187	-0.70557	0	-74.369	-79.157	-0.913	B5-03822-P03-CH0	3497600	OK	0.7025204	-0.2386971	-0.6704392	0	-85.266	-58.927	-1.697	B5-03822-P03-CH1	3497600	OK	0.7409026	-0.6360685	0.2155927	0	-95.183	-8.323	-20.772	B5-03822-P04-CH0	3497600	OK	0.7493204	0.0244921	0.6617545	0	-122.947	-37.025	2.491	B5-03822-P04-CH1	3497600	OK	0.704469	-0.6760794	0.2159632	0	-107.599	-31.909	-13.869	NA
0.319743466410133	B5-03822-P01-CH0	3497608	OK	0.215945	0.0652427	0.0486721	-0.9730068	136.758	-38.98	-258.786	B5-03822-P02-CH0	3497608	OK	0.8338086	0.0778558	-0.546536	0	-81.852	-98.231	6.331	B5-03822-P02-CH1	3497608	OK	0.701577	-0.0853721	-0.7074612	0	-73.706	-78.695	-1.011	B5-03822-P03-CH0	3497608	OK	0.6990975	-0.2435706	-0.6722619	0	-85.561	-59.552	-0.876	B5-03822-P03-CH1	3497608	OK	0.7385794	-0.6394942	0.2134188	0	-96.14	-10.559	-15.83	B5-03822-P04-CH0	3497608	OK	0.7492231	0.0255832	0.6618235	0	-122.609	-37.439	3.421	B5-03822-P04-CH1	3497608	OK	0.7041581	-0.6766336	0.2152402	0	-107.472	-32.159	-13.503	NA
0.32973544973545	B5-03822-P01-CH0	3497616	OK	0.2163287	0.0649504	0.0497153	-0.9728883	136.724	-38.828	-258.754	B5-03822-P02-CH0	3497616	OK	0.8289135	0.0813631	-0.5534279	0	-80.688	-97.577	6.309	B5-03822-P02-CH1	3497616	OK	0.6971501	-0.0950818	-0.7105921	0	-73.227	-78.465	-1.075	B5-03822-P03-CH0	3497616	OK	0.6970879	-0.2519184	-0.6712716	0	-85.553	-58.909	-0.93	B5-03822-P03-CH1	3497616	OK	0.7384227	-0.6425792	0.2045088	0	-95.648	-9.178	-17.202	B5-03822-P04-CH0	3497616	OK	0.7483682	0.0260491	0.6627719	0	-121.876	-36.912	3.618	B5-03822-P04-CH1	3497616	OK	0.7057351	-0.6760486	0.2118873	0	-107.234	-30.886	-14.648	NA
0.339727433060766	B5-03822-P01-CH0	3497624	OK	0.2165804	0.0646847	0.0500271	-0.9728341	136.641	-38.772	-258.763	B5-03822-P02-CH0	3497624	OK	0.8220478	0.0817553	-0.5635188	0	-79.777	-97.592	6.016	B5-03822-P02-CH1	3497624	OK	0.692422	-0.1053524	-0.7137595	0	-72.69	-78.516	-1.025	B5-03822-P03-CH0	3497624	OK	0.6975135	-0.2625193	-0.6667522	0	-84.723	-58.856	-2.427	B5-03822-P03-CH1	3497624	OK	0.7340399	-0.6477828	0.2038698	0	-97.24	-12.436	-15.355	B5-03822-P04-CH0	3497624	OK	0.748927	0.0280559	0.6620583	0	-122.261	-37.874	3.908	B5-03822-P04-CH1	3497624	OK	0.7053418	-0.6761832	0.2127655	0	-107.184	-31.398	-13.911	NA
0.349719416386083	B5-03822-P01-CH0	3497632	OK	0.2167531	0.0644113	0.0507696	-0.9727753	136.611	-38.74	-258.763	B5-03822-P02-CH0	3497632	OK	0.8138399	0.0814059	-0.5753588	0	-78.782	-98.128	4.635	B5-03822-P02-CH1	3497632	OK	0.6884278	-0.1128102	-0.7164783	0	-71.954	-78.193	-0.989	B5-03822-P03-CH0	3497632	OK	0.7009005	-0.2804902	-0.6557924	0	-83.637	-59.097	-1.948	B5-03822-P03-CH1	3497632	OK	0.7324679	-0.6510757	0.1989754	0	-97.386	-13.464	-13.503	B5-03822-P04-CH0	3497632	OK	0.7497197	0.0287321	0.6611314	0	-122.878	-37.167	2.923	B5-03822-P04-CH1	3497632	OK	0.7061357	-0.6757944	0.2113628	0	-107.124	-30.977	-14.23	NA
0.3597113997114	B5-03822-P01-CH0	3497640	OK	0.2167449	0.0645274	0.0502466	-0.9727966	136.661	-38.73	-258.78	B5-03822-P02-CH0	3497640	OK	0.8049447	0.0835008	-0.587445	0	-77.716	-97.792	3.973	B5-03822-P02-CH1	3497640	OK	0.6853696	-0.1157852	-0.7189314	0	-71.394	-77.508	-1.246	B5-03822-P03-CH0	3497640	OK	0.7059097	-0.3090425	-0.6373258	0	-84.841	-58.987	-1.677	B5-03822-P03-CH1	3497640	OK	0.7334954	-0.6541708	0.1845129	0	-96.762	-9.891	-17.871	B5-03822-P04-CH0	3497640	OK	0.7498136	0.0280712	0.6610534	0	-123.153	-37.108	1.766	B5-03822-P04-CH1	3497640	OK	0.7058254	-0.67634	0.210653	0	-107.044	-30.853	-14.283	NA
0.369703383036716	B5-03822-P01-CH0	3497648	OK	0.2169848	0.0641857	0.0507947	-0.9727372	136.606	-38.66	-258.91	B5-03822-P02-CH0	3497648	OK	0.7956039	0.0831884	-0.6000784	0	-76.541	-97.654	3.235	B5-03822-P02-CH1	3497648	OK	0.6844346	-0.1061037	-0.7213122	0	-72.494	-79.028	0.428	B5-03822-P03-CH0	3497648	OK	0.7221417	-0.3453355	-0.5993786	0	-84.436	-59.204	-2.176	B5-03822-P03-CH1	3497648	OK	0.7309259	-0.6569556	0.184815	0	-97.923	-11.898	-14.977	B5-03822-P04-CH0	3497648	OK	0.7492391	0.0256464	0.6618029	0	-122.921	-38.022	3.372	B5-03822-P04-CH1	3497648	OK	0.7059391	-0.6760476	0.2112098	0	-107.196	-31.036	-14.076	NA
0.379695366362033	B5-03822-P01-CH0	3497656	OK	0.2169269	0.0642543	0.0508264	-0.9727439	136.642	-38.622	-258.924	B5-03822-P02-CH0	3497656	OK	0.7885543	0.0777207	-0.6100341	0	-74.744	-98.032	1.553	B5-03822-P02-CH1	3497656	OK	0.6899193	-0.102436	-0.7166018	0	-71.893	-79.202	-0.61	B5-03822-P03-CH0	3497656	OK	0.7445878	-0.3792235	-0.5493437	0	-86.363	-59.836	-2.092	B5-03822-P03-CH1	3497656	OK	0.7284478	-0.6598191	0.1843979	0	-98.35	-12.981	-13.543	B5-03822-P04-CH0	3497656	OK	0.7491186	0.0259089	0.6619291	0	-122.856	-37.618	3.122	B5-03822-P04-CH1	3497656	OK	0.704813	-0.6764415	0.2136949	0	-107.459	-32.172	-12.917	NA
0.38968734968735	B5-03822-P01-CH0	3497664	OK	0.2168428	0.0643053	0.0505152	-0.9727755	136.609	-38.573	-258.872	B5-03822-P02-CH0	3497664	OK	0.7831987	0.0734743	-0.617415	0	-73.4	-97.882	-0.007	B5-03822-P02-CH1	3497664	OK	0.6943207	-0.1066203	-0.7117239	0	-71.664	-79.288	-1.007	B5-03822-P03-CH0	3497664	OK	0.7702946	-0.4091293	-0.4891416	0	-88.117	-61.257	-0.258	B5-03822-P03-CH1	3497664	OK	0.728236	-0.6614609	0.1792813	0	-98.017	-11.019	-15.234	B5-03822-P04-CH0	3497664	OK	0.7489929	0.02516	0.6621002	0	-122.79	-37.26	2.914	B5-03822-P04-CH1	3497664	OK	0.7046098	-0.6766292	0.2137708	0	-107.435	-31.958	-13.475	NA
0.399679333012666	B5-03822-P01-CH0	3497672	OK	0.2170196	0.0641101	0.0511957	-0.9727134	136.579	-38.518	-258.904	B5-03822-P02-CH0	3497672	OK	0.7776723	0.0720643	-0.6245259	0	-73.774	-98.268	0.758	B5-03822-P02-CH1	3497672	OK	0.6971021	-0.1205464	-0.7067654	0	-71.899	-79.237	-0.917	B5-03822-P03-CH0	3497672	OK	0.7931091	-0.4265321	-0.4347968	0	-89.585	-62.11	0.619	B5-03822-P03-CH1	3497672	OK	0.7274922	-0.6626584	0.1778731	0	-97.559	-10.19	-15.156	B5-03822-P04-CH0	3497672	OK	0.748466	0.0243524	0.6627259	0	-122.64	-36.786	2.277	B5-03822-P04-CH1	3497672	OK	0.7056453	-0.6757935	0.2129973	0	-107.541	-31.449	-14.019	NA
0.409671316337983	B5-03822-P01-CH0	3497680	OK	0.2169956	0.0644925	0.0510892	-0.9726991	136.648	-38.445	-258.79	B5-03822-P02-CH0	3497680	OK	0.7765911	0.0781152	-0.6251435	0	-73.814	-98.109	0.444	B5-03822-P02-CH1	3497680	OK	0.7008782	-0.1370224	-0.6999962	0	-71.55	-78.836	-1.518	B5-03822-P03-CH0	3497680	OK	0.8104212	-0.4362964	-0.3909769	0	-90.148	-63.51	2.794	B5-03822-P03-CH1	3497680	OK	0.7237349	-0.6655546	0.1823318	0	-98.472	-12.071	-13.527	B5-03822-P04-CH0	3497680	OK	0.7481859	0.0159312	0.6632978	0	-123.715	-36.715	2.385	B5-03822-P04-CH1	3497680	OK	0.7061652	-0.6754825	0.2122595	0	-107.684	-30.799	-15.101	NA
0.4196632996633	B5-03822-P01-CH0	3497688	OK	0.2171711	0.064362	0.0517486	-0.9726337	136.597	-38.333	-258.773	B5-03822-P02-CH0	3497688	OK	0.779513	0.0858081	-0.6204808	0	-73.394	-98.305	0.88	B5-03822-P02-CH1	3497688	OK	0.7054559	-0.1558098	-0.6914155	0	-71.042	-79.071	-2.208	B5-03822-P03-CH0	3497688	OK	0.8253902	-0.4388941	-0.3551098	0	-91.592	-64.551	3.875	B5-03822-P03-CH1	3497688	OK	0.724168	-0.6657219	0.1799862	0	-97.828	-10.129	-14.818	B5-03822-P04-CH0	3497688	OK	0.7473436	0.014916	0.6642703	0	-123.661	-36.674	2.636	B5-03822-P04-CH1	3497688	OK	0.7070236	-0.6746136	0.2121655	0	-107.711	-30.32	-15.758	NA
0.429655282988616	B5-03822-P01-CH0	3497696	OK	0.2170418	0.0646548	0.0513247	-0.9726656	136.675	-38.326	-258.76	B5-03822-P02-CH0	3497696	OK	0.7829201	0.0936802	-0.6150285	0	-74.523	-99.221	1.367	B5-03822-P02-CH1	3497696	OK	0.7079211	-0.1639674	-0.6869952	0	-70.981	-80.003	-2.667	B5-03822-P03-CH0	3497696	OK	0.8400808	-0.4357286	-0.3231174	0	-91.965	-65.505	5.833	B5-03822-P03-CH1	3497696	OK	0.7232347	-0.666063	0.1824601	0	-97.989	-10.038	-12.405	B5-03822-P04-CH0	3497696	OK	0.7492718	0.014519	0.6621035	0	-125.458	-38.139	3.374	B5-03822-P04-CH1	3497696	OK	0.7064888	-0.6745157	0.214248	0	-108.15	-30.91	-14.799	NA
0.439647266313933	B5-03822-P01-CH0	3497704	OK	0.217068	0.0646015	0.0514455	-0.9726569	136.669	-38.264	-258.816	B5-03822-P02-CH0	3497704	OK	0.7886338	0.106223	-0.6056182	0	-75.554	-99.676	1.653	B5-03822-P02-CH1	3497704	OK	0.7058587	-0.1492677	-0.6924469	0	-71.77	-80.722	-1.612	B5-03822-P03-CH0	3497704	OK	0.8523258	-0.4316471	-0.2953328	0	-92.305	-67.199	8.036	B5-03822-P03-CH1	3497704	OK	0.7216777	-0.6665627	0.1867497	0	-98.855	-10.856	-12.247	B5-03822-P04-CH0	3497704	OK	0.7460036	0.0125347	0.6658239	0	-124.391	-37.954	3.142	B5-03822-P04-CH1	3497704	OK	0.7067054	-0.6744554	0.2137226	0	-107.929	-30.456	-15.624	NA
0.44963924963925	B5-03822-P01-CH0	3497712	OK	0.2175236	0.06471	0.0520886	-0.9725137	136.768	-38.189	-258.823	B5-03822-P02-CH0	3497712	OK	0.7961189	0.1221562	-0.5926825	0	-76.589	-100.144	2.252	B5-03822-P02-CH1	3497712	OK	0.7037717	-0.1273055	-0.6989268	0	-71.724	-80.427	-0.301	B5-03822-P03-CH0	3497712	OK	0.8627006	-0.4252134	-0.2737539	0	-92.632	-68.444	9.408	B5-03822-P03-CH1	3497712	OK	0.7243664	-0.663466	0.1873666	0	-98.121	-9.492	-13.887	B5-03822-P04-CH0	3497712	OK	0.7433752	0.0125673	0.6687566	0	-124.058	-37.521	2.239	B5-03822-P04-CH1	3497712	OK	0.7067699	-0.6737244	0.2158047	0	-108.185	-31.038	-15.368	NA
0.459631232964566	B5-03822-P01-CH0	3497720	OK	0.2176483	0.064817	0.0523428	-0.972465	136.736	-38.03	-258.715	B5-03822-P02-CH0	3497720	OK	0.8063447	0.1347519	-0.5758908	0	-77.87	-100.898	2.93	B5-03822-P02-CH1	3497720	OK	0.7008628	-0.1077977	-0.7051036	0	-72.215	-80.293	-0.789	B5-03822-P03-CH0	3497720	OK	0.8697108	-0.4195232	-0.2600066	0	-93.36	-68.689	8.86	B5-03822-P03-CH1	3497720	OK	0.7270121	-0.6591927	0.1921416	0	-97.347	-9.075	-15.596	B5-03822-P04-CH0	3497720	OK	0.7441627	0.0106752	0.6679131	0	-125.084	-38.268	1.661	B5-03822-P04-CH1	3497720	OK	0.7071402	-0.673156	0.2163647	0	-108.384	-30.821	-15.631	NA
0.469623216289883	B5-03822-P01-CH0	3497728	OK	0.2175629	0.0653586	0.0513601	-0.9725003	136.889	-38.065	-258.64	B5-03822-P02-CH0	3497728	OK	0.8172251	0.1458926	-0.5575468	0	-79.586	-101.353	4.72	B5-03822-P02-CH1	3497728	OK	0.6995972	-0.0893834	-0.7089248	0	-71.725	-80.895	-1.239	B5-03822-P03-CH0	3497728	OK	0.8739223	-0.4167912	-0.2500897	0	-94.298	-68.665	9.104	B5-03822-P03-CH1	3497728	OK	0.7305949	-0.6540519	0.1960796	0	-97.214	-7.898	-16.605	B5-03822-P04-CH0	3497728	OK	0.7452683	0.0070866	0.666727	0	-125.63	-38.83	2.497	B5-03822-P04-CH1	3497728	OK	0.706743	-0.6735473	0.2164449	0	-108.437	-30.767	-15.872	NA
0.4796151996152	B5-03822-P01-CH0	3497736	OK	0.2176856	0.065547	0.0511663	-0.9724704	136.888	-38.04	-258.554	B5-03822-P02-CH0	3497736	OK	0.8272666	0.1528382	-0.5406204	0	-81.47	-102.077	6.652	B5-03822-P02-CH1	3497736	OK	0.6977679	-0.0700965	-0.712886	0	-71.723	-81.191	-0.627	B5-03822-P03-CH0	3497736	OK	0.8773646	-0.4160489	-0.2390287	0	-94.491	-68.816	10.312	B5-03822-P03-CH1	3497736	OK	0.7330453	-0.649725	0.2012512	0	-96.907	-8.022	-17.574	B5-03822-P04-CH0	3497736	OK	0.7461501	0.0030777	0.6657707	0	-125.428	-38.46	3.059	B5-03822-P04-CH1	3497736	OK	0.7071281	-0.6730494	0.2167356	0	-108.528	-30.449	-16.253	NA
0.489607182940516	B5-03822-P01-CH0	3497744	OK	0.2178503	0.0655094	0.0513369	-0.972427	136.92	-38.04	-258.654	B5-03822-P02-CH0	3497744	OK	0.8366568	0.1601474	-0.5237921	0	-83.104	-101.72	8.903	B5-03822-P02-CH1	3497744	OK	0.6951648	-0.04808	-0.7172407	0	-71.741	-80.809	-0.95	B5-03822-P03-CH0	3497744	OK	0.8805994	-0.4163669	-0.2262372	0	-93.903	-69.451	10.677	B5-03822-P03-CH1	3497744	OK	0.7347888	-0.6458802	0.2071815	0	-95.961	-7.926	-17.949	B5-03822-P04-CH0	3497744	OK	0.7473896	-0.00257	0.6643811	0	-125.433	-38.546	3.122	B5-03822-P04-CH1	3497744	OK	0.7073188	-0.6725708	0.2175976	0	-108.602	-30.662	-15.736	NA
0.499599166265833	B5-03822-P01-CH0	3497752	OK	0.2179483	0.0655779	0.0506578	-0.972436	136.898	-38.1	-258.63	B5-03822-P02-CH0	3497752	OK	0.8466097	0.1625247	-0.5067917	0	-84.092	-102.172	9.911	B5-03822-P02-CH1	3497752	OK	0.6912338	-0.0251046	-0.722195	0	-71.737	-80.798	-0.238	B5-03822-P03-CH0	3497752	OK	0.8820213	-0.4162861	-0.2207812	0	-95.086	-69.763	10.972	B5-03822-P03-CH1	3497752	OK	0.736524	-0.6419061	0.2132815	0	-96.236	-7.371	-18.777	B5-03822-P04-CH0	3497752	OK	0.7472837	-0.0056313	0.6644813	0	-125.188	-39.734	2.933	B5-03822-P04-CH1	3497752	OK	0.7067827	-0.6726248	0.219167	0	-108.635	-31.005	-15.237	NA
0.50959114959115	B5-03822-P01-CH0	3497760	OK	0.218422	0.0651551	0.0518278	-0.9722965	136.867	-38.085	-258.779	B5-03822-P02-CH0	3497760	OK	0.8545791	0.1648683	-0.4924561	0	-85.073	-102.075	10.647	B5-03822-P02-CH1	3497760	OK	0.6856199	-0.0004096	-0.7279596	0	-72.877	-81.33	1.293	B5-03822-P03-CH0	3497760	OK	0.8841989	-0.415115	-0.214177	0	-95.208	-69.289	10.557	B5-03822-P03-CH1	3497760	OK	0.7359774	-0.6388585	0.2240469	0	-97.252	-9.945	-17.524	B5-03822-P04-CH0	3497760	OK	0.7463997	-0.0094949	0.6654302	0	-124.748	-38.311	2.291	B5-03822-P04-CH1	3497760	OK	0.7075244	-0.6712582	0.2209562	0	-108.714	-31.401	-14.682	NA
0.519583132916466	B5-03822-P01-CH0	3497768	OK	0.218058	0.0653296	0.0509552	-0.9724126	136.87	-38.202	-258.743	B5-03822-P02-CH0	3497768	OK	0.8616278	0.1668255	-0.4793399	0	-85.586	-101.294	11.552	B5-03822-P02-CH1	3497768	OK	0.6872022	0.0057677	-0.7264433	0	-72.059	-80.617	0.452	B5-03822-P03-CH0	3497768	OK	0.8828642	-0.4188789	-0.2123471	0	-95.289	-68.967	11.106	B5-03822-P03-CH1	3497768	OK	0.7330998	-0.6381983	0.2350906	0	-97.268	-12.976	-14.985	B5-03822-P04-CH0	3497768	OK	0.7477732	-0.0126278	0.6638342	0	-125.505	-39.462	3.096	B5-03822-P04-CH1	3497768	OK	0.7067351	-0.6719201	0.2214699	0	-108.729	-31.744	-14.512	NA
0.529575116241783	B5-03822-P01-CH0	3497776	OK	0.2180338	0.0650747	0.0509934	-0.9724331	136.74	-38.248	-258.73	B5-03822-P02-CH0	3497776	OK	0.8646668	0.1678688	-0.4734674	0	-86.955	-100.951	11.153	B5-03822-P02-CH1	3497776	OK	0.6909828	-0.008127	-0.7228255	0	-72.136	-80.14	0.169	B5-03822-P03-CH0	3497776	OK	0.8815683	-0.4244721	-0.2065449	0	-95.087	-69.127	11.373	B5-03822-P03-CH1	3497776	OK	0.7360683	-0.6355852	0.2328838	0	-95.854	-9.553	-19.256	B5-03822-P04-CH0	3497776	OK	0.7498233	-0.0137073	0.6614961	0	-126.258	-40.009	4.843	B5-03822-P04-CH1	3497776	OK	0.7069044	-0.6716958	0.2216098	0	-108.633	-31.722	-14.747	NA
0.5395670995671	B5-03822-P01-CH0	3497784	OK	0.2181361	0.0652169	0.0512137	-0.9723891	136.754	-38.236	-258.631	B5-03822-P02-CH0	3497784	OK	0.867623	0.1638107	-0.4694638	0	-87.671	-101.244	11.035	B5-03822-P02-CH1	3497784	OK	0.6961953	-0.0372806	-0.7168837	0	-72.569	-79.89	-0.338	B5-03822-P03-CH0	3497784	OK	0.8807366	-0.4293529	-0.1998977	0	-95.007	-69.107	10.777	B5-03822-P03-CH1	3497784	OK	0.7381711	-0.6328478	0.2336817	0	-95.357	-8.077	-21.591	B5-03822-P04-CH0	3497784	OK	0.7500395	-0.0173036	0.6611666	0	-125.955	-40.395	3.975	B5-03822-P04-CH1	3497784	OK	0.7075613	-0.6707523	0.22237	0	-109.021	-31.754	-14.519	NA
0.549559082892416	B5-03822-P01-CH0	3497792	OK	0.217727	0.0653324	0.0503424	-0.9725185	136.716	-38.365	-258.568	B5-03822-P02-CH0	3497792	OK	0.8709523	0.1635502	-0.4633503	0	-87.198	-100.119	10.949	B5-03822-P02-CH1	3497792	OK	0.703696	-0.089378	-0.7048571	0	-72.056	-78.072	-2.859	B5-03822-P03-CH0	3497792	OK	0.8801099	-0.4326235	-0.1955594	0	-95.831	-68.572	11.355	B5-03822-P03-CH1	3497792	OK	0.7394869	-0.6301869	0.2366931	0	-94.787	-7.898	-22.057	B5-03822-P04-CH0	3497792	OK	0.7509374	-0.0221213	0.6600027	0	-125.659	-39.975	4.259	B5-03822-P04-CH1	3497792	OK	0.7074888	-0.6711341	0.2214465	0	-108.854	-31.436	-14.861	NA
0.559551066217733	B5-03822-P01-CH0	3497800	OK	0.2176067	0.065321	0.0503402	-0.9725463	136.791	-38.532	-258.705	B5-03822-P02-CH0	3497800	OK	0.872369	0.1653456	-0.4600361	0	-87.059	-98.917	11.852	B5-03822-P02-CH1	3497800	OK	0.7063874	-0.1402194	-0.6937978	0	-72.54	-76.707	-0.032	B5-03822-P03-CH0	3497800	OK	0.8798684	-0.4361141	-0.1887752	0	-96.473	-68.671	11.536	B5-03822-P03-CH1	3497800	OK	0.7415056	-0.6267032	0.2396092	0	-94.998	-8.524	-22.469	B5-03822-P04-CH0	3497800	OK	0.7531026	-0.0256877	0.6574014	0	-125.988	-41.379	5.117	B5-03822-P04-CH1	3497800	OK	0.7077156	-0.670997	0.2211371	0	-108.797	-31.559	-14.631	NA
0.56954304954305	B5-03822-P01-CH0	3497808	OK	0.217504	0.0649734	0.0504294	-0.972588	136.603	-38.602	-258.686	B5-03822-P02-CH0	3497808	OK	0.8735376	0.1651282	-0.4578915	0	-86.861	-98.778	12.209	B5-03822-P02-CH1	3497808	OK	0.7077442	-0.1803516	-0.6830603	0	-71.273	-75.125	-0.985	B5-03822-P03-CH0	3497808	OK	0.8796882	-0.4391535	-0.1824632	0	-97.386	-68.362	11.701	B5-03822-P03-CH1	3497808	OK	0.7435389	-0.6235508	0.2415249	0	-94.8	-7.955	-24.571	B5-03822-P04-CH0	3497808	OK	0.7512578	-0.0319984	0.6592328	0	-124.168	-39.41	2.064	B5-03822-P04-CH1	3497808	OK	0.7080574	-0.6706726	0.221027	0	-108.731	-31.446	-14.988	NA
0.579535032868366	B5-03822-P01-CH0	3497816	OK	0.2172942	0.0647618	0.0502235	-0.9726596	136.507	-38.671	-258.773	B5-03822-P02-CH0	3497816	OK	0.8746761	0.1664418	-0.4552349	0	-86.317	-98.329	11.845	B5-03822-P02-CH1	3497816	OK	0.7016475	-0.1867195	-0.6876239	0	-72.538	-74.826	1.139	B5-03822-P03-CH0	3497816	OK	0.8800266	-0.4407963	-0.1767819	0	-97.598	-67.699	11.207	B5-03822-P03-CH1	3497816	OK	0.7437316	-0.6213058	0.2466625	0	-95.453	-9.879	-21.299	B5-03822-P04-CH0	3497816	OK	0.7544014	-0.034115	0.6555263	0	-124.957	-39.852	3.845	B5-03822-P04-CH1	3497816	OK	0.7081446	-0.6707316	0.220568	0	-108.61	-31.329	-15.058	NA
0.589527016193683	B5-03822-P01-CH0	3497824	OK	0.2169755	0.0651794	0.0495721	-0.9727363	136.498	-38.709	-258.561	B5-03822-P02-CH0	3497824	OK	0.8746412	0.1666125	-0.4552396	0	-86.097	-98.656	12.185	B5-03822-P02-CH1	3497824	OK	0.6983517	-0.1817581	-0.6922925	0	-72.41	-74.374	-0.301	B5-03822-P03-CH0	3497824	OK	0.8791976	-0.4432851	-0.1746708	0	-97.586	-67.877	11.675	B5-03822-P03-CH1	3497824	OK	0.7469048	-0.62057	0.2388014	0	-92.669	-5.286	-26.55	B5-03822-P04-CH0	3497824	OK	0.7567844	-0.0369942	0.6526168	0	-125.994	-39.807	3.36	B5-03822-P04-CH1	3497824	OK	0.7078756	-0.6709291	0.2208311	0	-108.786	-31.483	-14.776	NA
0.599518999519	B5-03822-P01-CH0	3497832	OK	0.2168741	0.0650665	0.0500192	-0.9727436	136.377	-38.635	-258.522	B5-03822-P02-CH0	3497832	OK	0.8742044	0.1736025	-0.4534631	0	-84.932	-97.579	10.953	B5-03822-P02-CH1	3497832	OK	0.6963085	-0.172954	-0.6965927	0	-72.401	-72.807	0.248	B5-03822-P03-CH0	3497832	OK	0.8776919	-0.4441936	-0.1798581	0	-97.893	-67.693	11.353	B5-03822-P03-CH1	3497832	OK	0.7482008	-0.6181865	0.240917	0	-93.009	-5.542	-25.043	B5-03822-P04-CH0	3497832	OK	0.7565724	-0.0415501	0.6525885	0	-125.079	-39.717	3.512	B5-03822-P04-CH1	3497832	OK	0.7079502	-0.6705584	0.2217161	0	-108.849	-31.799	-14.213	NA
0.609510982844316	B5-03822-P01-CH0	3497840	OK	0.2163158	0.0654112	0.0489108	-0.9729011	136.383	-38.686	-258.496	B5-03822-P02-CH0	3497840	OK	0.8716452	0.1752893	-0.4577207	0	-85.034	-97.464	11.655	B5-03822-P02-CH1	3497840	OK	0.6960846	-0.1765725	-0.6959083	0	-72.285	-72.28	1.09	B5-03822-P03-CH0	3497840	OK	0.8770366	-0.4434968	-0.1847089	0	-97.919	-67.096	10.838	B5-03822-P03-CH1	3497840	OK	0.7469012	-0.6178695	0.2457148	0	-93.577	-7.678	-23.399	B5-03822-P04-CH0	3497840	OK	0.7588662	-0.0441823	0.6497461	0	-125.35	-40.052	5.437	B5-03822-P04-CH1	3497840	OK	0.7067963	-0.6716932	0.2219622	0	-108.947	-32.197	-13.931	NA
0.619502966169633	B5-03822-P01-CH0	3497848	OK	0.2166675	0.0654332	0.0496709	-0.9727829	136.416	-38.618	-258.542	B5-03822-P02-CH0	3497848	OK	0.8697609	0.1770426	-0.4606211	0	-83.956	-97.074	11.583	B5-03822-P02-CH1	3497848	OK	0.6982921	-0.2020977	-0.6866911	0	-71.977	-72.236	-0.386	B5-03822-P03-CH0	3497848	OK	0.8771781	-0.4402569	-0.191657	0	-98.322	-66.708	11.237	B5-03822-P03-CH1	3497848	OK	0.7480779	-0.6167141	0.245037	0	-93.423	-7.031	-26.555	B5-03822-P04-CH0	3497848	OK	0.7588195	-0.04852	0.6494912	0	-124.599	-39.459	4.066	B5-03822-P04-CH1	3497848	OK	0.7067367	-0.6709094	0.224508	0	-109.321	-33.137	-12.651	NA
0.629494949494949	B5-03822-P01-CH0	3497856	OK	0.2162636	0.0658076	0.0488093	-0.9728911	136.473	-38.675	-258.532	B5-03822-P02-CH0	3497856	OK	0.8649111	0.1759884	-0.4700604	0	-84.015	-97.574	11.614	B5-03822-P02-CH1	3497856	OK	0.6995294	-0.2198943	-0.6799303	0	-71.839	-72.115	0.752	B5-03822-P03-CH0	3497856	OK	0.8759791	-0.4373365	-0.2034635	0	-98.507	-66.284	11.203	B5-03822-P03-CH1	3497856	OK	0.7472552	-0.6158303	0.2497253	0	-94.78	-9.685	-22.324	B5-03822-P04-CH0	3497856	OK	0.7607526	-0.0519549	0.6469592	0	-125.255	-39.311	4.574	B5-03822-P04-CH1	3497856	OK	0.7062621	-0.6714579	0.2243619	0	-109.464	-33.135	-12.611	NA
0.639486932820266	B5-03822-P01-CH0	3497864	OK	0.2161081	0.0657106	0.048679	-0.9729387	136.42	-38.661	-258.651	B5-03822-P02-CH0	3497864	OK	0.8601036	0.1845213	-0.4755773	0	-82.185	-95.998	10.38	B5-03822-P02-CH1	3497864	OK	0.6994926	-0.2368413	-0.6742524	0	-72.352	-71.643	1.775	B5-03822-P03-CH0	3497864	OK	0.8741877	-0.4326069	-0.2205608	0	-98.889	-65.501	10.976	B5-03822-P03-CH1	3497864	OK	0.7507895	-0.6143097	0.2427731	0	-93.403	-5.788	-25.259	B5-03822-P04-CH0	3497864	OK	0.7607169	-0.0547706	0.6467688	0	-124.839	-38.814	4.41	B5-03822-P04-CH1	3497864	OK	0.7058721	-0.671744	0.2247322	0	-109.535	-33.405	-12.153	NA
0.649478916145583	B5-03822-P01-CH0	3497872	OK	0.2162306	0.0657829	0.0489663	-0.9728922	136.472	-38.662	-258.68	B5-03822-P02-CH0	3497872	OK	0.8541072	0.1863969	-0.4855482	0	-81.267	-95.966	9.534	B5-03822-P02-CH1	3497872	OK	0.7009135	-0.2574763	-0.6651513	0	-72.228	-71.489	0.155	B5-03822-P03-CH0	3497872	OK	0.8706102	-0.4312493	-0.2367742	0	-98.678	-66.074	10.593	B5-03822-P03-CH1	3497872	OK	0.7503479	-0.6137834	0.2454545	0	-94.449	-7.441	-23.666	B5-03822-P04-CH0	3497872	OK	0.7605093	-0.0577973	0.6467497	0	-124.544	-37.842	2.251	B5-03822-P04-CH1	3497872	OK	0.7058484	-0.6714161	0.2257842	0	-109.808	-33.771	-11.461	NA
0.659470899470899	B5-03822-P01-CH0	3497880	OK	0.2165259	0.0653965	0.0496496	-0.9728179	136.386	-38.631	-258.777	B5-03822-P02-CH0	3497880	OK	0.8499256	0.1878458	-0.4922808	0	-80.38	-95.184	8.654	B5-03822-P02-CH1	3497880	OK	0.7015071	-0.2744534	-0.6576953	0	-72.543	-70.739	0.75	B5-03822-P03-CH0	3497880	OK	0.8673763	-0.4253822	-0.2582795	0	-98.785	-65.153	10.251	B5-03822-P03-CH1	3497880	OK	0.7495579	-0.6154774	0.2436195	0	-92.879	-7.453	-25.731	B5-03822-P04-CH0	3497880	OK	0.7602268	-0.060042	0.6468772	0	-124.015	-38.118	3.024	B5-03822-P04-CH1	3497880	OK	0.7060047	-0.6710415	0.2264081	0	-109.749	-33.963	-11.351	NA
0.669462882796216	B5-03822-P01-CH0	3497888	OK	0.2166181	0.0655378	0.0498471	-0.9727778	136.457	-38.621	-258.755	B5-03822-P02-CH0	3497888	OK	0.8476429	0.1879573	-0.4961588	0	-79.787	-95.034	8.143	B5-03822-P02-CH1	3497888	OK	0.7024685	-0.292051	-0.6490332	0	-72.37	-70.636	1.272	B5-03822-P03-CH0	3497888	OK	0.862051	-0.4191593	-0.2849097	0	-98.916	-64.671	10.076	B5-03822-P03-CH1	3497888	OK	0.7488197	-0.6144308	0.2484833	0	-94.408	-10.539	-21.162	B5-03822-P04-CH0	3497888	OK	0.7599408	-0.0609665	0.6471267	0	-123.547	-38.224	4.478	B5-03822-P04-CH1	3497888	OK	0.7053891	-0.6712943	0.2275746	0	-109.866	-34.573	-10.927	NA
0.679454866121533	B5-03822-P01-CH0	3497896	OK	0.2168479	0.0656191	0.0502137	-0.9727023	136.553	-38.622	-258.738	B5-03822-P02-CH0	3497896	OK	0.8467618	0.1860404	-0.4983808	0	-79.836	-94.586	8.843	B5-03822-P02-CH1	3497896	OK	0.7040567	-0.3122856	-0.6377946	0	-71.969	-70.53	-0.957	B5-03822-P03-CH0	3497896	OK	0.8561005	-0.4117959	-0.3122756	0	-98.32	-63.588	8.833	B5-03822-P03-CH1	3497896	OK	0.749383	-0.6147879	0.2458879	0	-93.573	-9.472	-23.708	B5-03822-P04-CH0	3497896	OK	0.762844	-0.0591615	0.6438703	0	-125.227	-40.142	5.217	B5-03822-P04-CH1	3497896	OK	0.7062451	-0.670727	0.2265902	0	-110.039	-34.105	-11.242	NA
0.689446849446849	B5-03822-P01-CH0	3497904	OK	0.2172076	0.0653279	0.050944	-0.9726036	136.542	-38.616	-258.816	B5-03822-P02-CH0	3497904	OK	0.8477258	0.1798784	-0.4990037	0	-80.403	-94.746	8.808	B5-03822-P02-CH1	3497904	OK	0.7054177	-0.3268962	-0.6289076	0	-71.671	-70.959	-0.428	B5-03822-P03-CH0	3497904	OK	0.8475044	-0.4060834	-0.3418079	0	-98.903	-63.028	8.526	B5-03822-P03-CH1	3497904	OK	0.750573	-0.6139736	0.244288	0	-93.353	-7.447	-24.161	B5-03822-P04-CH0	3497904	OK	0.7631036	-0.0608394	0.6434061	0	-124.911	-38.105	3.466	B5-03822-P04-CH1	3497904	OK	0.7065782	-0.6703131	0.2267767	0	-110.036	-34.103	-11.36	NA
0.699438832772166	B5-03822-P01-CH0	3497912	OK	0.2175132	0.0655071	0.0514007	-0.9724993	136.771	-38.652	-258.989	B5-03822-P02-CH0	3497912	OK	0.849434	0.1726416	-0.498655	0	-81.225	-94.944	9.249	B5-03822-P02-CH1	3497912	OK	0.7057618	-0.3274925	-0.6282109	0	-73.179	-70.88	0.396	B5-03822-P03-CH0	3497912	OK	0.8396504	-0.4033741	-0.3636985	0	-98.169	-63.043	7.555	B5-03822-P03-CH1	3497912	OK	0.75093	-0.6129969	0.2456398	0	-93.902	-8.336	-23.408	B5-03822-P04-CH0	3497912	OK	0.7611297	-0.0559176	0.6461848	0	-124.549	-38.943	4.483	B5-03822-P04-CH1	3497912	OK	0.7069496	-0.670164	0.2260586	0	-110.179	-34.024	-11.84	NA
0.709430816097483	B5-03822-P01-CH0	3497920	OK	0.2176667	0.0654929	0.0515194	-0.9724596	136.75	-38.684	-258.852	B5-03822-P02-CH0	3497920	OK	0.8532148	0.1662454	-0.4943551	0	-81.239	-94.491	9.905	B5-03822-P02-CH1	3497920	OK	0.7101728	-0.3171032	-0.6285699	0	-72.652	-70.266	0.499	B5-03822-P03-CH0	3497920	OK	0.8338304	-0.3991815	-0.3812887	0	-97.726	-62.37	6.874	B5-03822-P03-CH1	3497920	OK	0.7507351	-0.6128804	0.2465246	0	-94.078	-9.089	-23.111	B5-03822-P04-CH0	3497920	OK	0.7616436	-0.0574254	0.6454466	0	-124.546	-38.897	4.203	B5-03822-P04-CH1	3497920	OK	0.707605	-0.6700947	0.2242059	0	-109.91	-33.274	-12.325	NA
0.719422799422799	B5-03822-P01-CH0	3497928	OK	0.2176474	0.0656592	0.0513091	-0.9724638	136.778	-38.698	-258.729	B5-03822-P02-CH0	3497928	OK	0.8566875	0.1545007	-0.4921546	0	-82.22	-94.951	9.925	B5-03822-P02-CH1	3497928	OK	0.7120762	-0.3014082	-0.634114	0	-74.974	-71.352	1.147	B5-03822-P03-CH0	3497928	OK	0.8287008	-0.3970073	-0.3945126	0	-97.554	-61.463	6.298	B5-03822-P03-CH1	3497928	OK	0.7507051	-0.6128221	0.2467608	0	-94.264	-9.438	-22.699	B5-03822-P04-CH0	3497928	OK	0.7621197	-0.0589692	0.644745	0	-124.62	-38.757	4.018	B5-03822-P04-CH1	3497928	OK	0.7076712	-0.6703692	0.223174	0	-109.735	-32.847	-12.707	NA
0.729414782748116	B5-03822-P01-CH0	3497936	OK	0.2178797	0.0658179	0.0512294	-0.9724053	136.825	-38.747	-258.617	B5-03822-P02-CH0	3497936	OK	0.8603238	0.1458548	-0.4884356	0	-82.673	-95.224	10.312	B5-03822-P02-CH1	3497936	OK	0.7173071	-0.2856884	-0.635494	0	-75.116	-72.009	-0.084	B5-03822-P03-CH0	3497936	OK	0.8245446	-0.3954471	-0.4046577	0	-96.812	-62.153	6.772	B5-03822-P03-CH1	3497936	OK	0.7506298	-0.6128551	0.2469079	0	-94.296	-9.72	-22.705	B5-03822-P04-CH0	3497936	OK	0.7624718	-0.0600358	0.6442301	0	-124.607	-38.76	3.858	B5-03822-P04-CH1	3497936	OK	0.7075269	-0.6705253	0.2231628	0	-109.687	-32.931	-12.746	NA
0.739406766073433	B5-03822-P01-CH0	3497944	OK	0.217944	0.0657122	0.0512356	-0.9723977	136.769	-38.857	-258.56	B5-03822-P02-CH0	3497944	OK	0.8633911	0.1436735	-0.4836462	0	-82.985	-95.603	10.444	B5-03822-P02-CH1	3497944	OK	0.7200767	-0.267495	-0.6402624	0	-75.399	-71.962	-0.497	B5-03822-P03-CH0	3497944	OK	0.821123	-0.3888001	-0.4178416	0	-97.412	-61.427	5.964	B5-03822-P03-CH1	3497944	OK	0.7505529	-0.6128873	0.2470617	0	-94.281	-10.109	-22.421	B5-03822-P04-CH0	3497944	OK	0.7625328	-0.0613871	0.6440305	0	-124.407	-38.73	3.677	B5-03822-P04-CH1	3497944	OK	0.7076128	-0.6706595	0.2224859	0	-109.472	-32.778	-12.899	NA
0.749398749398749	B5-03822-P01-CH0	3497952	OK	0.2180308	0.0657789	0.0514191	-0.972364	136.731	-38.807	-258.506	B5-03822-P02-CH0	3497952	OK	0.8646402	0.1460862	-0.480683	0	-84.008	-95.813	10.535	B5-03822-P02-CH1	3497952	OK	0.7207853	-0.2494791	-0.6467061	0	-76.037	-72.801	-0.123	B5-03822-P03-CH0	3497952	OK	0.8196795	-0.3842488	-0.4248275	0	-97.061	-61.813	6.027	B5-03822-P03-CH1	3497952	OK	0.7507811	-0.6127404	0.2467326	0	-94.23	-10.068	-22.399	B5-03822-P04-CH0	3497952	OK	0.7630085	-0.0623758	0.6433718	0	-124.505	-38.687	3.76	B5-03822-P04-CH1	3497952	OK	0.7082432	-0.6704799	0.2210166	0	-109.367	-32.152	-13.503	NA
0.759390732724066	B5-03822-P01-CH0	3497960	OK	0.2180957	0.0660677	0.0512522	-0.9723387	136.766	-38.778	-258.453	B5-03822-P02-CH0	3497960	OK	0.8664179	0.148578	-0.4767018	0	-84.407	-96.214	10.785	B5-03822-P02-CH1	3497960	OK	0.7229679	-0.2327694	-0.6504889	0	-75.408	-73.567	-1.12	B5-03822-P03-CH0	3497960	OK	0.8174705	-0.3771936	-0.4352781	0	-98.469	-61.365	5.089	B5-03822-P03-CH1	3497960	OK	0.7508422	-0.6127657	0.2464836	0	-94.284	-9.972	-22.632	B5-03822-P04-CH0	3497960	OK	0.7634785	-0.0635165	0.6427023	0	-124.636	-38.809	3.842	B5-03822-P04-CH1	3497960	OK	0.7081359	-0.6706043	0.2209829	0	-109.431	-32.145	-13.262	NA
0.769382716049383	B5-03822-P01-CH0	3497968	OK	0.2180851	0.0657633	0.0518418	-0.9723305	136.673	-38.758	-258.608	B5-03822-P02-CH0	3497968	OK	0.868895	0.1460221	-0.4729683	0	-84.337	-97.083	11.411	B5-03822-P02-CH1	3497968	OK	0.7228333	-0.2185361	-0.6555563	0	-76.11	-74.216	0.173	B5-03822-P03-CH0	3497968	OK	0.8182829	-0.3702156	-0.4397198	0	-98.194	-61.325	5.768	B5-03822-P03-CH1	3497968	OK	0.7510621	-0.6123343	0.2468855	0	-94.456	-10.261	-22.074	B5-03822-P04-CH0	3497968	OK	0.7636887	-0.0646016	0.6423443	0	-124.619	-38.706	3.874	B5-03822-P04-CH1	3497968	OK	0.7091106	-0.6701403	0.2192581	0	-109.232	-31.393	-13.631	NA
0.779374699374699	B5-03822-P01-CH0	3497976	OK	0.2180857	0.0657843	0.0517882	-0.9723318	136.614	-38.79	-258.641	B5-03822-P02-CH0	3497976	OK	0.8708256	0.146177	-0.4693561	0	-83.677	-96.588	11.185	B5-03822-P02-CH1	3497976	OK	0.7227852	-0.2067633	-0.6594168	0	-76.181	-73.484	-1.575	B5-03822-P03-CH0	3497976	OK	0.8171311	-0.3674275	-0.4441776	0	-97.719	-61.257	5.519	B5-03822-P03-CH1	3497976	OK	0.7515716	-0.6121903	0.2456892	0	-94.174	-9.59	-22.576	B5-03822-P04-CH0	3497976	OK	0.7637571	-0.0660148	0.6421193	0	-124.535	-38.44	3.738	B5-03822-P04-CH1	3497976	OK	0.7089345	-0.6702565	0.2194721	0	-109.177	-31.508	-13.254	NA
0.789366682700016	B5-03822-P01-CH0	3497984	OK	0.2179914	0.0660527	0.0515542	-0.9723471	136.664	-38.832	-258.652	B5-03822-P02-CH0	3497984	OK	0.8702355	0.1435245	-0.4712652	0	-83.75	-96.605	11.969	B5-03822-P02-CH1	3497984	OK	0.7215229	-0.1985626	-0.6633081	0	-76.472	-73.661	-0.872	B5-03822-P03-CH0	3497984	OK	0.8140828	-0.366054	-0.4508588	0	-97.82	-60.775	5.471	B5-03822-P03-CH1	3497984	OK	0.751481	-0.6124829	0.2452364	0	-94.102	-9.492	-22.913	B5-03822-P04-CH0	3497984	OK	0.7637197	-0.0674547	0.6420141	0	-124.512	-38.361	3.661	B5-03822-P04-CH1	3497984	OK	0.7092197	-0.6704896	0.2178327	0	-109.067	-30.948	-13.839	NA
0.799358666025333	B5-03822-P01-CH0	3497992	OK	0.2174996	0.0664682	0.0507816	-0.9724696	136.695	-38.909	-258.443	B5-03822-P02-CH0	3497992	OK	0.8684672	0.1422938	-0.4748865	0	-83.89	-96.45	11.358	B5-03822-P02-CH1	3497992	OK	0.7199586	-0.1908329	-0.6672649	0	-76.609	-73.782	0.06	B5-03822-P03-CH0	3497992	OK	0.8108291	-0.3663033	-0.4564845	0	-97.338	-60.864	4.6	B5-03822-P03-CH1	3497992	OK	0.7506271	-0.6134145	0.2455231	0	-94.226	-9.963	-22.613	B5-03822-P04-CH0	3497992	OK	0.7636579	-0.0692136	0.6419003	0	-124.502	-38.256	3.548	B5-03822-P04-CH1	3497992	OK	0.7089684	-0.6709989	0.2170811	0	-109.185	-30.752	-13.857	NA
0.809350649350649	B5-03822-P01-CH0	3498000	OK	0.2177838	0.0663858	0.0514716	-0.9723753	136.669	-38.87	-258.517	B5-03822-P02-CH0	3498000	OK	0.8659166	0.1450507	-0.4786949	0	-83.826	-95.903	11.181	B5-03822-P02-CH1	3498000	OK	0.7200299	-0.1845261	-0.6689597	0	-75.727	-74.162	0.189	B5-03822-P03-CH0	3498000	OK	0.8084712	-0.3636909	-0.4627129	0	-97.143	-60.893	5.461	B5-03822-P03-CH1	3498000	OK	0.7512341	-0.6125164	0.2459085	0	-94.407	-10.027	-22.259	B5-03822-P04-CH0	3498000	OK	0.7635415	-0.0702784	0.6419231	0	-124.361	-38.282	3.51	B5-03822-P04-CH1	3498000	OK	0.7097548	-0.6704788	0.2161164	0	-108.975	-30.386	-14.112	NA
0.819342632675966	B5-03822-P01-CH0	3498008	OK	0.2173681	0.0666571	0.0503584	-0.9725081	136.657	-39.023	-258.464	B5-03822-P02-CH0	3498008	OK	0.8636025	0.142158	-0.4837167	0	-84.273	-96.639	11.694	B5-03822-P02-CH1	3498008	OK	0.7187219	-0.1768367	-0.6724341	0	-75.612	-74.284	-0.459	B5-03822-P03-CH0	3498008	OK	0.8058055	-0.3621206	-0.4685576	0	-96.867	-60.803	5.301	B5-03822-P03-CH1	3498008	OK	0.7505519	-0.6133752	0.2458511	0	-94.443	-10.266	-22.081	B5-03822-P04-CH0	3498008	OK	0.7635991	-0.0720752	0.6416554	0	-124.34	-38.504	3.902	B5-03822-P04-CH1	3498008	OK	0.7096721	-0.6711887	0.2141759	0	-108.854	-29.784	-14.698	NA
0.829334616001283	B5-03822-P01-CH0	3498016	OK	0.2176507	0.0664573	0.0515444	-0.9723964	136.65	-38.919	-258.598	B5-03822-P02-CH0	3498016	OK	0.8632815	0.1443059	-0.4836537	0	-83.554	-95.845	10.247	B5-03822-P02-CH1	3498016	OK	0.7173039	-0.1693413	-0.6758688	0	-76.206	-74.323	-1.243	B5-03822-P03-CH0	3498016	OK	0.8044884	-0.359195	-0.4730511	0	-96.8	-60.049	3.434	B5-03822-P03-CH1	3498016	OK	0.7514946	-0.6122853	0.245688	0	-94.414	-10.036	-22.068	B5-03822-P04-CH0	3498016	OK	0.7635262	-0.0729046	0.6416484	0	-124.224	-38.486	3.806	B5-03822-P04-CH1	3498016	OK	0.7106381	-0.6705431	0.2129915	0	-108.597	-29.357	-14.864	NA
0.839326599326599	B5-03822-P01-CH0	3498024	OK	0.2176424	0.0670613	0.0509616	-0.9723875	136.875	-39.001	-258.578	B5-03822-P02-CH0	3498024	OK	0.8618896	0.1391066	-0.487643	0	-84.212	-97.425	10.85	B5-03822-P02-CH1	3498024	OK	0.7167375	-0.1610055	-0.6785017	0	-76.288	-74.736	-0.271	B5-03822-P03-CH0	3498024	OK	0.803399	-0.356371	-0.4770217	0	-95.842	-60.475	5.149	B5-03822-P03-CH1	3498024	OK	0.751053	-0.612593	0.2462707	0	-94.702	-10.478	-21.949	B5-03822-P04-CH0	3498024	OK	0.7638809	-0.0742878	0.6410674	0	-124.449	-38.618	3.775	B5-03822-P04-CH1	3498024	OK	0.709985	-0.6710983	0.2134206	0	-108.652	-29.834	-14.007	NA
0.849318582651916	B5-03822-P01-CH0	3498032	OK	0.2175342	0.0668957	0.0508816	-0.9724273	136.794	-39.046	-258.573	B5-03822-P02-CH0	3498032	OK	0.8603744	0.1398436	-0.4901017	0	-84.26	-97.398	11.257	B5-03822-P02-CH1	3498032	OK	0.717682	-0.1537902	-0.6791768	0	-75.971	-74.827	-1.525	B5-03822-P03-CH0	3498032	OK	0.7990879	-0.3525583	-0.486992	0	-97.671	-59.76	3.93	B5-03822-P03-CH1	3498032	OK	0.7508356	-0.612771	0.2464906	0	-94.649	-10.659	-21.911	B5-03822-P04-CH0	3498032	OK	0.7633502	-0.0759048	0.6415099	0	-124.096	-38.488	3.633	B5-03822-P04-CH1	3498032	OK	0.7101241	-0.671567	0.2114745	0	-108.119	-29.222	-14.616	NA
0.859310565977233	B5-03822-P01-CH0	3498040	OK	0.2177088	0.0667901	0.0514094	-0.9723677	136.756	-39.04	-258.526	B5-03822-P02-CH0	3498040	OK	0.8579796	0.1421916	-0.4936117	0	-84.234	-96.989	11.025	B5-03822-P02-CH1	3498040	OK	0.718648	-0.1481576	-0.6794073	0	-75.396	-75.368	-0.687	B5-03822-P03-CH0	3498040	OK	0.7982631	-0.3510473	-0.4894301	0	-97.016	-59.803	3.481	B5-03822-P03-CH1	3498040	OK	0.7506167	-0.6123401	0.2482223	0	-94.99	-11.631	-20.841	B5-03822-P04-CH0	3498040	OK	0.7632544	-0.0765828	0.6415433	0	-123.991	-38.362	3.254	B5-03822-P04-CH1	3498040	OK	0.7102025	-0.6712243	0.212298	0	-108.241	-29.572	-14.13	NA
0.869302549302549	B5-03822-P01-CH0	3498048	OK	0.2175331	0.0670599	0.0506907	-0.9724262	136.784	-39.124	-258.356	B5-03822-P02-CH0	3498048	OK	0.8556773	0.140448	-0.498087	0	-84.351	-97.906	12.083	B5-03822-P02-CH1	3498048	OK	0.7175567	-0.1449153	-0.6812576	0	-75.741	-75.504	-0.235	B5-03822-P03-CH0	3498048	OK	0.7969291	-0.3501379	-0.4922474	0	-96.435	-59.879	3.117	B5-03822-P03-CH1	3498048	OK	0.7501059	-0.6129421	0.2482804	0	-95.008	-11.809	-21.046	B5-03822-P04-CH0	3498048	OK	0.7627884	-0.0788166	0.6418269	0	-123.679	-37.964	2.788	B5-03822-P04-CH1	3498048	OK	0.7093448	-0.6718695	0.2131227	0	-108.389	-30.049	-13.409	NA
0.879294532627866	B5-03822-P01-CH0	3498056	OK	0.2175375	0.0672027	0.0509995	-0.9723992	136.881	-39.16	-258.294	B5-03822-P02-CH0	3498056	OK	0.8543192	0.1454057	-0.4989949	0	-84.009	-97.633	10.897	B5-03822-P02-CH1	3498056	OK	0.7165102	-0.1425799	-0.68285	0	-75.975	-75.285	-0.207	B5-03822-P03-CH0	3498056	OK	0.7959646	-0.3495733	-0.4942053	0	-96.053	-59.556	2.48	B5-03822-P03-CH1	3498056	OK	0.7500534	-0.6126724	0.2491031	0	-95.437	-12.399	-20.484	B5-03822-P04-CH0	3498056	OK	0.7626668	-0.0803136	0.6417859	0	-123.55	-37.806	2.491	B5-03822-P04-CH1	3498056	OK	0.7090664	-0.6721307	0.2132256	0	-108.376	-30.448	-13.174	NA
0.889286515953183	B5-03822-P01-CH0	3498064	OK	0.2177575	0.0671299	0.0517398	-0.9723159	136.947	-39.129	-258.366	B5-03822-P02-CH0	3498064	OK	0.8522862	0.1476114	-0.5018158	0	-84.201	-97.754	10.676	B5-03822-P02-CH1	3498064	OK	0.7153536	-0.1412502	-0.6843373	0	-76.305	-75.558	-0.741	B5-03822-P03-CH0	3498064	OK	0.7939549	-0.3495618	-0.4974356	0	-96.285	-59.774	3.591	B5-03822-P03-CH1	3498064	OK	0.7511085	-0.6118606	0.2479167	0	-95.292	-11.68	-20.888	B5-03822-P04-CH0	3498064	OK	0.7626993	-0.0812872	0.6416247	0	-123.434	-37.775	2.658	B5-03822-P04-CH1	3498064	OK	0.7094648	-0.6718718	0.2127158	0	-108.313	-30.44	-13.234	NA
0.899278499278499	B5-03822-P01-CH0	3498072	OK	0.2181996	0.0668309	0.0524322	-0.9722003	136.916	-39.078	-258.561	B5-03822-P02-CH0	3498072	OK	0.8515181	0.1493561	-0.5026029	0	-83.553	-97.609	10.949	B5-03822-P02-CH1	3498072	OK	0.7144416	-0.1410228	-0.6853362	0	-76.67	-75.951	-0.992	B5-03822-P03-CH0	3498072	OK	0.7939701	-0.3491599	-0.4976935	0	-95.19	-59.484	3.35	B5-03822-P03-CH1	3498072	OK	0.7516672	-0.6111051	0.2480867	0	-95.264	-11.567	-20.677	B5-03822-P04-CH0	3498072	OK	0.7627682	-0.0821116	0.6414377	0	-123.351	-37.634	2.645	B5-03822-P04-CH1	3498072	OK	0.7098217	-0.6715754	0.2124611	0	-108.177	-30.391	-13.115	NA
0.909270482603816	B5-03822-P01-CH0	3498080	OK	0.2180571	0.0667115	0.0524002	-0.9722422	136.915	-39.137	-258.644	B5-03822-P02-CH0	3498080	OK	0.8494676	0.150708	-0.5056598	0	-83.896	-98.095	9.748	B5-03822-P02-CH1	3498080	OK	0.7145307	-0.1388438	-0.6856881	0	-76.512	-75.54	-0.467	B5-03822-P03-CH0	3498080	OK	0.7913271	-0.3480442	-0.5026596	0	-96.312	-58.957	2.485	B5-03822-P03-CH1	3498080	OK	0.7517663	-0.611296	0.2473149	0	-95.098	-11.23	-21.097	B5-03822-P04-CH0	3498080	OK	0.7627803	-0.0833287	0.6412663	0	-123.365	-37.517	2.509	B5-03822-P04-CH1	3498080	OK	0.7092673	-0.6716883	0.2139501	0	-108.481	-31.012	-12.27	NA
0.919262465929133	B5-03822-P01-CH0	3498088	OK	0.2181567	0.0664465	0.0528943	-0.9722113	136.847	-39.075	-258.68	B5-03822-P02-CH0	3498088	OK	0.8490803	0.1536051	-0.5054385	0	-82.823	-97.7	9.489	B5-03822-P02-CH1	3498088	OK	0.7153152	-0.1345328	-0.6857296	0	-75.88	-75.943	-1.256	B5-03822-P03-CH0	3498088	OK	0.7908666	-0.3464594	-0.5044759	0	-95.835	-58.778	2.661	B5-03822-P03-CH1	3498088	OK	0.7520228	-0.611005	0.2472541	0	-95.036	-11.02	-21.277	B5-03822-P04-CH0	3498088	OK	0.7624682	-0.0841687	0.6415278	0	-123.196	-37.276	2.242	B5-03822-P04-CH1	3498088	OK	0.7087906	-0.671802	0.2151695	0	-108.557	-31.616	-11.484	NA
0.929254449254449	B5-03822-P01-CH0	3498096	OK	0.2178226	0.0664295	0.052346	-0.972317	136.76	-39.112	-258.552	B5-03822-P02-CH0	3498096	OK	0.8477541	0.154486	-0.5073924	0	-82.574	-97.566	9.739	B5-03822-P02-CH1	3498096	OK	0.714974	-0.1300843	-0.6869427	0	-75.929	-75.826	-0.731	B5-03822-P03-CH0	3498096	OK	0.7907487	-0.3450769	-0.505607	0	-94.99	-59.054	3.329	B5-03822-P03-CH1	3498096	OK	0.7512891	-0.6117339	0.2476819	0	-95.13	-11.341	-21.194	B5-03822-P04-CH0	3498096	OK	0.7622464	-0.085822	0.6415723	0	-123.087	-37.004	2.014	B5-03822-P04-CH1	3498096	OK	0.7085371	-0.6722103	0.2147287	0	-108.607	-31.388	-11.539	NA
0.939246432579766	B5-03822-P01-CH0	3498104	OK	0.2175827	0.0661215	0.0525161	-0.9723825	136.636	-39.092	-258.59	B5-03822-P02-CH0	3498104	OK	0.8457472	0.1536259	-0.51099	0	-82.869	-97.757	8.776	B5-03822-P02-CH1	3498104	OK	0.7167879	-0.1267453	-0.6856754	0	-74.93	-75.764	-0.84	B5-03822-P03-CH0	3498104	OK	0.7898959	-0.3450317	-0.506969	0	-95.47	-58.679	2.642	B5-03822-P03-CH1	3498104	OK	0.7511194	-0.611964	0.247628	0	-95.073	-11.385	-21.077	B5-03822-P04-CH0	3498104	OK	0.7620882	-0.0868928	0.6416161	0	-122.962	-36.744	2.168	B5-03822-P04-CH1	3498104	OK	0.7089121	-0.6722874	0.2132447	0	-108.525	-30.754	-12.439	NA
0.949238415905083	B5-03822-P01-CH0	3498112	OK	0.2174816	0.0662581	0.052646	-0.9723888	136.735	-39.113	-258.637	B5-03822-P02-CH0	3498112	OK	0.8444706	0.1550774	-0.5126601	0	-82.978	-97.121	9.059	B5-03822-P02-CH1	3498112	OK	0.7161201	-0.1231576	-0.6870256	0	-75.425	-76.322	-0.857	B5-03822-P03-CH0	3498112	OK	0.7893273	-0.3443765	-0.5082984	0	-95.461	-58.869	2.572	B5-03822-P03-CH1	3498112	OK	0.7512841	-0.6118517	0.2474058	0	-95.221	-11.388	-20.778	B5-03822-P04-CH0	3498112	OK	0.7624405	-0.0875332	0.6411103	0	-123.187	-36.763	2.332	B5-03822-P04-CH1	3498112	OK	0.7085035	-0.6723244	0.2144823	0	-108.937	-31.376	-11.93	NA
0.959230399230399	B5-03822-P01-CH0	3498120	OK	0.2172754	0.0666735	0.0518524	-0.9724492	136.909	-39.244	-258.624	B5-03822-P02-CH0	3498120	OK	0.8427134	0.1521447	-0.5164166	0	-84.042	-98.183	9.438	B5-03822-P02-CH1	3498120	OK	0.7151106	-0.1196005	-0.6887036	0	-76.204	-76.59	-0.849	B5-03822-P03-CH0	3498120	OK	0.7879941	-0.3423961	-0.5116936	0	-96.324	-58.299	2.158	B5-03822-P03-CH1	3498120	OK	0.7513475	-0.6124317	0.2457728	0	-94.994	-10.636	-21.688	B5-03822-P04-CH0	3498120	OK	0.7624434	-0.0889728	0.6409086	0	-123.194	-36.864	2.687	B5-03822-P04-CH1	3498120	OK	0.7084695	-0.6730697	0.2122454	0	-108.743	-30.764	-12.722	NA
0.969222382555716	B5-03822-P01-CH0	3498128	OK	0.2176396	0.0668367	0.0524512	-0.9723244	137.048	-39.255	-258.728	B5-03822-P02-CH0	3498128	OK	0.8437853	0.1555076	-0.5136573	0	-83.404	-97.466	8.896	B5-03822-P02-CH1	3498128	OK	0.7149948	-0.1186632	-0.6889858	0	-76.406	-76.756	-0.309	B5-03822-P03-CH0	3498128	OK	0.7882936	-0.3430313	-0.510806	0	-95.643	-59.326	3.267	B5-03822-P03-CH1	3498128	OK	0.7518603	-0.6116848	0.2460648	0	-95.249	-10.73	-21.401	B5-03822-P04-CH0	3498128	OK	0.7627611	-0.0887302	0.6405642	0	-123.308	-37.167	2.992	B5-03822-P04-CH1	3498128	OK	0.7095439	-0.6724445	0.2106319	0	-108.617	-30.109	-13.478	NA
0.979214365881033	B5-03822-P01-CH0	3498136	OK	0.2176074	0.0664581	0.0524849	-0.9723557	136.926	-39.29	-258.787	B5-03822-P02-CH0	3498136	OK	0.8442198	0.1552321	-0.5130262	0	-83.34	-98.092	9.656	B5-03822-P02-CH1	3498136	OK	0.7150674	-0.1172478	-0.6891528	0	-76.579	-76.893	0.035	B5-03822-P03-CH0	3498136	OK	0.7902718	-0.3451517	-0.5063011	0	-95.522	-59.414	3.74	B5-03822-P03-CH1	3498136	OK	0.7521419	-0.6117243	0.2451039	0	-94.809	-10.191	-21.877	B5-03822-P04-CH0	3498136	OK	0.7624995	-0.0892026	0.64081	0	-123.194	-37.254	3.04	B5-03822-P04-CH1	3498136	OK	0.7094801	-0.6726878	0.2100693	0	-108.372	-29.955	-13.641	NA
0.989206349206349	B5-03822-P01-CH0	3498144	OK	0.217425	0.0665021	0.0520456	-0.9724172	136.896	-39.36	-258.735	B5-03822-P02-CH0	3498144	OK	0.843667	0.1568658	-0.5134385	0	-83.717	-98.012	9.442	B5-03822-P02-CH1	3498144	OK	0.7169235	-0.1163786	-0.6873694	0	-75.711	-76.102	-0.053	B5-03822-P03-CH0	3498144	OK	0.7895026	-0.3444631	-0.5079673	0	-95.503	-59.207	3.482	B5-03822-P03-CH1	3498144	OK	0.7515245	-0.6121156	0.2460193	0	-95.027	-10.805	-21.392	B5-03822-P04-CH0	3498144	OK	0.7625333	-0.0900568	0.6406503	0	-123.244	-37.326	2.967	B5-03822-P04-CH1	3498144	OK	0.7091337	-0.6730851	0.2099663	0	-108.3	-29.995	-13.22	NA
