Wav.Time	B5.03822.P01.CH0	Frame	State	Q0	Qx	Qy	Qz	Tx	Ty	Tz	B5.03822.P02.CH0	Frame.1	State.1	Q0.1	Qx.1	Qy.1	Qz.1	Tx.1	Ty.1	Tz.1	B5.03822.P02.CH1	Frame.2	State.2	Q0.2	Qx.2	Qy.2	Qz.2	Tx.2	Ty.2	Tz.2	B5.03822.P03.CH0	Frame.3	State.3	Q0.3	Qx.3	Qy.3	Qz.3	Tx.3	Ty.3	Tz.3	B5.03822.P03.CH1	Frame.4	State.4	Q0.4	Qx.4	Qy.4	Qz.4	Tx.4	Ty.4	Tz.4	B5.03822.P04.CH0	Frame.5	State.5	Q0.5	Qx.5	Qy.5	Qz.5	Tx.5	Ty.5	Tz.5	B5.03822.P04.CH1	Frame.6	State.6	Q0.6	Qx.6	Qy.6	Qz.6	Tx.6	Ty.6	Tz.6	X
0	B5-03822-P01-CH0	2018560	OK	0.247376	0.0652534	0.0720613	-0.9640302	113.603	-29.425	-225.683	B5-03822-P02-CH0	2018560	OK	0.7433542	0.3068061	-0.5943859	0	-75.356	-98.894	-3.191	B5-03822-P02-CH1	2018560	OK	0.7616448	-0.0759132	-0.6435328	0	-76.114	-74.441	-1.383	B5-03822-P03-CH0	2018560	OK	0.7923447	-0.4056866	-0.4556405	0	-91.974	-58.405	1.227	B5-03822-P03-CH1	2018560	OK	0.7487126	-0.6597923	-0.0640583	0	-97.271	-25.163	-4.762	B5-03822-P04-CH0	2018560	OK	0.7864837	-0.3806711	0.4863466	0	-119.085	-37.163	2.07	B5-03822-P04-CH1	2018560	OK	0.7824515	-0.6222544	0.0238556	0	-107.721	-45.953	-3.098	NA
0.0099922500645828	B5-03822-P01-CH0	2018568	OK	0.2474594	0.0651882	0.0721581	-0.964006	113.571	-29.437	-225.678	B5-03822-P02-CH0	2018568	OK	0.7316053	0.3183129	-0.602852	0	-73.11	-98.375	-5.11	B5-03822-P02-CH1	2018568	OK	0.7494052	-0.0953212	-0.6552142	0	-75.173	-73.87	-2.269	B5-03822-P03-CH0	2018568	OK	0.7971593	-0.4158765	-0.4377029	0	-92.19	-58.585	2.215	B5-03822-P03-CH1	2018568	OK	0.7488466	-0.6596694	-0.0637579	0	-97.24	-25.066	-5.008	B5-03822-P04-CH0	2018568	OK	0.7865223	-0.3793441	0.4873199	0	-119.078	-37.319	2.073	B5-03822-P04-CH1	2018568	OK	0.7824607	-0.6222275	0.0242519	0	-107.633	-45.994	-3.192	NA
0.0199845001291656	B5-03822-P01-CH0	2018576	OK	0.2473963	0.0651328	0.0724492	-0.9640041	113.538	-29.408	-225.69	B5-03822-P02-CH0	2018576	OK	0.71919	0.3298514	-0.6115258	0	-72.06	-99.018	-4.98	B5-03822-P02-CH1	2018576	OK	0.7378352	-0.1125327	-0.665534	0	-74.205	-73.014	-4.068	B5-03822-P03-CH0	2018576	OK	0.8032771	-0.4269962	-0.415235	0	-92.739	-58.444	2.173	B5-03822-P03-CH1	2018576	OK	0.7490694	-0.6594262	-0.0636571	0	-97.297	-24.894	-5.239	B5-03822-P04-CH0	2018576	OK	0.7866383	-0.3782544	0.4879794	0	-119.029	-37.205	2.025	B5-03822-P04-CH1	2018576	OK	0.7824993	-0.6221657	0.0245906	0	-107.661	-46.07	-3.24	NA
0.0299767501937484	B5-03822-P01-CH0	2018584	OK	0.2472919	0.0651001	0.0724829	-0.9640306	113.481	-29.419	-225.614	B5-03822-P02-CH0	2018584	OK	0.7059925	0.3430141	-0.6196095	0	-70.979	-99.306	-4.904	B5-03822-P02-CH1	2018584	OK	0.7330724	-0.1307546	-0.6674639	0	-72.773	-71.916	-1.936	B5-03822-P03-CH0	2018584	OK	0.8106507	-0.4393879	-0.387019	0	-91.985	-58.733	2.3	B5-03822-P03-CH1	2018584	OK	0.7490289	-0.6595007	-0.0633598	0	-97.28	-24.827	-5.438	B5-03822-P04-CH0	2018584	OK	0.7865722	-0.3772929	0.4888294	0	-118.969	-37.121	1.902	B5-03822-P04-CH1	2018584	OK	0.7824817	-0.6221813	0.0247544	0	-107.546	-46.08	-3.297	NA
0.0399690002583312	B5-03822-P01-CH0	2018592	OK	0.2470109	0.0649778	0.0726261	-0.9641001	113.438	-29.446	-225.631	B5-03822-P02-CH0	2018592	OK	0.6904496	0.3534361	-0.6311595	0	-70.168	-99.014	-4.594	B5-03822-P02-CH1	2018592	OK	0.7335384	-0.153271	-0.66214	0	-73.424	-71.864	-3.88	B5-03822-P03-CH0	2018592	OK	0.816408	-0.4498209	-0.3621313	0	-91.949	-59.157	2.804	B5-03822-P03-CH1	2018592	OK	0.749004	-0.6595284	-0.0633665	0	-97.28	-24.763	-5.429	B5-03822-P04-CH0	2018592	OK	0.7865897	-0.3764908	0.4894194	0	-118.96	-36.888	1.64	B5-03822-P04-CH1	2018592	OK	0.7824919	-0.6221631	0.0248892	0	-107.52	-46.118	-3.279	NA
0.049961250322914	B5-03822-P01-CH0	2018600	OK	0.2468553	0.0648314	0.072895	-0.9641295	113.382	-29.476	-225.662	B5-03822-P02-CH0	2018600	OK	0.679293	0.3533358	-0.6432066	0	-68.838	-99.057	-4.704	B5-03822-P02-CH1	2018600	OK	0.7344278	-0.1617454	-0.6591314	0	-73.62	-71.632	-3.519	B5-03822-P03-CH0	2018600	OK	0.8216313	-0.4552178	-0.3430726	0	-92.127	-59.137	2.437	B5-03822-P03-CH1	2018600	OK	0.7489304	-0.6596349	-0.063127	0	-97.313	-24.745	-5.44	B5-03822-P04-CH0	2018600	OK	0.7865441	-0.3705205	0.4940272	0	-118.934	-35.515	0.115	B5-03822-P04-CH1	2018600	OK	0.7825628	-0.6220677	0.0250454	0	-107.442	-46.179	-3.226	NA
0.0599535003874968	B5-03822-P01-CH0	2018608	OK	0.2467561	0.0648646	0.0729644	-0.9641474	113.386	-29.518	-225.72	B5-03822-P02-CH0	2018608	OK	0.6717835	0.3436459	-0.6562122	0	-67.908	-99.337	-4.331	B5-03822-P02-CH1	2018608	OK	0.7359507	-0.1652999	-0.6565459	0	-73.077	-71.699	-3.352	B5-03822-P03-CH0	2018608	OK	0.8268991	-0.457798	-0.3265866	0	-92.65	-59.349	2.871	B5-03822-P03-CH1	2018608	OK	0.7487542	-0.6598563	-0.0629032	0	-97.379	-24.714	-5.393	B5-03822-P04-CH0	2018608	OK	0.7858913	-0.3681821	0.4968067	0	-118.588	-35.865	0.369	B5-03822-P04-CH1	2018608	OK	0.7825214	-0.6221082	0.025331	0	-107.404	-46.264	-3.171	NA
0.0699457504520796	B5-03822-P01-CH0	2018616	OK	0.2468482	0.0650984	0.0730431	-0.9641021	113.475	-29.534	-225.82	B5-03822-P02-CH0	2018616	OK	0.6655553	0.327185	-0.67081	0	-67.21	-98.901	-4.84	B5-03822-P02-CH1	2018616	OK	0.7352378	-0.1674903	-0.6567894	0	-73.35	-71.788	-3.534	B5-03822-P03-CH0	2018616	OK	0.8343565	-0.4593377	-0.3047262	0	-92.262	-60.405	3.851	B5-03822-P03-CH1	2018616	OK	0.7484168	-0.6603106	-0.0621458	0	-97.426	-24.839	-5.182	B5-03822-P04-CH0	2018616	OK	0.7860322	-0.3623026	0.5008895	0	-119.167	-37.509	1.806	B5-03822-P04-CH1	2018616	OK	0.7825581	-0.6220466	0.0257067	0	-107.536	-46.348	-3.045	NA
0.0799380005166624	B5-03822-P01-CH0	2018624	OK	0.2465423	0.0652199	0.0724305	-0.9642184	113.465	-29.627	-225.797	B5-03822-P02-CH0	2018624	OK	0.661419	0.3091021	-0.6833599	0	-66.924	-99.158	-4.861	B5-03822-P02-CH1	2018624	OK	0.7363674	-0.1676143	-0.6554911	0	-72.615	-71.512	-3.023	B5-03822-P03-CH0	2018624	OK	0.8418984	-0.4565817	-0.287646	0	-93.014	-60.508	4.226	B5-03822-P03-CH1	2018624	OK	0.7478487	-0.6609469	-0.0622214	0	-97.367	-24.707	-5.265	B5-03822-P04-CH0	2018624	OK	0.786084	-0.3583979	0.5036099	0	-119.143	-37.061	1.582	B5-03822-P04-CH1	2018624	OK	0.7821494	-0.6225487	0.0259883	0	-107.596	-46.446	-2.91	NA
0.0899302505812452	B5-03822-P01-CH0	2018632	OK	0.2464129	0.065204	0.072487	-0.9642483	113.455	-29.641	-225.832	B5-03822-P02-CH0	2018632	OK	0.658497	0.2924696	-0.6934286	0	-66.712	-99.293	-5.152	B5-03822-P02-CH1	2018632	OK	0.7356461	-0.1681512	-0.6561631	0	-72.921	-71.804	-2.704	B5-03822-P03-CH0	2018632	OK	0.8511159	-0.4532883	-0.2648236	0	-92.937	-61.252	4.638	B5-03822-P03-CH1	2018632	OK	0.7476302	-0.6611939	-0.062224	0	-97.357	-24.604	-5.267	B5-03822-P04-CH0	2018632	OK	0.7864462	-0.35284	0.5069578	0	-119.592	-36.796	0.919	B5-03822-P04-CH1	2018632	OK	0.7821724	-0.6224942	0.0265951	0	-107.65	-46.463	-3.055	NA
0.0999225006458279	B5-03822-P01-CH0	2018640	OK	0.2463421	0.0653415	0.0726178	-0.9642472	113.489	-29.642	-225.843	B5-03822-P02-CH0	2018640	OK	0.6575132	0.278171	-0.7002123	0	-66.225	-99.164	-4.907	B5-03822-P02-CH1	2018640	OK	0.7342296	-0.1661793	-0.6582487	0	-73.379	-71.851	-3.342	B5-03822-P03-CH0	2018640	OK	0.8597886	-0.447733	-0.2455579	0	-93.506	-62.078	5.052	B5-03822-P03-CH1	2018640	OK	0.7474019	-0.6614391	-0.0623599	0	-97.409	-24.569	-5.078	B5-03822-P04-CH0	2018640	OK	0.7866223	-0.3420065	0.5140593	0	-120.071	-38.729	3.174	B5-03822-P04-CH1	2018640	OK	0.7822879	-0.6223208	0.0272476	0	-107.902	-46.474	-3.091	NA
0.109914750710411	B5-03822-P01-CH0	2018648	OK	0.2461273	0.0653608	0.0723956	-0.9643175	113.477	-29.701	-225.859	B5-03822-P02-CH0	2018648	OK	0.6588461	0.2659619	-0.7036947	0	-66.252	-98.876	-4.603	B5-03822-P02-CH1	2018648	OK	0.735228	-0.1634554	-0.6578161	0	-72.819	-71.344	-3.787	B5-03822-P03-CH0	2018648	OK	0.8673962	-0.4405893	-0.2313112	0	-93.73	-63.061	5.07	B5-03822-P03-CH1	2018648	OK	0.7467269	-0.6621692	-0.0626977	0	-97.292	-24.679	-4.912	B5-03822-P04-CH0	2018648	OK	0.7864168	-0.3330274	0.5202321	0	-120.399	-39.464	3.512	B5-03822-P04-CH1	2018648	OK	0.782186	-0.6224139	0.028036	0	-108.036	-46.529	-3.188	NA
0.119907000774994	B5-03822-P01-CH0	2018656	OK	0.2458804	0.0656336	0.0719926	-0.9643921	113.514	-29.746	-225.8	B5-03822-P02-CH0	2018656	OK	0.6630803	0.256145	-0.7033593	0	-66.911	-98.791	-3.878	B5-03822-P02-CH1	2018656	OK	0.7376149	-0.1647153	-0.654823	0	-73.136	-71.689	-2.128	B5-03822-P03-CH0	2018656	OK	0.8738686	-0.4310181	-0.2248933	0	-94.257	-63.918	5.906	B5-03822-P03-CH1	2018656	OK	0.7459889	-0.6629253	-0.063487	0	-97.301	-24.686	-4.72	B5-03822-P04-CH0	2018656	OK	0.7861141	-0.3285755	0.52351	0	-120.407	-38.222	2.039	B5-03822-P04-CH1	2018656	OK	0.7820101	-0.6225992	0.0288167	0	-108.256	-46.569	-3.182	NA
0.129899250839576	B5-03822-P01-CH0	2018664	OK	0.245752	0.0655793	0.0721802	-0.9644145	113.514	-29.758	-225.87	B5-03822-P02-CH0	2018664	OK	0.6708901	0.2463091	-0.6994557	0	-67.397	-97.961	-3.708	B5-03822-P02-CH1	2018664	OK	0.7449509	-0.1728917	-0.6443265	0	-73.648	-72.048	-2.639	B5-03822-P03-CH0	2018664	OK	0.8802866	-0.419579	-0.2214703	0	-94.237	-64.419	6.069	B5-03822-P03-CH1	2018664	OK	0.7456866	-0.6631744	-0.0644293	0	-97.303	-24.612	-4.677	B5-03822-P04-CH0	2018664	OK	0.7867584	-0.3222277	0.5264794	0	-120.568	-37.964	2.849	B5-03822-P04-CH1	2018664	OK	0.78207	-0.6224623	0.0301201	0	-108.458	-46.727	-3.237	NA
0.139891500904159	B5-03822-P01-CH0	2018672	OK	0.2457884	0.0655066	0.0726078	-0.9643781	113.485	-29.723	-225.92	B5-03822-P02-CH0	2018672	OK	0.6849359	0.2354375	-0.6895158	0	-67.949	-98.353	-4.636	B5-03822-P02-CH1	2018672	OK	0.7540622	-0.1762118	-0.6327239	0	-73.832	-72.787	-3.241	B5-03822-P03-CH0	2018672	OK	0.8853654	-0.4091535	-0.2207296	0	-94.387	-65.007	6.535	B5-03822-P03-CH1	2018672	OK	0.7456351	-0.6631622	-0.0651471	0	-97.301	-24.42	-4.614	B5-03822-P04-CH0	2018672	OK	0.7873946	-0.3161841	0.5291856	0	-120.984	-39.065	4.223	B5-03822-P04-CH1	2018672	OK	0.7823573	-0.6220305	0.0315459	0	-108.644	-46.797	-3.338	NA
0.149883750968742	B5-03822-P01-CH0	2018680	OK	0.2457058	0.0655966	0.0724938	-0.9644016	113.504	-29.765	-225.931	B5-03822-P02-CH0	2018680	OK	0.7013339	0.2252976	-0.6762926	0	-69.112	-99.181	-5.159	B5-03822-P02-CH1	2018680	OK	0.7628938	-0.1683407	-0.6242231	0	-74.489	-73.32	-2.578	B5-03822-P03-CH0	2018680	OK	0.888562	-0.4009825	-0.2228693	0	-95.293	-65.904	6.719	B5-03822-P03-CH1	2018680	OK	0.7450686	-0.6637133	-0.0660113	0	-97.3	-24.443	-4.444	B5-03822-P04-CH0	2018680	OK	0.7874926	-0.3126407	0.5311414	0	-121.395	-39.579	3.858	B5-03822-P04-CH1	2018680	OK	0.7820901	-0.6219083	0.0395614	0	-110.127	-47.761	-3.835	NA
0.159876001033325	B5-03822-P01-CH0	2018688	OK	0.2457115	0.065719	0.0726453	-0.9643804	113.535	-29.756	-225.926	B5-03822-P02-CH0	2018688	OK	0.7190372	0.2151448	-0.6608315	0	-70.559	-99.623	-6.214	B5-03822-P02-CH1	2018688	OK	0.7711116	-0.1489408	-0.6190344	0	-75.815	-74.289	-1.668	B5-03822-P03-CH0	2018688	OK	0.8933826	-0.3930762	-0.2176204	0	-95.18	-66.795	7.085	B5-03822-P03-CH1	2018688	OK	0.7448106	-0.6639226	-0.0668121	0	-97.333	-24.321	-4.44	B5-03822-P04-CH0	2018688	OK	0.7878874	-0.3118547	0.5310179	0	-121.465	-37.841	2.412	B5-03822-P04-CH1	2018688	OK	0.781357	-0.6227062	0.0414512	0	-109.675	-48.65	-2.884	NA
0.169868251097908	B5-03822-P01-CH0	2018696	OK	0.2454528	0.0654297	0.0726724	-0.9644639	113.428	-29.829	-225.889	B5-03822-P02-CH0	2018696	OK	0.7369152	0.2083231	-0.6430843	0	-72.158	-99.878	-5.274	B5-03822-P02-CH1	2018696	OK	0.7810224	-0.1312011	-0.6105655	0	-76.49	-75.362	-0.802	B5-03822-P03-CH0	2018696	OK	0.8980571	-0.3844479	-0.21376	0	-95.777	-67.557	7.099	B5-03822-P03-CH1	2018696	OK	0.7447679	-0.6638134	-0.0683557	0	-97.342	-23.946	-4.73	B5-03822-P04-CH0	2018696	OK	0.7879044	-0.3069108	0.5338656	0	-121.606	-39.099	3.871	B5-03822-P04-CH1	2018696	OK	0.7820016	-0.6219345	0.0408766	0	-110.204	-48.248	-2.44	NA
0.17986050116249	B5-03822-P01-CH0	2018704	OK	0.2453785	0.0652614	0.0732605	-0.9644497	113.384	-29.786	-225.922	B5-03822-P02-CH0	2018704	OK	0.7521269	0.2026789	-0.6270776	0	-74.624	-101.342	-2.899	B5-03822-P02-CH1	2018704	OK	0.788178	-0.1158071	-0.6044536	0	-76.886	-76.275	-0.539	B5-03822-P03-CH0	2018704	OK	0.9022822	-0.3776531	-0.2080023	0	-95.835	-68.325	7.068	B5-03822-P03-CH1	2018704	OK	0.744765	-0.6637198	-0.0692902	0	-97.287	-23.918	-4.646	B5-03822-P04-CH0	2018704	OK	0.7879446	-0.3049673	0.5349189	0	-121.745	-38.089	2.463	B5-03822-P04-CH1	2018704	OK	0.7826399	-0.6210428	0.0421964	0	-110.522	-48.201	-2.396	NA
0.189852751227073	B5-03822-P01-CH0	2018712	OK	0.2453256	0.0654278	0.0730135	-0.9644706	113.428	-29.834	-225.894	B5-03822-P02-CH0	2018712	OK	0.7659391	0.1983096	-0.6115641	0	-76.076	-101.562	-1.599	B5-03822-P02-CH1	2018712	OK	0.7915069	-0.1005919	-0.6028251	0	-77.291	-77.194	0.191	B5-03822-P03-CH0	2018712	OK	0.903791	-0.376603	-0.2033026	0	-95.751	-69.374	7.067	B5-03822-P03-CH1	2018712	OK	0.7442648	-0.6641778	-0.0702695	0	-97.363	-23.917	-4.578	B5-03822-P04-CH0	2018712	OK	0.7872662	-0.3013481	0.5379602	0	-121.875	-39.185	3.509	B5-03822-P04-CH1	2018712	OK	0.7824385	-0.6215559	0.0381881	0	-109.748	-47.586	-3.626	NA
0.199845001291656	B5-03822-P01-CH0	2018720	OK	0.2452952	0.0653535	0.0731862	-0.9644703	113.432	-29.85	-225.937	B5-03822-P02-CH0	2018720	OK	0.7772538	0.1933786	-0.598733	0	-77.21	-101.897	-0.823	B5-03822-P02-CH1	2018720	OK	0.794483	-0.0854347	-0.6012468	0	-77.409	-77.895	0.159	B5-03822-P03-CH0	2018720	OK	0.9046797	-0.3758618	-0.200705	0	-95.923	-69.699	7.012	B5-03822-P03-CH1	2018720	OK	0.7441201	-0.6642387	-0.0712195	0	-97.409	-23.81	-4.626	B5-03822-P04-CH0	2018720	OK	0.786666	-0.3010966	0.5389781	0	-122.226	-38.763	2.258	B5-03822-P04-CH1	2018720	OK	0.7824832	-0.6214185	0.0394856	0	-109.917	-47.748	-3.749	NA
0.209837251356239	B5-03822-P01-CH0	2018728	OK	0.2452657	0.0653739	0.073335	-0.9644651	113.469	-29.862	-225.98	B5-03822-P02-CH0	2018728	OK	0.784271	0.1872077	-0.5915	0	-78.803	-102.572	0.933	B5-03822-P02-CH1	2018728	OK	0.7951538	-0.0745762	-0.6018047	0	-77.847	-78.973	1.108	B5-03822-P03-CH0	2018728	OK	0.9044774	-0.3796736	-0.1943415	0	-95.618	-70.509	7.269	B5-03822-P03-CH1	2018728	OK	0.7437668	-0.6645603	-0.0719072	0	-97.538	-23.888	-4.377	B5-03822-P04-CH0	2018728	OK	0.7856031	-0.301523	0.5402885	0	-121.93	-37.944	1.116	B5-03822-P04-CH1	2018728	OK	0.7824665	-0.621349	0.0408852	0	-110.133	-48.037	-3.583	NA
0.219829501420821	B5-03822-P01-CH0	2018736	OK	0.2453061	0.0651703	0.0735225	-0.9644543	113.427	-29.879	-226.002	B5-03822-P02-CH0	2018736	OK	0.7903308	0.1845981	-0.5842095	0	-79.753	-102.632	0.839	B5-03822-P02-CH1	2018736	OK	0.7934486	-0.063847	-0.6052792	0	-77.93	-79.247	-0.068	B5-03822-P03-CH0	2018736	OK	0.9022837	-0.3872137	-0.1896041	0	-94.909	-70.95	6.827	B5-03822-P03-CH1	2018736	OK	0.743504	-0.6648026	-0.0723833	0	-97.544	-23.884	-4.264	B5-03822-P04-CH0	2018736	OK	0.7852961	-0.2952504	0.5441849	0	-121.841	-40.32	3.482	B5-03822-P04-CH1	2018736	OK	0.7825191	-0.6211942	0.0422096	0	-110.199	-48.179	-3.794	NA
0.229821751485404	B5-03822-P01-CH0	2018744	OK	0.2453707	0.0651076	0.0737172	-0.9644273	113.436	-29.844	-226.044	B5-03822-P02-CH0	2018744	OK	0.7949395	0.1831682	-0.5783775	0	-80.678	-102.801	1.746	B5-03822-P02-CH1	2018744	OK	0.7893105	-0.0537419	-0.6116377	0	-77.399	-79.249	-0.408	B5-03822-P03-CH0	2018744	OK	0.8988483	-0.3932874	-0.1933825	0	-94.546	-70.383	7.272	B5-03822-P03-CH1	2018744	OK	0.7429885	-0.6653538	-0.072611	0	-97.527	-24.007	-3.991	B5-03822-P04-CH0	2018744	OK	0.7866659	-0.291121	0.5444312	0	-122.902	-40.901	3.377	B5-03822-P04-CH1	2018744	OK	0.7826448	-0.6209702	0.0431637	0	-110.373	-48.286	-3.692	NA
0.239814001549987	B5-03822-P01-CH0	2018752	OK	0.2454101	0.0651137	0.0734972	-0.9644337	113.449	-29.894	-226.028	B5-03822-P02-CH0	2018752	OK	0.8001585	0.1863973	-0.5700898	0	-80.918	-102.472	2.621	B5-03822-P02-CH1	2018752	OK	0.7836429	-0.0405949	-0.6198838	0	-76.277	-78.859	-0.825	B5-03822-P03-CH0	2018752	OK	0.8934679	-0.4032794	-0.197689	0	-93.51	-70.333	7	B5-03822-P03-CH1	2018752	OK	0.7396792	-0.6686962	-0.0756312	0	-97.821	-23.272	-4.438	B5-03822-P04-CH0	2018752	OK	0.7861055	-0.2936496	0.5438824	0	-122.492	-39.223	2.146	B5-03822-P04-CH1	2018752	OK	0.7824484	-0.6211402	0.0442645	0	-110.422	-48.592	-3.358	NA
0.24980625161457	B5-03822-P01-CH0	2018760	OK	0.245369	0.0650899	0.0734095	-0.9644524	113.416	-29.876	-225.968	B5-03822-P02-CH0	2018760	OK	0.8039265	0.1900884	-0.5635322	0	-81.79	-102.398	2.579	B5-03822-P02-CH1	2018760	OK	0.7760753	-0.025146	-0.6301387	0	-75.634	-78.83	-0.597	B5-03822-P03-CH0	2018760	OK	0.8874021	-0.4126895	-0.2054383	0	-92.239	-69.97	6.976	B5-03822-P03-CH1	2018760	OK	0.7376117	-0.6708747	-0.0765253	0	-97.93	-22.658	-4.486	B5-03822-P04-CH0	2018760	OK	0.7860834	-0.2949883	0.5431895	0	-122.525	-39.293	2.382	B5-03822-P04-CH1	2018760	OK	0.7823678	-0.6211828	0.0450827	0	-110.447	-48.698	-3.319	NA
0.259798501679153	B5-03822-P01-CH0	2018768	OK	0.2453898	0.0649729	0.0735765	-0.9644423	113.388	-29.844	-225.929	B5-03822-P02-CH0	2018768	OK	0.8067606	0.192527	-0.5586329	0	-82.823	-102.491	3.191	B5-03822-P02-CH1	2018768	OK	0.7685114	-0.0062184	-0.6398059	0	-75.134	-78.815	-1.296	B5-03822-P03-CH0	2018768	OK	0.8807196	-0.4203458	-0.2182716	0	-91.436	-69.244	6.676	B5-03822-P03-CH1	2018768	OK	0.7338438	-0.6753726	-0.07311	0	-97.735	-23.52	-3.457	B5-03822-P04-CH0	2018768	OK	0.7860832	-0.297767	0.5416715	0	-122.126	-40.488	4.24	B5-03822-P04-CH1	2018768	OK	0.7825709	-0.6208817	0.0457023	0	-110.618	-48.646	-3.572	NA
0.269790751743735	B5-03822-P01-CH0	2018776	OK	0.2453474	0.0651661	0.0733141	-0.96446	113.447	-29.815	-225.905	B5-03822-P02-CH0	2018776	OK	0.8105098	0.1960312	-0.5519471	0	-83.18	-102.159	3.752	B5-03822-P02-CH1	2018776	OK	0.7613692	0.0108761	-0.6482273	0	-74.831	-78.471	-1.525	B5-03822-P03-CH0	2018776	OK	0.8730861	-0.4283273	-0.2329299	0	-90.663	-68.893	6.142	B5-03822-P03-CH1	2018776	OK	0.7296844	-0.6804212	-0.0677323	0	-97.922	-23.973	-2.743	B5-03822-P04-CH0	2018776	OK	0.7871773	-0.3097362	0.533306	0	-121.935	-38.155	1.428	B5-03822-P04-CH1	2018776	OK	0.7824071	-0.6210543	0.0461603	0	-110.709	-48.752	-3.422	NA
0.279783001808318	B5-03822-P01-CH0	2018784	OK	0.245513	0.065206	0.0732657	-0.9644188	113.461	-29.778	-225.884	B5-03822-P02-CH0	2018784	OK	0.8141535	0.1988739	-0.5455302	0	-83.396	-101.685	3.805	B5-03822-P02-CH1	2018784	OK	0.7562384	0.0201665	-0.6539853	0	-74.371	-78.246	-0.932	B5-03822-P03-CH0	2018784	OK	0.8662626	-0.4325618	-0.2499589	0	-90.076	-67.986	5.639	B5-03822-P03-CH1	2018784	OK	0.7262505	-0.684718	-0.061004	0	-98.15	-23.488	-2.904	B5-03822-P04-CH0	2018784	OK	0.7895722	-0.3186409	0.5244461	0	-121.679	-38.936	2.803	B5-03822-P04-CH1	2018784	OK	0.7823836	-0.6210506	0.0466046	0	-110.765	-48.85	-3.338	NA
0.289775251872901	B5-03822-P01-CH0	2018792	OK	0.2456738	0.0649608	0.073805	-0.9643533	113.399	-29.707	-225.891	B5-03822-P02-CH0	2018792	OK	0.8167742	0.1995833	-0.5413377	0	-83.96	-101.357	4.38	B5-03822-P02-CH1	2018792	OK	0.7530814	0.0229668	-0.6575264	0	-74.21	-77.836	-2.719	B5-03822-P03-CH0	2018792	OK	0.859693	-0.4346884	-0.2682796	0	-89.704	-66.711	5.68	B5-03822-P03-CH1	2018792	OK	0.7243959	-0.6873285	-0.0531985	0	-98.97	-22.408	-3.8	B5-03822-P04-CH0	2018792	OK	0.7921091	-0.3319141	0.5122463	0	-120.828	-39.067	4.109	B5-03822-P04-CH1	2018792	OK	0.7828278	-0.6204876	0.0466443	0	-110.702	-48.817	-3.179	NA
0.299767501937484	B5-03822-P01-CH0	2018800	OK	0.24557	0.0649395	0.073531	-0.9644021	113.372	-29.725	-225.83	B5-03822-P02-CH0	2018800	OK	0.819004	0.1973288	-0.5387892	0	-84.414	-101.25	5.299	B5-03822-P02-CH1	2018800	OK	0.7532173	0.0199398	-0.6574695	0	-73.826	-77.127	-2.582	B5-03822-P03-CH0	2018800	OK	0.8510246	-0.4394317	-0.2875012	0	-89.162	-65.733	4.463	B5-03822-P03-CH1	2018800	OK	0.7226425	-0.6898314	-0.0438232	0	-98.916	-22.176	-3.161	B5-03822-P04-CH0	2018800	OK	0.7943086	-0.3492976	0.4970563	0	-120.021	-37.517	2.814	B5-03822-P04-CH1	2018800	OK	0.7826593	-0.6207219	0.0463539	0	-110.557	-48.909	-2.902	NA
0.309759752002067	B5-03822-P01-CH0	2018808	OK	0.2454724	0.0651208	0.073054	-0.964451	113.362	-29.696	-225.692	B5-03822-P02-CH0	2018808	OK	0.8209161	0.1949857	-0.5367284	0	-84.608	-100.664	5.48	B5-03822-P02-CH1	2018808	OK	0.7554359	0.0133241	-0.6550871	0	-73.729	-76.63	-1.719	B5-03822-P03-CH0	2018808	OK	0.8406058	-0.4430156	-0.3116395	0	-89.147	-65.228	4.178	B5-03822-P03-CH1	2018808	OK	0.720832	-0.6920309	-0.0386577	0	-98.008	-22.32	-3.43	B5-03822-P04-CH0	2018808	OK	0.7954914	-0.3611421	0.4865901	0	-119.136	-37.983	4.305	B5-03822-P04-CH1	2018808	OK	0.7824115	-0.621092	0.0455736	0	-110.455	-48.799	-2.812	NA
0.319752002066649	B5-03822-P01-CH0	2018816	OK	0.2455814	0.0651272	0.0731508	-0.9644155	113.392	-29.622	-225.716	B5-03822-P02-CH0	2018816	OK	0.8223755	0.1911284	-0.5358811	0	-84.841	-100.023	5.104	B5-03822-P02-CH1	2018816	OK	0.7601863	0.0060133	-0.6496773	0	-73.989	-76.365	-1.69	B5-03822-P03-CH0	2018816	OK	0.8331673	-0.4382785	-0.3372599	0	-89.463	-63.99	3.893	B5-03822-P03-CH1	2018816	OK	0.7209655	-0.6918871	-0.0387423	0	-99.093	-21.933	-4.038	B5-03822-P04-CH0	2018816	OK	0.7973748	-0.3665207	0.4794329	0	-119.076	-38.251	4.369	B5-03822-P04-CH1	2018816	OK	0.7824313	-0.6211198	0.0448503	0	-110.389	-48.749	-2.702	NA
0.329744252131232	B5-03822-P01-CH0	2018824	OK	0.2454053	0.0653525	0.0725157	-0.964493	113.433	-29.651	-225.645	B5-03822-P02-CH0	2018824	OK	0.8230702	0.1849222	-0.5369909	0	-85.443	-99.729	5.497	B5-03822-P02-CH1	2018824	OK	0.7656965	-0.0009887	-0.6432013	0	-74.836	-76	-1.594	B5-03822-P03-CH0	2018824	OK	0.8275014	-0.4288184	-0.3624311	0	-90.408	-63.166	4.459	B5-03822-P03-CH1	2018824	OK	0.7203121	-0.6923933	-0.0417367	0	-99.023	-22.28	-3.265	B5-03822-P04-CH0	2018824	OK	0.7983069	-0.3693389	0.4757046	0	-118.386	-38.025	5.141	B5-03822-P04-CH1	2018824	OK	0.7820203	-0.6217196	0.0436916	0	-110.303	-48.646	-2.735	NA
0.339736502195815	B5-03822-P01-CH0	2018832	OK	0.2453869	0.0653334	0.0724894	-0.964501	113.445	-29.589	-225.627	B5-03822-P02-CH0	2018832	OK	0.8238623	0.1808108	-0.5371763	0	-85.766	-99.106	5.296	B5-03822-P02-CH1	2018832	OK	0.7725386	-0.0062608	-0.6349369	0	-75.377	-75.558	-1.175	B5-03822-P03-CH0	2018832	OK	0.8231025	-0.417805	-0.3846315	0	-90.929	-62.051	3.925	B5-03822-P03-CH1	2018832	OK	0.7208315	-0.6915359	-0.0466903	0	-98.868	-21.706	-3.277	B5-03822-P04-CH0	2018832	OK	0.79834	-0.3723188	0.4733201	0	-117.918	-36.212	2.598	B5-03822-P04-CH1	2018832	OK	0.7820308	-0.6217975	0.0423747	0	-110.228	-48.401	-2.953	NA
0.349728752260398	B5-03822-P01-CH0	2018840	OK	0.2453547	0.0654483	0.0722641	-0.9645183	113.482	-29.55	-225.542	B5-03822-P02-CH0	2018840	OK	0.8243352	0.1766966	-0.5378194	0	-86.013	-98.807	4.86	B5-03822-P02-CH1	2018840	OK	0.7766819	-0.0107997	-0.6298004	0	-76.627	-75.657	-1.303	B5-03822-P03-CH0	2018840	OK	0.8198374	-0.4102805	-0.3994203	0	-90.879	-61.617	4.496	B5-03822-P03-CH1	2018840	OK	0.720996	-0.6910426	-0.0512333	0	-99.274	-21.354	-3.431	B5-03822-P04-CH0	2018840	OK	0.7988609	-0.371003	0.4734744	0	-118.199	-36.029	2.789	B5-03822-P04-CH1	2018840	OK	0.7819121	-0.6220392	0.0409961	0	-110.182	-48.167	-3.107	NA
0.359721002324981	B5-03822-P01-CH0	2018848	OK	0.2453309	0.0655612	0.0718198	-0.9645498	113.507	-29.532	-225.459	B5-03822-P02-CH0	2018848	OK	0.8246095	0.1710859	-0.5392112	0	-85.966	-99.131	4.905	B5-03822-P02-CH1	2018848	OK	0.7802346	-0.0140921	-0.6253282	0	-77.132	-75.508	-1.292	B5-03822-P03-CH0	2018848	OK	0.8162699	-0.4060972	-0.4108389	0	-91.146	-61.207	3.937	B5-03822-P03-CH1	2018848	OK	0.7198831	-0.6919169	-0.0549479	0	-98.922	-21.986	-2.768	B5-03822-P04-CH0	2018848	OK	0.7986512	-0.3664029	0.4773942	0	-118.08	-36.513	4.493	B5-03822-P04-CH1	2018848	OK	0.7815008	-0.6226311	0.0398377	0	-110.012	-48.133	-2.977	NA
0.369713252389563	B5-03822-P01-CH0	2018856	OK	0.2455691	0.0656425	0.0719442	-0.9644744	113.54	-29.453	-225.408	B5-03822-P02-CH0	2018856	OK	0.8243445	0.1707784	-0.5397138	0	-85.927	-98.171	4.37	B5-03822-P02-CH1	2018856	OK	0.7839613	-0.0149495	-0.6206297	0	-77.231	-75.008	0.288	B5-03822-P03-CH0	2018856	OK	0.8138798	-0.4039834	-0.4176088	0	-90.552	-60.883	3.184	B5-03822-P03-CH1	2018856	OK	0.7210235	-0.6905814	-0.0567661	0	-99.38	-21.412	-3.06	B5-03822-P04-CH0	2018856	OK	0.7985246	-0.360066	0.4824012	0	-118.757	-36.243	3.705	B5-03822-P04-CH1	2018856	OK	0.7815136	-0.622666	0.0390322	0	-109.845	-48.053	-2.947	NA
0.379705502454146	B5-03822-P01-CH0	2018864	OK	0.2455178	0.0659732	0.071254	-0.9645162	113.631	-29.475	-225.33	B5-03822-P02-CH0	2018864	OK	0.8245917	0.1691416	-0.5398516	0	-85.659	-97.942	4.431	B5-03822-P02-CH1	2018864	OK	0.7878543	-0.0143612	-0.6156942	0	-77.335	-74.655	0.849	B5-03822-P03-CH0	2018864	OK	0.8094381	-0.4022659	-0.4277758	0	-91.059	-60.553	3.365	B5-03822-P03-CH1	2018864	OK	0.7212491	-0.6903875	-0.0562565	0	-99.382	-21.621	-2.702	B5-03822-P04-CH0	2018864	OK	0.7972606	-0.3506018	0.4913795	0	-119.352	-37.576	4.355	B5-03822-P04-CH1	2018864	OK	0.7810248	-0.6233445	0.0379726	0	-109.736	-47.93	-3.118	NA
0.389697752518729	B5-03822-P01-CH0	2018872	OK	0.2456245	0.0661247	0.0709592	-0.9645003	113.668	-29.416	-225.287	B5-03822-P02-CH0	2018872	OK	0.8237199	0.1664192	-0.5420241	0	-85.782	-98.059	4.051	B5-03822-P02-CH1	2018872	OK	0.7915329	-0.0147327	-0.610949	0	-77.768	-75.049	0.367	B5-03822-P03-CH0	2018872	OK	0.8072016	-0.4009662	-0.4331877	0	-91.452	-60.004	3.239	B5-03822-P03-CH1	2018872	OK	0.7234346	-0.6881297	-0.0558551	0	-98.559	-21.468	-4.118	B5-03822-P04-CH0	2018872	OK	0.7962037	-0.3371902	0.5023568	0	-120.052	-38.954	5.282	B5-03822-P04-CH1	2018872	OK	0.7807374	-0.6237444	0.037311	0	-109.691	-47.805	-3.358	NA
0.399690002583312	B5-03822-P01-CH0	2018880	OK	0.245978	0.0659906	0.0713741	-0.9643888	113.638	-29.313	-225.266	B5-03822-P02-CH0	2018880	OK	0.8227646	0.1672436	-0.54322	0	-85.472	-97.645	4.62	B5-03822-P02-CH1	2018880	OK	0.794515	-0.0125706	-0.6071144	0	-78.303	-74.739	0.61	B5-03822-P03-CH0	2018880	OK	0.8063493	-0.4011854	-0.43457	0	-91.298	-60.156	3.597	B5-03822-P03-CH1	2018880	OK	0.7284753	-0.6828552	-0.0550681	0	-99.227	-21.448	-4.688	B5-03822-P04-CH0	2018880	OK	0.794293	-0.3241898	0.513809	0	-120.005	-38.398	3.431	B5-03822-P04-CH1	2018880	OK	0.7810066	-0.6234152	0.0371775	0	-109.674	-47.66	-3.515	NA
0.409682252647895	B5-03822-P01-CH0	2018888	OK	0.2462151	0.0658743	0.0717265	-0.9643101	113.599	-29.231	-225.198	B5-03822-P02-CH0	2018888	OK	0.8209422	0.1699729	-0.5451268	0	-85.643	-98.008	4.5	B5-03822-P02-CH1	2018888	OK	0.7967594	-0.0123242	-0.604171	0	-78.513	-75.411	1.312	B5-03822-P03-CH0	2018888	OK	0.8055588	-0.4011423	-0.4360733	0	-90.785	-60.273	3.047	B5-03822-P03-CH1	2018888	OK	0.7350383	-0.6759466	-0.0530555	0	-99.199	-21.951	-5.083	B5-03822-P04-CH0	2018888	OK	0.7930397	-0.3128212	0.5227149	0	-120.413	-36.582	0.798	B5-03822-P04-CH1	2018888	OK	0.7811801	-0.6232034	0.037083	0	-109.676	-47.582	-3.633	NA
0.419674502712477	B5-03822-P01-CH0	2018896	OK	0.2462553	0.0658827	0.0717121	-0.9643003	113.601	-29.238	-225.17	B5-03822-P02-CH0	2018896	OK	0.8209519	0.1727887	-0.5442261	0	-85.436	-98.426	4.41	B5-03822-P02-CH1	2018896	OK	0.7979662	-0.0103974	-0.6026125	0	-78.452	-75.954	0.824	B5-03822-P03-CH0	2018896	OK	0.8013058	-0.4009437	-0.4440193	0	-91.826	-59.867	2.025	B5-03822-P03-CH1	2018896	OK	0.7387955	-0.6722262	-0.0478866	0	-98.192	-24.782	-3.81	B5-03822-P04-CH0	2018896	OK	0.7923858	-0.3033162	0.5292675	0	-121.469	-39.017	2.234	B5-03822-P04-CH1	2018896	OK	0.7811829	-0.6232036	0.0370215	0	-109.659	-47.578	-3.63	NA
0.42966675277706	B5-03822-P01-CH0	2018904	OK	0.2465814	0.0657903	0.0723264	-0.9641774	113.601	-29.171	-225.188	B5-03822-P02-CH0	2018904	OK	0.8204641	0.1740095	-0.5445726	0	-85.173	-98.584	4.918	B5-03822-P02-CH1	2018904	OK	0.7981664	-0.0078932	-0.6023854	0	-78.206	-75.34	0.505	B5-03822-P03-CH0	2018904	OK	0.7948424	-0.4022445	-0.4543401	0	-91.009	-60.004	1.65	B5-03822-P03-CH1	2018904	OK	0.7456636	-0.6648255	-0.0446403	0	-98.346	-24.845	-4.598	B5-03822-P04-CH0	2018904	OK	0.7918894	-0.297412	0.5333454	0	-121.522	-38.54	1.265	B5-03822-P04-CH1	2018904	OK	0.7815335	-0.6227364	0.0374801	0	-109.648	-47.649	-3.6	NA
0.439659002841643	B5-03822-P01-CH0	2018912	OK	0.2466675	0.066137	0.0719851	-0.9641572	113.645	-29.185	-225.085	B5-03822-P02-CH0	2018912	OK	0.8195077	0.1740574	-0.5459956	0	-85.153	-98.506	5.186	B5-03822-P02-CH1	2018912	OK	0.7990017	-0.0105363	-0.6012364	0	-78.755	-75.574	0.547	B5-03822-P03-CH0	2018912	OK	0.7874924	-0.4010372	-0.4680009	0	-90.237	-59.757	1.403	B5-03822-P03-CH1	2018912	OK	0.7494063	-0.6604416	-0.0469788	0	-98.501	-24.779	-4.307	B5-03822-P04-CH0	2018912	OK	0.7923084	-0.2865706	0.5386323	0	-122.453	-41.797	4.21	B5-03822-P04-CH1	2018912	OK	0.7812809	-0.6230313	0.0378442	0	-109.636	-47.769	-3.518	NA
0.449651252906226	B5-03822-P01-CH0	2018920	OK	0.246759	0.0659514	0.0724827	-0.9641092	113.598	-29.156	-225.159	B5-03822-P02-CH0	2018920	OK	0.8192444	0.1735156	-0.5465628	0	-84.976	-98.743	4.767	B5-03822-P02-CH1	2018920	OK	0.802755	-0.0108612	-0.5962101	0	-79.181	-75.901	0.835	B5-03822-P03-CH0	2018920	OK	0.7807335	-0.3942052	-0.4848272	0	-90.246	-59.665	1.397	B5-03822-P03-CH1	2018920	OK	0.7522035	-0.6569069	-0.0516066	0	-98.162	-23.766	-5.97	B5-03822-P04-CH0	2018920	OK	0.7918855	-0.2849321	0.5401213	0	-122.641	-41.631	4.138	B5-03822-P04-CH1	2018920	OK	0.7816078	-0.6225885	0.038376	0	-109.528	-47.823	-3.472	NA
0.459643502970809	B5-03822-P01-CH0	2018928	OK	0.2467541	0.0660429	0.0727647	-0.964083	113.586	-29.133	-225.177	B5-03822-P02-CH0	2018928	OK	0.8194263	0.1767099	-0.5452653	0	-84.274	-98.43	4.517	B5-03822-P02-CH1	2018928	OK	0.807783	-0.0110027	-0.5893772	0	-79.391	-76.437	1.439	B5-03822-P03-CH0	2018928	OK	0.7738301	-0.382032	-0.5052114	0	-90.322	-59.464	1.558	B5-03822-P03-CH1	2018928	OK	0.7524193	-0.6564892	-0.0537311	0	-98.021	-25.042	-5.516	B5-03822-P04-CH0	2018928	OK	0.791115	-0.2847925	0.5413227	0	-122.822	-41.336	2.567	B5-03822-P04-CH1	2018928	OK	0.7818435	-0.6222761	0.0386413	0	-109.539	-47.828	-3.352	NA
0.469635753035391	B5-03822-P01-CH0	2018936	OK	0.246628	0.0658584	0.0731149	-0.9641014	113.508	-29.142	-225.223	B5-03822-P02-CH0	2018936	OK	0.8180763	0.1802177	-0.5461435	0	-83.876	-98.233	4.048	B5-03822-P02-CH1	2018936	OK	0.8122347	-0.0121415	-0.5832045	0	-80.197	-76.638	1.719	B5-03822-P03-CH0	2018936	OK	0.7676221	-0.3663557	-0.5258706	0	-90.601	-59.13	0.792	B5-03822-P03-CH1	2018936	OK	0.7523694	-0.6564247	-0.0551986	0	-97.507	-26.398	-3.66	B5-03822-P04-CH0	2018936	OK	0.7907774	-0.2832	0.5426499	0	-122.999	-41.629	2.416	B5-03822-P04-CH1	2018936	OK	0.7820625	-0.6219995	0.0386641	0	-109.527	-47.786	-3.5	NA
0.479628003099974	B5-03822-P01-CH0	2018944	OK	0.246504	0.0659252	0.0732158	-0.9641209	113.489	-29.16	-225.24	B5-03822-P02-CH0	2018944	OK	0.8148005	0.1798634	-0.5511345	0	-84.083	-99.024	4.072	B5-03822-P02-CH1	2018944	OK	0.8199557	-0.0118354	-0.5723047	0	-79.954	-76.394	1.427	B5-03822-P03-CH0	2018944	OK	0.7628655	-0.3488845	-0.544349	0	-90.245	-59.135	0.337	B5-03822-P03-CH1	2018944	OK	0.7538292	-0.6545369	-0.0576453	0	-97.409	-25.353	-4.521	B5-03822-P04-CH0	2018944	OK	0.7908333	-0.2841069	0.542094	0	-123.238	-41.193	2.19	B5-03822-P04-CH1	2018944	OK	0.7820972	-0.6219424	0.0388786	0	-109.507	-47.882	-3.378	NA
0.489620253164557	B5-03822-P01-CH0	2018952	OK	0.2463262	0.066111	0.0733154	-0.964146	113.505	-29.181	-225.236	B5-03822-P02-CH0	2018952	OK	0.8123978	0.1778331	-0.5553244	0	-83.735	-98.972	3.857	B5-03822-P02-CH1	2018952	OK	0.8257055	-0.0152931	-0.5638941	0	-80.858	-77.194	1.858	B5-03822-P03-CH0	2018952	OK	0.7589773	-0.3269749	-0.5630639	0	-89.846	-58.985	0.499	B5-03822-P03-CH1	2018952	OK	0.7544053	-0.6537063	-0.0595047	0	-97.382	-24.938	-5.45	B5-03822-P04-CH0	2018952	OK	0.790197	-0.2862917	0.5418724	0	-123.063	-40.946	2.334	B5-03822-P04-CH1	2018952	OK	0.782119	-0.6219162	0.0388599	0	-109.528	-47.937	-3.224	NA
0.49961250322914	B5-03822-P01-CH0	2018960	OK	0.2461531	0.0661634	0.0734057	-0.9641798	113.508	-29.237	-225.242	B5-03822-P02-CH0	2018960	OK	0.8097886	0.1769367	-0.5594066	0	-83.315	-98.895	1.871	B5-03822-P02-CH1	2018960	OK	0.8304676	-0.0174825	-0.5567925	0	-81.742	-77.038	1.887	B5-03822-P03-CH0	2018960	OK	0.7516129	-0.3007864	-0.5870311	0	-90.753	-58.978	0.344	B5-03822-P03-CH1	2018960	OK	0.7542227	-0.6538304	-0.0604483	0	-97.403	-25.251	-5.487	B5-03822-P04-CH0	2018960	OK	0.7896375	-0.2905308	0.5404298	0	-122.907	-40.514	2.147	B5-03822-P04-CH1	2018960	OK	0.7822155	-0.6218191	0.0384687	0	-109.46	-47.859	-3.37	NA
0.509604753293723	B5-03822-P01-CH0	2018968	OK	0.2459187	0.0662808	0.073166	-0.9642498	113.517	-29.318	-225.31	B5-03822-P02-CH0	2018968	OK	0.8071197	0.1750332	-0.563845	0	-82.773	-98.813	2.564	B5-03822-P02-CH1	2018968	OK	0.835558	-0.0200888	-0.5490349	0	-81.93	-77.008	2.111	B5-03822-P03-CH0	2018968	OK	0.7446459	-0.2690519	-0.6108302	0	-90.337	-58.743	0.298	B5-03822-P03-CH1	2018968	OK	0.7532716	-0.6548886	-0.0608508	0	-97.188	-26.142	-4.491	B5-03822-P04-CH0	2018968	OK	0.7895493	-0.2965035	0.5373059	0	-122.98	-39.828	1.349	B5-03822-P04-CH1	2018968	OK	0.7820348	-0.6220739	0.0380211	0	-109.435	-47.877	-3.341	NA
0.519597003358305	B5-03822-P01-CH0	2018976	OK	0.2456404	0.0664052	0.0728334	-0.9643373	113.468	-29.373	-225.189	B5-03822-P02-CH0	2018976	OK	0.8048824	0.1736163	-0.5674696	0	-82.717	-98.384	1.833	B5-03822-P02-CH1	2018976	OK	0.8382721	-0.023812	-0.544732	0	-82.617	-77.172	2.748	B5-03822-P03-CH0	2018976	OK	0.7379317	-0.2341181	-0.6329657	0	-90.468	-58.346	-0.628	B5-03822-P03-CH1	2018976	OK	0.7531722	-0.6549065	-0.0618795	0	-97.251	-25.92	-4.833	B5-03822-P04-CH0	2018976	OK	0.7893706	-0.3029145	0.5339821	0	-122.842	-39.295	0.823	B5-03822-P04-CH1	2018976	OK	0.7817907	-0.6224181	0.0374045	0	-109.389	-47.8	-3.461	NA
0.529589253422888	B5-03822-P01-CH0	2018984	OK	0.2454048	0.0663852	0.0727753	-0.9644031	113.438	-29.446	-225.177	B5-03822-P02-CH0	2018984	OK	0.8028424	0.1674962	-0.5721793	0	-82.99	-99.403	2.862	B5-03822-P02-CH1	2018984	OK	0.8422169	-0.0238596	-0.5386107	0	-82.371	-76.812	2.94	B5-03822-P03-CH0	2018984	OK	0.7371474	-0.2055132	-0.643722	0	-89.664	-58.849	1.094	B5-03822-P03-CH1	2018984	OK	0.7537762	-0.6539693	-0.064387	0	-97.339	-25.053	-5.629	B5-03822-P04-CH0	2018984	OK	0.788784	-0.3104927	0.5304848	0	-122.003	-39.041	1.51	B5-03822-P04-CH1	2018984	OK	0.7817279	-0.6225303	0.0368462	0	-109.291	-47.773	-3.382	NA
0.539581503487471	B5-03822-P01-CH0	2018992	OK	0.2452853	0.0662572	0.0731719	-0.9644122	113.409	-29.442	-225.245	B5-03822-P02-CH0	2018992	OK	0.8015044	0.1650115	-0.5747712	0	-82.878	-99.385	2.114	B5-03822-P02-CH1	2018992	OK	0.8440095	-0.0286495	-0.5355624	0	-83.07	-77.268	2.315	B5-03822-P03-CH0	2018992	OK	0.7382576	-0.1851232	-0.6486179	0	-90.266	-59.304	1.159	B5-03822-P03-CH1	2018992	OK	0.7537007	-0.6539022	-0.0659326	0	-97.586	-24.943	-5.006	B5-03822-P04-CH0	2018992	OK	0.7888509	-0.3154238	0.5274677	0	-122.342	-40.496	1.83	B5-03822-P04-CH1	2018992	OK	0.7820131	-0.6222124	0.0361557	0	-109.306	-47.582	-3.461	NA
0.549573753552054	B5-03822-P01-CH0	2019000	OK	0.2451238	0.0665468	0.0727458	-0.9644656	113.446	-29.518	-225.203	B5-03822-P02-CH0	2019000	OK	0.8009852	0.1638804	-0.5758176	0	-81.808	-98.456	1.522	B5-03822-P02-CH1	2019000	OK	0.8455105	-0.0345956	-0.5328369	0	-83.265	-77.43	2.858	B5-03822-P03-CH0	2019000	OK	0.7395008	-0.1698516	-0.6513748	0	-90.681	-59.273	0.75	B5-03822-P03-CH1	2019000	OK	0.7530041	-0.6550759	-0.0621315	0	-97.112	-25.55	-5.023	B5-03822-P04-CH0	2019000	OK	0.7885793	-0.3233812	0.5230365	0	-121.804	-40	2.241	B5-03822-P04-CH1	2019000	OK	0.7817399	-0.6226033	0.0353261	0	-109.327	-47.493	-3.46	NA
0.559566003616637	B5-03822-P01-CH0	2019008	OK	0.2451524	0.0664245	0.0727732	-0.9644647	113.425	-29.585	-225.253	B5-03822-P02-CH0	2019008	OK	0.797815	0.1593279	-0.5814687	0	-81.58	-98.633	2.078	B5-03822-P02-CH1	2019008	OK	0.8473479	-0.0403731	-0.5295012	0	-82.913	-77.275	3.118	B5-03822-P03-CH0	2019008	OK	0.7404765	-0.1595111	-0.6528789	0	-90.829	-58.622	0.412	B5-03822-P03-CH1	2019008	OK	0.7530847	-0.6548956	-0.0630487	0	-97.094	-25.547	-5.014	B5-03822-P04-CH0	2019008	OK	0.7883857	-0.3336692	0.5168296	0	-121.241	-37.442	-0.008	B5-03822-P04-CH1	2019008	OK	0.7818122	-0.6225416	0.0348105	0	-109.234	-47.408	-3.514	NA
0.569558253681219	B5-03822-P01-CH0	2019016	OK	0.2450511	0.0666149	0.0724615	-0.9645008	113.437	-29.625	-225.196	B5-03822-P02-CH0	2019016	OK	0.7954258	0.1564242	-0.5855163	0	-81.066	-98.315	0.869	B5-03822-P02-CH1	2019016	OK	0.8464349	-0.0478668	-0.5303364	0	-83.118	-77.433	2.712	B5-03822-P03-CH0	2019016	OK	0.740105	-0.1553624	-0.6542989	0	-90.837	-58.682	0.819	B5-03822-P03-CH1	2019016	OK	0.7527674	-0.6551631	-0.064051	0	-97.064	-25.502	-5.15	B5-03822-P04-CH0	2019016	OK	0.7884377	-0.3363078	0.5150369	0	-121.652	-39.377	2.365	B5-03822-P04-CH1	2019016	OK	0.7816872	-0.6227392	0.0340747	0	-109.201	-47.227	-3.538	NA
0.579550503745802	B5-03822-P01-CH0	2019024	OK	0.2450971	0.0664692	0.0730079	-0.9644579	113.403	-29.582	-225.187	B5-03822-P02-CH0	2019024	OK	0.7929354	0.1549037	-0.5892863	0	-80.445	-97.944	0.113	B5-03822-P02-CH1	2019024	OK	0.8453266	-0.0538836	-0.5315257	0	-82.957	-77.583	1.977	B5-03822-P03-CH0	2019024	OK	0.7390365	-0.1539429	-0.6558404	0	-90.943	-58.342	-0.232	B5-03822-P03-CH1	2019024	OK	0.7529084	-0.6549428	-0.0646445	0	-97.077	-25.517	-5.14	B5-03822-P04-CH0	2019024	OK	0.7881965	-0.3397335	0.5131543	0	-121.386	-39.727	3.052	B5-03822-P04-CH1	2019024	OK	0.7820351	-0.6223388	0.0333989	0	-109.19	-47.022	-3.668	NA
0.589542753810385	B5-03822-P01-CH0	2019032	OK	0.2450492	0.0663687	0.0728929	-0.9644857	113.367	-29.656	-225.217	B5-03822-P02-CH0	2019032	OK	0.7893017	0.1528048	-0.5946878	0	-80.138	-98.092	0.357	B5-03822-P02-CH1	2019032	OK	0.8436001	-0.0577651	-0.5338559	0	-82.556	-77.523	2.638	B5-03822-P03-CH0	2019032	OK	0.7381068	-0.1568109	-0.6562078	0	-90.997	-58.2	-0.567	B5-03822-P03-CH1	2019032	OK	0.7527558	-0.6550488	-0.0653428	0	-97.003	-25.508	-5.139	B5-03822-P04-CH0	2019032	OK	0.7872382	-0.3456905	0.5106409	0	-120.778	-38.122	1.231	B5-03822-P04-CH1	2019032	OK	0.7820204	-0.6223919	0.0327486	0	-109.098	-46.904	-3.725	NA
0.599535003874968	B5-03822-P01-CH0	2019040	OK	0.2450175	0.0665293	0.0726505	-0.964501	113.399	-29.683	-225.25	B5-03822-P02-CH0	2019040	OK	0.7859826	0.1515331	-0.5993906	0	-79.959	-98.385	0.035	B5-03822-P02-CH1	2019040	OK	0.8409404	-0.0603382	-0.5377532	0	-82.297	-77.539	2.645	B5-03822-P03-CH0	2019040	OK	0.7372414	-0.1632429	-0.6556118	0	-90.849	-58.175	0.17	B5-03822-P03-CH1	2019040	OK	0.7524528	-0.6553283	-0.0660271	0	-96.971	-25.492	-5.192	B5-03822-P04-CH0	2019040	OK	0.7866143	-0.3484929	0.5096967	0	-120.777	-38.58	1.229	B5-03822-P04-CH1	2019040	OK	0.7817595	-0.6227462	0.0322374	0	-109.055	-46.978	-3.414	NA
0.609527253939551	B5-03822-P01-CH0	2019048	OK	0.245138	0.0664785	0.0728995	-0.9644551	113.414	-29.685	-225.34	B5-03822-P02-CH0	2019048	OK	0.7838606	0.1527006	-0.601868	0	-79.491	-98.064	-0.023	B5-03822-P02-CH1	2019048	OK	0.8380121	-0.0619447	-0.5421242	0	-82.242	-77.623	1.845	B5-03822-P03-CH0	2019048	OK	0.7370286	-0.1715998	-0.6537143	0	-90.491	-57.73	0.163	B5-03822-P03-CH1	2019048	OK	0.7525757	-0.6551312	-0.0665799	0	-96.965	-25.411	-5.197	B5-03822-P04-CH0	2019048	OK	0.7868996	-0.3509481	0.5075671	0	-120.416	-38.11	2.003	B5-03822-P04-CH1	2019048	OK	0.7819455	-0.6225339	0.0318244	0	-108.991	-46.899	-3.379	NA
0.619519504004133	B5-03822-P01-CH0	2019056	OK	0.2452521	0.0664089	0.0731912	-0.9644088	113.417	-29.676	-225.465	B5-03822-P02-CH0	2019056	OK	0.7821164	0.1528252	-0.6041013	0	-79.306	-98.093	0.15	B5-03822-P02-CH1	2019056	OK	0.8364518	-0.0621568	-0.5445043	0	-81.728	-77.357	2.01	B5-03822-P03-CH0	2019056	OK	0.7390913	-0.1786324	-0.6494879	0	-90.094	-57.773	0.511	B5-03822-P03-CH1	2019056	OK	0.7525039	-0.6551796	-0.0669151	0	-96.97	-25.524	-4.932	B5-03822-P04-CH0	2019056	OK	0.7871008	-0.3547478	0.5046052	0	-120.133	-36.557	0.317	B5-03822-P04-CH1	2019056	OK	0.7821046	-0.6223541	0.0314301	0	-108.957	-46.862	-3.195	NA
0.629511754068716	B5-03822-P01-CH0	2019064	OK	0.2453384	0.0664746	0.073266	-0.9643766	113.409	-29.625	-225.491	B5-03822-P02-CH0	2019064	OK	0.7816611	0.1534099	-0.6045423	0	-78.736	-97.575	-0.588	B5-03822-P02-CH1	2019064	OK	0.8346989	-0.063697	-0.5470104	0	-81.426	-76.949	1.882	B5-03822-P03-CH0	2019064	OK	0.7403393	-0.1836994	-0.6466469	0	-90.877	-58.008	0.993	B5-03822-P03-CH1	2019064	OK	0.7524827	-0.6551708	-0.0672386	0	-96.993	-25.389	-4.942	B5-03822-P04-CH0	2019064	OK	0.7875394	-0.3548439	0.5038527	0	-120.496	-37.663	1.543	B5-03822-P04-CH1	2019064	OK	0.7822159	-0.6222428	0.0308595	0	-108.982	-46.661	-3.28	NA
0.639504004133299	B5-03822-P01-CH0	2019072	OK	0.2453666	0.0664365	0.0732484	-0.9643734	113.384	-29.659	-225.487	B5-03822-P02-CH0	2019072	OK	0.7805908	0.1503887	-0.6066804	0	-78.632	-97.973	-0.28	B5-03822-P02-CH1	2019072	OK	0.832828	-0.0657411	-0.5496141	0	-81.35	-77.108	1.668	B5-03822-P03-CH0	2019072	OK	0.7422377	-0.1886777	-0.6430271	0	-90.968	-57.549	0.458	B5-03822-P03-CH1	2019072	OK	0.7525679	-0.6550554	-0.067409	0	-96.945	-25.211	-5.256	B5-03822-P04-CH0	2019072	OK	0.7871834	-0.3569511	0.5029196	0	-120.008	-37.945	2.009	B5-03822-P04-CH1	2019072	OK	0.7822039	-0.6222802	0.0304056	0	-108.83	-46.614	-3.248	NA
0.649496254197882	B5-03822-P01-CH0	2019080	OK	0.2457114	0.0663434	0.0738004	-0.96425	113.392	-29.629	-225.53	B5-03822-P02-CH0	2019080	OK	0.7790077	0.1475839	-0.6093981	0	-78.704	-98.002	-0.902	B5-03822-P02-CH1	2019080	OK	0.8322719	-0.0666906	-0.5503416	0	-80.87	-76.725	1.43	B5-03822-P03-CH0	2019080	OK	0.7413729	-0.1972594	-0.6414475	0	-91.061	-57.237	-0.088	B5-03822-P03-CH1	2019080	OK	0.7530093	-0.6545836	-0.0670616	0	-96.965	-25.143	-5.286	B5-03822-P04-CH0	2019080	OK	0.7876471	-0.3585981	0.5010185	0	-119.871	-36.95	0.947	B5-03822-P04-CH1	2019080	OK	0.7825377	-0.6218631	0.0303485	0	-108.747	-46.653	-3.058	NA
0.659488504262465	B5-03822-P01-CH0	2019088	OK	0.2457812	0.0662403	0.0742934	-0.9642014	113.378	-29.576	-225.574	B5-03822-P02-CH0	2019088	OK	0.7791216	0.1452515	-0.6098127	0	-78.021	-97.744	-0.848	B5-03822-P02-CH1	2019088	OK	0.8298711	-0.0693633	-0.5536268	0	-80.951	-76.853	1.612	B5-03822-P03-CH0	2019088	OK	0.7387187	-0.2077316	-0.6412038	0	-90.742	-57.022	-0.485	B5-03822-P03-CH1	2019088	OK	0.7535417	-0.6539618	-0.067148	0	-96.969	-24.926	-5.308	B5-03822-P04-CH0	2019088	OK	0.7883023	-0.3588472	0.4998081	0	-119.997	-36.462	0.654	B5-03822-P04-CH1	2019088	OK	0.7828213	-0.6215326	0.0298004	0	-108.76	-46.577	-2.948	NA
0.669480754327047	B5-03822-P01-CH0	2019096	OK	0.2459013	0.0661133	0.074593	-0.9641563	113.386	-29.565	-225.649	B5-03822-P02-CH0	2019096	OK	0.7773443	0.1434857	-0.6124931	0	-78.195	-97.208	-0.551	B5-03822-P02-CH1	2019096	OK	0.8287761	-0.0700378	-0.55518	0	-80.531	-76.945	0.887	B5-03822-P03-CH0	2019096	OK	0.73568	-0.2189584	-0.6409619	0	-90.218	-57.047	-0.725	B5-03822-P03-CH1	2019096	OK	0.7539236	-0.6535345	-0.0670216	0	-96.927	-24.842	-5.377	B5-03822-P04-CH0	2019096	OK	0.7889149	-0.3575917	0.4997414	0	-120.15	-37.667	2.095	B5-03822-P04-CH1	2019096	OK	0.7829576	-0.621377	0.0294627	0	-108.7	-46.608	-2.865	NA
0.67947300439163	B5-03822-P01-CH0	2019104	OK	0.2459217	0.0660299	0.0740171	-0.9642013	113.365	-29.68	-225.741	B5-03822-P02-CH0	2019104	OK	0.7768875	0.141693	-0.6134891	0	-77.711	-97.444	-0.575	B5-03822-P02-CH1	2019104	OK	0.825707	-0.0692275	-0.5598353	0	-80.754	-77.108	1.128	B5-03822-P03-CH0	2019104	OK	0.7334685	-0.2283409	-0.6402222	0	-89.58	-56.922	-0.23	B5-03822-P03-CH1	2019104	OK	0.7536114	-0.6538994	-0.0669727	0	-96.813	-24.946	-5.414	B5-03822-P04-CH0	2019104	OK	0.7888452	-0.3589977	0.4988426	0	-119.74	-37.218	1.864	B5-03822-P04-CH1	2019104	OK	0.7826615	-0.6217731	0.0289687	0	-108.594	-46.633	-2.722	NA
0.689465254456213	B5-03822-P01-CH0	2019112	OK	0.2459688	0.0661263	0.0738802	-0.9641931	113.41	-29.684	-225.746	B5-03822-P02-CH0	2019112	OK	0.7760904	0.1430519	-0.6141823	0	-77.186	-97.244	-1.071	B5-03822-P02-CH1	2019112	OK	0.8220392	-0.0677896	-0.5653815	0	-80.99	-77.141	1.626	B5-03822-P03-CH0	2019112	OK	0.7312788	-0.2341176	-0.6406405	0	-89.608	-57.187	0.188	B5-03822-P03-CH1	2019112	OK	0.7536027	-0.6539262	-0.0668099	0	-96.788	-24.969	-5.398	B5-03822-P04-CH0	2019112	OK	0.7889991	-0.3585475	0.498923	0	-119.622	-38.034	3.02	B5-03822-P04-CH1	2019112	OK	0.7826534	-0.6218154	0.0282724	0	-108.618	-46.555	-2.6	NA
0.699457504520796	B5-03822-P01-CH0	2019120	OK	0.2460673	0.0661524	0.0737149	-0.9641789	113.42	-29.699	-225.741	B5-03822-P02-CH0	2019120	OK	0.7749216	0.1436963	-0.6155062	0	-76.797	-97.103	-1.644	B5-03822-P02-CH1	2019120	OK	0.8218482	-0.0668775	-0.5657676	0	-79.833	-77.025	1.775	B5-03822-P03-CH0	2019120	OK	0.7302345	-0.2359718	-0.6411512	0	-89.64	-57.149	-0.074	B5-03822-P03-CH1	2019120	OK	0.7536438	-0.6538975	-0.0666257	0	-96.886	-24.931	-5.38	B5-03822-P04-CH0	2019120	OK	0.7881985	-0.3569217	0.5013482	0	-119.734	-37.544	2.283	B5-03822-P04-CH1	2019120	OK	0.7826629	-0.6218195	0.0279136	0	-108.602	-46.447	-2.719	NA
0.709449754585378	B5-03822-P01-CH0	2019128	OK	0.2459343	0.0662907	0.0734774	-0.9642214	113.462	-29.735	-225.654	B5-03822-P02-CH0	2019128	OK	0.7722851	0.1419113	-0.6192228	0	-77.24	-97.655	-0.977	B5-03822-P02-CH1	2019128	OK	0.8203107	-0.0664585	-0.5680437	0	-79.871	-77.188	1.806	B5-03822-P03-CH0	2019128	OK	0.7295657	-0.2367211	-0.6416362	0	-89.519	-57.005	-0.424	B5-03822-P03-CH1	2019128	OK	0.7536302	-0.6539163	-0.0665949	0	-96.905	-24.889	-5.487	B5-03822-P04-CH0	2019128	OK	0.7884193	-0.3576396	0.5004887	0	-119.794	-37.659	2.4	B5-03822-P04-CH1	2019128	OK	0.7825665	-0.6219667	0.0273311	0	-108.614	-46.392	-2.788	NA
0.719442004649961	B5-03822-P01-CH0	2019136	OK	0.2460454	0.0663712	0.0734295	-0.9641912	113.512	-29.727	-225.665	B5-03822-P02-CH0	2019136	OK	0.7716087	0.1426739	-0.6198904	0	-76.802	-97.743	-1.167	B5-03822-P02-CH1	2019136	OK	0.8187507	-0.0649951	-0.5704585	0	-80.019	-76.856	2.047	B5-03822-P03-CH0	2019136	OK	0.7288499	-0.2394895	-0.6414223	0	-89.341	-57.241	-0.115	B5-03822-P03-CH1	2019136	OK	0.7538076	-0.6537427	-0.0662924	0	-96.885	-24.849	-5.565	B5-03822-P04-CH0	2019136	OK	0.7886873	-0.357907	0.499875	0	-119.809	-37.828	2.626	B5-03822-P04-CH1	2019136	OK	0.7827061	-0.6218029	0.0270614	0	-108.602	-46.305	-2.783	NA
0.729434254714544	B5-03822-P01-CH0	2019144	OK	0.2460513	0.0662955	0.0734666	-0.9641921	113.528	-29.757	-225.721	B5-03822-P02-CH0	2019144	OK	0.7706872	0.1436352	-0.6208141	0	-76.646	-97.551	-1.315	B5-03822-P02-CH1	2019144	OK	0.8179388	-0.0643007	-0.5717006	0	-80.046	-76.937	1.573	B5-03822-P03-CH0	2019144	OK	0.7282885	-0.2442939	-0.6402471	0	-89.252	-57.391	-0.137	B5-03822-P03-CH1	2019144	OK	0.7540364	-0.6534935	-0.0661462	0	-96.885	-24.831	-5.588	B5-03822-P04-CH0	2019144	OK	0.7888966	-0.3579465	0.4995162	0	-119.782	-38.035	2.906	B5-03822-P04-CH1	2019144	OK	0.782805	-0.6216997	0.0265681	0	-108.55	-46.277	-2.72	NA
0.739426504779127	B5-03822-P01-CH0	2019152	OK	0.2459472	0.0666144	0.0728926	-0.9642402	113.641	-29.782	-225.737	B5-03822-P02-CH0	2019152	OK	0.7683138	0.144642	-0.6235163	0	-77.389	-98.077	-0.725	B5-03822-P02-CH1	2019152	OK	0.8176822	-0.0626231	-0.5722536	0	-79.82	-76.932	1.159	B5-03822-P03-CH0	2019152	OK	0.728094	-0.2509327	-0.6378965	0	-89.197	-57.528	-0.049	B5-03822-P03-CH1	2019152	OK	0.7537069	-0.6538617	-0.0662628	0	-96.988	-24.922	-5.54	B5-03822-P04-CH0	2019152	OK	0.7890647	-0.3585092	0.4988468	0	-119.897	-38.047	3.06	B5-03822-P04-CH1	2019152	OK	0.7824259	-0.6221937	0.0261676	0	-108.626	-46.341	-2.587	NA
0.74941875484371	B5-03822-P01-CH0	2019160	OK	0.2456497	0.0667931	0.0721785	-0.9643574	113.66	-29.801	-225.727	B5-03822-P02-CH0	2019160	OK	0.7685341	0.1475269	-0.6225682	0	-77.073	-97.701	-0.991	B5-03822-P02-CH1	2019160	OK	0.8162027	-0.0620472	-0.5744244	0	-79.952	-77.221	1.759	B5-03822-P03-CH0	2019160	OK	0.7289338	-0.2556143	-0.6350723	0	-88.997	-57.519	0.176	B5-03822-P03-CH1	2019160	OK	0.7532708	-0.6543209	-0.0666873	0	-97	-24.949	-5.48	B5-03822-P04-CH0	2019160	OK	0.788914	-0.3597428	0.4981966	0	-119.801	-37.908	3.107	B5-03822-P04-CH1	2019160	OK	0.7820084	-0.6227461	0.0254975	0	-108.608	-46.263	-2.592	NA
0.759411004908292	B5-03822-P01-CH0	2019168	OK	0.2454541	0.0669795	0.0715301	-0.9644426	113.705	-29.847	-225.702	B5-03822-P02-CH0	2019168	OK	0.7687787	0.1488756	-0.6219448	0	-76.841	-97.682	-1.187	B5-03822-P02-CH1	2019168	OK	0.8159088	-0.0605973	-0.5749964	0	-79.591	-76.984	1.619	B5-03822-P03-CH0	2019168	OK	0.7293591	-0.2588172	-0.6332843	0	-88.996	-57.633	0.272	B5-03822-P03-CH1	2019168	OK	0.7526957	-0.6549609	-0.0668987	0	-97.008	-25.149	-5.472	B5-03822-P04-CH0	2019168	OK	0.788933	-0.3605315	0.4975959	0	-119.872	-37.887	3.151	B5-03822-P04-CH1	2019168	OK	0.7816425	-0.6232286	0.0249224	0	-108.565	-46.16	-2.791	NA
0.769403254972875	B5-03822-P01-CH0	2019176	OK	0.2454042	0.0672253	0.0709277	-0.9644827	113.768	-29.887	-225.685	B5-03822-P02-CH0	2019176	OK	0.768492	0.1501554	-0.6219914	0	-76.899	-97.953	-0.94	B5-03822-P02-CH1	2019176	OK	0.81451	-0.0608235	-0.5769523	0	-79.659	-77.573	1.135	B5-03822-P03-CH0	2019176	OK	0.7290026	-0.2626033	-0.6321351	0	-89.042	-57.94	0.106	B5-03822-P03-CH1	2019176	OK	0.7523536	-0.6553333	-0.0670996	0	-97.065	-25.21	-5.359	B5-03822-P04-CH0	2019176	OK	0.7888382	-0.3616576	0.4969286	0	-119.812	-37.66	2.997	B5-03822-P04-CH1	2019176	OK	0.7813225	-0.623646	0.0245102	0	-108.54	-46.165	-2.7	NA
0.779395505037458	B5-03822-P01-CH0	2019184	OK	0.2456105	0.0673518	0.0712932	-0.9643944	113.821	-29.777	-225.668	B5-03822-P02-CH0	2019184	OK	0.7678333	0.1532607	-0.6220476	0	-76.927	-97.823	-0.333	B5-03822-P02-CH1	2019184	OK	0.8132401	-0.059135	-0.5789159	0	-79.668	-77.589	1.814	B5-03822-P03-CH0	2019184	OK	0.7280692	-0.2658791	-0.6318414	0	-89.486	-57.494	-0.442	B5-03822-P03-CH1	2019184	OK	0.7527385	-0.6548969	-0.0670434	0	-97.167	-25.056	-5.41	B5-03822-P04-CH0	2019184	OK	0.7891433	-0.3619908	0.4962011	0	-119.864	-37.466	2.8	B5-03822-P04-CH1	2019184	OK	0.7815591	-0.6233526	0.0244329	0	-108.546	-46.133	-2.605	NA
0.789387755102041	B5-03822-P01-CH0	2019192	OK	0.2456277	0.0670019	0.0717751	-0.9643786	113.734	-29.689	-225.726	B5-03822-P02-CH0	2019192	OK	0.7677275	0.15804	-0.6209813	0	-76.617	-97.575	-1.143	B5-03822-P02-CH1	2019192	OK	0.8121312	-0.0544284	-0.5809307	0	-79.51	-77.294	1.494	B5-03822-P03-CH0	2019192	OK	0.7282321	-0.2709016	-0.629516	0	-89.48	-57.126	-0.422	B5-03822-P03-CH1	2019192	OK	0.7531917	-0.6543684	-0.0671135	0	-97.196	-24.853	-5.461	B5-03822-P04-CH0	2019192	OK	0.7893208	-0.3626349	0.495448	0	-119.844	-37.171	2.548	B5-03822-P04-CH1	2019192	OK	0.7818978	-0.622935	0.0242452	0	-108.434	-45.999	-2.663	NA
