Wav.Time	B5.03822.P01.CH0	Frame	State	Q0	Qx	Qy	Qz	Tx	Ty	Tz	B5.03822.P02.CH0	Frame.1	State.1	Q0.1	Qx.1	Qy.1	Qz.1	Tx.1	Ty.1	Tz.1	B5.03822.P02.CH1	Frame.2	State.2	Q0.2	Qx.2	Qy.2	Qz.2	Tx.2	Ty.2	Tz.2	B5.03822.P03.CH0	Frame.3	State.3	Q0.3	Qx.3	Qy.3	Qz.3	Tx.3	Ty.3	Tz.3	B5.03822.P03.CH1	Frame.4	State.4	Q0.4	Qx.4	Qy.4	Qz.4	Tx.4	Ty.4	Tz.4	B5.03822.P04.CH0	Frame.5	State.5	Q0.5	Qx.5	Qy.5	Qz.5	Tx.5	Ty.5	Tz.5	B5.03822.P04.CH1	Frame.6	State.6	Q0.6	Qx.6	Qy.6	Qz.6	Tx.6	Ty.6	Tz.6	X
0	B5-03822-P01-CH0	1233792	OK	0.2322212	0.0336705	0.0582908	-0.9703308	103.586	-11.578	-237.038	B5-03822-P02-CH0	1233792	OK	0.7090734	0.5309486	-0.4640135	0	-73.948	-99.494	3.633	B5-03822-P02-CH1	1233792	OK	0.7238567	-0.0770418	-0.6856355	0	-72.903	-75.588	0.263	B5-03822-P03-CH0	1233792	OK	0.8243109	-0.4533316	-0.3391194	0	-91.482	-58.7	8.348	B5-03822-P03-CH1	1233792	OK	0.8071384	-0.3689331	-0.460886	0	-97.926	-31.526	6.253	B5-03822-P04-CH0	1233792	OK	0.7037804	-0.1880678	0.685072	0	-121.648	-41.973	7.211	B5-03822-P04-CH1	1233792	OK	0.735832	-0.673995	0.0654372	0	-107.91	-48.395	2.247	NA
0.00999175427746856	B5-03822-P01-CH0	1233800	OK	0.2321521	0.033605	0.0581278	-0.9703593	103.558	-11.565	-236.95	B5-03822-P02-CH0	1233800	OK	0.707481	0.5338079	-0.4631627	0	-73.293	-99.454	3.539	B5-03822-P02-CH1	1233800	OK	0.7201233	-0.0831227	-0.6888491	0	-73.301	-75.212	0.259	B5-03822-P03-CH0	1233800	OK	0.8244466	-0.4539336	-0.3379824	0	-91.977	-58.494	8.414	B5-03822-P03-CH1	1233800	OK	0.8069909	-0.3694248	-0.4607506	0	-97.916	-31.475	6.086	B5-03822-P04-CH0	1233800	OK	0.7037549	-0.1882362	0.6850519	0	-121.655	-41.888	7.096	B5-03822-P04-CH1	1233800	OK	0.7357364	-0.6741069	0.0653588	0	-107.906	-48.39	2.244	NA
0.0199835085549371	B5-03822-P01-CH0	1233808	OK	0.2323625	0.0335862	0.0582724	-0.970301	103.592	-11.568	-236.972	B5-03822-P02-CH0	1233808	OK	0.7040757	0.5392465	-0.4620504	0	-72.646	-99.304	3.637	B5-03822-P02-CH1	1233808	OK	0.71625	-0.0967047	-0.6911108	0	-72.415	-74.83	0.95	B5-03822-P03-CH0	1233808	OK	0.8246671	-0.4582698	-0.3315312	0	-92.041	-58.495	8.373	B5-03822-P03-CH1	1233808	OK	0.8069968	-0.369912	-0.4603491	0	-97.908	-31.503	6.059	B5-03822-P04-CH0	1233808	OK	0.7038405	-0.1880177	0.685024	0	-121.669	-41.98	7.043	B5-03822-P04-CH1	1233808	OK	0.7358244	-0.6739797	0.0656796	0	-107.873	-48.461	2.117	NA
0.0299752628324057	B5-03822-P01-CH0	1233816	OK	0.2324451	0.0336648	0.0581376	-0.9702865	103.642	-11.553	-236.964	B5-03822-P02-CH0	1233816	OK	0.7000558	0.547752	-0.4581371	0	-72.155	-99.256	3.319	B5-03822-P02-CH1	1233816	OK	0.706788	-0.1172003	-0.6976495	0	-72.37	-75.351	1.565	B5-03822-P03-CH0	1233816	OK	0.8240516	-0.4643776	-0.3244879	0	-92.35	-58.201	8.87	B5-03822-P03-CH1	1233816	OK	0.806756	-0.3705602	-0.4602499	0	-97.961	-31.519	6.075	B5-03822-P04-CH0	1233816	OK	0.7037727	-0.187978	0.6851045	0	-121.691	-42.095	7.022	B5-03822-P04-CH1	1233816	OK	0.7356742	-0.6741529	0.0655855	0	-107.966	-48.401	1.573	NA
0.0399670171098743	B5-03822-P01-CH0	1233824	OK	0.2328634	0.0336043	0.0585069	-0.9701661	103.645	-11.484	-237.003	B5-03822-P02-CH0	1233824	OK	0.6959689	0.5582045	-0.4517024	0	-71.128	-98.638	3.391	B5-03822-P02-CH1	1233824	OK	0.6960082	-0.1453217	-0.7031743	0	-71.297	-74.333	0.852	B5-03822-P03-CH0	1233824	OK	0.8214974	-0.4751148	-0.3152902	0	-92.558	-58.149	8.13	B5-03822-P03-CH1	1233824	OK	0.806783	-0.3711903	-0.4596944	0	-97.942	-31.551	6.163	B5-03822-P04-CH0	1233824	OK	0.7037348	-0.1877431	0.6852079	0	-121.627	-42.21	6.996	B5-03822-P04-CH1	1233824	OK	0.7359033	-0.6738449	0.066177	0	-107.98	-48.453	1.518	NA
0.0499587713873428	B5-03822-P01-CH0	1233832	OK	0.2330964	0.0334423	0.0587919	-0.9700986	103.629	-11.455	-237.069	B5-03822-P02-CH0	1233832	OK	0.6947802	0.5689653	-0.4399534	0	-69.592	-97.593	3.33	B5-03822-P02-CH1	1233832	OK	0.6863343	-0.177702	-0.7052427	0	-69.269	-70.091	-2.078	B5-03822-P03-CH0	1233832	OK	0.8184395	-0.4894621	-0.3009712	0	-92.098	-58.177	7.712	B5-03822-P03-CH1	1233832	OK	0.8068123	-0.3718741	-0.4590899	0	-97.911	-31.612	6.266	B5-03822-P04-CH0	1233832	OK	0.7036972	-0.1881592	0.6851324	0	-121.593	-42.189	6.889	B5-03822-P04-CH1	1233832	OK	0.7362344	-0.6734654	0.0663568	0	-107.962	-48.465	1.781	NA
0.0599505256648114	B5-03822-P01-CH0	1233840	OK	0.2331328	0.0335014	0.058723	-0.9700919	103.635	-11.428	-237.018	B5-03822-P02-CH0	1233840	OK	0.6963112	0.577866	-0.4257013	0	-69.01	-97.832	3.698	B5-03822-P02-CH1	1233840	OK	0.6848688	-0.1871976	-0.70421	0	-69.708	-72.177	0.617	B5-03822-P03-CH0	1233840	OK	0.8152784	-0.5059311	-0.2816999	0	-92.048	-57.715	7.691	B5-03822-P03-CH1	1233840	OK	0.8064193	-0.3726566	-0.4591459	0	-98.032	-31.607	6.25	B5-03822-P04-CH0	1233840	OK	0.7038182	-0.1886266	0.6848795	0	-121.633	-42.23	6.927	B5-03822-P04-CH1	1233840	OK	0.7361111	-0.6735877	0.0664838	0	-108.021	-48.476	1.64	NA
0.0699422799422799	B5-03822-P01-CH0	1233848	OK	0.2332461	0.0332612	0.0588932	-0.9700626	103.567	-11.434	-237.005	B5-03822-P02-CH0	1233848	OK	0.6970917	0.5810211	-0.4200924	0	-67.921	-97.111	3.359	B5-03822-P02-CH1	1233848	OK	0.6939215	-0.1915345	-0.6941091	0	-69.19	-71.738	0.096	B5-03822-P03-CH0	1233848	OK	0.811594	-0.5253576	-0.2555671	0	-90.735	-58.007	6.991	B5-03822-P03-CH1	1233848	OK	0.8063749	-0.373596	-0.45846	0	-97.965	-31.686	6.199	B5-03822-P04-CH0	1233848	OK	0.7038054	-0.1891699	0.6847429	0	-121.608	-42.3	6.832	B5-03822-P04-CH1	1233848	OK	0.7363205	-0.6733536	0.0665358	0	-107.961	-48.401	1.49	NA
0.0799340342197485	B5-03822-P01-CH0	1233856	OK	0.2334835	0.0332529	0.0593673	-0.9699769	103.582	-11.33	-237.064	B5-03822-P02-CH0	1233856	OK	0.698404	0.5790337	-0.4206564	0	-67.613	-97.237	3.192	B5-03822-P02-CH1	1233856	OK	0.697465	-0.1969145	-0.6890336	0	-70.148	-71.867	0.289	B5-03822-P03-CH0	1233856	OK	0.8110912	-0.5378352	-0.2299226	0	-90.154	-58.522	7.893	B5-03822-P03-CH1	1233856	OK	0.8063478	-0.3747084	-0.4575991	0	-97.982	-31.726	6.153	B5-03822-P04-CH0	1233856	OK	0.7039496	-0.1895925	0.6844776	0	-121.626	-42.351	6.872	B5-03822-P04-CH1	1233856	OK	0.7365606	-0.6730694	0.0667545	0	-107.987	-48.4	1.435	NA
0.0899257884972171	B5-03822-P01-CH0	1233864	OK	0.2336642	0.0333981	0.0597814	-0.969903	103.633	-11.259	-237.066	B5-03822-P02-CH0	1233864	OK	0.7014542	0.5738478	-0.4226828	0	-66.887	-97.585	2.371	B5-03822-P02-CH1	1233864	OK	0.700644	-0.1999936	-0.6849092	0	-70.011	-71.469	0.62	B5-03822-P03-CH0	1233864	OK	0.8138278	-0.5436003	-0.2053851	0	-90.569	-58.456	7.89	B5-03822-P03-CH1	1233864	OK	0.8062523	-0.3761054	-0.4566201	0	-98.009	-31.802	6.022	B5-03822-P04-CH0	1233864	OK	0.7041871	-0.1902396	0.6840537	0	-121.728	-42.399	6.74	B5-03822-P04-CH1	1233864	OK	0.7368546	-0.6727222	0.0670092	0	-108.04	-48.385	1.496	NA
0.0999175427746856	B5-03822-P01-CH0	1233872	OK	0.2335684	0.0332723	0.0597999	-0.9699292	103.608	-11.281	-237.125	B5-03822-P02-CH0	1233872	OK	0.703006	0.5680413	-0.4279155	0	-67.081	-96.743	2.883	B5-03822-P02-CH1	1233872	OK	0.7020835	-0.2006436	-0.6832429	0	-69.918	-71.603	0.707	B5-03822-P03-CH0	1233872	OK	0.8170002	-0.5469856	-0.1825304	0	-91.289	-58.752	8.041	B5-03822-P03-CH1	1233872	OK	0.8056946	-0.3838435	-0.4511323	0	-97.872	-31.937	5.721	B5-03822-P04-CH0	1233872	OK	0.7039583	-0.1913421	0.6839817	0	-121.696	-42.461	6.672	B5-03822-P04-CH1	1233872	OK	0.7367173	-0.6728531	0.0672042	0	-108.101	-48.444	1.288	NA
0.109909297052154	B5-03822-P01-CH0	1233880	OK	0.2335697	0.03325	0.0599635	-0.9699196	103.588	-11.273	-237.086	B5-03822-P02-CH0	1233880	OK	0.706169	0.5603394	-0.4328337	0	-67.345	-96.243	3.366	B5-03822-P02-CH1	1233880	OK	0.7030662	-0.2043313	-0.6811363	0	-69.692	-71.677	0.368	B5-03822-P03-CH0	1233880	OK	0.8217352	-0.5491872	-0.1521336	0	-90.91	-60.194	8.162	B5-03822-P03-CH1	1233880	OK	0.8068079	-0.3861475	-0.4471588	0	-97.037	-32.138	6.29	B5-03822-P04-CH0	1233880	OK	0.7041748	-0.1917433	0.6836464	0	-121.821	-42.669	6.712	B5-03822-P04-CH1	1233880	OK	0.7368728	-0.6726453	0.0675774	0	-108.182	-48.365	1.016	NA
0.119901051329623	B5-03822-P01-CH0	1233888	OK	0.2335188	0.0332809	0.0599252	-0.9699332	103.597	-11.261	-237.087	B5-03822-P02-CH0	1233888	OK	0.7133754	0.5489302	-0.4356274	0	-67.048	-96.867	2.631	B5-03822-P02-CH1	1233888	OK	0.7027833	-0.2121232	-0.679043	0	-69.841	-71.406	0.463	B5-03822-P03-CH0	1233888	OK	0.8303259	-0.5427494	-0.12642	0	-92.116	-61.016	7.931	B5-03822-P03-CH1	1233888	OK	0.80529	-0.3881731	-0.4481402	0	-97.772	-31.941	6.133	B5-03822-P04-CH0	1233888	OK	0.7043841	-0.191878	0.6833929	0	-121.994	-42.993	6.977	B5-03822-P04-CH1	1233888	OK	0.73677	-0.6726756	0.0683918	0	-108.285	-48.454	1.046	NA
0.129892805607091	B5-03822-P01-CH0	1233896	OK	0.2333982	0.0332645	0.0597905	-0.969971	103.621	-11.305	-237.104	B5-03822-P02-CH0	1233896	OK	0.7199981	0.5350514	-0.4419533	0	-67.049	-96.459	1.797	B5-03822-P02-CH1	1233896	OK	0.703607	-0.2271555	-0.6733035	0	-69.484	-71.296	0.127	B5-03822-P03-CH0	1233896	OK	0.8389693	-0.5342229	-0.1036169	0	-92.756	-62.198	8.056	B5-03822-P03-CH1	1233896	OK	0.8046917	-0.3909399	-0.4468079	0	-97.433	-32.207	6.469	B5-03822-P04-CH0	1233896	OK	0.704612	-0.1922952	0.6830407	0	-122.214	-43.297	6.994	B5-03822-P04-CH1	1233896	OK	0.7367688	-0.6725814	0.0693243	0	-108.461	-48.55	1.233	NA
0.13988455988456	B5-03822-P01-CH0	1233904	OK	0.233179	0.0332894	0.0597578	-0.9700249	103.627	-11.318	-237.059	B5-03822-P02-CH0	1233904	OK	0.7258199	0.5181792	-0.4524111	0	-68.106	-95.686	2.409	B5-03822-P02-CH1	1233904	OK	0.7065624	-0.2441705	-0.6641915	0	-68.658	-70.98	-1.334	B5-03822-P03-CH0	1233904	OK	0.8468323	-0.5255997	-0.0813634	0	-92.854	-63.643	9.188	B5-03822-P03-CH1	1233904	OK	0.8040748	-0.393726	-0.4454701	0	-97.536	-32	5.656	B5-03822-P04-CH0	1233904	OK	0.7049162	-0.1925996	0.6826408	0	-122.474	-43.558	6.984	B5-03822-P04-CH1	1233904	OK	0.7364463	-0.6718406	0.0792282	0	-110.037	-49.705	1.772	NA
0.149876314162028	B5-03822-P01-CH0	1233912	OK	0.233038	0.0332046	0.0596159	-0.9700705	103.568	-11.293	-236.984	B5-03822-P02-CH0	1233912	OK	0.7335797	0.4978938	-0.462561	0	-68.658	-95.949	1.832	B5-03822-P02-CH1	1233912	OK	0.7139818	-0.2414274	-0.6572236	0	-68.937	-71.705	-0.206	B5-03822-P03-CH0	1233912	OK	0.8546093	-0.5153095	-0.0640242	0	-92.935	-64.371	9.346	B5-03822-P03-CH1	1233912	OK	0.8031849	-0.3961937	-0.4448872	0	-97.759	-31.88	5.636	B5-03822-P04-CH0	1233912	OK	0.7053829	-0.1922262	0.6822639	0	-122.797	-43.921	7.09	B5-03822-P04-CH1	1233912	OK	0.7364944	-0.6714334	0.0821781	0	-110.247	-50.142	3.224	NA
0.159868068439497	B5-03822-P01-CH0	1233920	OK	0.2330834	0.0331043	0.05981	-0.970051	103.57	-11.266	-237.006	B5-03822-P02-CH0	1233920	OK	0.7409354	0.4773377	-0.4724018	0	-68.911	-95.831	0.87	B5-03822-P02-CH1	1233920	OK	0.722898	-0.2195858	-0.655134	0	-70.891	-72.96	0.534	B5-03822-P03-CH0	1233920	OK	0.8608843	-0.5057575	-0.0555658	0	-93.277	-65.207	9.447	B5-03822-P03-CH1	1233920	OK	0.8025482	-0.3982187	-0.4442277	0	-97.775	-32.133	5.745	B5-03822-P04-CH0	1233920	OK	0.705818	-0.1912859	0.6820782	0	-123.125	-44.433	7.159	B5-03822-P04-CH1	1233920	OK	0.7361528	-0.6716978	0.0830735	0	-110.318	-50.047	1.514	NA
0.169859822716966	B5-03822-P01-CH0	1233928	OK	0.2330296	0.0329725	0.0600295	-0.9700549	103.569	-11.227	-237.04	B5-03822-P02-CH0	1233928	OK	0.7462118	0.4597635	-0.481441	0	-70.05	-96.488	0.637	B5-03822-P02-CH1	1233928	OK	0.7321017	-0.1962089	-0.652326	0	-72.235	-73.779	0.384	B5-03822-P03-CH0	1233928	OK	0.8658478	-0.4964258	-0.0622017	0	-93.693	-66.14	9.449	B5-03822-P03-CH1	1233928	OK	0.8022012	-0.3998513	-0.4433871	0	-97.938	-32.218	5.69	B5-03822-P04-CH0	1233928	OK	0.7065183	-0.1897334	0.6817867	0	-123.525	-45.044	7.481	B5-03822-P04-CH1	1233928	OK	0.7357257	-0.6719008	0.0851875	0	-110.446	-50.47	1.456	NA
0.179851576994434	B5-03822-P01-CH0	1233936	OK	0.2329323	0.0329078	0.060046	-0.9700794	103.571	-11.224	-236.999	B5-03822-P02-CH0	1233936	OK	0.7453532	0.4482092	-0.4935152	0	-72.092	-97.267	2.596	B5-03822-P02-CH1	1233936	OK	0.7374523	-0.169639	-0.6537482	0	-72.951	-74.481	1.017	B5-03822-P03-CH0	1233936	OK	0.8693163	-0.4864066	-0.0877377	0	-93.914	-66.802	9.337	B5-03822-P03-CH1	1233936	OK	0.8028049	-0.4010463	-0.4412099	0	-97.457	-32.212	5.936	B5-03822-P04-CH0	1233936	OK	0.7071181	-0.1883791	0.6815404	0	-123.872	-45.477	7.562	B5-03822-P04-CH1	1233936	OK	0.7359432	-0.6715006	0.0864553	0	-110.208	-50.523	0.954	NA
0.189843331271903	B5-03822-P01-CH0	1233944	OK	0.2329178	0.0326953	0.060082	-0.9700879	103.525	-11.197	-236.96	B5-03822-P02-CH0	1233944	OK	0.743531	0.4381552	-0.5051551	0	-73.103	-97.755	3.102	B5-03822-P02-CH1	1233944	OK	0.7399588	-0.1406484	-0.6577834	0	-72.592	-75.106	-0.704	B5-03822-P03-CH0	1233944	OK	0.8704751	-0.4755185	-0.1271034	0	-93.861	-66.945	9.557	B5-03822-P03-CH1	1233944	OK	0.8033541	-0.4015871	-0.4397159	0	-97.103	-31.963	5.798	B5-03822-P04-CH0	1233944	OK	0.7075743	-0.1868373	0.6814913	0	-124.119	-45.871	7.554	B5-03822-P04-CH1	1233944	OK	0.7360111	-0.6713271	0.087221	0	-110.429	-50.891	0.973	NA
0.199835085549371	B5-03822-P01-CH0	1233952	OK	0.2331179	0.0325152	0.060612	-0.9700129	103.516	-11.088	-236.973	B5-03822-P02-CH0	1233952	OK	0.7407185	0.4268689	-0.5187668	0	-73.769	-98.019	3.157	B5-03822-P02-CH1	1233952	OK	0.7390304	-0.1114292	-0.6643927	0	-73.674	-76.388	-0.919	B5-03822-P03-CH0	1233952	OK	0.8684304	-0.4640835	-0.1745141	0	-93.134	-66.595	9.861	B5-03822-P03-CH1	1233952	OK	0.8031053	-0.4015887	-0.4401685	0	-97.493	-31.729	5.446	B5-03822-P04-CH0	1233952	OK	0.7095646	-0.1785403	0.6816461	0	-124.655	-46.714	6.436	B5-03822-P04-CH1	1233952	OK	0.7368683	-0.6711169	0.081408	0	-110.048	-49.666	0.787	NA
0.20982683982684	B5-03822-P01-CH0	1233960	OK	0.2329928	0.0324685	0.0599455	-0.9700859	103.533	-11.097	-237.053	B5-03822-P02-CH0	1233960	OK	0.7392787	0.4118638	-0.5327619	0	-73.978	-99.095	2.608	B5-03822-P02-CH1	1233960	OK	0.7412398	-0.084792	-0.6658632	0	-74.124	-77.248	-0.486	B5-03822-P03-CH0	1233960	OK	0.8612163	-0.4504412	-0.2353918	0	-92.598	-66.134	9.091	B5-03822-P03-CH1	1233960	OK	0.8031216	-0.402581	-0.4392315	0	-97.148	-31.914	5.623	B5-03822-P04-CH0	1233960	OK	0.7087403	-0.1758889	0.6831913	0	-124.145	-46.344	7.903	B5-03822-P04-CH1	1233960	OK	0.7363195	-0.6715457	0.0828249	0	-110.168	-50.006	1.283	NA
0.219818594104308	B5-03822-P01-CH0	1233968	OK	0.2329143	0.0324122	0.0598324	-0.9701136	103.509	-11.02	-237.002	B5-03822-P02-CH0	1233968	OK	0.7363216	0.3966176	-0.5482015	0	-74.334	-98.98	2.636	B5-03822-P02-CH1	1233968	OK	0.7461146	-0.061509	-0.6629703	0	-74.446	-77.831	-0.284	B5-03822-P03-CH0	1233968	OK	0.8497504	-0.4274692	-0.3085359	0	-92.108	-65.45	8.776	B5-03822-P03-CH1	1233968	OK	0.804132	-0.4017845	-0.4381107	0	-96.502	-31.86	5.684	B5-03822-P04-CH0	1233968	OK	0.7089049	-0.1726916	0.6838359	0	-124.226	-46.172	7.584	B5-03822-P04-CH1	1233968	OK	0.7363034	-0.6714907	0.0834116	0	-110.314	-50.044	1.313	NA
0.229810348381777	B5-03822-P01-CH0	1233976	OK	0.2329669	0.0323392	0.0600602	-0.9700894	103.49	-10.901	-237.009	B5-03822-P02-CH0	1233976	OK	0.7339208	0.3806351	-0.5625631	0	-74.457	-99.51	1.925	B5-03822-P02-CH1	1233976	OK	0.7486019	-0.0437848	-0.6615724	0	-75.811	-79.394	-0.855	B5-03822-P03-CH0	1233976	OK	0.8348554	-0.3885873	-0.3898928	0	-91.463	-64.542	7.637	B5-03822-P03-CH1	1233976	OK	0.8032235	-0.3998459	-0.4415373	0	-97.502	-31.78	5.748	B5-03822-P04-CH0	1233976	OK	0.7073589	-0.1709713	0.685866	0	-123.498	-45.336	7.403	B5-03822-P04-CH1	1233976	OK	0.7364173	-0.6712936	0.0839905	0	-110.357	-50.15	1.512	NA
0.239802102659246	B5-03822-P01-CH0	1233984	OK	0.2332202	0.031995	0.0604805	-0.9700138	103.439	-10.816	-237.087	B5-03822-P02-CH0	1233984	OK	0.7298731	0.3676224	-0.5763151	0	-74.627	-99.811	1.682	B5-03822-P02-CH1	1233984	OK	0.7524224	-0.0305019	-0.6579743	0	-75.049	-78.621	-0.287	B5-03822-P03-CH0	1233984	OK	0.81772	-0.329167	-0.4722109	0	-90.548	-63.649	6.07	B5-03822-P03-CH1	1233984	OK	0.803553	-0.4001818	-0.4406326	0	-97.386	-31.741	5.756	B5-03822-P04-CH0	1233984	OK	0.7064672	-0.1671463	0.6877254	0	-123.149	-45.238	7.203	B5-03822-P04-CH1	1233984	OK	0.7368743	-0.670777	0.0841093	0	-110.137	-50.124	1.779	NA
0.249793856936714	B5-03822-P01-CH0	1233992	OK	0.2334511	0.0318887	0.060893	-0.9699359	103.437	-10.71	-237.069	B5-03822-P02-CH0	1233992	OK	0.7239499	0.3596797	-0.5886655	0	-74.967	-99.59	2.613	B5-03822-P02-CH1	1233992	OK	0.7514826	-0.0216918	-0.6593963	0	-75.507	-78.976	1.024	B5-03822-P03-CH0	1233992	OK	0.7998695	-0.2537799	-0.5438792	0	-89.895	-62.987	5.865	B5-03822-P03-CH1	1233992	OK	0.8038882	-0.4003144	-0.4399002	0	-97.269	-31.719	5.721	B5-03822-P04-CH0	1233992	OK	0.7048062	-0.1677321	0.6892853	0	-122.368	-43.694	6.332	B5-03822-P04-CH1	1233992	OK	0.7371871	-0.6704923	0.083638	0	-110.072	-50.059	1.599	NA
0.259785611214183	B5-03822-P01-CH0	1234000	OK	0.2334281	0.0318951	0.0607039	-0.9699531	103.465	-10.622	-237.099	B5-03822-P02-CH0	1234000	OK	0.7191237	0.3584298	-0.595306	0	-74.668	-99.375	2.335	B5-03822-P02-CH1	1234000	OK	0.7511518	-0.0190482	-0.6598546	0	-75.725	-79.345	0.374	B5-03822-P03-CH0	1234000	OK	0.7901638	-0.1935101	-0.5815454	0	-89.198	-61.152	5.137	B5-03822-P03-CH1	1234000	OK	0.8040166	-0.4003224	-0.4396581	0	-97.185	-31.631	5.829	B5-03822-P04-CH0	1234000	OK	0.7043136	-0.1662211	0.6901542	0	-122.308	-43.164	6.567	B5-03822-P04-CH1	1234000	OK	0.7367303	-0.6721388	0.073877	0	-109.012	-49.098	-1.606	NA
0.269777365491651	B5-03822-P01-CH0	1234008	OK	0.2335479	0.031955	0.0606645	-0.9699248	103.486	-10.524	-237.039	B5-03822-P02-CH0	1234008	OK	0.7134335	0.3616381	-0.6001921	0	-74.562	-99.415	2.499	B5-03822-P02-CH1	1234008	OK	0.7517815	-0.0226009	-0.6590248	0	-75.92	-79.204	0.647	B5-03822-P03-CH0	1234008	OK	0.7930747	-0.1896003	-0.5788646	0	-88.987	-60.939	5.481	B5-03822-P03-CH1	1234008	OK	0.8042133	-0.4001209	-0.4394818	0	-97.095	-31.536	5.829	B5-03822-P04-CH0	1234008	OK	0.7042133	-0.1652206	0.6904968	0	-122.346	-43.032	6.739	B5-03822-P04-CH1	1234008	OK	0.737688	-0.6713244	0.0716943	0	-108.719	-48.703	0.8	NA
0.27976911976912	B5-03822-P01-CH0	1234016	OK	0.2335415	0.0321367	0.0602108	-0.9699486	103.594	-10.478	-237.074	B5-03822-P02-CH0	1234016	OK	0.7056344	0.3688654	-0.6049945	0	-74.35	-99.352	2.654	B5-03822-P02-CH1	1234016	OK	0.7500217	-0.0331286	-0.660583	0	-76.116	-79.25	0.955	B5-03822-P03-CH0	1234016	OK	0.798743	-0.2029284	-0.5664183	0	-89.438	-60.937	7.339	B5-03822-P03-CH1	1234016	OK	0.8042017	-0.3998248	-0.4397724	0	-97.06	-31.553	5.93	B5-03822-P04-CH0	1234016	OK	0.7031173	-0.1632665	0.6920767	0	-122.125	-42.598	7.048	B5-03822-P04-CH1	1234016	OK	0.7372575	-0.6720572	0.0692133	0	-108.851	-48.752	1.21	NA
0.289760874046588	B5-03822-P01-CH0	1234024	OK	0.2334702	0.03219	0.0597326	-0.9699935	103.627	-10.426	-237.07	B5-03822-P02-CH0	1234024	OK	0.6951303	0.3821008	-0.6089276	0	-73.599	-99.115	3.983	B5-03822-P02-CH1	1234024	OK	0.7457787	-0.0513439	-0.6642123	0	-75.268	-78.292	2.003	B5-03822-P03-CH0	1234024	OK	0.8049255	-0.2315418	-0.5463363	0	-89.979	-61.348	8.504	B5-03822-P03-CH1	1234024	OK	0.8042224	-0.3991322	-0.4403633	0	-96.995	-31.481	5.92	B5-03822-P04-CH0	1234024	OK	0.7005536	-0.1634126	0.6946373	0	-121.316	-42.035	5.588	B5-03822-P04-CH1	1234024	OK	0.7378096	-0.671749	0.0662588	0	-108.961	-48.139	2.798	NA
0.299752628324057	B5-03822-P01-CH0	1234032	OK	0.2333888	0.0324337	0.058953	-0.9700527	103.68	-10.386	-236.926	B5-03822-P02-CH0	1234032	OK	0.6806713	0.3989225	-0.6144489	0	-72.668	-98.627	4.777	B5-03822-P02-CH1	1234032	OK	0.7353656	-0.079486	-0.6729929	0	-74.931	-77.909	1.764	B5-03822-P03-CH0	1234032	OK	0.8141965	-0.2780319	-0.5096885	0	-91.413	-60.969	7.685	B5-03822-P03-CH1	1234032	OK	0.8040898	-0.3983909	-0.4412757	0	-96.948	-31.397	5.824	B5-03822-P04-CH0	1234032	OK	0.7008415	-0.1592758	0.6953074	0	-121.628	-41.731	6.045	B5-03822-P04-CH1	1234032	OK	0.7370644	-0.6726681	0.0652202	0	-108.815	-48.093	2.105	NA
0.309744382601525	B5-03822-P01-CH0	1234040	OK	0.2334215	0.032621	0.0587064	-0.9700535	103.75	-10.318	-236.83	B5-03822-P02-CH0	1234040	OK	0.6632604	0.4181023	-0.6207062	0	-70.77	-97.84	4.49	B5-03822-P02-CH1	1234040	OK	0.7196944	-0.1275153	-0.6824806	0	-72.667	-76.148	-0.978	B5-03822-P03-CH0	1234040	OK	0.8295514	-0.3366333	-0.4455586	0	-91.783	-61.274	8.388	B5-03822-P03-CH1	1234040	OK	0.803881	-0.390038	-0.4490497	0	-97.071	-31.22	6.197	B5-03822-P04-CH0	1234040	OK	0.7004047	-0.1537489	0.6969897	0	-121.621	-41.071	6.122	B5-03822-P04-CH1	1234040	OK	0.7369685	-0.6728508	0.0644137	0	-109.295	-47.955	2.128	NA
0.319736136878994	B5-03822-P01-CH0	1234048	OK	0.2336212	0.0325097	0.0588462	-0.9700007	103.766	-10.252	-236.797	B5-03822-P02-CH0	1234048	OK	0.6416051	0.4406188	-0.6278519	0	-68.784	-96.47	4.527	B5-03822-P02-CH1	1234048	OK	0.6979505	-0.1884387	-0.6909095	0	-70.15	-74.388	-0.921	B5-03822-P03-CH0	1234048	OK	0.8448483	-0.3773931	-0.3792173	0	-92.242	-61.796	8.182	B5-03822-P03-CH1	1234048	OK	0.8035196	-0.3867906	-0.4524923	0	-97.43	-31.171	6.18	B5-03822-P04-CH0	1234048	OK	0.6990651	-0.1479878	0.6995767	0	-121.326	-40.844	5.764	B5-03822-P04-CH1	1234048	OK	0.7364913	-0.6726977	0.0711216	0	-109.252	-48.724	1.961	NA
0.329727891156463	B5-03822-P01-CH0	1234056	OK	0.2337382	0.0324383	0.0587319	-0.9699818	103.776	-10.185	-236.783	B5-03822-P02-CH0	1234056	OK	0.6249493	0.4643929	-0.627517	0	-66.396	-97.037	3.988	B5-03822-P02-CH1	1234056	OK	0.6794379	-0.2308911	-0.6964578	0	-68.416	-72.913	-1.27	B5-03822-P03-CH0	1234056	OK	0.8611046	-0.4070631	-0.3046285	0	-92.067	-63.201	10.219	B5-03822-P03-CH1	1234056	OK	0.8040404	-0.3834242	-0.4544281	0	-97.488	-31.087	6.304	B5-03822-P04-CH0	1234056	OK	0.6989452	-0.1406893	0.7012005	0	-121.759	-41.865	6.458	B5-03822-P04-CH1	1234056	OK	0.7365837	-0.6727748	0.0694151	0	-109.136	-48.383	1.709	NA
0.339719645433931	B5-03822-P01-CH0	1234064	OK	0.2336158	0.0326744	0.0579687	-0.9700493	103.831	-10.148	-236.68	B5-03822-P02-CH0	1234064	OK	0.6090966	0.4800753	-0.6312916	0	-65.63	-96.287	5.015	B5-03822-P02-CH1	1234064	OK	0.6739191	-0.2360102	-0.7000944	0	-67.905	-74.814	1.448	B5-03822-P03-CH0	1234064	OK	0.8746802	-0.4150122	-0.2503984	0	-92.448	-64.063	10.16	B5-03822-P03-CH1	1234064	OK	0.8046457	-0.380366	-0.4559243	0	-97.444	-30.944	5.477	B5-03822-P04-CH0	1234064	OK	0.6984859	-0.1374993	0.7022901	0	-121.923	-41.221	6.347	B5-03822-P04-CH1	1234064	OK	0.7360531	-0.6735294	0.0677044	0	-109.185	-48.181	1.545	NA
0.3497113997114	B5-03822-P01-CH0	1234072	OK	0.2334546	0.0328224	0.0573101	-0.9701223	103.887	-10.154	-236.651	B5-03822-P02-CH0	1234072	OK	0.5991362	0.4837711	-0.6379666	0	-64.9	-95.993	4.702	B5-03822-P02-CH1	1234072	OK	0.6803385	-0.227064	-0.6968368	0	-68.15	-74.081	0.14	B5-03822-P03-CH0	1234072	OK	0.8845859	-0.4067422	-0.2281853	0	-93.539	-64.493	10.153	B5-03822-P03-CH1	1234072	OK	0.8056591	-0.3755543	-0.4581183	0	-97.189	-30.963	6.139	B5-03822-P04-CH0	1234072	OK	0.6982256	-0.1348451	0.7030631	0	-121.955	-41.388	6.224	B5-03822-P04-CH1	1234072	OK	0.7356192	-0.6741488	0.0662411	0	-109.173	-47.962	1.397	NA
0.359703153988868	B5-03822-P01-CH0	1234080	OK	0.2335303	0.0328072	0.0572565	-0.9701077	103.922	-10.137	-236.62	B5-03822-P02-CH0	1234080	OK	0.59459	0.4842465	-0.6418474	0	-64.098	-95.635	4.52	B5-03822-P02-CH1	1234080	OK	0.6831073	-0.2308544	-0.6928713	0	-69.396	-74.2	0.763	B5-03822-P03-CH0	1234080	OK	0.8933784	-0.3988312	-0.2069027	0	-93.401	-65.492	10.445	B5-03822-P03-CH1	1234080	OK	0.8052277	-0.3710648	-0.462514	0	-97.783	-30.938	5.651	B5-03822-P04-CH0	1234080	OK	0.6974397	-0.1336786	0.7040652	0	-121.731	-40.99	5.998	B5-03822-P04-CH1	1234080	OK	0.7356414	-0.674223	0.0652308	0	-109.141	-47.788	1.344	NA
0.369694908266337	B5-03822-P01-CH0	1234088	OK	0.2335409	0.0328688	0.0570175	-0.9701171	103.997	-10.14	-236.668	B5-03822-P02-CH0	1234088	OK	0.5932983	0.4880128	-0.6401879	0	-64.684	-96.218	5.054	B5-03822-P02-CH1	1234088	OK	0.6855966	-0.2363743	-0.688538	0	-69.162	-73.947	0.261	B5-03822-P03-CH0	1234088	OK	0.8988364	-0.3900784	-0.1998298	0	-94.594	-66.241	10.78	B5-03822-P03-CH1	1234088	OK	0.8057923	-0.3664606	-0.4651939	0	-97.792	-31.059	6.262	B5-03822-P04-CH0	1234088	OK	0.6974565	-0.1308747	0.7045752	0	-121.924	-41.084	6	B5-03822-P04-CH1	1234088	OK	0.7355575	-0.6744025	0.0643149	0	-109.255	-47.646	1.469	NA
0.379686662543805	B5-03822-P01-CH0	1234096	OK	0.2336368	0.0326803	0.0570525	-0.9700984	103.936	-10.132	-236.609	B5-03822-P02-CH0	1234096	OK	0.5954978	0.4918426	-0.6351954	0	-65.159	-96.896	5.303	B5-03822-P02-CH1	1234096	OK	0.6855343	-0.2433693	-0.686159	0	-69.055	-74.205	0.377	B5-03822-P03-CH0	1234096	OK	0.9043427	-0.382753	-0.1888503	0	-94.132	-66.952	11.082	B5-03822-P03-CH1	1234096	OK	0.8067294	-0.362834	-0.466411	0	-97.586	-30.983	6.298	B5-03822-P04-CH0	1234096	OK	0.6965112	-0.1300047	0.7056705	0	-121.682	-40.377	5.144	B5-03822-P04-CH1	1234096	OK	0.7355781	-0.6744507	0.0635698	0	-109.167	-47.401	0.95	NA
0.389678416821274	B5-03822-P01-CH0	1234104	OK	0.2336489	0.0329524	0.056769	-0.9701029	104.046	-10.162	-236.573	B5-03822-P02-CH0	1234104	OK	0.599341	0.4918403	-0.6315722	0	-65.781	-97.023	5.528	B5-03822-P02-CH1	1234104	OK	0.6851107	-0.2433712	-0.6865812	0	-68.674	-73.461	-0.584	B5-03822-P03-CH0	1234104	OK	0.9093414	-0.3771333	-0.1756949	0	-94.009	-68.405	11.641	B5-03822-P03-CH1	1234104	OK	0.8071735	-0.3595262	-0.4682007	0	-97.639	-30.783	5.834	B5-03822-P04-CH0	1234104	OK	0.6974773	-0.1291441	0.7048739	0	-122.25	-40.229	5.493	B5-03822-P04-CH1	1234104	OK	0.7351808	-0.6749335	0.0630394	0	-109.236	-47.33	0.556	NA
0.399670171098743	B5-03822-P01-CH0	1234112	OK	0.2336794	0.0327358	0.0568627	-0.9700974	104.015	-10.189	-236.591	B5-03822-P02-CH0	1234112	OK	0.6052608	0.4859602	-0.6304777	0	-66.546	-97.322	5.519	B5-03822-P02-CH1	1234112	OK	0.6891064	-0.2335731	-0.6859854	0	-69.448	-74.718	0.486	B5-03822-P03-CH0	1234112	OK	0.9167325	-0.365159	-0.1620505	0	-94.29	-68.908	12.051	B5-03822-P03-CH1	1234112	OK	0.8083043	-0.3568725	-0.4682801	0	-96.933	-31.039	5.94	B5-03822-P04-CH0	1234112	OK	0.6967436	-0.1300707	0.7054289	0	-122.001	-39.799	5.584	B5-03822-P04-CH1	1234112	OK	0.7352808	-0.6748774	0.0624716	0	-109.133	-47.132	0.275	NA
0.409661925376211	B5-03822-P01-CH0	1234120	OK	0.2338249	0.0325426	0.0573759	-0.9700386	104.012	-10.182	-236.608	B5-03822-P02-CH0	1234120	OK	0.6131675	0.4718982	-0.6335122	0	-66.524	-97.679	5.069	B5-03822-P02-CH1	1234120	OK	0.6987015	-0.2188205	-0.6811269	0	-69.805	-75.6	0.224	B5-03822-P03-CH0	1234120	OK	0.9234848	-0.3523294	-0.1517889	0	-94.943	-69.931	11.415	B5-03822-P03-CH1	1234120	OK	0.8078234	-0.3536484	-0.4715445	0	-97.715	-30.795	5.454	B5-03822-P04-CH0	1234120	OK	0.6959416	-0.1269971	0.7067793	0	-121.636	-40.168	5.929	B5-03822-P04-CH1	1234120	OK	0.7356535	-0.6745055	0.0620992	0	-109.123	-46.936	-0.03	NA
0.41965367965368	B5-03822-P01-CH0	1234128	OK	0.2337871	0.0326259	0.0569513	-0.9700699	104.072	-10.221	-236.657	B5-03822-P02-CH0	1234128	OK	0.62222	0.4579352	-0.6349312	0	-66.769	-99.173	4.968	B5-03822-P02-CH1	1234128	OK	0.7053673	-0.2033423	-0.67905	0	-70.664	-77.411	1.22	B5-03822-P03-CH0	1234128	OK	0.9301907	-0.338688	-0.1415475	0	-95.301	-70.998	11.974	B5-03822-P03-CH1	1234128	OK	0.8078461	-0.3492415	-0.474779	0	-97.781	-30.115	5.454	B5-03822-P04-CH0	1234128	OK	0.695711	-0.1225466	0.7077914	0	-121.854	-40.381	6.207	B5-03822-P04-CH1	1234128	OK	0.7353675	-0.6748653	0.0615749	0	-109.123	-46.771	-0.269	NA
0.429645433931148	B5-03822-P01-CH0	1234136	OK	0.2338415	0.0326157	0.056942	-0.9700577	104.094	-10.265	-236.621	B5-03822-P02-CH0	1234136	OK	0.629016	0.4456386	-0.6369812	0	-67.373	-100.419	4.762	B5-03822-P02-CH1	1234136	OK	0.7089894	-0.1890288	-0.6794131	0	-70.433	-78.621	1.607	B5-03822-P03-CH0	1234136	OK	0.9359179	-0.3267493	-0.1315014	0	-95.156	-72.11	12.015	B5-03822-P03-CH1	1234136	OK	0.8075453	-0.3460195	-0.4776412	0	-98.017	-29.805	5.495	B5-03822-P04-CH0	1234136	OK	0.6948633	-0.1185448	0.709304	0	-122.017	-40.472	6.265	B5-03822-P04-CH1	1234136	OK	0.7351958	-0.6750574	0.0615199	0	-109.194	-46.81	-0.502	NA
0.439637188208617	B5-03822-P01-CH0	1234144	OK	0.233973	0.0326972	0.0571525	-0.9700109	104.177	-10.257	-236.681	B5-03822-P02-CH0	1234144	OK	0.632905	0.43518	-0.6403512	0	-68.51	-100.879	4.976	B5-03822-P02-CH1	1234144	OK	0.7091125	-0.1766686	-0.6826035	0	-69.939	-79.156	0.382	B5-03822-P03-CH0	1234144	OK	0.9395247	-0.3202231	-0.1214514	0	-95.086	-73.143	12.28	B5-03822-P03-CH1	1234144	OK	0.8077935	-0.3449985	-0.47796	0	-97.761	-30.002	5.976	B5-03822-P04-CH0	1234144	OK	0.6924948	-0.1181903	0.7116755	0	-121.615	-39.957	4.738	B5-03822-P04-CH1	1234144	OK	0.7353883	-0.6748645	0.0613353	0	-109.209	-46.733	-0.53	NA
0.449628942486085	B5-03822-P01-CH0	1234152	OK	0.2342192	0.0323891	0.0576709	-0.9699311	104.124	-10.256	-236.757	B5-03822-P02-CH0	1234152	OK	0.6401645	0.4249608	-0.6399982	0	-68.665	-101.846	4.783	B5-03822-P02-CH1	1234152	OK	0.7066272	-0.1696837	-0.6869392	0	-70.501	-80.265	0.578	B5-03822-P03-CH0	1234152	OK	0.9428572	-0.3156081	-0.1068256	0	-94.857	-73.473	12.248	B5-03822-P03-CH1	1234152	OK	0.8077263	-0.3441468	-0.478687	0	-97.823	-29.928	5.523	B5-03822-P04-CH0	1234152	OK	0.6926004	-0.1146591	0.7121503	0	-121.567	-40.293	5.68	B5-03822-P04-CH1	1234152	OK	0.7356896	-0.6745161	0.0615533	0	-109.066	-46.83	-0.384	NA
0.459620696763554	B5-03822-P01-CH0	1234160	OK	0.2342965	0.0324622	0.0577032	-0.9699081	104.133	-10.291	-236.734	B5-03822-P02-CH0	1234160	OK	0.6497924	0.4170565	-0.6354791	0	-68.632	-102.522	4.163	B5-03822-P02-CH1	1234160	OK	0.7065991	-0.1667784	-0.6876792	0	-70.341	-80.619	1.718	B5-03822-P03-CH0	1234160	OK	0.9437938	-0.316533	-0.0951849	0	-95.099	-73.701	12.299	B5-03822-P03-CH1	1234160	OK	0.8073192	-0.345316	-0.4785316	0	-98.071	-30.347	5.267	B5-03822-P04-CH0	1234160	OK	0.6926449	-0.1152459	0.7120122	0	-121.416	-40.688	6.334	B5-03822-P04-CH1	1234160	OK	0.7360022	-0.674189	0.0614	0	-109.205	-46.771	-0.175	NA
0.469612451041023	B5-03822-P01-CH0	1234168	OK	0.2342703	0.0326339	0.0575823	-0.9699158	104.149	-10.3	-236.685	B5-03822-P02-CH0	1234168	OK	0.6589294	0.4153585	-0.6271279	0	-69.521	-102.972	4.669	B5-03822-P02-CH1	1234168	OK	0.7071107	-0.1597501	-0.688821	0	-69.772	-79.931	0.007	B5-03822-P03-CH0	1234168	OK	0.9427983	-0.3228815	-0.0829386	0	-94.514	-74.388	12.326	B5-03822-P03-CH1	1234168	OK	0.8076492	-0.3464691	-0.4771393	0	-98.089	-30.593	5.406	B5-03822-P04-CH0	1234168	OK	0.6935678	-0.1149599	0.7111596	0	-121.691	-40.804	6.588	B5-03822-P04-CH1	1234168	OK	0.7358955	-0.6743253	0.0611823	0	-109.258	-46.78	-0.392	NA
0.479604205318491	B5-03822-P01-CH0	1234176	OK	0.2342595	0.0327155	0.057752	-0.9699056	104.154	-10.307	-236.665	B5-03822-P02-CH0	1234176	OK	0.6684734	0.4168493	-0.6159382	0	-69.683	-102.963	4.175	B5-03822-P02-CH1	1234176	OK	0.7061325	-0.1536941	-0.6911983	0	-69.534	-79.592	-0.128	B5-03822-P03-CH0	1234176	OK	0.9425294	-0.325421	-0.0757591	0	-93.744	-74.561	12.573	B5-03822-P03-CH1	1234176	OK	0.8090551	-0.3471999	-0.4742174	0	-97.691	-30.49	5.195	B5-03822-P04-CH0	1234176	OK	0.6928538	-0.118406	0.7112901	0	-121.332	-41.034	6.38	B5-03822-P04-CH1	1234176	OK	0.7362253	-0.6739586	0.0612543	0	-109.242	-46.774	-0.099	NA
0.48959595959596	B5-03822-P01-CH0	1234184	OK	0.2343768	0.0325776	0.0583541	-0.9698459	104.085	-10.227	-236.707	B5-03822-P02-CH0	1234184	OK	0.6779956	0.4207635	-0.6027272	0	-69.919	-103.293	3.537	B5-03822-P02-CH1	1234184	OK	0.7031385	-0.1459067	-0.6959221	0	-69.882	-80.03	1.305	B5-03822-P03-CH0	1234184	OK	0.9428252	-0.3232747	-0.0810809	0	-94.187	-73.859	12.855	B5-03822-P03-CH1	1234184	OK	0.8085213	-0.347878	-0.4746306	0	-97.71	-30.32	5.36	B5-03822-P04-CH0	1234184	OK	0.6945389	-0.1185445	0.7096216	0	-121.762	-40.678	6.174	B5-03822-P04-CH1	1234184	OK	0.7368001	-0.6733218	0.0613458	0	-109.206	-46.728	0.016	NA
0.499587713873428	B5-03822-P01-CH0	1234192	OK	0.2344033	0.0328337	0.0585372	-0.9698198	104.137	-10.227	-236.717	B5-03822-P02-CH0	1234192	OK	0.6847635	0.4273827	-0.5902907	0	-71.202	-103.35	4.014	B5-03822-P02-CH1	1234192	OK	0.699667	-0.1334466	-0.7018961	0	-70.171	-79.974	1.512	B5-03822-P03-CH0	1234192	OK	0.941782	-0.3248708	-0.0866353	0	-93.863	-73.379	13.009	B5-03822-P03-CH1	1234192	OK	0.8083923	-0.3477422	-0.4749497	0	-97.87	-30.356	5.511	B5-03822-P04-CH0	1234192	OK	0.6943252	-0.117994	0.7099225	0	-121.677	-40.771	6.342	B5-03822-P04-CH1	1234192	OK	0.7370411	-0.6730552	0.0613772	0	-109.297	-46.732	-0.151	NA
0.509579468150897	B5-03822-P01-CH0	1234200	OK	0.2342479	0.0330072	0.0579842	-0.9698847	104.102	-10.272	-236.675	B5-03822-P02-CH0	1234200	OK	0.6918968	0.4327802	-0.5779101	0	-71.974	-102.955	4.19	B5-03822-P02-CH1	1234200	OK	0.6965286	-0.1184951	-0.7076771	0	-69.472	-79.358	0.32	B5-03822-P03-CH0	1234200	OK	0.9397089	-0.3272404	-0.099302	0	-93.646	-72.114	13.167	B5-03822-P03-CH1	1234200	OK	0.8085974	-0.3557499	-0.4686279	0	-98.202	-31.012	6.351	B5-03822-P04-CH0	1234200	OK	0.6941794	-0.1184309	0.7099923	0	-121.59	-40.716	6.527	B5-03822-P04-CH1	1234200	OK	0.7367895	-0.6733306	0.0613764	0	-109.265	-46.813	-0.043	NA
0.519571222428365	B5-03822-P01-CH0	1234208	OK	0.2342967	0.0330072	0.0586381	-0.9698336	104.041	-10.23	-236.601	B5-03822-P02-CH0	1234208	OK	0.6978995	0.4373855	-0.5671245	0	-72.716	-102.675	3.775	B5-03822-P02-CH1	1234208	OK	0.6910872	-0.1003614	-0.7157696	0	-69.358	-79.433	1.06	B5-03822-P03-CH0	1234208	OK	0.9352908	-0.3344234	-0.1157241	0	-93.508	-71.536	12.825	B5-03822-P03-CH1	1234208	OK	0.8082158	-0.3585474	-0.467152	0	-98.192	-30.827	5.653	B5-03822-P04-CH0	1234208	OK	0.6942636	-0.1188322	0.7098429	0	-121.437	-40.772	6.721	B5-03822-P04-CH1	1234208	OK	0.7373903	-0.6726285	0.0618577	0	-109.235	-46.896	0.258	NA
0.529562976705834	B5-03822-P01-CH0	1234216	OK	0.2342792	0.0330869	0.0588278	-0.9698236	104.007	-10.224	-236.572	B5-03822-P02-CH0	1234216	OK	0.7021461	0.442431	-0.557894	0	-73.32	-102.176	3.677	B5-03822-P02-CH1	1234216	OK	0.6861495	-0.0860749	-0.7223503	0	-68.773	-79.154	0.441	B5-03822-P03-CH0	1234216	OK	0.9302328	-0.3437472	-0.1284708	0	-92.299	-71.035	13.174	B5-03822-P03-CH1	1234216	OK	0.8079356	-0.3618196	-0.4651093	0	-98.062	-30.947	6.218	B5-03822-P04-CH0	1234216	OK	0.6981585	-0.1231857	0.7052659	0	-122.076	-41.527	6.893	B5-03822-P04-CH1	1234216	OK	0.737669	-0.6723109	0.0619881	0	-109.136	-46.958	0.491	NA
0.539554730983302	B5-03822-P01-CH0	1234224	OK	0.2341508	0.0330752	0.0586777	-0.9698641	103.941	-10.271	-236.49	B5-03822-P02-CH0	1234224	OK	0.7069611	0.4473659	-0.5477863	0	-73.518	-102.31	3.117	B5-03822-P02-CH1	1234224	OK	0.6812264	-0.0768153	-0.7280316	0	-68.331	-79.132	1.271	B5-03822-P03-CH0	1234224	OK	0.9254395	-0.3505221	-0.1438608	0	-91.973	-69.941	13.224	B5-03822-P03-CH1	1234224	OK	0.8071461	-0.3657984	-0.4633646	0	-98.049	-31.209	6.156	B5-03822-P04-CH0	1234224	OK	0.7005898	-0.1235446	0.7027878	0	-122.767	-41.633	6.037	B5-03822-P04-CH1	1234224	OK	0.7375398	-0.6724109	0.0624383	0	-109.104	-47.096	0.432	NA
0.549546485260771	B5-03822-P01-CH0	1234232	OK	0.233754	0.0334752	0.0576816	-0.9700058	103.995	-10.363	-236.381	B5-03822-P02-CH0	1234232	OK	0.7114683	0.4523191	-0.5377921	0	-73.46	-102.102	3.082	B5-03822-P02-CH1	1234232	OK	0.6794194	-0.0720595	-0.7302032	0	-67.564	-78.073	1.141	B5-03822-P03-CH0	1234232	OK	0.9192006	-0.3612265	-0.1567978	0	-91.672	-69.623	12.784	B5-03822-P03-CH1	1234232	OK	0.8060357	-0.3691685	-0.4626241	0	-98.243	-31.211	5.851	B5-03822-P04-CH0	1234232	OK	0.7022296	-0.1257011	0.7007659	0	-123.169	-41.716	6.576	B5-03822-P04-CH1	1234232	OK	0.7369738	-0.6730412	0.0623304	0	-109.21	-47.168	0.448	NA
0.55953823953824	B5-03822-P01-CH0	1234240	OK	0.2337361	0.0334529	0.0576492	-0.9700128	103.936	-10.338	-236.306	B5-03822-P02-CH0	1234240	OK	0.714578	0.4572235	-0.5294572	0	-73.372	-101.917	2.894	B5-03822-P02-CH1	1234240	OK	0.6820532	-0.0662943	-0.7282915	0	-67.844	-78.109	0.071	B5-03822-P03-CH0	1234240	OK	0.9131306	-0.3682089	-0.1749704	0	-91.656	-68.794	12.705	B5-03822-P03-CH1	1234240	OK	0.8062629	-0.3718805	-0.4600489	0	-97.88	-31.223	5.848	B5-03822-P04-CH0	1234240	OK	0.7030548	-0.1261532	0.6998566	0	-123.09	-41.682	7.509	B5-03822-P04-CH1	1234240	OK	0.7368947	-0.6730579	0.0630817	0	-109.077	-47.281	0.413	NA
0.569529993815708	B5-03822-P01-CH0	1234248	OK	0.2338917	0.0332523	0.0579881	-0.969962	103.871	-10.336	-236.286	B5-03822-P02-CH0	1234248	OK	0.7150034	0.4624997	-0.5242748	0	-73.439	-101.402	2.91	B5-03822-P02-CH1	1234248	OK	0.6871039	-0.0692649	-0.7232501	0	-68.316	-78.122	0.587	B5-03822-P03-CH0	1234248	OK	0.90599	-0.3755455	-0.1953146	0	-91.058	-68.116	12.316	B5-03822-P03-CH1	1234248	OK	0.8067763	-0.3730235	-0.45822	0	-97.686	-31.233	6.503	B5-03822-P04-CH0	1234248	OK	0.7039007	-0.1290222	0.698482	0	-123.266	-41.812	6.621	B5-03822-P04-CH1	1234248	OK	0.7371643	-0.6726739	0.0640206	0	-108.969	-47.367	0.285	NA
0.579521748093177	B5-03822-P01-CH0	1234256	OK	0.234063	0.0331886	0.0583739	-0.9698998	103.862	-10.317	-236.292	B5-03822-P02-CH0	1234256	OK	0.7150046	0.4660709	-0.5211011	0	-72.933	-101.405	2.971	B5-03822-P02-CH1	1234256	OK	0.6917121	-0.0774981	-0.718003	0	-69.269	-78.183	1.644	B5-03822-P03-CH0	1234256	OK	0.8977949	-0.3843646	-0.2150072	0	-91.192	-67.199	12.327	B5-03822-P03-CH1	1234256	OK	0.807151	-0.3741081	-0.4566732	0	-97.53	-31.509	6.549	B5-03822-P04-CH0	1234256	OK	0.7044722	-0.1291325	0.6978852	0	-123.442	-43.046	8.548	B5-03822-P04-CH1	1234256	OK	0.7373797	-0.6723433	0.0650053	0	-108.954	-47.48	0.061	NA
0.589513502370645	B5-03822-P01-CH0	1234264	OK	0.2339178	0.0331148	0.0580282	-0.969958	103.825	-10.409	-236.226	B5-03822-P02-CH0	1234264	OK	0.712793	0.4668868	-0.5233956	0	-72.345	-101.009	3.352	B5-03822-P02-CH1	1234264	OK	0.6982774	-0.089655	-0.7101905	0	-68.74	-77.402	0.901	B5-03822-P03-CH0	1234264	OK	0.890683	-0.3948339	-0.2253664	0	-90.575	-66.46	12.304	B5-03822-P03-CH1	1234264	OK	0.8072097	-0.3734789	-0.4570842	0	-97.613	-31.525	6.368	B5-03822-P04-CH0	1234264	OK	0.7034695	-0.1336676	0.6980427	0	-122.939	-42.76	7.544	B5-03822-P04-CH1	1234264	OK	0.7371402	-0.6725057	0.0660326	0	-108.981	-47.747	0.218	NA
0.599505256648114	B5-03822-P01-CH0	1234272	OK	0.2337808	0.0330449	0.0576814	-0.9700141	103.755	-10.423	-236.168	B5-03822-P02-CH0	1234272	OK	0.7083348	0.4625077	-0.5332434	0	-70.994	-100.747	2.973	B5-03822-P02-CH1	1234272	OK	0.7030808	-0.1095325	-0.7026237	0	-68.434	-76.592	-0.087	B5-03822-P03-CH0	1234272	OK	0.8819079	-0.40517	-0.240989	0	-91.098	-65.658	11.794	B5-03822-P03-CH1	1234272	OK	0.8082207	-0.3735608	-0.455227	0	-97.056	-31.573	6.028	B5-03822-P04-CH0	1234272	OK	0.7033421	-0.1379326	0.697341	0	-122.609	-42.45	7.394	B5-03822-P04-CH1	1234272	OK	0.7367988	-0.6727976	0.0668646	0	-109.002	-47.967	0.375	NA
0.609497010925582	B5-03822-P01-CH0	1234280	OK	0.2336479	0.0330538	0.0578046	-0.9700385	103.761	-10.412	-236.183	B5-03822-P02-CH0	1234280	OK	0.6982594	0.4535143	-0.5538579	0	-70.056	-99.218	2.98	B5-03822-P02-CH1	1234280	OK	0.7068845	-0.1413432	-0.693063	0	-69.052	-75.816	0.161	B5-03822-P03-CH0	1234280	OK	0.8756326	-0.4176807	-0.2425087	0	-90.543	-65.229	11.659	B5-03822-P03-CH1	1234280	OK	0.8079702	-0.3728011	-0.4562932	0	-97.373	-31.662	6.087	B5-03822-P04-CH0	1234280	OK	0.7048198	-0.1383745	0.6957596	0	-123.139	-42.85	7.864	B5-03822-P04-CH1	1234280	OK	0.7368499	-0.672679	0.067492	0	-109.076	-48.096	0.727	NA
0.619488765203051	B5-03822-P01-CH0	1234288	OK	0.2333955	0.0331838	0.0570865	-0.9701374	103.758	-10.483	-236.155	B5-03822-P02-CH0	1234288	OK	0.6886727	0.4402345	-0.5761281	0	-69.325	-97.874	3.518	B5-03822-P02-CH1	1234288	OK	0.7091906	-0.1696413	-0.6843029	0	-68.975	-74.529	-0.228	B5-03822-P03-CH0	1234288	OK	0.8735684	-0.423974	-0.239007	0	-91.421	-64.102	12.552	B5-03822-P03-CH1	1234288	OK	0.806736	-0.3709845	-0.4599429	0	-97.799	-31.304	5.998	B5-03822-P04-CH0	1234288	OK	0.7051678	-0.1405215	0.6949763	0	-122.935	-42.573	8.624	B5-03822-P04-CH1	1234288	OK	0.7362524	-0.6732924	0.0678953	0	-109.183	-48.277	0.737	NA
0.62948051948052	B5-03822-P01-CH0	1234296	OK	0.2332105	0.0332435	0.0566136	-0.9702075	103.724	-10.521	-236.141	B5-03822-P02-CH0	1234296	OK	0.6818324	0.4295219	-0.592128	0	-68.152	-97.289	3.059	B5-03822-P02-CH1	1234296	OK	0.7087189	-0.1800456	-0.6821298	0	-68.692	-73.946	-0.098	B5-03822-P03-CH0	1234296	OK	0.8704816	-0.429352	-0.240663	0	-91.115	-64.225	11.238	B5-03822-P03-CH1	1234296	OK	0.8067406	-0.3715373	-0.4594885	0	-97.755	-31.295	5.925	B5-03822-P04-CH0	1234296	OK	0.7045843	-0.1458937	0.6944609	0	-122.503	-41.757	6.594	B5-03822-P04-CH1	1234296	OK	0.7360561	-0.6734973	0.0679909	0	-109.2	-48.231	0.731	NA
0.639472273757988	B5-03822-P01-CH0	1234304	OK	0.2330768	0.0333211	0.0566492	-0.9702349	103.695	-10.527	-236.094	B5-03822-P02-CH0	1234304	OK	0.67695	0.4257634	-0.6003867	0	-67.185	-97.362	2.625	B5-03822-P02-CH1	1234304	OK	0.7051591	-0.1867607	-0.684011	0	-69.536	-74.201	0.274	B5-03822-P03-CH0	1234304	OK	0.8688653	-0.4239095	-0.255683	0	-90.397	-64.117	10.695	B5-03822-P03-CH1	1234304	OK	0.8077725	-0.3679139	-0.4605897	0	-98.124	-31.589	6.088	B5-03822-P04-CH0	1234304	OK	0.70505	-0.1484285	0.6934504	0	-122.283	-41.554	7.27	B5-03822-P04-CH1	1234304	OK	0.7360974	-0.6734356	0.0681552	0	-109.255	-48.234	0.627	NA
0.649464028035457	B5-03822-P01-CH0	1234312	OK	0.2330948	0.0334221	0.0569519	-0.9702094	103.672	-10.494	-236.049	B5-03822-P02-CH0	1234312	OK	0.6724798	0.4259423	-0.6052637	0	-66.641	-97.333	2.328	B5-03822-P02-CH1	1234312	OK	0.7037724	-0.1958854	-0.682886	0	-69.162	-74.084	-0.568	B5-03822-P03-CH0	1234312	OK	0.8689993	-0.4123913	-0.2734476	0	-90.979	-63.749	10.868	B5-03822-P03-CH1	1234312	OK	0.8089624	-0.3666114	-0.4595389	0	-97.58	-31.577	5.66	B5-03822-P04-CH0	1234312	OK	0.7047785	-0.1493618	0.693526	0	-122.266	-41.668	6.212	B5-03822-P04-CH1	1234312	OK	0.7364738	-0.6730042	0.0683495	0	-109.327	-48.143	0.635	NA
0.659455782312925	B5-03822-P01-CH0	1234320	OK	0.2329486	0.033419	0.0569365	-0.9702455	103.636	-10.559	-236.09	B5-03822-P02-CH0	1234320	OK	0.6687676	0.4274158	-0.6083302	0	-67.044	-97.687	2.729	B5-03822-P02-CH1	1234320	OK	0.7041003	-0.1962977	-0.6824295	0	-68.21	-73.987	-0.44	B5-03822-P03-CH0	1234320	OK	0.8708003	-0.4017534	-0.2833744	0	-91.118	-64.082	11.316	B5-03822-P03-CH1	1234320	OK	0.8090165	-0.3655432	-0.4602939	0	-97.811	-31.335	5.489	B5-03822-P04-CH0	1234320	OK	0.7048276	-0.1487396	0.6936098	0	-122.281	-41.47	6.173	B5-03822-P04-CH1	1234320	OK	0.736461	-0.6730364	0.0681698	0	-109.394	-48.175	0.678	NA
0.669447536590394	B5-03822-P01-CH0	1234328	OK	0.2326228	0.0335519	0.0566542	-0.9703356	103.584	-10.591	-236.095	B5-03822-P02-CH0	1234328	OK	0.6659809	0.4264819	-0.6120316	0	-67.397	-97.352	3.141	B5-03822-P02-CH1	1234328	OK	0.7049846	-0.1792001	-0.6862099	0	-69.309	-74.336	-1.023	B5-03822-P03-CH0	1234328	OK	0.8734006	-0.3918831	-0.2891349	0	-90.962	-64.448	11.188	B5-03822-P03-CH1	1234328	OK	0.8086629	-0.3652812	-0.4611225	0	-97.917	-31.383	6.063	B5-03822-P04-CH0	1234328	OK	0.7041217	-0.1477226	0.6945435	0	-121.883	-41.934	7.586	B5-03822-P04-CH1	1234328	OK	0.7361344	-0.6734205	0.0679044	0	-109.391	-48.148	0.416	NA
0.679439290867862	B5-03822-P01-CH0	1234336	OK	0.2322804	0.0337235	0.0562174	-0.9704371	103.547	-10.64	-236.083	B5-03822-P02-CH0	1234336	OK	0.6652073	0.4222184	-0.6158173	0	-67.283	-97.348	2.75	B5-03822-P02-CH1	1234336	OK	0.7082545	-0.1494738	-0.6899516	0	-70.83	-75.462	0.651	B5-03822-P03-CH0	1234336	OK	0.8766892	-0.3808388	-0.293901	0	-91.018	-65.358	11.129	B5-03822-P03-CH1	1234336	OK	0.8081341	-0.3637394	-0.4632634	0	-98.13	-31.16	6.137	B5-03822-P04-CH0	1234336	OK	0.7041443	-0.1462827	0.6948253	0	-122.197	-41.674	7.189	B5-03822-P04-CH1	1234336	OK	0.7358204	-0.6738113	0.0674285	0	-109.345	-48.166	0.793	NA
0.689431045145331	B5-03822-P01-CH0	1234344	OK	0.2321819	0.0340417	0.056046	-0.9704595	103.56	-10.639	-236.026	B5-03822-P02-CH0	1234344	OK	0.6631256	0.4136557	-0.6238216	0	-67.702	-98.222	2.394	B5-03822-P02-CH1	1234344	OK	0.7138716	-0.1084951	-0.6918209	0	-72.233	-77.039	1.239	B5-03822-P03-CH0	1234344	OK	0.8829234	-0.3659914	-0.2941029	0	-91.381	-66.117	11.753	B5-03822-P03-CH1	1234344	OK	0.8080641	-0.3635533	-0.4635315	0	-98.049	-31.177	5.704	B5-03822-P04-CH0	1234344	OK	0.7043043	-0.146569	0.6946028	0	-122.181	-41.75	7.276	B5-03822-P04-CH1	1234344	OK	0.7357121	-0.6739645	0.0670791	0	-109.346	-48.042	0.644	NA
0.6994227994228	B5-03822-P01-CH0	1234352	OK	0.2322214	0.0340573	0.056449	-0.9704261	103.54	-10.651	-236.008	B5-03822-P02-CH0	1234352	OK	0.6566608	0.4021585	-0.6380166	0	-68.703	-98.94	2.843	B5-03822-P02-CH1	1234352	OK	0.7203547	-0.0852817	-0.6883431	0	-72.132	-77.195	-1.263	B5-03822-P03-CH0	1234352	OK	0.8906169	-0.3460491	-0.295045	0	-92.597	-66.793	11.529	B5-03822-P03-CH1	1234352	OK	0.8082096	-0.366077	-0.4612862	0	-97.623	-31.241	5.732	B5-03822-P04-CH0	1234352	OK	0.704507	-0.1462188	0.694471	0	-122.166	-41.764	7.292	B5-03822-P04-CH1	1234352	OK	0.7360536	-0.6736071	0.0669222	0	-109.376	-48.038	0.686	NA
0.709414553700268	B5-03822-P01-CH0	1234360	OK	0.232295	0.0340401	0.0566761	-0.9703959	103.471	-10.669	-235.909	B5-03822-P02-CH0	1234360	OK	0.6524859	0.3861567	-0.6520316	0	-68.303	-99.072	2.355	B5-03822-P02-CH1	1234360	OK	0.7262876	-0.0807123	-0.682636	0	-71.959	-78.24	-2.666	B5-03822-P03-CH0	1234360	OK	0.8983194	-0.3224597	-0.2983992	0	-93.525	-67.727	12.202	B5-03822-P03-CH1	1234360	OK	0.8084562	-0.3649239	-0.4617675	0	-97.6	-31.185	5.659	B5-03822-P04-CH0	1234360	OK	0.7042502	-0.1455618	0.6948693	0	-122.021	-41.737	7.014	B5-03822-P04-CH1	1234360	OK	0.7363991	-0.6732298	0.0669173	0	-109.339	-47.928	0.49	NA
0.719406307977737	B5-03822-P01-CH0	1234368	OK	0.2323159	0.0340117	0.0570185	-0.9703718	103.458	-10.63	-235.97	B5-03822-P02-CH0	1234368	OK	0.6520247	0.3709896	-0.6612341	0	-68.836	-100.469	2.434	B5-03822-P02-CH1	1234368	OK	0.7304601	-0.0723995	-0.679107	0	-74.272	-80.323	-0.31	B5-03822-P03-CH0	1234368	OK	0.904862	-0.2964997	-0.3054711	0	-93.833	-68.349	12.279	B5-03822-P03-CH1	1234368	OK	0.8085875	-0.3639711	-0.4622892	0	-97.669	-31.157	5.709	B5-03822-P04-CH0	1234368	OK	0.7015268	-0.1369131	0.6993676	0	-121.516	-41.11	6.222	B5-03822-P04-CH1	1234368	OK	0.736684	-0.6729393	0.0667034	0	-109.255	-47.835	0.277	NA
0.729398062255205	B5-03822-P01-CH0	1234376	OK	0.2323381	0.0339803	0.0573236	-0.9703496	103.442	-10.611	-235.928	B5-03822-P02-CH0	1234376	OK	0.6562178	0.3537923	-0.6664902	0	-69.465	-101.947	2.553	B5-03822-P02-CH1	1234376	OK	0.7389658	-0.0667125	-0.6704319	0	-75.668	-82.397	0.789	B5-03822-P03-CH0	1234376	OK	0.908795	-0.2753494	-0.3134873	0	-94.944	-68.435	12.375	B5-03822-P03-CH1	1234376	OK	0.8087349	-0.3630842	-0.4627286	0	-97.667	-31.139	5.719	B5-03822-P04-CH0	1234376	OK	0.7012202	-0.1346548	0.7001131	0	-121.331	-41.238	7.017	B5-03822-P04-CH1	1234376	OK	0.7368674	-0.6727228	0.0668612	0	-109.294	-47.877	0.103	NA
0.739389816532674	B5-03822-P01-CH0	1234384	OK	0.2324367	0.0340358	0.0571816	-0.9703324	103.473	-10.618	-235.933	B5-03822-P02-CH0	1234384	OK	0.6610906	0.3350111	-0.6713619	0	-70.375	-102.62	2.815	B5-03822-P02-CH1	1234384	OK	0.7492332	-0.059367	-0.6596402	0	-76.875	-82.783	0.98	B5-03822-P03-CH0	1234384	OK	0.912772	-0.262295	-0.3131272	0	-95.291	-68.379	12.927	B5-03822-P03-CH1	1234384	OK	0.8085465	-0.3627773	-0.4632982	0	-97.748	-31.163	5.862	B5-03822-P04-CH0	1234384	OK	0.70152	-0.1350087	0.6997445	0	-121.769	-41.365	6.46	B5-03822-P04-CH1	1234384	OK	0.737003	-0.6725602	0.067003	0	-109.341	-47.882	0.335	NA
0.749381570810142	B5-03822-P01-CH0	1234392	OK	0.2323278	0.0339665	0.0569343	-0.9703755	103.477	-10.666	-235.922	B5-03822-P02-CH0	1234392	OK	0.6660061	0.3210752	-0.6733102	0	-71.005	-102.947	2.699	B5-03822-P02-CH1	1234392	OK	0.7569662	-0.0508274	-0.6514742	0	-77.673	-83.382	-0.045	B5-03822-P03-CH0	1234392	OK	0.9151398	-0.2554609	-0.3118635	0	-95.879	-68.31	12.913	B5-03822-P03-CH1	1234392	OK	0.8082603	-0.3623941	-0.4640968	0	-97.838	-31.13	5.996	B5-03822-P04-CH0	1234392	OK	0.7017985	-0.1347696	0.6995113	0	-121.823	-41.328	7.347	B5-03822-P04-CH1	1234392	OK	0.7369333	-0.672637	0.0669982	0	-109.404	-48.018	0.656	NA
0.759373325087611	B5-03822-P01-CH0	1234400	OK	0.232418	0.033988	0.0569238	-0.9703537	103.51	-10.626	-235.865	B5-03822-P02-CH0	1234400	OK	0.6696222	0.3131829	-0.6734409	0	-71.605	-103.883	3.605	B5-03822-P02-CH1	1234400	OK	0.761059	-0.0426277	-0.6472805	0	-78.361	-83.778	1.274	B5-03822-P03-CH0	1234400	OK	0.9151868	-0.2520953	-0.3144535	0	-96.541	-68.507	13.299	B5-03822-P03-CH1	1234400	OK	0.8081075	-0.3623387	-0.464406	0	-97.838	-31.129	6.143	B5-03822-P04-CH0	1234400	OK	0.7007575	-0.1373021	0.7000622	0	-121.378	-41.625	7.897	B5-03822-P04-CH1	1234400	OK	0.7370614	-0.6724705	0.0672596	0	-109.322	-48.066	0.791	NA
0.769365079365079	B5-03822-P01-CH0	1234408	OK	0.2326608	0.0340836	0.0569444	-0.970291	103.588	-10.605	-235.814	B5-03822-P02-CH0	1234408	OK	0.6704431	0.3059994	-0.6759219	0	-71.857	-104.054	3.915	B5-03822-P02-CH1	1234408	OK	0.7615612	-0.0364461	-0.6470674	0	-79.745	-84.353	2.475	B5-03822-P03-CH0	1234408	OK	0.9153956	-0.2527931	-0.3132836	0	-96.076	-69.16	13.1	B5-03822-P03-CH1	1234408	OK	0.8078475	-0.3625893	-0.4646628	0	-97.92	-31.159	6.187	B5-03822-P04-CH0	1234408	OK	0.701232	-0.1380107	0.6994474	0	-121.806	-42.118	7.598	B5-03822-P04-CH1	1234408	OK	0.7373634	-0.6721143	0.0675094	0	-109.349	-48.141	1.184	NA
0.779356833642548	B5-03822-P01-CH0	1234416	OK	0.2327709	0.0340865	0.0567323	-0.9702769	103.629	-10.582	-235.788	B5-03822-P02-CH0	1234416	OK	0.6708703	0.2966625	-0.6796503	0	-71.653	-104.048	3.236	B5-03822-P02-CH1	1234416	OK	0.7636997	-0.0321377	-0.6447712	0	-80.018	-84.279	2.166	B5-03822-P03-CH0	1234416	OK	0.9148577	-0.2513098	-0.316036	0	-96.316	-69.008	12.782	B5-03822-P03-CH1	1234416	OK	0.8076036	-0.3630547	-0.4647233	0	-97.907	-31.201	6.214	B5-03822-P04-CH0	1234416	OK	0.7018052	-0.1373447	0.6990035	0	-121.869	-41.64	7.092	B5-03822-P04-CH1	1234416	OK	0.7375006	-0.6719669	0.0674787	0	-109.464	-48.111	1.195	NA
0.789348587920017	B5-03822-P01-CH0	1234424	OK	0.2328371	0.0339786	0.0566866	-0.9702675	103.66	-10.612	-235.835	B5-03822-P02-CH0	1234424	OK	0.6726228	0.2867924	-0.68215	0	-71.288	-104.234	3.381	B5-03822-P02-CH1	1234424	OK	0.7662315	-0.0240505	-0.6421144	0	-80.394	-85.105	1.821	B5-03822-P03-CH0	1234424	OK	0.9138688	-0.2502511	-0.3197157	0	-96.646	-68.694	12.754	B5-03822-P03-CH1	1234424	OK	0.8074699	-0.3633565	-0.4647197	0	-97.887	-31.225	6.311	B5-03822-P04-CH0	1234424	OK	0.7013473	-0.1374706	0.6994382	0	-121.83	-41.558	6.984	B5-03822-P04-CH1	1234424	OK	0.7375539	-0.6719094	0.0674678	0	-109.442	-48.227	1.179	NA
0.799340342197485	B5-03822-P01-CH0	1234432	OK	0.233031	0.0339823	0.0567806	-0.9702153	103.732	-10.58	-235.889	B5-03822-P02-CH0	1234432	OK	0.6733012	0.2791092	-0.684663	0	-71.589	-104.136	3.384	B5-03822-P02-CH1	1234432	OK	0.7694819	-0.0165366	-0.6384545	0	-81.432	-86.115	2.496	B5-03822-P03-CH0	1234432	OK	0.9132936	-0.2498591	-0.3216603	0	-96.633	-68.203	13.026	B5-03822-P03-CH1	1234432	OK	0.8072387	-0.3638591	-0.4647281	0	-97.939	-31.265	6.474	B5-03822-P04-CH0	1234432	OK	0.7007743	-0.1378567	0.6999363	0	-121.724	-41.522	7.044	B5-03822-P04-CH1	1234432	OK	0.7376758	-0.671754	0.0676832	0	-109.298	-48.259	1.279	NA
0.809332096474954	B5-03822-P01-CH0	1234440	OK	0.2330966	0.0338522	0.0568763	-0.9701985	103.749	-10.556	-235.982	B5-03822-P02-CH0	1234440	OK	0.6752924	0.274675	-0.6844953	0	-71.527	-104.341	3.119	B5-03822-P02-CH1	1234440	OK	0.7738255	-0.0071022	-0.633359	0	-81.655	-85.786	4.211	B5-03822-P03-CH0	1234440	OK	0.9128878	-0.2515911	-0.3214621	0	-96.196	-67.568	12.72	B5-03822-P03-CH1	1234440	OK	0.8070615	-0.3644144	-0.4646008	0	-97.925	-31.35	6.625	B5-03822-P04-CH0	1234440	OK	0.700363	-0.1388594	0.7001498	0	-121.648	-41.476	7.096	B5-03822-P04-CH1	1234440	OK	0.7376723	-0.6717759	0.0675034	0	-109.245	-48.34	1.276	NA
0.819323850752422	B5-03822-P01-CH0	1234448	OK	0.2331746	0.0337901	0.0568489	-0.9701835	103.736	-10.535	-235.955	B5-03822-P02-CH0	1234448	OK	0.6759379	0.2741853	-0.6840544	0	-72.127	-104.681	3.561	B5-03822-P02-CH1	1234448	OK	0.7770111	0.0030489	-0.6294795	0	-81.557	-84.95	2.85	B5-03822-P03-CH0	1234448	OK	0.9100355	-0.2555323	-0.3264025	0	-96.341	-66.971	12.817	B5-03822-P03-CH1	1234448	OK	0.8069534	-0.3649012	-0.4644065	0	-97.872	-31.307	6.6	B5-03822-P04-CH0	1234448	OK	0.7000137	-0.140077	0.7002566	0	-121.58	-41.429	7.061	B5-03822-P04-CH1	1234448	OK	0.7376903	-0.671759	0.0674754	0	-109.166	-48.319	1.387	NA
0.829315605029891	B5-03822-P01-CH0	1234456	OK	0.2331665	0.0338297	0.0564983	-0.9702046	103.754	-10.538	-235.999	B5-03822-P02-CH0	1234456	OK	0.6765604	0.2763509	-0.6825659	0	-72.285	-104.245	4.497	B5-03822-P02-CH1	1234456	OK	0.776171	0.0111423	-0.630424	0	-82.65	-85.722	2.384	B5-03822-P03-CH0	1234456	OK	0.9075029	-0.2610569	-0.3290712	0	-96.053	-66.41	13.058	B5-03822-P03-CH1	1234456	OK	0.8066593	-0.3654634	-0.4644753	0	-97.905	-31.285	6.686	B5-03822-P04-CH0	1234456	OK	0.6996669	-0.1417311	0.7002703	0	-121.518	-41.381	7.081	B5-03822-P04-CH1	1234456	OK	0.7373467	-0.6721629	0.0672078	0	-109.063	-48.314	1.366	NA
0.839307359307359	B5-03822-P01-CH0	1234464	OK	0.2332275	0.0336666	0.0569512	-0.9701691	103.711	-10.489	-236.014	B5-03822-P02-CH0	1234464	OK	0.6800258	0.2804113	-0.6774469	0	-71.86	-104.904	3.496	B5-03822-P02-CH1	1234464	OK	0.7767117	0.0220804	-0.6294692	0	-82.428	-85.469	3.67	B5-03822-P03-CH0	1234464	OK	0.904676	-0.2690167	-0.330441	0	-95.683	-66.349	12.909	B5-03822-P03-CH1	1234464	OK	0.8068048	-0.3656401	-0.4640834	0	-97.823	-31.253	6.577	B5-03822-P04-CH0	1234464	OK	0.6992863	-0.143721	0.7002449	0	-121.361	-41.26	6.931	B5-03822-P04-CH1	1234464	OK	0.7374942	-0.6720335	0.0668819	0	-108.94	-48.258	1.263	NA
0.849299113584828	B5-03822-P01-CH0	1234472	OK	0.2334752	0.0335835	0.0575909	-0.9700746	103.72	-10.412	-236.072	B5-03822-P02-CH0	1234472	OK	0.6817031	0.2855354	-0.67361	0	-72.11	-104.946	3.41	B5-03822-P02-CH1	1234472	OK	0.7760026	0.0326615	-0.6298835	0	-82.735	-85.865	3.031	B5-03822-P03-CH0	1234472	OK	0.9014976	-0.2731087	-0.3357286	0	-95.702	-65.888	12.441	B5-03822-P03-CH1	1234472	OK	0.807038	-0.3657379	-0.4636005	0	-97.784	-31.238	6.529	B5-03822-P04-CH0	1234472	OK	0.69919	-0.1455447	0.6999643	0	-121.3	-41.214	6.884	B5-03822-P04-CH1	1234472	OK	0.7376256	-0.6719087	0.0666872	0	-108.784	-48.156	0.698	NA
0.859290867862296	B5-03822-P01-CH0	1234480	OK	0.2334339	0.033692	0.0577809	-0.9700695	103.787	-10.398	-236.144	B5-03822-P02-CH0	1234480	OK	0.6816013	0.2917725	-0.6710353	0	-72.862	-104.347	3.333	B5-03822-P02-CH1	1234480	OK	0.7774793	0.0420201	-0.6275032	0	-82.432	-84.602	2.952	B5-03822-P03-CH0	1234480	OK	0.8984713	-0.2785978	-0.3393118	0	-95.477	-65.661	12.462	B5-03822-P03-CH1	1234480	OK	0.807019	-0.3658324	-0.4635591	0	-97.844	-31.223	6.372	B5-03822-P04-CH0	1234480	OK	0.6998475	-0.158327	0.6965242	0	-121.343	-40.455	6.485	B5-03822-P04-CH1	1234480	OK	0.7375024	-0.6721071	0.0660465	0	-108.839	-48.075	0.376	NA
0.869282622139765	B5-03822-P01-CH0	1234488	OK	0.233358	0.0335441	0.057727	-0.9700961	103.761	-10.417	-236.179	B5-03822-P02-CH0	1234488	OK	0.6839071	0.2976625	-0.6660842	0	-73.055	-104.854	2.997	B5-03822-P02-CH1	1234488	OK	0.7793	0.0458889	-0.6249686	0	-82.477	-84.75	3.219	B5-03822-P03-CH0	1234488	OK	0.8951045	-0.2863025	-0.3417878	0	-95.228	-65.373	12.064	B5-03822-P03-CH1	1234488	OK	0.8071622	-0.3657485	-0.463376	0	-97.774	-31.204	6.263	B5-03822-P04-CH0	1234488	OK	0.7005407	-0.161099	0.6951905	0	-121.288	-40.816	6.836	B5-03822-P04-CH1	1234488	OK	0.7374078	-0.6722761	0.0653803	0	-108.782	-47.93	0.395	NA
0.879274376417234	B5-03822-P01-CH0	1234496	OK	0.2334842	0.0334566	0.0582396	-0.9700381	103.758	-10.351	-236.232	B5-03822-P02-CH0	1234496	OK	0.6853726	0.3045273	-0.6614586	0	-73.487	-104.498	3.586	B5-03822-P02-CH1	1234496	OK	0.7812843	0.0487239	-0.6222707	0	-82.433	-85.11	2.168	B5-03822-P03-CH0	1234496	OK	0.8920894	-0.2937701	-0.3433302	0	-94.798	-64.754	11.7	B5-03822-P03-CH1	1234496	OK	0.8073653	-0.3655285	-0.4631956	0	-97.829	-31.135	6.245	B5-03822-P04-CH0	1234496	OK	0.7016099	-0.1657078	0.6930256	0	-121.535	-40.388	5.997	B5-03822-P04-CH1	1234496	OK	0.7375015	-0.6721966	0.0651408	0	-108.743	-47.903	0.421	NA
0.889266130694702	B5-03822-P01-CH0	1234504	OK	0.2334058	0.0334823	0.0581556	-0.9700611	103.769	-10.359	-236.237	B5-03822-P02-CH0	1234504	OK	0.6881321	0.3122825	-0.6549457	0	-73.787	-104.27	3.581	B5-03822-P02-CH1	1234504	OK	0.7834681	0.055166	-0.6189786	0	-81.746	-83.066	1.253	B5-03822-P03-CH0	1234504	OK	0.8883654	-0.2988726	-0.3485429	0	-94.811	-63.942	11.212	B5-03822-P03-CH1	1234504	OK	0.8074223	-0.3654531	-0.4631558	0	-97.826	-31.112	6.21	B5-03822-P04-CH0	1234504	OK	0.7021225	-0.1724869	0.6908489	0	-121.163	-39.286	5.304	B5-03822-P04-CH1	1234504	OK	0.737387	-0.6724046	0.0642842	0	-108.737	-47.8	0.847	NA
0.899257884972171	B5-03822-P01-CH0	1234512	OK	0.2334207	0.0334941	0.0581112	-0.9700598	103.768	-10.375	-236.266	B5-03822-P02-CH0	1234512	OK	0.6899897	0.3209465	-0.6487739	0	-73.935	-103.667	3.254	B5-03822-P02-CH1	1234512	OK	0.7828305	0.0565891	-0.6196565	0	-81.992	-83.123	2.359	B5-03822-P03-CH0	1234512	OK	0.8842562	-0.3064135	-0.3524227	0	-94.502	-63.587	11.172	B5-03822-P03-CH1	1234512	OK	0.8074954	-0.3654577	-0.4630247	0	-97.837	-31.082	6.128	B5-03822-P04-CH0	1234512	OK	0.7032284	-0.172993	0.6895964	0	-121.548	-40.11	5.413	B5-03822-P04-CH1	1234512	OK	0.7373164	-0.6725391	0.0636838	0	-108.785	-47.698	0.921	NA
0.909249639249639	B5-03822-P01-CH0	1234520	OK	0.2334632	0.0334976	0.0582427	-0.9700416	103.783	-10.376	-236.276	B5-03822-P02-CH0	1234520	OK	0.6914999	0.3294638	-0.6428698	0	-74.225	-103.63	3.906	B5-03822-P02-CH1	1234520	OK	0.7824684	0.0552095	-0.620238	0	-82.421	-83.218	3.424	B5-03822-P03-CH0	1234520	OK	0.8796958	-0.3136269	-0.3574543	0	-94.409	-63.04	10.935	B5-03822-P03-CH1	1234520	OK	0.8076443	-0.3653117	-0.4628802	0	-97.878	-31.011	6.024	B5-03822-P04-CH0	1234520	OK	0.7035242	-0.175124	0.6887563	0	-121.258	-39.939	6.114	B5-03822-P04-CH1	1234520	OK	0.7372967	-0.6726055	0.06321	0	-108.8	-47.597	0.9	NA
0.919241393527108	B5-03822-P01-CH0	1234528	OK	0.2336365	0.0334604	0.0586424	-0.969977	103.834	-10.371	-236.39	B5-03822-P02-CH0	1234528	OK	0.6938426	0.3365846	-0.6366265	0	-73.627	-103.159	3.62	B5-03822-P02-CH1	1234528	OK	0.7839079	0.0541174	-0.6185141	0	-81.977	-82.552	3.122	B5-03822-P03-CH0	1234528	OK	0.8752964	-0.3206701	-0.3619763	0	-94.283	-62.84	11.069	B5-03822-P03-CH1	1234528	OK	0.8079164	-0.3652585	-0.462447	0	-97.898	-31.037	6.017	B5-03822-P04-CH0	1234528	OK	0.7040703	-0.1770422	0.6877071	0	-121.396	-39.586	5.56	B5-03822-P04-CH1	1234528	OK	0.7375496	-0.6723586	0.0628845	0	-108.906	-47.55	1.112	NA
0.929233147804576	B5-03822-P01-CH0	1234536	OK	0.2336344	0.0333629	0.0588185	-0.9699702	103.858	-10.4	-236.461	B5-03822-P02-CH0	1234536	OK	0.6945163	0.3442338	-0.6317834	0	-73.978	-102.903	3.516	B5-03822-P02-CH1	1234536	OK	0.7846897	0.0512251	-0.6177686	0	-81.602	-82.374	2.839	B5-03822-P03-CH0	1234536	OK	0.8719764	-0.3280181	-0.3634024	0	-94.06	-62.624	10.873	B5-03822-P03-CH1	1234536	OK	0.8081311	-0.3652154	-0.4621059	0	-97.883	-31.056	5.92	B5-03822-P04-CH0	1234536	OK	0.7053251	-0.1774857	0.6863055	0	-121.652	-39.907	6.457	B5-03822-P04-CH1	1234536	OK	0.7376984	-0.6722378	0.0624296	0	-108.924	-47.508	1.574	NA
0.939224902082045	B5-03822-P01-CH0	1234544	OK	0.2334843	0.0335287	0.0582312	-0.9700361	103.922	-10.457	-236.5	B5-03822-P02-CH0	1234544	OK	0.6953771	0.3524431	-0.6262863	0	-74.378	-103.197	3.622	B5-03822-P02-CH1	1234544	OK	0.7839983	0.0472759	-0.6189601	0	-81.71	-81.974	3.11	B5-03822-P03-CH0	1234544	OK	0.8698401	-0.3345749	-0.3625436	0	-93.49	-62.13	11.077	B5-03822-P03-CH1	1234544	OK	0.8079743	-0.3654244	-0.4622149	0	-97.918	-31.084	5.98	B5-03822-P04-CH0	1234544	OK	0.7056647	-0.1805906	0.6851456	0	-121.573	-39.748	6.489	B5-03822-P04-CH1	1234544	OK	0.7372348	-0.6728056	0.0617854	0	-108.92	-47.445	1.68	NA
0.949216656359514	B5-03822-P01-CH0	1234552	OK	0.233286	0.0335967	0.0575702	-0.9701209	103.929	-10.52	-236.566	B5-03822-P02-CH0	1234552	OK	0.6964983	0.3604869	-0.6204348	0	-74.202	-103.077	3.964	B5-03822-P02-CH1	1234552	OK	0.784553	0.0412097	-0.6186908	0	-80.993	-82.215	3.551	B5-03822-P03-CH0	1234552	OK	0.8668831	-0.3400506	-0.3645261	0	-93.614	-61.532	11.057	B5-03822-P03-CH1	1234552	OK	0.8078819	-0.365519	-0.4623015	0	-97.897	-31.067	6.023	B5-03822-P04-CH0	1234552	OK	0.7062247	-0.1816152	0.6842972	0	-121.77	-40.162	6.78	B5-03822-P04-CH1	1234552	OK	0.7367857	-0.6733581	0.0611207	0	-108.916	-47.33	1.859	NA
0.959208410636982	B5-03822-P01-CH0	1234560	OK	0.2332979	0.0333532	0.0573359	-0.9701403	103.857	-10.561	-236.627	B5-03822-P02-CH0	1234560	OK	0.6971469	0.3684229	-0.615021	0	-74.001	-102.672	4.306	B5-03822-P02-CH1	1234560	OK	0.7833494	0.0364331	-0.620513	0	-80.975	-81.948	3.499	B5-03822-P03-CH0	1234560	OK	0.8630858	-0.3473846	-0.3666153	0	-93.85	-61.434	11	B5-03822-P03-CH1	1234560	OK	0.8080664	-0.3652801	-0.4621679	0	-97.825	-31.03	6.093	B5-03822-P04-CH0	1234560	OK	0.7064217	-0.1808796	0.6842887	0	-121.565	-40.147	7.417	B5-03822-P04-CH1	1234560	OK	0.7366975	-0.673478	0.0608624	0	-108.8	-47.257	2.196	NA
0.969200164914451	B5-03822-P01-CH0	1234568	OK	0.2332733	0.0334109	0.0572386	-0.97015	103.891	-10.583	-236.679	B5-03822-P02-CH0	1234568	OK	0.6983705	0.3757956	-0.6091439	0	-73.826	-102.995	3.657	B5-03822-P02-CH1	1234568	OK	0.7818266	0.0349555	-0.6225153	0	-80.498	-81.978	2.521	B5-03822-P03-CH0	1234568	OK	0.8603331	-0.3553178	-0.3654807	0	-93.222	-61.589	10.49	B5-03822-P03-CH1	1234568	OK	0.8081411	-0.3651186	-0.4621649	0	-97.83	-31.027	6.15	B5-03822-P04-CH0	1234568	OK	0.704099	-0.1781534	0.6873907	0	-121.2	-39.866	6.85	B5-03822-P04-CH1	1234568	OK	0.7366067	-0.6736017	0.0605908	0	-108.876	-47.293	2.611	NA
0.979191919191919	B5-03822-P01-CH0	1234576	OK	0.2331706	0.0333846	0.0570827	-0.9701848	103.917	-10.653	-236.769	B5-03822-P02-CH0	1234576	OK	0.6977454	0.3847346	-0.6042604	0	-74.097	-102.861	4.416	B5-03822-P02-CH1	1234576	OK	0.7794001	0.032751	-0.6256699	0	-79.779	-80.864	2.7	B5-03822-P03-CH0	1234576	OK	0.8579412	-0.3600549	-0.3664661	0	-93.423	-60.902	10.482	B5-03822-P03-CH1	1234576	OK	0.8082443	-0.3648781	-0.4621744	0	-97.779	-31.105	6.236	B5-03822-P04-CH0	1234576	OK	0.7045633	-0.179234	0.6866337	0	-121.264	-39.902	6.856	B5-03822-P04-CH1	1234576	OK	0.7366162	-0.6736501	0.059934	0	-108.907	-47.183	2.64	NA
0.989183673469388	B5-03822-P01-CH0	1234584	OK	0.2332889	0.0331899	0.05727	-0.970152	103.878	-10.685	-236.794	B5-03822-P02-CH0	1234584	OK	0.6968796	0.3943139	-0.599062	0	-73.924	-102.218	3.745	B5-03822-P02-CH1	1234584	OK	0.7744959	0.0274844	-0.6319816	0	-80.02	-81.203	3.136	B5-03822-P03-CH0	1234584	OK	0.8568622	-0.3649711	-0.3641198	0	-93.266	-60.343	10.347	B5-03822-P03-CH1	1234584	OK	0.8084315	-0.3645589	-0.4620988	0	-97.74	-31.116	6.193	B5-03822-P04-CH0	1234584	OK	0.7050329	-0.1795706	0.6860635	0	-121.254	-40.002	7.089	B5-03822-P04-CH1	1234584	OK	0.7366867	-0.6735637	0.0600389	0	-108.849	-47.163	2.389	NA
0.999175427746856	B5-03822-P01-CH0	1234592	OK	0.2332802	0.0330959	0.057344	-0.9701529	103.882	-10.681	-236.888	B5-03822-P02-CH0	1234592	OK	0.6962626	0.4013333	-0.595105	0	-74.198	-102.283	4.349	B5-03822-P02-CH1	1234592	OK	0.7717742	0.022718	-0.6354907	0	-79.495	-81.053	2.041	B5-03822-P03-CH0	1234592	OK	0.8562289	-0.3709815	-0.3595064	0	-92.955	-60.386	11.102	B5-03822-P03-CH1	1234592	OK	0.8084572	-0.3641268	-0.4623944	0	-97.778	-31.098	6.296	B5-03822-P04-CH0	1234592	OK	0.7053587	-0.180049	0.685603	0	-121.274	-40.035	7.244	B5-03822-P04-CH1	1234592	OK	0.7368649	-0.673395	0.0597445	0	-108.823	-47.034	2.576	NA
1.00916718202432	B5-03822-P01-CH0	1234600	OK	0.2331989	0.0331228	0.0568449	-0.9702009	103.905	-10.747	-236.93	B5-03822-P02-CH0	1234600	OK	0.6953781	0.4055638	-0.5932684	0	-74.217	-101.646	4.65	B5-03822-P02-CH1	1234600	OK	0.7688399	0.0198799	-0.6391322	0	-78.948	-80.563	2.556	B5-03822-P03-CH0	1234600	OK	0.855226	-0.3742943	-0.3584582	0	-92.903	-60.549	10.946	B5-03822-P03-CH1	1234600	OK	0.8082886	-0.3640816	-0.4627246	0	-97.783	-31.159	6.36	B5-03822-P04-CH0	1234600	OK	0.705756	-0.1803985	0.685102	0	-121.347	-40.046	7.438	B5-03822-P04-CH1	1234600	OK	0.7365137	-0.673795	0.059564	0	-108.781	-47.06	2.746	NA
1.01915893630179	B5-03822-P01-CH0	1234608	OK	0.2329786	0.0332219	0.0561156	-0.9702929	103.903	-10.833	-236.814	B5-03822-P02-CH0	1234608	OK	0.6966025	0.4079393	-0.5901953	0	-73.785	-101.72	4.315	B5-03822-P02-CH1	1234608	OK	0.765072	0.0151693	-0.6437661	0	-79.06	-80.138	3.082	B5-03822-P03-CH0	1234608	OK	0.8544471	-0.3759582	-0.3585742	0	-93.051	-60.363	10.903	B5-03822-P03-CH1	1234608	OK	0.8079835	-0.3639932	-0.4633267	0	-97.778	-31.187	6.305	B5-03822-P04-CH0	1234608	OK	0.7059345	-0.1805175	0.6848868	0	-121.382	-40.149	7.53	B5-03822-P04-CH1	1234608	OK	0.7360372	-0.6743566	0.0590966	0	-108.726	-46.996	2.717	NA
1.02915069057926	B5-03822-P01-CH0	1234616	OK	0.2330008	0.0332594	0.0562906	-0.9702761	103.955	-10.835	-236.822	B5-03822-P02-CH0	1234616	OK	0.6970038	0.4094385	-0.5886814	0	-73.689	-101.925	4.147	B5-03822-P02-CH1	1234616	OK	0.7623006	0.0123991	-0.6471044	0	-78.905	-80.175	3.299	B5-03822-P03-CH0	1234616	OK	0.8545073	-0.3761404	-0.3582396	0	-93.365	-59.972	10.891	B5-03822-P03-CH1	1234616	OK	0.8080005	-0.3635278	-0.4636623	0	-97.843	-31.182	6.334	B5-03822-P04-CH0	1234616	OK	0.7063834	-0.1799862	0.6845637	0	-121.527	-40.31	7.64	B5-03822-P04-CH1	1234616	OK	0.7360672	-0.6743307	0.0590187	0	-108.785	-47.051	2.876	NA
1.03914244485673	B5-03822-P01-CH0	1234624	OK	0.2330943	0.0331802	0.0565738	-0.9702399	103.976	-10.818	-236.865	B5-03822-P02-CH0	1234624	OK	0.6958239	0.4128568	-0.587689	0	-73.854	-101.311	4.166	B5-03822-P02-CH1	1234624	OK	0.7607049	0.010975	-0.6490051	0	-78.169	-80.181	2.36	B5-03822-P03-CH0	1234624	OK	0.8544573	-0.3780469	-0.3563472	0	-93.019	-60.122	10.41	B5-03822-P03-CH1	1234624	OK	0.8081151	-0.363044	-0.4638416	0	-97.903	-31.178	6.279	B5-03822-P04-CH0	1234624	OK	0.7065354	-0.1794466	0.6845484	0	-121.534	-40.342	7.673	B5-03822-P04-CH1	1234624	OK	0.736445	-0.6739372	0.0588006	0	-108.837	-46.911	2.918	NA
1.0491341991342	B5-03822-P01-CH0	1234632	OK	0.2332621	0.0329584	0.0572654	-0.9701666	103.939	-10.796	-236.84	B5-03822-P02-CH0	1234632	OK	0.6955176	0.4187903	-0.5838406	0	-73.874	-101.52	4.43	B5-03822-P02-CH1	1234632	OK	0.7570723	0.0086219	-0.6532742	0	-78.392	-80.296	0.995	B5-03822-P03-CH0	1234632	OK	0.8533451	-0.3791389	-0.3578488	0	-93.104	-60.11	10.31	B5-03822-P03-CH1	1234632	OK	0.8084808	-0.3624234	-0.4636896	0	-97.853	-31.2	6.232	B5-03822-P04-CH0	1234632	OK	0.7067216	-0.1791317	0.6844388	0	-121.509	-40.2	7.436	B5-03822-P04-CH1	1234632	OK	0.7368369	-0.6734811	0.0591146	0	-108.795	-47.031	3.057	NA
1.05912595341167	B5-03822-P01-CH0	1234640	OK	0.2332192	0.0330596	0.0572141	-0.9701765	103.972	-10.808	-236.813	B5-03822-P02-CH0	1234640	OK	0.6948085	0.4251366	-0.5800863	0	-73.996	-101.347	4.55	B5-03822-P02-CH1	1234640	OK	0.7551568	0.0062975	-0.655514	0	-77.997	-79.874	3.357	B5-03822-P03-CH0	1234640	OK	0.8521995	-0.3816457	-0.3579142	0	-92.554	-59.899	10.492	B5-03822-P03-CH1	1234640	OK	0.8085164	-0.3622873	-0.463734	0	-97.826	-31.221	6.228	B5-03822-P04-CH0	1234640	OK	0.7067032	-0.1792802	0.6844188	0	-121.53	-40.115	7.275	B5-03822-P04-CH1	1234640	OK	0.7370064	-0.6733132	0.0589146	0	-108.847	-46.925	3.233	NA
1.06911770768914	B5-03822-P01-CH0	1234648	OK	0.2332881	0.0331183	0.0572345	-0.9701567	104.004	-10.869	-236.792	B5-03822-P02-CH0	1234648	OK	0.6946341	0.4312292	-0.5757819	0	-74.125	-101.304	4.785	B5-03822-P02-CH1	1234648	OK	0.753315	0.0042255	-0.6576463	0	-77.9	-79.989	1.974	B5-03822-P03-CH0	1234648	OK	0.8503781	-0.3850846	-0.3585623	0	-92.423	-59.755	10.539	B5-03822-P03-CH1	1234648	OK	0.8083974	-0.3622217	-0.4639925	0	-97.876	-31.279	6.113	B5-03822-P04-CH0	1234648	OK	0.7067506	-0.1792821	0.6843694	0	-121.557	-40.079	7.107	B5-03822-P04-CH1	1234648	OK	0.7369652	-0.6733581	0.0589161	0	-108.821	-46.922	2.851	NA
1.0791094619666	B5-03822-P01-CH0	1234656	OK	0.2333441	0.0330419	0.0572706	-0.9701437	103.984	-10.906	-236.814	B5-03822-P02-CH0	1234656	OK	0.6953086	0.4372514	-0.5704009	0	-74.172	-101.578	4.625	B5-03822-P02-CH1	1234656	OK	0.7525709	0.0017662	-0.6585089	0	-77.595	-80.059	2.125	B5-03822-P03-CH0	1234656	OK	0.8483936	-0.3879534	-0.3601673	0	-92.717	-59.602	10.295	B5-03822-P03-CH1	1234656	OK	0.8084695	-0.3620696	-0.4639856	0	-97.855	-31.293	6.141	B5-03822-P04-CH0	1234656	OK	0.7066722	-0.1789492	0.6845375	0	-121.529	-40.202	7.167	B5-03822-P04-CH1	1234656	OK	0.7368491	-0.6734651	0.0591461	0	-108.683	-46.967	2.733	NA
1.08910121624407	B5-03822-P01-CH0	1234664	OK	0.2333008	0.0331173	0.0571491	-0.9701587	104.012	-10.92	-236.852	B5-03822-P02-CH0	1234664	OK	0.6966095	0.442462	-0.5647677	0	-74.16	-101.89	4.842	B5-03822-P02-CH1	1234664	OK	0.7507822	-0.0006824	-0.6605494	0	-77.896	-80.575	3.515	B5-03822-P03-CH0	1234664	OK	0.8470579	-0.3911791	-0.359822	0	-92.565	-59.762	10.113	B5-03822-P03-CH1	1234664	OK	0.8084922	-0.3619197	-0.4640631	0	-97.853	-31.319	6.18	B5-03822-P04-CH0	1234664	OK	0.7067064	-0.1786729	0.6845744	0	-121.577	-40.289	7.314	B5-03822-P04-CH1	1234664	OK	0.7367341	-0.6735961	0.0590858	0	-108.661	-46.952	2.747	NA
1.09909297052154	B5-03822-P01-CH0	1234672	OK	0.2332789	0.0331469	0.057216	-0.970159	104.023	-10.961	-236.819	B5-03822-P02-CH0	1234672	OK	0.6970566	0.4472973	-0.5603903	0	-74.274	-101.953	4.252	B5-03822-P02-CH1	1234672	OK	0.7501919	-0.0008275	-0.6612197	0	-77.402	-79.833	2.264	B5-03822-P03-CH0	1234672	OK	0.8460165	-0.392146	-0.361217	0	-92.913	-59.342	10.112	B5-03822-P03-CH1	1234672	OK	0.8086111	-0.3616212	-0.4640886	0	-97.853	-31.355	6.134	B5-03822-P04-CH0	1234672	OK	0.7068592	-0.1783556	0.6844993	0	-121.666	-40.346	7.222	B5-03822-P04-CH1	1234672	OK	0.7366944	-0.6736427	0.0590498	0	-108.695	-46.926	2.352	NA
