Wav.Time	B5.03822.P01.CH0	Frame	State	Q0	Qx	Qy	Qz	Tx	Ty	Tz	B5.03822.P02.CH0	Frame.1	State.1	Q0.1	Qx.1	Qy.1	Qz.1	Tx.1	Ty.1	Tz.1	B5.03822.P02.CH1	Frame.2	State.2	Q0.2	Qx.2	Qy.2	Qz.2	Tx.2	Ty.2	Tz.2	B5.03822.P03.CH0	Frame.3	State.3	Q0.3	Qx.3	Qy.3	Qz.3	Tx.3	Ty.3	Tz.3	B5.03822.P03.CH1	Frame.4	State.4	Q0.4	Qx.4	Qy.4	Qz.4	Tx.4	Ty.4	Tz.4	B5.03822.P04.CH0	Frame.5	State.5	Q0.5	Qx.5	Qy.5	Qz.5	Tx.5	Ty.5	Tz.5	B5.03822.P04.CH1	Frame.6	State.6	Q0.6	Qx.6	Qy.6	Qz.6	Tx.6	Ty.6	Tz.6	X
0	B5-03822-P01-CH0	1633992	OK	0.1432293	0.1122484	0.1277208	-0.9749734	154.324	-13.081	-279.821	B5-03822-P02-CH0	1633992	OK	0.6072529	0.150877	-0.7800513	0	-76.56	-87.285	1.271	B5-03822-P02-CH1	1633992	OK	0.7093156	-0.1528213	-0.6881257	0	-80.296	-63.637	-0.976	B5-03822-P03-CH0	1633992	OK	0.6995221	0.0860277	-0.7094139	0	-96.538	-43.309	6.507	B5-03822-P03-CH1	1633992	OK	0.7847575	-0.6106205	-0.1062932	0	-99.595	-14.849	7.582	B5-03822-P04-CH0	1633992	OK	0.7975675	-0.3053183	0.5202565	0	-123.363	-21.911	16.687	B5-03822-P04-CH1	1633992	OK	0.7890613	-0.6142514	0.0088059	0	-108.936	-29.666	4.787	NA
0.00999211278714384	B5-03822-P01-CH0	1634000	OK	0.1428093	0.1124175	0.1268513	-0.975129	154.375	-13.194	-279.883	B5-03822-P02-CH0	1634000	OK	0.5850886	0.1518387	-0.7966281	0	-73.92	-87.384	1.693	B5-03822-P02-CH1	1634000	OK	0.692304	-0.2008055	-0.6931034	0	-78.863	-63.438	-2.613	B5-03822-P03-CH0	1634000	OK	0.7071389	0.0757836	-0.7030018	0	-97.337	-43.205	7.123	B5-03822-P03-CH1	1634000	OK	0.783899	-0.6115683	-0.1071751	0	-99.523	-14.816	7.576	B5-03822-P04-CH0	1634000	OK	0.7972418	-0.3041211	0.5214555	0	-123.453	-21.922	16.893	B5-03822-P04-CH1	1634000	OK	0.7885272	-0.6149349	0.0089383	0	-109.187	-29.744	4.93	NA
0.0199842255742877	B5-03822-P01-CH0	1634008	OK	0.1432009	0.1128152	0.1276955	-0.9749154	154.501	-13.042	-279.7	B5-03822-P02-CH0	1634008	OK	0.5584431	0.1187489	-0.8209994	0	-73.447	-84.931	2.756	B5-03822-P02-CH1	1634008	OK	0.6804937	-0.2454852	-0.6904095	0	-79.292	-63.968	-0.648	B5-03822-P03-CH0	1634008	OK	0.7139333	0.0749358	-0.6961925	0	-98.657	-44.538	9.076	B5-03822-P03-CH1	1634008	OK	0.7840647	-0.6113773	-0.107053	0	-99.722	-14.77	7.635	B5-03822-P04-CH0	1634008	OK	0.7973892	-0.3016468	0.5226659	0	-123.632	-21.783	16.405	B5-03822-P04-CH1	1634008	OK	0.7890795	-0.6142146	0.009688	0	-109.587	-29.753	5.092	NA
0.0299763383614315	B5-03822-P01-CH0	1634016	OK	0.1431313	0.1127054	0.1277203	-0.9749351	154.418	-12.986	-279.759	B5-03822-P02-CH0	1634016	OK	0.5491283	0.0634748	-0.8333241	0	-70.178	-85.37	1.931	B5-03822-P02-CH1	1634016	OK	0.6795008	-0.2815737	-0.6774916	0	-78.953	-63.49	-0.959	B5-03822-P03-CH0	1634016	OK	0.7201704	0.0816055	-0.6889813	0	-99.191	-44.086	7.702	B5-03822-P03-CH1	1634016	OK	0.7838812	-0.6115517	-0.1074	0	-99.541	-14.583	7.617	B5-03822-P04-CH0	1634016	OK	0.7970156	-0.3004359	0.5239317	0	-123.539	-21.544	16.1	B5-03822-P04-CH1	1634016	OK	0.7889828	-0.6143288	0.0103059	0	-109.681	-29.672	4.824	NA
0.0399684511485754	B5-03822-P01-CH0	1634024	OK	0.1431569	0.1127931	0.1282188	-0.9748558	154.493	-12.968	-279.827	B5-03822-P02-CH0	1634024	OK	0.5471733	0.010615	-0.836952	0	-68.482	-86.552	2.571	B5-03822-P02-CH1	1634024	OK	0.6826296	-0.3136177	-0.660046	0	-77.07	-64.446	-0.798	B5-03822-P03-CH0	1634024	OK	0.7220417	0.0960176	-0.6851543	0	-99.279	-43.763	9.565	B5-03822-P03-CH1	1634024	OK	0.7840591	-0.6112522	-0.1078057	0	-99.419	-14.261	7.154	B5-03822-P04-CH0	1634024	OK	0.7969404	-0.2989474	0.5248966	0	-123.61	-21.393	15.888	B5-03822-P04-CH1	1634024	OK	0.7891383	-0.614106	0.0115993	0	-109.905	-29.947	5.096	NA
0.0499605639357192	B5-03822-P01-CH0	1634032	OK	0.1429044	0.1128705	0.1278185	-0.9749364	154.449	-12.879	-279.843	B5-03822-P02-CH0	1634032	OK	0.5483743	-0.0299259	-0.8356973	0	-68.251	-87.103	2.258	B5-03822-P02-CH1	1634032	OK	0.6845798	-0.3438653	-0.6427341	0	-77.737	-65.05	2.504	B5-03822-P03-CH0	1634032	OK	0.7201319	0.1163271	-0.6840162	0	-100.074	-43.208	9.493	B5-03822-P03-CH1	1634032	OK	0.7837912	-0.6114915	-0.1083955	0	-99.355	-13.833	7.057	B5-03822-P04-CH0	1634032	OK	0.7964894	-0.2983398	0.5259258	0	-123.654	-21.342	15.832	B5-03822-P04-CH1	1634032	OK	0.7890492	-0.6142116	0.0120595	0	-110.072	-29.567	5.048	NA
0.0599526767228631	B5-03822-P01-CH0	1634040	OK	0.1430554	0.112798	0.1283784	-0.9748491	154.422	-12.858	-279.841	B5-03822-P02-CH0	1634040	OK	0.5517484	-0.0589004	-0.8319281	0	-67.206	-87.319	1.786	B5-03822-P02-CH1	1634040	OK	0.6904588	-0.3684294	-0.6225162	0	-79.457	-63.422	-1.34	B5-03822-P03-CH0	1634040	OK	0.7160925	0.1428405	-0.6832336	0	-101.393	-45.414	9.742	B5-03822-P03-CH1	1634040	OK	0.7841169	-0.6110876	-0.1083172	0	-99.298	-13.627	6.848	B5-03822-P04-CH0	1634040	OK	0.796276	-0.2973843	0.5267894	0	-123.611	-21.389	15.719	B5-03822-P04-CH1	1634040	OK	0.7889427	-0.6143276	0.0130764	0	-109.901	-29.768	4.668	NA
0.0699447895100069	B5-03822-P01-CH0	1634048	OK	0.1427023	0.1129232	0.1280008	-0.974936	154.387	-12.985	-279.682	B5-03822-P02-CH0	1634048	OK	0.5523308	-0.0796166	-0.8298144	0	-67.432	-86.318	1.347	B5-03822-P02-CH1	1634048	OK	0.6977375	-0.3852488	-0.6039419	0	-79.527	-64.861	-1.381	B5-03822-P03-CH0	1634048	OK	0.7119477	0.1809203	-0.6785266	0	-101.22	-45.256	9.656	B5-03822-P03-CH1	1634048	OK	0.7836333	-0.611649	-0.108648	0	-99.237	-13.663	6.63	B5-03822-P04-CH0	1634048	OK	0.7959889	-0.2973989	0.5272149	0	-123.513	-21.197	15.632	B5-03822-P04-CH1	1634048	OK	0.7886989	-0.6146278	0.0136618	0	-110.109	-29.831	4.764	NA
0.0799369022971507	B5-03822-P01-CH0	1634056	OK	0.142744	0.1130841	0.12791	-0.9749232	154.397	-13.047	-279.604	B5-03822-P02-CH0	1634056	OK	0.552292	-0.090931	-0.8286767	0	-66.739	-87.032	1.322	B5-03822-P02-CH1	1634056	OK	0.7063217	-0.3944745	-0.5877921	0	-80.724	-65.281	-1.414	B5-03822-P03-CH0	1634056	OK	0.7080628	0.2150832	-0.6725967	0	-100.987	-45.46	10.012	B5-03822-P03-CH1	1634056	OK	0.7836135	-0.6116953	-0.10853	0	-99.072	-13.507	6.299	B5-03822-P04-CH0	1634056	OK	0.7958363	-0.2969605	0.5276922	0	-123.644	-21.376	15.643	B5-03822-P04-CH1	1634056	OK	0.7878456	-0.6156848	0.015217	0	-110.222	-30.539	4.605	NA
0.0899290150842946	B5-03822-P01-CH0	1634064	OK	0.1430105	0.1127393	0.1286033	-0.9748328	154.275	-12.896	-279.747	B5-03822-P02-CH0	1634064	OK	0.5471722	-0.0967591	-0.8314086	0	-67.89	-86.953	0.922	B5-03822-P02-CH1	1634064	OK	0.7191666	-0.3956939	-0.5711617	0	-79.822	-65.7	-1.136	B5-03822-P03-CH0	1634064	OK	0.7061679	0.2479151	-0.6632232	0	-101.594	-46.868	8.548	B5-03822-P03-CH1	1634064	OK	0.784151	-0.6110619	-0.1082154	0	-98.717	-13.17	5.916	B5-03822-P04-CH0	1634064	OK	0.795772	-0.2962262	0.5282016	0	-123.616	-21.201	15.582	B5-03822-P04-CH1	1634064	OK	0.7882193	-0.615186	0.0160173	0	-109.994	-30.478	4.61	NA
0.0999211278714384	B5-03822-P01-CH0	1634072	OK	0.1428794	0.112734	0.1281898	-0.9749071	154.286	-13.003	-279.793	B5-03822-P02-CH0	1634072	OK	0.541707	-0.0993838	-0.8346714	0	-67.385	-86.458	2.243	B5-03822-P02-CH1	1634072	OK	0.7315529	-0.3889431	-0.5599586	0	-80.199	-65.852	-2.091	B5-03822-P03-CH0	1634072	OK	0.7040867	0.2808373	-0.6522211	0	-102.222	-47.025	10.264	B5-03822-P03-CH1	1634072	OK	0.7839971	-0.6112714	-0.1081468	0	-98.614	-13.09	5.808	B5-03822-P04-CH0	1634072	OK	0.7955734	-0.2962732	0.5284744	0	-123.742	-21.346	15.674	B5-03822-P04-CH1	1634072	OK	0.7877313	-0.6158022	0.0163436	0	-109.92	-30.57	4.091	NA
0.109913240658582	B5-03822-P01-CH0	1634080	OK	0.1426984	0.1128042	0.1281289	-0.9749335	154.208	-12.883	-279.632	B5-03822-P02-CH0	1634080	OK	0.5353217	-0.1010679	-0.8385797	0	-67.114	-85.642	3.28	B5-03822-P02-CH1	1634080	OK	0.7391974	-0.3763672	-0.5585113	0	-84.665	-65.227	-0.672	B5-03822-P03-CH0	1634080	OK	0.7035256	0.3100527	-0.6394677	0	-102.683	-47.159	10.769	B5-03822-P03-CH1	1634080	OK	0.7838913	-0.6114261	-0.1080393	0	-98.54	-12.827	5.674	B5-03822-P04-CH0	1634080	OK	0.7955603	-0.2963126	0.528472	0	-123.906	-21.191	15.549	B5-03822-P04-CH1	1634080	OK	0.7875122	-0.6160621	0.0170874	0	-109.96	-30.619	3.999	NA
0.119905353445726	B5-03822-P01-CH0	1634088	OK	0.1426852	0.1125762	0.1279655	-0.9749833	154.106	-12.974	-279.628	B5-03822-P02-CH0	1634088	OK	0.5344228	-0.1024206	-0.8389888	0	-67.951	-85.322	3.747	B5-03822-P02-CH1	1634088	OK	0.7471194	-0.3622486	-0.5573047	0	-85.455	-67.264	-2.035	B5-03822-P03-CH0	1634088	OK	0.7042061	0.33499	-0.6259996	0	-102.792	-47.131	9.536	B5-03822-P03-CH1	1634088	OK	0.7836339	-0.6118448	-0.107535	0	-98.418	-12.976	5.528	B5-03822-P04-CH0	1634088	OK	0.7955653	-0.2959676	0.5286577	0	-124.061	-21.431	15.718	B5-03822-P04-CH1	1634088	OK	0.7873988	-0.6161875	0.0177813	0	-109.889	-30.743	3.79	NA
0.12989746623287	B5-03822-P01-CH0	1634096	OK	0.1425505	0.1127668	0.1274233	-0.975052	154.211	-13.117	-279.669	B5-03822-P02-CH0	1634096	OK	0.5523465	-0.0871883	-0.8290426	0	-67.672	-87.422	2.42	B5-03822-P02-CH1	1634096	OK	0.7545947	-0.3374322	-0.5627845	0	-86.409	-68.317	-1.934	B5-03822-P03-CH0	1634096	OK	0.7028621	0.3554472	-0.6161511	0	-102.659	-47.221	8.096	B5-03822-P03-CH1	1634096	OK	0.7830645	-0.6126491	-0.1071034	0	-98.494	-13.291	5.708	B5-03822-P04-CH0	1634096	OK	0.7953573	-0.2961275	0.5288811	0	-124.148	-21.671	15.842	B5-03822-P04-CH1	1634096	OK	0.786934	-0.6167604	0.0184804	0	-110.143	-31.295	4.411	NA
0.139889579020014	B5-03822-P01-CH0	1634104	OK	0.1424396	0.1129427	0.1272764	-0.975067	154.269	-13.001	-279.652	B5-03822-P02-CH0	1634104	OK	0.5713034	-0.091842	-0.8155841	0	-70.148	-87.606	2.07	B5-03822-P02-CH1	1634104	OK	0.759366	-0.3051888	-0.5746504	0	-89.768	-67.976	0.144	B5-03822-P03-CH0	1634104	OK	0.7001832	0.3667735	-0.6125526	0	-101.278	-47.198	7.451	B5-03822-P03-CH1	1634104	OK	0.7828477	-0.6130205	-0.1065616	0	-98.627	-13.303	5.934	B5-03822-P04-CH0	1634104	OK	0.7954633	-0.2960795	0.5287485	0	-124.343	-21.763	16.106	B5-03822-P04-CH1	1634104	OK	0.7871566	-0.6164827	0.0182624	0	-110.28	-31.002	4.471	NA
0.149881691807158	B5-03822-P01-CH0	1634112	OK	0.1430468	0.1124545	0.1287827	-0.9748367	154.162	-12.883	-279.658	B5-03822-P02-CH0	1634112	OK	0.5894464	-0.0927357	-0.8024668	0	-71.301	-88.419	0.954	B5-03822-P02-CH1	1634112	OK	0.7687503	-0.2760527	-0.5769037	0	-88	-67.965	2.443	B5-03822-P03-CH0	1634112	OK	0.6942221	0.3713535	-0.6165649	0	-99.933	-46.264	7.316	B5-03822-P03-CH1	1634112	OK	0.7839577	-0.6118362	-0.1051985	0	-98.56	-13.265	6.046	B5-03822-P04-CH0	1634112	OK	0.7961316	-0.294363	0.5287012	0	-124.367	-21.812	16.487	B5-03822-P04-CH1	1634112	OK	0.7880959	-0.6152567	0.019081	0	-110.071	-31.093	4.152	NA
0.159873804594301	B5-03822-P01-CH0	1634120	OK	0.1430197	0.1123301	0.1282739	-0.9749221	154.136	-12.915	-279.652	B5-03822-P02-CH0	1634120	OK	0.6044234	-0.0804223	-0.7925936	0	-71.886	-88.364	0.328	B5-03822-P02-CH1	1634120	OK	0.7737565	-0.248349	-0.5827724	0	-88.059	-67.016	1.577	B5-03822-P03-CH0	1634120	OK	0.6902744	0.3678452	-0.6230659	0	-98.542	-45.6	4.319	B5-03822-P03-CH1	1634120	OK	0.7838282	-0.6121181	-0.1045214	0	-98.469	-13.31	6.247	B5-03822-P04-CH0	1634120	OK	0.7959788	-0.2940467	0.5291071	0	-124.424	-22.06	16.59	B5-03822-P04-CH1	1634120	OK	0.7879113	-0.6154712	0.0197732	0	-110.122	-31.348	4.5	NA
0.169865917381445	B5-03822-P01-CH0	1634128	OK	0.1429393	0.1122631	0.1274154	-0.9750542	154.181	-12.959	-279.758	B5-03822-P02-CH0	1634128	OK	0.6168007	-0.0561735	-0.7851124	0	-72.785	-88.402	0.301	B5-03822-P02-CH1	1634128	OK	0.7717697	-0.2259254	-0.5944151	0	-91.728	-69.048	4.985	B5-03822-P03-CH0	1634128	OK	0.6844686	0.3526649	-0.6380676	0	-98.062	-45.521	5.852	B5-03822-P03-CH1	1634128	OK	0.7833219	-0.6128679	-0.1039213	0	-98.341	-13.549	6.496	B5-03822-P04-CH0	1634128	OK	0.7957727	-0.2937888	0.5295601	0	-124.612	-22.437	16.782	B5-03822-P04-CH1	1634128	OK	0.7876873	-0.6157412	0.0202854	0	-110.5	-31.693	5.456	NA
0.179858030168589	B5-03822-P01-CH0	1634136	OK	0.1430361	0.1123202	0.1274881	-0.9750239	154.269	-12.833	-279.752	B5-03822-P02-CH0	1634136	OK	0.6262379	-0.0182105	-0.7794193	0	-74.707	-89.937	1.988	B5-03822-P02-CH1	1634136	OK	0.7700508	-0.2026702	-0.6049351	0	-92.354	-68.463	2.963	B5-03822-P03-CH0	1634136	OK	0.6791692	0.3272724	-0.6569794	0	-97.496	-45.59	7.093	B5-03822-P03-CH1	1634136	OK	0.7832668	-0.6130555	-0.103228	0	-98.477	-13.706	6.733	B5-03822-P04-CH0	1634136	OK	0.795827	-0.293174	0.5298192	0	-124.602	-22.491	17.002	B5-03822-P04-CH1	1634136	OK	0.7886145	-0.6145644	0.0199436	0	-110.558	-31.297	6.141	NA
0.189850142955733	B5-03822-P01-CH0	1634144	OK	0.142596	0.1127068	0.1265431	-0.9751669	154.443	-12.952	-279.642	B5-03822-P02-CH0	1634144	OK	0.6325414	0.0227827	-0.7741914	0	-76.031	-89.211	1.365	B5-03822-P02-CH1	1634144	OK	0.7696883	-0.177118	-0.613359	0	-87.333	-66.932	2.405	B5-03822-P03-CH0	1634144	OK	0.6750437	0.2980561	-0.6748916	0	-96.557	-44.322	6.389	B5-03822-P03-CH1	1634144	OK	0.782667	-0.6138462	-0.103079	0	-98.693	-13.859	6.756	B5-03822-P04-CH0	1634144	OK	0.7956607	-0.2936409	0.5298104	0	-124.751	-22.739	16.952	B5-03822-P04-CH1	1634144	OK	0.7878558	-0.6155339	0.0200321	0	-110.885	-31.767	6.42	NA
0.199842255742877	B5-03822-P01-CH0	1634152	OK	0.1427752	0.1125454	0.126849	-0.9751195	154.357	-12.813	-279.549	B5-03822-P02-CH0	1634152	OK	0.6364733	0.0715171	-0.7679759	0	-76.72	-88.626	0.797	B5-03822-P02-CH1	1634152	OK	0.7558789	-0.1558235	-0.6358979	0	-86.598	-65.514	1.809	B5-03822-P03-CH0	1634152	OK	0.6733298	0.2623756	-0.6912207	0	-95.948	-43.444	5.098	B5-03822-P03-CH1	1634152	OK	0.7830575	-0.6135211	-0.1020433	0	-98.692	-13.724	6.772	B5-03822-P04-CH0	1634152	OK	0.795643	-0.2934292	0.5299543	0	-124.586	-22.657	16.706	B5-03822-P04-CH1	1634152	OK	0.7881662	-0.6151113	0.0207864	0	-110.926	-31.988	6.874	NA
0.209834368530021	B5-03822-P01-CH0	1634160	OK	0.1431582	0.112405	0.1277199	-0.9749659	154.392	-12.735	-279.55	B5-03822-P02-CH0	1634160	OK	0.6409716	0.1273358	-0.7569287	0	-77.844	-88.898	0.437	B5-03822-P02-CH1	1634160	OK	0.7392995	-0.1412489	-0.6583958	0	-84.174	-65.016	3.002	B5-03822-P03-CH0	1634160	OK	0.6738491	0.2181443	-0.7059323	0	-96.564	-44.875	4.896	B5-03822-P03-CH1	1634160	OK	0.7838567	-0.6126787	-0.1009632	0	-98.881	-13.781	6.937	B5-03822-P04-CH0	1634160	OK	0.7955912	-0.293158	0.5301821	0	-124.302	-22.703	16.363	B5-03822-P04-CH1	1634160	OK	0.7889401	-0.6141054	0.0211651	0	-111.11	-32.124	7.137	NA
0.219826481317165	B5-03822-P01-CH0	1634168	OK	0.1426726	0.1124885	0.1265208	-0.9751837	154.366	-12.78	-279.459	B5-03822-P02-CH0	1634168	OK	0.6469752	0.1817779	-0.7405268	0	-79.182	-86.858	0	B5-03822-P02-CH1	1634168	OK	0.7162192	-0.1319793	-0.6852821	0	-83.094	-64.241	1.432	B5-03822-P03-CH0	1634168	OK	0.6760619	0.1696436	-0.7170504	0	-95.517	-44.118	5.355	B5-03822-P03-CH1	1634168	OK	0.7833041	-0.613398	-0.1008842	0	-98.787	-13.716	6.988	B5-03822-P04-CH0	1634168	OK	0.795	-0.2944797	0.5303364	0	-124.033	-22.622	16.276	B5-03822-P04-CH1	1634168	OK	0.7881972	-0.6150686	0.0208761	0	-111.062	-32.316	7.438	NA
0.229818594104308	B5-03822-P01-CH0	1634176	OK	0.1424332	0.112368	0.1257378	-0.9753339	154.275	-12.824	-279.335	B5-03822-P02-CH0	1634176	OK	0.6526609	0.236093	-0.7199263	0	-81.904	-86.352	3.093	B5-03822-P02-CH1	1634176	OK	0.693187	-0.1259812	-0.7096622	0	-79.949	-62.671	0.318	B5-03822-P03-CH0	1634176	OK	0.6790376	0.1117804	-0.7255433	0	-94.707	-43.539	4.008	B5-03822-P03-CH1	1634176	OK	0.7827917	-0.6141409	-0.1003396	0	-98.654	-13.913	6.997	B5-03822-P04-CH0	1634176	OK	0.7946574	-0.2954436	0.5303137	0	-123.846	-22.536	16.036	B5-03822-P04-CH1	1634176	OK	0.7878619	-0.6155157	0.0203496	0	-110.864	-32.001	6.719	NA
0.239810706891452	B5-03822-P01-CH0	1634184	OK	0.1428119	0.1124382	0.1255064	-0.9753002	154.305	-12.821	-279.301	B5-03822-P02-CH0	1634184	OK	0.6621006	0.2817415	-0.6944383	0	-83.902	-87.07	2.395	B5-03822-P02-CH1	1634184	OK	0.6687401	-0.1201995	-0.7337157	0	-79.131	-61.805	2.102	B5-03822-P03-CH0	1634184	OK	0.6818979	0.0531318	-0.7295151	0	-93.46	-43.369	4.211	B5-03822-P03-CH1	1634184	OK	0.7828572	-0.6141929	-0.0995073	0	-98.56	-13.948	7.056	B5-03822-P04-CH0	1634184	OK	0.7946999	-0.2954855	0.5302267	0	-123.689	-22.576	16.241	B5-03822-P04-CH1	1634184	OK	0.7875508	-0.6158918	0.0210025	0	-110.75	-32.307	6.528	NA
0.249802819678596	B5-03822-P01-CH0	1634192	OK	0.142722	0.1126691	0.12484	-0.9753723	154.358	-12.859	-279.262	B5-03822-P02-CH0	1634192	OK	0.6711738	0.3150977	-0.6709986	0	-84.575	-86.737	2.244	B5-03822-P02-CH1	1634192	OK	0.6638373	-0.1102774	-0.7397019	0	-73.06	-60.206	2.161	B5-03822-P03-CH0	1634192	OK	0.6799901	0.0046215	-0.7332067	0	-94.323	-43.164	4.984	B5-03822-P03-CH1	1634192	OK	0.7823395	-0.6149176	-0.0991023	0	-98.486	-14.121	7.037	B5-03822-P04-CH0	1634192	OK	0.7944263	-0.2970777	0.5297468	0	-123.414	-22.428	16.008	B5-03822-P04-CH1	1634192	OK	0.7869932	-0.6166091	0.0208561	0	-110.666	-32.501	6.407	NA
0.25979493246574	B5-03822-P01-CH0	1634200	OK	0.1428174	0.1131903	0.125007	-0.9752766	154.544	-12.814	-279.116	B5-03822-P02-CH0	1634200	OK	0.6770692	0.3376599	-0.6538831	0	-85.61	-86.382	2.167	B5-03822-P02-CH1	1634200	OK	0.658436	-0.0811406	-0.7482501	0	-76.755	-62.051	3.91	B5-03822-P03-CH0	1634200	OK	0.6794265	-0.0316344	-0.7330614	0	-94.299	-43.524	6.511	B5-03822-P03-CH1	1634200	OK	0.7823826	-0.6149136	-0.0987866	0	-98.72	-13.987	6.801	B5-03822-P04-CH0	1634200	OK	0.7948589	-0.2984362	0.5283324	0	-123.344	-22.186	15.963	B5-03822-P04-CH1	1634200	OK	0.7872159	-0.6163378	0.0204672	0	-110.785	-32.401	6.383	NA
0.269787045252884	B5-03822-P01-CH0	1634208	OK	0.1432042	0.1129822	0.126414	-0.9750626	154.397	-12.608	-278.955	B5-03822-P02-CH0	1634208	OK	0.683264	0.3497047	-0.6409812	0	-85.199	-85.725	1.01	B5-03822-P02-CH1	1634208	OK	0.6617811	-0.063871	-0.7469714	0	-77.342	-60.583	0.883	B5-03822-P03-CH0	1634208	OK	0.6822294	-0.0544119	-0.7291107	0	-92.779	-43.587	6.433	B5-03822-P03-CH1	1634208	OK	0.7830828	-0.6141845	-0.0977689	0	-98.708	-14.006	6.767	B5-03822-P04-CH0	1634208	OK	0.7953177	-0.2998911	0.526816	0	-122.938	-21.837	15.727	B5-03822-P04-CH1	1634208	OK	0.7878351	-0.6155461	0.0204662	0	-110.405	-32.227	5.522	NA
0.279779158040028	B5-03822-P01-CH0	1634216	OK	0.1431019	0.1126823	0.1263048	-0.9751265	154.199	-12.644	-278.911	B5-03822-P02-CH0	1634216	OK	0.6874554	0.3552627	-0.6333983	0	-85.438	-85.448	0.674	B5-03822-P02-CH1	1634216	OK	0.6654575	-0.0565579	-0.7442899	0	-76.151	-60.645	0.559	B5-03822-P03-CH0	1634216	OK	0.6816362	-0.0598963	-0.7292356	0	-93.208	-43.868	6.046	B5-03822-P03-CH1	1634216	OK	0.7830245	-0.6143242	-0.097357	0	-98.65	-13.98	6.712	B5-03822-P04-CH0	1634216	OK	0.7958301	-0.3163703	0.5162987	0	-122.141	-23.082	15.405	B5-03822-P04-CH1	1634216	OK	0.7874693	-0.6160194	0.0203041	0	-110.095	-32.138	4.643	NA
0.289771270827171	B5-03822-P01-CH0	1634224	OK	0.1430122	0.1127313	0.1259697	-0.9751773	154.156	-12.729	-278.856	B5-03822-P02-CH0	1634224	OK	0.6900873	0.3549005	-0.6307339	0	-86.031	-86.214	-0.049	B5-03822-P02-CH1	1634224	OK	0.6643875	-0.055242	-0.7453439	0	-77.053	-60.596	0.182	B5-03822-P03-CH0	1634224	OK	0.6839066	-0.0563349	-0.7273914	0	-92.302	-45.044	5.326	B5-03822-P03-CH1	1634224	OK	0.7828489	-0.614537	-0.0974262	0	-98.533	-13.933	6.7	B5-03822-P04-CH0	1634224	OK	0.7962268	-0.3225432	0.5118484	0	-121.732	-22.687	14.647	B5-03822-P04-CH1	1634224	OK	0.7876238	-0.6158547	0.0192787	0	-109.873	-31.747	4.361	NA
0.299763383614315	B5-03822-P01-CH0	1634232	OK	0.1429706	0.1127759	0.1257887	-0.9752016	154.13	-12.759	-278.84	B5-03822-P02-CH0	1634232	OK	0.6911773	0.3476568	-0.6335682	0	-85.674	-85.739	0.442	B5-03822-P02-CH1	1634232	OK	0.6618347	-0.0505078	-0.7479463	0	-78.032	-61.463	0.641	B5-03822-P03-CH0	1634232	OK	0.6857909	-0.0487284	-0.7261655	0	-92.91	-45.439	6.197	B5-03822-P03-CH1	1634232	OK	0.7825117	-0.6150037	-0.0971894	0	-98.656	-14.042	6.835	B5-03822-P04-CH0	1634232	OK	0.7970763	-0.3295406	0.506036	0	-121.769	-21.898	12.113	B5-03822-P04-CH1	1634232	OK	0.7876022	-0.615909	0.0184109	0	-109.597	-31.369	3.701	NA
0.309755496401459	B5-03822-P01-CH0	1634240	OK	0.1427573	0.1129369	0.1254444	-0.9752586	154.127	-12.804	-278.742	B5-03822-P02-CH0	1634240	OK	0.6901903	0.3335827	-0.6421526	0	-86.353	-86.235	1.211	B5-03822-P02-CH1	1634240	OK	0.6642374	-0.0439144	-0.7462307	0	-75.756	-59.453	0.063	B5-03822-P03-CH0	1634240	OK	0.6883545	-0.0378865	-0.7243843	0	-93.019	-44.563	6.424	B5-03822-P03-CH1	1634240	OK	0.7824832	-0.6149859	-0.0975318	0	-98.294	-13.688	6.156	B5-03822-P04-CH0	1634240	OK	0.7991917	-0.3353582	0.4988262	0	-121.974	-22.318	15.011	B5-03822-P04-CH1	1634240	OK	0.7874192	-0.6161751	0.0172974	0	-109.337	-31.194	3.592	NA
0.319747609188603	B5-03822-P01-CH0	1634248	OK	0.1424998	0.1129901	0.1249765	-0.9753502	154.054	-12.902	-278.706	B5-03822-P02-CH0	1634248	OK	0.6902961	0.3147993	-0.6514543	0	-85.459	-85.813	-0.336	B5-03822-P02-CH1	1634248	OK	0.6719599	-0.0266485	-0.7401079	0	-75.771	-61.329	-1.006	B5-03822-P03-CH0	1634248	OK	0.6904313	-0.023716	-0.7230092	0	-93.55	-44.929	5.896	B5-03822-P03-CH1	1634248	OK	0.7823494	-0.6151206	-0.0977548	0	-98.193	-13.502	5.764	B5-03822-P04-CH0	1634248	OK	0.799663	-0.3424451	0.4932245	0	-121.204	-22.011	15.406	B5-03822-P04-CH1	1634248	OK	0.787048	-0.6166724	0.0164519	0	-109.124	-31.12	3.525	NA
0.329739721975747	B5-03822-P01-CH0	1634256	OK	0.142559	0.1134114	0.1250774	-0.9752797	154.176	-12.828	-278.617	B5-03822-P02-CH0	1634256	OK	0.688125	0.2919919	-0.6642475	0	-86.516	-86.855	0.172	B5-03822-P02-CH1	1634256	OK	0.6774874	-0.0093471	-0.735475	0	-80.576	-65.02	5.05	B5-03822-P03-CH0	1634256	OK	0.6948061	-0.0139473	-0.7190619	0	-93.948	-45.827	4.631	B5-03822-P03-CH1	1634256	OK	0.782737	-0.6146119	-0.0978516	0	-98.421	-13.269	5.872	B5-03822-P04-CH0	1634256	OK	0.7998233	-0.348129	0.4889672	0	-121.585	-23.391	15.15	B5-03822-P04-CH1	1634256	OK	0.7868278	-0.6169491	0.0166054	0	-109.597	-31.718	4.612	NA
0.339731834762891	B5-03822-P01-CH0	1634264	OK	0.1420109	0.1133748	0.1246162	-0.9754229	154.099	-12.876	-278.628	B5-03822-P02-CH0	1634264	OK	0.687784	0.2713461	-0.6732937	0	-86.567	-86.441	0.803	B5-03822-P02-CH1	1634264	OK	0.6887546	0.0100016	-0.7249256	0	-80.849	-65.117	2.891	B5-03822-P03-CH0	1634264	OK	0.7003198	-0.0099359	-0.7137601	0	-93.924	-46.355	5.616	B5-03822-P03-CH1	1634264	OK	0.7827562	-0.6144401	-0.098773	0	-98.293	-13.09	5.801	B5-03822-P04-CH0	1634264	OK	0.7994643	-0.3560809	0.4838008	0	-120.176	-21.63	13.267	B5-03822-P04-CH1	1634264	OK	0.7870675	-0.616696	0.0145213	0	-109.299	-31.13	5.025	NA
0.349723947550034	B5-03822-P01-CH0	1634272	OK	0.141915	0.1132429	0.1244517	-0.9754732	154.021	-13.034	-278.61	B5-03822-P02-CH0	1634272	OK	0.6879957	0.2502446	-0.6812045	0	-86.802	-87.818	0.67	B5-03822-P02-CH1	1634272	OK	0.6995585	0.0288208	-0.7139939	0	-78.897	-65.884	1.713	B5-03822-P03-CH0	1634272	OK	0.7058804	-0.0144969	-0.7081827	0	-94.396	-47.164	5.728	B5-03822-P03-CH1	1634272	OK	0.7831046	-0.613917	-0.0992628	0	-98.211	-13.027	5.662	B5-03822-P04-CH0	1634272	OK	0.7991198	-0.3610384	0.4806857	0	-119.286	-20.881	12.42	B5-03822-P04-CH1	1634272	OK	0.786585	-0.6173178	0.0142439	0	-109.34	-31.565	5.201	NA
0.359716060337178	B5-03822-P01-CH0	1634280	OK	0.1417386	0.1131578	0.1240624	-0.9755583	153.896	-12.986	-278.583	B5-03822-P02-CH0	1634280	OK	0.6865018	0.2286231	-0.6902513	0	-87.097	-87.398	1.5	B5-03822-P02-CH1	1634280	OK	0.6998054	0.0433422	-0.7130174	0	-80.837	-66.766	-1.32	B5-03822-P03-CH0	1634280	OK	0.7105606	-0.0286252	-0.7030536	0	-95.591	-48.371	6.197	B5-03822-P03-CH1	1634280	OK	0.782937	-0.6140611	-0.0996929	0	-98.107	-13.206	5.809	B5-03822-P04-CH0	1634280	OK	0.7995339	-0.3620526	0.4792321	0	-119.001	-20.517	13.869	B5-03822-P04-CH1	1634280	OK	0.7862637	-0.6177438	0.0134885	0	-109.417	-31.517	5.559	NA
0.369708173124322	B5-03822-P01-CH0	1634288	OK	0.1418088	0.1132116	0.124283	-0.9755138	153.968	-12.924	-278.735	B5-03822-P02-CH0	1634288	OK	0.6877133	0.2132124	-0.6939675	0	-86.335	-88.087	-0.28	B5-03822-P02-CH1	1634288	OK	0.6989271	0.0487961	-0.7135263	0	-80.028	-65.917	1.012	B5-03822-P03-CH0	1634288	OK	0.7177196	-0.0493658	-0.6945801	0	-95.603	-48.635	5.988	B5-03822-P03-CH1	1634288	OK	0.7834675	-0.6132935	-0.1002488	0	-98.225	-13.069	6.173	B5-03822-P04-CH0	1634288	OK	0.8023769	-0.359851	0.4761288	0	-121.425	-21.719	16.616	B5-03822-P04-CH1	1634288	OK	0.7862674	-0.6177508	0.0129404	0	-109.452	-31.47	5.596	NA
0.379700285911466	B5-03822-P01-CH0	1634296	OK	0.1421748	0.1134216	0.1247655	-0.9753745	154.082	-12.909	-278.749	B5-03822-P02-CH0	1634296	OK	0.6869092	0.2014319	-0.6982699	0	-86.449	-88.246	1.178	B5-03822-P02-CH1	1634296	OK	0.6948063	0.0518228	-0.7173274	0	-79.246	-66.7	-1.01	B5-03822-P03-CH0	1634296	OK	0.723978	-0.0802601	-0.6851381	0	-97.035	-49.631	4.865	B5-03822-P03-CH1	1634296	OK	0.7837415	-0.6129424	-0.100254	0	-98.374	-13.331	6.416	B5-03822-P04-CH0	1634296	OK	0.8016265	-0.3603871	0.4769865	0	-121.136	-22.512	15.768	B5-03822-P04-CH1	1634296	OK	0.7865279	-0.617423	0.0127544	0	-109.457	-31.571	5.82	NA
0.38969239869861	B5-03822-P01-CH0	1634304	OK	0.1423504	0.1134188	0.125262	-0.9752856	154.009	-12.834	-278.591	B5-03822-P02-CH0	1634304	OK	0.6890393	0.1968556	-0.6974759	0	-86.251	-89.179	0.983	B5-03822-P02-CH1	1634304	OK	0.687471	0.0531836	-0.7242617	0	-80.097	-67.779	1.934	B5-03822-P03-CH0	1634304	OK	0.7328876	-0.1102694	-0.6713542	0	-96.839	-50.267	7.317	B5-03822-P03-CH1	1634304	OK	0.7838514	-0.6128227	-0.1001266	0	-98.52	-13.579	6.59	B5-03822-P04-CH0	1634304	OK	0.8009403	-0.3597465	0.47862	0	-120.075	-22.144	14.837	B5-03822-P04-CH1	1634304	OK	0.787007	-0.616809	0.0129092	0	-109.669	-31.373	5.874	NA
0.399684511485754	B5-03822-P01-CH0	1634312	OK	0.1423166	0.1140406	0.125019	-0.9752492	154.26	-12.819	-278.614	B5-03822-P02-CH0	1634312	OK	0.6908795	0.1965439	-0.6957414	0	-86.315	-89.247	0.084	B5-03822-P02-CH1	1634312	OK	0.6831919	0.0545165	-0.7282011	0	-78.867	-67.921	1.338	B5-03822-P03-CH0	1634312	OK	0.7402454	-0.1400385	-0.657591	0	-97.668	-50.667	8.869	B5-03822-P03-CH1	1634312	OK	0.7836386	-0.6130235	-0.1005624	0	-98.68	-13.724	6.759	B5-03822-P04-CH0	1634312	OK	0.8019735	-0.3558121	0.4798294	0	-120.616	-22.661	16.738	B5-03822-P04-CH1	1634312	OK	0.7865689	-0.6173541	0.0135396	0	-110.241	-31.915	6.7	NA
0.409676624272898	B5-03822-P01-CH0	1634320	OK	0.1424854	0.114209	0.124753	-0.9752389	154.317	-12.815	-278.626	B5-03822-P02-CH0	1634320	OK	0.6916818	0.1995063	-0.694099	0	-87.227	-89.167	0.787	B5-03822-P02-CH1	1634320	OK	0.6787203	0.0479279	-0.7328313	0	-77.252	-65.542	-0.543	B5-03822-P03-CH0	1634320	OK	0.7495143	-0.1702053	-0.6397331	0	-97.756	-51.047	7.284	B5-03822-P03-CH1	1634320	OK	0.7831106	-0.6137053	-0.1005162	0	-98.892	-14.149	7.298	B5-03822-P04-CH0	1634320	OK	0.8009896	-0.3559367	0.4813779	0	-120.447	-21.848	15.279	B5-03822-P04-CH1	1634320	OK	0.7861623	-0.617858	0.0141503	0	-110.152	-31.851	5.949	NA
0.419668737060041	B5-03822-P01-CH0	1634328	OK	0.1426965	0.1143227	0.1251508	-0.9751438	154.359	-12.776	-278.586	B5-03822-P02-CH0	1634328	OK	0.6946583	0.2025066	-0.690247	0	-87.407	-89.477	0.197	B5-03822-P02-CH1	1634328	OK	0.6721251	0.0409347	-0.7393052	0	-77.646	-65.527	2.149	B5-03822-P03-CH0	1634328	OK	0.7576076	-0.1947102	-0.6229917	0	-97.729	-51.228	6.7	B5-03822-P03-CH1	1634328	OK	0.7832515	-0.6134773	-0.1008103	0	-99.01	-14.09	7.272	B5-03822-P04-CH0	1634328	OK	0.8014212	-0.3552704	0.4811518	0	-120.911	-22.279	15.238	B5-03822-P04-CH1	1634328	OK	0.7860928	-0.6179284	0.0149159	0	-110.117	-31.705	4.678	NA
0.429660849847185	B5-03822-P01-CH0	1634336	OK	0.1429417	0.1139197	0.1259914	-0.9750467	154.135	-12.808	-278.508	B5-03822-P02-CH0	1634336	OK	0.6981424	0.2076687	-0.6851794	0	-87.398	-89.524	-0.151	B5-03822-P02-CH1	1634336	OK	0.6688504	0.0399081	-0.7423251	0	-77.224	-65.368	1.224	B5-03822-P03-CH0	1634336	OK	0.7634156	-0.2136117	-0.6095627	0	-98.18	-51.203	8.196	B5-03822-P03-CH1	1634336	OK	0.7836848	-0.6129028	-0.1009375	0	-98.724	-13.942	6.906	B5-03822-P04-CH0	1634336	OK	0.801727	-0.3536102	0.4818648	0	-121.081	-22.447	15.032	B5-03822-P04-CH1	1634336	OK	0.7867488	-0.6170849	0.015249	0	-109.402	-31.116	3.248	NA
0.439652962634329	B5-03822-P01-CH0	1634344	OK	0.1433179	0.1139457	0.1268493	-0.9748772	154.059	-12.778	-278.305	B5-03822-P02-CH0	1634344	OK	0.7016848	0.2129551	-0.6799181	0	-87.138	-89.466	-0.346	B5-03822-P02-CH1	1634344	OK	0.6673815	0.0406287	-0.7436069	0	-76.194	-65.458	1.424	B5-03822-P03-CH0	1634344	OK	0.7684129	-0.2286454	-0.5977147	0	-97.956	-51.898	8.145	B5-03822-P03-CH1	1634344	OK	0.783868	-0.6127513	-0.1004332	0	-98.823	-13.936	6.796	B5-03822-P04-CH0	1634344	OK	0.8003406	-0.339357	0.4942588	0	-121.51	-21.522	15.069	B5-03822-P04-CH1	1634344	OK	0.7868758	-0.6168767	0.0170218	0	-109.603	-31.265	2.216	NA
0.449645075421473	B5-03822-P01-CH0	1634352	OK	0.1432815	0.1140408	0.1270703	-0.9748427	153.999	-12.596	-278.16	B5-03822-P02-CH0	1634352	OK	0.7039582	0.2224482	-0.674507	0	-87.704	-89.027	-1.082	B5-03822-P02-CH1	1634352	OK	0.6650155	0.0384687	-0.7458382	0	-76.844	-64.883	1.695	B5-03822-P03-CH0	1634352	OK	0.7706477	-0.240502	-0.5901364	0	-99.235	-51.731	7.311	B5-03822-P03-CH1	1634352	OK	0.7833927	-0.6133785	-0.1003129	0	-98.941	-13.823	6.673	B5-03822-P04-CH0	1634352	OK	0.7989996	-0.334444	0.4997469	0	-122.106	-21.223	15.113	B5-03822-P04-CH1	1634352	OK	0.7872756	-0.6163438	0.0178168	0	-109.85	-30.983	2.613	NA
0.459637188208617	B5-03822-P01-CH0	1634360	OK	0.1439177	0.1137428	0.1290279	-0.9745266	153.907	-12.482	-278.082	B5-03822-P02-CH0	1634360	OK	0.7045997	0.2318626	-0.6706556	0	-88.099	-88.325	-1.306	B5-03822-P02-CH1	1634360	OK	0.6653802	0.0379966	-0.745537	0	-77.996	-66.297	-1.057	B5-03822-P03-CH0	1634360	OK	0.7744266	-0.2484271	-0.5818483	0	-99.134	-52.127	9.565	B5-03822-P03-CH1	1634360	OK	0.7842166	-0.6124825	-0.0993457	0	-98.995	-13.796	6.706	B5-03822-P04-CH0	1634360	OK	0.7988052	-0.327435	0.5046747	0	-123.777	-23	16.021	B5-03822-P04-CH1	1634360	OK	0.7884754	-0.6147541	0.0195948	0	-109.941	-31.132	2.545	NA
0.469629300995761	B5-03822-P01-CH0	1634368	OK	0.1436342	0.1137722	0.1279673	-0.9747048	153.791	-12.598	-277.912	B5-03822-P02-CH0	1634368	OK	0.7069728	0.2429235	-0.664212	0	-87.881	-88.646	-1.824	B5-03822-P02-CH1	1634368	OK	0.666775	0.0395935	-0.7442066	0	-77.763	-66.168	-0.609	B5-03822-P03-CH0	1634368	OK	0.776096	-0.2543582	-0.5770415	0	-99.012	-52.222	8.671	B5-03822-P03-CH1	1634368	OK	0.7830422	-0.6139926	-0.0992871	0	-99.032	-13.854	6.681	B5-03822-P04-CH0	1634368	OK	0.7964472	-0.324402	0.5103285	0	-123.211	-22.377	14.786	B5-03822-P04-CH1	1634368	OK	0.7878493	-0.6155361	0.0202189	0	-109.928	-30.929	1.895	NA
0.479621413782904	B5-03822-P01-CH0	1634376	OK	0.1428103	0.1137584	0.1267113	-0.9749915	153.687	-12.677	-277.914	B5-03822-P02-CH0	1634376	OK	0.7086119	0.2572416	-0.6570358	0	-87.526	-87.757	-1.784	B5-03822-P02-CH1	1634376	OK	0.6679818	0.043828	-0.7428858	0	-77.663	-65.804	-1.437	B5-03822-P03-CH0	1634376	OK	0.7777708	-0.2585732	-0.5728983	0	-98.114	-52.12	8.964	B5-03822-P03-CH1	1634376	OK	0.7817821	-0.6154833	-0.0999854	0	-98.877	-13.665	6.544	B5-03822-P04-CH0	1634376	OK	0.7951129	-0.322344	0.5137021	0	-123.201	-21.859	14.81	B5-03822-P04-CH1	1634376	OK	0.7871945	-0.6163539	0.0208011	0	-110.319	-31.002	2.553	NA
0.489613526570048	B5-03822-P01-CH0	1634384	OK	0.1423768	0.1135932	0.1261761	-0.9751436	153.555	-12.701	-277.874	B5-03822-P02-CH0	1634384	OK	0.7080488	0.2703436	-0.6523658	0	-88.19	-87.871	-1.42	B5-03822-P02-CH1	1634384	OK	0.6652522	0.0477863	-0.7450879	0	-79.587	-65.698	2.092	B5-03822-P03-CH0	1634384	OK	0.7780423	-0.2608173	-0.5715107	0	-98.149	-51.73	9.494	B5-03822-P03-CH1	1634384	OK	0.7811048	-0.6162727	-0.1004155	0	-98.629	-13.404	6.402	B5-03822-P04-CH0	1634384	OK	0.7943944	-0.3194238	0.5166295	0	-123.659	-20.989	14.155	B5-03822-P04-CH1	1634384	OK	0.7863175	-0.6174438	0.0216307	0	-110.385	-31.315	2.205	NA
0.499605639357192	B5-03822-P01-CH0	1634392	OK	0.1426081	0.1131458	0.1269633	-0.9750596	153.411	-12.722	-277.924	B5-03822-P02-CH0	1634392	OK	0.7063546	0.2839378	-0.6484153	0	-88.208	-87.985	-0.977	B5-03822-P02-CH1	1634392	OK	0.6686244	0.0519141	-0.7417859	0	-78.452	-64.962	-0.356	B5-03822-P03-CH0	1634392	OK	0.7777226	-0.2628919	-0.5709951	0	-98.224	-52.134	8.084	B5-03822-P03-CH1	1634392	OK	0.7813578	-0.615984	-0.1002183	0	-98.563	-13.278	6.472	B5-03822-P04-CH0	1634392	OK	0.7943604	-0.3152585	0.5192336	0	-124.183	-22.334	15.453	B5-03822-P04-CH1	1634392	OK	0.7869209	-0.6166689	0.0217925	0	-110.054	-30.848	1.218	NA
0.509597752144336	B5-03822-P01-CH0	1634400	OK	0.1424694	0.112968	0.127314	-0.9750548	153.322	-12.724	-277.869	B5-03822-P02-CH0	1634400	OK	0.7043104	0.2983171	-0.6441691	0	-88.026	-88.001	-0.786	B5-03822-P02-CH1	1634400	OK	0.6756029	0.0535821	-0.735316	0	-74.598	-63.356	-0.406	B5-03822-P03-CH0	1634400	OK	0.7788196	-0.2621599	-0.5698353	0	-97.104	-52.447	9.367	B5-03822-P03-CH1	1634400	OK	0.781372	-0.6159273	-0.1004556	0	-98.467	-12.905	6.108	B5-03822-P04-CH0	1634400	OK	0.7933331	-0.3162733	0.5201863	0	-122.728	-20.129	13.297	B5-03822-P04-CH1	1634400	OK	0.7869447	-0.6166204	0.0223004	0	-110.225	-31.139	1.765	NA
0.51958986493148	B5-03822-P01-CH0	1634408	OK	0.1426605	0.1127	0.1278157	-0.9749922	153.27	-12.769	-277.933	B5-03822-P02-CH0	1634408	OK	0.7012183	0.3104779	-0.6417916	0	-89.041	-88.738	-0.743	B5-03822-P02-CH1	1634408	OK	0.672921	0.0586437	-0.7373861	0	-76.97	-63.805	-0.63	B5-03822-P03-CH0	1634408	OK	0.7773711	-0.2588226	-0.5733281	0	-97.853	-50.892	8.027	B5-03822-P03-CH1	1634408	OK	0.7812263	-0.6161675	-0.1001148	0	-98.36	-13.026	6.12	B5-03822-P04-CH0	1634408	OK	0.7932208	-0.3145405	0.5214067	0	-123.548	-21.398	13.019	B5-03822-P04-CH1	1634408	OK	0.7874592	-0.615945	0.0227989	0	-110.449	-31.407	2.805	NA
0.529581977718624	B5-03822-P01-CH0	1634416	OK	0.1424732	0.11311	0.1274726	-0.9750171	153.449	-12.699	-277.951	B5-03822-P02-CH0	1634416	OK	0.6997581	0.3199799	-0.6387108	0	-88.804	-88.062	-0.476	B5-03822-P02-CH1	1634416	OK	0.6744401	0.0587929	-0.735985	0	-76.716	-64.307	-0.586	B5-03822-P03-CH0	1634416	OK	0.7751767	-0.2569531	-0.5771275	0	-98.066	-51.195	8.223	B5-03822-P03-CH1	1634416	OK	0.7804328	-0.6171608	-0.1001854	0	-98.672	-13.042	6.163	B5-03822-P04-CH0	1634416	OK	0.7944927	-0.3120087	0.5209912	0	-125.357	-22.402	13.859	B5-03822-P04-CH1	1634416	OK	0.787017	-0.6165043	0.0229513	0	-110.886	-31.583	3.076	NA
0.539574090505767	B5-03822-P01-CH0	1634424	OK	0.1421697	0.1130593	0.1270919	-0.9751169	153.517	-12.746	-278.177	B5-03822-P02-CH0	1634424	OK	0.6981235	0.32648	-0.6372082	0	-88.776	-87.866	-0.129	B5-03822-P02-CH1	1634424	OK	0.6750216	0.0623119	-0.735162	0	-76.963	-65.036	-0.777	B5-03822-P03-CH0	1634424	OK	0.7760529	-0.2557869	-0.5764677	0	-98.257	-51.836	9.061	B5-03822-P03-CH1	1634424	OK	0.7796185	-0.6181613	-0.1003575	0	-98.719	-13.345	6.596	B5-03822-P04-CH0	1634424	OK	0.7943181	-0.3114177	0.5216108	0	-124.643	-21.265	15.116	B5-03822-P04-CH1	1634424	OK	0.7866618	-0.6169567	0.0229714	0	-111.178	-31.995	4.046	NA
0.549566203292911	B5-03822-P01-CH0	1634432	OK	0.142434	0.1130105	0.1273646	-0.9750484	153.569	-12.801	-278.254	B5-03822-P02-CH0	1634432	OK	0.6962811	0.3275055	-0.6386961	0	-88.645	-88.047	-0.876	B5-03822-P02-CH1	1634432	OK	0.6737375	0.0617388	-0.7363872	0	-77.72	-65.336	0.067	B5-03822-P03-CH0	1634432	OK	0.7728348	-0.2519903	-0.5824321	0	-97.456	-51.692	8.083	B5-03822-P03-CH1	1634432	OK	0.7796896	-0.6180993	-0.1001869	0	-98.748	-13.295	6.585	B5-03822-P04-CH0	1634432	OK	0.7944044	-0.3122664	0.5209716	0	-124.284	-21.321	15.294	B5-03822-P04-CH1	1634432	OK	0.7869755	-0.6165574	0.0229471	0	-111.195	-31.793	3.494	NA
0.559558316080055	B5-03822-P01-CH0	1634440	OK	0.1413385	0.1134142	0.1249057	-0.975479	153.611	-13.059	-278.261	B5-03822-P02-CH0	1634440	OK	0.6955916	0.3265483	-0.6399364	0	-87.858	-88.483	-0.748	B5-03822-P02-CH1	1634440	OK	0.6758341	0.0602928	-0.7345836	0	-76.614	-66.28	-1.534	B5-03822-P03-CH0	1634440	OK	0.7696065	-0.246203	-0.5891433	0	-98.261	-51.812	9.567	B5-03822-P03-CH1	1634440	OK	0.7778898	-0.6201582	-0.1014457	0	-98.649	-13.223	6.318	B5-03822-P04-CH0	1634440	OK	0.7935831	-0.3173818	0.5191288	0	-124.356	-22.144	14.687	B5-03822-P04-CH1	1634440	OK	0.7850166	-0.6190752	0.0222456	0	-111.242	-32.173	3.848	NA
0.569550428867199	B5-03822-P01-CH0	1634448	OK	0.1417322	0.1133653	0.1264296	-0.9752312	153.673	-12.999	-278.322	B5-03822-P02-CH0	1634448	OK	0.6918822	0.3260638	-0.6441905	0	-86.922	-88.716	-0.74	B5-03822-P02-CH1	1634448	OK	0.6738674	0.0518751	-0.737029	0	-77.049	-64.918	0.89	B5-03822-P03-CH0	1634448	OK	0.766799	-0.2354555	-0.5971432	0	-99.07	-51.1	8.739	B5-03822-P03-CH1	1634448	OK	0.7789767	-0.6188	-0.1013996	0	-98.53	-12.928	5.87	B5-03822-P04-CH0	1634448	OK	0.7937614	-0.3160211	0.5196859	0	-124.147	-21.853	14.605	B5-03822-P04-CH1	1634448	OK	0.786157	-0.6176198	0.0224252	0	-111.353	-32.258	4.407	NA
0.579542541654343	B5-03822-P01-CH0	1634456	OK	0.1422282	0.1134051	0.1276393	-0.9749967	153.759	-12.895	-278.372	B5-03822-P02-CH0	1634456	OK	0.68441	0.3266123	-0.6518492	0	-86.763	-87.211	-0.594	B5-03822-P02-CH1	1634456	OK	0.6717975	0.0424961	-0.7395149	0	-77.426	-64.519	0.811	B5-03822-P03-CH0	1634456	OK	0.7648653	-0.2213409	-0.6049704	0	-98.12	-50.957	8.573	B5-03822-P03-CH1	1634456	OK	0.7800514	-0.6175115	-0.1009918	0	-98.338	-12.775	5.809	B5-03822-P04-CH0	1634456	OK	0.7940729	-0.3147254	0.5199963	0	-124.039	-21.723	14.798	B5-03822-P04-CH1	1634456	OK	0.7863798	-0.6173305	0.022581	0	-111.222	-32.431	3.691	NA
0.589534654441487	B5-03822-P01-CH0	1634464	OK	0.1430118	0.1135392	0.1289339	-0.9746961	153.878	-12.697	-278.436	B5-03822-P02-CH0	1634464	OK	0.6776967	0.3302053	-0.6570325	0	-86.351	-86.806	-0.593	B5-03822-P02-CH1	1634464	OK	0.6719125	0.0361173	-0.7397494	0	-76.497	-64.618	-1.309	B5-03822-P03-CH0	1634464	OK	0.7599131	-0.2060531	-0.6165016	0	-97.85	-50.799	7.703	B5-03822-P03-CH1	1634464	OK	0.7811747	-0.6162193	-0.1001993	0	-98.467	-12.703	5.773	B5-03822-P04-CH0	1634464	OK	0.7946067	-0.3134614	0.5199444	0	-124.081	-21.693	14.862	B5-03822-P04-CH1	1634464	OK	0.7872611	-0.6161906	0.0230019	0	-110.989	-32.345	3.819	NA
0.599526767228631	B5-03822-P01-CH0	1634472	OK	0.1428431	0.113547	0.1287581	-0.9747432	153.88	-12.608	-278.523	B5-03822-P02-CH0	1634472	OK	0.6755298	0.337847	-0.6553769	0	-86.209	-87.657	-1.06	B5-03822-P02-CH1	1634472	OK	0.6740916	0.031977	-0.7379552	0	-74.223	-64.174	-1.012	B5-03822-P03-CH0	1634472	OK	0.7532161	-0.1891609	-0.6299871	0	-97.086	-50.369	8.313	B5-03822-P03-CH1	1634472	OK	0.7813014	-0.616002	-0.1005474	0	-98.23	-12.597	5.437	B5-03822-P04-CH0	1634472	OK	0.7943805	-0.3140993	0.519905	0	-123.904	-21.381	14.667	B5-03822-P04-CH1	1634472	OK	0.7870089	-0.6165162	0.0229083	0	-110.961	-32.368	3.971	NA
0.609518880015774	B5-03822-P01-CH0	1634480	OK	0.1428488	0.1135564	0.1287775	-0.9747387	153.877	-12.6	-278.58	B5-03822-P02-CH0	1634480	OK	0.6722629	0.3455722	-0.6547079	0	-87.128	-86.874	-0.197	B5-03822-P02-CH1	1634480	OK	0.667828	0.0298006	-0.7437188	0	-77.139	-65.544	1.385	B5-03822-P03-CH0	1634480	OK	0.7442604	-0.1724151	-0.6452515	0	-96.593	-49.83	8.233	B5-03822-P03-CH1	1634480	OK	0.7814742	-0.6157574	-0.1007021	0	-98.234	-12.854	5.64	B5-03822-P04-CH0	1634480	OK	0.7945796	-0.3141036	0.5195981	0	-123.983	-21.305	14.703	B5-03822-P04-CH1	1634480	OK	0.7874163	-0.6160108	0.0224996	0	-110.92	-31.992	3.979	NA
0.619510992802918	B5-03822-P01-CH0	1634488	OK	0.1429727	0.1136482	0.1288417	-0.9747013	153.99	-12.501	-278.789	B5-03822-P02-CH0	1634488	OK	0.6726168	0.3518645	-0.6509823	0	-87.816	-86.709	0.364	B5-03822-P02-CH1	1634488	OK	0.6660491	0.0272018	-0.7454117	0	-77.757	-65.745	-0.073	B5-03822-P03-CH0	1634488	OK	0.7344682	-0.1544618	-0.6608313	0	-96.213	-49.372	7.968	B5-03822-P03-CH1	1634488	OK	0.7817264	-0.6154798	-0.1004413	0	-98.481	-13.29	6.47	B5-03822-P04-CH0	1634488	OK	0.7946349	-0.3142992	0.5193952	0	-123.982	-21.309	14.886	B5-03822-P04-CH1	1634488	OK	0.787818	-0.6155024	0.0223506	0	-110.965	-31.867	4.675	NA
0.629503105590062	B5-03822-P01-CH0	1634496	OK	0.1436583	0.1134082	0.1300868	-0.9744631	153.984	-12.429	-278.826	B5-03822-P02-CH0	1634496	OK	0.6764986	0.3550652	-0.6451963	0	-88.068	-87.182	0.665	B5-03822-P02-CH1	1634496	OK	0.6663957	0.0313983	-0.7449369	0	-77.88	-65.004	0.428	B5-03822-P03-CH0	1634496	OK	0.7244616	-0.137895	-0.6753816	0	-95.841	-48.27	7.276	B5-03822-P03-CH1	1634496	OK	0.7829014	-0.6140714	-0.0999082	0	-98.423	-13.514	6.596	B5-03822-P04-CH0	1634496	OK	0.7950389	-0.3135279	0.5192432	0	-123.848	-21.247	14.82	B5-03822-P04-CH1	1634496	OK	0.7887244	-0.6143236	0.022811	0	-111.083	-31.98	5.105	NA
0.639495218377206	B5-03822-P01-CH0	1634504	OK	0.1439607	0.113499	0.1301259	-0.9744026	154.02	-12.447	-278.739	B5-03822-P02-CH0	1634504	OK	0.6808199	0.3557009	-0.6402821	0	-88.97	-87.893	0.326	B5-03822-P02-CH1	1634504	OK	0.6694196	0.0432035	-0.7416272	0	-78.479	-64.847	-0.198	B5-03822-P03-CH0	1634504	OK	0.7146019	-0.1232312	-0.6885914	0	-94.837	-47.794	7.544	B5-03822-P03-CH1	1634504	OK	0.783528	-0.6132437	-0.1000803	0	-98.354	-13.434	6.276	B5-03822-P04-CH0	1634504	OK	0.7948684	-0.3139753	0.5192338	0	-123.731	-21.272	14.308	B5-03822-P04-CH1	1634504	OK	0.7889157	-0.614084	0.0226461	0	-110.965	-31.808	5.02	NA
0.64948733116435	B5-03822-P01-CH0	1634512	OK	0.1438967	0.1134453	0.1302577	-0.9744008	154.039	-12.391	-278.875	B5-03822-P02-CH0	1634512	OK	0.6867976	0.3513876	-0.6362671	0	-89.523	-87.957	0.298	B5-03822-P02-CH1	1634512	OK	0.6743744	0.0527491	-0.736503	0	-78.291	-65.228	0.572	B5-03822-P03-CH0	1634512	OK	0.7039885	-0.1085407	-0.7018683	0	-94.908	-47.218	7.122	B5-03822-P03-CH1	1634512	OK	0.7839435	-0.6126505	-0.1004585	0	-98.369	-13.656	6.741	B5-03822-P04-CH0	1634512	OK	0.7949084	-0.314261	0.5189997	0	-123.635	-21.165	14.495	B5-03822-P04-CH1	1634512	OK	0.7887942	-0.6142518	0.0223267	0	-110.89	-31.999	5.452	NA
0.659479443951494	B5-03822-P01-CH0	1634520	OK	0.1444559	0.1132524	0.1313069	-0.9741996	154.103	-12.21	-279.028	B5-03822-P02-CH0	1634520	OK	0.6927441	0.3443287	-0.6336745	0	-89.324	-86.709	0.65	B5-03822-P02-CH1	1634520	OK	0.6770879	0.0628921	-0.7332098	0	-79.917	-65.99	0.533	B5-03822-P03-CH0	1634520	OK	0.6982645	-0.0938047	-0.7096671	0	-93.28	-47.131	7.096	B5-03822-P03-CH1	1634520	OK	0.7848943	-0.6114447	-0.1003806	0	-98.394	-13.793	6.863	B5-03822-P04-CH0	1634520	OK	0.7951903	-0.3134345	0.5190676	0	-123.63	-21.054	14.448	B5-03822-P04-CH1	1634520	OK	0.7900404	-0.6126763	0.0215359	0	-110.571	-31.056	4.601	NA
0.669471556738637	B5-03822-P01-CH0	1634528	OK	0.1446055	0.1131099	0.1308844	-0.9742508	154.06	-12.144	-279.034	B5-03822-P02-CH0	1634528	OK	0.6987289	0.3353014	-0.6319422	0	-89.58	-86.27	1.124	B5-03822-P02-CH1	1634528	OK	0.6849011	0.068775	-0.725383	0	-78.243	-65.053	1.253	B5-03822-P03-CH0	1634528	OK	0.6927163	-0.0808138	-0.7166682	0	-92.806	-46.857	7.333	B5-03822-P03-CH1	1634528	OK	0.7849047	-0.6113585	-0.1008237	0	-98.367	-13.913	6.993	B5-03822-P04-CH0	1634528	OK	0.7952605	-0.3129469	0.5192542	0	-123.76	-21.052	14.65	B5-03822-P04-CH1	1634528	OK	0.7894043	-0.6134798	0.0219831	0	-110.608	-31.495	5.024	NA
0.679463669525781	B5-03822-P01-CH0	1634536	OK	0.1447829	0.1131839	0.1306476	-0.9742477	154.118	-12.225	-278.96	B5-03822-P02-CH0	1634536	OK	0.7047372	0.327195	-0.6295148	0	-89.7	-86.065	0.628	B5-03822-P02-CH1	1634536	OK	0.6865418	0.0744613	-0.7232675	0	-81.014	-65.669	-0.471	B5-03822-P03-CH0	1634536	OK	0.687125	-0.0682657	-0.723325	0	-93.251	-46.945	6.933	B5-03822-P03-CH1	1634536	OK	0.7849024	-0.6112605	-0.1014341	0	-98.593	-14.046	6.738	B5-03822-P04-CH0	1634536	OK	0.7953306	-0.312586	0.5193642	0	-123.892	-21.171	14.516	B5-03822-P04-CH1	1634536	OK	0.7897296	-0.613078	0.0215064	0	-110.611	-31.209	5.164	NA
0.689455782312925	B5-03822-P01-CH0	1634544	OK	0.1449565	0.1129453	0.1305213	-0.9742665	154.168	-12.361	-279.112	B5-03822-P02-CH0	1634544	OK	0.7057715	0.3179707	-0.6330728	0	-92.375	-87.244	2.3	B5-03822-P02-CH1	1634544	OK	0.6950323	0.0763292	-0.7149154	0	-78.335	-65.18	0.027	B5-03822-P03-CH0	1634544	OK	0.6826442	-0.0559508	-0.7286058	0	-93.621	-47.257	6.499	B5-03822-P03-CH1	1634544	OK	0.7851718	-0.6108341	-0.1019167	0	-98.564	-14.159	6.652	B5-03822-P04-CH0	1634544	OK	0.7951749	-0.3121944	0.519838	0	-123.9	-21.316	14.491	B5-03822-P04-CH1	1634544	OK	0.7896048	-0.6132452	0.0213199	0	-110.54	-31.285	4.826	NA
0.699447895100069	B5-03822-P01-CH0	1634552	OK	0.1453673	0.1130009	0.1308151	-0.9741594	154.269	-12.428	-279.043	B5-03822-P02-CH0	1634552	OK	0.7087674	0.3108812	-0.633247	0	-92.062	-87.764	0.729	B5-03822-P02-CH1	1634552	OK	0.6947674	0.0766834	-0.7151349	0	-80.482	-65.061	-0.569	B5-03822-P03-CH0	1634552	OK	0.6828999	-0.0460901	-0.7290566	0	-91.985	-46.709	6.221	B5-03822-P03-CH1	1634552	OK	0.785347	-0.6106384	-0.1017394	0	-98.943	-14.644	7.09	B5-03822-P04-CH0	1634552	OK	0.7952993	-0.3115525	0.5200327	0	-123.916	-21.343	14.403	B5-03822-P04-CH1	1634552	OK	0.7903471	-0.6122933	0.0211737	0	-110.757	-31.203	5.442	NA
0.709440007887213	B5-03822-P01-CH0	1634560	OK	0.1458203	0.1129002	0.1311042	-0.9740645	154.342	-12.381	-279.125	B5-03822-P02-CH0	1634560	OK	0.7084079	0.3038925	-0.6370303	0	-91.155	-87.304	0.593	B5-03822-P02-CH1	1634560	OK	0.6958173	0.0758668	-0.7142006	0	-81.253	-65.333	2.939	B5-03822-P03-CH0	1634560	OK	0.6808943	-0.0394173	-0.7313202	0	-92.773	-46.956	6.831	B5-03822-P03-CH1	1634560	OK	0.785678	-0.6102583	-0.1014636	0	-99.108	-14.824	7.358	B5-03822-P04-CH0	1634560	OK	0.7954444	-0.3105623	0.520403	0	-123.997	-21.523	14.702	B5-03822-P04-CH1	1634560	OK	0.7902839	-0.6123476	0.02195	0	-111.097	-31.591	5.461	NA
0.719432120674357	B5-03822-P01-CH0	1634568	OK	0.145814	0.1131779	0.1307411	-0.974082	154.41	-12.369	-278.954	B5-03822-P02-CH0	1634568	OK	0.7047004	0.2983279	-0.6437374	0	-90.404	-87.622	-0.572	B5-03822-P02-CH1	1634568	OK	0.6979916	0.0726846	-0.7124077	0	-81.625	-65.69	0.136	B5-03822-P03-CH0	1634568	OK	0.6812581	-0.0364452	-0.7311355	0	-93.464	-46.959	5.726	B5-03822-P03-CH1	1634568	OK	0.7856887	-0.6101234	-0.1021899	0	-99.049	-14.513	6.829	B5-03822-P04-CH0	1634568	OK	0.7955057	-0.3101787	0.5205381	0	-124.148	-21.501	14.705	B5-03822-P04-CH1	1634568	OK	0.7900775	-0.6126217	0.0217291	0	-111.254	-31.493	5.229	NA
0.729424233461501	B5-03822-P01-CH0	1634576	OK	0.1452505	0.1133099	0.1292759	-0.9743464	154.443	-12.525	-278.956	B5-03822-P02-CH0	1634576	OK	0.6992415	0.2941974	-0.6515437	0	-88.716	-88.049	-0.134	B5-03822-P02-CH1	1634576	OK	0.7026672	0.0666217	-0.7083928	0	-80.017	-66.09	0.459	B5-03822-P03-CH0	1634576	OK	0.6851291	-0.0331039	-0.727669	0	-92.563	-47.524	6.185	B5-03822-P03-CH1	1634576	OK	0.7849962	-0.6108311	-0.1032785	0	-98.917	-14.46	6.791	B5-03822-P04-CH0	1634576	OK	0.7951373	-0.310861	0.5206939	0	-124.167	-21.403	14.778	B5-03822-P04-CH1	1634576	OK	0.7891418	-0.6138455	0.0211891	0	-111.313	-31.537	5.185	NA
0.739416346248644	B5-03822-P01-CH0	1634584	OK	0.1454307	0.1132067	0.1294544	-0.9743078	154.463	-12.373	-279.093	B5-03822-P02-CH0	1634584	OK	0.6897077	0.2892791	-0.6637928	0	-88.514	-87.913	0.212	B5-03822-P02-CH1	1634584	OK	0.7004157	0.0664408	-0.710636	0	-82.16	-66.572	-0.372	B5-03822-P03-CH0	1634584	OK	0.6870534	-0.0330884	-0.7258531	0	-92.987	-47.916	6.862	B5-03822-P03-CH1	1634584	OK	0.7851771	-0.6105661	-0.1034695	0	-98.98	-14.456	6.942	B5-03822-P04-CH0	1634584	OK	0.7952314	-0.3099882	0.5210704	0	-124.272	-21.502	14.956	B5-03822-P04-CH1	1634584	OK	0.7894185	-0.6134908	0.0211551	0	-111.323	-31.392	5.296	NA
0.749408459035788	B5-03822-P01-CH0	1634592	OK	0.1455178	0.1132297	0.129646	-0.9742666	154.508	-12.425	-279.002	B5-03822-P02-CH0	1634592	OK	0.6814486	0.2847831	-0.6741857	0	-89.007	-89.407	-0.326	B5-03822-P02-CH1	1634592	OK	0.7015534	0.0626276	-0.7098596	0	-82.036	-65.985	0.201	B5-03822-P03-CH0	1634592	OK	0.6860154	-0.0317907	-0.7268922	0	-95.073	-48.3	7.099	B5-03822-P03-CH1	1634592	OK	0.7854257	-0.6102176	-0.1036388	0	-98.955	-14.468	6.719	B5-03822-P04-CH0	1634592	OK	0.7954918	-0.3091823	0.5211517	0	-124.47	-21.485	14.653	B5-03822-P04-CH1	1634592	OK	0.7895505	-0.613321	0.0211515	0	-111.238	-31.307	4.784	NA
0.759400571822932	B5-03822-P01-CH0	1634600	OK	0.1461387	0.1133583	0.130689	-0.9740194	154.665	-12.353	-279.063	B5-03822-P02-CH0	1634600	OK	0.6739348	0.2821858	-0.682776	0	-88.657	-88.749	0.333	B5-03822-P02-CH1	1634600	OK	0.703165	0.0595172	-0.7085313	0	-81.581	-66.248	-0.769	B5-03822-P03-CH0	1634600	OK	0.6886969	-0.0288291	-0.724476	0	-94.045	-48.754	7.988	B5-03822-P03-CH1	1634600	OK	0.7863917	-0.609063	-0.1031031	0	-99.084	-14.524	7.008	B5-03822-P04-CH0	1634600	OK	0.7958382	-0.3078697	0.5213999	0	-124.536	-21.606	14.487	B5-03822-P04-CH1	1634600	OK	0.7900088	-0.6126913	0.0222566	0	-111.549	-31.95	5.36	NA
0.769392684610076	B5-03822-P01-CH0	1634608	OK	0.1458876	0.1135874	0.1304524	-0.9740621	154.806	-12.415	-279.11	B5-03822-P02-CH0	1634608	OK	0.6704221	0.2800635	-0.6870944	0	-87.802	-88.832	-1.175	B5-03822-P02-CH1	1634608	OK	0.7010358	0.0526166	-0.7111824	0	-83.799	-67.685	-0.162	B5-03822-P03-CH0	1634608	OK	0.6885061	-0.0244577	-0.7248181	0	-94.239	-48.44	7.393	B5-03822-P03-CH1	1634608	OK	0.786359	-0.6090965	-0.1031553	0	-99.457	-14.65	7.108	B5-03822-P04-CH0	1634608	OK	0.7956749	-0.3081471	0.5214853	0	-124.552	-21.632	14.288	B5-03822-P04-CH1	1634608	OK	0.7904287	-0.6121774	0.0214757	0	-111.581	-31.369	5.142	NA
0.77938479739722	B5-03822-P01-CH0	1634616	OK	0.1458578	0.1134686	0.1302552	-0.9741068	154.715	-12.321	-279.105	B5-03822-P02-CH0	1634616	OK	0.6662048	0.2782361	-0.6919219	0	-87.485	-88.556	-0.353	B5-03822-P02-CH1	1634616	OK	0.7030539	0.0484367	-0.7094851	0	-82.652	-67.752	-0.738	B5-03822-P03-CH0	1634616	OK	0.6871531	-0.0191831	-0.7262594	0	-94.37	-48.354	8.066	B5-03822-P03-CH1	1634616	OK	0.7864697	-0.6089577	-0.1031305	0	-99.427	-14.62	7.319	B5-03822-P04-CH0	1634616	OK	0.7951716	-0.3085609	0.522008	0	-124.191	-21.407	14.031	B5-03822-P04-CH1	1634616	OK	0.7903482	-0.6122763	0.0216201	0	-111.65	-31.442	5.419	NA
0.789376910184364	B5-03822-P01-CH0	1634624	OK	0.1455143	0.1137212	0.129502	-0.9742291	154.774	-12.349	-279.154	B5-03822-P02-CH0	1634624	OK	0.6622203	0.2782124	-0.6957458	0	-87.894	-89.014	0.737	B5-03822-P02-CH1	1634624	OK	0.7032213	0.0432713	-0.709653	0	-82.526	-67.619	-0.546	B5-03822-P03-CH0	1634624	OK	0.6860952	-0.0161486	-0.7273325	0	-94.661	-48.874	8.015	B5-03822-P03-CH1	1634624	OK	0.7860529	-0.6094299	-0.1035185	0	-99.536	-14.701	7.559	B5-03822-P04-CH0	1634624	OK	0.7949138	-0.308879	0.5222124	0	-124.177	-21.467	14.138	B5-03822-P04-CH1	1634624	OK	0.7901099	-0.6125856	0.0215712	0	-112.033	-31.616	6.435	NA
0.799369022971507	B5-03822-P01-CH0	1634632	OK	0.1449057	0.1136031	0.1289054	-0.9744127	154.647	-12.338	-279.125	B5-03822-P02-CH0	1634632	OK	0.6607749	0.277264	-0.6974964	0	-87.411	-89.331	-0.298	B5-03822-P02-CH1	1634632	OK	0.7064424	0.0417495	-0.7065382	0	-80.235	-65.825	-0.741	B5-03822-P03-CH0	1634632	OK	0.6867139	-0.0123524	-0.7268228	0	-94.314	-48.112	7.207	B5-03822-P03-CH1	1634632	OK	0.7859552	-0.6094192	-0.1043201	0	-99.254	-14.357	7.148	B5-03822-P04-CH0	1634632	OK	0.7947599	-0.3092424	0.5222316	0	-124.19	-21.342	14.193	B5-03822-P04-CH1	1634632	OK	0.7894378	-0.6134591	0.0213511	0	-111.946	-31.808	6.456	NA
0.809361135758651	B5-03822-P01-CH0	1634640	OK	0.1447477	0.1135595	0.1289527	-0.974435	154.623	-12.347	-279.102	B5-03822-P02-CH0	1634640	OK	0.656854	0.2768337	-0.70136	0	-88.094	-88.997	1.971	B5-03822-P02-CH1	1634640	OK	0.7030154	0.0397662	-0.710062	0	-82.521	-66.251	0.187	B5-03822-P03-CH0	1634640	OK	0.6852439	-0.0096703	-0.7282495	0	-95.657	-48.074	8.022	B5-03822-P03-CH1	1634640	OK	0.7861042	-0.6091961	-0.1045003	0	-99.249	-14.452	7.16	B5-03822-P04-CH0	1634640	OK	0.7945758	-0.3094642	0.5223803	0	-124.08	-21.37	13.988	B5-03822-P04-CH1	1634640	OK	0.7899464	-0.6128328	0.020509	0	-111.628	-31.134	5.812	NA
0.819353248545795	B5-03822-P01-CH0	1634648	OK	0.1448875	0.113113	0.129732	-0.9743627	154.478	-12.37	-279.098	B5-03822-P02-CH0	1634648	OK	0.6553205	0.2749881	-0.7035173	0	-87.678	-88.077	1.374	B5-03822-P02-CH1	1634648	OK	0.7071062	0.0353782	-0.7062218	0	-80.315	-66.601	-1.16	B5-03822-P03-CH0	1634648	OK	0.686939	-0.0073023	-0.7266784	0	-95.37	-47.64	7.041	B5-03822-P03-CH1	1634648	OK	0.7868846	-0.6082184	-0.1043213	0	-99.048	-14.427	6.975	B5-03822-P04-CH0	1634648	OK	0.7947024	-0.3088551	0.5225481	0	-123.916	-21.374	14.035	B5-03822-P04-CH1	1634648	OK	0.7902601	-0.6124272	0.0205399	0	-111.408	-31.242	5.356	NA
0.829345361332939	B5-03822-P01-CH0	1634656	OK	0.1447283	0.1129049	0.1294067	-0.9744538	154.463	-12.484	-279.324	B5-03822-P02-CH0	1634656	OK	0.6560777	0.2731113	-0.7035427	0	-86.805	-88.897	0.256	B5-03822-P02-CH1	1634656	OK	0.7087371	0.0321929	-0.7047378	0	-79.887	-66.547	-1.945	B5-03822-P03-CH0	1634656	OK	0.6901056	-0.0057547	-0.7236858	0	-94.361	-47.657	7.515	B5-03822-P03-CH1	1634656	OK	0.7868349	-0.6082348	-0.104601	0	-99.143	-14.597	7.163	B5-03822-P04-CH0	1634656	OK	0.7942473	-0.3094471	0.5228897	0	-123.627	-21.392	13.95	B5-03822-P04-CH1	1634656	OK	0.7901565	-0.6125617	0.0205151	0	-111.016	-31.275	5.429	NA
0.839337474120083	B5-03822-P01-CH0	1634664	OK	0.1443492	0.11286	0.128824	-0.9745924	154.401	-12.613	-279.266	B5-03822-P02-CH0	1634664	OK	0.6560541	0.2739722	-0.7032299	0	-86.167	-89.121	1.072	B5-03822-P02-CH1	1634664	OK	0.705048	0.028726	-0.7085775	0	-82.793	-66.437	0.651	B5-03822-P03-CH0	1634664	OK	0.692064	-0.0071985	-0.7218002	0	-94.111	-47.434	6.871	B5-03822-P03-CH1	1634664	OK	0.7867026	-0.6083258	-0.1050652	0	-99.115	-14.596	7.215	B5-03822-P04-CH0	1634664	OK	0.7941279	-0.3098535	0.5228305	0	-123.589	-21.304	13.984	B5-03822-P04-CH1	1634664	OK	0.7897952	-0.6130331	0.0203487	0	-111.042	-31.357	5.315	NA
0.849329586907227	B5-03822-P01-CH0	1634672	OK	0.1437075	0.1128258	0.127186	-0.9749063	154.318	-12.733	-279.322	B5-03822-P02-CH0	1634672	OK	0.6556723	0.2748262	-0.7032527	0	-85.737	-88.657	1.299	B5-03822-P02-CH1	1634672	OK	0.7059748	0.0253207	-0.7077842	0	-82.518	-65.98	0.984	B5-03822-P03-CH0	1634672	OK	0.6916865	-0.0092569	-0.7221386	0	-94.505	-48.335	6.339	B5-03822-P03-CH1	1634672	OK	0.7857672	-0.6094131	-0.1057621	0	-98.97	-14.676	7.187	B5-03822-P04-CH0	1634672	OK	0.7933976	-0.3110371	0.5232363	0	-123.457	-21.394	14.143	B5-03822-P04-CH1	1634672	OK	0.7887281	-0.614418	0.0199644	0	-110.911	-31.429	5.352	NA
0.85932169969437	B5-03822-P01-CH0	1634680	OK	0.1429048	0.1127593	0.1255777	-0.9752404	154.15	-12.996	-279.191	B5-03822-P02-CH0	1634680	OK	0.6536153	0.2783793	-0.7037699	0	-86.232	-88.125	1.664	B5-03822-P02-CH1	1634680	OK	0.7066431	0.0205758	-0.707271	0	-82.71	-67.724	1.398	B5-03822-P03-CH0	1634680	OK	0.6899149	-0.0077175	-0.7238494	0	-94.876	-48.231	7.658	B5-03822-P03-CH1	1634680	OK	0.7850317	-0.6101865	-0.1067596	0	-98.798	-14.582	6.918	B5-03822-P04-CH0	1634680	OK	0.7930361	-0.3119936	0.5232148	0	-123.472	-21.446	14.253	B5-03822-P04-CH1	1634680	OK	0.787842	-0.6155718	0.0193989	0	-111.045	-31.499	5.599	NA
0.869313812481514	B5-03822-P01-CH0	1634688	OK	0.1427599	0.112648	0.1252277	-0.9753195	154.067	-13.085	-279.201	B5-03822-P02-CH0	1634688	OK	0.6533194	0.2832726	-0.7020901	0	-86.125	-88.248	0.998	B5-03822-P02-CH1	1634688	OK	0.706831	0.0145197	-0.7072335	0	-82.736	-66.974	1.051	B5-03822-P03-CH0	1634688	OK	0.6894977	-0.0068794	-0.7242552	0	-94.017	-47.833	7.328	B5-03822-P03-CH1	1634688	OK	0.7850851	-0.6100498	-0.1071477	0	-98.42	-14.464	6.72	B5-03822-P04-CH0	1634688	OK	0.7932112	-0.3114791	0.5232558	0	-123.641	-21.702	14.728	B5-03822-P04-CH1	1634688	OK	0.7876507	-0.6158156	0.0194285	0	-111.015	-31.665	5.669	NA
0.879305925268658	B5-03822-P01-CH0	1634696	OK	0.1428941	0.112902	0.1254517	-0.9752416	154.184	-13.11	-279.171	B5-03822-P02-CH0	1634696	OK	0.65212	0.2852854	-0.70239	0	-86.147	-87.408	1.028	B5-03822-P02-CH1	1634696	OK	0.7083529	0.0075199	-0.7058184	0	-82.245	-66.201	0.624	B5-03822-P03-CH0	1634696	OK	0.6893235	-0.0051635	-0.7244353	0	-94.03	-47.76	7.257	B5-03822-P03-CH1	1634696	OK	0.7853008	-0.6097746	-0.1071337	0	-98.53	-14.538	6.814	B5-03822-P04-CH0	1634696	OK	0.7938167	-0.3105987	0.5228609	0	-123.935	-21.853	15.155	B5-03822-P04-CH1	1634696	OK	0.787589	-0.6158794	0.0199039	0	-110.931	-32.014	5.742	NA
0.889298038055802	B5-03822-P01-CH0	1634704	OK	0.1423303	0.1130906	0.1248975	-0.9753734	154.226	-13.193	-279.134	B5-03822-P02-CH0	1634704	OK	0.65276	0.2864502	-0.7013206	0	-86.022	-87.723	1.301	B5-03822-P02-CH1	1634704	OK	0.7099962	-0.0006396	-0.7042053	0	-82.684	-66.353	-0.32	B5-03822-P03-CH0	1634704	OK	0.6891556	-0.0019136	-0.7246109	0	-94	-47.481	7.314	B5-03822-P03-CH1	1634704	OK	0.7850562	-0.6099807	-0.1077506	0	-98.543	-14.44	6.625	B5-03822-P04-CH0	1634704	OK	0.7938171	-0.3116354	0.5222431	0	-123.857	-21.61	15.21	B5-03822-P04-CH1	1634704	OK	0.7872556	-0.616329	0.0191598	0	-110.744	-31.753	5.156	NA
0.899290150842946	B5-03822-P01-CH0	1634712	OK	0.1422796	0.1132488	0.1245229	-0.9754103	154.251	-13.317	-279.015	B5-03822-P02-CH0	1634712	OK	0.6525542	0.2879364	-0.7009034	0	-85.81	-87.502	0.955	B5-03822-P02-CH1	1634712	OK	0.7115711	-0.0101127	-0.7025413	0	-83.543	-66.903	0.315	B5-03822-P03-CH0	1634712	OK	0.6827563	0.0207428	-0.7303517	0	-95.138	-47.024	7.356	B5-03822-P03-CH1	1634712	OK	0.7849095	-0.6101071	-0.1081034	0	-98.496	-14.45	6.355	B5-03822-P04-CH0	1634712	OK	0.7939543	-0.3118264	0.5219203	0	-123.872	-21.716	15.378	B5-03822-P04-CH1	1634712	OK	0.7871815	-0.6164297	0.0189674	0	-110.764	-31.686	4.857	NA
0.90928226363009	B5-03822-P01-CH0	1634720	OK	0.1422495	0.1129594	0.1241712	-0.9754931	154.109	-13.408	-279.134	B5-03822-P02-CH0	1634720	OK	0.6518465	0.2898166	-0.7007871	0	-85.805	-87.577	1.495	B5-03822-P02-CH1	1634720	OK	0.7150881	-0.0187605	-0.6987825	0	-82.895	-67.233	0.759	B5-03822-P03-CH0	1634720	OK	0.6820968	0.0292479	-0.7306767	0	-95.231	-47.26	7.414	B5-03822-P03-CH1	1634720	OK	0.7847592	-0.6102854	-0.108188	0	-98.306	-14.488	6.236	B5-03822-P04-CH0	1634720	OK	0.7940829	-0.3118127	0.521733	0	-123.75	-21.594	15.7	B5-03822-P04-CH1	1634720	OK	0.7870935	-0.6165333	0.0192466	0	-110.666	-32.038	5.734	NA
0.919274376417234	B5-03822-P01-CH0	1634728	OK	0.1420157	0.1130139	0.123855	-0.975561	154.119	-13.482	-279.211	B5-03822-P02-CH0	1634728	OK	0.6537176	0.2846006	-0.7011817	0	-85.965	-88.211	1.959	B5-03822-P02-CH1	1634728	OK	0.7195577	-0.0224099	-0.694071	0	-80.887	-66.626	-0.696	B5-03822-P03-CH0	1634728	OK	0.6801535	0.0350159	-0.732233	0	-95.809	-46.29	8.478	B5-03822-P03-CH1	1634728	OK	0.7845738	-0.6104794	-0.1084385	0	-98.417	-14.608	6.381	B5-03822-P04-CH0	1634728	OK	0.7942416	-0.3122647	0.5212207	0	-123.822	-21.598	15.718	B5-03822-P04-CH1	1634728	OK	0.7869705	-0.6166834	0.0194685	0	-110.751	-32.301	6.386	NA
