Wav.Time	B5.03822.P01.CH0	Frame	State	Q0	Qx	Qy	Qz	Tx	Ty	Tz	B5.03822.P02.CH0	Frame.1	State.1	Q0.1	Qx.1	Qy.1	Qz.1	Tx.1	Ty.1	Tz.1	B5.03822.P02.CH1	Frame.2	State.2	Q0.2	Qx.2	Qy.2	Qz.2	Tx.2	Ty.2	Tz.2	B5.03822.P03.CH0	Frame.3	State.3	Q0.3	Qx.3	Qy.3	Qz.3	Tx.3	Ty.3	Tz.3	B5.03822.P03.CH1	Frame.4	State.4	Q0.4	Qx.4	Qy.4	Qz.4	Tx.4	Ty.4	Tz.4	B5.03822.P04.CH0	Frame.5	State.5	Q0.5	Qx.5	Qy.5	Qz.5	Tx.5	Ty.5	Tz.5	B5.03822.P04.CH1	Frame.6	State.6	Q0.6	Qx.6	Qy.6	Qz.6	Tx.6	Ty.6	Tz.6	X
0	B5-03822-P01-CH0	6349664	OK	0.2062684	0.0376994	0.0574459	-0.9760799	100.23	-47.296	-296.237	B5-03822-P02-CH0	6349664	OK	0.6681483	0.1788698	-0.7222073	0	-80.779	-100.465	-4.173	B5-03822-P02-CH1	6349664	OK	0.7400001	-0.1897341	-0.6452913	0	-84.453	-77.497	-3.148	B5-03822-P03-CH0	6349664	OK	0.782526	-0.1042339	-0.6138309	0	-102.839	-55.937	6.376	B5-03822-P03-CH1	6349664	OK	0.7333039	-0.6757222	0.0752659	0	-103.269	-17.613	-5.631	B5-03822-P04-CH0	6349664	OK	0.765901	0.376706	-0.5210453	0	-129.18	-43.088	20.928	B5-03822-P04-CH1	6349664	OK	0.7354389	-0.6736675	0.0728127	0	-114.484	-40.759	-10.422	NA
0.00999193751574704	B5-03822-P01-CH0	6349672	OK	0.2063622	0.0371524	0.0582855	-0.9760313	100.046	-47.214	-296.321	B5-03822-P02-CH0	6349672	OK	0.6546515	0.193804	-0.730665	0	-79.732	-101.04	-3.037	B5-03822-P02-CH1	6349672	OK	0.7305469	-0.2169849	-0.6474711	0	-82.872	-75.912	-5.831	B5-03822-P03-CH0	6349672	OK	0.7843338	-0.108942	-0.6106981	0	-104.101	-56.985	7.645	B5-03822-P03-CH1	6349672	OK	0.7339452	-0.6749661	0.0757972	0	-103.166	-17.453	-5.399	B5-03822-P04-CH0	6349672	OK	0.7657308	0.3767382	-0.5212721	0	-129.027	-42.94	20.951	B5-03822-P04-CH1	6349672	OK	0.7359635	-0.6730844	0.0729042	0	-114.295	-40.579	-10.861	NA
0.0199838750314941	B5-03822-P01-CH0	6349680	OK	0.2060205	0.0374562	0.0581725	-0.9760986	100.154	-47.195	-296.413	B5-03822-P02-CH0	6349680	OK	0.6403397	0.2116073	-0.7383681	0	-77.677	-100.309	-3.609	B5-03822-P02-CH1	6349680	OK	0.7205883	-0.2470055	-0.647874	0	-80.793	-76.586	-5.64	B5-03822-P03-CH0	6349680	OK	0.7897367	-0.1086956	-0.6037393	0	-103.808	-57.5	7.839	B5-03822-P03-CH1	6349680	OK	0.7336603	-0.6752553	0.0759793	0	-103.305	-17.525	-5.077	B5-03822-P04-CH0	6349680	OK	0.7656911	0.3771525	-0.5210308	0	-129.132	-42.682	21.047	B5-03822-P04-CH1	6349680	OK	0.7358349	-0.673235	0.072812	0	-114.366	-40.576	-10.736	NA
0.0299758125472411	B5-03822-P01-CH0	6349688	OK	0.2058942	0.0375425	0.057831	-0.9761423	100.171	-47.284	-296.432	B5-03822-P02-CH0	6349688	OK	0.6210678	0.2305537	-0.7490793	0	-76.169	-99.792	-2.763	B5-03822-P02-CH1	6349688	OK	0.7112108	-0.2760372	-0.6465157	0	-78.695	-76.569	-6.541	B5-03822-P03-CH0	6349688	OK	0.7940484	-0.1072297	-0.5983218	0	-104.565	-57.372	6.944	B5-03822-P03-CH1	6349688	OK	0.7329811	-0.6759318	0.0765168	0	-103.309	-17.858	-5.063	B5-03822-P04-CH0	6349688	OK	0.7654304	0.3773265	-0.5212878	0	-129.269	-42.567	21.145	B5-03822-P04-CH1	6349688	OK	0.7356349	-0.6734514	0.0728319	0	-114.496	-40.593	-10.736	NA
0.0399677500629882	B5-03822-P01-CH0	6349696	OK	0.2055366	0.0373545	0.0576946	-0.9762329	100.092	-47.333	-296.44	B5-03822-P02-CH0	6349696	OK	0.6011041	0.2474745	-0.7598883	0	-73.752	-100.468	-2.627	B5-03822-P02-CH1	6349696	OK	0.7038089	-0.2931468	-0.6470842	0	-77.428	-73.862	-6.588	B5-03822-P03-CH0	6349696	OK	0.7988605	-0.106425	-0.5920267	0	-105.298	-57.103	7.395	B5-03822-P03-CH1	6349696	OK	0.7331129	-0.6758408	0.0760574	0	-103.302	-17.465	-5.348	B5-03822-P04-CH0	6349696	OK	0.7654813	0.3783226	-0.5204906	0	-129.228	-42.104	21.056	B5-03822-P04-CH1	6349696	OK	0.7357519	-0.6734293	0.0718483	0	-114.41	-40.194	-10.997	NA
0.0499596875787352	B5-03822-P01-CH0	6349704	OK	0.2054995	0.0369806	0.0578511	-0.9762457	99.96	-47.365	-296.556	B5-03822-P02-CH0	6349704	OK	0.5758295	0.2575262	-0.7759514	0	-73.947	-101.018	0.845	B5-03822-P02-CH1	6349704	OK	0.7000089	-0.2934674	-0.6510487	0	-76.496	-74.939	-4.637	B5-03822-P03-CH0	6349704	OK	0.8053173	-0.10879	-0.5827768	0	-105.142	-57.896	9.39	B5-03822-P03-CH1	6349704	OK	0.7331841	-0.6757323	0.0763345	0	-103.125	-17.369	-5.36	B5-03822-P04-CH0	6349704	OK	0.766242	0.3775515	-0.5199308	0	-128.815	-42.258	21.105	B5-03822-P04-CH1	6349704	OK	0.7360506	-0.6731473	0.0714301	0	-114.358	-39.961	-10.891	NA
0.0599516250944822	B5-03822-P01-CH0	6349712	OK	0.2056733	0.0366262	0.0586744	-0.9761733	99.966	-47.39	-296.88	B5-03822-P02-CH0	6349712	OK	0.556054	0.249681	-0.7927568	0	-72.246	-100.348	0.357	B5-03822-P02-CH1	6349712	OK	0.7007672	-0.2789949	-0.6565723	0	-76.032	-75.469	-4.396	B5-03822-P03-CH0	6349712	OK	0.809284	-0.1109899	-0.5768368	0	-105.704	-58.487	10.891	B5-03822-P03-CH1	6349712	OK	0.7335498	-0.6753076	0.0765791	0	-102.907	-17.41	-5.528	B5-03822-P04-CH0	6349712	OK	0.7662813	0.3768403	-0.5203886	0	-128.776	-42.534	21.261	B5-03822-P04-CH1	6349712	OK	0.7365221	-0.6725639	0.0720624	0	-114.2	-40.128	-10.75	NA
0.0699435626102293	B5-03822-P01-CH0	6349720	OK	0.205631	0.0367518	0.0591635	-0.976148	100.056	-47.323	-296.958	B5-03822-P02-CH0	6349720	OK	0.5375827	0.2373803	-0.8091078	0	-71.904	-100.258	0.658	B5-03822-P02-CH1	6349720	OK	0.7002368	-0.2724841	-0.6598642	0	-77.034	-75.751	-6.736	B5-03822-P03-CH0	6349720	OK	0.8138878	-0.1099662	-0.5705209	0	-105.981	-58.725	9.589	B5-03822-P03-CH1	6349720	OK	0.7337897	-0.6750452	0.0765939	0	-102.991	-17.394	-5.43	B5-03822-P04-CH0	6349720	OK	0.7659479	0.3764092	-0.5211908	0	-129.022	-42.624	21.32	B5-03822-P04-CH1	6349720	OK	0.736539	-0.6725143	0.0723527	0	-113.938	-40.288	-10.706	NA
0.0799355001259763	B5-03822-P01-CH0	6349728	OK	0.2054611	0.0369643	0.059292	-0.9761679	100.171	-47.328	-297.002	B5-03822-P02-CH0	6349728	OK	0.5236291	0.2193991	-0.8232112	0	-71.019	-100.217	2.133	B5-03822-P02-CH1	6349728	OK	0.6993259	-0.272464	-0.6608379	0	-77.672	-75.883	-4.941	B5-03822-P03-CH0	6349728	OK	0.8165141	-0.1084206	-0.5670535	0	-106.557	-59.488	11.255	B5-03822-P03-CH1	6349728	OK	0.73373	-0.6750906	0.0767659	0	-103.102	-17.467	-5.369	B5-03822-P04-CH0	6349728	OK	0.7659405	0.3761494	-0.5213893	0	-129.092	-42.697	21.38	B5-03822-P04-CH1	6349728	OK	0.7372096	-0.6719252	0.0709826	0	-114.189	-39.618	-10.991	NA
0.0899274376417233	B5-03822-P01-CH0	6349736	OK	0.2050318	0.0368118	0.0593289	-0.9762617	100.081	-47.375	-296.928	B5-03822-P02-CH0	6349736	OK	0.516764	0.1985446	-0.8327875	0	-69.641	-100.804	1.495	B5-03822-P02-CH1	6349736	OK	0.700513	-0.2891413	-0.6524407	0	-76.959	-75.346	-6.208	B5-03822-P03-CH0	6349736	OK	0.818388	-0.098976	-0.5660784	0	-106.965	-59.081	10.213	B5-03822-P03-CH1	6349736	OK	0.7335777	-0.6752383	0.0769216	0	-103.2	-17.594	-5.176	B5-03822-P04-CH0	6349736	OK	0.7659481	0.3765039	-0.5211222	0	-128.977	-42.495	21.477	B5-03822-P04-CH1	6349736	OK	0.7372317	-0.6719724	0.0703023	0	-114.187	-39.55	-11.097	NA
0.0999193751574704	B5-03822-P01-CH0	6349744	OK	0.2048782	0.0368165	0.059108	-0.9763072	100.042	-47.415	-296.868	B5-03822-P02-CH0	6349744	OK	0.5138474	0.17263	-0.8403331	0	-68.449	-99.847	0.368	B5-03822-P02-CH1	6349744	OK	0.7015813	-0.3201502	-0.636622	0	-77.285	-75.54	-4.43	B5-03822-P03-CH0	6349744	OK	0.8194855	-0.0869827	-0.5664605	0	-106.745	-59.552	10.66	B5-03822-P03-CH1	6349744	OK	0.7331509	-0.6756518	0.0773588	0	-102.998	-17.869	-4.958	B5-03822-P04-CH0	6349744	OK	0.766107	0.3758496	-0.5213609	0	-128.981	-42.502	21.423	B5-03822-P04-CH1	6349744	OK	0.7362139	-0.6729047	0.0720302	0	-114.259	-40.674	-9.929	NA
0.109911312673217	B5-03822-P01-CH0	6349752	OK	0.2046461	0.0369526	0.0582332	-0.9764033	99.971	-47.455	-296.741	B5-03822-P02-CH0	6349752	OK	0.5160742	0.1548689	-0.8424269	0	-67.1	-100.836	-0.125	B5-03822-P02-CH1	6349752	OK	0.7079145	-0.3553369	-0.6104037	0	-77.65	-74.657	-6.417	B5-03822-P03-CH0	6349752	OK	0.8184752	-0.0739806	-0.569759	0	-107.844	-60.204	11.263	B5-03822-P03-CH1	6349752	OK	0.7324172	-0.676435	0.0774643	0	-102.865	-17.953	-4.9	B5-03822-P04-CH0	6349752	OK	0.7668138	0.3742786	-0.521452	0	-128.908	-42.628	21.246	B5-03822-P04-CH1	6349752	OK	0.7357318	-0.6734159	0.0721795	0	-114.394	-40.608	-9.994	NA
0.119903250188964	B5-03822-P01-CH0	6349760	OK	0.2047054	0.0368848	0.057394	-0.9764431	99.908	-47.542	-296.726	B5-03822-P02-CH0	6349760	OK	0.5160042	0.1226853	-0.8477547	0	-67.376	-99.404	0.183	B5-03822-P02-CH1	6349760	OK	0.7174048	-0.3911383	-0.5764904	0	-77.566	-76.535	-5.536	B5-03822-P03-CH0	6349760	OK	0.819446	-0.0541112	-0.5705964	0	-107.272	-60.199	12.931	B5-03822-P03-CH1	6349760	OK	0.7318803	-0.6769812	0.0777673	0	-102.686	-18.001	-5.117	B5-03822-P04-CH0	6349760	OK	0.7675551	0.372092	-0.521926	0	-128.801	-43.02	21.375	B5-03822-P04-CH1	6349760	OK	0.7354627	-0.6737618	0.0716917	0	-114.312	-40.406	-9.816	NA
0.129895187704712	B5-03822-P01-CH0	6349768	OK	0.2047173	0.0371633	0.0567956	-0.976465	99.988	-47.626	-296.693	B5-03822-P02-CH0	6349768	OK	0.5194264	0.0885706	-0.8499126	0	-67.756	-99.331	0.376	B5-03822-P02-CH1	6349768	OK	0.7248845	-0.4177618	-0.5477385	0	-80.126	-76.874	-5.604	B5-03822-P03-CH0	6349768	OK	0.8202405	-0.0315382	-0.5711487	0	-106.927	-60.2	13.502	B5-03822-P03-CH1	6349768	OK	0.7319115	-0.6769409	0.0778235	0	-102.789	-17.872	-4.977	B5-03822-P04-CH0	6349768	OK	0.7683164	0.3701476	-0.5221884	0	-128.668	-43.387	21.418	B5-03822-P04-CH1	6349768	OK	0.7350068	-0.67422	0.0720581	0	-114.274	-40.559	-9.956	NA
0.139887125220459	B5-03822-P01-CH0	6349776	OK	0.2048193	0.036873	0.057117	-0.9764359	99.898	-47.601	-296.726	B5-03822-P02-CH0	6349776	OK	0.5304595	0.0564789	-0.8458267	0	-66.091	-99.699	1.086	B5-03822-P02-CH1	6349776	OK	0.7354181	-0.4354553	-0.5191713	0	-80.756	-76.587	-6.975	B5-03822-P03-CH0	6349776	OK	0.8207442	-0.0091974	-0.5712219	0	-107.082	-60.419	11.628	B5-03822-P03-CH1	6349776	OK	0.7324164	-0.6763919	0.0778469	0	-102.711	-17.65	-5.076	B5-03822-P04-CH0	6349776	OK	0.7682928	0.3688709	-0.5231256	0	-128.635	-43.471	21.418	B5-03822-P04-CH1	6349776	OK	0.7351779	-0.6739187	0.0731227	0	-114.298	-40.907	-9.157	NA
0.149879062736206	B5-03822-P01-CH0	6349784	OK	0.2045159	0.0371083	0.056253	-0.9765407	100.01	-47.732	-296.85	B5-03822-P02-CH0	6349784	OK	0.5426584	0.0198189	-0.8397196	0	-65.333	-99.726	0.424	B5-03822-P02-CH1	6349784	OK	0.7437547	-0.4421697	-0.5013132	0	-83.105	-77.525	-3.693	B5-03822-P03-CH0	6349784	OK	0.8182164	0.0164957	-0.5746736	0	-107.538	-60.521	10.333	B5-03822-P03-CH1	6349784	OK	0.7317799	-0.6770646	0.0779854	0	-102.892	-17.905	-4.961	B5-03822-P04-CH0	6349784	OK	0.7681223	0.3682772	-0.5237939	0	-128.934	-43.348	21.599	B5-03822-P04-CH1	6349784	OK	0.7338934	-0.6751955	0.0742395	0	-114.294	-41.91	-8.264	NA
0.159871000251953	B5-03822-P01-CH0	6349792	OK	0.2044495	0.0371044	0.0563189	-0.976551	100.018	-47.66	-296.65	B5-03822-P02-CH0	6349792	OK	0.5560531	-0.0211683	-0.8308772	0	-65.097	-98.986	-0.187	B5-03822-P02-CH1	6349792	OK	0.7528893	-0.4379981	-0.4912386	0	-84.269	-78.028	-2.678	B5-03822-P03-CH0	6349792	OK	0.8129385	0.0450243	-0.5806065	0	-107.169	-58.845	8.535	B5-03822-P03-CH1	6349792	OK	0.7315961	-0.67723	0.0782727	0	-102.744	-18.142	-4.685	B5-03822-P04-CH0	6349792	OK	0.7682519	0.3668176	-0.5246274	0	-128.933	-43.488	21.719	B5-03822-P04-CH1	6349792	OK	0.7339583	-0.6751173	0.0743086	0	-114.292	-41.867	-8.407	NA
0.1698629377677	B5-03822-P01-CH0	6349800	OK	0.2044756	0.0368053	0.0564453	-0.9765496	99.949	-47.634	-296.745	B5-03822-P02-CH0	6349800	OK	0.5662079	-0.0591034	-0.8221408	0	-67.402	-99.66	-0.926	B5-03822-P02-CH1	6349800	OK	0.7606196	-0.4225875	-0.4928261	0	-86.652	-78.619	-2.235	B5-03822-P03-CH0	6349800	OK	0.8029471	0.0665228	-0.5923265	0	-107.094	-57.367	8.498	B5-03822-P03-CH1	6349800	OK	0.7316576	-0.6771156	0.0786865	0	-102.624	-18.221	-4.519	B5-03822-P04-CH0	6349800	OK	0.768362	0.3664728	-0.524707	0	-128.901	-43.233	21.525	B5-03822-P04-CH1	6349800	OK	0.7342575	-0.6747825	0.0743943	0	-114.264	-41.83	-8.168	NA
0.179854875283447	B5-03822-P01-CH0	6349808	OK	0.2044212	0.0366077	0.0557518	-0.9766082	99.867	-47.694	-296.681	B5-03822-P02-CH0	6349808	OK	0.5771238	-0.0978954	-0.8107679	0	-67.804	-98.642	-1.039	B5-03822-P02-CH1	6349808	OK	0.7682473	-0.4026592	-0.4976561	0	-87.489	-79.04	-1.241	B5-03822-P03-CH0	6349808	OK	0.7979176	0.0811637	-0.5972771	0	-105.889	-57.265	8.826	B5-03822-P03-CH1	6349808	OK	0.7309204	-0.6778498	0.0792149	0	-102.557	-18.579	-4.413	B5-03822-P04-CH0	6349808	OK	0.7688519	0.3653032	-0.524805	0	-128.794	-43.19	21.514	B5-03822-P04-CH1	6349808	OK	0.7335221	-0.675456	0.0755281	0	-114.241	-42.266	-8.014	NA
0.189846812799194	B5-03822-P01-CH0	6349816	OK	0.204471	0.0362458	0.0558841	-0.9766037	99.833	-47.722	-296.833	B5-03822-P02-CH0	6349816	OK	0.5871181	-0.1240461	-0.7999406	0	-68.234	-99.909	-1.284	B5-03822-P02-CH1	6349816	OK	0.7727513	-0.3862537	-0.5036502	0	-89.411	-79.365	0.039	B5-03822-P03-CH0	6349816	OK	0.7961099	0.0916204	-0.5981761	0	-105.007	-57.137	9.336	B5-03822-P03-CH1	6349816	OK	0.7312153	-0.6775747	0.0788465	0	-102.267	-18.448	-4.431	B5-03822-P04-CH0	6349816	OK	0.768619	0.3641416	-0.5259522	0	-129.033	-43.304	21.487	B5-03822-P04-CH1	6349816	OK	0.7340377	-0.6748965	0.0755206	0	-114.16	-41.809	-9.037	NA
0.199838750314941	B5-03822-P01-CH0	6349824	OK	0.2044663	0.0361817	0.0555626	-0.9766254	99.873	-47.819	-296.812	B5-03822-P02-CH0	6349824	OK	0.5963286	-0.1435412	-0.7898026	0	-68.306	-99.952	-2.661	B5-03822-P02-CH1	6349824	OK	0.7761451	-0.3717385	-0.5093224	0	-91.017	-79.368	-0.162	B5-03822-P03-CH0	6349824	OK	0.7952011	0.0972357	-0.5984984	0	-104.563	-56.798	8.024	B5-03822-P03-CH1	6349824	OK	0.7313955	-0.6774284	0.0784305	0	-102.275	-18.334	-4.503	B5-03822-P04-CH0	6349824	OK	0.7686761	0.3637254	-0.5261567	0	-129.065	-43.184	21.423	B5-03822-P04-CH1	6349824	OK	0.7344115	-0.6745678	0.0748198	0	-114.064	-41.298	-9.454	NA
0.209830687830688	B5-03822-P01-CH0	6349832	OK	0.2044038	0.0363112	0.055552	-0.9766343	100.003	-47.86	-296.765	B5-03822-P02-CH0	6349832	OK	0.6046938	-0.1524714	-0.7817275	0	-67.819	-100.47	-2.861	B5-03822-P02-CH1	6349832	OK	0.7815375	-0.3596093	-0.5097846	0	-91.307	-79.671	0.836	B5-03822-P03-CH0	6349832	OK	0.7935601	0.0959382	-0.6008813	0	-105.337	-57.576	10.387	B5-03822-P03-CH1	6349832	OK	0.7314386	-0.6774417	0.0779123	0	-102.274	-18.343	-4.727	B5-03822-P04-CH0	6349832	OK	0.7680274	0.3636975	-0.5271224	0	-129.472	-43.003	21.405	B5-03822-P04-CH1	6349832	OK	0.7344327	-0.674503	0.0751955	0	-114.151	-41.442	-9.339	NA
0.219822625346435	B5-03822-P01-CH0	6349840	OK	0.2043127	0.0364598	0.0555597	-0.9766474	100.132	-47.891	-296.696	B5-03822-P02-CH0	6349840	OK	0.6082834	-0.1518686	-0.7790554	0	-69.818	-101.728	-2.839	B5-03822-P02-CH1	6349840	OK	0.7879954	-0.3438194	-0.5107363	0	-90.975	-79.43	1.804	B5-03822-P03-CH0	6349840	OK	0.7940741	0.0932816	-0.6006204	0	-105.935	-58.084	7.9	B5-03822-P03-CH1	6349840	OK	0.7314481	-0.6774471	0.0777757	0	-102.386	-18.435	-4.626	B5-03822-P04-CH0	6349840	OK	0.7676489	0.362654	-0.5283912	0	-129.861	-43.078	21.446	B5-03822-P04-CH1	6349840	OK	0.7343854	-0.6744666	0.0759795	0	-114.379	-41.671	-9.452	NA
0.229814562862182	B5-03822-P01-CH0	6349848	OK	0.2046612	0.0360535	0.0571384	-0.9764984	100.143	-47.708	-296.832	B5-03822-P02-CH0	6349848	OK	0.6138144	-0.1405758	-0.7768335	0	-71.512	-101.115	-4.022	B5-03822-P02-CH1	6349848	OK	0.7918991	-0.3298174	-0.5139225	0	-91.971	-79.68	2.142	B5-03822-P03-CH0	6349848	OK	0.7961628	0.0890468	-0.5984944	0	-105.405	-58.355	9.274	B5-03822-P03-CH1	6349848	OK	0.7326874	-0.6761467	0.077426	0	-102.218	-18.17	-4.73	B5-03822-P04-CH0	6349848	OK	0.7671148	0.361787	-0.5297594	0	-130.007	-43.07	21.537	B5-03822-P04-CH1	6349848	OK	0.7352587	-0.67337	0.0772496	0	-114.467	-41.867	-9.172	NA
0.239806500377929	B5-03822-P01-CH0	6349856	OK	0.2047821	0.0359161	0.0573768	-0.9764642	100.079	-47.631	-296.822	B5-03822-P02-CH0	6349856	OK	0.6239466	-0.1140759	-0.7730959	0	-70.879	-101.587	-4.212	B5-03822-P02-CH1	6349856	OK	0.7926952	-0.319851	-0.5189699	0	-92.693	-80.922	3.718	B5-03822-P03-CH0	6349856	OK	0.7958623	0.0777442	-0.6004657	0	-106.538	-57.674	9.493	B5-03822-P03-CH1	6349856	OK	0.7330516	-0.6757808	0.0771731	0	-102.015	-17.985	-4.741	B5-03822-P04-CH0	6349856	OK	0.76736	0.359942	-0.5306604	0	-130.029	-43.237	21.403	B5-03822-P04-CH1	6349856	OK	0.7357809	-0.6728249	0.0770261	0	-114.496	-41.301	-10.113	NA
0.249798437893676	B5-03822-P01-CH0	6349864	OK	0.2051406	0.0355903	0.058183	-0.9763531	99.934	-47.491	-296.646	B5-03822-P02-CH0	6349864	OK	0.6281413	-0.0838676	-0.7735663	0	-73.842	-102.231	-3.112	B5-03822-P02-CH1	6349864	OK	0.7921264	-0.3075784	-0.5271918	0	-92.552	-79.589	2.651	B5-03822-P03-CH0	6349864	OK	0.7984992	0.0560784	-0.5993782	0	-106.476	-57.448	8.796	B5-03822-P03-CH1	6349864	OK	0.7337931	-0.6749755	0.0771735	0	-101.76	-17.735	-5.053	B5-03822-P04-CH0	6349864	OK	0.7671384	0.3584811	-0.5319681	0	-130.106	-43.325	21.06	B5-03822-P04-CH1	6349864	OK	0.7369061	-0.6716192	0.0767927	0	-114.449	-40.466	-11.264	NA
0.259790375409423	B5-03822-P01-CH0	6349872	OK	0.2050369	0.0356269	0.0578889	-0.976391	99.965	-47.621	-296.745	B5-03822-P02-CH0	6349872	OK	0.6326115	-0.04841	-0.7729549	0	-75.567	-101.761	-2.28	B5-03822-P02-CH1	6349872	OK	0.7870452	-0.2980835	-0.5400982	0	-91.338	-78.714	1.581	B5-03822-P03-CH0	6349872	OK	0.7987115	0.0287855	-0.6010252	0	-108.475	-57.894	9.074	B5-03822-P03-CH1	6349872	OK	0.7338952	-0.6748689	0.0771353	0	-101.765	-17.784	-4.881	B5-03822-P04-CH0	6349872	OK	0.7668157	0.3584181	-0.5324755	0	-130.348	-43.117	20.76	B5-03822-P04-CH1	6349872	OK	0.7361922	-0.6722694	0.0779418	0	-114.354	-41.205	-10.819	NA
0.26978231292517	B5-03822-P01-CH0	6349880	OK	0.2051808	0.0354126	0.05831	-0.9763435	99.848	-47.601	-296.689	B5-03822-P02-CH0	6349880	OK	0.6374315	-0.0106032	-0.7704341	0	-75.209	-101.543	-3.195	B5-03822-P02-CH1	6349880	OK	0.7781867	-0.2898869	-0.5571274	0	-89.804	-78.824	0.936	B5-03822-P03-CH0	6349880	OK	0.805128	0.0028934	-0.5930941	0	-107.052	-58.602	10.999	B5-03822-P03-CH1	6349880	OK	0.7342367	-0.6744463	0.0775792	0	-101.819	-17.876	-4.704	B5-03822-P04-CH0	6349880	OK	0.7666421	0.3566275	-0.5339258	0	-130.311	-43.458	20.717	B5-03822-P04-CH1	6349880	OK	0.7364365	-0.6718734	0.0790408	0	-114.326	-41.371	-10.535	NA
0.279774250440917	B5-03822-P01-CH0	6349888	OK	0.2052582	0.0354263	0.0589125	-0.9762906	99.826	-47.54	-296.791	B5-03822-P02-CH0	6349888	OK	0.6390326	0.0310109	-0.7685543	0	-75.079	-101.439	-3.885	B5-03822-P02-CH1	6349888	OK	0.7660278	-0.2843495	-0.5764953	0	-88.742	-78.195	-1.718	B5-03822-P03-CH0	6349888	OK	0.8100654	-0.0222016	-0.585919	0	-107.423	-60.122	9.493	B5-03822-P03-CH1	6349888	OK	0.7349451	-0.6736733	0.0775885	0	-101.894	-17.655	-4.601	B5-03822-P04-CH0	6349888	OK	0.7660623	0.3554321	-0.5355525	0	-130.529	-43.637	20.539	B5-03822-P04-CH1	6349888	OK	0.7369943	-0.671272	0.0789509	0	-114.262	-41.114	-10.816	NA
0.289766187956664	B5-03822-P01-CH0	6349896	OK	0.2054254	0.0357255	0.0591229	-0.9762318	99.838	-47.456	-296.635	B5-03822-P02-CH0	6349896	OK	0.637089	0.0663408	-0.76793	0	-75.428	-101.202	-3.618	B5-03822-P02-CH1	6349896	OK	0.7529969	-0.2844671	-0.5933583	0	-86.619	-77.014	-3.232	B5-03822-P03-CH0	6349896	OK	0.8129693	-0.0480677	-0.5803193	0	-108.16	-60.531	9.543	B5-03822-P03-CH1	6349896	OK	0.7349348	-0.6735881	0.0784219	0	-102.026	-17.946	-4.164	B5-03822-P04-CH0	6349896	OK	0.7660714	0.3543322	-0.5362679	0	-130.372	-43.726	20.515	B5-03822-P04-CH1	6349896	OK	0.7369756	-0.6711645	0.080032	0	-114.485	-41.358	-10.44	NA
0.299758125472411	B5-03822-P01-CH0	6349904	OK	0.2055878	0.0357062	0.0601049	-0.9761384	99.782	-47.289	-296.602	B5-03822-P02-CH0	6349904	OK	0.634449	0.0988285	-0.7666208	0	-74.711	-100.197	-3.378	B5-03822-P02-CH1	6349904	OK	0.7383343	-0.289483	-0.6091486	0	-84.086	-75.436	-4.476	B5-03822-P03-CH0	6349904	OK	0.8181234	-0.0736052	-0.5703125	0	-107.075	-60.721	9.85	B5-03822-P03-CH1	6349904	OK	0.7355286	-0.6728727	0.0789933	0	-102.072	-17.887	-4.036	B5-03822-P04-CH0	6349904	OK	0.765506	0.3536705	-0.5375107	0	-130.383	-43.782	20.505	B5-03822-P04-CH1	6349904	OK	0.7377262	-0.6702145	0.0810719	0	-114.882	-41.392	-10.138	NA
0.309750062988158	B5-03822-P01-CH0	6349912	OK	0.2056376	0.0354599	0.0605033	-0.9761123	99.673	-47.282	-296.812	B5-03822-P02-CH0	6349912	OK	0.6291083	0.1327533	-0.7658978	0	-74.837	-99.402	-2.666	B5-03822-P02-CH1	6349912	OK	0.7218052	-0.2998014	-0.623792	0	-81.044	-74.938	-4.658	B5-03822-P03-CH0	6349912	OK	0.8172199	-0.0990747	-0.5677463	0	-107.995	-61.138	9.547	B5-03822-P03-CH1	6349912	OK	0.7362184	-0.6720899	0.079231	0	-102.245	-17.579	-4.067	B5-03822-P04-CH0	6349912	OK	0.7654312	0.3528016	-0.5381878	0	-130.161	-44.05	20.84	B5-03822-P04-CH1	6349912	OK	0.7380867	-0.6697993	0.0812209	0	-114.902	-41.32	-10.229	NA
0.319742000503905	B5-03822-P01-CH0	6349920	OK	0.2054568	0.0355248	0.0603882	-0.9761551	99.654	-47.281	-296.896	B5-03822-P02-CH0	6349920	OK	0.6201609	0.1625309	-0.767453	0	-76.205	-98.769	-0.724	B5-03822-P02-CH1	6349920	OK	0.7045224	-0.3112753	-0.6377741	0	-79.74	-73.476	-5.989	B5-03822-P03-CH0	6349920	OK	0.8185352	-0.1161278	-0.5625962	0	-107.472	-59.34	8.59	B5-03822-P03-CH1	6349920	OK	0.736243	-0.672052	0.0793242	0	-102.272	-17.55	-4.021	B5-03822-P04-CH0	6349920	OK	0.7652043	0.3533054	-0.5381799	0	-130.064	-44.025	20.737	B5-03822-P04-CH1	6349920	OK	0.7379886	-0.6699466	0.0808975	0	-114.956	-41.114	-10.758	NA
0.329733938019652	B5-03822-P01-CH0	6349928	OK	0.2050685	0.0357289	0.0594385	-0.9762876	99.565	-47.286	-296.802	B5-03822-P02-CH0	6349928	OK	0.615034	0.1877159	-0.7658302	0	-75.765	-99.794	-0.477	B5-03822-P02-CH1	6349928	OK	0.6923865	-0.3237058	-0.6448376	0	-77.133	-73.062	-6.95	B5-03822-P03-CH0	6349928	OK	0.8212626	-0.1367584	-0.5539178	0	-107.612	-60.473	10.247	B5-03822-P03-CH1	6349928	OK	0.7351309	-0.6731818	0.0800552	0	-102.259	-17.958	-3.938	B5-03822-P04-CH0	6349928	OK	0.7648251	0.3545066	-0.537929	0	-130.042	-43.779	20.596	B5-03822-P04-CH1	6349928	OK	0.7377827	-0.670332	0.0795718	0	-115.066	-40.545	-11.22	NA
0.339725875535399	B5-03822-P01-CH0	6349936	OK	0.2049478	0.0360293	0.0589735	-0.9763301	99.615	-47.387	-296.808	B5-03822-P02-CH0	6349936	OK	0.609984	0.196462	-0.7676733	0	-74.108	-98.558	-0.149	B5-03822-P02-CH1	6349936	OK	0.6849839	-0.3278046	-0.6506468	0	-75.711	-73.314	-5.619	B5-03822-P03-CH0	6349936	OK	0.8263095	-0.15046	-0.5427471	0	-107.988	-60.348	9.902	B5-03822-P03-CH1	6349936	OK	0.7343657	-0.6738622	0.0813433	0	-102.447	-18.645	-3.4	B5-03822-P04-CH0	6349936	OK	0.7640677	0.3566098	-0.5376151	0	-130.014	-43.531	20.577	B5-03822-P04-CH1	6349936	OK	0.7371926	-0.6709371	0.0799405	0	-115.178	-41.005	-10.791	NA
0.349717813051146	B5-03822-P01-CH0	6349944	OK	0.2045262	0.0364164	0.058464	-0.9764348	99.719	-47.414	-296.891	B5-03822-P02-CH0	6349944	OK	0.6054524	0.1956394	-0.7714614	0	-72.793	-99.967	0.475	B5-03822-P02-CH1	6349944	OK	0.6792686	-0.3244689	-0.6582661	0	-76.886	-73.341	-4.116	B5-03822-P03-CH0	6349944	OK	0.8318245	-0.1583373	-0.531975	0	-106.654	-60.239	10.428	B5-03822-P03-CH1	6349944	OK	0.7337679	-0.6744791	0.0816254	0	-102.697	-18.967	-2.766	B5-03822-P04-CH0	6349944	OK	0.7636449	0.3580794	-0.5372388	0	-130.034	-43.45	20.72	B5-03822-P04-CH1	6349944	OK	0.7363633	-0.6718319	0.0800685	0	-115.286	-41.509	-10.114	NA
0.359709750566893	B5-03822-P01-CH0	6349952	OK	0.2042578	0.0365726	0.0578833	-0.9765197	99.588	-47.367	-296.751	B5-03822-P02-CH0	6349952	OK	0.6001647	0.1817367	-0.778957	0	-71.35	-99.03	-0.904	B5-03822-P02-CH1	6349952	OK	0.6803937	-0.3224739	-0.6580844	0	-75.777	-72.05	-6.39	B5-03822-P03-CH0	6349952	OK	0.8322554	-0.1676029	-0.5284508	0	-105.68	-61.079	11.65	B5-03822-P03-CH1	6349952	OK	0.7332528	-0.6750308	0.0816933	0	-102.716	-18.799	-3.061	B5-03822-P04-CH0	6349952	OK	0.7635738	0.3581517	-0.5372918	0	-129.912	-43.597	20.78	B5-03822-P04-CH1	6349952	OK	0.7362395	-0.6720947	0.0789947	0	-115.417	-41.036	-10.326	NA
0.36970168808264	B5-03822-P01-CH0	6349960	OK	0.2040038	0.0371866	0.0566926	-0.9766194	99.747	-47.533	-296.696	B5-03822-P02-CH0	6349960	OK	0.5943536	0.1608916	-0.7879452	0	-70.869	-98.881	-2.067	B5-03822-P02-CH1	6349960	OK	0.6798468	-0.3258872	-0.6569672	0	-76.274	-72.108	-6.066	B5-03822-P03-CH0	6349960	OK	0.826698	-0.1706866	-0.536131	0	-106.254	-60.34	10.8	B5-03822-P03-CH1	6349960	OK	0.7320443	-0.6763082	0.0819655	0	-102.71	-19.228	-2.89	B5-03822-P04-CH0	6349960	OK	0.7633564	0.3590393	-0.5370081	0	-130.003	-43.666	20.948	B5-03822-P04-CH1	6349960	OK	0.7355533	-0.6729675	0.0779486	0	-115.602	-40.974	-10.264	NA
0.379693625598387	B5-03822-P01-CH0	6349968	OK	0.2038313	0.0371428	0.056259	-0.9766822	99.61	-47.516	-296.498	B5-03822-P02-CH0	6349968	OK	0.589792	0.1363287	-0.7959647	0	-70.198	-97.294	-1.728	B5-03822-P02-CH1	6349968	OK	0.6818835	-0.3296171	-0.6529835	0	-74.716	-72.628	-5.476	B5-03822-P03-CH0	6349968	OK	0.8232846	-0.1715379	-0.5410889	0	-104.287	-60.01	9.889	B5-03822-P03-CH1	6349968	OK	0.7314502	-0.6769149	0.0822611	0	-102.496	-19.315	-3.099	B5-03822-P04-CH0	6349968	OK	0.7633135	0.3598136	-0.5365508	0	-129.878	-43.566	20.941	B5-03822-P04-CH1	6349968	OK	0.7351168	-0.6734399	0.0779871	0	-115.555	-41.031	-10.062	NA
0.389685563114134	B5-03822-P01-CH0	6349976	OK	0.2034842	0.0371946	0.0558259	-0.9767775	99.577	-47.548	-296.512	B5-03822-P02-CH0	6349976	OK	0.5887966	0.1170044	-0.7997678	0	-69.584	-97.068	0.108	B5-03822-P02-CH1	6349976	OK	0.6815943	-0.3353975	-0.6503366	0	-75.083	-72.965	-5.448	B5-03822-P03-CH0	6349976	OK	0.8162969	-0.1714934	-0.551588	0	-104.687	-59.146	10.012	B5-03822-P03-CH1	6349976	OK	0.7312099	-0.6772231	0.081859	0	-102.55	-19.041	-3.346	B5-03822-P04-CH0	6349976	OK	0.7630791	0.360779	-0.5362358	0	-129.902	-43.527	21.099	B5-03822-P04-CH1	6349976	OK	0.7349326	-0.6737917	0.0766734	0	-115.605	-40.859	-9.427	NA
0.399677500629881	B5-03822-P01-CH0	6349984	OK	0.2034191	0.0372836	0.0554797	-0.9768073	99.571	-47.548	-296.571	B5-03822-P02-CH0	6349984	OK	0.5893431	0.1056874	-0.80094	0	-69.926	-97.355	-0.134	B5-03822-P02-CH1	6349984	OK	0.681321	-0.3381967	-0.6491723	0	-75.564	-72.685	-5.194	B5-03822-P03-CH0	6349984	OK	0.8118541	-0.1734654	-0.5574967	0	-103.515	-59.36	10.151	B5-03822-P03-CH1	6349984	OK	0.730567	-0.6778497	0.0824116	0	-102.68	-19.2	-3.578	B5-03822-P04-CH0	6349984	OK	0.7628709	0.3611359	-0.5362917	0	-129.99	-43.605	21.278	B5-03822-P04-CH1	6349984	OK	0.7345249	-0.6743508	0.0756579	0	-115.384	-40.733	-9.61	NA
0.409669438145629	B5-03822-P01-CH0	6349992	OK	0.2032436	0.0374301	0.055432	-0.976841	99.555	-47.468	-296.418	B5-03822-P02-CH0	6349992	OK	0.5915386	0.0979648	-0.8003031	0	-71.034	-97.074	0.411	B5-03822-P02-CH1	6349992	OK	0.6820934	-0.3368981	-0.6490364	0	-75.536	-71.908	-4.671	B5-03822-P03-CH0	6349992	OK	0.8063685	-0.1749679	-0.564939	0	-102.92	-59.533	9.777	B5-03822-P03-CH1	6349992	OK	0.7302784	-0.6781993	0.0820927	0	-102.495	-19.067	-3.664	B5-03822-P04-CH0	6349992	OK	0.7624979	0.362403	-0.5359673	0	-130.187	-43.239	20.923	B5-03822-P04-CH1	6349992	OK	0.7342807	-0.6747342	0.0746028	0	-115.293	-40.589	-9.661	NA
0.419661375661376	B5-03822-P01-CH0	6350000	OK	0.2030024	0.0371423	0.0560305	-0.976868	99.404	-47.401	-296.343	B5-03822-P02-CH0	6350000	OK	0.6009719	0.088614	-0.7943427	0	-70.619	-96.235	-1.267	B5-03822-P02-CH1	6350000	OK	0.6823507	-0.3308087	-0.651892	0	-75.761	-71.673	-5.65	B5-03822-P03-CH0	6350000	OK	0.8015598	-0.1789694	-0.5705014	0	-102.639	-57.877	7.796	B5-03822-P03-CH1	6350000	OK	0.7304929	-0.6780235	0.0816348	0	-102.359	-18.78	-4.074	B5-03822-P04-CH0	6350000	OK	0.7623488	0.3633114	-0.5355644	0	-130.116	-42.939	20.749	B5-03822-P04-CH1	6350000	OK	0.7343377	-0.6747378	0.0740066	0	-115.056	-40.815	-8.844	NA
0.429653313177123	B5-03822-P01-CH0	6350008	OK	0.20294	0.0371357	0.0560688	-0.976879	99.343	-47.347	-296.25	B5-03822-P02-CH0	6350008	OK	0.6132242	0.0775369	-0.7860942	0	-69.659	-95.483	-3.115	B5-03822-P02-CH1	6350008	OK	0.6812808	-0.3284997	-0.6541746	0	-75.839	-71.872	-6.09	B5-03822-P03-CH0	6350008	OK	0.7983123	-0.1886041	-0.5719493	0	-101.813	-56.387	8.665	B5-03822-P03-CH1	6350008	OK	0.7304289	-0.6781132	0.0814621	0	-102.395	-18.483	-4.364	B5-03822-P04-CH0	6350008	OK	0.7625959	0.3624048	-0.5358267	0	-130.086	-43.08	20.852	B5-03822-P04-CH1	6350008	OK	0.7339518	-0.6751977	0.07364	0	-114.841	-40.967	-8.556	NA
0.43964525069287	B5-03822-P01-CH0	6350016	OK	0.202727	0.0372101	0.055861	-0.9769323	99.347	-47.33	-296.115	B5-03822-P02-CH0	6350016	OK	0.6220546	0.0687845	-0.7799467	0	-71.644	-95.298	-2.556	B5-03822-P02-CH1	6350016	OK	0.685891	-0.3211705	-0.6529955	0	-76.553	-70.827	-6.69	B5-03822-P03-CH0	6350016	OK	0.7861211	-0.1959365	-0.5861932	0	-102.894	-52.884	3.197	B5-03822-P03-CH1	6350016	OK	0.7301079	-0.6785462	0.0807305	0	-102.206	-18.168	-4.991	B5-03822-P04-CH0	6350016	OK	0.7626357	0.3613449	-0.5364854	0	-130.374	-43.193	20.935	B5-03822-P04-CH1	6350016	OK	0.7336792	-0.6756585	0.0721138	0	-114.704	-40.616	-9.322	NA
0.449637188208617	B5-03822-P01-CH0	6350024	OK	0.2028891	0.0368851	0.0568252	-0.9768554	99.249	-47.227	-296.158	B5-03822-P02-CH0	6350024	OK	0.634647	0.0564491	-0.7707378	0	-72.61	-94.512	-2.738	B5-03822-P02-CH1	6350024	OK	0.6917775	-0.3181351	-0.6482546	0	-77.484	-70.566	-6.232	B5-03822-P03-CH0	6350024	OK	0.7689	-0.1949147	-0.6089344	0	-99.43	-52.265	2.623	B5-03822-P03-CH1	6350024	OK	0.730626	-0.6779784	0.0808144	0	-102.084	-17.911	-5.164	B5-03822-P04-CH0	6350024	OK	0.7627862	0.3606511	-0.5367383	0	-130.144	-43.271	21.267	B5-03822-P04-CH1	6350024	OK	0.7346572	-0.6747315	0.0708247	0	-114.769	-40.009	-9.685	NA
0.459629125724364	B5-03822-P01-CH0	6350032	OK	0.2029192	0.0368267	0.0572112	-0.9768288	99.257	-47.188	-296.161	B5-03822-P02-CH0	6350032	OK	0.6458675	0.0439314	-0.7621845	0	-74.036	-94.235	-4.113	B5-03822-P02-CH1	6350032	OK	0.7003983	-0.3139622	-0.6409914	0	-78.914	-70.415	-6.802	B5-03822-P03-CH0	6350032	OK	0.7544317	-0.1866629	-0.6292772	0	-99.662	-53.104	4.87	B5-03822-P03-CH1	6350032	OK	0.7307139	-0.6778741	0.0808947	0	-102.089	-17.818	-5.168	B5-03822-P04-CH0	6350032	OK	0.7626888	0.3604677	-0.5369999	0	-130.261	-43.187	21.301	B5-03822-P04-CH1	6350032	OK	0.7347532	-0.6746683	0.0704298	0	-114.757	-40.106	-9.152	NA
0.469621063240111	B5-03822-P01-CH0	6350040	OK	0.2027893	0.0365373	0.0577733	-0.9768335	99.164	-47.098	-296.164	B5-03822-P02-CH0	6350040	OK	0.6568734	0.0337205	-0.7532465	0	-74.435	-93.84	-4.903	B5-03822-P02-CH1	6350040	OK	0.7083802	-0.3084832	-0.6348509	0	-81.258	-71.144	-6.379	B5-03822-P03-CH0	6350040	OK	0.750003	-0.1724294	-0.6385637	0	-100.314	-52.454	5.04	B5-03822-P03-CH1	6350040	OK	0.7313267	-0.6772906	0.0802419	0	-102.033	-17.144	-5.684	B5-03822-P04-CH0	6350040	OK	0.7630155	0.360546	-0.5364829	0	-130.141	-42.995	21.236	B5-03822-P04-CH1	6350040	OK	0.7350868	-0.6744632	0.0688974	0	-114.662	-39.738	-9.56	NA
0.479613000755858	B5-03822-P01-CH0	6350048	OK	0.2028317	0.0364848	0.0584844	-0.9767844	99.231	-47.129	-296.263	B5-03822-P02-CH0	6350048	OK	0.664746	0.0264941	-0.7465995	0	-75.632	-93.956	-3.891	B5-03822-P02-CH1	6350048	OK	0.7190088	-0.301917	-0.6259972	0	-80.662	-71.178	-6.974	B5-03822-P03-CH0	6350048	OK	0.7496327	-0.1645356	-0.6410764	0	-99.241	-51.147	1.876	B5-03822-P03-CH1	6350048	OK	0.7316063	-0.6769664	0.080429	0	-102.294	-17.148	-5.757	B5-03822-P04-CH0	6350048	OK	0.7628026	0.3609455	-0.536517	0	-130.146	-42.853	21.378	B5-03822-P04-CH1	6350048	OK	0.7355812	-0.6740917	0.0672356	0	-114.522	-39.418	-10.094	NA
0.489604938271605	B5-03822-P01-CH0	6350056	OK	0.2028924	0.0363472	0.0589275	-0.9767503	99.197	-47.141	-296.251	B5-03822-P02-CH0	6350056	OK	0.6721103	0.0214756	-0.7401395	0	-76.194	-94.544	-5.551	B5-03822-P02-CH1	6350056	OK	0.7236076	-0.2967295	-0.6231722	0	-82.1	-72.07	-4.504	B5-03822-P03-CH0	6350056	OK	0.7462315	-0.1600514	-0.6461595	0	-99.392	-51.224	1.138	B5-03822-P03-CH1	6350056	OK	0.7318972	-0.6766758	0.0802271	0	-102.081	-16.914	-5.903	B5-03822-P04-CH0	6350056	OK	0.7630848	0.3605665	-0.5363706	0	-130.036	-42.845	21.33	B5-03822-P04-CH1	6350056	OK	0.7358894	-0.673837	0.066411	0	-114.332	-39.251	-10.441	NA
0.499596875787352	B5-03822-P01-CH0	6350064	OK	0.2029589	0.0358784	0.059712	-0.9767062	99.078	-47.154	-296.368	B5-03822-P02-CH0	6350064	OK	0.6785049	0.0167148	-0.7344057	0	-76.209	-95.095	-5.994	B5-03822-P02-CH1	6350064	OK	0.7267978	-0.2920118	-0.6216865	0	-83.824	-72.366	-2.912	B5-03822-P03-CH0	6350064	OK	0.7456298	-0.1558727	-0.6478734	0	-98.372	-52.1	1.176	B5-03822-P03-CH1	6350064	OK	0.7325944	-0.6759175	0.0802558	0	-101.87	-16.701	-5.618	B5-03822-P04-CH0	6350064	OK	0.7631331	0.3607483	-0.5361796	0	-129.859	-42.591	21.388	B5-03822-P04-CH1	6350064	OK	0.7366873	-0.6730805	0.0652264	0	-114.072	-38.85	-10.722	NA
0.509588813303099	B5-03822-P01-CH0	6350072	OK	0.2028252	0.0358698	0.0591829	-0.9767664	99.047	-47.268	-296.417	B5-03822-P02-CH0	6350072	OK	0.6829622	0.0131875	-0.7303347	0	-76.463	-94.36	-5.984	B5-03822-P02-CH1	6350072	OK	0.7311305	-0.2862212	-0.6192944	0	-83.717	-72.968	-3.168	B5-03822-P03-CH0	6350072	OK	0.7439155	-0.150067	-0.6512063	0	-97.98	-52.8	3.372	B5-03822-P03-CH1	6350072	OK	0.7318725	-0.6766264	0.0808664	0	-101.857	-16.955	-5.573	B5-03822-P04-CH0	6350072	OK	0.7639	0.3597045	-0.5357886	0	-129.668	-42.59	21.53	B5-03822-P04-CH1	6350072	OK	0.7362449	-0.6736451	0.0643877	0	-113.736	-38.899	-10.609	NA
0.519580750818846	B5-03822-P01-CH0	6350080	OK	0.2030583	0.0361383	0.0589728	-0.9767208	99.124	-47.244	-296.396	B5-03822-P02-CH0	6350080	OK	0.6867905	0.0138887	-0.7267227	0	-77.212	-94.621	-5.71	B5-03822-P02-CH1	6350080	OK	0.7339775	-0.2809537	-0.6183381	0	-84.14	-72.543	-3.912	B5-03822-P03-CH0	6350080	OK	0.7414067	-0.1487306	-0.6543663	0	-99.427	-52.152	1.676	B5-03822-P03-CH1	6350080	OK	0.7316463	-0.6767799	0.0816252	0	-101.977	-17.012	-5.277	B5-03822-P04-CH0	6350080	OK	0.7642817	0.3581602	-0.5362787	0	-129.759	-42.654	21.674	B5-03822-P04-CH1	6350080	OK	0.7365481	-0.6734032	0.0634429	0	-113.803	-38.465	-10.599	NA
0.529572688334593	B5-03822-P01-CH0	6350088	OK	0.203035	0.0360397	0.0588838	-0.9767347	99.138	-47.373	-296.402	B5-03822-P02-CH0	6350088	OK	0.6924547	0.0149739	-0.721306	0	-76.971	-94.574	-5.282	B5-03822-P02-CH1	6350088	OK	0.7368802	-0.2802668	-0.6151895	0	-84.71	-72.859	-3.947	B5-03822-P03-CH0	6350088	OK	0.742436	-0.1493376	-0.6530598	0	-98.709	-52.551	1.97	B5-03822-P03-CH1	6350088	OK	0.7316508	-0.6767615	0.0817374	0	-101.97	-16.98	-5.234	B5-03822-P04-CH0	6350088	OK	0.7648998	0.3575338	-0.5358152	0	-129.748	-42.485	21.373	B5-03822-P04-CH1	6350088	OK	0.7368895	-0.6731377	0.0622861	0	-113.812	-38.22	-10.572	NA
0.53956462585034	B5-03822-P01-CH0	6350096	OK	0.2033597	0.0361837	0.0594194	-0.9766294	99.244	-47.324	-296.532	B5-03822-P02-CH0	6350096	OK	0.6948546	0.0154375	-0.7189846	0	-77.981	-94.696	-6.183	B5-03822-P02-CH1	6350096	OK	0.7409218	-0.2793688	-0.6107274	0	-83.967	-73.245	-5.609	B5-03822-P03-CH0	6350096	OK	0.7428891	-0.1500465	-0.6523816	0	-98.957	-51.335	2.037	B5-03822-P03-CH1	6350096	OK	0.7323775	-0.6759365	0.0820551	0	-102.343	-16.656	-5.145	B5-03822-P04-CH0	6350096	OK	0.765488	0.356395	-0.5357338	0	-129.608	-42.516	21.497	B5-03822-P04-CH1	6350096	OK	0.7373003	-0.672647	0.0627239	0	-113.892	-38.464	-9.719	NA
0.549556563366087	B5-03822-P01-CH0	6350104	OK	0.2034199	0.036338	0.0599728	-0.9765773	99.288	-47.212	-296.44	B5-03822-P02-CH0	6350104	OK	0.6952385	0.0159487	-0.7186021	0	-78.988	-94.413	-4.992	B5-03822-P02-CH1	6350104	OK	0.74104	-0.2799378	-0.6103233	0	-85.109	-73.752	-5.964	B5-03822-P03-CH0	6350104	OK	0.742084	-0.1530451	-0.6526014	0	-99.37	-52.309	4.856	B5-03822-P03-CH1	6350104	OK	0.7329127	-0.6753879	0.0817935	0	-102.321	-16.299	-5.378	B5-03822-P04-CH0	6350104	OK	0.7656178	0.3556701	-0.53603	0	-129.735	-42.406	21.569	B5-03822-P04-CH1	6350104	OK	0.7378968	-0.6720353	0.0622645	0	-114.072	-38.18	-9.788	NA
0.559548500881834	B5-03822-P01-CH0	6350112	OK	0.2036045	0.0365284	0.0601547	-0.9765205	99.335	-47.091	-296.445	B5-03822-P02-CH0	6350112	OK	0.695822	0.0175003	-0.718001	0	-79.217	-94.054	-4.105	B5-03822-P02-CH1	6350112	OK	0.7412577	-0.2819997	-0.6091086	0	-85.737	-73.8	-3.599	B5-03822-P03-CH0	6350112	OK	0.7436807	-0.1602059	-0.6490555	0	-99.134	-53.279	3.647	B5-03822-P03-CH1	6350112	OK	0.7330675	-0.6752052	0.0819153	0	-102.369	-16.124	-5.477	B5-03822-P04-CH0	6350112	OK	0.765963	0.3552446	-0.535819	0	-129.741	-42.103	21.496	B5-03822-P04-CH1	6350112	OK	0.7384156	-0.6715569	0.0612678	0	-114.07	-37.595	-10.081	NA
0.569540438397581	B5-03822-P01-CH0	6350120	OK	0.203855	0.0366078	0.0602588	-0.9764588	99.425	-47.139	-296.513	B5-03822-P02-CH0	6350120	OK	0.6961263	0.0184631	-0.7176819	0	-79.339	-95.27	-3.799	B5-03822-P02-CH1	6350120	OK	0.7411699	-0.2848798	-0.6078739	0	-85.946	-74.102	-3.816	B5-03822-P03-CH0	6350120	OK	0.7437955	-0.1562858	-0.6498792	0	-99.096	-52.577	2.905	B5-03822-P03-CH1	6350120	OK	0.7332138	-0.675031	0.0820407	0	-102.243	-16.169	-5.385	B5-03822-P04-CH0	6350120	OK	0.7663177	0.3543283	-0.5359185	0	-129.713	-42.118	21.648	B5-03822-P04-CH1	6350120	OK	0.7380771	-0.6718312	0.0623299	0	-113.923	-38.232	-9.618	NA
0.579532375913328	B5-03822-P01-CH0	6350128	OK	0.204021	0.0366194	0.0596588	-0.9764606	99.34	-47.094	-296.469	B5-03822-P02-CH0	6350128	OK	0.6977021	0.0208474	-0.7160846	0	-78.487	-95.838	-6.401	B5-03822-P02-CH1	6350128	OK	0.7399787	-0.2856062	-0.6089832	0	-86.217	-73.858	-5.504	B5-03822-P03-CH0	6350128	OK	0.7437537	-0.1568158	-0.6497994	0	-99.095	-52.487	2.456	B5-03822-P03-CH1	6350128	OK	0.7328298	-0.675426	0.0822208	0	-101.981	-16.091	-5.372	B5-03822-P04-CH0	6350128	OK	0.7670221	0.3525437	-0.5360876	0	-129.731	-42.152	21.583	B5-03822-P04-CH1	6350128	OK	0.7376532	-0.6722049	0.063311	0	-114.14	-38.519	-9.186	NA
0.589524313429075	B5-03822-P01-CH0	6350136	OK	0.2040976	0.036578	0.059117	-0.9764791	99.257	-47.074	-296.492	B5-03822-P02-CH0	6350136	OK	0.697378	0.0258595	-0.7162369	0	-78.195	-96.144	-4.925	B5-03822-P02-CH1	6350136	OK	0.7402172	-0.2880077	-0.6075608	0	-84.912	-73.447	-5.931	B5-03822-P03-CH0	6350136	OK	0.748548	-0.1665189	-0.6418312	0	-99.06	-51.597	1.757	B5-03822-P03-CH1	6350136	OK	0.7321893	-0.6760615	0.0827021	0	-101.907	-16.306	-5.375	B5-03822-P04-CH0	6350136	OK	0.7675519	0.3520016	-0.5356855	0	-129.648	-41.891	21.555	B5-03822-P04-CH1	6350136	OK	0.7368783	-0.6729794	0.0641023	0	-114.035	-38.996	-8.898	NA
0.599516250944822	B5-03822-P01-CH0	6350144	OK	0.2041679	0.0368186	0.0589365	-0.9764662	99.304	-46.995	-296.419	B5-03822-P02-CH0	6350144	OK	0.6961017	0.0304981	-0.7172951	0	-78.303	-94.761	-6.282	B5-03822-P02-CH1	6350144	OK	0.7369178	-0.2903377	-0.6104558	0	-85.389	-72.726	-4.355	B5-03822-P03-CH0	6350144	OK	0.7505322	-0.1722099	-0.6380009	0	-98.769	-52.024	2.129	B5-03822-P03-CH1	6350144	OK	0.7320231	-0.6762348	0.082757	0	-102.052	-16.281	-5.395	B5-03822-P04-CH0	6350144	OK	0.7679341	0.3510528	-0.5357604	0	-129.747	-41.963	21.565	B5-03822-P04-CH1	6350144	OK	0.7367497	-0.673084	0.0644808	0	-114.265	-38.9	-9.364	NA
0.609508188460569	B5-03822-P01-CH0	6350152	OK	0.2045453	0.0368638	0.0595598	-0.9763477	99.343	-46.878	-296.406	B5-03822-P02-CH0	6350152	OK	0.6943065	0.035748	-0.7187911	0	-78.378	-95.031	-3.91	B5-03822-P02-CH1	6350152	OK	0.7346837	-0.2958998	-0.6104778	0	-85.167	-72.502	-3.332	B5-03822-P03-CH0	6350152	OK	0.7538072	-0.1756615	-0.6331807	0	-98.137	-51.869	2.089	B5-03822-P03-CH1	6350152	OK	0.7324789	-0.6757304	0.0828443	0	-102.035	-16.235	-5.401	B5-03822-P04-CH0	6350152	OK	0.7679698	0.3509018	-0.535808	0	-129.75	-42.036	21.552	B5-03822-P04-CH1	6350152	OK	0.7377479	-0.6719563	0.0648289	0	-114.7	-38.483	-9.409	NA
0.619500125976316	B5-03822-P01-CH0	6350160	OK	0.2045529	0.0368182	0.0593912	-0.9763581	99.384	-46.994	-296.482	B5-03822-P02-CH0	6350160	OK	0.6936355	0.0414477	-0.7191327	0	-77.78	-94.32	-4.386	B5-03822-P02-CH1	6350160	OK	0.7328283	-0.2997699	-0.6108197	0	-84.76	-73.363	-4.862	B5-03822-P03-CH0	6350160	OK	0.7551547	-0.1816738	-0.6298699	0	-98.704	-52.324	2.105	B5-03822-P03-CH1	6350160	OK	0.7323703	-0.6758991	0.0824268	0	-101.82	-16.32	-5.393	B5-03822-P04-CH0	6350160	OK	0.7683944	0.3518604	-0.5345692	0	-129.596	-41.937	21.438	B5-03822-P04-CH1	6350160	OK	0.7375878	-0.6720799	0.0653666	0	-114.835	-38.631	-9.831	NA
0.629492063492063	B5-03822-P01-CH0	6350168	OK	0.2044453	0.0371386	0.0592111	-0.9763795	99.489	-46.988	-296.388	B5-03822-P02-CH0	6350168	OK	0.6918058	0.0455556	-0.7206452	0	-77.621	-94.287	-4.63	B5-03822-P02-CH1	6350168	OK	0.730693	-0.3023305	-0.6121144	0	-84.52	-73.402	-5.209	B5-03822-P03-CH0	6350168	OK	0.7568587	-0.186223	-0.626487	0	-98.922	-53.105	3.468	B5-03822-P03-CH1	6350168	OK	0.7319337	-0.6763883	0.0822914	0	-101.875	-16.608	-5.438	B5-03822-P04-CH0	6350168	OK	0.7684336	0.3529134	-0.5338182	0	-129.599	-41.92	21.545	B5-03822-P04-CH1	6350168	OK	0.7372751	-0.6723623	0.0659868	0	-114.969	-38.855	-9.89	NA
0.63948400100781	B5-03822-P01-CH0	6350176	OK	0.2043657	0.0369328	0.0593199	-0.9763974	99.403	-46.981	-296.473	B5-03822-P02-CH0	6350176	OK	0.6887519	0.0497585	-0.7232876	0	-77.513	-95.349	-5.355	B5-03822-P02-CH1	6350176	OK	0.7300589	-0.3032137	-0.612434	0	-83.033	-73.276	-4.929	B5-03822-P03-CH0	6350176	OK	0.7580404	-0.1901935	-0.6238599	0	-98.94	-52.728	4.733	B5-03822-P03-CH1	6350176	OK	0.7318777	-0.6764759	0.0820697	0	-101.654	-16.7	-5.436	B5-03822-P04-CH0	6350176	OK	0.7682648	0.354507	-0.5330047	0	-129.532	-41.726	21.638	B5-03822-P04-CH1	6350176	OK	0.7374149	-0.672226	0.0658131	0	-114.844	-38.618	-10.372	NA
0.649475938523557	B5-03822-P01-CH0	6350184	OK	0.2044033	0.0370238	0.058333	-0.9764455	99.402	-47.109	-296.437	B5-03822-P02-CH0	6350184	OK	0.6858996	0.0535459	-0.7257235	0	-76.359	-94.792	-6.454	B5-03822-P02-CH1	6350184	OK	0.7264183	-0.3061628	-0.6152892	0	-82.981	-72.842	-5.772	B5-03822-P03-CH0	6350184	OK	0.7575425	-0.1952531	-0.6229009	0	-99.908	-52.448	3.692	B5-03822-P03-CH1	6350184	OK	0.7313229	-0.6770518	0.0822662	0	-101.775	-16.853	-5.435	B5-03822-P04-CH0	6350184	OK	0.7686276	0.3554453	-0.5318555	0	-129.41	-41.713	21.498	B5-03822-P04-CH1	6350184	OK	0.7368086	-0.6728374	0.0663542	0	-114.707	-38.734	-10.657	NA
0.659467876039305	B5-03822-P01-CH0	6350192	OK	0.2045965	0.0368592	0.0592949	-0.9763533	99.413	-47.007	-296.564	B5-03822-P02-CH0	6350192	OK	0.6811334	0.059547	-0.7297338	0	-75.635	-94.25	-6.957	B5-03822-P02-CH1	6350192	OK	0.721748	-0.3076008	-0.6200497	0	-83.574	-72.447	-4.931	B5-03822-P03-CH0	6350192	OK	0.7589763	-0.2009579	-0.619331	0	-98.822	-53.655	4.814	B5-03822-P03-CH1	6350192	OK	0.7318764	-0.6764536	0.0822647	0	-101.774	-17.011	-5.111	B5-03822-P04-CH0	6350192	OK	0.7684013	0.3562194	-0.5316645	0	-129.275	-41.918	21.894	B5-03822-P04-CH1	6350192	OK	0.7374183	-0.6720514	0.0675362	0	-114.904	-38.956	-10.191	NA
0.669459813555052	B5-03822-P01-CH0	6350200	OK	0.2046696	0.0366741	0.0598188	-0.976313	99.372	-46.931	-296.564	B5-03822-P02-CH0	6350200	OK	0.6770795	0.0623398	-0.7332647	0	-74.659	-94.4	-7.328	B5-03822-P02-CH1	6350200	OK	0.7174283	-0.3070123	-0.6253319	0	-83.291	-72.088	-6.24	B5-03822-P03-CH0	6350200	OK	0.7578401	-0.2048463	-0.6194484	0	-99.339	-53.056	2.983	B5-03822-P03-CH1	6350200	OK	0.7321086	-0.6761497	0.0826959	0	-102.033	-17.196	-4.976	B5-03822-P04-CH0	6350200	OK	0.768118	0.3573937	-0.5312856	0	-129.296	-41.928	21.771	B5-03822-P04-CH1	6350200	OK	0.7379329	-0.6714653	0.0677446	0	-114.947	-38.734	-10.578	NA
0.679451751070799	B5-03822-P01-CH0	6350208	OK	0.2045741	0.0368907	0.0599961	-0.976314	99.572	-47.01	-296.716	B5-03822-P02-CH0	6350208	OK	0.6709317	0.0655434	-0.7386168	0	-74.984	-94.063	-5.627	B5-03822-P02-CH1	6350208	OK	0.714273	-0.3060185	-0.6294178	0	-83.028	-71.452	-7.862	B5-03822-P03-CH0	6350208	OK	0.7569147	-0.2084377	-0.6193818	0	-99.393	-52.737	3.475	B5-03822-P03-CH1	6350208	OK	0.7323964	-0.6759103	0.0821023	0	-102.236	-17.251	-4.664	B5-03822-P04-CH0	6350208	OK	0.7680096	0.3589806	-0.5303718	0	-129.28	-42.025	21.938	B5-03822-P04-CH1	6350208	OK	0.7382863	-0.6711383	0.0671327	0	-114.792	-38.551	-10.525	NA
0.689443688586546	B5-03822-P01-CH0	6350216	OK	0.2045465	0.0368158	0.0602664	-0.9763059	99.614	-47.12	-296.623	B5-03822-P02-CH0	6350216	OK	0.6659337	0.0684619	-0.7428629	0	-75.395	-94.085	-6.175	B5-03822-P02-CH1	6350216	OK	0.7134077	-0.301879	-0.6323911	0	-81.556	-71.931	-7.468	B5-03822-P03-CH0	6350216	OK	0.7572224	-0.2092288	-0.6187387	0	-99.287	-52.829	2.446	B5-03822-P03-CH1	6350216	OK	0.73263	-0.675699	0.0817572	0	-102.153	-17.365	-4.597	B5-03822-P04-CH0	6350216	OK	0.7677159	0.3598973	-0.5301757	0	-129.333	-42.261	21.872	B5-03822-P04-CH1	6350216	OK	0.7386845	-0.6707017	0.0671153	0	-114.918	-38.358	-11.14	NA
0.699435626102293	B5-03822-P01-CH0	6350224	OK	0.2045213	0.0370432	0.0600725	-0.9763146	99.742	-47.222	-296.688	B5-03822-P02-CH0	6350224	OK	0.6628078	0.0714601	-0.7453719	0	-75.811	-95.134	-4.37	B5-03822-P02-CH1	6350224	OK	0.7091964	-0.2995015	-0.6382313	0	-82.799	-72.982	-5.334	B5-03822-P03-CH0	6350224	OK	0.7573542	-0.209554	-0.6184672	0	-99.191	-53.34	3.865	B5-03822-P03-CH1	6350224	OK	0.732143	-0.6762003	0.0819744	0	-102.151	-17.852	-4.459	B5-03822-P04-CH0	6350224	OK	0.7676111	0.3615575	-0.5291968	0	-129.262	-42.184	21.71	B5-03822-P04-CH1	6350224	OK	0.738196	-0.671187	0.0676363	0	-114.785	-38.975	-10.453	NA
0.70942756361804	B5-03822-P01-CH0	6350232	OK	0.2043008	0.037105	0.0594671	-0.9763954	99.794	-47.289	-296.742	B5-03822-P02-CH0	6350232	OK	0.6623663	0.0726483	-0.7456495	0	-75.627	-95.491	-4.809	B5-03822-P02-CH1	6350232	OK	0.7078327	-0.2978427	-0.6405174	0	-82.738	-73.527	-5.214	B5-03822-P03-CH0	6350232	OK	0.7580262	-0.2069323	-0.6185267	0	-99.486	-52.639	3.945	B5-03822-P03-CH1	6350232	OK	0.732051	-0.6763608	0.0814704	0	-102.312	-17.635	-4.666	B5-03822-P04-CH0	6350232	OK	0.7676315	0.3629195	-0.5282341	0	-129.256	-42.029	21.602	B5-03822-P04-CH1	6350232	OK	0.7373893	-0.672047	0.0678955	0	-114.644	-39.371	-10.244	NA
0.719419501133787	B5-03822-P01-CH0	6350240	OK	0.2044844	0.0370484	0.0600696	-0.9763223	99.829	-47.203	-296.82	B5-03822-P02-CH0	6350240	OK	0.6620239	0.073688	-0.7458515	0	-75.253	-94.32	-5.278	B5-03822-P02-CH1	6350240	OK	0.709579	-0.2980482	-0.6384864	0	-81.137	-72.063	-8.546	B5-03822-P03-CH0	6350240	OK	0.757102	-0.2069434	-0.6196539	0	-100.583	-52.511	4.599	B5-03822-P03-CH1	6350240	OK	0.7325545	-0.675799	0.0816063	0	-102.495	-17.539	-4.771	B5-03822-P04-CH0	6350240	OK	0.7669822	0.3639341	-0.5284792	0	-129.376	-42.043	21.438	B5-03822-P04-CH1	6350240	OK	0.7378937	-0.6714796	0.0680296	0	-114.808	-39.29	-10.181	NA
0.729411438649534	B5-03822-P01-CH0	6350248	OK	0.2049089	0.0365557	0.0608902	-0.976201	99.69	-47.102	-296.99	B5-03822-P02-CH0	6350248	OK	0.6614834	0.074634	-0.7462368	0	-75.48	-94.365	-4.781	B5-03822-P02-CH1	6350248	OK	0.7088327	-0.2966341	-0.6399722	0	-81.243	-72.362	-6.012	B5-03822-P03-CH0	6350248	OK	0.758072	-0.2054924	-0.6189506	0	-99.617	-53.331	4.017	B5-03822-P03-CH1	6350248	OK	0.7335377	-0.6747153	0.0817418	0	-102.353	-17.216	-4.646	B5-03822-P04-CH0	6350248	OK	0.7663175	0.3650716	-0.5286588	0	-129.315	-41.851	21.33	B5-03822-P04-CH1	6350248	OK	0.7386059	-0.6706462	0.06852	0	-114.711	-39.138	-10.116	NA
0.739403376165281	B5-03822-P01-CH0	6350256	OK	0.2047744	0.0363967	0.0606544	-0.9762498	99.603	-47.169	-296.92	B5-03822-P02-CH0	6350256	OK	0.6622466	0.0767692	-0.7453428	0	-75.435	-93.774	-5.225	B5-03822-P02-CH1	6350256	OK	0.7085253	-0.2958678	-0.640667	0	-81.497	-72.437	-5.403	B5-03822-P03-CH0	6350256	OK	0.758549	-0.2069007	-0.617896	0	-99.514	-53.203	3.705	B5-03822-P03-CH1	6350256	OK	0.7331213	-0.6751554	0.0818431	0	-102.241	-17.529	-4.519	B5-03822-P04-CH0	6350256	OK	0.7663333	0.3658337	-0.5281088	0	-129.222	-41.767	20.97	B5-03822-P04-CH1	6350256	OK	0.7380673	-0.6711825	0.0690705	0	-114.524	-39.601	-9.686	NA
0.749395313681028	B5-03822-P01-CH0	6350264	OK	0.2049815	0.0361587	0.0611482	-0.9761844	99.547	-47.131	-296.901	B5-03822-P02-CH0	6350264	OK	0.6630061	0.0792201	-0.7444105	0	-75.818	-95.019	-3.416	B5-03822-P02-CH1	6350264	OK	0.7085667	-0.2927452	-0.6420541	0	-82.074	-72.26	-6.838	B5-03822-P03-CH0	6350264	OK	0.7592342	-0.2081526	-0.6166327	0	-99.504	-53.013	3.397	B5-03822-P03-CH1	6350264	OK	0.7331423	-0.6750803	0.0822739	0	-102.102	-17.803	-4.441	B5-03822-P04-CH0	6350264	OK	0.7659017	0.3662976	-0.5284133	0	-129.209	-41.742	20.835	B5-03822-P04-CH1	6350264	OK	0.7381167	-0.6710952	0.0693897	0	-114.31	-39.824	-9.529	NA
0.759387251196775	B5-03822-P01-CH0	6350272	OK	0.204979	0.0363367	0.0605266	-0.9762171	99.634	-47.236	-296.941	B5-03822-P02-CH0	6350272	OK	0.6640312	0.083442	-0.7430343	0	-76.035	-95.037	-5.75	B5-03822-P02-CH1	6350272	OK	0.70922	-0.2880381	-0.6434602	0	-81.998	-72.485	-6.722	B5-03822-P03-CH0	6350272	OK	0.7640068	-0.2098357	-0.6101333	0	-99.785	-52.265	3.496	B5-03822-P03-CH1	6350272	OK	0.7328392	-0.6754325	0.0820837	0	-102.137	-17.817	-4.573	B5-03822-P04-CH0	6350272	OK	0.7656019	0.367485	-0.5280232	0	-129.349	-41.489	20.634	B5-03822-P04-CH1	6350272	OK	0.7376031	-0.6716871	0.0691245	0	-114.142	-39.896	-9.775	NA
0.769379188712522	B5-03822-P01-CH0	6350280	OK	0.2050797	0.0364905	0.0605531	-0.9761885	99.705	-47.217	-297.009	B5-03822-P02-CH0	6350280	OK	0.6639064	0.0757618	-0.743968	0	-75.313	-94.498	-4.73	B5-03822-P02-CH1	6350280	OK	0.7103108	-0.2949431	-0.6391143	0	-81.406	-72.614	-6.083	B5-03822-P03-CH0	6350280	OK	0.7650348	-0.2112876	-0.6083415	0	-100.353	-51.78	1.997	B5-03822-P03-CH1	6350280	OK	0.7330147	-0.6752971	0.081629	0	-101.989	-17.739	-4.556	B5-03822-P04-CH0	6350280	OK	0.7653316	0.3678189	-0.5281825	0	-129.464	-41.524	20.665	B5-03822-P04-CH1	6350280	OK	0.7376537	-0.6716294	0.0691443	0	-114.274	-39.94	-9.271	NA
0.779371126228269	B5-03822-P01-CH0	6350288	OK	0.2053246	0.0361215	0.0609957	-0.9761232	99.518	-47.132	-296.97	B5-03822-P02-CH0	6350288	OK	0.6636192	0.0775714	-0.7440378	0	-75.263	-94.284	-5.161	B5-03822-P02-CH1	6350288	OK	0.7095622	-0.2767792	-0.6480083	0	-81.292	-72.795	-6.398	B5-03822-P03-CH0	6350288	OK	0.7665734	-0.2129598	-0.6058162	0	-99.862	-53.246	3.453	B5-03822-P03-CH1	6350288	OK	0.7334653	-0.6748146	0.0815714	0	-101.732	-17.524	-4.937	B5-03822-P04-CH0	6350288	OK	0.7651709	0.3681819	-0.5281624	0	-129.218	-41.454	20.645	B5-03822-P04-CH1	6350288	OK	0.7379664	-0.671229	0.0696941	0	-114.222	-39.957	-9.048	NA
0.789363063744016	B5-03822-P01-CH0	6350296	OK	0.2054064	0.0362001	0.0607571	-0.976118	99.545	-47.111	-297.104	B5-03822-P02-CH0	6350296	OK	0.6627217	0.0885703	-0.7436096	0	-76.557	-94.529	-4.436	B5-03822-P02-CH1	6350296	OK	0.708702	-0.2718613	-0.6510245	0	-82.204	-72.396	-5.399	B5-03822-P03-CH0	6350296	OK	0.7690473	-0.2132351	-0.6025753	0	-98.998	-53.698	3.621	B5-03822-P03-CH1	6350296	OK	0.7335869	-0.6747217	0.0812461	0	-101.837	-17.313	-5.304	B5-03822-P04-CH0	6350296	OK	0.7651292	0.3686233	-0.527915	0	-129.226	-41.42	20.703	B5-03822-P04-CH1	6350296	OK	0.7377546	-0.6714603	0.0697078	0	-114.137	-40.009	-8.879	NA
0.799355001259763	B5-03822-P01-CH0	6350304	OK	0.205061	0.0363987	0.059423	-0.9762653	99.565	-47.253	-297.043	B5-03822-P02-CH0	6350304	OK	0.6628758	0.0914345	-0.7431254	0	-76.109	-94.873	-4.462	B5-03822-P02-CH1	6350304	OK	0.7080234	-0.2650201	-0.6545741	0	-82.622	-71.592	-5.834	B5-03822-P03-CH0	6350304	OK	0.7693339	-0.2134381	-0.6021374	0	-99.199	-54.046	4.394	B5-03822-P03-CH1	6350304	OK	0.7332156	-0.6752776	0.0799686	0	-101.723	-16.96	-5.731	B5-03822-P04-CH0	6350304	OK	0.7654327	0.368539	-0.5275337	0	-129.375	-41.506	20.63	B5-03822-P04-CH1	6350304	OK	0.7372484	-0.6721312	0.0685894	0	-114.318	-39.567	-9.332	NA
0.80934693877551	B5-03822-P01-CH0	6350312	OK	0.2054115	0.0365528	0.0601323	-0.9761425	99.722	-47.241	-297.142	B5-03822-P02-CH0	6350312	OK	0.6632758	0.0838188	-0.7436663	0	-75.546	-94.368	-4.719	B5-03822-P02-CH1	6350312	OK	0.7089848	-0.2600932	-0.6555091	0	-81.931	-71.574	-7.121	B5-03822-P03-CH0	6350312	OK	0.7694367	-0.2131966	-0.6020916	0	-99.483	-54.088	4.158	B5-03822-P03-CH1	6350312	OK	0.7338428	-0.6745778	0.0801221	0	-101.774	-17.127	-5.419	B5-03822-P04-CH0	6350312	OK	0.7648462	0.3683526	-0.5285136	0	-129.567	-41.916	20.922	B5-03822-P04-CH1	6350312	OK	0.7380644	-0.6712566	0.0683775	0	-114.618	-39.334	-9.31	NA
0.819338876291257	B5-03822-P01-CH0	6350320	OK	0.2051664	0.0368447	0.0594815	-0.9762229	99.786	-47.296	-297.053	B5-03822-P02-CH0	6350320	OK	0.6631919	0.0866486	-0.7434168	0	-75.659	-94.556	-4.436	B5-03822-P02-CH1	6350320	OK	0.7074799	-0.2577633	-0.6580504	0	-82.442	-72.477	-6.147	B5-03822-P03-CH0	6350320	OK	0.7683165	-0.2104732	-0.6044756	0	-99.768	-53.721	5.392	B5-03822-P03-CH1	6350320	OK	0.7334284	-0.6750494	0.0799442	0	-101.89	-17.417	-5.047	B5-03822-P04-CH0	6350320	OK	0.7648891	0.3689202	-0.5280554	0	-129.476	-41.898	21.325	B5-03822-P04-CH1	6350320	OK	0.7370098	-0.6723533	0.0689758	0	-114.386	-40.067	-8.326	NA
0.829330813807004	B5-03822-P01-CH0	6350328	OK	0.2048818	0.0370708	0.0588955	-0.9763096	99.884	-47.399	-297.078	B5-03822-P02-CH0	6350328	OK	0.663044	0.0895225	-0.7432082	0	-75.78	-94.917	-4.068	B5-03822-P02-CH1	6350328	OK	0.7048641	-0.2546841	-0.6620443	0	-83.511	-73.445	-4.519	B5-03822-P03-CH0	6350328	OK	0.7676979	-0.2071929	-0.6063919	0	-100.056	-53.187	6.332	B5-03822-P03-CH1	6350328	OK	0.7327588	-0.6757699	0.0799969	0	-102.065	-17.91	-4.745	B5-03822-P04-CH0	6350328	OK	0.7650643	0.3689163	-0.5278043	0	-129.497	-42.128	21.533	B5-03822-P04-CH1	6350328	OK	0.7363643	-0.6730799	0.0687832	0	-114.434	-40.376	-8.122	NA
0.839322751322751	B5-03822-P01-CH0	6350336	OK	0.2052876	0.0371174	0.0594014	-0.976192	99.956	-47.348	-297.23	B5-03822-P02-CH0	6350336	OK	0.6626056	0.0913128	-0.7433813	0	-75.804	-95.203	-3.757	B5-03822-P02-CH1	6350336	OK	0.7073762	-0.2506976	-0.6608855	0	-81.816	-73.073	-7.243	B5-03822-P03-CH0	6350336	OK	0.7667324	-0.2112008	-0.6062307	0	-100.117	-53.124	4.046	B5-03822-P03-CH1	6350336	OK	0.7331671	-0.6752736	0.0804462	0	-102.219	-18.071	-4.458	B5-03822-P04-CH0	6350336	OK	0.7646724	0.3689424	-0.5283536	0	-129.527	-42.33	21.761	B5-03822-P04-CH1	6350336	OK	0.7371164	-0.6722928	0.0684238	0	-114.676	-40.042	-8.019	NA
0.849314688838498	B5-03822-P01-CH0	6350344	OK	0.2051681	0.0372974	0.0590087	-0.9762341	100.001	-47.349	-297.143	B5-03822-P02-CH0	6350344	OK	0.6619305	0.0938642	-0.743665	0	-75.998	-95.319	-3.446	B5-03822-P02-CH1	6350344	OK	0.7061656	-0.2466239	-0.6637069	0	-82.396	-72.783	-5.357	B5-03822-P03-CH0	6350344	OK	0.7670763	-0.2107036	-0.6059686	0	-100.15	-53.205	4.213	B5-03822-P03-CH1	6350344	OK	0.7332792	-0.6752421	0.0796855	0	-102.234	-17.737	-4.805	B5-03822-P04-CH0	6350344	OK	0.7647001	0.3698748	-0.5276613	0	-129.55	-42.149	21.46	B5-03822-P04-CH1	6350344	OK	0.7367939	-0.6726728	0.0681617	0	-114.604	-39.989	-8.144	NA
0.859306626354245	B5-03822-P01-CH0	6350352	OK	0.2052366	0.0372466	0.0590791	-0.9762173	99.956	-47.374	-297.009	B5-03822-P02-CH0	6350352	OK	0.6611721	0.0955781	-0.7441212	0	-76.165	-95.43	-3.4	B5-03822-P02-CH1	6350352	OK	0.7060645	-0.2441036	-0.6647453	0	-82.355	-73.055	-4.488	B5-03822-P03-CH0	6350352	OK	0.767427	-0.2103624	-0.6056431	0	-100.014	-53.54	4.423	B5-03822-P03-CH1	6350352	OK	0.7332245	-0.6752413	0.0801937	0	-102.292	-17.975	-4.9	B5-03822-P04-CH0	6350352	OK	0.7648302	0.3696424	-0.5276355	0	-129.464	-42.406	21.313	B5-03822-P04-CH1	6350352	OK	0.7372792	-0.6721805	0.06777	0	-114.521	-39.493	-8.827	NA
0.869298563869992	B5-03822-P01-CH0	6350360	OK	0.2053169	0.0375201	0.0586294	-0.9762171	100.089	-47.435	-297.046	B5-03822-P02-CH0	6350360	OK	0.6605634	0.0975341	-0.7444079	0	-76.35	-95.597	-3.409	B5-03822-P02-CH1	6350360	OK	0.7064627	-0.2409445	-0.6654744	0	-82.468	-73.248	-5.392	B5-03822-P03-CH0	6350360	OK	0.767303	-0.2096737	-0.6060389	0	-100.116	-53.793	4.918	B5-03822-P03-CH1	6350360	OK	0.7328536	-0.6756132	0.080451	0	-102.526	-18.138	-5.059	B5-03822-P04-CH0	6350360	OK	0.7646038	0.3700765	-0.5276593	0	-129.649	-42.359	21.242	B5-03822-P04-CH1	6350360	OK	0.7369313	-0.6725906	0.0674842	0	-114.425	-39.563	-8.798	NA
0.879290501385739	B5-03822-P01-CH0	6350368	OK	0.2051833	0.0379494	0.0583812	-0.9762435	100.321	-47.466	-296.996	B5-03822-P02-CH0	6350368	OK	0.6600089	0.0994878	-0.7446412	0	-76.6	-95.72	-3.399	B5-03822-P02-CH1	6350368	OK	0.7078842	-0.2373742	-0.665247	0	-82.071	-73.463	-6.496	B5-03822-P03-CH0	6350368	OK	0.767175	-0.2084499	-0.6066228	0	-100.271	-53.876	5.158	B5-03822-P03-CH1	6350368	OK	0.7327838	-0.6757376	0.0800416	0	-102.764	-18.145	-5.027	B5-03822-P04-CH0	6350368	OK	0.7644489	0.3705179	-0.5275741	0	-129.915	-42.434	21.148	B5-03822-P04-CH1	6350368	OK	0.7364799	-0.6731039	0.0672945	0	-114.709	-39.772	-8.908	NA
0.889282438901486	B5-03822-P01-CH0	6350376	OK	0.2051539	0.0381473	0.058488	-0.9762355	100.396	-47.388	-296.878	B5-03822-P02-CH0	6350376	OK	0.6593435	0.1010175	-0.7450246	0	-76.894	-95.633	-3.425	B5-03822-P02-CH1	6350376	OK	0.7098682	-0.233479	-0.6645108	0	-81.092	-74.085	-6.07	B5-03822-P03-CH0	6350376	OK	0.7670464	-0.2069626	-0.6072942	0	-100.422	-53.739	5.126	B5-03822-P03-CH1	6350376	OK	0.7325947	-0.6759149	0.0802748	0	-102.818	-18.356	-4.826	B5-03822-P04-CH0	6350376	OK	0.7641603	0.3711332	-0.5275597	0	-129.999	-42.253	21.269	B5-03822-P04-CH1	6350376	OK	0.7363522	-0.673224	0.0674903	0	-114.812	-39.917	-8.831	NA
0.899274376417234	B5-03822-P01-CH0	6350384	OK	0.2053685	0.0377243	0.0597668	-0.9761294	100.224	-47.174	-296.835	B5-03822-P02-CH0	6350384	OK	0.6592126	0.1021394	-0.7449874	0	-76.867	-95.4	-3.862	B5-03822-P02-CH1	6350384	OK	0.70948	-0.2311944	-0.6657232	0	-81.779	-73.852	-4.879	B5-03822-P03-CH0	6350384	OK	0.7672995	-0.205174	-0.6075813	0	-100.402	-53.477	5.066	B5-03822-P03-CH1	6350384	OK	0.7332831	-0.6751219	0.0806614	0	-102.96	-18.226	-4.929	B5-03822-P04-CH0	6350384	OK	0.7638175	0.3719655	-0.5274699	0	-129.782	-41.981	21.221	B5-03822-P04-CH1	6350384	OK	0.7367986	-0.6726604	0.0682338	0	-114.535	-40.112	-8.616	NA
