Wav.Time	B5.03822.P01.CH0	Frame	State	Q0	Qx	Qy	Qz	Tx	Ty	Tz	B5.03822.P02.CH0	Frame.1	State.1	Q0.1	Qx.1	Qy.1	Qz.1	Tx.1	Ty.1	Tz.1	B5.03822.P02.CH1	Frame.2	State.2	Q0.2	Qx.2	Qy.2	Qz.2	Tx.2	Ty.2	Tz.2	B5.03822.P03.CH0	Frame.3	State.3	Q0.3	Qx.3	Qy.3	Qz.3	Tx.3	Ty.3	Tz.3	B5.03822.P03.CH1	Frame.4	State.4	Q0.4	Qx.4	Qy.4	Qz.4	Tx.4	Ty.4	Tz.4	B5.03822.P04.CH0	Frame.5	State.5	Q0.5	Qx.5	Qy.5	Qz.5	Tx.5	Ty.5	Tz.5	B5.03822.P04.CH1	Frame.6	State.6	Q0.6	Qx.6	Qy.6	Qz.6	Tx.6	Ty.6	Tz.6	X
0	B5-03822-P01-CH0	3626032	OK	0.1941263	0.0315945	0.0727655	-0.9777637	105.016	-57.706	-292.572	B5-03822-P02-CH0	3626032	OK	0.7143556	0.2373498	-0.6583018	0	-84.968	-100.019	-3.54	B5-03822-P02-CH1	3626032	OK	0.7530445	-0.1364823	-0.6436588	0	-81.786	-74.659	-3.205	B5-03822-P03-CH0	3626032	OK	0.714772	-0.118413	-0.68926	0	-99.238	-53.862	-0.245	B5-03822-P03-CH1	3626032	OK	0.7821001	-0.6224413	0.0297696	0	-102.388	-20.064	-2.363	B5-03822-P04-CH0	3626032	OK	0.7327769	0.4958053	-0.4660635	0	-129.301	-43.688	19.883	B5-03822-P04-CH1	3626032	OK	0.7458885	-0.6625493	0.0684023	0	-114.099	-37.382	-7.726	NA
0.0099921017095977	B5-03822-P01-CH0	3626040	OK	0.193931	0.0315134	0.0724824	-0.9778262	104.937	-57.726	-292.503	B5-03822-P02-CH0	3626040	OK	0.7037718	0.247307	-0.6659913	0	-84.047	-99.579	-1.367	B5-03822-P02-CH1	3626040	OK	0.7452596	-0.1543457	-0.6486644	0	-81.094	-74.414	-2.873	B5-03822-P03-CH0	3626040	OK	0.7200317	-0.1212897	-0.6832592	0	-99.386	-54.05	0.925	B5-03822-P03-CH1	3626040	OK	0.781754	-0.6228641	0.0300185	0	-102.271	-19.915	-2.636	B5-03822-P04-CH0	3626040	OK	0.7332228	0.4948754	-0.4663503	0	-129.173	-43.939	20.19	B5-03822-P04-CH1	3626040	OK	0.7455726	-0.6628903	0.0685418	0	-114.108	-37.427	-7.841	NA
0.0199842034191954	B5-03822-P01-CH0	3626048	OK	0.1941098	0.0317936	0.0723901	-0.9777884	104.96	-57.577	-292.379	B5-03822-P02-CH0	3626048	OK	0.6946913	0.2595297	-0.6708564	0	-81.651	-98.94	-5.84	B5-03822-P02-CH1	3626048	OK	0.7366452	-0.1725086	-0.6539072	0	-80.175	-74.197	-2.943	B5-03822-P03-CH0	3626048	OK	0.723756	-0.1279119	-0.6780972	0	-100.418	-54.499	1.489	B5-03822-P03-CH1	3626048	OK	0.7815091	-0.6231442	0.0305751	0	-102.339	-19.743	-2.793	B5-03822-P04-CH0	3626048	OK	0.7335574	0.4936516	-0.4671205	0	-129.195	-44.144	20.199	B5-03822-P04-CH1	3626048	OK	0.7455589	-0.662871	0.0688761	0	-114.156	-37.311	-7.602	NA
0.0299763051287931	B5-03822-P01-CH0	3626056	OK	0.1939047	0.0320171	0.0721216	-0.9778417	105.074	-57.675	-292.408	B5-03822-P02-CH0	3626056	OK	0.6820533	0.2714398	-0.679061	0	-80.214	-98.396	-4.262	B5-03822-P02-CH1	3626056	OK	0.7270218	-0.1893277	-0.6599957	0	-79.852	-74.486	-2.281	B5-03822-P03-CH0	3626056	OK	0.7295663	-0.1324764	-0.6709568	0	-99.835	-55.658	1.75	B5-03822-P03-CH1	3626056	OK	0.7810751	-0.6236779	0.030784	0	-102.385	-19.812	-3.131	B5-03822-P04-CH0	3626056	OK	0.7335669	0.4935051	-0.4672606	0	-129.315	-44.225	20.326	B5-03822-P04-CH1	3626056	OK	0.7452975	-0.6631072	0.0694297	0	-114.497	-37.651	-7.094	NA
0.0399684068383908	B5-03822-P01-CH0	3626064	OK	0.1935663	0.0320212	0.0717117	-0.9779387	105.065	-57.766	-292.384	B5-03822-P02-CH0	3626064	OK	0.6700152	0.2820782	-0.6866669	0	-78.269	-97.929	-4.971	B5-03822-P02-CH1	3626064	OK	0.719317	-0.2010074	-0.6649655	0	-78.776	-73.298	-4.499	B5-03822-P03-CH0	3626064	OK	0.7334257	-0.1372163	-0.6657766	0	-100.699	-56.361	1.631	B5-03822-P03-CH1	3626064	OK	0.7807939	-0.62403	0.0307806	0	-102.513	-19.771	-2.998	B5-03822-P04-CH0	3626064	OK	0.7337432	0.4932749	-0.4672268	0	-129.401	-44.287	20.362	B5-03822-P04-CH1	3626064	OK	0.7446533	-0.6638231	0.0695011	0	-114.39	-37.917	-7.259	NA
0.0499605085479885	B5-03822-P01-CH0	3626072	OK	0.1931523	0.0319148	0.0706217	-0.9781034	104.939	-57.982	-292.391	B5-03822-P02-CH0	3626072	OK	0.6556027	0.288524	-0.6978101	0	-78.019	-99.444	-2.562	B5-03822-P02-CH1	3626072	OK	0.7137308	-0.2054313	-0.6696166	0	-76.989	-73.801	-4.233	B5-03822-P03-CH0	3626072	OK	0.7383429	-0.1405593	-0.6596156	0	-101.374	-56.165	0.654	B5-03822-P03-CH1	3626072	OK	0.7797178	-0.6253437	0.0313927	0	-102.359	-20.195	-2.672	B5-03822-P04-CH0	3626072	OK	0.7345551	0.4925285	-0.4667382	0	-129.224	-44.379	20.403	B5-03822-P04-CH1	3626072	OK	0.7441158	-0.6644824	0.068956	0	-114.378	-37.786	-7.292	NA
0.0599526102575862	B5-03822-P01-CH0	3626080	OK	0.1929098	0.031344	0.0713207	-0.978119	104.619	-57.93	-292.391	B5-03822-P02-CH0	3626080	OK	0.6427053	0.2882624	-0.7098132	0	-76.441	-99.209	-2.849	B5-03822-P02-CH1	3626080	OK	0.7099998	-0.2075776	-0.672913	0	-76.817	-73.359	-4.383	B5-03822-P03-CH0	3626080	OK	0.7447109	-0.1454266	-0.6513499	0	-100.969	-56.546	0.966	B5-03822-P03-CH1	3626080	OK	0.7802619	-0.6246487	0.0317088	0	-102.136	-19.777	-2.767	B5-03822-P04-CH0	3626080	OK	0.7347238	0.4919361	-0.4670971	0	-128.841	-44.566	20.77	B5-03822-P04-CH1	3626080	OK	0.744314	-0.6642914	0.0686561	0	-113.988	-37.614	-7.939	NA
0.0699447119671839	B5-03822-P01-CH0	3626088	OK	0.1927071	0.0314304	0.071525	-0.9781412	104.634	-57.922	-292.487	B5-03822-P02-CH0	3626088	OK	0.6315283	0.2801693	-0.7229641	0	-75.171	-99.008	-2.719	B5-03822-P02-CH1	3626088	OK	0.7105638	-0.2119936	-0.670938	0	-75.686	-72.992	-4.254	B5-03822-P03-CH0	3626088	OK	0.748461	-0.1445534	-0.6472329	0	-102.064	-55.73	1.591	B5-03822-P03-CH1	3626088	OK	0.7802049	-0.6246844	0.0323994	0	-102.239	-19.729	-2.783	B5-03822-P04-CH0	3626088	OK	0.7341195	0.4928147	-0.4671213	0	-129.131	-44.225	20.588	B5-03822-P04-CH1	3626088	OK	0.7445589	-0.6640099	0.0687229	0	-113.985	-37.509	-7.849	NA
0.0799368136767816	B5-03822-P01-CH0	3626096	OK	0.1926665	0.0316044	0.0711848	-0.9781684	104.684	-58.003	-292.626	B5-03822-P02-CH0	3626096	OK	0.6218721	0.2662141	-0.7364816	0	-74.555	-98.707	-1.971	B5-03822-P02-CH1	3626096	OK	0.7097717	-0.2175961	-0.6699821	0	-76.591	-73.313	-3.941	B5-03822-P03-CH0	3626096	OK	0.7518318	-0.1479983	-0.6425305	0	-102.501	-57.236	2.921	B5-03822-P03-CH1	3626096	OK	0.7795325	-0.6254661	0.0334848	0	-102.097	-20.119	-2.642	B5-03822-P04-CH0	3626096	OK	0.7341625	0.4926826	-0.467193	0	-129.195	-44.254	20.709	B5-03822-P04-CH1	3626096	OK	0.7442069	-0.6643516	0.0692317	0	-114.049	-37.782	-7.46	NA
0.0899289153863793	B5-03822-P01-CH0	3626104	OK	0.1922312	0.0316967	0.0706218	-0.9782919	104.619	-58.074	-292.615	B5-03822-P02-CH0	3626104	OK	0.6174012	0.2496436	-0.7459851	0	-73.72	-99.588	-2.332	B5-03822-P02-CH1	3626104	OK	0.7121759	-0.225	-0.6649665	0	-76.67	-73.483	-3.034	B5-03822-P03-CH0	3626104	OK	0.7549488	-0.14667	-0.6391715	0	-102.486	-57.525	2.077	B5-03822-P03-CH1	3626104	OK	0.779072	-0.6260204	0.0338419	0	-102.158	-20.001	-2.81	B5-03822-P04-CH0	3626104	OK	0.7346747	0.4910607	-0.4680945	0	-129.227	-44.769	21.358	B5-03822-P04-CH1	3626104	OK	0.7437437	-0.6648353	0.0695648	0	-114.089	-38.004	-6.914	NA
0.099921017095977	B5-03822-P01-CH0	3626112	OK	0.192049	0.0318359	0.0705183	-0.9783306	104.662	-58.2	-292.599	B5-03822-P02-CH0	3626112	OK	0.6129599	0.2325631	-0.7551123	0	-74.204	-100.296	-0.547	B5-03822-P02-CH1	3626112	OK	0.7159836	-0.2362585	-0.6569243	0	-77.377	-73.545	-3.416	B5-03822-P03-CH0	3626112	OK	0.7554535	-0.1449771	-0.6389614	0	-103.303	-59.437	3.743	B5-03822-P03-CH1	3626112	OK	0.7791537	-0.6258999	0.0341868	0	-102.198	-19.735	-3.24	B5-03822-P04-CH0	3626112	OK	0.7346239	0.4907183	-0.4685332	0	-129.351	-44.953	21.411	B5-03822-P04-CH1	3626112	OK	0.7435954	-0.6649872	0.0696983	0	-113.985	-38.103	-6.992	NA
0.109913118805575	B5-03822-P01-CH0	3626120	OK	0.192007	0.0322146	0.0710628	-0.9782871	104.809	-58.15	-292.624	B5-03822-P02-CH0	3626120	OK	0.613796	0.2153453	-0.7595267	0	-73.446	-100.117	-2.382	B5-03822-P02-CH1	3626120	OK	0.7221293	-0.2489125	-0.6454238	0	-77.726	-73.969	-4.479	B5-03822-P03-CH0	3626120	OK	0.7560821	-0.1409297	-0.6391234	0	-103.991	-59.571	2.536	B5-03822-P03-CH1	3626120	OK	0.7790225	-0.6259905	0.0354943	0	-102.338	-20.166	-2.927	B5-03822-P04-CH0	3626120	OK	0.7338209	0.4918165	-0.4686399	0	-129.637	-44.641	21.193	B5-03822-P04-CH1	3626120	OK	0.7442793	-0.6642502	0.0694269	0	-114.293	-37.754	-6.996	NA
0.119905220515172	B5-03822-P01-CH0	3626128	OK	0.1914611	0.0321744	0.0705574	-0.978432	104.741	-58.324	-292.667	B5-03822-P02-CH0	3626128	OK	0.6175611	0.1994964	-0.7608018	0	-73.057	-99.622	-3.799	B5-03822-P02-CH1	3626128	OK	0.7311128	-0.2599981	-0.6307734	0	-77.568	-74.917	-4.44	B5-03822-P03-CH0	3626128	OK	0.7592499	-0.1304934	-0.6375822	0	-103.699	-59.292	2.65	B5-03822-P03-CH1	3626128	OK	0.7785826	-0.6265151	0.0358889	0	-102.28	-20.297	-2.724	B5-03822-P04-CH0	3626128	OK	0.7340296	0.4917831	-0.468348	0	-129.723	-44.729	21.286	B5-03822-P04-CH1	3626128	OK	0.7438119	-0.6647736	0.0694257	0	-114.194	-37.971	-6.762	NA
0.12989732222477	B5-03822-P01-CH0	3626136	OK	0.1911083	0.0320577	0.0707605	-0.9784901	104.624	-58.343	-292.632	B5-03822-P02-CH0	3626136	OK	0.6227957	0.182622	-0.7607725	0	-73.452	-99.312	-3.617	B5-03822-P02-CH1	3626136	OK	0.7398489	-0.2697231	-0.6163384	0	-79.655	-74.815	-3.817	B5-03822-P03-CH0	3626136	OK	0.7626965	-0.1165154	-0.6361747	0	-104.287	-59.622	4.725	B5-03822-P03-CH1	3626136	OK	0.778703	-0.6263424	0.0362873	0	-102.406	-20.217	-2.491	B5-03822-P04-CH0	3626136	OK	0.7339439	0.4913252	-0.4689626	0	-129.872	-44.933	21.499	B5-03822-P04-CH1	3626136	OK	0.7438736	-0.6647285	0.0691965	0	-114.196	-37.807	-7.04	NA
0.139889423934368	B5-03822-P01-CH0	3626144	OK	0.1909822	0.0317973	0.0711628	-0.978494	104.536	-58.468	-292.747	B5-03822-P02-CH0	3626144	OK	0.6315631	0.164057	-0.7577686	0	-72.928	-99.379	-4.177	B5-03822-P02-CH1	3626144	OK	0.751727	-0.2776441	-0.5981808	0	-80.808	-75.067	-2.957	B5-03822-P03-CH0	3626144	OK	0.7648962	-0.0993966	-0.6364386	0	-105.422	-60.001	4.043	B5-03822-P03-CH1	3626144	OK	0.7787769	-0.6262006	0.0371399	0	-102.315	-20.333	-2.506	B5-03822-P04-CH0	3626144	OK	0.7336281	0.4922839	-0.4684511	0	-129.891	-44.606	21.039	B5-03822-P04-CH1	3626144	OK	0.7445104	-0.6640295	0.0690587	0	-114.444	-37.536	-7.198	NA
0.149881525643965	B5-03822-P01-CH0	3626152	OK	0.1909004	0.0316227	0.0715793	-0.9784853	104.447	-58.457	-292.664	B5-03822-P02-CH0	3626152	OK	0.6393067	0.1376193	-0.7565368	0	-73.932	-99.289	-3.493	B5-03822-P02-CH1	3626152	OK	0.762109	-0.2848394	-0.5814262	0	-82.214	-75.279	-3.787	B5-03822-P03-CH0	3626152	OK	0.7667283	-0.0732574	-0.6377782	0	-105.596	-59.268	4.482	B5-03822-P03-CH1	3626152	OK	0.7791155	-0.6257512	0.0376104	0	-102.36	-20.044	-2.874	B5-03822-P04-CH0	3626152	OK	0.733343	0.4924583	-0.468714	0	-130.004	-44.565	20.835	B5-03822-P04-CH1	3626152	OK	0.7444458	-0.6640069	0.069966	0	-114.315	-37.748	-7.387	NA
0.159873627353563	B5-03822-P01-CH0	3626160	OK	0.1908028	0.0315102	0.0717772	-0.9784934	104.343	-58.455	-292.552	B5-03822-P02-CH0	3626160	OK	0.6477302	0.1099001	-0.7539015	0	-75.079	-100.391	-4.694	B5-03822-P02-CH1	3626160	OK	0.7684028	-0.2921039	-0.5694142	0	-83.129	-75.815	-2.621	B5-03822-P03-CH0	3626160	OK	0.7648336	-0.0454171	-0.642625	0	-106.882	-59.911	4.434	B5-03822-P03-CH1	3626160	OK	0.7791135	-0.6257206	0.0381558	0	-102.21	-20.041	-2.867	B5-03822-P04-CH0	3626160	OK	0.733252	0.4927539	-0.4685457	0	-130.042	-44.308	20.262	B5-03822-P04-CH1	3626160	OK	0.7445282	-0.6638721	0.0703671	0	-114.295	-37.659	-7.71	NA
0.169865729063161	B5-03822-P01-CH0	3626168	OK	0.1906488	0.0315259	0.0715276	-0.9785412	104.298	-58.497	-292.532	B5-03822-P02-CH0	3626168	OK	0.6535648	0.0780869	-0.7528316	0	-75.101	-99.499	-4.711	B5-03822-P02-CH1	3626168	OK	0.7743578	-0.2992156	-0.5575303	0	-83.49	-78.04	-0.408	B5-03822-P03-CH0	3626168	OK	0.7626812	-0.0082546	-0.6467219	0	-106.305	-60.132	4.501	B5-03822-P03-CH1	3626168	OK	0.7786942	-0.6262187	0.0385425	0	-102.29	-20.322	-2.615	B5-03822-P04-CH0	3626168	OK	0.7336604	0.492176	-0.4685138	0	-129.91	-44.421	20.311	B5-03822-P04-CH1	3626168	OK	0.7442179	-0.6641805	0.0707388	0	-114.345	-37.791	-7.588	NA
0.179857830772759	B5-03822-P01-CH0	3626176	OK	0.1905515	0.0315113	0.0715961	-0.9785556	104.264	-58.515	-292.452	B5-03822-P02-CH0	3626176	OK	0.6588339	0.0412984	-0.751154	0	-74.669	-99.487	-5.963	B5-03822-P02-CH1	3626176	OK	0.7812316	-0.2976715	-0.5486974	0	-85.747	-78.356	-1.079	B5-03822-P03-CH0	3626176	OK	0.7574822	0.0351522	-0.6519087	0	-105.818	-60.336	6.089	B5-03822-P03-CH1	3626176	OK	0.7787166	-0.6261629	0.0389925	0	-102.276	-20.272	-2.761	B5-03822-P04-CH0	3626176	OK	0.7337806	0.4917481	-0.4687749	0	-129.887	-44.524	20.265	B5-03822-P04-CH1	3626176	OK	0.7442601	-0.6640977	0.0710709	0	-114.252	-37.753	-7.867	NA
0.189849932482356	B5-03822-P01-CH0	3626184	OK	0.1903312	0.0309389	0.0721446	-0.9785765	104.012	-58.508	-292.367	B5-03822-P02-CH0	3626184	OK	0.6660665	0.0065585	-0.7458635	0	-73.631	-101.36	-7.823	B5-03822-P02-CH1	3626184	OK	0.7907118	-0.2885342	-0.5399286	0	-87.076	-78.611	-0.155	B5-03822-P03-CH0	3626184	OK	0.7523476	0.076652	-0.6542916	0	-105.85	-60.397	6.714	B5-03822-P03-CH1	3626184	OK	0.7790226	-0.6257712	0.0391688	0	-101.985	-20.158	-2.997	B5-03822-P04-CH0	3626184	OK	0.7334874	0.492249	-0.468708	0	-129.848	-44.205	19.798	B5-03822-P04-CH1	3626184	OK	0.7445588	-0.6637678	0.0710248	0	-113.747	-37.635	-8.08	NA
0.199842034191954	B5-03822-P01-CH0	3626192	OK	0.1900522	0.0310624	0.0715462	-0.9786707	103.999	-58.613	-292.276	B5-03822-P02-CH0	3626192	OK	0.6713101	-0.0235495	-0.7408023	0	-73.319	-101.768	-6.967	B5-03822-P02-CH1	3626192	OK	0.7989934	-0.2745131	-0.5350253	0	-88.55	-80.318	1.566	B5-03822-P03-CH0	3626192	OK	0.748172	0.1168799	-0.6531292	0	-105.161	-59.995	5.998	B5-03822-P03-CH1	3626192	OK	0.7786028	-0.6262879	0.0392584	0	-102.113	-20.273	-2.737	B5-03822-P04-CH0	3626192	OK	0.7337774	0.4918999	-0.4686205	0	-129.915	-44.211	19.677	B5-03822-P04-CH1	3626192	OK	0.7442184	-0.6641767	0.0707695	0	-113.855	-37.527	-8.56	NA
0.209834135901552	B5-03822-P01-CH0	3626200	OK	0.1899257	0.0307905	0.0715204	-0.9787058	103.929	-58.756	-292.278	B5-03822-P02-CH0	3626200	OK	0.6744276	-0.0441102	-0.7370222	0	-73.853	-102.731	-6.962	B5-03822-P02-CH1	3626200	OK	0.8052984	-0.2560922	-0.5347066	0	-89.79	-81.021	1.683	B5-03822-P03-CH0	3626200	OK	0.745098	0.1523687	-0.6493172	0	-104.16	-59.747	5.04	B5-03822-P03-CH1	3626200	OK	0.7785809	-0.6263174	0.0392218	0	-102.061	-20.367	-2.633	B5-03822-P04-CH0	3626200	OK	0.7340268	0.4917955	-0.4683394	0	-129.766	-44.304	19.672	B5-03822-P04-CH1	3626200	OK	0.74391	-0.664492	0.0710514	0	-113.624	-37.889	-8.654	NA
0.219826237611149	B5-03822-P01-CH0	3626208	OK	0.1899925	0.0307142	0.0718199	-0.9786733	103.964	-58.78	-292.23	B5-03822-P02-CH0	3626208	OK	0.6760821	-0.0572236	-0.7346009	0	-74.498	-103.339	-8.28	B5-03822-P02-CH1	3626208	OK	0.8099884	-0.2359543	-0.5368839	0	-90.601	-80.97	3.794	B5-03822-P03-CH0	3626208	OK	0.7405769	0.1796764	-0.6475046	0	-104.003	-59.523	6.544	B5-03822-P03-CH1	3626208	OK	0.7788811	-0.6259302	0.0394416	0	-102.062	-20.22	-2.882	B5-03822-P04-CH0	3626208	OK	0.7339821	0.4914998	-0.4687198	0	-129.785	-44.434	19.517	B5-03822-P04-CH1	3626208	OK	0.7440804	-0.6642136	0.0718658	0	-113.686	-38.171	-8.122	NA
0.229818339320747	B5-03822-P01-CH0	3626216	OK	0.1901787	0.030595	0.0719965	-0.9786279	104.027	-58.842	-292.304	B5-03822-P02-CH0	3626216	OK	0.6765111	-0.0698961	-0.7331079	0	-75.918	-102.966	-7.183	B5-03822-P02-CH1	3626216	OK	0.8106902	-0.2177184	-0.5434888	0	-92.395	-81.054	4.327	B5-03822-P03-CH0	3626216	OK	0.7375552	0.2037193	-0.6438251	0	-103.605	-57.665	4.303	B5-03822-P03-CH1	3626216	OK	0.7789062	-0.6258643	0.0399881	0	-101.86	-20.267	-3.155	B5-03822-P04-CH0	3626216	OK	0.7339394	0.4919022	-0.4683643	0	-129.69	-44.342	19.38	B5-03822-P04-CH1	3626216	OK	0.7443716	-0.6638661	0.0720601	0	-113.647	-38.231	-8.033	NA
0.239810441030345	B5-03822-P01-CH0	3626224	OK	0.1902221	0.0309785	0.0721036	-0.9785995	104.138	-58.708	-292.146	B5-03822-P02-CH0	3626224	OK	0.6784311	-0.0791295	-0.7303902	0	-76.492	-103.076	-5.866	B5-03822-P02-CH1	3626224	OK	0.8118047	-0.2044969	-0.5469498	0	-92.774	-80.761	3.657	B5-03822-P03-CH0	3626224	OK	0.7350337	0.2126017	-0.6438369	0	-103.797	-57.195	3.452	B5-03822-P03-CH1	3626224	OK	0.7790139	-0.625723	0.0401021	0	-101.905	-20.058	-3.366	B5-03822-P04-CH0	3626224	OK	0.7339617	0.4907128	-0.4695756	0	-129.792	-44.778	19.763	B5-03822-P04-CH1	3626224	OK	0.7445109	-0.6637237	0.0719328	0	-113.468	-38.056	-8.102	NA
0.249802542739942	B5-03822-P01-CH0	3626232	OK	0.190187	0.0312226	0.0720961	-0.9785991	104.274	-58.698	-292.119	B5-03822-P02-CH0	3626232	OK	0.6823349	-0.0857419	-0.7259941	0	-75.751	-103.474	-6.638	B5-03822-P02-CH1	3626232	OK	0.8123152	-0.1939535	-0.5500236	0	-93.125	-80.138	4.226	B5-03822-P03-CH0	3626232	OK	0.7357412	0.2044748	-0.6456585	0	-103.823	-57.933	5.648	B5-03822-P03-CH1	3626232	OK	0.7792259	-0.6254522	0.0402054	0	-102.007	-19.878	-3.248	B5-03822-P04-CH0	3626232	OK	0.733904	0.4902173	-0.4701829	0	-129.838	-45.007	20.114	B5-03822-P04-CH1	3626232	OK	0.7446435	-0.6635466	0.0721946	0	-113.737	-38.104	-8.013	NA
0.25979464444954	B5-03822-P01-CH0	3626240	OK	0.1903047	0.0315803	0.0722695	-0.9785519	104.524	-58.706	-292.264	B5-03822-P02-CH0	3626240	OK	0.6837422	-0.0883557	-0.7243548	0	-76.775	-104.231	-6.631	B5-03822-P02-CH1	3626240	OK	0.812529	-0.1867916	-0.5521825	0	-94.047	-80.022	4.745	B5-03822-P03-CH0	3626240	OK	0.7382817	0.1982179	-0.644709	0	-103.64	-57.69	5.926	B5-03822-P03-CH1	3626240	OK	0.7793164	-0.6252965	0.0408693	0	-102.237	-20.004	-3.149	B5-03822-P04-CH0	3626240	OK	0.7336392	0.4893903	-0.4714559	0	-130.045	-45.415	20.585	B5-03822-P04-CH1	3626240	OK	0.7448144	-0.6632958	0.072734	0	-114.075	-38.31	-7.707	NA
0.269786746159138	B5-03822-P01-CH0	3626248	OK	0.1902806	0.0314985	0.0725485	-0.9785386	104.498	-58.667	-292.193	B5-03822-P02-CH0	3626248	OK	0.6861666	-0.0848718	-0.7224764	0	-77.924	-104.251	-7.511	B5-03822-P02-CH1	3626248	OK	0.8118755	-0.1813302	-0.5549572	0	-94.983	-80.913	5.561	B5-03822-P03-CH0	3626248	OK	0.7386358	0.1861023	-0.6479067	0	-104.764	-58.275	7.624	B5-03822-P03-CH1	3626248	OK	0.7794065	-0.6251195	0.041847	0	-102.125	-19.992	-3.243	B5-03822-P04-CH0	3626248	OK	0.7332613	0.4894115	-0.4720215	0	-130.14	-45.273	20.268	B5-03822-P04-CH1	3626248	OK	0.7451729	-0.6628525	0.0731015	0	-114.081	-38.327	-7.41	NA
0.279778847868736	B5-03822-P01-CH0	3626256	OK	0.1903923	0.0312666	0.0730523	-0.9784869	104.438	-58.623	-292.143	B5-03822-P02-CH0	3626256	OK	0.6916264	-0.0713954	-0.718718	0	-77.937	-104.387	-6.956	B5-03822-P02-CH1	3626256	OK	0.8149913	-0.1728363	-0.5530975	0	-93.95	-81.636	5.941	B5-03822-P03-CH0	3626256	OK	0.7422507	0.1713435	-0.6478467	0	-104.1	-57.458	4.359	B5-03822-P03-CH1	3626256	OK	0.7800102	-0.6243209	0.0425144	0	-102.163	-19.792	-3.001	B5-03822-P04-CH0	3626256	OK	0.7329455	0.487923	-0.4740485	0	-130.192	-45.798	20.628	B5-03822-P04-CH1	3626256	OK	0.7453845	-0.6624913	0.0742107	0	-114.197	-38.533	-7.34	NA
0.289770949578333	B5-03822-P01-CH0	3626264	OK	0.1906621	0.0315919	0.0729358	-0.9784326	104.596	-58.63	-292.046	B5-03822-P02-CH0	3626264	OK	0.695904	-0.0484377	-0.7164994	0	-79.436	-104.77	-5.294	B5-03822-P02-CH1	3626264	OK	0.8146315	-0.1651657	-0.5559638	0	-94.489	-81.613	4.999	B5-03822-P03-CH0	3626264	OK	0.7423935	0.1421446	-0.6547113	0	-104.684	-58.37	4.059	B5-03822-P03-CH1	3626264	OK	0.7799323	-0.6243393	0.0436585	0	-102.381	-19.887	-2.941	B5-03822-P04-CH0	3626264	OK	0.7330043	0.4861492	-0.4757769	0	-130.269	-46.373	20.896	B5-03822-P04-CH1	3626264	OK	0.7451633	-0.6626087	0.0753751	0	-114.627	-38.803	-7.542	NA
0.299763051287931	B5-03822-P01-CH0	3626272	OK	0.1907742	0.0316264	0.0731695	-0.9783921	104.577	-58.484	-291.972	B5-03822-P02-CH0	3626272	OK	0.7018887	-0.016802	-0.7120884	0	-80.334	-104.438	-6.513	B5-03822-P02-CH1	3626272	OK	0.8128867	-0.1560501	-0.5611271	0	-93.903	-81.253	5.411	B5-03822-P03-CH0	3626272	OK	0.7438695	0.0927386	-0.6618592	0	-104.192	-58.186	3.016	B5-03822-P03-CH1	3626272	OK	0.7801428	-0.6240253	0.0443814	0	-102.325	-19.541	-3.358	B5-03822-P04-CH0	3626272	OK	0.7325304	0.4854619	-0.4772064	0	-130.413	-46.332	20.774	B5-03822-P04-CH1	3626272	OK	0.7457119	-0.6619206	0.0759924	0	-114.786	-38.517	-7.463	NA
0.309755152997529	B5-03822-P01-CH0	3626280	OK	0.1907687	0.0316258	0.0729426	-0.9784102	104.519	-58.396	-291.909	B5-03822-P02-CH0	3626280	OK	0.7069901	0.0238135	-0.7068224	0	-81.915	-104.424	-5.053	B5-03822-P02-CH1	3626280	OK	0.8057791	-0.1515564	-0.5724951	0	-93.607	-80.886	3.341	B5-03822-P03-CH0	3626280	OK	0.7455137	0.0312561	-0.665757	0	-103.105	-56.446	3.309	B5-03822-P03-CH1	3626280	OK	0.780074	-0.6240346	0.0454465	0	-102.347	-19.323	-3.61	B5-03822-P04-CH0	3626280	OK	0.732632	0.4824597	-0.4800865	0	-130.561	-47.031	21.143	B5-03822-P04-CH1	3626280	OK	0.7456256	-0.661879	0.0771928	0	-114.926	-38.565	-7.372	NA
0.319747254707126	B5-03822-P01-CH0	3626288	OK	0.1908871	0.0317252	0.0731295	-0.9783699	104.549	-58.354	-291.918	B5-03822-P02-CH0	3626288	OK	0.7126256	0.0617435	-0.6988223	0	-83.349	-105.362	-2.17	B5-03822-P02-CH1	3626288	OK	0.7991489	-0.1504167	-0.5820102	0	-91.179	-81.158	3.338	B5-03822-P03-CH0	3626288	OK	0.7474933	-0.0273233	-0.6637072	0	-103.517	-56.987	2.016	B5-03822-P03-CH1	3626288	OK	0.7800893	-0.623923	0.0466975	0	-102.328	-19.48	-3.431	B5-03822-P04-CH0	3626288	OK	0.7321813	0.4801517	-0.4830786	0	-130.765	-47.48	21.464	B5-03822-P04-CH1	3626288	OK	0.7454804	-0.6619127	0.0782973	0	-115.115	-38.837	-7.746	NA
0.329739356416724	B5-03822-P01-CH0	3626296	OK	0.1909677	0.0319632	0.0728397	-0.9783681	104.566	-58.316	-291.719	B5-03822-P02-CH0	3626296	OK	0.7178347	0.0956461	-0.6896123	0	-84.904	-105.09	-3.804	B5-03822-P02-CH1	3626296	OK	0.7879593	-0.149065	-0.5974108	0	-91.271	-80.091	0.752	B5-03822-P03-CH0	3626296	OK	0.7512343	-0.0794857	-0.6552321	0	-103.88	-57.884	3.13	B5-03822-P03-CH1	3626296	OK	0.7797438	-0.6242492	0.0480891	0	-102.492	-19.758	-3.093	B5-03822-P04-CH0	3626296	OK	0.7319657	0.4778015	-0.4857283	0	-130.927	-47.762	21.278	B5-03822-P04-CH1	3626296	OK	0.7452986	-0.6620182	0.0791329	0	-115.193	-38.867	-8.041	NA
0.339731458126322	B5-03822-P01-CH0	3626304	OK	0.1912631	0.0314021	0.0733314	-0.9782918	104.409	-58.282	-291.886	B5-03822-P02-CH0	3626304	OK	0.7213529	0.1268971	-0.680843	0	-85.166	-104.226	-4.392	B5-03822-P02-CH1	3626304	OK	0.7772574	-0.1485741	-0.6113891	0	-89.719	-79.168	-0.477	B5-03822-P03-CH0	3626304	OK	0.7560287	-0.1185194	-0.6437187	0	-104.019	-58.5	3.53	B5-03822-P03-CH1	3626304	OK	0.7799741	-0.6238485	0.0495323	0	-102.319	-19.783	-3.106	B5-03822-P04-CH0	3626304	OK	0.7313899	0.4754736	-0.4888698	0	-131.046	-48.045	21.308	B5-03822-P04-CH1	3626304	OK	0.7452416	-0.6618331	0.0811901	0	-115.293	-39.541	-7.569	NA
0.349723559835919	B5-03822-P01-CH0	3626312	OK	0.191358	0.0314229	0.0733269	-0.9782729	104.403	-58.242	-291.966	B5-03822-P02-CH0	3626312	OK	0.721659	0.1508966	-0.6756023	0	-84.973	-104.067	-4.231	B5-03822-P02-CH1	3626312	OK	0.76484	-0.150649	-0.6263583	0	-88.564	-78.656	-1.211	B5-03822-P03-CH0	3626312	OK	0.7609093	-0.1466146	-0.6320769	0	-104.397	-58.328	2.803	B5-03822-P03-CH1	3626312	OK	0.7798803	-0.6238839	0.0505532	0	-102.172	-19.855	-2.999	B5-03822-P04-CH0	3626312	OK	0.7307817	0.4732719	-0.4919063	0	-131.298	-48.275	21.529	B5-03822-P04-CH1	3626312	OK	0.745267	-0.6617388	0.0817236	0	-115.195	-39.574	-7.413	NA
0.359715661545517	B5-03822-P01-CH0	3626320	OK	0.1911711	0.0310779	0.0729191	-0.978351	104.119	-58.275	-291.763	B5-03822-P02-CH0	3626320	OK	0.717327	0.1717604	-0.6752335	0	-85.391	-103.794	-2.196	B5-03822-P02-CH1	3626320	OK	0.756358	-0.1582802	-0.6347204	0	-85.115	-77.905	-2.607	B5-03822-P03-CH0	3626320	OK	0.7649394	-0.169598	-0.6213729	0	-104.495	-60.43	2.144	B5-03822-P03-CH1	3626320	OK	0.7796287	-0.6241401	0.0512668	0	-101.949	-19.687	-3.257	B5-03822-P04-CH0	3626320	OK	0.7304894	0.4721913	-0.4933768	0	-131.294	-48.135	21.122	B5-03822-P04-CH1	3626320	OK	0.7450016	-0.6620072	0.0819709	0	-115.063	-39.44	-8.03	NA
0.369707763255115	B5-03822-P01-CH0	3626328	OK	0.1911143	0.0310214	0.0724197	-0.9784009	103.992	-58.3	-291.448	B5-03822-P02-CH0	3626328	OK	0.7134951	0.1921406	-0.6738003	0	-83.703	-103.532	-4.694	B5-03822-P02-CH1	3626328	OK	0.7465044	-0.1734794	-0.6423675	0	-83.604	-77.576	-2.104	B5-03822-P03-CH0	3626328	OK	0.7675901	-0.1792437	-0.6153675	0	-104.367	-60.301	1.836	B5-03822-P03-CH1	3626328	OK	0.7795939	-0.6241792	0.0513186	0	-101.727	-19.178	-4.051	B5-03822-P04-CH0	3626328	OK	0.7304186	0.4714705	-0.4941703	0	-131.121	-47.947	20.882	B5-03822-P04-CH1	3626328	OK	0.7448211	-0.6622108	0.0819661	0	-114.991	-39.149	-8.857	NA
0.379699864964712	B5-03822-P01-CH0	3626336	OK	0.1908749	0.0314447	0.0715389	-0.978499	104.095	-58.292	-291.413	B5-03822-P02-CH0	3626336	OK	0.7058163	0.2111317	-0.6762003	0	-81.183	-103.183	-6.022	B5-03822-P02-CH1	3626336	OK	0.7380117	-0.1911884	-0.6471366	0	-82.684	-76.995	-2.794	B5-03822-P03-CH0	3626336	OK	0.7705552	-0.1897645	-0.6084686	0	-103.881	-61.448	3.159	B5-03822-P03-CH1	3626336	OK	0.7789022	-0.6250292	0.0514763	0	-101.736	-19.186	-4.17	B5-03822-P04-CH0	3626336	OK	0.7302855	0.4725167	-0.493367	0	-131.267	-47.236	20.286	B5-03822-P04-CH1	3626336	OK	0.7444373	-0.6626628	0.0817991	0	-115.172	-39.082	-8.566	NA
0.38969196667431	B5-03822-P01-CH0	3626344	OK	0.1907011	0.0316352	0.0716305	-0.97852	104.105	-58.186	-291.387	B5-03822-P02-CH0	3626344	OK	0.6903818	0.2268595	-0.6869555	0	-79.916	-102.46	-4.299	B5-03822-P02-CH1	3626344	OK	0.7322853	-0.2095889	-0.6479435	0	-81.426	-76.51	-4.05	B5-03822-P03-CH0	3626344	OK	0.7725646	-0.20111	-0.6022447	0	-103.058	-62.023	5.341	B5-03822-P03-CH1	3626344	OK	0.7791523	-0.6247495	0.0510861	0	-101.639	-18.741	-4.54	B5-03822-P04-CH0	3626344	OK	0.7299259	0.4731018	-0.4933384	0	-131.317	-46.964	20.252	B5-03822-P04-CH1	3626344	OK	0.744538	-0.6625641	0.0816828	0	-115.362	-39.007	-8.454	NA
0.399684068383908	B5-03822-P01-CH0	3626352	OK	0.1905279	0.031773	0.0712509	-0.978577	104.057	-58.172	-291.299	B5-03822-P02-CH0	3626352	OK	0.67397	0.2412533	-0.6982559	0	-78.35	-102.699	-4.678	B5-03822-P02-CH1	3626352	OK	0.7266116	-0.2271808	-0.6484015	0	-80.158	-75.839	-4.825	B5-03822-P03-CH0	3626352	OK	0.7705742	-0.2203366	-0.5980529	0	-102.548	-61.234	3.308	B5-03822-P03-CH1	3626352	OK	0.7786804	-0.6253	0.0515437	0	-101.629	-19.042	-4.388	B5-03822-P04-CH0	3626352	OK	0.7302642	0.4735487	-0.4924083	0	-131.063	-46.898	20.41	B5-03822-P04-CH1	3626352	OK	0.7438914	-0.6632657	0.081879	0	-115.332	-39.312	-8.5	NA
0.409676170093506	B5-03822-P01-CH0	3626360	OK	0.1903844	0.031636	0.071127	-0.9786184	103.931	-58.171	-291.29	B5-03822-P02-CH0	3626360	OK	0.6563596	0.2479369	-0.7125443	0	-76.27	-100.804	-4.729	B5-03822-P02-CH1	3626360	OK	0.7215689	-0.2316696	-0.6524321	0	-76.549	-74.826	-4.983	B5-03822-P03-CH0	3626360	OK	0.7700475	-0.2425133	-0.5900967	0	-101.141	-60.718	2.139	B5-03822-P03-CH1	3626360	OK	0.7787175	-0.6252686	0.0513638	0	-101.576	-18.886	-4.539	B5-03822-P04-CH0	3626360	OK	0.7301697	0.4764333	-0.4897586	0	-130.924	-46.022	19.583	B5-03822-P04-CH1	3626360	OK	0.7438667	-0.6633673	0.0812783	0	-115.112	-39.233	-8.333	NA
0.419668271803103	B5-03822-P01-CH0	3626368	OK	0.1902375	0.0318454	0.0706845	-0.9786722	103.897	-58.126	-291.188	B5-03822-P02-CH0	3626368	OK	0.6408981	0.2392226	-0.7293985	0	-75.391	-99.929	-2.784	B5-03822-P02-CH1	3626368	OK	0.7124391	-0.2091961	-0.6698264	0	-75.307	-75.6	-2.678	B5-03822-P03-CH0	3626368	OK	0.7711673	-0.2601973	-0.5810321	0	-99.863	-61.719	2.006	B5-03822-P03-CH1	3626368	OK	0.7784518	-0.6256189	0.0511255	0	-101.565	-18.808	-4.596	B5-03822-P04-CH0	3626368	OK	0.7303429	0.4792063	-0.4867859	0	-130.763	-45.406	19.093	B5-03822-P04-CH1	3626368	OK	0.7437215	-0.6636363	0.0804068	0	-115.125	-38.904	-8.721	NA
0.429660373512701	B5-03822-P01-CH0	3626376	OK	0.1899845	0.0320414	0.0705302	-0.9787261	103.926	-58.131	-291.143	B5-03822-P02-CH0	3626376	OK	0.6334847	0.2194801	-0.7419742	0	-73.269	-99.431	-4.434	B5-03822-P02-CH1	3626376	OK	0.7075138	-0.1764073	-0.6843279	0	-76.07	-73.794	-3.357	B5-03822-P03-CH0	3626376	OK	0.7700429	-0.266598	-0.5796201	0	-99.885	-61.338	2.119	B5-03822-P03-CH1	3626376	OK	0.7780686	-0.6261119	0.0509242	0	-101.45	-19.051	-4.474	B5-03822-P04-CH0	3626376	OK	0.7320986	0.4918296	-0.4713122	0	-130.565	-45.365	19.026	B5-03822-P04-CH1	3626376	OK	0.7432682	-0.6641622	0.0802551	0	-115.031	-39.28	-8.175	NA
0.439652475222299	B5-03822-P01-CH0	3626384	OK	0.1897285	0.0325315	0.0699374	-0.9788021	103.986	-58.085	-290.989	B5-03822-P02-CH0	3626384	OK	0.6243579	0.1986776	-0.7554498	0	-73.363	-98.502	-2.673	B5-03822-P02-CH1	3626384	OK	0.7061963	-0.1556087	-0.6907045	0	-76.419	-73.351	-3.856	B5-03822-P03-CH0	3626384	OK	0.7647524	-0.2623638	-0.5884888	0	-99.421	-59.149	0.261	B5-03822-P03-CH1	3626384	OK	0.7775973	-0.6267199	0.0506416	0	-101.766	-19.204	-4.069	B5-03822-P04-CH0	3626384	OK	0.7330106	0.4947423	-0.466825	0	-129.763	-45.256	19.482	B5-03822-P04-CH1	3626384	OK	0.7430145	-0.6646063	0.0789169	0	-115.004	-38.958	-8.145	NA
0.449644576931896	B5-03822-P01-CH0	3626392	OK	0.1896969	0.0327643	0.0698683	-0.9788054	104.026	-58.062	-290.882	B5-03822-P02-CH0	3626392	OK	0.623929	0.1787784	-0.7607568	0	-71.756	-98.051	-3.661	B5-03822-P02-CH1	3626392	OK	0.7051918	-0.1427363	-0.6945004	0	-76.914	-73.883	-1.648	B5-03822-P03-CH0	3626392	OK	0.7565035	-0.2493555	-0.604586	0	-97.934	-58.805	-1.302	B5-03822-P03-CH1	3626392	OK	0.7771871	-0.6272321	0.0505964	0	-101.823	-19.506	-4.216	B5-03822-P04-CH0	3626392	OK	0.7335916	0.4957709	-0.4648167	0	-129.115	-45.909	21.955	B5-03822-P04-CH1	3626392	OK	0.742831	-0.6648719	0.0784056	0	-115.359	-39.047	-8.129	NA
0.459636678641494	B5-03822-P01-CH0	3626400	OK	0.1895403	0.0331779	0.0692168	-0.9788681	104.138	-58.072	-290.865	B5-03822-P02-CH0	3626400	OK	0.6249027	0.1597751	-0.7641783	0	-72.296	-97.491	-3.367	B5-03822-P02-CH1	3626400	OK	0.7063832	-0.1339905	-0.6950319	0	-76.223	-72.243	-4.09	B5-03822-P03-CH0	3626400	OK	0.741551	-0.2266823	-0.6314406	0	-97.26	-58.371	-0.894	B5-03822-P03-CH1	3626400	OK	0.7765836	-0.6280172	0.0501241	0	-101.895	-19.769	-3.907	B5-03822-P04-CH0	3626400	OK	0.7334746	0.4995932	-0.4608923	0	-129.948	-45.188	20.15	B5-03822-P04-CH1	3626400	OK	0.7426094	-0.6653302	0.0765969	0	-115.325	-38.678	-8.159	NA
0.469628780351092	B5-03822-P01-CH0	3626408	OK	0.1895624	0.0334374	0.069224	-0.9788545	104.269	-58.111	-291.184	B5-03822-P02-CH0	3626408	OK	0.6285377	0.1393638	-0.7651915	0	-72.816	-96.608	-1.193	B5-03822-P02-CH1	3626408	OK	0.7053103	-0.1295808	-0.696955	0	-76.877	-73.322	-1.996	B5-03822-P03-CH0	3626408	OK	0.7232345	-0.1917671	-0.6634435	0	-96.163	-57.626	-0.645	B5-03822-P03-CH1	3626408	OK	0.7763462	-0.6283292	0.0498893	0	-102.02	-20.244	-3.044	B5-03822-P04-CH0	3626408	OK	0.7340295	0.5024409	-0.4568959	0	-129.249	-44.755	20.648	B5-03822-P04-CH1	3626408	OK	0.7425558	-0.6654857	0.0757601	0	-115.223	-38.848	-7.194	NA
0.479620882060689	B5-03822-P01-CH0	3626416	OK	0.1894163	0.0336068	0.0688318	-0.9789046	104.226	-58.155	-291.022	B5-03822-P02-CH0	3626416	OK	0.6369721	0.1240377	-0.7608425	0	-72.823	-96.277	-2.699	B5-03822-P02-CH1	3626416	OK	0.7058231	-0.1315232	-0.6960714	0	-77.481	-71.424	-4.162	B5-03822-P03-CH0	3626416	OK	0.7011881	-0.149847	-0.6970517	0	-95.886	-55.918	-2.185	B5-03822-P03-CH1	3626416	OK	0.7759698	-0.6288343	0.0493791	0	-102.04	-20.311	-3.144	B5-03822-P04-CH0	3626416	OK	0.7340592	0.5039309	-0.4552041	0	-129.329	-44.257	19.601	B5-03822-P04-CH1	3626416	OK	0.741996	-0.6662592	0.0744348	0	-114.953	-38.854	-7.483	NA
0.489612983770287	B5-03822-P01-CH0	3626424	OK	0.1893403	0.0335197	0.0686895	-0.9789323	104.188	-58.218	-291.168	B5-03822-P02-CH0	3626424	OK	0.6467214	0.1108244	-0.754632	0	-72.878	-95.839	-3.453	B5-03822-P02-CH1	3626424	OK	0.7071912	-0.1320246	-0.6945863	0	-77.088	-70.552	-4.727	B5-03822-P03-CH0	3626424	OK	0.6898513	-0.1149407	-0.7147684	0	-89.533	-53.075	-0.791	B5-03822-P03-CH1	3626424	OK	0.7756604	-0.6292009	0.0495711	0	-102.048	-20.703	-2.493	B5-03822-P04-CH0	3626424	OK	0.7332828	0.4984297	-0.4624546	0	-129.44	-44.211	19.603	B5-03822-P04-CH1	3626424	OK	0.7418816	-0.6665468	0.0729871	0	-114.489	-38.741	-7.349	NA
0.499605085479885	B5-03822-P01-CH0	3626432	OK	0.1893275	0.0335164	0.0687401	-0.9789313	104.189	-58.231	-291.239	B5-03822-P02-CH0	3626432	OK	0.6548035	0.095975	-0.7496807	0	-73.265	-94.217	-3.166	B5-03822-P02-CH1	3626432	OK	0.7110825	-0.1339759	-0.6902262	0	-76.804	-70.881	-3.153	B5-03822-P03-CH0	3626432	OK	0.6841932	-0.1086363	-0.7211642	0	-91.414	-53.981	-3.323	B5-03822-P03-CH1	3626432	OK	0.7758199	-0.6290501	0.0489847	0	-101.949	-20.429	-2.652	B5-03822-P04-CH0	3626432	OK	0.7335099	0.4995288	-0.4609058	0	-129.425	-44.486	19.895	B5-03822-P04-CH1	3626432	OK	0.7419136	-0.6666543	0.0716681	0	-114.437	-38.548	-7.446	NA
0.509597187189483	B5-03822-P01-CH0	3626440	OK	0.1894248	0.0336883	0.069095	-0.9788816	104.271	-58.206	-291.248	B5-03822-P02-CH0	3626440	OK	0.6637694	0.0797389	-0.7436746	0	-73.437	-93.722	-4.512	B5-03822-P02-CH1	3626440	OK	0.7156623	-0.1296568	-0.6863065	0	-78.716	-70.941	-1.984	B5-03822-P03-CH0	3626440	OK	0.6878213	-0.1078834	-0.7178182	0	-93.081	-55.07	-1.133	B5-03822-P03-CH1	3626440	OK	0.7758484	-0.6290309	0.0487788	0	-101.794	-20.542	-2.597	B5-03822-P04-CH0	3626440	OK	0.733445	0.5013799	-0.4589952	0	-129.249	-44.487	20.299	B5-03822-P04-CH1	3626440	OK	0.7420764	-0.6666095	0.0703872	0	-114.561	-38.327	-7.885	NA
0.51958928889908	B5-03822-P01-CH0	3626448	OK	0.1894	0.0338047	0.068919	-0.9788948	104.299	-58.23	-291.252	B5-03822-P02-CH0	3626448	OK	0.6701457	0.0596022	-0.7398326	0	-75.512	-93.311	-2.585	B5-03822-P02-CH1	3626448	OK	0.7250895	-0.1248086	-0.6772504	0	-79.456	-70.691	-3.483	B5-03822-P03-CH0	3626448	OK	0.6941159	-0.0960615	-0.7134251	0	-93.825	-55.171	-0.139	B5-03822-P03-CH1	3626448	OK	0.775648	-0.6292917	0.0486013	0	-101.765	-20.686	-2.227	B5-03822-P04-CH0	3626448	OK	0.7336008	0.5027255	-0.4572711	0	-129.078	-44.437	20.629	B5-03822-P04-CH1	3626448	OK	0.7421391	-0.6667036	0.0688182	0	-114.365	-38.024	-7.753	NA
0.529581390608678	B5-03822-P01-CH0	3626456	OK	0.1893244	0.0336235	0.0690949	-0.9789033	104.244	-58.269	-291.337	B5-03822-P02-CH0	3626456	OK	0.6794471	0.0450804	-0.7323383	0	-76.152	-92.345	-4.141	B5-03822-P02-CH1	3626456	OK	0.7328873	-0.1146448	-0.6706211	0	-80.506	-71.434	-1.614	B5-03822-P03-CH0	3626456	OK	0.6995971	-0.0887708	-0.7090018	0	-94.365	-54.047	-1.959	B5-03822-P03-CH1	3626456	OK	0.7760525	-0.6288528	0.0478191	0	-101.694	-20.374	-2.41	B5-03822-P04-CH0	3626456	OK	0.733997	0.5029867	-0.4563471	0	-128.818	-44.768	21.049	B5-03822-P04-CH1	3626456	OK	0.7423441	-0.6666141	0.0674601	0	-114.436	-37.684	-8.053	NA
0.539573492318276	B5-03822-P01-CH0	3626464	OK	0.1894288	0.0334838	0.0691856	-0.9788815	104.204	-58.263	-291.357	B5-03822-P02-CH0	3626464	OK	0.688235	0.0343906	-0.7246722	0	-76.008	-92.809	-3.938	B5-03822-P02-CH1	3626464	OK	0.7392339	-0.1054214	-0.6651463	0	-81.723	-71.366	-0.544	B5-03822-P03-CH0	3626464	OK	0.702762	-0.0855526	-0.7062622	0	-95.073	-53.831	-0.52	B5-03822-P03-CH1	3626464	OK	0.7762969	-0.6285902	0.0473027	0	-101.408	-20.176	-2.601	B5-03822-P04-CH0	3626464	OK	0.7340255	0.5042738	-0.4548785	0	-128.646	-44.484	20.932	B5-03822-P04-CH1	3626464	OK	0.7421822	-0.6668187	0.0672189	0	-114.365	-37.757	-8.245	NA
0.549565594027873	B5-03822-P01-CH0	3626472	OK	0.1895775	0.0332917	0.0695645	-0.9788324	104.09	-58.171	-291.274	B5-03822-P02-CH0	3626472	OK	0.6924336	0.0266248	-0.7209902	0	-77.669	-93.963	-3.931	B5-03822-P02-CH1	3626472	OK	0.743549	-0.0978525	-0.661483	0	-83.488	-72.401	-0.048	B5-03822-P03-CH0	3626472	OK	0.7063758	-0.0901406	-0.702074	0	-95.577	-55.029	0.669	B5-03822-P03-CH1	3626472	OK	0.7767886	-0.628013	0.0468962	0	-101.236	-19.868	-2.73	B5-03822-P04-CH0	3626472	OK	0.7337228	0.5051922	-0.4543476	0	-128.571	-44.173	20.593	B5-03822-P04-CH1	3626472	OK	0.7428634	-0.6661841	0.0659748	0	-113.948	-37.125	-8.463	NA
0.559557695737471	B5-03822-P01-CH0	3626480	OK	0.1895798	0.0332903	0.0699829	-0.9788022	104.205	-58.251	-291.376	B5-03822-P02-CH0	3626480	OK	0.6958602	0.0218319	-0.7178453	0	-78.853	-93.968	-3.292	B5-03822-P02-CH1	3626480	OK	0.7494237	-0.0905417	-0.6558706	0	-83.581	-73.368	-0.95	B5-03822-P03-CH0	3626480	OK	0.7128084	-0.1005995	-0.6941066	0	-95.284	-54.589	0.463	B5-03822-P03-CH1	3626480	OK	0.7772574	-0.6274784	0.0462794	0	-101.246	-19.881	-2.744	B5-03822-P04-CH0	3626480	OK	0.7333283	0.5059176	-0.4541773	0	-128.538	-44.153	20.709	B5-03822-P04-CH1	3626480	OK	0.7430456	-0.6659782	0.0660024	0	-113.939	-37.476	-7.757	NA
0.569549797447069	B5-03822-P01-CH0	3626488	OK	0.1895482	0.0335556	0.0695045	-0.9788333	104.3	-58.216	-291.295	B5-03822-P02-CH0	3626488	OK	0.7006956	0.0215872	-0.7131337	0	-78.694	-92.753	-3.897	B5-03822-P02-CH1	3626488	OK	0.7543497	-0.0864979	-0.6507493	0	-83.684	-74.102	0.274	B5-03822-P03-CH0	3626488	OK	0.7192862	-0.1156701	-0.6850167	0	-96.322	-54.459	-0.541	B5-03822-P03-CH1	3626488	OK	0.7772125	-0.627591	0.0455008	0	-101.349	-19.675	-3.12	B5-03822-P04-CH0	3626488	OK	0.7333127	0.5062207	-0.4538645	0	-128.584	-43.946	20.703	B5-03822-P04-CH1	3626488	OK	0.7423435	-0.6667787	0.0658209	0	-114.05	-37.647	-8.061	NA
0.579541899156666	B5-03822-P01-CH0	3626496	OK	0.1896218	0.0334348	0.069635	-0.9788139	104.366	-58.254	-291.485	B5-03822-P02-CH0	3626496	OK	0.7026749	0.0208492	-0.7112055	0	-80.038	-93.781	-4.61	B5-03822-P02-CH1	3626496	OK	0.7588638	-0.0838401	-0.6458302	0	-83.409	-73.76	-0.471	B5-03822-P03-CH0	3626496	OK	0.7264222	-0.1295095	-0.6749356	0	-96.979	-55.252	0.427	B5-03822-P03-CH1	3626496	OK	0.777675	-0.6270776	0.0446687	0	-101.216	-19.662	-2.835	B5-03822-P04-CH0	3626496	OK	0.7330614	0.5066435	-0.4537989	0	-128.606	-43.829	20.717	B5-03822-P04-CH1	3626496	OK	0.7427263	-0.6664127	0.0652055	0	-114.165	-37.45	-7.946	NA
0.589534000866264	B5-03822-P01-CH0	3626504	OK	0.1896766	0.0336484	0.0691116	-0.9788331	104.489	-58.296	-291.476	B5-03822-P02-CH0	3626504	OK	0.7045956	0.0242753	-0.7091937	0	-80.298	-94.083	-3.198	B5-03822-P02-CH1	3626504	OK	0.7590481	-0.0807213	-0.6460109	0	-84.642	-72.771	-0.195	B5-03822-P03-CH0	3626504	OK	0.728372	-0.1377297	-0.6711966	0	-97.559	-55.216	0.637	B5-03822-P03-CH1	3626504	OK	0.7773443	-0.6275403	0.0439206	0	-101.228	-19.925	-2.887	B5-03822-P04-CH0	3626504	OK	0.7332306	0.5064412	-0.4537513	0	-128.709	-43.855	20.639	B5-03822-P04-CH1	3626504	OK	0.7423452	-0.6668442	0.0651329	0	-114.393	-37.534	-7.834	NA
0.599526102575862	B5-03822-P01-CH0	3626512	OK	0.1901124	0.0329027	0.0699723	-0.9787127	104.311	-58.299	-291.65	B5-03822-P02-CH0	3626512	OK	0.7061249	0.0283516	-0.7075194	0	-80.22	-95.233	-2.665	B5-03822-P02-CH1	3626512	OK	0.7605603	-0.0812319	-0.6441657	0	-83.685	-74.291	-0.037	B5-03822-P03-CH0	3626512	OK	0.7298351	-0.1450074	-0.668067	0	-96.347	-54.593	-0.767	B5-03822-P03-CH1	3626512	OK	0.7779203	-0.6268277	0.043898	0	-101.066	-20.318	-2.643	B5-03822-P04-CH0	3626512	OK	0.7328206	0.5066957	-0.4541294	0	-128.494	-43.784	20.507	B5-03822-P04-CH1	3626512	OK	0.743166	-0.6659539	0.0648818	0	-113.953	-37.274	-7.901	NA
0.609518204285459	B5-03822-P01-CH0	3626520	OK	0.1903478	0.0328219	0.069618	-0.9786949	104.276	-58.314	-291.633	B5-03822-P02-CH0	3626520	OK	0.7079946	0.0315319	-0.7055136	0	-79.503	-95.753	-4.367	B5-03822-P02-CH1	3626520	OK	0.7595192	-0.0832557	-0.6451349	0	-83.692	-74.386	-0.216	B5-03822-P03-CH0	3626520	OK	0.7290358	-0.1578331	-0.6660296	0	-96.315	-54.204	-1.934	B5-03822-P03-CH1	3626520	OK	0.7781562	-0.6265897	0.0431065	0	-101.08	-20.284	-2.539	B5-03822-P04-CH0	3626520	OK	0.7328752	0.5058616	-0.4549704	0	-128.6	-43.912	20.42	B5-03822-P04-CH1	3626520	OK	0.7428382	-0.6662689	0.0654003	0	-113.849	-37.539	-7.526	NA
0.619510305995057	B5-03822-P01-CH0	3626528	OK	0.1905837	0.0326713	0.0700199	-0.9786254	104.316	-58.267	-291.666	B5-03822-P02-CH0	3626528	OK	0.7051335	0.0351348	-0.7082036	0	-80.817	-95.616	-2.844	B5-03822-P02-CH1	3626528	OK	0.7596905	-0.0840984	-0.6448238	0	-83.419	-74.114	-0.685	B5-03822-P03-CH0	3626528	OK	0.7286158	-0.1678271	-0.6640429	0	-94.872	-54.95	-1.051	B5-03822-P03-CH1	3626528	OK	0.778924	-0.6257123	0.0419715	0	-101.138	-19.948	-3.198	B5-03822-P04-CH0	3626528	OK	0.7324657	0.5063003	-0.4551417	0	-128.65	-43.76	20.267	B5-03822-P04-CH1	3626528	OK	0.7432271	-0.6658156	0.0655973	0	-113.735	-37.458	-7.665	NA
0.629502407704655	B5-03822-P01-CH0	3626536	OK	0.1908731	0.0328402	0.0696405	-0.9785904	104.387	-58.25	-291.624	B5-03822-P02-CH0	3626536	OK	0.7051942	0.0363989	-0.7080793	0	-79.777	-94.816	-3.448	B5-03822-P02-CH1	3626536	OK	0.7592033	-0.0882013	-0.6448495	0	-83.268	-74.796	1.063	B5-03822-P03-CH0	3626536	OK	0.7256613	-0.1755652	-0.6652763	0	-95.879	-54.074	-1.513	B5-03822-P03-CH1	3626536	OK	0.7792616	-0.6253653	0.0408602	0	-101.14	-19.568	-3.746	B5-03822-P04-CH0	3626536	OK	0.7321962	0.506313	-0.455561	0	-128.807	-43.627	20.24	B5-03822-P04-CH1	3626536	OK	0.7428079	-0.6662133	0.0663038	0	-113.769	-37.786	-7.361	NA
0.639494509414253	B5-03822-P01-CH0	3626544	OK	0.1908024	0.0329078	0.0697153	-0.9785966	104.451	-58.184	-291.641	B5-03822-P02-CH0	3626544	OK	0.7039796	0.038863	-0.7091562	0	-79.109	-94.892	-2.685	B5-03822-P02-CH1	3626544	OK	0.7576404	-0.0935159	-0.6459379	0	-84.148	-75.325	0.691	B5-03822-P03-CH0	3626544	OK	0.7243422	-0.1798085	-0.6655804	0	-96.172	-54.582	-1.838	B5-03822-P03-CH1	3626544	OK	0.7794494	-0.6251804	0.0401015	0	-101.319	-19.677	-3.645	B5-03822-P04-CH0	3626544	OK	0.7317457	0.5073137	-0.4551714	0	-129.025	-43.22	19.846	B5-03822-P04-CH1	3626544	OK	0.7430256	-0.666044	0.065562	0	-113.901	-37.493	-7.538	NA
0.64948661112385	B5-03822-P01-CH0	3626552	OK	0.191082	0.0330472	0.0691306	-0.9785788	104.59	-58.263	-291.83	B5-03822-P02-CH0	3626552	OK	0.7022297	0.0428333	-0.7106607	0	-78.981	-94.698	-2.552	B5-03822-P02-CH1	3626552	OK	0.7587755	-0.0968666	-0.6441091	0	-83.422	-74.657	0.614	B5-03822-P03-CH0	3626552	OK	0.7253218	-0.1824483	-0.6637928	0	-95.419	-54.799	-1.679	B5-03822-P03-CH1	3626552	OK	0.7791918	-0.625517	0.0398575	0	-101.597	-20.046	-3.365	B5-03822-P04-CH0	3626552	OK	0.7321992	0.5063293	-0.4555381	0	-129.08	-43.638	20.121	B5-03822-P04-CH1	3626552	OK	0.7422905	-0.6667792	0.0664096	0	-113.86	-38.155	-6.649	NA
0.659478712833448	B5-03822-P01-CH0	3626560	OK	0.1916221	0.0329163	0.0693268	-0.9784637	104.536	-58.061	-291.815	B5-03822-P02-CH0	3626560	OK	0.7023105	0.0475561	-0.7102805	0	-78.45	-95.546	-3.796	B5-03822-P02-CH1	3626560	OK	0.7589099	-0.0905034	-0.6448759	0	-83.877	-74.483	0.029	B5-03822-P03-CH0	3626560	OK	0.7243223	-0.1836444	-0.664554	0	-95.978	-55.033	-0.318	B5-03822-P03-CH1	3626560	OK	0.7796618	-0.6249472	0.0396047	0	-101.568	-19.807	-3.435	B5-03822-P04-CH0	3626560	OK	0.7321904	0.5059135	-0.4560139	0	-129.055	-43.634	20.123	B5-03822-P04-CH1	3626560	OK	0.7424943	-0.6665397	0.0665362	0	-113.747	-37.885	-6.926	NA
0.669470814543046	B5-03822-P01-CH0	3626568	OK	0.1917733	0.0330071	0.0694834	-0.9784199	104.591	-58.019	-291.641	B5-03822-P02-CH0	3626568	OK	0.7024103	0.0557016	-0.7095893	0	-78.525	-95.105	-5.565	B5-03822-P02-CH1	3626568	OK	0.7589958	-0.0923683	-0.6445102	0	-83.987	-74.733	0.139	B5-03822-P03-CH0	3626568	OK	0.7253919	-0.182665	-0.6636566	0	-95.822	-54.047	-2.251	B5-03822-P03-CH1	3626568	OK	0.7798653	-0.6247126	0.039297	0	-101.667	-19.861	-3.562	B5-03822-P04-CH0	3626568	OK	0.7323293	0.5054454	-0.4563099	0	-129.003	-43.872	20.157	B5-03822-P04-CH1	3626568	OK	0.7426915	-0.6663182	0.0665534	0	-113.955	-37.864	-6.956	NA
0.679462916252643	B5-03822-P01-CH0	3626576	OK	0.1921173	0.0328557	0.0696546	-0.9783454	104.602	-57.987	-291.663	B5-03822-P02-CH0	3626576	OK	0.7037024	0.0623102	-0.7077573	0	-78.046	-95.66	-5.022	B5-03822-P02-CH1	3626576	OK	0.7612271	-0.1050821	-0.6399149	0	-83.46	-74.564	-0.88	B5-03822-P03-CH0	3626576	OK	0.7245776	-0.1819813	-0.6647331	0	-96.278	-55.764	0.745	B5-03822-P03-CH1	3626576	OK	0.779816	-0.6247502	0.0396764	0	-101.734	-20.244	-3.407	B5-03822-P04-CH0	3626576	OK	0.7324328	0.5051653	-0.4564539	0	-128.903	-44.023	20.274	B5-03822-P04-CH1	3626576	OK	0.7428223	-0.6661259	0.0670173	0	-113.891	-37.943	-6.937	NA
0.689455017962241	B5-03822-P01-CH0	3626584	OK	0.1921992	0.032836	0.0698337	-0.9783172	104.669	-57.958	-291.683	B5-03822-P02-CH0	3626584	OK	0.704315	0.0662808	-0.7067866	0	-78.017	-95.742	-5.162	B5-03822-P02-CH1	3626584	OK	0.7619769	-0.1039559	-0.639206	0	-83.528	-74.134	0.209	B5-03822-P03-CH0	3626584	OK	0.7253574	-0.1795374	-0.6645472	0	-96.227	-56.253	0.71	B5-03822-P03-CH1	3626584	OK	0.780272	-0.6242095	0.0392203	0	-101.871	-20.091	-3.316	B5-03822-P04-CH0	3626584	OK	0.7319534	0.5065493	-0.4556885	0	-129	-43.519	19.845	B5-03822-P04-CH1	3626584	OK	0.7432504	-0.6656881	0.0666192	0	-113.935	-37.719	-7.041	NA
0.699447119671839	B5-03822-P01-CH0	3626592	OK	0.1921185	0.0332694	0.0691956	-0.9783637	104.86	-57.957	-291.579	B5-03822-P02-CH0	3626592	OK	0.7022946	0.069692	-0.7084668	0	-79.781	-95.764	-4.418	B5-03822-P02-CH1	3626592	OK	0.7592136	-0.099175	-0.6432411	0	-84.22	-75.047	-0.136	B5-03822-P03-CH0	3626592	OK	0.7253256	-0.177305	-0.665181	0	-96.542	-55.785	1.134	B5-03822-P03-CH1	3626592	OK	0.7801851	-0.6243624	0.0385078	0	-102.095	-19.922	-3.259	B5-03822-P04-CH0	3626592	OK	0.7319331	0.5075464	-0.4546104	0	-129.115	-43.075	19.51	B5-03822-P04-CH1	3626592	OK	0.7427738	-0.6662076	0.0667424	0	-114.427	-37.931	-6.883	NA
0.709439221381436	B5-03822-P01-CH0	3626600	OK	0.1921022	0.0332695	0.0694383	-0.9783497	104.937	-57.921	-291.612	B5-03822-P02-CH0	3626600	OK	0.7010655	0.0735725	-0.7092914	0	-80.98	-96.08	-2.563	B5-03822-P02-CH1	3626600	OK	0.7595531	-0.1010325	-0.6425508	0	-84.376	-75.013	-0.359	B5-03822-P03-CH0	3626600	OK	0.7248297	-0.1793989	-0.66516	0	-96.491	-55.258	-0.39	B5-03822-P03-CH1	3626600	OK	0.780491	-0.6240087	0.0380381	0	-102.072	-19.731	-3.425	B5-03822-P04-CH0	3626600	OK	0.7322103	0.5072225	-0.4545255	0	-128.963	-43.353	19.809	B5-03822-P04-CH1	3626600	OK	0.7429006	-0.6661044	0.0663602	0	-114.289	-37.903	-6.875	NA
0.719431323091034	B5-03822-P01-CH0	3626608	OK	0.1920596	0.033111	0.0691964	-0.9783806	104.861	-57.889	-291.667	B5-03822-P02-CH0	3626608	OK	0.7037271	0.0771097	-0.7062735	0	-80.059	-96.585	-4.34	B5-03822-P02-CH1	3626608	OK	0.7603291	-0.1025986	-0.6413838	0	-84.348	-74.882	-0.752	B5-03822-P03-CH0	3626608	OK	0.7250161	-0.1785045	-0.6651976	0	-96.366	-55.067	-0.483	B5-03822-P03-CH1	3626608	OK	0.7800623	-0.6245327	0.0382316	0	-101.996	-20.03	-3.017	B5-03822-P04-CH0	3626608	OK	0.7325689	0.5065705	-0.4546748	0	-128.858	-43.515	20.054	B5-03822-P04-CH1	3626608	OK	0.7427316	-0.666323	0.0660563	0	-114.219	-37.88	-6.527	NA
0.729423424800632	B5-03822-P01-CH0	3626616	OK	0.1922485	0.0328078	0.0703401	-0.9782722	104.792	-57.664	-291.839	B5-03822-P02-CH0	3626616	OK	0.7060297	0.0795038	-0.7037053	0	-79.238	-96.383	-6.277	B5-03822-P02-CH1	3626616	OK	0.7662535	-0.1034002	-0.634164	0	-83.976	-75.142	-0.769	B5-03822-P03-CH0	3626616	OK	0.7252962	-0.1766415	-0.6653895	0	-96.272	-54.752	-0.354	B5-03822-P03-CH1	3626616	OK	0.780638	-0.6237973	0.038487	0	-102.018	-20.132	-2.491	B5-03822-P04-CH0	3626616	OK	0.7321198	0.5069792	-0.4549424	0	-128.81	-43.382	20.015	B5-03822-P04-CH1	3626616	OK	0.7436977	-0.6653166	0.0653273	0	-113.864	-37.433	-6.623	NA
0.73941552651023	B5-03822-P01-CH0	3626624	OK	0.1922248	0.0325441	0.0703951	-0.9782817	104.759	-57.736	-291.901	B5-03822-P02-CH0	3626624	OK	0.7063397	0.0828304	-0.7030102	0	-79.686	-96.33	-4.781	B5-03822-P02-CH1	3626624	OK	0.7670679	-0.1014954	-0.6334867	0	-84.316	-75.314	-0.149	B5-03822-P03-CH0	3626624	OK	0.724289	-0.1616247	-0.6702857	0	-95.702	-55.094	0.874	B5-03822-P03-CH1	3626624	OK	0.7806904	-0.6237491	0.0382049	0	-101.947	-20.17	-2.599	B5-03822-P04-CH0	3626624	OK	0.732254	0.5059233	-0.455901	0	-128.873	-43.815	20.255	B5-03822-P04-CH1	3626624	OK	0.7437332	-0.6652576	0.065523	0	-113.82	-37.699	-6.097	NA
0.749407628219827	B5-03822-P01-CH0	3626632	OK	0.1918071	0.0324215	0.0699896	-0.9783968	104.711	-57.832	-291.87	B5-03822-P02-CH0	3626632	OK	0.7068139	0.0876774	-0.701945	0	-80.368	-95.84	-4.136	B5-03822-P02-CH1	3626632	OK	0.7688328	-0.1000205	-0.631579	0	-84.409	-74.997	-0.515	B5-03822-P03-CH0	3626632	OK	0.7233805	-0.1585221	-0.6720055	0	-96.068	-55.693	1.062	B5-03822-P03-CH1	3626632	OK	0.7803765	-0.6241783	0.0376023	0	-101.798	-20.225	-2.709	B5-03822-P04-CH0	3626632	OK	0.7327851	0.5056653	-0.4553336	0	-128.664	-43.914	20.492	B5-03822-P04-CH1	3626632	OK	0.7432717	-0.6658464	0.0647745	0	-114.022	-37.633	-6.936	NA
0.759399729929425	B5-03822-P01-CH0	3626640	OK	0.1917394	0.032315	0.0701181	-0.9784044	104.707	-57.823	-291.881	B5-03822-P02-CH0	3626640	OK	0.7061508	0.0913382	-0.7021455	0	-81.868	-97.611	-2.4	B5-03822-P02-CH1	3626640	OK	0.769755	-0.0991058	-0.6305992	0	-84.493	-75.394	1.144	B5-03822-P03-CH0	3626640	OK	0.7226289	-0.1557588	-0.6734587	0	-97.047	-55.201	-0.086	B5-03822-P03-CH1	3626640	OK	0.7806538	-0.6238644	0.0370508	0	-101.866	-19.984	-2.849	B5-03822-P04-CH0	3626640	OK	0.7328902	0.505759	-0.4550602	0	-128.574	-43.896	20.463	B5-03822-P04-CH1	3626640	OK	0.7431727	-0.6659443	0.0649051	0	-114.149	-37.912	-6.609	NA
0.769391831639023	B5-03822-P01-CH0	3626648	OK	0.191639	0.0318609	0.0698098	-0.978461	104.541	-57.866	-292.068	B5-03822-P02-CH0	3626648	OK	0.7101578	0.0964673	-0.6974023	0	-80.352	-95.916	-5.087	B5-03822-P02-CH1	3626648	OK	0.7712036	-0.0987644	-0.6288805	0	-83.814	-75.579	0.74	B5-03822-P03-CH0	3626648	OK	0.7227797	-0.153995	-0.6737025	0	-96.794	-55.674	0.513	B5-03822-P03-CH1	3626648	OK	0.7805497	-0.6240147	0.0367137	0	-101.698	-19.906	-2.781	B5-03822-P04-CH0	3626648	OK	0.7332078	0.5053861	-0.4549628	0	-128.496	-43.904	20.455	B5-03822-P04-CH1	3626648	OK	0.7431734	-0.6659913	0.0644116	0	-113.673	-37.721	-6.414	NA
0.77938393334862	B5-03822-P01-CH0	3626656	OK	0.1916222	0.0317746	0.0696895	-0.9784757	104.459	-57.781	-291.951	B5-03822-P02-CH0	3626656	OK	0.7111288	0.0998203	-0.6959394	0	-80.559	-96.699	-5.21	B5-03822-P02-CH1	3626656	OK	0.7701887	-0.0982228	-0.6302076	0	-84.69	-75.72	-0.32	B5-03822-P03-CH0	3626656	OK	0.7210792	-0.1536038	-0.6756114	0	-97.446	-55.845	0.782	B5-03822-P03-CH1	3626656	OK	0.780568	-0.6240092	0.0364161	0	-101.794	-19.688	-2.983	B5-03822-P04-CH0	3626656	OK	0.733355	0.50524	-0.454888	0	-128.389	-43.758	20.371	B5-03822-P04-CH1	3626656	OK	0.7429761	-0.6662269	0.0642512	0	-113.644	-37.683	-6.444	NA
0.789376035058218	B5-03822-P01-CH0	3626664	OK	0.1920155	0.0320135	0.0695137	-0.9784033	104.56	-57.727	-291.95	B5-03822-P02-CH0	3626664	OK	0.7115626	0.1016548	-0.6952302	0	-80.83	-97.071	-4.402	B5-03822-P02-CH1	3626664	OK	0.7696967	-0.097185	-0.6309691	0	-84.859	-74.982	-0.293	B5-03822-P03-CH0	3626664	OK	0.7220587	-0.1523982	-0.6748377	0	-96.223	-55.351	0.219	B5-03822-P03-CH1	3626664	OK	0.7804882	-0.6241104	0.0363913	0	-101.768	-19.632	-3.226	B5-03822-P04-CH0	3626664	OK	0.7332452	0.5047041	-0.4556592	0	-128.601	-43.843	20.442	B5-03822-P04-CH1	3626664	OK	0.7424915	-0.6666941	0.0650029	0	-113.668	-38.045	-6.383	NA
0.799368136767816	B5-03822-P01-CH0	3626672	OK	0.191847	0.0319994	0.0694536	-0.9784411	104.567	-57.741	-291.988	B5-03822-P02-CH0	3626672	OK	0.712133	0.1023088	-0.6945499	0	-81.111	-97.176	-3.894	B5-03822-P02-CH1	3626672	OK	0.769111	-0.0948482	-0.632038	0	-84.656	-75.492	1.35	B5-03822-P03-CH0	3626672	OK	0.7235848	-0.1574756	-0.6720316	0	-96.127	-55.142	0.519	B5-03822-P03-CH1	3626672	OK	0.7801743	-0.6245223	0.0360559	0	-101.736	-19.773	-3.333	B5-03822-P04-CH0	3626672	OK	0.7333192	0.5041477	-0.4561557	0	-128.718	-44.039	20.719	B5-03822-P04-CH1	3626672	OK	0.7423796	-0.6668772	0.0644001	0	-113.457	-37.985	-6.309	NA
0.809360238477413	B5-03822-P01-CH0	3626680	OK	0.1919519	0.032153	0.0693042	-0.9784261	104.677	-57.734	-291.991	B5-03822-P02-CH0	3626680	OK	0.7142139	0.1062923	-0.6918096	0	-80.49	-96.597	-4.457	B5-03822-P02-CH1	3626680	OK	0.7683486	-0.0942875	-0.6330484	0	-85.147	-76.173	2.475	B5-03822-P03-CH0	3626680	OK	0.7227528	-0.1556992	-0.6733395	0	-96.285	-55.155	0.508	B5-03822-P03-CH1	3626680	OK	0.7797334	-0.6250655	0.0361803	0	-102.02	-20.227	-2.886	B5-03822-P04-CH0	3626680	OK	0.7334731	0.5034818	-0.4566435	0	-128.783	-44.204	20.873	B5-03822-P04-CH1	3626680	OK	0.7423452	-0.6668871	0.0646924	0	-113.64	-38.037	-6.091	NA
0.819352340187011	B5-03822-P01-CH0	3626688	OK	0.1918818	0.0325008	0.068992	-0.9784504	104.891	-57.851	-291.957	B5-03822-P02-CH0	3626688	OK	0.7128856	0.1110746	-0.692428	0	-81.956	-98.353	-2.767	B5-03822-P02-CH1	3626688	OK	0.7692729	-0.0972625	-0.6314738	0	-84.651	-75.272	0.048	B5-03822-P03-CH0	3626688	OK	0.7218299	-0.1539521	-0.6747299	0	-96.555	-55.289	0.538	B5-03822-P03-CH1	3626688	OK	0.779346	-0.6255702	0.0358003	0	-102.238	-20.515	-2.798	B5-03822-P04-CH0	3626688	OK	0.7336557	0.5032208	-0.4566379	0	-128.91	-44.4	20.918	B5-03822-P04-CH1	3626688	OK	0.7417615	-0.6675297	0.0647609	0	-113.862	-38.447	-6.251	NA
0.829344441896609	B5-03822-P01-CH0	3626696	OK	0.1918646	0.0324849	0.0683538	-0.9784991	104.856	-57.871	-291.904	B5-03822-P02-CH0	3626696	OK	0.7136903	0.1205106	-0.6900169	0	-81.836	-96.986	-2.773	B5-03822-P02-CH1	3626696	OK	0.7694099	-0.096111	-0.6314833	0	-84.764	-75.341	0.347	B5-03822-P03-CH0	3626696	OK	0.721431	-0.1524758	-0.6754913	0	-96.513	-55.328	0.398	B5-03822-P03-CH1	3626696	OK	0.778828	-0.6262334	0.0354774	0	-102.306	-20.504	-2.991	B5-03822-P04-CH0	3626696	OK	0.7342393	0.5030596	-0.4558769	0	-128.665	-44.292	20.978	B5-03822-P04-CH1	3626696	OK	0.7413067	-0.6680515	0.0645873	0	-113.942	-38.41	-6.321	NA
0.839336543606206	B5-03822-P01-CH0	3626704	OK	0.1923788	0.0327127	0.0683175	-0.9783931	105.058	-57.866	-291.955	B5-03822-P02-CH0	3626704	OK	0.7128985	0.1264036	-0.689781	0	-82.807	-97.131	-1.262	B5-03822-P02-CH1	3626704	OK	0.7694891	-0.0958004	-0.6314339	0	-84.861	-75.655	0.814	B5-03822-P03-CH0	3626704	OK	0.7209194	-0.1517415	-0.6762024	0	-96.609	-55.487	0.478	B5-03822-P03-CH1	3626704	OK	0.7785354	-0.6265706	0.0359418	0	-102.471	-20.877	-2.767	B5-03822-P04-CH0	3626704	OK	0.7341439	0.5029789	-0.4561194	0	-128.664	-44.349	21.261	B5-03822-P04-CH1	3626704	OK	0.74093	-0.6684124	0.0651731	0	-113.887	-38.744	-6.546	NA
0.849328645315804	B5-03822-P01-CH0	3626712	OK	0.1925225	0.0326401	0.0686817	-0.9783417	105.044	-57.759	-291.884	B5-03822-P02-CH0	3626712	OK	0.7155017	0.1310141	-0.6862162	0	-81.889	-97.223	-2.533	B5-03822-P02-CH1	3626712	OK	0.7693321	-0.0945699	-0.6318106	0	-85.011	-75.643	0.884	B5-03822-P03-CH0	3626712	OK	0.7205746	-0.1505275	-0.6768409	0	-96.551	-55.447	0.444	B5-03822-P03-CH1	3626712	OK	0.7788764	-0.6261778	0.0353972	0	-102.487	-20.54	-2.965	B5-03822-P04-CH0	3626712	OK	0.7336317	0.5038182	-0.4560173	0	-128.734	-43.926	21.001	B5-03822-P04-CH1	3626712	OK	0.741	-0.6682954	0.0655765	0	-113.704	-38.88	-6.243	NA
0.859320747025402	B5-03822-P01-CH0	3626720	OK	0.1927383	0.0325088	0.0688568	-0.9782913	105.078	-57.794	-291.993	B5-03822-P02-CH0	3626720	OK	0.7153217	0.1337214	-0.6858816	0	-82.333	-97.034	-1.249	B5-03822-P02-CH1	3626720	OK	0.7695156	-0.0938013	-0.6317017	0	-85.021	-75.832	0.665	B5-03822-P03-CH0	3626720	OK	0.7205868	-0.1494258	-0.677072	0	-96.314	-55.585	0.336	B5-03822-P03-CH1	3626720	OK	0.7787054	-0.6263821	0.0355445	0	-102.448	-20.834	-2.86	B5-03822-P04-CH0	3626720	OK	0.7333396	0.5043902	-0.4558548	0	-128.804	-43.699	20.753	B5-03822-P04-CH1	3626720	OK	0.7412181	-0.6680533	0.0655777	0	-113.637	-38.8	-6.3	NA
0.869312848735	B5-03822-P01-CH0	3626728	OK	0.1931703	0.0327228	0.0693593	-0.9781634	105.248	-57.766	-292.007	B5-03822-P02-CH0	3626728	OK	0.7161603	0.1372871	-0.6843001	0	-82.1	-97.178	-3.294	B5-03822-P02-CH1	3626728	OK	0.7692446	-0.0931341	-0.6321304	0	-85.304	-75.915	0.788	B5-03822-P03-CH0	3626728	OK	0.7202645	-0.1486406	-0.6775877	0	-96.299	-55.61	0.464	B5-03822-P03-CH1	3626728	OK	0.7789533	-0.6260652	0.0356946	0	-102.483	-21.073	-2.413	B5-03822-P04-CH0	3626728	OK	0.7332601	0.5038572	-0.4565714	0	-128.733	-44.035	21.137	B5-03822-P04-CH1	3626728	OK	0.7415593	-0.6676502	0.0658256	0	-113.683	-38.8	-6.574	NA
0.879304950444597	B5-03822-P01-CH0	3626736	OK	0.1932527	0.0328285	0.0694426	-0.9781377	105.309	-57.742	-292.055	B5-03822-P02-CH0	3626736	OK	0.7145708	0.1377393	-0.6858691	0	-83.221	-97.879	-2.044	B5-03822-P02-CH1	3626736	OK	0.7691952	-0.0920988	-0.6323421	0	-85.464	-75.827	1.024	B5-03822-P03-CH0	3626736	OK	0.7197931	-0.1476465	-0.6783055	0	-96.319	-55.606	0.523	B5-03822-P03-CH1	3626736	OK	0.7788714	-0.6261831	0.0354114	0	-102.587	-21.161	-2.303	B5-03822-P04-CH0	3626736	OK	0.7333217	0.5033049	-0.4570815	0	-128.805	-44.265	21.351	B5-03822-P04-CH1	3626736	OK	0.741557	-0.6676721	0.0656288	0	-113.616	-38.691	-6.888	NA
0.889297052154195	B5-03822-P01-CH0	3626744	OK	0.193286	0.0326815	0.0693985	-0.9781392	105.211	-57.748	-291.967	B5-03822-P02-CH0	3626744	OK	0.7159359	0.1386972	-0.6842506	0	-82.562	-96.513	-3.618	B5-03822-P02-CH1	3626744	OK	0.7696691	-0.0911342	-0.6319051	0	-85.315	-75.825	0.841	B5-03822-P03-CH0	3626744	OK	0.7196278	-0.1467154	-0.6786829	0	-96.149	-55.618	0.485	B5-03822-P03-CH1	3626744	OK	0.7788189	-0.6262588	0.0352299	0	-102.621	-21.168	-2.214	B5-03822-P04-CH0	3626744	OK	0.7334945	0.5031821	-0.4569393	0	-128.607	-44.274	21.365	B5-03822-P04-CH1	3626744	OK	0.7416813	-0.6675857	0.0651012	0	-113.599	-38.364	-7.444	NA
