Wav.Time	B5.03822.P01.CH0	Frame	State	Q0	Qx	Qy	Qz	Tx	Ty	Tz	B5.03822.P02.CH0	Frame.1	State.1	Q0.1	Qx.1	Qy.1	Qz.1	Tx.1	Ty.1	Tz.1	B5.03822.P02.CH1	Frame.2	State.2	Q0.2	Qx.2	Qy.2	Qz.2	Tx.2	Ty.2	Tz.2	B5.03822.P03.CH0	Frame.3	State.3	Q0.3	Qx.3	Qy.3	Qz.3	Tx.3	Ty.3	Tz.3	B5.03822.P03.CH1	Frame.4	State.4	Q0.4	Qx.4	Qy.4	Qz.4	Tx.4	Ty.4	Tz.4	B5.03822.P04.CH0	Frame.5	State.5	Q0.5	Qx.5	Qy.5	Qz.5	Tx.5	Ty.5	Tz.5	B5.03822.P04.CH1	Frame.6	State.6	Q0.6	Qx.6	Qy.6	Qz.6	Tx.6	Ty.6	Tz.6	X
0	B5-03822-P01-CH0	1040248	OK	0.2336064	0.0333971	0.0509542	-0.9704207	103.08	-8.591	-231.022	B5-03822-P02-CH0	1040248	OK	0.6973518	0.5085799	-0.5050216	0	-71.507	-98.699	3.549	B5-03822-P02-CH1	1040248	OK	0.6816086	-0.1266371	-0.7206752	0	-70.862	-74.945	-0.231	B5-03822-P03-CH0	1040248	OK	0.831859	-0.4341835	-0.345681	0	-90.451	-58.943	9.104	B5-03822-P03-CH1	1040248	OK	0.8068688	-0.3813669	-0.4511341	0	-97.29	-31.443	5.999	B5-03822-P04-CH0	1040248	OK	0.7021432	-0.190349	0.6861211	0	-120.395	-41.201	6.974	B5-03822-P04-CH1	1040248	OK	0.7338505	-0.6766556	0.0600048	0	-107.157	-47.716	2.239	NA
0.00999194168025337	B5-03822-P01-CH0	1040256	OK	0.233617	0.0333122	0.0511163	-0.9704125	103.048	-8.595	-231.003	B5-03822-P02-CH0	1040256	OK	0.6927287	0.5244256	-0.4950806	0	-71.139	-98.721	4.095	B5-03822-P02-CH1	1040256	OK	0.6723778	-0.1465461	-0.7255565	0	-70.729	-74.513	0.179	B5-03822-P03-CH0	1040256	OK	0.8330505	-0.4411443	-0.3337943	0	-89.963	-58.69	9.394	B5-03822-P03-CH1	1040256	OK	0.806868	-0.3814772	-0.4510424	0	-97.27	-31.468	5.935	B5-03822-P04-CH0	1040256	OK	0.7021342	-0.190398	0.6861167	0	-120.37	-41.139	6.903	B5-03822-P04-CH1	1040256	OK	0.7339856	-0.6764884	0.0602378	0	-107.129	-47.764	2.319	NA
0.0199838833605067	B5-03822-P01-CH0	1040264	OK	0.2336545	0.0334005	0.0512522	-0.9703933	103.048	-8.606	-230.96	B5-03822-P02-CH0	1040264	OK	0.6896541	0.5362031	-0.4866862	0	-70.147	-98.268	3.951	B5-03822-P02-CH1	1040264	OK	0.6654377	-0.1664896	-0.7276496	0	-70.326	-73.937	1.022	B5-03822-P03-CH0	1040264	OK	0.831805	-0.4483929	-0.3271762	0	-90.757	-58.572	9.235	B5-03822-P03-CH1	1040264	OK	0.806737	-0.3818156	-0.4509904	0	-97.303	-31.484	5.874	B5-03822-P04-CH0	1040264	OK	0.7022966	-0.1900568	0.6860451	0	-120.463	-41.235	6.783	B5-03822-P04-CH1	1040264	OK	0.7340154	-0.676424	0.0605961	0	-107.108	-47.786	2.056	NA
0.0299758250407601	B5-03822-P01-CH0	1040272	OK	0.2338085	0.0333202	0.0516937	-0.9703356	103.008	-8.54	-230.971	B5-03822-P02-CH0	1040272	OK	0.6866823	0.5459028	-0.4800599	0	-69.604	-98.037	3.888	B5-03822-P02-CH1	1040272	OK	0.6604184	-0.1878335	-0.7270255	0	-69.562	-73.46	1.072	B5-03822-P03-CH0	1040272	OK	0.8316973	-0.4548937	-0.3183572	0	-90.44	-58.666	9.474	B5-03822-P03-CH1	1040272	OK	0.8068375	-0.3820424	-0.4506182	0	-97.259	-31.471	5.944	B5-03822-P04-CH0	1040272	OK	0.7024936	-0.1891079	0.6861056	0	-120.516	-41.329	6.999	B5-03822-P04-CH1	1040272	OK	0.7342935	-0.6760909	0.0609441	0	-107.163	-47.771	1.988	NA
0.0399677667210135	B5-03822-P01-CH0	1040280	OK	0.2339024	0.0335281	0.0519074	-0.9702944	103.065	-8.532	-230.957	B5-03822-P02-CH0	1040280	OK	0.6829369	0.556106	-0.4736488	0	-68.903	-97.502	4.068	B5-03822-P02-CH1	1040280	OK	0.6597453	-0.2037293	-0.7233467	0	-67.343	-71.466	-0.689	B5-03822-P03-CH0	1040280	OK	0.8314376	-0.4587659	-0.3134413	0	-90.647	-58.709	9.528	B5-03822-P03-CH1	1040280	OK	0.8067634	-0.3824506	-0.4504046	0	-97.29	-31.523	5.97	B5-03822-P04-CH0	1040280	OK	0.7027426	-0.1885446	0.6860057	0	-120.646	-41.441	7.046	B5-03822-P04-CH1	1040280	OK	0.7345507	-0.6757691	0.0614109	0	-107.279	-47.832	2.281	NA
0.0499597084012669	B5-03822-P01-CH0	1040288	OK	0.2339512	0.0333843	0.0524091	-0.9702606	103.02	-8.485	-231.003	B5-03822-P02-CH0	1040288	OK	0.6798389	0.5659851	-0.4663475	0	-68.297	-97.969	3.96	B5-03822-P02-CH1	1040288	OK	0.6568436	-0.1962707	-0.7280345	0	-69.858	-72.418	1.617	B5-03822-P03-CH0	1040288	OK	0.8315884	-0.4613818	-0.3091724	0	-91.021	-58.39	9.166	B5-03822-P03-CH1	1040288	OK	0.8069438	-0.3825875	-0.4499651	0	-97.242	-31.522	6.09	B5-03822-P04-CH0	1040288	OK	0.7027921	-0.188526	0.6859601	0	-120.66	-41.366	7.044	B5-03822-P04-CH1	1040288	OK	0.7348609	-0.675391	0.0618588	0	-107.342	-47.855	2.225	NA
0.0599516500815202	B5-03822-P01-CH0	1040296	OK	0.2339626	0.0334017	0.0528954	-0.9702309	103.017	-8.444	-230.985	B5-03822-P02-CH0	1040296	OK	0.674517	0.5751062	-0.4629035	0	-68.248	-97.979	3.531	B5-03822-P02-CH1	1040296	OK	0.661377	-0.1921154	-0.7250325	0	-69.838	-71.97	0.826	B5-03822-P03-CH0	1040296	OK	0.832201	-0.4650115	-0.3020031	0	-90.957	-58.365	8.995	B5-03822-P03-CH1	1040296	OK	0.8068392	-0.3827736	-0.4499943	0	-97.367	-31.476	6.063	B5-03822-P04-CH0	1040296	OK	0.703015	-0.1881147	0.6858445	0	-120.769	-41.39	7.03	B5-03822-P04-CH1	1040296	OK	0.7350367	-0.6751686	0.0621963	0	-107.431	-47.927	2.198	NA
0.0699435917617736	B5-03822-P01-CH0	1040304	OK	0.2339395	0.0334289	0.0532476	-0.9702162	102.995	-8.38	-230.968	B5-03822-P02-CH0	1040304	OK	0.6693272	0.5809262	-0.4631694	0	-67.819	-97.619	3.406	B5-03822-P02-CH1	1040304	OK	0.6663432	-0.1934783	-0.7201061	0	-69.24	-71.726	0.719	B5-03822-P03-CH0	1040304	OK	0.8329235	-0.4685294	-0.2944804	0	-90.891	-58.368	9.343	B5-03822-P03-CH1	1040304	OK	0.8067842	-0.3830159	-0.4498867	0	-97.419	-31.417	6.097	B5-03822-P04-CH0	1040304	OK	0.7030315	-0.1880827	0.6858364	0	-120.808	-41.263	6.947	B5-03822-P04-CH1	1040304	OK	0.7354132	-0.6747378	0.0624208	0	-107.429	-47.843	2.513	NA
0.079935533442027	B5-03822-P01-CH0	1040312	OK	0.2338697	0.0334712	0.0531259	-0.9702383	102.983	-8.444	-230.959	B5-03822-P02-CH0	1040312	OK	0.665195	0.5818365	-0.467955	0	-67.107	-97.524	3.395	B5-03822-P02-CH1	1040312	OK	0.6695908	-0.1934544	-0.7170938	0	-69.512	-72.069	1.311	B5-03822-P03-CH0	1040312	OK	0.8332248	-0.4708624	-0.2898707	0	-90.973	-58.452	9.099	B5-03822-P03-CH1	1040312	OK	0.8066854	-0.383534	-0.4496224	0	-97.356	-31.477	6.082	B5-03822-P04-CH0	1040312	OK	0.7028913	-0.1879617	0.6860132	0	-120.808	-41.344	6.917	B5-03822-P04-CH1	1040312	OK	0.7352957	-0.6748435	0.0626622	0	-107.446	-47.886	2.406	NA
0.0899274751222803	B5-03822-P01-CH0	1040320	OK	0.2337101	0.033577	0.0528761	-0.9702867	102.976	-8.456	-230.965	B5-03822-P02-CH0	1040320	OK	0.6609309	0.5791069	-0.4772898	0	-66.826	-97.055	3.904	B5-03822-P02-CH1	1040320	OK	0.6728936	-0.1964692	-0.7131718	0	-69.327	-71.854	0.243	B5-03822-P03-CH0	1040320	OK	0.8336882	-0.4729804	-0.2850501	0	-90.442	-58.811	9.179	B5-03822-P03-CH1	1040320	OK	0.806441	-0.3842607	-0.4494404	0	-97.345	-31.529	6.108	B5-03822-P04-CH0	1040320	OK	0.7027737	-0.1880829	0.6861005	0	-120.856	-41.28	6.871	B5-03822-P04-CH1	1040320	OK	0.7351024	-0.6750454	0.0627539	0	-107.612	-47.895	2.342	NA
0.0999194168025337	B5-03822-P01-CH0	1040328	OK	0.2337248	0.0334418	0.0528684	-0.9702883	102.94	-8.547	-231.002	B5-03822-P02-CH0	1040328	OK	0.6581026	0.5702597	-0.491635	0	-66.294	-97.456	4.049	B5-03822-P02-CH1	1040328	OK	0.6754579	-0.2009966	-0.7094765	0	-69.362	-72.02	0.215	B5-03822-P03-CH0	1040328	OK	0.8349411	-0.4718072	-0.2833219	0	-90.709	-58.787	9.217	B5-03822-P03-CH1	1040328	OK	0.8063449	-0.3848369	-0.4491197	0	-97.297	-31.617	6.199	B5-03822-P04-CH0	1040328	OK	0.7028547	-0.187491	0.6861795	0	-120.912	-41.409	7.021	B5-03822-P04-CH1	1040328	OK	0.7351473	-0.6749606	0.0631392	0	-107.635	-47.963	2.327	NA
0.109911358482787	B5-03822-P01-CH0	1040336	OK	0.2337635	0.0334847	0.0530398	-0.9702681	102.94	-8.568	-231.018	B5-03822-P02-CH0	1040336	OK	0.6521191	0.5572711	-0.5139938	0	-66.027	-97.304	4.099	B5-03822-P02-CH1	1040336	OK	0.6765733	-0.2060841	-0.7069497	0	-69.64	-71.774	0.976	B5-03822-P03-CH0	1040336	OK	0.8379673	-0.4686837	-0.2795468	0	-90.667	-59.11	9.311	B5-03822-P03-CH1	1040336	OK	0.8062601	-0.3853662	-0.448818	0	-97.287	-31.614	6.265	B5-03822-P04-CH0	1040336	OK	0.7030857	-0.1866047	0.6861845	0	-121.073	-41.588	7.097	B5-03822-P04-CH1	1040336	OK	0.735241	-0.6748238	0.0635098	0	-107.692	-48.004	2.389	NA
0.11990330016304	B5-03822-P01-CH0	1040344	OK	0.2336214	0.0335875	0.0527562	-0.9703142	102.948	-8.643	-230.981	B5-03822-P02-CH0	1040344	OK	0.6461924	0.5382128	-0.5410751	0	-65.507	-97.313	4.226	B5-03822-P02-CH1	1040344	OK	0.6767809	-0.2100042	-0.7055961	0	-69.763	-71.922	0.379	B5-03822-P03-CH0	1040344	OK	0.8422218	-0.4631042	-0.276038	0	-91.069	-59.352	9.925	B5-03822-P03-CH1	1040344	OK	0.8059975	-0.3859962	-0.4487482	0	-97.292	-31.612	6.236	B5-03822-P04-CH0	1040344	OK	0.7030195	-0.186385	0.686312	0	-121.139	-41.593	7.051	B5-03822-P04-CH1	1040344	OK	0.7351098	-0.674954	0.0636451	0	-107.838	-48.053	2.537	NA
0.129895241843294	B5-03822-P01-CH0	1040352	OK	0.2333385	0.0338512	0.0519426	-0.970417	103.006	-8.779	-230.982	B5-03822-P02-CH0	1040352	OK	0.638902	0.5174525	-0.5692513	0	-64.713	-96.699	4.253	B5-03822-P02-CH1	1040352	OK	0.6770696	-0.2164352	-0.7033723	0	-69.537	-71.884	0.591	B5-03822-P03-CH0	1040352	OK	0.847129	-0.4576208	-0.2701029	0	-91.07	-60.084	10.145	B5-03822-P03-CH1	1040352	OK	0.805458	-0.3869622	-0.4488849	0	-97.307	-31.704	6.323	B5-03822-P04-CH0	1040352	OK	0.7029103	-0.1859463	0.6865428	0	-121.273	-41.781	7.104	B5-03822-P04-CH1	1040352	OK	0.7346689	-0.6754209	0.0637824	0	-107.899	-48.079	2.565	NA
0.139887183523547	B5-03822-P01-CH0	1040360	OK	0.2332298	0.0336531	0.0520721	-0.9704431	102.929	-8.801	-231.014	B5-03822-P02-CH0	1040360	OK	0.6300534	0.5033596	-0.5913221	0	-64.751	-96.191	4.17	B5-03822-P02-CH1	1040360	OK	0.6762895	-0.2261706	-0.7010559	0	-69.81	-72.192	0.549	B5-03822-P03-CH0	1040360	OK	0.85346	-0.448207	-0.2659257	0	-91.301	-60.638	10.192	B5-03822-P03-CH1	1040360	OK	0.8053107	-0.3876312	-0.448572	0	-97.284	-31.677	6.263	B5-03822-P04-CH0	1040360	OK	0.7028311	-0.1851392	0.686842	0	-121.341	-41.839	7.142	B5-03822-P04-CH1	1040360	OK	0.7345162	-0.6755289	0.0643952	0	-107.875	-48.167	2.29	NA
0.149879125203801	B5-03822-P01-CH0	1040368	OK	0.2330649	0.0337347	0.0517743	-0.9704958	102.944	-8.878	-231.039	B5-03822-P02-CH0	1040368	OK	0.6228432	0.4985536	-0.6029184	0	-65.075	-95.762	4.374	B5-03822-P02-CH1	1040368	OK	0.6749663	-0.2369153	-0.6987787	0	-69.592	-72.359	0.514	B5-03822-P03-CH0	1040368	OK	0.8604622	-0.4369997	-0.2619849	0	-91.218	-61.452	10.414	B5-03822-P03-CH1	1040368	OK	0.8049013	-0.3886572	-0.4484189	0	-97.292	-31.723	6.223	B5-03822-P04-CH0	1040368	OK	0.7027715	-0.183893	0.6872376	0	-121.497	-41.978	7.132	B5-03822-P04-CH1	1040368	OK	0.7343496	-0.6756629	0.0648869	0	-107.964	-48.26	2.574	NA
0.159871066884054	B5-03822-P01-CH0	1040376	OK	0.2331058	0.0335226	0.0518751	-0.970488	102.875	-8.945	-231.073	B5-03822-P02-CH0	1040376	OK	0.6212644	0.499942	-0.6033976	0	-65.249	-95.963	4.266	B5-03822-P02-CH1	1040376	OK	0.67359	-0.2386021	-0.6995323	0	-68.476	-72.446	-0.961	B5-03822-P03-CH0	1040376	OK	0.8673756	-0.4208257	-0.2656413	0	-92.208	-62.284	10.901	B5-03822-P03-CH1	1040376	OK	0.8039596	-0.3950737	-0.4444836	0	-97.076	-31.566	5.777	B5-03822-P04-CH0	1040376	OK	0.7017348	-0.1750438	0.6905997	0	-122.116	-42.253	6.986	B5-03822-P04-CH1	1040376	OK	0.7344752	-0.6754411	0.0657688	0	-108.044	-48.274	2.122	NA
0.169863008564307	B5-03822-P01-CH0	1040384	OK	0.2329883	0.033506	0.0514651	-0.9705386	102.857	-9.028	-231.054	B5-03822-P02-CH0	1040384	OK	0.6246433	0.499973	-0.5998731	0	-65.963	-95.991	4.957	B5-03822-P02-CH1	1040384	OK	0.6739145	-0.2240032	-0.7040325	0	-68.806	-73.075	1.252	B5-03822-P03-CH0	1040384	OK	0.8734652	-0.4041173	-0.2715653	0	-92.756	-63.175	11.094	B5-03822-P03-CH1	1040384	OK	0.8039427	-0.3965689	-0.4431808	0	-96.707	-31.424	6.21	B5-03822-P04-CH0	1040384	OK	0.7013239	-0.170756	0.692089	0	-122.407	-42.899	7.204	B5-03822-P04-CH1	1040384	OK	0.7340413	-0.6758156	0.0667582	0	-108.279	-48.465	1.775	NA
0.179854950244561	B5-03822-P01-CH0	1040392	OK	0.2330797	0.0332792	0.0515875	-0.9705179	102.781	-9.042	-231.084	B5-03822-P02-CH0	1040392	OK	0.6349555	0.4932698	-0.5945725	0	-66.492	-97.23	4.658	B5-03822-P02-CH1	1040392	OK	0.6809124	-0.20984	-0.7016591	0	-69.075	-73.825	0.256	B5-03822-P03-CH0	1040392	OK	0.8789406	-0.3855782	-0.2807006	0	-93.244	-63.539	11.257	B5-03822-P03-CH1	1040392	OK	0.8027642	-0.3972334	-0.4447192	0	-97.259	-31.433	5.917	B5-03822-P04-CH0	1040392	OK	0.7006487	-0.1690909	0.6931808	0	-122.55	-42.491	6.786	B5-03822-P04-CH1	1040392	OK	0.7342795	-0.6754163	0.0681654	0	-108.422	-48.536	1.792	NA
0.189846891924814	B5-03822-P01-CH0	1040400	OK	0.2330948	0.0331854	0.0519593	-0.9704977	102.784	-9.056	-231.117	B5-03822-P02-CH0	1040400	OK	0.6450621	0.4815426	-0.5933056	0	-67.642	-97.743	4.888	B5-03822-P02-CH1	1040400	OK	0.6906219	-0.1922121	-0.6972058	0	-69.979	-74.63	0.119	B5-03822-P03-CH0	1040400	OK	0.8828395	-0.3697096	-0.2896709	0	-93.368	-64.626	11.337	B5-03822-P03-CH1	1040400	OK	0.8032425	-0.3995562	-0.441765	0	-96.553	-31.969	6.123	B5-03822-P04-CH0	1040400	OK	0.7010526	-0.1648493	0.6937939	0	-123.07	-42.429	6.708	B5-03822-P04-CH1	1040400	OK	0.7338924	-0.6747982	0.0777778	0	-109.019	-49.358	-0.768	NA
0.199838833605067	B5-03822-P01-CH0	1040408	OK	0.2329593	0.0331407	0.0520032	-0.9705294	102.74	-9.016	-231.085	B5-03822-P02-CH0	1040408	OK	0.656169	0.469911	-0.5904454	0	-69.069	-99.157	4.528	B5-03822-P02-CH1	1040408	OK	0.7019684	-0.173179	-0.6908324	0	-71.666	-76.21	0.609	B5-03822-P03-CH0	1040408	OK	0.8866706	-0.3487932	-0.3035764	0	-93.989	-65.16	12.165	B5-03822-P03-CH1	1040408	OK	0.8021188	-0.3996778	-0.4436926	0	-97.104	-31.593	6.184	B5-03822-P04-CH0	1040408	OK	0.7002966	-0.1592615	0.6958595	0	-123.21	-43.815	7.464	B5-03822-P04-CH1	1040408	OK	0.7349396	-0.6735617	0.0786027	0	-109.673	-49.279	1.043	NA
0.209830775285321	B5-03822-P01-CH0	1040416	OK	0.2326181	0.0332429	0.0513471	-0.9706427	102.739	-9.047	-231.008	B5-03822-P02-CH0	1040416	OK	0.666988	0.463323	-0.5834885	0	-70.179	-100.15	4.809	B5-03822-P02-CH1	1040416	OK	0.7136186	-0.1525496	-0.6837229	0	-72.197	-77.665	0.46	B5-03822-P03-CH0	1040416	OK	0.8876319	-0.3288484	-0.3224412	0	-95.311	-66.054	12.054	B5-03822-P03-CH1	1040416	OK	0.8019071	-0.4020512	-0.4419274	0	-96.762	-31.663	6.133	B5-03822-P04-CH0	1040416	OK	0.6989692	-0.1582308	0.6974274	0	-123.082	-43.728	7.201	B5-03822-P04-CH1	1040416	OK	0.7357743	-0.6723889	0.0808049	0	-110.27	-49.668	4.213	NA
0.219822716965574	B5-03822-P01-CH0	1040424	OK	0.2324608	0.0332595	0.0510288	-0.9706966	102.746	-9.075	-230.971	B5-03822-P02-CH0	1040424	OK	0.6789087	0.4554918	-0.5758561	0	-71.557	-101.602	5.387	B5-03822-P02-CH1	1040424	OK	0.7222146	-0.1304953	-0.6792474	0	-74.09	-79.945	-0.131	B5-03822-P03-CH0	1040424	OK	0.8883434	-0.3141707	-0.3348773	0	-95.54	-66.556	12.604	B5-03822-P03-CH1	1040424	OK	0.8015217	-0.4041308	-0.440728	0	-96.5	-31.664	5.687	B5-03822-P04-CH0	1040424	OK	0.6994708	-0.1571273	0.697174	0	-123.507	-43.649	7.057	B5-03822-P04-CH1	1040424	OK	0.7347451	-0.6732308	0.083126	0	-109.938	-50.122	1.787	NA
0.229814658645828	B5-03822-P01-CH0	1040432	OK	0.2324288	0.033176	0.0511177	-0.9707024	102.711	-9.042	-230.898	B5-03822-P02-CH0	1040432	OK	0.6868062	0.4442521	-0.5752714	0	-73.539	-102.617	5.342	B5-03822-P02-CH1	1040432	OK	0.7307643	-0.1057035	-0.6743963	0	-75.914	-80.962	1.33	B5-03822-P03-CH0	1040432	OK	0.8867	-0.304189	-0.348184	0	-96.228	-67.274	12.401	B5-03822-P03-CH1	1040432	OK	0.8003809	-0.4051239	-0.441888	0	-96.941	-31.602	6.191	B5-03822-P04-CH0	1040432	OK	0.6997472	-0.1553385	0.6972975	0	-123.851	-43.343	6.071	B5-03822-P04-CH1	1040432	OK	0.7349399	-0.6728134	0.0847679	0	-109.791	-50.454	2.403	NA
0.239806600326081	B5-03822-P01-CH0	1040440	OK	0.2322851	0.0332738	0.0508264	-0.9707488	102.75	-9.042	-230.808	B5-03822-P02-CH0	1040440	OK	0.6929653	0.4312327	-0.5777866	0	-74.441	-102.989	4.434	B5-03822-P02-CH1	1040440	OK	0.7378854	-0.0834286	-0.6697498	0	-77.023	-81.714	1.852	B5-03822-P03-CH0	1040440	OK	0.8844996	-0.2955483	-0.3609871	0	-96.656	-66.904	12.723	B5-03822-P03-CH1	1040440	OK	0.8001788	-0.4053002	-0.4420923	0	-97.067	-31.181	6.195	B5-03822-P04-CH0	1040440	OK	0.6994136	-0.1529781	0.6981535	0	-123.899	-43.541	5.876	B5-03822-P04-CH1	1040440	OK	0.7350404	-0.6727277	0.0845762	0	-109.948	-50.216	1.301	NA
0.249798542006334	B5-03822-P01-CH0	1040448	OK	0.2321366	0.0334703	0.050358	-0.970802	102.839	-9.069	-230.736	B5-03822-P02-CH0	1040448	OK	0.698576	0.4170591	-0.5814235	0	-74.971	-102.983	5.148	B5-03822-P02-CH1	1040448	OK	0.7438403	-0.0672859	-0.6649618	0	-77.617	-81.994	1.903	B5-03822-P03-CH0	1040448	OK	0.8805583	-0.2940299	-0.3717034	0	-96.44	-66.771	12.905	B5-03822-P03-CH1	1040448	OK	0.8000131	-0.4068079	-0.4410062	0	-96.68	-31.51	6.021	B5-03822-P04-CH0	1040448	OK	0.6994047	-0.1496563	0.698882	0	-123.978	-44.229	6.798	B5-03822-P04-CH1	1040448	OK	0.7354032	-0.6724141	0.083913	0	-110.753	-50.203	2.839	NA
0.259790483686588	B5-03822-P01-CH0	1040456	OK	0.2320107	0.0336567	0.0498854	-0.97085	102.937	-9.056	-230.713	B5-03822-P02-CH0	1040456	OK	0.7041328	0.4045226	-0.5835739	0	-75.745	-103.306	4.541	B5-03822-P02-CH1	1040456	OK	0.748947	-0.0495834	-0.6607722	0	-77.608	-81.888	0.618	B5-03822-P03-CH0	1040456	OK	0.8736715	-0.2961497	-0.3859967	0	-96.147	-66.375	12.324	B5-03822-P03-CH1	1040456	OK	0.7999603	-0.407595	-0.4403748	0	-96.477	-31.719	6.001	B5-03822-P04-CH0	1040456	OK	0.6999056	-0.1508917	0.6981145	0	-124.04	-43.443	6.574	B5-03822-P04-CH1	1040456	OK	0.7355141	-0.6723704	0.0832893	0	-111.249	-50.416	4.656	NA
0.269782425366841	B5-03822-P01-CH0	1040464	OK	0.2321718	0.0334767	0.0503498	-0.9707937	102.949	-9.024	-230.746	B5-03822-P02-CH0	1040464	OK	0.709614	0.3938708	-0.5842206	0	-75.872	-103.166	4.031	B5-03822-P02-CH1	1040464	OK	0.7512743	-0.0308386	-0.6592692	0	-78.381	-82.568	1.566	B5-03822-P03-CH0	1040464	OK	0.8648613	-0.2952354	-0.4060184	0	-95.361	-65.36	11.807	B5-03822-P03-CH1	1040464	OK	0.8003619	-0.4072636	-0.4399513	0	-96.849	-31.265	6.081	B5-03822-P04-CH0	1040464	OK	0.7001634	-0.1557488	0.696788	0	-123.9	-43.646	6.809	B5-03822-P04-CH1	1040464	OK	0.7347248	-0.6734961	0.0811324	0	-110.352	-49.817	2.042	NA
0.279774367047094	B5-03822-P01-CH0	1040472	OK	0.2319741	0.0334891	0.0500495	-0.9708561	102.976	-9.014	-230.714	B5-03822-P02-CH0	1040472	OK	0.716096	0.3858266	-0.5816738	0	-76.154	-102.685	3.831	B5-03822-P02-CH1	1040472	OK	0.7528686	-0.0079626	-0.6581227	0	-79.289	-82.151	0.671	B5-03822-P03-CH0	1040472	OK	0.8543079	-0.2889835	-0.432026	0	-94.379	-63.824	11.284	B5-03822-P03-CH1	1040472	OK	0.8008661	-0.4083338	-0.4380377	0	-96.465	-31.331	5.421	B5-03822-P04-CH0	1040472	OK	0.6997401	-0.1551379	0.6973493	0	-123.753	-43.617	6.961	B5-03822-P04-CH1	1040472	OK	0.7346992	-0.673525	0.0811246	0	-110.39	-49.901	2.572	NA
0.289766308727348	B5-03822-P01-CH0	1040480	OK	0.2321023	0.0335451	0.0499936	-0.9708264	102.999	-8.998	-230.616	B5-03822-P02-CH0	1040480	OK	0.722024	0.3780177	-0.5794687	0	-76.401	-102.097	3.2	B5-03822-P02-CH1	1040480	OK	0.7567728	0.0145411	-0.6535162	0	-78.719	-80.453	0.867	B5-03822-P03-CH0	1040480	OK	0.8443451	-0.2808264	-0.4563089	0	-93.107	-62.07	11.036	B5-03822-P03-CH1	1040480	OK	0.8002458	-0.4061699	-0.4411719	0	-97.066	-31.526	5.892	B5-03822-P04-CH0	1040480	OK	0.6992228	-0.1579361	0.69724	0	-122.007	-43.037	7.15	B5-03822-P04-CH1	1040480	OK	0.7350219	-0.6732115	0.0808029	0	-110.279	-49.911	3.209	NA
0.299758250407601	B5-03822-P01-CH0	1040488	OK	0.2322044	0.0334456	0.0501255	-0.9707986	102.983	-8.919	-230.621	B5-03822-P02-CH0	1040488	OK	0.7259939	0.3678886	-0.5810257	0	-76.552	-101.217	3.065	B5-03822-P02-CH1	1040488	OK	0.7594638	0.0341446	-0.6496529	0	-78.773	-79.909	1.048	B5-03822-P03-CH0	1040488	OK	0.8341854	-0.2770317	-0.4768524	0	-91.661	-60.205	9.818	B5-03822-P03-CH1	1040488	OK	0.8003671	-0.4070925	-0.4401003	0	-97.02	-31.511	5.775	B5-03822-P04-CH0	1040488	OK	0.7023273	-0.1591587	0.6938334	0	-122.311	-42.867	7.205	B5-03822-P04-CH1	1040488	OK	0.735366	-0.6741697	0.0687895	0	-108.763	-48.924	3.492	NA
0.309750192087854	B5-03822-P01-CH0	1040496	OK	0.2322096	0.0333647	0.0499707	-0.9708081	102.978	-8.914	-230.637	B5-03822-P02-CH0	1040496	OK	0.7308586	0.3533327	-0.5839535	0	-76.203	-100.459	3.299	B5-03822-P02-CH1	1040496	OK	0.7623439	0.0429072	-0.6457483	0	-79.087	-79.328	2.216	B5-03822-P03-CH0	1040496	OK	0.8196636	-0.2827278	-0.4982135	0	-91.76	-59.494	9.439	B5-03822-P03-CH1	1040496	OK	0.8004938	-0.4076291	-0.4393725	0	-96.988	-31.479	5.707	B5-03822-P04-CH0	1040496	OK	0.7027387	-0.1618708	0.6927886	0	-121.285	-42.251	7.181	B5-03822-P04-CH1	1040496	OK	0.7351855	-0.67492	0.0631298	0	-108.66	-48.29	2.805	NA
0.319742133768108	B5-03822-P01-CH0	1040504	OK	0.2322121	0.0332719	0.0498901	-0.9708149	102.959	-8.869	-230.688	B5-03822-P02-CH0	1040504	OK	0.736063	0.3394506	-0.5856489	0	-75.638	-99.789	3.467	B5-03822-P02-CH1	1040504	OK	0.7647187	0.0502256	-0.6424039	0	-79.429	-78.807	2.246	B5-03822-P03-CH0	1040504	OK	0.8105689	-0.3075624	-0.4983809	0	-88.398	-57.561	9.523	B5-03822-P03-CH1	1040504	OK	0.8008466	-0.4079178	-0.4384607	0	-96.901	-31.427	5.673	B5-03822-P04-CH0	1040504	OK	0.7029457	-0.1648808	0.6918682	0	-120.631	-41.6	6.633	B5-03822-P04-CH1	1040504	OK	0.7351613	-0.6752166	0.0601708	0	-107.805	-47.593	1.591	NA
0.329734075448361	B5-03822-P01-CH0	1040512	OK	0.2322342	0.0332608	0.0499672	-0.970806	102.973	-8.799	-230.705	B5-03822-P02-CH0	1040512	OK	0.737959	0.3290052	-0.5892131	0	-75.043	-99	2.618	B5-03822-P02-CH1	1040512	OK	0.7665679	0.0552828	-0.6397792	0	-78.896	-77.819	0.795	B5-03822-P03-CH0	1040512	OK	0.8017653	-0.3281262	-0.4995054	0	-88.486	-55.973	6.031	B5-03822-P03-CH1	1040512	OK	0.8011265	-0.4080535	-0.4378227	0	-96.939	-31.367	5.635	B5-03822-P04-CH0	1040512	OK	0.7019199	-0.1676308	0.6922488	0	-119.713	-40.19	6.28	B5-03822-P04-CH1	1040512	OK	0.7357255	-0.6748487	0.057335	0	-108.028	-47.471	3.028	NA
0.339726017128615	B5-03822-P01-CH0	1040520	OK	0.2323306	0.033222	0.0500529	-0.9707799	102.964	-8.753	-230.769	B5-03822-P02-CH0	1040520	OK	0.7369154	0.3210058	-0.5949041	0	-74.904	-98.378	2.554	B5-03822-P02-CH1	1040520	OK	0.7665199	0.0546079	-0.6398947	0	-78.926	-78.072	2.164	B5-03822-P03-CH0	1040520	OK	0.7969508	-0.348356	-0.4934749	0	-87.271	-56.745	8.303	B5-03822-P03-CH1	1040520	OK	0.8015559	-0.4082162	-0.436884	0	-96.836	-31.402	5.577	B5-03822-P04-CH0	1040520	OK	0.7023593	-0.1652442	0.6923769	0	-120.088	-40.506	6.265	B5-03822-P04-CH1	1040520	OK	0.7356634	-0.6751588	0.0544064	0	-107.648	-46.808	2.131	NA
0.349717958808868	B5-03822-P01-CH0	1040528	OK	0.2323147	0.033141	0.050037	-0.9707872	102.905	-8.696	-230.781	B5-03822-P02-CH0	1040528	OK	0.7362748	0.3167494	-0.5979709	0	-74.716	-98.491	2.874	B5-03822-P02-CH1	1040528	OK	0.7650471	0.0534904	-0.641749	0	-78.923	-77.81	2.323	B5-03822-P03-CH0	1040528	OK	0.7914719	-0.3663344	-0.4892559	0	-88.282	-56.481	8.18	B5-03822-P03-CH1	1040528	OK	0.8020177	-0.4081604	-0.4360879	0	-96.765	-31.296	5.547	B5-03822-P04-CH0	1040528	OK	0.7025232	-0.1631554	0.6927059	0	-120.186	-40.642	7.028	B5-03822-P04-CH1	1040528	OK	0.7348586	-0.6760122	0.0546837	0	-107.187	-47.151	2.793	NA
0.359709900489121	B5-03822-P01-CH0	1040536	OK	0.2322496	0.0332706	0.0499957	-0.9708005	102.915	-8.638	-230.773	B5-03822-P02-CH0	1040536	OK	0.7356409	0.317655	-0.5982706	0	-74.722	-98.277	2.9	B5-03822-P02-CH1	1040536	OK	0.7629073	0.0518219	-0.6444277	0	-78.816	-77.297	1.32	B5-03822-P03-CH0	1040536	OK	0.789637	-0.3815329	-0.4805268	0	-88.875	-55.466	6.55	B5-03822-P03-CH1	1040536	OK	0.8023045	-0.4081446	-0.4355748	0	-96.742	-31.275	5.548	B5-03822-P04-CH0	1040536	OK	0.7024875	-0.1611241	0.6932174	0	-120.302	-40.887	6.874	B5-03822-P04-CH1	1040536	OK	0.7349918	-0.6759739	0.0533512	0	-107.181	-47.112	3.365	NA
0.369701842169375	B5-03822-P01-CH0	1040544	OK	0.2322153	0.0334618	0.0497122	-0.9708167	102.923	-8.573	-230.727	B5-03822-P02-CH0	1040544	OK	0.7355715	0.3209688	-0.596585	0	-74.758	-97.705	2.895	B5-03822-P02-CH1	1040544	OK	0.7606755	0.0480654	-0.6473503	0	-79.012	-77.86	1.298	B5-03822-P03-CH0	1040544	OK	0.7904465	-0.3909498	-0.4715427	0	-88.47	-55.391	6.629	B5-03822-P03-CH1	1040544	OK	0.8025619	-0.4082371	-0.4350137	0	-96.685	-31.243	5.5	B5-03822-P04-CH0	1040544	OK	0.7013515	-0.162307	0.6940912	0	-120.038	-40.393	5.785	B5-03822-P04-CH1	1040544	OK	0.7348709	-0.6762512	0.0514696	0	-107.508	-46.836	3.217	NA
0.379693783849628	B5-03822-P01-CH0	1040552	OK	0.2322721	0.0336235	0.0497537	-0.9707954	102.954	-8.506	-230.73	B5-03822-P02-CH0	1040552	OK	0.7367408	0.3267802	-0.5919693	0	-74.957	-98.327	2.982	B5-03822-P02-CH1	1040552	OK	0.7599065	0.0430357	-0.6486062	0	-78.782	-77.947	1.442	B5-03822-P03-CH0	1040552	OK	0.7917698	-0.3966293	-0.4645275	0	-88.326	-55.438	6.912	B5-03822-P03-CH1	1040552	OK	0.8028391	-0.4080328	-0.4346938	0	-96.658	-31.254	5.663	B5-03822-P04-CH0	1040552	OK	0.7013136	-0.1612125	0.6943844	0	-120.078	-40.242	6.134	B5-03822-P04-CH1	1040552	OK	0.734573	-0.6765828	0.051364	0	-107.057	-46.613	1.787	NA
0.389685725529881	B5-03822-P01-CH0	1040560	OK	0.2323517	0.0336723	0.049812	-0.9707717	102.975	-8.419	-230.802	B5-03822-P02-CH0	1040560	OK	0.7386878	0.3365807	-0.583998	0	-74.847	-98.202	3.031	B5-03822-P02-CH1	1040560	OK	0.7587069	0.0422247	-0.6500623	0	-78.58	-77.96	2.029	B5-03822-P03-CH0	1040560	OK	0.7933902	-0.402088	-0.4570089	0	-88.506	-55.582	7.322	B5-03822-P03-CH1	1040560	OK	0.8030772	-0.4077363	-0.4345321	0	-96.695	-31.175	5.709	B5-03822-P04-CH0	1040560	OK	0.7024977	-0.1623747	0.6929151	0	-120.548	-40.882	7.161	B5-03822-P04-CH1	1040560	OK	0.7341238	-0.6770433	0.051717	0	-106.476	-46.553	0.937	NA
0.399677667210135	B5-03822-P01-CH0	1040568	OK	0.2323467	0.033715	0.0496127	-0.9707816	102.984	-8.374	-230.797	B5-03822-P02-CH0	1040568	OK	0.7410075	0.3486907	-0.5738664	0	-74.721	-98.165	2.461	B5-03822-P02-CH1	1040568	OK	0.7558784	0.0446865	-0.6531853	0	-78.317	-77.778	1.107	B5-03822-P03-CH0	1040568	OK	0.795112	-0.4071628	-0.4494612	0	-89.179	-55.575	7.105	B5-03822-P03-CH1	1040568	OK	0.8032253	-0.4075012	-0.4344788	0	-96.661	-31.116	5.709	B5-03822-P04-CH0	1040568	OK	0.7023062	-0.1630407	0.6929529	0	-120.43	-40.587	6.781	B5-03822-P04-CH1	1040568	OK	0.7347346	-0.6761512	0.0546315	0	-107.433	-46.883	2.88	NA
0.409669608890388	B5-03822-P01-CH0	1040576	OK	0.232564	0.033716	0.0500303	-0.9707081	103.006	-8.287	-230.782	B5-03822-P02-CH0	1040576	OK	0.741078	0.3629703	-0.5648504	0	-75.582	-98.438	3.048	B5-03822-P02-CH1	1040576	OK	0.7488167	0.0492185	-0.6609471	0	-78.947	-78.262	0.95	B5-03822-P03-CH0	1040576	OK	0.7987289	-0.4127524	-0.4377986	0	-89.059	-55.694	7.491	B5-03822-P03-CH1	1040576	OK	0.8033732	-0.4071613	-0.4345241	0	-96.729	-31.062	5.752	B5-03822-P04-CH0	1040576	OK	0.7022984	-0.1630826	0.692951	0	-120.373	-40.436	6.6	B5-03822-P04-CH1	1040576	OK	0.7350271	-0.6758933	0.0538825	0	-107.385	-46.746	2.749	NA
0.419661550570642	B5-03822-P01-CH0	1040584	OK	0.2327616	0.0338628	0.0501594	-0.9706489	103.073	-8.242	-230.756	B5-03822-P02-CH0	1040584	OK	0.740756	0.3803351	-0.553738	0	-76.309	-98.84	2.726	B5-03822-P02-CH1	1040584	OK	0.7425344	0.0523134	-0.6677619	0	-78.053	-77.835	0.378	B5-03822-P03-CH0	1040584	OK	0.801586	-0.4183598	-0.427124	0	-89.302	-55.765	7.728	B5-03822-P03-CH1	1040584	OK	0.8033483	-0.4071657	-0.434566	0	-96.767	-31.101	5.813	B5-03822-P04-CH0	1040584	OK	0.7023486	-0.1631549	0.6928831	0	-120.408	-40.411	6.496	B5-03822-P04-CH1	1040584	OK	0.7350841	-0.675863	0.0534842	0	-107.352	-46.717	2.651	NA
0.429653492250895	B5-03822-P01-CH0	1040592	OK	0.2328902	0.0338719	0.0503281	-0.9706091	103.089	-8.225	-230.766	B5-03822-P02-CH0	1040592	OK	0.7402075	0.3969183	-0.5427234	0	-76.706	-98.999	3.517	B5-03822-P02-CH1	1040592	OK	0.7330155	0.0502773	-0.6783513	0	-77.483	-77.879	0.297	B5-03822-P03-CH0	1040592	OK	0.8036949	-0.4255853	-0.4158746	0	-88.604	-56.383	7.334	B5-03822-P03-CH1	1040592	OK	0.8035264	-0.4070467	-0.4343482	0	-96.686	-31.118	5.838	B5-03822-P04-CH0	1040592	OK	0.7025692	-0.1634059	0.6926002	0	-120.406	-40.491	6.719	B5-03822-P04-CH1	1040592	OK	0.7351485	-0.6758027	0.0533612	0	-107.311	-46.712	2.595	NA
0.439645433931148	B5-03822-P01-CH0	1040600	OK	0.2330135	0.0338353	0.0504964	-0.970572	103.09	-8.213	-230.744	B5-03822-P02-CH0	1040600	OK	0.7404823	0.4110132	-0.5317463	0	-76.466	-99.097	3.064	B5-03822-P02-CH1	1040600	OK	0.7227717	0.0432037	-0.6897351	0	-76.448	-77.936	-0.39	B5-03822-P03-CH0	1040600	OK	0.802335	-0.4294555	-0.4145195	0	-89.354	-56.544	8.188	B5-03822-P03-CH1	1040600	OK	0.8034451	-0.4068667	-0.4346672	0	-96.735	-31.133	5.847	B5-03822-P04-CH0	1040600	OK	0.7062536	-0.1680385	0.6877274	0	-120.938	-41.454	8.15	B5-03822-P04-CH1	1040600	OK	0.7353174	-0.6756297	0.0532233	0	-107.281	-46.734	2.582	NA
0.449637375611402	B5-03822-P01-CH0	1040608	OK	0.2332296	0.0338553	0.0506096	-0.9705135	103.113	-8.176	-230.716	B5-03822-P02-CH0	1040608	OK	0.7395692	0.4232247	-0.523372	0	-76.319	-98.634	2.781	B5-03822-P02-CH1	1040608	OK	0.7112784	0.0322672	-0.7021694	0	-75.708	-77.591	-0.673	B5-03822-P03-CH0	1040608	OK	0.8008936	-0.4293143	-0.417443	0	-88.579	-56.339	7.378	B5-03822-P03-CH1	1040608	OK	0.8033809	-0.4068108	-0.434838	0	-96.72	-31.182	5.827	B5-03822-P04-CH0	1040608	OK	0.7059864	-0.1701518	0.687482	0	-120.485	-40.843	7.428	B5-03822-P04-CH1	1040608	OK	0.7354627	-0.6754556	0.0534268	0	-107.265	-46.796	2.643	NA
0.459629317291655	B5-03822-P01-CH0	1040616	OK	0.2335608	0.0335344	0.0511782	-0.9704152	103.037	-8.114	-230.713	B5-03822-P02-CH0	1040616	OK	0.7375953	0.433231	-0.5179421	0	-76.688	-98.681	3.397	B5-03822-P02-CH1	1040616	OK	0.7004499	0.014701	-0.7135502	0	-74.924	-77.254	-0.772	B5-03822-P03-CH0	1040616	OK	0.7980805	-0.4253339	-0.4268004	0	-87.371	-56.786	7.185	B5-03822-P03-CH1	1040616	OK	0.8036663	-0.4063627	-0.4347295	0	-96.634	-31.133	5.872	B5-03822-P04-CH0	1040616	OK	0.7056379	-0.172297	0.6873055	0	-120.091	-41.075	8.034	B5-03822-P04-CH1	1040616	OK	0.7359187	-0.6749218	0.0538909	0	-107.112	-46.797	2.439	NA
0.469621258971908	B5-03822-P01-CH0	1040624	OK	0.2334969	0.0335654	0.0509124	-0.9704434	103.056	-8.115	-230.715	B5-03822-P02-CH0	1040624	OK	0.736256	0.4435231	-0.5110913	0	-76.726	-98.48	3.416	B5-03822-P02-CH1	1040624	OK	0.6900625	-0.0060025	-0.7237249	0	-74.695	-76.765	0.583	B5-03822-P03-CH0	1040624	OK	0.7936399	-0.4151836	-0.4447002	0	-87.635	-57.048	7.559	B5-03822-P03-CH1	1040624	OK	0.8033915	-0.4062457	-0.4353464	0	-96.62	-31.17	5.952	B5-03822-P04-CH0	1040624	OK	0.705578	-0.1728444	0.6872295	0	-120.331	-41.733	7.863	B5-03822-P04-CH1	1040624	OK	0.7358557	-0.6750016	0.0537521	0	-107.108	-46.781	2.454	NA
0.479613200652162	B5-03822-P01-CH0	1040632	OK	0.233767	0.033505	0.051233	-0.9703636	103.045	-8.035	-230.694	B5-03822-P02-CH0	1040632	OK	0.7363879	0.4511795	-0.5041527	0	-75.864	-98.213	2.174	B5-03822-P02-CH1	1040632	OK	0.682712	-0.027227	-0.7301802	0	-73.778	-76.82	0.2	B5-03822-P03-CH0	1040632	OK	0.7896969	-0.4017906	-0.4636196	0	-87.583	-56.823	6.272	B5-03822-P03-CH1	1040632	OK	0.8033643	-0.4059405	-0.4356812	0	-96.646	-31.134	5.887	B5-03822-P04-CH0	1040632	OK	0.7048467	-0.1758052	0.687229	0	-120.083	-41.379	7.535	B5-03822-P04-CH1	1040632	OK	0.736254	-0.6745409	0.0540802	0	-107.099	-46.775	2.631	NA
0.489605142332415	B5-03822-P01-CH0	1040640	OK	0.2336521	0.0333925	0.051093	-0.9704026	102.989	-8.033	-230.646	B5-03822-P02-CH0	1040640	OK	0.7354337	0.4571104	-0.5001874	0	-75.802	-97.803	3.341	B5-03822-P02-CH1	1040640	OK	0.6775324	-0.0456418	-0.7340754	0	-72.722	-76.45	-0.687	B5-03822-P03-CH0	1040640	OK	0.7863318	-0.3885847	-0.480296	0	-86.499	-56.829	6.158	B5-03822-P03-CH1	1040640	OK	0.8033977	-0.4054434	-0.4360824	0	-96.514	-31.069	5.774	B5-03822-P04-CH0	1040640	OK	0.7042745	-0.1779303	0.6872687	0	-119.78	-40.542	7.618	B5-03822-P04-CH1	1040640	OK	0.7363303	-0.6744764	0.0538445	0	-107.122	-46.783	2.957	NA
0.499597084012669	B5-03822-P01-CH0	1040648	OK	0.233711	0.0335204	0.0512591	-0.9703752	103.066	-8.051	-230.651	B5-03822-P02-CH0	1040648	OK	0.7340357	0.4619547	-0.4977846	0	-75.994	-97.812	3.1	B5-03822-P02-CH1	1040648	OK	0.6714069	-0.0634587	-0.7383669	0	-72.512	-76.327	-0.879	B5-03822-P03-CH0	1040648	OK	0.7807482	-0.3800421	-0.495984	0	-86.366	-57.251	6.126	B5-03822-P03-CH1	1040648	OK	0.803402	-0.4048463	-0.4366287	0	-96.514	-31.113	5.814	B5-03822-P04-CH0	1040648	OK	0.704732	-0.1768241	0.6870852	0	-120.065	-41.102	7.589	B5-03822-P04-CH1	1040648	OK	0.7365897	-0.6741965	0.0538023	0	-107.153	-46.865	3.042	NA
0.509589025692922	B5-03822-P01-CH0	1040656	OK	0.2337054	0.0335293	0.0510152	-0.9703891	103.059	-8.059	-230.667	B5-03822-P02-CH0	1040656	OK	0.7324942	0.466193	-0.4961011	0	-75.865	-98.015	3.125	B5-03822-P02-CH1	1040656	OK	0.665859	-0.0731621	-0.7424818	0	-72.923	-77.101	0.617	B5-03822-P03-CH0	1040656	OK	0.7758211	-0.3785693	-0.5047642	0	-85.131	-57.824	6.262	B5-03822-P03-CH1	1040656	OK	0.8034856	-0.4042438	-0.437033	0	-96.385	-31.136	5.885	B5-03822-P04-CH0	1040656	OK	0.7045836	-0.175654	0.6875374	0	-120.309	-41.396	7.903	B5-03822-P04-CH1	1040656	OK	0.7364434	-0.674364	0.053706	0	-107.024	-46.878	2.937	NA
0.519580967373175	B5-03822-P01-CH0	1040664	OK	0.2337084	0.0336373	0.0509516	-0.970388	103.063	-8.04	-230.623	B5-03822-P02-CH0	1040664	OK	0.7303319	0.4709029	-0.4948392	0	-75.645	-97.584	3.804	B5-03822-P02-CH1	1040664	OK	0.665364	-0.083785	-0.7418024	0	-71.576	-76.196	0.377	B5-03822-P03-CH0	1040664	OK	0.7694553	-0.3787647	-0.5142722	0	-85.737	-57.464	5.735	B5-03822-P03-CH1	1040664	OK	0.8034626	-0.4033235	-0.4379247	0	-96.361	-31.088	5.897	B5-03822-P04-CH0	1040664	OK	0.7048303	-0.1742903	0.6876315	0	-120.229	-40.845	7.506	B5-03822-P04-CH1	1040664	OK	0.7363743	-0.6744562	0.0534947	0	-106.992	-46.934	2.966	NA
0.529572909053429	B5-03822-P01-CH0	1040672	OK	0.2336366	0.0338491	0.0505043	-0.9704213	103.107	-8.023	-230.617	B5-03822-P02-CH0	1040672	OK	0.728991	0.4737488	-0.4940994	0	-75.705	-97.552	3.422	B5-03822-P02-CH1	1040672	OK	0.6643192	-0.0939608	-0.7415196	0	-71.228	-76.445	1.082	B5-03822-P03-CH0	1040672	OK	0.7660595	-0.3832423	-0.5160215	0	-85.385	-57.174	4.431	B5-03822-P03-CH1	1040672	OK	0.8031207	-0.3965598	-0.4446768	0	-96.721	-30.602	6.038	B5-03822-P04-CH0	1040672	OK	0.7022216	-0.1778691	0.689382	0	-120.155	-40.627	6.893	B5-03822-P04-CH1	1040672	OK	0.7361966	-0.6746802	0.0531145	0	-106.999	-46.889	3.153	NA
0.539564850733682	B5-03822-P01-CH0	1040680	OK	0.2337743	0.0339824	0.0505869	-0.9703792	103.149	-7.983	-230.648	B5-03822-P02-CH0	1040680	OK	0.727839	0.4750776	-0.4945216	0	-75.441	-97.063	3.702	B5-03822-P02-CH1	1040680	OK	0.6630816	-0.1010533	-0.7416947	0	-71.434	-76.693	0.739	B5-03822-P03-CH0	1040680	OK	0.7662456	-0.3880951	-0.5121033	0	-83.985	-57.168	4.685	B5-03822-P03-CH1	1040680	OK	0.8030115	-0.3956122	-0.4457169	0	-96.553	-30.837	6.257	B5-03822-P04-CH0	1040680	OK	0.7017642	-0.1741482	0.6907962	0	-120.4	-41.515	8.443	B5-03822-P04-CH1	1040680	OK	0.7362706	-0.6745913	0.0532183	0	-106.952	-46.859	2.896	NA
0.549556792413935	B5-03822-P01-CH0	1040688	OK	0.233936	0.0339995	0.0512196	-0.9703064	103.169	-7.9	-230.711	B5-03822-P02-CH0	1040688	OK	0.7278121	0.4754122	-0.4942396	0	-75.391	-97.182	3.301	B5-03822-P02-CH1	1040688	OK	0.6648562	-0.1056775	-0.7394582	0	-70.837	-76.635	0.521	B5-03822-P03-CH0	1040688	OK	0.765915	-0.3919882	-0.5096268	0	-84.265	-57.306	5.353	B5-03822-P03-CH1	1040688	OK	0.8031217	-0.3942375	-0.4467352	0	-96.855	-30.631	5.739	B5-03822-P04-CH0	1040688	OK	0.7011378	-0.1733799	0.6916251	0	-120.483	-41.386	7.533	B5-03822-P04-CH1	1040688	OK	0.7366462	-0.6741847	0.0531728	0	-107	-46.856	2.875	NA
0.559548734094189	B5-03822-P01-CH0	1040696	OK	0.2337494	0.0341216	0.0510288	-0.9703572	103.183	-7.894	-230.696	B5-03822-P02-CH0	1040696	OK	0.7280771	0.4745698	-0.4946586	0	-75.532	-97.178	3.321	B5-03822-P02-CH1	1040696	OK	0.6676239	-0.1052855	-0.7370165	0	-70.239	-76.278	-0.25	B5-03822-P03-CH0	1040696	OK	0.7656633	-0.3984355	-0.5049841	0	-84.413	-57.64	4.814	B5-03822-P03-CH1	1040696	OK	0.8031823	-0.3920047	-0.4485871	0	-96.993	-30.385	5.893	B5-03822-P04-CH0	1040696	OK	0.7024398	-0.1727567	0.6904589	0	-120.807	-41.129	7.137	B5-03822-P04-CH1	1040696	OK	0.7365934	-0.674287	0.0526054	0	-107.048	-46.758	2.928	NA
0.569540675774442	B5-03822-P01-CH0	1040704	OK	0.233825	0.0340451	0.0512444	-0.9703302	103.137	-7.876	-230.656	B5-03822-P02-CH0	1040704	OK	0.7273126	0.4722177	-0.498023	0	-75.742	-97.025	3.726	B5-03822-P02-CH1	1040704	OK	0.6692348	-0.1044692	-0.7356704	0	-70.248	-76.571	-0.477	B5-03822-P03-CH0	1040704	OK	0.7680876	-0.4062626	-0.4949668	0	-83.841	-58.018	5.246	B5-03822-P03-CH1	1040704	OK	0.8029942	-0.390513	-0.4502221	0	-97.011	-30.375	5.973	B5-03822-P04-CH0	1040704	OK	0.702643	-0.1725754	0.6902974	0	-120.267	-40.653	6.947	B5-03822-P04-CH1	1040704	OK	0.7366687	-0.6741929	0.0527566	0	-106.92	-46.776	2.875	NA
0.579532617454695	B5-03822-P01-CH0	1040712	OK	0.2336648	0.0340148	0.0508716	-0.9703895	103.098	-7.929	-230.645	B5-03822-P02-CH0	1040712	OK	0.7279197	0.4678174	-0.5012781	0	-75.513	-97.17	3.75	B5-03822-P02-CH1	1040712	OK	0.6708144	-0.1002112	-0.7348237	0	-70.29	-76.449	0.685	B5-03822-P03-CH0	1040712	OK	0.7719647	-0.4117762	-0.4842632	0	-83.799	-57.89	5.331	B5-03822-P03-CH1	1040712	OK	0.8025981	-0.3903116	-0.4511021	0	-96.884	-30.557	5.802	B5-03822-P04-CH0	1040712	OK	0.7042507	-0.1672982	0.6899582	0	-120.385	-41.372	8.358	B5-03822-P04-CH1	1040712	OK	0.7363807	-0.6745314	0.0524484	0	-106.962	-46.786	2.777	NA
0.589524559134949	B5-03822-P01-CH0	1040720	OK	0.2337635	0.0339578	0.0510423	-0.9703588	103.092	-7.897	-230.669	B5-03822-P02-CH0	1040720	OK	0.7286642	0.4635551	-0.504148	0	-75.056	-97.337	4.299	B5-03822-P02-CH1	1040720	OK	0.6734751	-0.0919664	-0.7334667	0	-69.555	-76.54	0.371	B5-03822-P03-CH0	1040720	OK	0.7765135	-0.4218357	-0.4680613	0	-84.178	-58.047	5.128	B5-03822-P03-CH1	1040720	OK	0.8016328	-0.3902358	-0.4528806	0	-97.26	-30.587	5.598	B5-03822-P04-CH0	1040720	OK	0.704901	-0.1652915	0.6897777	0	-120.167	-41.064	7.836	B5-03822-P04-CH1	1040720	OK	0.7364995	-0.6743963	0.0525178	0	-106.969	-46.724	2.554	NA
0.599516500815202	B5-03822-P01-CH0	1040728	OK	0.2338693	0.034045	0.0510463	-0.97033	103.118	-7.859	-230.684	B5-03822-P02-CH0	1040728	OK	0.7288284	0.4616839	-0.5056254	0	-75.267	-97.527	3.94	B5-03822-P02-CH1	1040728	OK	0.6730338	-0.0779576	-0.7354918	0	-70.054	-77.721	0.77	B5-03822-P03-CH0	1040728	OK	0.7846591	-0.4412585	-0.435432	0	-83.226	-59.155	6.174	B5-03822-P03-CH1	1040728	OK	0.8031281	-0.393439	-0.4474272	0	-96.615	-30.647	6.125	B5-03822-P04-CH0	1040728	OK	0.7063347	-0.161985	0.6890952	0	-120.456	-41.291	8.036	B5-03822-P04-CH1	1040728	OK	0.7363576	-0.674519	0.0529297	0	-107.021	-46.769	2.309	NA
0.609508442495456	B5-03822-P01-CH0	1040736	OK	0.2338744	0.0340431	0.0511681	-0.9703224	103.133	-7.83	-230.67	B5-03822-P02-CH0	1040736	OK	0.7297865	0.4612162	-0.5046695	0	-75.19	-97.535	3.561	B5-03822-P02-CH1	1040736	OK	0.6745072	-0.0657745	-0.7353324	0	-69.259	-77.332	0.277	B5-03822-P03-CH0	1040736	OK	0.7942246	-0.4622757	-0.3943457	0	-83.397	-59.667	6.53	B5-03822-P03-CH1	1040736	OK	0.8029206	-0.3925586	-0.4485714	0	-96.674	-30.638	6.024	B5-03822-P04-CH0	1040736	OK	0.7065375	-0.1614635	0.6890096	0	-120.401	-40.674	7.745	B5-03822-P04-CH1	1040736	OK	0.7364145	-0.6744332	0.0532311	0	-107.224	-46.828	2.389	NA
0.619500384175709	B5-03822-P01-CH0	1040744	OK	0.2338572	0.0338552	0.0511589	-0.9703337	103.093	-7.766	-230.715	B5-03822-P02-CH0	1040744	OK	0.7320463	0.4618952	-0.5007605	0	-75.029	-97.513	2.696	B5-03822-P02-CH1	1040744	OK	0.6739827	-0.0543326	-0.7367464	0	-68.987	-76.969	-0.261	B5-03822-P03-CH0	1040744	OK	0.8053113	-0.4833646	-0.3432673	0	-83.509	-60.322	7.655	B5-03822-P03-CH1	1040744	OK	0.8028407	-0.3916779	-0.4494832	0	-96.703	-30.522	5.996	B5-03822-P04-CH0	1040744	OK	0.7069025	-0.1593095	0.6891366	0	-120.737	-40.994	7.757	B5-03822-P04-CH1	1040744	OK	0.7365404	-0.6742594	0.053689	0	-107.294	-46.732	2.492	NA
0.629492325855962	B5-03822-P01-CH0	1040752	OK	0.2340445	0.0337224	0.0513263	-0.9702843	103.067	-7.72	-230.661	B5-03822-P02-CH0	1040752	OK	0.7339919	0.4633444	-0.496556	0	-75.512	-97.744	3.244	B5-03822-P02-CH1	1040752	OK	0.672004	-0.0492809	-0.738906	0	-68.825	-77.805	1.011	B5-03822-P03-CH0	1040752	OK	0.8165399	-0.4971313	-0.2934673	0	-84.221	-60.798	8.191	B5-03822-P03-CH1	1040752	OK	0.8028201	-0.3912452	-0.4498968	0	-96.67	-30.565	5.824	B5-03822-P04-CH0	1040752	OK	0.7070464	-0.1591367	0.6890289	0	-120.966	-41.024	7.412	B5-03822-P04-CH1	1040752	OK	0.7364752	-0.6742464	0.0547357	0	-107.447	-46.854	2.166	NA
0.639484267536216	B5-03822-P01-CH0	1040760	OK	0.2338628	0.0337049	0.0506924	-0.970362	103.087	-7.709	-230.701	B5-03822-P02-CH0	1040760	OK	0.7363135	0.46502	-0.491527	0	-76.193	-97.866	4.225	B5-03822-P02-CH1	1040760	OK	0.6701212	-0.0500338	-0.7405635	0	-67.939	-77.88	0.708	B5-03822-P03-CH0	1040760	OK	0.8263349	-0.5034322	-0.2524415	0	-84.83	-61.442	9.099	B5-03822-P03-CH1	1040760	OK	0.8024521	-0.3909913	-0.4507731	0	-96.707	-30.567	5.909	B5-03822-P04-CH0	1040760	OK	0.7079943	-0.1583968	0.6882256	0	-121.495	-41.847	8.109	B5-03822-P04-CH1	1040760	OK	0.7359585	-0.6747422	0.0555697	0	-107.584	-46.983	2.306	NA
0.649476209216469	B5-03822-P01-CH0	1040768	OK	0.2337103	0.0336545	0.0500494	-0.9704339	103.086	-7.724	-230.699	B5-03822-P02-CH0	1040768	OK	0.7401698	0.4671589	-0.4836438	0	-76.017	-98.165	2.913	B5-03822-P02-CH1	1040768	OK	0.6666391	-0.051212	-0.7436193	0	-67.888	-77.778	0.392	B5-03822-P03-CH0	1040768	OK	0.8362248	-0.5040282	-0.2160641	0	-85.224	-61.923	9.415	B5-03822-P03-CH1	1040768	OK	0.8019722	-0.3911318	-0.4515047	0	-96.721	-30.649	5.933	B5-03822-P04-CH0	1040768	OK	0.7079952	-0.1608119	0.6876644	0	-121.675	-41.91	7.389	B5-03822-P04-CH1	1040768	OK	0.7355732	-0.6750908	0.056431	0	-107.757	-46.932	1.866	NA
0.659468150896722	B5-03822-P01-CH0	1040776	OK	0.2339872	0.033627	0.0499959	-0.9703709	103.136	-7.699	-230.734	B5-03822-P02-CH0	1040776	OK	0.7420774	0.4712588	-0.4766931	0	-76.38	-98.03	3.663	B5-03822-P02-CH1	1040776	OK	0.6645326	-0.0429178	-0.7460258	0	-68.289	-77.866	0.162	B5-03822-P03-CH0	1040776	OK	0.8458107	-0.5007647	-0.1839539	0	-86.025	-62.101	9.91	B5-03822-P03-CH1	1040776	OK	0.801642	-0.3915403	-0.4517371	0	-96.776	-30.775	5.999	B5-03822-P04-CH0	1040776	OK	0.7094455	-0.1607863	0.686174	0	-122.001	-42.712	8.023	B5-03822-P04-CH1	1040776	OK	0.7352046	-0.6747373	0.0648365	0	-109.208	-47.857	0.595	NA
0.669460092576976	B5-03822-P01-CH0	1040784	OK	0.2340138	0.0335691	0.049838	-0.9703746	103.177	-7.681	-230.76	B5-03822-P02-CH0	1040784	OK	0.7444073	0.4764247	-0.4678432	0	-76.257	-98.223	3.165	B5-03822-P02-CH1	1040784	OK	0.6652024	-0.037362	-0.7457277	0	-67.763	-77.427	-0.173	B5-03822-P03-CH0	1040784	OK	0.8530742	-0.4973199	-0.1579154	0	-86.702	-62.608	10.254	B5-03822-P03-CH1	1040784	OK	0.8012288	-0.3921385	-0.4519512	0	-96.864	-30.873	6.096	B5-03822-P04-CH0	1040784	OK	0.7106437	-0.1638603	0.6842041	0	-122.141	-42.781	8.082	B5-03822-P04-CH1	1040784	OK	0.7355685	-0.6742651	0.0656167	0	-109.164	-48.223	3.65	NA
0.679452034257229	B5-03822-P01-CH0	1040792	OK	0.2341294	0.0336009	0.049695	-0.9703529	103.276	-7.645	-230.801	B5-03822-P02-CH0	1040792	OK	0.7460947	0.4840903	-0.4571643	0	-76.062	-98.163	2.841	B5-03822-P02-CH1	1040792	OK	0.6651923	-0.034862	-0.7458578	0	-68.316	-77.228	1.379	B5-03822-P03-CH0	1040792	OK	0.8586993	-0.4922794	-0.1424654	0	-87.915	-62.254	10.747	B5-03822-P03-CH1	1040792	OK	0.8008834	-0.3929609	-0.4518489	0	-96.939	-30.994	6.23	B5-03822-P04-CH0	1040792	OK	0.7116121	-0.1688081	0.6819912	0	-122.301	-42.006	6.452	B5-03822-P04-CH1	1040792	OK	0.7353101	-0.6743468	0.0676423	0	-108.642	-48.1	2.705	NA
0.689443975937483	B5-03822-P01-CH0	1040800	OK	0.2340887	0.0338555	0.0490869	-0.9703849	103.395	-7.606	-230.751	B5-03822-P02-CH0	1040800	OK	0.7473958	0.4927182	-0.4456774	0	-76.228	-98.088	2.778	B5-03822-P02-CH1	1040800	OK	0.6673023	-0.0390666	-0.7437617	0	-68.405	-77.253	1.884	B5-03822-P03-CH0	1040800	OK	0.8605913	-0.4919749	-0.1316936	0	-88.276	-62.362	10.647	B5-03822-P03-CH1	1040800	OK	0.8004087	-0.3941516	-0.4516529	0	-97.007	-31.045	6.298	B5-03822-P04-CH0	1040800	OK	0.7123321	-0.1710337	0.6806838	0	-122.097	-42.686	7.339	B5-03822-P04-CH1	1040800	OK	0.7346193	-0.6755799	0.0626601	0	-108.735	-47.713	1.751	NA
0.699435917617736	B5-03822-P01-CH0	1040808	OK	0.2342451	0.0337919	0.0488618	-0.9703607	103.428	-7.537	-230.776	B5-03822-P02-CH0	1040808	OK	0.7486363	0.500676	-0.4345885	0	-76.312	-98.258	2.42	B5-03822-P02-CH1	1040808	OK	0.6689442	-0.0463025	-0.7418691	0	-68.493	-76.798	1.673	B5-03822-P03-CH0	1040808	OK	0.8614207	-0.4917267	-0.127119	0	-88.128	-62.51	11.293	B5-03822-P03-CH1	1040808	OK	0.7996008	-0.4004087	-0.4475616	0	-96.585	-31.305	6.271	B5-03822-P04-CH0	1040808	OK	0.7137958	-0.1710476	0.6791452	0	-122.342	-43.347	8.092	B5-03822-P04-CH1	1040808	OK	0.7345749	-0.675479	0.064248	0	-108.976	-47.792	1.977	NA
0.709427859297989	B5-03822-P01-CH0	1040816	OK	0.2344503	0.0338261	0.0485078	-0.9703277	103.494	-7.472	-230.807	B5-03822-P02-CH0	1040816	OK	0.7491299	0.5087731	-0.4242103	0	-76.239	-97.929	2.57	B5-03822-P02-CH1	1040816	OK	0.6693857	-0.0525668	-0.741053	0	-68.231	-76.086	0.759	B5-03822-P03-CH0	1040816	OK	0.8612458	-0.4895864	-0.136238	0	-88.631	-62.39	11.179	B5-03822-P03-CH1	1040816	OK	0.7992472	-0.402308	-0.4464888	0	-96.654	-31.698	6.177	B5-03822-P04-CH0	1040816	OK	0.7140806	-0.1737813	0.6781512	0	-122.217	-42.95	8.72	B5-03822-P04-CH1	1040816	OK	0.7342237	-0.675692	0.0659989	0	-109.115	-48.033	2.222	NA
0.719419800978243	B5-03822-P01-CH0	1040824	OK	0.2347642	0.0337613	0.0485946	-0.9702497	103.554	-7.441	-230.777	B5-03822-P02-CH0	1040824	OK	0.7498959	0.5162281	-0.4137205	0	-76.283	-98.209	1.92	B5-03822-P02-CH1	1040824	OK	0.6687032	-0.0623741	-0.7409085	0	-68.265	-76.419	1.511	B5-03822-P03-CH0	1040824	OK	0.8589676	-0.4879067	-0.1553113	0	-88.697	-62.401	10.864	B5-03822-P03-CH1	1040824	OK	0.8000404	-0.4025327	-0.4448627	0	-96.41	-31.434	5.71	B5-03822-P04-CH0	1040824	OK	0.7149219	-0.1761921	0.6766409	0	-122.72	-42.699	7.728	B5-03822-P04-CH1	1040824	OK	0.7342728	-0.6754902	0.0675021	0	-109.335	-48.242	2.272	NA
0.729411742658496	B5-03822-P01-CH0	1040832	OK	0.2350138	0.0337276	0.048753	-0.9701825	103.638	-7.323	-230.815	B5-03822-P02-CH0	1040832	OK	0.7492553	0.5224957	-0.406958	0	-76.999	-97.901	3.269	B5-03822-P02-CH1	1040832	OK	0.671537	-0.0710789	-0.737554	0	-67.79	-76.085	0.559	B5-03822-P03-CH0	1040832	OK	0.8538156	-0.4862808	-0.1858223	0	-88.633	-62.05	10.356	B5-03822-P03-CH1	1040832	OK	0.8000838	-0.4032735	-0.444113	0	-96.49	-31.375	5.948	B5-03822-P04-CH0	1040832	OK	0.7153737	-0.1771681	0.6759083	0	-123.113	-43.155	7.945	B5-03822-P04-CH1	1040832	OK	0.734328	-0.6752998	0.068794	0	-109.427	-48.318	2.139	NA
0.739403684338749	B5-03822-P01-CH0	1040840	OK	0.2354472	0.0335667	0.0491198	-0.9700645	103.644	-7.21	-230.724	B5-03822-P02-CH0	1040840	OK	0.7499112	0.5234421	-0.4045264	0	-77.087	-97.805	2.997	B5-03822-P02-CH1	1040840	OK	0.6760894	-0.0660524	-0.733853	0	-68.672	-76.286	1.219	B5-03822-P03-CH0	1040840	OK	0.845423	-0.4834174	-0.2270849	0	-88.85	-61.761	9.781	B5-03822-P03-CH1	1040840	OK	0.7993777	-0.4036912	-0.4450042	0	-96.951	-31.479	5.853	B5-03822-P04-CH0	1040840	OK	0.7141785	-0.1799606	0.6764343	0	-122.451	-42.794	7.955	B5-03822-P04-CH1	1040840	OK	0.734542	-0.6749347	0.0700805	0	-109.496	-48.398	2.015	NA
0.749395626019003	B5-03822-P01-CH0	1040848	OK	0.2357885	0.0336112	0.0487334	-0.9699995	103.717	-7.115	-230.717	B5-03822-P02-CH0	1040848	OK	0.7516358	0.5214725	-0.4038688	0	-76.404	-97.549	2.347	B5-03822-P02-CH1	1040848	OK	0.6821558	-0.0557526	-0.7290782	0	-69.279	-76.436	1.562	B5-03822-P03-CH0	1040848	OK	0.8345691	-0.4781221	-0.2736669	0	-88.645	-61.093	9.093	B5-03822-P03-CH1	1040848	OK	0.799559	-0.4017389	-0.4464428	0	-97.085	-31.466	6.362	B5-03822-P04-CH0	1040848	OK	0.7148725	-0.1789948	0.6759573	0	-122.829	-43.245	8.586	B5-03822-P04-CH1	1040848	OK	0.7342746	-0.6751111	0.0711745	0	-109.565	-48.555	2.353	NA
0.759387567699256	B5-03822-P01-CH0	1040856	OK	0.2359469	0.0336401	0.0483427	-0.9699796	103.788	-7.048	-230.757	B5-03822-P02-CH0	1040856	OK	0.7527711	0.5197611	-0.4039605	0	-76.101	-97.635	1.907	B5-03822-P02-CH1	1040856	OK	0.6881542	-0.051263	-0.7237512	0	-68.973	-75.687	0.406	B5-03822-P03-CH0	1040856	OK	0.8206811	-0.4692308	-0.3260443	0	-88.624	-60.185	7.946	B5-03822-P03-CH1	1040856	OK	0.7994519	-0.4030196	-0.4454793	0	-97.026	-31.556	6.372	B5-03822-P04-CH0	1040856	OK	0.7147405	-0.1802104	0.6757738	0	-122.672	-43.358	8.822	B5-03822-P04-CH1	1040856	OK	0.7340017	-0.6753328	0.0718828	0	-109.562	-48.619	2.505	NA
0.769379509379509	B5-03822-P01-CH0	1040864	OK	0.2365199	0.033588	0.0486145	-0.9698282	103.859	-6.924	-230.757	B5-03822-P02-CH0	1040864	OK	0.7508754	0.519062	-0.4083635	0	-76.746	-96.946	3.244	B5-03822-P02-CH1	1040864	OK	0.6884568	-0.0439486	-0.7239446	0	-70.709	-76.405	1.725	B5-03822-P03-CH0	1040864	OK	0.8073935	-0.4568431	-0.3733767	0	-87.727	-59.555	7.36	B5-03822-P03-CH1	1040864	OK	0.7998197	-0.4039645	-0.4439608	0	-96.892	-31.604	6.253	B5-03822-P04-CH0	1040864	OK	0.714921	-0.1812253	0.6753113	0	-122.806	-43.192	7.875	B5-03822-P04-CH1	1040864	OK	0.7341142	-0.6751014	0.0729002	0	-109.601	-48.754	2.394	NA
0.779371451059763	B5-03822-P01-CH0	1040872	OK	0.2367491	0.033543	0.0485734	-0.9697759	103.896	-6.825	-230.702	B5-03822-P02-CH0	1040872	OK	0.7511393	0.5178277	-0.4094437	0	-76.441	-96.772	3.054	B5-03822-P02-CH1	1040872	OK	0.6907235	-0.0400753	-0.7220076	0	-70.124	-75.923	0.779	B5-03822-P03-CH0	1040872	OK	0.7960269	-0.4400947	-0.4155212	0	-87.343	-58.815	7.054	B5-03822-P03-CH1	1040872	OK	0.7999556	-0.4045356	-0.4431953	0	-96.836	-31.596	6.18	B5-03822-P04-CH0	1040872	OK	0.7141048	-0.1766166	0.6773927	0	-122.702	-42.859	8.111	B5-03822-P04-CH1	1040872	OK	0.7341232	-0.6750466	0.0733162	0	-109.648	-48.787	2.42	NA
0.789363392740016	B5-03822-P01-CH0	1040880	OK	0.237314	0.0332712	0.0491221	-0.9696196	103.922	-6.709	-230.819	B5-03822-P02-CH0	1040880	OK	0.7507763	0.5177759	-0.4101743	0	-76.055	-96.741	2.666	B5-03822-P02-CH1	1040880	OK	0.6890999	-0.0401294	-0.7235544	0	-70.862	-75.756	0.895	B5-03822-P03-CH0	1040880	OK	0.7876747	-0.4234532	-0.4474997	0	-87.318	-58.302	6.439	B5-03822-P03-CH1	1040880	OK	0.8004334	-0.4049533	-0.4419493	0	-96.724	-31.722	6.195	B5-03822-P04-CH0	1040880	OK	0.7143973	-0.1769803	0.6769893	0	-122.723	-43.008	8.279	B5-03822-P04-CH1	1040880	OK	0.7344955	-0.674555	0.074108	0	-109.59	-48.966	2.713	NA
0.79935533442027	B5-03822-P01-CH0	1040888	OK	0.2375745	0.033282	0.0491313	-0.9695549	103.981	-6.59	-230.773	B5-03822-P02-CH0	1040888	OK	0.7495236	0.5189471	-0.4109846	0	-76.018	-96.341	2.773	B5-03822-P02-CH1	1040888	OK	0.6897626	-0.0421696	-0.7228065	0	-70.892	-75.756	1.582	B5-03822-P03-CH0	1040888	OK	0.7852074	-0.4135654	-0.4608829	0	-87.547	-58.24	6.782	B5-03822-P03-CH1	1040888	OK	0.8006758	-0.4052555	-0.4412328	0	-96.669	-31.724	6.168	B5-03822-P04-CH0	1040888	OK	0.7145029	-0.1781106	0.6765813	0	-122.792	-42.96	8.169	B5-03822-P04-CH1	1040888	OK	0.7344441	-0.6746083	0.0741318	0	-109.558	-48.999	2.586	NA
0.809347276100523	B5-03822-P01-CH0	1040896	OK	0.2378572	0.0330915	0.0494584	-0.9694755	103.966	-6.447	-230.739	B5-03822-P02-CH0	1040896	OK	0.7482858	0.5190223	-0.4131394	0	-76.155	-96.375	2.675	B5-03822-P02-CH1	1040896	OK	0.6923817	-0.0432948	-0.7202313	0	-71.055	-75.435	0.719	B5-03822-P03-CH0	1040896	OK	0.7887246	-0.4121847	-0.4560891	0	-88.461	-58.041	5.87	B5-03822-P03-CH1	1040896	OK	0.8009798	-0.405202	-0.4407298	0	-96.63	-31.655	6.142	B5-03822-P04-CH0	1040896	OK	0.7144657	-0.1790429	0.6763745	0	-122.758	-42.915	8.01	B5-03822-P04-CH1	1040896	OK	0.7347823	-0.6742399	0.074132	0	-109.515	-48.84	2.346	NA
0.819339217780776	B5-03822-P01-CH0	1040904	OK	0.2380614	0.0332284	0.0491894	-0.9694344	104.05	-6.357	-230.727	B5-03822-P02-CH0	1040904	OK	0.7484112	0.5180143	-0.4141762	0	-75.991	-96.617	1.849	B5-03822-P02-CH1	1040904	OK	0.6946361	-0.0464442	-0.7178604	0	-71.374	-75.222	0.84	B5-03822-P03-CH0	1040904	OK	0.7941157	-0.4168088	-0.4423241	0	-89.348	-58.043	6.234	B5-03822-P03-CH1	1040904	OK	0.8008918	-0.4056365	-0.4404899	0	-96.618	-31.734	6.2	B5-03822-P04-CH0	1040904	OK	0.7144011	-0.1794375	0.6763381	0	-122.777	-43.055	8.218	B5-03822-P04-CH1	1040904	OK	0.7344216	-0.6746175	0.0742713	0	-109.477	-48.899	2.135	NA
0.82933115946103	B5-03822-P01-CH0	1040912	OK	0.2382056	0.0332285	0.0488243	-0.9694174	104.077	-6.357	-230.72	B5-03822-P02-CH0	1040912	OK	0.7493165	0.5169038	-0.4139267	0	-75.766	-96.914	2.536	B5-03822-P02-CH1	1040912	OK	0.6949961	-0.0531394	-0.7170472	0	-71.633	-75.651	1.481	B5-03822-P03-CH0	1040912	OK	0.8002247	-0.4291833	-0.4188581	0	-89.419	-58.327	6.495	B5-03822-P03-CH1	1040912	OK	0.8008904	-0.4057833	-0.4403571	0	-96.551	-31.787	6.25	B5-03822-P04-CH0	1040912	OK	0.7142952	-0.1793158	0.6764822	0	-122.795	-43.247	8.34	B5-03822-P04-CH1	1040912	OK	0.7343893	-0.6746919	0.0739133	0	-109.487	-48.864	2.481	NA
0.839323101141283	B5-03822-P01-CH0	1040920	OK	0.2380446	0.0334986	0.0480746	-0.9694851	104.199	-6.328	-230.759	B5-03822-P02-CH0	1040920	OK	0.7492246	0.5179182	-0.4128235	0	-76.054	-96.895	2.948	B5-03822-P02-CH1	1040920	OK	0.69148	-0.0717733	-0.7188213	0	-71.456	-74.93	0.666	B5-03822-P03-CH0	1040920	OK	0.8057558	-0.4468674	-0.3886736	0	-89.72	-58.626	7.325	B5-03822-P03-CH1	1040920	OK	0.8006161	-0.4060336	-0.4406252	0	-96.58	-31.824	6.358	B5-03822-P04-CH0	1040920	OK	0.713974	-0.180027	0.6766324	0	-122.839	-43.185	8.4	B5-03822-P04-CH1	1040920	OK	0.7338747	-0.6753162	0.073321	0	-109.537	-48.912	2.965	NA
0.849315042821536	B5-03822-P01-CH0	1040928	OK	0.2380416	0.033443	0.048092	-0.9694869	104.209	-6.294	-230.768	B5-03822-P02-CH0	1040928	OK	0.749143	0.5206387	-0.4095365	0	-75.668	-96.954	2.337	B5-03822-P02-CH1	1040928	OK	0.6849962	-0.1027361	-0.7212665	0	-70.738	-75	0.905	B5-03822-P03-CH0	1040928	OK	0.8151177	-0.4681768	-0.3411651	0	-88.84	-59.467	8.869	B5-03822-P03-CH1	1040928	OK	0.8007082	-0.4057408	-0.4407276	0	-96.574	-31.808	6.334	B5-03822-P04-CH0	1040928	OK	0.7136041	-0.1807462	0.6768309	0	-122.767	-43.056	8.156	B5-03822-P04-CH1	1040928	OK	0.7337903	-0.6754738	0.0727115	0	-109.446	-48.898	2.984	NA
0.85930698450179	B5-03822-P01-CH0	1040936	OK	0.2381924	0.0335376	0.0482653	-0.969438	104.262	-6.216	-230.732	B5-03822-P02-CH0	1040936	OK	0.7494209	0.5226359	-0.4064728	0	-74.882	-96.98	1.516	B5-03822-P02-CH1	1040936	OK	0.6776739	-0.1346304	-0.7229334	0	-70.086	-74.537	1.129	B5-03822-P03-CH0	1040936	OK	0.8245789	-0.4819272	-0.2963373	0	-90.014	-59.793	9.096	B5-03822-P03-CH1	1040936	OK	0.8008393	-0.4054146	-0.4407895	0	-96.621	-31.761	6.292	B5-03822-P04-CH0	1040936	OK	0.7133606	-0.1808772	0.6770525	0	-122.712	-43.036	8.141	B5-03822-P04-CH1	1040936	OK	0.7338983	-0.6753873	0.0724251	0	-109.429	-48.806	2.929	NA
0.869298926182043	B5-03822-P01-CH0	1040944	OK	0.238177	0.0335409	0.0484419	-0.9694329	104.294	-6.167	-230.734	B5-03822-P02-CH0	1040944	OK	0.7488942	0.5257146	-0.4034621	0	-74.331	-96.995	1.562	B5-03822-P02-CH1	1040944	OK	0.6690173	-0.1602169	-0.725773	0	-70.385	-74.255	1.627	B5-03822-P03-CH0	1040944	OK	0.8322835	-0.4875483	-0.2638197	0	-91.111	-60.117	9.172	B5-03822-P03-CH1	1040944	OK	0.8009222	-0.4050168	-0.4410046	0	-96.661	-31.776	6.253	B5-03822-P04-CH0	1040944	OK	0.7130985	-0.1813359	0.6772059	0	-122.637	-42.948	8.18	B5-03822-P04-CH1	1040944	OK	0.7339586	-0.6753832	0.07185	0	-109.436	-48.724	2.952	NA
0.879290867862297	B5-03822-P01-CH0	1040952	OK	0.2384454	0.0334283	0.0490542	-0.96934	104.278	-6.087	-230.816	B5-03822-P02-CH0	1040952	OK	0.7476407	0.5322066	-0.3972272	0	-73.569	-97.114	1.874	B5-03822-P02-CH1	1040952	OK	0.6651461	-0.1790072	-0.7249394	0	-68.682	-71.8	-0.97	B5-03822-P03-CH0	1040952	OK	0.8379032	-0.4922892	-0.2357319	0	-91.657	-60.361	8.602	B5-03822-P03-CH1	1040952	OK	0.8013011	-0.4045215	-0.4407708	0	-96.625	-31.786	6.183	B5-03822-P04-CH0	1040952	OK	0.7129091	-0.1816289	0.6773268	0	-122.573	-42.797	7.924	B5-03822-P04-CH1	1040952	OK	0.7342917	-0.6750587	0.0714952	0	-109.411	-48.677	2.979	NA
0.88928280954255	B5-03822-P01-CH0	1040960	OK	0.2382626	0.0335309	0.0487982	-0.9693943	104.274	-6.068	-230.776	B5-03822-P02-CH0	1040960	OK	0.7445175	0.5429422	-0.3884681	0	-72.913	-96.747	1.963	B5-03822-P02-CH1	1040960	OK	0.6638488	-0.1695233	-0.7284	0	-69.854	-73.367	2.148	B5-03822-P03-CH0	1040960	OK	0.8415398	-0.4996479	-0.2053354	0	-91.461	-60.706	9.465	B5-03822-P03-CH1	1040960	OK	0.8012675	-0.4038185	-0.4414759	0	-96.674	-31.667	6.124	B5-03822-P04-CH0	1040960	OK	0.7124124	-0.182746	0.6775489	0	-122.485	-42.591	7.714	B5-03822-P04-CH1	1040960	OK	0.7340917	-0.6753613	0.0706858	0	-109.405	-48.481	2.858	NA
0.899274751222803	B5-03822-P01-CH0	1040968	OK	0.2382632	0.0333892	0.0491645	-0.9693806	104.216	-6.09	-230.802	B5-03822-P02-CH0	1040968	OK	0.7390686	0.5566969	-0.379297	0	-72.515	-96.323	2.53	B5-03822-P02-CH1	1040968	OK	0.6717353	-0.164619	-0.7222688	0	-69.22	-73.115	0.775	B5-03822-P03-CH0	1040968	OK	0.8434245	-0.5051412	-0.1829414	0	-92.141	-60.763	9.949	B5-03822-P03-CH1	1040968	OK	0.8015957	-0.402759	-0.4418479	0	-96.645	-31.621	5.999	B5-03822-P04-CH0	1040968	OK	0.7121012	-0.1830395	0.6777968	0	-122.372	-42.516	7.672	B5-03822-P04-CH1	1040968	OK	0.7341489	-0.675329	0.0703997	0	-109.218	-48.454	2.703	NA
0.909266692903057	B5-03822-P01-CH0	1040976	OK	0.2380845	0.0335965	0.0491591	-0.9694176	104.271	-6.131	-230.814	B5-03822-P02-CH0	1040976	OK	0.7345349	0.5698047	-0.368485	0	-72.21	-96.86	2.532	B5-03822-P02-CH1	1040976	OK	0.6773804	-0.1679067	-0.7162145	0	-69.526	-73.602	0.551	B5-03822-P03-CH0	1040976	OK	0.84513	-0.5075292	-0.1678373	0	-92.162	-60.857	9.628	B5-03822-P03-CH1	1040976	OK	0.8030977	-0.3955632	-0.445605	0	-97.037	-31.76	6.377	B5-03822-P04-CH0	1040976	OK	0.7118307	-0.183345	0.6779983	0	-122.371	-42.476	7.75	B5-03822-P04-CH1	1040976	OK	0.7340194	-0.6755342	0.0697792	0	-109.186	-48.431	2.795	NA
0.91925863458331	B5-03822-P01-CH0	1040984	OK	0.2379962	0.0333881	0.0496972	-0.969419	104.192	-6.153	-230.905	B5-03822-P02-CH0	1040984	OK	0.7273621	0.5841888	-0.3600943	0	-72.159	-96.782	2.857	B5-03822-P02-CH1	1040984	OK	0.6823442	-0.1711169	-0.7107218	0	-69.711	-73.179	0.595	B5-03822-P03-CH0	1040984	OK	0.8475278	-0.5052374	-0.1625784	0	-92.107	-60.679	9.727	B5-03822-P03-CH1	1040984	OK	0.8039236	-0.3917429	-0.4474867	0	-97.061	-31.582	6.159	B5-03822-P04-CH0	1040984	OK	0.711351	-0.1838622	0.6783615	0	-122.218	-42.309	7.711	B5-03822-P04-CH1	1040984	OK	0.7343749	-0.6752165	0.0691103	0	-109.096	-48.321	2.904	NA
0.929250576263563	B5-03822-P01-CH0	1040992	OK	0.2378763	0.0333806	0.0500729	-0.9694294	104.158	-6.184	-230.936	B5-03822-P02-CH0	1040992	OK	0.7203178	0.5963291	-0.3543075	0	-71.908	-96.908	3.17	B5-03822-P02-CH1	1040992	OK	0.6873188	-0.1736213	-0.7053003	0	-69.297	-72.614	0.244	B5-03822-P03-CH0	1040992	OK	0.8504764	-0.500319	-0.1623909	0	-92.266	-60.327	9.715	B5-03822-P03-CH1	1040992	OK	0.8044684	-0.3897501	-0.4482472	0	-97.224	-31.801	6.383	B5-03822-P04-CH0	1040992	OK	0.7108744	-0.1851375	0.6785144	0	-122.07	-42.054	7.452	B5-03822-P04-CH1	1040992	OK	0.7344928	-0.6751513	0.0684918	0	-109.026	-48.274	2.847	NA
0.939242517943817	B5-03822-P01-CH0	1041000	OK	0.2378947	0.0331771	0.0507594	-0.9693961	104.065	-6.221	-230.963	B5-03822-P02-CH0	1041000	OK	0.7128358	0.6074063	-0.3506033	0	-72.184	-96.98	3.145	B5-03822-P02-CH1	1041000	OK	0.691619	-0.1775148	-0.7001083	0	-69.452	-72.937	0.83	B5-03822-P03-CH0	1041000	OK	0.8534365	-0.4954433	-0.161809	0	-92.58	-60.213	9.947	B5-03822-P03-CH1	1041000	OK	0.8052405	-0.3867612	-0.4494479	0	-97.172	-31.875	6.216	B5-03822-P04-CH0	1041000	OK	0.7104905	-0.1859148	0.6787039	0	-121.871	-41.965	7.383	B5-03822-P04-CH1	1041000	OK	0.7348659	-0.6747909	0.0680398	0	-108.952	-48.144	2.479	NA
0.94923445962407	B5-03822-P01-CH0	1041008	OK	0.2378386	0.0331601	0.0513379	-0.96938	104.02	-6.256	-230.946	B5-03822-P02-CH0	1041008	OK	0.7062439	0.6175812	-0.3461402	0	-72.23	-97.164	3.271	B5-03822-P02-CH1	1041008	OK	0.6959837	-0.1814255	-0.6947601	0	-69.567	-72.727	0.994	B5-03822-P03-CH0	1041008	OK	0.8559343	-0.4902058	-0.1645439	0	-93.299	-59.94	9.85	B5-03822-P03-CH1	1041008	OK	0.8057698	-0.384209	-0.4506866	0	-97.424	-31.624	5.717	B5-03822-P04-CH0	1041008	OK	0.7103306	-0.1864382	0.6787276	0	-121.78	-41.897	7.371	B5-03822-P04-CH1	1041008	OK	0.7351411	-0.6745282	0.06767	0	-108.855	-48.051	2.283	NA
0.959226401304323	B5-03822-P01-CH0	1041016	OK	0.2374818	0.0332363	0.0510451	-0.9694803	103.948	-6.361	-230.909	B5-03822-P02-CH0	1041016	OK	0.7024862	0.6235766	-0.3430238	0	-71.846	-97.662	3.027	B5-03822-P02-CH1	1041016	OK	0.6999211	-0.1827163	-0.6904529	0	-69.225	-72.397	0.273	B5-03822-P03-CH0	1041016	OK	0.8567253	-0.4873788	-0.1687708	0	-93.789	-60.143	9.671	B5-03822-P03-CH1	1041016	OK	0.8060032	-0.382955	-0.4513361	0	-97.494	-31.642	5.945	B5-03822-P04-CH0	1041016	OK	0.7099099	-0.1877836	0.6787969	0	-121.689	-41.679	7.133	B5-03822-P04-CH1	1041016	OK	0.7349419	-0.6748331	0.0667882	0	-108.781	-47.921	2.339	NA
0.969218342984577	B5-03822-P01-CH0	1041024	OK	0.2373828	0.0332403	0.0513104	-0.9694905	103.882	-6.41	-230.979	B5-03822-P02-CH0	1041024	OK	0.6980494	0.6274404	-0.3450299	0	-71.377	-97.056	3.185	B5-03822-P02-CH1	1041024	OK	0.7004696	-0.1854234	-0.6891738	0	-70.312	-72.223	0.142	B5-03822-P03-CH0	1041024	OK	0.8581675	-0.4843051	-0.1702852	0	-93.621	-60.405	9.9	B5-03822-P03-CH1	1041024	OK	0.8063073	-0.3818596	-0.451721	0	-97.528	-31.494	6.005	B5-03822-P04-CH0	1041024	OK	0.7095695	-0.188737	0.6788885	0	-121.579	-41.52	7.001	B5-03822-P04-CH1	1041024	OK	0.7350201	-0.6747819	0.0664444	0	-108.677	-47.888	2.401	NA
0.97921028466483	B5-03822-P01-CH0	1041032	OK	0.2371417	0.0333606	0.0512306	-0.9695495	103.872	-6.522	-231.005	B5-03822-P02-CH0	1041032	OK	0.6954773	0.6270087	-0.3509579	0	-71.267	-96.839	3.163	B5-03822-P02-CH1	1041032	OK	0.7024846	-0.1901282	-0.6858328	0	-70.293	-72.204	0.508	B5-03822-P03-CH0	1041032	OK	0.8598888	-0.4798734	-0.1741058	0	-93.544	-60.479	9.925	B5-03822-P03-CH1	1041032	OK	0.8064887	-0.3820859	-0.4512053	0	-97.431	-31.361	5.494	B5-03822-P04-CH0	1041032	OK	0.7092393	-0.1899387	0.6788983	0	-121.52	-41.411	6.955	B5-03822-P04-CH1	1041032	OK	0.7348753	-0.6749879	0.0659521	0	-108.54	-47.871	2.494	NA
0.989202226345084	B5-03822-P01-CH0	1041040	OK	0.2370717	0.0334868	0.0515555	-0.9695451	103.876	-6.614	-231.044	B5-03822-P02-CH0	1041040	OK	0.6936663	0.6235495	-0.3605732	0	-71.239	-97.03	2.795	B5-03822-P02-CH1	1041040	OK	0.703798	-0.1918018	-0.6840178	0	-70.211	-72.304	0.883	B5-03822-P03-CH0	1041040	OK	0.8609733	-0.4750679	-0.1817567	0	-93.605	-60.799	9.543	B5-03822-P03-CH1	1041040	OK	0.807339	-0.3824612	-0.449363	0	-96.998	-31.561	6.274	B5-03822-P04-CH0	1041040	OK	0.7090313	-0.1906484	0.6789166	0	-121.465	-41.369	6.939	B5-03822-P04-CH1	1041040	OK	0.7349756	-0.6749166	0.0655622	0	-108.435	-47.878	2.45	NA
0.999194168025337	B5-03822-P01-CH0	1041048	OK	0.236868	0.0335099	0.0513876	-0.969603	103.811	-6.706	-231.047	B5-03822-P02-CH0	1041048	OK	0.6932175	0.617566	-0.3715667	0	-70.741	-97.414	3.205	B5-03822-P02-CH1	1041048	OK	0.7042063	-0.1926655	-0.6833546	0	-69.854	-72.197	-0.428	B5-03822-P03-CH0	1041048	OK	0.8620859	-0.4684844	-0.1932106	0	-93.785	-60.779	9.874	B5-03822-P03-CH1	1041048	OK	0.8068621	-0.3822618	-0.4503881	0	-97.266	-31.501	5.88	B5-03822-P04-CH0	1041048	OK	0.7085858	-0.1916492	0.6790999	0	-121.339	-41.322	6.861	B5-03822-P04-CH1	1041048	OK	0.7349453	-0.6750135	0.0649012	0	-108.421	-47.766	2.677	NA
1.00918610970559	B5-03822-P01-CH0	1041056	OK	0.2367094	0.0334874	0.051289	-0.9696477	103.757	-6.867	-231.083	B5-03822-P02-CH0	1041056	OK	0.691812	0.6117969	-0.383537	0	-70.671	-97.801	3.504	B5-03822-P02-CH1	1041056	OK	0.7034746	-0.1941916	-0.6836762	0	-69.72	-72.057	0.088	B5-03822-P03-CH0	1041056	OK	0.863055	-0.4631557	-0.2015512	0	-93.164	-60.827	10.535	B5-03822-P03-CH1	1041056	OK	0.8063553	-0.3825929	-0.4510141	0	-97.388	-31.675	5.969	B5-03822-P04-CH0	1041056	OK	0.7082667	-0.1927944	0.6791086	0	-121.18	-41.29	6.81	B5-03822-P04-CH1	1041056	OK	0.7349373	-0.67509	0.0641924	0	-108.37	-47.744	2.83	NA
1.01917805138584	B5-03822-P01-CH0	1041064	OK	0.236492	0.0336949	0.0510327	-0.9697071	103.763	-6.945	-231.082	B5-03822-P02-CH0	1041064	OK	0.6901695	0.6054774	-0.3963121	0	-70.474	-97.6	3.532	B5-03822-P02-CH1	1041064	OK	0.7025948	-0.1945023	-0.6844921	0	-69.809	-71.636	0.609	B5-03822-P03-CH0	1041064	OK	0.8616753	-0.4608144	-0.2125226	0	-93.245	-60.846	10.27	B5-03822-P03-CH1	1041064	OK	0.8061029	-0.3830626	-0.4510667	0	-97.03	-31.703	5.77	B5-03822-P04-CH0	1041064	OK	0.7081271	-0.1940881	0.6788857	0	-121.118	-41.241	6.715	B5-03822-P04-CH1	1041064	OK	0.7346057	-0.6754945	0.0637317	0	-108.273	-47.715	2.728	NA
1.0291699930661	B5-03822-P01-CH0	1041072	OK	0.2364139	0.0336936	0.0511724	-0.9697188	103.733	-7.017	-231.103	B5-03822-P02-CH0	1041072	OK	0.6886535	0.5992336	-0.408259	0	-70.299	-97.336	3.812	B5-03822-P02-CH1	1041072	OK	0.7021291	-0.1966916	-0.6843444	0	-69.422	-71.789	-0.272	B5-03822-P03-CH0	1041072	OK	0.8593774	-0.4591575	-0.225044	0	-92.848	-60.898	9.89	B5-03822-P03-CH1	1041072	OK	0.8061954	-0.382534	-0.4513499	0	-97.095	-31.715	5.815	B5-03822-P04-CH0	1041072	OK	0.7082535	-0.1944981	0.6786365	0	-121.082	-41.291	6.936	B5-03822-P04-CH1	1041072	OK	0.7346119	-0.675532	0.0632607	0	-108.18	-47.688	2.636	NA
1.03916193474635	B5-03822-P01-CH0	1041080	OK	0.2363493	0.0338334	0.0511867	-0.9697289	103.726	-7.072	-231.103	B5-03822-P02-CH0	1041080	OK	0.6882278	0.5925608	-0.4185861	0	-70.195	-97.42	3.87	B5-03822-P02-CH1	1041080	OK	0.7009708	-0.1975369	-0.6852876	0	-69.478	-72.066	0.3	B5-03822-P03-CH0	1041080	OK	0.856337	-0.4563764	-0.2416766	0	-93.008	-60.429	9.671	B5-03822-P03-CH1	1041080	OK	0.8061937	-0.382381	-0.4514826	0	-97.15	-31.698	5.866	B5-03822-P04-CH0	1041080	OK	0.7082919	-0.1952517	0.67838	0	-121.037	-41.216	6.909	B5-03822-P04-CH1	1041080	OK	0.734707	-0.6754761	0.0627502	0	-108.077	-47.563	2.709	NA
1.0491538764266	B5-03822-P01-CH0	1041088	OK	0.2361902	0.033897	0.0510599	-0.9697722	103.724	-7.147	-231.182	B5-03822-P02-CH0	1041088	OK	0.6890087	0.584814	-0.4280883	0	-69.821	-97.568	4.005	B5-03822-P02-CH1	1041088	OK	0.7005046	-0.1995016	-0.6851952	0	-69.59	-71.976	0.83	B5-03822-P03-CH0	1041088	OK	0.8542752	-0.4566232	-0.248413	0	-92.944	-60.187	10.267	B5-03822-P03-CH1	1041088	OK	0.8061474	-0.3823152	-0.4516209	0	-97.177	-31.684	5.981	B5-03822-P04-CH0	1041088	OK	0.7083536	-0.1963486	0.6779988	0	-121.026	-41.132	6.938	B5-03822-P04-CH1	1041088	OK	0.7346298	-0.6756104	0.0622074	0	-108.067	-47.503	2.814	NA
1.05914581810686	B5-03822-P01-CH0	1041096	OK	0.2361636	0.0340746	0.0513029	-0.9697596	103.82	-7.227	-231.264	B5-03822-P02-CH0	1041096	OK	0.689023	0.5769247	-0.4386402	0	-69.486	-97.81	3.734	B5-03822-P02-CH1	1041096	OK	0.6995746	-0.2045658	-0.6846519	0	-70.217	-71.921	1.027	B5-03822-P03-CH0	1041096	OK	0.8524673	-0.4591445	-0.2499717	0	-92.581	-60.46	9.991	B5-03822-P03-CH1	1041096	OK	0.8060581	-0.3823471	-0.4517533	0	-97.306	-31.718	6	B5-03822-P04-CH0	1041096	OK	0.7086159	-0.1966396	0.6776403	0	-121.102	-41.262	7.069	B5-03822-P04-CH1	1041096	OK	0.7344861	-0.6757823	0.0620357	0	-108.022	-47.63	2.565	NA
1.06913775978711	B5-03822-P01-CH0	1041104	OK	0.2358948	0.0341296	0.0510339	-0.9698373	103.831	-7.316	-231.305	B5-03822-P02-CH0	1041104	OK	0.6869407	0.5702959	-0.4504165	0	-69.442	-97.289	3.594	B5-03822-P02-CH1	1041104	OK	0.6998571	-0.2081068	-0.6832947	0	-69.68	-72.042	0.902	B5-03822-P03-CH0	1041104	OK	0.8514394	-0.4589177	-0.2538613	0	-92.168	-60.372	9.93	B5-03822-P03-CH1	1041104	OK	0.8059323	-0.3824823	-0.4518633	0	-97.294	-31.732	6.097	B5-03822-P04-CH0	1041104	OK	0.7087195	-0.1971161	0.6773935	0	-121.154	-41.331	7.215	B5-03822-P04-CH1	1041104	OK	0.7342549	-0.6761025	0.0612797	0	-108.002	-47.532	2.542	NA
1.07912970146736	B5-03822-P01-CH0	1041112	OK	0.2357751	0.0343597	0.0507095	-0.9698753	103.878	-7.371	-231.273	B5-03822-P02-CH0	1041112	OK	0.685484	0.5616755	-0.4632843	0	-69.194	-97.195	4.106	B5-03822-P02-CH1	1041112	OK	0.6987408	-0.2097665	-0.6839294	0	-69.356	-71.626	0.784	B5-03822-P03-CH0	1041112	OK	0.8503357	-0.4582662	-0.2586917	0	-91.704	-60.536	10.054	B5-03822-P03-CH1	1041112	OK	0.805608	-0.3828339	-0.4521437	0	-97.387	-31.748	6.124	B5-03822-P04-CH0	1041112	OK	0.7086995	-0.1971518	0.677404	0	-121.162	-41.411	7.297	B5-03822-P04-CH1	1041112	OK	0.7339285	-0.6764979	0.0608232	0	-108.074	-47.468	2.336	NA
1.08912164314762	B5-03822-P01-CH0	1041120	OK	0.2356619	0.0343172	0.0505906	-0.9699105	103.87	-7.47	-231.304	B5-03822-P02-CH0	1041120	OK	0.6832181	0.5532087	-0.4766268	0	-69.233	-97.047	4.6	B5-03822-P02-CH1	1041120	OK	0.6964987	-0.2091869	-0.6863894	0	-69.561	-71.772	0.886	B5-03822-P03-CH0	1041120	OK	0.8493651	-0.4558096	-0.2661138	0	-91.83	-60.36	10.037	B5-03822-P03-CH1	1041120	OK	0.8055174	-0.3830072	-0.4521584	0	-97.343	-31.81	6.117	B5-03822-P04-CH0	1041120	OK	0.7085499	-0.1973829	0.6774933	0	-121.102	-41.452	7.241	B5-03822-P04-CH1	1041120	OK	0.7339266	-0.6765352	0.0604309	0	-108.182	-47.373	2.32	NA
1.09911358482787	B5-03822-P01-CH0	1041128	OK	0.2356464	0.0344152	0.0508653	-0.9698964	103.947	-7.524	-231.38	B5-03822-P02-CH0	1041128	OK	0.6807019	0.5441626	-0.4904406	0	-69.479	-97.085	4.571	B5-03822-P02-CH1	1041128	OK	0.6934074	-0.2072117	-0.6901083	0	-70.176	-71.621	0.502	B5-03822-P03-CH0	1041128	OK	0.8481665	-0.454324	-0.2724029	0	-91.367	-60.486	10.277	B5-03822-P03-CH1	1041128	OK	0.8055751	-0.3828714	-0.4521706	0	-97.35	-31.795	6.138	B5-03822-P04-CH0	1041128	OK	0.7087552	-0.1971887	0.677335	0	-121.184	-41.445	7.324	B5-03822-P04-CH1	1041128	OK	0.7338303	-0.6766243	0.0606013	0	-108.189	-47.496	2.26	NA
1.10910552650812	B5-03822-P01-CH0	1041136	OK	0.2358505	0.0343728	0.0515777	-0.9698107	103.962	-7.501	-231.447	B5-03822-P02-CH0	1041136	OK	0.6789097	0.5330715	-0.5048925	0	-69.352	-97.079	4.707	B5-03822-P02-CH1	1041136	OK	0.6918218	-0.2069562	-0.6917744	0	-69.991	-71.916	0.735	B5-03822-P03-CH0	1041136	OK	0.8460747	-0.4531059	-0.2808072	0	-91.433	-60.555	9.598	B5-03822-P03-CH1	1041136	OK	0.8057169	-0.3826892	-0.4520721	0	-97.352	-31.786	6.187	B5-03822-P04-CH0	1041136	OK	0.708943	-0.1965255	0.6773312	0	-121.224	-41.441	7.288	B5-03822-P04-CH1	1041136	OK	0.7341548	-0.6762496	0.0608541	0	-108.176	-47.475	2.022	NA
1.11909746818838	B5-03822-P01-CH0	1041144	OK	0.2358835	0.0343612	0.0518395	-0.9697891	104.003	-7.577	-231.528	B5-03822-P02-CH0	1041144	OK	0.6774776	0.5222443	-0.5179624	0	-69.272	-96.67	4.321	B5-03822-P02-CH1	1041144	OK	0.6913232	-0.201558	-0.6938635	0	-69.318	-72.154	0.674	B5-03822-P03-CH0	1041144	OK	0.8444949	-0.4509095	-0.2889793	0	-91.472	-60.162	9.887	B5-03822-P03-CH1	1041144	OK	0.8057158	-0.3825286	-0.4522101	0	-97.354	-31.813	6.231	B5-03822-P04-CH0	1041144	OK	0.7090348	-0.1961024	0.6773577	0	-121.295	-41.447	7.242	B5-03822-P04-CH1	1041144	OK	0.7342129	-0.676191	0.060805	0	-108.177	-47.524	2.077	NA
1.12908940986863	B5-03822-P01-CH0	1041152	OK	0.2358323	0.0344475	0.0519784	-0.9697911	104.06	-7.564	-231.612	B5-03822-P02-CH0	1041152	OK	0.6775718	0.5119057	-0.5280616	0	-69.63	-96.741	4.935	B5-03822-P02-CH1	1041152	OK	0.691556	-0.1941481	-0.6957419	0	-69.45	-72.366	0.104	B5-03822-P03-CH0	1041152	OK	0.842753	-0.4488365	-0.2971753	0	-91.592	-59.843	9.773	B5-03822-P03-CH1	1041152	OK	0.8056053	-0.382434	-0.4524868	0	-97.421	-31.774	6.218	B5-03822-P04-CH0	1041152	OK	0.708836	-0.1961081	0.6775641	0	-121.301	-41.352	7.15	B5-03822-P04-CH1	1041152	OK	0.7342173	-0.676186	0.0608064	0	-108.257	-47.482	2.157	NA
1.13908135154888	B5-03822-P01-CH0	1041160	OK	0.2357462	0.0345518	0.0519165	-0.9698116	104.144	-7.661	-231.706	B5-03822-P02-CH0	1041160	OK	0.6798737	0.5016727	-0.5348797	0	-69.911	-97.077	4.893	B5-03822-P02-CH1	1041160	OK	0.6950218	-0.1836817	-0.69513	0	-69.831	-72.75	0.871	B5-03822-P03-CH0	1041160	OK	0.8409549	-0.4495598	-0.3011493	0	-91.391	-60.178	9.481	B5-03822-P03-CH1	1041160	OK	0.8054741	-0.3824215	-0.4527309	0	-97.426	-31.865	6.319	B5-03822-P04-CH0	1041160	OK	0.7089256	-0.1955987	0.6776176	0	-121.431	-41.446	7.24	B5-03822-P04-CH1	1041160	OK	0.733931	-0.6764932	0.0608451	0	-108.301	-47.633	2.266	NA
1.14907329322914	B5-03822-P01-CH0	1041168	OK	0.2358762	0.0344133	0.0522823	-0.9697653	104.117	-7.705	-231.691	B5-03822-P02-CH0	1041168	OK	0.6829894	0.4906806	-0.5410711	0	-70.222	-97.106	5.062	B5-03822-P02-CH1	1041168	OK	0.7005665	-0.170997	-0.6927962	0	-69.798	-72.769	0.512	B5-03822-P03-CH0	1041168	OK	0.8402637	-0.4478413	-0.3056061	0	-91.423	-60.037	9.425	B5-03822-P03-CH1	1041168	OK	0.805587	-0.3823553	-0.452586	0	-97.347	-31.916	6.209	B5-03822-P04-CH0	1041168	OK	0.70871	-0.1945262	0.6781517	0	-121.409	-41.537	7.078	B5-03822-P04-CH1	1041168	OK	0.7341037	-0.6762833	0.0610956	0	-108.271	-47.657	2.136	NA
1.15906523490939	B5-03822-P01-CH0	1041176	OK	0.2360125	0.0341729	0.0525574	-0.9697257	104.064	-7.711	-231.781	B5-03822-P02-CH0	1041176	OK	0.6870662	0.4795211	-0.5458934	0	-70.288	-96.885	4.684	B5-03822-P02-CH1	1041176	OK	0.7054043	-0.1558926	-0.6914494	0	-70.604	-73.27	1.579	B5-03822-P03-CH0	1041176	OK	0.8402083	-0.4454909	-0.309173	0	-91.196	-59.787	9.584	B5-03822-P03-CH1	1041176	OK	0.8057482	-0.382278	-0.4523642	0	-97.243	-31.938	6.334	B5-03822-P04-CH0	1041176	OK	0.7084915	-0.1935898	0.6786478	0	-121.379	-41.527	7.093	B5-03822-P04-CH1	1041176	OK	0.7344067	-0.6759491	0.0611525	0	-108.319	-47.591	2.376	NA
1.16905717658964	B5-03822-P01-CH0	1041184	OK	0.2361021	0.0342322	0.0526005	-0.9696995	104.096	-7.717	-231.757	B5-03822-P02-CH0	1041184	OK	0.6911499	0.4702524	-0.5487936	0	-70.646	-97.225	4.39	B5-03822-P02-CH1	1041184	OK	0.7113175	-0.140242	-0.6887376	0	-70.566	-73.556	1.428	B5-03822-P03-CH0	1041184	OK	0.8394949	-0.4425485	-0.3152762	0	-91.695	-59.576	9.591	B5-03822-P03-CH1	1041184	OK	0.8057095	-0.3823043	-0.4524109	0	-97.261	-31.911	6.243	B5-03822-P04-CH0	1041184	OK	0.708285	-0.1927633	0.6790984	0	-121.409	-41.459	6.967	B5-03822-P04-CH1	1041184	OK	0.7343979	-0.6759269	0.0615018	0	-108.369	-47.602	2.239	NA
1.1790491182699	B5-03822-P01-CH0	1041192	OK	0.2361069	0.0339666	0.0529869	-0.9696866	104.057	-7.726	-231.86	B5-03822-P02-CH0	1041192	OK	0.6943827	0.4627473	-0.5510877	0	-70.959	-97.391	4.703	B5-03822-P02-CH1	1041192	OK	0.714524	-0.1267136	-0.6880401	0	-71.28	-74.03	0.58	B5-03822-P03-CH0	1041192	OK	0.8389347	-0.4419368	-0.3176168	0	-91.236	-60.124	9.491	B5-03822-P03-CH1	1041192	OK	0.8059018	-0.3819618	-0.4523577	0	-97.236	-31.863	6.208	B5-03822-P04-CH0	1041192	OK	0.7080246	-0.1922677	0.6795103	0	-121.344	-41.417	7.059	B5-03822-P04-CH1	1041192	OK	0.7347041	-0.6755906	0.0615402	0	-108.378	-47.579	2.303	NA
1.18904105995015	B5-03822-P01-CH0	1041200	OK	0.2360208	0.0339669	0.0528574	-0.9697147	104.049	-7.73	-231.898	B5-03822-P02-CH0	1041200	OK	0.6968623	0.4566103	-0.5530731	0	-71.074	-97.21	4.664	B5-03822-P02-CH1	1041200	OK	0.717562	-0.1183015	-0.6863742	0	-71.498	-74.522	0.892	B5-03822-P03-CH0	1041200	OK	0.8383886	-0.440778	-0.3206544	0	-90.763	-60.264	9.561	B5-03822-P03-CH1	1041200	OK	0.8056968	-0.3817965	-0.4528622	0	-97.357	-31.743	6.144	B5-03822-P04-CH0	1041200	OK	0.7079569	-0.1920212	0.6796505	0	-121.38	-41.274	7.097	B5-03822-P04-CH1	1041200	OK	0.7345502	-0.6757619	0.061497	0	-108.286	-47.593	2.357	NA
1.1990330016304	B5-03822-P01-CH0	1041208	OK	0.2359539	0.0339142	0.0526315	-0.9697451	104.05	-7.807	-231.952	B5-03822-P02-CH0	1041208	OK	0.6988484	0.4513193	-0.5549071	0	-71.231	-97.572	4.153	B5-03822-P02-CH1	1041208	OK	0.7196865	-0.1124031	-0.6851401	0	-71.727	-75.015	0.946	B5-03822-P03-CH0	1041208	OK	0.837012	-0.4387244	-0.3270042	0	-91.197	-60.168	9.49	B5-03822-P03-CH1	1041208	OK	0.8056521	-0.3819271	-0.4528315	0	-97.316	-31.822	6.217	B5-03822-P04-CH0	1041208	OK	0.7076555	-0.1917821	0.6800318	0	-121.323	-41.309	7.124	B5-03822-P04-CH1	1041208	OK	0.7344374	-0.6758862	0.0614776	0	-108.233	-47.619	2.399	NA
1.20902494331066	B5-03822-P01-CH0	1041216	OK	0.235744	0.0338288	0.0521382	-0.9698258	104.016	-7.86	-231.924	B5-03822-P02-CH0	1041216	OK	0.6996343	0.4491471	-0.5556786	0	-71.781	-97.666	4.3	B5-03822-P02-CH1	1041216	OK	0.7211787	-0.1074954	-0.6843581	0	-72.089	-75.129	1.265	B5-03822-P03-CH0	1041216	OK	0.8364383	-0.4370576	-0.3306835	0	-91.267	-59.802	9.353	B5-03822-P03-CH1	1041216	OK	0.8056388	-0.3820861	-0.452721	0	-97.225	-31.804	6.13	B5-03822-P04-CH0	1041216	OK	0.7073908	-0.1916748	0.6803374	0	-121.311	-41.305	7.191	B5-03822-P04-CH1	1041216	OK	0.7341153	-0.6762703	0.0610997	0	-108.249	-47.599	2.43	NA
