Wav.Time	B5.03822.P01.CH0	Frame	State	Q0	Qx	Qy	Qz	Tx	Ty	Tz	B5.03822.P02.CH0	Frame.1	State.1	Q0.1	Qx.1	Qy.1	Qz.1	Tx.1	Ty.1	Tz.1	B5.03822.P02.CH1	Frame.2	State.2	Q0.2	Qx.2	Qy.2	Qz.2	Tx.2	Ty.2	Tz.2	B5.03822.P03.CH0	Frame.3	State.3	Q0.3	Qx.3	Qy.3	Qz.3	Tx.3	Ty.3	Tz.3	B5.03822.P03.CH1	Frame.4	State.4	Q0.4	Qx.4	Qy.4	Qz.4	Tx.4	Ty.4	Tz.4	B5.03822.P04.CH0	Frame.5	State.5	Q0.5	Qx.5	Qy.5	Qz.5	Tx.5	Ty.5	Tz.5	B5.03822.P04.CH1	Frame.6	State.6	Q0.6	Qx.6	Qy.6	Qz.6	Tx.6	Ty.6	Tz.6	X
0	B5-03822-P01-CH0	990144	OK	0.2568626	0.0825987	0.1031767	-0.9573681	165.242	-26.401	-273.184	B5-03822-P02-CH0	990144	OK	0.4884577	0.4665691	-0.7373753	0	-75.544	-99.798	4.866	B5-03822-P02-CH1	990144	OK	0.7440589	-0.2673879	-0.6122745	0	-77.296	-73.817	-1.346	B5-03822-P03-CH0	990144	OK	0.8275372	-0.4579036	-0.3248175	0	-97.558	-56.673	1.725	B5-03822-P03-CH1	990144	OK	0.5980548	0.7998549	0.0506224	0	-101.12	-28.309	0.832	B5-03822-P04-CH0	990144	OK	0.7793506	-0.2760536	0.5625007	0	-126.958	-40.289	6.1	B5-03822-P04-CH1	990144	OK	0.7482532	-0.6483738	0.1404584	0	-113.171	-33.57	-7.849	NA
0.00999192897497982	B5-03822-P01-CH0	990152	OK	0.2568775	0.0826378	0.1038848	-0.9572841	165.233	-26.365	-273.037	B5-03822-P02-CH0	990152	OK	0.4844962	0.4666302	-0.7399457	0	-75.557	-99.904	4.524	B5-03822-P02-CH1	990152	OK	0.7431542	-0.251315	-0.6201312	0	-76.845	-74.112	-1.57	B5-03822-P03-CH0	990152	OK	0.8296631	-0.4601299	-0.3161322	0	-97.044	-57.59	2.77	B5-03822-P03-CH1	990152	OK	0.5976165	0.8001952	0.0504196	0	-101.256	-28.136	0.577	B5-03822-P04-CH0	990152	OK	0.7795936	-0.2755601	0.562406	0	-126.985	-40.266	5.954	B5-03822-P04-CH1	990152	OK	0.7484988	-0.6480185	0.1407888	0	-113.311	-33.778	-7.687	NA
0.0199838579499596	B5-03822-P01-CH0	990160	OK	0.2572875	0.0823711	0.1054822	-0.9570223	165.282	-26.272	-273.162	B5-03822-P02-CH0	990160	OK	0.4797759	0.463447	-0.7450047	0	-75.725	-99.853	4.993	B5-03822-P02-CH1	990160	OK	0.7428696	-0.2361986	-0.6263825	0	-76.493	-74.1	-2.231	B5-03822-P03-CH0	990160	OK	0.8325598	-0.4588608	-0.310308	0	-97.361	-58.075	3.722	B5-03822-P03-CH1	990160	OK	0.5963818	0.8011659	0.0496187	0	-101.194	-28.046	0.567	B5-03822-P04-CH0	990160	OK	0.7801025	-0.2746998	0.562121	0	-127.035	-40.25	5.891	B5-03822-P04-CH1	990160	OK	0.7496058	-0.6467729	0.1406268	0	-113.277	-33.688	-7.746	NA
0.0299757869249395	B5-03822-P01-CH0	990168	OK	0.2569476	0.0826043	0.1049485	-0.9571522	165.356	-26.348	-273.24	B5-03822-P02-CH0	990168	OK	0.4786144	0.4626654	-0.7462365	0	-75.426	-99.944	4.262	B5-03822-P02-CH1	990168	OK	0.7417175	-0.2258776	-0.6315334	0	-77.052	-73.506	-2.672	B5-03822-P03-CH0	990168	OK	0.8343122	-0.4608579	-0.3025445	0	-97.217	-59.432	3.714	B5-03822-P03-CH1	990168	OK	0.5969503	0.8007304	0.049811	0	-101.035	-27.867	0.295	B5-03822-P04-CH0	990168	OK	0.7800258	-0.2754849	0.5618432	0	-126.977	-39.971	6.099	B5-03822-P04-CH1	990168	OK	0.74928	-0.6472203	0.1403043	0	-113.317	-33.676	-7.652	NA
0.0399677158999193	B5-03822-P01-CH0	990176	OK	0.2566966	0.0824486	0.104531	-0.9572786	165.273	-26.38	-273.44	B5-03822-P02-CH0	990176	OK	0.4766153	0.4617591	-0.7480752	0	-75.332	-99.655	4.607	B5-03822-P02-CH1	990176	OK	0.7428143	-0.216923	-0.6333809	0	-76.405	-73.4	-1.482	B5-03822-P03-CH0	990176	OK	0.8371975	-0.4584421	-0.2982135	0	-98.77	-58.381	3.638	B5-03822-P03-CH1	990176	OK	0.5972503	0.800499	0.0499334	0	-100.955	-27.554	0.106	B5-03822-P04-CH0	990176	OK	0.7795737	-0.2763564	0.5620428	0	-126.815	-39.824	5.97	B5-03822-P04-CH1	990176	OK	0.7492129	-0.6474982	0.1393774	0	-113.029	-33.228	-7.99	NA
0.0499596448748991	B5-03822-P01-CH0	990184	OK	0.2568622	0.0824466	0.1055643	-0.957121	165.303	-26.409	-273.348	B5-03822-P02-CH0	990184	OK	0.4766035	0.459654	-0.749378	0	-75.062	-100.443	4.563	B5-03822-P02-CH1	990184	OK	0.7419177	-0.2104569	-0.6366051	0	-77.027	-74.048	-1.949	B5-03822-P03-CH0	990184	OK	0.8408141	-0.4571198	-0.2899538	0	-98.053	-59.667	5.418	B5-03822-P03-CH1	990184	OK	0.5962239	0.801264	0.04993	0	-100.951	-27.112	-0.456	B5-03822-P04-CH0	990184	OK	0.7800314	-0.2763457	0.5614126	0	-126.782	-39.651	5.842	B5-03822-P04-CH1	990184	OK	0.7495746	-0.6469194	0.1401181	0	-113.177	-33.529	-8.071	NA
0.0599515738498789	B5-03822-P01-CH0	990192	OK	0.2559191	0.082954	0.1037563	-0.9575274	165.381	-26.634	-273.339	B5-03822-P02-CH0	990192	OK	0.4759411	0.4586828	-0.7503933	0	-75.658	-100.192	4.759	B5-03822-P02-CH1	990192	OK	0.7394385	-0.2048098	-0.641314	0	-78.461	-74.521	-2.768	B5-03822-P03-CH0	990192	OK	0.8423921	-0.4544982	-0.2894944	0	-99.24	-57.685	2.629	B5-03822-P03-CH1	990192	OK	0.5976408	0.8001251	0.0512381	0	-101.139	-26.909	-0.314	B5-03822-P04-CH0	990192	OK	0.7794753	-0.2785187	0.561111	0	-126.839	-39.557	5.73	B5-03822-P04-CH1	990192	OK	0.7480514	-0.6486895	0.1400752	0	-113.412	-33.928	-7.756	NA
0.0699435028248588	B5-03822-P01-CH0	990200	OK	0.255215	0.0824831	0.1033967	-0.9577948	165.111	-26.758	-273.454	B5-03822-P02-CH0	990200	OK	0.4779054	0.4521763	-0.753089	0	-74.843	-99.885	5.442	B5-03822-P02-CH1	990200	OK	0.7415985	-0.1987611	-0.6407228	0	-77.35	-73.596	-2.427	B5-03822-P03-CH0	990200	OK	0.8457652	-0.4528531	-0.2821442	0	-98.075	-58.784	4.043	B5-03822-P03-CH1	990200	OK	0.5985867	0.7994108	0.0513455	0	-100.683	-27.275	-0.083	B5-03822-P04-CH0	990200	OK	0.7790117	-0.28003	0.5610027	0	-126.622	-39.288	5.409	B5-03822-P04-CH1	990200	OK	0.7479697	-0.6490304	0.1389277	0	-113.036	-33.504	-7.956	NA
0.0799354317998386	B5-03822-P01-CH0	990208	OK	0.2550462	0.0824606	0.1033584	-0.9578459	165.135	-26.854	-273.556	B5-03822-P02-CH0	990208	OK	0.4784092	0.4470698	-0.755813	0	-74.739	-99.534	4.83	B5-03822-P02-CH1	990208	OK	0.7418577	-0.195107	-0.6415454	0	-77.243	-73.418	-1.685	B5-03822-P03-CH0	990208	OK	0.8496388	-0.4513695	-0.2727259	0	-97.875	-60.437	6.052	B5-03822-P03-CH1	990208	OK	0.5984753	0.7994578	0.0519094	0	-100.561	-27.064	-0.191	B5-03822-P04-CH0	990208	OK	0.7789043	-0.2810526	0.5606403	0	-126.482	-39.165	5.404	B5-03822-P04-CH1	990208	OK	0.7475742	-0.6494297	0.13919	0	-113.056	-33.735	-8.203	NA
0.0899273607748184	B5-03822-P01-CH0	990216	OK	0.2550796	0.0825869	0.10393	-0.9577642	165.211	-26.816	-273.545	B5-03822-P02-CH0	990216	OK	0.4797939	0.4476926	-0.7545655	0	-75.175	-100.092	5.072	B5-03822-P02-CH1	990216	OK	0.7426983	-0.1925853	-0.6413346	0	-77.084	-73.289	-2.418	B5-03822-P03-CH0	990216	OK	0.8551547	-0.4482024	-0.2604325	0	-97.479	-60.743	5.392	B5-03822-P03-CH1	990216	OK	0.5981644	0.7996805	0.0520618	0	-100.605	-26.967	-0.345	B5-03822-P04-CH0	990216	OK	0.7791354	-0.2816951	0.5599963	0	-126.396	-38.871	5.313	B5-03822-P04-CH1	990216	OK	0.7475779	-0.6492953	0.1397957	0	-113.185	-34.107	-7.999	NA
0.0999192897497982	B5-03822-P01-CH0	990224	OK	0.2548329	0.0826906	0.1036909	-0.9578469	165.224	-26.805	-273.559	B5-03822-P02-CH0	990224	OK	0.4839405	0.4500085	-0.7505291	0	-75.127	-99.701	4.581	B5-03822-P02-CH1	990224	OK	0.7419669	-0.1878839	-0.6435718	0	-77.757	-73.903	-1.571	B5-03822-P03-CH0	990224	OK	0.8590689	-0.4470635	-0.2492687	0	-97.715	-61.569	4.967	B5-03822-P03-CH1	990224	OK	0.5986225	0.7993237	0.0522758	0	-100.641	-26.989	-0.233	B5-03822-P04-CH0	990224	OK	0.7792083	-0.2822974	0.5595914	0	-126.457	-38.919	5.654	B5-03822-P04-CH1	990224	OK	0.7476783	-0.6493603	0.1389547	0	-113.151	-33.656	-8.355	NA
0.109911218724778	B5-03822-P01-CH0	990232	OK	0.2544421	0.0827481	0.103274	-0.9579908	165.243	-26.819	-273.734	B5-03822-P02-CH0	990232	OK	0.4891569	0.4579588	-0.7422933	0	-75.873	-99.505	5.042	B5-03822-P02-CH1	990232	OK	0.7430569	-0.1826932	-0.6438087	0	-77.528	-73.796	-0.437	B5-03822-P03-CH0	990232	OK	0.8639767	-0.4426181	-0.2400697	0	-98.873	-61.26	6.159	B5-03822-P03-CH1	990232	OK	0.5993539	0.798732	0.0529342	0	-100.581	-27.017	-0.278	B5-03822-P04-CH0	990232	OK	0.7792145	-0.2827613	0.5593485	0	-126.571	-39.226	6.109	B5-03822-P04-CH1	990232	OK	0.7471633	-0.6500284	0.1386001	0	-112.963	-33.77	-8.051	NA
0.119903147699758	B5-03822-P01-CH0	990240	OK	0.25373	0.0831605	0.1013949	-0.9583447	165.174	-27.026	-273.503	B5-03822-P02-CH0	990240	OK	0.5011826	0.4675511	-0.7281565	0	-76.261	-100.312	4.52	B5-03822-P02-CH1	990240	OK	0.7427374	-0.177216	-0.6457055	0	-78.137	-73.377	-0.902	B5-03822-P03-CH0	990240	OK	0.8693072	-0.4411159	-0.2229838	0	-97.86	-62.68	7.333	B5-03822-P03-CH1	990240	OK	0.6012974	0.7972128	0.0537884	0	-100.587	-27.19	-0.197	B5-03822-P04-CH0	990240	OK	0.7789587	-0.2838577	0.5591494	0	-126.678	-39.442	6.263	B5-03822-P04-CH1	990240	OK	0.7456877	-0.6516983	0.138705	0	-113.047	-33.967	-8.098	NA
0.129895076674738	B5-03822-P01-CH0	990248	OK	0.2535056	0.0833239	0.1009634	-0.9584354	165.189	-27.064	-273.455	B5-03822-P02-CH0	990248	OK	0.5112827	0.4659872	-0.7221122	0	-77.356	-99.2	4.449	B5-03822-P02-CH1	990248	OK	0.744767	-0.1724473	-0.6446581	0	-77.161	-72.82	-1.786	B5-03822-P03-CH0	990248	OK	0.8756323	-0.4343877	-0.2111288	0	-98.963	-62.459	7.503	B5-03822-P03-CH1	990248	OK	0.602136	0.7965576	0.0541138	0	-100.714	-27.388	-0.091	B5-03822-P04-CH0	990248	OK	0.7789969	-0.2843168	0.5588629	0	-126.628	-39.654	6.521	B5-03822-P04-CH1	990248	OK	0.745406	-0.6520333	0.1386453	0	-113.213	-33.999	-7.928	NA
0.139887005649718	B5-03822-P01-CH0	990256	OK	0.2534544	0.0835341	0.1009549	-0.9584315	165.21	-26.961	-273.309	B5-03822-P02-CH0	990256	OK	0.5236234	0.4607941	-0.7165803	0	-79.204	-98.735	5.551	B5-03822-P02-CH1	990256	OK	0.74536	-0.169636	-0.6447187	0	-77.112	-73.399	-1.681	B5-03822-P03-CH0	990256	OK	0.8824299	-0.429737	-0.1914251	0	-97.85	-63.872	8.29	B5-03822-P03-CH1	990256	OK	0.6030223	0.7958929	0.0540236	0	-100.692	-27.716	0.085	B5-03822-P04-CH0	990256	OK	0.7793232	-0.2842438	0.558445	0	-126.732	-39.691	6.534	B5-03822-P04-CH1	990256	OK	0.745422	-0.6520206	0.1386187	0	-113.394	-33.928	-7.781	NA
0.149878934624697	B5-03822-P01-CH0	990264	OK	0.2533875	0.08358	0.1005937	-0.9584832	165.264	-26.969	-273.425	B5-03822-P02-CH0	990264	OK	0.5413325	0.4508973	-0.7096835	0	-80.37	-99.102	5.324	B5-03822-P02-CH1	990264	OK	0.7462646	-0.1670616	-0.6443443	0	-77.746	-72.875	-1.069	B5-03822-P03-CH0	990264	OK	0.8890541	-0.4233736	-0.1741767	0	-98.088	-63.931	8.577	B5-03822-P03-CH1	990264	OK	0.6037568	0.7953181	0.054286	0	-100.536	-27.769	0.023	B5-03822-P04-CH0	990264	OK	0.7794689	-0.2840028	0.5583642	0	-126.851	-39.916	6.558	B5-03822-P04-CH1	990264	OK	0.7451948	-0.6523061	0.1384969	0	-113.503	-34.009	-7.535	NA
0.159870863599677	B5-03822-P01-CH0	990272	OK	0.253532	0.0835758	0.1009823	-0.9584045	165.243	-26.809	-273.333	B5-03822-P02-CH0	990272	OK	0.5584621	0.4370829	-0.705038	0	-80.75	-99.286	4.406	B5-03822-P02-CH1	990272	OK	0.7479681	-0.1646244	-0.642995	0	-78.641	-72.742	-2.297	B5-03822-P03-CH0	990272	OK	0.8955074	-0.4154718	-0.1595295	0	-99.297	-64.239	10.053	B5-03822-P03-CH1	990272	OK	0.6036968	0.795349	0.0544993	0	-100.546	-27.526	-0.069	B5-03822-P04-CH0	990272	OK	0.7799949	-0.2831161	0.5580799	0	-126.969	-39.94	6.46	B5-03822-P04-CH1	990272	OK	0.7454088	-0.6520351	0.1386214	0	-113.644	-33.925	-7.56	NA
0.169862792574657	B5-03822-P01-CH0	990280	OK	0.2532335	0.083898	0.0997368	-0.9585857	165.267	-26.863	-273.222	B5-03822-P02-CH0	990280	OK	0.5682315	0.4260879	-0.7039617	0	-82.107	-98.522	4.779	B5-03822-P02-CH1	990280	OK	0.7524225	-0.1543408	-0.6403432	0	-77.719	-72.457	-3.048	B5-03822-P03-CH0	990280	OK	0.9001338	-0.4116074	-0.1426132	0	-99.785	-65.571	10.264	B5-03822-P03-CH1	990280	OK	0.6048922	0.7943607	0.0556463	0	-100.742	-27.213	-0.284	B5-03822-P04-CH0	990280	OK	0.7801076	-0.2832157	0.5578718	0	-126.952	-39.954	6.717	B5-03822-P04-CH1	990280	OK	0.7444083	-0.6531025	0.138973	0	-113.821	-34.207	-7.218	NA
0.179854721549637	B5-03822-P01-CH0	990288	OK	0.2531637	0.0837462	0.0998674	-0.9586038	165.205	-26.826	-273.159	B5-03822-P02-CH0	990288	OK	0.575717	0.4178873	-0.7027946	0	-82.806	-98.378	4.537	B5-03822-P02-CH1	990288	OK	0.7545492	-0.1297389	-0.643291	0	-78.449	-73.988	-0.841	B5-03822-P03-CH0	990288	OK	0.90614	-0.402936	-0.1286578	0	-99.477	-65.013	9.944	B5-03822-P03-CH1	990288	OK	0.6052509	0.794062	0.0560081	0	-100.719	-27.116	-0.439	B5-03822-P04-CH0	990288	OK	0.7805389	-0.2825124	0.5576251	0	-126.863	-39.956	6.915	B5-03822-P04-CH1	990288	OK	0.7444683	-0.6530104	0.1390843	0	-113.838	-34.278	-6.918	NA
0.189846650524617	B5-03822-P01-CH0	990296	OK	0.2527922	0.0836774	0.0988069	-0.9588177	165.105	-26.913	-273.152	B5-03822-P02-CH0	990296	OK	0.5805	0.4136958	-0.7013383	0	-84.253	-97.954	4.189	B5-03822-P02-CH1	990296	OK	0.7569002	-0.1041816	-0.6451731	0	-79.627	-74.367	-0.925	B5-03822-P03-CH0	990296	OK	0.908424	-0.4003237	-0.1204439	0	-99.728	-65.264	10.963	B5-03822-P03-CH1	990296	OK	0.6064989	0.7930594	0.0567083	0	-100.511	-27.084	-0.357	B5-03822-P04-CH0	990296	OK	0.7804849	-0.2822285	0.5578444	0	-126.681	-40.238	7.356	B5-03822-P04-CH1	990296	OK	0.7439531	-0.653701	0.1385959	0	-113.768	-34.087	-7.003	NA
0.199838579499596	B5-03822-P01-CH0	990304	OK	0.2526902	0.0833758	0.0990154	-0.9588493	165.037	-27.005	-273.157	B5-03822-P02-CH0	990304	OK	0.5859426	0.4121392	-0.6977195	0	-84.983	-97.906	3.534	B5-03822-P02-CH1	990304	OK	0.7617048	-0.0808582	-0.6428591	0	-79.613	-75.234	-1.963	B5-03822-P03-CH0	990304	OK	0.9090498	-0.4011302	-0.1127961	0	-98.389	-65.819	10.771	B5-03822-P03-CH1	990304	OK	0.6067384	0.7928324	0.0573175	0	-100.395	-27.108	-0.341	B5-03822-P04-CH0	990304	OK	0.7809292	-0.2813145	0.5576842	0	-126.529	-40.304	7.286	B5-03822-P04-CH1	990304	OK	0.7438809	-0.6536861	0.1390526	0	-113.857	-34.412	-6.99	NA
0.209830508474576	B5-03822-P01-CH0	990312	OK	0.253104	0.083094	0.0994356	-0.9587212	164.936	-26.948	-273.027	B5-03822-P02-CH0	990312	OK	0.5902194	0.411333	-0.6945835	0	-85.204	-97.322	3.989	B5-03822-P02-CH1	990312	OK	0.7662078	-0.0591363	-0.639866	0	-79.952	-74.982	-1.298	B5-03822-P03-CH0	990312	OK	0.908463	-0.4035031	-0.1089963	0	-97.068	-65.94	10.098	B5-03822-P03-CH1	990312	OK	0.6064663	0.7930533	0.0571407	0	-100.264	-26.993	-0.236	B5-03822-P04-CH0	990312	OK	0.7840659	-0.2739441	0.5569518	0	-125.937	-38.736	5.845	B5-03822-P04-CH1	990312	OK	0.7444434	-0.6529118	0.139679	0	-114.021	-34.292	-7.164	NA
0.219822437449556	B5-03822-P01-CH0	990320	OK	0.253169	0.0835884	0.0988812	-0.9587184	165.169	-26.962	-272.982	B5-03822-P02-CH0	990320	OK	0.5936487	0.4141522	-0.6899704	0	-86.305	-97.365	3.822	B5-03822-P02-CH1	990320	OK	0.768811	-0.0402567	-0.6382076	0	-81.131	-75.559	-1.675	B5-03822-P03-CH0	990320	OK	0.9067589	-0.4059417	-0.1140161	0	-98.374	-65.94	10.573	B5-03822-P03-CH1	990320	OK	0.607034	0.7925894	0.0575479	0	-100.514	-26.87	-0.421	B5-03822-P04-CH0	990320	OK	0.7845876	-0.2703992	0.5579485	0	-126.295	-41.228	7.919	B5-03822-P04-CH1	990320	OK	0.7443232	-0.6531152	0.1393681	0	-114.131	-34.227	-7.317	NA
0.229814366424536	B5-03822-P01-CH0	990328	OK	0.2537053	0.0831502	0.0996372	-0.9585364	165.035	-26.872	-272.892	B5-03822-P02-CH0	990328	OK	0.5971513	0.4146001	-0.686671	0	-86.351	-96.856	3.409	B5-03822-P02-CH1	990328	OK	0.7718592	-0.0216044	-0.6354263	0	-81.131	-76.031	-0.573	B5-03822-P03-CH0	990328	OK	0.9057492	-0.4078385	-0.1152659	0	-98.269	-65.854	9.617	B5-03822-P03-CH1	990328	OK	0.6059876	0.7934018	0.0573817	0	-100.457	-26.469	-0.772	B5-03822-P04-CH0	990328	OK	0.7847768	-0.2701786	0.5577892	0	-125.668	-39.735	5.729	B5-03822-P04-CH1	990328	OK	0.7447692	-0.6523673	0.140484	0	-114.135	-34.397	-7.425	NA
0.239806295399516	B5-03822-P01-CH0	990336	OK	0.2538224	0.0829991	0.0998381	-0.9584976	165.025	-26.895	-272.833	B5-03822-P02-CH0	990336	OK	0.5985938	0.4192059	-0.6826067	0	-87.578	-97.471	4.705	B5-03822-P02-CH1	990336	OK	0.774887	-0.0067143	-0.6320641	0	-80.801	-76.105	-0.962	B5-03822-P03-CH0	990336	OK	0.9048271	-0.4095217	-0.1165331	0	-97.525	-65.794	9.592	B5-03822-P03-CH1	990336	OK	0.6050574	0.7940675	0.0579858	0	-100.552	-25.991	-1.126	B5-03822-P04-CH0	990336	OK	0.7853628	-0.2669305	0.5585279	0	-125.806	-39.389	5.296	B5-03822-P04-CH1	990336	OK	0.7452335	-0.6518169	0.1405769	0	-114.202	-34.239	-7.714	NA
0.249798224374496	B5-03822-P01-CH0	990344	OK	0.2537177	0.0827765	0.0995467	-0.9585749	164.891	-26.826	-272.8	B5-03822-P02-CH0	990344	OK	0.6001444	0.4266736	-0.6765916	0	-88.284	-97.762	4.231	B5-03822-P02-CH1	990344	OK	0.7771921	0.0038493	-0.6292517	0	-80.404	-75.441	-0.429	B5-03822-P03-CH0	990344	OK	0.9039018	-0.4089276	-0.1254578	0	-98.565	-64.356	10.819	B5-03822-P03-CH1	990344	OK	0.6044818	0.7944525	0.0587109	0	-100.37	-25.562	-1.221	B5-03822-P04-CH0	990344	OK	0.7857361	-0.2614141	0.5606082	0	-126.317	-39.76	5.919	B5-03822-P04-CH1	990344	OK	0.7450326	-0.6519904	0.1408367	0	-114.122	-34.184	-7.876	NA
0.259790153349475	B5-03822-P01-CH0	990352	OK	0.2541166	0.0828176	0.1001505	-0.9584028	164.996	-26.879	-272.72	B5-03822-P02-CH0	990352	OK	0.602373	0.4340839	-0.6698641	0	-87.401	-97.038	2.523	B5-03822-P02-CH1	990352	OK	0.7760241	0.0083014	-0.6306486	0	-81.595	-77.397	-0.264	B5-03822-P03-CH0	990352	OK	0.9014012	-0.4152579	-0.1226241	0	-96.275	-65.016	8.96	B5-03822-P03-CH1	990352	OK	0.6034731	0.7952257	0.0586204	0	-100.425	-25.709	-1.358	B5-03822-P04-CH0	990352	OK	0.7851859	-0.2589907	0.5625006	0	-125.808	-39.48	5.472	B5-03822-P04-CH1	990352	OK	0.7455122	-0.6512297	0.1418149	0	-114.244	-34.503	-7.773	NA
0.269782082324455	B5-03822-P01-CH0	990360	OK	0.2547601	0.0829886	0.1015218	-0.9580728	165.172	-26.605	-272.716	B5-03822-P02-CH0	990360	OK	0.6029308	0.4419023	-0.6642265	0	-88.137	-97.639	2.391	B5-03822-P02-CH1	990360	OK	0.778593	0.0145155	-0.6273614	0	-80.973	-76.991	-0.794	B5-03822-P03-CH0	990360	OK	0.89999	-0.4176733	-0.1247674	0	-96.256	-64.973	9.041	B5-03822-P03-CH1	990360	OK	0.6001886	0.7980309	0.05404	0	-99.748	-28.356	-1.016	B5-03822-P04-CH0	990360	OK	0.786758	-0.2521003	0.5634335	0	-127.382	-40.433	5.9	B5-03822-P04-CH1	990360	OK	0.7466986	-0.6497195	0.1424986	0	-114.477	-34.338	-7.868	NA
0.279774011299435	B5-03822-P01-CH0	990368	OK	0.2547089	0.0834553	0.1011117	-0.9580892	165.346	-26.579	-272.639	B5-03822-P02-CH0	990368	OK	0.6018401	0.4522932	-0.6581941	0	-89.239	-97.005	2.894	B5-03822-P02-CH1	990368	OK	0.7803185	0.0198992	-0.6250656	0	-81.563	-77.666	0.446	B5-03822-P03-CH0	990368	OK	0.8990398	-0.4197495	-0.1246502	0	-96.057	-65.431	9.109	B5-03822-P03-CH1	990368	OK	0.5986112	0.7992664	0.0532713	0	-101.438	-28.567	1.01	B5-03822-P04-CH0	990368	OK	0.786734	-0.2473415	0.5655721	0	-127.507	-41.5	8.288	B5-03822-P04-CH1	990368	OK	0.7464195	-0.6498191	0.1435028	0	-114.871	-34.634	-7.65	NA
0.289765940274415	B5-03822-P01-CH0	990376	OK	0.2544444	0.0832804	0.1013705	-0.9581474	165.267	-26.51	-272.608	B5-03822-P02-CH0	990376	OK	0.6014528	0.4668276	-0.6483259	0	-89.637	-96.739	2.457	B5-03822-P02-CH1	990376	OK	0.7811764	0.0250059	-0.6238094	0	-82.177	-77.223	-0.515	B5-03822-P03-CH0	990376	OK	0.900143	-0.4172377	-0.1251212	0	-96.859	-64.912	8.638	B5-03822-P03-CH1	990376	OK	0.5980075	0.7997553	0.0527105	0	-101.001	-28.415	0.417	B5-03822-P04-CH0	990376	OK	0.78717	-0.2445839	0.5661644	0	-127.827	-40.517	7.518	B5-03822-P04-CH1	990376	OK	0.746471	-0.6496196	0.1441371	0	-114.93	-34.739	-7.57	NA
0.299757869249395	B5-03822-P01-CH0	990384	OK	0.2547854	0.0835433	0.1012164	-0.9580502	165.355	-26.384	-272.565	B5-03822-P02-CH0	990384	OK	0.5997214	0.4810236	-0.6394925	0	-90.933	-97.275	4.279	B5-03822-P02-CH1	990384	OK	0.7820625	0.0251427	-0.6226926	0	-81.862	-77.067	-0.067	B5-03822-P03-CH0	990384	OK	0.900699	-0.4171883	-0.1212243	0	-96.874	-64.706	7.853	B5-03822-P03-CH1	990384	OK	0.5967227	0.8008758	0.0501996	0	-101.051	-27.931	0.516	B5-03822-P04-CH0	990384	OK	0.7882771	-0.2377619	0.5675284	0	-130.076	-42.904	7.647	B5-03822-P04-CH1	990384	OK	0.7466999	-0.6491058	0.1452617	0	-115.162	-34.659	-7.375	NA
0.309749798224375	B5-03822-P01-CH0	990392	OK	0.2538902	0.0840604	0.0995779	-0.9584142	165.411	-26.46	-272.536	B5-03822-P02-CH0	990392	OK	0.6001179	0.4951295	-0.6282557	0	-91.641	-97.42	4.175	B5-03822-P02-CH1	990392	OK	0.7810673	0.0176429	-0.6241975	0	-82.776	-77.952	0.202	B5-03822-P03-CH0	990392	OK	0.899849	-0.4187193	-0.1222531	0	-98.075	-64.091	9.332	B5-03822-P03-CH1	990392	OK	0.5982248	0.7998355	0.0488906	0	-100.975	-28.005	0.044	B5-03822-P04-CH0	990392	OK	0.7868396	-0.2389238	0.5690332	0	-129.157	-41.793	7.016	B5-03822-P04-CH1	990392	OK	0.7457718	-0.6502557	0.144886	0	-115.203	-34.341	-7.848	NA
0.319741727199354	B5-03822-P01-CH0	990400	OK	0.2537258	0.0838104	0.0996801	-0.9584691	165.314	-26.403	-272.62	B5-03822-P02-CH0	990400	OK	0.6006775	0.5049456	-0.619852	0	-91.076	-96.718	3.901	B5-03822-P02-CH1	990400	OK	0.7816619	0.0063753	-0.6236699	0	-82.623	-78.37	0.736	B5-03822-P03-CH0	990400	OK	0.8978719	-0.4249555	-0.1150601	0	-97.104	-65.103	9.631	B5-03822-P03-CH1	990400	OK	0.5989277	0.7994358	0.0467761	0	-99.934	-28.429	-0.652	B5-03822-P04-CH0	990400	OK	0.7873021	-0.236198	0.5695313	0	-129.885	-42.449	7.702	B5-03822-P04-CH1	990400	OK	0.7459317	-0.6498916	0.1456942	0	-115.279	-34.219	-7.938	NA
0.329733656174334	B5-03822-P01-CH0	990408	OK	0.2539726	0.0841498	0.1003584	-0.9583032	165.531	-26.288	-272.677	B5-03822-P02-CH0	990408	OK	0.6016978	0.5108647	-0.6139845	0	-91.346	-97.693	5.15	B5-03822-P02-CH1	990408	OK	0.7821775	-0.0077742	-0.6230071	0	-82.664	-77.321	-0.183	B5-03822-P03-CH0	990408	OK	0.8962667	-0.4271498	-0.1193696	0	-99.37	-64.723	10.086	B5-03822-P03-CH1	990408	OK	0.5983508	0.7994124	0.0540001	0	-100.895	-26.709	-0.568	B5-03822-P04-CH0	990408	OK	0.7881153	-0.2318303	0.5702009	0	-130.783	-43.999	10.642	B5-03822-P04-CH1	990408	OK	0.7464068	-0.6491174	0.1467092	0	-115.539	-34.248	-8.096	NA
0.339725585149314	B5-03822-P01-CH0	990416	OK	0.2538521	0.0841626	0.100294	-0.9583407	165.567	-26.213	-272.824	B5-03822-P02-CH0	990416	OK	0.6043913	0.5127293	-0.6097703	0	-90.415	-96.388	4.772	B5-03822-P02-CH1	990416	OK	0.784378	-0.0249962	-0.6197792	0	-81.947	-75.468	1.135	B5-03822-P03-CH0	990416	OK	0.8947791	-0.4305674	-0.1182461	0	-99.089	-64.571	10.037	B5-03822-P03-CH1	990416	OK	0.5978447	0.7998565	0.0530215	0	-100.733	-26.885	-0.273	B5-03822-P04-CH0	990416	OK	0.7860726	-0.2331411	0.5724815	0	-130.584	-42.131	7.626	B5-03822-P04-CH1	990416	OK	0.7460694	-0.6491884	0.1481044	0	-115.74	-34.529	-7.929	NA
0.349717514124294	B5-03822-P01-CH0	990424	OK	0.2538192	0.0843757	0.1000362	-0.9583576	165.659	-26.273	-272.748	B5-03822-P02-CH0	990424	OK	0.6089645	0.514141	-0.6040043	0	-89.829	-96.162	4.144	B5-03822-P02-CH1	990424	OK	0.7844905	-0.0468542	-0.6183683	0	-82.289	-76.249	1.592	B5-03822-P03-CH0	990424	OK	0.8931769	-0.4335143	-0.1195844	0	-98.831	-64.61	9.756	B5-03822-P03-CH1	990424	OK	0.5981385	0.7997531	0.0512381	0	-100.971	-27.536	-0.063	B5-03822-P04-CH0	990424	OK	0.7858691	-0.2321672	0.5731563	0	-131.452	-43.721	8.962	B5-03822-P04-CH1	990424	OK	0.7461416	-0.6488302	0.1493057	0	-116.059	-34.584	-7.821	NA
0.359709443099274	B5-03822-P01-CH0	990432	OK	0.2538788	0.0844415	0.100121	-0.9583272	165.678	-26.151	-272.767	B5-03822-P02-CH0	990432	OK	0.6141247	0.5177699	-0.5956217	0	-89.976	-97.01	3.714	B5-03822-P02-CH1	990432	OK	0.7844444	-0.0669832	-0.6165713	0	-82.218	-76.314	1.055	B5-03822-P03-CH0	990432	OK	0.8910219	-0.4353905	-0.128511	0	-99.437	-64.528	9.945	B5-03822-P03-CH1	990432	OK	0.5979308	0.800027	0.0493511	0	-100.868	-27.827	0.221	B5-03822-P04-CH0	990432	OK	0.7852205	-0.2345266	0.5730846	0	-130.789	-42.393	7.966	B5-03822-P04-CH1	990432	OK	0.7462599	-0.6484207	0.1504886	0	-116.27	-34.497	-7.965	NA
0.369701372074253	B5-03822-P01-CH0	990440	OK	0.2538604	0.0840237	0.1003957	-0.95834	165.553	-26.139	-272.846	B5-03822-P02-CH0	990440	OK	0.6197256	0.5227638	-0.5853701	0	-88.656	-97.439	2.828	B5-03822-P02-CH1	990440	OK	0.7838851	-0.0830707	-0.6153238	0	-81.885	-75.957	0.597	B5-03822-P03-CH0	990440	OK	0.8884894	-0.4361989	-0.142538	0	-99.105	-64.014	9.33	B5-03822-P03-CH1	990440	OK	0.597443	0.8004684	0.0480857	0	-100.828	-27.941	0.38	B5-03822-P04-CH0	990440	OK	0.7854605	-0.2348626	0.572618	0	-131.276	-43.871	8.814	B5-03822-P04-CH1	990440	OK	0.7468336	-0.6476335	0.1510309	0	-116.395	-34.15	-8.143	NA
0.379693301049233	B5-03822-P01-CH0	990448	OK	0.2538749	0.0839491	0.1000999	-0.9583737	165.552	-26.072	-272.932	B5-03822-P02-CH0	990448	OK	0.6209159	0.5263736	-0.5808565	0	-88.116	-97.168	3.401	B5-03822-P02-CH1	990448	OK	0.7832784	-0.0970619	-0.6140471	0	-81.273	-75.436	0.776	B5-03822-P03-CH0	990448	OK	0.8828439	-0.4388729	-0.1672642	0	-99.574	-63.513	9.147	B5-03822-P03-CH1	990448	OK	0.5975055	0.8005069	0.0466474	0	-100.605	-28.026	0.523	B5-03822-P04-CH0	990448	OK	0.7865522	-0.2358145	0.5707251	0	-130.788	-42.535	8.098	B5-03822-P04-CH1	990448	OK	0.7467387	-0.6475603	0.1518121	0	-116.526	-34.164	-7.775	NA
0.389685230024213	B5-03822-P01-CH0	990456	OK	0.2545222	0.083845	0.1009586	-0.958121	165.641	-25.924	-273.022	B5-03822-P02-CH0	990456	OK	0.6194384	0.5251654	-0.5835216	0	-87.688	-96.643	3.022	B5-03822-P02-CH1	990456	OK	0.7820565	-0.1100921	-0.6134063	0	-81.79	-75.415	-0.045	B5-03822-P03-CH0	990456	OK	0.8747461	-0.4429624	-0.1964781	0	-98.103	-63.169	7.067	B5-03822-P03-CH1	990456	OK	0.5967788	0.8011591	0.0447132	0	-100.67	-28.264	0.765	B5-03822-P04-CH0	990456	OK	0.7867413	-0.2347798	0.570891	0	-131.065	-42.706	8.339	B5-03822-P04-CH1	990456	OK	0.747471	-0.6463673	0.1532854	0	-116.919	-34.261	-7.633	NA
0.399677158999193	B5-03822-P01-CH0	990464	OK	0.2544194	0.0838895	0.1005462	-0.9581878	165.647	-25.868	-273.025	B5-03822-P02-CH0	990464	OK	0.6180979	0.5174434	-0.5917832	0	-87.932	-97.422	4.994	B5-03822-P02-CH1	990464	OK	0.7844667	-0.1165419	-0.6091223	0	-81.512	-74.997	0.733	B5-03822-P03-CH0	990464	OK	0.8637713	-0.443975	-0.2382968	0	-98.425	-62.135	6.417	B5-03822-P03-CH1	990464	OK	0.5970396	0.8010151	0.0437998	0	-100.676	-28.278	0.833	B5-03822-P04-CH0	990464	OK	0.7861631	-0.236131	0.5711302	0	-131.013	-42.496	8.188	B5-03822-P04-CH1	990464	OK	0.7474653	-0.646365	0.1533229	0	-117.029	-34.034	-7.649	NA
0.409669087974173	B5-03822-P01-CH0	990472	OK	0.2553612	0.0832551	0.1024101	-0.9577951	165.613	-25.704	-273.118	B5-03822-P02-CH0	990472	OK	0.6155309	0.5033747	-0.6064121	0	-87.274	-97.169	4.201	B5-03822-P02-CH1	990472	OK	0.7868762	-0.1218973	-0.604952	0	-82.924	-76.359	2.099	B5-03822-P03-CH0	990472	OK	0.8535097	-0.4419367	-0.2760672	0	-97.508	-61.956	4.926	B5-03822-P03-CH1	990472	OK	0.5953473	0.8023725	0.0419528	0	-100.572	-28.408	0.842	B5-03822-P04-CH0	990472	OK	0.7863952	-0.2358607	0.5709224	0	-131.117	-42.47	8.048	B5-03822-P04-CH1	990472	OK	0.748831	-0.644521	0.1544177	0	-117.155	-34.149	-7.217	NA
0.419661016949153	B5-03822-P01-CH0	990480	OK	0.2559224	0.0829996	0.1033938	-0.9575618	165.553	-25.549	-272.935	B5-03822-P02-CH0	990480	OK	0.6138748	0.4872836	-0.6210575	0	-86.268	-97.163	3.994	B5-03822-P02-CH1	990480	OK	0.7940167	-0.1213104	-0.5956687	0	-82.045	-76.138	1.472	B5-03822-P03-CH0	990480	OK	0.8442263	-0.4305703	-0.319204	0	-97.946	-61.336	4.831	B5-03822-P03-CH1	990480	OK	0.5943731	0.8031628	0.0406222	0	-100.48	-28.366	0.709	B5-03822-P04-CH0	990480	OK	0.7861141	-0.2496196	0.5654332	0	-131.341	-41.895	7.006	B5-03822-P04-CH1	990480	OK	0.7491405	-0.6438476	0.1557202	0	-117.235	-34.607	-6.787	NA
0.429652945924132	B5-03822-P01-CH0	990488	OK	0.2558058	0.0826646	0.1031015	-0.9576534	165.405	-25.554	-272.896	B5-03822-P02-CH0	990488	OK	0.6129189	0.4696083	-0.6354514	0	-85.399	-96.59	2.574	B5-03822-P02-CH1	990488	OK	0.7984042	-0.1198615	-0.5900711	0	-82.886	-76.327	0.602	B5-03822-P03-CH0	990488	OK	0.8361305	-0.4096591	-0.364781	0	-97.915	-60.197	5.279	B5-03822-P03-CH1	990488	OK	0.5943689	0.8031826	0.04029	0	-100.293	-28.255	0.701	B5-03822-P04-CH0	990488	OK	0.7858164	-0.2555864	0.5631768	0	-130.753	-42.057	8.649	B5-03822-P04-CH1	990488	OK	0.7485857	-0.6444015	0.1560967	0	-117.138	-34.957	-6.413	NA
0.439644874899112	B5-03822-P01-CH0	990496	OK	0.25582	0.0826816	0.102636	-0.9576981	165.358	-25.539	-272.778	B5-03822-P02-CH0	990496	OK	0.6111961	0.4526556	-0.6492628	0	-85.816	-97.238	3.013	B5-03822-P02-CH1	990496	OK	0.8017224	-0.1176205	-0.5860091	0	-83.932	-76.974	1.141	B5-03822-P03-CH0	990496	OK	0.8285208	-0.3836202	-0.4079078	0	-97.416	-59.978	3.683	B5-03822-P03-CH1	990496	OK	0.5944918	0.8031157	0.0398083	0	-100.298	-28.002	0.494	B5-03822-P04-CH0	990496	OK	0.7841145	-0.2638535	0.5617346	0	-130.051	-44.325	9.697	B5-03822-P04-CH1	990496	OK	0.7481903	-0.6449405	0.1557659	0	-117.039	-35.002	-6.331	NA
0.449636803874092	B5-03822-P01-CH0	990504	OK	0.2561705	0.082689	0.1026137	-0.9576062	165.34	-25.441	-272.763	B5-03822-P02-CH0	990504	OK	0.6109727	0.437522	-0.6597627	0	-84.993	-96.515	3.075	B5-03822-P02-CH1	990504	OK	0.8067714	-0.116193	-0.5793264	0	-83.475	-77.341	1.82	B5-03822-P03-CH0	990504	OK	0.8224095	-0.3486161	-0.4495659	0	-98.166	-58.04	2.241	B5-03822-P03-CH1	990504	OK	0.5942978	0.8032983	0.0390116	0	-100.153	-27.81	0.463	B5-03822-P04-CH0	990504	OK	0.7838231	-0.276916	0.5558227	0	-128.642	-41.761	7.27	B5-03822-P04-CH1	990504	OK	0.7479351	-0.6452677	0.1556363	0	-116.932	-35.051	-6.517	NA
0.459628732849072	B5-03822-P01-CH0	990512	OK	0.2563573	0.0825823	0.1027123	-0.9575548	165.367	-25.46	-272.781	B5-03822-P02-CH0	990512	OK	0.6118448	0.4242283	-0.6675899	0	-85.145	-97.2	2.53	B5-03822-P02-CH1	990512	OK	0.8087545	-0.1162447	-0.5765443	0	-84.406	-78.278	2.754	B5-03822-P03-CH0	990512	OK	0.8218408	-0.3172817	-0.4731914	0	-98.452	-58.157	2.748	B5-03822-P03-CH1	990512	OK	0.5942751	0.8033524	0.0382365	0	-100.154	-27.874	0.548	B5-03822-P04-CH0	990512	OK	0.7841674	-0.2875577	0.5499018	0	-128.073	-41.499	7.361	B5-03822-P04-CH1	990512	OK	0.7479932	-0.6453406	0.1550538	0	-116.883	-35.106	-6.379	NA
0.469620661824052	B5-03822-P01-CH0	990520	OK	0.2561853	0.0831739	0.1017053	-0.9576572	165.513	-25.499	-272.597	B5-03822-P02-CH0	990520	OK	0.613471	0.4136453	-0.672719	0	-85.528	-97.984	2.439	B5-03822-P02-CH1	990520	OK	0.8107819	-0.1168812	-0.5735604	0	-85.473	-78.466	2.493	B5-03822-P03-CH0	990520	OK	0.8255919	-0.3018209	-0.4767621	0	-99.321	-60.064	5.011	B5-03822-P03-CH1	990520	OK	0.5952792	0.8026107	0.0381922	0	-100.346	-27.826	0.528	B5-03822-P04-CH0	990520	OK	0.7851699	-0.3023107	0.540478	0	-126.96	-38.411	4.822	B5-03822-P04-CH1	990520	OK	0.7467831	-0.6467684	0.1549372	0	-116.938	-35.584	-6.231	NA
0.479612590799032	B5-03822-P01-CH0	990528	OK	0.256492	0.0830294	0.102613	-0.9574907	165.459	-25.37	-272.504	B5-03822-P02-CH0	990528	OK	0.6140354	0.4047892	-0.6775738	0	-85.815	-98.757	2.548	B5-03822-P02-CH1	990528	OK	0.8125505	-0.1154593	-0.5713413	0	-86.297	-79.259	2.884	B5-03822-P03-CH0	990528	OK	0.8314202	-0.2921295	-0.4726529	0	-101.061	-59.6	4.773	B5-03822-P03-CH1	990528	OK	0.5949262	0.8029137	0.0373145	0	-100.419	-27.808	0.445	B5-03822-P04-CH0	990528	OK	0.7869293	-0.3100822	0.533471	0	-128.52	-41.935	5.509	B5-03822-P04-CH1	990528	OK	0.7472582	-0.6463372	0.1544454	0	-116.792	-35.428	-6.536	NA
0.489604519774011	B5-03822-P01-CH0	990536	OK	0.2563827	0.0835259	0.1017581	-0.9575681	165.552	-25.363	-272.356	B5-03822-P02-CH0	990536	OK	0.6155183	0.3984908	-0.6799576	0	-86.09	-100.144	2.071	B5-03822-P02-CH1	990536	OK	0.8136019	-0.109575	-0.5710037	0	-86.224	-79.071	2.54	B5-03822-P03-CH0	990536	OK	0.8354609	-0.282495	-0.4713827	0	-102.837	-59.277	5.042	B5-03822-P03-CH1	990536	OK	0.5958934	0.8022097	0.0370223	0	-100.433	-27.698	0.308	B5-03822-P04-CH0	990536	OK	0.7878595	-0.3201752	0.5260848	0	-127.175	-39.483	4.996	B5-03822-P04-CH1	990536	OK	0.7466278	-0.6473266	0.1533468	0	-116.736	-35.288	-6.688	NA
0.499596448748991	B5-03822-P01-CH0	990544	OK	0.2562342	0.0835942	0.10151	-0.9576282	165.485	-25.363	-272.3	B5-03822-P02-CH0	990544	OK	0.6165378	0.3884843	-0.6848073	0	-85.3	-100.275	2.159	B5-03822-P02-CH1	990544	OK	0.8157387	-0.1009465	-0.5695438	0	-85.199	-78.567	2.022	B5-03822-P03-CH0	990544	OK	0.8418268	-0.2750568	-0.4644042	0	-101.945	-58.82	4.469	B5-03822-P03-CH1	990544	OK	0.5964616	0.8017827	0.0371211	0	-100.425	-27.617	0.294	B5-03822-P04-CH0	990544	OK	0.7878268	-0.3316797	0.5189581	0	-125.308	-38.705	5.244	B5-03822-P04-CH1	990544	OK	0.7462523	-0.6479982	0.1523347	0	-116.568	-35.203	-6.839	NA
0.509588377723971	B5-03822-P01-CH0	990552	OK	0.2559033	0.0841937	0.1005112	-0.9577695	165.6	-25.392	-272.22	B5-03822-P02-CH0	990552	OK	0.6157396	0.3772285	-0.6917828	0	-85.77	-101.096	2.962	B5-03822-P02-CH1	990552	OK	0.8142456	-0.0943405	-0.5728037	0	-86.014	-79.798	1.653	B5-03822-P03-CH0	990552	OK	0.8493017	-0.2785387	-0.4484448	0	-102.157	-61.075	6.935	B5-03822-P03-CH1	990552	OK	0.5976367	0.8009057	0.037155	0	-100.624	-27.506	0.317	B5-03822-P04-CH0	990552	OK	0.788577	-0.3429894	0.5103964	0	-125.999	-40.98	6.427	B5-03822-P04-CH1	990552	OK	0.7452188	-0.6494444	0.1512315	0	-116.407	-35.303	-6.977	NA
0.519580306698951	B5-03822-P01-CH0	990560	OK	0.2557897	0.0847012	0.0997645	-0.9578332	165.73	-25.375	-272.296	B5-03822-P02-CH0	990560	OK	0.6154726	0.3663838	-0.6978227	0	-85.323	-101.159	2.57	B5-03822-P02-CH1	990560	OK	0.814085	-0.0888715	-0.5739055	0	-86.115	-81.111	4.467	B5-03822-P03-CH0	990560	OK	0.8601526	-0.2846494	-0.4232165	0	-102.819	-62.317	6.849	B5-03822-P03-CH1	990560	OK	0.5984404	0.800314	0.0369673	0	-100.786	-27.205	0.266	B5-03822-P04-CH0	990560	OK	0.7889082	-0.3577663	0.4996269	0	-125.335	-40.192	5.464	B5-03822-P04-CH1	990560	OK	0.7445966	-0.6504285	0.150062	0	-116.311	-35.176	-7.217	NA
0.529572235673931	B5-03822-P01-CH0	990568	OK	0.255812	0.0852403	0.0992867	-0.957829	165.867	-25.426	-272.248	B5-03822-P02-CH0	990568	OK	0.6137126	0.3567639	-0.7043269	0	-85.133	-101.723	2.419	B5-03822-P02-CH1	990568	OK	0.8137255	-0.0836532	-0.5751982	0	-86.682	-82.033	3.092	B5-03822-P03-CH0	990568	OK	0.8714817	-0.2877673	-0.3971268	0	-102.915	-64.08	8.183	B5-03822-P03-CH1	990568	OK	0.5991972	0.7997747	0.0363754	0	-100.923	-27.097	0.088	B5-03822-P04-CH0	990568	OK	0.7889003	-0.3699075	0.4907186	0	-124.179	-39.207	4.998	B5-03822-P04-CH1	990568	OK	0.7445267	-0.6508451	0.1485955	0	-116.173	-34.828	-7.699	NA
0.53956416464891	B5-03822-P01-CH0	990576	OK	0.2558666	0.0852617	0.0996595	-0.9577738	165.784	-25.365	-272.19	B5-03822-P02-CH0	990576	OK	0.6094265	0.3511009	-0.7108639	0	-85.306	-102.105	2.285	B5-03822-P02-CH1	990576	OK	0.8144172	-0.0767622	-0.5751801	0	-86.608	-83.233	3.47	B5-03822-P03-CH0	990576	OK	0.8815182	-0.284885	-0.3765187	0	-103.548	-64.702	9.82	B5-03822-P03-CH1	990576	OK	0.5992877	0.7997357	0.0357372	0	-100.928	-26.905	-0.09	B5-03822-P04-CH0	990576	OK	0.7889744	-0.3751497	0.4866026	0	-126.162	-43.93	7.573	B5-03822-P04-CH1	990576	OK	0.7448934	-0.6506957	0.1474071	0	-115.877	-34.433	-8.156	NA
0.54955609362389	B5-03822-P01-CH0	990584	OK	0.2559491	0.085339	0.1005596	-0.9576508	165.866	-25.255	-272.243	B5-03822-P02-CH0	990584	OK	0.6053094	0.3508432	-0.7144996	0	-85.758	-104.734	2.303	B5-03822-P02-CH1	990584	OK	0.8122039	-0.0684178	-0.5793478	0	-87.671	-84.175	3.009	B5-03822-P03-CH0	990584	OK	0.8867348	-0.281669	-0.3665568	0	-104.954	-65.266	9.623	B5-03822-P03-CH1	990584	OK	0.5992937	0.7997722	0.0348077	0	-101.082	-27.085	0.093	B5-03822-P04-CH0	990584	OK	0.7883854	-0.3872964	0.4779643	0	-124.273	-41.252	5.225	B5-03822-P04-CH1	990584	OK	0.7451791	-0.6504961	0.1468431	0	-115.883	-34.701	-7.737	NA
0.55954802259887	B5-03822-P01-CH0	990592	OK	0.2557536	0.0850959	0.1006868	-0.9577113	165.583	-25.153	-272.094	B5-03822-P02-CH0	990592	OK	0.6010567	0.3478695	-0.719526	0	-84.805	-104.06	0.984	B5-03822-P02-CH1	990592	OK	0.8104395	-0.0634497	-0.5823761	0	-87.463	-84.608	2.808	B5-03822-P03-CH0	990592	OK	0.8895046	-0.2796387	-0.3613638	0	-104.512	-66.056	10.502	B5-03822-P03-CH1	990592	OK	0.5997443	0.7994637	0.0341254	0	-101.038	-27.004	-0.015	B5-03822-P04-CH0	990592	OK	0.7893496	-0.3958045	0.469325	0	-123.464	-38.897	6.505	B5-03822-P04-CH1	990592	OK	0.7451294	-0.6508353	0.1455869	0	-115.489	-34.413	-7.922	NA
0.56953995157385	B5-03822-P01-CH0	990600	OK	0.2555596	0.0851933	0.1003034	-0.9577947	165.555	-25.247	-272.09	B5-03822-P02-CH0	990600	OK	0.595568	0.344829	-0.7255286	0	-85.005	-105.294	2.005	B5-03822-P02-CH1	990600	OK	0.8075464	-0.0623085	-0.5865035	0	-87.402	-84.011	1.906	B5-03822-P03-CH0	990600	OK	0.8897815	-0.2782378	-0.3617631	0	-104.335	-66.135	9.952	B5-03822-P03-CH1	990600	OK	0.6003713	0.7990138	0.0336342	0	-100.816	-27.051	-0.096	B5-03822-P04-CH0	990600	OK	0.7884829	-0.4030983	0.4645497	0	-123.482	-39.015	5.877	B5-03822-P04-CH1	990600	OK	0.7446629	-0.6516013	0.1445439	0	-115.15	-34.481	-8.08	NA
0.57953188054883	B5-03822-P01-CH0	990608	OK	0.2552793	0.085223	0.0994284	-0.957958	165.438	-25.301	-272.063	B5-03822-P02-CH0	990608	OK	0.5917034	0.3334068	-0.7339803	0	-84.427	-104.301	2.716	B5-03822-P02-CH1	990608	OK	0.8055131	-0.0673965	-0.5887328	0	-87.374	-84.431	1.743	B5-03822-P03-CH0	990608	OK	0.8885175	-0.2758286	-0.3666814	0	-103.981	-65.658	9.966	B5-03822-P03-CH1	990608	OK	0.6010021	0.7985491	0.0334038	0	-100.764	-26.853	-0.077	B5-03822-P04-CH0	990608	OK	0.7868016	-0.4124944	0.4591204	0	-122.255	-37.216	3.424	B5-03822-P04-CH1	990608	OK	0.7436944	-0.6528379	0.1439491	0	-114.819	-34.732	-7.947	NA
0.58952380952381	B5-03822-P01-CH0	990616	OK	0.255649	0.084993	0.1005323	-0.9577646	165.354	-25.185	-272.083	B5-03822-P02-CH0	990616	OK	0.5899718	0.3171599	-0.7425246	0	-83.887	-104.41	2.11	B5-03822-P02-CH1	990616	OK	0.807125	-0.0748214	-0.5856202	0	-86.063	-84.364	1.374	B5-03822-P03-CH0	990616	OK	0.8869984	-0.2701653	-0.3744924	0	-104.161	-65.213	9.906	B5-03822-P03-CH1	990616	OK	0.6004597	0.799011	0.0320872	0	-100.661	-27.019	-0.084	B5-03822-P04-CH0	990616	OK	0.7865994	-0.4107257	0.4610486	0	-123.843	-40.857	5.35	B5-03822-P04-CH1	990616	OK	0.7443897	-0.6521875	0.1433018	0	-114.549	-34.618	-8.088	NA
0.599515738498789	B5-03822-P01-CH0	990624	OK	0.2557382	0.0851836	0.1006126	-0.9577154	165.405	-25.164	-271.919	B5-03822-P02-CH0	990624	OK	0.5883465	0.2943002	-0.7531506	0	-83.526	-104.368	2.119	B5-03822-P02-CH1	990624	OK	0.8072253	-0.0842978	-0.5841928	0	-85.847	-84.073	0.764	B5-03822-P03-CH0	990624	OK	0.8869005	-0.2662936	-0.3774855	0	-104.135	-65.238	9.836	B5-03822-P03-CH1	990624	OK	0.6002947	0.7991621	0.0314033	0	-100.533	-26.909	-0.209	B5-03822-P04-CH0	990624	OK	0.7873435	-0.4068674	0.4631945	0	-124.853	-41.891	6.603	B5-03822-P04-CH1	990624	OK	0.7442723	-0.6524343	0.1427878	0	-114.434	-34.787	-7.987	NA
0.609507667473769	B5-03822-P01-CH0	990632	OK	0.255937	0.0854316	0.100351	-0.9576677	165.468	-25.142	-271.909	B5-03822-P02-CH0	990632	OK	0.5875134	0.267683	-0.7636582	0	-82.989	-105.093	2.042	B5-03822-P02-CH1	990632	OK	0.8072136	-0.0998686	-0.5817494	0	-86.537	-84.113	0.28	B5-03822-P03-CH0	990632	OK	0.8863144	-0.2635753	-0.3807556	0	-104.133	-64.957	10.31	B5-03822-P03-CH1	990632	OK	0.6006659	0.7989158	0.0305619	0	-100.362	-27	-0.382	B5-03822-P04-CH0	990632	OK	0.7866263	-0.4029807	0.467788	0	-124.4	-40.99	4.854	B5-03822-P04-CH1	990632	OK	0.7438897	-0.6528044	0.1430891	0	-114.454	-35.16	-7.638	NA
0.619499596448749	B5-03822-P01-CH0	990640	OK	0.2559372	0.0854045	0.1002012	-0.9576857	165.458	-25.185	-271.844	B5-03822-P02-CH0	990640	OK	0.5868066	0.2295616	-0.7765047	0	-81.804	-103.807	2.23	B5-03822-P02-CH1	990640	OK	0.809695	-0.1222538	-0.5739756	0	-87.126	-83.638	0.012	B5-03822-P03-CH0	990640	OK	0.882017	-0.2595411	-0.3932994	0	-104.191	-64.63	9.779	B5-03822-P03-CH1	990640	OK	0.600779	0.7988444	0.030204	0	-100.305	-27.23	-0.201	B5-03822-P04-CH0	990640	OK	0.7869093	-0.3887783	0.4791923	0	-124.994	-43.598	8.364	B5-03822-P04-CH1	990640	OK	0.7442405	-0.6527063	0.1417056	0	-114.241	-34.658	-8.201	NA
0.629491525423729	B5-03822-P01-CH0	990648	OK	0.2558953	0.0851829	0.09992	-0.957746	165.37	-25.194	-271.883	B5-03822-P02-CH0	990648	OK	0.5911963	0.1873598	-0.7844637	0	-80.796	-104.909	1.067	B5-03822-P02-CH1	990648	OK	0.8142978	-0.1487438	-0.5610655	0	-88.003	-83.429	0.295	B5-03822-P03-CH0	990648	OK	0.8753156	-0.2516237	-0.4129262	0	-103.734	-63.7	8.661	B5-03822-P03-CH1	990648	OK	0.6010293	0.7986603	0.030093	0	-100.184	-27.471	0.017	B5-03822-P04-CH0	990648	OK	0.7867837	-0.3757763	0.4896566	0	-124.661	-42.24	7.43	B5-03822-P04-CH1	990648	OK	0.7442863	-0.6528788	0.1406669	0	-113.902	-34.317	-8.237	NA
0.639483454398709	B5-03822-P01-CH0	990656	OK	0.256143	0.0852796	0.1004133	-0.9576196	165.473	-25.15	-271.827	B5-03822-P02-CH0	990656	OK	0.5949526	0.1386047	-0.7917198	0	-80.093	-104.377	0.611	B5-03822-P02-CH1	990656	OK	0.8197708	-0.1712843	-0.5464774	0	-88.233	-83.076	1.207	B5-03822-P03-CH0	990656	OK	0.8608408	-0.2410177	-0.4481781	0	-105.206	-62.518	7.114	B5-03822-P03-CH1	990656	OK	0.6005506	0.7990265	0.0299259	0	-100.272	-27.747	0.3	B5-03822-P04-CH0	990656	OK	0.7864486	-0.3606021	0.5014625	0	-124.566	-41.933	6.265	B5-03822-P04-CH1	990656	OK	0.744324	-0.6528189	0.140745	0	-113.822	-34.608	-8.007	NA
0.649475383373688	B5-03822-P01-CH0	990664	OK	0.2561591	0.0848491	0.1005535	-0.9576388	165.343	-25.195	-271.863	B5-03822-P02-CH0	990664	OK	0.5990129	0.0904113	-0.7956188	0	-78.292	-103.161	1.064	B5-03822-P02-CH1	990664	OK	0.8235012	-0.1900057	-0.53455	0	-88.716	-83.284	2.945	B5-03822-P03-CH0	990664	OK	0.8433725	-0.2214659	-0.4895668	0	-105.097	-59.655	5.444	B5-03822-P03-CH1	990664	OK	0.5999381	0.7994664	0.0304591	0	-100.143	-27.652	0.173	B5-03822-P04-CH0	990664	OK	0.7867256	-0.3450332	0.5118739	0	-124.752	-41.187	4.82	B5-03822-P04-CH1	990664	OK	0.7447301	-0.652475	0.1401903	0	-113.537	-34.22	-8.356	NA
0.659467312348668	B5-03822-P01-CH0	990672	OK	0.2561215	0.0852913	0.0994655	-0.9577232	165.546	-25.365	-271.895	B5-03822-P02-CH0	990672	OK	0.6026121	0.0507903	-0.7964163	0	-76.879	-102.968	2.131	B5-03822-P02-CH1	990672	OK	0.82491	-0.2059069	-0.5264275	0	-89.613	-82.917	2.719	B5-03822-P03-CH0	990672	OK	0.8228739	-0.2079877	-0.5287907	0	-106.336	-57.517	3.233	B5-03822-P03-CH1	990672	OK	0.6003773	0.7990957	0.0315137	0	-100.181	-27.712	0.212	B5-03822-P04-CH0	990672	OK	0.7865769	-0.3311321	0.521199	0	-124.924	-40.689	4.561	B5-03822-P04-CH1	990672	OK	0.7441018	-0.6531385	0.1404372	0	-113.614	-34.365	-8.463	NA
0.669459241323648	B5-03822-P01-CH0	990680	OK	0.2566197	0.0850388	0.1006211	-0.9574916	165.596	-25.21	-272.009	B5-03822-P02-CH0	990680	OK	0.6068255	0.0202062	-0.7945782	0	-75.772	-102.833	2.201	B5-03822-P02-CH1	990680	OK	0.8255304	-0.2207579	-0.5193895	0	-89.656	-83.256	2.704	B5-03822-P03-CH0	990680	OK	0.8098935	-0.2081185	-0.5484151	0	-104.408	-57.405	3.876	B5-03822-P03-CH1	990680	OK	0.5991278	0.8000273	0.0316586	0	-100.3	-27.847	0.582	B5-03822-P04-CH0	990680	OK	0.7882294	-0.3122659	0.5302683	0	-126.496	-40.646	3.852	B5-03822-P04-CH1	990680	OK	0.7449776	-0.6519884	0.1411361	0	-113.614	-34.339	-8.34	NA
0.679451170298628	B5-03822-P01-CH0	990688	OK	0.2567357	0.0851156	0.100979	-0.957416	165.635	-25.176	-271.86	B5-03822-P02-CH0	990688	OK	0.6103028	0.0026384	-0.7921638	0	-75.137	-102.787	1.029	B5-03822-P02-CH1	990688	OK	0.8238836	-0.2324896	-0.5168794	0	-90.127	-83.267	2.32	B5-03822-P03-CH0	990688	OK	0.8021328	-0.209439	-0.5592122	0	-103.676	-57.309	4.8	B5-03822-P03-CH1	990688	OK	0.5982756	0.8006129	0.0329438	0	-100.219	-27.465	0.011	B5-03822-P04-CH0	990688	OK	0.7871602	-0.2921543	0.5431617	0	-126.525	-41.597	6.441	B5-03822-P04-CH1	990688	OK	0.7453705	-0.6514694	0.141458	0	-113.705	-34.209	-8.658	NA
0.689443099273608	B5-03822-P01-CH0	990696	OK	0.2559577	0.0856796	0.0989796	-0.9577827	165.729	-25.35	-271.784	B5-03822-P02-CH0	990696	OK	0.6101064	-0.0043144	-0.7923077	0	-76.114	-103.206	2.232	B5-03822-P02-CH1	990696	OK	0.8186749	-0.2433622	-0.5201406	0	-91.299	-83.09	1.52	B5-03822-P03-CH0	990696	OK	0.7965015	-0.2188021	-0.5636585	0	-105.174	-57.869	3.84	B5-03822-P03-CH1	990696	OK	0.5997637	0.7994133	0.0349566	0	-100.255	-27.451	-0.162	B5-03822-P04-CH0	990696	OK	0.7855032	-0.2745205	0.5546379	0	-128.088	-43.076	7.729	B5-03822-P04-CH1	990696	OK	0.7438779	-0.6530443	0.1420523	0	-113.826	-34.507	-8.487	NA
0.699435028248588	B5-03822-P01-CH0	990704	OK	0.2558076	0.0853055	0.0989685	-0.9578574	165.6	-25.402	-271.917	B5-03822-P02-CH0	990704	OK	0.6125218	-0.0026093	-0.7904494	0	-75.538	-103.867	2.242	B5-03822-P02-CH1	990704	OK	0.8170276	-0.2516246	-0.5187977	0	-89.231	-82.607	1.141	B5-03822-P03-CH0	990704	OK	0.7967667	-0.2329904	-0.5575646	0	-104.392	-56.759	3.219	B5-03822-P03-CH1	990704	OK	0.5996841	0.7994303	0.0359205	0	-100.18	-27.516	-0.277	B5-03822-P04-CH0	990704	OK	0.7839946	-0.2619427	0.5627952	0	-128.518	-43.817	7.143	B5-03822-P04-CH1	990704	OK	0.7437489	-0.6529558	0.1431303	0	-113.739	-34.683	-8.494	NA
0.709426957223567	B5-03822-P01-CH0	990712	OK	0.2557307	0.0850322	0.0994326	-0.9578541	165.501	-25.338	-271.942	B5-03822-P02-CH0	990712	OK	0.6142574	0.0089902	-0.7890545	0	-74.375	-102.979	1.378	B5-03822-P02-CH1	990712	OK	0.8113274	-0.2601911	-0.5234963	0	-89.064	-81.753	-0.388	B5-03822-P03-CH0	990712	OK	0.7997234	-0.2565156	-0.5428096	0	-103.431	-55.971	1.787	B5-03822-P03-CH1	990712	OK	0.5989439	0.7999302	0.0371207	0	-100.345	-27.451	0.083	B5-03822-P04-CH0	990712	OK	0.7841566	-0.2526902	0.5667857	0	-128.933	-43.676	7.818	B5-03822-P04-CH1	990712	OK	0.7443832	-0.6521576	0.1434716	0	-113.749	-34.307	-8.924	NA
0.719418886198547	B5-03822-P01-CH0	990720	OK	0.2555735	0.0849908	0.0994076	-0.9579023	165.428	-25.335	-271.945	B5-03822-P02-CH0	990720	OK	0.6099517	0.0370131	-0.7915738	0	-75.004	-102.795	1.847	B5-03822-P02-CH1	990720	OK	0.8048202	-0.268633	-0.5292455	0	-88.177	-81.067	-0.483	B5-03822-P03-CH0	990720	OK	0.8027483	-0.2964396	-0.5174154	0	-104.505	-55.934	-0.336	B5-03822-P03-CH1	990720	OK	0.5990633	0.799805	0.0378832	0	-100.529	-27.609	0.317	B5-03822-P04-CH0	990720	OK	0.7833337	-0.2488756	0.5696045	0	-128.051	-40.586	6.792	B5-03822-P04-CH1	990720	OK	0.7439799	-0.6523167	0.1448336	0	-113.832	-34.752	-8.608	NA
0.729410815173527	B5-03822-P01-CH0	990728	OK	0.2552372	0.0850096	0.0992274	-0.958009	165.351	-25.347	-271.925	B5-03822-P02-CH0	990728	OK	0.6025426	0.0728981	-0.7947505	0	-75.679	-101.292	2.92	B5-03822-P02-CH1	990728	OK	0.7966077	-0.2710743	-0.54031	0	-87.123	-79.877	0.353	B5-03822-P03-CH0	990728	OK	0.814604	-0.3495108	-0.4628849	0	-100.492	-58.55	2.471	B5-03822-P03-CH1	990728	OK	0.5989982	0.7998011	0.0389789	0	-100.579	-27.348	0.056	B5-03822-P04-CH0	990728	OK	0.7833487	-0.2411569	0.5728946	0	-130.297	-44.88	8.31	B5-03822-P04-CH1	990728	OK	0.743569	-0.6524551	0.1463129	0	-114.141	-35.189	-8.418	NA
0.739402744148507	B5-03822-P01-CH0	990736	OK	0.2549083	0.0853782	0.098272	-0.9581623	165.415	-25.456	-271.895	B5-03822-P02-CH0	990736	OK	0.5968368	0.121277	-0.7931442	0	-75.986	-101.971	4.242	B5-03822-P02-CH1	990736	OK	0.7877079	-0.2725321	-0.5524876	0	-85.679	-79.243	-0.352	B5-03822-P03-CH0	990736	OK	0.8213284	-0.3849462	-0.420994	0	-102.315	-57.841	1.662	B5-03822-P03-CH1	990736	OK	0.6000733	0.7989732	0.0394179	0	-100.668	-27.626	0.053	B5-03822-P04-CH0	990736	OK	0.7825655	-0.2391046	0.5748219	0	-129.984	-44.188	8.562	B5-03822-P04-CH1	990736	OK	0.7433253	-0.6526924	0.1464929	0	-114.218	-34.989	-8.711	NA
0.749394673123487	B5-03822-P01-CH0	990744	OK	0.2545179	0.086024	0.0971405	-0.9583236	165.561	-25.541	-271.842	B5-03822-P02-CH0	990744	OK	0.5923708	0.1745815	-0.7865228	0	-76.765	-101.228	4.393	B5-03822-P02-CH1	990744	OK	0.7787237	-0.267059	-0.5676874	0	-84.277	-77.926	-2.291	B5-03822-P03-CH0	990744	OK	0.826292	-0.4131198	-0.3828492	0	-102.242	-59.972	3.278	B5-03822-P03-CH1	990744	OK	0.6011676	0.7981185	0.0400543	0	-100.758	-27.804	0.285	B5-03822-P04-CH0	990744	OK	0.7809819	-0.2368405	0.5779047	0	-129.853	-43.956	7.559	B5-03822-P04-CH1	990744	OK	0.7425491	-0.6534074	0.1472403	0	-114.458	-35.204	-8.673	NA
0.759386602098467	B5-03822-P01-CH0	990752	OK	0.254307	0.0859431	0.0969942	-0.9584017	165.456	-25.533	-271.891	B5-03822-P02-CH0	990752	OK	0.5898802	0.232814	-0.7732005	0	-78.223	-101.319	3.82	B5-03822-P02-CH1	990752	OK	0.7707046	-0.2592617	-0.5820634	0	-82.605	-76.978	-1.284	B5-03822-P03-CH0	990752	OK	0.8294472	-0.4272775	-0.3597934	0	-102.296	-58.258	2.007	B5-03822-P03-CH1	990752	OK	0.6011998	0.7980787	0.0403632	0	-100.635	-27.621	0.075	B5-03822-P04-CH0	990752	OK	0.7814619	-0.2331665	0.5787493	0	-130.826	-44.14	7.284	B5-03822-P04-CH1	990752	OK	0.7422194	-0.6536014	0.1480392	0	-114.472	-35.451	-8.506	NA
0.769378531073446	B5-03822-P01-CH0	990760	OK	0.2535648	0.0864307	0.0953089	-0.9587236	165.447	-25.715	-271.743	B5-03822-P02-CH0	990760	OK	0.591251	0.286241	-0.7539816	0	-78.757	-100.645	3.881	B5-03822-P02-CH1	990760	OK	0.7623477	-0.2498679	-0.5969857	0	-81.835	-76.495	-0.59	B5-03822-P03-CH0	990760	OK	0.8288572	-0.4407587	-0.3445685	0	-100.193	-59.182	2.426	B5-03822-P03-CH1	990760	OK	0.6030142	0.796673	0.041061	0	-100.596	-27.812	-0.153	B5-03822-P04-CH0	990760	OK	0.7802958	-0.236661	0.5789041	0	-130.625	-43.753	5.265	B5-03822-P04-CH1	990760	OK	0.7414347	-0.6545673	0.147703	0	-114.62	-35.267	-8.656	NA
0.779370460048426	B5-03822-P01-CH0	990768	OK	0.2533517	0.0863227	0.0952076	-0.9587997	165.388	-25.804	-271.883	B5-03822-P02-CH0	990768	OK	0.5920594	0.3330557	-0.7338525	0	-79.986	-100.632	3.436	B5-03822-P02-CH1	990768	OK	0.7566704	-0.2399123	-0.6081875	0	-81.079	-76.778	-0.687	B5-03822-P03-CH0	990768	OK	0.8286156	-0.4475267	-0.3363273	0	-98.931	-59.346	3.074	B5-03822-P03-CH1	990768	OK	0.6032487	0.7964984	0.0410036	0	-100.702	-28.034	0.156	B5-03822-P04-CH0	990768	OK	0.7796206	-0.2383089	0.5791379	0	-129.352	-43.245	7.388	B5-03822-P04-CH1	990768	OK	0.7415891	-0.6544383	0.1474996	0	-114.557	-35.084	-8.886	NA
0.789362389023406	B5-03822-P01-CH0	990776	OK	0.2540651	0.0858915	0.0967543	-0.9584947	165.329	-25.84	-271.959	B5-03822-P02-CH0	990776	OK	0.59237	0.3721716	-0.714553	0	-80.825	-100.725	3.807	B5-03822-P02-CH1	990776	OK	0.7553898	-0.2290038	-0.6139572	0	-79.55	-75.519	-2.128	B5-03822-P03-CH0	990776	OK	0.829781	-0.4489441	-0.3315309	0	-99.056	-58.969	2.254	B5-03822-P03-CH1	990776	OK	0.6018665	0.7976002	0.0398817	0	-100.817	-28.267	0.458	B5-03822-P04-CH0	990776	OK	0.7804303	-0.2394595	0.5775705	0	-129.022	-43.175	8.283	B5-03822-P04-CH1	990776	OK	0.7428964	-0.6529019	0.1477298	0	-114.384	-34.979	-9.118	NA
0.799354317998386	B5-03822-P01-CH0	990784	OK	0.2540573	0.0861828	0.096908	-0.9584551	165.385	-25.773	-271.889	B5-03822-P02-CH0	990784	OK	0.594206	0.4050175	-0.6948957	0	-81.622	-101.446	4.423	B5-03822-P02-CH1	990784	OK	0.7523166	-0.2186204	-0.6214699	0	-79.933	-76.127	-1.571	B5-03822-P03-CH0	990784	OK	0.8301161	-0.4498693	-0.3294311	0	-99.641	-59.187	2.452	B5-03822-P03-CH1	990784	OK	0.6018332	0.7976293	0.0398038	0	-101.077	-28.35	0.789	B5-03822-P04-CH0	990784	OK	0.7817265	-0.2404927	0.5753842	0	-129.895	-44.01	7.638	B5-03822-P04-CH1	990784	OK	0.7427594	-0.6529797	0.1480744	0	-114.482	-35.196	-8.985	NA
0.809346246973366	B5-03822-P01-CH0	990792	OK	0.2541353	0.0860603	0.0970344	-0.9584327	165.39	-25.79	-271.979	B5-03822-P02-CH0	990792	OK	0.5939823	0.4258377	-0.6825301	0	-82.707	-100.582	4.482	B5-03822-P02-CH1	990792	OK	0.7507511	-0.2105487	-0.6261326	0	-80.679	-76.494	-3.027	B5-03822-P03-CH0	990792	OK	0.8297791	-0.4485617	-0.3320527	0	-98.549	-58.969	2.674	B5-03822-P03-CH1	990792	OK	0.6019587	0.7975567	0.0393577	0	-100.999	-28.53	0.795	B5-03822-P04-CH0	990792	OK	0.7812532	-0.2415513	0.5755835	0	-129.459	-42.957	7.095	B5-03822-P04-CH1	990792	OK	0.7426276	-0.6530221	0.1485477	0	-114.475	-35.559	-8.431	NA
0.819338175948345	B5-03822-P01-CH0	990800	OK	0.2540831	0.0858227	0.0974239	-0.9584283	165.338	-25.752	-272.03	B5-03822-P02-CH0	990800	OK	0.5961901	0.4387823	-0.6723299	0	-83.173	-100.629	4.389	B5-03822-P02-CH1	990800	OK	0.7543167	-0.2007986	-0.625049	0	-79.449	-75.748	-3.18	B5-03822-P03-CH0	990800	OK	0.8278917	-0.4488692	-0.3363209	0	-96.78	-59.934	2.478	B5-03822-P03-CH1	990800	OK	0.6015585	0.7978472	0.0395882	0	-100.997	-28.351	0.655	B5-03822-P04-CH0	990800	OK	0.7809374	-0.2585212	0.5685978	0	-128.375	-40.251	5.75	B5-03822-P04-CH1	990800	OK	0.7432009	-0.6524143	0.1483509	0	-114.686	-35.345	-8.372	NA
0.829330104923325	B5-03822-P01-CH0	990808	OK	0.2545557	0.0858936	0.0984772	-0.9581889	165.513	-25.595	-272.09	B5-03822-P02-CH0	990808	OK	0.5975596	0.4428472	-0.6684377	0	-82.552	-98.894	3.904	B5-03822-P02-CH1	990808	OK	0.7561036	-0.1946062	-0.6248486	0	-80.461	-76.436	-2.524	B5-03822-P03-CH0	990808	OK	0.8259596	-0.4440544	-0.3472845	0	-97.924	-59.184	2.787	B5-03822-P03-CH1	990808	OK	0.6005978	0.7985893	0.0392104	0	-101.019	-28.29	0.684	B5-03822-P04-CH0	990808	OK	0.7813916	-0.2632174	0.5658125	0	-128.876	-41.924	6.856	B5-03822-P04-CH1	990808	OK	0.7442712	-0.6512231	0.1482185	0	-114.837	-35.123	-8.323	NA
0.839322033898305	B5-03822-P01-CH0	990816	OK	0.254742	0.085687	0.0988726	-0.9581171	165.453	-25.49	-272.095	B5-03822-P02-CH0	990816	OK	0.6006427	0.4437712	-0.6650531	0	-82.462	-100.112	2.792	B5-03822-P02-CH1	990816	OK	0.7601439	-0.1871596	-0.6222159	0	-80.111	-76.744	-2.062	B5-03822-P03-CH0	990816	OK	0.8243925	-0.4386902	-0.3576702	0	-98.633	-58.213	2.216	B5-03822-P03-CH1	990816	OK	0.6000123	0.7990064	0.0396738	0	-100.929	-27.977	0.56	B5-03822-P04-CH0	990816	OK	0.7813038	-0.266762	0.5642716	0	-129.271	-43.466	7.238	B5-03822-P04-CH1	990816	OK	0.7446199	-0.6508739	0.1480012	0	-114.836	-34.887	-8.546	NA
0.849313962873285	B5-03822-P01-CH0	990824	OK	0.2552612	0.085298	0.0999044	-0.9579066	165.388	-25.404	-272.109	B5-03822-P02-CH0	990824	OK	0.598962	0.4380119	-0.6703657	0	-83.283	-100.122	3.055	B5-03822-P02-CH1	990824	OK	0.7630163	-0.1808547	-0.6205624	0	-80.615	-76.843	-2.046	B5-03822-P03-CH0	990824	OK	0.8241831	-0.4322819	-0.3658614	0	-97.261	-57.392	1.081	B5-03822-P03-CH1	990824	OK	0.5992572	0.7995876	0.0393754	0	-100.978	-28.11	0.621	B5-03822-P04-CH0	990824	OK	0.7817593	-0.2722582	0.5610062	0	-128.91	-42.762	7.628	B5-03822-P04-CH1	990824	OK	0.7455164	-0.6499433	0.1475772	0	-114.663	-34.599	-8.903	NA
0.859305891848265	B5-03822-P01-CH0	990832	OK	0.2557246	0.085232	0.1005152	-0.957725	165.494	-25.35	-272.134	B5-03822-P02-CH0	990832	OK	0.5979393	0.4269861	-0.6783446	0	-82.855	-100.378	2.486	B5-03822-P02-CH1	990832	OK	0.7649761	-0.1767003	-0.6193453	0	-81.831	-77.303	-1.169	B5-03822-P03-CH0	990832	OK	0.8224729	-0.4278594	-0.3747995	0	-97.181	-58.683	1.545	B5-03822-P03-CH1	990832	OK	0.598797	0.7999369	0.0392825	0	-101.165	-28.298	0.77	B5-03822-P04-CH0	990832	OK	0.7816375	-0.2777307	0.5584877	0	-128.844	-41.946	6.316	B5-03822-P04-CH1	990832	OK	0.7458793	-0.6494191	0.1480501	0	-114.73	-34.874	-8.529	NA
0.869297820823245	B5-03822-P01-CH0	990840	OK	0.2557915	0.085028	0.1004789	-0.9577291	165.485	-25.386	-272.195	B5-03822-P02-CH0	990840	OK	0.5939146	0.4150405	-0.6892074	0	-82.567	-100.581	2.995	B5-03822-P02-CH1	990840	OK	0.7673177	-0.1726376	-0.617592	0	-82.035	-77.74	-1.475	B5-03822-P03-CH0	990840	OK	0.8224515	-0.4207092	-0.3828542	0	-97.072	-59.487	2.575	B5-03822-P03-CH1	990840	OK	0.5985071	0.800119	0.0399851	0	-101.248	-28.251	1.002	B5-03822-P04-CH0	990840	OK	0.7804231	-0.2840808	0.55699	0	-127.413	-40.559	5.748	B5-03822-P04-CH1	990840	OK	0.7458214	-0.6495575	0.1477348	0	-114.615	-34.935	-8.464	NA
0.879289749798224	B5-03822-P01-CH0	990848	OK	0.2560828	0.0848974	0.1008596	-0.9576228	165.527	-25.386	-272.182	B5-03822-P02-CH0	990848	OK	0.5876112	0.4035297	-0.7013393	0	-82.415	-100.673	3.855	B5-03822-P02-CH1	990848	OK	0.7693045	-0.1710462	-0.6155597	0	-81.904	-78.185	-1.386	B5-03822-P03-CH0	990848	OK	0.8234574	-0.4122595	-0.3898205	0	-97.494	-59.424	2.711	B5-03822-P03-CH1	990848	OK	0.5980389	0.800447	0.0404228	0	-101.097	-28.234	0.795	B5-03822-P04-CH0	990848	OK	0.7806855	-0.2842748	0.5565231	0	-128.09	-41.444	6.266	B5-03822-P04-CH1	990848	OK	0.7462812	-0.6491425	0.1472359	0	-114.639	-34.795	-8.578	NA
0.889281678773204	B5-03822-P01-CH0	990856	OK	0.255699	0.0850815	0.0996843	-0.957832	165.501	-25.409	-272.094	B5-03822-P02-CH0	990856	OK	0.5822336	0.3945422	-0.710873	0	-82.033	-100.283	3.834	B5-03822-P02-CH1	990856	OK	0.7701717	-0.170409	-0.6146514	0	-82.258	-78.879	-0.816	B5-03822-P03-CH0	990856	OK	0.8245097	-0.4062296	-0.3939051	0	-96.941	-59.712	1.683	B5-03822-P03-CH1	990856	OK	0.5989006	0.799736	0.0417177	0	-100.942	-28.085	0.596	B5-03822-P04-CH0	990856	OK	0.7797947	-0.2865492	0.5566055	0	-128.371	-41.634	5.243	B5-03822-P04-CH1	990856	OK	0.7452981	-0.6503391	0.1469347	0	-114.64	-34.956	-8.354	NA
0.899273607748184	B5-03822-P01-CH0	990864	OK	0.2558505	0.0850004	0.0993705	-0.9578314	165.529	-25.441	-272.108	B5-03822-P02-CH0	990864	OK	0.5783416	0.3885873	-0.7173011	0	-81.861	-100.822	4.121	B5-03822-P02-CH1	990864	OK	0.7733766	-0.1717028	-0.6102514	0	-81.366	-78.527	-2.06	B5-03822-P03-CH0	990864	OK	0.8241441	-0.4008192	-0.400163	0	-98.027	-60.311	2.9	B5-03822-P03-CH1	990864	OK	0.5989666	0.7996514	0.0423874	0	-100.926	-28.093	0.527	B5-03822-P04-CH0	990864	OK	0.7793696	-0.2881156	0.5563923	0	-128.227	-41.719	6.026	B5-03822-P04-CH1	990864	OK	0.7453734	-0.6503309	0.1465885	0	-114.692	-34.823	-8.308	NA
0.909265536723164	B5-03822-P01-CH0	990872	OK	0.2558985	0.0849946	0.09893	-0.9578647	165.461	-25.425	-271.992	B5-03822-P02-CH0	990872	OK	0.5761266	0.3841042	-0.721486	0	-81.546	-101.004	3.987	B5-03822-P02-CH1	990872	OK	0.7746437	-0.1716839	-0.6086475	0	-81.482	-79.329	-0.576	B5-03822-P03-CH0	990872	OK	0.8251246	-0.3958355	-0.4030926	0	-96.576	-60.005	1.733	B5-03822-P03-CH1	990872	OK	0.5993748	0.7993191	0.0428809	0	-100.907	-28.279	0.68	B5-03822-P04-CH0	990872	OK	0.7803679	-0.2896122	0.5542118	0	-129.004	-41.573	6.164	B5-03822-P04-CH1	990872	OK	0.7454052	-0.6504462	0.1459134	0	-114.637	-34.442	-8.518	NA
0.919257465698144	B5-03822-P01-CH0	990880	OK	0.2562346	0.0851548	0.0987263	-0.9577816	165.555	-25.414	-271.925	B5-03822-P02-CH0	990880	OK	0.5760956	0.3771587	-0.7251657	0	-80.807	-100.847	3.783	B5-03822-P02-CH1	990880	OK	0.775788	-0.1712387	-0.607314	0	-81.554	-79.377	-1.643	B5-03822-P03-CH0	990880	OK	0.8217501	-0.3930821	-0.4125691	0	-98.12	-60.646	2.004	B5-03822-P03-CH1	990880	OK	0.599473	0.7992223	0.043311	0	-100.854	-28.429	0.593	B5-03822-P04-CH0	990880	OK	0.7804595	-0.2925552	0.5525346	0	-128.306	-40.533	6.746	B5-03822-P04-CH1	990880	OK	0.7450032	-0.6507327	0.1466873	0	-114.719	-34.943	-7.957	NA
0.929249394673124	B5-03822-P01-CH0	990888	OK	0.2563908	0.0854072	0.0979501	-0.957797	165.595	-25.482	-271.8	B5-03822-P02-CH0	990888	OK	0.5748981	0.3698197	-0.7298805	0	-80.834	-100.706	4.596	B5-03822-P02-CH1	990888	OK	0.7760255	-0.1698387	-0.6074037	0	-82.166	-79.041	-1.835	B5-03822-P03-CH0	990888	OK	0.8221994	-0.3919587	-0.4127427	0	-96.302	-61.494	2.159	B5-03822-P03-CH1	990888	OK	0.6000752	0.7987347	0.0439613	0	-100.942	-28.626	0.712	B5-03822-P04-CH0	990888	OK	0.7796611	-0.2872911	0.5564103	0	-127.503	-39.84	5.181	B5-03822-P04-CH1	990888	OK	0.7442104	-0.6516314	0.1467221	0	-114.552	-35.242	-7.897	NA
0.939241323648103	B5-03822-P01-CH0	990896	OK	0.2567433	0.0855899	0.097876	-0.9576938	165.75	-25.475	-271.735	B5-03822-P02-CH0	990896	OK	0.5735237	0.3623275	-0.7347036	0	-80.976	-100.999	4.659	B5-03822-P02-CH1	990896	OK	0.7759599	-0.1722158	-0.6068179	0	-82.859	-79.963	-1.681	B5-03822-P03-CH0	990896	OK	0.821478	-0.3880969	-0.4177974	0	-96.542	-61.002	1.671	B5-03822-P03-CH1	990896	OK	0.6001052	0.798701	0.0441629	0	-101.148	-28.891	0.837	B5-03822-P04-CH0	990896	OK	0.7797186	-0.2895723	0.5551457	0	-127.58	-39.959	5.245	B5-03822-P04-CH1	990896	OK	0.744336	-0.6515113	0.1466186	0	-114.728	-35.367	-7.63	NA
0.949233252623083	B5-03822-P01-CH0	990904	OK	0.2568557	0.0855839	0.0976749	-0.9576848	165.798	-25.403	-271.781	B5-03822-P02-CH0	990904	OK	0.5707756	0.352226	-0.7417223	0	-81.362	-100.024	5.742	B5-03822-P02-CH1	990904	OK	0.7797317	-0.1730156	-0.6017343	0	-81.582	-79.071	-2.422	B5-03822-P03-CH0	990904	OK	0.8205653	-0.384353	-0.4230193	0	-97.898	-60.385	3.498	B5-03822-P03-CH1	990904	OK	0.6001401	0.7986297	0.0449719	0	-101.106	-28.888	0.918	B5-03822-P04-CH0	990904	OK	0.7795831	-0.2917902	0.5541738	0	-127.525	-40.07	5.497	B5-03822-P04-CH1	990904	OK	0.7443441	-0.6515448	0.1464282	0	-114.761	-35.336	-7.25	NA
0.959225181598063	B5-03822-P01-CH0	990912	OK	0.2567574	0.085612	0.0972837	-0.9577485	165.836	-25.411	-271.681	B5-03822-P02-CH0	990912	OK	0.5724165	0.3449035	-0.7438958	0	-80.856	-100.939	4.705	B5-03822-P02-CH1	990912	OK	0.7798181	-0.1738607	-0.6013785	0	-82.51	-79.899	-1.813	B5-03822-P03-CH0	990912	OK	0.8225979	-0.3822521	-0.4209704	0	-97.155	-59.647	2.712	B5-03822-P03-CH1	990912	OK	0.6002665	0.7984729	0.0460552	0	-100.914	-28.817	0.798	B5-03822-P04-CH0	990912	OK	0.7795093	-0.2938367	0.5531955	0	-127.539	-40.143	5.615	B5-03822-P04-CH1	990912	OK	0.7441772	-0.6518413	0.1459562	0	-114.873	-35.347	-7.033	NA
0.969217110573043	B5-03822-P01-CH0	990920	OK	0.257167	0.0856725	0.097238	-0.9576378	165.876	-25.298	-271.564	B5-03822-P02-CH0	990920	OK	0.5713649	0.3349618	-0.7492281	0	-80.756	-100.866	5.503	B5-03822-P02-CH1	990920	OK	0.7808368	-0.1752168	-0.5996607	0	-82.88	-80.356	-0.009	B5-03822-P03-CH0	990920	OK	0.8224877	-0.383925	-0.4196613	0	-97.987	-60.407	3.149	B5-03822-P03-CH1	990920	OK	0.6003502	0.7984037	0.0461654	0	-100.749	-28.896	0.638	B5-03822-P04-CH0	990920	OK	0.7797245	-0.2950628	0.5522388	0	-127.584	-40.149	5.776	B5-03822-P04-CH1	990920	OK	0.7444004	-0.6516682	0.1455903	0	-114.846	-35.111	-7.097	NA
0.979209039548023	B5-03822-P01-CH0	990928	OK	0.2575746	0.0854822	0.097448	-0.9575239	165.851	-25.132	-271.486	B5-03822-P02-CH0	990928	OK	0.5722121	0.3227629	-0.7539214	0	-79.887	-99.914	4.427	B5-03822-P02-CH1	990928	OK	0.7829403	-0.17566	-0.5967814	0	-82.524	-80.559	-0.854	B5-03822-P03-CH0	990928	OK	0.8246578	-0.3846936	-0.4146689	0	-97.319	-60.786	3.529	B5-03822-P03-CH1	990928	OK	0.6003893	0.7983621	0.0463752	0	-100.839	-29.133	1.002	B5-03822-P04-CH0	990928	OK	0.7798073	-0.2967845	0.5511983	0	-127.384	-39.761	5.552	B5-03822-P04-CH1	990928	OK	0.744541	-0.6514762	0.1457308	0	-114.732	-35.113	-6.777	NA
0.989200968523003	B5-03822-P01-CH0	990936	OK	0.2579736	0.0852763	0.0980152	-0.9573769	165.924	-25.038	-271.543	B5-03822-P02-CH0	990936	OK	0.5717258	0.3143891	-0.7578186	0	-80.066	-100.618	5.035	B5-03822-P02-CH1	990936	OK	0.7847187	-0.1745594	-0.5947651	0	-82.351	-79.959	0.156	B5-03822-P03-CH0	990936	OK	0.8249281	-0.3820394	-0.4165808	0	-98.68	-60.287	3.584	B5-03822-P03-CH1	990936	OK	0.5997071	0.7988391	0.0469829	0	-100.877	-29.054	1.101	B5-03822-P04-CH0	990936	OK	0.7801982	-0.2977456	0.5501258	0	-127.374	-39.749	5.681	B5-03822-P04-CH1	990936	OK	0.744874	-0.6510129	0.1460991	0	-114.832	-35.289	-6.49	NA
0.999192897497982	B5-03822-P01-CH0	990944	OK	0.2584413	0.0854432	0.0979541	-0.9572422	166.078	-25.076	-271.461	B5-03822-P02-CH0	990944	OK	0.5722195	0.3082862	-0.7599503	0	-79.94	-101.369	4.477	B5-03822-P02-CH1	990944	OK	0.7851316	-0.1746014	-0.5942076	0	-83.117	-80.051	0.062	B5-03822-P03-CH0	990944	OK	0.8263228	-0.3815253	-0.4142813	0	-97.456	-60.336	2.348	B5-03822-P03-CH1	990944	OK	0.5998523	0.7987153	0.0472335	0	-100.806	-29.29	1.037	B5-03822-P04-CH0	990944	OK	0.7803933	-0.2986885	0.5493373	0	-127.348	-39.893	5.525	B5-03822-P04-CH1	990944	OK	0.7450216	-0.6508556	0.1460475	0	-114.828	-35.358	-6.453	NA
1.00918482647296	B5-03822-P01-CH0	990952	OK	0.2585593	0.0857784	0.0972415	-0.957253	166.3	-25.203	-271.422	B5-03822-P02-CH0	990952	OK	0.5735861	0.3039556	-0.7606642	0	-79.47	-101.739	3.443	B5-03822-P02-CH1	990952	OK	0.7856124	-0.1756459	-0.5932636	0	-83.583	-80.648	0.162	B5-03822-P03-CH0	990952	OK	0.8266775	-0.3819157	-0.4132126	0	-96.841	-61.474	3.187	B5-03822-P03-CH1	990952	OK	0.600209	0.7983849	0.0482776	0	-100.902	-29.192	0.838	B5-03822-P04-CH0	990952	OK	0.7805393	-0.2997934	0.5485274	0	-127.459	-40.016	5.596	B5-03822-P04-CH1	990952	OK	0.7446768	-0.6513553	0.1455773	0	-114.801	-35.387	-6.695	NA
1.01917675544794	B5-03822-P01-CH0	990960	OK	0.259001	0.0853901	0.0978086	-0.9571105	166.282	-25.129	-271.515	B5-03822-P02-CH0	990960	OK	0.5731242	0.2995038	-0.7627753	0	-79.584	-101.565	3.736	B5-03822-P02-CH1	990960	OK	0.7871786	-0.1747313	-0.5914548	0	-83.607	-80.229	-0.376	B5-03822-P03-CH0	990960	OK	0.8272999	-0.380717	-0.4130732	0	-96.597	-61.399	2.471	B5-03822-P03-CH1	990960	OK	0.5995566	0.7988469	0.0487402	0	-100.671	-29.041	0.785	B5-03822-P04-CH0	990960	OK	0.7807756	-0.3002599	0.5479356	0	-127.325	-39.912	5.477	B5-03822-P04-CH1	990960	OK	0.745222	-0.6507641	0.1454314	0	-114.634	-35.21	-6.809	NA
1.02916868442292	B5-03822-P01-CH0	990968	OK	0.2591617	0.085211	0.0978905	-0.9570746	166.235	-25.016	-271.488	B5-03822-P02-CH0	990968	OK	0.5733759	0.2933641	-0.764969	0	-79.387	-100.505	4.22	B5-03822-P02-CH1	990968	OK	0.790021	-0.175302	-0.5874828	0	-82.901	-80.408	-0.428	B5-03822-P03-CH0	990968	OK	0.826692	-0.3799664	-0.4149769	0	-97.798	-61.38	3.669	B5-03822-P03-CH1	990968	OK	0.5996536	0.7987535	0.0490749	0	-100.675	-29.008	0.747	B5-03822-P04-CH0	990968	OK	0.7808808	-0.3003926	0.5477129	0	-127.404	-39.981	5.54	B5-03822-P04-CH1	990968	OK	0.7454395	-0.6505779	0.1451496	0	-114.655	-34.967	-6.846	NA
1.0391606133979	B5-03822-P01-CH0	990976	OK	0.2591487	0.0850751	0.0981336	-0.9570653	166.198	-25.015	-271.454	B5-03822-P02-CH0	990976	OK	0.576214	0.2923858	-0.763209	0	-78.967	-101.711	3.725	B5-03822-P02-CH1	990976	OK	0.7915321	-0.1742982	-0.5857449	0	-82.419	-80.416	-1.135	B5-03822-P03-CH0	990976	OK	0.8283316	-0.3776151	-0.4138521	0	-97.006	-60.796	3.016	B5-03822-P03-CH1	990976	OK	0.5994055	0.7988743	0.0501297	0	-100.332	-28.76	0.399	B5-03822-P04-CH0	990976	OK	0.7809408	-0.3007292	0.5474427	0	-127.396	-39.977	5.372	B5-03822-P04-CH1	990976	OK	0.7457314	-0.6503838	0.1445185	0	-114.548	-34.734	-6.969	NA
1.04915254237288	B5-03822-P01-CH0	990984	OK	0.2591399	0.0853999	0.0974574	-0.9571078	166.274	-25.067	-271.259	B5-03822-P02-CH0	990984	OK	0.5766739	0.2895046	-0.7639596	0	-78.951	-101.318	3.936	B5-03822-P02-CH1	990984	OK	0.7921287	-0.1750254	-0.5847207	0	-82.485	-80.655	-0.846	B5-03822-P03-CH0	990984	OK	0.8258945	-0.3818316	-0.4148528	0	-97.87	-60.55	2.13	B5-03822-P03-CH1	990984	OK	0.5999016	0.7984711	0.0506168	0	-100.33	-28.668	0.301	B5-03822-P04-CH0	990984	OK	0.7807941	-0.3016112	0.5471666	0	-127.4	-39.82	5.125	B5-03822-P04-CH1	990984	OK	0.7452969	-0.6508946	0.1444601	0	-114.594	-34.74	-7.175	NA
1.05914447134786	B5-03822-P01-CH0	990992	OK	0.2592221	0.0851809	0.0975329	-0.9570974	166.192	-25.075	-271.279	B5-03822-P02-CH0	990992	OK	0.5766279	0.284939	-0.7657089	0	-78.767	-100.624	4.058	B5-03822-P02-CH1	990992	OK	0.7913271	-0.1764534	-0.5853765	0	-83.13	-81.526	-0.974	B5-03822-P03-CH0	990992	OK	0.8266552	-0.3812119	-0.4139065	0	-97.726	-60.63	2.12	B5-03822-P03-CH1	990992	OK	0.6000098	0.7983685	0.0509505	0	-100.268	-28.695	0.336	B5-03822-P04-CH0	990992	OK	0.7806552	-0.3019101	0.5471998	0	-127.239	-39.847	5.213	B5-03822-P04-CH1	990992	OK	0.7452966	-0.6508905	0.1444805	0	-114.446	-34.686	-7.269	NA
1.06913640032284	B5-03822-P01-CH0	991000	OK	0.2593182	0.0851415	0.0978909	-0.9570383	166.23	-25.035	-271.379	B5-03822-P02-CH0	991000	OK	0.5770243	0.2818621	-0.7665486	0	-78.486	-100.268	3.038	B5-03822-P02-CH1	991000	OK	0.792723	-0.1746115	-0.5840386	0	-82.658	-80.648	-1.209	B5-03822-P03-CH0	991000	OK	0.8273034	-0.3805934	-0.4131801	0	-97.694	-60.761	2.269	B5-03822-P03-CH1	991000	OK	0.5996691	0.7985984	0.0513576	0	-100.423	-28.521	0.356	B5-03822-P04-CH0	991000	OK	0.7807896	-0.3013688	0.5473065	0	-127.413	-40.121	5.289	B5-03822-P04-CH1	991000	OK	0.7448689	-0.6511474	0.1455242	0	-114.58	-35.339	-6.821	NA
1.07912832929782	B5-03822-P01-CH0	991008	OK	0.2593604	0.0853908	0.0974501	-0.9570497	166.371	-25.091	-271.535	B5-03822-P02-CH0	991008	OK	0.5771845	0.2823222	-0.7662586	0	-79.051	-101.329	3.674	B5-03822-P02-CH1	991008	OK	0.7930827	-0.1742409	-0.5836608	0	-82.551	-80.768	-0.144	B5-03822-P03-CH0	991008	OK	0.8272203	-0.3807956	-0.4131601	0	-97.851	-61.172	2.682	B5-03822-P03-CH1	991008	OK	0.5997923	0.7984799	0.0517596	0	-100.328	-28.257	0.025	B5-03822-P04-CH0	991008	OK	0.7806504	-0.3013029	0.5475413	0	-127.477	-40.331	5.529	B5-03822-P04-CH1	991008	OK	0.7445362	-0.6514487	0.1458784	0	-114.764	-35.567	-6.585	NA
1.0891202582728	B5-03822-P01-CH0	991016	OK	0.2590308	0.0859035	0.0961753	-0.957222	166.512	-25.179	-271.483	B5-03822-P02-CH0	991016	OK	0.5760329	0.2786898	-0.7684518	0	-79.606	-100.288	4.203	B5-03822-P02-CH1	991016	OK	0.7919818	-0.1723358	-0.5857177	0	-83.183	-80.612	-0.524	B5-03822-P03-CH0	991016	OK	0.8270144	-0.381348	-0.4130628	0	-97.885	-61.291	2.707	B5-03822-P03-CH1	991016	OK	0.6011543	0.7974374	0.0520298	0	-100.41	-28.417	0.031	B5-03822-P04-CH0	991016	OK	0.7803745	-0.3016733	0.5477306	0	-127.726	-40.576	5.805	B5-03822-P04-CH1	991016	OK	0.7439325	-0.6523399	0.144973	0	-114.732	-35.332	-6.693	NA
1.09911218724778	B5-03822-P01-CH0	991024	OK	0.2591474	0.085739	0.0970659	-0.9571153	166.54	-25.085	-271.566	B5-03822-P02-CH0	991024	OK	0.5759058	0.2888739	-0.7647773	0	-79.435	-101.718	3.93	B5-03822-P02-CH1	991024	OK	0.7911998	-0.1743011	-0.5861928	0	-82.947	-80.479	-0.993	B5-03822-P03-CH0	991024	OK	0.8275929	-0.3807656	-0.412441	0	-98.043	-61.324	2.798	B5-03822-P03-CH1	991024	OK	0.6003127	0.7980681	0.052077	0	-100.516	-28.246	0.095	B5-03822-P04-CH0	991024	OK	0.7806746	-0.3009239	0.5477152	0	-127.815	-40.595	5.921	B5-03822-P04-CH1	991024	OK	0.744085	-0.6519944	0.1457421	0	-114.94	-35.709	-6.434	NA
1.10910411622276	B5-03822-P01-CH0	991032	OK	0.25933	0.0853362	0.098061	-0.9570004	166.42	-25.026	-271.56	B5-03822-P02-CH0	991032	OK	0.5758982	0.286092	-0.7658281	0	-79.25	-101.473	3.766	B5-03822-P02-CH1	991032	OK	0.7918831	-0.1733026	-0.5855658	0	-82.907	-80.402	-1.041	B5-03822-P03-CH0	991032	OK	0.8282603	-0.3801422	-0.4116756	0	-98.186	-61.183	2.524	B5-03822-P03-CH1	991032	OK	0.5994388	0.7987296	0.0520005	0	-100.229	-28.032	-0.322	B5-03822-P04-CH0	991032	OK	0.7806393	-0.3007128	0.5478814	0	-127.505	-40.356	5.668	B5-03822-P04-CH1	991032	OK	0.744656	-0.6513372	0.1457648	0	-114.793	-35.666	-6.567	NA
1.11909604519774	B5-03822-P01-CH0	991040	OK	0.2585337	0.0854457	0.0966216	-0.9573524	166.295	-25.193	-271.447	B5-03822-P02-CH0	991040	OK	0.5767073	0.2861567	-0.7651948	0	-79.133	-101.319	3.975	B5-03822-P02-CH1	991040	OK	0.792097	-0.1723752	-0.5855503	0	-82.841	-80.461	-0.836	B5-03822-P03-CH0	991040	OK	0.8282184	-0.3800881	-0.4118098	0	-98.223	-60.971	2.638	B5-03822-P03-CH1	991040	OK	0.6007438	0.7977069	0.0526369	0	-100.261	-28.071	-0.324	B5-03822-P04-CH0	991040	OK	0.7799919	-0.3017573	0.548229	0	-127.51	-40.427	5.673	B5-03822-P04-CH1	991040	OK	0.7433972	-0.6529581	0.1449357	0	-114.636	-35.699	-6.781	NA
1.12908797417272	B5-03822-P01-CH0	991048	OK	0.2583725	0.0850839	0.0965419	-0.9574362	166.186	-25.309	-271.537	B5-03822-P02-CH0	991048	OK	0.576999	0.2854551	-0.7652369	0	-78.926	-101.267	3.95	B5-03822-P02-CH1	991048	OK	0.7922887	-0.1714377	-0.5855662	0	-82.878	-80.553	-0.683	B5-03822-P03-CH0	991048	OK	0.8285111	-0.3799589	-0.41134	0	-98.185	-61.065	2.617	B5-03822-P03-CH1	991048	OK	0.6004185	0.7979181	0.0531444	0	-100.073	-27.851	-0.389	B5-03822-P04-CH0	991048	OK	0.7798161	-0.301789	0.5484617	0	-127.466	-40.561	5.71	B5-03822-P04-CH1	991048	OK	0.7434414	-0.6530241	0.1444106	0	-114.462	-35.49	-7.16	NA
1.1390799031477	B5-03822-P01-CH0	991056	OK	0.2584169	0.0850287	0.0963241	-0.957451	166.213	-25.286	-271.714	B5-03822-P02-CH0	991056	OK	0.5768866	0.2847045	-0.7656012	0	-78.872	-101.168	4.103	B5-03822-P02-CH1	991056	OK	0.7923111	-0.1709362	-0.5856824	0	-82.978	-80.626	-0.398	B5-03822-P03-CH0	991056	OK	0.8287413	-0.380217	-0.4106373	0	-98.142	-61.171	2.952	B5-03822-P03-CH1	991056	OK	0.6003798	0.7979592	0.0529631	0	-100.342	-27.789	-0.088	B5-03822-P04-CH0	991056	OK	0.7796905	-0.3019089	0.5485743	0	-127.382	-40.433	5.89	B5-03822-P04-CH1	991056	OK	0.7429626	-0.65342	0.1450824	0	-114.331	-35.858	-6.669	NA
1.14907183212268	B5-03822-P01-CH0	991064	OK	0.2584034	0.0851245	0.0961765	-0.957461	166.327	-25.337	-271.87	B5-03822-P02-CH0	991064	OK	0.5762151	0.2844777	-0.7661909	0	-79.059	-101.174	4.289	B5-03822-P02-CH1	991064	OK	0.7923702	-0.1702058	-0.5858152	0	-83.038	-80.749	0.051	B5-03822-P03-CH0	991064	OK	0.8290029	-0.3803608	-0.4099755	0	-97.987	-61.407	3.367	B5-03822-P03-CH1	991064	OK	0.6004617	0.7978943	0.0530129	0	-100.388	-27.81	-0.153	B5-03822-P04-CH0	991064	OK	0.7797396	-0.3013743	0.5487985	0	-127.517	-40.727	6.264	B5-03822-P04-CH1	991064	OK	0.7431956	-0.653363	0.1441425	0	-114.213	-35.527	-6.86	NA
1.15906376109766	B5-03822-P01-CH0	991072	OK	0.258352	0.0855412	0.0957568	-0.9574798	166.404	-25.327	-271.76	B5-03822-P02-CH0	991072	OK	0.5755069	0.2851876	-0.7664593	0	-79.292	-101.118	4.36	B5-03822-P02-CH1	991072	OK	0.7921836	-0.1698187	-0.5861798	0	-83.184	-80.723	0.001	B5-03822-P03-CH0	991072	OK	0.8285833	-0.3807733	-0.4104405	0	-98.232	-61.336	3.435	B5-03822-P03-CH1	991072	OK	0.6005576	0.7978262	0.052952	0	-100.502	-27.578	-0.322	B5-03822-P04-CH0	991072	OK	0.7798375	-0.301117	0.5488005	0	-127.663	-40.671	6.279	B5-03822-P04-CH1	991072	OK	0.7430708	-0.6536123	0.1436549	0	-114.31	-35.269	-7.196	NA
1.16905569007264	B5-03822-P01-CH0	991080	OK	0.2586116	0.0853658	0.0964337	-0.9573574	166.376	-25.272	-271.727	B5-03822-P02-CH0	991080	OK	0.5746424	0.2854484	-0.7670106	0	-79.461	-101.134	4.343	B5-03822-P02-CH1	991080	OK	0.7922016	-0.1693207	-0.5862996	0	-83.327	-80.771	0.029	B5-03822-P03-CH0	991080	OK	0.828879	-0.3806214	-0.4099841	0	-98.205	-61.332	3.325	B5-03822-P03-CH1	991080	OK	0.5996413	0.7985185	0.0529022	0	-100.55	-27.266	-0.516	B5-03822-P04-CH0	991080	OK	0.7800615	-0.3008198	0.5486452	0	-127.518	-40.319	6.098	B5-03822-P04-CH1	991080	OK	0.7436495	-0.6529353	0.1437394	0	-114.312	-35.16	-7.169	NA
1.17904761904762	B5-03822-P01-CH0	991088	OK	0.2587565	0.0850259	0.0970734	-0.9572839	166.251	-25.246	-271.704	B5-03822-P02-CH0	991088	OK	0.5741658	0.2861392	-0.7671102	0	-79.372	-101.064	4.102	B5-03822-P02-CH1	991088	OK	0.7921149	-0.1687541	-0.5865799	0	-83.496	-80.775	-0.189	B5-03822-P03-CH0	991088	OK	0.8294613	-0.3800365	-0.4093486	0	-98.076	-61.027	3.136	B5-03822-P03-CH1	991088	OK	0.5994179	0.7987193	0.052399	0	-100.588	-27.511	-0.305	B5-03822-P04-CH0	991088	OK	0.780306	-0.300032	0.5487288	0	-127.577	-40.411	6.134	B5-03822-P04-CH1	991088	OK	0.743933	-0.6525765	0.1439016	0	-114.233	-35.16	-7.362	NA
