Wav.Time	B5.03822.P01.CH0	Frame	State	Q0	Qx	Qy	Qz	Tx	Ty	Tz	B5.03822.P02.CH0	Frame.1	State.1	Q0.1	Qx.1	Qy.1	Qz.1	Tx.1	Ty.1	Tz.1	B5.03822.P02.CH1	Frame.2	State.2	Q0.2	Qx.2	Qy.2	Qz.2	Tx.2	Ty.2	Tz.2	B5.03822.P03.CH0	Frame.3	State.3	Q0.3	Qx.3	Qy.3	Qz.3	Tx.3	Ty.3	Tz.3	B5.03822.P03.CH1	Frame.4	State.4	Q0.4	Qx.4	Qy.4	Qz.4	Tx.4	Ty.4	Tz.4	B5.03822.P04.CH0	Frame.5	State.5	Q0.5	Qx.5	Qy.5	Qz.5	Tx.5	Ty.5	Tz.5	B5.03822.P04.CH1	Frame.6	State.6	Q0.6	Qx.6	Qy.6	Qz.6	Tx.6	Ty.6	Tz.6	X
0	B5-03822-P01-CH0	2075848	OK	0.2416458	0.023634	0.0561121	-0.9684525	105.54	4.507	-242.177	B5-03822-P02-CH0	2075848	OK	0.6802029	0.5041533	-0.5321217	0	-74.954	-100.748	3.981	B5-03822-P02-CH1	2075848	OK	0.6879606	0.0209533	-0.7254455	0	-72.29	-78.104	1.412	B5-03822-P03-CH0	2075848	OK	0.8430372	-0.3240026	-0.4293142	0	-93.502	-59.307	8.966	B5-03822-P03-CH1	2075848	OK	0.8159396	-0.2821458	-0.5046151	0	-99.387	-31.516	6.619	B5-03822-P04-CH0	2075848	OK	0.7130794	-0.2348707	0.6605705	0	-121.529	-40.982	6.282	B5-03822-P04-CH1	2075848	OK	0.7372883	-0.6726666	0.0626544	0	-108.256	-49.032	3.676	NA
0.00999206349206349	B5-03822-P01-CH0	2075856	OK	0.2416085	0.0236624	0.0561163	-0.9684608	105.519	4.557	-242.223	B5-03822-P02-CH0	2075856	OK	0.6760005	0.5040643	-0.5375337	0	-74.808	-100.805	4.25	B5-03822-P02-CH1	2075856	OK	0.6852007	0.015412	-0.7281913	0	-72.766	-77.911	1.866	B5-03822-P03-CH0	2075856	OK	0.8423581	-0.3264595	-0.4287855	0	-93.802	-59.274	8.726	B5-03822-P03-CH1	2075856	OK	0.8159244	-0.2828163	-0.5042641	0	-99.414	-31.485	6.586	B5-03822-P04-CH0	2075856	OK	0.7131313	-0.2343719	0.6606917	0	-121.646	-41.024	6.362	B5-03822-P04-CH1	2075856	OK	0.7372068	-0.6727516	0.0627011	0	-108.324	-49.066	3.91	NA
0.019984126984127	B5-03822-P01-CH0	2075864	OK	0.2416925	0.0234903	0.0566542	-0.9684128	105.461	4.614	-242.247	B5-03822-P02-CH0	2075864	OK	0.6709042	0.5039797	-0.5439596	0	-73.93	-100.556	4.148	B5-03822-P02-CH1	2075864	OK	0.6832765	0.004197	-0.7301477	0	-71.831	-77.328	0.504	B5-03822-P03-CH0	2075864	OK	0.8429782	-0.3311727	-0.423925	0	-93.17	-59.092	8.475	B5-03822-P03-CH1	2075864	OK	0.8160556	-0.2833895	-0.5037297	0	-99.421	-31.542	6.558	B5-03822-P04-CH0	2075864	OK	0.7131543	-0.2340626	0.6607765	0	-121.658	-40.93	6.167	B5-03822-P04-CH1	2075864	OK	0.7375216	-0.6723836	0.0629458	0	-108.31	-49.099	3.991	NA
0.0299761904761905	B5-03822-P01-CH0	2075872	OK	0.2416104	0.0235553	0.0566355	-0.9684328	105.431	4.666	-242.228	B5-03822-P02-CH0	2075872	OK	0.6658362	0.5050667	-0.5491537	0	-73.016	-100.965	4.076	B5-03822-P02-CH1	2075872	OK	0.6761888	-0.0080586	-0.7366843	0	-72.621	-77.248	2.269	B5-03822-P03-CH0	2075872	OK	0.8419965	-0.3372008	-0.4211145	0	-93.466	-58.945	8.329	B5-03822-P03-CH1	2075872	OK	0.8158944	-0.2839744	-0.5036615	0	-99.524	-31.503	6.474	B5-03822-P04-CH0	2075872	OK	0.7130039	-0.2339315	0.6609853	0	-121.65	-40.847	6.111	B5-03822-P04-CH1	2075872	OK	0.7376237	-0.6722745	0.0629155	0	-108.31	-48.983	4.242	NA
0.039968253968254	B5-03822-P01-CH0	2075880	OK	0.2410594	0.0239171	0.0554073	-0.9686322	105.48	4.599	-242.246	B5-03822-P02-CH0	2075880	OK	0.6575492	0.5098457	-0.5546949	0	-72.421	-100.314	4.321	B5-03822-P02-CH1	2075880	OK	0.6705801	-0.0223798	-0.7414994	0	-71.376	-75.685	1.738	B5-03822-P03-CH0	2075880	OK	0.8421044	-0.3461738	-0.4135503	0	-93.442	-58.573	8.903	B5-03822-P03-CH1	2075880	OK	0.8154321	-0.2846668	-0.5040192	0	-99.631	-31.513	6.545	B5-03822-P04-CH0	2075880	OK	0.7125806	-0.2345178	0.6612339	0	-121.691	-40.759	6.215	B5-03822-P04-CH1	2075880	OK	0.7367907	-0.6732192	0.0625721	0	-108.429	-48.956	4.509	NA
0.0499603174603175	B5-03822-P01-CH0	2075888	OK	0.2408914	0.0240678	0.0555177	-0.9686639	105.504	4.656	-242.275	B5-03822-P02-CH0	2075888	OK	0.6480033	0.5153284	-0.5608282	0	-71.465	-99.697	4.359	B5-03822-P02-CH1	2075888	OK	0.6612063	-0.0363976	-0.7493207	0	-70.986	-75.864	1.841	B5-03822-P03-CH0	2075888	OK	0.8429315	-0.3583996	-0.4012682	0	-94.027	-58.57	8.948	B5-03822-P03-CH1	2075888	OK	0.8153649	-0.2850088	-0.5039347	0	-99.711	-31.468	6.684	B5-03822-P04-CH0	2075888	OK	0.7125561	-0.2346356	0.6612185	0	-121.769	-40.654	6.022	B5-03822-P04-CH1	2075888	OK	0.7369457	-0.6730881	0.0621561	0	-108.545	-48.821	4.486	NA
0.059952380952381	B5-03822-P01-CH0	2075896	OK	0.2407476	0.0239716	0.055895	-0.9686804	105.477	4.677	-242.283	B5-03822-P02-CH0	2075896	OK	0.6377956	0.5215006	-0.5667927	0	-70.304	-99.252	4.506	B5-03822-P02-CH1	2075896	OK	0.6504319	-0.0505026	-0.7578838	0	-70.325	-74.984	2.377	B5-03822-P03-CH0	2075896	OK	0.8459981	-0.3689702	-0.3849002	0	-93.831	-58.709	9.204	B5-03822-P03-CH1	2075896	OK	0.8155249	-0.2852528	-0.5035375	0	-99.68	-31.457	6.638	B5-03822-P04-CH0	2075896	OK	0.7125406	-0.2342652	0.6613665	0	-121.811	-40.74	6.029	B5-03822-P04-CH1	2075896	OK	0.7371871	-0.6728369	0.0620133	0	-108.594	-48.798	4.417	NA
0.0699444444444444	B5-03822-P01-CH0	2075904	OK	0.2405341	0.0238623	0.0556917	-0.9687478	105.431	4.673	-242.337	B5-03822-P02-CH0	2075904	OK	0.6272391	0.5314366	-0.5693384	0	-69.47	-99.175	4.545	B5-03822-P02-CH1	2075904	OK	0.6396883	-0.078028	-0.7646636	0	-71.036	-71.56	2.445	B5-03822-P03-CH0	2075904	OK	0.8480186	-0.3786386	-0.3708062	0	-94.1	-58.587	9.546	B5-03822-P03-CH1	2075904	OK	0.8155588	-0.2857796	-0.5031837	0	-99.625	-31.477	6.682	B5-03822-P04-CH0	2075904	OK	0.7123287	-0.2341676	0.6616294	0	-121.822	-40.681	6.157	B5-03822-P04-CH1	2075904	OK	0.7371206	-0.6729054	0.0620606	0	-108.592	-48.793	4.858	NA
0.0799365079365079	B5-03822-P01-CH0	2075912	OK	0.2404001	0.0233942	0.0557255	-0.9687906	105.252	4.714	-242.451	B5-03822-P02-CH0	2075912	OK	0.6171806	0.5434648	-0.5689764	0	-68.237	-99.258	4.578	B5-03822-P02-CH1	2075912	OK	0.6485445	-0.1024395	-0.754252	0	-68.985	-73.347	1.665	B5-03822-P03-CH0	2075912	OK	0.8494333	-0.3921902	-0.353058	0	-94.154	-58.953	9.607	B5-03822-P03-CH1	2075912	OK	0.8158782	-0.2860364	-0.5025196	0	-99.431	-31.358	6.668	B5-03822-P04-CH0	2075912	OK	0.7119862	-0.2337247	0.6621544	0	-121.751	-40.627	6.222	B5-03822-P04-CH1	2075912	OK	0.7371434	-0.6728964	0.0618866	0	-108.535	-48.681	4.83	NA
0.0899285714285714	B5-03822-P01-CH0	2075920	OK	0.2403913	0.0231014	0.0556997	-0.9688013	105.137	4.718	-242.523	B5-03822-P02-CH0	2075920	OK	0.605053	0.5462837	-0.5792106	0	-66.734	-97.799	4.436	B5-03822-P02-CH1	2075920	OK	0.6571191	-0.1147605	-0.7449997	0	-68.665	-73.062	1.294	B5-03822-P03-CH0	2075920	OK	0.8524925	-0.4047053	-0.3308626	0	-93.626	-58.914	10.21	B5-03822-P03-CH1	2075920	OK	0.815959	-0.2866073	-0.5020629	0	-99.328	-31.344	6.638	B5-03822-P04-CH0	2075920	OK	0.711626	-0.2329269	0.6628224	0	-121.669	-40.689	6.316	B5-03822-P04-CH1	2075920	OK	0.7372049	-0.6728381	0.0617887	0	-108.498	-48.584	4.738	NA
0.0999206349206349	B5-03822-P01-CH0	2075928	OK	0.2402568	0.0230763	0.0554964	-0.9688469	105.099	4.758	-242.567	B5-03822-P02-CH0	2075928	OK	0.5972333	0.5434013	-0.5899385	0	-66.319	-97.676	4.295	B5-03822-P02-CH1	2075928	OK	0.6615852	-0.1202911	-0.7401588	0	-68.312	-73.406	1.608	B5-03822-P03-CH0	2075928	OK	0.8550227	-0.4124477	-0.3143614	0	-94.243	-58.893	10.211	B5-03822-P03-CH1	2075928	OK	0.8156925	-0.287118	-0.5022041	0	-99.401	-31.262	6.709	B5-03822-P04-CH0	2075928	OK	0.711386	-0.2321297	0.6633595	0	-121.712	-40.713	6.453	B5-03822-P04-CH1	2075928	OK	0.7372395	-0.672797	0.061823	0	-108.497	-48.438	4.882	NA
0.109912698412698	B5-03822-P01-CH0	2075936	OK	0.240159	0.0230783	0.0556859	-0.9688602	105.098	4.776	-242.563	B5-03822-P02-CH0	2075936	OK	0.5927512	0.5377342	-0.5995731	0	-65.707	-97.513	3.975	B5-03822-P02-CH1	2075936	OK	0.6617576	-0.1240477	-0.7393843	0	-69.256	-73.343	1.908	B5-03822-P03-CH0	2075936	OK	0.8592149	-0.4181017	-0.2948569	0	-94.35	-59.575	10.265	B5-03822-P03-CH1	2075936	OK	0.8156407	-0.2874306	-0.5021094	0	-99.376	-31.234	6.784	B5-03822-P04-CH0	2075936	OK	0.7113376	-0.2313968	0.6636674	0	-121.747	-40.675	6.476	B5-03822-P04-CH1	2075936	OK	0.7374296	-0.6725651	0.0620784	0	-108.398	-48.418	4.849	NA
0.119904761904762	B5-03822-P01-CH0	2075944	OK	0.2399233	0.0230046	0.0551801	-0.9689493	105.048	4.713	-242.574	B5-03822-P02-CH0	2075944	OK	0.5912159	0.5346547	-0.6038279	0	-65.706	-97.421	4.258	B5-03822-P02-CH1	2075944	OK	0.6631468	-0.1279919	-0.7374648	0	-69.152	-73.023	1.488	B5-03822-P03-CH0	2075944	OK	0.8643112	-0.4187938	-0.2785281	0	-94.794	-60.002	10.356	B5-03822-P03-CH1	2075944	OK	0.8154721	-0.2879165	-0.5021049	0	-99.272	-31.225	6.711	B5-03822-P04-CH0	2075944	OK	0.71099	-0.2306772	0.66429	0	-121.754	-40.668	6.549	B5-03822-P04-CH1	2075944	OK	0.7371069	-0.6729405	0.0618429	0	-108.38	-48.378	4.571	NA
0.129896825396825	B5-03822-P01-CH0	2075952	OK	0.2399451	0.0227653	0.0556016	-0.9689255	105.003	4.731	-242.601	B5-03822-P02-CH0	2075952	OK	0.5925703	0.5335566	-0.6034715	0	-66.496	-97.092	3.658	B5-03822-P02-CH1	2075952	OK	0.6636588	-0.1294072	-0.7367569	0	-69.341	-72.524	2.3	B5-03822-P03-CH0	2075952	OK	0.870005	-0.415022	-0.2661728	0	-95.358	-60.404	10.845	B5-03822-P03-CH1	2075952	OK	0.8156085	-0.2881522	-0.501748	0	-99.144	-31.219	6.676	B5-03822-P04-CH0	2075952	OK	0.710802	-0.229503	0.6648976	0	-121.752	-40.717	6.504	B5-03822-P04-CH1	2075952	OK	0.7374216	-0.6725892	0.0619131	0	-108.459	-48.385	4.361	NA
0.139888888888889	B5-03822-P01-CH0	2075960	OK	0.2400457	0.022634	0.0561321	-0.968873	104.981	4.748	-242.582	B5-03822-P02-CH0	2075960	OK	0.6019491	0.527267	-0.5997056	0	-66.349	-97.554	3.835	B5-03822-P02-CH1	2075960	OK	0.6652617	-0.131609	-0.734919	0	-68.718	-72.537	1.652	B5-03822-P03-CH0	2075960	OK	0.8751423	-0.4131134	-0.2519193	0	-95.364	-61.493	10.504	B5-03822-P03-CH1	2075960	OK	0.8156097	-0.2884474	-0.5015764	0	-99.084	-31.222	6.573	B5-03822-P04-CH0	2075960	OK	0.7107675	-0.2281863	0.6653875	0	-121.815	-40.74	6.303	B5-03822-P04-CH1	2075960	OK	0.7378406	-0.6721274	0.0619345	0	-108.444	-48.391	4.172	NA
0.149880952380952	B5-03822-P01-CH0	2075968	OK	0.2401389	0.0224904	0.0564539	-0.9688346	104.969	4.789	-242.648	B5-03822-P02-CH0	2075968	OK	0.613995	0.5155144	-0.5977082	0	-66.95	-97.866	4.599	B5-03822-P02-CH1	2075968	OK	0.6641148	-0.1311338	-0.7360404	0	-69.985	-73.912	2.016	B5-03822-P03-CH0	2075968	OK	0.8810776	-0.4076773	-0.2397946	0	-95.629	-61.726	10.915	B5-03822-P03-CH1	2075968	OK	0.8155	-0.2885942	-0.5016704	0	-99.081	-31.197	6.569	B5-03822-P04-CH0	2075968	OK	0.7106859	-0.2265265	0.6660415	0	-121.873	-40.828	6.491	B5-03822-P04-CH1	2075968	OK	0.7380328	-0.6718754	0.062378	0	-108.506	-48.485	4.129	NA
0.159873015873016	B5-03822-P01-CH0	2075976	OK	0.2399467	0.0223301	0.056046	-0.9689096	104.867	4.784	-242.637	B5-03822-P02-CH0	2075976	OK	0.6286426	0.4960537	-0.5989484	0	-67.591	-96.541	4.101	B5-03822-P02-CH1	2075976	OK	0.6666739	-0.1296791	-0.7339818	0	-68.373	-72.703	1.426	B5-03822-P03-CH0	2075976	OK	0.8870344	-0.4044247	-0.2227345	0	-94.987	-62.029	11.24	B5-03822-P03-CH1	2075976	OK	0.8153209	-0.2885646	-0.5019785	0	-98.994	-31.101	6.559	B5-03822-P04-CH0	2075976	OK	0.7103643	-0.2253807	0.6667729	0	-121.887	-40.761	6.497	B5-03822-P04-CH1	2075976	OK	0.7377998	-0.6721219	0.0624797	0	-108.468	-48.429	3.983	NA
0.169865079365079	B5-03822-P01-CH0	2075984	OK	0.2400867	0.0221243	0.0567487	-0.9688387	104.802	4.854	-242.597	B5-03822-P02-CH0	2075984	OK	0.6485466	0.4754465	-0.5944223	0	-68.527	-97.092	4.054	B5-03822-P02-CH1	2075984	OK	0.6649554	-0.1208543	-0.7370404	0	-68.395	-72.182	1.344	B5-03822-P03-CH0	2075984	OK	0.8912896	-0.4028169	-0.208186	0	-95.516	-63.016	11.22	B5-03822-P03-CH1	2075984	OK	0.8154191	-0.2879948	-0.5021461	0	-98.948	-30.997	6.4	B5-03822-P04-CH0	2075984	OK	0.7104497	-0.2232493	0.6673987	0	-121.96	-40.892	6.476	B5-03822-P04-CH1	2075984	OK	0.7383233	-0.6715243	0.0627204	0	-108.574	-48.348	3.45	NA
0.179857142857143	B5-03822-P01-CH0	2075992	OK	0.2399835	0.0224884	0.0565831	-0.9688656	104.933	4.875	-242.605	B5-03822-P02-CH0	2075992	OK	0.6653218	0.4542194	-0.5924792	0	-70.204	-97.543	4.243	B5-03822-P02-CH1	2075992	OK	0.6665043	-0.107831	-0.7376615	0	-68.554	-70.381	1.603	B5-03822-P03-CH0	2075992	OK	0.8966471	-0.3999793	-0.1898435	0	-95.978	-63.635	11.428	B5-03822-P03-CH1	2075992	OK	0.815058	-0.2874773	-0.503028	0	-99.087	-30.975	6.58	B5-03822-P04-CH0	2075992	OK	0.7104739	-0.2217785	0.6678632	0	-122.105	-40.972	6.616	B5-03822-P04-CH1	2075992	OK	0.7381883	-0.671648	0.0629844	0	-108.776	-48.446	3.523	NA
0.189849206349206	B5-03822-P01-CH0	2076000	OK	0.2398596	0.0226254	0.056567	-0.968894	104.964	4.901	-242.577	B5-03822-P02-CH0	2076000	OK	0.6757793	0.4364484	-0.5939993	0	-71.682	-97.03	4.384	B5-03822-P02-CH1	2076000	OK	0.6747232	-0.0873533	-0.7328834	0	-70.483	-74.753	2.694	B5-03822-P03-CH0	2076000	OK	0.9033073	-0.3963252	-0.1642017	0	-96.011	-64.058	11.91	B5-03822-P03-CH1	2076000	OK	0.8148583	-0.2866183	-0.5038412	0	-99.106	-30.946	6.518	B5-03822-P04-CH0	2076000	OK	0.7107521	-0.219892	0.6681908	0	-122.264	-41.075	6.812	B5-03822-P04-CH1	2076000	OK	0.7382939	-0.6714963	0.063363	0	-108.908	-48.426	3.564	NA
0.19984126984127	B5-03822-P01-CH0	2076008	OK	0.2398546	0.0226434	0.0564974	-0.9688989	104.989	4.907	-242.61	B5-03822-P02-CH0	2076008	OK	0.6856424	0.4229851	-0.592434	0	-71.956	-97.4	3.462	B5-03822-P02-CH1	2076008	OK	0.6854868	-0.0790785	-0.7237779	0	-69.729	-73.68	1.909	B5-03822-P03-CH0	2076008	OK	0.9093572	-0.3917425	-0.1400262	0	-95.907	-64.835	12.332	B5-03822-P03-CH1	2076008	OK	0.8133559	-0.2796774	-0.5101301	0	-99.568	-31.225	6.083	B5-03822-P04-CH0	2076008	OK	0.7107763	-0.2186051	0.6685872	0	-122.234	-41.048	6.856	B5-03822-P04-CH1	2076008	OK	0.7382894	-0.6714493	0.0639104	0	-109.053	-48.523	3.578	NA
0.209833333333333	B5-03822-P01-CH0	2076016	OK	0.2396067	0.0227431	0.055852	-0.9689953	104.995	4.886	-242.606	B5-03822-P02-CH0	2076016	OK	0.6903969	0.4158002	-0.5919986	0	-73.376	-97.399	3.762	B5-03822-P02-CH1	2076016	OK	0.687458	-0.0762676	-0.7222083	0	-71.186	-74.272	1.673	B5-03822-P03-CH0	2076016	OK	0.9136521	-0.3866807	-0.1253711	0	-96.168	-65.194	12.609	B5-03822-P03-CH1	2076016	OK	0.8129016	-0.2773969	-0.5120956	0	-99.837	-30.85	5.943	B5-03822-P04-CH0	2076016	OK	0.7115011	-0.2159141	0.6686907	0	-121.46	-40.044	5.605	B5-03822-P04-CH1	2076016	OK	0.7378935	-0.671882	0.0639348	0	-109.22	-48.542	3.64	NA
0.219825396825397	B5-03822-P01-CH0	2076024	OK	0.2396973	0.0229153	0.0559895	-0.9689609	105.088	4.959	-242.693	B5-03822-P02-CH0	2076024	OK	0.6940776	0.411469	-0.5907196	0	-74.107	-98.137	3.56	B5-03822-P02-CH1	2076024	OK	0.686849	-0.0782825	-0.722572	0	-70.776	-73.839	1.594	B5-03822-P03-CH0	2076024	OK	0.9170561	-0.3820608	-0.1141825	0	-96.144	-65.492	12.905	B5-03822-P03-CH1	2076024	OK	0.813635	-0.2749186	-0.5122674	0	-99.627	-30.489	6.384	B5-03822-P04-CH0	2076024	OK	0.7133834	-0.2161809	0.6665957	0	-121.836	-41.133	6.22	B5-03822-P04-CH1	2076024	OK	0.7380902	-0.6716048	0.0645742	0	-109.445	-48.595	3.721	NA
0.22981746031746	B5-03822-P01-CH0	2076032	OK	0.2395089	0.0230667	0.0554719	-0.9690337	105.145	4.925	-242.748	B5-03822-P02-CH0	2076032	OK	0.6946575	0.4126818	-0.5891898	0	-75.117	-98.299	4.048	B5-03822-P02-CH1	2076032	OK	0.6807961	-0.0825992	-0.7278008	0	-70.804	-73.836	3.237	B5-03822-P03-CH0	2076032	OK	0.9181532	-0.3812481	-0.1079105	0	-96.244	-66.188	12.744	B5-03822-P03-CH1	2076032	OK	0.8131496	-0.2745496	-0.5132351	0	-99.859	-30.61	6.828	B5-03822-P04-CH0	2076032	OK	0.7144259	-0.2210786	0.6638674	0	-121.545	-40.597	7.039	B5-03822-P04-CH1	2076032	OK	0.737769	-0.6718986	0.0651849	0	-109.405	-48.749	3.938	NA
0.239809523809524	B5-03822-P01-CH0	2076040	OK	0.2392964	0.022973	0.055168	-0.9691058	105.108	4.894	-242.763	B5-03822-P02-CH0	2076040	OK	0.6962644	0.4170637	-0.5841864	0	-75.685	-98.414	4.391	B5-03822-P02-CH1	2076040	OK	0.6752096	-0.0877049	-0.7323932	0	-69.836	-73.603	1.851	B5-03822-P03-CH0	2076040	OK	0.9184475	-0.3815184	-0.1043933	0	-95.944	-66.792	12.95	B5-03822-P03-CH1	2076040	OK	0.8131596	-0.2741228	-0.5134474	0	-99.558	-30.59	7.033	B5-03822-P04-CH0	2076040	OK	0.7150217	-0.2241671	0.6621881	0	-121.414	-40.747	6.493	B5-03822-P04-CH1	2076040	OK	0.7375875	-0.6720565	0.0656107	0	-109.445	-48.86	4.031	NA
0.249801587301587	B5-03822-P01-CH0	2076048	OK	0.2391023	0.0231132	0.0547537	-0.9691738	105.13	4.866	-242.703	B5-03822-P02-CH0	2076048	OK	0.6993401	0.4211757	-0.5775244	0	-75.519	-98.092	4.215	B5-03822-P02-CH1	2076048	OK	0.6678208	-0.0865751	-0.73927	0	-69.689	-74.387	0.909	B5-03822-P03-CH0	2076048	OK	0.9192426	-0.3799744	-0.1030169	0	-95.225	-66.759	13.263	B5-03822-P03-CH1	2076048	OK	0.812522	-0.2743522	-0.5143335	0	-99.589	-30.608	6.567	B5-03822-P04-CH0	2076048	OK	0.7152229	-0.2271585	0.6609503	0	-120.948	-40.077	6.676	B5-03822-P04-CH1	2076048	OK	0.7372294	-0.6724175	0.0659356	0	-109.401	-48.94	3.697	NA
0.259793650793651	B5-03822-P01-CH0	2076056	OK	0.239156	0.0232031	0.0550391	-0.9691423	105.194	4.905	-242.688	B5-03822-P02-CH0	2076056	OK	0.7026491	0.4276147	-0.568709	0	-76.23	-99.238	4.168	B5-03822-P02-CH1	2076056	OK	0.6599347	-0.0846462	-0.7465395	0	-69.208	-74.321	0.996	B5-03822-P03-CH0	2076056	OK	0.9190437	-0.3781827	-0.1110704	0	-95.652	-66.702	13.158	B5-03822-P03-CH1	2076056	OK	0.8132102	-0.2775107	-0.5115437	0	-99.582	-30.755	6.761	B5-03822-P04-CH0	2076056	OK	0.7150333	-0.2278619	0.6609133	0	-120.708	-39.772	6.036	B5-03822-P04-CH1	2076056	OK	0.7375093	-0.6720494	0.0665557	0	-109.331	-49.006	3.541	NA
0.269785714285714	B5-03822-P01-CH0	2076064	OK	0.2390638	0.0231681	0.0546226	-0.9691894	105.184	4.912	-242.75	B5-03822-P02-CH0	2076064	OK	0.7057517	0.4348162	-0.5593294	0	-76.642	-99.547	4.267	B5-03822-P02-CH1	2076064	OK	0.6515715	-0.0776248	-0.7546052	0	-69.799	-74.456	2.259	B5-03822-P03-CH0	2076064	OK	0.9170385	-0.3815254	-0.1160978	0	-94.789	-67.155	13.049	B5-03822-P03-CH1	2076064	OK	0.8128544	-0.276705	-0.5125447	0	-99.687	-30.726	6.872	B5-03822-P04-CH0	2076064	OK	0.7156527	-0.226134	0.6608363	0	-121.106	-40.06	6.801	B5-03822-P04-CH1	2076064	OK	0.7372802	-0.6722203	0.0673635	0	-109.215	-49.162	3.726	NA
0.279777777777778	B5-03822-P01-CH0	2076072	OK	0.2388648	0.0232417	0.054246	-0.9692579	105.199	4.862	-242.714	B5-03822-P02-CH0	2076072	OK	0.708048	0.4426811	-0.5501831	0	-76.969	-99.124	4.357	B5-03822-P02-CH1	2076072	OK	0.6479874	-0.0682812	-0.7585842	0	-69.442	-75.215	2.21	B5-03822-P03-CH0	2076072	OK	0.9147871	-0.3834249	-0.1270826	0	-94.597	-66.715	13.075	B5-03822-P03-CH1	2076072	OK	0.8125354	-0.2760021	-0.5134287	0	-99.751	-30.775	6.846	B5-03822-P04-CH0	2076072	OK	0.7161782	-0.2246108	0.6607865	0	-121.62	-40.703	6.094	B5-03822-P04-CH1	2076072	OK	0.7369136	-0.6725605	0.0679764	0	-109.096	-49.388	3.48	NA
0.289769841269841	B5-03822-P01-CH0	2076080	OK	0.2387068	0.0231912	0.0541408	-0.9693039	105.205	4.838	-242.713	B5-03822-P02-CH0	2076080	OK	0.7107829	0.4503575	-0.5403386	0	-77.14	-99.138	3.618	B5-03822-P02-CH1	2076080	OK	0.6451825	-0.0649127	-0.7612659	0	-69.787	-74.263	2.952	B5-03822-P03-CH0	2076080	OK	0.9116786	-0.3859512	-0.14101	0	-93.941	-66.185	12.822	B5-03822-P03-CH1	2076080	OK	0.8123772	-0.2754797	-0.5139593	0	-99.847	-30.797	6.869	B5-03822-P04-CH0	2076080	OK	0.7159098	-0.2242488	0.6612001	0	-121.937	-40.702	5.618	B5-03822-P04-CH1	2076080	OK	0.7366876	-0.6727664	0.0683867	0	-108.954	-49.6	3.255	NA
0.299761904761905	B5-03822-P01-CH0	2076088	OK	0.2384344	0.0234168	0.0534049	-0.9694063	105.257	4.779	-242.714	B5-03822-P02-CH0	2076088	OK	0.7126752	0.4598681	-0.5297314	0	-77.968	-99.765	4.134	B5-03822-P02-CH1	2076088	OK	0.6443916	-0.0610155	-0.7622575	0	-69.809	-73.807	3.682	B5-03822-P03-CH0	2076088	OK	0.9065583	-0.3901612	-0.1610162	0	-93.341	-65.704	12.84	B5-03822-P03-CH1	2076088	OK	0.812046	-0.2754354	-0.5145063	0	-99.958	-30.803	7.063	B5-03822-P04-CH0	2076088	OK	0.714629	-0.2246254	0.6624567	0	-121.523	-40.329	6.687	B5-03822-P04-CH1	2076088	OK	0.7361811	-0.6732902	0.0686851	0	-108.904	-49.731	3.147	NA
0.309753968253968	B5-03822-P01-CH0	2076096	OK	0.2382416	0.0233972	0.0530527	-0.9694735	105.247	4.767	-242.7	B5-03822-P02-CH0	2076096	OK	0.7136207	0.4709522	-0.5186035	0	-78.29	-100.031	4.614	B5-03822-P02-CH1	2076096	OK	0.6460465	-0.0520255	-0.761523	0	-69.778	-75.047	2.628	B5-03822-P03-CH0	2076096	OK	0.9012	-0.3921071	-0.1846365	0	-93.151	-65.066	13.069	B5-03822-P03-CH1	2076096	OK	0.8121094	-0.2756727	-0.514279	0	-99.894	-30.865	7.082	B5-03822-P04-CH0	2076096	OK	0.7148088	-0.2255842	0.6619367	0	-121.654	-40.391	6.549	B5-03822-P04-CH1	2076096	OK	0.7358968	-0.6735458	0.0692243	0	-108.826	-49.838	3.013	NA
0.319746031746032	B5-03822-P01-CH0	2076104	OK	0.2382898	0.0232503	0.0531249	-0.9694613	105.213	4.702	-242.628	B5-03822-P02-CH0	2076104	OK	0.7137216	0.4831633	-0.5071042	0	-78.063	-100.804	4.399	B5-03822-P02-CH1	2076104	OK	0.6485873	-0.0489855	-0.7595624	0	-70.032	-75.461	2.22	B5-03822-P03-CH0	2076104	OK	0.8958866	-0.3908312	-0.2112773	0	-93.36	-64.45	12.343	B5-03822-P03-CH1	2076104	OK	0.8122933	-0.2761824	-0.5137149	0	-99.773	-31.011	7.048	B5-03822-P04-CH0	2076104	OK	0.7148234	-0.2259818	0.6617853	0	-121.761	-40.572	6.103	B5-03822-P04-CH1	2076104	OK	0.7358265	-0.6735263	0.0701545	0	-108.572	-50.055	2.743	NA
0.329738095238095	B5-03822-P01-CH0	2076112	OK	0.2383631	0.0230848	0.0530743	-0.96945	105.15	4.727	-242.611	B5-03822-P02-CH0	2076112	OK	0.7094861	0.4960175	-0.5005958	0	-77.704	-99.952	3.93	B5-03822-P02-CH1	2076112	OK	0.6485002	-0.0499053	-0.7595768	0	-70.039	-75.454	2.164	B5-03822-P03-CH0	2076112	OK	0.8900073	-0.3914406	-0.2337975	0	-92.873	-64.327	11.725	B5-03822-P03-CH1	2076112	OK	0.8123945	-0.2768927	-0.5131722	0	-99.735	-31.034	6.905	B5-03822-P04-CH0	2076112	OK	0.7146156	-0.2232437	0.662938	0	-123.538	-43.14	7.825	B5-03822-P04-CH1	2076112	OK	0.7357337	-0.6735554	0.0708446	0	-108.55	-50.13	2.64	NA
0.339730158730159	B5-03822-P01-CH0	2076120	OK	0.2383931	0.023131	0.0529893	-0.9694461	105.171	4.78	-242.606	B5-03822-P02-CH0	2076120	OK	0.7046597	0.5059282	-0.4974851	0	-77.476	-99.97	4.892	B5-03822-P02-CH1	2076120	OK	0.6441109	-0.0590966	-0.7626459	0	-70.011	-75.387	2.063	B5-03822-P03-CH0	2076120	OK	0.8842512	-0.3913472	-0.2548473	0	-92.69	-63.758	11.862	B5-03822-P03-CH1	2076120	OK	0.8125375	-0.2781244	-0.5122789	0	-99.7	-31.102	6.832	B5-03822-P04-CH0	2076120	OK	0.7140698	-0.2251583	0.6628786	0	-123.502	-42.79	7.473	B5-03822-P04-CH1	2076120	OK	0.7355438	-0.6736941	0.0714955	0	-108.549	-50.201	2.64	NA
0.349722222222222	B5-03822-P01-CH0	2076128	OK	0.2381992	0.0230604	0.0528246	-0.9695045	105.143	4.808	-242.631	B5-03822-P02-CH0	2076128	OK	0.6981842	0.5130317	-0.4993369	0	-76.572	-99.407	4.928	B5-03822-P02-CH1	2076128	OK	0.6457383	-0.0853147	-0.7587776	0	-68.542	-72.591	2.569	B5-03822-P03-CH0	2076128	OK	0.8782303	-0.3924716	-0.2732721	0	-92.709	-62.822	11.028	B5-03822-P03-CH1	2076128	OK	0.8127188	-0.2792633	-0.5113709	0	-99.637	-31.122	6.785	B5-03822-P04-CH0	2076128	OK	0.7141972	-0.2265547	0.6622652	0	-123.819	-42.773	7.396	B5-03822-P04-CH1	2076128	OK	0.7354526	-0.6737583	0.0718273	0	-108.59	-50.185	2.912	NA
0.359714285714286	B5-03822-P01-CH0	2076136	OK	0.2381012	0.0232313	0.0522536	-0.9695554	105.192	4.725	-242.629	B5-03822-P02-CH0	2076136	OK	0.6915373	0.5163577	-0.5051246	0	-74.51	-99.273	4.661	B5-03822-P02-CH1	2076136	OK	0.6545413	-0.1004406	-0.7493246	0	-69.225	-73.936	1.114	B5-03822-P03-CH0	2076136	OK	0.8719838	-0.3988393	-0.283851	0	-92.39	-62.115	10.857	B5-03822-P03-CH1	2076136	OK	0.8134787	-0.2887595	-0.5048469	0	-99.089	-31.502	6.358	B5-03822-P04-CH0	2076136	OK	0.7137647	-0.2288606	0.6619386	0	-123.828	-42.892	7.452	B5-03822-P04-CH1	2076136	OK	0.7349909	-0.6742237	0.0721856	0	-108.742	-50.296	3.254	NA
0.369706349206349	B5-03822-P01-CH0	2076144	OK	0.2380437	0.0232908	0.0522252	-0.9695696	105.196	4.781	-242.625	B5-03822-P02-CH0	2076144	OK	0.6789593	0.5228777	-0.5153768	0	-73.273	-98.33	4.696	B5-03822-P02-CH1	2076144	OK	0.6686048	-0.1198358	-0.7338985	0	-69.255	-73.281	2.174	B5-03822-P03-CH0	2076144	OK	0.8659796	-0.4086514	-0.2882418	0	-91.762	-61.676	11.37	B5-03822-P03-CH1	2076144	OK	0.8135739	-0.2901287	-0.5039076	0	-98.998	-31.333	6.479	B5-03822-P04-CH0	2076144	OK	0.7130749	-0.233699	0.6609909	0	-123.192	-41.908	7.421	B5-03822-P04-CH1	2076144	OK	0.7349251	-0.6743131	0.0720204	0	-108.907	-50.147	3.171	NA
0.379698412698413	B5-03822-P01-CH0	2076152	OK	0.2380159	0.0233138	0.0522227	-0.969576	105.195	4.806	-242.587	B5-03822-P02-CH0	2076152	OK	0.6647906	0.5339266	-0.5224709	0	-71.949	-97.636	4.23	B5-03822-P02-CH1	2076152	OK	0.6841176	-0.1444991	-0.7149147	0	-69.218	-74.039	0.013	B5-03822-P03-CH0	2076152	OK	0.859044	-0.4178673	-0.295686	0	-91.992	-60.982	10.766	B5-03822-P03-CH1	2076152	OK	0.8131147	-0.292347	-0.5033664	0	-99.066	-31.439	5.812	B5-03822-P04-CH0	2076152	OK	0.7147293	-0.2335109	0.6592683	0	-123.983	-42.85	7.798	B5-03822-P04-CH1	2076152	OK	0.7349786	-0.6742836	0.0717507	0	-109.085	-49.995	3.234	NA
0.389690476190476	B5-03822-P01-CH0	2076160	OK	0.2380937	0.0232698	0.0520749	-0.9695659	105.172	4.82	-242.622	B5-03822-P02-CH0	2076160	OK	0.6555744	0.5486147	-0.5188874	0	-70.94	-96.862	4.1	B5-03822-P02-CH1	2076160	OK	0.6932599	-0.1584482	-0.703054	0	-69.934	-73.65	1.741	B5-03822-P03-CH0	2076160	OK	0.8510507	-0.4286566	-0.3032592	0	-91.599	-60.502	9.68	B5-03822-P03-CH1	2076160	OK	0.8129777	-0.2940765	-0.5025796	0	-99.059	-31.535	6.194	B5-03822-P04-CH0	2076160	OK	0.7156695	-0.2342213	0.6579951	0	-124.003	-43.183	9.02	B5-03822-P04-CH1	2076160	OK	0.7349119	-0.6743474	0.0718342	0	-109.165	-49.936	3.744	NA
0.39968253968254	B5-03822-P01-CH0	2076168	OK	0.2383337	0.0230493	0.0530227	-0.9694609	105.145	4.87	-242.648	B5-03822-P02-CH0	2076168	OK	0.6548386	0.5574668	-0.5103109	0	-70.251	-96.745	4.264	B5-03822-P02-CH1	2076168	OK	0.6984901	-0.1599466	-0.697516	0	-69.49	-72.346	1.141	B5-03822-P03-CH0	2076168	OK	0.8439868	-0.4370746	-0.310889	0	-90.745	-59.973	10.222	B5-03822-P03-CH1	2076168	OK	0.8125968	-0.2933149	-0.5036396	0	-99.261	-31.474	6.5	B5-03822-P04-CH0	2076168	OK	0.7158575	-0.235387	0.6573743	0	-123.718	-42.86	8.252	B5-03822-P04-CH1	2076168	OK	0.7355407	-0.6736829	0.0716332	0	-109.257	-49.842	3.822	NA
0.409674603174603	B5-03822-P01-CH0	2076176	OK	0.2386682	0.0229099	0.0539309	-0.9693318	105.144	4.902	-242.68	B5-03822-P02-CH0	2076176	OK	0.6591702	0.5586726	-0.5033682	0	-69.544	-96.459	4.118	B5-03822-P02-CH1	2076176	OK	0.7002576	-0.1600219	-0.6957242	0	-69.497	-72.222	0.778	B5-03822-P03-CH0	2076176	OK	0.8382503	-0.4407287	-0.3210834	0	-90.595	-59.206	10.156	B5-03822-P03-CH1	2076176	OK	0.8136459	-0.2937109	-0.5017113	0	-98.575	-31.703	6.931	B5-03822-P04-CH0	2076176	OK	0.7146028	-0.2313619	0.6601624	0	-123.377	-42.212	7.15	B5-03822-P04-CH1	2076176	OK	0.7363613	-0.6728316	0.0712014	0	-109.384	-49.654	3.846	NA
0.419666666666667	B5-03822-P01-CH0	2076184	OK	0.2385954	0.0229992	0.0539966	-0.9693439	105.131	5.005	-242.689	B5-03822-P02-CH0	2076184	OK	0.6649271	0.5585852	-0.4958371	0	-70.359	-95.503	3.974	B5-03822-P02-CH1	2076184	OK	0.7019798	-0.1588729	-0.6942505	0	-69.254	-72.453	0.61	B5-03822-P03-CH0	2076184	OK	0.832939	-0.4454029	-0.3283731	0	-90.05	-58.71	9.176	B5-03822-P03-CH1	2076184	OK	0.8129349	-0.2936654	-0.5028892	0	-98.798	-31.637	7.042	B5-03822-P04-CH0	2076184	OK	0.7148999	-0.2322723	0.6595208	0	-123.486	-42.271	7.587	B5-03822-P04-CH1	2076184	OK	0.7365587	-0.6727064	0.0703374	0	-109.596	-49.358	4.242	NA
0.42965873015873	B5-03822-P01-CH0	2076192	OK	0.2382919	0.0231394	0.0535836	-0.9694381	105.1	4.976	-242.527	B5-03822-P02-CH0	2076192	OK	0.6762973	0.5537173	-0.485818	0	-70.839	-95.467	3.94	B5-03822-P02-CH1	2076192	OK	0.7033879	-0.1543111	-0.6938541	0	-69.463	-72.326	0.087	B5-03822-P03-CH0	2076192	OK	0.8273999	-0.4486558	-0.3378126	0	-89.63	-58.345	9.032	B5-03822-P03-CH1	2076192	OK	0.8132562	-0.2910459	-0.5038914	0	-99.02	-31.405	6.467	B5-03822-P04-CH0	2076192	OK	0.7149738	-0.233428	0.6590325	0	-123.517	-42.293	7.603	B5-03822-P04-CH1	2076192	OK	0.7363394	-0.6730329	0.0695056	0	-109.712	-49.203	4.344	NA
0.439650793650794	B5-03822-P01-CH0	2076200	OK	0.2383033	0.0234065	0.053405	-0.9694388	105.165	4.927	-242.458	B5-03822-P02-CH0	2076200	OK	0.6884917	0.5455919	-0.4778166	0	-71.528	-95.046	3.31	B5-03822-P02-CH1	2076200	OK	0.7048807	-0.1498482	-0.6933171	0	-69.83	-72.261	0.529	B5-03822-P03-CH0	2076200	OK	0.822373	-0.4489459	-0.3495	0	-89.126	-58.115	8.507	B5-03822-P03-CH1	2076200	OK	0.8129662	-0.2918228	-0.5039102	0	-99.05	-31.447	6.506	B5-03822-P04-CH0	2076200	OK	0.7152545	-0.2340656	0.6585016	0	-123.586	-42.377	7.699	B5-03822-P04-CH1	2076200	OK	0.7363411	-0.6731021	0.0688141	0	-109.817	-49.121	4.356	NA
0.449642857142857	B5-03822-P01-CH0	2076208	OK	0.238536	0.0235855	0.0533385	-0.9693809	105.211	4.905	-242.44	B5-03822-P02-CH0	2076208	OK	0.7002118	0.535627	-0.4720245	0	-72.518	-95.104	3.613	B5-03822-P02-CH1	2076208	OK	0.7048335	-0.1447198	-0.6944537	0	-70.253	-72.492	1.348	B5-03822-P03-CH0	2076208	OK	0.8202645	-0.4448743	-0.3595177	0	-89.172	-57.938	8.981	B5-03822-P03-CH1	2076208	OK	0.8128664	-0.2924568	-0.5037035	0	-99.039	-31.473	6.565	B5-03822-P04-CH0	2076208	OK	0.7154312	-0.2339906	0.6583363	0	-123.563	-42.512	7.957	B5-03822-P04-CH1	2076208	OK	0.7364463	-0.6730411	0.0682831	0	-109.871	-49.039	4.366	NA
0.459634920634921	B5-03822-P01-CH0	2076216	OK	0.2386377	0.0235534	0.0534858	-0.9693485	105.179	4.919	-242.366	B5-03822-P02-CH0	2076216	OK	0.7094339	0.5272282	-0.46769	0	-73.114	-95.107	3.502	B5-03822-P02-CH1	2076216	OK	0.7036457	-0.1439948	-0.6958076	0	-69.371	-72.315	0.776	B5-03822-P03-CH0	2076216	OK	0.8212448	-0.438584	-0.3649671	0	-89.406	-57.905	9.185	B5-03822-P03-CH1	2076216	OK	0.8128869	-0.2926709	-0.5035461	0	-98.989	-31.446	6.498	B5-03822-P04-CH0	2076216	OK	0.7156321	-0.2335294	0.6582816	0	-123.635	-42.581	7.887	B5-03822-P04-CH1	2076216	OK	0.7365418	-0.6729635	0.0680165	0	-109.785	-49.009	4.069	NA
0.469626984126984	B5-03822-P01-CH0	2076224	OK	0.2386346	0.0234131	0.0534656	-0.9693538	105.134	4.825	-242.327	B5-03822-P02-CH0	2076224	OK	0.7149531	0.5199754	-0.4674053	0	-73.309	-94.791	3.613	B5-03822-P02-CH1	2076224	OK	0.69789	-0.1456684	-0.7012348	0	-70.176	-72.826	1.402	B5-03822-P03-CH0	2076224	OK	0.8237894	-0.4296706	-0.3698028	0	-89.063	-58.172	9.267	B5-03822-P03-CH1	2076224	OK	0.8129208	-0.2926969	-0.5034762	0	-98.884	-31.512	6.51	B5-03822-P04-CH0	2076224	OK	0.7156738	-0.2330128	0.6584194	0	-123.643	-42.651	7.882	B5-03822-P04-CH1	2076224	OK	0.7365812	-0.6729412	0.0678103	0	-109.676	-49.065	4.143	NA
0.479619047619048	B5-03822-P01-CH0	2076232	OK	0.2387698	0.0232587	0.0535945	-0.9693171	105.093	4.815	-242.367	B5-03822-P02-CH0	2076232	OK	0.7160572	0.5142019	-0.4720789	0	-74.359	-94.968	3.662	B5-03822-P02-CH1	2076232	OK	0.6930733	-0.1443971	-0.706257	0	-69.256	-73.426	0.4	B5-03822-P03-CH0	2076232	OK	0.8251269	-0.4146298	-0.3837287	0	-89.918	-58.438	9.426	B5-03822-P03-CH1	2076232	OK	0.8129655	-0.2925018	-0.5035174	0	-98.845	-31.508	6.681	B5-03822-P04-CH0	2076232	OK	0.7152895	-0.2323351	0.6590761	0	-123.529	-42.623	7.654	B5-03822-P04-CH1	2076232	OK	0.7368416	-0.6726752	0.0676209	0	-109.459	-48.967	4.069	NA
0.489611111111111	B5-03822-P01-CH0	2076240	OK	0.2387848	0.0233182	0.0537205	-0.969305	105.09	4.848	-242.292	B5-03822-P02-CH0	2076240	OK	0.7163505	0.5049027	-0.4815758	0	-73.936	-96.27	3.747	B5-03822-P02-CH1	2076240	OK	0.6837911	-0.1352095	-0.7170412	0	-68.564	-72.143	-1.3	B5-03822-P03-CH0	2076240	OK	0.8271639	-0.3901056	-0.4044965	0	-89.993	-58.599	9.178	B5-03822-P03-CH1	2076240	OK	0.8129085	-0.2922337	-0.5037651	0	-98.886	-31.421	6.632	B5-03822-P04-CH0	2076240	OK	0.7150009	-0.231365	0.6597302	0	-123.493	-42.519	7.401	B5-03822-P04-CH1	2076240	OK	0.7369752	-0.6725567	0.0673429	0	-109.344	-48.911	3.884	NA
0.499603174603175	B5-03822-P01-CH0	2076248	OK	0.2388049	0.0235566	0.0534405	-0.9693098	105.135	4.811	-242.193	B5-03822-P02-CH0	2076248	OK	0.7095329	0.4922268	-0.5042577	0	-73.439	-97.265	3.974	B5-03822-P02-CH1	2076248	OK	0.6837119	-0.1076112	-0.7217741	0	-69.789	-76.142	1.809	B5-03822-P03-CH0	2076248	OK	0.828416	-0.3562668	-0.4322047	0	-90.55	-59.067	9.086	B5-03822-P03-CH1	2076248	OK	0.8128095	-0.2924326	-0.5038094	0	-98.856	-31.476	6.541	B5-03822-P04-CH0	2076248	OK	0.712507	-0.2242976	0.6648491	0	-123.137	-41.851	6.87	B5-03822-P04-CH1	2076248	OK	0.7366334	-0.6729258	0.067395	0	-109.124	-49.046	3.649	NA
0.509595238095238	B5-03822-P01-CH0	2076256	OK	0.2388227	0.0235311	0.0533221	-0.9693125	105.079	4.767	-242.054	B5-03822-P02-CH0	2076256	OK	0.6940364	0.4736108	-0.5422234	0	-73.052	-97.131	3.654	B5-03822-P02-CH1	2076256	OK	0.6960243	-0.0745628	-0.7141363	0	-71.785	-76.141	0.624	B5-03822-P03-CH0	2076256	OK	0.8290518	-0.3167004	-0.4608406	0	-91.471	-58.999	9.012	B5-03822-P03-CH1	2076256	OK	0.8129495	-0.2919558	-0.50386	0	-98.792	-31.364	6.377	B5-03822-P04-CH0	2076256	OK	0.7127184	-0.2201888	0.665995	0	-123.28	-42.516	7.683	B5-03822-P04-CH1	2076256	OK	0.7364233	-0.6731214	0.0677371	0	-108.871	-49.175	3.405	NA
0.519587301587302	B5-03822-P01-CH0	2076264	OK	0.2387249	0.0237015	0.0529312	-0.9693539	105.085	4.738	-241.93	B5-03822-P02-CH0	2076264	OK	0.6766079	0.4450485	-0.586629	0	-72.17	-96.481	3.595	B5-03822-P02-CH1	2076264	OK	0.7097103	-0.0507794	-0.7026612	0	-73.312	-75.472	2.71	B5-03822-P03-CH0	2076264	OK	0.8285654	-0.2788226	-0.4855279	0	-92.789	-58.513	8.563	B5-03822-P03-CH1	2076264	OK	0.8128503	-0.291511	-0.5042774	0	-98.86	-31.278	6.377	B5-03822-P04-CH0	2076264	OK	0.7122733	-0.2191543	0.6668119	0	-123.066	-42.319	7.482	B5-03822-P04-CH1	2076264	OK	0.7360034	-0.6735716	0.0678256	0	-108.743	-49.284	3.159	NA
0.529579365079365	B5-03822-P01-CH0	2076272	OK	0.2390219	0.0239396	0.0531323	-0.9692638	105.162	4.761	-241.902	B5-03822-P02-CH0	2076272	OK	0.6599323	0.4099653	-0.6296171	0	-72.118	-96.73	3.829	B5-03822-P02-CH1	2076272	OK	0.7219927	-0.0387203	-0.6908164	0	-74.561	-75.383	0.609	B5-03822-P03-CH0	2076272	OK	0.8298979	-0.2419397	-0.5027273	0	-93.104	-57.75	8.775	B5-03822-P03-CH1	2076272	OK	0.812887	-0.2912576	-0.5043647	0	-98.92	-31.353	6.473	B5-03822-P04-CH0	2076272	OK	0.7114163	-0.2193264	0.6676697	0	-122.743	-41.433	6.079	B5-03822-P04-CH1	2076272	OK	0.7360192	-0.6735195	0.0681703	0	-108.586	-49.377	2.748	NA
0.539571428571429	B5-03822-P01-CH0	2076280	OK	0.2389924	0.0238467	0.053151	-0.9692724	105.113	4.801	-241.935	B5-03822-P02-CH0	2076280	OK	0.6515526	0.3691633	-0.6627199	0	-70.506	-97.522	3.383	B5-03822-P02-CH1	2076280	OK	0.7328732	-0.0245671	-0.6799215	0	-77.01	-78.463	1.793	B5-03822-P03-CH0	2076280	OK	0.8293781	-0.1949144	-0.5235842	0	-94.791	-57.039	8.018	B5-03822-P03-CH1	2076280	OK	0.8130486	-0.2906919	-0.5044306	0	-98.925	-31.308	6.467	B5-03822-P04-CH0	2076280	OK	0.7108621	-0.2175258	0.668848	0	-122.885	-42.049	6.097	B5-03822-P04-CH1	2076280	OK	0.7359573	-0.6735621	0.0684177	0	-108.321	-49.348	2.532	NA
0.549563492063492	B5-03822-P01-CH0	2076288	OK	0.2389467	0.023859	0.0530382	-0.9692895	105.103	4.766	-241.887	B5-03822-P02-CH0	2076288	OK	0.6456737	0.3362129	-0.6856138	0	-70.452	-98.071	3.307	B5-03822-P02-CH1	2076288	OK	0.7420762	-0.0092706	-0.6702515	0	-77.674	-78.484	1.545	B5-03822-P03-CH0	2076288	OK	0.8297869	-0.1502209	-0.5374824	0	-95.266	-56.926	7.602	B5-03822-P03-CH1	2076288	OK	0.8132028	-0.2898623	-0.5046593	0	-98.922	-31.28	6.448	B5-03822-P04-CH0	2076288	OK	0.7126569	-0.2216141	0.6655879	0	-123.29	-42.39	6.783	B5-03822-P04-CH1	2076288	OK	0.7358044	-0.6736823	0.0688769	0	-108.131	-49.508	2.588	NA
0.559555555555556	B5-03822-P01-CH0	2076296	OK	0.238907	0.0239155	0.0529946	-0.9693003	105.108	4.82	-241.949	B5-03822-P02-CH0	2076296	OK	0.639997	0.3257851	-0.6958936	0	-72.117	-99.128	4.401	B5-03822-P02-CH1	2076296	OK	0.7458715	0.0070545	-0.6660525	0	-78.421	-79.735	1.099	B5-03822-P03-CH0	2076296	OK	0.8314694	-0.1176482	-0.5429711	0	-95.31	-56.424	8.106	B5-03822-P03-CH1	2076296	OK	0.8134212	-0.2889022	-0.5048578	0	-98.929	-31.189	6.62	B5-03822-P04-CH0	2076296	OK	0.7122345	-0.2203829	0.6664484	0	-123.237	-42.303	6.722	B5-03822-P04-CH1	2076296	OK	0.735703	-0.6737918	0.0688891	0	-108.034	-49.537	2.718	NA
0.569547619047619	B5-03822-P01-CH0	2076304	OK	0.2389307	0.0242551	0.0526934	-0.9693024	105.193	4.814	-241.882	B5-03822-P02-CH0	2076304	OK	0.6400934	0.3239581	-0.6966574	0	-71.801	-100.608	4.936	B5-03822-P02-CH1	2076304	OK	0.7470002	0.0211079	-0.6644887	0	-79.3	-80.631	1.347	B5-03822-P03-CH0	2076304	OK	0.8329281	-0.1045749	-0.5434104	0	-96.049	-56.818	7.478	B5-03822-P03-CH1	2076304	OK	0.8144738	-0.2821044	-0.5070005	0	-98.908	-30.938	6.439	B5-03822-P04-CH0	2076304	OK	0.711873	-0.219074	0.6672656	0	-123.198	-42.332	6.629	B5-03822-P04-CH1	2076304	OK	0.7353789	-0.6741327	0.0690144	0	-107.988	-49.668	2.518	NA
0.579539682539683	B5-03822-P01-CH0	2076312	OK	0.2391114	0.024469	0.0526737	-0.9692536	105.25	4.818	-241.824	B5-03822-P02-CH0	2076312	OK	0.6377108	0.3221902	-0.6996559	0	-72.558	-101.29	4.224	B5-03822-P02-CH1	2076312	OK	0.745575	0.0279812	-0.6658341	0	-80.212	-80.484	2.404	B5-03822-P03-CH0	2076312	OK	0.8361606	-0.101227	-0.5390626	0	-96.323	-56.792	8.228	B5-03822-P03-CH1	2076312	OK	0.8137953	-0.2821037	-0.5080893	0	-99.165	-31.159	7.116	B5-03822-P04-CH0	2076312	OK	0.7116823	-0.2175336	0.6679726	0	-123.194	-42.374	6.539	B5-03822-P04-CH1	2076312	OK	0.7353211	-0.674138	0.0695763	0	-108.083	-49.833	2.539	NA
0.589531746031746	B5-03822-P01-CH0	2076320	OK	0.2393066	0.0245671	0.0528488	-0.9691934	105.27	4.843	-241.78	B5-03822-P02-CH0	2076320	OK	0.637078	0.3229136	-0.6998988	0	-72.719	-102.41	4.095	B5-03822-P02-CH1	2076320	OK	0.7436916	0.0309061	-0.6678081	0	-80.219	-80.849	2.295	B5-03822-P03-CH0	2076320	OK	0.8406807	-0.1064095	-0.5309736	0	-96.568	-57.109	8.487	B5-03822-P03-CH1	2076320	OK	0.8130872	-0.2830564	-0.5086928	0	-99.464	-31.31	6.572	B5-03822-P04-CH0	2076320	OK	0.7115164	-0.2161943	0.6685839	0	-123.184	-42.4	6.456	B5-03822-P04-CH1	2076320	OK	0.7353837	-0.6739843	0.0703988	0	-108.124	-49.994	2.604	NA
0.59952380952381	B5-03822-P01-CH0	2076328	OK	0.239502	0.0244235	0.0533712	-0.9691201	105.218	4.96	-241.736	B5-03822-P02-CH0	2076328	OK	0.6371247	0.3259751	-0.6984357	0	-72.323	-102.515	3.777	B5-03822-P02-CH1	2076328	OK	0.7412148	0.0311645	-0.6705441	0	-79.697	-81.508	2.19	B5-03822-P03-CH0	2076328	OK	0.8464889	-0.1234695	-0.5178917	0	-96.742	-57.666	8.571	B5-03822-P03-CH1	2076328	OK	0.8139456	-0.2852639	-0.5060802	0	-99.052	-31.113	6.66	B5-03822-P04-CH0	2076328	OK	0.7111607	-0.2156706	0.6691312	0	-123.052	-42.176	6.194	B5-03822-P04-CH1	2076328	OK	0.7358399	-0.6734293	0.0709408	0	-108.262	-49.962	2.626	NA
0.609515873015873	B5-03822-P01-CH0	2076336	OK	0.2394147	0.0245044	0.0528445	-0.9691685	105.218	4.986	-241.726	B5-03822-P02-CH0	2076336	OK	0.6354326	0.3365935	-0.6949319	0	-73.11	-102.141	4.579	B5-03822-P02-CH1	2076336	OK	0.7374341	0.0319031	-0.6746652	0	-78.729	-81.541	0.631	B5-03822-P03-CH0	2076336	OK	0.8528972	-0.1504497	-0.4999313	0	-96.726	-58.188	9.625	B5-03822-P03-CH1	2076336	OK	0.8138485	-0.2846239	-0.5065963	0	-99.097	-31.14	6.691	B5-03822-P04-CH0	2076336	OK	0.7106826	-0.215868	0.6695755	0	-122.989	-41.949	6.13	B5-03822-P04-CH1	2076336	OK	0.7355724	-0.6737113	0.0710371	0	-108.351	-49.946	2.725	NA
0.619507936507937	B5-03822-P01-CH0	2076344	OK	0.2396412	0.0243304	0.0530482	-0.9691058	105.203	4.981	-241.735	B5-03822-P02-CH0	2076344	OK	0.6378595	0.352755	-0.6846161	0	-72.954	-103.193	4.329	B5-03822-P02-CH1	2076344	OK	0.730658	0.0314955	-0.6820168	0	-78.955	-82.186	1.817	B5-03822-P03-CH0	2076344	OK	0.8579357	-0.1841612	-0.4796154	0	-96.966	-58.737	9.016	B5-03822-P03-CH1	2076344	OK	0.8140287	-0.283843	-0.5067449	0	-99.068	-31.248	6.674	B5-03822-P04-CH0	2076344	OK	0.7104608	-0.2153183	0.6699877	0	-122.941	-42.011	6.133	B5-03822-P04-CH1	2076344	OK	0.7358603	-0.6733455	0.0715225	0	-108.388	-50.041	2.92	NA
0.6295	B5-03822-P01-CH0	2076352	OK	0.2396711	0.0241989	0.0532382	-0.9690913	105.195	5.07	-241.788	B5-03822-P02-CH0	2076352	OK	0.6392159	0.3743085	-0.6717858	0	-73.978	-104.056	4.859	B5-03822-P02-CH1	2076352	OK	0.7255247	0.0321357	-0.6874455	0	-78.224	-81.092	2.167	B5-03822-P03-CH0	2076352	OK	0.8646621	-0.2148649	-0.4540843	0	-96.427	-59.426	10.342	B5-03822-P03-CH1	2076352	OK	0.8142484	-0.2829433	-0.5068952	0	-99.038	-31.233	6.767	B5-03822-P04-CH0	2076352	OK	0.7101314	-0.2156666	0.6702248	0	-122.882	-41.81	6.182	B5-03822-P04-CH1	2076352	OK	0.7361943	-0.6729542	0.0717674	0	-108.524	-50.03	3.328	NA
0.639492063492064	B5-03822-P01-CH0	2076360	OK	0.2395775	0.0242755	0.052696	-0.9691421	105.222	5.058	-241.705	B5-03822-P02-CH0	2076360	OK	0.6410942	0.393355	-0.6589917	0	-74.706	-104.197	5.177	B5-03822-P02-CH1	2076360	OK	0.722787	0.0318103	-0.6903384	0	-77.575	-81.435	0.957	B5-03822-P03-CH0	2076360	OK	0.8701879	-0.234281	-0.4334575	0	-97.14	-60.538	10.807	B5-03822-P03-CH1	2076360	OK	0.8143588	-0.2821668	-0.5071505	0	-98.961	-31.2	6.885	B5-03822-P04-CH0	2076360	OK	0.7095332	-0.2168784	0.6704673	0	-122.785	-41.589	5.864	B5-03822-P04-CH1	2076360	OK	0.7361255	-0.6730448	0.0716239	0	-108.77	-49.993	3.667	NA
0.649484126984127	B5-03822-P01-CH0	2076368	OK	0.2397275	0.0242628	0.0531388	-0.9690812	105.24	5.188	-241.605	B5-03822-P02-CH0	2076368	OK	0.6441753	0.4065654	-0.6478756	0	-74.681	-104.34	4.73	B5-03822-P02-CH1	2076368	OK	0.7211142	0.0357363	-0.6918939	0	-77.37	-81.841	1.187	B5-03822-P03-CH0	2076368	OK	0.874639	-0.2402289	-0.4210662	0	-97.929	-61.223	10.541	B5-03822-P03-CH1	2076368	OK	0.81427	-0.2814922	-0.5076677	0	-99.076	-31.192	6.884	B5-03822-P04-CH0	2076368	OK	0.7092862	-0.2180531	0.6703476	0	-122.737	-41.281	5.642	B5-03822-P04-CH1	2076368	OK	0.7366181	-0.6725012	0.0716653	0	-109.016	-49.89	3.687	NA
0.659476190476191	B5-03822-P01-CH0	2076376	OK	0.2396407	0.0243602	0.0526408	-0.9691274	105.28	5.177	-241.53	B5-03822-P02-CH0	2076376	OK	0.6474838	0.4215028	-0.6349017	0	-75.489	-105.177	4.394	B5-03822-P02-CH1	2076376	OK	0.7199749	0.0416359	-0.69275	0	-77.625	-83.274	1.319	B5-03822-P03-CH0	2076376	OK	0.8783636	-0.244079	-0.410978	0	-97.242	-61.979	10.919	B5-03822-P03-CH1	2076376	OK	0.8139738	-0.2809598	-0.5084371	0	-99.168	-31.25	6.821	B5-03822-P04-CH0	2076376	OK	0.708129	-0.2263139	0.6688313	0	-122.791	-41.738	6.474	B5-03822-P04-CH1	2076376	OK	0.7365265	-0.6726219	0.0714739	0	-109.244	-49.858	3.874	NA
0.669468253968254	B5-03822-P01-CH0	2076384	OK	0.2395558	0.0243258	0.0521576	-0.9691754	105.26	5.22	-241.462	B5-03822-P02-CH0	2076384	OK	0.649831	0.4363554	-0.6223453	0	-76.118	-105.181	4.465	B5-03822-P02-CH1	2076384	OK	0.7178378	0.0480701	-0.6945489	0	-77.82	-82.778	2.562	B5-03822-P03-CH0	2076384	OK	0.8794164	-0.2451939	-0.4080524	0	-96.947	-62.361	10.899	B5-03822-P03-CH1	2076384	OK	0.8138442	-0.2802598	-0.5090306	0	-99.24	-31.174	6.772	B5-03822-P04-CH0	2076384	OK	0.7076187	-0.2311812	0.6677058	0	-122.487	-41.039	5.849	B5-03822-P04-CH1	2076384	OK	0.7363537	-0.6728235	0.0713568	0	-109.284	-49.811	4.157	NA
0.679460317460318	B5-03822-P01-CH0	2076392	OK	0.2392568	0.0243962	0.051392	-0.9692883	105.267	5.246	-241.398	B5-03822-P02-CH0	2076392	OK	0.6528361	0.4509833	-0.6086206	0	-76.55	-105.356	5.194	B5-03822-P02-CH1	2076392	OK	0.7155675	0.0571415	-0.6962026	0	-77.407	-82.763	1.75	B5-03822-P03-CH0	2076392	OK	0.879891	-0.243596	-0.4079862	0	-96.383	-62.38	11.515	B5-03822-P03-CH1	2076392	OK	0.8137319	-0.279302	-0.509736	0	-99.299	-31.069	6.68	B5-03822-P04-CH0	2076392	OK	0.707268	-0.2383123	0.6655668	0	-122.207	-40.812	6.394	B5-03822-P04-CH1	2076392	OK	0.7359163	-0.6733942	0.0704808	0	-109.268	-49.708	4.338	NA
0.689452380952381	B5-03822-P01-CH0	2076400	OK	0.2390761	0.0244324	0.050871	-0.9693595	105.288	5.254	-241.313	B5-03822-P02-CH0	2076400	OK	0.6544949	0.4636858	-0.5971866	0	-77.259	-104.833	4.532	B5-03822-P02-CH1	2076400	OK	0.7140618	0.0678108	-0.6967909	0	-77.249	-83.432	0.83	B5-03822-P03-CH0	2076400	OK	0.8786634	-0.2376011	-0.4141211	0	-96.148	-62.137	11.481	B5-03822-P03-CH1	2076400	OK	0.813868	-0.2782953	-0.5100692	0	-99.313	-30.969	6.582	B5-03822-P04-CH0	2076400	OK	0.7066628	-0.2458321	0.6634714	0	-121.83	-41.364	7.699	B5-03822-P04-CH1	2076400	OK	0.7355848	-0.6738725	0.0693601	0	-109.174	-49.588	3.943	NA
0.699444444444445	B5-03822-P01-CH0	2076408	OK	0.2389828	0.0244215	0.0502011	-0.9694177	105.282	5.249	-241.31	B5-03822-P02-CH0	2076408	OK	0.6586429	0.472064	-0.5859566	0	-77.673	-104.733	4.892	B5-03822-P02-CH1	2076408	OK	0.7134881	0.0777783	-0.6963371	0	-76.94	-82.994	1.121	B5-03822-P03-CH0	2076408	OK	0.8751646	-0.2335868	-0.4237028	0	-96.03	-62.361	10.731	B5-03822-P03-CH1	2076408	OK	0.8138028	-0.2776645	-0.5105168	0	-99.426	-30.914	6.558	B5-03822-P04-CH0	2076408	OK	0.7064056	-0.2554376	0.6601082	0	-121.809	-40.829	7.528	B5-03822-P04-CH1	2076408	OK	0.7352496	-0.6743291	0.0684716	0	-109.005	-49.472	4.018	NA
0.709436507936508	B5-03822-P01-CH0	2076416	OK	0.2390758	0.0243451	0.0504981	-0.9693813	105.29	5.367	-241.333	B5-03822-P02-CH0	2076416	OK	0.6646975	0.4760777	-0.575784	0	-77.835	-104.752	4.687	B5-03822-P02-CH1	2076416	OK	0.7110383	0.0927972	-0.6970031	0	-77.236	-82.822	1.507	B5-03822-P03-CH0	2076416	OK	0.8701237	-0.2262017	-0.4378555	0	-96.023	-62.221	10.218	B5-03822-P03-CH1	2076416	OK	0.8140106	-0.2769107	-0.510595	0	-99.576	-30.799	6.575	B5-03822-P04-CH0	2076416	OK	0.7047179	-0.2654441	0.6579605	0	-121.225	-39.774	5.923	B5-03822-P04-CH1	2076416	OK	0.7354678	-0.6741683	0.0677065	0	-108.998	-49.411	4.326	NA
0.719428571428572	B5-03822-P01-CH0	2076424	OK	0.2387022	0.0244894	0.0499532	-0.9694979	105.324	5.39	-241.346	B5-03822-P02-CH0	2076424	OK	0.6723919	0.4783256	-0.5648838	0	-78.221	-105.297	5.301	B5-03822-P02-CH1	2076424	OK	0.7094741	0.1081894	-0.6963775	0	-77.846	-82.974	1.424	B5-03822-P03-CH0	2076424	OK	0.8637679	-0.2159793	-0.4552559	0	-95.397	-61.252	10.119	B5-03822-P03-CH1	2076424	OK	0.8141175	-0.2763772	-0.5107135	0	-99.664	-30.676	6.549	B5-03822-P04-CH0	2076424	OK	0.7037596	-0.2709377	0.6567459	0	-120.804	-39.538	7.231	B5-03822-P04-CH1	2076424	OK	0.7350132	-0.6748064	0.0662716	0	-108.855	-49.349	4.489	NA
0.729420634920635	B5-03822-P01-CH0	2076432	OK	0.2385914	0.0245147	0.0495145	-0.9695471	105.349	5.307	-241.306	B5-03822-P02-CH0	2076432	OK	0.6781173	0.4766771	-0.5594068	0	-78.183	-104.512	5.111	B5-03822-P02-CH1	2076432	OK	0.711728	0.1165762	-0.6927144	0	-77.724	-82.547	1.813	B5-03822-P03-CH0	2076432	OK	0.8570896	-0.207163	-0.4716789	0	-94.481	-60.814	10.294	B5-03822-P03-CH1	2076432	OK	0.8142004	-0.2759407	-0.5108174	0	-99.776	-30.631	6.541	B5-03822-P04-CH0	2076432	OK	0.7029936	-0.2728248	0.656785	0	-120.883	-39.636	6.595	B5-03822-P04-CH1	2076432	OK	0.7345792	-0.6754215	0.0648019	0	-108.692	-49.351	4.239	NA
0.739412698412699	B5-03822-P01-CH0	2076440	OK	0.2386503	0.0244469	0.049501	-0.969535	105.324	5.336	-241.283	B5-03822-P02-CH0	2076440	OK	0.6848105	0.471187	-0.5558934	0	-77.89	-104.154	5.039	B5-03822-P02-CH1	2076440	OK	0.714532	0.123693	-0.6885812	0	-77.662	-81.696	1.595	B5-03822-P03-CH0	2076440	OK	0.8502161	-0.1972672	-0.488076	0	-93.884	-60.298	10.132	B5-03822-P03-CH1	2076440	OK	0.8143899	-0.2755716	-0.5107145	0	-99.839	-30.576	6.506	B5-03822-P04-CH0	2076440	OK	0.7019409	-0.2725286	0.6580327	0	-120.555	-39.333	6.862	B5-03822-P04-CH1	2076440	OK	0.7343785	-0.6757333	0.0638181	0	-108.422	-49.372	4.174	NA
0.749404761904762	B5-03822-P01-CH0	2076448	OK	0.2384777	0.0244307	0.0488986	-0.9696084	105.303	5.305	-241.317	B5-03822-P02-CH0	2076448	OK	0.6894715	0.465311	-0.5550808	0	-78.042	-103.237	4.249	B5-03822-P02-CH1	2076448	OK	0.7154068	0.1300718	-0.6864943	0	-78.257	-81.583	2.485	B5-03822-P03-CH0	2076448	OK	0.8441702	-0.1889873	-0.5016576	0	-93.726	-59.518	9.909	B5-03822-P03-CH1	2076448	OK	0.8146159	-0.2749976	-0.5106635	0	-99.846	-30.423	6.475	B5-03822-P04-CH0	2076448	OK	0.7015953	-0.2700166	0.6594354	0	-120.65	-39.248	7.904	B5-03822-P04-CH1	2076448	OK	0.7337668	-0.6765179	0.0625281	0	-108.108	-49.362	4.22	NA
0.759396825396826	B5-03822-P01-CH0	2076456	OK	0.2385038	0.024282	0.0489577	-0.9696027	105.253	5.328	-241.332	B5-03822-P02-CH0	2076456	OK	0.6942693	0.459399	-0.5540241	0	-77.942	-102.45	4.64	B5-03822-P02-CH1	2076456	OK	0.7167989	0.1336916	-0.6843434	0	-78.384	-80.584	2.229	B5-03822-P03-CH0	2076456	OK	0.8396965	-0.1846568	-0.5106972	0	-92.842	-59.091	9.605	B5-03822-P03-CH1	2076456	OK	0.8150227	-0.2742911	-0.5103943	0	-99.843	-30.253	6.472	B5-03822-P04-CH0	2076456	OK	0.7009896	-0.2649478	0.66213	0	-120.869	-39.666	7.711	B5-03822-P04-CH1	2076456	OK	0.7337993	-0.6766079	0.061158	0	-107.849	-49.187	4.186	NA
0.769388888888889	B5-03822-P01-CH0	2076464	OK	0.2386793	0.0244656	0.049117	-0.9695469	105.342	5.384	-241.359	B5-03822-P02-CH0	2076464	OK	0.7003725	0.4536217	-0.551095	0	-77.917	-102.456	4.922	B5-03822-P02-CH1	2076464	OK	0.7224302	0.1361804	-0.6779008	0	-77.098	-80.133	0.44	B5-03822-P03-CH0	2076464	OK	0.8338367	-0.1802025	-0.5217695	0	-93.057	-59.587	10.944	B5-03822-P03-CH1	2076464	OK	0.8152245	-0.273985	-0.5102365	0	-99.926	-30.232	6.531	B5-03822-P04-CH0	2076464	OK	0.7007814	-0.2620956	0.6634842	0	-120.729	-39.172	7.693	B5-03822-P04-CH1	2076464	OK	0.7340224	-0.6764864	0.0598098	0	-107.892	-48.996	4.131	NA
0.779380952380953	B5-03822-P01-CH0	2076472	OK	0.2389779	0.0241702	0.0500297	-0.9694341	105.275	5.458	-241.387	B5-03822-P02-CH0	2076472	OK	0.7071527	0.4465402	-0.5482124	0	-77.362	-102.208	4.634	B5-03822-P02-CH1	2076472	OK	0.7262233	0.1374646	-0.673575	0	-77.901	-80.757	0.8	B5-03822-P03-CH0	2076472	OK	0.8296852	-0.1711756	-0.5313393	0	-92.435	-58.508	9.22	B5-03822-P03-CH1	2076472	OK	0.8157518	-0.2735545	-0.5096243	0	-99.896	-30.143	6.601	B5-03822-P04-CH0	2076472	OK	0.7012817	-0.2569078	0.664983	0	-121.032	-39.817	7.805	B5-03822-P04-CH1	2076472	OK	0.7346651	-0.6758606	0.0589888	0	-107.744	-48.872	4.07	NA
0.789373015873016	B5-03822-P01-CH0	2076480	OK	0.2390024	0.0241403	0.0502683	-0.9694164	105.278	5.458	-241.437	B5-03822-P02-CH0	2076480	OK	0.7129452	0.4405946	-0.545514	0	-77.047	-101.87	4.309	B5-03822-P02-CH1	2076480	OK	0.7288877	0.13672	-0.670843	0	-78.564	-79.437	1.76	B5-03822-P03-CH0	2076480	OK	0.8249978	-0.1638639	-0.5408579	0	-91.786	-57.624	8.151	B5-03822-P03-CH1	2076480	OK	0.815734	-0.2735352	-0.5096632	0	-100.024	-30.112	6.705	B5-03822-P04-CH0	2076480	OK	0.7015227	-0.2532834	0.6661182	0	-121.45	-40.431	7.998	B5-03822-P04-CH1	2076480	OK	0.7351404	-0.6754425	0.0578453	0	-107.87	-48.671	4.586	NA
0.79936507936508	B5-03822-P01-CH0	2076488	OK	0.2389894	0.0241397	0.0505029	-0.9694074	105.282	5.452	-241.436	B5-03822-P02-CH0	2076488	OK	0.7167143	0.4353937	-0.5447504	0	-76.982	-101.383	4.129	B5-03822-P02-CH1	2076488	OK	0.7338615	0.1374381	-0.6652504	0	-77.599	-78.729	0.586	B5-03822-P03-CH0	2076488	OK	0.8211946	-0.1597361	-0.5478356	0	-91.944	-57.38	7.892	B5-03822-P03-CH1	2076488	OK	0.8158597	-0.2736969	-0.509375	0	-99.993	-30.082	6.81	B5-03822-P04-CH0	2076488	OK	0.7009502	-0.2538935	0.6664884	0	-121.354	-39.997	7.315	B5-03822-P04-CH1	2076488	OK	0.735414	-0.6752491	0.0566123	0	-107.976	-48.546	4.828	NA
0.809357142857143	B5-03822-P01-CH0	2076496	OK	0.238974	0.0241449	0.0505494	-0.9694087	105.283	5.424	-241.461	B5-03822-P02-CH0	2076496	OK	0.7208238	0.4268747	-0.5460688	0	-76.307	-101.204	3.424	B5-03822-P02-CH1	2076496	OK	0.7353471	0.139819	-0.6631104	0	-78.188	-78.023	0.972	B5-03822-P03-CH0	2076496	OK	0.820384	-0.1569516	-0.5498512	0	-91.72	-56.821	8.586	B5-03822-P03-CH1	2076496	OK	0.8158468	-0.2745063	-0.50896	0	-99.957	-30.083	6.745	B5-03822-P04-CH0	2076496	OK	0.7017244	-0.251089	0.6667363	0	-121.901	-40.682	7.543	B5-03822-P04-CH1	2076496	OK	0.7355657	-0.6751747	0.0555174	0	-107.928	-48.356	4.605	NA
0.819349206349206	B5-03822-P01-CH0	2076504	OK	0.2393314	0.0240847	0.0512973	-0.9692827	105.292	5.48	-241.487	B5-03822-P02-CH0	2076504	OK	0.7224677	0.4153653	-0.5527315	0	-75.853	-100.568	3.178	B5-03822-P02-CH1	2076504	OK	0.7371531	0.140229	-0.6610152	0	-79.136	-78.928	1.877	B5-03822-P03-CH0	2076504	OK	0.819624	-0.1571313	-0.5509322	0	-91.855	-56.912	8.495	B5-03822-P03-CH1	2076504	OK	0.8156101	-0.2866791	-0.5025885	0	-99.801	-30.259	6.237	B5-03822-P04-CH0	2076504	OK	0.7024692	-0.2483039	0.6669949	0	-122.209	-41.076	8.394	B5-03822-P04-CH1	2076504	OK	0.7363875	-0.6743165	0.0550518	0	-107.999	-48.13	4.535	NA
0.82934126984127	B5-03822-P01-CH0	2076512	OK	0.2393518	0.0240099	0.0515546	-0.9692659	105.248	5.551	-241.517	B5-03822-P02-CH0	2076512	OK	0.7246285	0.4003149	-0.5609469	0	-75.504	-100.57	3.168	B5-03822-P02-CH1	2076512	OK	0.7402099	0.1412878	-0.6573638	0	-79.226	-78.149	1.656	B5-03822-P03-CH0	2076512	OK	0.8191029	-0.1549636	-0.5523194	0	-92.222	-56.885	8.617	B5-03822-P03-CH1	2076512	OK	0.8153212	-0.2920826	-0.4999391	0	-100.047	-30.255	6.599	B5-03822-P04-CH0	2076512	OK	0.7024074	-0.2470409	0.6675287	0	-122.439	-41.59	7.627	B5-03822-P04-CH1	2076512	OK	0.7368097	-0.673876	0.0547962	0	-107.97	-47.924	4.9	NA
0.839333333333333	B5-03822-P01-CH0	2076520	OK	0.2395067	0.0239993	0.0522743	-0.9691893	105.256	5.591	-241.528	B5-03822-P02-CH0	2076520	OK	0.7242636	0.3835588	-0.5729964	0	-75.492	-99.439	3.202	B5-03822-P02-CH1	2076520	OK	0.7427461	0.1406491	-0.6546343	0	-80.239	-78.99	1.936	B5-03822-P03-CH0	2076520	OK	0.8195987	-0.1511765	-0.5526333	0	-92.138	-57.014	8.337	B5-03822-P03-CH1	2076520	OK	0.816081	-0.2973907	-0.4955508	0	-99.678	-30.536	6.62	B5-03822-P04-CH0	2076520	OK	0.70239	-0.2455373	0.6681016	0	-122.297	-41.293	7.934	B5-03822-P04-CH1	2076520	OK	0.7374907	-0.6731519	0.0545346	0	-108.065	-47.772	4.844	NA
0.849325396825397	B5-03822-P01-CH0	2076528	OK	0.2395494	0.0240444	0.0523479	-0.9691737	105.265	5.593	-241.566	B5-03822-P02-CH0	2076528	OK	0.7256495	0.3634949	-0.5842126	0	-74.819	-98.497	3.32	B5-03822-P02-CH1	2076528	OK	0.7485549	0.1406854	-0.6479762	0	-79.568	-78.188	0.832	B5-03822-P03-CH0	2076528	OK	0.8203192	-0.147575	-0.5525379	0	-92.311	-57.152	8.516	B5-03822-P03-CH1	2076528	OK	0.8159529	-0.3002536	-0.4940331	0	-99.511	-30.595	6.526	B5-03822-P04-CH0	2076528	OK	0.7016696	-0.2432086	0.6697084	0	-122.117	-41.23	8.03	B5-03822-P04-CH1	2076528	OK	0.7377197	-0.6729364	0.054095	0	-108.189	-47.652	4.904	NA
0.85931746031746	B5-03822-P01-CH0	2076536	OK	0.2394816	0.0241744	0.0522308	-0.9691935	105.26	5.595	-241.535	B5-03822-P02-CH0	2076536	OK	0.7276161	0.3421604	-0.5945595	0	-74.153	-98.405	3.047	B5-03822-P02-CH1	2076536	OK	0.7539626	0.1368425	-0.6425065	0	-79.548	-78.038	1.843	B5-03822-P03-CH0	2076536	OK	0.8213363	-0.143522	-0.5520944	0	-92.455	-57.094	8.027	B5-03822-P03-CH1	2076536	OK	0.8160696	-0.2997648	-0.4941371	0	-99.049	-30.717	7.273	B5-03822-P04-CH0	2076536	OK	0.7024953	-0.2351155	0.6717298	0	-123.035	-42.216	8.89	B5-03822-P04-CH1	2076536	OK	0.7377122	-0.6729478	0.0540554	0	-108.202	-47.604	5.019	NA
0.869309523809524	B5-03822-P01-CH0	2076544	OK	0.2392502	0.0238193	0.0523738	-0.9692517	105.102	5.534	-241.539	B5-03822-P02-CH0	2076544	OK	0.7281545	0.3233969	-0.6043224	0	-73.332	-97.38	2.854	B5-03822-P02-CH1	2076544	OK	0.7585975	0.1351944	-0.6373792	0	-79.871	-78.522	1.256	B5-03822-P03-CH0	2076544	OK	0.8234731	-0.1396856	-0.5498909	0	-92.256	-56.675	8.691	B5-03822-P03-CH1	2076544	OK	0.815666	-0.2962706	-0.4969031	0	-99.537	-30.127	6.662	B5-03822-P04-CH0	2076544	OK	0.7030056	-0.2284694	0.6734871	0	-123.169	-41.923	8.688	B5-03822-P04-CH1	2076544	OK	0.7378989	-0.6727559	0.0538944	0	-108.047	-47.544	5.182	NA
0.879301587301587	B5-03822-P01-CH0	2076552	OK	0.2392137	0.0238834	0.0524731	-0.9692538	105.094	5.528	-241.492	B5-03822-P02-CH0	2076552	OK	0.7291319	0.3073111	-0.6114953	0	-72.466	-97.031	2.297	B5-03822-P02-CH1	2076552	OK	0.762018	0.1318578	-0.633989	0	-80.199	-78.331	0.743	B5-03822-P03-CH0	2076552	OK	0.8246388	-0.1389229	-0.548335	0	-92.206	-56.484	8.19	B5-03822-P03-CH1	2076552	OK	0.815694	-0.2970045	-0.4964189	0	-99.258	-30.256	7.241	B5-03822-P04-CH0	2076552	OK	0.7036214	-0.2272147	0.6732684	0	-123.24	-41.431	8.15	B5-03822-P04-CH1	2076552	OK	0.7380194	-0.6726156	0.0539956	0	-108.091	-47.528	5.314	NA
0.889293650793651	B5-03822-P01-CH0	2076560	OK	0.2390626	0.0240069	0.0519461	-0.9693164	105.086	5.501	-241.463	B5-03822-P02-CH0	2076560	OK	0.729842	0.2949996	-0.6166895	0	-72.488	-97.111	2.721	B5-03822-P02-CH1	2076560	OK	0.7646247	0.1294379	-0.6313438	0	-80.761	-77.533	1.825	B5-03822-P03-CH0	2076560	OK	0.8253865	-0.1413439	-0.5465885	0	-91.912	-56.499	8.502	B5-03822-P03-CH1	2076560	OK	0.8155113	-0.2982108	-0.4959956	0	-98.959	-30.265	7.291	B5-03822-P04-CH0	2076560	OK	0.7045952	-0.2240757	0.6733021	0	-123.514	-42.203	9.274	B5-03822-P04-CH1	2076560	OK	0.7376368	-0.6730595	0.0536924	0	-108.053	-47.468	5.196	NA
0.899285714285714	B5-03822-P01-CH0	2076568	OK	0.2389076	0.0239123	0.0515672	-0.9693772	105.047	5.455	-241.471	B5-03822-P02-CH0	2076568	OK	0.7295645	0.2864393	-0.621038	0	-72.235	-96.541	2.112	B5-03822-P02-CH1	2076568	OK	0.7675587	0.1275575	-0.6281582	0	-80.721	-76.815	2.083	B5-03822-P03-CH0	2076568	OK	0.825226	-0.1452128	-0.5458161	0	-91.985	-56.801	9.264	B5-03822-P03-CH1	2076568	OK	0.815315	-0.2986891	-0.4960305	0	-98.793	-30.07	7.175	B5-03822-P04-CH0	2076568	OK	0.7049117	-0.2244643	0.6728412	0	-123.208	-42.252	9.118	B5-03822-P04-CH1	2076568	OK	0.7374664	-0.6732507	0.0536359	0	-108.016	-47.395	5.251	NA
0.909277777777778	B5-03822-P01-CH0	2076576	OK	0.2389623	0.0239812	0.0513274	-0.9693748	105.076	5.433	-241.443	B5-03822-P02-CH0	2076576	OK	0.7288944	0.2803389	-0.6245984	0	-71.814	-96.065	1.358	B5-03822-P02-CH1	2076576	OK	0.7683919	0.1234059	-0.6279688	0	-81.198	-77.276	2.9	B5-03822-P03-CH0	2076576	OK	0.825799	-0.1499784	-0.5436566	0	-91.641	-56.581	9.155	B5-03822-P03-CH1	2076576	OK	0.8146015	-0.2996812	-0.496604	0	-98.829	-30.265	7.005	B5-03822-P04-CH0	2076576	OK	0.7044915	-0.2245894	0.6732395	0	-122.724	-41.668	8.324	B5-03822-P04-CH1	2076576	OK	0.7373408	-0.6733604	0.053984	0	-108.071	-47.408	5.432	NA
0.919269841269841	B5-03822-P01-CH0	2076584	OK	0.2390382	0.0239401	0.0511733	-0.9693652	105.109	5.391	-241.471	B5-03822-P02-CH0	2076584	OK	0.7270872	0.2768416	-0.6282538	0	-72.115	-95.521	2.757	B5-03822-P02-CH1	2076584	OK	0.7693021	0.1214837	-0.6272288	0	-80.645	-77.106	2.016	B5-03822-P03-CH0	2076584	OK	0.8261325	-0.1563035	-0.5413634	0	-91.59	-56.39	9.287	B5-03822-P03-CH1	2076584	OK	0.8152224	-0.2983402	-0.4963926	0	-99.11	-30.438	7.157	B5-03822-P04-CH0	2076584	OK	0.7050111	-0.2219645	0.673566	0	-123.041	-42.111	8.593	B5-03822-P04-CH1	2076584	OK	0.7372662	-0.6734218	0.0542376	0	-108.048	-47.419	5.477	NA
0.929261904761905	B5-03822-P01-CH0	2076592	OK	0.2392459	0.0240009	0.051132	-0.9693146	105.175	5.384	-241.494	B5-03822-P02-CH0	2076592	OK	0.7263772	0.2757975	-0.6295331	0	-71.972	-95.326	2.307	B5-03822-P02-CH1	2076592	OK	0.7695527	0.1166104	-0.6278461	0	-80.21	-78.845	-0.085	B5-03822-P03-CH0	2076592	OK	0.8259251	-0.1613037	-0.5402119	0	-91.958	-56.489	9.259	B5-03822-P03-CH1	2076592	OK	0.8142168	-0.2989462	-0.4976767	0	-98.423	-30.14	6.792	B5-03822-P04-CH0	2076592	OK	0.7051064	-0.2221706	0.6733983	0	-122.831	-41.168	8.616	B5-03822-P04-CH1	2076592	OK	0.7371331	-0.6735437	0.0545317	0	-108.129	-47.519	5.419	NA
0.939253968253968	B5-03822-P01-CH0	2076600	OK	0.2391446	0.0240729	0.0507022	-0.9693604	105.22	5.398	-241.492	B5-03822-P02-CH0	2076600	OK	0.7259172	0.2781256	-0.6290392	0	-72.26	-95.261	2.203	B5-03822-P02-CH1	2076600	OK	0.7683124	0.1138118	-0.6298754	0	-80.351	-77.989	0.735	B5-03822-P03-CH0	2076600	OK	0.8263163	-0.1651394	-0.5384518	0	-92.26	-56.132	9.874	B5-03822-P03-CH1	2076600	OK	0.8129426	-0.2991922	-0.4996082	0	-98.729	-30.347	6.721	B5-03822-P04-CH0	2076600	OK	0.7058224	-0.220824	0.673091	0	-123.253	-41.72	8.921	B5-03822-P04-CH1	2076600	OK	0.7367376	-0.673981	0.0544723	0	-108.135	-47.507	5.441	NA
0.949246031746032	B5-03822-P01-CH0	2076608	OK	0.2394866	0.0240428	0.0510979	-0.969256	105.272	5.436	-241.497	B5-03822-P02-CH0	2076608	OK	0.7251701	0.2824369	-0.6279791	0	-72.347	-95.402	2.332	B5-03822-P02-CH1	2076608	OK	0.7644455	0.1109477	-0.6350698	0	-80.512	-77.876	1.111	B5-03822-P03-CH0	2076608	OK	0.826669	-0.1730888	-0.5354051	0	-92.25	-56.493	9.73	B5-03822-P03-CH1	2076608	OK	0.813227	-0.2971407	-0.500369	0	-98.69	-30.188	6.65	B5-03822-P04-CH0	2076608	OK	0.7055345	-0.2225472	0.6728253	0	-122.787	-41.503	8.668	B5-03822-P04-CH1	2076608	OK	0.7371291	-0.6735242	0.0548265	0	-108.132	-47.447	5.415	NA
0.959238095238095	B5-03822-P01-CH0	2076616	OK	0.2399185	0.0239255	0.0519684	-0.9691058	105.332	5.544	-241.538	B5-03822-P02-CH0	2076616	OK	0.7241489	0.2893059	-0.6260275	0	-72.064	-95.482	1.666	B5-03822-P02-CH1	2076616	OK	0.7600829	0.1083673	-0.6407265	0	-79.211	-77.43	0.682	B5-03822-P03-CH0	2076616	OK	0.8266392	-0.1843426	-0.5316817	0	-92.27	-56.618	8.674	B5-03822-P03-CH1	2076616	OK	0.8147461	-0.298408	-0.4971333	0	-98.838	-30.425	7.232	B5-03822-P04-CH0	2076616	OK	0.7053228	-0.221723	0.6733191	0	-123.258	-42.246	9.419	B5-03822-P04-CH1	2076616	OK	0.737582	-0.6729941	0.0552422	0	-108.193	-47.483	5.205	NA
0.969230158730159	B5-03822-P01-CH0	2076624	OK	0.2403384	0.0240452	0.0521883	-0.9689869	105.451	5.574	-241.523	B5-03822-P02-CH0	2076624	OK	0.7226693	0.2982514	-0.6235344	0	-71.657	-95.259	2.095	B5-03822-P02-CH1	2076624	OK	0.7510224	0.1032266	-0.6521576	0	-79.368	-77.942	0.93	B5-03822-P03-CH0	2076624	OK	0.8260215	-0.1988486	-0.5273972	0	-92.282	-56.966	8.905	B5-03822-P03-CH1	2076624	OK	0.814675	-0.2983565	-0.4972807	0	-98.807	-30.513	7.185	B5-03822-P04-CH0	2076624	OK	0.7057495	-0.2209363	0.6731306	0	-123.292	-42.214	9.289	B5-03822-P04-CH1	2076624	OK	0.7375929	-0.672958	0.0555366	0	-108.188	-47.536	4.849	NA
0.979222222222222	B5-03822-P01-CH0	2076632	OK	0.2401521	0.0243283	0.0511119	-0.9690834	105.589	5.51	-241.577	B5-03822-P02-CH0	2076632	OK	0.7223493	0.30826	-0.6190212	0	-70.956	-95.599	1.482	B5-03822-P02-CH1	2076632	OK	0.7420001	0.0950102	-0.6636331	0	-78.826	-77.469	1.332	B5-03822-P03-CH0	2076632	OK	0.8249554	-0.2142853	-0.5230014	0	-92.53	-57.02	8.909	B5-03822-P03-CH1	2076632	OK	0.8142848	-0.2980539	-0.4981004	0	-98.799	-30.58	7.191	B5-03822-P04-CH0	2076632	OK	0.705641	-0.2217648	0.6729718	0	-123.293	-42.061	9.131	B5-03822-P04-CH1	2076632	OK	0.7368341	-0.6738216	0.0551363	0	-108.355	-47.478	4.777	NA
0.989214285714286	B5-03822-P01-CH0	2076640	OK	0.2406249	0.0241782	0.0516335	-0.9689422	105.639	5.55	-241.631	B5-03822-P02-CH0	2076640	OK	0.7189247	0.3198665	-0.6171165	0	-71.132	-95.647	1.864	B5-03822-P02-CH1	2076640	OK	0.7293301	0.0831459	-0.6790909	0	-78.438	-77.32	2.042	B5-03822-P03-CH0	2076640	OK	0.8255658	-0.2271846	-0.5165542	0	-92.325	-56.665	8.991	B5-03822-P03-CH1	2076640	OK	0.8145228	-0.2905708	-0.5021167	0	-98.793	-30.967	7.036	B5-03822-P04-CH0	2076640	OK	0.7058345	-0.2217052	0.6727886	0	-123.24	-41.977	8.845	B5-03822-P04-CH1	2076640	OK	0.7371014	-0.6734666	0.0558943	0	-108.329	-47.587	4.813	NA
0.999206349206349	B5-03822-P01-CH0	2076648	OK	0.2408393	0.0243993	0.0517244	-0.9688786	105.789	5.543	-241.685	B5-03822-P02-CH0	2076648	OK	0.7142312	0.3316751	-0.6163322	0	-71.867	-95.882	2.531	B5-03822-P02-CH1	2076648	OK	0.7160919	0.0724988	-0.6942307	0	-77.378	-76.953	0.941	B5-03822-P03-CH0	2076648	OK	0.8259612	-0.2415642	-0.5093474	0	-92.319	-56.559	9.201	B5-03822-P03-CH1	2076648	OK	0.8150757	-0.2875259	-0.5029716	0	-99.012	-31.178	7.045	B5-03822-P04-CH0	2076648	OK	0.706017	-0.2225282	0.6723252	0	-123.269	-41.771	8.614	B5-03822-P04-CH1	2076648	OK	0.7370512	-0.6734992	0.0561648	0	-108.395	-47.685	4.713	NA
1.00919841269841	B5-03822-P01-CH0	2076656	OK	0.2411838	0.0243591	0.052249	-0.9687657	105.82	5.606	-241.681	B5-03822-P02-CH0	2076656	OK	0.7096582	0.3420211	-0.61596	0	-72.223	-95.982	3.45	B5-03822-P02-CH1	2076656	OK	0.704308	0.0636142	-0.7070385	0	-76.25	-76.303	0.624	B5-03822-P03-CH0	2076656	OK	0.8257392	-0.2566106	-0.5023004	0	-92.263	-56.986	9.099	B5-03822-P03-CH1	2076656	OK	0.8150556	-0.2849258	-0.5044817	0	-99.517	-31.295	6.816	B5-03822-P04-CH0	2076656	OK	0.7063433	-0.2232227	0.671752	0	-123.218	-41.657	8.554	B5-03822-P04-CH1	2076656	OK	0.7373665	-0.6731467	0.0562503	0	-108.433	-47.664	4.508	NA
1.01919047619048	B5-03822-P01-CH0	2076664	OK	0.2411524	0.0243558	0.0519794	-0.9687881	105.821	5.553	-241.667	B5-03822-P02-CH0	2076664	OK	0.7056319	0.3512703	-0.6153802	0	-72.114	-95.698	3.155	B5-03822-P02-CH1	2076664	OK	0.6942112	0.0546447	-0.7176941	0	-75.612	-75.364	0.695	B5-03822-P03-CH0	2076664	OK	0.8246576	-0.2680192	-0.4981019	0	-92.458	-57.056	8.734	B5-03822-P03-CH1	2076664	OK	0.8154373	-0.2834401	-0.5047017	0	-99.301	-31.348	7.114	B5-03822-P04-CH0	2076664	OK	0.7079239	-0.2335231	0.6665664	0	-122.992	-40.741	6.523	B5-03822-P04-CH1	2076664	OK	0.7370187	-0.6735399	0.056103	0	-108.502	-47.721	4.463	NA
1.02918253968254	B5-03822-P01-CH0	2076672	OK	0.2413184	0.0242015	0.0523548	-0.9687305	105.799	5.591	-241.672	B5-03822-P02-CH0	2076672	OK	0.7019232	0.3604848	-0.6142918	0	-72.305	-95.915	3.496	B5-03822-P02-CH1	2076672	OK	0.6868463	0.0503826	-0.7250543	0	-75.44	-75.045	1.68	B5-03822-P03-CH0	2076672	OK	0.8255964	-0.2755952	-0.4923798	0	-91.887	-56.793	9.287	B5-03822-P03-CH1	2076672	OK	0.8159014	-0.2826953	-0.5043692	0	-99.142	-31.29	7.292	B5-03822-P04-CH0	2076672	OK	0.7093023	-0.2354531	0.6644186	0	-122.619	-40.652	8.021	B5-03822-P04-CH1	2076672	OK	0.7372701	-0.6732757	0.0559699	0	-108.555	-47.638	4.416	NA
1.0391746031746	B5-03822-P01-CH0	2076680	OK	0.2414307	0.0243372	0.0522927	-0.9687024	105.847	5.571	-241.657	B5-03822-P02-CH0	2076680	OK	0.7003993	0.3680212	-0.6115564	0	-71.666	-95.791	2.893	B5-03822-P02-CH1	2076680	OK	0.6815689	0.0498335	-0.7300551	0	-75.517	-75.603	2.145	B5-03822-P03-CH0	2076680	OK	0.8237732	-0.2838471	-0.4907428	0	-92.433	-57.335	8.951	B5-03822-P03-CH1	2076680	OK	0.8162358	-0.2820401	-0.5041949	0	-99.014	-31.311	7.176	B5-03822-P04-CH0	2076680	OK	0.7103214	-0.2369427	0.6627984	0	-122.745	-41.054	8.17	B5-03822-P04-CH1	2076680	OK	0.7372553	-0.673304	0.055825	0	-108.693	-47.587	4.419	NA
1.04916666666667	B5-03822-P01-CH0	2076688	OK	0.2413589	0.0242202	0.0524471	-0.9687149	105.812	5.626	-241.711	B5-03822-P02-CH0	2076688	OK	0.7003351	0.3746532	-0.6075902	0	-71.755	-96.152	2.953	B5-03822-P02-CH1	2076688	OK	0.6789751	0.0503266	-0.7324344	0	-74.685	-74.758	1.087	B5-03822-P03-CH0	2076688	OK	0.8235678	-0.2881054	-0.4886014	0	-92.513	-56.944	8.439	B5-03822-P03-CH1	2076688	OK	0.8157261	-0.2812602	-0.5054538	0	-99.32	-31.296	6.743	B5-03822-P04-CH0	2076688	OK	0.7104016	-0.240005	0.6616095	0	-122.56	-40.42	7.368	B5-03822-P04-CH1	2076688	OK	0.7372154	-0.6733548	0.0557382	0	-108.747	-47.526	4.354	NA
1.05915873015873	B5-03822-P01-CH0	2076696	OK	0.2413277	0.0240789	0.0522138	-0.9687388	105.757	5.589	-241.742	B5-03822-P02-CH0	2076696	OK	0.7002578	0.3797608	-0.6045004	0	-72.126	-96.221	2.931	B5-03822-P02-CH1	2076696	OK	0.6743405	0.0496918	-0.7367466	0	-75.621	-75.411	2.292	B5-03822-P03-CH0	2076696	OK	0.8242766	-0.2918653	-0.4851625	0	-92.283	-56.837	8.853	B5-03822-P03-CH1	2076696	OK	0.815308	-0.2810413	-0.5062496	0	-99.48	-31.563	6.569	B5-03822-P04-CH0	2076696	OK	0.7105138	-0.2414497	0.6609631	0	-122.545	-40.554	7.232	B5-03822-P04-CH1	2076696	OK	0.7370765	-0.6735141	0.0556509	0	-108.809	-47.486	4.546	NA
1.06915079365079	B5-03822-P01-CH0	2076704	OK	0.2411183	0.0241045	0.0520466	-0.9687993	105.761	5.591	-241.752	B5-03822-P02-CH0	2076704	OK	0.7019138	0.3836056	-0.6001365	0	-71.909	-96.265	3.564	B5-03822-P02-CH1	2076704	OK	0.6704119	0.0508296	-0.7402461	0	-76.005	-74.598	3.193	B5-03822-P03-CH0	2076704	OK	0.8250215	-0.293711	-0.4827768	0	-92.31	-56.756	9.387	B5-03822-P03-CH1	2076704	OK	0.815555	-0.2804397	-0.5061854	0	-99.426	-31.196	6.289	B5-03822-P04-CH0	2076704	OK	0.7109168	-0.2433938	0.6598157	0	-122.384	-40.517	7.397	B5-03822-P04-CH1	2076704	OK	0.7369583	-0.6736599	0.0554513	0	-108.934	-47.412	4.802	NA
1.07914285714286	B5-03822-P01-CH0	2076712	OK	0.241289	0.0238772	0.0526343	-0.9687307	105.714	5.572	-241.782	B5-03822-P02-CH0	2076712	OK	0.7035642	0.3870726	-0.5959633	0	-71.901	-96.902	3.335	B5-03822-P02-CH1	2076712	OK	0.6705106	0.0509015	-0.7401517	0	-74.313	-74.59	1.121	B5-03822-P03-CH0	2076712	OK	0.8257306	-0.2964255	-0.4798968	0	-92.194	-56.884	9.164	B5-03822-P03-CH1	2076712	OK	0.8161937	-0.2805492	-0.505094	0	-99.017	-31.303	6.139	B5-03822-P04-CH0	2076712	OK	0.7115113	-0.2444931	0.6587676	0	-122.309	-40.329	6.537	B5-03822-P04-CH1	2076712	OK	0.737282	-0.6732793	0.0557685	0	-108.852	-47.476	4.859	NA
1.08913492063492	B5-03822-P01-CH0	2076720	OK	0.2411174	0.0237477	0.0527083	-0.9687726	105.691	5.508	-241.834	B5-03822-P02-CH0	2076720	OK	0.7030937	0.392272	-0.5931121	0	-72.224	-96.629	3.733	B5-03822-P02-CH1	2076720	OK	0.6676004	0.0525657	-0.7426618	0	-74.022	-75.4	0.757	B5-03822-P03-CH0	2076720	OK	0.8261992	-0.3003121	-0.4766629	0	-91.973	-57.043	8.459	B5-03822-P03-CH1	2076720	OK	0.8162775	-0.2814834	-0.5044384	0	-99.01	-31.244	6.652	B5-03822-P04-CH0	2076720	OK	0.7117995	-0.244832	0.6583303	0	-122.216	-40.511	7.058	B5-03822-P04-CH1	2076720	OK	0.7372108	-0.6733721	0.0555894	0	-108.894	-47.535	4.849	NA
1.09912698412698	B5-03822-P01-CH0	2076728	OK	0.2412417	0.0236049	0.0532391	-0.9687161	105.639	5.537	-241.794	B5-03822-P02-CH0	2076728	OK	0.702604	0.3973796	-0.5902856	0	-72.11	-96.759	3.152	B5-03822-P02-CH1	2076728	OK	0.6631867	0.052317	-0.7466233	0	-74.212	-75.183	1.537	B5-03822-P03-CH0	2076728	OK	0.8261	-0.3056582	-0.4734256	0	-92.026	-57.129	8.436	B5-03822-P03-CH1	2076728	OK	0.8164657	-0.2804181	-0.5047271	0	-99.011	-31.205	6.716	B5-03822-P04-CH0	2076728	OK	0.7119805	-0.2445175	0.6582515	0	-122.047	-40.39	6.745	B5-03822-P04-CH1	2076728	OK	0.7374471	-0.673104	0.0557016	0	-108.954	-47.566	4.772	NA
1.10911904761905	B5-03822-P01-CH0	2076736	OK	0.2411975	0.0234227	0.053474	-0.9687186	105.598	5.52	-241.847	B5-03822-P02-CH0	2076736	OK	0.700955	0.4023228	-0.588896	0	-72.239	-96.384	3.356	B5-03822-P02-CH1	2076736	OK	0.6594315	0.0490485	-0.7501629	0	-73.968	-74.092	1.906	B5-03822-P03-CH0	2076736	OK	0.8265818	-0.310154	-0.4696456	0	-91.742	-57.128	8.62	B5-03822-P03-CH1	2076736	OK	0.8167047	-0.2796428	-0.5047705	0	-98.94	-31.215	6.754	B5-03822-P04-CH0	2076736	OK	0.7121296	-0.2447218	0.6580142	0	-122.058	-40.438	6.374	B5-03822-P04-CH1	2076736	OK	0.7374217	-0.6731121	0.0559411	0	-108.942	-47.67	4.801	NA
1.11911111111111	B5-03822-P01-CH0	2076744	OK	0.2412898	0.0233263	0.0537048	-0.9686852	105.57	5.583	-241.925	B5-03822-P02-CH0	2076744	OK	0.7004599	0.4059355	-0.5870028	0	-72.118	-96.956	3.164	B5-03822-P02-CH1	2076744	OK	0.6577566	0.0488859	-0.7516425	0	-73.595	-74.364	0.726	B5-03822-P03-CH0	2076744	OK	0.8264461	-0.314104	-0.4672532	0	-91.943	-57.168	8.668	B5-03822-P03-CH1	2076744	OK	0.8168705	-0.2791557	-0.5047719	0	-98.927	-31.153	6.718	B5-03822-P04-CH0	2076744	OK	0.7112282	-0.2424673	0.6598213	0	-122.058	-40.456	7.469	B5-03822-P04-CH1	2076744	OK	0.73741	-0.6730985	0.0562576	0	-108.951	-47.713	4.831	NA
1.12910317460317	B5-03822-P01-CH0	2076752	OK	0.2411554	0.0234192	0.0535082	-0.9687273	105.608	5.548	-241.984	B5-03822-P02-CH0	2076752	OK	0.6986994	0.410105	-0.5862022	0	-72.039	-96.445	3.377	B5-03822-P02-CH1	2076752	OK	0.6561492	0.0501872	-0.7529604	0	-73.969	-74.887	1.81	B5-03822-P03-CH0	2076752	OK	0.8260274	-0.3173954	-0.465767	0	-92.102	-57.543	8.662	B5-03822-P03-CH1	2076752	OK	0.8168324	-0.2788681	-0.5049925	0	-98.917	-31.249	6.736	B5-03822-P04-CH0	2076752	OK	0.7116248	-0.2431503	0.6591419	0	-122.114	-40.523	7.42	B5-03822-P04-CH1	2076752	OK	0.7372186	-0.6733137	0.0561908	0	-108.919	-47.699	4.776	NA
1.13909523809524	B5-03822-P01-CH0	2076760	OK	0.2411952	0.0230191	0.0539156	-0.9687043	105.497	5.556	-242.048	B5-03822-P02-CH0	2076760	OK	0.6992673	0.4139314	-0.582826	0	-71.169	-97.065	2.452	B5-03822-P02-CH1	2076760	OK	0.6567486	0.0514862	-0.75235	0	-73.918	-75.309	1.653	B5-03822-P03-CH0	2076760	OK	0.8268581	-0.31815	-0.4637739	0	-92.08	-57.313	8.516	B5-03822-P03-CH1	2076760	OK	0.8171874	-0.2782554	-0.504756	0	-98.801	-31.212	6.616	B5-03822-P04-CH0	2076760	OK	0.7118621	-0.2434037	0.6587921	0	-122.005	-40.506	7.331	B5-03822-P04-CH1	2076760	OK	0.7373891	-0.6730974	0.0565439	0	-108.77	-47.721	4.674	NA
1.1490873015873	B5-03822-P01-CH0	2076768	OK	0.2410185	0.0231265	0.0532843	-0.9687807	105.519	5.426	-242.001	B5-03822-P02-CH0	2076768	OK	0.6966105	0.4195933	-0.5819581	0	-72.011	-97.125	3.241	B5-03822-P02-CH1	2076768	OK	0.6569629	0.0521144	-0.7521196	0	-73.814	-75.41	2.005	B5-03822-P03-CH0	2076768	OK	0.8265218	-0.3193653	-0.463538	0	-92.349	-57.056	8.658	B5-03822-P03-CH1	2076768	OK	0.8170809	-0.278043	-0.5050455	0	-98.763	-31.274	6.587	B5-03822-P04-CH0	2076768	OK	0.7119027	-0.2438034	0.6586004	0	-121.939	-40.6	7.273	B5-03822-P04-CH1	2076768	OK	0.7367735	-0.673751	0.0567837	0	-108.713	-47.922	4.75	NA
1.15907936507937	B5-03822-P01-CH0	2076776	OK	0.2408706	0.0234717	0.0528356	-0.9688337	105.633	5.398	-242.051	B5-03822-P02-CH0	2076776	OK	0.6947982	0.4244816	-0.5805781	0	-72.329	-96.876	3.558	B5-03822-P02-CH1	2076776	OK	0.6555463	0.0529244	-0.7532981	0	-74.473	-75.494	1.759	B5-03822-P03-CH0	2076776	OK	0.826044	-0.321595	-0.4628476	0	-92.498	-56.938	8.507	B5-03822-P03-CH1	2076776	OK	0.8168504	-0.2778711	-0.5055127	0	-98.847	-31.268	6.711	B5-03822-P04-CH0	2076776	OK	0.7121018	-0.2440876	0.6582798	0	-122.002	-40.659	7.182	B5-03822-P04-CH1	2076776	OK	0.7363496	-0.6742137	0.0567901	0	-108.746	-48.005	4.733	NA
1.16907142857143	B5-03822-P01-CH0	2076784	OK	0.2409414	0.0235173	0.0531559	-0.9687975	105.66	5.452	-242.12	B5-03822-P02-CH0	2076784	OK	0.6960267	0.4278117	-0.5766489	0	-71.914	-97.336	3.63	B5-03822-P02-CH1	2076784	OK	0.6552127	0.0512282	-0.7537055	0	-74.086	-74.937	1.223	B5-03822-P03-CH0	2076784	OK	0.8255587	-0.3221263	-0.4633439	0	-92.83	-56.747	8.651	B5-03822-P03-CH1	2076784	OK	0.8169294	-0.2774475	-0.5056177	0	-98.85	-31.272	6.828	B5-03822-P04-CH0	2076784	OK	0.7123392	-0.2440771	0.6580267	0	-121.979	-40.545	7.001	B5-03822-P04-CH1	2076784	OK	0.7365231	-0.6740155	0.0568934	0	-108.907	-47.976	4.593	NA
1.17906349206349	B5-03822-P01-CH0	2076792	OK	0.2410428	0.0235757	0.0534631	-0.968754	105.666	5.512	-242.106	B5-03822-P02-CH0	2076792	OK	0.6953886	0.4307548	-0.575226	0	-72.526	-97.104	3.852	B5-03822-P02-CH1	2076792	OK	0.6537944	0.0485143	-0.7551154	0	-73.925	-73.978	2.177	B5-03822-P03-CH0	2076792	OK	0.8255015	-0.3237468	-0.4623151	0	-92.511	-56.817	8.815	B5-03822-P03-CH1	2076792	OK	0.8169727	-0.2770063	-0.5057896	0	-98.901	-31.187	6.881	B5-03822-P04-CH0	2076792	OK	0.7127034	-0.2435998	0.6578092	0	-122.012	-40.493	6.911	B5-03822-P04-CH1	2076792	OK	0.7366459	-0.6738583	0.0571642	0	-108.984	-47.99	4.64	NA
1.18905555555556	B5-03822-P01-CH0	2076800	OK	0.2409345	0.0236432	0.0531042	-0.968799	105.642	5.515	-242.098	B5-03822-P02-CH0	2076800	OK	0.6952575	0.4331538	-0.5735807	0	-72.918	-96.872	3.875	B5-03822-P02-CH1	2076800	OK	0.6516336	0.048083	-0.7570083	0	-74.521	-74.466	1.827	B5-03822-P03-CH0	2076800	OK	0.8250833	-0.3246759	-0.4624101	0	-92.501	-56.945	8.429	B5-03822-P03-CH1	2076800	OK	0.8168242	-0.2768425	-0.5061191	0	-98.936	-31.126	6.834	B5-03822-P04-CH0	2076800	OK	0.7127456	-0.2435417	0.6577851	0	-121.975	-40.421	6.918	B5-03822-P04-CH1	2076800	OK	0.7363962	-0.6741244	0.0572439	0	-108.993	-47.916	4.648	NA
1.19904761904762	B5-03822-P01-CH0	2076808	OK	0.2407333	0.0236419	0.0524611	-0.9688841	105.61	5.478	-242.206	B5-03822-P02-CH0	2076808	OK	0.6947163	0.4370294	-0.571292	0	-73.349	-96.718	4.699	B5-03822-P02-CH1	2076808	OK	0.6517995	0.0481214	-0.7568631	0	-73.793	-74.685	1.789	B5-03822-P03-CH0	2076808	OK	0.8251497	-0.3260932	-0.461293	0	-92.403	-56.987	8.201	B5-03822-P03-CH1	2076808	OK	0.8165416	-0.2768252	-0.5065844	0	-99.002	-31.121	6.855	B5-03822-P04-CH0	2076808	OK	0.7128045	-0.2434313	0.6577621	0	-121.999	-40.43	7.092	B5-03822-P04-CH1	2076808	OK	0.7359219	-0.6746314	0.0573704	0	-108.829	-47.899	4.838	NA
