Wav.Time	B5.03822.P01.CH0	Frame	State	Q0	Qx	Qy	Qz	Tx	Ty	Tz	B5.03822.P02.CH0	Frame.1	State.1	Q0.1	Qx.1	Qy.1	Qz.1	Tx.1	Ty.1	Tz.1	B5.03822.P02.CH1	Frame.2	State.2	Q0.2	Qx.2	Qy.2	Qz.2	Tx.2	Ty.2	Tz.2	B5.03822.P03.CH0	Frame.3	State.3	Q0.3	Qx.3	Qy.3	Qz.3	Tx.3	Ty.3	Tz.3	B5.03822.P03.CH1	Frame.4	State.4	Q0.4	Qx.4	Qy.4	Qz.4	Tx.4	Ty.4	Tz.4	B5.03822.P04.CH0	Frame.5	State.5	Q0.5	Qx.5	Qy.5	Qz.5	Tx.5	Ty.5	Tz.5	B5.03822.P04.CH1	Frame.6	State.6	Q0.6	Qx.6	Qy.6	Qz.6	Tx.6	Ty.6	Tz.6	X
0	B5-03822-P01-CH0	245528	OK	0.228999	0.0243197	0.052312	-0.9717157	103.113	-22.352	-233.95	B5-03822-P02-CH0	245528	OK	0.8268355	0.2242674	-0.5157977	0	-78.813	-98.643	8.114	B5-03822-P02-CH1	245528	OK	0.8040836	-0.0875902	-0.5880285	0	-75.891	-78.343	3.67	B5-03822-P03-CH0	245528	OK	0.822881	-0.3615397	-0.4383559	0	-89.355	-59.936	8.313	B5-03822-P03-CH1	245528	OK	0.783443	-0.5453134	-0.2980779	0	-95.895	-30.482	2.973	B5-03822-P04-CH0	245528	OK	0.7364912	-0.3282948	0.5914416	0	-119.944	-39.773	9.011	B5-03822-P04-CH1	245528	OK	0.7364648	-0.6733457	0.0650009	0	-107.691	-46.707	0.703	NA
0.00999179813769479	B5-03822-P01-CH0	245536	OK	0.2289525	0.0243978	0.0520888	-0.9717367	103.129	-22.339	-233.965	B5-03822-P02-CH0	245536	OK	0.8294691	0.2139629	-0.5159465	0	-78.487	-98.176	8.189	B5-03822-P02-CH1	245536	OK	0.8078308	-0.0893429	-0.5826039	0	-75.733	-77.955	4.163	B5-03822-P03-CH0	245536	OK	0.8190692	-0.3493092	-0.4550921	0	-89.488	-59.81	7.705	B5-03822-P03-CH1	245536	OK	0.7832004	-0.5459658	-0.2975206	0	-95.9	-30.477	2.964	B5-03822-P04-CH0	245536	OK	0.7364053	-0.3286764	0.5913367	0	-119.93	-39.611	8.852	B5-03822-P04-CH1	245536	OK	0.7363902	-0.6734575	0.0646868	0	-107.78	-46.577	0.391	NA
0.0199835962753896	B5-03822-P01-CH0	245544	OK	0.2288923	0.0243793	0.052036	-0.9717542	103.134	-22.297	-234.019	B5-03822-P02-CH0	245544	OK	0.8310123	0.2082902	-0.5157846	0	-78.654	-97.608	8.507	B5-03822-P02-CH1	245544	OK	0.8104091	-0.0909674	-0.5787591	0	-75.993	-78.033	4.155	B5-03822-P03-CH0	245544	OK	0.8133103	-0.3312848	-0.4783061	0	-88.981	-59.797	7.652	B5-03822-P03-CH1	245544	OK	0.7829995	-0.5466191	-0.296849	0	-95.872	-30.534	3.161	B5-03822-P04-CH0	245544	OK	0.7364234	-0.3282598	0.5915455	0	-119.984	-39.644	8.991	B5-03822-P04-CH1	245544	OK	0.7363339	-0.6735273	0.0646006	0	-107.798	-46.623	0.844	NA
0.0299753944130844	B5-03822-P01-CH0	245552	OK	0.2289959	0.0243236	0.0524059	-0.9717113	103.123	-22.238	-233.99	B5-03822-P02-CH0	245552	OK	0.8323798	0.2003863	-0.51671	0	-79.439	-98.063	8.746	B5-03822-P02-CH1	245552	OK	0.8117007	-0.0880975	-0.5773914	0	-76.424	-78.089	4.374	B5-03822-P03-CH0	245552	OK	0.803002	-0.3038564	-0.5126979	0	-88.286	-59.775	7.737	B5-03822-P03-CH1	245552	OK	0.7830578	-0.547032	-0.2959332	0	-95.924	-30.44	3.058	B5-03822-P04-CH0	245552	OK	0.7364904	-0.3274364	0.5919183	0	-119.992	-39.712	8.951	B5-03822-P04-CH1	245552	OK	0.7366478	-0.6732048	0.0643842	0	-107.767	-46.559	0.858	NA
0.0399671925507792	B5-03822-P01-CH0	245560	OK	0.2292602	0.0239887	0.0529601	-0.9716273	103.054	-22.198	-234.017	B5-03822-P02-CH0	245560	OK	0.8356116	0.1986315	-0.5121511	0	-79.208	-97.603	8.371	B5-03822-P02-CH1	245560	OK	0.8125747	-0.0832873	-0.5768757	0	-76.205	-77.894	3.795	B5-03822-P03-CH0	245560	OK	0.7932166	-0.275381	-0.543114	0	-86.863	-57.005	5.597	B5-03822-P03-CH1	245560	OK	0.7832842	-0.5474791	-0.2945038	0	-95.852	-30.452	2.976	B5-03822-P04-CH0	245560	OK	0.7364981	-0.3263184	0.5925258	0	-119.939	-39.725	8.861	B5-03822-P04-CH1	245560	OK	0.7370353	-0.6727903	0.0642816	0	-107.659	-46.532	0.611	NA
0.049958990688474	B5-03822-P01-CH0	245568	OK	0.2292602	0.0239596	0.0533675	-0.9716057	103.06	-22.135	-234.092	B5-03822-P02-CH0	245568	OK	0.8380533	0.1951441	-0.5094952	0	-79.951	-97.427	8.992	B5-03822-P02-CH1	245568	OK	0.8124299	-0.0795283	-0.5776096	0	-76.355	-77.591	4.436	B5-03822-P03-CH0	245568	OK	0.7872779	-0.2804296	-0.5491381	0	-87.738	-58.621	6.06	B5-03822-P03-CH1	245568	OK	0.7834701	-0.5478613	-0.2932961	0	-95.87	-30.306	2.923	B5-03822-P04-CH0	245568	OK	0.7365418	-0.3252373	0.5930656	0	-119.951	-39.696	8.908	B5-03822-P04-CH1	245568	OK	0.737297	-0.6725435	0.0638615	0	-107.641	-46.518	0.724	NA
0.0599507888261688	B5-03822-P01-CH0	245576	OK	0.2292743	0.0240676	0.0534615	-0.9715945	103.108	-22.112	-234.133	B5-03822-P02-CH0	245576	OK	0.841343	0.190498	-0.5058186	0	-80.421	-97.292	10.213	B5-03822-P02-CH1	245576	OK	0.8125301	-0.0786402	-0.5775902	0	-76.556	-77.415	3.528	B5-03822-P03-CH0	245576	OK	0.7878794	-0.2828843	-0.5470124	0	-87.212	-58.487	6.956	B5-03822-P03-CH1	245576	OK	0.7834195	-0.5486155	-0.2920185	0	-95.822	-30.333	2.904	B5-03822-P04-CH0	245576	OK	0.7353734	-0.3192307	0.5977606	0	-119.743	-38.741	7.433	B5-03822-P04-CH1	245576	OK	0.7374556	-0.6724403	0.0631126	0	-107.665	-46.419	0.614	NA
0.0699425869638636	B5-03822-P01-CH0	245584	OK	0.2290456	0.0243222	0.0528098	-0.9716778	103.16	-22.108	-234.099	B5-03822-P02-CH0	245584	OK	0.8446987	0.1886514	-0.5008939	0	-80.435	-96.808	9.561	B5-03822-P02-CH1	245584	OK	0.8126874	-0.0778743	-0.5774728	0	-76.665	-77.24	4.482	B5-03822-P03-CH0	245584	OK	0.7855659	-0.287195	-0.5480924	0	-87.859	-58.175	6.367	B5-03822-P03-CH1	245584	OK	0.7828853	-0.5497809	-0.2912586	0	-95.868	-30.316	2.896	B5-03822-P04-CH0	245584	OK	0.7344292	-0.3136212	0.6018767	0	-119.733	-40.468	10.125	B5-03822-P04-CH1	245584	OK	0.7369665	-0.6730486	0.0623371	0	-107.623	-46.324	0.346	NA
0.0799343851015584	B5-03822-P01-CH0	245592	OK	0.2290044	0.0244706	0.0527886	-0.9716849	103.183	-22.057	-234.1	B5-03822-P02-CH0	245592	OK	0.8467525	0.1838835	-0.4991964	0	-80.744	-97.108	10.377	B5-03822-P02-CH1	245592	OK	0.8135642	-0.0763821	-0.5764365	0	-76.619	-76.992	4.99	B5-03822-P03-CH0	245592	OK	0.7854642	-0.291153	-0.5461464	0	-87.653	-57.893	6.534	B5-03822-P03-CH1	245592	OK	0.7827105	-0.5505443	-0.2902849	0	-95.882	-30.265	2.852	B5-03822-P04-CH0	245592	OK	0.7339208	-0.3134546	0.6025831	0	-119.838	-39.146	8.167	B5-03822-P04-CH1	245592	OK	0.7371084	-0.6729493	0.0617298	0	-107.608	-46.183	0.386	NA
0.0899261832392532	B5-03822-P01-CH0	245600	OK	0.2289014	0.0243821	0.052734	-0.9717144	103.094	-22.042	-233.965	B5-03822-P02-CH0	245600	OK	0.8490048	0.1803687	-0.4966468	0	-80.691	-96.699	9.462	B5-03822-P02-CH1	245600	OK	0.8158246	-0.076166	-0.5732618	0	-76.546	-76.997	3.914	B5-03822-P03-CH0	245600	OK	0.7859015	-0.2921415	-0.5449882	0	-87.898	-57.984	6.427	B5-03822-P03-CH1	245600	OK	0.7826109	-0.5511539	-0.2893954	0	-95.807	-30.192	2.777	B5-03822-P04-CH0	245600	OK	0.7333771	-0.3113103	0.6043541	0	-119.677	-38.607	7.468	B5-03822-P04-CH1	245600	OK	0.7372115	-0.6728877	0.0611661	0	-107.569	-46.042	0.434	NA
0.0999179813769479	B5-03822-P01-CH0	245608	OK	0.2289495	0.0242911	0.0529587	-0.9716931	103.074	-22.001	-233.998	B5-03822-P02-CH0	245608	OK	0.849744	0.1742259	-0.4975746	0	-80.924	-96.674	9.641	B5-03822-P02-CH1	245608	OK	0.8182858	-0.0790207	-0.5693542	0	-76.769	-77.098	4.526	B5-03822-P03-CH0	245608	OK	0.7889425	-0.2910135	-0.5411847	0	-87.646	-58.013	6.272	B5-03822-P03-CH1	245608	OK	0.7826454	-0.5517608	-0.2881427	0	-95.723	-30.18	2.794	B5-03822-P04-CH0	245608	OK	0.7334451	-0.3041285	0.6079179	0	-119.936	-40.215	9.34	B5-03822-P04-CH1	245608	OK	0.7374357	-0.6726877	0.0606616	0	-107.583	-45.934	0.354	NA
0.109909779514643	B5-03822-P01-CH0	245616	OK	0.2288608	0.0241884	0.05301	-0.9717137	103.03	-21.993	-233.963	B5-03822-P02-CH0	245616	OK	0.850647	0.1667244	-0.4986007	0	-80.641	-96.635	9.384	B5-03822-P02-CH1	245616	OK	0.82117	-0.0827879	-0.5646468	0	-77.132	-76.794	4.434	B5-03822-P03-CH0	245616	OK	0.791074	-0.2862621	-0.540607	0	-88.122	-58.052	6.51	B5-03822-P03-CH1	245616	OK	0.7825027	-0.5523976	-0.2873088	0	-95.687	-30.157	2.796	B5-03822-P04-CH0	245616	OK	0.7339555	-0.3031549	0.6077881	0	-120.05	-38.947	8.764	B5-03822-P04-CH1	245616	OK	0.7375157	-0.6726618	0.0599725	0	-107.582	-45.833	0.329	NA
0.119901577652338	B5-03822-P01-CH0	245624	OK	0.2288292	0.0240924	0.053072	-0.9717202	103.005	-21.995	-233.944	B5-03822-P02-CH0	245624	OK	0.8505975	0.1567373	-0.5019136	0	-80.389	-96.774	8.882	B5-03822-P02-CH1	245624	OK	0.8260265	-0.0884966	-0.5566404	0	-77.353	-77.091	5.159	B5-03822-P03-CH0	245624	OK	0.7954158	-0.2780279	-0.5385297	0	-88.486	-58.143	6.976	B5-03822-P03-CH1	245624	OK	0.7824423	-0.5528951	-0.2865155	0	-95.684	-30.042	2.705	B5-03822-P04-CH0	245624	OK	0.7345265	-0.3004099	0.608461	0	-120.398	-39.349	8.874	B5-03822-P04-CH1	245624	OK	0.7375686	-0.6726443	0.0595164	0	-107.522	-45.77	0.334	NA
0.129893375790032	B5-03822-P01-CH0	245632	OK	0.2286009	0.0239093	0.0529723	-0.9717839	102.951	-21.981	-233.992	B5-03822-P02-CH0	245632	OK	0.8497725	0.1458214	-0.5065795	0	-79.831	-96.635	8.328	B5-03822-P02-CH1	245632	OK	0.8311265	-0.0943586	-0.5480193	0	-77.895	-77.531	4.734	B5-03822-P03-CH0	245632	OK	0.8023214	-0.269651	-0.5325117	0	-89.04	-58.257	7.104	B5-03822-P03-CH1	245632	OK	0.7822744	-0.5535139	-0.2857781	0	-95.539	-30.061	2.792	B5-03822-P04-CH0	245632	OK	0.7333544	-0.3011244	0.6095207	0	-119.699	-38.46	7.938	B5-03822-P04-CH1	245632	OK	0.7375019	-0.672761	0.0590225	0	-107.486	-45.674	0.419	NA
0.139885173927727	B5-03822-P01-CH0	245640	OK	0.2283271	0.0241789	0.0524912	-0.9718677	103.027	-22.044	-233.977	B5-03822-P02-CH0	245640	OK	0.8459294	0.1348188	-0.5159723	0	-79.809	-96.717	7.836	B5-03822-P02-CH1	245640	OK	0.8361049	-0.1002004	-0.5393408	0	-78.383	-77.698	5.474	B5-03822-P03-CH0	245640	OK	0.8153944	-0.2743296	-0.5097796	0	-89.469	-59.328	7.756	B5-03822-P03-CH1	245640	OK	0.7817907	-0.5542821	-0.2856127	0	-95.537	-30.075	2.792	B5-03822-P04-CH0	245640	OK	0.7345086	-0.2977629	0.6097822	0	-120.497	-39.428	9.038	B5-03822-P04-CH1	245640	OK	0.7370788	-0.6732526	0.0587013	0	-107.505	-45.664	0.258	NA
0.149876972065422	B5-03822-P01-CH0	245648	OK	0.2282717	0.0241797	0.0521776	-0.9718976	103.026	-22.076	-233.967	B5-03822-P02-CH0	245648	OK	0.8407659	0.1239641	-0.5270157	0	-79.533	-97.768	7.637	B5-03822-P02-CH1	245648	OK	0.8396481	-0.1052647	-0.5328324	0	-78.844	-78.607	5.909	B5-03822-P03-CH0	245648	OK	0.8309802	-0.2901745	-0.4746269	0	-91.521	-60.417	8.967	B5-03822-P03-CH1	245648	OK	0.7814251	-0.5550214	-0.2851772	0	-95.493	-30.124	2.836	B5-03822-P04-CH0	245648	OK	0.7348725	-0.2955105	0.6104391	0	-120.841	-39.666	8.737	B5-03822-P04-CH1	245648	OK	0.7369009	-0.6734392	0.0587943	0	-107.544	-45.667	0.343	NA
0.159868770203117	B5-03822-P01-CH0	245656	OK	0.2279816	0.0242955	0.0515783	-0.9719947	103.046	-22.106	-233.959	B5-03822-P02-CH0	245656	OK	0.8347314	0.1212957	-0.5371321	0	-78.504	-97.528	6.527	B5-03822-P02-CH1	245656	OK	0.8408931	-0.1042856	-0.5310587	0	-78.59	-78.86	5.69	B5-03822-P03-CH0	245656	OK	0.846763	-0.2993367	-0.4397612	0	-91.33	-61.853	9.777	B5-03822-P03-CH1	245656	OK	0.7808646	-0.5557406	-0.2853119	0	-95.549	-30.081	2.832	B5-03822-P04-CH0	245656	OK	0.7350564	-0.2928969	0.6114765	0	-121.133	-39.487	8.402	B5-03822-P04-CH1	245656	OK	0.7364744	-0.6739013	0.0588424	0	-107.744	-45.644	0.349	NA
0.169860568340812	B5-03822-P01-CH0	245664	OK	0.2278739	0.0240596	0.0516688	-0.9720211	102.943	-22.1	-233.935	B5-03822-P02-CH0	245664	OK	0.8282679	0.121486	-0.5470041	0	-77.79	-98.037	5.924	B5-03822-P02-CH1	245664	OK	0.8394371	-0.101963	-0.5338061	0	-78.157	-79.213	5.659	B5-03822-P03-CH0	245664	OK	0.8609935	-0.3102942	-0.4029984	0	-92.332	-62.972	10.024	B5-03822-P03-CH1	245664	OK	0.780877	-0.5558845	-0.2849973	0	-95.45	-30.001	2.763	B5-03822-P04-CH0	245664	OK	0.7344274	-0.2899706	0.6136232	0	-121.002	-40.517	8.86	B5-03822-P04-CH1	245664	OK	0.73655	-0.6737582	0.059532	0	-107.85	-45.622	0.212	NA
0.179852366478506	B5-03822-P01-CH0	245672	OK	0.2277109	0.0239238	0.0515491	-0.972069	102.888	-22.139	-233.949	B5-03822-P02-CH0	245672	OK	0.8258638	0.1214084	-0.5506441	0	-78.076	-99.256	7.19	B5-03822-P02-CH1	245672	OK	0.8367495	-0.0985106	-0.5386519	0	-78.014	-80.281	5.393	B5-03822-P03-CH0	245672	OK	0.8758696	-0.3355152	-0.3468169	0	-91.717	-64.679	11.686	B5-03822-P03-CH1	245672	OK	0.7806727	-0.556218	-0.2849063	0	-95.406	-30.028	2.741	B5-03822-P04-CH0	245672	OK	0.734542	-0.2896445	0.6136401	0	-121.144	-40.494	8.622	B5-03822-P04-CH1	245672	OK	0.7364115	-0.6738124	0.0606223	0	-108.015	-45.725	0.139	NA
0.189844164616201	B5-03822-P01-CH0	245680	OK	0.2276829	0.0239311	0.0519176	-0.9720557	102.9	-22.088	-233.986	B5-03822-P02-CH0	245680	OK	0.8294069	0.1249783	-0.5444856	0	-78.185	-99.614	6.603	B5-03822-P02-CH1	245680	OK	0.8338642	-0.09009	-0.544568	0	-77.822	-80.749	5.478	B5-03822-P03-CH0	245680	OK	0.8856549	-0.3485475	-0.3068061	0	-92.528	-65.947	11.269	B5-03822-P03-CH1	245680	OK	0.7806464	-0.5563563	-0.2847085	0	-95.419	-30.076	2.765	B5-03822-P04-CH0	245680	OK	0.7342643	-0.2952472	0.6112978	0	-120.831	-40.237	9.113	B5-03822-P04-CH1	245680	OK	0.7370941	-0.6720352	0.0711401	0	-109.482	-46.564	0.377	NA
0.199835962753896	B5-03822-P01-CH0	245688	OK	0.2274293	0.0241051	0.0516431	-0.9721254	102.935	-22.089	-233.996	B5-03822-P02-CH0	245688	OK	0.8348455	0.1271896	-0.5355893	0	-79.138	-100.159	7.67	B5-03822-P02-CH1	245688	OK	0.8304113	-0.0806392	-0.5512843	0	-77.56	-81.326	6.097	B5-03822-P03-CH0	245688	OK	0.8929074	-0.3497905	-0.2834837	0	-93.831	-66.803	11.948	B5-03822-P03-CH1	245688	OK	0.780309	-0.5566314	-0.2850953	0	-95.512	-30.067	2.813	B5-03822-P04-CH0	245688	OK	0.7343863	-0.2953804	0.6110868	0	-120.965	-39.92	8.714	B5-03822-P04-CH1	245688	OK	0.7362115	-0.6728832	0.0722552	0	-109.173	-46.92	-0.9	NA
0.209827760891591	B5-03822-P01-CH0	245696	OK	0.2273049	0.0241663	0.0515455	-0.9721582	102.934	-22.086	-233.999	B5-03822-P02-CH0	245696	OK	0.8428383	0.128304	-0.5226487	0	-80.016	-100.823	8.459	B5-03822-P02-CH1	245696	OK	0.8286413	-0.0718649	-0.5551477	0	-77.334	-81.584	6.68	B5-03822-P03-CH0	245696	OK	0.8993856	-0.3530251	-0.2578349	0	-93.632	-67.486	12.166	B5-03822-P03-CH1	245696	OK	0.7802028	-0.5566863	-0.2852786	0	-95.459	-30.127	2.803	B5-03822-P04-CH0	245696	OK	0.7343046	-0.2961672	0.6108041	0	-121.014	-39.716	8.199	B5-03822-P04-CH1	245696	OK	0.7362786	-0.6725767	0.0743935	0	-109.405	-47.525	1.53	NA
0.219819559029285	B5-03822-P01-CH0	245704	OK	0.2271733	0.0240147	0.0518821	-0.9721748	102.87	-22.043	-234.02	B5-03822-P02-CH0	245704	OK	0.8519647	0.1304704	-0.5070835	0	-80.724	-101.1	9.254	B5-03822-P02-CH1	245704	OK	0.8255208	-0.0648916	-0.5606286	0	-77.836	-82.296	5.776	B5-03822-P03-CH0	245704	OK	0.9016913	-0.360802	-0.2382744	0	-93.53	-68.22	11.949	B5-03822-P03-CH1	245704	OK	0.7803432	-0.556345	-0.2855604	0	-95.372	-30.194	2.704	B5-03822-P04-CH0	245704	OK	0.734245	-0.3045881	0.606721	0	-121.769	-40.386	7.426	B5-03822-P04-CH1	245704	OK	0.7361347	-0.6726832	0.0748536	0	-109.646	-47.656	0.406	NA
0.22981135716698	B5-03822-P01-CH0	245712	OK	0.2273368	0.0240314	0.0522503	-0.9721165	102.868	-22.034	-234.013	B5-03822-P02-CH0	245712	OK	0.8610823	0.133785	-0.4905496	0	-81.369	-101.634	9.568	B5-03822-P02-CH1	245712	OK	0.8222061	-0.0584164	-0.5661842	0	-77.249	-82.316	5.128	B5-03822-P03-CH0	245712	OK	0.9002656	-0.3712799	-0.2273171	0	-93.424	-68.028	11.835	B5-03822-P03-CH1	245712	OK	0.7804931	-0.5559336	-0.2859516	0	-95.453	-30.258	2.698	B5-03822-P04-CH0	245712	OK	0.7335542	-0.3123213	0.6036172	0	-121.319	-39.204	6.195	B5-03822-P04-CH1	245712	OK	0.7363529	-0.6726728	0.0727723	0	-109.651	-47.203	-1.091	NA
0.239803155304675	B5-03822-P01-CH0	245720	OK	0.227299	0.0239564	0.052229	-0.9721283	102.839	-22.028	-234.005	B5-03822-P02-CH0	245720	OK	0.8688357	0.1400723	-0.4748729	0	-81.886	-101.435	10.723	B5-03822-P02-CH1	245720	OK	0.8150579	-0.0540189	-0.5768558	0	-76.307	-81.384	4.473	B5-03822-P03-CH0	245720	OK	0.893996	-0.3931769	-0.2149024	0	-92.205	-68.756	11.42	B5-03822-P03-CH1	245720	OK	0.7804829	-0.5556311	-0.2865668	0	-95.496	-30.314	2.739	B5-03822-P04-CH0	245720	OK	0.7329074	-0.3152375	0.6028864	0	-121.593	-39.992	7.512	B5-03822-P04-CH1	245720	OK	0.7367969	-0.6725174	0.0696473	0	-109.293	-46.668	0.098	NA
0.24979495344237	B5-03822-P01-CH0	245728	OK	0.2272446	0.0238548	0.0524701	-0.9721305	102.826	-22.031	-233.988	B5-03822-P02-CH0	245728	OK	0.8748393	0.1446555	-0.4623104	0	-82.37	-101.411	11.601	B5-03822-P02-CH1	245728	OK	0.8032124	-0.0560418	-0.5930508	0	-75.341	-81.098	4.715	B5-03822-P03-CH0	245728	OK	0.8880661	-0.4111187	-0.2057182	0	-91.527	-68.952	11.193	B5-03822-P03-CH1	245728	OK	0.7806325	-0.5551429	-0.2871048	0	-95.492	-30.416	2.695	B5-03822-P04-CH0	245728	OK	0.7321176	-0.3162555	0.6033128	0	-121.95	-41.391	8.986	B5-03822-P04-CH1	245728	OK	0.736983	-0.6721885	0.0708425	0	-109.41	-46.856	0.298	NA
0.259786751580065	B5-03822-P01-CH0	245736	OK	0.2273553	0.0235388	0.0529361	-0.9720871	102.734	-22.008	-233.991	B5-03822-P02-CH0	245736	OK	0.8794026	0.147568	-0.4526309	0	-82.476	-101.29	11.69	B5-03822-P02-CH1	245736	OK	0.7897974	-0.060955	-0.6103315	0	-73.94	-80.445	3.237	B5-03822-P03-CH0	245736	OK	0.8837269	-0.423708	-0.1987416	0	-90.918	-68.506	10.675	B5-03822-P03-CH1	245736	OK	0.7809608	-0.5545781	-0.2873034	0	-95.413	-30.477	2.637	B5-03822-P04-CH0	245736	OK	0.7307213	-0.3214015	0.6022852	0	-121.354	-40.67	8.917	B5-03822-P04-CH1	245736	OK	0.737272	-0.6717349	0.0721268	0	-109.34	-47.076	0.554	NA
0.269778549717759	B5-03822-P01-CH0	245744	OK	0.2273879	0.0233626	0.0530223	-0.972079	102.695	-22.004	-234.001	B5-03822-P02-CH0	245744	OK	0.882864	0.1526558	-0.4441253	0	-82.194	-100.401	11.411	B5-03822-P02-CH1	245744	OK	0.7746417	-0.0699261	-0.6285225	0	-72.642	-79.54	2.655	B5-03822-P03-CH0	245744	OK	0.8796552	-0.4338011	-0.194996	0	-90.491	-67.966	10.646	B5-03822-P03-CH1	245744	OK	0.7810902	-0.554223	-0.2876368	0	-95.401	-30.483	2.571	B5-03822-P04-CH0	245744	OK	0.7294256	-0.3247624	0.6020528	0	-121.042	-40.494	9.131	B5-03822-P04-CH1	245744	OK	0.7373883	-0.6715709	0.0724642	0	-109.328	-47.132	0.649	NA
0.279770347855454	B5-03822-P01-CH0	245752	OK	0.2273633	0.0234578	0.0528721	-0.9720906	102.725	-22.007	-233.909	B5-03822-P02-CH0	245752	OK	0.8847072	0.1541941	-0.4399061	0	-82.234	-99.789	11.46	B5-03822-P02-CH1	245752	OK	0.7595821	-0.0833182	-0.6450528	0	-71.011	-78.246	1.84	B5-03822-P03-CH0	245752	OK	0.8763193	-0.4423421	-0.1907823	0	-90.104	-67.105	10.556	B5-03822-P03-CH1	245752	OK	0.7811028	-0.5540181	-0.2879971	0	-95.425	-30.459	2.436	B5-03822-P04-CH0	245752	OK	0.72899	-0.3269479	0.6013973	0	-120.894	-40.276	8.976	B5-03822-P04-CH1	245752	OK	0.7372897	-0.6717011	0.0722605	0	-109.32	-47.195	0.879	NA
0.289762145993149	B5-03822-P01-CH0	245760	OK	0.2272922	0.0235385	0.0524846	-0.9721263	102.752	-22.039	-233.863	B5-03822-P02-CH0	245760	OK	0.8873414	0.1547868	-0.4343574	0	-81.505	-99.001	11.308	B5-03822-P02-CH1	245760	OK	0.7447885	-0.0960314	-0.6603545	0	-69.209	-75.759	-0.768	B5-03822-P03-CH0	245760	OK	0.8718047	-0.4531387	-0.1860697	0	-89.854	-66.209	10.158	B5-03822-P03-CH1	245760	OK	0.7810399	-0.5539635	-0.2882727	0	-95.42	-30.487	2.382	B5-03822-P04-CH0	245760	OK	0.7289412	-0.3307127	0.5993945	0	-120.816	-39.648	7.729	B5-03822-P04-CH1	245760	OK	0.7368868	-0.6721779	0.0719348	0	-109.297	-47.299	0.921	NA
0.299753944130844	B5-03822-P01-CH0	245768	OK	0.2272735	0.0235039	0.0521176	-0.9721513	102.759	-22.074	-233.837	B5-03822-P02-CH0	245768	OK	0.8898914	0.1547926	-0.4291067	0	-80.777	-98.285	11.48	B5-03822-P02-CH1	245768	OK	0.7354032	-0.0945352	-0.6710031	0	-69.724	-75.849	3.421	B5-03822-P03-CH0	245768	OK	0.8658264	-0.466588	-0.1806663	0	-90.011	-65.085	9.101	B5-03822-P03-CH1	245768	OK	0.7809716	-0.5539514	-0.2884809	0	-95.428	-30.533	2.353	B5-03822-P04-CH0	245768	OK	0.7285994	-0.333425	0.5983066	0	-120.297	-39.304	7.949	B5-03822-P04-CH1	245768	OK	0.7366966	-0.6724547	0.0712931	0	-109.297	-47.254	0.957	NA
0.309745742268539	B5-03822-P01-CH0	245776	OK	0.2272462	0.0234496	0.051843	-0.9721736	102.747	-22.066	-233.805	B5-03822-P02-CH0	245776	OK	0.891726	0.1582024	-0.4240244	0	-80.291	-97.37	11.668	B5-03822-P02-CH1	245776	OK	0.7381405	-0.1130227	-0.6651124	0	-69.194	-74.722	0.901	B5-03822-P03-CH0	245776	OK	0.8590176	-0.4816283	-0.1735595	0	-89.809	-64.781	8.842	B5-03822-P03-CH1	245776	OK	0.7809181	-0.5539682	-0.2885935	0	-95.477	-30.476	2.284	B5-03822-P04-CH0	245776	OK	0.728572	-0.3326384	0.5987776	0	-120.306	-40.061	8.328	B5-03822-P04-CH1	245776	OK	0.7365464	-0.6727307	0.0702333	0	-109.269	-47.106	0.95	NA
0.319737540406233	B5-03822-P01-CH0	245784	OK	0.2272874	0.0233776	0.0516963	-0.9721736	102.76	-22.091	-233.785	B5-03822-P02-CH0	245784	OK	0.8929746	0.1582679	-0.4213639	0	-79.869	-97.743	11.971	B5-03822-P02-CH1	245784	OK	0.7395535	-0.1477106	-0.6566903	0	-69.601	-74.627	0.859	B5-03822-P03-CH0	245784	OK	0.8566814	-0.488037	-0.1670833	0	-90.474	-63.352	9.904	B5-03822-P03-CH1	245784	OK	0.7809808	-0.5540176	-0.2883288	0	-95.44	-30.49	2.349	B5-03822-P04-CH0	245784	OK	0.7288254	-0.3339378	0.597745	0	-120.206	-38.925	7.57	B5-03822-P04-CH1	245784	OK	0.7364296	-0.6729511	0.0693416	0	-109.19	-47.015	0.892	NA
0.329729338543928	B5-03822-P01-CH0	245792	OK	0.2271062	0.0234418	0.0508345	-0.9722598	102.789	-22.142	-233.77	B5-03822-P02-CH0	245792	OK	0.8935795	0.1597993	-0.4194996	0	-79.409	-97.081	12.331	B5-03822-P02-CH1	245792	OK	0.741273	-0.17963	-0.6467205	0	-68.942	-74.073	-0.326	B5-03822-P03-CH0	245792	OK	0.8522512	-0.4994704	-0.1555542	0	-89.687	-63.229	9.227	B5-03822-P03-CH1	245792	OK	0.7805843	-0.5545907	-0.2883007	0	-95.364	-30.51	2.289	B5-03822-P04-CH0	245792	OK	0.7288878	-0.3297254	0.600003	0	-120.743	-39.287	7.41	B5-03822-P04-CH1	245792	OK	0.7358947	-0.6736361	0.0683617	0	-109.165	-46.861	0.906	NA
0.339721136681623	B5-03822-P01-CH0	245800	OK	0.2272435	0.0232052	0.0512367	-0.9722123	102.743	-22.051	-233.749	B5-03822-P02-CH0	245800	OK	0.8938126	0.1598203	-0.4189946	0	-78.817	-96.343	11.308	B5-03822-P02-CH1	245800	OK	0.7407603	-0.1890885	-0.6446081	0	-69.291	-73.489	1.202	B5-03822-P03-CH0	245800	OK	0.8482271	-0.5062913	-0.1554991	0	-89.987	-62.656	9.08	B5-03822-P03-CH1	245800	OK	0.7807982	-0.5544984	-0.2878988	0	-95.316	-30.468	2.254	B5-03822-P04-CH0	245800	OK	0.7288034	-0.3293706	0.6003005	0	-120.774	-39.636	7.917	B5-03822-P04-CH1	245800	OK	0.7362446	-0.6733268	0.0676382	0	-109.154	-46.602	0.867	NA
0.349712934819318	B5-03822-P01-CH0	245808	OK	0.2272415	0.0232956	0.0510183	-0.9722221	102.794	-22.04	-233.725	B5-03822-P02-CH0	245808	OK	0.8928441	0.1594022	-0.4212131	0	-78.565	-95.825	11.172	B5-03822-P02-CH1	245808	OK	0.7406132	-0.1886679	-0.6449004	0	-69.758	-73.113	0.743	B5-03822-P03-CH0	245808	OK	0.8447127	-0.5094471	-0.1640854	0	-90.416	-61.924	8.925	B5-03822-P03-CH1	245808	OK	0.7805276	-0.5548281	-0.2879971	0	-95.391	-30.464	2.285	B5-03822-P04-CH0	245808	OK	0.7287362	-0.3289376	0.6006194	0	-120.883	-39.835	8.225	B5-03822-P04-CH1	245808	OK	0.7360039	-0.6736696	0.0668391	0	-109.158	-46.439	0.675	NA
0.359704732957013	B5-03822-P01-CH0	245816	OK	0.2274366	0.023243	0.0512456	-0.9721657	102.84	-22.007	-233.768	B5-03822-P02-CH0	245816	OK	0.8919568	0.1570136	-0.4239809	0	-78.575	-95.758	10.953	B5-03822-P02-CH1	245816	OK	0.7418837	-0.1864182	-0.6440938	0	-69.829	-72.645	0.874	B5-03822-P03-CH0	245816	OK	0.8407633	-0.5126426	-0.1741111	0	-89.972	-61.623	8.733	B5-03822-P03-CH1	245816	OK	0.7806007	-0.5549228	-0.2876164	0	-95.442	-30.461	2.411	B5-03822-P04-CH0	245816	OK	0.7289113	-0.3275018	0.6011913	0	-120.984	-40.132	8.521	B5-03822-P04-CH1	245816	OK	0.7360186	-0.6736935	0.0664355	0	-109.214	-46.364	0.532	NA
0.369696531094707	B5-03822-P01-CH0	245824	OK	0.2274944	0.0232884	0.0514423	-0.9721407	102.931	-21.99	-233.827	B5-03822-P02-CH0	245824	OK	0.8923501	0.1550243	-0.4238852	0	-78.461	-95.332	11.105	B5-03822-P02-CH1	245824	OK	0.7434739	-0.1780037	-0.6446403	0	-69.944	-72.143	0.84	B5-03822-P03-CH0	245824	OK	0.8353374	-0.5154675	-0.1910622	0	-89.636	-61.395	8.622	B5-03822-P03-CH1	245824	OK	0.7805246	-0.5550898	-0.2875006	0	-95.508	-30.544	2.559	B5-03822-P04-CH0	245824	OK	0.7304066	-0.3188489	0.6040212	0	-121.595	-39.417	7.926	B5-03822-P04-CH1	245824	OK	0.7360206	-0.6737106	0.0662398	0	-109.258	-46.356	0.601	NA
0.379688329232402	B5-03822-P01-CH0	245832	OK	0.2275369	0.0230315	0.0518351	-0.9721161	102.928	-21.942	-233.948	B5-03822-P02-CH0	245832	OK	0.8927046	0.1511708	-0.4245301	0	-79.023	-95.08	11.662	B5-03822-P02-CH1	245832	OK	0.7450606	-0.1623447	-0.6469381	0	-70.787	-72.586	1.712	B5-03822-P03-CH0	245832	OK	0.8287631	-0.5154182	-0.2179354	0	-89.457	-60.721	8.455	B5-03822-P03-CH1	245832	OK	0.7806549	-0.5550752	-0.2871748	0	-95.472	-30.545	2.723	B5-03822-P04-CH0	245832	OK	0.7305148	-0.3168602	0.6049361	0	-121.847	-39.668	7.386	B5-03822-P04-CH1	245832	OK	0.7363262	-0.6734043	0.0659569	0	-109.321	-46.172	0.525	NA
0.389680127370097	B5-03822-P01-CH0	245840	OK	0.2275777	0.022806	0.05184	-0.9721116	102.927	-21.947	-234.06	B5-03822-P02-CH0	245840	OK	0.8940238	0.1474382	-0.4230643	0	-79.901	-95.008	11.532	B5-03822-P02-CH1	245840	OK	0.7544294	-0.1522559	-0.6384782	0	-70.392	-72.36	1.619	B5-03822-P03-CH0	245840	OK	0.8213999	-0.512286	-0.2507295	0	-89.42	-59.673	7.369	B5-03822-P03-CH1	245840	OK	0.7805476	-0.5552815	-0.2870678	0	-95.517	-30.465	2.658	B5-03822-P04-CH0	245840	OK	0.7309516	-0.3145211	0.6056288	0	-122.147	-40.621	7.573	B5-03822-P04-CH1	245840	OK	0.7363936	-0.673348	0.0657796	0	-109.301	-46.067	0.605	NA
0.399671925507792	B5-03822-P01-CH0	245848	OK	0.2276732	0.0227762	0.0519978	-0.9720815	102.986	-21.953	-234.159	B5-03822-P02-CH0	245848	OK	0.8950725	0.1482876	-0.4205425	0	-81.08	-94.797	11.833	B5-03822-P02-CH1	245848	OK	0.7663403	-0.1403042	-0.6269269	0	-71.909	-72.836	1.653	B5-03822-P03-CH0	245848	OK	0.8169401	-0.5047188	-0.2790481	0	-88.922	-59.473	7.662	B5-03822-P03-CH1	245848	OK	0.7805242	-0.5554544	-0.2867968	0	-95.506	-30.462	2.731	B5-03822-P04-CH0	245848	OK	0.7318181	-0.3152146	0.6042202	0	-122.28	-39.778	6.89	B5-03822-P04-CH1	245848	OK	0.7363616	-0.6733585	0.0660297	0	-109.28	-46.173	0.854	NA
0.409663723645487	B5-03822-P01-CH0	245856	OK	0.2276242	0.0227303	0.0517882	-0.9721052	102.986	-21.96	-234.175	B5-03822-P02-CH0	245856	OK	0.8955151	0.1478625	-0.4197491	0	-82.499	-95.797	12.508	B5-03822-P02-CH1	245856	OK	0.7802915	-0.126512	-0.6124866	0	-72.764	-73.363	1.946	B5-03822-P03-CH0	245856	OK	0.8159097	-0.4918235	-0.3039755	0	-89.024	-59.426	7.889	B5-03822-P03-CH1	245856	OK	0.7802371	-0.5559477	-0.2866221	0	-95.427	-30.518	2.791	B5-03822-P04-CH0	245856	OK	0.7314284	-0.3139498	0.6053495	0	-121.757	-40.148	8.067	B5-03822-P04-CH1	245856	OK	0.7361826	-0.6735439	0.0661348	0	-109.304	-46.145	0.877	NA
0.419655521783181	B5-03822-P01-CH0	245864	OK	0.2276321	0.0227979	0.0516034	-0.9721116	103.022	-21.985	-234.176	B5-03822-P02-CH0	245864	OK	0.8966462	0.1537609	-0.4151905	0	-83.119	-95.482	11.797	B5-03822-P02-CH1	245864	OK	0.7906831	-0.1117267	-0.6019446	0	-73.956	-74.376	3.149	B5-03822-P03-CH0	245864	OK	0.8157932	-0.4773519	-0.3265219	0	-89.719	-59.059	7.575	B5-03822-P03-CH1	245864	OK	0.7799512	-0.5563342	-0.2866503	0	-95.499	-30.475	2.766	B5-03822-P04-CH0	245864	OK	0.731685	-0.3143454	0.6048339	0	-121.557	-39.243	7.328	B5-03822-P04-CH1	245864	OK	0.736083	-0.6736358	0.0663069	0	-109.339	-46.177	0.961	NA
0.429647319920876	B5-03822-P01-CH0	245872	OK	0.2277241	0.0227657	0.052115	-0.9720635	103.046	-21.927	-234.212	B5-03822-P02-CH0	245872	OK	0.8991461	0.1554077	-0.4091269	0	-83.336	-95.448	12.358	B5-03822-P02-CH1	245872	OK	0.7987405	-0.0953765	-0.5940681	0	-74.597	-74.108	2.582	B5-03822-P03-CH0	245872	OK	0.8147389	-0.4665117	-0.3443362	0	-89.324	-59.252	7.133	B5-03822-P03-CH1	245872	OK	0.7800922	-0.5563321	-0.2862704	0	-95.56	-30.4	2.753	B5-03822-P04-CH0	245872	OK	0.731213	-0.3151523	0.6049848	0	-121.956	-40.648	8.709	B5-03822-P04-CH1	245872	OK	0.7363743	-0.6732872	0.0666135	0	-109.317	-46.24	1.03	NA
0.439639118058571	B5-03822-P01-CH0	245880	OK	0.227603	0.0228802	0.0517339	-0.9721096	103.082	-21.978	-234.241	B5-03822-P02-CH0	245880	OK	0.9020544	0.1539513	-0.403233	0	-83.575	-95.553	12.686	B5-03822-P02-CH1	245880	OK	0.8061938	-0.0839749	-0.5856618	0	-74.776	-74.677	4.117	B5-03822-P03-CH0	245880	OK	0.8115937	-0.4543928	-0.3672095	0	-89.032	-59.166	7.756	B5-03822-P03-CH1	245880	OK	0.7798104	-0.5568118	-0.2861054	0	-95.595	-30.379	2.782	B5-03822-P04-CH0	245880	OK	0.7314178	-0.3142922	0.6051846	0	-121.956	-40.611	8.661	B5-03822-P04-CH1	245880	OK	0.7360049	-0.6736791	0.0667325	0	-109.22	-46.391	1.009	NA
0.449630916196266	B5-03822-P01-CH0	245888	OK	0.2275416	0.0227915	0.0515397	-0.9721363	103.037	-22.009	-234.239	B5-03822-P02-CH0	245888	OK	0.9040655	0.1525717	-0.3992335	0	-83.996	-95.496	12.536	B5-03822-P02-CH1	245888	OK	0.811327	-0.0762011	-0.5796049	0	-75.908	-75.098	4.784	B5-03822-P03-CH0	245888	OK	0.8075146	-0.4394782	-0.3934197	0	-89.344	-58.576	7.698	B5-03822-P03-CH1	245888	OK	0.779749	-0.5570578	-0.2857938	0	-95.501	-30.353	2.705	B5-03822-P04-CH0	245888	OK	0.7315368	-0.3136211	0.6053889	0	-121.853	-40.65	8.585	B5-03822-P04-CH1	245888	OK	0.736001	-0.6736754	0.0668135	0	-109.172	-46.392	0.982	NA
0.459622714333961	B5-03822-P01-CH0	245896	OK	0.2274056	0.0228499	0.0513813	-0.9721752	103.055	-22.048	-234.219	B5-03822-P02-CH0	245896	OK	0.9047637	0.1505007	-0.3984371	0	-84.665	-96.29	12.581	B5-03822-P02-CH1	245896	OK	0.8166179	-0.0712039	-0.5727697	0	-76.352	-75.421	4.472	B5-03822-P03-CH0	245896	OK	0.8047031	-0.423313	-0.4162439	0	-89.155	-58.64	7.373	B5-03822-P03-CH1	245896	OK	0.7796295	-0.5572638	-0.2857181	0	-95.5	-30.362	2.622	B5-03822-P04-CH0	245896	OK	0.7327888	-0.3133443	0.6040165	0	-121.524	-40.515	7.467	B5-03822-P04-CH1	245896	OK	0.7361391	-0.6735484	0.0665715	0	-109.124	-46.335	1.022	NA
0.469614512471655	B5-03822-P01-CH0	245904	OK	0.2275723	0.0228644	0.0514984	-0.9721296	103.032	-22.039	-234.211	B5-03822-P02-CH0	245904	OK	0.9043378	0.1498681	-0.3996408	0	-85.319	-96.634	12.59	B5-03822-P02-CH1	245904	OK	0.8212822	-0.0664314	-0.5666414	0	-76.693	-76.014	4.656	B5-03822-P03-CH0	245904	OK	0.8021588	-0.401759	-0.4417363	0	-89.51	-58.402	6.841	B5-03822-P03-CH1	245904	OK	0.7797647	-0.5573309	-0.2852179	0	-95.452	-30.357	2.562	B5-03822-P04-CH0	245904	OK	0.7320874	-0.3130977	0.6049942	0	-121.672	-40.612	8.423	B5-03822-P04-CH1	245904	OK	0.7363545	-0.673291	0.0667919	0	-109.029	-46.405	1.239	NA
0.47960631060935	B5-03822-P01-CH0	245912	OK	0.227796	0.0228994	0.0513886	-0.9720822	103.011	-22.067	-234.191	B5-03822-P02-CH0	245912	OK	0.9037264	0.1524666	-0.4000406	0	-85.311	-96.491	12.509	B5-03822-P02-CH1	245912	OK	0.82657	-0.0632888	-0.5592644	0	-76.523	-76.446	5.59	B5-03822-P03-CH0	245912	OK	0.7998421	-0.3770005	-0.4670366	0	-89.455	-58.313	6.726	B5-03822-P03-CH1	245912	OK	0.7797698	-0.5574877	-0.2848974	0	-95.442	-30.419	2.49	B5-03822-P04-CH0	245912	OK	0.7324173	-0.3127541	0.6047725	0	-121.581	-40.705	8.375	B5-03822-P04-CH1	245912	OK	0.7363406	-0.6732939	0.0669162	0	-108.882	-46.457	0.914	NA
0.489598108747045	B5-03822-P01-CH0	245920	OK	0.2278088	0.0230706	0.0512828	-0.9720807	103.005	-22.049	-234.098	B5-03822-P02-CH0	245920	OK	0.9024368	0.1548311	-0.4020388	0	-84.959	-96.324	12.415	B5-03822-P02-CH1	245920	OK	0.8278093	-0.0602641	-0.5577634	0	-77.42	-76.53	5.719	B5-03822-P03-CH0	245920	OK	0.7971618	-0.3521429	-0.4904371	0	-89.095	-58.399	6.476	B5-03822-P03-CH1	245920	OK	0.7797974	-0.5574543	-0.2848871	0	-95.419	-30.468	2.615	B5-03822-P04-CH0	245920	OK	0.7326928	-0.3130477	0.6042866	0	-121.457	-40.552	8.241	B5-03822-P04-CH1	245920	OK	0.7363065	-0.6733386	0.0668414	0	-108.831	-46.492	0.742	NA
0.49958990688474	B5-03822-P01-CH0	245928	OK	0.2278237	0.0229964	0.0513523	-0.9720754	102.913	-22.024	-234.013	B5-03822-P02-CH0	245928	OK	0.8995673	0.1531202	-0.4090634	0	-84.875	-97.485	12.746	B5-03822-P02-CH1	245928	OK	0.8292749	-0.0607893	-0.5555249	0	-77.471	-76.352	5.796	B5-03822-P03-CH0	245928	OK	0.7951493	-0.3307297	-0.5082867	0	-88.558	-58.839	6.72	B5-03822-P03-CH1	245928	OK	0.7800088	-0.557184	-0.2848371	0	-95.35	-30.456	2.552	B5-03822-P04-CH0	245928	OK	0.7328364	-0.3135256	0.6038646	0	-121.246	-40.363	8.01	B5-03822-P04-CH1	245928	OK	0.7365421	-0.6730932	0.0667181	0	-108.738	-46.399	0.583	NA
0.509581705022434	B5-03822-P01-CH0	245936	OK	0.2280047	0.0229667	0.0519914	-0.9719996	102.905	-21.999	-234.026	B5-03822-P02-CH0	245936	OK	0.8967174	0.1593832	-0.4129102	0	-84.004	-97.517	12.483	B5-03822-P02-CH1	245936	OK	0.8296845	-0.0670625	-0.5541897	0	-77.701	-76.91	4.737	B5-03822-P03-CH0	245936	OK	0.7933163	-0.3113279	-0.5231866	0	-88.485	-59.258	6.948	B5-03822-P03-CH1	245936	OK	0.7806286	-0.5563143	-0.2848391	0	-95.423	-30.355	2.468	B5-03822-P04-CH0	245936	OK	0.7332357	-0.3139145	0.6031775	0	-121.081	-40.256	7.814	B5-03822-P04-CH1	245936	OK	0.7370426	-0.6725423	0.0667467	0	-108.545	-46.423	0.345	NA
0.519573503160129	B5-03822-P01-CH0	245944	OK	0.2279358	0.023125	0.0518203	-0.9720212	102.912	-22.005	-234.016	B5-03822-P02-CH0	245944	OK	0.8921648	0.1617774	-0.4217464	0	-84.031	-98.282	12.339	B5-03822-P02-CH1	245944	OK	0.8316499	-0.0724781	-0.5505501	0	-77.399	-77.327	4.948	B5-03822-P03-CH0	245944	OK	0.7915428	-0.2920683	-0.5368017	0	-88.835	-59.131	6.433	B5-03822-P03-CH1	245944	OK	0.7807789	-0.5559993	-0.2850424	0	-95.378	-30.413	2.429	B5-03822-P04-CH0	245944	OK	0.7335215	-0.3144543	0.6025485	0	-121.025	-40.266	7.836	B5-03822-P04-CH1	245944	OK	0.7370477	-0.6725703	0.0664078	0	-108.466	-46.385	0.387	NA
0.529565301297824	B5-03822-P01-CH0	245952	OK	0.2278436	0.0229992	0.051535	-0.9720609	102.829	-22.072	-233.974	B5-03822-P02-CH0	245952	OK	0.8884847	0.1672237	-0.4273537	0	-83.637	-97.666	12.205	B5-03822-P02-CH1	245952	OK	0.8332387	-0.0767929	-0.5475547	0	-77.664	-77.126	5.312	B5-03822-P03-CH0	245952	OK	0.791533	-0.2769098	-0.5447903	0	-88.821	-59.224	5.636	B5-03822-P03-CH1	245952	OK	0.7827662	-0.5519562	-0.2874392	0	-95.076	-30.688	2.425	B5-03822-P04-CH0	245952	OK	0.7336251	-0.3151152	0.6020769	0	-120.889	-40.292	7.833	B5-03822-P04-CH1	245952	OK	0.7370188	-0.672632	0.0661022	0	-108.371	-46.351	0.466	NA
0.539557099435519	B5-03822-P01-CH0	245960	OK	0.2276968	0.0230579	0.0513023	-0.9721063	102.788	-22.1	-233.905	B5-03822-P02-CH0	245960	OK	0.8849035	0.1662715	-0.4350858	0	-83.754	-98.359	12.053	B5-03822-P02-CH1	245960	OK	0.8346568	-0.0821958	-0.5446024	0	-78.084	-77.238	6.11	B5-03822-P03-CH0	245960	OK	0.7931952	-0.2657818	-0.5479064	0	-89.085	-58.951	5.47	B5-03822-P03-CH1	245960	OK	0.7824393	-0.5511942	-0.2897821	0	-95.457	-30.699	2.667	B5-03822-P04-CH0	245960	OK	0.733814	-0.3160235	0.6013702	0	-120.79	-40.214	7.814	B5-03822-P04-CH1	245960	OK	0.7369243	-0.6727832	0.0656151	0	-108.32	-46.282	0.475	NA
0.549548897573214	B5-03822-P01-CH0	245968	OK	0.2277026	0.0230661	0.0513949	-0.9720998	102.751	-22.066	-233.837	B5-03822-P02-CH0	245968	OK	0.8826855	0.1677903	-0.4389907	0	-83.123	-98.177	11.519	B5-03822-P02-CH1	245968	OK	0.8357054	-0.0889293	-0.54193	0	-78.531	-77.616	6.053	B5-03822-P03-CH0	245968	OK	0.7950609	-0.2565506	-0.5495998	0	-89.357	-58.625	6.005	B5-03822-P03-CH1	245968	OK	0.7824865	-0.5507845	-0.2904331	0	-95.456	-31.025	3.138	B5-03822-P04-CH0	245968	OK	0.7340705	-0.316973	0.6005569	0	-120.663	-39.982	7.664	B5-03822-P04-CH1	245968	OK	0.7369579	-0.6727716	0.0653553	0	-108.193	-46.286	0.431	NA
0.559540695710908	B5-03822-P01-CH0	245976	OK	0.2275407	0.0233477	0.0509654	-0.9721536	102.784	-22.072	-233.765	B5-03822-P02-CH0	245976	OK	0.8804363	0.1676102	-0.4435524	0	-82.604	-98.046	10.901	B5-03822-P02-CH1	245976	OK	0.8365919	-0.0941267	-0.5396797	0	-78.563	-77.397	5.195	B5-03822-P03-CH0	245976	OK	0.7967378	-0.2504501	-0.5499851	0	-89.259	-58.288	6.174	B5-03822-P03-CH1	245976	OK	0.7829403	-0.5500453	-0.2906109	0	-95.226	-30.793	2.733	B5-03822-P04-CH0	245976	OK	0.7341985	-0.3182535	0.5997226	0	-120.607	-39.836	7.607	B5-03822-P04-CH1	245976	OK	0.7365649	-0.6732357	0.0650063	0	-108.156	-46.32	0.442	NA
0.569532493848603	B5-03822-P01-CH0	245984	OK	0.2273459	0.0235968	0.050614	-0.9722115	102.825	-22.09	-233.675	B5-03822-P02-CH0	245984	OK	0.878469	0.1667373	-0.4477621	0	-81.828	-97.573	10.809	B5-03822-P02-CH1	245984	OK	0.8368727	-0.099962	-0.538193	0	-78.475	-77.177	5.222	B5-03822-P03-CH0	245984	OK	0.7971077	-0.2471513	-0.5509406	0	-89.53	-58.281	6.632	B5-03822-P03-CH1	245984	OK	0.7827872	-0.5493575	-0.2923192	0	-95.272	-30.635	2.614	B5-03822-P04-CH0	245984	OK	0.7344323	-0.3192472	0.5989076	0	-120.63	-39.72	7.506	B5-03822-P04-CH1	245984	OK	0.7362189	-0.6736751	0.0643712	0	-108.186	-46.281	0.109	NA
0.579524291986298	B5-03822-P01-CH0	245992	OK	0.2271615	0.0236264	0.0506529	-0.9722519	102.818	-22.036	-233.646	B5-03822-P02-CH0	245992	OK	0.8756923	0.1617026	-0.4549894	0	-81.747	-97.915	10.017	B5-03822-P02-CH1	245992	OK	0.8376673	-0.1026589	-0.5364463	0	-78.28	-76.79	5.428	B5-03822-P03-CH0	245992	OK	0.7975522	-0.2471706	-0.5502883	0	-89.684	-58.453	6.748	B5-03822-P03-CH1	245992	OK	0.7828368	-0.548955	-0.292942	0	-95.071	-30.749	2.366	B5-03822-P04-CH0	245992	OK	0.7346065	-0.3203472	0.5981061	0	-120.583	-39.524	7.457	B5-03822-P04-CH1	245992	OK	0.7362298	-0.6737042	0.0639405	0	-108.238	-46.206	0.246	NA
0.589516090123993	B5-03822-P01-CH0	246000	OK	0.2272087	0.0235109	0.050831	-0.9722344	102.807	-22.056	-233.702	B5-03822-P02-CH0	246000	OK	0.8728116	0.1582918	-0.4616748	0	-81.287	-97.548	10.367	B5-03822-P02-CH1	246000	OK	0.8385972	-0.1050913	-0.534519	0	-78.117	-77.062	5.869	B5-03822-P03-CH0	246000	OK	0.7987362	-0.2505004	-0.5470557	0	-89.201	-58.714	7.036	B5-03822-P03-CH1	246000	OK	0.7830265	-0.5476231	-0.294921	0	-95.909	-30.251	3.041	B5-03822-P04-CH0	246000	OK	0.734817	-0.3211165	0.5974346	0	-120.495	-39.468	7.522	B5-03822-P04-CH1	246000	OK	0.7363591	-0.6735655	0.063912	0	-108.204	-46.214	0.398	NA
0.599507888261688	B5-03822-P01-CH0	246008	OK	0.2272741	0.0234435	0.0509041	-0.9722169	102.81	-22.066	-233.723	B5-03822-P02-CH0	246008	OK	0.8698823	0.1555469	-0.4680917	0	-80.953	-97.485	9.988	B5-03822-P02-CH1	246008	OK	0.8386636	-0.1052433	-0.5343849	0	-78.408	-77.476	5.772	B5-03822-P03-CH0	246008	OK	0.7979952	-0.2547286	-0.5461841	0	-89.161	-58.782	6.792	B5-03822-P03-CH1	246008	OK	0.782666	-0.5503438	-0.2907845	0	-95.211	-30.573	2.427	B5-03822-P04-CH0	246008	OK	0.7350534	-0.3218631	0.5967417	0	-120.472	-39.452	7.539	B5-03822-P04-CH1	246008	OK	0.7363856	-0.673559	0.0636748	0	-108.124	-46.229	0.521	NA
0.609499686399382	B5-03822-P01-CH0	246016	OK	0.2272641	0.0234646	0.0506617	-0.9722314	102.841	-22.1	-233.738	B5-03822-P02-CH0	246016	OK	0.867432	0.1537888	-0.4731921	0	-80.505	-97.455	9.661	B5-03822-P02-CH1	246016	OK	0.8393958	-0.1028945	-0.5336923	0	-78.184	-77.135	6.017	B5-03822-P03-CH0	246016	OK	0.7975133	-0.2580751	-0.5453162	0	-88.559	-58.927	7.155	B5-03822-P03-CH1	246016	OK	0.7826314	-0.5500507	-0.2914315	0	-95.191	-30.685	2.461	B5-03822-P04-CH0	246016	OK	0.7351967	-0.3228925	0.5960086	0	-120.479	-39.414	7.569	B5-03822-P04-CH1	246016	OK	0.7362395	-0.6737418	0.0634301	0	-108.135	-46.218	0.613	NA
0.619491484537077	B5-03822-P01-CH0	246024	OK	0.227415	0.0233319	0.0508983	-0.9721869	102.821	-22.068	-233.764	B5-03822-P02-CH0	246024	OK	0.8644516	0.1531419	-0.4788224	0	-80.265	-97.345	9.726	B5-03822-P02-CH1	246024	OK	0.8391019	-0.103023	-0.5341295	0	-78.137	-77.642	5.717	B5-03822-P03-CH0	246024	OK	0.7957911	-0.2608907	-0.5464911	0	-88.717	-59.224	6.889	B5-03822-P03-CH1	246024	OK	0.7828157	-0.549541	-0.2918977	0	-95.264	-30.671	2.486	B5-03822-P04-CH0	246024	OK	0.7352991	-0.3235916	0.5955029	0	-120.431	-39.41	7.547	B5-03822-P04-CH1	246024	OK	0.7362892	-0.6736946	0.0633541	0	-108.075	-46.202	0.372	NA
0.629483282674772	B5-03822-P01-CH0	246032	OK	0.2274854	0.0235045	0.0509714	-0.9721624	102.897	-22.025	-233.772	B5-03822-P02-CH0	246032	OK	0.8617082	0.1519643	-0.4841134	0	-80.005	-97.603	9.605	B5-03822-P02-CH1	246032	OK	0.8388738	-0.1027451	-0.5345412	0	-78.166	-77.427	5.681	B5-03822-P03-CH0	246032	OK	0.7956124	-0.2647245	-0.5449053	0	-88.422	-59.31	6.789	B5-03822-P03-CH1	246032	OK	0.7827531	-0.5493471	-0.29243	0	-95.349	-30.727	2.567	B5-03822-P04-CH0	246032	OK	0.7355182	-0.3248627	0.5945394	0	-120.459	-39.186	7.324	B5-03822-P04-CH1	246032	OK	0.7362519	-0.6737623	0.0630675	0	-108.117	-46.163	0.261	NA
0.639475080812467	B5-03822-P01-CH0	246040	OK	0.227619	0.0235997	0.050954	-0.9721298	102.953	-21.998	-233.814	B5-03822-P02-CH0	246040	OK	0.8596379	0.1518984	-0.4878007	0	-79.576	-97.526	9.517	B5-03822-P02-CH1	246040	OK	0.838211	-0.104465	-0.5352471	0	-78.06	-77.467	4.902	B5-03822-P03-CH0	246040	OK	0.7943571	-0.269018	-0.5446339	0	-88.634	-59.532	7.027	B5-03822-P03-CH1	246040	OK	0.782756	-0.5492212	-0.2926588	0	-95.38	-30.722	2.558	B5-03822-P04-CH0	246040	OK	0.7355784	-0.3260402	0.59382	0	-120.444	-39.011	7.159	B5-03822-P04-CH1	246040	OK	0.7362283	-0.6737897	0.0630497	0	-108.196	-46.139	0.279	NA
0.649466878950162	B5-03822-P01-CH0	246048	OK	0.2276165	0.0236863	0.0506124	-0.9721461	102.993	-22.022	-233.878	B5-03822-P02-CH0	246048	OK	0.8573779	0.1506311	-0.4921518	0	-79.543	-97.682	9.957	B5-03822-P02-CH1	246048	OK	0.8362522	-0.109071	-0.5373879	0	-78.131	-77.81	4.72	B5-03822-P03-CH0	246048	OK	0.7926491	-0.2738606	-0.544709	0	-88.965	-59.614	6.526	B5-03822-P03-CH1	246048	OK	0.78248	-0.5493023	-0.2932441	0	-95.451	-30.741	2.629	B5-03822-P04-CH0	246048	OK	0.7355749	-0.3270381	0.5932754	0	-120.476	-39.036	7.226	B5-03822-P04-CH1	246048	OK	0.7359887	-0.6740774	0.0627717	0	-108.238	-46.085	0.327	NA
0.659458677087856	B5-03822-P01-CH0	246056	OK	0.2278393	0.0233753	0.0508382	-0.9720897	102.938	-22.028	-233.988	B5-03822-P02-CH0	246056	OK	0.855756	0.1507496	-0.4949305	0	-79.227	-97.617	9.211	B5-03822-P02-CH1	246056	OK	0.834341	-0.1104092	-0.5400786	0	-78.015	-77.887	5.481	B5-03822-P03-CH0	246056	OK	0.7920369	-0.2770912	-0.5439651	0	-88.643	-59.429	6.023	B5-03822-P03-CH1	246056	OK	0.7826716	-0.5490091	-0.2932818	0	-95.412	-30.689	2.502	B5-03822-P04-CH0	246056	OK	0.7354931	-0.3278249	0.5929425	0	-120.345	-39.046	7.22	B5-03822-P04-CH1	246056	OK	0.7361381	-0.6739152	0.0627613	0	-108.172	-46.054	0.311	NA
0.669450475225551	B5-03822-P01-CH0	246064	OK	0.2280242	0.0232027	0.0510673	-0.9720385	102.928	-22.036	-234.068	B5-03822-P02-CH0	246064	OK	0.8541295	0.1514969	-0.4975053	0	-79.103	-97.607	8.383	B5-03822-P02-CH1	246064	OK	0.833032	-0.1079692	-0.5425868	0	-77.655	-77.286	4.845	B5-03822-P03-CH0	246064	OK	0.791683	-0.2794399	-0.5432784	0	-88.488	-59.073	5.887	B5-03822-P03-CH1	246064	OK	0.7828244	-0.5489013	-0.2930756	0	-95.352	-30.721	2.406	B5-03822-P04-CH0	246064	OK	0.7354572	-0.3285853	0.5925659	0	-120.252	-39.089	7.289	B5-03822-P04-CH1	246064	OK	0.7362727	-0.6737693	0.0627492	0	-108.102	-46.047	0.294	NA
0.679442273363246	B5-03822-P01-CH0	246072	OK	0.227981	0.0234132	0.0505374	-0.9720712	102.986	-22.105	-234.092	B5-03822-P02-CH0	246072	OK	0.852756	0.1519166	-0.4997284	0	-78.969	-97.353	8.84	B5-03822-P02-CH1	246072	OK	0.8309229	-0.107195	-0.5459637	0	-77.73	-77.355	4.757	B5-03822-P03-CH0	246072	OK	0.7920692	-0.2837719	-0.5404627	0	-87.985	-59.047	6.401	B5-03822-P03-CH1	246072	OK	0.7824354	-0.549196	-0.2935619	0	-95.426	-30.729	2.384	B5-03822-P04-CH0	246072	OK	0.7353534	-0.3294454	0.5922172	0	-120.271	-39.194	7.399	B5-03822-P04-CH1	246072	OK	0.7358685	-0.6742368	0.0624675	0	-108.04	-46.056	0.409	NA
0.689434071500941	B5-03822-P01-CH0	246080	OK	0.2280882	0.0236396	0.0504649	-0.9720444	103.043	-22.072	-234.06	B5-03822-P02-CH0	246080	OK	0.8509356	0.1504464	-0.5032639	0	-79.126	-97.415	9.09	B5-03822-P02-CH1	246080	OK	0.8296981	-0.1078189	-0.5477009	0	-77.532	-77.758	5.085	B5-03822-P03-CH0	246080	OK	0.7913395	-0.2876784	-0.5394653	0	-88.046	-59.233	7.024	B5-03822-P03-CH1	246080	OK	0.7822578	-0.5493415	-0.2937629	0	-95.452	-30.717	2.318	B5-03822-P04-CH0	246080	OK	0.7353321	-0.330384	0.5917205	0	-120.264	-39.153	7.236	B5-03822-P04-CH1	246080	OK	0.7356979	-0.6744363	0.0623235	0	-107.982	-46.065	0.485	NA
0.699425869638636	B5-03822-P01-CH0	246088	OK	0.2282881	0.0236752	0.0508017	-0.971979	103.078	-22.034	-234.094	B5-03822-P02-CH0	246088	OK	0.8504657	0.1510799	-0.5038681	0	-78.567	-97.215	9.23	B5-03822-P02-CH1	246088	OK	0.8292059	-0.1072745	-0.5485525	0	-77.312	-77.548	5.039	B5-03822-P03-CH0	246088	OK	0.7913029	-0.2897725	-0.5383973	0	-88.073	-59.024	6.81	B5-03822-P03-CH1	246088	OK	0.7823638	-0.5491063	-0.2939203	0	-95.532	-30.684	2.321	B5-03822-P04-CH0	246088	OK	0.7353792	-0.3307792	0.5914411	0	-120.225	-39.179	7.281	B5-03822-P04-CH1	246088	OK	0.7358949	-0.6742367	0.0621575	0	-108.12	-45.974	0.314	NA
0.70941766777633	B5-03822-P01-CH0	246096	OK	0.2284044	0.0237926	0.0507723	-0.9719504	103.119	-22.034	-234.127	B5-03822-P02-CH0	246096	OK	0.8489698	0.1510557	-0.5063916	0	-78.672	-97.303	9.118	B5-03822-P02-CH1	246096	OK	0.8290127	-0.107324	-0.5488347	0	-76.77	-77.014	5.497	B5-03822-P03-CH0	246096	OK	0.7903637	-0.2934888	-0.5377634	0	-88.396	-58.988	6.353	B5-03822-P03-CH1	246096	OK	0.7823119	-0.5490171	-0.294225	0	-95.6	-30.652	2.4	B5-03822-P04-CH0	246096	OK	0.7353846	-0.3311967	0.5912006	0	-120.252	-39.219	7.264	B5-03822-P04-CH1	246096	OK	0.735793	-0.6743671	0.0619482	0	-108.203	-45.941	0.271	NA
0.719409465914025	B5-03822-P01-CH0	246104	OK	0.2282483	0.0240605	0.0502712	-0.9720065	103.191	-22.079	-234.098	B5-03822-P02-CH0	246104	OK	0.8485947	0.1519678	-0.5067473	0	-78.281	-97.347	8.657	B5-03822-P02-CH1	246104	OK	0.8255176	-0.1090242	-0.5537458	0	-77.51	-77.532	4.871	B5-03822-P03-CH0	246104	OK	0.7902071	-0.2983482	-0.535314	0	-88.612	-58.818	6.133	B5-03822-P03-CH1	246104	OK	0.7819998	-0.5491665	-0.2947754	0	-95.588	-30.667	2.412	B5-03822-P04-CH0	246104	OK	0.735238	-0.3320822	0.5908862	0	-120.305	-39.223	7.228	B5-03822-P04-CH1	246104	OK	0.7354681	-0.6747572	0.0615589	0	-108.293	-45.917	0.523	NA
0.72940126405172	B5-03822-P01-CH0	246112	OK	0.2283069	0.024109	0.0501769	-0.9719964	103.214	-22.128	-234.112	B5-03822-P02-CH0	246112	OK	0.8474486	0.1514738	-0.508809	0	-78.259	-97.438	8.189	B5-03822-P02-CH1	246112	OK	0.8250199	-0.1091704	-0.5544583	0	-77.015	-77.258	5.514	B5-03822-P03-CH0	246112	OK	0.7911549	-0.3016822	-0.5320354	0	-88.297	-59.15	6.119	B5-03822-P03-CH1	246112	OK	0.7820046	-0.5489676	-0.2951329	0	-95.635	-30.578	2.309	B5-03822-P04-CH0	246112	OK	0.7350979	-0.3321858	0.5910023	0	-120.277	-39.404	7.475	B5-03822-P04-CH1	246112	OK	0.7353086	-0.6749331	0.0615351	0	-108.261	-45.956	0.568	NA
0.739393062189415	B5-03822-P01-CH0	246120	OK	0.2285034	0.0241224	0.0505815	-0.9719289	103.261	-22.102	-234.169	B5-03822-P02-CH0	246120	OK	0.8468993	0.1522223	-0.5094997	0	-77.978	-96.9	8.206	B5-03822-P02-CH1	246120	OK	0.8242791	-0.1091414	-0.5555646	0	-76.751	-77.228	4.873	B5-03822-P03-CH0	246120	OK	0.7921838	-0.3044995	-0.5288903	0	-87.963	-59.742	6.785	B5-03822-P03-CH1	246120	OK	0.782277	-0.5486253	-0.2950473	0	-95.622	-30.606	2.323	B5-03822-P04-CH0	246120	OK	0.735205	-0.3319766	0.5909866	0	-120.315	-39.531	7.643	B5-03822-P04-CH1	246120	OK	0.7355497	-0.6746679	0.0615624	0	-108.185	-45.976	0.792	NA
0.74938486032711	B5-03822-P01-CH0	246128	OK	0.2285998	0.0241833	0.0508325	-0.9718916	103.314	-22.11	-234.233	B5-03822-P02-CH0	246128	OK	0.8456016	0.1520426	-0.5117039	0	-77.935	-96.921	8.581	B5-03822-P02-CH1	246128	OK	0.8221519	-0.1085974	-0.5588138	0	-77.146	-77.428	5.108	B5-03822-P03-CH0	246128	OK	0.7926508	-0.3070815	-0.5266931	0	-87.992	-59.687	6.876	B5-03822-P03-CH1	246128	OK	0.7824921	-0.548245	-0.295184	0	-95.586	-30.627	2.374	B5-03822-P04-CH0	246128	OK	0.7352037	-0.3325371	0.590673	0	-120.283	-39.43	7.51	B5-03822-P04-CH1	246128	OK	0.735705	-0.6745167	0.0613627	0	-108.211	-45.929	0.76	NA
0.759376658464804	B5-03822-P01-CH0	246136	OK	0.2285604	0.0244476	0.0505142	-0.9719109	103.379	-22.124	-234.251	B5-03822-P02-CH0	246136	OK	0.8438735	0.1508709	-0.5148936	0	-77.97	-97.341	9.345	B5-03822-P02-CH1	246136	OK	0.8196103	-0.1094028	-0.5623788	0	-77.427	-77.728	4.781	B5-03822-P03-CH0	246136	OK	0.7921478	-0.3095005	-0.5260335	0	-88.131	-59.337	6.647	B5-03822-P03-CH1	246136	OK	0.7823453	-0.5482161	-0.2956263	0	-95.618	-30.666	2.555	B5-03822-P04-CH0	246136	OK	0.7351757	-0.3326605	0.5906383	0	-120.367	-39.514	7.697	B5-03822-P04-CH1	246136	OK	0.7353281	-0.6749379	0.0612488	0	-108.175	-45.983	0.833	NA
0.769368456602499	B5-03822-P01-CH0	246144	OK	0.2284278	0.0246288	0.0501393	-0.9719569	103.405	-22.108	-234.232	B5-03822-P02-CH0	246144	OK	0.8423535	0.1513653	-0.5172322	0	-77.816	-97.127	8.989	B5-03822-P02-CH1	246144	OK	0.8188378	-0.1096752	-0.5634502	0	-76.961	-77.254	5.104	B5-03822-P03-CH0	246144	OK	0.7911505	-0.3131602	-0.525368	0	-88.469	-59.284	6.92	B5-03822-P03-CH1	246144	OK	0.7821884	-0.5480749	-0.2963024	0	-95.676	-30.577	2.633	B5-03822-P04-CH0	246144	OK	0.7350731	-0.3330971	0.5905199	0	-120.393	-39.445	7.805	B5-03822-P04-CH1	246144	OK	0.7351015	-0.6752129	0.0609369	0	-108.175	-45.876	0.989	NA
0.779360254740194	B5-03822-P01-CH0	246152	OK	0.2286886	0.0244102	0.0509025	-0.9718614	103.382	-22.044	-234.225	B5-03822-P02-CH0	246152	OK	0.8408014	0.1510637	-0.5198393	0	-77.77	-97.347	8.736	B5-03822-P02-CH1	246152	OK	0.8187707	-0.1116656	-0.5631566	0	-76.241	-77.17	4.777	B5-03822-P03-CH0	246152	OK	0.7914627	-0.3175778	-0.5222366	0	-88.314	-59.19	6.773	B5-03822-P03-CH1	246152	OK	0.7827245	-0.5474165	-0.2961038	0	-95.629	-30.564	2.602	B5-03822-P04-CH0	246152	OK	0.7352567	-0.3328971	0.5904042	0	-120.379	-39.409	7.755	B5-03822-P04-CH1	246152	OK	0.735639	-0.6746148	0.061075	0	-108.223	-45.852	1.046	NA
0.789352052877889	B5-03822-P01-CH0	246160	OK	0.228734	0.0243439	0.0509868	-0.971848	103.387	-22.035	-234.258	B5-03822-P02-CH0	246160	OK	0.8387089	0.1522637	-0.5228606	0	-77.909	-97.167	8.575	B5-03822-P02-CH1	246160	OK	0.8173232	-0.1126943	-0.5650511	0	-76.546	-77.125	4.916	B5-03822-P03-CH0	246160	OK	0.7909544	-0.3208123	-0.5210285	0	-88.611	-59.052	6.486	B5-03822-P03-CH1	246160	OK	0.7829027	-0.547158	-0.2961107	0	-95.608	-30.564	2.594	B5-03822-P04-CH0	246160	OK	0.7352817	-0.3326606	0.5905063	0	-120.378	-39.498	8.126	B5-03822-P04-CH1	246160	OK	0.7356765	-0.6745819	0.0609872	0	-108.257	-45.837	1.107	NA
0.799343851015584	B5-03822-P01-CH0	246168	OK	0.2287195	0.0243636	0.050799	-0.9718607	103.395	-22.058	-234.251	B5-03822-P02-CH0	246168	OK	0.8369736	0.1521216	-0.525675	0	-78.154	-97.234	9.463	B5-03822-P02-CH1	246168	OK	0.8172201	-0.1139582	-0.5649468	0	-76.268	-77.125	4.905	B5-03822-P03-CH0	246168	OK	0.7916346	-0.3242978	-0.5178278	0	-88.384	-59.184	6.262	B5-03822-P03-CH1	246168	OK	0.7828698	-0.5471135	-0.2962798	0	-95.567	-30.579	2.557	B5-03822-P04-CH0	246168	OK	0.7352077	-0.3330323	0.5903889	0	-120.38	-39.475	8.086	B5-03822-P04-CH1	246168	OK	0.7354569	-0.6748252	0.0609434	0	-108.177	-45.869	1.018	NA
0.809335649153278	B5-03822-P01-CH0	246176	OK	0.2289273	0.0243034	0.0510905	-0.971798	103.394	-22.025	-234.272	B5-03822-P02-CH0	246176	OK	0.8373855	0.1548201	-0.5242293	0	-77.286	-96.821	8.647	B5-03822-P02-CH1	246176	OK	0.8158474	-0.1148879	-0.5667396	0	-76.666	-77.261	4.882	B5-03822-P03-CH0	246176	OK	0.7927977	-0.3280987	-0.5136371	0	-88.111	-59.584	6.443	B5-03822-P03-CH1	246176	OK	0.7831158	-0.5468787	-0.296063	0	-95.49	-30.604	2.585	B5-03822-P04-CH0	246176	OK	0.7352673	-0.3331335	0.5902576	0	-120.312	-39.435	8.157	B5-03822-P04-CH1	246176	OK	0.7355639	-0.6746765	0.0612976	0	-108.034	-45.977	1.15	NA
0.819327447290973	B5-03822-P01-CH0	246184	OK	0.229224	0.0241534	0.0514875	-0.9717109	103.394	-21.992	-234.347	B5-03822-P02-CH0	246184	OK	0.8369869	0.155822	-0.5245688	0	-77.026	-97.142	7.816	B5-03822-P02-CH1	246184	OK	0.8155052	-0.1146142	-0.5672872	0	-76.475	-77.215	4.294	B5-03822-P03-CH0	246184	OK	0.7941009	-0.3312878	-0.5095608	0	-88.174	-59.392	6.65	B5-03822-P03-CH1	246184	OK	0.7834121	-0.5466096	-0.2957759	0	-95.476	-30.63	2.617	B5-03822-P04-CH0	246184	OK	0.7353086	-0.3333502	0.5900837	0	-120.179	-39.334	8.121	B5-03822-P04-CH1	246184	OK	0.735874	-0.6743154	0.0615485	0	-108.033	-45.971	1.109	NA
0.829319245428668	B5-03822-P01-CH0	246192	OK	0.2291656	0.0242514	0.0513518	-0.9717294	103.452	-21.97	-234.397	B5-03822-P02-CH0	246192	OK	0.8359984	0.1571272	-0.5257545	0	-77.281	-97.023	7.798	B5-03822-P02-CH1	246192	OK	0.8139945	-0.112715	-0.5698318	0	-76.81	-77.256	4.26	B5-03822-P03-CH0	246192	OK	0.7958336	-0.3348063	-0.5045331	0	-88.218	-59.241	6.596	B5-03822-P03-CH1	246192	OK	0.7833574	-0.5465322	-0.2960636	0	-95.524	-30.633	2.759	B5-03822-P04-CH0	246192	OK	0.7353887	-0.3340034	0.5896144	0	-120.187	-39.204	8.15	B5-03822-P04-CH1	246192	OK	0.7358075	-0.6744179	0.0612197	0	-108.104	-45.938	1.142	NA
0.839311043566363	B5-03822-P01-CH0	246200	OK	0.2291573	0.0242826	0.0509658	-0.9717509	103.459	-21.996	-234.384	B5-03822-P02-CH0	246200	OK	0.835496	0.1583128	-0.5261973	0	-77.293	-97.247	7.966	B5-03822-P02-CH1	246200	OK	0.8137368	-0.1113281	-0.5704721	0	-76.481	-77.651	4.124	B5-03822-P03-CH0	246200	OK	0.7971906	-0.3391101	-0.4994913	0	-88.313	-59.305	6.949	B5-03822-P03-CH1	246200	OK	0.7831799	-0.5465939	-0.2964193	0	-95.534	-30.641	2.813	B5-03822-P04-CH0	246200	OK	0.7353206	-0.3348145	0.5892392	0	-120.111	-39.08	8.049	B5-03822-P04-CH1	246200	OK	0.7356201	-0.6746307	0.0611275	0	-108.108	-45.921	1.106	NA
0.849302841704058	B5-03822-P01-CH0	246208	OK	0.2292758	0.0243605	0.0508219	-0.9717285	103.498	-21.974	-234.401	B5-03822-P02-CH0	246208	OK	0.8352759	0.1586527	-0.5264441	0	-77.358	-97.428	8.207	B5-03822-P02-CH1	246208	OK	0.8141484	-0.1088317	-0.5703666	0	-76.143	-77.459	4.944	B5-03822-P03-CH0	246208	OK	0.7966839	-0.3426559	-0.4978771	0	-89.123	-59.247	6.807	B5-03822-P03-CH1	246208	OK	0.7830695	-0.5467048	-0.2965064	0	-95.63	-30.637	2.852	B5-03822-P04-CH0	246208	OK	0.7354474	-0.3349686	0.5889933	0	-120.149	-39.146	8.18	B5-03822-P04-CH1	246208	OK	0.7355676	-0.6746786	0.0612296	0	-108.095	-45.967	1.281	NA
0.859294639841752	B5-03822-P01-CH0	246216	OK	0.2295751	0.0241971	0.0512115	-0.9716415	103.481	-21.931	-234.398	B5-03822-P02-CH0	246216	OK	0.8355974	0.1593605	-0.5257198	0	-77.048	-97.555	8.016	B5-03822-P02-CH1	246216	OK	0.814123	-0.106871	-0.5707734	0	-76.125	-77.157	4.852	B5-03822-P03-CH0	246216	OK	0.798852	-0.3451464	-0.4926555	0	-88.281	-59.313	7.315	B5-03822-P03-CH1	246216	OK	0.7832784	-0.5465627	-0.2962165	0	-95.633	-30.646	2.819	B5-03822-P04-CH0	246216	OK	0.7356564	-0.3353002	0.5885434	0	-120.057	-39.038	8.121	B5-03822-P04-CH1	246216	OK	0.7359448	-0.6742584	0.0613262	0	-108.104	-45.957	1.273	NA
0.869286437979447	B5-03822-P01-CH0	246224	OK	0.2298384	0.0240715	0.0515397	-0.971565	103.483	-21.903	-234.424	B5-03822-P02-CH0	246224	OK	0.8350697	0.1592424	-0.5265933	0	-77.14	-97.742	8.023	B5-03822-P02-CH1	246224	OK	0.8136943	-0.1063351	-0.5714844	0	-76.297	-77.239	4.884	B5-03822-P03-CH0	246224	OK	0.7990999	-0.3465914	-0.4912371	0	-88.546	-59.135	6.94	B5-03822-P03-CH1	246224	OK	0.7834526	-0.546475	-0.2959173	0	-95.614	-30.696	2.836	B5-03822-P04-CH0	246224	OK	0.7358732	-0.3357934	0.587991	0	-120.003	-38.963	8.013	B5-03822-P04-CH1	246224	OK	0.7362385	-0.6739311	0.0613988	0	-108.122	-45.952	1.23	NA
0.879278236117142	B5-03822-P01-CH0	246232	OK	0.2299682	0.0241624	0.0512825	-0.9715456	103.533	-21.909	-234.454	B5-03822-P02-CH0	246232	OK	0.8351732	0.1612701	-0.5258114	0	-76.834	-97.681	7.644	B5-03822-P02-CH1	246232	OK	0.8129377	-0.1058551	-0.5726492	0	-76.419	-77.357	4.404	B5-03822-P03-CH0	246232	OK	0.7994464	-0.3505649	-0.4878418	0	-88.241	-59.443	7.015	B5-03822-P03-CH1	246232	OK	0.7833521	-0.5466664	-0.2958298	0	-95.624	-30.715	2.917	B5-03822-P04-CH0	246232	OK	0.7359205	-0.3365706	0.5874872	0	-119.945	-38.925	8.061	B5-03822-P04-CH1	246232	OK	0.735926	-0.6742534	0.0616061	0	-107.992	-46.111	1.249	NA
0.889270034254837	B5-03822-P01-CH0	246240	OK	0.2301023	0.0240543	0.0513288	-0.9715141	103.515	-21.897	-234.447	B5-03822-P02-CH0	246240	OK	0.8344096	0.1623573	-0.5266885	0	-76.942	-97.602	7.728	B5-03822-P02-CH1	246240	OK	0.8134646	-0.1059377	-0.5718851	0	-75.781	-77.358	4.391	B5-03822-P03-CH0	246240	OK	0.7998036	-0.3536019	-0.4850567	0	-88.394	-59.388	7.308	B5-03822-P03-CH1	246240	OK	0.7834164	-0.5465871	-0.2958061	0	-95.63	-30.686	2.877	B5-03822-P04-CH0	246240	OK	0.736008	-0.3374495	0.5868731	0	-119.884	-38.817	7.866	B5-03822-P04-CH1	246240	OK	0.735994	-0.6741947	0.0614357	0	-107.961	-46.084	1.09	NA
0.899261832392532	B5-03822-P01-CH0	246248	OK	0.2302021	0.0242514	0.0510837	-0.9714985	103.592	-21.863	-234.473	B5-03822-P02-CH0	246248	OK	0.8338171	0.1642262	-0.5270473	0	-77.09	-97.551	8.16	B5-03822-P02-CH1	246248	OK	0.8117408	-0.1057567	-0.5743626	0	-76.166	-77.569	4.014	B5-03822-P03-CH0	246248	OK	0.7999517	-0.3579866	-0.4815837	0	-88.756	-59.25	6.615	B5-03822-P03-CH1	246248	OK	0.7832574	-0.5467596	-0.2959085	0	-95.744	-30.69	3.001	B5-03822-P04-CH0	246248	OK	0.736049	-0.3380093	0.5864994	0	-119.913	-38.884	7.963	B5-03822-P04-CH1	246248	OK	0.7358707	-0.6743295	0.0614328	0	-107.981	-46.126	1.307	NA
0.909253630530226	B5-03822-P01-CH0	246256	OK	0.2301544	0.0242618	0.0508624	-0.9715212	103.624	-21.864	-234.471	B5-03822-P02-CH0	246256	OK	0.8343766	0.1672837	-0.5251969	0	-76.732	-97.082	8.011	B5-03822-P02-CH1	246256	OK	0.8114311	-0.1042851	-0.5750688	0	-75.971	-77.563	4.274	B5-03822-P03-CH0	246256	OK	0.801178	-0.3615164	-0.4768854	0	-88.672	-59.329	7.008	B5-03822-P03-CH1	246256	OK	0.7832095	-0.5467464	-0.2960595	0	-95.807	-30.655	2.911	B5-03822-P04-CH0	246256	OK	0.7360394	-0.3386809	0.5861239	0	-119.94	-38.944	8.022	B5-03822-P04-CH1	246256	OK	0.7357958	-0.6744395	0.0611218	0	-108.021	-46.114	1.422	NA
0.919245428667921	B5-03822-P01-CH0	246264	OK	0.2304338	0.0240683	0.0513724	-0.9714329	103.594	-21.815	-234.469	B5-03822-P02-CH0	246264	OK	0.8333442	0.1675403	-0.5267521	0	-77.198	-97.641	8.495	B5-03822-P02-CH1	246264	OK	0.8108157	-0.1030262	-0.5761627	0	-76.027	-77.82	3.991	B5-03822-P03-CH0	246264	OK	0.8025379	-0.3640395	-0.4726607	0	-88.505	-59.336	7.372	B5-03822-P03-CH1	246264	OK	0.7835691	-0.5463827	-0.2957794	0	-95.846	-30.614	2.815	B5-03822-P04-CH0	246264	OK	0.7362203	-0.3388804	0.5857813	0	-119.896	-39.023	8.079	B5-03822-P04-CH1	246264	OK	0.7360903	-0.6741	0.0613211	0	-107.948	-46.205	1.416	NA
0.929237226805616	B5-03822-P01-CH0	246272	OK	0.2307511	0.0238867	0.0516655	-0.9713465	103.539	-21.78	-234.438	B5-03822-P02-CH0	246272	OK	0.8335614	0.169086	-0.5259138	0	-77.133	-97.976	8.133	B5-03822-P02-CH1	246272	OK	0.8107177	-0.1027516	-0.5763497	0	-75.82	-77.927	4.138	B5-03822-P03-CH0	246272	OK	0.8032488	-0.3655646	-0.47027	0	-88.754	-59.314	7.08	B5-03822-P03-CH1	246272	OK	0.7838384	-0.5463429	-0.2951385	0	-95.732	-30.682	2.7	B5-03822-P04-CH0	246272	OK	0.736246	-0.3388182	0.5857849	0	-119.84	-39.199	8.141	B5-03822-P04-CH1	246272	OK	0.7363835	-0.6737582	0.061557	0	-107.759	-46.204	1.479	NA
0.939229024943311	B5-03822-P01-CH0	246280	OK	0.23082	0.0239241	0.0515727	-0.9713341	103.564	-21.788	-234.431	B5-03822-P02-CH0	246280	OK	0.8335791	0.170554	-0.5254115	0	-77.301	-98.252	8.122	B5-03822-P02-CH1	246280	OK	0.810029	-0.1028042	-0.5773078	0	-76.017	-77.952	3.724	B5-03822-P03-CH0	246280	OK	0.8044137	-0.3672058	-0.4669888	0	-88.746	-59.331	7.09	B5-03822-P03-CH1	246280	OK	0.7838163	-0.5465271	-0.2948562	0	-95.697	-30.773	2.718	B5-03822-P04-CH0	246280	OK	0.7361938	-0.3386695	0.5859365	0	-119.845	-39.548	8.589	B5-03822-P04-CH1	246280	OK	0.7362562	-0.6739138	0.0613761	0	-107.747	-46.269	1.47	NA
