Wav.Time	B5.03822.P01.CH0	Frame	State	Q0	Qx	Qy	Qz	Tx	Ty	Tz	B5.03822.P02.CH0	Frame.1	State.1	Q0.1	Qx.1	Qy.1	Qz.1	Tx.1	Ty.1	Tz.1	B5.03822.P02.CH1	Frame.2	State.2	Q0.2	Qx.2	Qy.2	Qz.2	Tx.2	Ty.2	Tz.2	B5.03822.P03.CH0	Frame.3	State.3	Q0.3	Qx.3	Qy.3	Qz.3	Tx.3	Ty.3	Tz.3	B5.03822.P03.CH1	Frame.4	State.4	Q0.4	Qx.4	Qy.4	Qz.4	Tx.4	Ty.4	Tz.4	B5.03822.P04.CH0	Frame.5	State.5	Q0.5	Qx.5	Qy.5	Qz.5	Tx.5	Ty.5	Tz.5	B5.03822.P04.CH1	Frame.6	State.6	Q0.6	Qx.6	Qy.6	Qz.6	Tx.6	Ty.6	Tz.6	X
0	B5-03822-P01-CH0	1058704	OK	0.1942319	0.1129264	0.1496252	-0.9628779	157.918	-15.442	-253.169	B5-03822-P02-CH0	1058704	OK	0.6056985	0.5024831	-0.6169603	0	-82.264	-99.511	-2.656	B5-03822-P02-CH1	1058704	OK	0.7688016	-0.1829274	-0.6127656	0	-81.03	-75.043	-2.689	B5-03822-P03-CH0	1058704	OK	0.6658955	-0.0599141	-0.7436353	0	-90.768	-54.579	-0.301	B5-03822-P03-CH1	1058704	OK	0.7722859	-0.6296185	0.0845875	0	-96.337	-8.69	-8.007	B5-03822-P04-CH0	1058704	OK	0.7964906	-0.4115851	0.4429451	0	-124.501	-36.332	9.693	B5-03822-P04-CH1	1058704	OK	0.8090718	-0.5831892	0.0727547	0	-108.597	-43.614	0.349	NA
0.00999175427746856	B5-03822-P01-CH0	1058712	OK	0.1939892	0.1130726	0.1496697	-0.9629028	157.847	-15.473	-253.04	B5-03822-P02-CH0	1058712	OK	0.6070505	0.4932239	-0.6230729	0	-82.714	-98.956	-2.747	B5-03822-P02-CH1	1058712	OK	0.7694898	-0.1823876	-0.6120622	0	-81.671	-75.153	-3.082	B5-03822-P03-CH0	1058712	OK	0.6579878	-0.0459367	-0.7516262	0	-90.633	-53.946	-0.586	B5-03822-P03-CH1	1058712	OK	0.7723247	-0.6295599	0.0846691	0	-96.382	-8.568	-8.056	B5-03822-P04-CH0	1058712	OK	0.7964306	-0.4125895	0.4421179	0	-124.347	-36.075	9.303	B5-03822-P04-CH1	1058712	OK	0.8092315	-0.583044	0.0721393	0	-108.538	-43.431	0.389	NA
0.0199835085549371	B5-03822-P01-CH0	1058720	OK	0.1939227	0.1133011	0.1497011	-0.9628844	157.842	-15.579	-253.002	B5-03822-P02-CH0	1058720	OK	0.6101748	0.490204	-0.622404	0	-82.984	-99.234	-2.255	B5-03822-P02-CH1	1058720	OK	0.7715643	-0.1808469	-0.609904	0	-81.748	-75.469	-2.421	B5-03822-P03-CH0	1058720	OK	0.6519388	-0.0296861	-0.7576902	0	-90.878	-54.383	0.119	B5-03822-P03-CH1	1058720	OK	0.772297	-0.6295692	0.0848533	0	-96.253	-8.559	-8.177	B5-03822-P04-CH0	1058720	OK	0.7964182	-0.4135168	0.441273	0	-124.229	-35.806	8.827	B5-03822-P04-CH1	1058720	OK	0.809414	-0.5828582	0.0715915	0	-108.475	-43.254	0.18	NA
0.0299752628324057	B5-03822-P01-CH0	1058728	OK	0.1938202	0.113497	0.1497126	-0.9628802	157.888	-15.661	-253.058	B5-03822-P02-CH0	1058728	OK	0.613678	0.4860597	-0.62221	0	-83.422	-99.168	-1.023	B5-03822-P02-CH1	1058728	OK	0.7741232	-0.1788646	-0.6072403	0	-82.102	-75.202	-1.046	B5-03822-P03-CH0	1058728	OK	0.6492051	-0.0142176	-0.7604805	0	-90.694	-54.588	0.548	B5-03822-P03-CH1	1058728	OK	0.7719909	-0.6297667	0.0861622	0	-96.445	-8.996	-7.79	B5-03822-P04-CH0	1058728	OK	0.7964287	-0.4139296	0.4408669	0	-124.279	-35.792	8.701	B5-03822-P04-CH1	1058728	OK	0.8095313	-0.5827411	0.0712177	0	-108.548	-43.202	0.18	NA
0.0399670171098743	B5-03822-P01-CH0	1058736	OK	0.1939654	0.1135018	0.1502883	-0.9627607	157.899	-15.742	-253.083	B5-03822-P02-CH0	1058736	OK	0.6196043	0.4821725	-0.6193547	0	-83.487	-99.43	-1.624	B5-03822-P02-CH1	1058736	OK	0.7769305	-0.178676	-0.6037001	0	-82.106	-75.087	-2.632	B5-03822-P03-CH0	1058736	OK	0.6471886	-7.78e-05	-0.7623299	0	-90.597	-54.611	-0.764	B5-03822-P03-CH1	1058736	OK	0.7721425	-0.6294342	0.087227	0	-96.51	-9.232	-7.63	B5-03822-P04-CH0	1058736	OK	0.7964774	-0.4141871	0.4405369	0	-124.126	-35.684	8.228	B5-03822-P04-CH1	1058736	OK	0.8100216	-0.5820803	0.0710466	0	-108.556	-43.208	0.207	NA
0.0499587713873428	B5-03822-P01-CH0	1058744	OK	0.1937548	0.1135157	0.1503188	-0.9627967	157.842	-15.773	-253.098	B5-03822-P02-CH0	1058744	OK	0.6237979	0.4805174	-0.6164245	0	-83.913	-98.597	-1.979	B5-03822-P02-CH1	1058744	OK	0.778907	-0.177698	-0.6014376	0	-82.295	-75.115	-1.961	B5-03822-P03-CH0	1058744	OK	0.6429232	0.0108111	-0.7658543	0	-91.242	-55.175	-0.846	B5-03822-P03-CH1	1058744	OK	0.7722475	-0.6293265	0.0870743	0	-96.237	-8.759	-8.095	B5-03822-P04-CH0	1058744	OK	0.7963945	-0.4143016	0.4405792	0	-124.118	-35.765	8.398	B5-03822-P04-CH1	1058744	OK	0.8101004	-0.5820231	0.0706148	0	-108.586	-43.274	0.643	NA
0.0599505256648114	B5-03822-P01-CH0	1058752	OK	0.1936533	0.1136463	0.1506659	-0.9627475	157.879	-15.738	-253.143	B5-03822-P02-CH0	1058752	OK	0.6295415	0.4787953	-0.611909	0	-83.317	-98.483	-3.451	B5-03822-P02-CH1	1058752	OK	0.779996	-0.175839	-0.6005721	0	-82.187	-74.78	-1.3	B5-03822-P03-CH0	1058752	OK	0.6395981	0.0162301	-0.7685381	0	-90.957	-55.093	0.772	B5-03822-P03-CH1	1058752	OK	0.7724593	-0.6290317	0.0873258	0	-96.103	-8.494	-8.194	B5-03822-P04-CH0	1058752	OK	0.7966534	-0.4140203	0.4403756	0	-124.236	-35.667	8.499	B5-03822-P04-CH1	1058752	OK	0.8103315	-0.581753	0.0701882	0	-108.634	-43.245	0.78	NA
0.0699422799422799	B5-03822-P01-CH0	1058760	OK	0.1937082	0.1135915	0.1511099	-0.9626733	157.804	-15.645	-253.106	B5-03822-P02-CH0	1058760	OK	0.6306531	0.4779429	-0.6114305	0	-83.412	-96.897	-3.169	B5-03822-P02-CH1	1058760	OK	0.7798796	-0.174173	-0.6012084	0	-82.217	-74.407	-1.627	B5-03822-P03-CH0	1058760	OK	0.639828	0.0181754	-0.7683032	0	-90.398	-54.256	-1.498	B5-03822-P03-CH1	1058760	OK	0.7728754	-0.6284579	0.0877737	0	-95.999	-7.962	-8.72	B5-03822-P04-CH0	1058760	OK	0.7967349	-0.4133447	0.4408624	0	-124.309	-35.793	8.666	B5-03822-P04-CH1	1058760	OK	0.8107289	-0.5812256	0.0699679	0	-108.658	-43.103	0.854	NA
0.0799340342197485	B5-03822-P01-CH0	1058768	OK	0.1936302	0.1131713	0.1511698	-0.9627291	157.63	-15.717	-253.139	B5-03822-P02-CH0	1058768	OK	0.6333923	0.4776945	-0.6087874	0	-83.872	-97.937	-2.543	B5-03822-P02-CH1	1058768	OK	0.7793786	-0.1754678	-0.6014815	0	-82.619	-74.386	-2.348	B5-03822-P03-CH0	1058768	OK	0.6393259	0.0209047	-0.7686517	0	-90.426	-54.339	-0.35	B5-03822-P03-CH1	1058768	OK	0.7732533	-0.6280438	0.0874088	0	-95.394	-7.237	-9.395	B5-03822-P04-CH0	1058768	OK	0.7965477	-0.4127801	0.4417288	0	-124.23	-35.972	8.722	B5-03822-P04-CH1	1058768	OK	0.8108856	-0.5810615	0.0695136	0	-108.52	-43.009	0.886	NA
0.0899257884972171	B5-03822-P01-CH0	1058776	OK	0.1933686	0.1131604	0.1510355	-0.962804	157.655	-15.846	-253.166	B5-03822-P02-CH0	1058776	OK	0.6357293	0.4773535	-0.6066151	0	-83.327	-97.058	-2.967	B5-03822-P02-CH1	1058776	OK	0.7798896	-0.1744964	-0.6011017	0	-82.132	-74.011	-2.604	B5-03822-P03-CH0	1058776	OK	0.6399003	0.0213352	-0.7681617	0	-90.104	-53.889	-0.321	B5-03822-P03-CH1	1058776	OK	0.7731733	-0.6280489	0.0880774	0	-95.317	-7.241	-9.279	B5-03822-P04-CH0	1058776	OK	0.7962755	-0.4120612	0.4428892	0	-124.381	-36.391	8.703	B5-03822-P04-CH1	1058776	OK	0.8108519	-0.5811828	0.0688888	0	-108.504	-43.033	0.879	NA
0.0999175427746856	B5-03822-P01-CH0	1058784	OK	0.1933522	0.1131694	0.1510903	-0.9627976	157.629	-15.799	-253.11	B5-03822-P02-CH0	1058784	OK	0.6360581	0.4781998	-0.6056031	0	-84.103	-96.756	-2.635	B5-03822-P02-CH1	1058784	OK	0.7790919	-0.1737548	-0.6023496	0	-82.11	-73.661	-2.53	B5-03822-P03-CH0	1058784	OK	0.6391909	0.017477	-0.7688495	0	-90.558	-53.944	0.139	B5-03822-P03-CH1	1058784	OK	0.7731874	-0.6279253	0.0888313	0	-95.191	-6.958	-9.598	B5-03822-P04-CH0	1058784	OK	0.7960751	-0.4111245	0.4441183	0	-124.385	-36.33	8.32	B5-03822-P04-CH1	1058784	OK	0.8110232	-0.5809829	0.0685591	0	-108.448	-42.831	0.872	NA
0.109909297052154	B5-03822-P01-CH0	1058792	OK	0.1933377	0.1128916	0.1512045	-0.9628153	157.537	-15.787	-253.185	B5-03822-P02-CH0	1058792	OK	0.6393602	0.4798103	-0.6008332	0	-83.883	-97.633	-2.974	B5-03822-P02-CH1	1058792	OK	0.7784945	-0.1737721	-0.6031165	0	-81.88	-73.901	-2.574	B5-03822-P03-CH0	1058792	OK	0.6416683	0.0071521	-0.7669489	0	-90.068	-53.442	-0.498	B5-03822-P03-CH1	1058792	OK	0.7732779	-0.6277167	0.0895158	0	-94.925	-6.678	-9.824	B5-03822-P04-CH0	1058792	OK	0.7959235	-0.4093757	0.4460015	0	-124.468	-36.595	8.309	B5-03822-P04-CH1	1058792	OK	0.8110531	-0.5809632	0.0683715	0	-108.224	-42.722	0.681	NA
0.119901051329623	B5-03822-P01-CH0	1058800	OK	0.1925963	0.1129379	0.1502961	-0.9631006	157.492	-15.898	-253.122	B5-03822-P02-CH0	1058800	OK	0.6414515	0.4807794	-0.597822	0	-84.13	-97.229	-2.877	B5-03822-P02-CH1	1058800	OK	0.7790722	-0.1745742	-0.6021382	0	-81.958	-74.122	-2.685	B5-03822-P03-CH0	1058800	OK	0.6454409	-0.0041194	-0.7637991	0	-89.746	-53.233	-0.995	B5-03822-P03-CH1	1058800	OK	0.7727806	-0.6283049	0.089683	0	-94.871	-6.373	-10.137	B5-03822-P04-CH0	1058800	OK	0.794788	-0.4003327	0.4561204	0	-123.264	-34.489	6.364	B5-03822-P04-CH1	1058800	OK	0.8104461	-0.5819053	0.0675526	0	-108.23	-42.646	0.744	NA
0.129892805607091	B5-03822-P01-CH0	1058808	OK	0.1924719	0.1128001	0.1501945	-0.9631575	157.443	-15.93	-253.131	B5-03822-P02-CH0	1058808	OK	0.6428794	0.4778414	-0.5986432	0	-85.51	-97.685	-1.582	B5-03822-P02-CH1	1058808	OK	0.7795156	-0.1742986	-0.601644	0	-81.973	-74.042	-2.78	B5-03822-P03-CH0	1058808	OK	0.6510875	-0.0174543	-0.758802	0	-90.537	-53.581	-1.756	B5-03822-P03-CH1	1058808	OK	0.7726724	-0.6282969	0.0906664	0	-94.821	-6.289	-10.297	B5-03822-P04-CH0	1058808	OK	0.7949266	-0.3935886	0.461714	0	-124.636	-36.916	8.384	B5-03822-P04-CH1	1058808	OK	0.810361	-0.5820405	0.0674089	0	-108.176	-42.622	0.711	NA
0.13988455988456	B5-03822-P01-CH0	1058816	OK	0.1922735	0.1130186	0.1500548	-0.9631933	157.525	-15.93	-253.136	B5-03822-P02-CH0	1058816	OK	0.648078	0.4702335	-0.5990621	0	-85.031	-97.962	-2.273	B5-03822-P02-CH1	1058816	OK	0.779716	-0.1744094	-0.6013521	0	-82.193	-74.006	-2.739	B5-03822-P03-CH0	1058816	OK	0.6598997	-0.0299155	-0.7507579	0	-91.153	-53.385	-1.216	B5-03822-P03-CH1	1058816	OK	0.7728011	-0.6281449	0.0906229	0	-94.641	-5.794	-10.79	B5-03822-P04-CH0	1058816	OK	0.7944881	-0.3880916	0.4670905	0	-125.157	-37.779	8.801	B5-03822-P04-CH1	1058816	OK	0.81008	-0.5824457	0.0672858	0	-108.266	-42.682	0.648	NA
0.149876314162028	B5-03822-P01-CH0	1058824	OK	0.1919499	0.112967	0.1499414	-0.9632815	157.453	-15.885	-253.059	B5-03822-P02-CH0	1058824	OK	0.6532059	0.4582813	-0.602744	0	-84.324	-97.423	-3.347	B5-03822-P02-CH1	1058824	OK	0.7849845	-0.1794815	-0.5929467	0	-82.627	-74.376	-2.228	B5-03822-P03-CH0	1058824	OK	0.6732165	-0.0449024	-0.7380808	0	-91.534	-53.741	-0.478	B5-03822-P03-CH1	1058824	OK	0.7723087	-0.6285537	0.0919758	0	-94.731	-6.114	-10.51	B5-03822-P04-CH0	1058824	OK	0.7937674	-0.3832335	0.4722979	0	-125.483	-38.043	8.727	B5-03822-P04-CH1	1058824	OK	0.8099117	-0.5827055	0.0670627	0	-108.179	-42.393	0.14	NA
0.159868068439497	B5-03822-P01-CH0	1058832	OK	0.1916232	0.112915	0.1497896	-0.9633763	157.354	-15.881	-252.982	B5-03822-P02-CH0	1058832	OK	0.6563717	0.4410064	-0.6121189	0	-84.757	-97.586	-2.09	B5-03822-P02-CH1	1058832	OK	0.7896178	-0.1831395	-0.585631	0	-82.89	-74.719	-2.301	B5-03822-P03-CH0	1058832	OK	0.6875825	-0.0605807	-0.7235746	0	-92.045	-54.55	-1.226	B5-03822-P03-CH1	1058832	OK	0.7720397	-0.6287905	0.0926133	0	-94.687	-6.097	-10.557	B5-03822-P04-CH0	1058832	OK	0.7926464	-0.3788021	0.4777245	0	-126.018	-37.161	6.714	B5-03822-P04-CH1	1058832	OK	0.8098282	-0.5828312	0.0669781	0	-108.267	-42.373	0.37	NA
0.169859822716966	B5-03822-P01-CH0	1058840	OK	0.1914809	0.112898	0.1500682	-0.9633632	157.331	-15.969	-252.979	B5-03822-P02-CH0	1058840	OK	0.6627753	0.4198696	-0.620031	0	-83.765	-97.961	-3.383	B5-03822-P02-CH1	1058840	OK	0.7943088	-0.1852934	-0.5785672	0	-83.779	-75.033	-2.401	B5-03822-P03-CH0	1058840	OK	0.6971875	-0.0723044	-0.7132333	0	-92.117	-54.838	-1.729	B5-03822-P03-CH1	1058840	OK	0.7717626	-0.6290108	0.0934234	0	-94.574	-6.448	-10.374	B5-03822-P04-CH0	1058840	OK	0.7926123	-0.3712096	0.4837036	0	-126.268	-37.509	8.3	B5-03822-P04-CH1	1058840	OK	0.8099933	-0.5826136	0.0668747	0	-108.118	-42.282	0.095	NA
0.179851576994434	B5-03822-P01-CH0	1058848	OK	0.1912802	0.1129907	0.1500593	-0.9633936	157.338	-16.003	-252.946	B5-03822-P02-CH0	1058848	OK	0.6665938	0.3964338	-0.631263	0	-83.621	-97.326	-2.913	B5-03822-P02-CH1	1058848	OK	0.7996692	-0.18998	-0.5695935	0	-84.203	-75.607	-1.671	B5-03822-P03-CH0	1058848	OK	0.703411	-0.0799249	-0.7062755	0	-92.318	-55.331	-1.46	B5-03822-P03-CH1	1058848	OK	0.771394	-0.6293292	0.0943192	0	-94.781	-6.667	-10.334	B5-03822-P04-CH0	1058848	OK	0.7915117	-0.3664796	0.4890828	0	-126.325	-37.741	8.058	B5-03822-P04-CH1	1058848	OK	0.8099699	-0.5826342	0.0669793	0	-108.173	-42.278	0.039	NA
0.189843331271903	B5-03822-P01-CH0	1058856	OK	0.1909873	0.1130848	0.1502424	-0.9634121	157.358	-15.99	-252.98	B5-03822-P02-CH0	1058856	OK	0.671955	0.3717617	-0.6405231	0	-83.013	-96.825	-3.559	B5-03822-P02-CH1	1058856	OK	0.8039963	-0.1936153	-0.5622305	0	-84.818	-76.016	-0.995	B5-03822-P03-CH0	1058856	OK	0.709435	-0.085012	-0.6996248	0	-92.388	-55.646	-1.01	B5-03822-P03-CH1	1058856	OK	0.7712611	-0.6294343	0.0947039	0	-94.98	-6.755	-10.14	B5-03822-P04-CH0	1058856	OK	0.7909995	-0.3632403	0.4923172	0	-126.181	-37.379	8.453	B5-03822-P04-CH1	1058856	OK	0.8100313	-0.5825346	0.0671025	0	-108.328	-42.324	0.204	NA
0.199835085549371	B5-03822-P01-CH0	1058864	OK	0.1905401	0.1133325	0.1500417	-0.9635028	157.396	-16.046	-252.977	B5-03822-P02-CH0	1058864	OK	0.6782098	0.3469385	-0.6478157	0	-83.366	-98.266	-3.439	B5-03822-P02-CH1	1058864	OK	0.8073775	-0.1991476	-0.5554114	0	-85.707	-76.163	-2.111	B5-03822-P03-CH0	1058864	OK	0.7134781	-0.0827461	-0.6957744	0	-92.516	-54.957	-1.243	B5-03822-P03-CH1	1058864	OK	0.7709127	-0.6299267	0.0942654	0	-94.977	-6.673	-10.296	B5-03822-P04-CH0	1058864	OK	0.7909039	-0.3560805	0.4976722	0	-127.229	-39.459	10.058	B5-03822-P04-CH1	1058864	OK	0.8098406	-0.5828162	0.0669585	0	-108.586	-42.391	0.27	NA
0.20982683982684	B5-03822-P01-CH0	1058872	OK	0.1902075	0.1134066	0.1498867	-0.9635839	157.426	-16.148	-253.016	B5-03822-P02-CH0	1058872	OK	0.6859251	0.3215556	-0.6527701	0	-82.455	-98.255	-4.331	B5-03822-P02-CH1	1058872	OK	0.8129646	-0.2014146	-0.5463705	0	-85.531	-75.747	-1.934	B5-03822-P03-CH0	1058872	OK	0.7133992	-0.0781083	-0.6963912	0	-92.903	-54.59	-0.854	B5-03822-P03-CH1	1058872	OK	0.7700495	-0.6308566	0.0950987	0	-95.271	-7.512	-9.665	B5-03822-P04-CH0	1058872	OK	0.7894974	-0.3555105	0.500306	0	-126.223	-37.826	7.914	B5-03822-P04-CH1	1058872	OK	0.8095984	-0.5831193	0.0672478	0	-108.807	-42.725	0.597	NA
0.219818594104308	B5-03822-P01-CH0	1058880	OK	0.1899473	0.1134777	0.1499854	-0.9636115	157.406	-16.124	-253.012	B5-03822-P02-CH0	1058880	OK	0.6922624	0.2937178	-0.6591682	0	-82.428	-98.043	-3.885	B5-03822-P02-CH1	1058880	OK	0.818362	-0.2050101	-0.5368933	0	-86.078	-75.699	-1.387	B5-03822-P03-CH0	1058880	OK	0.7127295	-0.0794415	-0.6969259	0	-91.878	-54.298	0.729	B5-03822-P03-CH1	1058880	OK	0.769718	-0.6313945	0.0942086	0	-95.204	-7.519	-9.653	B5-03822-P04-CH0	1058880	OK	0.7893042	-0.3510006	0.5037832	0	-126.515	-37.574	7.893	B5-03822-P04-CH1	1058880	OK	0.8096054	-0.5831119	0.0672271	0	-108.908	-42.66	0.457	NA
0.229810348381777	B5-03822-P01-CH0	1058888	OK	0.1896133	0.1136629	0.1500415	-0.9636468	157.393	-16.114	-252.978	B5-03822-P02-CH0	1058888	OK	0.6982799	0.2670213	-0.6641573	0	-81.997	-96.792	-4.163	B5-03822-P02-CH1	1058888	OK	0.8215266	-0.2066342	-0.5314098	0	-87.256	-76.036	-0.713	B5-03822-P03-CH0	1058888	OK	0.7091586	-0.0771442	-0.7008158	0	-91.692	-53.941	0.191	B5-03822-P03-CH1	1058888	OK	0.7693624	-0.6319662	0.0932754	0	-95.265	-7.631	-9.356	B5-03822-P04-CH0	1058888	OK	0.7891146	-0.3480831	0.5060992	0	-126.213	-36.517	7.733	B5-03822-P04-CH1	1058888	OK	0.8094718	-0.5832765	0.0674079	0	-108.959	-42.874	0.836	NA
0.239802102659246	B5-03822-P01-CH0	1058896	OK	0.1893139	0.1134109	0.1502212	-0.9637073	157.231	-16.109	-252.966	B5-03822-P02-CH0	1058896	OK	0.7031507	0.2428697	-0.6682764	0	-82	-96.571	-4.15	B5-03822-P02-CH1	1058896	OK	0.8245578	-0.2067442	-0.526651	0	-87.798	-75.682	-0.502	B5-03822-P03-CH0	1058896	OK	0.7050489	-0.0754988	-0.7051284	0	-92.007	-53.992	-0.539	B5-03822-P03-CH1	1058896	OK	0.7686256	-0.6329227	0.0928627	0	-95.387	-8.085	-8.972	B5-03822-P04-CH0	1058896	OK	0.7887579	-0.3433724	0.5098591	0	-126.396	-37.344	9.55	B5-03822-P04-CH1	1058896	OK	0.8097307	-0.5829508	0.0671154	0	-108.898	-42.703	0.969	NA
0.249793856936714	B5-03822-P01-CH0	1058904	OK	0.1892289	0.1135278	0.1503921	-0.9636836	157.289	-16.127	-253.065	B5-03822-P02-CH0	1058904	OK	0.7073385	0.2216765	-0.6712166	0	-81.201	-96.58	-4.296	B5-03822-P02-CH1	1058904	OK	0.8282771	-0.2105719	-0.5192461	0	-87.299	-76.042	-0.216	B5-03822-P03-CH0	1058904	OK	0.7012852	-0.0729345	-0.7091401	0	-91.887	-53.665	1.505	B5-03822-P03-CH1	1058904	OK	0.767846	-0.6338889	0.0927222	0	-95.826	-8.761	-8.306	B5-03822-P04-CH0	1058904	OK	0.786576	-0.3437101	0.5129928	0	-125.122	-35.682	7.956	B5-03822-P04-CH1	1058904	OK	0.8098242	-0.5828359	0.066986	0	-108.909	-42.766	1.105	NA
0.259785611214183	B5-03822-P01-CH0	1058912	OK	0.1889704	0.1132636	0.1501903	-0.9637969	157.153	-16.22	-253.171	B5-03822-P02-CH0	1058912	OK	0.7093763	0.20519	-0.6743013	0	-80.329	-96.27	-3.879	B5-03822-P02-CH1	1058912	OK	0.8298725	-0.2121353	-0.5160525	0	-87.256	-75.874	-0.247	B5-03822-P03-CH0	1058912	OK	0.7018118	-0.0717638	-0.7087384	0	-91.176	-53.556	0.534	B5-03822-P03-CH1	1058912	OK	0.7661947	-0.6377281	0.0790482	0	-96.032	-6.943	-9.178	B5-03822-P04-CH0	1058912	OK	0.7852568	-0.3395374	0.5177703	0	-125.524	-37.328	8.898	B5-03822-P04-CH1	1058912	OK	0.8096094	-0.5831462	0.0668817	0	-108.818	-42.769	0.939	NA
0.269777365491651	B5-03822-P01-CH0	1058920	OK	0.1882356	0.1133722	0.1488761	-0.9641317	157.066	-16.332	-253.134	B5-03822-P02-CH0	1058920	OK	0.7092735	0.1941604	-0.6776672	0	-79.777	-95.75	-3.614	B5-03822-P02-CH1	1058920	OK	0.8297721	-0.214762	-0.5151267	0	-87.579	-75.929	0.046	B5-03822-P03-CH0	1058920	OK	0.7040011	-0.0737887	-0.7063552	0	-91.798	-52.901	0.004	B5-03822-P03-CH1	1058920	OK	0.7627104	-0.6422167	0.0763579	0	-96.153	-8.154	-8.65	B5-03822-P04-CH0	1058920	OK	0.7840976	-0.3370905	0.5211152	0	-125.983	-37.026	7.922	B5-03822-P04-CH1	1058920	OK	0.8086768	-0.5844687	0.0666186	0	-108.881	-42.801	0.982	NA
0.27976911976912	B5-03822-P01-CH0	1058928	OK	0.1877674	0.113652	0.1480552	-0.9643165	157.078	-16.329	-253.113	B5-03822-P02-CH0	1058928	OK	0.7075822	0.1896238	-0.6807131	0	-79.854	-97.122	-2.935	B5-03822-P02-CH1	1058928	OK	0.8298813	-0.2174622	-0.5138163	0	-87.513	-75.563	0.612	B5-03822-P03-CH0	1058928	OK	0.7108365	-0.0843037	-0.6982867	0	-92.352	-54.446	2.541	B5-03822-P03-CH1	1058928	OK	0.7623092	-0.6433221	0.0708611	0	-96.57	-7.514	-7.35	B5-03822-P04-CH0	1058928	OK	0.7832742	-0.3341807	0.5242182	0	-126.046	-36.403	8.37	B5-03822-P04-CH1	1058928	OK	0.8080721	-0.5853017	0.0666434	0	-109.037	-42.825	1.145	NA
0.289760874046588	B5-03822-P01-CH0	1058936	OK	0.1875071	0.1137394	0.1480689	-0.9643547	157.051	-16.284	-253.107	B5-03822-P02-CH0	1058936	OK	0.7063133	0.1895812	-0.6820414	0	-78.62	-95.764	-4.263	B5-03822-P02-CH1	1058936	OK	0.8286374	-0.2224445	-0.513691	0	-87.195	-75.821	0.719	B5-03822-P03-CH0	1058936	OK	0.7215831	-0.0963167	-0.6855954	0	-92.906	-54.291	0.612	B5-03822-P03-CH1	1058936	OK	0.7599462	-0.6462259	0.0698126	0	-97.255	-9.12	-5.243	B5-03822-P04-CH0	1058936	OK	0.7828339	-0.3276074	0.5290032	0	-126.793	-37.133	9.155	B5-03822-P04-CH1	1058936	OK	0.8079195	-0.585499	0.066761	0	-109.062	-42.728	0.866	NA
0.299752628324057	B5-03822-P01-CH0	1058944	OK	0.1874714	0.1132943	0.1482013	-0.9643937	156.888	-16.289	-253.232	B5-03822-P02-CH0	1058944	OK	0.702898	0.1881107	-0.6859656	0	-79.096	-97.083	-4.047	B5-03822-P02-CH1	1058944	OK	0.8258968	-0.2288478	-0.5152894	0	-86.905	-75.777	0.419	B5-03822-P03-CH0	1058944	OK	0.7303799	-0.1133985	-0.6735621	0	-94.558	-54.806	0.094	B5-03822-P03-CH1	1058944	OK	0.7608004	-0.6461547	0.0605543	0	-96.713	-7.233	-5.872	B5-03822-P04-CH0	1058944	OK	0.7818026	-0.3232369	0.5332003	0	-126.712	-36.176	7.895	B5-03822-P04-CH1	1058944	OK	0.807932	-0.5853897	0.0675636	0	-108.863	-42.664	0.573	NA
0.309744382601525	B5-03822-P01-CH0	1058952	OK	0.1873705	0.1130914	0.1484152	-0.9644043	156.824	-16.277	-253.286	B5-03822-P02-CH0	1058952	OK	0.6998037	0.1881504	-0.6891111	0	-78.063	-96.858	-4.276	B5-03822-P02-CH1	1058952	OK	0.8235814	-0.2353041	-0.5160869	0	-85.228	-75.524	-0.317	B5-03822-P03-CH0	1058952	OK	0.7386261	-0.1315487	-0.6611553	0	-94.174	-54.084	0.644	B5-03822-P03-CH1	1058952	OK	0.7585694	-0.6490248	0.0577853	0	-97.051	-8.631	-5.043	B5-03822-P04-CH0	1058952	OK	0.7802521	-0.3203514	0.537198	0	-126.358	-35.618	6.719	B5-03822-P04-CH1	1058952	OK	0.8081063	-0.5850629	0.068305	0	-108.818	-42.441	0.067	NA
0.319736136878994	B5-03822-P01-CH0	1058960	OK	0.1876212	0.1127489	0.1489204	-0.9643177	156.713	-16.272	-253.378	B5-03822-P02-CH0	1058960	OK	0.6949092	0.1908061	-0.6933211	0	-76.891	-95.794	-5.26	B5-03822-P02-CH1	1058960	OK	0.8180182	-0.242534	-0.5215587	0	-84.658	-75.808	-1.073	B5-03822-P03-CH0	1058960	OK	0.7450009	-0.1525053	-0.6493965	0	-94.243	-55.473	0.702	B5-03822-P03-CH1	1058960	OK	0.7583289	-0.6498051	0.0518719	0	-97.275	-8.614	-4.362	B5-03822-P04-CH0	1058960	OK	0.7802129	-0.3139439	0.5410241	0	-127.162	-37.5	7.592	B5-03822-P04-CH1	1058960	OK	0.8083342	-0.5845546	0.0699408	0	-108.805	-42.645	-0.038	NA
0.329727891156463	B5-03822-P01-CH0	1058968	OK	0.1875575	0.1125332	0.1491609	-0.9643181	156.623	-16.305	-253.377	B5-03822-P02-CH0	1058968	OK	0.6878558	0.1973017	-0.6985173	0	-77.253	-96.981	-4.107	B5-03822-P02-CH1	1058968	OK	0.8118301	-0.245035	-0.5299904	0	-83.997	-75.869	-1.924	B5-03822-P03-CH0	1058968	OK	0.7492545	-0.1710814	-0.6398037	0	-95.235	-55.752	-0.503	B5-03822-P03-CH1	1058968	OK	0.7594518	-0.6491551	0.0427855	0	-97.283	-7.547	-3.583	B5-03822-P04-CH0	1058968	OK	0.7806066	-0.3144565	0.5401578	0	-127.204	-38.051	8.721	B5-03822-P04-CH1	1058968	OK	0.8084133	-0.5843174	0.0710002	0	-108.904	-42.628	-0.563	NA
0.339719645433931	B5-03822-P01-CH0	1058976	OK	0.1873749	0.1129258	0.1484428	-0.9644186	156.714	-16.359	-253.323	B5-03822-P02-CH0	1058976	OK	0.683075	0.2086826	-0.6999001	0	-76.126	-97.486	-4.616	B5-03822-P02-CH1	1058976	OK	0.8049189	-0.2467191	-0.5396622	0	-83.72	-76.023	-1.57	B5-03822-P03-CH0	1058976	OK	0.7515189	-0.1855811	-0.6330711	0	-94.791	-56.751	0.542	B5-03822-P03-CH1	1058976	OK	0.7559076	-0.6535899	0.0377343	0	-97.096	-9.354	-3.709	B5-03822-P04-CH0	1058976	OK	0.7802144	-0.3193169	0.5378682	0	-126.809	-37.31	8.307	B5-03822-P04-CH1	1058976	OK	0.8078661	-0.5848983	0.0724314	0	-109.166	-42.827	-0.785	NA
0.3497113997114	B5-03822-P01-CH0	1058984	OK	0.1870725	0.1129959	0.1478948	-0.9645532	156.669	-16.395	-253.268	B5-03822-P02-CH0	1058984	OK	0.6760523	0.2219038	-0.7026465	0	-76.7	-98.574	-4.571	B5-03822-P02-CH1	1058984	OK	0.7997538	-0.245995	-0.5476133	0	-82.93	-76.567	-0.815	B5-03822-P03-CH0	1058984	OK	0.7495446	-0.1903045	-0.6340087	0	-95.53	-58.276	1.682	B5-03822-P03-CH1	1058984	OK	0.7553749	-0.6544707	0.0328159	0	-98.318	-9.72	-3.146	B5-03822-P04-CH0	1058984	OK	0.7806051	-0.3218613	0.5357807	0	-126.97	-37.497	8.523	B5-03822-P04-CH1	1058984	OK	0.8074183	-0.5853339	0.0738913	0	-109.408	-43.071	-0.722	NA
0.359703153988868	B5-03822-P01-CH0	1058992	OK	0.1872243	0.1131121	0.1478952	-0.9645101	156.724	-16.395	-253.234	B5-03822-P02-CH0	1058992	OK	0.6691929	0.2349831	-0.7049566	0	-76.388	-98.452	-3.857	B5-03822-P02-CH1	1058992	OK	0.7931058	-0.2463014	-0.5570627	0	-83.02	-76.836	-3.453	B5-03822-P03-CH0	1058992	OK	0.7478459	-0.1864201	-0.637161	0	-95.324	-58.722	1.123	B5-03822-P03-CH1	1058992	OK	0.7548211	-0.6553913	0.0265984	0	-98.07	-10.081	-2.741	B5-03822-P04-CH0	1058992	OK	0.7821537	-0.324635	0.5318344	0	-127.156	-38.203	9.894	B5-03822-P04-CH1	1058992	OK	0.8074074	-0.5851232	0.0756571	0	-109.554	-43.237	-0.971	NA
0.369694908266337	B5-03822-P01-CH0	1059000	OK	0.1876248	0.1130086	0.1485449	-0.9643446	156.727	-16.302	-253.249	B5-03822-P02-CH0	1059000	OK	0.6619816	0.2464281	-0.7078514	0	-76.888	-98.828	-4.808	B5-03822-P02-CH1	1059000	OK	0.7860817	-0.244131	-0.5678694	0	-82.463	-76.875	-3.697	B5-03822-P03-CH0	1059000	OK	0.7440392	-0.1780335	-0.6439796	0	-95.32	-58.935	0.482	B5-03822-P03-CH1	1059000	OK	0.7557693	-0.6545185	0.0204538	0	-98.303	-9.178	-3.241	B5-03822-P04-CH0	1059000	OK	0.7836712	-0.3291911	0.5267758	0	-126.938	-37.856	9.551	B5-03822-P04-CH1	1059000	OK	0.807753	-0.5844039	0.0775059	0	-109.775	-43.506	-0.91	NA
0.379686662543805	B5-03822-P01-CH0	1059008	OK	0.1881478	0.1128599	0.1496692	-0.9640862	156.757	-16.167	-253.303	B5-03822-P02-CH0	1059008	OK	0.6571981	0.2573681	-0.7084153	0	-76.541	-98.696	-5.228	B5-03822-P02-CH1	1059008	OK	0.7787443	-0.2394103	-0.5798621	0	-82.246	-76.935	-2.666	B5-03822-P03-CH0	1059008	OK	0.7387066	-0.166599	-0.6531136	0	-95.265	-59.751	0.286	B5-03822-P03-CH1	1059008	OK	0.7564368	-0.6538437	0.0170815	0	-98.238	-8.744	-3.622	B5-03822-P04-CH0	1059008	OK	0.7858912	-0.3337143	0.520586	0	-126.54	-38.036	10.812	B5-03822-P04-CH1	1059008	OK	0.8084129	-0.5832896	0.0790059	0	-109.836	-43.548	-1.26	NA
0.389678416821274	B5-03822-P01-CH0	1059016	OK	0.1884634	0.1125599	0.1500656	-0.963998	156.681	-16.15	-253.323	B5-03822-P02-CH0	1059016	OK	0.6542454	0.267813	-0.7072758	0	-76.182	-99.442	-4.669	B5-03822-P02-CH1	1059016	OK	0.7739519	-0.2358556	-0.5876823	0	-81.212	-76.921	-3.661	B5-03822-P03-CH0	1059016	OK	0.7339169	-0.1548668	-0.6613489	0	-94.692	-59.736	0.461	B5-03822-P03-CH1	1059016	OK	0.7548019	-0.6556046	0.0213686	0	-99.061	-11.43	-0.868	B5-03822-P04-CH0	1059016	OK	0.787472	-0.3417152	0.5129508	0	-125.937	-37.115	9.434	B5-03822-P04-CH1	1059016	OK	0.8087214	-0.5826904	0.080259	0	-109.907	-43.662	-1.349	NA
0.399670171098743	B5-03822-P01-CH0	1059024	OK	0.1890665	0.1125216	0.1508386	-0.9637637	156.715	-16.068	-253.251	B5-03822-P02-CH0	1059024	OK	0.6496867	0.2832195	-0.7054743	0	-76.721	-100.045	-4.701	B5-03822-P02-CH1	1059024	OK	0.7703307	-0.2357664	-0.5924566	0	-80.678	-77.387	-3.705	B5-03822-P03-CH0	1059024	OK	0.7291087	-0.1430795	-0.6692748	0	-94.524	-59.419	-0.92	B5-03822-P03-CH1	1059024	OK	0.756017	-0.6543119	0.0177263	0	-98.458	-10.756	-1.991	B5-03822-P04-CH0	1059024	OK	0.7904152	-0.3438768	0.5069443	0	-125.896	-37.505	11.194	B5-03822-P04-CH1	1059024	OK	0.8092376	-0.5818037	0.0814795	0	-110.027	-43.933	-1.121	NA
0.409661925376211	B5-03822-P01-CH0	1059032	OK	0.1890703	0.1128364	0.1501846	-0.9638283	156.759	-16.093	-253.128	B5-03822-P02-CH0	1059032	OK	0.6452031	0.3051649	-0.7004195	0	-76.681	-99.556	-4.666	B5-03822-P02-CH1	1059032	OK	0.7670277	-0.2357587	-0.5967297	0	-80.534	-77.586	-3.607	B5-03822-P03-CH0	1059032	OK	0.7249174	-0.132469	-0.6759784	0	-94.064	-60.85	-0.376	B5-03822-P03-CH1	1059032	OK	0.7575034	-0.6526619	0.0148698	0	-98.44	-9.6	-2.139	B5-03822-P04-CH0	1059032	OK	0.7917775	-0.3471471	0.5025706	0	-125.555	-36.777	10.424	B5-03822-P04-CH1	1059032	OK	0.8088847	-0.5822517	0.0817835	0	-110.206	-44.062	-0.98	NA
0.41965367965368	B5-03822-P01-CH0	1059040	OK	0.1893764	0.1127521	0.1506343	-0.9637079	156.787	-16.007	-253.113	B5-03822-P02-CH0	1059040	OK	0.6426199	0.3325682	-0.6902449	0	-76.807	-100.558	-6.151	B5-03822-P02-CH1	1059040	OK	0.7639267	-0.2320666	-0.6021304	0	-80.405	-77.386	-4.852	B5-03822-P03-CH0	1059040	OK	0.7212206	-0.1208819	-0.6820765	0	-93.999	-60.239	-1.163	B5-03822-P03-CH1	1059040	OK	0.7577527	-0.6523104	0.0173768	0	-99.389	-10.643	-1.672	B5-03822-P04-CH0	1059040	OK	0.792132	-0.3502799	0.499831	0	-124.33	-36.225	9.576	B5-03822-P04-CH1	1059040	OK	0.8093089	-0.5816185	0.0820913	0	-110.276	-43.947	-1.017	NA
0.429645433931148	B5-03822-P01-CH0	1059048	OK	0.1896805	0.1130001	0.150317	-0.9636686	156.922	-15.931	-253.157	B5-03822-P02-CH0	1059048	OK	0.6372756	0.361735	-0.6804614	0	-78.594	-100.964	-5.045	B5-03822-P02-CH1	1059048	OK	0.7596544	-0.2266701	-0.6095456	0	-80.689	-77.686	-4.783	B5-03822-P03-CH0	1059048	OK	0.7179085	-0.1120362	-0.6870628	0	-93.76	-59.675	0.364	B5-03822-P03-CH1	1059048	OK	0.7570415	-0.6531235	0.0178273	0	-99.208	-11.617	-1.416	B5-03822-P04-CH0	1059048	OK	0.7932256	-0.3508701	0.4976779	0	-123.983	-34.829	8.037	B5-03822-P04-CH1	1059048	OK	0.8092726	-0.5816299	0.0823676	0	-110.451	-43.967	-0.826	NA
0.439637188208617	B5-03822-P01-CH0	1059056	OK	0.1898896	0.112938	0.150594	-0.9635914	156.91	-15.798	-253.076	B5-03822-P02-CH0	1059056	OK	0.6325164	0.389662	-0.6693927	0	-80.672	-100.568	-4.278	B5-03822-P02-CH1	1059056	OK	0.7579333	-0.2216508	-0.6135211	0	-80.009	-77.475	-4.414	B5-03822-P03-CH0	1059056	OK	0.7146466	-0.109082	-0.6909279	0	-93.692	-59.521	-0.061	B5-03822-P03-CH1	1059056	OK	0.7579117	-0.6520729	0.0192537	0	-99.44	-11.977	-0.692	B5-03822-P04-CH0	1059056	OK	0.7953771	-0.3464641	0.4973307	0	-124.533	-34.668	8.339	B5-03822-P04-CH1	1059056	OK	0.8094494	-0.5813478	0.0826221	0	-110.457	-43.927	-0.832	NA
0.449628942486085	B5-03822-P01-CH0	1059064	OK	0.1902256	0.1128967	0.1509361	-0.9634764	156.943	-15.716	-253.024	B5-03822-P02-CH0	1059064	OK	0.6312984	0.4145965	-0.6554175	0	-81.515	-100.061	-3.552	B5-03822-P02-CH1	1059064	OK	0.7556645	-0.2155083	-0.6184879	0	-80.212	-76.482	-4.101	B5-03822-P03-CH0	1059064	OK	0.7124397	-0.1111927	-0.6928679	0	-93.261	-59.051	-1.254	B5-03822-P03-CH1	1059064	OK	0.7584286	-0.6513913	0.0218046	0	-99.552	-12.48	-1.283	B5-03822-P04-CH0	1059064	OK	0.7970871	-0.3404314	0.4987571	0	-125.404	-36.265	9.993	B5-03822-P04-CH1	1059064	OK	0.8096679	-0.5810162	0.0828129	0	-110.484	-43.896	-1.008	NA
0.459620696763554	B5-03822-P01-CH0	1059072	OK	0.1900543	0.1130185	0.1507924	-0.9635185	157.055	-15.726	-253.035	B5-03822-P02-CH0	1059072	OK	0.6333189	0.4377247	-0.6382039	0	-82.103	-100.553	-3.41	B5-03822-P02-CH1	1059072	OK	0.7531262	-0.2100448	-0.6234438	0	-80.778	-76.211	-3.543	B5-03822-P03-CH0	1059072	OK	0.7096608	-0.1203107	-0.6941951	0	-93.619	-58.355	-0.376	B5-03822-P03-CH1	1059072	OK	0.7611612	-0.6482208	0.0210581	0	-99.125	-10.279	-3.982	B5-03822-P04-CH0	1059072	OK	0.7970263	-0.3382747	0.5003192	0	-125.562	-36.283	6.914	B5-03822-P04-CH1	1059072	OK	0.8095488	-0.5812088	0.0826264	0	-110.633	-44.027	-0.759	NA
0.469612451041023	B5-03822-P01-CH0	1059080	OK	0.1900876	0.1131988	0.1505716	-0.9635253	157.155	-15.717	-252.924	B5-03822-P02-CH0	1059080	OK	0.6349434	0.4545954	-0.6246518	0	-82.938	-100.705	-2.821	B5-03822-P02-CH1	1059080	OK	0.7520071	-0.2054706	-0.6263124	0	-80.65	-75.978	-4.492	B5-03822-P03-CH0	1059080	OK	0.7077729	-0.1363029	-0.693166	0	-93.556	-58.498	-0.445	B5-03822-P03-CH1	1059080	OK	0.761654	-0.6473321	0.0290588	0	-99.956	-11.806	-1.957	B5-03822-P04-CH0	1059080	OK	0.7992517	-0.3309119	0.5016912	0	-127.192	-37.817	7.142	B5-03822-P04-CH1	1059080	OK	0.8094575	-0.5813074	0.0828269	0	-110.74	-43.99	-0.968	NA
0.479604205318491	B5-03822-P01-CH0	1059088	OK	0.1899686	0.1132281	0.1497783	-0.9636689	157.115	-15.753	-252.813	B5-03822-P02-CH0	1059088	OK	0.6351164	0.4658928	-0.6160934	0	-83.076	-99.365	-3.145	B5-03822-P02-CH1	1059088	OK	0.7507813	-0.2009727	-0.6292355	0	-80.313	-75.903	-4.625	B5-03822-P03-CH0	1059088	OK	0.7087117	-0.1515517	-0.6890281	0	-92.022	-58.017	-1.527	B5-03822-P03-CH1	1059088	OK	0.7641834	-0.6442278	0.0315327	0	-98.715	-10.111	-3.842	B5-03822-P04-CH0	1059088	OK	0.8000129	-0.3269144	0.5030968	0	-127.42	-38.604	7.813	B5-03822-P04-CH1	1059088	OK	0.8091741	-0.5816672	0.0830691	0	-110.802	-43.919	-0.915	NA
0.48959595959596	B5-03822-P01-CH0	1059096	OK	0.1902896	0.1130481	0.149995	-0.963593	157.153	-15.656	-252.884	B5-03822-P02-CH0	1059096	OK	0.6341673	0.4761438	-0.6091953	0	-83.896	-99.999	-1.987	B5-03822-P02-CH1	1059096	OK	0.7489943	-0.2013706	-0.6312349	0	-79.814	-74.87	-4.029	B5-03822-P03-CH0	1059096	OK	0.7046148	-0.1704884	-0.6888045	0	-93.381	-57.422	-0.607	B5-03822-P03-CH1	1059096	OK	0.7655199	-0.6422141	0.0392481	0	-98.54	-10.566	-5.138	B5-03822-P04-CH0	1059096	OK	0.8011331	-0.3259762	0.5019217	0	-127.584	-39.202	8.291	B5-03822-P04-CH1	1059096	OK	0.8094247	-0.581183	0.0840117	0	-110.917	-44.083	-0.613	NA
0.499587713873428	B5-03822-P01-CH0	1059104	OK	0.1899073	0.1132149	0.1489301	-0.963814	157.223	-15.668	-252.891	B5-03822-P02-CH0	1059104	OK	0.6339056	0.4849973	-0.6024461	0	-83.193	-98.687	-2.395	B5-03822-P02-CH1	1059104	OK	0.7458008	-0.2024357	-0.634666	0	-80.04	-74.595	-4.465	B5-03822-P03-CH0	1059104	OK	0.7029225	-0.1851102	-0.6867563	0	-92.723	-56.705	-1.07	B5-03822-P03-CH1	1059104	OK	0.7671311	-0.6396865	0.0480738	0	-98.303	-10.688	-4.478	B5-03822-P04-CH0	1059104	OK	0.8018124	-0.3244761	0.5018088	0	-128.267	-40.856	9.724	B5-03822-P04-CH1	1059104	OK	0.8088003	-0.5820122	0.0842851	0	-111.109	-44.137	-0.557	NA
0.509579468150897	B5-03822-P01-CH0	1059112	OK	0.1902226	0.1129517	0.1492328	-0.9637359	157.196	-15.619	-252.899	B5-03822-P02-CH0	1059112	OK	0.6346783	0.4934509	-0.5947182	0	-82.719	-98.944	-3.495	B5-03822-P02-CH1	1059112	OK	0.742686	-0.2016153	-0.6385677	0	-80.62	-74.722	-3.825	B5-03822-P03-CH0	1059112	OK	0.7013955	-0.1981647	-0.6846716	0	-91.495	-56.437	-0.805	B5-03822-P03-CH1	1059112	OK	0.7683762	-0.6375395	0.0560485	0	-97.327	-10.446	-6.559	B5-03822-P04-CH0	1059112	OK	0.8024909	-0.3225282	0.5019801	0	-127.934	-40.788	9.941	B5-03822-P04-CH1	1059112	OK	0.8089404	-0.5816476	0.0854488	0	-111.068	-44.307	-0.675	NA
0.519571222428365	B5-03822-P01-CH0	1059120	OK	0.190085	0.1132595	0.1480765	-0.9639052	157.294	-15.595	-252.887	B5-03822-P02-CH0	1059120	OK	0.6348901	0.5024966	-0.5868661	0	-83.701	-99.615	-3.493	B5-03822-P02-CH1	1059120	OK	0.7420704	-0.2002428	-0.6397143	0	-79.444	-74.33	-4.267	B5-03822-P03-CH0	1059120	OK	0.6978174	-0.2112465	-0.6844163	0	-91.882	-55.636	-1.695	B5-03822-P03-CH1	1059120	OK	0.7704839	-0.6344086	0.0622926	0	-96.219	-8.968	-7.369	B5-03822-P04-CH0	1059120	OK	0.8032179	-0.3194846	0.502763	0	-129.325	-41.881	9.218	B5-03822-P04-CH1	1059120	OK	0.8082167	-0.5825276	0.0862977	0	-111.229	-44.572	-0.368	NA
0.529562976705834	B5-03822-P01-CH0	1059128	OK	0.190263	0.1131467	0.1484678	-0.9638232	157.284	-15.575	-252.799	B5-03822-P02-CH0	1059128	OK	0.6331073	0.5079795	-0.584065	0	-83.872	-98.195	-3.12	B5-03822-P02-CH1	1059128	OK	0.7397476	-0.2004675	-0.6423288	0	-79.637	-74.098	-3.686	B5-03822-P03-CH0	1059128	OK	0.6955677	-0.2192902	-0.6841764	0	-92.009	-55.757	-1.594	B5-03822-P03-CH1	1059128	OK	0.7724108	-0.6310924	0.0714423	0	-96.776	-9.296	-6.598	B5-03822-P04-CH0	1059128	OK	0.8039117	-0.3200873	0.5012685	0	-129.038	-40.382	7.149	B5-03822-P04-CH1	1059128	OK	0.8084681	-0.5820516	0.0871511	0	-111.262	-44.707	-0.425	NA
0.539554730983302	B5-03822-P01-CH0	1059136	OK	0.190468	0.1127752	0.1488155	-0.9637726	157.233	-15.595	-252.862	B5-03822-P02-CH0	1059136	OK	0.6318425	0.5121148	-0.5818191	0	-84.6	-97.661	-2.139	B5-03822-P02-CH1	1059136	OK	0.7387864	-0.2006575	-0.6433749	0	-79.373	-73.145	-4.603	B5-03822-P03-CH0	1059136	OK	0.6950715	-0.225906	-0.6825262	0	-91.716	-55.996	-2.023	B5-03822-P03-CH1	1059136	OK	0.7718409	-0.6309169	0.0787754	0	-96.658	-10.669	-6.653	B5-03822-P04-CH0	1059136	OK	0.8049736	-0.3178399	0.5009943	0	-129.579	-42.45	9.561	B5-03822-P04-CH1	1059136	OK	0.8087759	-0.5815155	0.0878712	0	-111.257	-44.754	-0.586	NA
0.549546485260771	B5-03822-P01-CH0	1059144	OK	0.1905044	0.1125955	0.1486861	-0.9638064	157.21	-15.598	-252.934	B5-03822-P02-CH0	1059144	OK	0.6346425	0.5152134	-0.576007	0	-84.321	-98.119	-2.982	B5-03822-P02-CH1	1059144	OK	0.7381184	-0.2001492	-0.6442993	0	-79.524	-73.2	-5.046	B5-03822-P03-CH0	1059144	OK	0.6952076	-0.2272929	-0.681927	0	-90.753	-56.021	-0.949	B5-03822-P03-CH1	1059144	OK	0.7742751	-0.6280727	0.0776061	0	-94.805	-6.911	-10.088	B5-03822-P04-CH0	1059144	OK	0.8052209	-0.3177486	0.5006547	0	-130.176	-43.201	9.615	B5-03822-P04-CH1	1059144	OK	0.8087496	-0.581434	0.088649	0	-111.319	-44.982	-0.288	NA
0.55953823953824	B5-03822-P01-CH0	1059152	OK	0.1906978	0.1124506	0.1490169	-0.963734	157.156	-15.41	-252.915	B5-03822-P02-CH0	1059152	OK	0.6374747	0.5181541	-0.5702125	0	-83.521	-98.406	-4.222	B5-03822-P02-CH1	1059152	OK	0.7392059	-0.1991284	-0.6433681	0	-79.333	-73.551	-4.62	B5-03822-P03-CH0	1059152	OK	0.6948482	-0.2269006	-0.6824237	0	-90.298	-55.792	-0.673	B5-03822-P03-CH1	1059152	OK	0.7731111	-0.6285957	0.0846562	0	-95.969	-9.341	-7.962	B5-03822-P04-CH0	1059152	OK	0.8048973	-0.321715	0.498638	0	-129.251	-41.713	9.382	B5-03822-P04-CH1	1059152	OK	0.8089524	-0.5810292	0.0894491	0	-111.467	-44.993	-0.199	NA
0.569529993815708	B5-03822-P01-CH0	1059160	OK	0.1910554	0.1123196	0.1495928	-0.9635892	157.214	-15.337	-253.049	B5-03822-P02-CH0	1059160	OK	0.6361412	0.5227454	-0.5675047	0	-83.909	-98.414	-2.837	B5-03822-P02-CH1	1059160	OK	0.7390424	-0.1963317	-0.6444146	0	-80.044	-73.675	-5.154	B5-03822-P03-CH0	1059160	OK	0.6935946	-0.2255282	-0.6841517	0	-91.283	-54.585	-1.432	B5-03822-P03-CH1	1059160	OK	0.7741162	-0.6273276	0.0848776	0	-94.999	-7.924	-8.903	B5-03822-P04-CH0	1059160	OK	0.8038627	-0.3269759	0.4968818	0	-128.783	-40.724	7.901	B5-03822-P04-CH1	1059160	OK	0.8092597	-0.5805012	0.0900955	0	-111.527	-45.28	0.17	NA
0.579521748093177	B5-03822-P01-CH0	1059168	OK	0.1913226	0.1121968	0.1499474	-0.9634954	157.223	-15.237	-253.143	B5-03822-P02-CH0	1059168	OK	0.6351003	0.5300525	-0.5618647	0	-84.403	-98.503	-2.445	B5-03822-P02-CH1	1059168	OK	0.73925	-0.1926391	-0.6452903	0	-79.848	-73.748	-5.042	B5-03822-P03-CH0	1059168	OK	0.6942678	-0.225489	-0.6834815	0	-91.385	-55.441	-1.837	B5-03822-P03-CH1	1059168	OK	0.7727027	-0.6288754	0.0862914	0	-94.46	-6.807	-11.151	B5-03822-P04-CH0	1059168	OK	0.8023542	-0.3327402	0.4954914	0	-128.31	-40.781	7.459	B5-03822-P04-CH1	1059168	OK	0.809339	-0.5802927	0.0907236	0	-111.536	-45.465	0.218	NA
0.589513502370645	B5-03822-P01-CH0	1059176	OK	0.1909161	0.1124269	0.1488222	-0.9637236	157.204	-15.33	-253.041	B5-03822-P02-CH0	1059176	OK	0.6354738	0.5397736	-0.5521028	0	-84.786	-98.554	-2.518	B5-03822-P02-CH1	1059176	OK	0.7388438	-0.1900997	-0.6465075	0	-79.055	-73.497	-3.767	B5-03822-P03-CH0	1059176	OK	0.6946373	-0.2233456	-0.6838098	0	-91.135	-56.089	-0.907	B5-03822-P03-CH1	1059176	OK	0.7690224	-0.6323295	0.0936161	0	-95.943	-10.768	-6.716	B5-03822-P04-CH0	1059176	OK	0.8015365	-0.3397481	0.4920472	0	-128.61	-40.459	7.118	B5-03822-P04-CH1	1059176	OK	0.8086323	-0.5813154	0.0904783	0	-111.548	-45.483	0.223	NA
0.599505256648114	B5-03822-P01-CH0	1059184	OK	0.191063	0.1123894	0.1491946	-0.9636413	157.229	-15.298	-253.059	B5-03822-P02-CH0	1059184	OK	0.6380864	0.5455052	-0.5433873	0	-83.695	-98.803	-3.631	B5-03822-P02-CH1	1059184	OK	0.7375386	-0.1891788	-0.6482656	0	-78.686	-73.333	-3.758	B5-03822-P03-CH0	1059184	OK	0.6941844	-0.2228367	-0.6844354	0	-91.92	-56.048	-1.573	B5-03822-P03-CH1	1059184	OK	0.7698686	-0.6314115	0.0928546	0	-95.499	-10.202	-7.162	B5-03822-P04-CH0	1059184	OK	0.8017918	-0.3439906	0.4886721	0	-128.91	-41.062	9.144	B5-03822-P04-CH1	1059184	OK	0.8088916	-0.5809557	0.0904697	0	-111.532	-45.438	0.188	NA
0.609497010925582	B5-03822-P01-CH0	1059192	OK	0.1911519	0.1123823	0.1495834	-0.9635642	157.286	-15.301	-253.11	B5-03822-P02-CH0	1059192	OK	0.6374582	0.5503764	-0.5391965	0	-84.165	-98.38	-3.869	B5-03822-P02-CH1	1059192	OK	0.7357917	-0.1888643	-0.6503391	0	-78.674	-73.302	-6.228	B5-03822-P03-CH0	1059192	OK	0.6952614	-0.2206071	-0.6840644	0	-91.371	-54.944	-1.611	B5-03822-P03-CH1	1059192	OK	0.7710275	-0.6297032	0.0948182	0	-96.922	-10.274	-6.328	B5-03822-P04-CH0	1059192	OK	0.8001645	-0.3513955	0.4860637	0	-128.588	-40.293	6.829	B5-03822-P04-CH1	1059192	OK	0.809096	-0.5807294	0.0900952	0	-111.503	-45.456	0.203	NA
0.619488765203051	B5-03822-P01-CH0	1059200	OK	0.1911923	0.1120807	0.1502031	-0.9634949	157.225	-15.356	-253.151	B5-03822-P02-CH0	1059200	OK	0.6383643	0.5528717	-0.5355594	0	-83.977	-98.453	-4.51	B5-03822-P02-CH1	1059200	OK	0.7343623	-0.1883994	-0.6520871	0	-78.536	-74.226	-3.876	B5-03822-P03-CH0	1059200	OK	0.6949776	-0.223543	-0.6833993	0	-91.281	-55.559	-1.268	B5-03822-P03-CH1	1059200	OK	0.7707772	-0.6304749	0.0916731	0	-95.664	-9.637	-7.992	B5-03822-P04-CH0	1059200	OK	0.8006616	-0.3553134	0.4823831	0	-128.392	-40.613	9.182	B5-03822-P04-CH1	1059200	OK	0.8092962	-0.580493	0.0898198	0	-111.366	-45.535	0.045	NA
0.62948051948052	B5-03822-P01-CH0	1059208	OK	0.1911094	0.1120588	0.1500742	-0.963534	157.196	-15.296	-253.156	B5-03822-P02-CH0	1059208	OK	0.6375117	0.5527488	-0.5367006	0	-84.438	-98.491	-2.711	B5-03822-P02-CH1	1059208	OK	0.7327782	-0.1881	-0.653953	0	-78.704	-74.18	-4.009	B5-03822-P03-CH0	1059208	OK	0.6954196	-0.222541	-0.6832768	0	-91.017	-55.231	-1.299	B5-03822-P03-CH1	1059208	OK	0.7686696	-0.6324076	0.0959569	0	-96.59	-12.451	-6.215	B5-03822-P04-CH0	1059208	OK	0.7995185	-0.361148	0.4799399	0	-127.973	-40.066	8.239	B5-03822-P04-CH1	1059208	OK	0.8091269	-0.5807557	0.0896469	0	-111.351	-45.618	0.443	NA
0.639472273757988	B5-03822-P01-CH0	1059216	OK	0.1909512	0.1121339	0.1495333	-0.9636407	157.199	-15.36	-253.183	B5-03822-P02-CH0	1059216	OK	0.6370505	0.5524786	-0.5375259	0	-84.526	-98.42	-2.177	B5-03822-P02-CH1	1059216	OK	0.7310183	-0.1858242	-0.6565681	0	-78.751	-73.652	-4.273	B5-03822-P03-CH0	1059216	OK	0.6954898	-0.2210646	-0.6836844	0	-91.032	-54.994	-1.476	B5-03822-P03-CH1	1059216	OK	0.7715845	-0.6298983	0.0888009	0	-95.404	-9.088	-8.49	B5-03822-P04-CH0	1059216	OK	0.7985098	-0.3673959	0.4768672	0	-127.615	-39.591	8.403	B5-03822-P04-CH1	1059216	OK	0.8087657	-0.581335	0.0891501	0	-111.282	-45.578	0.432	NA
0.649464028035457	B5-03822-P01-CH0	1059224	OK	0.1910049	0.1119965	0.1499677	-0.9635785	157.138	-15.335	-253.181	B5-03822-P02-CH0	1059224	OK	0.6361296	0.5538638	-0.5371909	0	-84.501	-98.372	-3.097	B5-03822-P02-CH1	1059224	OK	0.7285346	-0.1868024	-0.6590464	0	-78.543	-73.889	-4.491	B5-03822-P03-CH0	1059224	OK	0.696841	-0.2124256	-0.6850459	0	-91.699	-54.514	-1.343	B5-03822-P03-CH1	1059224	OK	0.7714887	-0.6298779	0.0897726	0	-95.463	-9.417	-8.207	B5-03822-P04-CH0	1059224	OK	0.7985099	-0.37068	0.4743188	0	-127.851	-40.592	10.365	B5-03822-P04-CH1	1059224	OK	0.8090743	-0.5810002	0.0885298	0	-111.157	-45.291	0.121	NA
0.659455782312925	B5-03822-P01-CH0	1059232	OK	0.1910293	0.1119927	0.1495388	-0.9636408	157.086	-15.465	-253.138	B5-03822-P02-CH0	1059232	OK	0.6341761	0.5548015	-0.5385313	0	-84.463	-98.155	-1.705	B5-03822-P02-CH1	1059232	OK	0.7250921	-0.1889427	-0.6622251	0	-78.406	-73.919	-4.201	B5-03822-P03-CH0	1059232	OK	0.6968472	-0.2095908	-0.6859122	0	-91.444	-55.647	-0.479	B5-03822-P03-CH1	1059232	OK	0.7711108	-0.6303086	0.0899956	0	-95.318	-9.369	-8.437	B5-03822-P04-CH0	1059232	OK	0.7974685	-0.3788312	0.4696072	0	-126.902	-38.253	7.957	B5-03822-P04-CH1	1059232	OK	0.8088348	-0.5814108	0.088021	0	-110.882	-45.141	-0.238	NA
0.669447536590394	B5-03822-P01-CH0	1059240	OK	0.1909847	0.1120784	0.1490976	-0.963708	157.063	-15.489	-253.144	B5-03822-P02-CH0	1059240	OK	0.6354188	0.554116	-0.5377717	0	-83.086	-97.632	-3.69	B5-03822-P02-CH1	1059240	OK	0.7220954	-0.1936176	-0.6641465	0	-78.315	-73.238	-5.201	B5-03822-P03-CH0	1059240	OK	0.6973271	-0.2057723	-0.6865804	0	-90.817	-55.686	-0.611	B5-03822-P03-CH1	1059240	OK	0.7705467	-0.6309427	0.0903836	0	-95.386	-9.759	-8.131	B5-03822-P04-CH0	1059240	OK	0.79612	-0.3857824	0.4662241	0	-126.376	-37.368	6.491	B5-03822-P04-CH1	1059240	OK	0.8086059	-0.5818109	0.0874793	0	-110.737	-44.975	-0.328	NA
0.679439290867862	B5-03822-P01-CH0	1059248	OK	0.1909783	0.112132	0.1495388	-0.9636347	157.078	-15.531	-253.117	B5-03822-P02-CH0	1059248	OK	0.6361672	0.5520975	-0.5389615	0	-83.761	-98.189	-3.013	B5-03822-P02-CH1	1059248	OK	0.721097	-0.1973976	-0.6641184	0	-77.4	-73.22	-4.691	B5-03822-P03-CH0	1059248	OK	0.6963597	-0.2021112	-0.6886467	0	-91.287	-55.15	-0.686	B5-03822-P03-CH1	1059248	OK	0.7708821	-0.6306122	0.0898282	0	-95.328	-9.773	-8.11	B5-03822-P04-CH0	1059248	OK	0.7957216	-0.3881822	0.4649105	0	-126.343	-38.088	7.695	B5-03822-P04-CH1	1059248	OK	0.8089109	-0.5815163	0.0866135	0	-110.64	-44.797	-0.465	NA
0.689431045145331	B5-03822-P01-CH0	1059256	OK	0.1911625	0.1120527	0.1501221	-0.9635167	157.092	-15.491	-253.186	B5-03822-P02-CH0	1059256	OK	0.6340065	0.5536323	-0.5399325	0	-81.94	-98.014	-3.42	B5-03822-P02-CH1	1059256	OK	0.719555	-0.2018362	-0.6644567	0	-77.146	-72.792	-4.878	B5-03822-P03-CH0	1059256	OK	0.6954149	-0.200446	-0.6900866	0	-91.193	-55.11	-0.168	B5-03822-P03-CH1	1059256	OK	0.7715555	-0.6298439	0.0894359	0	-95.451	-9.613	-8.003	B5-03822-P04-CH0	1059256	OK	0.795959	-0.3900543	0.4629329	0	-126.097	-37.034	7.583	B5-03822-P04-CH1	1059256	OK	0.8092844	-0.5811017	0.0859039	0	-110.52	-44.593	-0.611	NA
0.6994227994228	B5-03822-P01-CH0	1059264	OK	0.1913035	0.1121937	0.1504065	-0.963428	157.13	-15.527	-253.146	B5-03822-P02-CH0	1059264	OK	0.6319307	0.5513367	-0.5446939	0	-81.522	-97.907	-3.448	B5-03822-P02-CH1	1059264	OK	0.717841	-0.206737	-0.6648038	0	-76.62	-72.66	-5.702	B5-03822-P03-CH0	1059264	OK	0.6937933	-0.1988415	-0.6921799	0	-91.297	-54.681	-1.44	B5-03822-P03-CH1	1059264	OK	0.7718024	-0.6296047	0.0889882	0	-95.516	-9.684	-7.87	B5-03822-P04-CH0	1059264	OK	0.7961155	-0.3903113	0.4624469	0	-126.533	-37.515	7.912	B5-03822-P04-CH1	1059264	OK	0.8094589	-0.5809188	0.085497	0	-110.551	-44.627	-0.482	NA
0.709414553700268	B5-03822-P01-CH0	1059272	OK	0.1910354	0.1124174	0.1495858	-0.9635828	157.14	-15.592	-253.104	B5-03822-P02-CH0	1059272	OK	0.6307967	0.5477543	-0.5496005	0	-81.357	-98.441	-3.321	B5-03822-P02-CH1	1059272	OK	0.7148507	-0.2119231	-0.6663911	0	-77.128	-72.582	-5.888	B5-03822-P03-CH0	1059272	OK	0.6923731	-0.1963373	-0.6943134	0	-91.474	-54.49	-2.048	B5-03822-P03-CH1	1059272	OK	0.7719263	-0.6297632	0.0867648	0	-95.128	-8.937	-8.455	B5-03822-P04-CH0	1059272	OK	0.7966215	-0.3906239	0.4613102	0	-126.676	-38.04	9.861	B5-03822-P04-CH1	1059272	OK	0.8088997	-0.5817865	0.0848868	0	-110.485	-44.588	-0.434	NA
0.719406307977737	B5-03822-P01-CH0	1059280	OK	0.1908507	0.112785	0.1488406	-0.9636919	157.185	-15.607	-252.983	B5-03822-P02-CH0	1059280	OK	0.6275652	0.5429818	-0.557972	0	-80.586	-97.213	-2.587	B5-03822-P02-CH1	1059280	OK	0.7131924	-0.2157168	-0.6669504	0	-77.338	-71.928	-4.311	B5-03822-P03-CH0	1059280	OK	0.692763	-0.1936065	-0.6946913	0	-90.324	-55.156	-0.597	B5-03822-P03-CH1	1059280	OK	0.7715678	-0.6303032	0.0860288	0	-95.194	-8.928	-8.479	B5-03822-P04-CH0	1059280	OK	0.7958053	-0.3940997	0.4597601	0	-126.458	-36.656	7.317	B5-03822-P04-CH1	1059280	OK	0.8085858	-0.5823644	0.0839087	0	-110.455	-44.304	-0.47	NA
0.729398062255205	B5-03822-P01-CH0	1059288	OK	0.1907042	0.1129885	0.1482642	-0.9637859	157.255	-15.778	-252.932	B5-03822-P02-CH0	1059288	OK	0.628323	0.5351474	-0.5646481	0	-79.715	-98.012	-4.197	B5-03822-P02-CH1	1059288	OK	0.7133277	-0.2178806	-0.6661019	0	-77.232	-72.028	-5.129	B5-03822-P03-CH0	1059288	OK	0.6924004	-0.1915275	-0.6956284	0	-90.388	-55.336	-1.774	B5-03822-P03-CH1	1059288	OK	0.7717486	-0.630266	0.0846695	0	-95.119	-8.531	-8.769	B5-03822-P04-CH0	1059288	OK	0.7952534	-0.3949534	0.4599825	0	-125.955	-37.123	8.802	B5-03822-P04-CH1	1059288	OK	0.8082531	-0.5829535	0.0830191	0	-110.368	-44.22	-0.722	NA
0.739389816532674	B5-03822-P01-CH0	1059296	OK	0.1911709	0.1130706	0.1491817	-0.9635422	157.341	-15.68	-252.914	B5-03822-P02-CH0	1059296	OK	0.6239933	0.5276521	-0.5763815	0	-80.865	-98.117	-2.79	B5-03822-P02-CH1	1059296	OK	0.7153693	-0.2194243	-0.6634001	0	-76.535	-72.442	-3.861	B5-03822-P03-CH0	1059296	OK	0.6920478	-0.1900355	-0.6963881	0	-91.1	-53.681	-2.689	B5-03822-P03-CH1	1059296	OK	0.7724383	-0.6294058	0.0847781	0	-95.402	-8.531	-8.561	B5-03822-P04-CH0	1059296	OK	0.7961392	-0.3938009	0.4594379	0	-125.818	-36.876	9.5	B5-03822-P04-CH1	1059296	OK	0.8088003	-0.5822424	0.0826791	0	-110.304	-44.213	-0.569	NA
0.749381570810142	B5-03822-P01-CH0	1059304	OK	0.1915708	0.1131715	0.1494612	-0.9634076	157.441	-15.681	-252.93	B5-03822-P02-CH0	1059304	OK	0.6237391	0.5174217	-0.5858535	0	-79.78	-97.83	-3.684	B5-03822-P02-CH1	1059304	OK	0.7179237	-0.2177684	-0.6611827	0	-75.878	-72.771	-3.827	B5-03822-P03-CH0	1059304	OK	0.6940256	-0.1975204	-0.6923252	0	-90.894	-55.028	-0.917	B5-03822-P03-CH1	1059304	OK	0.7726971	-0.6291088	0.084625	0	-95.392	-8.519	-8.654	B5-03822-P04-CH0	1059304	OK	0.796177	-0.3914976	0.4613369	0	-125.972	-36.601	7.311	B5-03822-P04-CH1	1059304	OK	0.8090166	-0.5819549	0.0825879	0	-110.374	-44.423	-0.057	NA
0.759373325087611	B5-03822-P01-CH0	1059312	OK	0.1915736	0.1134839	0.1493696	-0.9633845	157.608	-15.679	-252.925	B5-03822-P02-CH0	1059312	OK	0.6210335	0.5095065	-0.5955842	0	-80.176	-97.579	-2.998	B5-03822-P02-CH1	1059312	OK	0.7182	-0.2164778	-0.6613064	0	-76.64	-73.335	-3.694	B5-03822-P03-CH0	1059312	OK	0.693484	-0.1952727	-0.6935045	0	-90.931	-54.857	-0.9	B5-03822-P03-CH1	1059312	OK	0.772847	-0.6290486	0.0836986	0	-95.501	-8.281	-8.825	B5-03822-P04-CH0	1059312	OK	0.796118	-0.392373	0.4606947	0	-126.14	-36.861	7.924	B5-03822-P04-CH1	1059312	OK	0.8089929	-0.5820827	0.0819158	0	-110.44	-44.406	0.146	NA
0.769365079365079	B5-03822-P01-CH0	1059320	OK	0.1913571	0.1134878	0.1490064	-0.9634833	157.618	-15.807	-252.885	B5-03822-P02-CH0	1059320	OK	0.6187573	0.5024785	-0.6038665	0	-80.665	-98.227	-1.417	B5-03822-P02-CH1	1059320	OK	0.7183121	-0.2152367	-0.6615897	0	-77.572	-73.594	-4.371	B5-03822-P03-CH0	1059320	OK	0.6901119	-0.1823902	-0.7003423	0	-91.687	-55.351	0.039	B5-03822-P03-CH1	1059320	OK	0.7725417	-0.6294708	0.0833415	0	-95.522	-8.461	-8.69	B5-03822-P04-CH0	1059320	OK	0.7959425	-0.3933043	0.4602035	0	-126.191	-37.074	8.34	B5-03822-P04-CH1	1059320	OK	0.8087646	-0.5825074	0.0811479	0	-110.304	-44.379	0.159	NA
0.779356833642548	B5-03822-P01-CH0	1059328	OK	0.191437	0.1135637	0.1485454	-0.9635297	157.689	-15.868	-252.93	B5-03822-P02-CH0	1059328	OK	0.6181416	0.4959169	-0.6098914	0	-80.548	-98.718	-1.654	B5-03822-P02-CH1	1059328	OK	0.7208438	-0.2127722	-0.6596303	0	-77.082	-73.617	-3.185	B5-03822-P03-CH0	1059328	OK	0.6918931	-0.1751574	-0.7004312	0	-90.429	-55.015	-0.773	B5-03822-P03-CH1	1059328	OK	0.7722475	-0.6298031	0.0835578	0	-95.685	-8.697	-8.507	B5-03822-P04-CH0	1059328	OK	0.7956731	-0.3942318	0.4598756	0	-126.104	-37.111	8.565	B5-03822-P04-CH1	1059328	OK	0.8084543	-0.5829766	0.0808702	0	-110.282	-44.598	0.622	NA
0.789348587920017	B5-03822-P01-CH0	1059336	OK	0.1916879	0.1137644	0.1485765	-0.9634513	157.814	-15.835	-252.922	B5-03822-P02-CH0	1059336	OK	0.6147853	0.4902929	-0.6177798	0	-80.876	-98.314	-0.916	B5-03822-P02-CH1	1059336	OK	0.7223558	-0.2110113	-0.6585411	0	-77.444	-73.901	-3.479	B5-03822-P03-CH0	1059336	OK	0.6899678	-0.1708665	-0.703384	0	-91.409	-55.812	0.143	B5-03822-P03-CH1	1059336	OK	0.7720269	-0.6300127	0.084015	0	-95.824	-9.07	-8.308	B5-03822-P04-CH0	1059336	OK	0.7957031	-0.394672	0.459446	0	-126.092	-37.057	8.724	B5-03822-P04-CH1	1059336	OK	0.8083863	-0.5830953	0.0806936	0	-110.286	-44.752	0.903	NA
0.799340342197485	B5-03822-P01-CH0	1059344	OK	0.1918579	0.1136207	0.1486906	-0.9634168	157.791	-15.773	-252.906	B5-03822-P02-CH0	1059344	OK	0.6161436	0.4862141	-0.6196474	0	-80.068	-99.257	-2.34	B5-03822-P02-CH1	1059344	OK	0.7256066	-0.2069895	-0.6562396	0	-76.586	-72.883	-4.77	B5-03822-P03-CH0	1059344	OK	0.6910104	-0.1684346	-0.702947	0	-91.179	-55.899	-0.918	B5-03822-P03-CH1	1059344	OK	0.7720273	-0.6300388	0.0838147	0	-95.682	-8.927	-8.692	B5-03822-P04-CH0	1059344	OK	0.7955133	-0.3952371	0.4592888	0	-126.047	-36.973	8.594	B5-03822-P04-CH1	1059344	OK	0.8084213	-0.5830988	0.0803168	0	-110.099	-44.65	0.831	NA
0.809332096474954	B5-03822-P01-CH0	1059352	OK	0.1923165	0.1133073	0.1496461	-0.9632143	157.772	-15.691	-252.977	B5-03822-P02-CH0	1059352	OK	0.6164498	0.4838592	-0.6211843	0	-79.118	-99.455	-3.747	B5-03822-P02-CH1	1059352	OK	0.7258389	-0.2055428	-0.6564374	0	-77.435	-73.439	-4.758	B5-03822-P03-CH0	1059352	OK	0.6925512	-0.1670616	-0.7017573	0	-90.611	-55.447	-0.525	B5-03822-P03-CH1	1059352	OK	0.7721801	-0.6296569	0.0852645	0	-95.945	-9.531	-8.131	B5-03822-P04-CH0	1059352	OK	0.7955265	-0.3951424	0.4593474	0	-125.822	-36.945	8.523	B5-03822-P04-CH1	1059352	OK	0.8091658	-0.5820934	0.0801128	0	-109.987	-44.455	0.786	NA
0.819323850752422	B5-03822-P01-CH0	1059360	OK	0.192697	0.1131349	0.1506142	-0.9630076	157.818	-15.578	-253.038	B5-03822-P02-CH0	1059360	OK	0.6141171	0.4824611	-0.624573	0	-79.442	-99.314	-3.087	B5-03822-P02-CH1	1059360	OK	0.7271323	-0.2046633	-0.6552797	0	-77.594	-74.268	-4.763	B5-03822-P03-CH0	1059360	OK	0.6931158	-0.1663042	-0.7013796	0	-90.655	-55.482	-1.469	B5-03822-P03-CH1	1059360	OK	0.7729788	-0.6286795	0.0852399	0	-95.982	-9.246	-8.163	B5-03822-P04-CH0	1059360	OK	0.7956841	-0.3950064	0.4591914	0	-125.668	-36.834	8.565	B5-03822-P04-CH1	1059360	OK	0.80981	-0.581225	0.079908	0	-110.032	-44.444	0.987	NA
0.829315605029891	B5-03822-P01-CH0	1059368	OK	0.1929384	0.1131433	0.1507186	-0.962942	157.844	-15.486	-253.028	B5-03822-P02-CH0	1059368	OK	0.6111602	0.4794337	-0.6297829	0	-80.013	-98.157	-2.354	B5-03822-P02-CH1	1059368	OK	0.7284675	-0.2029881	-0.6543171	0	-78.204	-73.757	-4.436	B5-03822-P03-CH0	1059368	OK	0.6932368	-0.1628254	-0.702076	0	-90.694	-54.924	-1.653	B5-03822-P03-CH1	1059368	OK	0.7727846	-0.6288492	0.0857478	0	-96.045	-9.413	-8.077	B5-03822-P04-CH0	1059368	OK	0.7955872	-0.3950453	0.4593258	0	-125.705	-36.793	8.569	B5-03822-P04-CH1	1059368	OK	0.8099777	-0.5810161	0.0797273	0	-109.995	-44.277	0.937	NA
0.839307359307359	B5-03822-P01-CH0	1059376	OK	0.1930779	0.1131606	0.1507326	-0.9629098	157.893	-15.464	-253.07	B5-03822-P02-CH0	1059376	OK	0.6118477	0.4782391	-0.6300237	0	-80.169	-98.825	-2.414	B5-03822-P02-CH1	1059376	OK	0.7312505	-0.2022371	-0.6514391	0	-78.204	-74.149	-4.317	B5-03822-P03-CH0	1059376	OK	0.6933813	-0.1608832	-0.7023809	0	-91.068	-55.477	-1.287	B5-03822-P03-CH1	1059376	OK	0.7727239	-0.6288759	0.0860973	0	-96.116	-9.539	-7.889	B5-03822-P04-CH0	1059376	OK	0.7954013	-0.3953655	0.4593722	0	-125.714	-36.72	8.372	B5-03822-P04-CH1	1059376	OK	0.8101753	-0.5807698	0.0795142	0	-110.053	-44.169	1.035	NA
0.849299113584828	B5-03822-P01-CH0	1059384	OK	0.1928561	0.1132315	0.1503483	-0.963006	157.899	-15.47	-252.998	B5-03822-P02-CH0	1059384	OK	0.6139133	0.4768574	-0.6290608	0	-79.421	-99.038	-2.621	B5-03822-P02-CH1	1059384	OK	0.733671	-0.1987957	-0.6497747	0	-78.4	-74.706	-3.47	B5-03822-P03-CH0	1059384	OK	0.693542	-0.1575	-0.7029888	0	-91.451	-56.251	-0.889	B5-03822-P03-CH1	1059384	OK	0.7726432	-0.6290893	0.08526	0	-95.984	-9.222	-8.026	B5-03822-P04-CH0	1059384	OK	0.7950247	-0.3963744	0.4591547	0	-125.656	-36.501	8.21	B5-03822-P04-CH1	1059384	OK	0.8099481	-0.5811676	0.0789195	0	-109.939	-43.927	0.646	NA
0.859290867862296	B5-03822-P01-CH0	1059392	OK	0.1928055	0.1130126	0.1500028	-0.9630957	157.851	-15.508	-253.057	B5-03822-P02-CH0	1059392	OK	0.61473	0.4742517	-0.630232	0	-78.94	-98.755	-3.345	B5-03822-P02-CH1	1059392	OK	0.7370952	-0.1963984	-0.6466207	0	-78.334	-74.693	-4.657	B5-03822-P03-CH0	1059392	OK	0.6949037	-0.1550194	-0.702195	0	-91.439	-56.36	-1.77	B5-03822-P03-CH1	1059392	OK	0.7723995	-0.6294065	0.0851265	0	-95.815	-9.29	-7.895	B5-03822-P04-CH0	1059392	OK	0.7945618	-0.3970054	0.4594109	0	-125.622	-36.56	8.087	B5-03822-P04-CH1	1059392	OK	0.8097175	-0.58151	0.0787634	0	-109.864	-44.046	0.773	NA
0.869282622139765	B5-03822-P01-CH0	1059400	OK	0.1928092	0.1133079	0.1497067	-0.9631064	157.908	-15.421	-253.008	B5-03822-P02-CH0	1059400	OK	0.614862	0.4755496	-0.6291242	0	-80.067	-100.336	-2.383	B5-03822-P02-CH1	1059400	OK	0.7395111	-0.1938539	-0.6446271	0	-78.61	-74.388	-4.908	B5-03822-P03-CH0	1059400	OK	0.6960544	-0.151238	-0.7018799	0	-90.901	-56.434	-0.717	B5-03822-P03-CH1	1059400	OK	0.7726118	-0.6292949	0.0840172	0	-95.704	-8.641	-8.415	B5-03822-P04-CH0	1059400	OK	0.7942485	-0.3977141	0.4593395	0	-125.604	-36.376	7.964	B5-03822-P04-CH1	1059400	OK	0.8096064	-0.5816961	0.0785313	0	-109.924	-43.99	0.879	NA
0.879274376417234	B5-03822-P01-CH0	1059408	OK	0.1925929	0.113284	0.1490646	-0.963252	157.837	-15.422	-252.919	B5-03822-P02-CH0	1059408	OK	0.6138421	0.4754256	-0.630213	0	-79.771	-99.206	-2.367	B5-03822-P02-CH1	1059408	OK	0.742109	-0.1911516	-0.6424448	0	-78.003	-74.617	-4.783	B5-03822-P03-CH0	1059408	OK	0.6958596	-0.1492963	-0.7024884	0	-91.209	-56.762	-0.344	B5-03822-P03-CH1	1059408	OK	0.7724235	-0.6296665	0.0829574	0	-95.468	-8.304	-8.655	B5-03822-P04-CH0	1059408	OK	0.7938227	-0.3982994	0.4595685	0	-125.63	-36.379	8.056	B5-03822-P04-CH1	1059408	OK	0.8093229	-0.5821483	0.0781014	0	-109.828	-43.686	0.428	NA
