Wav.Time	B5.03822.P01.CH0	Frame	State	Q0	Qx	Qy	Qz	Tx	Ty	Tz	B5.03822.P02.CH0	Frame.1	State.1	Q0.1	Qx.1	Qy.1	Qz.1	Tx.1	Ty.1	Tz.1	B5.03822.P02.CH1	Frame.2	State.2	Q0.2	Qx.2	Qy.2	Qz.2	Tx.2	Ty.2	Tz.2	B5.03822.P03.CH0	Frame.3	State.3	Q0.3	Qx.3	Qy.3	Qz.3	Tx.3	Ty.3	Tz.3	B5.03822.P03.CH1	Frame.4	State.4	Q0.4	Qx.4	Qy.4	Qz.4	Tx.4	Ty.4	Tz.4	B5.03822.P04.CH0	Frame.5	State.5	Q0.5	Qx.5	Qy.5	Qz.5	Tx.5	Ty.5	Tz.5	B5.03822.P04.CH1	Frame.6	State.6	Q0.6	Qx.6	Qy.6	Qz.6	Tx.6	Ty.6	Tz.6	X
0	B5-03822-P01-CH0	3549552	OK	0.2205351	0.0635104	0.0548471	-0.9717626	137.33	-37.278	-260.402	B5-03822-P02-CH0	3549552	OK	0.8491427	0.1515238	-0.5059616	0	-87.419	-100.718	10.91	B5-03822-P02-CH1	3549552	OK	0.7429309	-0.0188839	-0.6691017	0	-79.917	-78.663	-0.706	B5-03822-P03-CH0	3549552	OK	0.7500046	-0.2345089	-0.6184648	0	-93.31	-58.009	-1.831	B5-03822-P03-CH1	3549552	OK	0.7530568	-0.6079117	0.251692	0	-94.869	-11.528	-20.698	B5-03822-P04-CH0	3549552	OK	0.7580313	-0.1026494	0.6440898	0	-121.851	-38.226	1.725	B5-03822-P04-CH1	3549552	OK	0.7073595	-0.6726955	0.217079	0	-107.407	-32.358	-12.339	NA
0.00999198332531666	B5-03822-P01-CH0	3549560	OK	0.220546	0.0632391	0.0552396	-0.9717556	137.211	-37.22	-260.425	B5-03822-P02-CH0	3549560	OK	0.8511795	0.1521781	-0.5023298	0	-87.485	-99.376	10.043	B5-03822-P02-CH1	3549560	OK	0.7426017	-0.0197947	-0.6694407	0	-80.297	-78.692	-0.955	B5-03822-P03-CH0	3549560	OK	0.7355409	-0.2077755	-0.6448325	0	-90.435	-56.745	-2.736	B5-03822-P03-CH1	3549560	OK	0.7534019	-0.6077302	0.2510969	0	-94.448	-10.95	-21.379	B5-03822-P04-CH0	3549560	OK	0.757865	-0.1027023	0.644277	0	-121.679	-38.016	1.614	B5-03822-P04-CH1	3549560	OK	0.7078801	-0.6723937	0.2163155	0	-107.327	-31.931	-13.06	NA
0.0199839666506333	B5-03822-P01-CH0	3549568	OK	0.2203109	0.063306	0.0551377	-0.9718103	137.218	-37.165	-260.438	B5-03822-P02-CH0	3549568	OK	0.8540539	0.1508182	-0.4978411	0	-87.584	-98.548	11.334	B5-03822-P02-CH1	3549568	OK	0.7415934	-0.0197693	-0.6705583	0	-80.409	-78.248	-0.479	B5-03822-P03-CH0	3549568	OK	0.7255279	-0.1856611	-0.6626759	0	-88.567	-56.088	0.644	B5-03822-P03-CH1	3549568	OK	0.7534428	-0.6079151	0.2505257	0	-94.357	-10.567	-21.646	B5-03822-P04-CH0	3549568	OK	0.7579025	-0.1028135	0.6442151	0	-121.721	-37.837	1.607	B5-03822-P04-CH1	3549568	OK	0.708697	-0.6722309	0.214136	0	-107.355	-30.947	-13.974	NA
0.02997594997595	B5-03822-P01-CH0	3549576	OK	0.2200225	0.0633869	0.0548203	-0.9718883	137.251	-37.213	-260.493	B5-03822-P02-CH0	3549576	OK	0.8566541	0.148032	-0.4941967	0	-87.995	-98.701	10.989	B5-03822-P02-CH1	3549576	OK	0.7424296	-0.0227891	-0.6695364	0	-80.302	-78.212	-0.712	B5-03822-P03-CH0	3549576	OK	0.7217843	-0.1826457	-0.6675837	0	-90.421	-56.766	-1.423	B5-03822-P03-CH1	3549576	OK	0.7529268	-0.6082824	0.2511848	0	-94.43	-10.925	-21.441	B5-03822-P04-CH0	3549576	OK	0.7579501	-0.1029363	0.6441396	0	-121.77	-37.794	1.952	B5-03822-P04-CH1	3549576	OK	0.7088141	-0.6725504	0.2127404	0	-107.227	-30.526	-14.355	NA
0.0399679333012666	B5-03822-P01-CH0	3549584	OK	0.2203113	0.0630404	0.0554956	-0.9718071	137.16	-37.226	-260.482	B5-03822-P02-CH0	3549584	OK	0.8586842	0.1442706	-0.49178	0	-88.33	-98.963	11.242	B5-03822-P02-CH1	3549584	OK	0.7432262	-0.026219	-0.6685263	0	-80.578	-78.722	-0.283	B5-03822-P03-CH0	3549584	OK	0.7227355	-0.1761257	-0.6683062	0	-90.284	-56.928	-1.963	B5-03822-P03-CH1	3549584	OK	0.7531335	-0.6076307	0.2521407	0	-94.502	-11.181	-21.433	B5-03822-P04-CH0	3549584	OK	0.7580246	-0.1021453	0.6441778	0	-121.789	-37.91	1.731	B5-03822-P04-CH1	3549584	OK	0.7093117	-0.6720451	0.2126789	0	-106.936	-30.469	-14.125	NA
0.0499599166265833	B5-03822-P01-CH0	3549592	OK	0.2205438	0.0630647	0.0558385	-0.9717332	137.193	-37.155	-260.53	B5-03822-P02-CH0	3549592	OK	0.8605242	0.1404424	-0.4896672	0	-88.587	-99.453	11.072	B5-03822-P02-CH1	3549592	OK	0.7453839	-0.0298881	-0.6659651	0	-79.6	-77.817	-0.436	B5-03822-P03-CH0	3549592	OK	0.7229321	-0.1728813	-0.6689403	0	-90.899	-56.935	-0.283	B5-03822-P03-CH1	3549592	OK	0.7531586	-0.6070386	0.2534882	0	-94.79	-11.589	-20.85	B5-03822-P04-CH0	3549592	OK	0.758067	-0.1016259	0.64421	0	-121.835	-37.995	1.66	B5-03822-P04-CH1	3549592	OK	0.7095787	-0.6719079	0.2122213	0	-106.746	-30.252	-14.462	NA
0.0599518999519	B5-03822-P01-CH0	3549600	OK	0.2206252	0.0630084	0.0560486	-0.9717062	137.152	-37.066	-260.578	B5-03822-P02-CH0	3549600	OK	0.8621067	0.1391302	-0.4872523	0	-88.448	-99.114	10.931	B5-03822-P02-CH1	3549600	OK	0.7452312	-0.0357039	-0.6658496	0	-79.942	-77.332	0.142	B5-03822-P03-CH0	3549600	OK	0.7257895	-0.1699402	-0.6665958	0	-90.916	-56.088	-1.44	B5-03822-P03-CH1	3549600	OK	0.7532305	-0.6066248	0.254264	0	-94.897	-11.587	-20.963	B5-03822-P04-CH0	3549600	OK	0.7578302	-0.1011656	0.644561	0	-121.668	-37.856	1.836	B5-03822-P04-CH1	3549600	OK	0.70911	-0.6720389	0.2133698	0	-106.831	-30.733	-14.119	NA
0.0699438832772166	B5-03822-P01-CH0	3549608	OK	0.2206523	0.0634244	0.0556853	-0.9716939	137.345	-37.149	-260.67	B5-03822-P02-CH0	3549608	OK	0.862886	0.1370334	-0.4864665	0	-88.431	-98.839	11.362	B5-03822-P02-CH1	3549608	OK	0.7456576	-0.0441825	-0.6648628	0	-80.438	-77.587	-0.638	B5-03822-P03-CH0	3549608	OK	0.7286899	-0.1689766	-0.66367	0	-91.511	-55.943	-0.842	B5-03822-P03-CH1	3549608	OK	0.7530567	-0.6065734	0.2549007	0	-95.032	-11.817	-20.824	B5-03822-P04-CH0	3549608	OK	0.7581887	-0.1000468	0.6443139	0	-121.979	-38.211	2.335	B5-03822-P04-CH1	3549608	OK	0.7092122	-0.6723554	0.2120288	0	-106.738	-30.402	-14.72	NA
0.0799358666025333	B5-03822-P01-CH0	3549616	OK	0.2205081	0.0634894	0.0557771	-0.9717171	137.325	-37.068	-260.648	B5-03822-P02-CH0	3549616	OK	0.8629634	0.1349617	-0.4869081	0	-88.317	-98.187	11.131	B5-03822-P02-CH1	3549616	OK	0.7469412	-0.055321	-0.6625846	0	-81.718	-77.965	0.195	B5-03822-P03-CH0	3549616	OK	0.7331999	-0.1688039	-0.6587284	0	-91.703	-56.489	0.509	B5-03822-P03-CH1	3549616	OK	0.753126	-0.6063612	0.2552005	0	-95.042	-11.777	-20.529	B5-03822-P04-CH0	3549616	OK	0.7582531	-0.0993328	0.6443487	0	-122.084	-38.217	2.533	B5-03822-P04-CH1	3549616	OK	0.7090418	-0.672381	0.2125171	0	-106.873	-30.533	-14.544	NA
0.0899278499278499	B5-03822-P01-CH0	3549624	OK	0.220773	0.0632004	0.0565545	-0.9716309	137.294	-37.018	-260.842	B5-03822-P02-CH0	3549624	OK	0.8622445	0.1257702	-0.4906285	0	-88.488	-99.045	11.513	B5-03822-P02-CH1	3549624	OK	0.7523954	-0.0694711	-0.6550381	0	-81.59	-77.76	-0.378	B5-03822-P03-CH0	3549624	OK	0.7388758	-0.1688204	-0.6523513	0	-92.709	-56.325	-0.732	B5-03822-P03-CH1	3549624	OK	0.7536018	-0.605475	0.2558991	0	-94.933	-11.768	-20.257	B5-03822-P04-CH0	3549624	OK	0.7583522	-0.0975044	0.6445113	0	-122.26	-38.592	2.697	B5-03822-P04-CH1	3549624	OK	0.7094572	-0.6716412	0.2134679	0	-107.01	-30.744	-13.921	NA
0.0999198332531666	B5-03822-P01-CH0	3549632	OK	0.2205746	0.0631527	0.0565594	-0.9716788	137.254	-37.036	-260.831	B5-03822-P02-CH0	3549632	OK	0.8621485	0.1169751	-0.4929673	0	-87.984	-98.578	11.001	B5-03822-P02-CH1	3549632	OK	0.7595283	-0.0830212	-0.6451545	0	-81.454	-77.88	0.096	B5-03822-P03-CH0	3549632	OK	0.7490016	-0.1703466	-0.6402958	0	-92.564	-56.088	-0.216	B5-03822-P03-CH1	3549632	OK	0.7539018	-0.605287	0.2554598	0	-94.715	-11.289	-20.848	B5-03822-P04-CH0	3549632	OK	0.7581618	-0.0965009	0.6448863	0	-122.29	-38.622	2.606	B5-03822-P04-CH1	3549632	OK	0.7092891	-0.6717254	0.2137614	0	-107.023	-30.836	-13.681	NA
0.109911816578483	B5-03822-P01-CH0	3549640	OK	0.2202969	0.0633517	0.0561599	-0.971752	137.303	-37.089	-260.795	B5-03822-P02-CH0	3549640	OK	0.860966	0.1088837	-0.4968722	0	-87.703	-97.495	10.794	B5-03822-P02-CH1	3549640	OK	0.7658735	-0.096348	-0.6357318	0	-82.571	-78.14	1.043	B5-03822-P03-CH0	3549640	OK	0.7608108	-0.1889763	-0.6208501	0	-94.106	-56.962	0.159	B5-03822-P03-CH1	3549640	OK	0.7537396	-0.6052211	0.2560939	0	-94.976	-11.546	-20.421	B5-03822-P04-CH0	3549640	OK	0.7583823	-0.0948496	0.6448719	0	-122.651	-38.911	2.897	B5-03822-P04-CH1	3549640	OK	0.7090408	-0.6720312	0.213624	0	-107.127	-30.713	-13.953	NA
0.1199037999038	B5-03822-P01-CH0	3549648	OK	0.2199355	0.063486	0.0556679	-0.9718534	137.288	-37.172	-260.626	B5-03822-P02-CH0	3549648	OK	0.8597796	0.0916128	-0.5023805	0	-87.667	-98.498	10.835	B5-03822-P02-CH1	3549648	OK	0.7717557	-0.108996	-0.6265086	0	-84.252	-79.076	2.82	B5-03822-P03-CH0	3549648	OK	0.7753809	-0.2185326	-0.5924761	0	-96.158	-58.833	2.032	B5-03822-P03-CH1	3549648	OK	0.75337	-0.6054575	0.2566218	0	-95.044	-11.794	-20.342	B5-03822-P04-CH0	3549648	OK	0.7581708	-0.0935493	0.6453104	0	-122.821	-38.967	2.531	B5-03822-P04-CH1	3549648	OK	0.7083245	-0.6724638	0.2146367	0	-107.273	-31.11	-13.797	NA
0.129895783229117	B5-03822-P01-CH0	3549656	OK	0.2199576	0.0636091	0.0555046	-0.9718497	137.287	-37.244	-260.438	B5-03822-P02-CH0	3549656	OK	0.8581773	0.0728757	-0.5081544	0	-87.421	-100.161	9.541	B5-03822-P02-CH1	3549656	OK	0.7777291	-0.1201182	-0.6170162	0	-84.865	-79.605	2.557	B5-03822-P03-CH0	3549656	OK	0.7897506	-0.2377804	-0.5654683	0	-97.436	-58.54	0.566	B5-03822-P03-CH1	3549656	OK	0.7534326	-0.6052428	0.2569445	0	-94.964	-11.692	-20.623	B5-03822-P04-CH0	3549656	OK	0.7583199	-0.0905239	0.6455667	0	-123.211	-39.537	2.397	B5-03822-P04-CH1	3549656	OK	0.7078259	-0.6722466	0.2169493	0	-107.655	-31.784	-13.293	NA
0.139887766554433	B5-03822-P01-CH0	3549664	OK	0.2193056	0.0639386	0.05441	-0.9720373	137.342	-37.369	-260.352	B5-03822-P02-CH0	3549664	OK	0.8558369	0.0641427	-0.5132532	0	-86.947	-99.197	9.45	B5-03822-P02-CH1	3549664	OK	0.7807174	-0.1293243	-0.6113556	0	-85.378	-80.742	1.839	B5-03822-P03-CH0	3549664	OK	0.7989062	-0.2442792	-0.5496149	0	-98.106	-59.824	3.169	B5-03822-P03-CH1	3549664	OK	0.7528933	-0.6059001	0.2569761	0	-95.038	-11.756	-20.612	B5-03822-P04-CH0	3549664	OK	0.7579697	-0.0729843	0.6481938	0	-124.824	-40.089	2.441	B5-03822-P04-CH1	3549664	OK	0.7072223	-0.6728097	0.2171721	0	-107.885	-31.694	-13.621	NA
0.14987974987975	B5-03822-P01-CH0	3549672	OK	0.2187296	0.0639072	0.0533738	-0.9722266	137.239	-37.569	-260.245	B5-03822-P02-CH0	3549672	OK	0.8546702	0.0523728	-0.5165229	0	-86.54	-100.154	9.042	B5-03822-P02-CH1	3549672	OK	0.7845841	-0.1328934	-0.605613	0	-85.749	-81.067	2.516	B5-03822-P03-CH0	3549672	OK	0.8064937	-0.2454079	-0.537906	0	-98.941	-61.098	4.144	B5-03822-P03-CH1	3549672	OK	0.7524902	-0.6067523	0.2561449	0	-94.736	-11.413	-21.384	B5-03822-P04-CH0	3549672	OK	0.7585999	-0.0688244	0.6479116	0	-125.285	-40.358	4.158	B5-03822-P04-CH1	3549672	OK	0.706579	-0.6731828	0.2181079	0	-108.014	-31.769	-13.875	NA
0.159871733205067	B5-03822-P01-CH0	3549680	OK	0.2185023	0.0641938	0.0526529	-0.9722981	137.28	-37.691	-260.095	B5-03822-P02-CH0	3549680	OK	0.8545416	0.0428433	-0.5176129	0	-86.707	-101.279	10.173	B5-03822-P02-CH1	3549680	OK	0.7885011	-0.1322685	-0.6006422	0	-86.68	-81.726	2.964	B5-03822-P03-CH0	3549680	OK	0.8112075	-0.2391874	-0.5336027	0	-100.093	-62.482	4.787	B5-03822-P03-CH1	3549680	OK	0.7519913	-0.6071902	0.256572	0	-94.768	-11.69	-21.328	B5-03822-P04-CH0	3549680	OK	0.7567136	-0.0685484	0.6501428	0	-124.382	-39.771	2.492	B5-03822-P04-CH1	3549680	OK	0.7067956	-0.6729598	0.2180942	0	-108.217	-31.308	-14.792	NA
0.169863716530383	B5-03822-P01-CH0	3549688	OK	0.2182236	0.0640134	0.0528247	-0.9723633	137.144	-37.738	-259.967	B5-03822-P02-CH0	3549688	OK	0.8544648	0.0431119	-0.5177174	0	-86.967	-101.285	8.681	B5-03822-P02-CH1	3549688	OK	0.791372	-0.1295658	-0.5974471	0	-87.116	-82.177	2.351	B5-03822-P03-CH0	3549688	OK	0.8136714	-0.2178325	-0.5389692	0	-100.115	-62.475	4.885	B5-03822-P03-CH1	3549688	OK	0.7520976	-0.6070825	0.2565151	0	-94.653	-11.676	-21.377	B5-03822-P04-CH0	3549688	OK	0.7568179	-0.0673589	0.6501457	0	-124.488	-40.051	2.327	B5-03822-P04-CH1	3549688	OK	0.7071237	-0.6723084	0.2190377	0	-108.355	-31.11	-15.319	NA
0.1798556998557	B5-03822-P01-CH0	3549696	OK	0.2179833	0.0642611	0.0524133	-0.9724231	137.18	-37.752	-259.911	B5-03822-P02-CH0	3549696	OK	0.8543659	0.0466804	-0.5175711	0	-87.187	-101.001	7.542	B5-03822-P02-CH1	3549696	OK	0.79227	-0.1284903	-0.5964885	0	-87.098	-82.479	2.942	B5-03822-P03-CH0	3549696	OK	0.8090324	-0.1932549	-0.5550848	0	-100.418	-62.12	3.852	B5-03822-P03-CH1	3549696	OK	0.7522759	-0.6072713	0.2555436	0	-94.511	-11.172	-21.935	B5-03822-P04-CH0	3549696	OK	0.7575482	-0.0689497	0.6491276	0	-124.666	-40.725	3.289	B5-03822-P04-CH1	3549696	OK	0.7068619	-0.672161	0.2203313	0	-108.645	-31.232	-15.531	NA
0.189847683181017	B5-03822-P01-CH0	3549704	OK	0.2175759	0.0643861	0.0517	-0.9725442	137.119	-37.753	-259.805	B5-03822-P02-CH0	3549704	OK	0.8563837	0.0459017	-0.5142957	0	-86.828	-100.611	9.434	B5-03822-P02-CH1	3549704	OK	0.7921065	-0.1283351	-0.5967389	0	-87.09	-82.102	2.958	B5-03822-P03-CH0	3549704	OK	0.8016491	-0.1709188	-0.5728398	0	-99.709	-62.114	4.067	B5-03822-P03-CH1	3549704	OK	0.7523043	-0.6077921	0.2542182	0	-94.333	-10.569	-22.602	B5-03822-P04-CH0	3549704	OK	0.7575864	-0.071483	0.6488089	0	-124.68	-40.741	3.02	B5-03822-P04-CH1	3549704	OK	0.7067087	-0.6724029	0.2200845	0	-108.601	-30.782	-16.391	NA
0.199839666506333	B5-03822-P01-CH0	3549712	OK	0.2175571	0.0644731	0.0517596	-0.9725395	137.139	-37.672	-259.773	B5-03822-P02-CH0	3549712	OK	0.8579835	0.0483046	-0.511401	0	-86.983	-100.179	9.754	B5-03822-P02-CH1	3549712	OK	0.7904289	-0.1263497	-0.5993812	0	-87.523	-81.619	3.384	B5-03822-P03-CH0	3549712	OK	0.7946315	-0.1426135	-0.5901035	0	-98.639	-61.393	3.586	B5-03822-P03-CH1	3549712	OK	0.7523548	-0.6077138	0.2542563	0	-94.43	-10.592	-22.581	B5-03822-P04-CH0	3549712	OK	0.7579422	-0.0747515	0.6480246	0	-124.734	-40.416	2.844	B5-03822-P04-CH1	3549712	OK	0.7071122	-0.671943	0.2201929	0	-108.736	-30.429	-16.954	NA
0.20983164983165	B5-03822-P01-CH0	3549720	OK	0.2176881	0.0643679	0.0517509	-0.9725176	137.11	-37.742	-259.752	B5-03822-P02-CH0	3549720	OK	0.8584693	0.0522127	-0.5102002	0	-87.463	-100.048	9.889	B5-03822-P02-CH1	3549720	OK	0.7885142	-0.120091	-0.6031779	0	-87.044	-81.041	3.596	B5-03822-P03-CH0	3549720	OK	0.7868418	-0.1105497	-0.6071728	0	-96.895	-61.049	3.752	B5-03822-P03-CH1	3549720	OK	0.7523498	-0.6077449	0.2541965	0	-94.324	-10.701	-22.536	B5-03822-P04-CH0	3549720	OK	0.7575493	-0.0736173	0.6486136	0	-124.536	-40.313	2.646	B5-03822-P04-CH1	3549720	OK	0.7067337	-0.6717416	0.2220149	0	-108.787	-31.041	-16.735	NA
0.219823633156966	B5-03822-P01-CH0	3549728	OK	0.2175847	0.0645828	0.0512419	-0.9725534	137.162	-37.802	-259.69	B5-03822-P02-CH0	3549728	OK	0.8607167	0.0581383	-0.5057536	0	-87.407	-99.787	10.443	B5-03822-P02-CH1	3549728	OK	0.7854562	-0.1153116	-0.6080805	0	-86.664	-80.609	4.001	B5-03822-P03-CH0	3549728	OK	0.7767618	-0.0830648	-0.6242927	0	-96.619	-59.072	1.677	B5-03822-P03-CH1	3549728	OK	0.7518907	-0.6081825	0.2545083	0	-94.582	-11.126	-22.231	B5-03822-P04-CH0	3549728	OK	0.7574904	-0.0730816	0.6487429	0	-124.503	-40.327	2.804	B5-03822-P04-CH1	3549728	OK	0.7061038	-0.672069	0.2230261	0	-108.874	-31.495	-16.481	NA
0.229815616482283	B5-03822-P01-CH0	3549736	OK	0.2173411	0.0643727	0.0509394	-0.9726377	137.078	-37.759	-259.775	B5-03822-P02-CH0	3549736	OK	0.8634056	0.0654743	-0.5002438	0	-87.232	-99.129	9.749	B5-03822-P02-CH1	3549736	OK	0.7831109	-0.1114076	-0.6118216	0	-85.395	-79.527	3.005	B5-03822-P03-CH0	3549736	OK	0.7750998	-0.0881003	-0.6256666	0	-95.823	-60.622	5.246	B5-03822-P03-CH1	3549736	OK	0.7515772	-0.608753	0.25407	0	-94.605	-11.265	-21.863	B5-03822-P04-CH0	3549736	OK	0.7571058	-0.0738958	0.6490995	0	-124.288	-39.858	2.61	B5-03822-P04-CH1	3549736	OK	0.7066728	-0.6722763	0.2205857	0	-108.539	-30.454	-17.323	NA
0.2398075998076	B5-03822-P01-CH0	3549744	OK	0.2177206	0.064346	0.0511801	-0.972542	137.121	-37.749	-259.721	B5-03822-P02-CH0	3549744	OK	0.8634074	0.0710383	-0.499481	0	-87.997	-99.096	10.662	B5-03822-P02-CH1	3549744	OK	0.7776385	-0.1109926	-0.6188368	0	-85.131	-79.264	2.637	B5-03822-P03-CH0	3549744	OK	0.7737953	-0.1003366	-0.6254385	0	-97.015	-59.699	1.402	B5-03822-P03-CH1	3549744	OK	0.7515757	-0.6087854	0.2539968	0	-94.662	-11.447	-21.762	B5-03822-P04-CH0	3549744	OK	0.7570289	-0.0736431	0.649218	0	-124.146	-39.807	2.629	B5-03822-P04-CH1	3549744	OK	0.7067224	-0.6719879	0.2213047	0	-108.699	-30.766	-17.188	NA
0.249799583132916	B5-03822-P01-CH0	3549752	OK	0.2182756	0.0641549	0.0523115	-0.97237	137.147	-37.596	-259.737	B5-03822-P02-CH0	3549752	OK	0.8642799	0.0768381	-0.4971078	0	-87.94	-98.598	9.742	B5-03822-P02-CH1	3549752	OK	0.7716166	-0.1076693	-0.6269092	0	-84.9	-78.58	3.003	B5-03822-P03-CH0	3549752	OK	0.7773226	-0.1086474	-0.6196493	0	-95.431	-56.596	1.235	B5-03822-P03-CH1	3549752	OK	0.7520948	-0.607998	0.2543458	0	-94.956	-11.695	-21.264	B5-03822-P04-CH0	3549752	OK	0.7570752	-0.0729355	0.6492438	0	-124.048	-39.747	2.662	B5-03822-P04-CH1	3549752	OK	0.706932	-0.6713633	0.2225276	0	-108.865	-31.4	-16.253	NA
0.259791566458233	B5-03822-P01-CH0	3549760	OK	0.2186299	0.0641974	0.0531025	-0.9722447	137.251	-37.493	-259.718	B5-03822-P02-CH0	3549760	OK	0.864607	0.0801655	-0.4960124	0	-88.066	-98.298	10.133	B5-03822-P02-CH1	3549760	OK	0.7661325	-0.1032302	-0.6343379	0	-84.108	-77.679	1.408	B5-03822-P03-CH0	3549760	OK	0.7748925	-0.1203976	-0.6205208	0	-96.543	-57.568	2.968	B5-03822-P03-CH1	3549760	OK	0.7524381	-0.6077226	0.2539886	0	-95.143	-11.814	-21.037	B5-03822-P04-CH0	3549760	OK	0.7571129	-0.0721797	0.6492844	0	-123.997	-39.785	2.71	B5-03822-P04-CH1	3549760	OK	0.7076194	-0.6709939	0.2214543	0	-108.75	-31.193	-15.874	NA
0.26978354978355	B5-03822-P01-CH0	3549768	OK	0.2187253	0.0644833	0.0526693	-0.9722279	137.328	-37.341	-259.646	B5-03822-P02-CH0	3549768	OK	0.8642866	0.0841223	-0.4959154	0	-88.029	-98.06	10.891	B5-03822-P02-CH1	3549768	OK	0.7590684	-0.0977349	-0.6436328	0	-83.02	-77.541	0.404	B5-03822-P03-CH0	3549768	OK	0.7721007	-0.1337717	-0.6212613	0	-96.319	-58.964	2.791	B5-03822-P03-CH1	3549768	OK	0.7524779	-0.6083441	0.2523777	0	-95.041	-11.124	-21.544	B5-03822-P04-CH0	3549768	OK	0.7571249	-0.0713008	0.6493674	0	-124.034	-39.866	2.871	B5-03822-P04-CH1	3549768	OK	0.7069852	-0.6718083	0.2210101	0	-108.703	-31.322	-15.386	NA
0.279775533108866	B5-03822-P01-CH0	3549776	OK	0.218906	0.0642731	0.0528784	-0.9721898	137.33	-37.389	-259.622	B5-03822-P02-CH0	3549776	OK	0.8631325	0.0906477	-0.4967749	0	-88.027	-97.818	10.491	B5-03822-P02-CH1	3549776	OK	0.7510264	-0.0907807	-0.6540017	0	-81.389	-77.291	-0.094	B5-03822-P03-CH0	3549776	OK	0.7655567	-0.1447844	-0.6268655	0	-97.324	-57.605	-1.173	B5-03822-P03-CH1	3549776	OK	0.752152	-0.6085698	0.2528045	0	-95.224	-11.709	-20.972	B5-03822-P04-CH0	3549776	OK	0.756779	-0.0697151	0.6499426	0	-123.85	-39.78	2.791	B5-03822-P04-CH1	3549776	OK	0.7072234	-0.6721445	0.219219	0	-108.371	-31.057	-15.642	NA
0.289767516434183	B5-03822-P01-CH0	3549784	OK	0.2192854	0.064201	0.0535095	-0.9720745	137.423	-37.401	-259.671	B5-03822-P02-CH0	3549784	OK	0.861991	0.0976237	-0.4974345	0	-87.605	-97.722	10.595	B5-03822-P02-CH1	3549784	OK	0.7379592	-0.0815233	-0.6699031	0	-81.425	-77.536	-1.638	B5-03822-P03-CH0	3549784	OK	0.763817	-0.1585889	-0.6256462	0	-95.06	-55.377	-1.582	B5-03822-P03-CH1	3549784	OK	0.7524752	-0.6082487	0.2526155	0	-95.316	-11.879	-20.61	B5-03822-P04-CH0	3549784	OK	0.7521455	-0.055543	0.6566522	0	-121.581	-37.266	1.204	B5-03822-P04-CH1	3549784	OK	0.7076285	-0.672032	0.2182543	0	-108.21	-31.058	-15.425	NA
0.2997594997595	B5-03822-P01-CH0	3549792	OK	0.2191086	0.064484	0.0526666	-0.9721417	137.483	-37.515	-259.587	B5-03822-P02-CH0	3549792	OK	0.8599361	0.099643	-0.5005809	0	-87.677	-99.086	10.699	B5-03822-P02-CH1	3549792	OK	0.7274404	-0.0706155	-0.6825276	0	-80	-77.411	-1.446	B5-03822-P03-CH0	3549792	OK	0.7599586	-0.177609	-0.6252343	0	-94.471	-55.211	0.83	B5-03822-P03-CH1	3549792	OK	0.7517999	-0.6093953	0.2518617	0	-95.262	-12.047	-20.537	B5-03822-P04-CH0	3549792	OK	0.7531154	-0.0538325	0.6556823	0	-122.351	-38.498	1.915	B5-03822-P04-CH1	3549792	OK	0.7066004	-0.6731515	0.2181351	0	-108.227	-31.528	-15.025	NA
0.309751483084816	B5-03822-P01-CH0	3549800	OK	0.2192418	0.0649532	0.0526092	-0.9720835	137.651	-37.422	-259.537	B5-03822-P02-CH0	3549800	OK	0.8583355	0.1072758	-0.501749	0	-87.516	-98.471	11.419	B5-03822-P02-CH1	3549800	OK	0.7173729	-0.0574171	-0.6943194	0	-79.06	-76.995	-0.427	B5-03822-P03-CH0	3549800	OK	0.7594936	-0.205479	-0.6172097	0	-94.241	-56.423	0.3	B5-03822-P03-CH1	3549800	OK	0.752148	-0.6095842	0.2503605	0	-95.153	-11.442	-21.09	B5-03822-P04-CH0	3549800	OK	0.755281	-0.0533799	0.6532236	0	-123.558	-39.265	2.569	B5-03822-P04-CH1	3549800	OK	0.7069186	-0.6733543	0.2164718	0	-108.211	-31.056	-14.947	NA
0.319743466410133	B5-03822-P01-CH0	3549808	OK	0.2195874	0.0650569	0.0532415	-0.9719642	137.692	-37.295	-259.569	B5-03822-P02-CH0	3549808	OK	0.8571207	0.1132405	-0.5025144	0	-87.621	-98.256	11.299	B5-03822-P02-CH1	3549808	OK	0.705982	-0.0426537	-0.7069442	0	-78.586	-77.487	-0.48	B5-03822-P03-CH0	3549808	OK	0.7624281	-0.2419879	-0.600121	0	-93.694	-58.253	-0.087	B5-03822-P03-CH1	3549808	OK	0.7526193	-0.6091526	0.2499945	0	-95.131	-11.287	-21.128	B5-03822-P04-CH0	3549808	OK	0.7559511	-0.0554669	0.652274	0	-123.265	-39.124	2.877	B5-03822-P04-CH1	3549808	OK	0.707662	-0.6729344	0.2153458	0	-108.146	-30.618	-14.887	NA
0.32973544973545	B5-03822-P01-CH0	3549816	OK	0.2198641	0.065013	0.0539249	-0.9718669	137.693	-37.297	-259.505	B5-03822-P02-CH0	3549816	OK	0.8557288	0.1163268	-0.5041788	0	-87.829	-98.518	11.473	B5-03822-P02-CH1	3549816	OK	0.6940908	-0.0229658	-0.719521	0	-76.421	-76.831	-2.211	B5-03822-P03-CH0	3549816	OK	0.7639307	-0.2805985	-0.5810975	0	-93.454	-58.818	0.051	B5-03822-P03-CH1	3549816	OK	0.7532232	-0.6085821	0.2495648	0	-95.061	-11.167	-21.273	B5-03822-P04-CH0	3549816	OK	0.7574147	-0.0553954	0.65058	0	-123.456	-39.698	2.824	B5-03822-P04-CH1	3549816	OK	0.7078892	-0.6725924	0.215667	0	-108.168	-30.844	-14.738	NA
0.339727433060766	B5-03822-P01-CH0	3549824	OK	0.2199502	0.064818	0.0548567	-0.9718083	137.586	-37.164	-259.576	B5-03822-P02-CH0	3549824	OK	0.8553975	0.1230865	-0.5031349	0	-87.335	-98.524	11.375	B5-03822-P02-CH1	3549824	OK	0.6787549	-0.0046303	-0.7343503	0	-75.575	-77.22	-0.404	B5-03822-P03-CH0	3549824	OK	0.7673216	-0.3133278	-0.5595026	0	-93.311	-60.393	0.372	B5-03822-P03-CH1	3549824	OK	0.7540779	-0.6078269	0.2488231	0	-94.889	-10.803	-21.309	B5-03822-P04-CH0	3549824	OK	0.7562245	-0.0571271	0.6518136	0	-123.216	-39.29	2.96	B5-03822-P04-CH1	3549824	OK	0.7086246	-0.6721887	0.2145078	0	-107.983	-30.394	-15.12	NA
0.349719416386083	B5-03822-P01-CH0	3549832	OK	0.2196668	0.064956	0.0550208	-0.9718539	137.541	-37.115	-259.51	B5-03822-P02-CH0	3549832	OK	0.8565486	0.128036	-0.4999313	0	-87.217	-99.278	11.278	B5-03822-P02-CH1	3549832	OK	0.6668062	0.0122285	-0.7451308	0	-74.656	-77.514	-0.669	B5-03822-P03-CH0	3549832	OK	0.7708466	-0.3456188	-0.5351105	0	-93.978	-60.084	-0.848	B5-03822-P03-CH1	3549832	OK	0.7547305	-0.6075262	0.2475759	0	-94.73	-10.203	-21.583	B5-03822-P04-CH0	3549832	OK	0.7562314	-0.0566845	0.6518443	0	-123.088	-39.047	2.725	B5-03822-P04-CH1	3549832	OK	0.7088964	-0.6723298	0.2131633	0	-107.906	-29.919	-15.69	NA
0.3597113997114	B5-03822-P01-CH0	3549840	OK	0.2189796	0.0648738	0.054351	-0.9720521	137.392	-37.252	-259.521	B5-03822-P02-CH0	3549840	OK	0.8573803	0.1341609	-0.4968903	0	-87.636	-99.189	11.674	B5-03822-P02-CH1	3549840	OK	0.6563819	0.025719	-0.7539902	0	-74.406	-77.97	0.26	B5-03822-P03-CH0	3549840	OK	0.7729524	-0.3782166	-0.5094083	0	-92.738	-61.444	0.15	B5-03822-P03-CH1	3549840	OK	0.7543798	-0.6081381	0.247142	0	-94.576	-10.268	-21.636	B5-03822-P04-CH0	3549840	OK	0.7561372	-0.0575141	0.6518808	0	-122.891	-38.636	2.617	B5-03822-P04-CH1	3549840	OK	0.7079254	-0.673194	0.2136619	0	-107.939	-30.356	-15.426	NA
0.369703383036716	B5-03822-P01-CH0	3549848	OK	0.2187858	0.0647223	0.0547939	-0.972081	137.302	-37.369	-259.592	B5-03822-P02-CH0	3549848	OK	0.8599974	0.1400873	-0.4906933	0	-87.871	-99.288	11.221	B5-03822-P02-CH1	3549848	OK	0.6499116	0.0361066	-0.7591517	0	-72.459	-77.505	1.069	B5-03822-P03-CH0	3549848	OK	0.777234	-0.4068643	-0.4799674	0	-91.529	-61.385	-0.292	B5-03822-P03-CH1	3549848	OK	0.7542796	-0.6078511	0.2481519	0	-94.684	-11.004	-21.091	B5-03822-P04-CH0	3549848	OK	0.7561912	-0.0582764	0.6517505	0	-122.7	-38.359	2.37	B5-03822-P04-CH1	3549848	OK	0.7085877	-0.6726669	0.2131261	0	-107.884	-30.191	-15.384	NA
0.379695366362033	B5-03822-P01-CH0	3549856	OK	0.2185168	0.064571	0.0552675	-0.9721247	137.121	-37.3	-259.611	B5-03822-P02-CH0	3549856	OK	0.8631786	0.1473779	-0.4829105	0	-87.849	-98.844	11.678	B5-03822-P02-CH1	3549856	OK	0.6424634	0.0453971	-0.7649705	0	-72.514	-77.666	0.226	B5-03822-P03-CH0	3549856	OK	0.7841959	-0.4301299	-0.4472416	0	-89.566	-62.497	0.739	B5-03822-P03-CH1	3549856	OK	0.7549068	-0.6074725	0.2471696	0	-94.373	-10.362	-21.64	B5-03822-P04-CH0	3549856	OK	0.7564887	-0.0595965	0.6512857	0	-122.628	-38.138	2.388	B5-03822-P04-CH1	3549856	OK	0.7091497	-0.6721716	0.2128193	0	-107.858	-29.827	-15.342	NA
0.38968734968735	B5-03822-P01-CH0	3549864	OK	0.21797	0.0649389	0.0546038	-0.9722605	137.063	-37.366	-259.394	B5-03822-P02-CH0	3549864	OK	0.8649109	0.1506775	-0.478775	0	-88.817	-99.518	11.733	B5-03822-P02-CH1	3549864	OK	0.6381913	0.0519451	-0.7681234	0	-72.256	-77.008	0.443	B5-03822-P03-CH0	3549864	OK	0.7898976	-0.4422737	-0.4248008	0	-91.569	-63.214	1.714	B5-03822-P03-CH1	3549864	OK	0.7541336	-0.6081072	0.2479681	0	-94.601	-10.892	-21.468	B5-03822-P04-CH0	3549864	OK	0.7568887	-0.0614634	0.6506472	0	-122.659	-38.201	2.535	B5-03822-P04-CH1	3549864	OK	0.7090022	-0.6724708	0.2123651	0	-107.921	-29.546	-15.729	NA
0.399679333012666	B5-03822-P01-CH0	3549872	OK	0.2180061	0.0647519	0.0557958	-0.9721972	136.938	-37.224	-259.44	B5-03822-P02-CH0	3549872	OK	0.868853	0.1564802	-0.4696897	0	-88.102	-98.788	12.036	B5-03822-P02-CH1	3549872	OK	0.6397765	0.05708	-0.7664385	0	-71.294	-77.388	0.021	B5-03822-P03-CH0	3549872	OK	0.7980492	-0.447584	-0.4034675	0	-91.791	-63.327	2.914	B5-03822-P03-CH1	3549872	OK	0.7549355	-0.6070119	0.2482115	0	-94.577	-10.626	-21.773	B5-03822-P04-CH0	3549872	OK	0.7576433	-0.0621218	0.6497057	0	-122.875	-38.325	2.797	B5-03822-P04-CH1	3549872	OK	0.710099	-0.6714865	0.2118144	0	-107.793	-29.005	-16.288	NA
0.409671316337983	B5-03822-P01-CH0	3549880	OK	0.2176189	0.0644916	0.0561288	-0.9722821	136.743	-37.299	-259.404	B5-03822-P02-CH0	3549880	OK	0.8707977	0.1576136	-0.4656923	0	-88.434	-99.221	12.46	B5-03822-P02-CH1	3549880	OK	0.6393856	0.0599634	-0.7665445	0	-71.822	-77.232	0.904	B5-03822-P03-CH0	3549880	OK	0.8055133	-0.4506751	-0.3847601	0	-91.354	-63.388	2.638	B5-03822-P03-CH1	3549880	OK	0.7549388	-0.6066646	0.249049	0	-94.71	-10.909	-21.572	B5-03822-P04-CH0	3549880	OK	0.7578198	-0.0636093	0.6493558	0	-122.824	-38.314	2.54	B5-03822-P04-CH1	3549880	OK	0.7103118	-0.6710765	0.2123996	0	-107.864	-29.054	-16.507	NA
0.4196632996633	B5-03822-P01-CH0	3549888	OK	0.2175631	0.0640812	0.0563683	-0.9723078	136.585	-37.405	-259.448	B5-03822-P02-CH0	3549888	OK	0.8712708	0.1610406	-0.4636304	0	-89.194	-99.112	12.024	B5-03822-P02-CH1	3549888	OK	0.6397984	0.0554119	-0.7665426	0	-71.792	-77.138	0.918	B5-03822-P03-CH0	3549888	OK	0.8110212	-0.4486086	-0.3754929	0	-92.22	-63.592	3.589	B5-03822-P03-CH1	3549888	OK	0.7548903	-0.6062773	0.2501371	0	-94.653	-11.187	-21.344	B5-03822-P04-CH0	3549888	OK	0.7580164	-0.0643442	0.6490539	0	-122.923	-38.424	2.332	B5-03822-P04-CH1	3549888	OK	0.7101053	-0.6706906	0.2143002	0	-108	-29.578	-16.466	NA
0.429655282988616	B5-03822-P01-CH0	3549896	OK	0.2170407	0.0642747	0.0554305	-0.9724657	136.485	-37.487	-259.288	B5-03822-P02-CH0	3549896	OK	0.8726469	0.1635517	-0.4601502	0	-89.515	-98.696	13.041	B5-03822-P02-CH1	3549896	OK	0.6437718	0.0402983	-0.7641557	0	-71.448	-76.195	-0.46	B5-03822-P03-CH0	3549896	OK	0.8149574	-0.4455237	-0.3706118	0	-92.17	-63.676	3.459	B5-03822-P03-CH1	3549896	OK	0.7541589	-0.6069811	0.2506356	0	-94.549	-11.165	-21.565	B5-03822-P04-CH0	3549896	OK	0.7582436	-0.0656679	0.6486558	0	-123.167	-38.405	2.137	B5-03822-P04-CH1	3549896	OK	0.7094944	-0.6712525	0.2145641	0	-107.993	-29.575	-16.604	NA
0.439647266313933	B5-03822-P01-CH0	3549904	OK	0.2167822	0.0642848	0.0552885	-0.9725308	136.412	-37.523	-259.099	B5-03822-P02-CH0	3549904	OK	0.8753602	0.1641637	-0.4547471	0	-89.07	-98.887	12.676	B5-03822-P02-CH1	3549904	OK	0.6531994	0.0217682	-0.7568729	0	-71.513	-76.099	-0.836	B5-03822-P03-CH0	3549904	OK	0.8169482	-0.4392394	-0.3737169	0	-93.42	-62.651	2.638	B5-03822-P03-CH1	3549904	OK	0.7543555	-0.6067987	0.2504859	0	-94.39	-10.594	-22.284	B5-03822-P04-CH0	3549904	OK	0.7582952	-0.0664817	0.6485125	0	-123.363	-38.61	2.158	B5-03822-P04-CH1	3549904	OK	0.7093508	-0.6710512	0.2156659	0	-108.06	-29.692	-16.462	NA
0.44963924963925	B5-03822-P01-CH0	3549912	OK	0.2167792	0.064279	0.0549289	-0.9725522	136.406	-37.623	-259.08	B5-03822-P02-CH0	3549912	OK	0.8755504	0.1653689	-0.4539434	0	-89.753	-98.556	13.087	B5-03822-P02-CH1	3549912	OK	0.6640048	0.0003558	-0.7477282	0	-73.342	-76.889	-0.402	B5-03822-P03-CH0	3549912	OK	0.818236	-0.4344182	-0.3765245	0	-93.561	-62.835	3.122	B5-03822-P03-CH1	3549912	OK	0.7539895	-0.6068808	0.2513873	0	-94.213	-10.603	-22.645	B5-03822-P04-CH0	3549912	OK	0.7582308	-0.0672266	0.6485111	0	-123.494	-38.743	2.082	B5-03822-P04-CH1	3549912	OK	0.7094195	-0.6704907	0.217178	0	-108.289	-29.837	-16.306	NA
0.459631232964566	B5-03822-P01-CH0	3549920	OK	0.2170416	0.0643602	0.0551922	-0.9724734	136.455	-37.569	-259.101	B5-03822-P02-CH0	3549920	OK	0.876467	0.1650875	-0.4522738	0	-90.326	-98.763	13.096	B5-03822-P02-CH1	3549920	OK	0.6797539	-0.0199938	-0.7331677	0	-73.381	-75.44	-0.897	B5-03822-P03-CH0	3549920	OK	0.8184188	-0.426161	-0.3854574	0	-94.817	-62.731	3.551	B5-03822-P03-CH1	3549920	OK	0.7543077	-0.6061319	0.2522378	0	-94.158	-10.326	-22.758	B5-03822-P04-CH0	3549920	OK	0.7584965	-0.0675539	0.6481663	0	-123.837	-38.992	1.984	B5-03822-P04-CH1	3549920	OK	0.7097564	-0.6695146	0.21908	0	-108.709	-29.989	-16.26	NA
0.469623216289883	B5-03822-P01-CH0	3549928	OK	0.2170108	0.0647804	0.0544822	-0.9724924	136.578	-37.599	-259.006	B5-03822-P02-CH0	3549928	OK	0.8782118	0.1648634	-0.4489588	0	-90.581	-98.963	13.826	B5-03822-P02-CH1	3549928	OK	0.6936663	-0.0395114	-0.719212	0	-74.825	-76.059	-0.788	B5-03822-P03-CH0	3549928	OK	0.8177104	-0.4192198	-0.3944673	0	-94.683	-63.717	5.404	B5-03822-P03-CH1	3549928	OK	0.7540193	-0.6060477	0.2533004	0	-94.362	-10.303	-22.864	B5-03822-P04-CH0	3549928	OK	0.7589172	-0.06807	0.6476196	0	-124.309	-39.362	2.219	B5-03822-P04-CH1	3549928	OK	0.7093753	-0.6692557	0.221096	0	-109.313	-30.25	-16.275	NA
0.4796151996152	B5-03822-P01-CH0	3549936	OK	0.217033	0.0649219	0.0537244	-0.9725202	136.641	-37.719	-258.88	B5-03822-P02-CH0	3549936	OK	0.8792762	0.1605934	-0.448423	0	-91.385	-99.903	14.287	B5-03822-P02-CH1	3549936	OK	0.7079246	-0.0583431	-0.7038741	0	-76.428	-76.945	-0.889	B5-03822-P03-CH0	3549936	OK	0.8151067	-0.4098874	-0.4093818	0	-94.946	-62.07	2.654	B5-03822-P03-CH1	3549936	OK	0.7533304	-0.6061171	0.2551772	0	-94.529	-10.847	-22.549	B5-03822-P04-CH0	3549936	OK	0.7589621	-0.0684702	0.6475248	0	-124.604	-39.899	2.118	B5-03822-P04-CH1	3549936	OK	0.7089125	-0.669378	0.2222074	0	-109.438	-30.43	-16.404	NA
0.489607182940516	B5-03822-P01-CH0	3549944	OK	0.2173191	0.0645979	0.053974	-0.9724641	136.567	-37.695	-258.931	B5-03822-P02-CH0	3549944	OK	0.8795255	0.1579446	-0.4488746	0	-91.65	-100.552	13.841	B5-03822-P02-CH1	3549944	OK	0.7226293	-0.0778312	-0.6868401	0	-77.161	-77.168	-1.105	B5-03822-P03-CH0	3549944	OK	0.8109208	-0.4003665	-0.4267483	0	-96.953	-61.066	3.111	B5-03822-P03-CH1	3549944	OK	0.7540647	-0.6051766	0.2552407	0	-94.161	-10.089	-22.997	B5-03822-P04-CH0	3549944	OK	0.7592771	-0.0685144	0.6471508	0	-124.944	-40.171	2.062	B5-03822-P04-CH1	3549944	OK	0.7091783	-0.6685896	0.2237278	0	-109.596	-30.476	-16.509	NA
0.499599166265833	B5-03822-P01-CH0	3549952	OK	0.2168326	0.0647126	0.0522348	-0.97266	136.502	-37.854	-258.708	B5-03822-P02-CH0	3549952	OK	0.8795064	0.1577941	-0.4489649	0	-91.249	-99.975	13.155	B5-03822-P02-CH1	3549952	OK	0.7343708	-0.0959066	-0.6719386	0	-78.39	-77.536	0.004	B5-03822-P03-CH0	3549952	OK	0.8075141	-0.3941452	-0.4388287	0	-97.668	-60.436	2.167	B5-03822-P03-CH1	3549952	OK	0.7527033	-0.6061096	0.2570388	0	-94.364	-10.835	-22.232	B5-03822-P04-CH0	3549952	OK	0.7587985	-0.0702691	0.6475238	0	-124.916	-40.077	1.671	B5-03822-P04-CH1	3549952	OK	0.707808	-0.6694356	0.2255299	0	-109.865	-30.881	-16.56	NA
0.50959114959115	B5-03822-P01-CH0	3549960	OK	0.2166991	0.0651385	0.0508878	-0.9727327	136.599	-37.921	-258.561	B5-03822-P02-CH0	3549960	OK	0.8776855	0.1557907	-0.4532079	0	-91.054	-99.983	13.681	B5-03822-P02-CH1	3549960	OK	0.7431229	-0.1076451	-0.66044	0	-79.885	-77.954	-1.449	B5-03822-P03-CH0	3549960	OK	0.8042574	-0.3918101	-0.4468276	0	-97.318	-61.044	2.651	B5-03822-P03-CH1	3549960	OK	0.7520157	-0.6066213	0.257843	0	-94.419	-10.983	-22.04	B5-03822-P04-CH0	3549960	OK	0.7589619	-0.0710687	0.647245	0	-125.25	-40.358	1.854	B5-03822-P04-CH1	3549960	OK	0.707144	-0.6698993	0.2262349	0	-110.06	-30.865	-16.883	NA
0.519583132916466	B5-03822-P01-CH0	3549968	OK	0.2166528	0.0652747	0.0503178	-0.9727635	136.661	-37.914	-258.551	B5-03822-P02-CH0	3549968	OK	0.8736627	0.1502964	-0.462736	0	-91.519	-100.58	13.46	B5-03822-P02-CH1	3549968	OK	0.7498888	-0.1126229	-0.6519071	0	-80.938	-77.691	-0.831	B5-03822-P03-CH0	3549968	OK	0.8002694	-0.3865824	-0.4583917	0	-97.731	-60.682	1.921	B5-03822-P03-CH1	3549968	OK	0.7518035	-0.6067991	0.2580433	0	-94.278	-10.769	-22.281	B5-03822-P04-CH0	3549968	OK	0.7588992	-0.0721796	0.6471956	0	-125.417	-40.369	1.826	B5-03822-P04-CH1	3549968	OK	0.7069969	-0.6698148	0.2269438	0	-110.287	-30.755	-16.848	NA
0.529575116241783	B5-03822-P01-CH0	3549976	OK	0.2172877	0.0650339	0.0515402	-0.972574	136.729	-37.791	-258.707	B5-03822-P02-CH0	3549976	OK	0.8704831	0.1495098	-0.4689413	0	-90.751	-100.096	12.32	B5-03822-P02-CH1	3549976	OK	0.7547962	-0.1164569	-0.6455389	0	-81.968	-78.058	-0.602	B5-03822-P03-CH0	3549976	OK	0.7980506	-0.3801372	-0.4675585	0	-97.625	-60.016	1.588	B5-03822-P03-CH1	3549976	OK	0.7526878	-0.6054229	0.258697	0	-94.301	-10.636	-22.318	B5-03822-P04-CH0	3549976	OK	0.7590106	-0.0722969	0.6470518	0	-125.57	-40.641	2.049	B5-03822-P04-CH1	3549976	OK	0.70754	-0.6685469	0.2289807	0	-110.566	-31.11	-16.857	NA
0.5395670995671	B5-03822-P01-CH0	3549984	OK	0.2173117	0.065243	0.0507482	-0.9725963	136.817	-37.882	-258.771	B5-03822-P02-CH0	3549984	OK	0.8672824	0.1422809	-0.4770507	0	-90.661	-100.422	12.818	B5-03822-P02-CH1	3549984	OK	0.7594303	-0.1159731	-0.6401686	0	-82.621	-78.462	0.571	B5-03822-P03-CH0	3549984	OK	0.7951	-0.3751934	-0.4764933	0	-97.808	-60.016	2.079	B5-03822-P03-CH1	3549984	OK	0.7519131	-0.6058234	0.2600091	0	-94.425	-11.27	-21.696	B5-03822-P04-CH0	3549984	OK	0.7590973	-0.0736989	0.6467919	0	-125.714	-40.72	1.948	B5-03822-P04-CH1	3549984	OK	0.7070049	-0.668785	0.2299363	0	-110.711	-31.396	-16.625	NA
0.549559082892416	B5-03822-P01-CH0	3549992	OK	0.2176158	0.0650277	0.0509659	-0.9725314	136.754	-37.819	-258.767	B5-03822-P02-CH0	3549992	OK	0.8658618	0.1359354	-0.4814611	0	-90.074	-100.239	12.56	B5-03822-P02-CH1	3549992	OK	0.7636558	-0.115176	-0.6352671	0	-83.124	-78.549	1.148	B5-03822-P03-CH0	3549992	OK	0.7946128	-0.3695828	-0.4816627	0	-97.496	-60.407	1.877	B5-03822-P03-CH1	3549992	OK	0.7517528	-0.6053312	0.2616139	0	-94.683	-11.764	-21.281	B5-03822-P04-CH0	3549992	OK	0.7594805	-0.0744361	0.6462574	0	-125.875	-40.985	2.273	B5-03822-P04-CH1	3549992	OK	0.7071087	-0.6685854	0.2301972	0	-110.514	-31.288	-16.711	NA
0.559551066217733	B5-03822-P01-CH0	3550000	OK	0.2180262	0.064862	0.0513299	-0.9724313	136.766	-37.875	-258.776	B5-03822-P02-CH0	3550000	OK	0.8652255	0.1272104	-0.4849766	0	-89.86	-101.427	12.109	B5-03822-P02-CH1	3550000	OK	0.7675723	-0.1124669	-0.6310182	0	-83.252	-79.854	1.149	B5-03822-P03-CH0	3550000	OK	0.7935051	-0.36006	-0.4906184	0	-98.507	-59.702	1.584	B5-03822-P03-CH1	3550000	OK	0.7516557	-0.6048183	0.263075	0	-94.916	-12.434	-20.681	B5-03822-P04-CH0	3550000	OK	0.7597504	-0.0752341	0.6458476	0	-125.852	-41.38	2.63	B5-03822-P04-CH1	3550000	OK	0.7073596	-0.6683213	0.2301934	0	-110.324	-31.341	-16.724	NA
0.56954304954305	B5-03822-P01-CH0	3550008	OK	0.218357	0.0643203	0.0521969	-0.972347	136.648	-37.769	-258.871	B5-03822-P02-CH0	3550008	OK	0.8651102	0.1248207	-0.4858026	0	-89.23	-101.555	10.591	B5-03822-P02-CH1	3550008	OK	0.7707311	-0.1093554	-0.6277061	0	-83.706	-79.967	0.928	B5-03822-P03-CH0	3550008	OK	0.792538	-0.3519899	-0.4979826	0	-98.498	-59.558	1.582	B5-03822-P03-CH1	3550008	OK	0.7521519	-0.6041407	0.2632139	0	-94.71	-12.239	-20.664	B5-03822-P04-CH0	3550008	OK	0.7597135	-0.0767987	0.6457069	0	-125.639	-41.302	2.632	B5-03822-P04-CH1	3550008	OK	0.7074185	-0.6680164	0.2308965	0	-110.035	-31.642	-16.394	NA
0.579535032868366	B5-03822-P01-CH0	3550016	OK	0.2187594	0.064161	0.0529406	-0.9722268	136.694	-37.727	-258.99	B5-03822-P02-CH0	3550016	OK	0.8630048	0.1222746	-0.490175	0	-89.113	-101.222	11.656	B5-03822-P02-CH1	3550016	OK	0.7717341	-0.1053421	-0.6271599	0	-84.375	-80.035	0.6	B5-03822-P03-CH0	3550016	OK	0.791779	-0.3450678	-0.5039983	0	-97.235	-60.015	1.84	B5-03822-P03-CH1	3550016	OK	0.7524764	-0.6033656	0.2640629	0	-94.904	-12.481	-20.325	B5-03822-P04-CH0	3550016	OK	0.7621087	-0.0905849	0.6410809	0	-125.273	-41.351	2.62	B5-03822-P04-CH1	3550016	OK	0.7076822	-0.6673404	0.2320403	0	-110.145	-32.04	-16.04	NA
0.589527016193683	B5-03822-P01-CH0	3550024	OK	0.2186845	0.0639098	0.0526426	-0.9722764	136.59	-37.776	-258.988	B5-03822-P02-CH0	3550024	OK	0.8603902	0.1181264	-0.4957569	0	-89.078	-101.345	11.195	B5-03822-P02-CH1	3550024	OK	0.774833	-0.1017031	-0.6239313	0	-83.544	-79.793	0.736	B5-03822-P03-CH0	3550024	OK	0.7882965	-0.3375157	-0.5144626	0	-97.571	-59.847	1.804	B5-03822-P03-CH1	3550024	OK	0.7518806	-0.6038651	0.2646176	0	-94.837	-12.77	-20.32	B5-03822-P04-CH0	3550024	OK	0.7629626	-0.0945269	0.6394941	0	-125.426	-41.727	3.129	B5-03822-P04-CH1	3550024	OK	0.7072687	-0.6679048	0.2316769	0	-109.877	-32.137	-15.956	NA
0.599518999519	B5-03822-P01-CH0	3550032	OK	0.21924	0.0635843	0.0536823	-0.9721158	136.635	-37.731	-259.169	B5-03822-P02-CH0	3550032	OK	0.8595558	0.1144064	-0.4980713	0	-88.011	-100.805	10.632	B5-03822-P02-CH1	3550032	OK	0.7774359	-0.1022389	-0.620597	0	-83.249	-80.636	1.085	B5-03822-P03-CH0	3550032	OK	0.7858765	-0.33192	-0.521754	0	-97.081	-60.124	0.65	B5-03822-P03-CH1	3550032	OK	0.7527459	-0.6028933	0.2643733	0	-94.722	-12.29	-20.868	B5-03822-P04-CH0	3550032	OK	0.7614092	-0.1000427	0.6405057	0	-123.947	-39.893	1.804	B5-03822-P04-CH1	3550032	OK	0.7081396	-0.6670994	0.2313366	0	-109.75	-32.065	-15.917	NA
0.609510982844316	B5-03822-P01-CH0	3550040	OK	0.2195783	0.0629923	0.0549128	-0.9720092	136.509	-37.619	-259.317	B5-03822-P02-CH0	3550040	OK	0.8570971	0.1076234	-0.5037875	0	-88.585	-101.398	10.342	B5-03822-P02-CH1	3550040	OK	0.777392	-0.1028303	-0.6205542	0	-83.902	-80.365	0.782	B5-03822-P03-CH0	3550040	OK	0.7844339	-0.3216665	-0.5302774	0	-96.916	-59.604	1.175	B5-03822-P03-CH1	3550040	OK	0.7532543	-0.6021132	0.2647029	0	-94.603	-12.145	-20.986	B5-03822-P04-CH0	3550040	OK	0.7608371	-0.1035508	0.6406279	0	-123.197	-40.189	2.148	B5-03822-P04-CH1	3550040	OK	0.7086802	-0.6664854	0.2314508	0	-109.535	-32.216	-15.572	NA
0.619502966169633	B5-03822-P01-CH0	3550048	OK	0.2196034	0.062789	0.0549434	-0.972015	136.431	-37.611	-259.259	B5-03822-P02-CH0	3550048	OK	0.8589415	0.1052534	-0.5011398	0	-87.479	-100.732	10.334	B5-03822-P02-CH1	3550048	OK	0.776805	-0.1041111	-0.6210756	0	-83.76	-79.874	1.848	B5-03822-P03-CH0	3550048	OK	0.7824012	-0.3122536	-0.5388377	0	-96.359	-59.491	0.009	B5-03822-P03-CH1	3550048	OK	0.753026	-0.602137	0.2652976	0	-94.78	-12.441	-20.689	B5-03822-P04-CH0	3550048	OK	0.761891	-0.1060762	0.6389601	0	-123.768	-41.367	3.037	B5-03822-P04-CH1	3550048	OK	0.7085807	-0.6668073	0.2308276	0	-109.224	-32.221	-15.678	NA
0.629494949494949	B5-03822-P01-CH0	3550056	OK	0.2193664	0.0628284	0.0543443	-0.9720996	136.415	-37.674	-259.183	B5-03822-P02-CH0	3550056	OK	0.8594218	0.0990103	-0.5015886	0	-87.952	-101.072	10.409	B5-03822-P02-CH1	3550056	OK	0.7750566	-0.1076935	-0.622647	0	-83.805	-79.758	1.491	B5-03822-P03-CH0	3550056	OK	0.7783913	-0.2978838	-0.5526049	0	-96.437	-59.732	1.194	B5-03822-P03-CH1	3550056	OK	0.7520878	-0.6028406	0.266359	0	-95.081	-13.292	-19.838	B5-03822-P04-CH0	3550056	OK	0.7614519	-0.1094385	0.6389165	0	-123.041	-39.923	3.071	B5-03822-P04-CH1	3550056	OK	0.7082334	-0.6675759	0.2296691	0	-109.061	-32.194	-15.658	NA
0.639486932820266	B5-03822-P01-CH0	3550064	OK	0.219206	0.0628709	0.0541794	-0.9721423	136.448	-37.626	-259.232	B5-03822-P02-CH0	3550064	OK	0.8605785	0.0967278	-0.5000483	0	-87.695	-100.344	10.7	B5-03822-P02-CH1	3550064	OK	0.7736116	-0.1103422	-0.6239789	0	-83.812	-79.301	0.822	B5-03822-P03-CH0	3550064	OK	0.7739272	-0.2742319	-0.5708183	0	-96.327	-59.584	1.739	B5-03822-P03-CH1	3550064	OK	0.7517898	-0.6033463	0.2660552	0	-95.155	-13.329	-19.882	B5-03822-P04-CH0	3550064	OK	0.7626775	-0.1104321	0.6372815	0	-124.241	-41.897	1.837	B5-03822-P04-CH1	3550064	OK	0.7082524	-0.6680328	0.228278	0	-108.898	-31.949	-15.586	NA
0.649478916145583	B5-03822-P01-CH0	3550072	OK	0.2190926	0.0629883	0.0538247	-0.9721799	136.533	-37.616	-259.299	B5-03822-P02-CH0	3550072	OK	0.8612156	0.0945886	-0.4993604	0	-87.592	-100.348	9.949	B5-03822-P02-CH1	3550072	OK	0.7721766	-0.1106782	-0.6256945	0	-83.439	-78.952	0.634	B5-03822-P03-CH0	3550072	OK	0.7647414	-0.2470571	-0.5950911	0	-96.038	-58.161	-0.637	B5-03822-P03-CH1	3550072	OK	0.7517333	-0.6041221	0.2644494	0	-94.917	-12.832	-20.355	B5-03822-P04-CH0	3550072	OK	0.7601462	-0.1150728	0.639481	0	-122.445	-39.825	1.054	B5-03822-P04-CH1	3550072	OK	0.7081618	-0.6686273	0.2268135	0	-108.813	-31.774	-15.808	NA
0.659470899470899	B5-03822-P01-CH0	3550080	OK	0.2190824	0.0630035	0.0539439	-0.9721746	136.58	-37.561	-259.305	B5-03822-P02-CH0	3550080	OK	0.8629936	0.0950691	-0.4961893	0	-86.831	-99.746	10.083	B5-03822-P02-CH1	3550080	OK	0.7718297	-0.1093403	-0.6263575	0	-82.917	-78.49	0.956	B5-03822-P03-CH0	3550080	OK	0.7557186	-0.2136763	-0.6190572	0	-94.34	-58.558	-0.195	B5-03822-P03-CH1	3550080	OK	0.7515847	-0.6045367	0.2639237	0	-94.96	-12.933	-20.358	B5-03822-P04-CH0	3550080	OK	0.7596347	-0.1170687	0.6397265	0	-122.054	-38.787	2.391	B5-03822-P04-CH1	3550080	OK	0.7080622	-0.66881	0.2265856	0	-108.951	-31.98	-15.507	NA
0.669462882796216	B5-03822-P01-CH0	3550088	OK	0.2191049	0.0629162	0.0540634	-0.9721686	136.607	-37.614	-259.327	B5-03822-P02-CH0	3550088	OK	0.8630769	0.0896558	-0.4970514	0	-87.364	-100.264	9.412	B5-03822-P02-CH1	3550088	OK	0.7708302	-0.1108534	-0.6273215	0	-83.61	-78.587	0.066	B5-03822-P03-CH0	3550088	OK	0.7470882	-0.1762196	-0.6409414	0	-93.944	-58.191	-1.171	B5-03822-P03-CH1	3550088	OK	0.7517553	-0.6049508	0.2624853	0	-94.755	-12.646	-20.713	B5-03822-P04-CH0	3550088	OK	0.7605248	-0.1089872	0.6400967	0	-123.079	-39.536	2.006	B5-03822-P04-CH1	3550088	OK	0.7089591	-0.6688304	0.2237027	0	-108.742	-31.105	-16.39	NA
0.679454866121533	B5-03822-P01-CH0	3550096	OK	0.2188649	0.0630619	0.0533445	-0.9722529	136.605	-37.581	-259.28	B5-03822-P02-CH0	3550096	OK	0.8643289	0.0858981	-0.4955372	0	-87.127	-99.511	10.054	B5-03822-P02-CH1	3550096	OK	0.7708949	-0.1171198	-0.6261022	0	-84.178	-78.842	1.138	B5-03822-P03-CH0	3550096	OK	0.7467468	-0.1500977	-0.6479505	0	-92.464	-57.801	1.568	B5-03822-P03-CH1	3550096	OK	0.7514816	-0.606111	0.2605858	0	-94.549	-12.209	-21.056	B5-03822-P04-CH0	3550096	OK	0.7601571	-0.1126935	0.6398917	0	-122.867	-39.143	1.758	B5-03822-P04-CH1	3550096	OK	0.7084568	-0.6697138	0.2226486	0	-108.655	-31.012	-16.098	NA
0.689446849446849	B5-03822-P01-CH0	3550104	OK	0.2187459	0.0632971	0.053062	-0.9722799	136.702	-37.561	-259.267	B5-03822-P02-CH0	3550104	OK	0.8646556	0.0826974	-0.4955117	0	-87.113	-99.018	9.974	B5-03822-P02-CH1	3550104	OK	0.7724095	-0.1256862	-0.6225644	0	-84.112	-78.003	1.072	B5-03822-P03-CH0	3550104	OK	0.7507436	-0.1391356	-0.645775	0	-94.208	-58.322	0.641	B5-03822-P03-CH1	3550104	OK	0.7510206	-0.6069584	0.2599413	0	-94.75	-12.523	-20.767	B5-03822-P04-CH0	3550104	OK	0.7590506	-0.1252378	0.6388721	0	-122.714	-39.372	2.238	B5-03822-P04-CH1	3550104	OK	0.7078936	-0.6703531	0.2225159	0	-108.778	-31.284	-15.832	NA
0.699438832772166	B5-03822-P01-CH0	3550112	OK	0.2185781	0.0636548	0.0526903	-0.9723145	136.8	-37.525	-259.22	B5-03822-P02-CH0	3550112	OK	0.8635681	0.0796719	-0.4978981	0	-87.322	-98.836	10.529	B5-03822-P02-CH1	3550112	OK	0.77398	-0.1379312	-0.6180049	0	-84.193	-78.483	1.491	B5-03822-P03-CH0	3550112	OK	0.7554246	-0.1324755	-0.641704	0	-95.258	-58.221	-0.53	B5-03822-P03-CH1	3550112	OK	0.750951	-0.6077914	0.2581902	0	-94.727	-12.125	-21.057	B5-03822-P04-CH0	3550112	OK	0.7588341	-0.1282882	0.638524	0	-122.982	-39.27	1.51	B5-03822-P04-CH1	3550112	OK	0.7070785	-0.6709633	0.2232672	0	-109.072	-31.907	-14.54	NA
0.709430816097483	B5-03822-P01-CH0	3550120	OK	0.2184691	0.063819	0.0521971	-0.9723548	136.838	-37.47	-259.197	B5-03822-P02-CH0	3550120	OK	0.8632261	0.0782595	-0.4987145	0	-86.954	-98.424	11.028	B5-03822-P02-CH1	3550120	OK	0.7745355	-0.1452467	-0.6156282	0	-84.236	-78.328	0.469	B5-03822-P03-CH0	3550120	OK	0.7604716	-0.1336303	-0.6354729	0	-95.5	-57.961	-0.826	B5-03822-P03-CH1	3550120	OK	0.7503662	-0.6088328	0.2574357	0	-94.852	-12.276	-20.992	B5-03822-P04-CH0	3550120	OK	0.7579454	-0.1306775	0.6390947	0	-122.622	-38.233	2.552	B5-03822-P04-CH1	3550120	OK	0.7064272	-0.6718916	0.222536	0	-109.085	-31.852	-14.522	NA
0.719422799422799	B5-03822-P01-CH0	3550128	OK	0.2189084	0.0638788	0.0529201	-0.972213	136.898	-37.375	-259.207	B5-03822-P02-CH0	3550128	OK	0.8601129	0.074947	-0.5045679	0	-87.443	-99.008	8.799	B5-03822-P02-CH1	3550128	OK	0.7743237	-0.148506	-0.6151169	0	-83.643	-77.787	-0.14	B5-03822-P03-CH0	3550128	OK	0.7666195	-0.1415583	-0.6263033	0	-95.819	-57.562	-0.125	B5-03822-P03-CH1	3550128	OK	0.7504764	-0.6088753	0.2570138	0	-94.957	-12.379	-20.968	B5-03822-P04-CH0	3550128	OK	0.7567625	-0.1323853	0.6401442	0	-122.285	-37.496	1.245	B5-03822-P04-CH1	3550128	OK	0.7068077	-0.6716396	0.2220881	0	-109.226	-31.772	-14.56	NA
0.729414782748116	B5-03822-P01-CH0	3550136	OK	0.2189521	0.0643436	0.052646	-0.9721874	137.084	-37.363	-259.24	B5-03822-P02-CH0	3550136	OK	0.8582353	0.0721555	-0.5081591	0	-87.262	-99.048	9.281	B5-03822-P02-CH1	3550136	OK	0.7729712	-0.1513193	-0.6161315	0	-83.316	-77.66	1.1	B5-03822-P03-CH0	3550136	OK	0.7753061	-0.170021	-0.6082708	0	-96.884	-58.023	1.397	B5-03822-P03-CH1	3550136	OK	0.7504048	-0.609745	0.2551543	0	-94.725	-11.72	-21.82	B5-03822-P04-CH0	3550136	OK	0.7568719	-0.1327082	0.639948	0	-122.931	-37.331	-0.164	B5-03822-P04-CH1	3550136	OK	0.706393	-0.6720265	0.2222372	0	-109.39	-32.004	-13.722	NA
0.739406766073433	B5-03822-P01-CH0	3550144	OK	0.2193722	0.0642101	0.0533193	-0.9720648	137.056	-37.301	-259.265	B5-03822-P02-CH0	3550144	OK	0.8554072	0.0715345	-0.5129926	0	-86.818	-99.226	8.252	B5-03822-P02-CH1	3550144	OK	0.7707959	-0.1533289	-0.6183558	0	-82.871	-78.001	0.598	B5-03822-P03-CH0	3550144	OK	0.7849851	-0.2091496	-0.5831422	0	-98.585	-57.845	0.845	B5-03822-P03-CH1	3550144	OK	0.7507871	-0.6096121	0.2543459	0	-94.628	-11.409	-21.903	B5-03822-P04-CH0	3550144	OK	0.7578587	-0.1286117	0.6396165	0	-123.596	-38.223	1.412	B5-03822-P04-CH1	3550144	OK	0.7063056	-0.6718348	0.2230928	0	-109.53	-32.339	-13.506	NA
0.749398749398749	B5-03822-P01-CH0	3550152	OK	0.2194085	0.0644571	0.0538466	-0.9720112	137.125	-37.242	-259.206	B5-03822-P02-CH0	3550152	OK	0.8507475	0.0731149	-0.5204641	0	-86.136	-98.295	8.408	B5-03822-P02-CH1	3550152	OK	0.7672654	-0.1503938	-0.6234465	0	-82.484	-77.587	-0.464	B5-03822-P03-CH0	3550152	OK	0.7937115	-0.2436868	-0.5573498	0	-98.694	-58.099	1.651	B5-03822-P03-CH1	3550152	OK	0.7506347	-0.6097865	0.2543777	0	-94.876	-11.707	-21.567	B5-03822-P04-CH0	3550152	OK	0.7586331	-0.1263589	0.6391472	0	-124.494	-39.091	1.204	B5-03822-P04-CH1	3550152	OK	0.7065712	-0.6716619	0.2227722	0	-109.744	-32.206	-13.405	NA
0.759390732724066	B5-03822-P01-CH0	3550160	OK	0.2193787	0.064591	0.0538326	-0.9720098	137.119	-37.183	-259.186	B5-03822-P02-CH0	3550160	OK	0.8459326	0.0715059	-0.5284741	0	-85.854	-98.319	7.113	B5-03822-P02-CH1	3550160	OK	0.763433	-0.1468278	-0.6289767	0	-82.236	-78.187	-0.246	B5-03822-P03-CH0	3550160	OK	0.7998935	-0.2769933	-0.5323957	0	-98.425	-58.388	2.408	B5-03822-P03-CH1	3550160	OK	0.7508325	-0.6102104	0.2527722	0	-94.619	-10.891	-22.155	B5-03822-P04-CH0	3550160	OK	0.7584861	-0.1274556	0.639104	0	-123.248	-38.062	0.766	B5-03822-P04-CH1	3550160	OK	0.707057	-0.6719604	0.2203173	0	-109.362	-31.207	-14.232	NA
0.769382716049383	B5-03822-P01-CH0	3550168	OK	0.219267	0.0649415	0.0534223	-0.9720343	137.16	-37.14	-259.18	B5-03822-P02-CH0	3550168	OK	0.8430659	0.0686671	-0.5334086	0	-85.102	-99.128	6.799	B5-03822-P02-CH1	3550168	OK	0.759744	-0.1388945	-0.6352145	0	-82.375	-78.39	0.131	B5-03822-P03-CH0	3550168	OK	0.8029049	-0.3040283	-0.512748	0	-98.16	-58.408	1.942	B5-03822-P03-CH1	3550168	OK	0.7503166	-0.6109698	0.2524698	0	-94.732	-10.869	-22.029	B5-03822-P04-CH0	3550168	OK	0.7580778	-0.1287033	0.6393384	0	-123.21	-37.797	0.692	B5-03822-P04-CH1	3550168	OK	0.7062352	-0.6725633	0.2211121	0	-109.445	-31.497	-13.626	NA
0.779374699374699	B5-03822-P01-CH0	3550176	OK	0.2195067	0.0649912	0.0542157	-0.9719329	137.173	-37.105	-259.21	B5-03822-P02-CH0	3550176	OK	0.8412824	0.071167	-0.535891	0	-84.086	-98.218	5.625	B5-03822-P02-CH1	3550176	OK	0.7559302	-0.1289612	-0.6418244	0	-82.412	-78.4	-1.317	B5-03822-P03-CH0	3550176	OK	0.8038179	-0.3271939	-0.4968107	0	-97.649	-59.036	1.308	B5-03822-P03-CH1	3550176	OK	0.7509621	-0.610655	0.2513094	0	-94.464	-10.141	-22.603	B5-03822-P04-CH0	3550176	OK	0.7580826	-0.1286586	0.6393417	0	-123.305	-37.838	0.804	B5-03822-P04-CH1	3550176	OK	0.7064856	-0.6723186	0.2210559	0	-109.453	-31.478	-13.7	NA
0.789366682700016	B5-03822-P01-CH0	3550184	OK	0.2198902	0.0651199	0.0551041	-0.9717877	137.254	-37.048	-259.224	B5-03822-P02-CH0	3550184	OK	0.8362585	0.0707693	-0.5437493	0	-84.763	-98.555	5.816	B5-03822-P02-CH1	3550184	OK	0.7522605	-0.1187614	-0.6480739	0	-81.859	-78.045	-1.447	B5-03822-P03-CH0	3550184	OK	0.8027511	-0.3432137	-0.4876423	0	-96.978	-59.255	2.795	B5-03822-P03-CH1	3550184	OK	0.7516623	-0.6100995	0.2505641	0	-94.316	-9.567	-22.951	B5-03822-P04-CH0	3550184	OK	0.7582033	-0.1282562	0.6392794	0	-123.424	-37.768	0.893	B5-03822-P04-CH1	3550184	OK	0.7071339	-0.6716203	0.2211059	0	-109.577	-31.445	-13.446	NA
0.799358666025333	B5-03822-P01-CH0	3550192	OK	0.2197591	0.0652884	0.0548707	-0.9718192	137.279	-37.2	-259.212	B5-03822-P02-CH0	3550192	OK	0.8338808	0.0725142	-0.5471603	0	-84.39	-98.215	6.069	B5-03822-P02-CH1	3550192	OK	0.7481634	-0.1096531	-0.6543911	0	-81.479	-77.881	-1.201	B5-03822-P03-CH0	3550192	OK	0.7995736	-0.3513418	-0.4870739	0	-96.489	-58.965	2.132	B5-03822-P03-CH1	3550192	OK	0.751112	-0.6105583	0.2510961	0	-94.476	-10.051	-22.456	B5-03822-P04-CH0	3550192	OK	0.7581509	-0.1283343	0.6393258	0	-123.55	-37.814	0.833	B5-03822-P04-CH1	3550192	OK	0.7071352	-0.6721604	0.2194545	0	-109.267	-30.979	-14.381	NA
0.809350649350649	B5-03822-P01-CH0	3550200	OK	0.2198357	0.0654597	0.0550588	-0.9717797	137.359	-37.356	-259.254	B5-03822-P02-CH0	3550200	OK	0.8319682	0.0705631	-0.5503179	0	-84.548	-98.561	5.971	B5-03822-P02-CH1	3550200	OK	0.7451179	-0.1031132	-0.6589135	0	-81.585	-78.175	-1.719	B5-03822-P03-CH0	3550200	OK	0.7946634	-0.3554588	-0.4920966	0	-96.657	-59.091	1.744	B5-03822-P03-CH1	3550200	OK	0.7512493	-0.6105026	0.2508207	0	-94.465	-10.026	-22.396	B5-03822-P04-CH0	3550200	OK	0.7582852	-0.1280832	0.6392169	0	-123.627	-38.019	0.975	B5-03822-P04-CH1	3550200	OK	0.7080229	-0.671814	0.2176453	0	-109.019	-30.253	-15.197	NA
0.819342632675966	B5-03822-P01-CH0	3550208	OK	0.2194057	0.0654583	0.0549363	-0.9718839	137.314	-37.423	-259.256	B5-03822-P02-CH0	3550208	OK	0.831608	0.0671199	-0.5512922	0	-84.504	-99.114	6.671	B5-03822-P02-CH1	3550208	OK	0.7443058	-0.0976318	-0.660664	0	-81.24	-77.926	-1.341	B5-03822-P03-CH0	3550208	OK	0.7904564	-0.3573439	-0.4974776	0	-96.664	-58.747	1.435	B5-03822-P03-CH1	3550208	OK	0.7515613	-0.6108046	0.2491451	0	-94.117	-9.213	-22.92	B5-03822-P04-CH0	3550208	OK	0.7580879	-0.1287186	0.6393233	0	-123.548	-37.845	0.969	B5-03822-P04-CH1	3550208	OK	0.7076609	-0.6721132	0.2178989	0	-109.027	-30.536	-14.375	NA
0.829334616001283	B5-03822-P01-CH0	3550216	OK	0.2193796	0.0651627	0.0551461	-0.9718978	137.171	-37.486	-259.2	B5-03822-P02-CH0	3550216	OK	0.8323528	0.0677113	-0.5500945	0	-83.707	-98.419	5.455	B5-03822-P02-CH1	3550216	OK	0.7440797	-0.093725	-0.661484	0	-81.083	-77.812	-1.563	B5-03822-P03-CH0	3550216	OK	0.7880462	-0.3560389	-0.5022146	0	-96.395	-57.661	0.599	B5-03822-P03-CH1	3550216	OK	0.7517044	-0.6105958	0.2492254	0	-94.118	-9.138	-22.867	B5-03822-P04-CH0	3550216	OK	0.7580217	-0.1286158	0.6394224	0	-123.461	-37.868	1.04	B5-03822-P04-CH1	3550216	OK	0.708099	-0.672153	0.2163471	0	-108.664	-29.877	-15.35	NA
0.839326599326599	B5-03822-P01-CH0	3550224	OK	0.2192438	0.0653507	0.0547048	-0.9719408	137.281	-37.656	-259.225	B5-03822-P02-CH0	3550224	OK	0.8322889	0.0651582	-0.5504994	0	-83.543	-98.58	5.444	B5-03822-P02-CH1	3550224	OK	0.7440466	-0.0914684	-0.661837	0	-80.968	-78.396	-1.101	B5-03822-P03-CH0	3550224	OK	0.7860539	-0.3538147	-0.5068871	0	-95.585	-57.959	0.8	B5-03822-P03-CH1	3550224	OK	0.75093	-0.6111897	0.2501026	0	-94.348	-9.804	-22.563	B5-03822-P04-CH0	3550224	OK	0.7579367	-0.1291721	0.6394111	0	-123.398	-37.915	1.294	B5-03822-P04-CH1	3550224	OK	0.7078648	-0.6725803	0.2157851	0	-108.585	-29.919	-15.458	NA
0.849318582651916	B5-03822-P01-CH0	3550232	OK	0.2195841	0.0651451	0.0548748	-0.9718681	137.246	-37.803	-259.225	B5-03822-P02-CH0	3550232	OK	0.8318056	0.0651358	-0.551232	0	-83.444	-98.261	6.074	B5-03822-P02-CH1	3550232	OK	0.7440182	-0.0872476	-0.6624386	0	-80.491	-77.791	-1.036	B5-03822-P03-CH0	3550232	OK	0.7846561	-0.3516593	-0.5105394	0	-94.995	-58.047	0.608	B5-03822-P03-CH1	3550232	OK	0.7511582	-0.6110449	0.249771	0	-94.001	-9.575	-22.751	B5-03822-P04-CH0	3550232	OK	0.7577558	-0.1290306	0.639654	0	-123.16	-37.891	1.272	B5-03822-P04-CH1	3550232	OK	0.7080118	-0.6724806	0.2156135	0	-108.323	-29.936	-15.566	NA
0.859310565977233	B5-03822-P01-CH0	3550240	OK	0.219128	0.0652461	0.05369	-0.9720305	137.237	-38.008	-259.157	B5-03822-P02-CH0	3550240	OK	0.8319349	0.067077	-0.5508039	0	-83.032	-98.057	6.47	B5-03822-P02-CH1	3550240	OK	0.7417337	-0.0843568	-0.6653684	0	-80.796	-78.465	-1.044	B5-03822-P03-CH0	3550240	OK	0.7802417	-0.3506156	-0.5179687	0	-96.09	-58.374	0.819	B5-03822-P03-CH1	3550240	OK	0.7504605	-0.6120682	0.2493624	0	-93.975	-9.542	-22.909	B5-03822-P04-CH0	3550240	OK	0.757614	-0.1302284	0.6395793	0	-123.075	-37.727	1.437	B5-03822-P04-CH1	3550240	OK	0.7070499	-0.6734405	0.2157738	0	-108.365	-30.196	-15.507	NA
0.869302549302549	B5-03822-P01-CH0	3550248	OK	0.2191627	0.065407	0.0532826	-0.9720343	137.337	-38.147	-259.069	B5-03822-P02-CH0	3550248	OK	0.8299822	0.0664961	-0.5538121	0	-83.725	-99.151	5.856	B5-03822-P02-CH1	3550248	OK	0.7420325	-0.0816533	-0.6653724	0	-79.725	-78.33	-1.373	B5-03822-P03-CH0	3550248	OK	0.7788058	-0.3484752	-0.5215617	0	-96.368	-57.514	-0.11	B5-03822-P03-CH1	3550248	OK	0.7503423	-0.6121832	0.2494358	0	-94.071	-9.543	-23.007	B5-03822-P04-CH0	3550248	OK	0.7578234	-0.1303008	0.6393163	0	-123.178	-37.858	1.529	B5-03822-P04-CH1	3550248	OK	0.7065707	-0.673791	0.2162488	0	-108.508	-30.665	-15.078	NA
0.879294532627866	B5-03822-P01-CH0	3550256	OK	0.2195975	0.0654269	0.0536229	-0.9719161	137.457	-38.167	-259.097	B5-03822-P02-CH0	3550256	OK	0.8301053	0.0700831	-0.553185	0	-83.146	-98.361	6.134	B5-03822-P02-CH1	3550256	OK	0.7402532	-0.0804855	-0.6674932	0	-79.959	-78.705	-0.812	B5-03822-P03-CH0	3550256	OK	0.7791642	-0.3457019	-0.5228703	0	-94.957	-57.152	0.04	B5-03822-P03-CH1	3550256	OK	0.7500773	-0.611935	0.2508377	0	-94.351	-10.245	-22.478	B5-03822-P04-CH0	3550256	OK	0.7579828	-0.1297993	0.6392293	0	-123.181	-37.966	1.665	B5-03822-P04-CH1	3550256	OK	0.7069795	-0.673267	0.2165445	0	-108.608	-30.771	-14.867	NA
0.889286515953183	B5-03822-P01-CH0	3550264	OK	0.2193623	0.0657913	0.0526627	-0.9719971	137.59	-38.278	-259.018	B5-03822-P02-CH0	3550264	OK	0.8297974	0.0699039	-0.5536693	0	-83.189	-99.165	6.371	B5-03822-P02-CH1	3550264	OK	0.7386405	-0.0789877	-0.6694559	0	-80.518	-78.931	-0.748	B5-03822-P03-CH0	3550264	OK	0.7764858	-0.3437657	-0.5281051	0	-95.411	-57.606	0.222	B5-03822-P03-CH1	3550264	OK	0.7491011	-0.6125971	0.2521354	0	-94.897	-11.095	-21.551	B5-03822-P04-CH0	3550264	OK	0.7578963	-0.1305152	0.6391862	0	-123.158	-38.143	1.842	B5-03822-P04-CH1	3550264	OK	0.7062137	-0.6740569	0.2165861	0	-108.627	-30.968	-14.493	NA
0.899278499278499	B5-03822-P01-CH0	3550272	OK	0.2198516	0.0656563	0.0529997	-0.9718773	137.643	-38.276	-259.071	B5-03822-P02-CH0	3550272	OK	0.83107	0.0665651	-0.55217	0	-83.582	-99.353	6.562	B5-03822-P02-CH1	3550272	OK	0.7406107	-0.0778469	-0.6674097	0	-79.973	-78.668	-0.841	B5-03822-P03-CH0	3550272	OK	0.7750996	-0.3399556	-0.5325889	0	-95.41	-57.804	0.084	B5-03822-P03-CH1	3550272	OK	0.7495152	-0.6121798	0.2519183	0	-94.756	-10.796	-21.818	B5-03822-P04-CH0	3550272	OK	0.7578326	-0.130241	0.6393176	0	-122.995	-38.283	2.053	B5-03822-P04-CH1	3550272	OK	0.7067257	-0.6737282	0.2159379	0	-108.405	-30.748	-14.598	NA
0.909270482603816	B5-03822-P01-CH0	3550280	OK	0.220422	0.0654333	0.0538507	-0.9717164	137.681	-38.185	-259.094	B5-03822-P02-CH0	3550280	OK	0.831136	0.0669996	-0.552018	0	-83.297	-99.22	6.349	B5-03822-P02-CH1	3550280	OK	0.7417042	-0.0781143	-0.6661629	0	-80.485	-78.858	-0.858	B5-03822-P03-CH0	3550280	OK	0.7739406	-0.3344731	-0.5377209	0	-95.568	-57.094	-0.404	B5-03822-P03-CH1	3550280	OK	0.7498017	-0.611513	0.252684	0	-94.884	-11	-21.696	B5-03822-P04-CH0	3550280	OK	0.7578915	-0.1295419	0.6393898	0	-122.969	-38.306	2.024	B5-03822-P04-CH1	3550280	OK	0.7062889	-0.6733502	0.2185303	0	-108.621	-31.97	-12.932	NA
0.919262465929133	B5-03822-P01-CH0	3550288	OK	0.2207909	0.0654631	0.0538155	-0.9716326	137.794	-38.207	-259.204	B5-03822-P02-CH0	3550288	OK	0.831063	0.0669842	-0.5521298	0	-83.169	-99.287	6.453	B5-03822-P02-CH1	3550288	OK	0.7432687	-0.0778358	-0.6644495	0	-80.643	-78.646	-0.657	B5-03822-P03-CH0	3550288	OK	0.7716922	-0.3300033	-0.5436809	0	-96.111	-57.3	-0.449	B5-03822-P03-CH1	3550288	OK	0.7498809	-0.6112431	0.2531019	0	-95.046	-11.135	-21.424	B5-03822-P04-CH0	3550288	OK	0.7580936	-0.129074	0.6392449	0	-123.066	-38.586	2.375	B5-03822-P04-CH1	3550288	OK	0.7064063	-0.6733826	0.2180505	0	-108.501	-31.86	-13.169	NA
0.929254449254449	B5-03822-P01-CH0	3550296	OK	0.2206975	0.0658372	0.053082	-0.9716689	137.976	-38.304	-259.241	B5-03822-P02-CH0	3550296	OK	0.8310179	0.0676169	-0.5521207	0	-83.134	-99.313	6.774	B5-03822-P02-CH1	3550296	OK	0.7433732	-0.0777106	-0.6643473	0	-81.004	-79.365	-1.203	B5-03822-P03-CH0	3550296	OK	0.7712059	-0.3263166	-0.5465885	0	-95.037	-57.481	-0.04	B5-03822-P03-CH1	3550296	OK	0.7492406	-0.6118867	0.2534426	0	-95.219	-11.58	-21.208	B5-03822-P04-CH0	3550296	OK	0.7580885	-0.1297136	0.6391215	0	-123.019	-38.551	2.547	B5-03822-P04-CH1	3550296	OK	0.705601	-0.6739249	0.2189805	0	-108.797	-32.485	-12.505	NA
0.939246432579766	B5-03822-P01-CH0	3550304	OK	0.2207419	0.0657929	0.0531418	-0.9716585	137.92	-38.242	-259.16	B5-03822-P02-CH0	3550304	OK	0.8309086	0.0686065	-0.5521631	0	-83.064	-99.182	6.71	B5-03822-P02-CH1	3550304	OK	0.7449826	-0.0760389	-0.662736	0	-80.168	-79.601	0.086	B5-03822-P03-CH0	3550304	OK	0.7693423	-0.3218685	-0.551827	0	-94.961	-57.786	0.231	B5-03822-P03-CH1	3550304	OK	0.7497502	-0.6117057	0.2523704	0	-95.002	-10.974	-21.61	B5-03822-P04-CH0	3550304	OK	0.7579707	-0.1300533	0.6391921	0	-122.826	-38.378	2.463	B5-03822-P04-CH1	3550304	OK	0.7052761	-0.6739857	0.2198383	0	-108.858	-32.883	-11.855	NA
0.949238415905083	B5-03822-P01-CH0	3550312	OK	0.2206052	0.0656662	0.0532746	-0.9716909	137.865	-38.112	-259.214	B5-03822-P02-CH0	3550312	OK	0.830892	0.0698309	-0.5520345	0	-83.019	-99.081	6.719	B5-03822-P02-CH1	3550312	OK	0.7452439	-0.0717648	-0.6629188	0	-79.885	-79.023	-0.535	B5-03822-P03-CH0	3550312	OK	0.766946	-0.3204398	-0.5559786	0	-95.61	-58.034	1.171	B5-03822-P03-CH1	3550312	OK	0.750067	-0.611463	0.2520167	0	-95.083	-10.694	-21.668	B5-03822-P04-CH0	3550312	OK	0.7579559	-0.1307209	0.6390734	0	-122.73	-38.181	2.563	B5-03822-P04-CH1	3550312	OK	0.7054478	-0.6739903	0.2192725	0	-108.863	-32.721	-11.594	NA
0.959230399230399	B5-03822-P01-CH0	3550320	OK	0.2208322	0.0658207	0.0532754	-0.9716288	137.922	-38.056	-259.248	B5-03822-P02-CH0	3550320	OK	0.8309325	0.070616	-0.5518738	0	-82.886	-99.123	6.553	B5-03822-P02-CH1	3550320	OK	0.742534	-0.0719582	-0.6659318	0	-80.777	-78.98	0.405	B5-03822-P03-CH0	3550320	OK	0.766764	-0.3184154	-0.5573908	0	-95.475	-57.065	0.218	B5-03822-P03-CH1	3550320	OK	0.7501029	-0.6112634	0.2523941	0	-95.149	-10.874	-21.427	B5-03822-P04-CH0	3550320	OK	0.7579947	-0.1307511	0.6390213	0	-122.676	-38.302	2.688	B5-03822-P04-CH1	3550320	OK	0.7054377	-0.674165	0.2187674	0	-108.69	-32.68	-11.641	NA
0.969222382555716	B5-03822-P01-CH0	3550328	OK	0.221035	0.0656936	0.0534919	-0.9715794	137.861	-38.045	-259.198	B5-03822-P02-CH0	3550328	OK	0.8311696	0.071763	-0.5513684	0	-82.648	-99.071	6.31	B5-03822-P02-CH1	3550328	OK	0.7407247	-0.0719177	-0.6679482	0	-81.033	-78.849	-0.297	B5-03822-P03-CH0	3550328	OK	0.7661094	-0.3171368	-0.5590175	0	-95.314	-57.684	0.814	B5-03822-P03-CH1	3550328	OK	0.7501181	-0.6109853	0.2530215	0	-95.192	-11.159	-21.325	B5-03822-P04-CH0	3550328	OK	0.7579477	-0.1309756	0.639031	0	-122.529	-38.243	2.639	B5-03822-P04-CH1	3550328	OK	0.7055937	-0.674154	0.2182978	0	-108.437	-32.643	-11.903	NA
0.979214365881033	B5-03822-P01-CH0	3550336	OK	0.2209173	0.0656158	0.0535038	-0.9716108	137.822	-38.04	-259.191	B5-03822-P02-CH0	3550336	OK	0.831455	0.0729862	-0.5507773	0	-82.48	-99.091	6.243	B5-03822-P02-CH1	3550336	OK	0.7398312	-0.0704679	-0.669092	0	-80.957	-78.518	-1.815	B5-03822-P03-CH0	3550336	OK	0.7668851	-0.3160883	-0.5585475	0	-94.558	-57.636	-0.314	B5-03822-P03-CH1	3550336	OK	0.7505229	-0.6106685	0.2525854	0	-95.221	-10.893	-21.437	B5-03822-P04-CH0	3550336	OK	0.7578941	-0.1317684	0.6389316	0	-122.367	-37.942	2.657	B5-03822-P04-CH1	3550336	OK	0.7058082	-0.6742616	0.2172698	0	-108.336	-32.359	-12.388	NA
0.989206349206349	B5-03822-P01-CH0	3550344	OK	0.22123	0.0653212	0.0539835	-0.9715329	137.784	-38.041	-259.303	B5-03822-P02-CH0	3550344	OK	0.831617	0.0741351	-0.550379	0	-82.273	-99.171	6.314	B5-03822-P02-CH1	3550344	OK	0.7399706	-0.0702547	-0.6689602	0	-80.066	-78.502	-1.496	B5-03822-P03-CH0	3550344	OK	0.7663346	-0.3144538	-0.5602233	0	-95.03	-57.279	-0.751	B5-03822-P03-CH1	3550344	OK	0.7511178	-0.6100933	0.2522068	0	-94.971	-10.593	-21.838	B5-03822-P04-CH0	3550344	OK	0.7580839	-0.1313041	0.6388021	0	-122.395	-38.009	2.555	B5-03822-P04-CH1	3550344	OK	0.7067312	-0.67387	0.2154768	0	-108.001	-31.728	-13.136	NA
