Wav.Time	B5.03822.P01.CH0	Frame	State	Q0	Qx	Qy	Qz	Tx	Ty	Tz	B5.03822.P02.CH0	Frame.1	State.1	Q0.1	Qx.1	Qy.1	Qz.1	Tx.1	Ty.1	Tz.1	B5.03822.P02.CH1	Frame.2	State.2	Q0.2	Qx.2	Qy.2	Qz.2	Tx.2	Ty.2	Tz.2	B5.03822.P03.CH0	Frame.3	State.3	Q0.3	Qx.3	Qy.3	Qz.3	Tx.3	Ty.3	Tz.3	B5.03822.P03.CH1	Frame.4	State.4	Q0.4	Qx.4	Qy.4	Qz.4	Tx.4	Ty.4	Tz.4	B5.03822.P04.CH0	Frame.5	State.5	Q0.5	Qx.5	Qy.5	Qz.5	Tx.5	Ty.5	Tz.5	B5.03822.P04.CH1	Frame.6	State.6	Q0.6	Qx.6	Qy.6	Qz.6	Tx.6	Ty.6	Tz.6	X
0	B5-03822-P01-CH0	3299328	OK	0.2287047	0.0764393	0.0700937	-0.9679556	100.77	42.804	-257.31	B5-03822-P02-CH0	3299328	OK	0.685361	0.3416595	-0.6430778	0	-90.569	-97.651	5.191	B5-03822-P02-CH1	3299328	OK	0.7482447	0.0029672	-0.6634162	0	-84.261	-77.341	3.22	B5-03822-P03-CH0	3299328	OK	0.7288627	-0.6049042	-0.3207024	0	-97.06	-57.613	4.056	B5-03822-P03-CH1	3299328	OK	0.7396959	-0.6515978	0.1681379	0	-105.147	-25.808	2.11	B5-03822-P04-CH0	3299328	OK	0.6728286	-0.1294445	0.7283857	0	-131.314	-31.542	11.135	B5-03822-P04-CH1	3299328	OK	0.7659467	-0.6411451	0.0475254	0	-114.756	-45.194	5.097	NA
0.0099921231650555	B5-03822-P01-CH0	3299336	OK	0.228652	0.0764176	0.0702591	-0.9679578	100.729	42.797	-257.268	B5-03822-P02-CH0	3299336	OK	0.688195	0.3304813	-0.6458868	0	-90.14	-98.149	5.491	B5-03822-P02-CH1	3299336	OK	0.7462991	0.019256	-0.6653321	0	-83.346	-77.782	2.537	B5-03822-P03-CH0	3299336	OK	0.7347235	-0.6057295	-0.3054065	0	-96.524	-58.109	5.23	B5-03822-P03-CH1	3299336	OK	0.7373591	-0.6540992	0.1686882	0	-104.761	-26.588	2.665	B5-03822-P04-CH0	3299336	OK	0.6720036	-0.1263805	0.7296843	0	-131.402	-31.538	10.817	B5-03822-P04-CH1	3299336	OK	0.7661223	-0.6409201	0.0477296	0	-114.791	-45.188	5.015	NA
0.019984246330111	B5-03822-P01-CH0	3299344	OK	0.2286172	0.0767817	0.0704332	-0.9679245	100.848	42.847	-257.291	B5-03822-P02-CH0	3299344	OK	0.6915006	0.3187689	-0.6482386	0	-90.077	-99.209	4.828	B5-03822-P02-CH1	3299344	OK	0.741988	0.0431392	-0.6690237	0	-82.659	-78.786	1.093	B5-03822-P03-CH0	3299344	OK	0.7403703	-0.6077456	-0.2872232	0	-95.601	-59.084	4.972	B5-03822-P03-CH1	3299344	OK	0.7355941	-0.6564063	0.1674279	0	-104.434	-26.944	2.992	B5-03822-P04-CH0	3299344	OK	0.6721534	-0.1191597	0.7307604	0	-131.783	-32.617	11.807	B5-03822-P04-CH1	3299344	OK	0.7661092	-0.640934	0.0477533	0	-115.033	-45.296	5.068	NA
0.0299763694951665	B5-03822-P01-CH0	3299352	OK	0.2285444	0.0771289	0.0703908	-0.9679172	100.943	42.837	-257.309	B5-03822-P02-CH0	3299352	OK	0.6920695	0.3096918	-0.6520205	0	-90.881	-98.936	4.797	B5-03822-P02-CH1	3299352	OK	0.7359282	0.0736599	-0.6730408	0	-82.734	-78.753	1.268	B5-03822-P03-CH0	3299352	OK	0.7444401	-0.6080992	-0.2757252	0	-96.436	-60.157	4.983	B5-03822-P03-CH1	3299352	OK	0.7354405	-0.6568244	0.1664603	0	-104.928	-26.752	1.892	B5-03822-P04-CH0	3299352	OK	0.6700434	-0.1180104	0.7328815	0	-131.331	-32.241	11.139	B5-03822-P04-CH1	3299352	OK	0.7659681	-0.6410724	0.0481559	0	-115.152	-45.493	5.168	NA
0.039968492660222	B5-03822-P01-CH0	3299360	OK	0.228207	0.077165	0.0698106	-0.968036	100.935	42.718	-257.305	B5-03822-P02-CH0	3299360	OK	0.6965806	0.2991651	-0.6521317	0	-89.923	-99.765	3.381	B5-03822-P02-CH1	3299360	OK	0.732866	0.1065708	-0.6719748	0	-82.133	-79.317	1.51	B5-03822-P03-CH0	3299360	OK	0.7509666	-0.6064997	-0.2611653	0	-95.681	-60.697	5.466	B5-03822-P03-CH1	3299360	OK	0.7352165	-0.6576239	0.1642785	0	-105.311	-26.626	1.121	B5-03822-P04-CH0	3299360	OK	0.6697895	-0.1171947	0.7332444	0	-131.554	-32.16	10.685	B5-03822-P04-CH1	3299360	OK	0.7656968	-0.6413851	0.0483072	0	-115.095	-45.534	5.319	NA
0.0499606158252775	B5-03822-P01-CH0	3299368	OK	0.2282052	0.077192	0.0703113	-0.967998	100.952	42.779	-257.395	B5-03822-P02-CH0	3299368	OK	0.6998952	0.2889016	-0.6532094	0	-89.992	-100.631	3.809	B5-03822-P02-CH1	3299368	OK	0.731993	0.1392832	-0.6669231	0	-81.605	-80.743	1.132	B5-03822-P03-CH0	3299368	OK	0.7611405	-0.6012484	-0.2432397	0	-95.719	-60.729	7.864	B5-03822-P03-CH1	3299368	OK	0.7367409	-0.656133	0.1634086	0	-105.75	-26.161	1.699	B5-03822-P04-CH0	3299368	OK	0.6718037	-0.1134032	0.731997	0	-131.967	-32.454	12.836	B5-03822-P04-CH1	3299368	OK	0.7659039	-0.6410946	0.0488766	0	-115.104	-45.656	5.471	NA
0.059952738990333	B5-03822-P01-CH0	3299376	OK	0.2277463	0.0770614	0.0700671	-0.9681342	100.862	42.77	-257.49	B5-03822-P02-CH0	3299376	OK	0.7031752	0.2804863	-0.6533545	0	-90.442	-100.703	2.646	B5-03822-P02-CH1	3299376	OK	0.7320839	0.1722626	-0.6590742	0	-81.757	-80.601	1.754	B5-03822-P03-CH0	3299376	OK	0.7720605	-0.5956136	-0.2217364	0	-94.692	-61.69	9.325	B5-03822-P03-CH1	3299376	OK	0.7371005	-0.6559284	0.1626065	0	-105.829	-26.156	2.099	B5-03822-P04-CH0	3299376	OK	0.672707	-0.1104116	0.7316246	0	-132.223	-32.271	13.13	B5-03822-P04-CH1	3299376	OK	0.7657214	-0.6413078	0.0489385	0	-115.162	-45.63	5.596	NA
0.0699448621553885	B5-03822-P01-CH0	3299384	OK	0.2272958	0.0769376	0.0699821	-0.968256	100.756	42.707	-257.423	B5-03822-P02-CH0	3299384	OK	0.704801	0.2739449	-0.6543773	0	-91.384	-100.568	3.171	B5-03822-P02-CH1	3299384	OK	0.7334548	0.2037827	-0.6484726	0	-81.818	-80.974	2.009	B5-03822-P03-CH0	3299384	OK	0.7838041	-0.584385	-0.2101079	0	-95.191	-61.746	8.92	B5-03822-P03-CH1	3299384	OK	0.7372579	-0.6551504	0.1650113	0	-105.155	-26.304	2.363	B5-03822-P04-CH0	3299384	OK	0.6722445	-0.1096162	0.7321691	0	-132.112	-31.661	11.43	B5-03822-P04-CH1	3299384	OK	0.7657035	-0.6413383	0.0488193	0	-115.086	-45.568	5.555	NA
0.079936985320444	B5-03822-P01-CH0	3299392	OK	0.2268454	0.0768946	0.0692162	-0.9684201	100.685	42.538	-257.432	B5-03822-P02-CH0	3299392	OK	0.70657	0.2688077	-0.6546001	0	-92.466	-100.73	4.964	B5-03822-P02-CH1	3299392	OK	0.7355212	0.2303936	-0.6371243	0	-81.76	-82.412	3.277	B5-03822-P03-CH0	3299392	OK	0.7944466	-0.5741201	-0.1980927	0	-95.671	-62.774	10.152	B5-03822-P03-CH1	3299392	OK	0.736397	-0.6563075	0.1642555	0	-105.064	-26.319	2.27	B5-03822-P04-CH0	3299392	OK	0.6722205	-0.1163167	0.7311566	0	-131.849	-32.549	11.744	B5-03822-P04-CH1	3299392	OK	0.7650706	-0.6420925	0.0488285	0	-115.119	-45.77	5.645	NA
0.0899291084854995	B5-03822-P01-CH0	3299400	OK	0.2267278	0.0771239	0.0692555	-0.9684266	100.745	42.531	-257.51	B5-03822-P02-CH0	3299400	OK	0.7116269	0.2642787	-0.6509561	0	-92.084	-101.634	4.268	B5-03822-P02-CH1	3299400	OK	0.7383351	0.2538205	-0.6248491	0	-80.888	-82.598	1.369	B5-03822-P03-CH0	3299400	OK	0.8037413	-0.5652345	-0.1857682	0	-95.345	-63.55	10.812	B5-03822-P03-CH1	3299400	OK	0.7361781	-0.6566384	0.1639141	0	-105.111	-26.362	2.305	B5-03822-P04-CH0	3299400	OK	0.6720232	-0.112809	0.7318872	0	-131.83	-32.736	11.915	B5-03822-P04-CH1	3299400	OK	0.7650207	-0.6421281	0.0491409	0	-115.229	-45.908	5.792	NA
0.099921231650555	B5-03822-P01-CH0	3299408	OK	0.2265678	0.0772257	0.0696046	-0.9684309	100.742	42.549	-257.563	B5-03822-P02-CH0	3299408	OK	0.7168509	0.2587575	-0.6474328	0	-90.764	-102.105	2.807	B5-03822-P02-CH1	3299408	OK	0.7380551	0.2732497	-0.6169354	0	-81.788	-82.523	2.145	B5-03822-P03-CH0	3299408	OK	0.8108919	-0.5573794	-0.1782766	0	-95.123	-63.58	10.995	B5-03822-P03-CH1	3299408	OK	0.7358986	-0.6569073	0.1640913	0	-105.037	-26.606	2.14	B5-03822-P04-CH0	3299408	OK	0.6721016	-0.0959497	0.7342159	0	-131.733	-32.786	11.091	B5-03822-P04-CH1	3299408	OK	0.7652705	-0.6418292	0.0491573	0	-115.267	-45.89	6.037	NA
0.10991335481561	B5-03822-P01-CH0	3299416	OK	0.2263689	0.0772486	0.0698263	-0.9684596	100.69	42.531	-257.582	B5-03822-P02-CH0	3299416	OK	0.7176068	0.2529733	-0.6488798	0	-91.737	-102.48	3.488	B5-03822-P02-CH1	3299416	OK	0.7406379	0.2867128	-0.6076605	0	-81.205	-82.495	2.162	B5-03822-P03-CH0	3299416	OK	0.8157974	-0.5508395	-0.1762112	0	-95.542	-63.373	12.172	B5-03822-P03-CH1	3299416	OK	0.7360876	-0.6567835	0.1637393	0	-105.157	-26.501	1.943	B5-03822-P04-CH0	3299416	OK	0.6737763	-0.0916025	0.7332356	0	-131.976	-32.351	10.763	B5-03822-P04-CH1	3299416	OK	0.7653717	-0.6417073	0.0491721	0	-115.222	-45.895	6.164	NA
0.119905477980666	B5-03822-P01-CH0	3299424	OK	0.2261891	0.0769255	0.0704376	-0.9684831	100.515	42.56	-257.647	B5-03822-P02-CH0	3299424	OK	0.7166808	0.2462466	-0.6524809	0	-92.983	-102.407	4.089	B5-03822-P02-CH1	3299424	OK	0.7431741	0.2977018	-0.599221	0	-81.347	-83.542	1.899	B5-03822-P03-CH0	3299424	OK	0.8189036	-0.5455974	-0.1781023	0	-95.032	-63.366	11.748	B5-03822-P03-CH1	3299424	OK	0.7364055	-0.6564147	0.1637884	0	-105.084	-26.431	1.855	B5-03822-P04-CH0	3299424	OK	0.6739182	-0.0856315	0.7338267	0	-131.655	-32.686	10.437	B5-03822-P04-CH1	3299424	OK	0.7657739	-0.641213	0.0493582	0	-114.981	-45.806	6.182	NA
0.129897601145721	B5-03822-P01-CH0	3299432	OK	0.2260098	0.0766957	0.0710701	-0.968497	100.377	42.533	-257.698	B5-03822-P02-CH0	3299432	OK	0.7191554	0.2386509	-0.6525805	0	-91.902	-102.483	2.765	B5-03822-P02-CH1	3299432	OK	0.7449004	0.3078769	-0.5918912	0	-81.095	-83.307	1.172	B5-03822-P03-CH0	3299432	OK	0.8191902	-0.5421272	-0.1871509	0	-93.711	-63.571	11.898	B5-03822-P03-CH1	3299432	OK	0.7367071	-0.6560625	0.1638435	0	-105.067	-26.393	1.884	B5-03822-P04-CH0	3299432	OK	0.6752923	-0.0793869	0.7332654	0	-131.812	-32.989	10.116	B5-03822-P04-CH1	3299432	OK	0.7661454	-0.640777	0.0492556	0	-114.853	-45.752	6.187	NA
0.139889724310777	B5-03822-P01-CH0	3299440	OK	0.2256432	0.0765888	0.0713899	-0.9685674	100.228	42.586	-257.767	B5-03822-P02-CH0	3299440	OK	0.7185892	0.2341287	-0.6548384	0	-92.236	-101.272	2.418	B5-03822-P02-CH1	3299440	OK	0.7446127	0.3149294	-0.5885333	0	-81.525	-83.153	2.733	B5-03822-P03-CH0	3299440	OK	0.8175122	-0.5387406	-0.2035497	0	-93.902	-62.911	11.662	B5-03822-P03-CH1	3299440	OK	0.7367045	-0.6560431	0.1639327	0	-105.164	-26.235	1.99	B5-03822-P04-CH0	3299440	OK	0.6768742	-0.0764601	0.7321169	0	-132.003	-32.237	10.45	B5-03822-P04-CH1	3299440	OK	0.7662407	-0.6406856	0.0489609	0	-114.829	-45.612	6.217	NA
0.149881847475832	B5-03822-P01-CH0	3299448	OK	0.2250138	0.0764308	0.0709659	-0.9687574	100.081	42.466	-257.861	B5-03822-P02-CH0	3299448	OK	0.7205355	0.2293069	-0.6544058	0	-91.433	-101.352	2.664	B5-03822-P02-CH1	3299448	OK	0.7440084	0.3207467	-0.586151	0	-81.803	-82.928	3.919	B5-03822-P03-CH0	3299448	OK	0.8134987	-0.5365941	-0.2242468	0	-94.707	-62.493	10.923	B5-03822-P03-CH1	3299448	OK	0.7315763	-0.6608907	0.1673903	0	-105.26	-26.645	0.042	B5-03822-P04-CH0	3299448	OK	0.6768113	-0.0737955	0.7324484	0	-131.766	-32.406	9.699	B5-03822-P04-CH1	3299448	OK	0.7659563	-0.641087	0.048151	0	-114.731	-45.495	6.345	NA
0.159873970640888	B5-03822-P01-CH0	3299456	OK	0.224805	0.0761993	0.0712834	-0.9688008	99.943	42.34	-257.924	B5-03822-P02-CH0	3299456	OK	0.7207241	0.2255917	-0.6554885	0	-91.774	-101.78	2.721	B5-03822-P02-CH1	3299456	OK	0.7463152	0.3227913	-0.582082	0	-80.652	-83.877	1.411	B5-03822-P03-CH0	3299456	OK	0.8073593	-0.5372965	-0.2438925	0	-93.774	-62.664	9.687	B5-03822-P03-CH1	3299456	OK	0.7306955	-0.6616783	0.1681243	0	-104.555	-26.873	0.959	B5-03822-P04-CH0	3299456	OK	0.6769956	-0.0730334	0.7323545	0	-131.683	-32.16	8.975	B5-03822-P04-CH1	3299456	OK	0.766118	-0.6409244	0.0477403	0	-114.594	-45.46	6.292	NA
0.169866093805943	B5-03822-P01-CH0	3299464	OK	0.2246957	0.0761201	0.0716233	-0.9688073	99.847	42.183	-257.877	B5-03822-P02-CH0	3299464	OK	0.7203602	0.2237677	-0.6565129	0	-91.946	-100.92	3.141	B5-03822-P02-CH1	3299464	OK	0.7434741	0.3203141	-0.5870649	0	-81.546	-82.373	3.285	B5-03822-P03-CH0	3299464	OK	0.7975531	-0.5378946	-0.2730905	0	-93.901	-62.27	9.087	B5-03822-P03-CH1	3299464	OK	0.7313194	-0.6615629	0.1658506	0	-104.772	-26.191	1.008	B5-03822-P04-CH0	3299464	OK	0.6770397	-0.0685814	0.732744	0	-131.737	-32.888	7.779	B5-03822-P04-CH1	3299464	OK	0.7662466	-0.6407771	0.0476529	0	-114.502	-45.503	6.182	NA
0.179858216970999	B5-03822-P01-CH0	3299472	OK	0.2243611	0.0761957	0.0721401	-0.9688406	99.793	42.218	-257.904	B5-03822-P02-CH0	3299472	OK	0.7223603	0.2207127	-0.6553483	0	-91.16	-101.058	1.818	B5-03822-P02-CH1	3299472	OK	0.7438308	0.3032876	-0.5955942	0	-81.586	-82.228	3.29	B5-03822-P03-CH0	3299472	OK	0.7825403	-0.5413625	-0.3075017	0	-94.156	-61.762	7.432	B5-03822-P03-CH1	3299472	OK	0.7317707	-0.6613825	0.164575	0	-104.51	-25.792	-0.186	B5-03822-P04-CH0	3299472	OK	0.6762847	-0.0674349	0.7335472	0	-130.955	-32.589	9.865	B5-03822-P04-CH1	3299472	OK	0.7665651	-0.6404398	0.0470619	0	-114.489	-45.264	6.226	NA
0.189850340136054	B5-03822-P01-CH0	3299480	OK	0.2237815	0.0760982	0.0717999	-0.9690076	99.693	42.051	-257.925	B5-03822-P02-CH0	3299480	OK	0.7200719	0.218046	-0.6587506	0	-92.026	-99.791	3.34	B5-03822-P02-CH1	3299480	OK	0.7444073	0.2707161	-0.6103855	0	-81.635	-80.514	2.961	B5-03822-P03-CH0	3299480	OK	0.7641205	-0.5470003	-0.3419218	0	-93.829	-61.298	6.872	B5-03822-P03-CH1	3299480	OK	0.7320211	-0.6610978	0.1646051	0	-104.818	-26.186	1.624	B5-03822-P04-CH0	3299480	OK	0.6763051	-0.0691885	0.7333651	0	-131.129	-32.544	8.133	B5-03822-P04-CH1	3299480	OK	0.7660643	-0.6410715	0.0466136	0	-114.287	-45.311	6.272	NA
0.19984246330111	B5-03822-P01-CH0	3299488	OK	0.223518	0.0758729	0.0718296	-0.9690838	99.578	41.885	-257.933	B5-03822-P02-CH0	3299488	OK	0.7197154	0.2122932	-0.6610154	0	-91.507	-98.702	2.854	B5-03822-P02-CH1	3299488	OK	0.7472477	0.2153831	-0.628674	0	-81.007	-79.768	2.139	B5-03822-P03-CH0	3299488	OK	0.7502851	-0.552009	-0.3638109	0	-92.727	-59.298	4.705	B5-03822-P03-CH1	3299488	OK	0.7329389	-0.6606465	0.1623169	0	-104.692	-25.885	1.728	B5-03822-P04-CH0	3299488	OK	0.6761202	-0.0713984	0.7333238	0	-130.844	-30.857	8.782	B5-03822-P04-CH1	3299488	OK	0.7658989	-0.6412888	0.0463415	0	-114.307	-45.368	6.052	NA
0.209834586466165	B5-03822-P01-CH0	3299496	OK	0.2231246	0.0757548	0.071551	-0.9692044	99.493	41.755	-257.92	B5-03822-P02-CH0	3299496	OK	0.720381	0.2053819	-0.6624723	0	-90.724	-98.232	2.01	B5-03822-P02-CH1	3299496	OK	0.7478244	0.145233	-0.6478164	0	-81.317	-77.966	1.969	B5-03822-P03-CH0	3299496	OK	0.7419564	-0.5523728	-0.3799802	0	-94.103	-57.275	5.933	B5-03822-P03-CH1	3299496	OK	0.7328138	-0.6605315	0.1633465	0	-104.439	-26.234	1.317	B5-03822-P04-CH0	3299496	OK	0.6775354	-0.0672387	0.7324102	0	-130.914	-31.877	10.592	B5-03822-P04-CH1	3299496	OK	0.7656787	-0.6415925	0.0457737	0	-114.238	-45.267	6.016	NA
0.219826709631221	B5-03822-P01-CH0	3299504	OK	0.2228629	0.0756684	0.0715725	-0.9692697	99.45	41.63	-257.888	B5-03822-P02-CH0	3299504	OK	0.7223983	0.198923	-0.6622464	0	-89.217	-98.259	0.157	B5-03822-P02-CH1	3299504	OK	0.7471656	0.0691973	-0.661026	0	-82.45	-77.191	2.202	B5-03822-P03-CH0	3299504	OK	0.7377773	-0.5494208	-0.3922007	0	-97.023	-55.231	5.134	B5-03822-P03-CH1	3299504	OK	0.7328166	-0.6607748	0.162347	0	-104.387	-26.159	1.325	B5-03822-P04-CH0	3299504	OK	0.6769919	-0.0717384	0.7324858	0	-130.984	-32.543	9.722	B5-03822-P04-CH1	3299504	OK	0.7656022	-0.6417035	0.0454963	0	-114.267	-45.259	5.966	NA
0.229818832796276	B5-03822-P01-CH0	3299512	OK	0.2225458	0.0756032	0.0712641	-0.9693704	99.454	41.513	-257.896	B5-03822-P02-CH0	3299512	OK	0.7184925	0.1955008	-0.6674938	0	-90.033	-96.558	3.27	B5-03822-P02-CH1	3299512	OK	0.7497483	-0.0019982	-0.66172	0	-81.639	-76.864	0.269	B5-03822-P03-CH0	3299512	OK	0.728762	-0.5442859	-0.4155223	0	-98.245	-53.44	-0.068	B5-03822-P03-CH1	3299512	OK	0.7327967	-0.6610887	0.1611546	0	-104.244	-26.045	1.301	B5-03822-P04-CH0	3299512	OK	0.6769736	-0.0709	0.7325844	0	-130.971	-32.393	9.445	B5-03822-P04-CH1	3299512	OK	0.7653061	-0.642073	0.0452632	0	-114.178	-45.259	5.963	NA
0.239810955961332	B5-03822-P01-CH0	3299520	OK	0.2226602	0.0753636	0.0713912	-0.9693534	99.395	41.413	-257.804	B5-03822-P02-CH0	3299520	OK	0.7152194	0.1895815	-0.6726962	0	-89.72	-96.203	4.79	B5-03822-P02-CH1	3299520	OK	0.7503344	-0.051926	-0.6590159	0	-81.487	-74.815	1.452	B5-03822-P03-CH0	3299520	OK	0.7208881	-0.5201437	-0.4580075	0	-98.594	-52.62	2.625	B5-03822-P03-CH1	3299520	OK	0.7331125	-0.6609676	0.1602117	0	-103.999	-26.081	1.261	B5-03822-P04-CH0	3299520	OK	0.6771144	-0.0696345	0.7325756	0	-130.955	-32.376	9.094	B5-03822-P04-CH1	3299520	OK	0.7653554	-0.641994	0.0455498	0	-114.052	-45.307	5.725	NA
0.249803079126387	B5-03822-P01-CH0	3299528	OK	0.2230749	0.075207	0.0722554	-0.9692062	99.41	41.451	-257.68	B5-03822-P02-CH0	3299528	OK	0.712234	0.1865783	-0.6766915	0	-88.123	-95.9	3.281	B5-03822-P02-CH1	3299528	OK	0.7487433	-0.0861727	-0.6572349	0	-82.77	-74.516	2.17	B5-03822-P03-CH0	3299528	OK	0.7251373	-0.482264	-0.4915255	0	-99.067	-51.626	1.527	B5-03822-P03-CH1	3299528	OK	0.7375565	-0.6587607	0.1484747	0	-104.429	-25.305	0.776	B5-03822-P04-CH0	3299528	OK	0.6773892	-0.0679441	0.7324804	0	-131.014	-32.346	8.968	B5-03822-P04-CH1	3299528	OK	0.7659384	-0.6412588	0.0461041	0	-114.068	-45.294	5.489	NA
0.259795202291443	B5-03822-P01-CH0	3299536	OK	0.2233716	0.0754623	0.0723998	-0.9691072	99.565	41.531	-257.631	B5-03822-P02-CH0	3299536	OK	0.7087312	0.1857301	-0.6805912	0	-86.336	-97.528	1.855	B5-03822-P02-CH1	3299536	OK	0.7476802	-0.108047	-0.65521	0	-83.323	-73.666	3.615	B5-03822-P03-CH0	3299536	OK	0.7338236	-0.4401603	-0.5174571	0	-100.66	-51.384	3.168	B5-03822-P03-CH1	3299536	OK	0.7382527	-0.6588107	0.144746	0	-103.92	-25.285	0.786	B5-03822-P04-CH0	3299536	OK	0.6772008	-0.0668561	0.7327546	0	-130.995	-32.135	8.988	B5-03822-P04-CH1	3299536	OK	0.7660135	-0.6411258	0.0467018	0	-114.144	-45.342	5.547	NA
0.269787325456498	B5-03822-P01-CH0	3299544	OK	0.2234892	0.0755174	0.0720559	-0.9691015	99.662	41.597	-257.704	B5-03822-P02-CH0	3299544	OK	0.7008979	0.1878713	-0.6880745	0	-85.424	-98.107	2.65	B5-03822-P02-CH1	3299544	OK	0.7475441	-0.1234866	-0.6526323	0	-83.556	-73.994	3.386	B5-03822-P03-CH0	3299544	OK	0.742105	-0.4028519	-0.535715	0	-102.956	-51.399	4.252	B5-03822-P03-CH1	3299544	OK	0.739974	-0.6577689	0.1406362	0	-104.297	-24.846	1.572	B5-03822-P04-CH0	3299544	OK	0.6773131	-0.0657396	0.7327518	0	-131.129	-31.956	9.432	B5-03822-P04-CH1	3299544	OK	0.7659387	-0.6412186	0.0466542	0	-114.305	-45.275	5.747	NA
0.279779448621554	B5-03822-P01-CH0	3299552	OK	0.2239409	0.0752853	0.0721513	-0.9690082	99.697	41.568	-257.661	B5-03822-P02-CH0	3299552	OK	0.6904169	0.1918004	-0.6975221	0	-84.22	-98.021	1.995	B5-03822-P02-CH1	3299552	OK	0.7488991	-0.1343567	-0.648921	0	-83.208	-74.393	3.267	B5-03822-P03-CH0	3299552	OK	0.7507898	-0.3744531	-0.5441503	0	-103.23	-51.547	4.933	B5-03822-P03-CH1	3299552	OK	0.7396487	-0.6584768	0.1390256	0	-104.111	-25.611	1.113	B5-03822-P04-CH0	3299552	OK	0.676912	-0.0642002	0.7332588	0	-131.129	-32.016	9.115	B5-03822-P04-CH1	3299552	OK	0.7660308	-0.6410579	0.0473461	0	-114.336	-45.46	5.655	NA
0.289771571786609	B5-03822-P01-CH0	3299560	OK	0.2242713	0.0753086	0.0721304	-0.9689315	99.734	41.702	-257.597	B5-03822-P02-CH0	3299560	OK	0.6770897	0.1964458	-0.7091958	0	-83.429	-97.533	2.677	B5-03822-P02-CH1	3299560	OK	0.7498308	-0.141182	-0.6463911	0	-82.892	-75.106	2.658	B5-03822-P03-CH0	3299560	OK	0.7575245	-0.3573058	-0.5463416	0	-103.164	-51.703	4.649	B5-03822-P03-CH1	3299560	OK	0.7405208	-0.6579115	0.1370452	0	-104.5	-25.096	1.974	B5-03822-P04-CH0	3299560	OK	0.6764595	-0.0623875	0.7338326	0	-131.138	-31.943	9.094	B5-03822-P04-CH1	3299560	OK	0.7662496	-0.6407677	0.0477303	0	-114.392	-45.32	5.682	NA
0.299763694951665	B5-03822-P01-CH0	3299568	OK	0.2247055	0.0751857	0.0723999	-0.9688203	99.755	41.781	-257.506	B5-03822-P02-CH0	3299568	OK	0.6634637	0.1980636	-0.7215169	0	-82.856	-98.28	2.437	B5-03822-P02-CH1	3299568	OK	0.7498061	-0.1433122	-0.6459508	0	-83.329	-75.117	3.136	B5-03822-P03-CH0	3299568	OK	0.7626049	-0.3500614	-0.5439585	0	-103.729	-52	5.457	B5-03822-P03-CH1	3299568	OK	0.7398334	-0.6586131	0.1373873	0	-104.499	-25.476	2.025	B5-03822-P04-CH0	3299568	OK	0.6705588	-0.0571561	0.7396513	0	-130.165	-31.976	8.197	B5-03822-P04-CH1	3299568	OK	0.7666553	-0.640229	0.048441	0	-114.363	-45.295	5.625	NA
0.30975581811672	B5-03822-P01-CH0	3299576	OK	0.2250353	0.0754576	0.0721164	-0.9687438	99.908	41.825	-257.46	B5-03822-P02-CH0	3299576	OK	0.6500192	0.1969992	-0.7339389	0	-82.391	-97.312	2.8	B5-03822-P02-CH1	3299576	OK	0.7482228	-0.144224	-0.6475817	0	-83.253	-75.839	3.154	B5-03822-P03-CH0	3299576	OK	0.7691188	-0.3568163	-0.5302248	0	-103.417	-52.83	5.974	B5-03822-P03-CH1	3299576	OK	0.738865	-0.6598215	0.1367991	0	-104.625	-25.533	1.182	B5-03822-P04-CH0	3299576	OK	0.6694762	-0.0605615	0.7403606	0	-130.141	-31.585	9.661	B5-03822-P04-CH1	3299576	OK	0.7665003	-0.6403664	0.0490726	0	-114.569	-45.469	5.664	NA
0.319747941281776	B5-03822-P01-CH0	3299584	OK	0.2253496	0.075615	0.0719795	-0.9686686	99.963	41.934	-257.352	B5-03822-P02-CH0	3299584	OK	0.6423849	0.1974792	-0.7405023	0	-80.991	-98.042	2.119	B5-03822-P02-CH1	3299584	OK	0.744035	-0.1402695	-0.6532507	0	-82.577	-76.012	2.833	B5-03822-P03-CH0	3299584	OK	0.7748037	-0.3783751	-0.5064696	0	-104.47	-54.168	5.251	B5-03822-P03-CH1	3299584	OK	0.7369203	-0.662032	0.1366091	0	-103.945	-25.723	-0.067	B5-03822-P04-CH0	3299584	OK	0.6693503	-0.0591867	0.7405856	0	-130.598	-31.52	9.696	B5-03822-P04-CH1	3299584	OK	0.76664	-0.6401618	0.0495586	0	-114.583	-45.431	5.751	NA
0.329740064446831	B5-03822-P01-CH0	3299592	OK	0.2256732	0.07578	0.0720071	-0.9685783	100.023	42.1	-257.272	B5-03822-P02-CH0	3299592	OK	0.6331879	0.1983383	-0.7481544	0	-80.325	-96.873	3.049	B5-03822-P02-CH1	3299592	OK	0.7364585	-0.1334146	-0.6631964	0	-81.731	-75.62	1.864	B5-03822-P03-CH0	3299592	OK	0.7834992	-0.4154034	-0.4621353	0	-105.129	-55.63	6.493	B5-03822-P03-CH1	3299592	OK	0.7365359	-0.6629226	0.1343446	0	-104.242	-25.166	0.775	B5-03822-P04-CH0	3299592	OK	0.6693746	-0.0531156	0.7410239	0	-131	-32.258	10.463	B5-03822-P04-CH1	3299592	OK	0.7667086	-0.6400304	0.0501896	0	-114.743	-45.484	5.751	NA
0.339732187611887	B5-03822-P01-CH0	3299600	OK	0.2257929	0.076107	0.0716534	-0.968551	100.15	42.178	-257.224	B5-03822-P02-CH0	3299600	OK	0.6225319	0.199337	-0.7567819	0	-80.701	-96.063	3.139	B5-03822-P02-CH1	3299600	OK	0.7281448	-0.1241483	-0.6740863	0	-80.837	-75.602	2.021	B5-03822-P03-CH0	3299600	OK	0.7958397	-0.4633774	-0.38977	0	-103.781	-58.012	8.77	B5-03822-P03-CH1	3299600	OK	0.7382462	-0.6597786	0.1403026	0	-104.903	-25.324	1.78	B5-03822-P04-CH0	3299600	OK	0.6677207	-0.0602142	0.7419726	0	-130.862	-31.663	10.311	B5-03822-P04-CH1	3299600	OK	0.7664951	-0.6402606	0.0505138	0	-114.891	-45.61	5.89	NA
0.349724310776942	B5-03822-P01-CH0	3299608	OK	0.2257575	0.0763851	0.0706769	-0.9686091	100.21	42.179	-257.195	B5-03822-P02-CH0	3299608	OK	0.6156057	0.2078015	-0.7601632	0	-81.373	-97.065	3.497	B5-03822-P02-CH1	3299608	OK	0.722375	-0.1085809	-0.6829235	0	-79.665	-77.046	1.294	B5-03822-P03-CH0	3299608	OK	0.8110661	-0.4972394	-0.3080986	0	-103.063	-59.367	10.467	B5-03822-P03-CH1	3299608	OK	0.732933	-0.6660595	0.1384702	0	-104.853	-25.441	0.902	B5-03822-P04-CH0	3299608	OK	0.668882	-0.0649685	0.7405241	0	-131.599	-32.283	10.767	B5-03822-P04-CH1	3299608	OK	0.7659087	-0.6409439	0.0507427	0	-114.943	-45.743	6.033	NA
0.359716433941998	B5-03822-P01-CH0	3299616	OK	0.225759	0.0765067	0.0701497	-0.9686375	100.212	42.229	-257.09	B5-03822-P02-CH0	3299616	OK	0.6149108	0.2204459	-0.7571581	0	-81.411	-98.665	2.443	B5-03822-P02-CH1	3299616	OK	0.7166736	-0.0867167	-0.6919965	0	-79.267	-77.352	1.32	B5-03822-P03-CH0	3299616	OK	0.8259333	-0.5108186	-0.238534	0	-102.738	-61.485	11.133	B5-03822-P03-CH1	3299616	OK	0.7324337	-0.6662518	0.1401767	0	-105.205	-25.081	1.939	B5-03822-P04-CH0	3299616	OK	0.6689738	-0.0720182	0.7397888	0	-131.281	-32.033	11.965	B5-03822-P04-CH1	3299616	OK	0.765782	-0.6410894	0.0508172	0	-115.05	-45.678	5.941	NA
0.369708557107053	B5-03822-P01-CH0	3299624	OK	0.2259937	0.0766878	0.0703565	-0.9685534	100.277	42.38	-257.082	B5-03822-P02-CH0	3299624	OK	0.6115142	0.2345608	-0.7556663	0	-83.369	-98.508	3.654	B5-03822-P02-CH1	3299624	OK	0.7108987	-0.0631447	-0.700454	0	-79.157	-78.665	1.319	B5-03822-P03-CH0	3299624	OK	0.8405712	-0.5053565	-0.1950764	0	-103.221	-62.271	12.647	B5-03822-P03-CH1	3299624	OK	0.7324592	-0.6656914	0.1426828	0	-105.117	-24.314	0.433	B5-03822-P04-CH0	3299624	OK	0.6690247	-0.0784646	0.7390868	0	-131.253	-31.765	10.811	B5-03822-P04-CH1	3299624	OK	0.765939	-0.6408592	0.0513519	0	-115.1	-45.746	5.936	NA
0.379700680272109	B5-03822-P01-CH0	3299632	OK	0.2258796	0.0769364	0.0696556	-0.968611	100.309	42.463	-256.993	B5-03822-P02-CH0	3299632	OK	0.6138942	0.248305	-0.7493187	0	-83.639	-98.486	3.526	B5-03822-P02-CH1	3299632	OK	0.705079	-0.0422023	-0.7078718	0	-79.197	-79.374	1.277	B5-03822-P03-CH0	3299632	OK	0.8496815	-0.5043203	-0.1539557	0	-101.446	-63.522	12.613	B5-03822-P03-CH1	3299632	OK	0.732298	-0.6653157	0.1452398	0	-105.603	-24.416	2.033	B5-03822-P04-CH0	3299632	OK	0.6696807	-0.0813427	0.738181	0	-131.405	-32.479	11.311	B5-03822-P04-CH1	3299632	OK	0.7655525	-0.6413135	0.0514428	0	-115.179	-45.723	5.924	NA
0.389692803437164	B5-03822-P01-CH0	3299640	OK	0.225916	0.0768519	0.0693756	-0.9686293	100.289	42.479	-256.996	B5-03822-P02-CH0	3299640	OK	0.6207295	0.2622136	-0.7388768	0	-83.776	-98.889	3.555	B5-03822-P02-CH1	3299640	OK	0.7018822	-0.0209489	-0.7119849	0	-78.617	-79.851	0.991	B5-03822-P03-CH0	3299640	OK	0.8569456	-0.4998174	-0.1258044	0	-99.93	-63.616	13.353	B5-03822-P03-CH1	3299640	OK	0.7328133	-0.6639978	0.1486322	0	-105.003	-24.449	2.125	B5-03822-P04-CH0	3299640	OK	0.6685911	-0.0847082	0.7387899	0	-131.003	-32.368	10.632	B5-03822-P04-CH1	3299640	OK	0.7655596	-0.6413022	0.0514786	0	-115.227	-45.721	5.949	NA
0.39968492660222	B5-03822-P01-CH0	3299648	OK	0.2260918	0.0771593	0.0693119	-0.9685684	100.383	42.626	-256.962	B5-03822-P02-CH0	3299648	OK	0.6324364	0.2706853	-0.725778	0	-83.811	-99.79	3.574	B5-03822-P02-CH1	3299648	OK	0.7015094	-0.0034524	-0.7126518	0	-78.565	-79.851	1.842	B5-03822-P03-CH0	3299648	OK	0.859077	-0.4995031	-0.1117287	0	-100.472	-64.168	14.11	B5-03822-P03-CH1	3299648	OK	0.732144	-0.663866	0.15247	0	-104.281	-25.307	2.023	B5-03822-P04-CH0	3299648	OK	0.6687596	-0.0902841	0.7379765	0	-130.905	-31.018	10.572	B5-03822-P04-CH1	3299648	OK	0.7654899	-0.6413627	0.0517597	0	-115.338	-45.799	5.997	NA
0.409677049767275	B5-03822-P01-CH0	3299656	OK	0.2263823	0.0771669	0.0697317	-0.9684698	100.396	42.797	-256.934	B5-03822-P02-CH0	3299656	OK	0.6450409	0.2759751	-0.7125728	0	-84.331	-100.504	3.678	B5-03822-P02-CH1	3299656	OK	0.704648	0.0100197	-0.7094863	0	-77.869	-79.772	0.995	B5-03822-P03-CH0	3299656	OK	0.8597005	-0.4999949	-0.1044994	0	-101.07	-64.507	13.321	B5-03822-P03-CH1	3299656	OK	0.7339467	-0.6612086	0.1553236	0	-104.57	-25.087	2.051	B5-03822-P04-CH0	3299656	OK	0.672112	-0.0869219	0.7353299	0	-131.75	-32.359	12.191	B5-03822-P04-CH1	3299656	OK	0.7659365	-0.6407806	0.0523589	0	-115.25	-45.747	6.032	NA
0.419669172932331	B5-03822-P01-CH0	3299664	OK	0.2267065	0.0771819	0.0697211	-0.9683936	100.427	42.867	-256.931	B5-03822-P02-CH0	3299664	OK	0.6580877	0.2808833	-0.698588	0	-85.073	-101.446	4.244	B5-03822-P02-CH1	3299664	OK	0.7068352	0.0232388	-0.7069965	0	-78.661	-80.776	1.947	B5-03822-P03-CH0	3299664	OK	0.8593565	-0.5029994	-0.0921847	0	-99.435	-64.585	13.667	B5-03822-P03-CH1	3299664	OK	0.7358586	-0.6589989	0.1556679	0	-105.147	-24.572	2.426	B5-03822-P04-CH0	3299664	OK	0.6722047	-0.0867511	0.7352653	0	-131.685	-32.14	11.367	B5-03822-P04-CH1	3299664	OK	0.7660375	-0.6406273	0.0527569	0	-115.301	-45.821	6.116	NA
0.429661296097386	B5-03822-P01-CH0	3299672	OK	0.2270308	0.0771897	0.0697926	-0.9683118	100.463	42.906	-256.91	B5-03822-P02-CH0	3299672	OK	0.6678364	0.2834922	-0.6882055	0	-86.031	-101.712	3.944	B5-03822-P02-CH1	3299672	OK	0.7082114	0.040157	-0.7048574	0	-79.015	-80.31	2.684	B5-03822-P03-CH0	3299672	OK	0.8582723	-0.5058439	-0.0865487	0	-98.971	-64.729	13.224	B5-03822-P03-CH1	3299672	OK	0.7353486	-0.6589626	0.1582109	0	-104.536	-25.489	1.539	B5-03822-P04-CH0	3299672	OK	0.673124	-0.0834778	0.7348031	0	-132.083	-32.784	10.741	B5-03822-P04-CH1	3299672	OK	0.7661862	-0.6404148	0.0531756	0	-115.329	-45.919	6.079	NA
0.439653419262442	B5-03822-P01-CH0	3299680	OK	0.2273402	0.0772116	0.0700216	-0.9682209	100.515	43.008	-256.948	B5-03822-P02-CH0	3299680	OK	0.6741245	0.2871969	-0.6804955	0	-87.528	-101.033	5.087	B5-03822-P02-CH1	3299680	OK	0.7105598	0.0648077	-0.7006459	0	-78.459	-81.256	1.643	B5-03822-P03-CH0	3299680	OK	0.8551096	-0.5124658	-0.0785264	0	-97.901	-65.683	13.342	B5-03822-P03-CH1	3299680	OK	0.7369538	-0.6566673	0.160272	0	-104.516	-25.533	1.827	B5-03822-P04-CH0	3299680	OK	0.670691	-0.0823608	0.7371501	0	-131.446	-31.711	11.745	B5-03822-P04-CH1	3299680	OK	0.7664767	-0.6400242	0.0536889	0	-115.297	-45.932	6.184	NA
0.449645542427497	B5-03822-P01-CH0	3299688	OK	0.227551	0.0771817	0.0704765	-0.9681408	100.515	43.123	-256.864	B5-03822-P02-CH0	3299688	OK	0.6806203	0.2887334	-0.6733417	0	-88.506	-100.792	2.702	B5-03822-P02-CH1	3299688	OK	0.7104217	0.0960115	-0.6971964	0	-79.032	-81.119	0.85	B5-03822-P03-CH0	3299688	OK	0.8524561	-0.5158773	-0.0847893	0	-99.189	-65.391	12.873	B5-03822-P03-CH1	3299688	OK	0.7391797	-0.6543166	0.1596346	0	-105.266	-25.161	1.199	B5-03822-P04-CH0	3299688	OK	0.6721223	-0.0832863	0.7357412	0	-131.719	-32.048	12.018	B5-03822-P04-CH1	3299688	OK	0.7668961	-0.6395009	0.0539354	0	-115.365	-45.885	6.033	NA
0.459637665592553	B5-03822-P01-CH0	3299696	OK	0.2276684	0.077195	0.0704756	-0.9681122	100.55	43.145	-256.861	B5-03822-P02-CH0	3299696	OK	0.6880135	0.286252	-0.6668563	0	-88.437	-101.512	3.307	B5-03822-P02-CH1	3299696	OK	0.7110207	0.1296511	-0.6911151	0	-78.883	-81.101	1.794	B5-03822-P03-CH0	3299696	OK	0.8511039	-0.5184408	-0.0827121	0	-97.011	-64.317	13.465	B5-03822-P03-CH1	3299696	OK	0.7384395	-0.6543872	0.1627407	0	-104	-26.462	1.653	B5-03822-P04-CH0	3299696	OK	0.6792904	-0.0823325	0.7292366	0	-133.085	-33.935	12.137	B5-03822-P04-CH1	3299696	OK	0.7669184	-0.6394428	0.0543046	0	-115.436	-45.988	6.064	NA
0.469629788757608	B5-03822-P01-CH0	3299704	OK	0.2277509	0.0771	0.0703796	-0.9681074	100.546	43.117	-256.79	B5-03822-P02-CH0	3299704	OK	0.6919757	0.2841979	-0.6636273	0	-89.58	-101.351	4.61	B5-03822-P02-CH1	3299704	OK	0.7102657	0.1578512	-0.686007	0	-79.277	-81.185	2.249	B5-03822-P03-CH0	3299704	OK	0.8467478	-0.5243682	-0.0897564	0	-96.558	-64.491	13.452	B5-03822-P03-CH1	3299704	OK	0.7398501	-0.6528805	0.162385	0	-104.415	-26.198	2.458	B5-03822-P04-CH0	3299704	OK	0.6797363	-0.0813853	0.7289273	0	-133.207	-33.739	11.54	B5-03822-P04-CH1	3299704	OK	0.7668745	-0.6394679	0.054629	0	-115.446	-46.125	6.116	NA
0.479621911922664	B5-03822-P01-CH0	3299712	OK	0.2280593	0.076866	0.0710237	-0.9680063	100.503	43.228	-256.845	B5-03822-P02-CH0	3299712	OK	0.6952196	0.2808815	-0.6616459	0	-90.533	-100.74	3.34	B5-03822-P02-CH1	3299712	OK	0.7100871	0.1776108	-0.6813448	0	-79.815	-80.976	2.085	B5-03822-P03-CH0	3299712	OK	0.8430639	-0.5288768	-0.0976354	0	-96.66	-64.299	12.507	B5-03822-P03-CH1	3299712	OK	0.741308	-0.6509352	0.1635412	0	-105.043	-25.963	2.991	B5-03822-P04-CH0	3299712	OK	0.6784447	-0.0803291	0.7302466	0	-132.437	-33.69	12.234	B5-03822-P04-CH1	3299712	OK	0.7673068	-0.6389129	0.0550505	0	-115.504	-46.177	6.184	NA
0.489614035087719	B5-03822-P01-CH0	3299720	OK	0.2280755	0.0770794	0.0707779	-0.9680035	100.595	43.249	-256.817	B5-03822-P02-CH0	3299720	OK	0.6998708	0.2757311	-0.658903	0	-90.63	-100.94	3.182	B5-03822-P02-CH1	3299720	OK	0.7134445	0.1884103	-0.6749063	0	-79.173	-81.055	1.193	B5-03822-P03-CH0	3299720	OK	0.8385022	-0.5353775	-0.1014148	0	-96.77	-64.409	12.234	B5-03822-P03-CH1	3299720	OK	0.7419587	-0.6503353	0.1629764	0	-105.694	-25.735	3.19	B5-03822-P04-CH0	3299720	OK	0.6782562	-0.0782063	0.730652	0	-132.427	-34.041	11.636	B5-03822-P04-CH1	3299720	OK	0.7671222	-0.6391166	0.0552579	0	-115.616	-46.282	6.201	NA
0.499606158252775	B5-03822-P01-CH0	3299728	OK	0.2280597	0.0769776	0.0706231	-0.9680267	100.573	43.233	-256.839	B5-03822-P02-CH0	3299728	OK	0.7035996	0.2714274	-0.6567151	0	-91.066	-100.664	3.291	B5-03822-P02-CH1	3299728	OK	0.7154533	0.1955588	-0.6707334	0	-79.605	-81.175	1.936	B5-03822-P03-CH0	3299728	OK	0.8356154	-0.5381766	-0.1100588	0	-97.347	-63.988	11.835	B5-03822-P03-CH1	3299728	OK	0.7423168	-0.6498194	0.1634029	0	-105.128	-25.647	2.575	B5-03822-P04-CH0	3299728	OK	0.6768303	-0.0812909	0.7316369	0	-132.45	-33.472	12.315	B5-03822-P04-CH1	3299728	OK	0.767121	-0.6391239	0.0551912	0	-115.698	-46.285	6.228	NA
0.50959828141783	B5-03822-P01-CH0	3299736	OK	0.2279074	0.0768815	0.0703157	-0.9680925	100.536	43.234	-256.826	B5-03822-P02-CH0	3299736	OK	0.7046893	0.2697274	-0.656247	0	-92.382	-99.931	3.949	B5-03822-P02-CH1	3299736	OK	0.7144454	0.2014969	-0.6700498	0	-80.946	-80.083	2.94	B5-03822-P03-CH0	3299736	OK	0.8333426	-0.5402509	-0.1169149	0	-96.642	-63.354	12.469	B5-03822-P03-CH1	3299736	OK	0.7415213	-0.6500421	0.1661065	0	-104.383	-26.506	3.166	B5-03822-P04-CH0	3299736	OK	0.6774128	-0.0805709	0.7311773	0	-132.523	-33.541	12.398	B5-03822-P04-CH1	3299736	OK	0.7668545	-0.6394638	0.0549565	0	-115.794	-46.314	6.234	NA
0.519590404582886	B5-03822-P01-CH0	3299744	OK	0.2278125	0.0768022	0.0700704	-0.9681389	100.514	43.251	-256.854	B5-03822-P02-CH0	3299744	OK	0.7081334	0.2671956	-0.6535699	0	-92.181	-99.932	3.521	B5-03822-P02-CH1	3299744	OK	0.7147418	0.2030363	-0.6692686	0	-81.131	-80.207	2.304	B5-03822-P03-CH0	3299744	OK	0.8313414	-0.5422057	-0.1220016	0	-96.035	-62.63	12.652	B5-03822-P03-CH1	3299744	OK	0.7417193	-0.6501994	0.1646001	0	-104.986	-26.304	3.106	B5-03822-P04-CH0	3299744	OK	0.6778524	-0.0802278	0.7308075	0	-132.54	-33.533	12.516	B5-03822-P04-CH1	3299744	OK	0.7666014	-0.6397725	0.0548936	0	-115.813	-46.354	6.227	NA
0.529582527747941	B5-03822-P01-CH0	3299752	OK	0.2277147	0.0767747	0.0697729	-0.9681856	100.477	43.248	-256.794	B5-03822-P02-CH0	3299752	OK	0.7086251	0.268073	-0.6526771	0	-92.685	-98.911	4.293	B5-03822-P02-CH1	3299752	OK	0.7152901	0.200413	-0.6694734	0	-80.328	-79.546	2.521	B5-03822-P03-CH0	3299752	OK	0.8279218	-0.5453417	-0.13095	0	-96.492	-62.309	11.843	B5-03822-P03-CH1	3299752	OK	0.7421719	-0.6498558	0.1639159	0	-105.186	-26.226	3.98	B5-03822-P04-CH0	3299752	OK	0.678495	-0.07975	0.7302633	0	-132.672	-33.575	12.492	B5-03822-P04-CH1	3299752	OK	0.7664003	-0.6400065	0.054975	0	-115.739	-46.333	6.335	NA
0.539574650912997	B5-03822-P01-CH0	3299760	OK	0.2275278	0.0768894	0.0694551	-0.9682433	100.502	43.236	-256.665	B5-03822-P02-CH0	3299760	OK	0.7120626	0.2676203	-0.6491118	0	-92.563	-100.425	3.728	B5-03822-P02-CH1	3299760	OK	0.7162921	0.1942173	-0.6702278	0	-79.587	-79.967	1.765	B5-03822-P03-CH0	3299760	OK	0.8243088	-0.5490995	-0.1378576	0	-96.153	-62.318	11.085	B5-03822-P03-CH1	3299760	OK	0.7404877	-0.65189	0.1634546	0	-104.747	-25.983	2.498	B5-03822-P04-CH0	3299760	OK	0.6785283	-0.0798305	0.7302235	0	-132.672	-33.473	12.212	B5-03822-P04-CH1	3299760	OK	0.7660778	-0.6404265	0.0545769	0	-115.944	-46.379	6.254	NA
0.549566774078052	B5-03822-P01-CH0	3299768	OK	0.2275172	0.0767093	0.0692373	-0.9682757	100.45	43.158	-256.684	B5-03822-P02-CH0	3299768	OK	0.7136965	0.2683403	-0.6470168	0	-92.588	-99.837	2.313	B5-03822-P02-CH1	3299768	OK	0.7183256	0.188704	-0.6696262	0	-78.677	-81.297	0.387	B5-03822-P03-CH0	3299768	OK	0.8210659	-0.5512765	-0.1481384	0	-96.254	-61.804	11.547	B5-03822-P03-CH1	3299768	OK	0.7406441	-0.6515727	0.1640101	0	-104.691	-26.098	2.71	B5-03822-P04-CH0	3299768	OK	0.6783625	-0.0804379	0.7303109	0	-132.535	-33.383	12.039	B5-03822-P04-CH1	3299768	OK	0.7658589	-0.6406789	0.0546868	0	-115.914	-46.468	6.237	NA
0.559558897243108	B5-03822-P01-CH0	3299776	OK	0.2275831	0.0766855	0.0693837	-0.9682516	100.437	43.243	-256.749	B5-03822-P02-CH0	3299776	OK	0.7166613	0.267813	-0.6439509	0	-92.134	-100.398	3.587	B5-03822-P02-CH1	3299776	OK	0.7173124	0.1849518	-0.6717557	0	-78.834	-79.933	1.816	B5-03822-P03-CH0	3299776	OK	0.8158028	-0.5561643	-0.158578	0	-95.812	-61.992	10.88	B5-03822-P03-CH1	3299776	OK	0.7409419	-0.6511367	0.1643964	0	-104.846	-26.076	2.91	B5-03822-P04-CH0	3299776	OK	0.6781379	-0.0822074	0.7303225	0	-132.414	-33.036	11.901	B5-03822-P04-CH1	3299776	OK	0.7659812	-0.6405322	0.0546939	0	-115.822	-46.389	6.459	NA
0.569551020408163	B5-03822-P01-CH0	3299784	OK	0.2274813	0.0765372	0.0692679	-0.9682956	100.372	43.207	-256.783	B5-03822-P02-CH0	3299784	OK	0.7170305	0.2689521	-0.6430646	0	-92.57	-99.29	3.634	B5-03822-P02-CH1	3299784	OK	0.7177236	0.1794704	-0.6728025	0	-79.128	-79.462	1.685	B5-03822-P03-CH0	3299784	OK	0.809697	-0.5601888	-0.1748693	0	-96.519	-61.866	10.261	B5-03822-P03-CH1	3299784	OK	0.7411349	-0.6508562	0.1646371	0	-104.943	-26.001	3.042	B5-03822-P04-CH0	3299784	OK	0.6780074	-0.084494	0.7301827	0	-132.238	-32.823	12.032	B5-03822-P04-CH1	3299784	OK	0.7658654	-0.6406831	0.0545475	0	-115.69	-46.332	6.321	NA
0.579543143573219	B5-03822-P01-CH0	3299792	OK	0.2273208	0.0766608	0.0685945	-0.9683714	100.401	43.085	-256.831	B5-03822-P02-CH0	3299792	OK	0.7199666	0.2700485	-0.6393136	0	-92.281	-99.746	3.19	B5-03822-P02-CH1	3299792	OK	0.720728	0.1681219	-0.6725222	0	-78.83	-79.971	0.089	B5-03822-P03-CH0	3299792	OK	0.8052539	-0.5630765	-0.1857715	0	-96.036	-61.339	10.221	B5-03822-P03-CH1	3299792	OK	0.7406418	-0.6512526	0.165287	0	-104.96	-26.139	3.08	B5-03822-P04-CH0	3299792	OK	0.6788809	-0.1044053	0.7267876	0	-132.174	-32.318	12.389	B5-03822-P04-CH1	3299792	OK	0.7654849	-0.6411581	0.0543065	0	-115.519	-46.304	6.36	NA
0.589535266738274	B5-03822-P01-CH0	3299800	OK	0.2274347	0.0763158	0.0690526	-0.9683393	100.236	43.084	-256.747	B5-03822-P02-CH0	3299800	OK	0.72117	0.27214	-0.6370664	0	-92.576	-99.31	3.126	B5-03822-P02-CH1	3299800	OK	0.7209586	0.1548727	-0.6754503	0	-79.8	-78.548	2.288	B5-03822-P03-CH0	3299800	OK	0.8000972	-0.5666165	-0.1969524	0	-96.322	-61.259	9.945	B5-03822-P03-CH1	3299800	OK	0.7406604	-0.6509887	0.1662401	0	-104.971	-26.17	2.902	B5-03822-P04-CH0	3299800	OK	0.6774574	-0.1115369	0.7270564	0	-131.863	-32.242	10.748	B5-03822-P04-CH1	3299800	OK	0.7656715	-0.64093	0.054368	0	-115.334	-46.288	6.196	NA
0.59952738990333	B5-03822-P01-CH0	3299808	OK	0.2274516	0.0762894	0.0693362	-0.9683172	100.209	43.106	-256.722	B5-03822-P02-CH0	3299808	OK	0.7216993	0.275175	-0.6351605	0	-93.818	-99.435	3.594	B5-03822-P02-CH1	3299808	OK	0.7243183	0.1394798	-0.6752099	0	-79.776	-79.053	2.125	B5-03822-P03-CH0	3299808	OK	0.7942492	-0.5707173	-0.2084466	0	-96.516	-61.402	9.483	B5-03822-P03-CH1	3299808	OK	0.7375283	-0.6520928	0.175576	0	-105.426	-25.693	2.441	B5-03822-P04-CH0	3299808	OK	0.6776551	-0.1201394	0.7254999	0	-131.711	-32.447	10.918	B5-03822-P04-CH1	3299808	OK	0.7658498	-0.6407208	0.0543231	0	-115.144	-46.198	6.31	NA
0.609519513068385	B5-03822-P01-CH0	3299816	OK	0.227451	0.0760458	0.0694621	-0.9683275	100.103	43.045	-256.724	B5-03822-P02-CH0	3299816	OK	0.7265605	0.2752143	-0.6295768	0	-92.179	-99.414	1.88	B5-03822-P02-CH1	3299816	OK	0.7265745	0.1247344	-0.6756706	0	-80.072	-78.358	2.402	B5-03822-P03-CH0	3299816	OK	0.7893578	-0.572393	-0.221992	0	-96.104	-61.042	9.331	B5-03822-P03-CH1	3299816	OK	0.73414	-0.6535484	0.1841548	0	-104.43	-26.09	2.146	B5-03822-P04-CH0	3299816	OK	0.6765737	-0.1351756	0.7238616	0	-130.956	-31.95	11.695	B5-03822-P04-CH1	3299816	OK	0.7658993	-0.640661	0.0543296	0	-114.911	-46.186	6.32	NA
0.619511636233441	B5-03822-P01-CH0	3299824	OK	0.2271745	0.0760843	0.0690917	-0.9684159	100.067	42.917	-256.682	B5-03822-P02-CH0	3299824	OK	0.7258584	0.2794006	-0.6285419	0	-93.196	-98.789	4.14	B5-03822-P02-CH1	3299824	OK	0.7292194	0.1092644	-0.6755	0	-80.051	-78.405	0.873	B5-03822-P03-CH0	3299824	OK	0.7820794	-0.5749082	-0.2404836	0	-97.085	-61.084	8.436	B5-03822-P03-CH1	3299824	OK	0.7324853	-0.653793	0.1897895	0	-105.298	-25.498	3.145	B5-03822-P04-CH0	3299824	OK	0.6750244	-0.1514555	0.7220827	0	-130.481	-32.22	11.118	B5-03822-P04-CH1	3299824	OK	0.7655611	-0.6410967	0.053956	0	-114.907	-46.224	6.19	NA
0.629503759398496	B5-03822-P01-CH0	3299832	OK	0.226787	0.0761238	0.0686259	-0.9685367	100.044	42.802	-256.69	B5-03822-P02-CH0	3299832	OK	0.726374	0.2839336	-0.6259093	0	-93.118	-98.53	3.792	B5-03822-P02-CH1	3299832	OK	0.7290739	0.0941469	-0.6779289	0	-81.04	-78.911	2.03	B5-03822-P03-CH0	3299832	OK	0.7763175	-0.5766046	-0.2546728	0	-96.778	-61.022	7.926	B5-03822-P03-CH1	3299832	OK	0.7289258	-0.6559948	0.1958009	0	-105.49	-25.929	3.109	B5-03822-P04-CH0	3299832	OK	0.6749843	-0.162991	0.7196042	0	-130.999	-31.293	11.534	B5-03822-P04-CH1	3299832	OK	0.7652738	-0.6415092	0.0531228	0	-114.919	-46.17	6.142	NA
0.639495882563552	B5-03822-P01-CH0	3299840	OK	0.2267085	0.076007	0.0688458	-0.9685486	99.964	42.825	-256.765	B5-03822-P02-CH0	3299840	OK	0.726801	0.2868371	-0.6240872	0	-92.66	-99.235	3.527	B5-03822-P02-CH1	3299840	OK	0.729588	0.079873	-0.6792066	0	-81.047	-77.686	2.746	B5-03822-P03-CH0	3299840	OK	0.7724134	-0.5746174	-0.2705409	0	-96.953	-59.947	8.196	B5-03822-P03-CH1	3299840	OK	0.7258167	-0.6586881	0.1982929	0	-105.151	-25.895	-0.039	B5-03822-P04-CH0	3299840	OK	0.6743195	-0.1655633	0.7196402	0	-131.023	-31.561	11.984	B5-03822-P04-CH1	3299840	OK	0.7655491	-0.6412065	0.0528088	0	-114.782	-45.939	6.144	NA
0.649488005728607	B5-03822-P01-CH0	3299848	OK	0.226571	0.0763059	0.0686564	-0.9685707	100.023	42.802	-256.776	B5-03822-P02-CH0	3299848	OK	0.7250771	0.29029	-0.6244957	0	-92.454	-98.419	3.462	B5-03822-P02-CH1	3299848	OK	0.730544	0.0633298	-0.6799226	0	-81.189	-78.198	1.723	B5-03822-P03-CH0	3299848	OK	0.7675716	-0.5734685	-0.2863	0	-97.418	-59.592	8.396	B5-03822-P03-CH1	3299848	OK	0.7250542	-0.6594352	0.198599	0	-105.22	-25.048	-0.414	B5-03822-P04-CH0	3299848	OK	0.6730907	-0.1699932	0.7197578	0	-130.45	-30.669	13.225	B5-03822-P04-CH1	3299848	OK	0.7653697	-0.6414557	0.0523812	0	-114.783	-45.92	6.293	NA
0.659480128893663	B5-03822-P01-CH0	3299856	OK	0.2263503	0.0763319	0.0680976	-0.9686597	100.007	42.633	-256.737	B5-03822-P02-CH0	3299856	OK	0.7245901	0.2920135	-0.6242574	0	-91.67	-99.446	3.389	B5-03822-P02-CH1	3299856	OK	0.7312312	0.0502901	-0.6802733	0	-81.485	-76.733	2.466	B5-03822-P03-CH0	3299856	OK	0.7632777	-0.5716889	-0.3009635	0	-97.572	-59.649	7.332	B5-03822-P03-CH1	3299856	OK	0.7245671	-0.6588802	0.2021863	0	-105.545	-24.914	0.825	B5-03822-P04-CH0	3299856	OK	0.6725027	-0.174311	0.7192745	0	-130.31	-30.719	12.711	B5-03822-P04-CH1	3299856	OK	0.7649441	-0.6420097	0.0518093	0	-114.724	-45.982	6.286	NA
0.669472252058718	B5-03822-P01-CH0	3299864	OK	0.2262411	0.0764484	0.0681219	-0.9686743	100.011	42.63	-256.742	B5-03822-P02-CH0	3299864	OK	0.7220324	0.2961317	-0.6252801	0	-91.315	-99.61	2.267	B5-03822-P02-CH1	3299864	OK	0.7335685	0.038135	-0.6785448	0	-81.697	-77.982	2.272	B5-03822-P03-CH0	3299864	OK	0.7623921	-0.5670939	-0.3117094	0	-96.867	-59.206	7.91	B5-03822-P03-CH1	3299864	OK	0.7231713	-0.6597874	0.2042151	0	-105.426	-25.293	-0.014	B5-03822-P04-CH0	3299864	OK	0.6725431	-0.1779312	0.7183496	0	-130.139	-30.594	11.912	B5-03822-P04-CH1	3299864	OK	0.764928	-0.6420692	0.0513059	0	-114.728	-45.919	6.342	NA
0.679464375223774	B5-03822-P01-CH0	3299872	OK	0.2262101	0.0765925	0.0685497	-0.96864	100.006	42.643	-256.636	B5-03822-P02-CH0	3299872	OK	0.7151633	0.299046	-0.6317538	0	-92.246	-99.382	3.998	B5-03822-P02-CH1	3299872	OK	0.7374157	0.0299458	-0.674775	0	-81.008	-78.385	0.826	B5-03822-P03-CH0	3299872	OK	0.7615451	-0.5611605	-0.3242652	0	-97.866	-58.706	6.726	B5-03822-P03-CH1	3299872	OK	0.7243521	-0.6583288	0.2047369	0	-106.182	-24.833	1.448	B5-03822-P04-CH0	3299872	OK	0.6736089	-0.1818364	0.7163704	0	-129.871	-29.969	12.507	B5-03822-P04-CH1	3299872	OK	0.7651018	-0.6418819	0.0510571	0	-114.81	-45.915	6.219	NA
0.689456498388829	B5-03822-P01-CH0	3299880	OK	0.2261747	0.0769843	0.0683752	-0.9686296	100.122	42.657	-256.648	B5-03822-P02-CH0	3299880	OK	0.7083649	0.3011343	-0.6383865	0	-92.511	-98.53	4.479	B5-03822-P02-CH1	3299880	OK	0.7392462	0.0244945	-0.6729897	0	-81.567	-78.162	1.843	B5-03822-P03-CH0	3299880	OK	0.7608948	-0.5587464	-0.3299115	0	-97.642	-59.512	7.556	B5-03822-P03-CH1	3299880	OK	0.7249139	-0.6582445	0.2030124	0	-106.267	-24.118	2.079	B5-03822-P04-CH0	3299880	OK	0.6760824	-0.1813836	0.7141517	0	-130.66	-30.371	13.956	B5-03822-P04-CH1	3299880	OK	0.7651269	-0.6419069	0.0503628	0	-115.03	-45.762	6.292	NA
0.699448621553885	B5-03822-P01-CH0	3299888	OK	0.2258955	0.0772959	0.0677501	-0.9687138	100.199	42.514	-256.591	B5-03822-P02-CH0	3299888	OK	0.7049866	0.3024325	-0.6415048	0	-91.958	-99.891	4.797	B5-03822-P02-CH1	3299888	OK	0.7392257	0.0180111	-0.6732169	0	-82.907	-77.711	4.182	B5-03822-P03-CH0	3299888	OK	0.7604381	-0.5561265	-0.3353464	0	-98.44	-59.631	7.966	B5-03822-P03-CH1	3299888	OK	0.7235611	-0.6595183	0.203703	0	-106.02	-24.617	1.502	B5-03822-P04-CH0	3299888	OK	0.6769797	-0.181187	0.7133511	0	-131.136	-30.523	12.918	B5-03822-P04-CH1	3299888	OK	0.7645945	-0.6425749	0.0499276	0	-115.032	-45.887	6.379	NA
0.70944074471894	B5-03822-P01-CH0	3299896	OK	0.2256642	0.0778555	0.0671929	-0.9687617	100.358	42.553	-256.65	B5-03822-P02-CH0	3299896	OK	0.7008263	0.3036167	-0.6454916	0	-91.325	-99.608	4.281	B5-03822-P02-CH1	3299896	OK	0.7397002	0.010743	-0.6728508	0	-83.602	-77.483	4.571	B5-03822-P03-CH0	3299896	OK	0.7601018	-0.5523409	-0.3422936	0	-99.469	-58.847	7.76	B5-03822-P03-CH1	3299896	OK	0.7223626	-0.6608001	0.2038025	0	-105.775	-24.954	0.884	B5-03822-P04-CH0	3299896	OK	0.6781954	-0.1776516	0.7130855	0	-131.712	-31.289	13.838	B5-03822-P04-CH1	3299896	OK	0.7642751	-0.6430045	0.0492831	0	-115.231	-45.755	6.532	NA
0.719432867883996	B5-03822-P01-CH0	3299904	OK	0.2259375	0.0778723	0.0677084	-0.9686608	100.379	42.584	-256.65	B5-03822-P02-CH0	3299904	OK	0.6964317	0.304519	-0.6498085	0	-90.994	-99.35	4.483	B5-03822-P02-CH1	3299904	OK	0.7423221	0.0046311	-0.6700272	0	-82.705	-77.768	2.878	B5-03822-P03-CH0	3299904	OK	0.7598183	-0.552568	-0.3425562	0	-98.51	-59.209	7.294	B5-03822-P03-CH1	3299904	OK	0.7244953	-0.6595483	0.2002565	0	-106.118	-23.624	0.96	B5-03822-P04-CH0	3299904	OK	0.6752152	-0.1766359	0.7161593	0	-130.896	-30.58	12.767	B5-03822-P04-CH1	3299904	OK	0.7645377	-0.6426698	0.0495746	0	-115.221	-45.831	6.507	NA
0.729424991049051	B5-03822-P01-CH0	3299912	OK	0.2262969	0.0778245	0.0685024	-0.9685249	100.374	42.668	-256.626	B5-03822-P02-CH0	3299912	OK	0.6938971	0.3044592	-0.6525422	0	-90.182	-99.551	4.88	B5-03822-P02-CH1	3299912	OK	0.7426534	-0.0026478	-0.6696708	0	-82.895	-77.492	2.995	B5-03822-P03-CH0	3299912	OK	0.7577726	-0.5538268	-0.3450457	0	-98.899	-59.538	7.58	B5-03822-P03-CH1	3299912	OK	0.724547	-0.6590223	0.2017951	0	-106.173	-24.769	1.152	B5-03822-P04-CH0	3299912	OK	0.675465	-0.1764872	0.7159604	0	-130.937	-30.732	12.874	B5-03822-P04-CH1	3299912	OK	0.765254	-0.6418032	0.049748	0	-115.248	-45.678	6.46	NA
0.739417114214107	B5-03822-P01-CH0	3299920	OK	0.2265895	0.0777637	0.0688047	-0.9684399	100.371	42.582	-256.508	B5-03822-P02-CH0	3299920	OK	0.6899575	0.3062285	-0.6558832	0	-90.516	-99.72	4.894	B5-03822-P02-CH1	3299920	OK	0.7435914	-0.0107569	-0.6685478	0	-82.594	-78.394	2.148	B5-03822-P03-CH0	3299920	OK	0.7563842	-0.5548048	-0.3465177	0	-98.966	-59.267	7.745	B5-03822-P03-CH1	3299920	OK	0.7246375	-0.6588758	0.2019482	0	-106.029	-24.775	1.046	B5-03822-P04-CH0	3299920	OK	0.675819	-0.175206	0.715941	0	-131.039	-31.061	12.998	B5-03822-P04-CH1	3299920	OK	0.7654461	-0.6415524	0.0500279	0	-115.234	-45.817	6.291	NA
0.749409237379162	B5-03822-P01-CH0	3299928	OK	0.2267469	0.0777561	0.0689619	-0.9683925	100.378	42.573	-256.424	B5-03822-P02-CH0	3299928	OK	0.6856232	0.3072063	-0.6599584	0	-90.29	-98.268	4.72	B5-03822-P02-CH1	3299928	OK	0.7424414	-0.0157485	-0.6697259	0	-83.435	-77.131	4.574	B5-03822-P03-CH0	3299928	OK	0.7565875	-0.5550044	-0.3457534	0	-98.292	-58.728	8.569	B5-03822-P03-CH1	3299928	OK	0.7249796	-0.6587175	0.2012359	0	-105.857	-24.748	1.364	B5-03822-P04-CH0	3299928	OK	0.6746559	-0.1615186	0.7202438	0	-131.685	-31.829	12.55	B5-03822-P04-CH1	3299928	OK	0.7657366	-0.6412011	0.0500863	0	-115.243	-45.754	6.276	NA
0.759401360544218	B5-03822-P01-CH0	3299936	OK	0.2267241	0.0778244	0.0690481	-0.9683862	100.392	42.567	-256.31	B5-03822-P02-CH0	3299936	OK	0.6839586	0.3078662	-0.6613767	0	-89.583	-98.914	5.583	B5-03822-P02-CH1	3299936	OK	0.7429269	-0.0213395	-0.6690323	0	-83.419	-77.233	4.377	B5-03822-P03-CH0	3299936	OK	0.7556409	-0.5557122	-0.3466855	0	-98.896	-58.563	7.919	B5-03822-P03-CH1	3299936	OK	0.728606	-0.6586992	0.1877465	0	-105.847	-25.039	1.674	B5-03822-P04-CH0	3299936	OK	0.6738856	-0.1526455	0.7228952	0	-132.114	-32.305	12.982	B5-03822-P04-CH1	3299936	OK	0.7658133	-0.6410963	0.0502548	0	-115.249	-45.75	6.154	NA
0.769393483709273	B5-03822-P01-CH0	3299944	OK	0.2268554	0.0778435	0.0688433	-0.9683685	100.393	42.586	-256.226	B5-03822-P02-CH0	3299944	OK	0.6815389	0.3088717	-0.6634026	0	-89.105	-98.929	4.985	B5-03822-P02-CH1	3299944	OK	0.7457188	-0.0273883	-0.6656976	0	-82.159	-78.284	3.438	B5-03822-P03-CH0	3299944	OK	0.7555499	-0.5557162	-0.3468773	0	-98.953	-58.382	6.735	B5-03822-P03-CH1	3299944	OK	0.7319827	-0.6561524	0.1834812	0	-105.704	-24.987	1.752	B5-03822-P04-CH0	3299944	OK	0.6736381	-0.1454793	0.7246016	0	-131.879	-32.851	15.16	B5-03822-P04-CH1	3299944	OK	0.765734	-0.6411758	0.0504489	0	-115.327	-45.766	6.205	NA
0.779385606874329	B5-03822-P01-CH0	3299952	OK	0.2271322	0.0778182	0.0690693	-0.9682896	100.427	42.649	-256.221	B5-03822-P02-CH0	3299952	OK	0.6771632	0.3098619	-0.6674096	0	-89.585	-98.456	4.451	B5-03822-P02-CH1	3299952	OK	0.7446389	-0.0310661	-0.6667442	0	-82.966	-78.05	3.513	B5-03822-P03-CH0	3299952	OK	0.7557577	-0.5562759	-0.3455247	0	-98.794	-58.227	7.205	B5-03822-P03-CH1	3299952	OK	0.7346279	-0.6537087	0.1816227	0	-104.53	-25.463	2.374	B5-03822-P04-CH0	3299952	OK	0.67296	-0.1414551	0.7260271	0	-132.174	-33.243	14.163	B5-03822-P04-CH1	3299952	OK	0.7660191	-0.640794	0.050969	0	-115.242	-45.749	6.336	NA
0.789377730039384	B5-03822-P01-CH0	3299960	OK	0.2273049	0.0779256	0.0689259	-0.9682506	100.499	42.64	-256.171	B5-03822-P02-CH0	3299960	OK	0.6762042	0.3100609	-0.6682889	0	-88.231	-98.167	5.68	B5-03822-P02-CH1	3299960	OK	0.7452815	-0.0322452	-0.6659698	0	-82.979	-77.028	2.685	B5-03822-P03-CH0	3299960	OK	0.7554481	-0.5577281	-0.3438568	0	-98.312	-57.881	8.019	B5-03822-P03-CH1	3299960	OK	0.7363962	-0.653038	0.1768106	0	-104.619	-26.249	3.08	B5-03822-P04-CH0	3299960	OK	0.6727653	-0.1380859	0.7268556	0	-132.716	-32.952	12.712	B5-03822-P04-CH1	3299960	OK	0.7659463	-0.6408344	0.0515509	0	-115.222	-45.888	6.409	NA
0.79936985320444	B5-03822-P01-CH0	3299968	OK	0.2277063	0.0779285	0.0692089	-0.9681359	100.522	42.788	-256.145	B5-03822-P02-CH0	3299968	OK	0.6754991	0.3097154	-0.6691617	0	-87.444	-98.807	3.652	B5-03822-P02-CH1	3299968	OK	0.7444584	-0.0346853	-0.6667673	0	-83.215	-77.123	3.325	B5-03822-P03-CH0	3299968	OK	0.7523032	-0.5604232	-0.3463607	0	-98.695	-58.334	6.983	B5-03822-P03-CH1	3299968	OK	0.7369895	-0.6533137	0.173285	0	-104.081	-26.478	2.781	B5-03822-P04-CH0	3299968	OK	0.6717366	-0.130877	0.7291373	0	-132.649	-33.331	12.556	B5-03822-P04-CH1	3299968	OK	0.7662094	-0.6404913	0.0519046	0	-115.373	-45.85	6.251	NA
0.809361976369495	B5-03822-P01-CH0	3299976	OK	0.2281619	0.077751	0.0698411	-0.9679975	100.466	42.846	-255.943	B5-03822-P02-CH0	3299976	OK	0.6701083	0.3124071	-0.6733177	0	-88.148	-97.435	4.463	B5-03822-P02-CH1	3299976	OK	0.7449343	-0.037983	-0.6660557	0	-82.629	-77.648	2.072	B5-03822-P03-CH0	3299976	OK	0.7510125	-0.5624479	-0.3458794	0	-98.21	-58.02	6.653	B5-03822-P03-CH1	3299976	OK	0.7396113	-0.6514515	0.1690743	0	-104.972	-25.614	2.107	B5-03822-P04-CH0	3299976	OK	0.6715114	-0.1222587	0.7308387	0	-132.977	-33.816	12.512	B5-03822-P04-CH1	3299976	OK	0.7667751	-0.6397861	0.0522467	0	-115.421	-45.817	5.996	NA
0.819354099534551	B5-03822-P01-CH0	3299984	OK	0.2281487	0.0778571	0.069256	-0.9680341	100.491	42.833	-255.876	B5-03822-P02-CH0	3299984	OK	0.6691363	0.3141177	-0.6734885	0	-88.109	-98.033	3.68	B5-03822-P02-CH1	3299984	OK	0.7440693	-0.0398012	-0.6669159	0	-82.744	-77.297	2.634	B5-03822-P03-CH0	3299984	OK	0.7481581	-0.5649478	-0.3479848	0	-98.438	-57.682	6.165	B5-03822-P03-CH1	3299984	OK	0.7392053	-0.6522935	0.1675969	0	-103.6	-25.794	1.808	B5-03822-P04-CH0	3299984	OK	0.6709046	-0.1181774	0.7320664	0	-133.081	-33.658	12.335	B5-03822-P04-CH1	3299984	OK	0.7666208	-0.6399864	0.0520583	0	-115.372	-45.681	6.092	NA
0.829346222699606	B5-03822-P01-CH0	3299992	OK	0.2282346	0.078051	0.0687506	-0.9680343	100.555	42.868	-255.835	B5-03822-P02-CH0	3299992	OK	0.6679522	0.3159341	-0.6738142	0	-88.392	-98.05	4.858	B5-03822-P02-CH1	3299992	OK	0.7427402	-0.0397266	-0.6684002	0	-83.2	-75.914	3.134	B5-03822-P03-CH0	3299992	OK	0.7460592	-0.5671236	-0.3489506	0	-97.792	-57.675	6.866	B5-03822-P03-CH1	3299992	OK	0.7398419	-0.6520532	0.1657125	0	-103.703	-26.015	2.352	B5-03822-P04-CH0	3299992	OK	0.6705711	-0.1173976	0.7324973	0	-133.05	-32.881	13.451	B5-03822-P04-CH1	3299992	OK	0.7662629	-0.6404265	0.0519128	0	-115.516	-45.715	6.176	NA
0.839338345864662	B5-03822-P01-CH0	3300000	OK	0.2281516	0.0782731	0.067962	-0.9680916	100.59	42.9	-255.781	B5-03822-P02-CH0	3300000	OK	0.6663147	0.3171841	-0.6748474	0	-88.732	-97.64	5.495	B5-03822-P02-CH1	3300000	OK	0.7430492	-0.0419357	-0.6679216	0	-82.936	-76.388	2.974	B5-03822-P03-CH0	3300000	OK	0.7424707	-0.5701359	-0.3516849	0	-98.5	-58.053	5.523	B5-03822-P03-CH1	3300000	OK	0.740161	-0.6520769	0.1641869	0	-103.986	-26.39	3.418	B5-03822-P04-CH0	3300000	OK	0.6695408	-0.114794	0.7338511	0	-133.08	-33.018	12.646	B5-03822-P04-CH1	3300000	OK	0.7658576	-0.6409396	0.0515608	0	-115.519	-45.615	6.472	NA
0.849330469029717	B5-03822-P01-CH0	3300008	OK	0.2282414	0.0783943	0.0679161	-0.9680638	100.625	42.98	-255.737	B5-03822-P02-CH0	3300008	OK	0.6636664	0.3180555	-0.6770433	0	-89.246	-97.18	4.688	B5-03822-P02-CH1	3300008	OK	0.7441811	-0.0441365	-0.6665182	0	-82.115	-77.29	2.075	B5-03822-P03-CH0	3300008	OK	0.7418331	-0.5721997	-0.3496728	0	-98.152	-57.885	5.209	B5-03822-P03-CH1	3300008	OK	0.7411395	-0.6514632	0.1621973	0	-103.796	-26.337	3.27	B5-03822-P04-CH0	3300008	OK	0.6677091	-0.1120847	0.7359358	0	-132.645	-33.346	11.891	B5-03822-P04-CH1	3300008	OK	0.7657489	-0.6410704	0.0515498	0	-115.5	-45.584	6.346	NA
0.859322592194773	B5-03822-P01-CH0	3300016	OK	0.2285945	0.0784154	0.0682011	-0.9679588	100.636	43.092	-255.753	B5-03822-P02-CH0	3300016	OK	0.6616433	0.318673	-0.6787309	0	-89.105	-96.774	5.461	B5-03822-P02-CH1	3300016	OK	0.7437254	-0.0450358	-0.6669665	0	-82.367	-77.924	2.289	B5-03822-P03-CH0	3300016	OK	0.7411006	-0.575026	-0.3465761	0	-98.065	-58.303	5.701	B5-03822-P03-CH1	3300016	OK	0.7429631	-0.6496751	0.1610217	0	-104.441	-26.37	4.403	B5-03822-P04-CH0	3300016	OK	0.6697093	-0.1060261	0.7350156	0	-133.71	-33.533	11.301	B5-03822-P04-CH1	3300016	OK	0.7659312	-0.6408387	0.0517216	0	-115.463	-45.583	6.443	NA
0.869314715359828	B5-03822-P01-CH0	3300024	OK	0.2288857	0.0783503	0.0684718	-0.9678761	100.625	43.106	-255.759	B5-03822-P02-CH0	3300024	OK	0.6632412	0.3181728	-0.6774048	0	-88.353	-98.245	5.564	B5-03822-P02-CH1	3300024	OK	0.7435194	-0.0404539	-0.6674896	0	-83.033	-77.094	2.941	B5-03822-P03-CH0	3300024	OK	0.7423399	-0.5755093	-0.3431042	0	-97.899	-58.039	5.548	B5-03822-P03-CH1	3300024	OK	0.7436183	-0.6487126	0.1618757	0	-104.703	-27.048	2.776	B5-03822-P04-CH0	3300024	OK	0.6699693	-0.1029959	0.7352094	0	-133.434	-33.344	11.755	B5-03822-P04-CH1	3300024	OK	0.7661689	-0.6405391	0.0519121	0	-115.257	-45.589	6.353	NA
0.879306838524884	B5-03822-P01-CH0	3300032	OK	0.2287367	0.0785552	0.0676458	-0.9679528	100.657	43.036	-255.697	B5-03822-P02-CH0	3300032	OK	0.6615561	0.318143	-0.6790645	0	-88.299	-96.974	5.342	B5-03822-P02-CH1	3300032	OK	0.7433132	-0.0410884	-0.6676805	0	-83.046	-76.942	3.114	B5-03822-P03-CH0	3300032	OK	0.7424037	-0.5761604	-0.3418713	0	-98.066	-57.995	5.631	B5-03822-P03-CH1	3300032	OK	0.7462126	-0.6460495	0.1605828	0	-104.942	-26.116	4.161	B5-03822-P04-CH0	3300032	OK	0.6700795	-0.0983799	0.7357411	0	-133.033	-33.927	12.311	B5-03822-P04-CH1	3300032	OK	0.7657013	-0.6411507	0.0512581	0	-115.337	-45.547	6.254	NA
0.889298961689939	B5-03822-P01-CH0	3300040	OK	0.2289312	0.0783439	0.0680898	-0.9678928	100.556	43.067	-255.633	B5-03822-P02-CH0	3300040	OK	0.6609121	0.3176028	-0.6799438	0	-88.199	-97.316	5.095	B5-03822-P02-CH1	3300040	OK	0.7432452	-0.041506	-0.6677303	0	-82.968	-76.82	2.879	B5-03822-P03-CH0	3300040	OK	0.7428782	-0.5770728	-0.3392917	0	-98.141	-58.254	5.751	B5-03822-P03-CH1	3300040	OK	0.745822	-0.646627	0.160072	0	-104.753	-26.816	1.817	B5-03822-P04-CH0	3300040	OK	0.6703909	-0.1000109	0.7352373	0	-132.894	-33.745	11.483	B5-03822-P04-CH1	3300040	OK	0.7659485	-0.6408507	0.0513164	0	-115.147	-45.529	6.074	NA
0.899291084854995	B5-03822-P01-CH0	3300048	OK	0.2288244	0.0784264	0.0676532	-0.967942	100.551	42.989	-255.597	B5-03822-P02-CH0	3300048	OK	0.6633908	0.3177147	-0.6774733	0	-87.154	-98.227	4.748	B5-03822-P02-CH1	3300048	OK	0.7432564	-0.0415346	-0.6677161	0	-82.91	-76.793	2.933	B5-03822-P03-CH0	3300048	OK	0.7423982	-0.5781683	-0.3384763	0	-98.81	-58.771	4.66	B5-03822-P03-CH1	3300048	OK	0.7471257	-0.6451942	0.1597737	0	-104.534	-26.698	2.92	B5-03822-P04-CH0	3300048	OK	0.6719036	-0.1012051	0.7336914	0	-133.023	-32.901	11.78	B5-03822-P04-CH1	3300048	OK	0.765706	-0.6411812	0.0508026	0	-115.055	-45.524	6.213	NA
0.90928320802005	B5-03822-P01-CH0	3300056	OK	0.2286211	0.0786086	0.0670449	-0.9680176	100.614	42.919	-255.609	B5-03822-P02-CH0	3300056	OK	0.6643777	0.3180949	-0.6763268	0	-86.446	-98.419	4.4	B5-03822-P02-CH1	3300056	OK	0.7432427	-0.0411551	-0.6677549	0	-82.97	-76.693	3.065	B5-03822-P03-CH0	3300056	OK	0.7434314	-0.5789855	-0.3347918	0	-98.196	-58.854	5.887	B5-03822-P03-CH1	3300056	OK	0.7474956	-0.644721	0.1599534	0	-104.087	-27.027	3.515	B5-03822-P04-CH0	3300056	OK	0.6729579	-0.1008502	0.7327734	0	-133.114	-33.498	12.424	B5-03822-P04-CH1	3300056	OK	0.7652146	-0.6417709	0.0507622	0	-114.949	-45.628	6.264	NA
0.919275331185106	B5-03822-P01-CH0	3300064	OK	0.2289008	0.0786892	0.0670627	-0.9679437	100.632	42.924	-255.547	B5-03822-P02-CH0	3300064	OK	0.6628806	0.319154	-0.6772961	0	-87.071	-98.542	4.396	B5-03822-P02-CH1	3300064	OK	0.7433089	-0.0415368	-0.6676576	0	-82.958	-76.909	2.843	B5-03822-P03-CH0	3300064	OK	0.7421696	-0.5759049	-0.3428086	0	-98.345	-58.407	5.418	B5-03822-P03-CH1	3300064	OK	0.7491013	-0.6429065	0.1597453	0	-104.471	-26.81	3.87	B5-03822-P04-CH0	3300064	OK	0.6724291	-0.1022182	0.7330692	0	-132.643	-33.521	11.948	B5-03822-P04-CH1	3300064	OK	0.7652128	-0.6417703	0.050795	0	-114.876	-45.718	6.249	NA
0.929267454350161	B5-03822-P01-CH0	3300072	OK	0.228774	0.0788652	0.0666188	-0.96799	100.675	42.93	-255.535	B5-03822-P02-CH0	3300072	OK	0.6608649	0.3213205	-0.6782409	0	-87.853	-98.124	4.438	B5-03822-P02-CH1	3300072	OK	0.7434744	-0.0414025	-0.6674816	0	-82.968	-76.994	2.955	B5-03822-P03-CH0	3300072	OK	0.7421347	-0.5767681	-0.3414303	0	-98.309	-58.383	5.356	B5-03822-P03-CH1	3300072	OK	0.7491584	-0.6426497	0.1605089	0	-104.517	-26.84	3.535	B5-03822-P04-CH0	3300072	OK	0.6722633	-0.109752	0.7321315	0	-132.461	-31.974	11.011	B5-03822-P04-CH1	3300072	OK	0.7648975	-0.6421667	0.050534	0	-114.809	-45.732	6.285	NA
0.939259577515217	B5-03822-P01-CH0	3300080	OK	0.2289334	0.0788097	0.0668142	-0.9679434	100.686	42.929	-255.557	B5-03822-P02-CH0	3300080	OK	0.6627741	0.3188918	-0.6775238	0	-87.725	-98.219	5.515	B5-03822-P02-CH1	3300080	OK	0.7437431	-0.0412764	-0.6671899	0	-82.959	-76.932	2.967	B5-03822-P03-CH0	3300080	OK	0.7427328	-0.576801	-0.3400715	0	-98.227	-58.316	5.553	B5-03822-P03-CH1	3300080	OK	0.7487145	-0.6429215	0.1614886	0	-104.241	-27.367	3.748	B5-03822-P04-CH0	3300080	OK	0.6738552	-0.1083299	0.7308788	0	-132.221	-33.336	12.761	B5-03822-P04-CH1	3300080	OK	0.765133	-0.6419005	0.0503516	0	-114.758	-45.724	6.129	NA
0.949251700680272	B5-03822-P01-CH0	3300088	OK	0.2288414	0.0787714	0.0661444	-0.9680143	100.655	42.855	-255.522	B5-03822-P02-CH0	3300088	OK	0.6627526	0.319625	-0.6771993	0	-87.605	-98.359	5.432	B5-03822-P02-CH1	3300088	OK	0.7440769	-0.0414195	-0.6668088	0	-82.974	-76.933	3.065	B5-03822-P03-CH0	3300088	OK	0.7427821	-0.5771222	-0.3394183	0	-98.141	-58.331	5.638	B5-03822-P03-CH1	3300088	OK	0.7485664	-0.6427317	0.1629245	0	-103.899	-27.186	3.634	B5-03822-P04-CH0	3300088	OK	0.6732315	-0.1140461	0.7305839	0	-131.656	-31.984	11.659	B5-03822-P04-CH1	3300088	OK	0.7647551	-0.6423785	0.0499955	0	-114.753	-45.774	6.137	NA
