Wav.Time	B5.03822.P01.CH0	Frame	State	Q0	Qx	Qy	Qz	Tx	Ty	Tz	B5.03822.P02.CH0	Frame.1	State.1	Q0.1	Qx.1	Qy.1	Qz.1	Tx.1	Ty.1	Tz.1	B5.03822.P02.CH1	Frame.2	State.2	Q0.2	Qx.2	Qy.2	Qz.2	Tx.2	Ty.2	Tz.2	B5.03822.P03.CH0	Frame.3	State.3	Q0.3	Qx.3	Qy.3	Qz.3	Tx.3	Ty.3	Tz.3	B5.03822.P03.CH1	Frame.4	State.4	Q0.4	Qx.4	Qy.4	Qz.4	Tx.4	Ty.4	Tz.4	B5.03822.P04.CH0	Frame.5	State.5	Q0.5	Qx.5	Qy.5	Qz.5	Tx.5	Ty.5	Tz.5	B5.03822.P04.CH1	Frame.6	State.6	Q0.6	Qx.6	Qy.6	Qz.6	Tx.6	Ty.6	Tz.6	X
0	B5-03822-P01-CH0	364312	OK	0.2322629	0.0258247	0.052479	-0.9708929	103.264	-20.441	-236.44	B5-03822-P02-CH0	364312	OK	0.8288173	0.1437665	-0.5407338	0	-76.44	-97.364	5.877	B5-03822-P02-CH1	364312	OK	0.7999411	-0.1348461	-0.5847313	0	-74.691	-77.654	3.256	B5-03822-P03-CH0	364312	OK	0.8255083	-0.4057469	-0.3923079	0	-89.375	-59.279	8.68	B5-03822-P03-CH1	364312	OK	0.7810279	-0.5593463	-0.2777176	0	-95.389	-30.781	2.788	B5-03822-P04-CH0	364312	OK	0.7389568	-0.347768	0.5770617	0	-119.479	-39.822	9.38	B5-03822-P04-CH1	364312	OK	0.7367166	-0.6733974	0.0615189	0	-107.542	-46.467	0.667	NA
0.00999192897497982	B5-03822-P01-CH0	364320	OK	0.232137	0.0258538	0.0521752	-0.9709386	103.231	-20.414	-236.365	B5-03822-P02-CH0	364320	OK	0.8298764	0.1448229	-0.5388241	0	-76.673	-97.577	6.175	B5-03822-P02-CH1	364320	OK	0.8011006	-0.1319135	-0.5838122	0	-74.906	-77.35	3.673	B5-03822-P03-CH0	364320	OK	0.8255406	-0.4046055	-0.3934171	0	-90.313	-59.121	8.16	B5-03822-P03-CH1	364320	OK	0.7807876	-0.5597611	-0.2775575	0	-95.35	-30.791	2.759	B5-03822-P04-CH0	364320	OK	0.7388908	-0.3471796	0.5775003	0	-119.563	-39.911	9.423	B5-03822-P04-CH1	364320	OK	0.7365325	-0.6735944	0.0615666	0	-107.55	-46.462	0.674	NA
0.0199838579499596	B5-03822-P01-CH0	364328	OK	0.2322317	0.0259897	0.0520238	-0.9709204	103.294	-20.415	-236.369	B5-03822-P02-CH0	364328	OK	0.8304751	0.145939	-0.5375991	0	-77.211	-97.64	7.09	B5-03822-P02-CH1	364328	OK	0.8017877	-0.1302604	-0.5832399	0	-75.384	-77.214	3.87	B5-03822-P03-CH0	364328	OK	0.8272895	-0.4043064	-0.3900365	0	-90.194	-59.403	8.718	B5-03822-P03-CH1	364328	OK	0.7805694	-0.5601683	-0.2773498	0	-95.433	-30.823	2.828	B5-03822-P04-CH0	364328	OK	0.7389293	-0.3461424	0.5780734	0	-119.679	-40.098	9.53	B5-03822-P04-CH1	364328	OK	0.7365273	-0.6735563	0.0620435	0	-107.633	-46.534	0.926	NA
0.0299757869249395	B5-03822-P01-CH0	364336	OK	0.2320509	0.0258758	0.0516741	-0.9709854	103.211	-20.39	-236.329	B5-03822-P02-CH0	364336	OK	0.8322019	0.1468167	-0.534682	0	-77.462	-97.938	6.642	B5-03822-P02-CH1	364336	OK	0.8027961	-0.1289309	-0.582147	0	-75.603	-77.472	3.724	B5-03822-P03-CH0	364336	OK	0.8291267	-0.4032928	-0.3871741	0	-90.3	-59.263	9.097	B5-03822-P03-CH1	364336	OK	0.780345	-0.5605618	-0.2771863	0	-95.401	-30.693	2.781	B5-03822-P04-CH0	364336	OK	0.7388223	-0.3449724	0.578909	0	-119.806	-40.209	9.548	B5-03822-P04-CH1	364336	OK	0.7364002	-0.6736946	0.0620512	0	-107.659	-46.388	0.694	NA
0.0399677158999193	B5-03822-P01-CH0	364344	OK	0.2321034	0.0258458	0.051833	-0.9709652	103.214	-20.338	-236.321	B5-03822-P02-CH0	364344	OK	0.833891	0.1492621	-0.531363	0	-77.569	-97.858	7.182	B5-03822-P02-CH1	364344	OK	0.8044516	-0.1274931	-0.5801751	0	-75.36	-77.326	4.012	B5-03822-P03-CH0	364344	OK	0.8312432	-0.4029582	-0.3829615	0	-90.134	-59.441	9.231	B5-03822-P03-CH1	364344	OK	0.7802939	-0.5608512	-0.2767444	0	-95.439	-30.64	2.815	B5-03822-P04-CH0	364344	OK	0.7389562	-0.343132	0.5798312	0	-120.002	-40.428	9.627	B5-03822-P04-CH1	364344	OK	0.7366005	-0.6734448	0.0623844	0	-107.776	-46.303	0.524	NA
0.0499596448748991	B5-03822-P01-CH0	364352	OK	0.2319194	0.025903	0.0513083	-0.9710355	103.219	-20.386	-236.273	B5-03822-P02-CH0	364352	OK	0.835767	0.1510344	-0.5279036	0	-77.651	-98.115	6.967	B5-03822-P02-CH1	364352	OK	0.804529	-0.1264138	-0.5803039	0	-75.357	-77.505	3.122	B5-03822-P03-CH0	364352	OK	0.8318699	-0.4044797	-0.379985	0	-89.818	-59.906	8.65	B5-03822-P03-CH1	364352	OK	0.7798257	-0.561592	-0.2765615	0	-95.456	-30.646	2.816	B5-03822-P04-CH0	364352	OK	0.7379946	-0.3370989	0.5845754	0	-120.145	-39.751	7.553	B5-03822-P04-CH1	364352	OK	0.7362461	-0.6738081	0.0626444	0	-107.772	-46.351	0.637	NA
0.0599515738498789	B5-03822-P01-CH0	364360	OK	0.2320142	0.0259212	0.051683	-0.9709925	103.263	-20.325	-236.314	B5-03822-P02-CH0	364360	OK	0.8374113	0.1529572	-0.5247347	0	-77.815	-97.865	7.533	B5-03822-P02-CH1	364360	OK	0.8044433	-0.1259503	-0.5805234	0	-75.469	-77.745	4.071	B5-03822-P03-CH0	364360	OK	0.8318123	-0.403413	-0.3812431	0	-90.28	-59.767	9.041	B5-03822-P03-CH1	364360	OK	0.7798112	-0.5618927	-0.275991	0	-95.513	-30.655	2.92	B5-03822-P04-CH0	364360	OK	0.738337	-0.3360787	0.5847304	0	-120.053	-39.97	8.438	B5-03822-P04-CH1	364360	OK	0.7365315	-0.6734545	0.0630903	0	-107.94	-46.366	0.752	NA
0.0699435028248588	B5-03822-P01-CH0	364368	OK	0.232152	0.0257584	0.0521052	-0.9709413	103.228	-20.281	-236.339	B5-03822-P02-CH0	364368	OK	0.839276	0.1533882	-0.5216204	0	-77.96	-98.076	7.383	B5-03822-P02-CH1	364368	OK	0.8043791	-0.1261424	-0.5805708	0	-75.635	-77.693	4.906	B5-03822-P03-CH0	364368	OK	0.8315165	-0.4034656	-0.3818322	0	-90.508	-59.552	8.994	B5-03822-P03-CH1	364368	OK	0.7799417	-0.5620549	-0.2752914	0	-95.542	-30.542	2.914	B5-03822-P04-CH0	364368	OK	0.7380847	-0.3344657	0.5859723	0	-119.695	-40.04	9.142	B5-03822-P04-CH1	364368	OK	0.7367311	-0.6731909	0.0635711	0	-107.955	-46.386	0.638	NA
0.0799354317998386	B5-03822-P01-CH0	364376	OK	0.2323044	0.0255467	0.0524798	-0.9708903	103.174	-20.274	-236.318	B5-03822-P02-CH0	364376	OK	0.8419745	0.1541598	-0.5170239	0	-77.842	-97.699	7.333	B5-03822-P02-CH1	364376	OK	0.804297	-0.1250921	-0.5809117	0	-75.632	-77.544	3.433	B5-03822-P03-CH0	364376	OK	0.8313015	-0.4046405	-0.3810562	0	-90.43	-59.431	8.523	B5-03822-P03-CH1	364376	OK	0.7800064	-0.5623015	-0.2746035	0	-95.566	-30.464	2.846	B5-03822-P04-CH0	364376	OK	0.7386649	-0.3317614	0.5867781	0	-120.001	-39.891	8.636	B5-03822-P04-CH1	364376	OK	0.7369572	-0.6728849	0.0641868	0	-107.963	-46.481	0.823	NA
0.0899273607748184	B5-03822-P01-CH0	364384	OK	0.232429	0.0253456	0.0528514	-0.9708455	103.097	-20.27	-236.317	B5-03822-P02-CH0	364384	OK	0.8433564	0.153886	-0.5148486	0	-78.319	-97.504	7.947	B5-03822-P02-CH1	364384	OK	0.8053989	-0.1248166	-0.5794423	0	-75.198	-77.241	3.954	B5-03822-P03-CH0	364384	OK	0.8309996	-0.4056998	-0.3805882	0	-90.34	-59.374	8.28	B5-03822-P03-CH1	364384	OK	0.7800554	-0.5626633	-0.2737219	0	-95.508	-30.465	2.904	B5-03822-P04-CH0	364384	OK	0.7389452	-0.329412	0.587748	0	-120.314	-39.953	7.667	B5-03822-P04-CH1	364384	OK	0.7370536	-0.6727526	0.0644664	0	-107.808	-46.517	0.544	NA
0.0999192897497982	B5-03822-P01-CH0	364392	OK	0.2323468	0.0253932	0.0528538	-0.9708639	103.107	-20.325	-236.318	B5-03822-P02-CH0	364392	OK	0.8454717	0.15292	-0.5116572	0	-78.412	-97.934	7.89	B5-03822-P02-CH1	364392	OK	0.8061183	-0.1251637	-0.5783661	0	-75.149	-77.086	3.912	B5-03822-P03-CH0	364392	OK	0.8303364	-0.4082424	-0.3793147	0	-90.434	-59.63	8.351	B5-03822-P03-CH1	364392	OK	0.7798242	-0.563259	-0.2731549	0	-95.504	-30.514	2.846	B5-03822-P04-CH0	364392	OK	0.7389603	-0.3327315	0.5858561	0	-120.301	-40.943	9.112	B5-03822-P04-CH1	364392	OK	0.7370198	-0.6727431	0.0649505	0	-107.835	-46.623	0.848	NA
0.109911218724778	B5-03822-P01-CH0	364400	OK	0.232251	0.0254439	0.0530012	-0.9708774	103.137	-20.339	-236.349	B5-03822-P02-CH0	364400	OK	0.8458939	0.1515949	-0.5113536	0	-79.151	-98.24	8.886	B5-03822-P02-CH1	364400	OK	0.8048289	-0.1258297	-0.5800149	0	-75.345	-77.302	3.384	B5-03822-P03-CH0	364400	OK	0.8313804	-0.4112506	-0.3737373	0	-90.316	-59.668	8.74	B5-03822-P03-CH1	364400	OK	0.7796973	-0.5636685	-0.2726719	0	-95.61	-30.479	2.876	B5-03822-P04-CH0	364400	OK	0.7390715	-0.3311056	0.5866365	0	-120.413	-40.961	9.056	B5-03822-P04-CH1	364400	OK	0.7371061	-0.67261	0.0653472	0	-107.916	-46.691	0.974	NA
0.119903147699758	B5-03822-P01-CH0	364408	OK	0.2321028	0.0251942	0.0532625	-0.9709051	103.04	-20.372	-236.368	B5-03822-P02-CH0	364408	OK	0.8475486	0.1535579	-0.5080171	0	-78.875	-97.674	8.17	B5-03822-P02-CH1	364408	OK	0.8051731	-0.1248959	-0.579739	0	-75.333	-77.293	3.567	B5-03822-P03-CH0	364408	OK	0.832912	-0.4146995	-0.3664451	0	-90.173	-59.576	8.914	B5-03822-P03-CH1	364408	OK	0.7797664	-0.5639861	-0.2718162	0	-95.507	-30.483	2.795	B5-03822-P04-CH0	364408	OK	0.7390193	-0.3298642	0.5874011	0	-120.388	-40.891	8.875	B5-03822-P04-CH1	364408	OK	0.7371793	-0.6725308	0.0653378	0	-107.875	-46.651	0.557	NA
0.129895076674738	B5-03822-P01-CH0	364416	OK	0.2320273	0.0252188	0.0533286	-0.9709189	103.02	-20.422	-236.306	B5-03822-P02-CH0	364416	OK	0.8485662	0.1525683	-0.5066146	0	-79.072	-97.617	8.742	B5-03822-P02-CH1	364416	OK	0.8052338	-0.1244626	-0.5797479	0	-75.377	-77.328	3.518	B5-03822-P03-CH0	364416	OK	0.8331471	-0.4208623	-0.3588047	0	-90.224	-59.79	8.78	B5-03822-P03-CH1	364416	OK	0.7796421	-0.5644123	-0.2712875	0	-95.572	-30.441	2.675	B5-03822-P04-CH0	364416	OK	0.7390179	-0.3289699	0.5879042	0	-120.358	-40.795	8.731	B5-03822-P04-CH1	364416	OK	0.7372074	-0.6724744	0.0656012	0	-107.928	-46.71	0.707	NA
0.139887005649718	B5-03822-P01-CH0	364424	OK	0.2318488	0.025441	0.0529472	-0.9709766	103.038	-20.517	-236.243	B5-03822-P02-CH0	364424	OK	0.850686	0.1506249	-0.5036323	0	-79.143	-97.44	8.526	B5-03822-P02-CH1	364424	OK	0.8051874	-0.1242284	-0.5798625	0	-75.509	-77.338	3.33	B5-03822-P03-CH0	364424	OK	0.8320908	-0.4276117	-0.3532324	0	-90.062	-60.161	8.438	B5-03822-P03-CH1	364424	OK	0.7792149	-0.5652151	-0.2708432	0	-95.587	-30.539	2.677	B5-03822-P04-CH0	364424	OK	0.7388993	-0.328435	0.5883522	0	-120.363	-40.769	8.633	B5-03822-P04-CH1	364424	OK	0.7367278	-0.6729954	0.0656457	0	-107.93	-46.885	0.646	NA
0.149878934624697	B5-03822-P01-CH0	364432	OK	0.2318667	0.0255167	0.0531252	-0.9709606	103.017	-20.55	-236.17	B5-03822-P02-CH0	364432	OK	0.8532184	0.1490569	-0.4998003	0	-79.447	-97.187	8.162	B5-03822-P02-CH1	364432	OK	0.8081234	-0.1241274	-0.5757855	0	-76.029	-77.072	3.836	B5-03822-P03-CH0	364432	OK	0.8315387	-0.4291066	-0.3527194	0	-89.98	-59.903	8.925	B5-03822-P03-CH1	364432	OK	0.7791319	-0.565721	-0.2700245	0	-95.547	-30.567	2.625	B5-03822-P04-CH0	364432	OK	0.738974	-0.326967	0.5890756	0	-120.44	-41.013	8.738	B5-03822-P04-CH1	364432	OK	0.7368522	-0.6728552	0.065687	0	-107.864	-46.844	0.422	NA
0.159870863599677	B5-03822-P01-CH0	364440	OK	0.2317247	0.025478	0.0533499	-0.9709832	102.975	-20.569	-236.125	B5-03822-P02-CH0	364440	OK	0.8551984	0.1461846	-0.4972582	0	-80.391	-97.676	9.521	B5-03822-P02-CH1	364440	OK	0.8119753	-0.1211264	-0.5709855	0	-75.774	-76.715	3.871	B5-03822-P03-CH0	364440	OK	0.8310739	-0.4289088	-0.3540529	0	-89.536	-59.972	8.963	B5-03822-P03-CH1	364440	OK	0.779066	-0.5662038	-0.2692014	0	-95.475	-30.581	2.542	B5-03822-P04-CH0	364440	OK	0.7391514	-0.3259698	0.5894055	0	-120.591	-41.043	8.691	B5-03822-P04-CH1	364440	OK	0.7370113	-0.6726794	0.0657017	0	-108.001	-46.779	0.342	NA
0.169862792574657	B5-03822-P01-CH0	364448	OK	0.2314244	0.0257761	0.0527411	-0.9710802	103.035	-20.68	-236.076	B5-03822-P02-CH0	364448	OK	0.8578887	0.146791	-0.4924219	0	-80.77	-97.348	9.549	B5-03822-P02-CH1	364448	OK	0.8151522	-0.1137085	-0.5679765	0	-76.495	-76.553	4.188	B5-03822-P03-CH0	364448	OK	0.82855	-0.4251555	-0.3643456	0	-89.735	-60.007	8.307	B5-03822-P03-CH1	364448	OK	0.7784474	-0.5671714	-0.268954	0	-95.522	-30.682	2.636	B5-03822-P04-CH0	364448	OK	0.7391134	-0.3257358	0.5895826	0	-120.76	-41.039	8.631	B5-03822-P04-CH1	364448	OK	0.7365517	-0.6732137	0.0653823	0	-108.071	-46.831	0.298	NA
0.179854721549637	B5-03822-P01-CH0	364456	OK	0.2314692	0.0258029	0.0531881	-0.9710444	103.039	-20.662	-236.134	B5-03822-P02-CH0	364456	OK	0.8601689	0.1452108	-0.4889001	0	-81.494	-97.542	10.102	B5-03822-P02-CH1	364456	OK	0.818642	-0.1065677	-0.5643302	0	-76.894	-76.985	4.61	B5-03822-P03-CH0	364456	OK	0.8253011	-0.4158872	-0.3819894	0	-89.875	-59.426	8.493	B5-03822-P03-CH1	364456	OK	0.7785171	-0.567556	-0.2679389	0	-95.433	-30.752	2.696	B5-03822-P04-CH0	364456	OK	0.7393383	-0.32507	0.589668	0	-120.841	-40.982	8.703	B5-03822-P04-CH1	364456	OK	0.7368145	-0.6729262	0.0653815	0	-108.061	-46.783	0.234	NA
0.189846650524617	B5-03822-P01-CH0	364464	OK	0.231046	0.026017	0.0524371	-0.9711803	103.06	-20.736	-236.047	B5-03822-P02-CH0	364464	OK	0.8638241	0.1436688	-0.4828739	0	-81.627	-97.321	10.241	B5-03822-P02-CH1	364464	OK	0.821774	-0.0997765	-0.5610099	0	-77.241	-77.007	5.052	B5-03822-P03-CH0	364464	OK	0.8189911	-0.4052635	-0.4062206	0	-89.454	-59.405	8.078	B5-03822-P03-CH1	364464	OK	0.7779664	-0.5683175	-0.2679244	0	-95.382	-30.733	2.657	B5-03822-P04-CH0	364464	OK	0.7390511	-0.3254721	0.5898062	0	-120.92	-40.905	8.703	B5-03822-P04-CH1	364464	OK	0.7363502	-0.6734894	0.06481	0	-108.309	-46.728	0.429	NA
0.199838579499596	B5-03822-P01-CH0	364472	OK	0.2308925	0.0260256	0.0525956	-0.971208	103.049	-20.702	-236.039	B5-03822-P02-CH0	364472	OK	0.8662633	0.1438568	-0.4784277	0	-81.905	-97.069	10.448	B5-03822-P02-CH1	364472	OK	0.824842	-0.0918829	-0.557847	0	-77.41	-76.826	5.182	B5-03822-P03-CH0	364472	OK	0.8117468	-0.3880495	-0.4364456	0	-88.702	-59.243	7.862	B5-03822-P03-CH1	364472	OK	0.7779394	-0.5685189	-0.2675754	0	-95.339	-30.654	2.729	B5-03822-P04-CH0	364472	OK	0.7390537	-0.325699	0.5896777	0	-121.01	-40.627	8.488	B5-03822-P04-CH1	364472	OK	0.7365681	-0.673308	0.0642166	0	-108.356	-46.53	0.386	NA
0.209830508474576	B5-03822-P01-CH0	364480	OK	0.230658	0.0258233	0.0525215	-0.9712731	102.967	-20.731	-236.02	B5-03822-P02-CH0	364480	OK	0.8681554	0.142463	-0.4754056	0	-82.242	-97.212	9.728	B5-03822-P02-CH1	364480	OK	0.8273754	-0.0869776	-0.5548738	0	-77.456	-76.925	5.055	B5-03822-P03-CH0	364480	OK	0.8021241	-0.3653587	-0.4723452	0	-88.807	-58.465	7.085	B5-03822-P03-CH1	364480	OK	0.7777871	-0.5688128	-0.2673935	0	-95.233	-30.62	2.8	B5-03822-P04-CH0	364480	OK	0.7386402	-0.3266431	0.5896736	0	-120.965	-40.199	7.932	B5-03822-P04-CH1	364480	OK	0.7366368	-0.6733134	0.0633666	0	-108.286	-46.311	0.275	NA
0.219822437449556	B5-03822-P01-CH0	364488	OK	0.2305144	0.0258082	0.0525584	-0.9713056	102.955	-20.726	-235.985	B5-03822-P02-CH0	364488	OK	0.8695015	0.1435338	-0.4726153	0	-81.913	-96.619	9.431	B5-03822-P02-CH1	364488	OK	0.8281736	-0.0819006	-0.5544554	0	-77.432	-76.825	4.96	B5-03822-P03-CH0	364488	OK	0.793953	-0.3434588	-0.5016719	0	-87.371	-58.364	6.757	B5-03822-P03-CH1	364488	OK	0.777617	-0.5690937	-0.2672904	0	-95.216	-30.502	2.662	B5-03822-P04-CH0	364488	OK	0.7383467	-0.3270092	0.5898382	0	-121.054	-39.925	7.601	B5-03822-P04-CH1	364488	OK	0.7366382	-0.6733762	0.0626792	0	-108.249	-46.23	0.335	NA
0.229814366424536	B5-03822-P01-CH0	364496	OK	0.2303896	0.0258971	0.0526569	-0.9713276	103.002	-20.711	-235.98	B5-03822-P02-CH0	364496	OK	0.8691055	0.1410124	-0.4741004	0	-81.925	-96.66	10.595	B5-03822-P02-CH1	364496	OK	0.8267015	-0.0767848	-0.5573766	0	-77.73	-76.841	5.296	B5-03822-P03-CH0	364496	OK	0.7848519	-0.3237426	-0.5283921	0	-87.14	-58.091	6.327	B5-03822-P03-CH1	364496	OK	0.7773694	-0.5694837	-0.2671799	0	-95.197	-30.56	2.79	B5-03822-P04-CH0	364496	OK	0.7350426	-0.3259483	0.5945335	0	-121.226	-39.385	8.105	B5-03822-P04-CH1	364496	OK	0.736767	-0.673318	0.0617833	0	-108.275	-46.076	0.314	NA
0.239806295399516	B5-03822-P01-CH0	364504	OK	0.2302331	0.0257565	0.0528746	-0.9713566	102.998	-20.688	-236.013	B5-03822-P02-CH0	364504	OK	0.868497	0.1394463	-0.475676	0	-81.723	-96.608	9.979	B5-03822-P02-CH1	364504	OK	0.824656	-0.071211	-0.561134	0	-77.383	-76.793	4.371	B5-03822-P03-CH0	364504	OK	0.7800292	-0.3153616	-0.5404642	0	-86.631	-58.183	6.147	B5-03822-P03-CH1	364504	OK	0.7772651	-0.5695733	-0.2672925	0	-95.205	-30.482	2.763	B5-03822-P04-CH0	364504	OK	0.7321579	-0.3250098	0.5985929	0	-120.674	-39.52	8.747	B5-03822-P04-CH1	364504	OK	0.7371012	-0.6730441	0.0607741	0	-108.274	-45.866	0.431	NA
0.249798224374496	B5-03822-P01-CH0	364512	OK	0.2298313	0.0255242	0.0526124	-0.9714721	102.959	-20.71	-236.105	B5-03822-P02-CH0	364512	OK	0.8671222	0.1386095	-0.4784209	0	-81.859	-96.092	9.242	B5-03822-P02-CH1	364512	OK	0.8219929	-0.0674989	-0.5654835	0	-76.838	-76.659	4.385	B5-03822-P03-CH0	364512	OK	0.7783396	-0.3126986	-0.5444328	0	-86.125	-57.655	5.23	B5-03822-P03-CH1	364512	OK	0.776992	-0.5697977	-0.267608	0	-95.183	-30.408	2.911	B5-03822-P04-CH0	364512	OK	0.7303901	-0.3252595	0.6006135	0	-120.569	-38.934	8.594	B5-03822-P04-CH1	364512	OK	0.7368502	-0.6734294	0.0595365	0	-108.18	-45.76	0.421	NA
0.259790153349475	B5-03822-P01-CH0	364520	OK	0.2295767	0.0253744	0.0524264	-0.9715463	102.929	-20.746	-236.118	B5-03822-P02-CH0	364520	OK	0.8662592	0.1373367	-0.4803474	0	-81.568	-95.631	8.748	B5-03822-P02-CH1	364520	OK	0.8177509	-0.0645825	-0.5719376	0	-76.706	-76.563	4.805	B5-03822-P03-CH0	364520	OK	0.7753166	-0.314562	-0.5476632	0	-85.693	-58.308	6.28	B5-03822-P03-CH1	364520	OK	0.7767116	-0.5699912	-0.2680096	0	-95.235	-30.317	2.973	B5-03822-P04-CH0	364520	OK	0.728993	-0.3238752	0.603054	0	-120.517	-39.202	9.167	B5-03822-P04-CH1	364520	OK	0.7367186	-0.6736727	0.058402	0	-108.035	-45.658	0.349	NA
0.269782082324455	B5-03822-P01-CH0	364528	OK	0.2293559	0.025024	0.0523866	-0.9716097	102.827	-20.741	-236.158	B5-03822-P02-CH0	364528	OK	0.8665008	0.1309969	-0.4816805	0	-80.753	-95.753	9.56	B5-03822-P02-CH1	364528	OK	0.8127725	-0.0633159	-0.5791304	0	-76.603	-76.675	3.881	B5-03822-P03-CH0	364528	OK	0.773868	-0.3170335	-0.5482865	0	-84.928	-58.506	6.217	B5-03822-P03-CH1	364528	OK	0.7765068	-0.5701881	-0.2681839	0	-95.144	-30.24	2.953	B5-03822-P04-CH0	364528	OK	0.7280333	-0.3219009	0.6052664	0	-120.435	-39.276	9.157	B5-03822-P04-CH1	364528	OK	0.736901	-0.6735535	0.0574683	0	-107.928	-45.428	0.474	NA
0.279774011299435	B5-03822-P01-CH0	364536	OK	0.2289949	0.0247834	0.0522608	-0.9717077	102.765	-20.765	-236.183	B5-03822-P02-CH0	364536	OK	0.8652133	0.1258191	-0.4853613	0	-80.449	-96.184	8.844	B5-03822-P02-CH1	364536	OK	0.8089892	-0.0643088	-0.5842952	0	-75.795	-76.968	3.256	B5-03822-P03-CH0	364536	OK	0.7705776	-0.3215414	-0.5502921	0	-85.929	-57.963	4.506	B5-03822-P03-CH1	364536	OK	0.7762418	-0.5703098	-0.2686922	0	-95.191	-30.068	2.842	B5-03822-P04-CH0	364536	OK	0.7264264	-0.3205388	0.6079141	0	-120.084	-39.103	9.216	B5-03822-P04-CH1	364536	OK	0.7368543	-0.6737099	0.0562203	0	-107.857	-45.31	0.443	NA
0.289765940274415	B5-03822-P01-CH0	364544	OK	0.2289151	0.0245924	0.0527226	-0.9717065	102.742	-20.741	-236.231	B5-03822-P02-CH0	364544	OK	0.8631356	0.1247886	-0.4893105	0	-80.317	-95.423	8.433	B5-03822-P02-CH1	364544	OK	0.805555	-0.0646451	-0.5889841	0	-75.204	-76.783	3.136	B5-03822-P03-CH0	364544	OK	0.7717354	-0.3283744	-0.5446052	0	-84.788	-57.12	3.892	B5-03822-P03-CH1	364544	OK	0.7761774	-0.5703303	-0.2688344	0	-95.243	-29.993	2.82	B5-03822-P04-CH0	364544	OK	0.7257995	-0.3170076	0.610509	0	-120.255	-38.839	8.827	B5-03822-P04-CH1	364544	OK	0.7373266	-0.6732553	0.0554693	0	-107.741	-45.138	0.397	NA
0.299757869249395	B5-03822-P01-CH0	364552	OK	0.2287079	0.0242922	0.0527483	-0.9717614	102.653	-20.791	-236.247	B5-03822-P02-CH0	364552	OK	0.861294	0.1217177	-0.4933127	0	-80.085	-95.393	8.482	B5-03822-P02-CH1	364552	OK	0.8026476	-0.0663169	-0.5927554	0	-74.901	-76.627	2.238	B5-03822-P03-CH0	364552	OK	0.7717814	-0.3333346	-0.5415178	0	-84.136	-57.312	5.461	B5-03822-P03-CH1	364552	OK	0.7759084	-0.5706254	-0.2689847	0	-95.133	-30.022	2.736	B5-03822-P04-CH0	364552	OK	0.7243541	-0.3147092	0.613408	0	-119.994	-38.112	7.703	B5-03822-P04-CH1	364552	OK	0.7373631	-0.6732776	0.0547082	0	-107.627	-45.083	0.335	NA
0.309749798224375	B5-03822-P01-CH0	364560	OK	0.2286126	0.0242441	0.0528812	-0.9717778	102.634	-20.806	-236.257	B5-03822-P02-CH0	364560	OK	0.8608338	0.1206332	-0.4943812	0	-79.235	-95.234	7.585	B5-03822-P02-CH1	364560	OK	0.8020564	-0.0684776	-0.5933097	0	-74.342	-76.701	3.29	B5-03822-P03-CH0	364560	OK	0.7727825	-0.3404524	-0.5356299	0	-83.22	-58.506	7.124	B5-03822-P03-CH1	364560	OK	0.7757625	-0.5707319	-0.2691796	0	-95.018	-29.975	2.499	B5-03822-P04-CH0	364560	OK	0.7238811	-0.3089829	0.6168677	0	-120.048	-38.518	8.49	B5-03822-P04-CH1	364560	OK	0.7373625	-0.6733233	0.0541509	0	-107.551	-45.096	0.292	NA
0.319741727199354	B5-03822-P01-CH0	364568	OK	0.2284319	0.0242589	0.0528972	-0.9718191	102.626	-20.814	-236.254	B5-03822-P02-CH0	364568	OK	0.8578628	0.1179896	-0.5001498	0	-79.601	-95.383	8.051	B5-03822-P02-CH1	364568	OK	0.801821	-0.0718737	-0.5932262	0	-74.614	-76.932	3.196	B5-03822-P03-CH0	364568	OK	0.7724779	-0.3458924	-0.5325752	0	-83.924	-58.8	6.193	B5-03822-P03-CH1	364568	OK	0.7754515	-0.5708459	-0.2698331	0	-95.055	-29.987	2.555	B5-03822-P04-CH0	364568	OK	0.7244032	-0.3038318	0.6188103	0	-120.607	-39.192	9.29	B5-03822-P04-CH1	364568	OK	0.7373818	-0.6733516	0.0535323	0	-107.558	-45.048	0.379	NA
0.329733656174334	B5-03822-P01-CH0	364576	OK	0.228291	0.0240071	0.0528141	-0.9718629	102.549	-20.837	-236.308	B5-03822-P02-CH0	364576	OK	0.8564894	0.1154007	-0.503099	0	-79.279	-95.464	7.761	B5-03822-P02-CH1	364576	OK	0.8038119	-0.0733522	-0.5903439	0	-74.367	-76.871	2.797	B5-03822-P03-CH0	364576	OK	0.7739839	-0.3473217	-0.5294493	0	-84.541	-58.576	5.245	B5-03822-P03-CH1	364576	OK	0.7752996	-0.5707713	-0.270427	0	-94.993	-29.918	2.517	B5-03822-P04-CH0	364576	OK	0.7242687	-0.3010339	0.6203334	0	-120.41	-38.926	10.101	B5-03822-P04-CH1	364576	OK	0.7373362	-0.6734412	0.0530305	0	-107.483	-44.999	0.486	NA
0.339725585149314	B5-03822-P01-CH0	364584	OK	0.2282154	0.0239057	0.0528858	-0.9718793	102.521	-20.86	-236.392	B5-03822-P02-CH0	364584	OK	0.8550989	0.1117315	-0.5062825	0	-79.113	-95.616	8.063	B5-03822-P02-CH1	364584	OK	0.8041718	-0.0742219	-0.5897447	0	-74.572	-77.848	3.099	B5-03822-P03-CH0	364584	OK	0.7758566	-0.3509107	-0.5243168	0	-84.644	-58.234	4.441	B5-03822-P03-CH1	364584	OK	0.7751898	-0.5706998	-0.270892	0	-94.894	-29.929	2.582	B5-03822-P04-CH0	364584	OK	0.7237534	-0.298723	0.6220495	0	-120.135	-38.542	9.521	B5-03822-P04-CH1	364584	OK	0.73726	-0.6735447	0.0527758	0	-107.204	-45.03	0.618	NA
0.349717514124294	B5-03822-P01-CH0	364592	OK	0.228337	0.0238871	0.053311	-0.971828	102.534	-20.832	-236.471	B5-03822-P02-CH0	364592	OK	0.8530617	0.1092303	-0.5102494	0	-78.861	-95.69	7.597	B5-03822-P02-CH1	364592	OK	0.8048488	-0.0731003	-0.5889607	0	-73.945	-77.613	2.578	B5-03822-P03-CH0	364592	OK	0.7771985	-0.3599218	-0.5161577	0	-84.616	-58.352	4.868	B5-03822-P03-CH1	364592	OK	0.7752725	-0.5703009	-0.2714949	0	-94.84	-29.916	2.633	B5-03822-P04-CH0	364592	OK	0.7240835	-0.2940706	0.6238794	0	-120.587	-38.198	8.441	B5-03822-P04-CH1	364592	OK	0.737642	-0.6731424	0.0525699	0	-107.295	-44.967	0.836	NA
0.359709443099274	B5-03822-P01-CH0	364600	OK	0.228584	0.0238863	0.0537488	-0.9717458	102.566	-20.791	-236.521	B5-03822-P02-CH0	364600	OK	0.8513825	0.1093459	-0.5130217	0	-78.402	-95.202	6.997	B5-03822-P02-CH1	364600	OK	0.8006817	-0.0716126	-0.5947944	0	-74.315	-77.63	3.439	B5-03822-P03-CH0	364600	OK	0.7787729	-0.3752556	-0.5026888	0	-84.284	-58.498	4.655	B5-03822-P03-CH1	364600	OK	0.7754111	-0.5698347	-0.2720772	0	-94.842	-29.813	2.488	B5-03822-P04-CH0	364600	OK	0.7232727	-0.2918038	0.625881	0	-119.987	-37.131	8.096	B5-03822-P04-CH1	364600	OK	0.7379087	-0.6728443	0.0526425	0	-107.393	-45.02	0.9	NA
0.369701372074253	B5-03822-P01-CH0	364608	OK	0.2287558	0.0239975	0.054063	-0.9716852	102.615	-20.712	-236.497	B5-03822-P02-CH0	364608	OK	0.8516509	0.1094866	-0.5125461	0	-77.683	-95.238	7.378	B5-03822-P02-CH1	364608	OK	0.7960478	-0.0675933	-0.6014475	0	-73.496	-77.258	3.029	B5-03822-P03-CH0	364608	OK	0.7800853	-0.3938391	-0.4861664	0	-83.875	-58.403	4.916	B5-03822-P03-CH1	364608	OK	0.7755115	-0.5693432	-0.272819	0	-94.887	-29.735	2.41	B5-03822-P04-CH0	364608	OK	0.723852	-0.2871065	0.6273819	0	-120.448	-37.126	7.665	B5-03822-P04-CH1	364608	OK	0.7379948	-0.6727484	0.0526623	0	-107.394	-45.006	0.764	NA
0.379693301049233	B5-03822-P01-CH0	364616	OK	0.2288474	0.0241478	0.0539811	-0.9716644	102.643	-20.687	-236.424	B5-03822-P02-CH0	364616	OK	0.8530979	0.1096829	-0.5100917	0	-77.416	-94.878	7.311	B5-03822-P02-CH1	364616	OK	0.7904974	-0.0632267	-0.6091932	0	-72.785	-76.96	2.056	B5-03822-P03-CH0	364616	OK	0.7809654	-0.4153767	-0.4664282	0	-83.841	-58.282	5.076	B5-03822-P03-CH1	364616	OK	0.7754316	-0.5690682	-0.2736189	0	-94.857	-29.721	2.407	B5-03822-P04-CH0	364616	OK	0.7242642	-0.2811684	0.6295917	0	-120.901	-37.817	8.175	B5-03822-P04-CH1	364616	OK	0.7380367	-0.6727042	0.05264	0	-107.545	-44.918	0.851	NA
0.389685230024213	B5-03822-P01-CH0	364624	OK	0.2289282	0.0241886	0.0537463	-0.9716574	102.663	-20.668	-236.441	B5-03822-P02-CH0	364624	OK	0.8545448	0.1087246	-0.5078701	0	-78.002	-94.821	7.381	B5-03822-P02-CH1	364624	OK	0.782918	-0.0531657	-0.6198491	0	-72.677	-77.355	0.992	B5-03822-P03-CH0	364624	OK	0.7819554	-0.4375791	-0.443926	0	-83.907	-57.984	4.775	B5-03822-P03-CH1	364624	OK	0.7753895	-0.568786	-0.2743238	0	-94.859	-29.673	2.432	B5-03822-P04-CH0	364624	OK	0.7245698	-0.2792684	0.6300855	0	-120.862	-37.657	8.157	B5-03822-P04-CH1	364624	OK	0.7377879	-0.6729665	0.0527746	0	-107.638	-44.937	0.653	NA
0.399677158999193	B5-03822-P01-CH0	364632	OK	0.2291906	0.024406	0.0538176	-0.9715862	102.756	-20.584	-236.466	B5-03822-P02-CH0	364632	OK	0.8585713	0.1102364	-0.5007028	0	-77.716	-94.594	7.532	B5-03822-P02-CH1	364632	OK	0.775028	-0.0407913	-0.630609	0	-72.256	-77.398	1.238	B5-03822-P03-CH0	364632	OK	0.7840717	-0.4603341	-0.416322	0	-83.877	-57.921	5.273	B5-03822-P03-CH1	364632	OK	0.7755332	-0.5684115	-0.2746935	0	-94.959	-29.583	2.514	B5-03822-P04-CH0	364632	OK	0.7256347	-0.2777256	0.6295417	0	-120.999	-37.394	7.553	B5-03822-P04-CH1	364632	OK	0.737841	-0.6728927	0.0529722	0	-107.723	-44.902	0.612	NA
0.409669087974173	B5-03822-P01-CH0	364640	OK	0.2295598	0.024403	0.0543522	-0.9714693	102.803	-20.501	-236.467	B5-03822-P02-CH0	364640	OK	0.8610316	0.1063896	-0.4972985	0	-78.403	-95.961	8.745	B5-03822-P02-CH1	364640	OK	0.7681713	-0.0279	-0.6396362	0	-71.342	-77.098	1.159	B5-03822-P03-CH0	364640	OK	0.7873664	-0.4805543	-0.3861628	0	-84.184	-57.652	5.422	B5-03822-P03-CH1	364640	OK	0.7759482	-0.5678559	-0.2746709	0	-95.105	-29.524	2.505	B5-03822-P04-CH0	364640	OK	0.7272638	-0.2744656	0.6290914	0	-121.318	-37.946	8.295	B5-03822-P04-CH1	364640	OK	0.7382567	-0.6724058	0.0533622	0	-107.817	-44.919	0.673	NA
0.419661016949153	B5-03822-P01-CH0	364648	OK	0.2297053	0.0244211	0.0539586	-0.9714564	102.855	-20.522	-236.501	B5-03822-P02-CH0	364648	OK	0.8645769	0.1083051	-0.4906902	0	-78.493	-95.71	8.477	B5-03822-P02-CH1	364648	OK	0.761581	-0.0160587	-0.6478707	0	-70.994	-77.621	0.398	B5-03822-P03-CH0	364648	OK	0.7917977	-0.4970943	-0.3548994	0	-84.533	-57.602	6.046	B5-03822-P03-CH1	364648	OK	0.7760155	-0.5677522	-0.2746952	0	-95.083	-29.586	2.671	B5-03822-P04-CH0	364648	OK	0.7274321	-0.2746003	0.628838	0	-120.895	-38.679	9.229	B5-03822-P04-CH1	364648	OK	0.7380669	-0.6725915	0.0536456	0	-107.824	-44.931	0.44	NA
0.429652945924132	B5-03822-P01-CH0	364656	OK	0.2296892	0.0245637	0.0535927	-0.9714769	102.911	-20.481	-236.477	B5-03822-P02-CH0	364656	OK	0.8662964	0.1102515	-0.4872116	0	-79.216	-95.732	8.311	B5-03822-P02-CH1	364656	OK	0.7568081	-0.0050379	-0.6536177	0	-70.809	-77.585	1.141	B5-03822-P03-CH0	364656	OK	0.7977264	-0.5099981	-0.3217679	0	-84.493	-58.128	6.278	B5-03822-P03-CH1	364656	OK	0.7760323	-0.5676675	-0.2748226	0	-95.111	-29.551	2.656	B5-03822-P04-CH0	364656	OK	0.7284033	-0.2784741	0.6260038	0	-120.969	-37.853	7.961	B5-03822-P04-CH1	364656	OK	0.7378413	-0.6728327	0.0537243	0	-107.871	-44.899	0.248	NA
0.439644874899112	B5-03822-P01-CH0	364664	OK	0.2298753	0.0247137	0.0533932	-0.97144	102.944	-20.437	-236.284	B5-03822-P02-CH0	364664	OK	0.868349	0.1124411	-0.4830394	0	-79.402	-95.843	8.838	B5-03822-P02-CH1	364664	OK	0.7536503	0.0050847	-0.6572559	0	-70.575	-77.438	1.091	B5-03822-P03-CH0	364664	OK	0.8054592	-0.5162039	-0.2911512	0	-84.907	-58.416	7.037	B5-03822-P03-CH1	364664	OK	0.7761151	-0.5676813	-0.2745604	0	-95.131	-29.579	2.506	B5-03822-P04-CH0	364664	OK	0.7299429	-0.2783612	0.6242583	0	-121.251	-38.85	8.819	B5-03822-P04-CH1	364664	OK	0.7377667	-0.6728743	0.0542268	0	-108.163	-44.972	0.193	NA
0.449636803874092	B5-03822-P01-CH0	364672	OK	0.2298691	0.024888	0.0527742	-0.9714709	102.972	-20.411	-236.162	B5-03822-P02-CH0	364672	OK	0.8710898	0.1158019	-0.477276	0	-79.274	-96.024	8.551	B5-03822-P02-CH1	364672	OK	0.7510115	0.0123052	-0.6601745	0	-70.797	-77.599	1.086	B5-03822-P03-CH0	364672	OK	0.8145793	-0.5174976	-0.2620242	0	-85.539	-58.952	7.919	B5-03822-P03-CH1	364672	OK	0.7758959	-0.5679947	-0.2745317	0	-95.235	-29.599	2.446	B5-03822-P04-CH0	364672	OK	0.7302702	-0.2794911	0.62337	0	-121.271	-39.84	9.501	B5-03822-P04-CH1	364672	OK	0.7375083	-0.6731366	0.0544843	0	-108.252	-44.892	-0.003	NA
0.459628732849072	B5-03822-P01-CH0	364680	OK	0.2298415	0.0247303	0.0525081	-0.9714959	102.91	-20.368	-236.148	B5-03822-P02-CH0	364680	OK	0.8723462	0.117507	-0.4745569	0	-79.78	-96.343	9.095	B5-03822-P02-CH1	364680	OK	0.7501471	0.0174695	-0.6610402	0	-70.638	-77.725	0.71	B5-03822-P03-CH0	364680	OK	0.8261604	-0.5124492	-0.2342111	0	-86.534	-59.271	8.541	B5-03822-P03-CH1	364680	OK	0.7759982	-0.5680762	-0.2740735	0	-95.108	-29.724	2.565	B5-03822-P04-CH0	364680	OK	0.729596	-0.285541	0.6214145	0	-120.464	-37.95	7.922	B5-03822-P04-CH1	364680	OK	0.7375331	-0.6730805	0.0548401	0	-108.253	-44.794	0.005	NA
0.469620661824052	B5-03822-P01-CH0	364688	OK	0.2298157	0.0248772	0.0522441	-0.9715124	102.95	-20.359	-236.092	B5-03822-P02-CH0	364688	OK	0.8734375	0.1185254	-0.4722909	0	-80.138	-96.703	9.025	B5-03822-P02-CH1	364688	OK	0.7519766	0.017362	-0.6589611	0	-70.298	-77.82	0.672	B5-03822-P03-CH0	364688	OK	0.8384521	-0.5036658	-0.2081316	0	-87.086	-60.043	9.426	B5-03822-P03-CH1	364688	OK	0.7760052	-0.5681685	-0.2738621	0	-95.194	-29.749	2.599	B5-03822-P04-CH0	364688	OK	0.73052	-0.285213	0.620479	0	-121.027	-38.734	8.266	B5-03822-P04-CH1	364688	OK	0.7373583	-0.6732424	0.0552032	0	-108.274	-44.951	0.138	NA
0.479612590799032	B5-03822-P01-CH0	364696	OK	0.22978	0.0246834	0.0522078	-0.9715278	102.883	-20.333	-236.053	B5-03822-P02-CH0	364696	OK	0.8750779	0.1182613	-0.4693111	0	-80.108	-96.824	9.596	B5-03822-P02-CH1	364696	OK	0.7544977	0.0153771	-0.6561225	0	-70.541	-78.224	1.247	B5-03822-P03-CH0	364696	OK	0.8500978	-0.4925206	-0.1864327	0	-87.927	-60.562	9.948	B5-03822-P03-CH1	364696	OK	0.7762816	-0.5679751	-0.2734798	0	-95.114	-29.764	2.597	B5-03822-P04-CH0	364696	OK	0.7311512	-0.2894304	0.6177766	0	-120.744	-38.099	7.904	B5-03822-P04-CH1	364696	OK	0.7373853	-0.6731987	0.0553752	0	-108.26	-44.895	-0.281	NA
0.489604519774011	B5-03822-P01-CH0	364704	OK	0.2297352	0.0247794	0.0520027	-0.9715469	102.905	-20.319	-236	B5-03822-P02-CH0	364704	OK	0.8762207	0.1167802	-0.4675464	0	-80.307	-97.186	9.938	B5-03822-P02-CH1	364704	OK	0.7560912	0.0119157	-0.6543577	0	-70.839	-78.343	0.903	B5-03822-P03-CH0	364704	OK	0.8599894	-0.4829157	-0.1649565	0	-88.365	-61.385	10.499	B5-03822-P03-CH1	364704	OK	0.776304	-0.5679936	-0.2733778	0	-95.123	-29.861	2.556	B5-03822-P04-CH0	364704	OK	0.732044	-0.2900981	0.6164046	0	-121.156	-38.858	7.951	B5-03822-P04-CH1	364704	OK	0.7374119	-0.6731483	0.0556332	0	-108.275	-44.924	-0.016	NA
0.499596448748991	B5-03822-P01-CH0	364712	OK	0.2294339	0.0250486	0.0513132	-0.9716479	102.954	-20.329	-235.877	B5-03822-P02-CH0	364712	OK	0.8777046	0.1163252	-0.4648689	0	-80.319	-96.926	9.928	B5-03822-P02-CH1	364712	OK	0.7572186	0.0090593	-0.6530987	0	-71.043	-78.009	0.567	B5-03822-P03-CH0	364712	OK	0.8676869	-0.47475	-0.1474172	0	-88.828	-62.09	10.529	B5-03822-P03-CH1	364712	OK	0.7760922	-0.568023	-0.2739176	0	-95.15	-29.877	2.432	B5-03822-P04-CH0	364712	OK	0.7317307	-0.2949628	0.6144649	0	-120.833	-38.637	7.675	B5-03822-P04-CH1	364712	OK	0.7369144	-0.6736888	0.0556837	0	-108.397	-45.034	0.08	NA
0.509588377723971	B5-03822-P01-CH0	364720	OK	0.2292583	0.0251785	0.0508209	-0.9717119	102.958	-20.315	-235.816	B5-03822-P02-CH0	364720	OK	0.878235	0.1143009	-0.4643689	0	-80.585	-97.144	10.187	B5-03822-P02-CH1	364720	OK	0.7579575	0.0067153	-0.6522694	0	-70.942	-78.218	1.631	B5-03822-P03-CH0	364720	OK	0.8735666	-0.4678089	-0.134299	0	-88.803	-62.52	10.799	B5-03822-P03-CH1	364720	OK	0.775996	-0.5679656	-0.2743088	0	-95.088	-29.977	2.554	B5-03822-P04-CH0	364720	OK	0.7316412	-0.300187	0.6120367	0	-120.39	-37.861	7.505	B5-03822-P04-CH1	364720	OK	0.7366567	-0.6739669	0.0557278	0	-108.419	-44.996	-0.062	NA
0.519580306698951	B5-03822-P01-CH0	364728	OK	0.2293021	0.025271	0.0510758	-0.9716857	102.947	-20.248	-235.712	B5-03822-P02-CH0	364728	OK	0.8783092	0.1146735	-0.4641368	0	-80.839	-97.242	10.007	B5-03822-P02-CH1	364728	OK	0.7570289	0.0044255	-0.6533664	0	-70.921	-78.267	1.279	B5-03822-P03-CH0	364728	OK	0.8778105	-0.461709	-0.1275674	0	-88.997	-62.635	11.07	B5-03822-P03-CH1	364728	OK	0.7762233	-0.5675537	-0.274518	0	-95.088	-30.018	2.541	B5-03822-P04-CH0	364728	OK	0.7325806	-0.3004916	0.6107622	0	-120.769	-38.646	8.208	B5-03822-P04-CH1	364728	OK	0.7368858	-0.6736731	0.056249	0	-108.461	-45.087	0.345	NA
0.529572235673931	B5-03822-P01-CH0	364736	OK	0.2294694	0.0252134	0.0515801	-0.9716211	102.926	-20.211	-235.654	B5-03822-P02-CH0	364736	OK	0.8790709	0.1141797	-0.4628147	0	-80.641	-97.416	9.939	B5-03822-P02-CH1	364736	OK	0.7544214	0.00095	-0.6563897	0	-70.869	-78.072	0.915	B5-03822-P03-CH0	364736	OK	0.8816169	-0.4567438	-0.1188977	0	-89.062	-62.771	11.421	B5-03822-P03-CH1	364736	OK	0.7767362	-0.5668647	-0.274491	0	-94.996	-30.092	2.5	B5-03822-P04-CH0	364736	OK	0.7328587	-0.3048801	0.6082486	0	-120.324	-38.167	8.432	B5-03822-P04-CH1	364736	OK	0.7372495	-0.6732424	0.0566386	0	-108.472	-45.151	0.23	NA
0.53956416464891	B5-03822-P01-CH0	364744	OK	0.2293317	0.0251447	0.0514897	-0.9716602	102.901	-20.176	-235.692	B5-03822-P02-CH0	364744	OK	0.8807424	0.1161487	-0.4591321	0	-80.025	-96.627	9.216	B5-03822-P02-CH1	364744	OK	0.7519265	-0.0046968	-0.6592303	0	-70.532	-77.444	0.992	B5-03822-P03-CH0	364744	OK	0.8839091	-0.4550055	-0.1080498	0	-88.941	-63.289	11.234	B5-03822-P03-CH1	364744	OK	0.7784936	-0.5626324	-0.2781951	0	-94.902	-30.225	3.497	B5-03822-P04-CH0	364744	OK	0.733704	-0.3086216	0.6053356	0	-120.649	-37.804	7.337	B5-03822-P04-CH1	364744	OK	0.7373324	-0.6731553	0.0565945	0	-108.411	-45.037	0.187	NA
0.54955609362389	B5-03822-P01-CH0	364752	OK	0.2293677	0.0253418	0.0513029	-0.9716564	102.92	-20.123	-235.587	B5-03822-P02-CH0	364752	OK	0.8802305	0.1109196	-0.4614012	0	-80.623	-97.141	9.691	B5-03822-P02-CH1	364752	OK	0.7490523	-0.0088882	-0.6624513	0	-70.456	-77.366	0.314	B5-03822-P03-CH0	364752	OK	0.8856485	-0.4528487	-0.1027367	0	-89.528	-63.299	10.919	B5-03822-P03-CH1	364752	OK	0.7782904	-0.5626831	-0.2786608	0	-95.053	-30.353	3.125	B5-03822-P04-CH0	364752	OK	0.7344834	-0.3097908	0.6037912	0	-120.733	-38.496	8.365	B5-03822-P04-CH1	364752	OK	0.7371178	-0.6733526	0.0570409	0	-108.427	-45.202	0.514	NA
0.55954802259887	B5-03822-P01-CH0	364760	OK	0.2291121	0.025716	0.0504373	-0.9717522	102.987	-20.169	-235.436	B5-03822-P02-CH0	364760	OK	0.880703	0.1085978	-0.4610518	0	-80.741	-96.844	10.2	B5-03822-P02-CH1	364760	OK	0.7490346	-0.0111832	-0.6624365	0	-69.833	-77.367	0.753	B5-03822-P03-CH0	364760	OK	0.8863555	-0.4530871	-0.0953203	0	-89.318	-63.513	11.143	B5-03822-P03-CH1	364760	OK	0.7775253	-0.5629033	-0.2803469	0	-95.113	-30.75	3.196	B5-03822-P04-CH0	364760	OK	0.7339652	-0.3116976	0.6034399	0	-120.593	-38.993	8.518	B5-03822-P04-CH1	364760	OK	0.7364349	-0.6741187	0.0568119	0	-108.359	-45.287	0.413	NA
0.56953995157385	B5-03822-P01-CH0	364768	OK	0.2292543	0.0257725	0.0505551	-0.9717111	103.004	-20.11	-235.389	B5-03822-P02-CH0	364768	OK	0.8815487	0.1066466	-0.4598895	0	-80.512	-97.034	10.153	B5-03822-P02-CH1	364768	OK	0.7493233	-0.0127115	-0.6620823	0	-69.775	-77.168	0.337	B5-03822-P03-CH0	364768	OK	0.8872008	-0.4526474	-0.089359	0	-89.368	-63.989	11.179	B5-03822-P03-CH1	364768	OK	0.7776818	-0.5618389	-0.2820425	0	-95.487	-30.536	3.466	B5-03822-P04-CH0	364768	OK	0.7340765	-0.3118723	0.6032142	0	-120.643	-38.949	8.38	B5-03822-P04-CH1	364768	OK	0.7366436	-0.6738787	0.0569537	0	-108.47	-45.182	0.328	NA
0.57953188054883	B5-03822-P01-CH0	364776	OK	0.2295825	0.026021	0.0508111	-0.9716136	103.11	-20.072	-235.38	B5-03822-P02-CH0	364776	OK	0.8823072	0.1057418	-0.4586423	0	-80.454	-97.232	9.833	B5-03822-P02-CH1	364776	OK	0.7499861	-0.0102688	-0.6613739	0	-69.843	-77.42	-0.043	B5-03822-P03-CH0	364776	OK	0.8890347	-0.4493079	-0.087976	0	-89.745	-64.023	11.451	B5-03822-P03-CH1	364776	OK	0.777388	-0.5642759	-0.2779578	0	-95.188	-30.344	2.848	B5-03822-P04-CH0	364776	OK	0.7343866	-0.312612	0.6024533	0	-120.575	-39.117	8.584	B5-03822-P04-CH1	364776	OK	0.7366739	-0.6737833	0.0576855	0	-108.424	-45.467	0.774	NA
0.58952380952381	B5-03822-P01-CH0	364784	OK	0.2298542	0.0260082	0.0513206	-0.9715229	103.129	-20.007	-235.376	B5-03822-P02-CH0	364784	OK	0.882614	0.1053917	-0.4581321	0	-80.582	-97.256	9.67	B5-03822-P02-CH1	364784	OK	0.7517956	-0.005298	-0.6593749	0	-69.722	-77.514	0.762	B5-03822-P03-CH0	364784	OK	0.8909199	-0.4451701	-0.0899183	0	-89.737	-63.732	12.12	B5-03822-P03-CH1	364784	OK	0.7779186	-0.5634983	-0.2780508	0	-95.162	-30.399	2.974	B5-03822-P04-CH0	364784	OK	0.7353018	-0.3139525	0.6006372	0	-120.532	-38.687	8.79	B5-03822-P04-CH1	364784	OK	0.7369452	-0.6734866	0.0576854	0	-108.367	-45.47	0.499	NA
0.599515738498789	B5-03822-P01-CH0	364792	OK	0.2299281	0.0260297	0.0512586	-0.9715081	103.126	-19.967	-235.364	B5-03822-P02-CH0	364792	OK	0.8829713	0.1029315	-0.4580031	0	-80.719	-97.531	9.679	B5-03822-P02-CH1	364792	OK	0.7537691	-0.0002559	-0.6571393	0	-69.538	-77.603	1.151	B5-03822-P03-CH0	364792	OK	0.8911111	-0.4444734	-0.0914574	0	-89.468	-63.841	12.144	B5-03822-P03-CH1	364792	OK	0.7780004	-0.563188	-0.2784505	0	-95.164	-30.47	3.128	B5-03822-P04-CH0	364792	OK	0.7355338	-0.3151654	0.5997173	0	-120.654	-38.62	8.584	B5-03822-P04-CH1	364792	OK	0.7368782	-0.6735643	0.0576338	0	-108.433	-45.42	0.392	NA
0.609507667473769	B5-03822-P01-CH0	364800	OK	0.2299827	0.0260103	0.0511071	-0.9715037	103.099	-19.935	-235.32	B5-03822-P02-CH0	364800	OK	0.8838575	0.1027961	-0.4563211	0	-80.686	-97.434	9.462	B5-03822-P02-CH1	364800	OK	0.7543208	0.0075364	-0.6564628	0	-70.093	-77.784	0.529	B5-03822-P03-CH0	364800	OK	0.890264	-0.445348	-0.095369	0	-89.723	-64.001	11.927	B5-03822-P03-CH1	364800	OK	0.7780892	-0.5628556	-0.2788741	0	-95.184	-30.427	3.116	B5-03822-P04-CH0	364800	OK	0.7354689	-0.3165141	0.5990862	0	-120.737	-38.628	8.417	B5-03822-P04-CH1	364800	OK	0.7366872	-0.6737538	0.0578603	0	-108.36	-45.47	0.41	NA
0.619499596448749	B5-03822-P01-CH0	364808	OK	0.2300009	0.0260202	0.0511818	-0.9714952	103.119	-19.878	-235.312	B5-03822-P02-CH0	364808	OK	0.8845769	0.1038894	-0.4546764	0	-80.906	-96.952	9.006	B5-03822-P02-CH1	364808	OK	0.7556536	0.0157603	-0.6547818	0	-70.563	-78.124	0.778	B5-03822-P03-CH0	364808	OK	0.8894333	-0.4461072	-0.0994826	0	-89.899	-63.948	11.555	B5-03822-P03-CH1	364808	OK	0.7782196	-0.5624767	-0.2792743	0	-95.263	-30.36	2.991	B5-03822-P04-CH0	364808	OK	0.735265	-0.3182534	0.5984147	0	-120.734	-38.87	8.466	B5-03822-P04-CH1	364808	OK	0.7367065	-0.6737596	0.0575453	0	-108.335	-45.321	0.064	NA
0.629491525423729	B5-03822-P01-CH0	364816	OK	0.2299812	0.0259895	0.0508093	-0.9715202	103.122	-19.902	-235.375	B5-03822-P02-CH0	364816	OK	0.8850366	0.1023441	-0.4541321	0	-81.349	-97.386	9.566	B5-03822-P02-CH1	364816	OK	0.7592977	0.0257748	-0.6502328	0	-69.977	-77.72	0.152	B5-03822-P03-CH0	364816	OK	0.8887015	-0.4464913	-0.1041877	0	-89.836	-63.88	11.39	B5-03822-P03-CH1	364816	OK	0.7780899	-0.5624589	-0.2796713	0	-95.302	-30.381	3.004	B5-03822-P04-CH0	364816	OK	0.734598	-0.3157582	0.6005519	0	-120.449	-38.018	7.954	B5-03822-P04-CH1	364816	OK	0.7363977	-0.6740874	0.0576587	0	-108.356	-45.417	0.506	NA
0.639483454398709	B5-03822-P01-CH0	364824	OK	0.2299016	0.0259694	0.0504582	-0.9715579	103.117	-19.917	-235.419	B5-03822-P02-CH0	364824	OK	0.8865646	0.1041158	-0.4507361	0	-81.342	-97.006	9.589	B5-03822-P02-CH1	364824	OK	0.761793	0.0337839	-0.646939	0	-70.562	-78.207	1.092	B5-03822-P03-CH0	364824	OK	0.8871047	-0.4477248	-0.1121954	0	-89.311	-64.134	11.93	B5-03822-P03-CH1	364824	OK	0.7779136	-0.5625282	-0.2800222	0	-95.285	-30.416	2.956	B5-03822-P04-CH0	364824	OK	0.734661	-0.317032	0.5998032	0	-120.507	-38.138	8.045	B5-03822-P04-CH1	364824	OK	0.7361009	-0.6744266	0.0574828	0	-108.343	-45.4	0.37	NA
0.649475383373688	B5-03822-P01-CH0	364832	OK	0.229819	0.0258412	0.0505372	-0.9715768	103.133	-19.956	-235.518	B5-03822-P02-CH0	364832	OK	0.8875548	0.1029872	-0.4490435	0	-81.707	-97.372	9.873	B5-03822-P02-CH1	364832	OK	0.7653402	0.0406901	-0.6423385	0	-71.042	-78.64	1.534	B5-03822-P03-CH0	364832	OK	0.8850379	-0.4485692	-0.1244735	0	-88.851	-64.401	11.847	B5-03822-P03-CH1	364832	OK	0.7779905	-0.5622976	-0.2802717	0	-95.285	-30.465	2.971	B5-03822-P04-CH0	364832	OK	0.7347024	-0.3184195	0.5990171	0	-120.473	-38.151	8.027	B5-03822-P04-CH1	364832	OK	0.736067	-0.6744847	0.0572341	0	-108.31	-45.424	0.315	NA
0.659467312348668	B5-03822-P01-CH0	364840	OK	0.2298776	0.0256383	0.0508985	-0.9715494	103.107	-19.969	-235.598	B5-03822-P02-CH0	364840	OK	0.8884264	0.1015144	-0.4476531	0	-82.04	-97.706	10.317	B5-03822-P02-CH1	364840	OK	0.7693193	0.0479405	-0.6370632	0	-71.443	-78.93	1.352	B5-03822-P03-CH0	364840	OK	0.8835949	-0.4454655	-0.144293	0	-88.998	-64.053	11.602	B5-03822-P03-CH1	364840	OK	0.7782894	-0.5619202	-0.2801987	0	-95.249	-30.466	2.907	B5-03822-P04-CH0	364840	OK	0.7349286	-0.3195144	0.5981559	0	-120.443	-38.143	7.932	B5-03822-P04-CH1	364840	OK	0.7362217	-0.6743059	0.057351	0	-108.329	-45.482	0.513	NA
0.669459241323648	B5-03822-P01-CH0	364848	OK	0.2297259	0.0253697	0.0509593	-0.9715892	103.027	-19.984	-235.653	B5-03822-P02-CH0	364848	OK	0.8898589	0.1015906	-0.4447814	0	-82.075	-97.979	10.016	B5-03822-P02-CH1	364848	OK	0.7734039	0.0530623	-0.6316889	0	-71.419	-78.658	2.23	B5-03822-P03-CH0	364848	OK	0.8812917	-0.4413306	-0.1689739	0	-88.983	-63.828	11.325	B5-03822-P03-CH1	364848	OK	0.7784398	-0.5616551	-0.2803123	0	-95.193	-30.409	2.818	B5-03822-P04-CH0	364848	OK	0.7349378	-0.3210974	0.5972964	0	-120.306	-38.004	7.819	B5-03822-P04-CH1	364848	OK	0.7361196	-0.6744458	0.0570157	0	-108.244	-45.395	0.218	NA
0.679451170298628	B5-03822-P01-CH0	364856	OK	0.2294214	0.0253379	0.0504249	-0.9716898	103.026	-20.046	-235.733	B5-03822-P02-CH0	364856	OK	0.8907468	0.1008747	-0.4431641	0	-82.315	-98.275	10.189	B5-03822-P02-CH1	364856	OK	0.7756721	0.0566082	-0.6285923	0	-71.815	-78.879	1.517	B5-03822-P03-CH0	364856	OK	0.877984	-0.4369336	-0.1955327	0	-88.451	-63.585	11.29	B5-03822-P03-CH1	364856	OK	0.7781767	-0.5617245	-0.2809032	0	-95.189	-30.438	2.814	B5-03822-P04-CH0	364856	OK	0.7348784	-0.322839	0.59643	0	-120.27	-37.915	7.808	B5-03822-P04-CH1	364856	OK	0.7357835	-0.6748589	0.0564627	0	-108.349	-45.269	0.185	NA
0.689443099273608	B5-03822-P01-CH0	364864	OK	0.2291086	0.0252986	0.0500299	-0.9717851	103.021	-20.121	-235.811	B5-03822-P02-CH0	364864	OK	0.893365	0.1029178	-0.4373865	0	-81.9	-97.772	9.873	B5-03822-P02-CH1	364864	OK	0.7784391	0.0578582	-0.625048	0	-71.723	-78.882	2.181	B5-03822-P03-CH0	364864	OK	0.8734976	-0.431439	-0.2255268	0	-88.085	-63.389	11.15	B5-03822-P03-CH1	364864	OK	0.7779715	-0.5616771	-0.2815656	0	-95.17	-30.52	2.87	B5-03822-P04-CH0	364864	OK	0.7349559	-0.324211	0.5955896	0	-120.259	-37.924	7.923	B5-03822-P04-CH1	364864	OK	0.7353431	-0.6753562	0.0562533	0	-108.361	-45.309	0.3	NA
0.699435028248588	B5-03822-P01-CH0	364872	OK	0.2290841	0.0251765	0.0501354	-0.9717886	103.016	-20.189	-235.867	B5-03822-P02-CH0	364872	OK	0.8951641	0.101242	-0.4340868	0	-81.915	-97.685	9.769	B5-03822-P02-CH1	364872	OK	0.7810298	0.0570525	-0.6218822	0	-71.863	-78.988	2.791	B5-03822-P03-CH0	364872	OK	0.8675077	-0.4233349	-0.2611858	0	-88.092	-62.92	11.182	B5-03822-P03-CH1	364872	OK	0.7781496	-0.5613356	-0.2817544	0	-95.153	-30.57	2.781	B5-03822-P04-CH0	364872	OK	0.7351474	-0.3254641	0.5946692	0	-120.211	-37.913	7.774	B5-03822-P04-CH1	364872	OK	0.7354097	-0.6752899	0.0561802	0	-108.255	-45.298	0.304	NA
0.709426957223567	B5-03822-P01-CH0	364880	OK	0.2290017	0.0251253	0.0503794	-0.9717967	103.068	-20.234	-236.034	B5-03822-P02-CH0	364880	OK	0.896496	0.0976725	-0.4321516	0	-82.26	-97.703	10.391	B5-03822-P02-CH1	364880	OK	0.7839609	0.0567603	-0.61821	0	-72.204	-78.913	2.384	B5-03822-P03-CH0	364880	OK	0.8588143	-0.4137244	-0.3021094	0	-88.076	-62.414	10.636	B5-03822-P03-CH1	364880	OK	0.7783655	-0.5608883	-0.2820486	0	-95.168	-30.668	2.9	B5-03822-P04-CH0	364880	OK	0.7354497	-0.3266686	0.5936341	0	-120.206	-37.864	7.804	B5-03822-P04-CH1	364880	OK	0.7354911	-0.6752102	0.0560713	0	-108.366	-45.351	0.595	NA
0.719418886198547	B5-03822-P01-CH0	364888	OK	0.2289874	0.0248857	0.0504271	-0.9718038	102.999	-20.327	-236.063	B5-03822-P02-CH0	364888	OK	0.8981595	0.0960477	-0.4290504	0	-82.35	-97.257	10.223	B5-03822-P02-CH1	364888	OK	0.788236	0.0551533	-0.6128964	0	-72.169	-78.406	2.743	B5-03822-P03-CH0	364888	OK	0.8487554	-0.4022148	-0.3432747	0	-87.243	-61.981	10.086	B5-03822-P03-CH1	364888	OK	0.7785713	-0.5605002	-0.2822521	0	-95.088	-30.727	2.834	B5-03822-P04-CH0	364888	OK	0.7363023	-0.3319855	0.5896139	0	-120.05	-37.784	7.635	B5-03822-P04-CH1	364888	OK	0.7354124	-0.6752933	0.0561029	0	-108.293	-45.4	0.363	NA
0.729410815173527	B5-03822-P01-CH0	364896	OK	0.2290199	0.0246784	0.0509819	-0.9717725	102.933	-20.303	-236.118	B5-03822-P02-CH0	364896	OK	0.8996347	0.0931154	-0.4265993	0	-82.611	-97.205	10.053	B5-03822-P02-CH1	364896	OK	0.7917326	0.0508463	-0.608748	0	-72.973	-78.538	2.797	B5-03822-P03-CH0	364896	OK	0.8372006	-0.3877918	-0.3856329	0	-87.169	-61.159	9.152	B5-03822-P03-CH1	364896	OK	0.7789601	-0.5598632	-0.2824433	0	-95.111	-30.713	2.804	B5-03822-P04-CH0	364896	OK	0.7363966	-0.333311	0.5887477	0	-119.764	-37.828	7.325	B5-03822-P04-CH1	364896	OK	0.7357847	-0.6748908	0.0560653	0	-108.275	-45.298	0.255	NA
0.739402744148507	B5-03822-P01-CH0	364904	OK	0.2291602	0.0244979	0.0516973	-0.9717061	102.886	-20.273	-236.202	B5-03822-P02-CH0	364904	OK	0.9015362	0.0911293	-0.4229987	0	-82.419	-97.381	10.16	B5-03822-P02-CH1	364904	OK	0.7961657	0.0458897	-0.6033359	0	-73.477	-78.617	2.976	B5-03822-P03-CH0	364904	OK	0.8259347	-0.374199	-0.4216717	0	-86.949	-60.815	8.615	B5-03822-P03-CH1	364904	OK	0.7794985	-0.5591587	-0.2823538	0	-95.091	-30.708	2.831	B5-03822-P04-CH0	364904	OK	0.7361643	-0.3297028	0.5910653	0	-119.759	-37.701	7.553	B5-03822-P04-CH1	364904	OK	0.7361595	-0.6744695	0.0562152	0	-108.235	-45.307	0.323	NA
0.749394673123487	B5-03822-P01-CH0	364912	OK	0.2291936	0.0242773	0.0522324	-0.9716752	102.828	-20.271	-236.327	B5-03822-P02-CH0	364912	OK	0.9021241	0.0912228	-0.4217232	0	-82.646	-97.588	10.355	B5-03822-P02-CH1	364912	OK	0.8005466	0.0404306	-0.5979052	0	-74.181	-78.657	2.988	B5-03822-P03-CH0	364912	OK	0.8170556	-0.360348	-0.4500772	0	-86.875	-60.239	7.915	B5-03822-P03-CH1	364912	OK	0.7799759	-0.5584303	-0.282477	0	-95.102	-30.668	2.873	B5-03822-P04-CH0	364912	OK	0.7372108	-0.3378662	0.585121	0	-119.302	-36.243	6.29	B5-03822-P04-CH1	364912	OK	0.7365535	-0.6740394	0.0562123	0	-108.167	-45.199	0.28	NA
0.759386602098467	B5-03822-P01-CH0	364920	OK	0.2293053	0.0241867	0.0526998	-0.9716259	102.822	-20.27	-236.442	B5-03822-P02-CH0	364920	OK	0.902354	0.094186	-0.4205786	0	-82.932	-97.596	10.559	B5-03822-P02-CH1	364920	OK	0.8054546	0.0358194	-0.5915741	0	-74.558	-78.093	3.608	B5-03822-P03-CH0	364920	OK	0.811959	-0.3500477	-0.4671073	0	-86.331	-59.899	8.07	B5-03822-P03-CH1	364920	OK	0.7802977	-0.5579185	-0.2825995	0	-95.164	-30.695	2.989	B5-03822-P04-CH0	364920	OK	0.7368377	-0.3319149	0.5889845	0	-119.506	-37.421	7.532	B5-03822-P04-CH1	364920	OK	0.73678	-0.6737775	0.0563842	0	-108.18	-45.23	0.263	NA
0.769378531073446	B5-03822-P01-CH0	364928	OK	0.2292269	0.0243142	0.052676	-0.9716425	102.874	-20.341	-236.507	B5-03822-P02-CH0	364928	OK	0.9015222	0.0985075	-0.4213715	0	-83.533	-97.719	10.085	B5-03822-P02-CH1	364928	OK	0.8101426	0.0310071	-0.5854122	0	-74.732	-78.334	3.629	B5-03822-P03-CH0	364928	OK	0.8062503	-0.3410829	-0.4833455	0	-87.178	-59.548	7.212	B5-03822-P03-CH1	364928	OK	0.7803178	-0.5576946	-0.2829857	0	-95.222	-30.752	2.98	B5-03822-P04-CH0	364928	OK	0.7372294	-0.3326571	0.5880749	0	-119.607	-37.538	7.721	B5-03822-P04-CH1	364928	OK	0.736799	-0.6737577	0.056372	0	-108.19	-45.329	0.663	NA
0.779370460048426	B5-03822-P01-CH0	364936	OK	0.2292323	0.0242459	0.0530921	-0.9716202	102.842	-20.347	-236.564	B5-03822-P02-CH0	364936	OK	0.901283	0.1027191	-0.4208773	0	-83.443	-97.686	10.171	B5-03822-P02-CH1	364936	OK	0.8120697	0.0274213	-0.5829159	0	-75.161	-78.634	3.838	B5-03822-P03-CH0	364936	OK	0.8037517	-0.3286895	-0.4959299	0	-86.971	-59.131	7.035	B5-03822-P03-CH1	364936	OK	0.7805866	-0.5572289	-0.2831617	0	-95.225	-30.761	2.986	B5-03822-P04-CH0	364936	OK	0.7375615	-0.3334161	0.587228	0	-119.631	-37.532	7.662	B5-03822-P04-CH1	364936	OK	0.7370255	-0.6735178	0.0562777	0	-108.072	-45.316	0.639	NA
0.789362389023406	B5-03822-P01-CH0	364944	OK	0.2292556	0.0241903	0.053096	-0.9716159	102.81	-20.393	-236.608	B5-03822-P02-CH0	364944	OK	0.9000758	0.1036018	-0.4232378	0	-83.611	-98.396	10.152	B5-03822-P02-CH1	364944	OK	0.8135179	0.0250712	-0.5809991	0	-75.419	-78.445	3.873	B5-03822-P03-CH0	364944	OK	0.8033472	-0.3153337	-0.5051712	0	-86.748	-58.651	6.612	B5-03822-P03-CH1	364944	OK	0.780636	-0.557061	-0.2833558	0	-95.19	-30.77	2.824	B5-03822-P04-CH0	364944	OK	0.7375967	-0.3343131	0.5866736	0	-119.583	-37.541	7.6	B5-03822-P04-CH1	364944	OK	0.7370301	-0.6735145	0.0562566	0	-108.018	-45.342	0.787	NA
0.799354317998386	B5-03822-P01-CH0	364952	OK	0.2294123	0.0238772	0.0537085	-0.971553	102.727	-20.388	-236.737	B5-03822-P02-CH0	364952	OK	0.898868	0.1085125	-0.424572	0	-83.44	-98.26	9.811	B5-03822-P02-CH1	364952	OK	0.8155194	0.0182559	-0.5784417	0	-75.353	-78.316	4.474	B5-03822-P03-CH0	364952	OK	0.8075753	-0.3059762	-0.5041833	0	-86.298	-59	9.301	B5-03822-P03-CH1	364952	OK	0.7810811	-0.5564858	-0.2832594	0	-95.12	-30.725	2.808	B5-03822-P04-CH0	364952	OK	0.7377884	-0.3345347	0.5863061	0	-119.529	-37.639	7.723	B5-03822-P04-CH1	364952	OK	0.7374292	-0.6730692	0.0563563	0	-107.96	-45.32	0.86	NA
0.809346246973366	B5-03822-P01-CH0	364960	OK	0.2295514	0.0237603	0.0538691	-0.9715141	102.686	-20.376	-236.758	B5-03822-P02-CH0	364960	OK	0.8961938	0.1109786	-0.4295584	0	-83.55	-98.558	10.191	B5-03822-P02-CH1	364960	OK	0.8170361	0.009073	-0.5765152	0	-75.482	-78.305	4.917	B5-03822-P03-CH0	364960	OK	0.8099521	-0.3010625	-0.5033279	0	-87.054	-59.686	9.777	B5-03822-P03-CH1	364960	OK	0.7811288	-0.5563547	-0.2833854	0	-95.14	-30.673	2.71	B5-03822-P04-CH0	364960	OK	0.737901	-0.3345697	0.5861443	0	-119.55	-37.82	7.817	B5-03822-P04-CH1	364960	OK	0.7375361	-0.6729542	0.05633	0	-107.777	-45.216	0.618	NA
0.819338175948345	B5-03822-P01-CH0	364968	OK	0.229623	0.0238798	0.0537674	-0.9714999	102.774	-20.405	-236.869	B5-03822-P02-CH0	364968	OK	0.8939433	0.1190088	-0.4320907	0	-82.776	-97.658	10.272	B5-03822-P02-CH1	364968	OK	0.8177783	-0.0039055	-0.5755201	0	-76.052	-78.371	4.828	B5-03822-P03-CH0	364968	OK	0.8116581	-0.2983877	-0.5021712	0	-87.368	-60.217	9.369	B5-03822-P03-CH1	364968	OK	0.7810211	-0.5563568	-0.2836779	0	-95.181	-30.716	2.865	B5-03822-P04-CH0	364968	OK	0.7380249	-0.3346095	0.5859656	0	-119.671	-38.021	8	B5-03822-P04-CH1	364968	OK	0.737552	-0.6729426	0.0562613	0	-107.912	-45.245	0.993	NA
0.829330104923325	B5-03822-P01-CH0	364976	OK	0.2297671	0.024068	0.0535591	-0.9714727	102.865	-20.45	-236.815	B5-03822-P02-CH0	364976	OK	0.8906671	0.122079	-0.4379598	0	-82.102	-97.856	10.111	B5-03822-P02-CH1	364976	OK	0.8192766	-0.0187599	-0.5730915	0	-76.227	-78.509	4.504	B5-03822-P03-CH0	364976	OK	0.8118496	-0.2967678	-0.5028211	0	-88.512	-59.983	8.523	B5-03822-P03-CH1	364976	OK	0.7808009	-0.5565359	-0.2839327	0	-95.174	-30.797	2.814	B5-03822-P04-CH0	364976	OK	0.7380427	-0.3349022	0.585776	0	-119.726	-38.079	8.012	B5-03822-P04-CH1	364976	OK	0.7372989	-0.6732071	0.0564137	0	-107.942	-45.317	0.736	NA
0.839322033898305	B5-03822-P01-CH0	364984	OK	0.2297532	0.0242367	0.0528811	-0.971509	102.953	-20.538	-236.804	B5-03822-P02-CH0	364984	OK	0.8872627	0.1247301	-0.4440802	0	-81.582	-97.853	10.329	B5-03822-P02-CH1	364984	OK	0.8205194	-0.0324031	-0.5706995	0	-76.234	-78.292	4.398	B5-03822-P03-CH0	364984	OK	0.8148982	-0.3017246	-0.494877	0	-89.279	-59.502	7.768	B5-03822-P03-CH1	364984	OK	0.7803195	-0.5568948	-0.2845519	0	-95.233	-30.833	2.777	B5-03822-P04-CH0	364984	OK	0.7378628	-0.3352955	0.5857776	0	-119.812	-38.146	8.011	B5-03822-P04-CH1	364984	OK	0.7368817	-0.6736753	0.0562749	0	-107.953	-45.293	0.629	NA
0.849313962873285	B5-03822-P01-CH0	364992	OK	0.2299655	0.0242672	0.0526363	-0.9714713	103.026	-20.549	-236.819	B5-03822-P02-CH0	364992	OK	0.8839452	0.1254262	-0.4504544	0	-81.194	-98.018	10.159	B5-03822-P02-CH1	364992	OK	0.8192458	-0.044108	-0.5717436	0	-76.456	-77.996	4.368	B5-03822-P03-CH0	364992	OK	0.8227958	-0.3200497	-0.4696543	0	-89.648	-59.695	8.207	B5-03822-P03-CH1	364992	OK	0.7801408	-0.5570304	-0.2847762	0	-95.22	-30.843	2.815	B5-03822-P04-CH0	364992	OK	0.7378585	-0.3349011	0.5860086	0	-119.985	-38.327	8.042	B5-03822-P04-CH1	364992	OK	0.7366037	-0.6739436	0.0567011	0	-108	-45.44	0.83	NA
0.859305891848265	B5-03822-P01-CH0	365000	OK	0.2300947	0.0243814	0.0522805	-0.971457	103.102	-20.54	-236.789	B5-03822-P02-CH0	365000	OK	0.8795448	0.1256948	-0.4589137	0	-80.978	-98.277	9.6	B5-03822-P02-CH1	365000	OK	0.8167949	-0.0548971	-0.5743103	0	-76.042	-77.511	3.808	B5-03822-P03-CH0	365000	OK	0.8315326	-0.3414304	-0.4381538	0	-90.093	-59.624	8.322	B5-03822-P03-CH1	365000	OK	0.7798896	-0.5572179	-0.2850972	0	-95.214	-30.791	2.752	B5-03822-P04-CH0	365000	OK	0.7377772	-0.3347069	0.5862219	0	-120.096	-38.383	8.078	B5-03822-P04-CH1	365000	OK	0.7365233	-0.674027	0.0567544	0	-108.055	-45.3	0.669	NA
0.869297820823245	B5-03822-P01-CH0	365008	OK	0.2303944	0.0244335	0.0520351	-0.9713979	103.183	-20.534	-236.78	B5-03822-P02-CH0	365008	OK	0.8748135	0.1281521	-0.4672027	0	-80.336	-98.253	8.628	B5-03822-P02-CH1	365008	OK	0.8119711	-0.0670553	-0.5798331	0	-75.626	-77.809	3.465	B5-03822-P03-CH0	365008	OK	0.8385381	-0.3622129	-0.4070081	0	-89.435	-60.147	9.281	B5-03822-P03-CH1	365008	OK	0.7796556	-0.5574896	-0.2852059	0	-95.227	-30.818	2.696	B5-03822-P04-CH0	365008	OK	0.7376135	-0.3345877	0.5864958	0	-120.117	-38.403	8.029	B5-03822-P04-CH1	365008	OK	0.7363911	-0.6741378	0.0571519	0	-108.096	-45.281	0.563	NA
0.879289749798224	B5-03822-P01-CH0	365016	OK	0.2305596	0.0246214	0.0515317	-0.9713807	103.309	-20.52	-236.756	B5-03822-P02-CH0	365016	OK	0.8695016	0.1283585	-0.4769602	0	-79.94	-98.523	9.062	B5-03822-P02-CH1	365016	OK	0.807945	-0.0756441	-0.5843825	0	-74.832	-77.751	3.556	B5-03822-P03-CH0	365016	OK	0.8415236	-0.3796437	-0.384329	0	-89.799	-60.22	9.259	B5-03822-P03-CH1	365016	OK	0.7793054	-0.5577106	-0.2857306	0	-95.354	-30.731	2.709	B5-03822-P04-CH0	365016	OK	0.7374911	-0.3348386	0.5865067	0	-120.148	-38.384	8.066	B5-03822-P04-CH1	365016	OK	0.7359402	-0.6745917	0.0576018	0	-108.279	-45.404	0.604	NA
0.889281678773204	B5-03822-P01-CH0	365024	OK	0.2307769	0.0245479	0.051373	-0.9713394	103.321	-20.429	-236.711	B5-03822-P02-CH0	365024	OK	0.8656321	0.1297931	-0.4835647	0	-79.439	-98.21	8.671	B5-03822-P02-CH1	365024	OK	0.8036281	-0.0832397	-0.5892818	0	-74.772	-77.924	3.805	B5-03822-P03-CH0	365024	OK	0.8444006	-0.3947516	-0.3621585	0	-89.479	-60.398	10.364	B5-03822-P03-CH1	365024	OK	0.7792361	-0.5577266	-0.2858884	0	-95.371	-30.593	2.739	B5-03822-P04-CH0	365024	OK	0.7374156	-0.334991	0.5865145	0	-120.113	-38.339	8	B5-03822-P04-CH1	365024	OK	0.7358897	-0.6746335	0.0577585	0	-108.391	-45.204	0.131	NA
0.899273607748184	B5-03822-P01-CH0	365032	OK	0.230707	0.0246653	0.0505117	-0.9713982	103.399	-20.448	-236.673	B5-03822-P02-CH0	365032	OK	0.8632197	0.1303694	-0.4877044	0	-78.95	-98.02	9	B5-03822-P02-CH1	365032	OK	0.8011328	-0.0872765	-0.5920887	0	-74.671	-78.019	3.092	B5-03822-P03-CH0	365032	OK	0.8453864	-0.4040464	-0.3493829	0	-89.705	-60.537	10.199	B5-03822-P03-CH1	365032	OK	0.7787698	-0.5581238	-0.2863835	0	-95.38	-30.568	2.766	B5-03822-P04-CH0	365032	OK	0.7372771	-0.3357835	0.5862354	0	-120.104	-38.25	7.952	B5-03822-P04-CH1	365032	OK	0.7352007	-0.6753596	0.0580465	0	-108.446	-45.325	0.252	NA
0.909265536723164	B5-03822-P01-CH0	365040	OK	0.2309332	0.0246676	0.0505422	-0.9713428	103.493	-20.444	-236.746	B5-03822-P02-CH0	365040	OK	0.8615674	0.1312373	-0.490386	0	-78.358	-97.888	8.387	B5-03822-P02-CH1	365040	OK	0.8005629	-0.0891512	-0.5925801	0	-74.614	-78.122	2.8	B5-03822-P03-CH0	365040	OK	0.8452132	-0.4078552	-0.345353	0	-89.753	-60.896	9.819	B5-03822-P03-CH1	365040	OK	0.7787763	-0.5581492	-0.2863163	0	-95.366	-30.64	2.813	B5-03822-P04-CH0	365040	OK	0.7376375	-0.3360169	0.585648	0	-120.163	-38.171	7.85	B5-03822-P04-CH1	365040	OK	0.7352121	-0.6753145	0.0584252	0	-108.58	-45.411	0.24	NA
0.919257465698144	B5-03822-P01-CH0	365048	OK	0.2309852	0.0244802	0.0505793	-0.9713333	103.473	-20.403	-236.769	B5-03822-P02-CH0	365048	OK	0.8591601	0.1296792	-0.4950022	0	-78.485	-98.214	8.687	B5-03822-P02-CH1	365048	OK	0.801607	-0.0897361	-0.5910784	0	-74.256	-78.114	2.465	B5-03822-P03-CH0	365048	OK	0.843779	-0.4085785	-0.3479952	0	-90.259	-61.049	9.537	B5-03822-P03-CH1	365048	OK	0.7788232	-0.5580104	-0.2864593	0	-95.318	-30.582	2.752	B5-03822-P04-CH0	365048	OK	0.7379726	-0.3364551	0.5849738	0	-120.208	-38.019	7.697	B5-03822-P04-CH1	365048	OK	0.7352289	-0.6752812	0.0585983	0	-108.587	-45.377	0.202	NA
0.929249394673124	B5-03822-P01-CH0	365056	OK	0.2310673	0.0242795	0.0508101	-0.9713067	103.487	-20.378	-236.903	B5-03822-P02-CH0	365056	OK	0.8575981	0.1290641	-0.4978634	0	-78.607	-98.069	8.312	B5-03822-P02-CH1	365056	OK	0.8024054	-0.0884372	-0.5901902	0	-74.282	-77.792	2.467	B5-03822-P03-CH0	365056	OK	0.8429499	-0.4088403	-0.3496927	0	-90.131	-61.081	9.313	B5-03822-P03-CH1	365056	OK	0.7790014	-0.5576475	-0.286681	0	-95.413	-30.488	2.776	B5-03822-P04-CH0	365056	OK	0.7382684	-0.3370481	0.5842588	0	-120.212	-37.914	7.569	B5-03822-P04-CH1	365056	OK	0.7354326	-0.6750334	0.0588967	0	-108.567	-45.43	0.557	NA
0.939241323648103	B5-03822-P01-CH0	365064	OK	0.231424	0.0241597	0.0514682	-0.9711901	103.524	-20.322	-237.03	B5-03822-P02-CH0	365064	OK	0.8569421	0.1260423	-0.4997636	0	-78.667	-98.491	8.571	B5-03822-P02-CH1	365064	OK	0.8035156	-0.0908663	-0.5883078	0	-74.89	-78.287	3.992	B5-03822-P03-CH0	365064	OK	0.8420446	-0.4090364	-0.3516392	0	-90.001	-61.054	9.623	B5-03822-P03-CH1	365064	OK	0.7794428	-0.5571946	-0.2863617	0	-95.391	-30.536	2.889	B5-03822-P04-CH0	365064	OK	0.7395315	-0.3399929	0.5809457	0	-120.183	-38.422	7.478	B5-03822-P04-CH1	365064	OK	0.7357828	-0.6745969	0.0595208	0	-108.586	-45.552	0.481	NA
0.949233252623083	B5-03822-P01-CH0	365072	OK	0.231386	0.0241305	0.0516633	-0.9711895	103.532	-20.31	-237.075	B5-03822-P02-CH0	365072	OK	0.8563871	0.1234897	-0.5013497	0	-78.925	-98.884	8.515	B5-03822-P02-CH1	365072	OK	0.8042784	-0.0918058	-0.5871184	0	-75.471	-78.222	3.017	B5-03822-P03-CH0	365072	OK	0.8409981	-0.408114	-0.3551975	0	-89.643	-60.822	9.672	B5-03822-P03-CH1	365072	OK	0.7795948	-0.5568639	-0.2865913	0	-95.448	-30.479	2.775	B5-03822-P04-CH0	365072	OK	0.7390128	-0.337821	0.5828697	0	-120.188	-37.932	7.408	B5-03822-P04-CH1	365072	OK	0.7359588	-0.6744314	0.0592192	0	-108.673	-45.495	0.398	NA
0.959225181598063	B5-03822-P01-CH0	365080	OK	0.2314972	0.0239479	0.0521919	-0.9711393	103.514	-20.293	-237.22	B5-03822-P02-CH0	365080	OK	0.8565097	0.1241375	-0.50098	0	-78.602	-98.381	8.435	B5-03822-P02-CH1	365080	OK	0.8059294	-0.0919732	-0.5848237	0	-75.235	-77.854	3.273	B5-03822-P03-CH0	365080	OK	0.8393834	-0.4064771	-0.3608489	0	-89.671	-60.748	9.223	B5-03822-P03-CH1	365080	OK	0.7800274	-0.5563284	-0.2864541	0	-95.456	-30.489	2.887	B5-03822-P04-CH0	365080	OK	0.7395371	-0.3378922	0.582163	0	-120.209	-38.092	7.704	B5-03822-P04-CH1	365080	OK	0.7361743	-0.6741815	0.0593861	0	-108.716	-45.68	0.736	NA
0.969217110573043	B5-03822-P01-CH0	365088	OK	0.2316467	0.0236808	0.0528121	-0.9710767	103.435	-20.227	-237.337	B5-03822-P02-CH0	365088	OK	0.8562011	0.1231705	-0.5017457	0	-78.411	-98.468	8.516	B5-03822-P02-CH1	365088	OK	0.805839	-0.0930803	-0.5847731	0	-75.252	-78.251	3.342	B5-03822-P03-CH0	365088	OK	0.8378531	-0.406736	-0.3640989	0	-89.349	-61.148	8.874	B5-03822-P03-CH1	365088	OK	0.7805183	-0.5557645	-0.2862114	0	-95.456	-30.435	2.94	B5-03822-P04-CH0	365088	OK	0.7398744	-0.3383801	0.5814506	0	-120.14	-38.111	7.614	B5-03822-P04-CH1	365088	OK	0.7363922	-0.6739266	0.059578	0	-108.581	-45.799	0.674	NA
0.979209039548023	B5-03822-P01-CH0	365096	OK	0.2316862	0.023517	0.0531649	-0.971052	103.365	-20.247	-237.413	B5-03822-P02-CH0	365096	OK	0.8550552	0.1216859	-0.5040567	0	-78.458	-98.779	8.391	B5-03822-P02-CH1	365096	OK	0.8054557	-0.0941104	-0.5851362	0	-75.149	-77.977	3.35	B5-03822-P03-CH0	365096	OK	0.8363229	-0.4049243	-0.3695948	0	-89.734	-60.938	9.16	B5-03822-P03-CH1	365096	OK	0.7807932	-0.5555064	-0.2859625	0	-95.393	-30.517	2.921	B5-03822-P04-CH0	365096	OK	0.7401316	-0.3387894	0.5808846	0	-120.118	-38.211	7.525	B5-03822-P04-CH1	365096	OK	0.7367273	-0.6735779	0.0593785	0	-108.535	-45.714	0.532	NA
0.989200968523003	B5-03822-P01-CH0	365104	OK	0.2315384	0.023685	0.0530304	-0.9710905	103.391	-20.335	-237.382	B5-03822-P02-CH0	365104	OK	0.8545394	0.1235478	-0.5044783	0	-77.98	-98.284	8.533	B5-03822-P02-CH1	365104	OK	0.80571	-0.0940106	-0.584802	0	-74.302	-77.623	3.246	B5-03822-P03-CH0	365104	OK	0.8356728	-0.4038701	-0.3722096	0	-89.428	-60.718	8.972	B5-03822-P03-CH1	365104	OK	0.7807319	-0.5555009	-0.2861405	0	-95.449	-30.602	2.841	B5-03822-P04-CH0	365104	OK	0.7402779	-0.3395475	0.5802552	0	-120.158	-38.305	7.476	B5-03822-P04-CH1	365104	OK	0.7365706	-0.6737442	0.0594352	0	-108.551	-45.921	0.832	NA
0.999192897497982	B5-03822-P01-CH0	365112	OK	0.231721	0.0236471	0.0540502	-0.9709916	103.359	-20.26	-237.426	B5-03822-P02-CH0	365112	OK	0.8528153	0.1240258	-0.5072708	0	-78.092	-98.1	8.476	B5-03822-P02-CH1	365112	OK	0.8038843	-0.0950647	-0.5871394	0	-74.416	-78.163	3.294	B5-03822-P03-CH0	365112	OK	0.8343392	-0.4013874	-0.3778442	0	-89.761	-60.591	8.88	B5-03822-P03-CH1	365112	OK	0.7812782	-0.5549211	-0.2857742	0	-95.504	-30.592	2.732	B5-03822-P04-CH0	365112	OK	0.7407017	-0.3398304	0.5795483	0	-120.106	-38.214	7.42	B5-03822-P04-CH1	365112	OK	0.7373285	-0.672913	0.059454	0	-108.417	-45.817	0.5	NA
1.00918482647296	B5-03822-P01-CH0	365120	OK	0.2315458	0.0237023	0.0539507	-0.9710376	103.3	-20.267	-237.445	B5-03822-P02-CH0	365120	OK	0.8520574	0.1228876	-0.5088191	0	-77.983	-98.475	7.779	B5-03822-P02-CH1	365120	OK	0.8036354	-0.096693	-0.5872142	0	-74.164	-77.912	3.17	B5-03822-P03-CH0	365120	OK	0.8331876	-0.3993117	-0.3825553	0	-89.702	-60.335	9.406	B5-03822-P03-CH1	365120	OK	0.7813059	-0.5548056	-0.2859229	0	-95.467	-30.592	2.775	B5-03822-P04-CH0	365120	OK	0.740495	-0.3407865	0.579251	0	-120.023	-38.24	7.398	B5-03822-P04-CH1	365120	OK	0.7373068	-0.672958	0.059214	0	-108.48	-45.806	0.727	NA
1.01917675544794	B5-03822-P01-CH0	365128	OK	0.2313346	0.0239364	0.0536403	-0.9710994	103.319	-20.316	-237.468	B5-03822-P02-CH0	365128	OK	0.8521279	0.1232182	-0.5086209	0	-77.532	-98.21	7.982	B5-03822-P02-CH1	365128	OK	0.8011615	-0.0982888	-0.5903216	0	-75.012	-78.017	2.699	B5-03822-P03-CH0	365128	OK	0.8315979	-0.3997271	-0.3855686	0	-89.607	-60.265	9.123	B5-03822-P03-CH1	365128	OK	0.7811596	-0.5548935	-0.2861518	0	-95.501	-30.673	2.834	B5-03822-P04-CH0	365128	OK	0.7403507	-0.3412953	0.5791359	0	-120.004	-38.425	7.733	B5-03822-P04-CH1	365128	OK	0.7370343	-0.6732727	0.0590282	0	-108.427	-45.839	0.512	NA
1.02916868442292	B5-03822-P01-CH0	365136	OK	0.2311016	0.0240554	0.0533073	-0.9711703	103.254	-20.331	-237.398	B5-03822-P02-CH0	365136	OK	0.8511099	0.1224443	-0.5105089	0	-77.818	-98.015	7.996	B5-03822-P02-CH1	365136	OK	0.8003015	-0.0999388	-0.5912103	0	-75.215	-77.935	2.952	B5-03822-P03-CH0	365136	OK	0.8306803	-0.4002305	-0.3870217	0	-89.37	-60.017	8.787	B5-03822-P03-CH1	365136	OK	0.7811325	-0.5549039	-0.2862058	0	-95.413	-30.645	2.817	B5-03822-P04-CH0	365136	OK	0.7402243	-0.3418824	0.5789512	0	-119.955	-38.441	7.823	B5-03822-P04-CH1	365136	OK	0.7369468	-0.6734258	0.0583712	0	-108.381	-45.615	0.033	NA
1.0391606133979	B5-03822-P01-CH0	365144	OK	0.2306575	0.0242253	0.0527863	-0.9713001	103.206	-20.373	-237.24	B5-03822-P02-CH0	365144	OK	0.8513627	0.1226129	-0.5100467	0	-77.633	-97.602	8.707	B5-03822-P02-CH1	365144	OK	0.8011533	-0.10086	-0.5898989	0	-74.814	-77.701	3.576	B5-03822-P03-CH0	365144	OK	0.8297475	-0.4007157	-0.3885177	0	-89.201	-59.935	8.355	B5-03822-P03-CH1	365144	OK	0.7808383	-0.5550681	-0.2866898	0	-95.405	-30.62	2.683	B5-03822-P04-CH0	365144	OK	0.7399634	-0.3430163	0.5786138	0	-119.839	-38.344	7.835	B5-03822-P04-CH1	365144	OK	0.7366218	-0.6738245	0.0578689	0	-108.45	-45.632	0.393	NA
1.04915254237288	B5-03822-P01-CH0	365152	OK	0.2306639	0.024421	0.0526595	-0.9713006	103.243	-20.396	-237.191	B5-03822-P02-CH0	365152	OK	0.8511698	0.1225799	-0.5103765	0	-77.716	-97.67	7.87	B5-03822-P02-CH1	365152	OK	0.8009621	-0.1002367	-0.5902647	0	-74.908	-77.711	2.875	B5-03822-P03-CH0	365152	OK	0.8287212	-0.4001869	-0.3912436	0	-89.542	-59.836	8.39	B5-03822-P03-CH1	365152	OK	0.7807933	-0.5552416	-0.2864762	0	-95.386	-30.714	2.685	B5-03822-P04-CH0	365152	OK	0.7400487	-0.3428844	0.578583	0	-119.859	-38.587	8.263	B5-03822-P04-CH1	365152	OK	0.7365645	-0.6738859	0.0578836	0	-108.446	-45.682	0.299	NA
1.05914447134786	B5-03822-P01-CH0	365160	OK	0.2304658	0.0244259	0.0523716	-0.971363	103.203	-20.404	-237.151	B5-03822-P02-CH0	365160	OK	0.8509611	0.1241203	-0.5103523	0	-77.882	-97.335	8.124	B5-03822-P02-CH1	365160	OK	0.8006385	-0.1009249	-0.5905862	0	-75.48	-77.864	3.748	B5-03822-P03-CH0	365160	OK	0.827612	-0.3989418	-0.3948466	0	-89.934	-59.88	9.109	B5-03822-P03-CH1	365160	OK	0.7806071	-0.5553679	-0.2867385	0	-95.406	-30.716	2.649	B5-03822-P04-CH0	365160	OK	0.7399741	-0.3434429	0.578347	0	-119.865	-38.601	8.234	B5-03822-P04-CH1	365160	OK	0.7365665	-0.6739259	0.0573901	0	-108.348	-45.462	0.023	NA
1.06913640032284	B5-03822-P01-CH0	365168	OK	0.2302161	0.0245976	0.0520052	-0.9714376	103.239	-20.453	-237.104	B5-03822-P02-CH0	365168	OK	0.8508152	0.1228878	-0.5108934	0	-78.265	-97.979	8.415	B5-03822-P02-CH1	365168	OK	0.8022795	-0.1007495	-0.5883852	0	-75.355	-77.571	3.316	B5-03822-P03-CH0	365168	OK	0.8271567	-0.3980047	-0.3967418	0	-89.97	-59.919	8.724	B5-03822-P03-CH1	365168	OK	0.7803854	-0.5555483	-0.2869924	0	-95.371	-30.798	2.637	B5-03822-P04-CH0	365168	OK	0.7398748	-0.3444786	0.5778578	0	-119.803	-38.412	8.116	B5-03822-P04-CH1	365168	OK	0.7364464	-0.6740817	0.0571014	0	-108.473	-45.44	0.216	NA
1.07912832929782	B5-03822-P01-CH0	365176	OK	0.2302522	0.0245607	0.0521109	-0.9714243	103.238	-20.419	-237.117	B5-03822-P02-CH0	365176	OK	0.8516942	0.1230263	-0.5093933	0	-77.982	-97.908	8.53	B5-03822-P02-CH1	365176	OK	0.8015988	-0.0988103	-0.5896405	0	-75.137	-77.835	3.28	B5-03822-P03-CH0	365176	OK	0.8271161	-0.3968693	-0.397962	0	-89.817	-59.917	9.037	B5-03822-P03-CH1	365176	OK	0.7804648	-0.5554632	-0.2869413	0	-95.374	-30.792	2.65	B5-03822-P04-CH0	365176	OK	0.7399597	-0.345067	0.577398	0	-119.753	-38.233	8.017	B5-03822-P04-CH1	365176	OK	0.7365991	-0.673927	0.0569568	0	-108.343	-45.387	0.139	NA
1.0891202582728	B5-03822-P01-CH0	365184	OK	0.2303264	0.0245369	0.0522677	-0.9713989	103.258	-20.408	-237.2	B5-03822-P02-CH0	365184	OK	0.8514022	0.1229396	-0.5099021	0	-78.015	-97.945	8.459	B5-03822-P02-CH1	365184	OK	0.8014173	-0.09947	-0.5897762	0	-75.226	-77.833	3.302	B5-03822-P03-CH0	365184	OK	0.8267941	-0.397066	-0.3984345	0	-89.658	-60.053	9.213	B5-03822-P03-CH1	365184	OK	0.7805871	-0.555393	-0.2867444	0	-95.342	-30.845	2.732	B5-03822-P04-CH0	365184	OK	0.7401426	-0.3453997	0.5769644	0	-119.725	-38.134	8.11	B5-03822-P04-CH1	365184	OK	0.7368873	-0.6736241	0.0568125	0	-108.268	-45.336	0.421	NA
1.09911218724778	B5-03822-P01-CH0	365192	OK	0.2302763	0.02446	0.0517713	-0.9714393	103.24	-20.472	-237.219	B5-03822-P02-CH0	365192	OK	0.8515426	0.1229291	-0.5096701	0	-77.943	-97.898	8.41	B5-03822-P02-CH1	365192	OK	0.8013876	-0.100143	-0.5897027	0	-75.231	-77.761	3.419	B5-03822-P03-CH0	365192	OK	0.8262412	-0.396571	-0.4000712	0	-89.676	-59.577	9.372	B5-03822-P03-CH1	365192	OK	0.7803549	-0.5555707	-0.2870322	0	-95.363	-30.887	2.814	B5-03822-P04-CH0	365192	OK	0.7400636	-0.3454787	0.5770185	0	-119.781	-38.427	8.349	B5-03822-P04-CH1	365192	OK	0.736549	-0.6740053	0.0566791	0	-108.249	-45.419	0.647	NA
1.10910411622276	B5-03822-P01-CH0	365200	OK	0.2301567	0.0245945	0.051486	-0.9714794	103.283	-20.502	-237.151	B5-03822-P02-CH0	365200	OK	0.8515285	0.123112	-0.5096495	0	-77.987	-97.812	8.38	B5-03822-P02-CH1	365200	OK	0.8020406	-0.1012386	-0.588627	0	-74.625	-77.12	3.293	B5-03822-P03-CH0	365200	OK	0.8255221	-0.3976522	-0.4004821	0	-89.572	-59.301	8.382	B5-03822-P03-CH1	365200	OK	0.7801579	-0.5556272	-0.2874579	0	-95.525	-30.813	2.745	B5-03822-P04-CH0	365200	OK	0.7401245	-0.3460833	0.5765779	0	-119.774	-38.335	8.342	B5-03822-P04-CH1	365200	OK	0.7364541	-0.6741501	0.0561871	0	-108.175	-45.281	0.342	NA
1.11909604519774	B5-03822-P01-CH0	365208	OK	0.2302621	0.02447	0.0515787	-0.9714526	103.242	-20.466	-237.159	B5-03822-P02-CH0	365208	OK	0.8516201	0.123255	-0.5094619	0	-77.923	-97.717	8.368	B5-03822-P02-CH1	365208	OK	0.8011255	-0.1018348	-0.5897691	0	-74.776	-77.615	3.126	B5-03822-P03-CH0	365208	OK	0.8248677	-0.398713	-0.4007758	0	-89.751	-59.382	8.671	B5-03822-P03-CH1	365208	OK	0.7803661	-0.5554071	-0.2873182	0	-95.467	-30.723	2.767	B5-03822-P04-CH0	365208	OK	0.7401331	-0.3466314	0.5762375	0	-119.695	-38.224	8.179	B5-03822-P04-CH1	365208	OK	0.7365815	-0.6740066	0.0562391	0	-108.185	-45.243	0.584	NA
1.12908797417272	B5-03822-P01-CH0	365216	OK	0.2304292	0.0246113	0.0515365	-0.9714117	103.307	-20.487	-237.149	B5-03822-P02-CH0	365216	OK	0.8517024	0.1232226	-0.5093321	0	-77.885	-97.788	8.341	B5-03822-P02-CH1	365216	OK	0.8011528	-0.1023535	-0.5896422	0	-74.757	-77.855	3.137	B5-03822-P03-CH0	365216	OK	0.8244692	-0.3993917	-0.4009199	0	-89.949	-59.337	8.52	B5-03822-P03-CH1	365216	OK	0.7802987	-0.5555123	-0.2872978	0	-95.518	-30.789	2.77	B5-03822-P04-CH0	365216	OK	0.74029	-0.3463844	0.5761844	0	-119.792	-38.475	8.38	B5-03822-P04-CH1	365216	OK	0.7364276	-0.6741422	0.056627	0	-108.199	-45.451	0.832	NA
1.1390799031477	B5-03822-P01-CH0	365224	OK	0.230592	0.0245167	0.051806	-0.9713611	103.291	-20.45	-237.21	B5-03822-P02-CH0	365224	OK	0.8516223	0.1235573	-0.509385	0	-77.871	-97.755	8.271	B5-03822-P02-CH1	365224	OK	0.8019065	-0.1021913	-0.588645	0	-74.895	-77.495	3.541	B5-03822-P03-CH0	365224	OK	0.8244401	-0.4006939	-0.3996785	0	-89.745	-59.41	8.354	B5-03822-P03-CH1	365224	OK	0.7805102	-0.5552752	-0.2871815	0	-95.516	-30.765	2.846	B5-03822-P04-CH0	365224	OK	0.7405242	-0.3462129	0.5759866	0	-119.888	-38.494	8.428	B5-03822-P04-CH1	365224	OK	0.736679	-0.673869	0.0566099	0	-108.122	-45.356	0.957	NA
1.14907183212268	B5-03822-P01-CH0	365232	OK	0.230711	0.0244704	0.0520282	-0.9713221	103.274	-20.435	-237.246	B5-03822-P02-CH0	365232	OK	0.85159	0.1237256	-0.509398	0	-77.838	-97.758	8.278	B5-03822-P02-CH1	365232	OK	0.8023135	-0.101628	-0.5881878	0	-75.389	-77.147	2.72	B5-03822-P03-CH0	365232	OK	0.8242952	-0.4005904	-0.4000809	0	-89.944	-59.34	8.584	B5-03822-P03-CH1	365232	OK	0.7805559	-0.5551795	-0.2872423	0	-95.54	-30.801	2.918	B5-03822-P04-CH0	365232	OK	0.7405098	-0.3465168	0.5758224	0	-119.821	-38.421	8.406	B5-03822-P04-CH1	365232	OK	0.7368182	-0.6736856	0.0569793	0	-108.134	-45.384	1.114	NA
1.15906376109766	B5-03822-P01-CH0	365240	OK	0.230846	0.0244354	0.052162	-0.9712838	103.264	-20.468	-237.21	B5-03822-P02-CH0	365240	OK	0.8515617	0.123611	-0.5094733	0	-77.784	-97.842	8.276	B5-03822-P02-CH1	365240	OK	0.8036485	-0.1021089	-0.5862789	0	-75.475	-77.371	3.594	B5-03822-P03-CH0	365240	OK	0.8247058	-0.3996738	-0.4001515	0	-89.801	-59.271	8.493	B5-03822-P03-CH1	365240	OK	0.7807109	-0.5549823	-0.2872021	0	-95.477	-30.785	2.862	B5-03822-P04-CH0	365240	OK	0.7402985	-0.3470029	0.5758012	0	-119.708	-38.356	8.231	B5-03822-P04-CH1	365240	OK	0.7367464	-0.6737408	0.0572551	0	-108.051	-45.542	1.152	NA
1.16905569007264	B5-03822-P01-CH0	365248	OK	0.2307779	0.0243195	0.051882	-0.9713179	103.209	-20.541	-237.165	B5-03822-P02-CH0	365248	OK	0.8515273	0.123509	-0.5095556	0	-77.74	-97.87	8.366	B5-03822-P02-CH1	365248	OK	0.8059125	-0.101367	-0.5832922	0	-74.859	-77.369	4.585	B5-03822-P03-CH0	365248	OK	0.8242789	-0.3982987	-0.402396	0	-90.444	-58.739	8.528	B5-03822-P03-CH1	365248	OK	0.7806826	-0.5547874	-0.2876554	0	-95.507	-30.66	2.795	B5-03822-P04-CH0	365248	OK	0.7401338	-0.3468567	0.576101	0	-119.772	-38.547	8.386	B5-03822-P04-CH1	365248	OK	0.7365847	-0.673935	0.0570491	0	-107.932	-45.458	1.004	NA
1.17904761904762	B5-03822-P01-CH0	365256	OK	0.2308104	0.0242539	0.052105	-0.9712998	103.173	-20.567	-237.145	B5-03822-P02-CH0	365256	OK	0.8512489	0.123567	-0.5100064	0	-77.753	-97.903	8.377	B5-03822-P02-CH1	365256	OK	0.8057992	-0.1002452	-0.5836425	0	-75.107	-77.211	3.784	B5-03822-P03-CH0	365256	OK	0.8252184	-0.3989179	-0.3998489	0	-89.683	-59.438	8.655	B5-03822-P03-CH1	365256	OK	0.7808885	-0.5544943	-0.2876617	0	-95.483	-30.557	2.641	B5-03822-P04-CH0	365256	OK	0.7400687	-0.346458	0.5764245	0	-119.787	-38.678	8.525	B5-03822-P04-CH1	365256	OK	0.7366507	-0.6738354	0.0573718	0	-107.92	-45.565	1.337	NA
