Wav.Time	B5.03822.P01.CH0	Frame	State	Q0	Qx	Qy	Qz	Tx	Ty	Tz	B5.03822.P02.CH0	Frame.1	State.1	Q0.1	Qx.1	Qy.1	Qz.1	Tx.1	Ty.1	Tz.1	B5.03822.P02.CH1	Frame.2	State.2	Q0.2	Qx.2	Qy.2	Qz.2	Tx.2	Ty.2	Tz.2	B5.03822.P03.CH0	Frame.3	State.3	Q0.3	Qx.3	Qy.3	Qz.3	Tx.3	Ty.3	Tz.3	B5.03822.P03.CH1	Frame.4	State.4	Q0.4	Qx.4	Qy.4	Qz.4	Tx.4	Ty.4	Tz.4	B5.03822.P04.CH0	Frame.5	State.5	Q0.5	Qx.5	Qy.5	Qz.5	Tx.5	Ty.5	Tz.5	B5.03822.P04.CH1	Frame.6	State.6	Q0.6	Qx.6	Qy.6	Qz.6	Tx.6	Ty.6	Tz.6	X
0	B5-03822-P01-CH0	1630800	OK	0.1822771	0.1436608	0.0846583	-0.9690044	164.512	-44.418	-245.117	B5-03822-P02-CH0	1630800	OK	0.7175718	0.4652725	-0.5182781	0	-90.468	-88.562	2.15	B5-03822-P02-CH1	1630800	OK	0.7517641	-0.1813568	-0.6340035	0	-90.269	-70.021	3.16	B5-03822-P03-CH0	1630800	OK	0.7758625	0.2627373	-0.5735909	0	-104.971	-54.153	14.78	B5-03822-P03-CH1	1630800	OK	0.7694808	-0.637207	-0.0432029	0	-101.697	-10.851	2.667	B5-03822-P04-CH0	1630800	OK	0.8111733	-0.429974	0.396384	0	-128.743	-26.744	13.797	B5-03822-P04-CH1	1630800	OK	0.7946857	-0.6063132	0.0293068	0	-113.684	-32.997	3.227	NA
0.00999204360106616	B5-03822-P01-CH0	1630808	OK	0.1826128	0.1432958	0.0853455	-0.968935	164.474	-44.364	-245.213	B5-03822-P02-CH0	1630808	OK	0.7175767	0.4653803	-0.5181745	0	-90.37	-88.38	1.884	B5-03822-P02-CH1	1630808	OK	0.7536683	-0.1794383	-0.6322863	0	-90.356	-69.651	3.363	B5-03822-P03-CH0	1630808	OK	0.7753086	0.2609921	-0.5751345	0	-105.175	-53.713	13.724	B5-03822-P03-CH1	1630808	OK	0.7701715	-0.6363743	-0.0431697	0	-101.491	-10.655	2.46	B5-03822-P04-CH0	1630808	OK	0.811389	-0.4291607	0.3968237	0	-128.72	-26.999	13.946	B5-03822-P04-CH1	1630808	OK	0.7950993	-0.6057579	0.0295701	0	-113.606	-33.089	3.201	NA
0.0199840872021323	B5-03822-P01-CH0	1630816	OK	0.1829334	0.1431087	0.0855258	-0.9688863	164.418	-44.317	-245.253	B5-03822-P02-CH0	1630816	OK	0.7206543	0.4606396	-0.5181396	0	-90.961	-88.805	2.299	B5-03822-P02-CH1	1630816	OK	0.7551049	-0.17871	-0.6307768	0	-90.188	-70.186	4.322	B5-03822-P03-CH0	1630816	OK	0.7758407	0.2613944	-0.5742336	0	-105.143	-53.67	13.483	B5-03822-P03-CH1	1630816	OK	0.7703057	-0.6362399	-0.0427528	0	-101.286	-10.767	2.575	B5-03822-P04-CH0	1630816	OK	0.811507	-0.4285859	0.3972033	0	-128.589	-27.098	14.129	B5-03822-P04-CH1	1630816	OK	0.7950412	-0.6057965	0.0303327	0	-113.62	-33.471	3.54	NA
0.0299761308031985	B5-03822-P01-CH0	1630824	OK	0.1828555	0.1430059	0.0854885	-0.9689194	164.351	-44.248	-245.253	B5-03822-P02-CH0	1630824	OK	0.7215925	0.4604923	-0.5169633	0	-90.768	-88.907	2.749	B5-03822-P02-CH1	1630824	OK	0.7555645	-0.1784525	-0.6302991	0	-90.179	-69.864	4.198	B5-03822-P03-CH0	1630824	OK	0.7765282	0.2622393	-0.5729176	0	-105.025	-53.467	13.609	B5-03822-P03-CH1	1630824	OK	0.7704564	-0.6360425	-0.0429754	0	-101.273	-10.526	2.495	B5-03822-P04-CH0	1630824	OK	0.8116557	-0.4282339	0.3972792	0	-128.72	-27.167	14.33	B5-03822-P04-CH1	1630824	OK	0.7948973	-0.6059777	0.0304854	0	-113.578	-33.598	3.719	NA
0.0399681744042646	B5-03822-P01-CH0	1630832	OK	0.1833007	0.1425832	0.0860797	-0.9688453	164.22	-44.1	-245.32	B5-03822-P02-CH0	1630832	OK	0.7225621	0.461239	-0.5149395	0	-90.31	-88.611	2.058	B5-03822-P02-CH1	1630832	OK	0.7539221	-0.1803059	-0.6317367	0	-90.66	-69.952	3.878	B5-03822-P03-CH0	1630832	OK	0.7798349	0.2640018	-0.5675919	0	-105.096	-53.37	14.133	B5-03822-P03-CH1	1630832	OK	0.7714036	-0.634897	-0.0429212	0	-101.094	-9.935	2.153	B5-03822-P04-CH0	1630832	OK	0.8118438	-0.4276883	0.3974824	0	-128.52	-27.025	14.123	B5-03822-P04-CH1	1630832	OK	0.7953273	-0.6053791	0.0311534	0	-113.519	-33.636	3.855	NA
0.0499602180053308	B5-03822-P01-CH0	1630840	OK	0.1832893	0.1427562	0.0854825	-0.9688748	164.248	-44.077	-245.253	B5-03822-P02-CH0	1630840	OK	0.7228646	0.46213	-0.5137145	0	-90.947	-89.468	3.19	B5-03822-P02-CH1	1630840	OK	0.7532028	-0.1819901	-0.6321116	0	-89.99	-70.098	4.991	B5-03822-P03-CH0	1630840	OK	0.7805855	0.262578	-0.5672204	0	-105.268	-53.674	14.7	B5-03822-P03-CH1	1630840	OK	0.7707174	-0.6357686	-0.0423434	0	-101.22	-10.234	2.337	B5-03822-P04-CH0	1630840	OK	0.8116828	-0.4275906	0.3979161	0	-128.587	-27.32	14.467	B5-03822-P04-CH1	1630840	OK	0.794829	-0.6060202	0.0314064	0	-113.487	-33.786	3.709	NA
0.0599522616063969	B5-03822-P01-CH0	1630848	OK	0.1832138	0.1429078	0.085045	-0.9689053	164.3	-44.063	-245.209	B5-03822-P02-CH0	1630848	OK	0.7238218	0.4661791	-0.5086837	0	-90.212	-88.434	2.911	B5-03822-P02-CH1	1630848	OK	0.7503707	-0.1828831	-0.6352146	0	-90.71	-69.807	3.906	B5-03822-P03-CH0	1630848	OK	0.7800852	0.2588085	-0.569636	0	-106.035	-54.39	14.497	B5-03822-P03-CH1	1630848	OK	0.7701356	-0.636519	-0.0416494	0	-101.469	-10.628	2.771	B5-03822-P04-CH0	1630848	OK	0.8117688	-0.4273527	0.3979963	0	-128.709	-27.45	14.794	B5-03822-P04-CH1	1630848	OK	0.7947853	-0.6060931	0.0311047	0	-113.451	-33.612	3.725	NA
0.0699443052074631	B5-03822-P01-CH0	1630856	OK	0.1832377	0.1429518	0.0854793	-0.968856	164.358	-44	-245.209	B5-03822-P02-CH0	1630856	OK	0.7245448	0.4645786	-0.5091185	0	-91.18	-89.427	3.135	B5-03822-P02-CH1	1630856	OK	0.7493495	-0.1836169	-0.6362076	0	-90.521	-69.464	3.735	B5-03822-P03-CH0	1630856	OK	0.7794906	0.2608856	-0.5695025	0	-105.567	-53.988	14.416	B5-03822-P03-CH1	1630856	OK	0.770491	-0.6360854	-0.0417	0	-101.48	-10.515	2.791	B5-03822-P04-CH0	1630856	OK	0.81217	-0.4265017	0.3980907	0	-128.904	-27.714	15.033	B5-03822-P04-CH1	1630856	OK	0.7950029	-0.6058088	0.0310811	0	-113.478	-33.606	3.636	NA
0.0799363488085293	B5-03822-P01-CH0	1630864	OK	0.1834241	0.1428413	0.0857903	-0.9688096	164.355	-43.936	-245.236	B5-03822-P02-CH0	1630864	OK	0.7255785	0.4666356	-0.5057539	0	-90.678	-88.651	2.396	B5-03822-P02-CH1	1630864	OK	0.7500686	-0.1843621	-0.6351439	0	-89.532	-69.043	3.657	B5-03822-P03-CH0	1630864	OK	0.7775685	0.2602669	-0.5724058	0	-105.278	-53.99	14.763	B5-03822-P03-CH1	1630864	OK	0.7707377	-0.6358013	-0.0414739	0	-101.46	-10.422	2.805	B5-03822-P04-CH0	1630864	OK	0.8125219	-0.4263387	0.3975468	0	-128.762	-27.309	14.556	B5-03822-P04-CH1	1630864	OK	0.7949113	-0.6058768	0.0320838	0	-113.516	-34.064	3.948	NA
0.0899283924095954	B5-03822-P01-CH0	1630872	OK	0.183334	0.1429299	0.0850236	-0.9688811	164.353	-43.955	-245.227	B5-03822-P02-CH0	1630872	OK	0.7259681	0.4652127	-0.5065051	0	-91.349	-89.178	5.193	B5-03822-P02-CH1	1630872	OK	0.7480893	-0.1852864	-0.6372059	0	-89.711	-69.248	3.264	B5-03822-P03-CH0	1630872	OK	0.7763333	0.2602229	-0.5740998	0	-104.452	-53.674	14.415	B5-03822-P03-CH1	1630872	OK	0.7698634	-0.6369058	-0.0407598	0	-101.526	-10.811	2.987	B5-03822-P04-CH0	1630872	OK	0.8122925	-0.4263542	0.3979988	0	-128.801	-27.585	14.695	B5-03822-P04-CH1	1630872	OK	0.7943501	-0.6066032	0.032257	0	-113.593	-34.185	3.826	NA
0.0999204360106616	B5-03822-P01-CH0	1630880	OK	0.1833765	0.1430936	0.0841453	-0.9689256	164.448	-44.012	-245.255	B5-03822-P02-CH0	1630880	OK	0.7277769	0.4663372	-0.5028622	0	-91.266	-88.866	4.302	B5-03822-P02-CH1	1630880	OK	0.746095	-0.1865702	-0.6391665	0	-89.749	-69.026	2.792	B5-03822-P03-CH0	1630880	OK	0.7729678	0.2584066	-0.5794367	0	-105.61	-53.366	12.422	B5-03822-P03-CH1	1630880	OK	0.7694937	-0.637364	-0.0405791	0	-101.443	-10.767	2.982	B5-03822-P04-CH0	1630880	OK	0.8121911	-0.4259244	0.3986652	0	-128.921	-27.898	14.901	B5-03822-P04-CH1	1630880	OK	0.79378	-0.6073197	0.0328052	0	-113.636	-34.414	3.852	NA
0.109912479611728	B5-03822-P01-CH0	1630888	OK	0.183367	0.1436979	0.0834571	-0.9688975	164.576	-43.946	-245.056	B5-03822-P02-CH0	1630888	OK	0.7301455	0.4707082	-0.4952993	0	-90.906	-87.665	2.628	B5-03822-P02-CH1	1630888	OK	0.7434583	-0.1890175	-0.6415155	0	-90.837	-69.579	3.71	B5-03822-P03-CH0	1630888	OK	0.7721417	0.2542499	-0.5823695	0	-106.219	-53.997	13.86	B5-03822-P03-CH1	1630888	OK	0.7689991	-0.6379888	-0.0401339	0	-101.59	-10.747	2.925	B5-03822-P04-CH0	1630888	OK	0.8124378	-0.4250685	0.3990759	0	-129.23	-28.035	15.04	B5-03822-P04-CH1	1630888	OK	0.7934162	-0.6077605	0.0334351	0	-114.018	-34.456	3.939	NA
0.119904523212794	B5-03822-P01-CH0	1630896	OK	0.1833081	0.1438113	0.0833931	-0.9688973	164.583	-43.8	-244.954	B5-03822-P02-CH0	1630896	OK	0.7333893	0.4689512	-0.4921635	0	-91.97	-88.396	4.184	B5-03822-P02-CH1	1630896	OK	0.7450717	-0.1925171	-0.6385964	0	-90.12	-69.076	3.325	B5-03822-P03-CH0	1630896	OK	0.7734557	0.2552408	-0.5801882	0	-105.768	-53.157	13.959	B5-03822-P03-CH1	1630896	OK	0.7690882	-0.6378918	-0.0399661	0	-101.546	-10.385	2.521	B5-03822-P04-CH0	1630896	OK	0.8126761	-0.4241534	0.399564	0	-129.366	-28.086	15.032	B5-03822-P04-CH1	1630896	OK	0.7935655	-0.6075612	0.0335139	0	-114.023	-34.038	3.391	NA
0.12989656681386	B5-03822-P01-CH0	1630904	OK	0.183553	0.1437681	0.0836749	-0.9688331	164.62	-43.714	-244.939	B5-03822-P02-CH0	1630904	OK	0.737107	0.4678986	-0.4875901	0	-92.916	-88.243	3.871	B5-03822-P02-CH1	1630904	OK	0.7432966	-0.1964707	-0.6394603	0	-91.165	-68.138	2.808	B5-03822-P03-CH0	1630904	OK	0.773546	0.2574442	-0.5790933	0	-105.417	-52.472	13.711	B5-03822-P03-CH1	1630904	OK	0.7689896	-0.6380966	-0.03857	0	-101.587	-10.675	2.631	B5-03822-P04-CH0	1630904	OK	0.8129868	-0.4230981	0.4000506	0	-129.271	-28.051	14.805	B5-03822-P04-CH1	1630904	OK	0.7940284	-0.6069318	0.0339521	0	-114.016	-33.786	3.153	NA
0.139888610414926	B5-03822-P01-CH0	1630912	OK	0.1834231	0.1441661	0.083122	-0.9688461	164.805	-43.727	-244.932	B5-03822-P02-CH0	1630912	OK	0.7398995	0.4655116	-0.4856415	0	-93.894	-88.532	6.088	B5-03822-P02-CH1	1630912	OK	0.7431718	-0.1998146	-0.6385685	0	-91.058	-67.767	2.504	B5-03822-P03-CH0	1630912	OK	0.7739915	0.2568367	-0.5787677	0	-105.48	-52.465	13.646	B5-03822-P03-CH1	1630912	OK	0.7681462	-0.6391856	-0.0373252	0	-101.728	-11.265	3.182	B5-03822-P04-CH0	1630912	OK	0.8131932	-0.4219554	0.4008372	0	-129.644	-28.489	15.15	B5-03822-P04-CH1	1630912	OK	0.7937351	-0.6072835	0.0345157	0	-114.327	-33.885	3.196	NA
0.149880654015992	B5-03822-P01-CH0	1630920	OK	0.1832509	0.1444052	0.0828225	-0.9688688	164.902	-43.69	-244.879	B5-03822-P02-CH0	1630920	OK	0.7442658	0.4610581	-0.4832119	0	-93.424	-89.443	5.27	B5-03822-P02-CH1	1630920	OK	0.7418122	-0.2057769	-0.6382559	0	-91.616	-68.022	2.629	B5-03822-P03-CH0	1630920	OK	0.7743908	0.2559199	-0.5786397	0	-105.948	-52.809	13.955	B5-03822-P03-CH1	1630920	OK	0.7679727	-0.6394317	-0.0366731	0	-101.727	-11.153	3.122	B5-03822-P04-CH0	1630920	OK	0.8134965	-0.4205949	0.4016508	0	-129.958	-28.701	15.178	B5-03822-P04-CH1	1630920	OK	0.7936179	-0.6074174	0.0348526	0	-114.586	-33.907	3.375	NA
0.159872697617059	B5-03822-P01-CH0	1630928	OK	0.183135	0.1443938	0.0823001	-0.9689369	164.903	-43.685	-244.875	B5-03822-P02-CH0	1630928	OK	0.744283	0.4551112	-0.4887909	0	-93.64	-89.947	6.632	B5-03822-P02-CH1	1630928	OK	0.7406458	-0.2167828	-0.6359631	0	-91.327	-68.036	3.191	B5-03822-P03-CH0	1630928	OK	0.7748564	0.2517641	-0.5798382	0	-106.883	-53.084	14.265	B5-03822-P03-CH1	1630928	OK	0.7676216	-0.6398979	-0.0358871	0	-101.623	-11.073	2.961	B5-03822-P04-CH0	1630928	OK	0.8134471	-0.4196954	0.4026904	0	-129.998	-28.792	14.967	B5-03822-P04-CH1	1630928	OK	0.7931353	-0.608001	0.0356538	0	-114.642	-34.101	3.249	NA
0.169864741218125	B5-03822-P01-CH0	1630936	OK	0.183464	0.1439726	0.0824699	-0.9689229	164.775	-43.55	-244.942	B5-03822-P02-CH0	1630936	OK	0.7426611	0.451546	-0.4945307	0	-92.131	-88.715	4.816	B5-03822-P02-CH1	1630936	OK	0.738919	-0.2383584	-0.6302253	0	-90.254	-67.209	2.107	B5-03822-P03-CH0	1630936	OK	0.7772134	0.2460289	-0.5791452	0	-106.94	-52.31	13.537	B5-03822-P03-CH1	1630936	OK	0.7675893	-0.6400383	-0.0340225	0	-101.445	-11.217	3.139	B5-03822-P04-CH0	1630936	OK	0.8137696	-0.4183562	0.4034317	0	-129.781	-28.299	14.488	B5-03822-P04-CH1	1630936	OK	0.7934965	-0.6074859	0.0363895	0	-114.485	-33.798	2.768	NA
0.179856784819191	B5-03822-P01-CH0	1630944	OK	0.1836775	0.1436422	0.0826584	-0.9689154	164.789	-43.564	-245.111	B5-03822-P02-CH0	1630944	OK	0.7399539	0.4506137	-0.4994152	0	-89.598	-87.045	2.023	B5-03822-P02-CH1	1630944	OK	0.7347636	-0.2703185	-0.6221337	0	-89.059	-65.993	2.257	B5-03822-P03-CH0	1630944	OK	0.7801091	0.235878	-0.579475	0	-107.143	-52.413	13.377	B5-03822-P03-CH1	1630944	OK	0.7676253	-0.6400691	-0.032602	0	-101.278	-11.388	3.231	B5-03822-P04-CH0	1630944	OK	0.813958	-0.4165531	0.4049146	0	-129.818	-28.44	14.303	B5-03822-P04-CH1	1630944	OK	0.793701	-0.6071818	0.0370003	0	-114.514	-33.879	2.691	NA
0.189848828420257	B5-03822-P01-CH0	1630952	OK	0.1840713	0.1435447	0.0838966	-0.9687487	164.862	-43.362	-245.117	B5-03822-P02-CH0	1630952	OK	0.731701	0.4496227	-0.5123017	0	-87.596	-86.618	1.886	B5-03822-P02-CH1	1630952	OK	0.7303596	-0.3087236	-0.6093149	0	-87.197	-65.381	2.041	B5-03822-P03-CH0	1630952	OK	0.7829785	0.2305291	-0.5777551	0	-106.514	-51.676	14.722	B5-03822-P03-CH1	1630952	OK	0.7683261	-0.6392992	-0.0311709	0	-101.382	-11.351	3.322	B5-03822-P04-CH0	1630952	OK	0.8147372	-0.4139114	0.406055	0	-130.005	-28.403	14.219	B5-03822-P04-CH1	1630952	OK	0.7946995	-0.605846	0.037461	0	-114.548	-33.606	2.488	NA
0.199840872021323	B5-03822-P01-CH0	1630960	OK	0.1842861	0.1433758	0.084429	-0.9686866	164.871	-43.239	-245.176	B5-03822-P02-CH0	1630960	OK	0.720136	0.4507527	-0.5274714	0	-84.722	-85.347	0.226	B5-03822-P02-CH1	1630960	OK	0.7285163	-0.3404955	-0.594413	0	-84.879	-64.448	2.69	B5-03822-P03-CH0	1630960	OK	0.7843782	0.2262839	-0.5775348	0	-106.462	-51.697	14.335	B5-03822-P03-CH1	1630960	OK	0.7683784	-0.6393076	-0.0296699	0	-101.46	-11.482	3.292	B5-03822-P04-CH0	1630960	OK	0.8150056	-0.4124163	0.4070365	0	-130.005	-28.115	13.769	B5-03822-P04-CH1	1630960	OK	0.7949157	-0.6055081	0.0383257	0	-114.737	-33.797	2.622	NA
0.209832915622389	B5-03822-P01-CH0	1630968	OK	0.1840226	0.1430203	0.0844262	-0.9687895	164.77	-43.187	-245.255	B5-03822-P02-CH0	1630968	OK	0.7074155	0.4466639	-0.5477725	0	-83.057	-85.762	-0.335	B5-03822-P02-CH1	1630968	OK	0.7292442	-0.3626718	-0.5802345	0	-84.056	-64.224	1.596	B5-03822-P03-CH0	1630968	OK	0.7835264	0.2245324	-0.5793717	0	-106.687	-51.439	13.275	B5-03822-P03-CH1	1630968	OK	0.7683333	-0.6393956	-0.0289347	0	-101.419	-11.37	3.359	B5-03822-P04-CH0	1630968	OK	0.814729	-0.4118533	0.4081586	0	-129.798	-27.828	13.462	B5-03822-P04-CH1	1630968	OK	0.7947131	-0.6057722	0.0383539	0	-114.577	-33.911	2.648	NA
0.219824959223455	B5-03822-P01-CH0	1630976	OK	0.1840033	0.1428697	0.0840619	-0.9688471	164.848	-43.272	-245.437	B5-03822-P02-CH0	1630976	OK	0.694647	0.4303683	-0.5764101	0	-81.753	-86.113	-0.002	B5-03822-P02-CH1	1630976	OK	0.7321169	-0.3757	-0.5682028	0	-82.953	-65.02	2.574	B5-03822-P03-CH0	1630976	OK	0.7823172	0.2256469	-0.5805714	0	-105.994	-51.66	14.202	B5-03822-P03-CH1	1630976	OK	0.7679447	-0.6399043	-0.0279888	0	-101.466	-11.569	3.561	B5-03822-P04-CH0	1630976	OK	0.8129721	-0.4067847	0.4166564	0	-129.509	-29.095	15.647	B5-03822-P04-CH1	1630976	OK	0.7943285	-0.6062544	0.0387016	0	-114.6	-34.254	2.88	NA
0.229817002824522	B5-03822-P01-CH0	1630984	OK	0.1841816	0.1424609	0.084711	-0.9688169	164.757	-43.192	-245.52	B5-03822-P02-CH0	1630984	OK	0.6841985	0.3998278	-0.6099263	0	-80.238	-84.598	-0.656	B5-03822-P02-CH1	1630984	OK	0.736126	-0.3843842	-0.5571062	0	-83.354	-64.744	2.894	B5-03822-P03-CH0	1630984	OK	0.7803144	0.2304803	-0.5813675	0	-105.378	-51.1	13.954	B5-03822-P03-CH1	1630984	OK	0.7686457	-0.6390748	-0.0276983	0	-101.35	-11.116	3.299	B5-03822-P04-CH0	1630984	OK	0.8127644	-0.40471	0.4190749	0	-130.269	-29.767	16.733	B5-03822-P04-CH1	1630984	OK	0.7945967	-0.6058881	0.0389321	0	-114.528	-34.484	3.185	NA
0.239809046425588	B5-03822-P01-CH0	1630992	OK	0.1838904	0.1421032	0.0846488	-0.9689301	164.653	-43.24	-245.533	B5-03822-P02-CH0	1630992	OK	0.678494	0.3642596	-0.6379348	0	-79.54	-84.337	-0.852	B5-03822-P02-CH1	1630992	OK	0.7406045	-0.3905506	-0.5467863	0	-83.589	-64.477	3.401	B5-03822-P03-CH0	1630992	OK	0.7764761	0.2302837	-0.5865613	0	-105.695	-50.993	13.785	B5-03822-P03-CH1	1630992	OK	0.7684152	-0.639361	-0.027488	0	-101.317	-11.073	3.206	B5-03822-P04-CH0	1630992	OK	0.8115417	-0.4081363	0.4181207	0	-128.855	-26.659	14.345	B5-03822-P04-CH1	1630992	OK	0.7945882	-0.6059525	0.0380944	0	-114.22	-34.188	2.574	NA
0.249801090026654	B5-03822-P01-CH0	1631000	OK	0.1840799	0.1418381	0.0850369	-0.968899	164.616	-43.169	-245.573	B5-03822-P02-CH0	1631000	OK	0.6748561	0.3379485	-0.6560184	0	-79.41	-83.883	-1.609	B5-03822-P02-CH1	1631000	OK	0.7438784	-0.3930582	-0.5405091	0	-84.724	-63.263	1.773	B5-03822-P03-CH0	1631000	OK	0.7720442	0.2317216	-0.5918217	0	-105.593	-51.574	13.929	B5-03822-P03-CH1	1631000	OK	0.7681766	-0.6396847	-0.0266141	0	-101.398	-11.373	3.507	B5-03822-P04-CH0	1631000	OK	0.8108892	-0.4071842	0.4203092	0	-129.427	-26.873	13.769	B5-03822-P04-CH1	1631000	OK	0.7948702	-0.6056019	0.0377851	0	-114.126	-34.036	2.333	NA
0.25979313362772	B5-03822-P01-CH0	1631008	OK	0.1839937	0.1417033	0.0853465	-0.9689079	164.601	-43.104	-245.584	B5-03822-P02-CH0	1631008	OK	0.6736576	0.3259574	-0.6632776	0	-78.955	-84.179	-2.047	B5-03822-P02-CH1	1631008	OK	0.7471099	-0.3943999	-0.5350472	0	-84.93	-63.191	1.766	B5-03822-P03-CH0	1631008	OK	0.7670005	0.239172	-0.5954049	0	-104.762	-51.138	12.454	B5-03822-P03-CH1	1631008	OK	0.7677855	-0.6401673	-0.0262926	0	-101.5	-11.614	3.749	B5-03822-P04-CH0	1631008	OK	0.8095347	-0.4088687	0.4212837	0	-128.908	-25.215	11.408	B5-03822-P04-CH1	1631008	OK	0.7951012	-0.605339	0.0371335	0	-114.144	-34.066	2.848	NA
0.269785177228786	B5-03822-P01-CH0	1631016	OK	0.1839066	0.1417886	0.0854732	-0.9689008	164.685	-43.123	-245.535	B5-03822-P02-CH0	1631016	OK	0.672003	0.3254528	-0.6652011	0	-79.509	-84.546	-0.573	B5-03822-P02-CH1	1631016	OK	0.7507667	-0.3956399	-0.5289786	0	-83.844	-64.484	3.321	B5-03822-P03-CH0	1631016	OK	0.76182	0.2516339	-0.5969176	0	-103.023	-49.505	11.621	B5-03822-P03-CH1	1631016	OK	0.7673171	-0.6407295	-0.0262728	0	-101.69	-11.874	3.998	B5-03822-P04-CH0	1631016	OK	0.808828	-0.4077914	0.4236783	0	-128.44	-25.695	13.807	B5-03822-P04-CH1	1631016	OK	0.7949395	-0.6055946	0.0364192	0	-114.102	-34.258	3.02	NA
0.279777220829852	B5-03822-P01-CH0	1631024	OK	0.1833086	0.1419269	0.0848846	-0.9690456	164.647	-43.052	-245.43	B5-03822-P02-CH0	1631024	OK	0.6713497	0.3310391	-0.6631008	0	-80.84	-84.138	0.161	B5-03822-P02-CH1	1631024	OK	0.7526194	-0.394543	-0.5271621	0	-84.347	-64.375	2.863	B5-03822-P03-CH0	1631024	OK	0.7552573	0.2568689	-0.6029965	0	-103.302	-50.059	12.204	B5-03822-P03-CH1	1631024	OK	0.7662782	-0.6419378	-0.0270848	0	-101.88	-11.869	4.195	B5-03822-P04-CH0	1631024	OK	0.8079247	-0.4056126	0.4274765	0	-129.595	-27.378	14.9	B5-03822-P04-CH1	1631024	OK	0.7944439	-0.6063268	0.0350236	0	-114.114	-34.07	3.203	NA
0.289769264430919	B5-03822-P01-CH0	1631032	OK	0.1829318	0.1417615	0.084237	-0.9691975	164.528	-43.088	-245.4	B5-03822-P02-CH0	1631032	OK	0.6749152	0.3284961	-0.6607418	0	-80.88	-83.984	-0.724	B5-03822-P02-CH1	1631032	OK	0.7535453	-0.3894982	-0.5295853	0	-85.473	-63.472	1.837	B5-03822-P03-CH0	1631032	OK	0.75104	0.2621102	-0.606001	0	-103.581	-49.675	11.475	B5-03822-P03-CH1	1631032	OK	0.7647211	-0.6437644	-0.0277327	0	-101.908	-12.285	4.389	B5-03822-P04-CH0	1631032	OK	0.8064675	-0.4068183	0.4290792	0	-129.191	-26.666	13.8	B5-03822-P04-CH1	1631032	OK	0.7939912	-0.6069769	0.0340144	0	-113.981	-33.988	3.369	NA
0.299761308031985	B5-03822-P01-CH0	1631040	OK	0.1828141	0.1416649	0.0841949	-0.9692375	164.522	-43.089	-245.431	B5-03822-P02-CH0	1631040	OK	0.6781987	0.296	-0.6726296	0	-81.632	-83.835	0.01	B5-03822-P02-CH1	1631040	OK	0.7558853	-0.3829563	-0.5310196	0	-86.115	-64.129	2.61	B5-03822-P03-CH0	1631040	OK	0.7522619	0.2664574	-0.6025799	0	-102.289	-49.41	12.571	B5-03822-P03-CH1	1631040	OK	0.7594461	-0.6494719	-0.0377863	0	-101.408	-12.429	4.691	B5-03822-P04-CH0	1631040	OK	0.8057917	-0.4065953	0.4305578	0	-129.03	-26.156	13.297	B5-03822-P04-CH1	1631040	OK	0.7940311	-0.6069955	0.0327289	0	-113.757	-33.66	3.107	NA
0.309753351633051	B5-03822-P01-CH0	1631048	OK	0.1825263	0.1416526	0.0838784	-0.9693209	164.526	-43.135	-245.446	B5-03822-P02-CH0	1631048	OK	0.6855426	0.2424513	-0.6864756	0	-79.568	-81.173	-1.363	B5-03822-P02-CH1	1631048	OK	0.7590508	-0.3742896	-0.5326811	0	-87.362	-64.15	3.549	B5-03822-P03-CH0	1631048	OK	0.7519524	0.2670376	-0.6027093	0	-103.625	-49.873	12.3	B5-03822-P03-CH1	1631048	OK	0.7582541	-0.6505931	-0.0421811	0	-101.724	-11.887	4.807	B5-03822-P04-CH0	1631048	OK	0.805594	-0.4057951	0.4316813	0	-129.547	-26.447	13.749	B5-03822-P04-CH1	1631048	OK	0.7938233	-0.6073218	0.0316982	0	-113.763	-33.521	3.185	NA
0.319745395234117	B5-03822-P01-CH0	1631056	OK	0.1824561	0.1415837	0.0842245	-0.9693142	164.434	-43.049	-245.315	B5-03822-P02-CH0	1631056	OK	0.6877934	0.208141	-0.6954262	0	-81.075	-81.745	-1.276	B5-03822-P02-CH1	1631056	OK	0.7614893	-0.3680672	-0.533536	0	-88.151	-64.581	3.064	B5-03822-P03-CH0	1631056	OK	0.7520244	0.2685045	-0.6019673	0	-103.684	-49.116	11.705	B5-03822-P03-CH1	1631056	OK	0.7588186	-0.6494938	-0.0484992	0	-101.806	-9.871	4.195	B5-03822-P04-CH0	1631056	OK	0.8060479	-0.4059761	0.4306625	0	-128.687	-25.201	14.289	B5-03822-P04-CH1	1631056	OK	0.7940261	-0.6071062	0.0307339	0	-113.707	-33.267	3.135	NA
0.329737438835183	B5-03822-P01-CH0	1631064	OK	0.1820481	0.1419126	0.0835135	-0.9694044	164.519	-43.09	-245.265	B5-03822-P02-CH0	1631064	OK	0.6911625	0.1868393	-0.6981299	0	-81.731	-81.758	-2.223	B5-03822-P02-CH1	1631064	OK	0.7618445	-0.3617963	-0.5373048	0	-89.193	-64.912	4.087	B5-03822-P03-CH0	1631064	OK	0.7518459	0.2685632	-0.6021641	0	-103.69	-48.694	11.125	B5-03822-P03-CH1	1631064	OK	0.7576883	-0.6505003	-0.052515	0	-102.296	-9.264	4.623	B5-03822-P04-CH0	1631064	OK	0.8055256	-0.4081315	0.4296011	0	-128.352	-24.165	12.903	B5-03822-P04-CH1	1631064	OK	0.7934192	-0.60795	0.0297113	0	-113.741	-33.084	2.889	NA
0.339729482436249	B5-03822-P01-CH0	1631072	OK	0.1820618	0.1420348	0.0837689	-0.9693618	164.595	-42.976	-245.34	B5-03822-P02-CH0	1631072	OK	0.6918718	0.1669683	-0.7024492	0	-82.36	-81.484	-0.523	B5-03822-P02-CH1	1631072	OK	0.7614858	-0.3545255	-0.5426335	0	-90.047	-65.327	5.504	B5-03822-P03-CH0	1631072	OK	0.7520537	0.267852	-0.6022213	0	-103.866	-49.13	11.536	B5-03822-P03-CH1	1631072	OK	0.7569075	-0.6513343	-0.0534296	0	-102.128	-9.089	5.737	B5-03822-P04-CH0	1631072	OK	0.8063274	-0.40822	0.4280101	0	-129.251	-26.568	15.634	B5-03822-P04-CH1	1631072	OK	0.7932547	-0.6081883	0.0292217	0	-113.774	-33.191	3.26	NA
0.349721526037316	B5-03822-P01-CH0	1631080	OK	0.1823086	0.1418057	0.0847904	-0.9692602	164.595	-42.834	-245.48	B5-03822-P02-CH0	1631080	OK	0.6919136	0.1482618	-0.7065933	0	-82.444	-81.476	-0.647	B5-03822-P02-CH1	1631080	OK	0.7622879	-0.3470938	-0.5462994	0	-90.614	-65.121	4.42	B5-03822-P03-CH0	1631080	OK	0.752544	0.2708822	-0.6002503	0	-103.835	-49.388	12.205	B5-03822-P03-CH1	1631080	OK	0.7576194	-0.6503796	-0.0549476	0	-102.104	-7.152	3.405	B5-03822-P04-CH0	1631080	OK	0.8073391	-0.4180401	0.4164685	0	-127.947	-23.89	13.513	B5-03822-P04-CH1	1631080	OK	0.7938489	-0.6074333	0.0287873	0	-113.578	-32.989	3.359	NA
0.359713569638382	B5-03822-P01-CH0	1631088	OK	0.1827031	0.1417729	0.0854222	-0.9691352	164.612	-42.74	-245.517	B5-03822-P02-CH0	1631088	OK	0.6910836	0.1303746	-0.710919	0	-82.693	-81.909	-0.552	B5-03822-P02-CH1	1631088	OK	0.7625075	-0.3399219	-0.5504865	0	-91.986	-64.985	2.841	B5-03822-P03-CH0	1631088	OK	0.7533039	0.2739176	-0.597915	0	-104.358	-48.968	11.994	B5-03822-P03-CH1	1631088	OK	0.7577333	-0.6504697	-0.0522444	0	-101.958	-6.44	3.318	B5-03822-P04-CH0	1631088	OK	0.8092381	-0.4288484	0.4015255	0	-127.082	-23.187	13.819	B5-03822-P04-CH1	1631088	OK	0.7942402	-0.6069248	0.0287199	0	-113.521	-32.763	3.203	NA
0.369705613239448	B5-03822-P01-CH0	1631096	OK	0.1826223	0.1416913	0.0852124	-0.9691809	164.556	-42.712	-245.562	B5-03822-P02-CH0	1631096	OK	0.688988	0.1139353	-0.7157613	0	-83.483	-82.204	-0.731	B5-03822-P02-CH1	1631096	OK	0.7649677	-0.332022	-0.5518929	0	-91.908	-66.534	4.754	B5-03822-P03-CH0	1631096	OK	0.7575597	0.2753197	-0.5918634	0	-104.5	-50.197	12.583	B5-03822-P03-CH1	1631096	OK	0.7561595	-0.6527936	-0.0456427	0	-102.121	-7.517	4.196	B5-03822-P04-CH0	1631096	OK	0.8106184	-0.4403517	0.3859898	0	-127.122	-24.995	16.047	B5-03822-P04-CH1	1631096	OK	0.7941273	-0.6070767	0.02863	0	-113.698	-32.734	3.5	NA
0.379697656840514	B5-03822-P01-CH0	1631104	OK	0.1829252	0.1414885	0.0856724	-0.9691128	164.527	-42.746	-245.624	B5-03822-P02-CH0	1631104	OK	0.6873797	0.0981429	-0.7196368	0	-83.659	-82.594	-0.939	B5-03822-P02-CH1	1631104	OK	0.7673155	-0.3257266	-0.5523849	0	-93.316	-66.149	4.454	B5-03822-P03-CH0	1631104	OK	0.7616455	0.2808934	-0.5839478	0	-105.275	-51.45	14.536	B5-03822-P03-CH1	1631104	OK	0.7576552	-0.6511953	-0.0436278	0	-102.022	-6.477	3.891	B5-03822-P04-CH0	1631104	OK	0.8122566	-0.4513373	0.369505	0	-127.001	-24.453	14.102	B5-03822-P04-CH1	1631104	OK	0.794506	-0.6065781	0.0286899	0	-113.527	-32.488	2.918	NA
0.38968970044158	B5-03822-P01-CH0	1631112	OK	0.1832934	0.1416472	0.0862253	-0.968971	164.678	-42.742	-245.692	B5-03822-P02-CH0	1631112	OK	0.6841675	0.0802083	-0.724901	0	-84.645	-83.288	-0.726	B5-03822-P02-CH1	1631112	OK	0.7699931	-0.3186274	-0.5527994	0	-94.34	-67.016	4.394	B5-03822-P03-CH0	1631112	OK	0.7687558	0.2904965	-0.5697599	0	-106.38	-52.583	14.479	B5-03822-P03-CH1	1631112	OK	0.7565107	-0.6527319	-0.0404063	0	-102.254	-7.657	4.016	B5-03822-P04-CH0	1631112	OK	0.8148213	-0.4578682	0.3555601	0	-125.72	-24.449	16.157	B5-03822-P04-CH1	1631112	OK	0.7947497	-0.6062359	0.0291709	0	-113.778	-32.676	3.126	NA
0.399681744042646	B5-03822-P01-CH0	1631120	OK	0.1835163	0.1415816	0.0868998	-0.9688781	164.642	-42.627	-245.639	B5-03822-P02-CH0	1631120	OK	0.6832525	0.0583891	-0.7278439	0	-85.275	-84.241	-0.025	B5-03822-P02-CH1	1631120	OK	0.7740927	-0.304508	-0.5550274	0	-95.557	-67.298	4.503	B5-03822-P03-CH0	1631120	OK	0.7765748	0.307533	-0.5498682	0	-107.624	-54.261	16.027	B5-03822-P03-CH1	1631120	OK	0.7581169	-0.6511044	-0.036357	0	-103.376	-7.797	5.805	B5-03822-P04-CH0	1631120	OK	0.8166811	-0.4631737	0.3442413	0	-125.522	-24.402	15.056	B5-03822-P04-CH1	1631120	OK	0.7950539	-0.6058028	0.0298703	0	-114.032	-32.72	3.329	NA
0.409673787643712	B5-03822-P01-CH0	1631128	OK	0.1841582	0.1414259	0.0879757	-0.968682	164.687	-42.489	-245.715	B5-03822-P02-CH0	1631128	OK	0.685057	0.033854	-0.7277024	0	-85.406	-83.796	-0.7	B5-03822-P02-CH1	1631128	OK	0.7784621	-0.285768	-0.558868	0	-97.205	-68.191	5.302	B5-03822-P03-CH0	1631128	OK	0.7828651	0.3310185	-0.5268292	0	-108.293	-55.069	16.195	B5-03822-P03-CH1	1631128	OK	0.7609428	-0.6479618	-0.0333409	0	-103.238	-7.143	6.018	B5-03822-P04-CH0	1631128	OK	0.8201036	-0.464096	0.3347311	0	-124.839	-21.191	12.055	B5-03822-P04-CH1	1631128	OK	0.7957214	-0.6048724	0.0309341	0	-114.102	-32.699	3.216	NA
0.419665831244779	B5-03822-P01-CH0	1631136	OK	0.184244	0.1416625	0.0878428	-0.9686431	164.876	-42.533	-245.819	B5-03822-P02-CH0	1631136	OK	0.6868407	0.0059564	-0.7267835	0	-86.35	-84.717	-0.079	B5-03822-P02-CH1	1631136	OK	0.7825572	-0.2673327	-0.562261	0	-99.332	-68.552	5.041	B5-03822-P03-CH0	1631136	OK	0.7856554	0.3519856	-0.5087747	0	-109.673	-56.564	16.492	B5-03822-P03-CH1	1631136	OK	0.7632843	-0.6450814	-0.0355949	0	-102.382	-5.379	4.234	B5-03822-P04-CH0	1631136	OK	0.8217185	-0.4598631	0.3366075	0	-124.478	-22.229	13.785	B5-03822-P04-CH1	1631136	OK	0.7958424	-0.604688	0.0314216	0	-114.307	-32.632	3.21	NA
0.429657874845845	B5-03822-P01-CH0	1631144	OK	0.1845939	0.1415409	0.0879321	-0.9685862	164.897	-42.564	-245.8	B5-03822-P02-CH0	1631144	OK	0.6887747	-0.0184636	-0.7247403	0	-86.962	-85.793	-1.295	B5-03822-P02-CH1	1631144	OK	0.7880942	-0.2496454	-0.5626587	0	-100.381	-69.215	5.46	B5-03822-P03-CH0	1631144	OK	0.7873797	0.3732734	-0.4906121	0	-109.332	-57.255	18.107	B5-03822-P03-CH1	1631144	OK	0.7636172	-0.6448224	-0.0330574	0	-102.28	-6.463	4.862	B5-03822-P04-CH0	1631144	OK	0.8237322	-0.4518485	0.3424882	0	-124.383	-21.884	12.827	B5-03822-P04-CH1	1631144	OK	0.7957959	-0.6046702	0.0329061	0	-114.48	-32.958	3.194	NA
0.439649918446911	B5-03822-P01-CH0	1631152	OK	0.1848954	0.1416096	0.0879753	-0.9685147	164.987	-42.645	-245.772	B5-03822-P02-CH0	1631152	OK	0.6896487	-0.0388335	-0.7231021	0	-87.591	-86.708	-1.349	B5-03822-P02-CH1	1631152	OK	0.791117	-0.2335987	-0.5653012	0	-102.402	-70.801	6.903	B5-03822-P03-CH0	1631152	OK	0.7887412	0.3900696	-0.4751137	0	-109.362	-57.772	18.275	B5-03822-P03-CH1	1631152	OK	0.7659184	-0.6419859	-0.0349728	0	-101.45	-4.892	1.377	B5-03822-P04-CH0	1631152	OK	0.8269658	-0.4393156	0.3508979	0	-124.218	-20.855	12.61	B5-03822-P04-CH1	1631152	OK	0.7959535	-0.604407	0.0339143	0	-114.695	-33.035	2.936	NA
0.449641962047977	B5-03822-P01-CH0	1631160	OK	0.1849825	0.1414527	0.0874722	-0.9685666	164.93	-42.77	-245.724	B5-03822-P02-CH0	1631160	OK	0.6898437	-0.0535844	-0.7219726	0	-87.778	-87.042	-1.361	B5-03822-P02-CH1	1631160	OK	0.7974098	-0.217217	-0.5629871	0	-102.053	-70.914	6.765	B5-03822-P03-CH0	1631160	OK	0.790412	0.3993412	-0.4645164	0	-110.037	-58.899	18.447	B5-03822-P03-CH1	1631160	OK	0.7658314	-0.6422396	-0.0321025	0	-102.351	-6.573	3.972	B5-03822-P04-CH0	1631160	OK	0.8282937	-0.4258424	0.3641261	0	-125.043	-22.818	13.669	B5-03822-P04-CH1	1631160	OK	0.7958673	-0.6044523	0.0351104	0	-114.868	-33.076	2.828	NA
0.459634005649043	B5-03822-P01-CH0	1631168	OK	0.1850278	0.1413589	0.087673	-0.9685535	164.975	-42.766	-245.748	B5-03822-P02-CH0	1631168	OK	0.688098	-0.0633601	-0.7228462	0	-88.627	-87.261	-0.761	B5-03822-P02-CH1	1631168	OK	0.8031996	-0.2012241	-0.5606954	0	-102.422	-71.464	7.101	B5-03822-P03-CH0	1631168	OK	0.7924847	0.409547	-0.4519283	0	-110.382	-58.872	18.928	B5-03822-P03-CH1	1631168	OK	0.7663897	-0.641578	-0.032008	0	-102.609	-7.11	4.005	B5-03822-P04-CH0	1631168	OK	0.8290374	-0.4138242	0.3760936	0	-125.217	-23.409	15.3	B5-03822-P04-CH1	1631168	OK	0.7958897	-0.6043444	0.036433	0	-115.06	-33.263	2.596	NA
0.469626049250109	B5-03822-P01-CH0	1631176	OK	0.1857116	0.1414871	0.0881124	-0.968364	165.119	-42.714	-245.776	B5-03822-P02-CH0	1631176	OK	0.6892689	-0.0690251	-0.72121	0	-88.108	-87.076	-0.931	B5-03822-P02-CH1	1631176	OK	0.8077634	-0.1853211	-0.5596198	0	-104.187	-72.187	8.033	B5-03822-P03-CH0	1631176	OK	0.7948995	0.4117682	-0.4456251	0	-111.417	-60.096	19.95	B5-03822-P03-CH1	1631176	OK	0.767055	-0.6406789	-0.0340183	0	-102.131	-7.367	4.466	B5-03822-P04-CH0	1631176	OK	0.8281161	-0.4026918	0.3899525	0	-127.645	-26.942	15.889	B5-03822-P04-CH1	1631176	OK	0.7961403	-0.603884	0.038533	0	-115.234	-33.5	2.463	NA
0.479618092851176	B5-03822-P01-CH0	1631184	OK	0.1859851	0.1416945	0.0880413	-0.9682876	165.227	-42.684	-245.696	B5-03822-P02-CH0	1631184	OK	0.6904323	-0.0707105	-0.7199329	0	-88.289	-88.272	-0.833	B5-03822-P02-CH1	1631184	OK	0.8142354	-0.1750136	-0.553526	0	-104.186	-72.751	8.409	B5-03822-P03-CH0	1631184	OK	0.7983281	0.4140093	-0.4373425	0	-111.492	-60.303	20.576	B5-03822-P03-CH1	1631184	OK	0.7663186	-0.6414559	-0.0359181	0	-102.318	-8.628	4.443	B5-03822-P04-CH0	1631184	OK	0.8261159	-0.395626	0.4012638	0	-128.822	-27.078	14.311	B5-03822-P04-CH1	1631184	OK	0.796143	-0.6037678	0.0402595	0	-115.616	-33.69	2.431	NA
0.489610136452242	B5-03822-P01-CH0	1631192	OK	0.1859701	0.1419259	0.0875294	-0.968303	165.282	-42.709	-245.524	B5-03822-P02-CH0	1631192	OK	0.6920245	-0.066382	-0.7188153	0	-88.39	-89.109	-2.611	B5-03822-P02-CH1	1631192	OK	0.8178654	-0.1730034	-0.548786	0	-104.548	-73.668	9.636	B5-03822-P03-CH0	1631192	OK	0.8019332	0.4123302	-0.4323043	0	-111.822	-60.846	20.751	B5-03822-P03-CH1	1631192	OK	0.7684846	-0.6388407	-0.0362489	0	-102.479	-9.232	5.689	B5-03822-P04-CH0	1631192	OK	0.8240585	-0.3883966	0.4124023	0	-128.883	-26.043	13.982	B5-03822-P04-CH1	1631192	OK	0.7959064	-0.6039942	0.04152	0	-115.681	-33.638	1.874	NA
0.499602180053308	B5-03822-P01-CH0	1631200	OK	0.1860999	0.1421945	0.0869863	-0.9682876	165.372	-42.783	-245.385	B5-03822-P02-CH0	1631200	OK	0.6928253	-0.0629219	-0.718355	0	-87.71	-89.424	-1.595	B5-03822-P02-CH1	1631200	OK	0.8185723	-0.1738006	-0.5474785	0	-104.988	-73.184	8.553	B5-03822-P03-CH0	1631200	OK	0.8037234	0.4081601	-0.4329365	0	-112.282	-61.812	20.356	B5-03822-P03-CH1	1631200	OK	0.7703708	-0.6367245	-0.0333276	0	-102.094	-10.894	5.087	B5-03822-P04-CH0	1631200	OK	0.8210775	-0.3817608	0.4243706	0	-130.126	-27.658	13.835	B5-03822-P04-CH1	1631200	OK	0.7956873	-0.6041834	0.0429443	0	-115.791	-33.803	1.621	NA
0.509594223654374	B5-03822-P01-CH0	1631208	OK	0.186143	0.1422437	0.0865722	-0.9683092	165.373	-42.827	-245.271	B5-03822-P02-CH0	1631208	OK	0.6914337	-0.0577098	-0.7201312	0	-87.284	-89.413	-0.792	B5-03822-P02-CH1	1631208	OK	0.8198536	-0.1771388	-0.5444831	0	-103.961	-72.86	8.787	B5-03822-P03-CH0	1631208	OK	0.802432	0.4041619	-0.4390399	0	-112.749	-62.666	20.136	B5-03822-P03-CH1	1631208	OK	0.7725563	-0.6341679	-0.0314297	0	-102.046	-11.756	5.135	B5-03822-P04-CH0	1631208	OK	0.8184396	-0.3793035	0.431608	0	-129.938	-26.435	12.449	B5-03822-P04-CH1	1631208	OK	0.7955365	-0.6042852	0.044284	0	-115.917	-33.916	1.447	NA
0.51958626725544	B5-03822-P01-CH0	1631216	OK	0.1863327	0.1421721	0.0867491	-0.9682674	165.367	-42.832	-245.275	B5-03822-P02-CH0	1631216	OK	0.6903	-0.0469102	-0.7220009	0	-86.788	-89.751	-0.707	B5-03822-P02-CH1	1631216	OK	0.8179635	-0.1836069	-0.5451827	0	-104.268	-73.409	8.941	B5-03822-P03-CH0	1631216	OK	0.7984643	0.411602	-0.4393615	0	-111.63	-60.698	19.546	B5-03822-P03-CH1	1631216	OK	0.7760157	-0.6294523	-0.0398674	0	-101.396	-8.594	1.059	B5-03822-P04-CH0	1631216	OK	0.8169911	-0.3717931	0.4407895	0	-131.657	-29.275	14.314	B5-03822-P04-CH1	1631216	OK	0.7954815	-0.6042263	0.0460412	0	-116.094	-34.377	1.659	NA
0.529578310856506	B5-03822-P01-CH0	1631224	OK	0.1861898	0.1426188	0.0866934	-0.9682342	165.532	-42.828	-245.246	B5-03822-P02-CH0	1631224	OK	0.6897766	-0.0248254	-0.7235965	0	-86.263	-89.314	-1.129	B5-03822-P02-CH1	1631224	OK	0.8163683	-0.1906748	-0.5451476	0	-104.103	-74.1	9.542	B5-03822-P03-CH0	1631224	OK	0.7942682	0.4030022	-0.4546727	0	-112.569	-62.603	21.188	B5-03822-P03-CH1	1631224	OK	0.7755403	-0.6300402	-0.0398316	0	-102.31	-10.266	2.76	B5-03822-P04-CH0	1631224	OK	0.8161353	-0.3704162	0.4435256	0	-131.81	-27.912	13.573	B5-03822-P04-CH1	1631224	OK	0.7955194	-0.604126	0.0466982	0	-116.393	-34.516	1.883	NA
0.539570354457573	B5-03822-P01-CH0	1631232	OK	0.1861189	0.142758	0.0862894	-0.9682634	165.506	-42.821	-245.135	B5-03822-P02-CH0	1631232	OK	0.6880119	0.0032349	-0.7256922	0	-86.869	-89.489	-1.661	B5-03822-P02-CH1	1631232	OK	0.8148561	-0.1961506	-0.5454672	0	-103.304	-73.995	9.331	B5-03822-P03-CH0	1631232	OK	0.789485	0.4038715	-0.4621701	0	-112.271	-61.864	20.595	B5-03822-P03-CH1	1631232	OK	0.7742996	-0.6316185	-0.0389647	0	-102.301	-11.603	3.398	B5-03822-P04-CH0	1631232	OK	0.815357	-0.3695709	0.4456571	0	-131.858	-28.695	14.764	B5-03822-P04-CH1	1631232	OK	0.7952321	-0.604402	0.0480023	0	-116.612	-34.896	2.421	NA
0.549562398058639	B5-03822-P01-CH0	1631240	OK	0.1861568	0.1430811	0.0863531	-0.9682028	165.654	-42.785	-245.166	B5-03822-P02-CH0	1631240	OK	0.6856782	0.035401	-0.7270434	0	-87.606	-89.938	-0.727	B5-03822-P02-CH1	1631240	OK	0.8138046	-0.2043885	-0.5440105	0	-101.417	-73.516	8.086	B5-03822-P03-CH0	1631240	OK	0.7861751	0.4079786	-0.4642006	0	-110.761	-59.879	18.99	B5-03822-P03-CH1	1631240	OK	0.775919	-0.6295088	-0.0408453	0	-102.573	-10.095	3.507	B5-03822-P04-CH0	1631240	OK	0.8161553	-0.3664941	0.4467355	0	-132.941	-29.875	16.412	B5-03822-P04-CH1	1631240	OK	0.7952098	-0.6043747	0.0487089	0	-116.737	-35.123	2.556	NA
0.559554441659705	B5-03822-P01-CH0	1631248	OK	0.1862878	0.1432082	0.0862399	-0.9681689	165.634	-42.788	-245.033	B5-03822-P02-CH0	1631248	OK	0.6840071	0.0668239	-0.7264082	0	-87.79	-90.243	0.015	B5-03822-P02-CH1	1631248	OK	0.8069765	-0.2126267	-0.5509799	0	-101.109	-73.155	7.726	B5-03822-P03-CH0	1631248	OK	0.7825511	0.3919887	-0.4836927	0	-112.321	-62.467	20.226	B5-03822-P03-CH1	1631248	OK	0.7743603	-0.6316095	-0.0378901	0	-102.392	-11.407	4.234	B5-03822-P04-CH0	1631248	OK	0.8155867	-0.3688097	0.4458675	0	-132.459	-29.708	15.594	B5-03822-P04-CH1	1631248	OK	0.7951467	-0.6043992	0.0494303	0	-116.883	-35.273	2.493	NA
0.569546485260771	B5-03822-P01-CH0	1631256	OK	0.1856915	0.1434047	0.0858461	-0.9682893	165.697	-42.862	-245.041	B5-03822-P02-CH0	1631256	OK	0.6831945	0.095045	-0.7240247	0	-88.113	-90.568	0.163	B5-03822-P02-CH1	1631256	OK	0.7964309	-0.2186643	-0.5638117	0	-101.064	-72.239	6.536	B5-03822-P03-CH0	1631256	OK	0.7811651	0.3869481	-0.4899513	0	-110.985	-59.619	18.348	B5-03822-P03-CH1	1631256	OK	0.7737728	-0.6322834	-0.0386433	0	-101.392	-10.912	3.064	B5-03822-P04-CH0	1631256	OK	0.8153586	-0.3730633	0.4427348	0	-132.414	-30.352	16.105	B5-03822-P04-CH1	1631256	OK	0.7948147	-0.6048703	0.0490059	0	-116.823	-35.362	2.642	NA
0.579538528861837	B5-03822-P01-CH0	1631264	OK	0.1854523	0.1434301	0.0857026	-0.9683441	165.689	-42.896	-245.023	B5-03822-P02-CH0	1631264	OK	0.6837362	0.1180876	-0.7201112	0	-87.223	-90.434	-1.019	B5-03822-P02-CH1	1631264	OK	0.786517	-0.2272941	-0.5742198	0	-98.524	-72.085	5.455	B5-03822-P03-CH0	1631264	OK	0.7808339	0.3688955	-0.5041969	0	-111.066	-59.576	17.532	B5-03822-P03-CH1	1631264	OK	0.7729608	-0.6332912	-0.0383912	0	-101.732	-11.621	4.556	B5-03822-P04-CH0	1631264	OK	0.8159163	-0.3787574	0.4368334	0	-132.654	-30.491	16.332	B5-03822-P04-CH1	1631264	OK	0.7946856	-0.6050344	0.0490735	0	-116.804	-35.578	3.047	NA
0.589530572462903	B5-03822-P01-CH0	1631272	OK	0.1854206	0.1432689	0.0859304	-0.9683539	165.613	-42.805	-245.053	B5-03822-P02-CH0	1631272	OK	0.6802734	0.1347675	-0.7204622	0	-87.246	-90.202	-0.594	B5-03822-P02-CH1	1631272	OK	0.7730783	-0.2395977	-0.5873184	0	-97.148	-71.697	4.674	B5-03822-P03-CH0	1631272	OK	0.7808204	0.3541766	-0.5146635	0	-110.782	-59.291	18.692	B5-03822-P03-CH1	1631272	OK	0.7741243	-0.631807	-0.0393887	0	-101.819	-10.458	3.411	B5-03822-P04-CH0	1631272	OK	0.8159298	-0.386984	0.4295369	0	-132.31	-29.507	14.965	B5-03822-P04-CH1	1631272	OK	0.7946237	-0.6051017	0.0492452	0	-116.792	-35.735	3.178	NA
0.59952261606397	B5-03822-P01-CH0	1631280	OK	0.1852867	0.1432719	0.0860733	-0.9683663	165.654	-42.81	-245.18	B5-03822-P02-CH0	1631280	OK	0.6763718	0.1500286	-0.721119	0	-86.652	-89.891	-0.711	B5-03822-P02-CH1	1631280	OK	0.7622032	-0.2561974	-0.5944823	0	-95.334	-71.915	4.587	B5-03822-P03-CH0	1631280	OK	0.7800721	0.3466084	-0.5209128	0	-111.374	-59.529	17.976	B5-03822-P03-CH1	1631280	OK	0.773653	-0.6323775	-0.0394934	0	-101.955	-11.268	3.899	B5-03822-P04-CH0	1631280	OK	0.8164652	-0.392315	0.4236431	0	-132.23	-30.196	16.46	B5-03822-P04-CH1	1631280	OK	0.7946827	-0.6050748	0.0486198	0	-116.668	-35.688	3.192	NA
0.609514659665036	B5-03822-P01-CH0	1631288	OK	0.1847994	0.1434179	0.085473	-0.968491	165.694	-42.914	-245.219	B5-03822-P02-CH0	1631288	OK	0.6722834	0.1660416	-0.7214327	0	-86.266	-90.024	-0.13	B5-03822-P02-CH1	1631288	OK	0.7530885	-0.2696939	-0.6001024	0	-93.956	-70.981	2.887	B5-03822-P03-CH0	1631288	OK	0.7805036	0.3417936	-0.5234418	0	-110.904	-59.817	18.479	B5-03822-P03-CH1	1631288	OK	0.7734291	-0.6325268	-0.0414412	0	-101.807	-11.16	3.75	B5-03822-P04-CH0	1631288	OK	0.8163243	-0.4022341	0.4145146	0	-130.521	-26.748	13.939	B5-03822-P04-CH1	1631288	OK	0.7941158	-0.6058852	0.0477818	0	-116.574	-35.87	3.535	NA
0.619506703266102	B5-03822-P01-CH0	1631296	OK	0.1845439	0.1433194	0.0851178	-0.9685856	165.586	-42.958	-245.144	B5-03822-P02-CH0	1631296	OK	0.670636	0.1780688	-0.7200964	0	-85.396	-89.22	0.16	B5-03822-P02-CH1	1631296	OK	0.7443325	-0.2811178	-0.6057573	0	-93.827	-70.494	2.241	B5-03822-P03-CH0	1631296	OK	0.7812449	0.3351535	-0.5266199	0	-110.281	-60.842	19.448	B5-03822-P03-CH1	1631296	OK	0.7729529	-0.6330758	-0.0419399	0	-101.754	-11.552	4.007	B5-03822-P04-CH0	1631296	OK	0.8162344	-0.4085376	0.4084832	0	-129.917	-26.694	14.479	B5-03822-P04-CH1	1631296	OK	0.7936387	-0.6065725	0.0469829	0	-116.344	-35.954	3.355	NA
0.629498746867168	B5-03822-P01-CH0	1631304	OK	0.1844939	0.1432589	0.0849222	-0.9686212	165.535	-42.946	-245.083	B5-03822-P02-CH0	1631304	OK	0.6696468	0.1835782	-0.7196334	0	-85.077	-88.857	-0.515	B5-03822-P02-CH1	1631304	OK	0.7405964	-0.2888512	-0.6066977	0	-92.245	-69.916	1.69	B5-03822-P03-CH0	1631304	OK	0.7779888	0.336363	-0.5306538	0	-110.508	-60.881	17.854	B5-03822-P03-CH1	1631304	OK	0.7730756	-0.6328589	-0.0429378	0	-101.562	-11.335	3.773	B5-03822-P04-CH0	1631304	OK	0.815745	-0.4130038	0.4049543	0	-129.332	-26.564	14.449	B5-03822-P04-CH1	1631304	OK	0.7936186	-0.6066787	0.0459412	0	-116.132	-35.709	3.295	NA
0.639490790468234	B5-03822-P01-CH0	1631312	OK	0.184674	0.1431854	0.0852215	-0.9685715	165.523	-42.845	-245.097	B5-03822-P02-CH0	1631312	OK	0.6703084	0.1847523	-0.7187164	0	-83.962	-87.895	-0.623	B5-03822-P02-CH1	1631312	OK	0.7368534	-0.2923928	-0.6095519	0	-91.601	-69.469	2.887	B5-03822-P03-CH0	1631312	OK	0.7699143	0.3436923	-0.5376872	0	-109.79	-60.561	18.151	B5-03822-P03-CH1	1631312	OK	0.7735401	-0.6322383	-0.0437088	0	-101.435	-11.157	3.755	B5-03822-P04-CH0	1631312	OK	0.8158147	-0.4154048	0.4023497	0	-128.85	-25.812	13.405	B5-03822-P04-CH1	1631312	OK	0.793859	-0.6064199	0.0451972	0	-115.906	-35.484	3.317	NA
0.6494828340693	B5-03822-P01-CH0	1631320	OK	0.1845509	0.1433214	0.0852851	-0.9685692	165.549	-42.835	-245.047	B5-03822-P02-CH0	1631320	OK	0.671793	0.1864429	-0.7168914	0	-83.374	-86.892	-1.273	B5-03822-P02-CH1	1631320	OK	0.7336072	-0.2900967	-0.614544	0	-91.912	-68.74	2.088	B5-03822-P03-CH0	1631320	OK	0.7597098	0.3556898	-0.5443581	0	-108.151	-59.207	17.27	B5-03822-P03-CH1	1631320	OK	0.7760703	-0.628606	-0.0506881	0	-101.355	-10.217	3.069	B5-03822-P04-CH0	1631320	OK	0.8159765	-0.4154282	0.4019972	0	-129.207	-27.305	15.059	B5-03822-P04-CH1	1631320	OK	0.7937475	-0.6066286	0.044347	0	-115.951	-35.502	3.347	NA
0.659474877670366	B5-03822-P01-CH0	1631328	OK	0.1841149	0.1435058	0.0843114	-0.9687102	165.602	-42.929	-245.067	B5-03822-P02-CH0	1631328	OK	0.6747612	0.196217	-0.7114747	0	-84.542	-87.519	-0.812	B5-03822-P02-CH1	1631328	OK	0.733146	-0.2801523	-0.6196867	0	-90.932	-69.439	3.358	B5-03822-P03-CH0	1631328	OK	0.749191	0.364798	-0.5528429	0	-106.284	-57.892	15.343	B5-03822-P03-CH1	1631328	OK	0.7736569	-0.6316579	-0.0496307	0	-101.135	-11.922	3.444	B5-03822-P04-CH0	1631328	OK	0.8164567	-0.4163115	0.4001039	0	-129.893	-26.857	14.358	B5-03822-P04-CH1	1631328	OK	0.7933135	-0.6073072	0.0427975	0	-115.798	-35.199	3.34	NA
0.669466921271433	B5-03822-P01-CH0	1631336	OK	0.1844816	0.1433051	0.0849613	-0.9686133	165.525	-42.803	-245.013	B5-03822-P02-CH0	1631336	OK	0.6807431	0.2120227	-0.701167	0	-85.15	-86.954	-0.895	B5-03822-P02-CH1	1631336	OK	0.731777	-0.2672849	-0.6269459	0	-91.191	-69.044	3.538	B5-03822-P03-CH0	1631336	OK	0.7382439	0.3770369	-0.5593201	0	-104.19	-55.935	14.438	B5-03822-P03-CH1	1631336	OK	0.7734622	-0.6319111	-0.0494434	0	-101.092	-12.195	3.707	B5-03822-P04-CH0	1631336	OK	0.8168338	-0.4155982	0.4000758	0	-129.019	-26.045	13.816	B5-03822-P04-CH1	1631336	OK	0.7936492	-0.6068918	0.0424655	0	-115.73	-35.145	3.248	NA
0.679458964872499	B5-03822-P01-CH0	1631344	OK	0.1843454	0.1434737	0.0844976	-0.9686549	165.512	-42.794	-244.897	B5-03822-P02-CH0	1631344	OK	0.6898409	0.2282231	-0.6870472	0	-85.232	-86.747	-0.959	B5-03822-P02-CH1	1631344	OK	0.7323356	-0.2568972	-0.6306254	0	-90.437	-68.485	3.561	B5-03822-P03-CH0	1631344	OK	0.7366337	0.3864096	-0.55503	0	-102.282	-52.753	11.335	B5-03822-P03-CH1	1631344	OK	0.7734784	-0.6320163	-0.0478184	0	-101.203	-11.297	3.401	B5-03822-P04-CH0	1631344	OK	0.8163516	-0.4151754	0.4014966	0	-128.816	-25.59	13.604	B5-03822-P04-CH1	1631344	OK	0.7931119	-0.6076465	0.0417045	0	-115.662	-35.255	3.347	NA
0.689451008473565	B5-03822-P01-CH0	1631352	OK	0.1845564	0.1433269	0.0848753	-0.9686034	165.479	-42.748	-244.922	B5-03822-P02-CH0	1631352	OK	0.6976752	0.2434573	-0.6737788	0	-86.29	-86.479	0.33	B5-03822-P02-CH1	1631352	OK	0.73085	-0.2532935	-0.6337986	0	-91.372	-67.204	2.157	B5-03822-P03-CH0	1631352	OK	0.7435756	0.3620473	-0.562154	0	-105.114	-56.374	12.2	B5-03822-P03-CH1	1631352	OK	0.7737602	-0.6316464	-0.0481459	0	-101.15	-11.4	3.421	B5-03822-P04-CH0	1631352	OK	0.8164343	-0.4119037	0.4046854	0	-128.459	-25.507	14.521	B5-03822-P04-CH1	1631352	OK	0.7935974	-0.6070761	0.0407647	0	-115.389	-34.881	3.274	NA
0.699443052074631	B5-03822-P01-CH0	1631360	OK	0.1842162	0.1431438	0.0843932	-0.9687373	165.416	-42.817	-244.933	B5-03822-P02-CH0	1631360	OK	0.7054192	0.2601198	-0.6593341	0	-87.065	-85.442	0.123	B5-03822-P02-CH1	1631360	OK	0.7289463	-0.2496426	-0.6374291	0	-91.229	-66.852	2.332	B5-03822-P03-CH0	1631360	OK	0.7521889	0.3430584	-0.5626036	0	-105.665	-55.568	14.975	B5-03822-P03-CH1	1631360	OK	0.773451	-0.6319896	-0.0486074	0	-101.152	-11.393	3.424	B5-03822-P04-CH0	1631360	OK	0.8158095	-0.4138144	0.4039958	0	-128.961	-25.612	13.531	B5-03822-P04-CH1	1631360	OK	0.7933709	-0.6074368	0.0397886	0	-115.371	-34.817	3.589	NA
0.709435095675697	B5-03822-P01-CH0	1631368	OK	0.1847749	0.1431461	0.0847618	-0.9685984	165.459	-42.752	-244.909	B5-03822-P02-CH0	1631368	OK	0.7112171	0.2783261	-0.6455267	0	-88.305	-86.348	1.712	B5-03822-P02-CH1	1631368	OK	0.7268435	-0.2433395	-0.6422495	0	-90.602	-67.538	3.32	B5-03822-P03-CH0	1631368	OK	0.7600394	0.3233372	-0.5637314	0	-105.779	-54.244	15.583	B5-03822-P03-CH1	1631368	OK	0.7735381	-0.6319645	-0.0475366	0	-101.258	-11.549	3.532	B5-03822-P04-CH0	1631368	OK	0.815909	-0.4128521	0.4047785	0	-129.266	-26.184	13.748	B5-03822-P04-CH1	1631368	OK	0.7937653	-0.6069401	0.0395011	0	-115.517	-34.682	3.454	NA
0.719427139276763	B5-03822-P01-CH0	1631376	OK	0.1852257	0.1429107	0.0854817	-0.9684838	165.455	-42.625	-244.986	B5-03822-P02-CH0	1631376	OK	0.7149678	0.3005344	-0.6312687	0	-89.471	-86.656	1.608	B5-03822-P02-CH1	1631376	OK	0.7245279	-0.2350369	-0.6479328	0	-90.311	-67.291	2.521	B5-03822-P03-CH0	1631376	OK	0.768193	0.2940465	-0.568697	0	-106.524	-54.293	15.872	B5-03822-P03-CH1	1631376	OK	0.7708692	-0.6357227	-0.0402151	0	-101.002	-12.294	3.365	B5-03822-P04-CH0	1631376	OK	0.8159771	-0.4059426	0.4115726	0	-130.504	-26.277	13.29	B5-03822-P04-CH1	1631376	OK	0.7946037	-0.6058795	0.0389232	0	-115.415	-34.161	3.266	NA
0.729419182877829	B5-03822-P01-CH0	1631384	OK	0.1855461	0.1427855	0.0857847	-0.9684141	165.492	-42.563	-245.093	B5-03822-P02-CH0	1631384	OK	0.7166078	0.3250596	-0.6170976	0	-90.227	-86.749	1.408	B5-03822-P02-CH1	1631384	OK	0.7219668	-0.2267832	-0.6537074	0	-89.749	-67.212	3.586	B5-03822-P03-CH0	1631384	OK	0.7734708	0.264476	-0.5760168	0	-107.356	-54.353	15.378	B5-03822-P03-CH1	1631384	OK	0.7696797	-0.6373511	-0.0371035	0	-100.943	-13.169	3.741	B5-03822-P04-CH0	1631384	OK	0.8157435	-0.4047672	0.4131901	0	-130.327	-27.08	14.068	B5-03822-P04-CH1	1631384	OK	0.7950274	-0.6053443	0.0385972	0	-115.256	-33.819	2.997	NA
0.739411226478896	B5-03822-P01-CH0	1631392	OK	0.1856292	0.1428668	0.0857887	-0.9683859	165.545	-42.503	-245.079	B5-03822-P02-CH0	1631392	OK	0.7175661	0.3476006	-0.6035501	0	-89.59	-86.137	1.195	B5-03822-P02-CH1	1631392	OK	0.7201338	-0.2229349	-0.6570444	0	-89.658	-67.745	3.757	B5-03822-P03-CH0	1631392	OK	0.7762366	0.2528287	-0.5775244	0	-106.837	-53.337	14.413	B5-03822-P03-CH1	1631392	OK	0.7704585	-0.6364403	-0.0365695	0	-101.259	-12.456	3.84	B5-03822-P04-CH0	1631392	OK	0.816647	-0.403764	0.4123861	0	-130.359	-25.809	13.338	B5-03822-P04-CH1	1631392	OK	0.7949757	-0.6054302	0.0383131	0	-115.242	-33.664	2.54	NA
0.749403270079962	B5-03822-P01-CH0	1631400	OK	0.1858264	0.1427157	0.0856011	-0.9683869	165.554	-42.559	-245.171	B5-03822-P02-CH0	1631400	OK	0.7184629	0.3616441	-0.5941587	0	-89.94	-87.639	1.511	B5-03822-P02-CH1	1631400	OK	0.7201901	-0.2196847	-0.6580766	0	-90.263	-68.17	3.441	B5-03822-P03-CH0	1631400	OK	0.7784905	0.2421174	-0.5790783	0	-106.845	-53.668	15.131	B5-03822-P03-CH1	1631400	OK	0.7723367	-0.6340729	-0.0380471	0	-100.931	-10.414	1.888	B5-03822-P04-CH0	1631400	OK	0.8168429	-0.4016247	0.4140837	0	-130.783	-27.449	15.27	B5-03822-P04-CH1	1631400	OK	0.7950438	-0.6053434	0.0382706	0	-115.056	-33.589	2.666	NA
0.759395313681028	B5-03822-P01-CH0	1631408	OK	0.1859299	0.1426969	0.0858734	-0.9683457	165.551	-42.497	-245.21	B5-03822-P02-CH0	1631408	OK	0.7181119	0.3715437	-0.5884477	0	-90.854	-88.442	2.019	B5-03822-P02-CH1	1631408	OK	0.722678	-0.2160291	-0.6565576	0	-90.55	-67.893	2.282	B5-03822-P03-CH0	1631408	OK	0.7797584	0.2370565	-0.5794662	0	-106.719	-53.03	14.165	B5-03822-P03-CH1	1631408	OK	0.7717868	-0.6347921	-0.0372036	0	-101.582	-11.084	2.068	B5-03822-P04-CH0	1631408	OK	0.8168781	-0.4000987	0.4154891	0	-132.293	-28.576	14.339	B5-03822-P04-CH1	1631408	OK	0.7951558	-0.6051921	0.0383387	0	-115.105	-33.607	2.734	NA
0.769387357282094	B5-03822-P01-CH0	1631416	OK	0.1860006	0.1427037	0.0857557	-0.9683416	165.529	-42.536	-245.195	B5-03822-P02-CH0	1631416	OK	0.7184688	0.3775353	-0.584183	0	-90.949	-87.927	2.657	B5-03822-P02-CH1	1631416	OK	0.7256738	-0.2108921	-0.6549214	0	-90.825	-67.6	2.041	B5-03822-P03-CH0	1631416	OK	0.7774193	0.233304	-0.5841133	0	-107.624	-54.106	14.18	B5-03822-P03-CH1	1631416	OK	0.7715849	-0.6350403	-0.0371554	0	-100.805	-11.268	2.188	B5-03822-P04-CH0	1631416	OK	0.8163124	-0.4043107	0.4125128	0	-130.652	-27.298	14.08	B5-03822-P04-CH1	1631416	OK	0.7952552	-0.605063	0.0383141	0	-115.135	-33.5	2.712	NA
0.77937940088316	B5-03822-P01-CH0	1631424	OK	0.18617	0.1424395	0.0862615	-0.968303	165.55	-42.586	-245.384	B5-03822-P02-CH0	1631424	OK	0.721542	0.375433	-0.581745	0	-90.741	-88.29	2.062	B5-03822-P02-CH1	1631424	OK	0.7296176	-0.2053276	-0.6523027	0	-91.039	-67.903	2.228	B5-03822-P03-CH0	1631424	OK	0.7771825	0.2378365	-0.5825986	0	-106.149	-53.782	14.452	B5-03822-P03-CH1	1631424	OK	0.771826	-0.6346695	-0.0384612	0	-101.169	-12.128	3.48	B5-03822-P04-CH0	1631424	OK	0.8163254	-0.4033395	0.4134369	0	-130.658	-27.41	14.041	B5-03822-P04-CH1	1631424	OK	0.7957125	-0.6044645	0.0382656	0	-115.03	-33.417	2.684	NA
0.789371444484226	B5-03822-P01-CH0	1631432	OK	0.1860249	0.1423578	0.0860261	-0.9683638	165.518	-42.673	-245.445	B5-03822-P02-CH0	1631432	OK	0.7239598	0.3751167	-0.5789385	0	-90.01	-87.035	0.887	B5-03822-P02-CH1	1631432	OK	0.7342854	-0.1966504	-0.6497335	0	-90.252	-67.927	2.696	B5-03822-P03-CH0	1631432	OK	0.7749075	0.2410391	-0.5843104	0	-106.175	-53.847	14.298	B5-03822-P03-CH1	1631432	OK	0.7713508	-0.6352995	-0.0375834	0	-101.186	-12.175	3.366	B5-03822-P04-CH0	1631432	OK	0.8161947	-0.4033257	0.4137083	0	-130.591	-27.504	14.379	B5-03822-P04-CH1	1631432	OK	0.7955897	-0.6046361	0.0381076	0	-115.076	-33.438	2.643	NA
0.799363488085293	B5-03822-P01-CH0	1631440	OK	0.1859012	0.1426865	0.0856315	-0.9683742	165.52	-42.695	-245.334	B5-03822-P02-CH0	1631440	OK	0.72444	0.3712735	-0.580812	0	-91.111	-88.306	1.237	B5-03822-P02-CH1	1631440	OK	0.7352453	-0.1886458	-0.65102	0	-91.393	-68.367	3.008	B5-03822-P03-CH0	1631440	OK	0.770647	0.2508857	-0.5857983	0	-106.468	-53.606	13.909	B5-03822-P03-CH1	1631440	OK	0.7710454	-0.6356872	-0.0372925	0	-101.166	-11.992	3.153	B5-03822-P04-CH0	1631440	OK	0.8160961	-0.4041654	0.4130829	0	-130.575	-27.359	14.292	B5-03822-P04-CH1	1631440	OK	0.7952528	-0.6050841	0.0380287	0	-115.066	-33.406	2.505	NA
0.809355531686359	B5-03822-P01-CH0	1631448	OK	0.1852436	0.142902	0.08492	-0.9685311	165.494	-42.776	-245.279	B5-03822-P02-CH0	1631448	OK	0.7254789	0.3686414	-0.5811918	0	-91.675	-88.831	2.189	B5-03822-P02-CH1	1631448	OK	0.7376735	-0.179188	-0.650945	0	-91.59	-68.642	3.193	B5-03822-P03-CH0	1631448	OK	0.7657062	0.2628437	-0.5870325	0	-106.519	-53.96	13.672	B5-03822-P03-CH1	1631448	OK	0.770654	-0.636119	-0.0380141	0	-101.149	-11.66	2.941	B5-03822-P04-CH0	1631448	OK	0.815721	-0.4063582	0.4116701	0	-130.377	-26.93	13.908	B5-03822-P04-CH1	1631448	OK	0.7947458	-0.6058058	0.0371283	0	-114.778	-33.225	2.319	NA
0.819347575287425	B5-03822-P01-CH0	1631456	OK	0.1850087	0.1431576	0.0845724	-0.9685686	165.507	-42.816	-245.206	B5-03822-P02-CH0	1631456	OK	0.7266448	0.3668731	-0.5808541	0	-91.289	-87.69	2.161	B5-03822-P02-CH1	1631456	OK	0.7384989	-0.1733694	-0.6515845	0	-92.614	-68.946	2.455	B5-03822-P03-CH0	1631456	OK	0.7604821	0.27699	-0.5873189	0	-105.926	-54.061	14.117	B5-03822-P03-CH1	1631456	OK	0.7705165	-0.6362701	-0.0382703	0	-101.212	-11.531	2.991	B5-03822-P04-CH0	1631456	OK	0.8155422	-0.4083206	0.4100795	0	-130.203	-26.615	13.725	B5-03822-P04-CH1	1631456	OK	0.7945121	-0.6061282	0.0368648	0	-114.852	-33.259	2.482	NA
0.829339618888491	B5-03822-P01-CH0	1631464	OK	0.184596	0.1432512	0.0841044	-0.9686743	165.436	-42.874	-245.12	B5-03822-P02-CH0	1631464	OK	0.7276308	0.3620726	-0.5826293	0	-91.879	-88.422	2.137	B5-03822-P02-CH1	1631464	OK	0.7421835	-0.1672143	-0.6490016	0	-91.874	-69.011	3.014	B5-03822-P03-CH0	1631464	OK	0.7556531	0.2946613	-0.584947	0	-104.707	-53.307	13.684	B5-03822-P03-CH1	1631464	OK	0.7701425	-0.6366981	-0.0386792	0	-101.273	-11.477	2.932	B5-03822-P04-CH0	1631464	OK	0.8137794	-0.4216968	0.3999186	0	-130.352	-27.91	13.778	B5-03822-P04-CH1	1631464	OK	0.7940836	-0.6067109	0.0365127	0	-114.928	-33.361	2.683	NA
0.839331662489557	B5-03822-P01-CH0	1631472	OK	0.1842589	0.1432177	0.0837919	-0.9687705	165.364	-42.971	-245.093	B5-03822-P02-CH0	1631472	OK	0.728348	0.3593607	-0.5834116	0	-91.802	-87.603	3.588	B5-03822-P02-CH1	1631472	OK	0.743809	-0.1645173	-0.6478288	0	-93.201	-69.316	3.644	B5-03822-P03-CH0	1631472	OK	0.7524593	0.3040228	-0.5842733	0	-104.907	-53.645	13.442	B5-03822-P03-CH1	1631472	OK	0.7697964	-0.6370978	-0.0389851	0	-101.299	-11.624	3.057	B5-03822-P04-CH0	1631472	OK	0.8138527	-0.4235821	0.3977712	0	-129.123	-27.391	15.72	B5-03822-P04-CH1	1631472	OK	0.7939219	-0.6069536	0.0359906	0	-114.96	-33.351	2.879	NA
0.849323706090623	B5-03822-P01-CH0	1631480	OK	0.1839455	0.1432904	0.08371	-0.9688264	165.329	-43.008	-245.015	B5-03822-P02-CH0	1631480	OK	0.7293256	0.3534778	-0.5857795	0	-91.919	-86.863	3.657	B5-03822-P02-CH1	1631480	OK	0.7468516	-0.1621935	-0.6449077	0	-93.681	-69.146	3.638	B5-03822-P03-CH0	1631480	OK	0.7533983	0.3066187	-0.5817009	0	-105.625	-54.46	14.131	B5-03822-P03-CH1	1631480	OK	0.7697731	-0.6370809	-0.0397141	0	-101.255	-11.505	2.989	B5-03822-P04-CH0	1631480	OK	0.8136627	-0.4261343	0.3954272	0	-129.426	-26.993	14.412	B5-03822-P04-CH1	1631480	OK	0.7938092	-0.6071543	0.0350808	0	-114.919	-33.211	2.712	NA
0.85931574969169	B5-03822-P01-CH0	1631488	OK	0.1843244	0.1429051	0.0843571	-0.9687551	165.218	-42.999	-245.001	B5-03822-P02-CH0	1631488	OK	0.7315268	0.3436653	-0.5888657	0	-91.659	-87.374	0.02	B5-03822-P02-CH1	1631488	OK	0.7497437	-0.1637277	-0.6411534	0	-93.799	-68.905	3.331	B5-03822-P03-CH0	1631488	OK	0.7577528	0.3077973	-0.5753882	0	-105.514	-53.916	13.444	B5-03822-P03-CH1	1631488	OK	0.7702082	-0.6365621	-0.0395974	0	-101.102	-11.546	2.97	B5-03822-P04-CH0	1631488	OK	0.8133866	-0.427355	0.3946769	0	-129.917	-27.073	12.361	B5-03822-P04-CH1	1631488	OK	0.7943289	-0.6064717	0.0351222	0	-114.678	-33.135	2.733	NA
0.869307793292756	B5-03822-P01-CH0	1631496	OK	0.1841316	0.1431223	0.0840085	-0.96879	165.318	-43.008	-245.028	B5-03822-P02-CH0	1631496	OK	0.7312081	0.3369488	-0.5931274	0	-91.66	-87.296	2.167	B5-03822-P02-CH1	1631496	OK	0.7514954	-0.1630394	-0.6392752	0	-93.525	-68.896	3.066	B5-03822-P03-CH0	1631496	OK	0.7605256	0.3108059	-0.5700881	0	-105.544	-52.703	13.711	B5-03822-P03-CH1	1631496	OK	0.7697286	-0.6371327	-0.0397466	0	-101.331	-11.848	3.401	B5-03822-P04-CH0	1631496	OK	0.8139949	-0.4284005	0.3922822	0	-129.185	-25.569	13.007	B5-03822-P04-CH1	1631496	OK	0.7941245	-0.6067903	0.0342322	0	-114.649	-32.918	2.535	NA
0.879299836893822	B5-03822-P01-CH0	1631504	OK	0.1842872	0.1432259	0.0837402	-0.9687684	165.382	-43.026	-245.02	B5-03822-P02-CH0	1631504	OK	0.7307216	0.3303689	-0.597413	0	-91.993	-87.748	1.666	B5-03822-P02-CH1	1631504	OK	0.7512385	-0.1603568	-0.640255	0	-93.765	-68.297	2.632	B5-03822-P03-CH0	1631504	OK	0.7620302	0.3070745	-0.570101	0	-105.847	-53.289	14.247	B5-03822-P03-CH1	1631504	OK	0.7696756	-0.6371909	-0.0398394	0	-101.478	-11.902	3.489	B5-03822-P04-CH0	1631504	OK	0.813066	-0.4280273	0.3946092	0	-129.953	-27.324	12.717	B5-03822-P04-CH1	1631504	OK	0.7939921	-0.6069712	0.0340968	0	-114.67	-32.925	2.622	NA
0.889291880494888	B5-03822-P01-CH0	1631512	OK	0.1843354	0.1432385	0.083487	-0.9687792	165.37	-43.03	-244.907	B5-03822-P02-CH0	1631512	OK	0.7307527	0.3267173	-0.5993799	0	-91.894	-88.149	1.417	B5-03822-P02-CH1	1631512	OK	0.750597	-0.1596484	-0.6411837	0	-93.216	-68.192	3.678	B5-03822-P03-CH0	1631512	OK	0.7651194	0.3030789	-0.5680982	0	-104.665	-53.39	15.346	B5-03822-P03-CH1	1631512	OK	0.7697704	-0.6370511	-0.0402411	0	-101.387	-11.807	3.517	B5-03822-P04-CH0	1631512	OK	0.8137485	-0.4242851	0.3972348	0	-129.334	-26.289	13.125	B5-03822-P04-CH1	1631512	OK	0.7938265	-0.6072037	0.0338117	0	-114.701	-32.84	2.496	NA
0.899283924095954	B5-03822-P01-CH0	1631520	OK	0.1852541	0.1427534	0.0848097	-0.9685606	165.346	-42.93	-245.02	B5-03822-P02-CH0	1631520	OK	0.7291617	0.3248286	-0.6023368	0	-91.831	-88.302	0.319	B5-03822-P02-CH1	1631520	OK	0.749047	-0.1618507	-0.642443	0	-92.675	-68.364	3.388	B5-03822-P03-CH0	1631520	OK	0.7648683	0.2928863	-0.5737544	0	-105.327	-53.566	14.344	B5-03822-P03-CH1	1631520	OK	0.7708246	-0.6358036	-0.0397888	0	-101.297	-11.897	3.624	B5-03822-P04-CH0	1631520	OK	0.8142588	-0.4238258	0.3966791	0	-129.389	-26.749	13.503	B5-03822-P04-CH1	1631520	OK	0.7945168	-0.6062594	0.0345327	0	-114.601	-32.976	2.17	NA
0.90927596769702	B5-03822-P01-CH0	1631528	OK	0.1857722	0.142549	0.0856538	-0.9684172	165.402	-42.805	-245.133	B5-03822-P02-CH0	1631528	OK	0.7267582	0.324482	-0.6054205	0	-91.483	-88.302	2.285	B5-03822-P02-CH1	1631528	OK	0.7449745	-0.1662106	-0.646055	0	-92.859	-68.942	3.526	B5-03822-P03-CH0	1631528	OK	0.7628343	0.2825857	-0.5815748	0	-106.213	-53.474	12.896	B5-03822-P03-CH1	1631528	OK	0.7715379	-0.634937	-0.0398021	0	-101.261	-11.846	3.564	B5-03822-P04-CH0	1631528	OK	0.8146209	-0.4239601	0.3957911	0	-129.375	-26.822	13.718	B5-03822-P04-CH1	1631528	OK	0.7951687	-0.6053871	0.0348316	0	-114.677	-32.927	2.44	NA
0.919268011298087	B5-03822-P01-CH0	1631536	OK	0.185918	0.1425086	0.0857261	-0.9683888	165.435	-42.866	-245.055	B5-03822-P02-CH0	1631536	OK	0.7249005	0.3275497	-0.6059954	0	-90.543	-87.554	0.766	B5-03822-P02-CH1	1631536	OK	0.7425369	-0.17192	-0.6473658	0	-91.928	-69.515	3.291	B5-03822-P03-CH0	1631536	OK	0.7606122	0.2747462	-0.5882036	0	-105.489	-53.146	13.023	B5-03822-P03-CH1	1631536	OK	0.7718574	-0.6345265	-0.0401538	0	-101.213	-11.788	3.303	B5-03822-P04-CH0	1631536	OK	0.8145327	-0.4243876	0.3955144	0	-129.367	-27.242	13.913	B5-03822-P04-CH1	1631536	OK	0.7951099	-0.6054688	0.0347537	0	-114.661	-33.003	2.308	NA
0.929260054899153	B5-03822-P01-CH0	1631544	OK	0.1865126	0.1422506	0.0866225	-0.9682326	165.469	-42.841	-245.123	B5-03822-P02-CH0	1631544	OK	0.7211506	0.3282688	-0.6100667	0	-90.632	-88.125	0.475	B5-03822-P02-CH1	1631544	OK	0.7400316	-0.1771895	-0.6488121	0	-91.321	-69.762	2.991	B5-03822-P03-CH0	1631544	OK	0.7574188	0.2665204	-0.5960567	0	-105.296	-53.367	12.945	B5-03822-P03-CH1	1631544	OK	0.7727133	-0.6334922	-0.0400232	0	-101.087	-11.766	3.115	B5-03822-P04-CH0	1631544	OK	0.8150241	-0.4234681	0.3954876	0	-129.459	-27.578	14.152	B5-03822-P04-CH1	1631544	OK	0.7955312	-0.6048833	0.035303	0	-114.696	-33.225	2.251	NA
0.939252098500219	B5-03822-P01-CH0	1631552	OK	0.1864645	0.1423839	0.0861746	-0.9682622	165.551	-42.906	-245.172	B5-03822-P02-CH0	1631552	OK	0.7177754	0.329857	-0.6131825	0	-90.863	-88.841	1.033	B5-03822-P02-CH1	1631552	OK	0.735966	-0.1832208	-0.6517547	0	-91.9	-69.532	2.476	B5-03822-P03-CH0	1631552	OK	0.7541467	0.2610416	-0.6025945	0	-105.297	-53.187	10.919	B5-03822-P03-CH1	1631552	OK	0.7728369	-0.633294	-0.040766	0	-100.917	-11.482	2.739	B5-03822-P04-CH0	1631552	OK	0.8148985	-0.4237585	0.3954354	0	-129.561	-27.828	14.29	B5-03822-P04-CH1	1631552	OK	0.7951569	-0.6053805	0.0352129	0	-114.706	-33.359	2.293	NA
0.949244142101285	B5-03822-P01-CH0	1631560	OK	0.1865596	0.1421806	0.0859733	-0.9682917	165.462	-42.82	-245.207	B5-03822-P02-CH0	1631560	OK	0.7155119	0.3333244	-0.6139524	0	-89.6	-88.467	1.266	B5-03822-P02-CH1	1631560	OK	0.7335823	-0.1896355	-0.6526066	0	-91.337	-68.741	2.027	B5-03822-P03-CH0	1631560	OK	0.7501997	0.2578637	-0.6088569	0	-105.064	-53.073	11.477	B5-03822-P03-CH1	1631560	OK	0.7727466	-0.6334151	-0.0405956	0	-100.812	-11.543	2.864	B5-03822-P04-CH0	1631560	OK	0.8148963	-0.4238737	0.3953164	0	-129.543	-27.641	14.101	B5-03822-P04-CH1	1631560	OK	0.7951194	-0.6054219	0.0353479	0	-114.65	-33.197	2.19	NA
0.959236185702351	B5-03822-P01-CH0	1631568	OK	0.186582	0.1422616	0.0857718	-0.9682933	165.52	-42.845	-245.224	B5-03822-P02-CH0	1631568	OK	0.7128443	0.3341996	-0.6165741	0	-89.47	-88.894	-0.013	B5-03822-P02-CH1	1631568	OK	0.7325396	-0.1976786	-0.6513899	0	-90.007	-68.923	1.781	B5-03822-P03-CH0	1631568	OK	0.7474279	0.257454	-0.6124287	0	-104.107	-52.568	11.079	B5-03822-P03-CH1	1631568	OK	0.7728062	-0.6333485	-0.0405006	0	-100.927	-11.533	2.772	B5-03822-P04-CH0	1631568	OK	0.8150112	-0.4236023	0.3953705	0	-129.676	-27.871	14.328	B5-03822-P04-CH1	1631568	OK	0.794958	-0.6056429	0.035192	0	-114.618	-33.15	1.846	NA
0.969228229303417	B5-03822-P01-CH0	1631576	OK	0.186467	0.1421511	0.0855253	-0.9683535	165.468	-42.915	-245.182	B5-03822-P02-CH0	1631576	OK	0.7103232	0.334402	-0.6193677	0	-88.986	-88.627	0.184	B5-03822-P02-CH1	1631576	OK	0.7307251	-0.2032853	-0.6517023	0	-89.196	-68.85	2.535	B5-03822-P03-CH0	1631576	OK	0.7453616	0.2536962	-0.6165016	0	-103.678	-53.754	12.228	B5-03822-P03-CH1	1631576	OK	0.7731143	-0.6329385	-0.0410249	0	-100.788	-11.2	2.373	B5-03822-P04-CH0	1631576	OK	0.8148906	-0.4237907	0.3954171	0	-129.59	-27.996	14.322	B5-03822-P04-CH1	1631576	OK	0.794898	-0.6057263	0.0351119	0	-114.499	-33.142	1.855	NA
0.979220272904483	B5-03822-P01-CH0	1631584	OK	0.1863434	0.1422389	0.0854955	-0.968367	165.465	-42.822	-245.177	B5-03822-P02-CH0	1631584	OK	0.7084587	0.3354217	-0.6209497	0	-88.081	-87.847	-0.953	B5-03822-P02-CH1	1631584	OK	0.7274022	-0.2076646	-0.6540348	0	-89.426	-68.501	1.918	B5-03822-P03-CH0	1631584	OK	0.7435752	0.2553537	-0.6179728	0	-102.737	-52.378	11.928	B5-03822-P03-CH1	1631584	OK	0.7728652	-0.6332575	-0.0407955	0	-100.873	-11.411	2.625	B5-03822-P04-CH0	1631584	OK	0.8151469	-0.4240866	0.3945708	0	-129.496	-27.443	14.115	B5-03822-P04-CH1	1631584	OK	0.7948972	-0.6057419	0.0348588	0	-114.471	-32.984	1.786	NA
0.98921231650555	B5-03822-P01-CH0	1631592	OK	0.1862191	0.1424928	0.0853769	-0.9683641	165.621	-42.886	-245.28	B5-03822-P02-CH0	1631592	OK	0.70543	0.3344863	-0.6248899	0	-88.044	-88.325	0.362	B5-03822-P02-CH1	1631592	OK	0.72344	-0.2119262	-0.6570554	0	-89.787	-69.369	2.334	B5-03822-P03-CH0	1631592	OK	0.7414067	0.2531544	-0.6214732	0	-103.184	-52.687	10.974	B5-03822-P03-CH1	1631592	OK	0.7727592	-0.6333808	-0.04089	0	-101.008	-11.544	2.646	B5-03822-P04-CH0	1631592	OK	0.8151354	-0.4246568	0.3939807	0	-129.373	-27.304	13.97	B5-03822-P04-CH1	1631592	OK	0.7946641	-0.6060343	0.0350916	0	-114.605	-33.436	2.38	NA
0.999204360106616	B5-03822-P01-CH0	1631600	OK	0.1859905	0.1427049	0.0850417	-0.9684063	165.671	-42.862	-245.255	B5-03822-P02-CH0	1631600	OK	0.7053555	0.3379311	-0.6231181	0	-86.342	-86.88	-1.101	B5-03822-P02-CH1	1631600	OK	0.7226985	-0.215102	-0.6568395	0	-88.91	-68.656	1.161	B5-03822-P03-CH0	1631600	OK	0.741243	0.2578321	-0.619743	0	-102.139	-51.363	10.047	B5-03822-P03-CH1	1631600	OK	0.7723951	-0.6338339	-0.040748	0	-101.124	-11.667	2.704	B5-03822-P04-CH0	1631600	OK	0.8150923	-0.4253793	0.3932899	0	-129.18	-26.896	13.816	B5-03822-P04-CH1	1631600	OK	0.794493	-0.6062662	0.0349588	0	-114.662	-33.542	2.864	NA
1.00919640370768	B5-03822-P01-CH0	1631608	OK	0.1859268	0.1426104	0.0848905	-0.9684457	165.583	-42.916	-245.185	B5-03822-P02-CH0	1631608	OK	0.7027811	0.3384609	-0.6257339	0	-87.221	-87.756	-0.355	B5-03822-P02-CH1	1631608	OK	0.7216055	-0.2183119	-0.656982	0	-88.628	-68.89	1.613	B5-03822-P03-CH0	1631608	OK	0.7398717	0.2552782	-0.622433	0	-103.149	-52.755	10.07	B5-03822-P03-CH1	1631608	OK	0.7722811	-0.6340014	-0.0403014	0	-101.168	-11.836	2.832	B5-03822-P04-CH0	1631608	OK	0.8150163	-0.4255364	0.3932774	0	-129.193	-27.032	13.694	B5-03822-P04-CH1	1631608	OK	0.7944552	-0.6063229	0.0348337	0	-114.658	-33.582	2.744	NA
1.01918844730875	B5-03822-P01-CH0	1631616	OK	0.1855992	0.1426539	0.0844722	-0.9685387	165.604	-42.927	-245.283	B5-03822-P02-CH0	1631616	OK	0.7033491	0.3418274	-0.6232608	0	-86.591	-87.278	-1.584	B5-03822-P02-CH1	1631616	OK	0.7201165	-0.2208157	-0.6577786	0	-89.413	-68.746	1.315	B5-03822-P03-CH0	1631616	OK	0.740767	0.2566433	-0.6208048	0	-102.655	-52.873	11.736	B5-03822-P03-CH1	1631616	OK	0.7721217	-0.6341844	-0.0404754	0	-101.155	-11.741	2.899	B5-03822-P04-CH0	1631616	OK	0.8150005	-0.425837	0.3929846	0	-129.295	-27.069	13.96	B5-03822-P04-CH1	1631616	OK	0.7939105	-0.6070355	0.0348431	0	-114.527	-33.867	2.891	NA
1.02918049090981	B5-03822-P01-CH0	1631624	OK	0.1852565	0.142837	0.0837317	-0.9686416	165.623	-42.939	-245.315	B5-03822-P02-CH0	1631624	OK	0.7030186	0.3441159	-0.6223738	0	-86.882	-87.825	-1.139	B5-03822-P02-CH1	1631624	OK	0.7207136	-0.2221277	-0.6566819	0	-88.736	-69.092	2.239	B5-03822-P03-CH0	1631624	OK	0.7403251	0.2567289	-0.6212962	0	-103.347	-52.981	10.976	B5-03822-P03-CH1	1631624	OK	0.7717338	-0.6346411	-0.0407138	0	-101.206	-11.649	2.95	B5-03822-P04-CH0	1631624	OK	0.8146774	-0.4270023	0.3923898	0	-129.097	-26.706	13.769	B5-03822-P04-CH1	1631624	OK	0.7935947	-0.6074761	0.0343551	0	-114.401	-33.746	3.035	NA
1.03917253451088	B5-03822-P01-CH0	1631632	OK	0.1855841	0.1424545	0.0845375	-0.9685653	165.504	-42.895	-245.331	B5-03822-P02-CH0	1631632	OK	0.703182	0.3459853	-0.6211515	0	-86.349	-87.587	-1.561	B5-03822-P02-CH1	1631632	OK	0.7193646	-0.2231303	-0.6578202	0	-89.146	-69.137	2.152	B5-03822-P03-CH0	1631632	OK	0.7402482	0.2630775	-0.6187268	0	-101.788	-51.134	10.044	B5-03822-P03-CH1	1631632	OK	0.7720562	-0.6343088	-0.0397676	0	-101.34	-11.956	3.161	B5-03822-P04-CH0	1631632	OK	0.8150156	-0.4266276	0.3920949	0	-129.015	-26.574	13.463	B5-03822-P04-CH1	1631632	OK	0.7943252	-0.6065191	0.0343797	0	-114.301	-33.593	2.954	NA
1.04916457811195	B5-03822-P01-CH0	1631640	OK	0.1855994	0.1425361	0.0845846	-0.9685462	165.528	-42.908	-245.267	B5-03822-P02-CH0	1631640	OK	0.701883	0.3481378	-0.621418	0	-87.168	-87.955	-0.897	B5-03822-P02-CH1	1631640	OK	0.7183279	-0.2217253	-0.6594262	0	-89.049	-68.669	2.312	B5-03822-P03-CH0	1631640	OK	0.7383309	0.2620405	-0.6214517	0	-102.135	-51.922	10.348	B5-03822-P03-CH1	1631640	OK	0.7723498	-0.6339393	-0.039958	0	-101.43	-11.706	2.966	B5-03822-P04-CH0	1631640	OK	0.8151167	-0.4261928	0.3923575	0	-129.197	-26.968	13.851	B5-03822-P04-CH1	1631640	OK	0.794112	-0.6067731	0.0348201	0	-114.347	-34.025	3.301	NA
1.05915662171301	B5-03822-P01-CH0	1631648	OK	0.1855823	0.1426742	0.0845395	-0.9685331	165.537	-42.887	-245.222	B5-03822-P02-CH0	1631648	OK	0.7023158	0.3509231	-0.619359	0	-87.008	-88.242	-0.632	B5-03822-P02-CH1	1631648	OK	0.7177429	-0.2210045	-0.6603046	0	-88.693	-68.459	1.667	B5-03822-P03-CH0	1631648	OK	0.7364148	0.259437	-0.6248085	0	-102.882	-52.701	10.871	B5-03822-P03-CH1	1631648	OK	0.7723849	-0.633893	-0.0400158	0	-101.431	-11.652	3.056	B5-03822-P04-CH0	1631648	OK	0.8151318	-0.4264541	0.3920422	0	-129.049	-26.798	13.949	B5-03822-P04-CH1	1631648	OK	0.7939566	-0.6069646	0.0350267	0	-114.426	-34.28	3.684	NA
1.06914866531408	B5-03822-P01-CH0	1631656	OK	0.1856122	0.1427574	0.0847425	-0.9684974	165.558	-42.864	-245.245	B5-03822-P02-CH0	1631656	OK	0.7005945	0.3559734	-0.6184256	0	-87.17	-87.613	1.566	B5-03822-P02-CH1	1631656	OK	0.7168468	-0.2196489	-0.6617288	0	-88.398	-68.983	2.594	B5-03822-P03-CH0	1631656	OK	0.7349481	0.2591715	-0.626643	0	-103.337	-52.986	11.416	B5-03822-P03-CH1	1631656	OK	0.7725485	-0.6336875	-0.0401109	0	-101.415	-11.59	3.094	B5-03822-P04-CH0	1631656	OK	0.8153434	-0.4263358	0.3917306	0	-128.968	-26.593	13.964	B5-03822-P04-CH1	1631656	OK	0.7939462	-0.6069771	0.0350474	0	-114.435	-34.484	3.927	NA
1.07914070891515	B5-03822-P01-CH0	1631664	OK	0.1855033	0.1429177	0.0843138	-0.968532	165.562	-42.941	-245.149	B5-03822-P02-CH0	1631664	OK	0.7016767	0.3581431	-0.6159411	0	-87.202	-87.864	-0.325	B5-03822-P02-CH1	1631664	OK	0.7162774	-0.217272	-0.6631287	0	-88.938	-68.65	1.639	B5-03822-P03-CH0	1631664	OK	0.7354201	0.260129	-0.6256917	0	-102.492	-52.952	11.37	B5-03822-P03-CH1	1631664	OK	0.7723023	-0.6339819	-0.0402004	0	-101.431	-11.585	2.919	B5-03822-P04-CH0	1631664	OK	0.8151045	-0.4263294	0.3922345	0	-129.072	-26.971	14.136	B5-03822-P04-CH1	1631664	OK	0.7936672	-0.6073457	0.0349813	0	-114.47	-34.617	3.983	NA
1.08913275251621	B5-03822-P01-CH0	1631672	OK	0.1859577	0.1425143	0.0850873	-0.9684367	165.444	-42.824	-245.207	B5-03822-P02-CH0	1631672	OK	0.7016355	0.3588653	-0.6155675	0	-87.731	-88.923	-0.262	B5-03822-P02-CH1	1631672	OK	0.7189105	-0.2195985	-0.659503	0	-88.699	-68.893	2.112	B5-03822-P03-CH0	1631672	OK	0.732861	0.2611926	-0.6282462	0	-102.902	-53.006	10.452	B5-03822-P03-CH1	1631672	OK	0.7729985	-0.6331524	-0.0398912	0	-101.315	-11.397	2.819	B5-03822-P04-CH0	1631672	OK	0.8154275	-0.4254026	0.3925693	0	-129.053	-26.967	14.167	B5-03822-P04-CH1	1631672	OK	0.7943897	-0.6063976	0.0350294	0	-114.327	-34.341	3.751	NA
1.09912479611728	B5-03822-P01-CH0	1631680	OK	0.185911	0.142671	0.0847478	-0.9684523	165.464	-42.843	-245.159	B5-03822-P02-CH0	1631680	OK	0.7014376	0.3620292	-0.6139383	0	-87.81	-88.481	-0.321	B5-03822-P02-CH1	1631680	OK	0.7185928	-0.2194149	-0.6599103	0	-88.584	-68.906	2.023	B5-03822-P03-CH0	1631680	OK	0.7332681	0.2656516	-0.6258971	0	-101.805	-51.621	9.895	B5-03822-P03-CH1	1631680	OK	0.7731561	-0.6329285	-0.0403865	0	-101.32	-11.003	2.499	B5-03822-P04-CH0	1631680	OK	0.8152924	-0.4256404	0.392592	0	-129.061	-26.822	13.935	B5-03822-P04-CH1	1631680	OK	0.7944732	-0.6063283	0.0343257	0	-114.218	-33.944	3.377	NA
1.10911683971834	B5-03822-P01-CH0	1631688	OK	0.185982	0.142826	0.0842464	-0.9684596	165.512	-42.881	-245.147	B5-03822-P02-CH0	1631688	OK	0.7019944	0.3646916	-0.6117221	0	-87.103	-87.612	0.141	B5-03822-P02-CH1	1631688	OK	0.7184449	-0.2187786	-0.6602824	0	-88.4	-68.931	2.101	B5-03822-P03-CH0	1631688	OK	0.7334541	0.2666414	-0.6252579	0	-101.931	-52.146	10.24	B5-03822-P03-CH1	1631688	OK	0.772907	-0.6332396	-0.0402797	0	-101.373	-11.036	2.604	B5-03822-P04-CH0	1631688	OK	0.8151167	-0.4256478	0.3929487	0	-129.076	-26.812	13.947	B5-03822-P04-CH1	1631688	OK	0.794021	-0.6069109	0.0344946	0	-114.2	-34.1	3.355	NA
1.11910888331941	B5-03822-P01-CH0	1631696	OK	0.1861828	0.1428884	0.0843823	-0.9684	165.495	-42.829	-245.059	B5-03822-P02-CH0	1631696	OK	0.7013657	0.3665338	-0.6113421	0	-87.718	-88.083	-0.175	B5-03822-P02-CH1	1631696	OK	0.718131	-0.2178127	-0.6609429	0	-88.304	-68.955	2.122	B5-03822-P03-CH0	1631696	OK	0.7337414	0.2648357	-0.6256881	0	-102.038	-52.773	10.665	B5-03822-P03-CH1	1631696	OK	0.7726651	-0.6335513	-0.0400172	0	-101.393	-11.269	2.641	B5-03822-P04-CH0	1631696	OK	0.8151996	-0.4254067	0.3930379	0	-129.064	-26.466	13.471	B5-03822-P04-CH1	1631696	OK	0.7943231	-0.606518	0.0344477	0	-114.275	-34.004	3.578	NA
1.12910092692048	B5-03822-P01-CH0	1631704	OK	0.1861393	0.1429714	0.0843071	-0.9684026	165.563	-42.894	-245.106	B5-03822-P02-CH0	1631704	OK	0.7007658	0.3677714	-0.6112868	0	-88.246	-88.649	0.413	B5-03822-P02-CH1	1631704	OK	0.7176669	-0.216157	-0.6619897	0	-88.259	-68.993	2.142	B5-03822-P03-CH0	1631704	OK	0.7334668	0.2631197	-0.6267331	0	-102.087	-53.345	10.541	B5-03822-P03-CH1	1631704	OK	0.7727175	-0.6334615	-0.0404238	0	-101.344	-11.204	2.652	B5-03822-P04-CH0	1631704	OK	0.8151587	-0.4254695	0.3930547	0	-129.065	-26.322	13.257	B5-03822-P04-CH1	1631704	OK	0.794214	-0.6066784	0.0341383	0	-114.264	-34.094	3.559	NA
1.13909297052154	B5-03822-P01-CH0	1631712	OK	0.1863774	0.1428807	0.0844746	-0.9683556	165.536	-42.845	-245.074	B5-03822-P02-CH0	1631712	OK	0.7009533	0.3711988	-0.6089958	0	-87.806	-88.114	-0.134	B5-03822-P02-CH1	1631712	OK	0.7175391	-0.2147754	-0.6625776	0	-88.08	-68.939	1.968	B5-03822-P03-CH0	1631712	OK	0.7335409	0.2655383	-0.6256254	0	-101.341	-52.425	10.751	B5-03822-P03-CH1	1631712	OK	0.7728086	-0.633351	-0.0404152	0	-101.251	-11.207	2.699	B5-03822-P04-CH0	1631712	OK	0.8150919	-0.4252993	0.3933773	0	-128.868	-26.134	13.021	B5-03822-P04-CH1	1631712	OK	0.7943427	-0.606511	0.0341203	0	-114.173	-34.067	3.563	NA
