Wav.Time	B5.03822.P01.CH0	Frame	State	Q0	Qx	Qy	Qz	Tx	Ty	Tz	B5.03822.P02.CH0	Frame.1	State.1	Q0.1	Qx.1	Qy.1	Qz.1	Tx.1	Ty.1	Tz.1	B5.03822.P02.CH1	Frame.2	State.2	Q0.2	Qx.2	Qy.2	Qz.2	Tx.2	Ty.2	Tz.2	B5.03822.P03.CH0	Frame.3	State.3	Q0.3	Qx.3	Qy.3	Qz.3	Tx.3	Ty.3	Tz.3	B5.03822.P03.CH1	Frame.4	State.4	Q0.4	Qx.4	Qy.4	Qz.4	Tx.4	Ty.4	Tz.4	B5.03822.P04.CH0	Frame.5	State.5	Q0.5	Qx.5	Qy.5	Qz.5	Tx.5	Ty.5	Tz.5	B5.03822.P04.CH1	Frame.6	State.6	Q0.6	Qx.6	Qy.6	Qz.6	Tx.6	Ty.6	Tz.6	X
0	B5-03822-P01-CH0	452888	OK	0.1989528	0.0863215	0.0891836	-0.9721176	96.831	56.947	-228.701	B5-03822-P02-CH0	452888	OK	0.7984384	0.2663427	-0.5399608	0	-89.104	-97.597	3.252	B5-03822-P02-CH1	452888	OK	0.7746205	0.0182015	-0.6321644	0	-85.711	-75.044	7.655	B5-03822-P03-CH0	452888	OK	0.82703	-0.2850666	-0.4845186	0	-96.278	-53.216	11.817	B5-03822-P03-CH1	452888	OK	0.7543571	-0.5970083	-0.2729954	0	-101.11	-20.881	7.925	B5-03822-P04-CH0	452888	OK	0.6935476	-0.4925383	0.5257354	0	-120.096	-25.156	10.114	B5-03822-P04-CH1	452888	OK	0.7720782	-0.6350378	0.0249442	0	-112.557	-39.392	11.2	NA
0.0099921329075848	B5-03822-P01-CH0	452896	OK	0.1989162	0.0862988	0.0894335	-0.9721042	96.844	57.009	-228.753	B5-03822-P02-CH0	452896	OK	0.7961325	0.2622501	-0.545342	0	-90.225	-97.596	4.734	B5-03822-P02-CH1	452896	OK	0.7753674	0.0222812	-0.6311172	0	-86.366	-74.168	9.485	B5-03822-P03-CH0	452896	OK	0.8313886	-0.2804476	-0.4797313	0	-96.301	-52.83	12.348	B5-03822-P03-CH1	452896	OK	0.7543953	-0.5971661	-0.2725444	0	-101.172	-20.866	8.044	B5-03822-P04-CH0	452896	OK	0.6917185	-0.4976738	0.5233033	0	-119.614	-25.24	7.722	B5-03822-P04-CH1	452896	OK	0.7723178	-0.6347664	0.0244321	0	-112.591	-39.33	11.267	NA
0.0199842658151696	B5-03822-P01-CH0	452904	OK	0.1986582	0.0861553	0.0890602	-0.9722039	96.8	56.997	-228.879	B5-03822-P02-CH0	452904	OK	0.7980073	0.2581357	-0.5445643	0	-89.351	-97.976	3.651	B5-03822-P02-CH1	452904	OK	0.778763	0.0233421	-0.6268838	0	-85.989	-75.7	8.117	B5-03822-P03-CH0	452904	OK	0.8352885	-0.2777791	-0.4744808	0	-96.313	-52.983	12.421	B5-03822-P03-CH1	452904	OK	0.7541805	-0.5976426	-0.2720939	0	-101.111	-20.816	8.107	B5-03822-P04-CH0	452904	OK	0.6917324	-0.5012615	0.5198492	0	-119.439	-24.736	7.487	B5-03822-P04-CH1	452904	OK	0.772136	-0.6350067	0.0239265	0	-112.489	-39.295	11.335	NA
0.0299763987227544	B5-03822-P01-CH0	452912	OK	0.1987059	0.0861179	0.0892537	-0.9721797	96.774	57.071	-228.881	B5-03822-P02-CH0	452912	OK	0.7977293	0.2541874	-0.5468242	0	-89.47	-98.352	3.698	B5-03822-P02-CH1	452912	OK	0.7807437	0.0261467	-0.6243042	0	-86.106	-76.208	7.806	B5-03822-P03-CH0	452912	OK	0.8378367	-0.2761711	-0.4709132	0	-97.011	-53.364	12.507	B5-03822-P03-CH1	452912	OK	0.7541749	-0.5980528	-0.2712067	0	-101.066	-20.791	8.22	B5-03822-P04-CH0	452912	OK	0.6917784	-0.5020241	0.5190516	0	-119.207	-25.378	9.788	B5-03822-P04-CH1	452912	OK	0.7723011	-0.6348145	0.0236972	0	-112.444	-39.264	11.392	NA
0.0399685316303392	B5-03822-P01-CH0	452920	OK	0.1985575	0.0862474	0.0891545	-0.9722077	96.818	57.153	-228.959	B5-03822-P02-CH0	452920	OK	0.7963774	0.2516805	-0.5499455	0	-89.829	-97.999	4.125	B5-03822-P02-CH1	452920	OK	0.7824677	0.0291443	-0.6220087	0	-86.206	-76.131	7.765	B5-03822-P03-CH0	452920	OK	0.8413228	-0.2750227	-0.4653368	0	-97.154	-53.669	13.111	B5-03822-P03-CH1	452920	OK	0.7537561	-0.5987981	-0.2707259	0	-101.182	-20.78	8.349	B5-03822-P04-CH0	452920	OK	0.6910347	-0.5053021	0.5168566	0	-119.011	-25.233	8.896	B5-03822-P04-CH1	452920	OK	0.7722897	-0.6348496	0.0231228	0	-112.444	-39.206	11.533	NA
0.049960664537924	B5-03822-P01-CH0	452928	OK	0.1986989	0.0862493	0.0897207	-0.9721265	96.847	57.273	-229.032	B5-03822-P02-CH0	452928	OK	0.7947468	0.2491548	-0.5534432	0	-90.322	-97.981	4.456	B5-03822-P02-CH1	452928	OK	0.7814156	0.0328294	-0.6231468	0	-87.436	-74.352	9.863	B5-03822-P03-CH0	452928	OK	0.8452581	-0.2738113	-0.4588748	0	-97.163	-54.011	13.268	B5-03822-P03-CH1	452928	OK	0.7539683	-0.5989332	-0.2698348	0	-101.172	-20.673	8.589	B5-03822-P04-CH0	452928	OK	0.6918491	-0.5072581	0.5138425	0	-119.193	-25.245	9.665	B5-03822-P04-CH1	452928	OK	0.7727144	-0.6343404	0.0229086	0	-112.477	-39.21	11.648	NA
0.0599527974455088	B5-03822-P01-CH0	452936	OK	0.1988536	0.0862267	0.0899607	-0.9720747	96.827	57.286	-229.004	B5-03822-P02-CH0	452936	OK	0.7930026	0.2453124	-0.5576457	0	-90.978	-98.302	4.733	B5-03822-P02-CH1	452936	OK	0.7838656	0.0332395	-0.6200402	0	-87.433	-75.374	9.175	B5-03822-P03-CH0	452936	OK	0.8504183	-0.2702145	-0.451412	0	-96.96	-53.886	13.566	B5-03822-P03-CH1	452936	OK	0.7537645	-0.5994691	-0.2692134	0	-101.263	-20.679	8.425	B5-03822-P04-CH0	452936	OK	0.691547	-0.5105401	0.5109908	0	-119.056	-25.181	9.537	B5-03822-P04-CH1	452936	OK	0.7730119	-0.6339791	0.0228695	0	-112.403	-39.243	11.642	NA
0.0699449303530936	B5-03822-P01-CH0	452944	OK	0.1988504	0.0862786	0.0901656	-0.9720518	96.852	57.371	-229.013	B5-03822-P02-CH0	452944	OK	0.792456	0.2396126	-0.5608915	0	-90.967	-98.336	4.759	B5-03822-P02-CH1	452944	OK	0.7861831	0.0311867	-0.6172063	0	-87.95	-75.52	9.413	B5-03822-P03-CH0	452944	OK	0.8545547	-0.2671191	-0.4454028	0	-97.564	-54.568	13.929	B5-03822-P03-CH1	452944	OK	0.7536801	-0.5997926	-0.2687287	0	-101.265	-20.579	8.499	B5-03822-P04-CH0	452944	OK	0.6902838	-0.5105429	0.5126931	0	-119.243	-25.841	8.222	B5-03822-P04-CH1	452944	OK	0.7733658	-0.6335551	0.0226548	0	-112.438	-39.177	11.772	NA
0.0799370632606784	B5-03822-P01-CH0	452952	OK	0.1989514	0.0861613	0.0902901	-0.97203	96.812	57.382	-229.003	B5-03822-P02-CH0	452952	OK	0.7921283	0.2325616	-0.5643119	0	-90.61	-98.743	4.525	B5-03822-P02-CH1	452952	OK	0.7898948	0.0262847	-0.6126788	0	-87.762	-76.814	8.589	B5-03822-P03-CH0	452952	OK	0.8586083	-0.2641798	-0.4393185	0	-98.058	-55.086	13.958	B5-03822-P03-CH1	452952	OK	0.753682	-0.6000051	-0.2682485	0	-101.206	-20.524	8.517	B5-03822-P04-CH0	452952	OK	0.6921149	-0.5032801	0.517384	0	-119.795	-25.701	10.242	B5-03822-P04-CH1	452952	OK	0.7736584	-0.6331925	0.0228035	0	-112.393	-39.213	11.768	NA
0.0899291961682632	B5-03822-P01-CH0	452960	OK	0.1990261	0.086206	0.0904082	-0.9719997	96.821	57.381	-228.92	B5-03822-P02-CH0	452960	OK	0.7868707	0.2269737	-0.5738619	0	-92.34	-97.774	6.441	B5-03822-P02-CH1	452960	OK	0.7911778	0.0238747	-0.61112	0	-88.685	-75.35	10.351	B5-03822-P03-CH0	452960	OK	0.8625731	-0.2607167	-0.4335833	0	-98.231	-55.082	14.086	B5-03822-P03-CH1	452960	OK	0.7538535	-0.5999976	-0.267783	0	-101.098	-20.435	8.592	B5-03822-P04-CH0	452960	OK	0.6928735	-0.4946273	0.524662	0	-120.16	-25.585	10.24	B5-03822-P04-CH1	452960	OK	0.7737973	-0.6330136	0.0230542	0	-112.371	-39.34	11.735	NA
0.099921329075848	B5-03822-P01-CH0	452968	OK	0.1992066	0.0862855	0.0908514	-0.9719144	96.825	57.516	-228.926	B5-03822-P02-CH0	452968	OK	0.7875773	0.2182057	-0.5762883	0	-91.078	-98.66	5.159	B5-03822-P02-CH1	452968	OK	0.7946471	0.0163731	-0.6068509	0	-88.654	-76.35	9.13	B5-03822-P03-CH0	452968	OK	0.8649799	-0.2578515	-0.430491	0	-98.362	-54.963	14.25	B5-03822-P03-CH1	452968	OK	0.7540994	-0.5998988	-0.2673115	0	-101.065	-20.38	8.642	B5-03822-P04-CH0	452968	OK	0.6930759	-0.483353	0.5348043	0	-120.803	-25.877	8.838	B5-03822-P04-CH1	452968	OK	0.7742633	-0.632431	0.0233937	0	-112.441	-39.324	11.876	NA
0.109913461983433	B5-03822-P01-CH0	452976	OK	0.1992573	0.0861305	0.0907765	-0.9719247	96.745	57.503	-228.895	B5-03822-P02-CH0	452976	OK	0.7853688	0.2085742	-0.5828315	0	-90.681	-99.13	5.225	B5-03822-P02-CH1	452976	OK	0.7967451	0.0078351	-0.6042648	0	-88.851	-75.354	9.892	B5-03822-P03-CH0	452976	OK	0.8663986	-0.2531561	-0.4304248	0	-97.978	-54.604	14.279	B5-03822-P03-CH1	452976	OK	0.7543971	-0.5995274	-0.267305	0	-100.923	-20.273	8.417	B5-03822-P04-CH0	452976	OK	0.694732	-0.465754	0.5481064	0	-121.952	-26.688	10.398	B5-03822-P04-CH1	452976	OK	0.7743645	-0.6322861	0.0239551	0	-112.424	-39.41	11.822	NA
0.119905594891018	B5-03822-P01-CH0	452984	OK	0.1993184	0.0862234	0.0904023	-0.9719389	96.759	57.463	-228.849	B5-03822-P02-CH0	452984	OK	0.7819704	0.1977794	-0.5911054	0	-90.109	-98.273	5.171	B5-03822-P02-CH1	452984	OK	0.7989899	-0.0048162	-0.6013252	0	-88.933	-75.411	10.015	B5-03822-P03-CH0	452984	OK	0.862947	-0.2507342	-0.4386967	0	-98.771	-54.931	14.092	B5-03822-P03-CH1	452984	OK	0.7573928	-0.5946758	-0.2696606	0	-100.642	-19.999	8.622	B5-03822-P04-CH0	452984	OK	0.6975188	-0.4472241	0.5598734	0	-123.385	-27.185	12.178	B5-03822-P04-CH1	452984	OK	0.774277	-0.6323653	0.0246837	0	-112.565	-39.562	11.871	NA
0.129897727798602	B5-03822-P01-CH0	452992	OK	0.1991408	0.0862509	0.0896738	-0.9720403	96.748	57.364	-228.825	B5-03822-P02-CH0	452992	OK	0.7804398	0.1819428	-0.5981726	0	-89.171	-98.896	4.356	B5-03822-P02-CH1	452992	OK	0.8015525	-0.0190399	-0.5976211	0	-89.447	-75.263	10.468	B5-03822-P03-CH0	452992	OK	0.8602763	-0.2491537	-0.4448002	0	-98.973	-54.82	13.807	B5-03822-P03-CH1	452992	OK	0.757825	-0.5935993	-0.2708157	0	-100.973	-20.077	8.737	B5-03822-P04-CH0	452992	OK	0.6984919	-0.4312615	0.5710714	0	-124.486	-27.811	13.888	B5-03822-P04-CH1	452992	OK	0.7739097	-0.6327806	0.0255443	0	-112.724	-39.724	11.761	NA
0.139889860706187	B5-03822-P01-CH0	453000	OK	0.1992239	0.0863697	0.0892623	-0.9720506	96.76	57.302	-228.75	B5-03822-P02-CH0	453000	OK	0.7739334	0.1693629	-0.6101994	0	-90.697	-96.288	6.972	B5-03822-P02-CH1	453000	OK	0.8062173	-0.0330169	-0.5906975	0	-89.415	-75.013	11.146	B5-03822-P03-CH0	453000	OK	0.8586082	-0.2450989	-0.4502426	0	-99.154	-54.272	14.504	B5-03822-P03-CH1	453000	OK	0.7575798	-0.593529	-0.2716543	0	-100.961	-20.489	8.602	B5-03822-P04-CH0	453000	OK	0.6976938	-0.4215492	0.5792406	0	-125.16	-28.05	12.912	B5-03822-P04-CH1	453000	OK	0.7738009	-0.6328543	0.026974	0	-112.889	-39.913	11.788	NA
0.149881993613772	B5-03822-P01-CH0	453008	OK	0.1992937	0.086338	0.0888608	-0.9720759	96.694	57.227	-228.705	B5-03822-P02-CH0	453008	OK	0.7735353	0.1522668	-0.6151894	0	-90.138	-96.885	6.459	B5-03822-P02-CH1	453008	OK	0.8104162	-0.0445816	-0.5841559	0	-89.341	-73.81	10.933	B5-03822-P03-CH0	453008	OK	0.8577992	-0.2368319	-0.45617	0	-99.276	-53.761	14.055	B5-03822-P03-CH1	453008	OK	0.7572077	-0.5932409	-0.2733163	0	-101.259	-20.732	8.719	B5-03822-P04-CH0	453008	OK	0.6972561	-0.4142739	0.5849881	0	-125.772	-28.59	12.674	B5-03822-P04-CH1	453008	OK	0.7742588	-0.6318633	0.0356654	0	-114.029	-40.575	12.174	NA
0.159874126521357	B5-03822-P01-CH0	453016	OK	0.1990336	0.0864651	0.0882769	-0.9721711	96.692	57.205	-228.748	B5-03822-P02-CH0	453016	OK	0.7741905	0.1368473	-0.6179821	0	-89.048	-95.715	6.424	B5-03822-P02-CH1	453016	OK	0.8118842	-0.0560944	-0.5811174	0	-89.829	-72.623	11.034	B5-03822-P03-CH0	453016	OK	0.8568218	-0.2294942	-0.4617238	0	-99.062	-53.332	14.367	B5-03822-P03-CH1	453016	OK	0.7573295	-0.5933622	-0.2727146	0	-100.671	-20.85	9.335	B5-03822-P04-CH0	453016	OK	0.6990128	-0.4072317	0.5878294	0	-126.743	-28.377	13.345	B5-03822-P04-CH1	453016	OK	0.7737636	-0.632485	0.0353914	0	-114.176	-40.492	12.354	NA
0.169866259428942	B5-03822-P01-CH0	453024	OK	0.1990987	0.0864921	0.088251	-0.9721577	96.647	57.146	-228.741	B5-03822-P02-CH0	453024	OK	0.7739942	0.1196074	-0.6217934	0	-89.077	-94.93	6.229	B5-03822-P02-CH1	453024	OK	0.8135046	-0.0673641	-0.5776439	0	-90.251	-71.864	11.749	B5-03822-P03-CH0	453024	OK	0.8581609	-0.2158471	-0.4658003	0	-98.624	-52.627	14.525	B5-03822-P03-CH1	453024	OK	0.7569277	-0.5936842	-0.2731291	0	-101.134	-20.966	8.897	B5-03822-P04-CH0	453024	OK	0.7006649	-0.4007215	0.5903313	0	-127.174	-28.326	14.573	B5-03822-P04-CH1	453024	OK	0.7733911	-0.632992	0.0344576	0	-114.256	-40.416	12.138	NA
0.179858392336526	B5-03822-P01-CH0	453032	OK	0.1988723	0.0866849	0.0881734	-0.9721939	96.62	57.13	-228.665	B5-03822-P02-CH0	453032	OK	0.7745572	0.1032273	-0.6240234	0	-89.361	-94.051	7.054	B5-03822-P02-CH1	453032	OK	0.8166762	-0.076672	-0.5719803	0	-90.397	-71.716	10.3	B5-03822-P03-CH0	453032	OK	0.8620383	-0.1936255	-0.4684005	0	-98.348	-51.092	14.891	B5-03822-P03-CH1	453032	OK	0.7573457	-0.5939582	-0.271369	0	-100.896	-20.882	8.83	B5-03822-P04-CH0	453032	OK	0.6995002	-0.4002541	0.5920272	0	-126.749	-27.949	13.645	B5-03822-P04-CH1	453032	OK	0.7734766	-0.633072	0.0308837	0	-113.548	-40.167	11.957	NA
0.189850525244111	B5-03822-P01-CH0	453040	OK	0.1986787	0.0868566	0.0881265	-0.9722224	96.569	57.152	-228.679	B5-03822-P02-CH0	453040	OK	0.7764452	0.0886611	-0.6239167	0	-88.848	-93.341	6.524	B5-03822-P02-CH1	453040	OK	0.8181796	-0.0819107	-0.5690982	0	-90.549	-70.844	10.981	B5-03822-P03-CH0	453040	OK	0.8645618	-0.1734812	-0.4716325	0	-98.294	-50.556	14.373	B5-03822-P03-CH1	453040	OK	0.7569545	-0.5948797	-0.2704404	0	-101.168	-21.178	8.722	B5-03822-P04-CH0	453040	OK	0.6990773	-0.3987977	0.5935077	0	-126.554	-28.064	14.005	B5-03822-P04-CH1	453040	OK	0.7736711	-0.6328348	0.0308744	0	-113.683	-39.92	12.147	NA
0.199842658151696	B5-03822-P01-CH0	453048	OK	0.1985577	0.086962	0.0880048	-0.9722487	96.51	56.965	-228.549	B5-03822-P02-CH0	453048	OK	0.7763295	0.0755171	-0.6257872	0	-88.594	-92.446	7.053	B5-03822-P02-CH1	453048	OK	0.8177752	-0.0878552	-0.5687928	0	-90.231	-70.545	10.815	B5-03822-P03-CH0	453048	OK	0.8675303	-0.1603675	-0.4708221	0	-98.209	-49.963	15.191	B5-03822-P03-CH1	453048	OK	0.7578481	-0.5940701	-0.2697164	0	-101.425	-20.98	8.581	B5-03822-P04-CH0	453048	OK	0.6995066	-0.3977074	0.5937334	0	-126.272	-27.542	14.025	B5-03822-P04-CH1	453048	OK	0.7735922	-0.63292	0.031103	0	-113.63	-39.937	12.084	NA
0.209834791059281	B5-03822-P01-CH0	453056	OK	0.1982646	0.0871905	0.0878563	-0.9723015	96.488	56.891	-228.565	B5-03822-P02-CH0	453056	OK	0.7764076	0.0630708	-0.6270672	0	-88.373	-92.831	7.191	B5-03822-P02-CH1	453056	OK	0.8152492	-0.0937083	-0.5714784	0	-90.293	-69.648	10.982	B5-03822-P03-CH0	453056	OK	0.8686439	-0.1621136	-0.4681633	0	-98.017	-49.724	14.951	B5-03822-P03-CH1	453056	OK	0.7587702	-0.5928392	-0.2698323	0	-101.087	-20.603	9.033	B5-03822-P04-CH0	453056	OK	0.7023162	-0.3946665	0.5924444	0	-126.706	-26.801	16.391	B5-03822-P04-CH1	453056	OK	0.7733075	-0.6335286	0.0252403	0	-113.242	-38.582	12.109	NA
0.219826923966866	B5-03822-P01-CH0	453064	OK	0.1978805	0.0873804	0.0877587	-0.9723715	96.425	56.772	-228.439	B5-03822-P02-CH0	453064	OK	0.7768051	0.0544602	-0.6273818	0	-87.742	-92.024	7.078	B5-03822-P02-CH1	453064	OK	0.8128766	-0.099232	-0.5739204	0	-89.769	-69.767	9.889	B5-03822-P03-CH0	453064	OK	0.8655032	-0.1719972	-0.4704479	0	-97.492	-49.354	14.576	B5-03822-P03-CH1	453064	OK	0.7569893	-0.5940681	-0.2721218	0	-100.842	-20.871	8.429	B5-03822-P04-CH0	453064	OK	0.6998576	-0.3977542	0.5932882	0	-125.881	-26.422	13.231	B5-03822-P04-CH1	453064	OK	0.7733076	-0.6336003	0.0233682	0	-112.863	-38.13	11.576	NA
0.22981905687445	B5-03822-P01-CH0	453072	OK	0.1976438	0.0876329	0.0882628	-0.9723513	96.398	56.746	-228.349	B5-03822-P02-CH0	453072	OK	0.776705	0.0498279	-0.6278905	0	-87.349	-91.948	6.421	B5-03822-P02-CH1	453072	OK	0.8103393	-0.1034679	-0.5767535	0	-89.398	-69.372	9.54	B5-03822-P03-CH0	453072	OK	0.8616559	-0.1842334	-0.4728712	0	-97.006	-48.836	14.289	B5-03822-P03-CH1	453072	OK	0.7573427	-0.5937	-0.2719418	0	-100.862	-20.898	8.493	B5-03822-P04-CH0	453072	OK	0.7013143	-0.3947191	0.593595	0	-125.835	-26.205	14.888	B5-03822-P04-CH1	453072	OK	0.7733505	-0.6336157	0.0214486	0	-112.797	-37.744	11.765	NA
0.239811189782035	B5-03822-P01-CH0	453080	OK	0.197421	0.087677	0.0886998	-0.9723528	96.307	56.727	-228.314	B5-03822-P02-CH0	453080	OK	0.7759456	0.0470235	-0.6290447	0	-87.099	-91.312	6.762	B5-03822-P02-CH1	453080	OK	0.8077932	-0.1096698	-0.5791741	0	-89.23	-68.558	9.593	B5-03822-P03-CH0	453080	OK	0.8569955	-0.1972534	-0.4760775	0	-96.529	-48.53	14.579	B5-03822-P03-CH1	453080	OK	0.757667	-0.593502	-0.2714703	0	-100.806	-20.912	8.446	B5-03822-P04-CH0	453080	OK	0.7035148	-0.3897433	0.5942787	0	-126.184	-26.016	16.51	B5-03822-P04-CH1	453080	OK	0.7738681	-0.6330469	0.0194888	0	-112.758	-37.285	12.062	NA
0.24980332268962	B5-03822-P01-CH0	453088	OK	0.197072	0.0878543	0.0888037	-0.9723982	96.271	56.661	-228.247	B5-03822-P02-CH0	453088	OK	0.776094	0.0467383	-0.6288828	0	-86.634	-90.88	6.919	B5-03822-P02-CH1	453088	OK	0.8044162	-0.1174327	-0.5823437	0	-89.281	-68.332	10.218	B5-03822-P03-CH0	453088	OK	0.8532977	-0.2106576	-0.4769763	0	-96.018	-48.216	14.216	B5-03822-P03-CH1	453088	OK	0.7576634	-0.5935903	-0.2712872	0	-100.906	-20.898	8.382	B5-03822-P04-CH0	453088	OK	0.7035468	-0.3894096	0.5944594	0	-126.098	-25.756	15.401	B5-03822-P04-CH1	453088	OK	0.7730668	-0.6340558	0.0184647	0	-112.662	-37.502	11.743	NA
0.259795455597205	B5-03822-P01-CH0	453096	OK	0.1970458	0.0879455	0.089392	-0.9723413	96.222	56.67	-228.164	B5-03822-P02-CH0	453096	OK	0.7759077	0.0472729	-0.6290727	0	-86.324	-90.253	6.996	B5-03822-P02-CH1	453096	OK	0.801218	-0.1258169	-0.5849956	0	-88.352	-69.306	8.678	B5-03822-P03-CH0	453096	OK	0.8487446	-0.2246776	-0.4786988	0	-95.915	-48.288	13.892	B5-03822-P03-CH1	453096	OK	0.7580076	-0.5935076	-0.2705054	0	-100.918	-20.893	8.283	B5-03822-P04-CH0	453096	OK	0.7054353	-0.3871567	0.5936924	0	-126.17	-25.308	16.249	B5-03822-P04-CH1	453096	OK	0.7735129	-0.6335287	0.017868	0	-113.018	-37.358	11.766	NA
0.26978758850479	B5-03822-P01-CH0	453104	OK	0.1968339	0.0879482	0.0894653	-0.9723772	96.147	56.623	-228.137	B5-03822-P02-CH0	453104	OK	0.7762579	0.0495456	-0.6284656	0	-85.87	-90.191	6.83	B5-03822-P02-CH1	453104	OK	0.7954052	-0.1294826	-0.5920851	0	-87.84	-69.479	7.875	B5-03822-P03-CH0	453104	OK	0.8461754	-0.2365901	-0.4775064	0	-95.31	-47.863	13.747	B5-03822-P03-CH1	453104	OK	0.7581868	-0.5935374	-0.2699372	0	-100.829	-20.855	8.268	B5-03822-P04-CH0	453104	OK	0.7045457	-0.3889361	0.5935858	0	-125.917	-25.205	14.215	B5-03822-P04-CH1	453104	OK	0.7728354	-0.6343529	0.0179407	0	-112.943	-37.635	11.543	NA
0.279779721412375	B5-03822-P01-CH0	453112	OK	0.1967386	0.0879228	0.0895234	-0.9723935	96.076	56.558	-228.037	B5-03822-P02-CH0	453112	OK	0.7757288	0.0542642	-0.6287291	0	-85.891	-89.708	6.978	B5-03822-P02-CH1	453112	OK	0.7910721	-0.1317034	-0.5973769	0	-86.752	-68.854	7.961	B5-03822-P03-CH0	453112	OK	0.8419807	-0.2500586	-0.4780576	0	-95.471	-48.952	13.408	B5-03822-P03-CH1	453112	OK	0.7582733	-0.5936766	-0.2693877	0	-100.766	-20.875	8.144	B5-03822-P04-CH0	453112	OK	0.7036855	-0.3922276	0.5924392	0	-125.305	-24.739	13.03	B5-03822-P04-CH1	453112	OK	0.7739923	-0.6328855	0.0197984	0	-112.858	-37.679	11.791	NA
0.289771854319959	B5-03822-P01-CH0	453120	OK	0.196559	0.0878093	0.0892615	-0.9724641	96.022	56.445	-228.022	B5-03822-P02-CH0	453120	OK	0.7769313	0.0606677	-0.6266556	0	-85.661	-90.589	5.597	B5-03822-P02-CH1	453120	OK	0.7847596	-0.1306241	-0.6058793	0	-86.913	-69.43	8.492	B5-03822-P03-CH0	453120	OK	0.8421888	-0.2564277	-0.4743024	0	-94.557	-48.886	12.865	B5-03822-P03-CH1	453120	OK	0.7581552	-0.5939151	-0.2691942	0	-100.675	-20.92	8.233	B5-03822-P04-CH0	453120	OK	0.704807	-0.3918587	0.5913492	0	-125.319	-24.989	15.753	B5-03822-P04-CH1	453120	OK	0.7734991	-0.6335167	0.0188603	0	-112.777	-37.682	11.575	NA
0.299763987227544	B5-03822-P01-CH0	453128	OK	0.1964236	0.0878265	0.0892328	-0.9724926	96.016	56.437	-228.03	B5-03822-P02-CH0	453128	OK	0.7759208	0.0716798	-0.6267447	0	-86.853	-89.875	6.336	B5-03822-P02-CH1	453128	OK	0.7800748	-0.1245212	-0.6131703	0	-86.347	-70.337	7.591	B5-03822-P03-CH0	453128	OK	0.839438	-0.2591311	-0.4776976	0	-95.382	-49.302	13.425	B5-03822-P03-CH1	453128	OK	0.7579618	-0.5942885	-0.2689147	0	-100.682	-20.935	8.26	B5-03822-P04-CH0	453128	OK	0.7040036	-0.3925538	0.5918449	0	-125.704	-25.544	15.259	B5-03822-P04-CH1	453128	OK	0.7733767	-0.6336894	0.0180595	0	-112.733	-37.547	11.516	NA
0.309756120135129	B5-03822-P01-CH0	453136	OK	0.196675	0.0877412	0.0899344	-0.9723848	95.989	56.496	-227.934	B5-03822-P02-CH0	453136	OK	0.7765152	0.082842	-0.624629	0	-87.685	-89.968	6.495	B5-03822-P02-CH1	453136	OK	0.7733338	-0.1120008	-0.6240277	0	-86.252	-70.218	7.599	B5-03822-P03-CH0	453136	OK	0.8403254	-0.2666716	-0.4719528	0	-94.837	-49.844	12.849	B5-03822-P03-CH1	453136	OK	0.7581637	-0.5944307	-0.2680296	0	-100.702	-20.953	8.173	B5-03822-P04-CH0	453136	OK	0.7043589	-0.3930348	0.5911025	0	-125.539	-25.296	15.083	B5-03822-P04-CH1	453136	OK	0.773779	-0.6332104	0.0176269	0	-112.778	-37.45	11.437	NA
0.319748253042714	B5-03822-P01-CH0	453144	OK	0.1968972	0.0876918	0.0901505	-0.9723243	95.981	56.553	-227.902	B5-03822-P02-CH0	453144	OK	0.7795368	0.0932797	-0.6193717	0	-87.254	-90.738	5.676	B5-03822-P02-CH1	453144	OK	0.7644263	-0.0952345	-0.6376384	0	-86.19	-70.593	6.56	B5-03822-P03-CH0	453144	OK	0.8413016	-0.2795396	-0.4626761	0	-94.811	-50.092	13.345	B5-03822-P03-CH1	453144	OK	0.7581527	-0.5947615	-0.2673259	0	-100.656	-20.958	8.228	B5-03822-P04-CH0	453144	OK	0.7046981	-0.4032597	0.5837655	0	-125.295	-24.824	14.896	B5-03822-P04-CH1	453144	OK	0.7738205	-0.6331607	0.0175908	0	-112.806	-37.443	11.358	NA
0.329740385950299	B5-03822-P01-CH0	453152	OK	0.1970263	0.0875928	0.0901481	-0.9723073	95.973	56.612	-227.96	B5-03822-P02-CH0	453152	OK	0.7804694	0.1043195	-0.6164292	0	-87.814	-90.832	5.554	B5-03822-P02-CH1	453152	OK	0.7569614	-0.0780428	-0.6487825	0	-85.464	-69.84	7.33	B5-03822-P03-CH0	453152	OK	0.8436351	-0.2919031	-0.4506356	0	-94.341	-49.837	13.849	B5-03822-P03-CH1	453152	OK	0.7579506	-0.5952339	-0.2668472	0	-100.713	-20.96	8.196	B5-03822-P04-CH0	453152	OK	0.704181	-0.4065265	0.5821213	0	-125.405	-24.756	13.929	B5-03822-P04-CH1	453152	OK	0.7737076	-0.633296	0.0176844	0	-112.804	-37.474	11.312	NA
0.339732518857883	B5-03822-P01-CH0	453160	OK	0.1971542	0.0875736	0.0901556	-0.9722824	95.982	56.686	-227.946	B5-03822-P02-CH0	453160	OK	0.7804073	0.115752	-0.6144639	0	-88.821	-90.025	6.983	B5-03822-P02-CH1	453160	OK	0.7521609	-0.0613734	-0.6561153	0	-85.147	-70.846	6.306	B5-03822-P03-CH0	453160	OK	0.8417041	-0.2922971	-0.4539787	0	-94.573	-50.099	13.556	B5-03822-P03-CH1	453160	OK	0.7578089	-0.5955212	-0.2666089	0	-100.764	-20.913	8.276	B5-03822-P04-CH0	453160	OK	0.7040998	-0.4056442	0.5828347	0	-125.864	-25.546	13.648	B5-03822-P04-CH1	453160	OK	0.773551	-0.633477	0.0180493	0	-112.878	-37.56	11.223	NA
0.349724651765468	B5-03822-P01-CH0	453168	OK	0.1971355	0.0874996	0.089777	-0.9723279	95.98	56.683	-227.919	B5-03822-P02-CH0	453168	OK	0.7828645	0.1262767	-0.6092433	0	-88.718	-90.365	5.76	B5-03822-P02-CH1	453168	OK	0.7486811	-0.0455152	-0.6613659	0	-85.631	-71.253	7.134	B5-03822-P03-CH0	453168	OK	0.8415418	-0.2941616	-0.4530743	0	-93.861	-49.855	13.528	B5-03822-P03-CH1	453168	OK	0.7575529	-0.5958578	-0.2665841	0	-100.713	-20.911	8.318	B5-03822-P04-CH0	453168	OK	0.704116	-0.4044103	0.583672	0	-125.749	-25.156	14.233	B5-03822-P04-CH1	453168	OK	0.7733156	-0.6337541	0.0184024	0	-112.923	-37.62	11.175	NA
0.359716784673053	B5-03822-P01-CH0	453176	OK	0.197227	0.0874864	0.0894923	-0.9723368	95.998	56.625	-227.834	B5-03822-P02-CH0	453176	OK	0.7836118	0.1334189	-0.6067552	0	-89.286	-90.635	6.396	B5-03822-P02-CH1	453176	OK	0.7487571	-0.0327704	-0.6620339	0	-85.207	-71.307	6.162	B5-03822-P03-CH0	453176	OK	0.8432882	-0.3016046	-0.4448591	0	-94.125	-50.338	13.277	B5-03822-P03-CH1	453176	OK	0.7573835	-0.5961421	-0.2664298	0	-100.656	-20.974	8.364	B5-03822-P04-CH0	453176	OK	0.7036393	-0.4029701	0.5852408	0	-125.779	-25.436	14.8	B5-03822-P04-CH1	453176	OK	0.7731752	-0.6339037	0.019137	0	-112.964	-37.791	11.111	NA
0.369708917580638	B5-03822-P01-CH0	453184	OK	0.1974795	0.087523	0.0896965	-0.9722634	96.067	56.704	-227.786	B5-03822-P02-CH0	453184	OK	0.7837665	0.1408098	-0.6048823	0	-90.061	-90.266	6.836	B5-03822-P02-CH1	453184	OK	0.7481114	-0.0241131	-0.6631349	0	-85.659	-70.625	7.602	B5-03822-P03-CH0	453184	OK	0.846592	-0.307272	-0.434587	0	-94.47	-50.254	14.077	B5-03822-P03-CH1	453184	OK	0.7573446	-0.5962135	-0.2663805	0	-100.76	-20.967	8.467	B5-03822-P04-CH0	453184	OK	0.7025054	-0.40418	0.5857684	0	-126.075	-25.256	13.092	B5-03822-P04-CH1	453184	OK	0.7734321	-0.6335562	0.0202318	0	-113.087	-37.878	11.127	NA
0.379701050488223	B5-03822-P01-CH0	453192	OK	0.1976138	0.0875028	0.0896188	-0.9722451	96.1	56.773	-227.806	B5-03822-P02-CH0	453192	OK	0.7851653	0.1494599	-0.6009801	0	-90.282	-90.353	6.8	B5-03822-P02-CH1	453192	OK	0.7482763	-0.0161337	-0.663191	0	-85.453	-70.21	7.85	B5-03822-P03-CH0	453192	OK	0.8484035	-0.3125294	-0.4272434	0	-94.917	-50.242	13.983	B5-03822-P03-CH1	453192	OK	0.7571823	-0.5964433	-0.2663275	0	-100.739	-20.978	8.56	B5-03822-P04-CH0	453192	OK	0.7027607	-0.4037315	0.5857715	0	-125.669	-24.978	12.86	B5-03822-P04-CH1	453192	OK	0.7735026	-0.6334367	0.0212508	0	-113.274	-37.976	11.202	NA
0.389693183395807	B5-03822-P01-CH0	453200	OK	0.1977282	0.0876187	0.0893046	-0.9722403	96.157	56.81	-227.766	B5-03822-P02-CH0	453200	OK	0.7871091	0.15948	-0.59584	0	-90.036	-90.693	6.832	B5-03822-P02-CH1	453200	OK	0.74758	-0.0122281	-0.6640592	0	-85.336	-71.112	6.878	B5-03822-P03-CH0	453200	OK	0.8500054	-0.318364	-0.4196847	0	-94.758	-50.442	13.817	B5-03822-P03-CH1	453200	OK	0.7568532	-0.5968391	-0.2663762	0	-100.764	-21.015	8.588	B5-03822-P04-CH0	453200	OK	0.7023156	-0.4044393	0.585817	0	-125.926	-25.171	12.57	B5-03822-P04-CH1	453200	OK	0.7734452	-0.633468	0.0223782	0	-113.407	-38.087	11.269	NA
0.399685316303392	B5-03822-P01-CH0	453208	OK	0.197854	0.0876812	0.0892135	-0.9722174	96.202	56.895	-227.697	B5-03822-P02-CH0	453208	OK	0.7886529	0.1718981	-0.5903199	0	-90.119	-91.049	6.257	B5-03822-P02-CH1	453208	OK	0.7473893	-0.0109993	-0.6642952	0	-84.639	-71.77	6.436	B5-03822-P03-CH0	453208	OK	0.8515162	-0.3253822	-0.4111528	0	-95.49	-50.377	13.527	B5-03822-P03-CH1	453208	OK	0.7567497	-0.5969725	-0.2663715	0	-100.784	-20.968	8.554	B5-03822-P04-CH0	453208	OK	0.7002588	-0.4026412	0.5895064	0	-126.737	-25.743	12.462	B5-03822-P04-CH1	453208	OK	0.7736141	-0.6332273	0.0233334	0	-113.657	-38.111	11.323	NA
0.409677449210977	B5-03822-P01-CH0	453216	OK	0.1978103	0.0879122	0.088458	-0.9722745	96.296	56.91	-227.689	B5-03822-P02-CH0	453216	OK	0.7901178	0.1877145	-0.5835042	0	-90.537	-90.771	6.887	B5-03822-P02-CH1	453216	OK	0.7453938	-0.0089534	-0.6665642	0	-84.931	-71.308	7.905	B5-03822-P03-CH0	453216	OK	0.8553201	-0.3375418	-0.3930561	0	-95.776	-50.574	13.913	B5-03822-P03-CH1	453216	OK	0.7561378	-0.5975141	-0.2668941	0	-100.864	-21.022	8.635	B5-03822-P04-CH0	453216	OK	0.7000607	-0.4017287	0.5903635	0	-126.946	-25.815	12.906	B5-03822-P04-CH1	453216	OK	0.7733074	-0.6335717	0.0241369	0	-113.869	-38.19	11.434	NA
0.419669582118562	B5-03822-P01-CH0	453224	OK	0.1978998	0.0878932	0.0883818	-0.9722649	96.323	56.928	-227.683	B5-03822-P02-CH0	453224	OK	0.791756	0.2023564	-0.5763456	0	-91.045	-90.692	6.704	B5-03822-P02-CH1	453224	OK	0.7476828	-0.0051629	-0.664036	0	-83.648	-71.616	6.518	B5-03822-P03-CH0	453224	OK	0.8615579	-0.3469417	-0.3706068	0	-95.359	-50.342	14.818	B5-03822-P03-CH1	453224	OK	0.7560438	-0.5975016	-0.2671883	0	-100.868	-21.024	8.644	B5-03822-P04-CH0	453224	OK	0.7007227	-0.399197	0.5912948	0	-127.279	-25.866	14.306	B5-03822-P04-CH1	453224	OK	0.7733733	-0.6334452	0.0253161	0	-114.008	-38.324	11.496	NA
0.429661715026147	B5-03822-P01-CH0	453232	OK	0.1982031	0.0878489	0.0885832	-0.9721888	96.333	56.96	-227.602	B5-03822-P02-CH0	453232	OK	0.7923798	0.2133594	-0.5714998	0	-91.846	-90.562	7.364	B5-03822-P02-CH1	453232	OK	0.7471713	-0.0022926	-0.6646276	0	-83.895	-71.946	6.648	B5-03822-P03-CH0	453232	OK	0.8625075	-0.356426	-0.3592233	0	-95.668	-51.047	14.551	B5-03822-P03-CH1	453232	OK	0.7560739	-0.5973661	-0.2674061	0	-100.856	-21.063	8.602	B5-03822-P04-CH0	453232	OK	0.6994658	-0.3997326	0.59242	0	-126.944	-25.725	12.523	B5-03822-P04-CH1	453232	OK	0.7737584	-0.6329253	0.0265236	0	-114.138	-38.397	11.55	NA
0.439653847933731	B5-03822-P01-CH0	453240	OK	0.198397	0.0877891	0.0886334	-0.9721501	96.352	56.957	-227.55	B5-03822-P02-CH0	453240	OK	0.7969518	0.2209418	-0.5621855	0	-90.851	-91.959	5.119	B5-03822-P02-CH1	453240	OK	0.7466121	-0.0010716	-0.6652587	0	-83.81	-72.239	6.503	B5-03822-P03-CH0	453240	OK	0.859155	-0.3624688	-0.361205	0	-96.061	-50.993	14.048	B5-03822-P03-CH1	453240	OK	0.7560345	-0.5972813	-0.2677068	0	-100.824	-21.119	8.547	B5-03822-P04-CH0	453240	OK	0.7003671	-0.3958206	0.5939798	0	-127.411	-26.076	12.745	B5-03822-P04-CH1	453240	OK	0.7740875	-0.6324891	0.0273142	0	-114.284	-38.429	11.673	NA
0.449645980841316	B5-03822-P01-CH0	453248	OK	0.1985805	0.087828	0.0886909	-0.9721039	96.401	56.997	-227.547	B5-03822-P02-CH0	453248	OK	0.7981241	0.2322252	-0.5559401	0	-90.937	-91.676	5.183	B5-03822-P02-CH1	453248	OK	0.7437242	-0.0017205	-0.6684844	0	-84.061	-72.24	7.06	B5-03822-P03-CH0	453248	OK	0.8546581	-0.3694868	-0.3647453	0	-95.097	-50.764	13.727	B5-03822-P03-CH1	453248	OK	0.7559042	-0.5973037	-0.2680245	0	-100.859	-21.163	8.499	B5-03822-P04-CH0	453248	OK	0.7004405	-0.3996667	0.5913118	0	-127.079	-25.973	12.505	B5-03822-P04-CH1	453248	OK	0.7743496	-0.6321305	0.0281719	0	-114.417	-38.435	11.763	NA
0.459638113748901	B5-03822-P01-CH0	453256	OK	0.1987646	0.0878049	0.0889952	-0.9720405	96.416	57.132	-227.573	B5-03822-P02-CH0	453256	OK	0.8019367	0.2412438	-0.5465336	0	-89.725	-92.056	3.444	B5-03822-P02-CH1	453256	OK	0.7425057	-0.0044166	-0.6698251	0	-82.798	-72.19	5.904	B5-03822-P03-CH0	453256	OK	0.8486435	-0.3740754	-0.3739944	0	-95.657	-51.207	13.372	B5-03822-P03-CH1	453256	OK	0.7559637	-0.5971217	-0.268262	0	-100.883	-21.099	8.5	B5-03822-P04-CH0	453256	OK	0.7004335	-0.3981605	0.5923353	0	-127.238	-25.973	12.558	B5-03822-P04-CH1	453256	OK	0.7746149	-0.6317813	0.0287094	0	-114.585	-38.386	11.753	NA
0.469630246656486	B5-03822-P01-CH0	453264	OK	0.1987502	0.0877565	0.0885231	-0.9720909	96.406	57.055	-227.558	B5-03822-P02-CH0	453264	OK	0.8040501	0.2495909	-0.5396368	0	-89.206	-92.489	3.005	B5-03822-P02-CH1	453264	OK	0.7392961	-0.007297	-0.6733409	0	-82.359	-71.49	5.846	B5-03822-P03-CH0	453264	OK	0.8454142	-0.3767202	-0.3786247	0	-93.994	-51.563	13.292	B5-03822-P03-CH1	453264	OK	0.7556446	-0.5973691	-0.2686101	0	-100.825	-21.147	8.407	B5-03822-P04-CH0	453264	OK	0.700136	-0.3966157	0.5937218	0	-127.287	-26.103	12.784	B5-03822-P04-CH1	453264	OK	0.7744371	-0.6320029	0.0286274	0	-114.632	-38.392	11.821	NA
0.479622379564071	B5-03822-P01-CH0	453272	OK	0.1988167	0.0877317	0.0886174	-0.972071	96.446	57.088	-227.64	B5-03822-P02-CH0	453272	OK	0.8052759	0.2574655	-0.5340808	0	-88.847	-92.041	3.029	B5-03822-P02-CH1	453272	OK	0.7357723	-0.0089431	-0.67717	0	-82.276	-71.871	5.664	B5-03822-P03-CH0	453272	OK	0.8412631	-0.3740668	-0.3903208	0	-93.75	-51.807	13.011	B5-03822-P03-CH1	453272	OK	0.7556961	-0.5971811	-0.268883	0	-100.853	-21.089	8.484	B5-03822-P04-CH0	453272	OK	0.7002389	-0.3946621	0.5949011	0	-127.393	-26.199	13.072	B5-03822-P04-CH1	453272	OK	0.7746499	-0.6317475	0.0285072	0	-114.576	-38.29	11.947	NA
0.489614512471655	B5-03822-P01-CH0	453280	OK	0.1988377	0.0877019	0.0885456	-0.9720759	96.464	57.075	-227.658	B5-03822-P02-CH0	453280	OK	0.8031879	0.264167	-0.5339523	0	-90.128	-91.451	4.909	B5-03822-P02-CH1	453280	OK	0.7318578	-0.0087773	-0.6814009	0	-82.325	-71.004	6.327	B5-03822-P03-CH0	453280	OK	0.8391665	-0.3657798	-0.4024981	0	-93.652	-51.464	12.752	B5-03822-P03-CH1	453280	OK	0.755666	-0.5970731	-0.2692075	0	-100.845	-21.042	8.485	B5-03822-P04-CH0	453280	OK	0.6994254	-0.3870603	0.6008231	0	-126.73	-25.184	12.336	B5-03822-P04-CH1	453280	OK	0.774623	-0.631793	0.0282285	0	-114.539	-38.262	11.981	NA
0.49960664537924	B5-03822-P01-CH0	453288	OK	0.1989461	0.0875906	0.0887645	-0.9720438	96.486	57.069	-227.759	B5-03822-P02-CH0	453288	OK	0.8057895	0.2666597	-0.5287683	0	-89.03	-92.224	3.576	B5-03822-P02-CH1	453288	OK	0.7306642	-0.0072061	-0.6826989	0	-81.435	-72.26	5.447	B5-03822-P03-CH0	453288	OK	0.8371661	-0.3582219	-0.4133157	0	-92.823	-51.879	12.343	B5-03822-P03-CH1	453288	OK	0.7556535	-0.5969979	-0.269409	0	-100.873	-21.102	8.576	B5-03822-P04-CH0	453288	OK	0.6997281	-0.3856021	0.6014081	0	-126.825	-24.535	10.64	B5-03822-P04-CH1	453288	OK	0.7747194	-0.6316964	0.0277405	0	-114.451	-38.267	12.081	NA
0.509598778286825	B5-03822-P01-CH0	453296	OK	0.1990615	0.0874823	0.0891856	-0.9719914	96.457	57.083	-227.697	B5-03822-P02-CH0	453296	OK	0.8063676	0.2684362	-0.5269851	0	-88.348	-92.095	3.35	B5-03822-P02-CH1	453296	OK	0.7290604	-0.0038875	-0.6844383	0	-81.023	-72.412	4.787	B5-03822-P03-CH0	453296	OK	0.8354754	-0.3506635	-0.4231028	0	-91.857	-52.04	12.204	B5-03822-P03-CH1	453296	OK	0.755805	-0.5968247	-0.2693679	0	-100.794	-21.076	8.488	B5-03822-P04-CH0	453296	OK	0.6994611	-0.3798937	0.6053387	0	-126.459	-25.284	11.777	B5-03822-P04-CH1	453296	OK	0.7749533	-0.631426	0.0273602	0	-114.314	-38.193	11.995	NA
0.51959091119441	B5-03822-P01-CH0	453304	OK	0.1990069	0.0874323	0.0892783	-0.9719986	96.45	57.11	-227.718	B5-03822-P02-CH0	453304	OK	0.804357	0.2687149	-0.5299077	0	-88.915	-91.806	3.813	B5-03822-P02-CH1	453304	OK	0.7277151	-0.0001795	-0.6858796	0	-81.072	-72.107	4.164	B5-03822-P03-CH0	453304	OK	0.8324668	-0.3426229	-0.4354406	0	-91.487	-52.213	11.858	B5-03822-P03-CH1	453304	OK	0.7557283	-0.5968494	-0.2695283	0	-100.793	-20.983	8.416	B5-03822-P04-CH0	453304	OK	0.700074	-0.3769805	0.6064503	0	-126.332	-24.826	12.316	B5-03822-P04-CH1	453304	OK	0.7749147	-0.631512	0.0264546	0	-114.19	-38.083	12.034	NA
0.529583044101995	B5-03822-P01-CH0	453312	OK	0.1989033	0.0873897	0.0894287	-0.9720098	96.442	57.134	-227.725	B5-03822-P02-CH0	453312	OK	0.8042248	0.2654344	-0.5317584	0	-88.54	-92.037	3.191	B5-03822-P02-CH1	453312	OK	0.7263233	0.0030488	-0.6873465	0	-81.772	-71.819	6.058	B5-03822-P03-CH0	453312	OK	0.8282697	-0.3352763	-0.4489534	0	-91.114	-52.327	12.12	B5-03822-P03-CH1	453312	OK	0.7556666	-0.5969538	-0.2694701	0	-100.763	-20.9	8.459	B5-03822-P04-CH0	453312	OK	0.7014211	-0.372637	0.6075773	0	-126.184	-24.572	14.823	B5-03822-P04-CH1	453312	OK	0.7748736	-0.6316071	0.0253664	0	-114.04	-37.966	12.043	NA
0.539575177009579	B5-03822-P01-CH0	453320	OK	0.1986493	0.0873185	0.0892734	-0.9720824	96.41	57.083	-227.758	B5-03822-P02-CH0	453320	OK	0.8039296	0.2602153	-0.5347758	0	-88.419	-91.627	3.443	B5-03822-P02-CH1	453320	OK	0.7291821	0.0051945	-0.6843	0	-80.782	-73.045	5.263	B5-03822-P03-CH0	453320	OK	0.8240795	-0.3295687	-0.4607357	0	-90.487	-52.605	11.678	B5-03822-P03-CH1	453320	OK	0.7554436	-0.5972372	-0.2694674	0	-100.691	-20.84	8.506	B5-03822-P04-CH0	453320	OK	0.7002919	-0.3696712	0.6106835	0	-125.848	-24.895	13.887	B5-03822-P04-CH1	453320	OK	0.7746302	-0.6319574	0.0240399	0	-113.907	-37.863	11.907	NA
0.549567309917164	B5-03822-P01-CH0	453328	OK	0.198406	0.087178	0.0888493	-0.9721835	96.365	56.993	-227.849	B5-03822-P02-CH0	453328	OK	0.8033843	0.2521342	-0.5394459	0	-88.764	-91.014	4.694	B5-03822-P02-CH1	453328	OK	0.7308857	0.0075444	-0.6824582	0	-80.701	-72.914	4.847	B5-03822-P03-CH0	453328	OK	0.8196892	-0.3241486	-0.4722682	0	-90.651	-52.985	11.326	B5-03822-P03-CH1	453328	OK	0.7551113	-0.5977268	-0.2693131	0	-100.578	-20.813	8.501	B5-03822-P04-CH0	453328	OK	0.700389	-0.365892	0.6128444	0	-125.796	-24.239	13.703	B5-03822-P04-CH1	453328	OK	0.7742708	-0.6324495	0.0226356	0	-113.686	-37.778	11.937	NA
0.559559442824749	B5-03822-P01-CH0	453336	OK	0.1980817	0.0870658	0.0883731	-0.9723031	96.345	56.88	-227.932	B5-03822-P02-CH0	453336	OK	0.8045576	0.241363	-0.5426149	0	-88.536	-91.266	4.615	B5-03822-P02-CH1	453336	OK	0.7332286	0.0072375	-0.6799437	0	-81.093	-72.591	4.958	B5-03822-P03-CH0	453336	OK	0.8193678	-0.3170448	-0.477618	0	-90.283	-52.429	11.979	B5-03822-P03-CH1	453336	OK	0.754513	-0.5984212	-0.2694481	0	-100.586	-20.846	8.444	B5-03822-P04-CH0	453336	OK	0.7002117	-0.3624718	0.6150754	0	-125.809	-24.572	13.73	B5-03822-P04-CH1	453336	OK	0.7739234	-0.6329265	0.0211344	0	-113.426	-37.663	12.041	NA
0.569551575732334	B5-03822-P01-CH0	453344	OK	0.1978096	0.0869776	0.0880724	-0.9723937	96.301	56.82	-227.941	B5-03822-P02-CH0	453344	OK	0.8025007	0.2286376	-0.5511057	0	-89.935	-91.005	6.109	B5-03822-P02-CH1	453344	OK	0.7364303	0.0022365	-0.6765098	0	-81.8	-72.531	6.28	B5-03822-P03-CH0	453344	OK	0.8188391	-0.3089717	-0.4837758	0	-91.198	-52.718	11.481	B5-03822-P03-CH1	453344	OK	0.7540708	-0.5989639	-0.26948	0	-100.591	-20.839	8.356	B5-03822-P04-CH0	453344	OK	0.7003765	-0.3604915	0.6160508	0	-125.723	-24.202	14.097	B5-03822-P04-CH1	453344	OK	0.7735778	-0.6333901	0.0198592	0	-113.193	-37.549	11.939	NA
0.579543708639919	B5-03822-P01-CH0	453352	OK	0.1979015	0.0869136	0.0885552	-0.9723369	96.278	56.85	-227.933	B5-03822-P02-CH0	453352	OK	0.8038995	0.2128433	-0.5553768	0	-89.242	-91.365	5.15	B5-03822-P02-CH1	453352	OK	0.7416177	-0.0027074	-0.6708173	0	-81.372	-72.884	5.709	B5-03822-P03-CH0	453352	OK	0.8210438	-0.3021215	-0.4843652	0	-91.257	-52.49	11.502	B5-03822-P03-CH1	453352	OK	0.7541847	-0.5990219	-0.2690319	0	-100.58	-20.811	8.305	B5-03822-P04-CH0	453352	OK	0.700831	-0.3600747	0.6157777	0	-125.774	-23.424	13.724	B5-03822-P04-CH1	453352	OK	0.7736854	-0.6332899	0.0188369	0	-113.125	-37.475	11.872	NA
0.589535841547503	B5-03822-P01-CH0	453360	OK	0.1978141	0.0867499	0.0890169	-0.9723271	96.226	56.871	-227.969	B5-03822-P02-CH0	453360	OK	0.8009403	0.1969049	-0.5654406	0	-90.112	-90.55	6.74	B5-03822-P02-CH1	453360	OK	0.7435504	-0.006363	-0.6686496	0	-82.322	-72.964	5.366	B5-03822-P03-CH0	453360	OK	0.8236093	-0.2954051	-0.4841523	0	-91.222	-52.561	11.672	B5-03822-P03-CH1	453360	OK	0.7543735	-0.5989078	-0.2687567	0	-100.52	-20.726	8.329	B5-03822-P04-CH0	453360	OK	0.6995539	-0.3615219	0.6163816	0	-125.515	-23.42	12.462	B5-03822-P04-CH1	453360	OK	0.7739722	-0.632973	0.0176703	0	-113.02	-37.265	11.876	NA
0.599527974455088	B5-03822-P01-CH0	453368	OK	0.1975941	0.0866213	0.0888435	-0.9723992	96.149	56.818	-227.966	B5-03822-P02-CH0	453368	OK	0.7980215	0.1846065	-0.5736568	0	-90.489	-89.383	7.21	B5-03822-P02-CH1	453368	OK	0.7458445	-0.008562	-0.6660651	0	-82.517	-72.718	5.579	B5-03822-P03-CH0	453368	OK	0.8253931	-0.2911957	-0.4836645	0	-91.306	-53.162	10.924	B5-03822-P03-CH1	453368	OK	0.7540989	-0.5992137	-0.2688455	0	-100.497	-20.705	8.145	B5-03822-P04-CH0	453368	OK	0.7004186	-0.3612712	0.615546	0	-125.96	-23.6	13.217	B5-03822-P04-CH1	453368	OK	0.7738704	-0.6331263	0.0166067	0	-112.929	-37.057	11.775	NA
0.609520107362673	B5-03822-P01-CH0	453376	OK	0.197259	0.0864908	0.0885716	-0.9725036	96.107	56.783	-228.117	B5-03822-P02-CH0	453376	OK	0.797224	0.1726513	-0.5784681	0	-90.184	-89.938	6.922	B5-03822-P02-CH1	453376	OK	0.747108	-0.0087807	-0.6646446	0	-83.114	-72.172	6.943	B5-03822-P03-CH0	453376	OK	0.8264283	-0.2864631	-0.4847218	0	-91.854	-53.202	11.625	B5-03822-P03-CH1	453376	OK	0.7538865	-0.5993094	-0.2692275	0	-100.484	-20.629	8.19	B5-03822-P04-CH0	453376	OK	0.7005355	-0.3622049	0.6148639	0	-125.966	-23.217	13.247	B5-03822-P04-CH1	453376	OK	0.7735938	-0.6334921	0.015504	0	-112.943	-36.92	11.797	NA
0.619512240270258	B5-03822-P01-CH0	453384	OK	0.1970512	0.0865556	0.0885691	-0.9725402	96.102	56.799	-228.172	B5-03822-P02-CH0	453384	OK	0.797306	0.1631989	-0.5810931	0	-89.43	-90.541	5.824	B5-03822-P02-CH1	453384	OK	0.7495584	-0.0098303	-0.6618652	0	-82.731	-73.368	4.989	B5-03822-P03-CH0	453384	OK	0.8282176	-0.2835925	-0.4833538	0	-91.791	-53.182	12.317	B5-03822-P03-CH1	453384	OK	0.7537218	-0.5994665	-0.2693388	0	-100.503	-20.615	8.241	B5-03822-P04-CH0	453384	OK	0.7003447	-0.3640256	0.6140054	0	-125.826	-23.966	13.926	B5-03822-P04-CH1	453384	OK	0.7735408	-0.6335738	0.0147955	0	-113.024	-36.768	11.801	NA
0.629504373177843	B5-03822-P01-CH0	453392	OK	0.1969622	0.0864542	0.0886125	-0.9725633	96.062	56.77	-228.26	B5-03822-P02-CH0	453392	OK	0.794555	0.1550146	-0.5870715	0	-89.919	-90.899	6.995	B5-03822-P02-CH1	453392	OK	0.7499885	-0.0095331	-0.6613821	0	-83.303	-72.719	5.948	B5-03822-P03-CH0	453392	OK	0.8293943	-0.28071	-0.4830186	0	-91.894	-53.132	12.142	B5-03822-P03-CH1	453392	OK	0.7537122	-0.5994332	-0.2694398	0	-100.504	-20.615	8.124	B5-03822-P04-CH0	453392	OK	0.6999845	-0.3645143	0.6141262	0	-125.622	-23.683	13.568	B5-03822-P04-CH1	453392	OK	0.7735542	-0.633566	0.01442	0	-113.123	-36.683	11.735	NA
0.639496506085427	B5-03822-P01-CH0	453400	OK	0.1967599	0.0865173	0.0883919	-0.9726187	96.07	56.743	-228.322	B5-03822-P02-CH0	453400	OK	0.7932723	0.1494243	-0.5902469	0	-89.629	-91.313	6.667	B5-03822-P02-CH1	453400	OK	0.7497502	-0.0094415	-0.6616536	0	-83.816	-72.906	6.548	B5-03822-P03-CH0	453400	OK	0.8300945	-0.2794349	-0.482555	0	-91.944	-53.427	12.165	B5-03822-P03-CH1	453400	OK	0.753511	-0.5995445	-0.2697547	0	-100.594	-20.591	8.124	B5-03822-P04-CH0	453400	OK	0.6997419	-0.3661482	0.6134303	0	-125.53	-23.314	13.255	B5-03822-P04-CH1	453400	OK	0.773398	-0.6337596	0.0142955	0	-113.158	-36.608	11.784	NA
0.649488638993012	B5-03822-P01-CH0	453408	OK	0.1965466	0.0867056	0.0884583	-0.972639	96.125	56.778	-228.365	B5-03822-P02-CH0	453408	OK	0.7910919	0.1484526	-0.59341	0	-89.8	-90.919	6.476	B5-03822-P02-CH1	453408	OK	0.7489391	-0.0058661	-0.6626129	0	-84.504	-72.808	7.248	B5-03822-P03-CH0	453408	OK	0.8297772	-0.2812665	-0.4820363	0	-92.015	-53.731	12.21	B5-03822-P03-CH1	453408	OK	0.7533739	-0.599578	-0.2700631	0	-100.731	-20.57	8.192	B5-03822-P04-CH0	453408	OK	0.7015408	-0.3767783	0.604879	0	-126.175	-22.833	14.232	B5-03822-P04-CH1	453408	OK	0.7733493	-0.6338272	0.0139271	0	-113.397	-36.55	11.864	NA
0.659480771900597	B5-03822-P01-CH0	453416	OK	0.1963692	0.0866284	0.0884794	-0.9726798	96.091	56.765	-228.449	B5-03822-P02-CH0	453416	OK	0.7889086	0.1472888	-0.596598	0	-90.454	-91.555	6.624	B5-03822-P02-CH1	453416	OK	0.7500022	-0.0003543	-0.6614352	0	-84.724	-73.11	7.122	B5-03822-P03-CH0	453416	OK	0.8288885	-0.2835443	-0.4822308	0	-91.778	-54.197	12.344	B5-03822-P03-CH1	453416	OK	0.7534715	-0.5994707	-0.2700289	0	-100.641	-20.536	8.26	B5-03822-P04-CH0	453416	OK	0.7016877	-0.3806539	0.6022765	0	-126.28	-23.259	14.401	B5-03822-P04-CH1	453416	OK	0.7733449	-0.633834	0.0138607	0	-113.522	-36.511	11.819	NA
0.669472904808182	B5-03822-P01-CH0	453424	OK	0.1961797	0.0865883	0.0886341	-0.9727076	96.077	56.794	-228.557	B5-03822-P02-CH0	453424	OK	0.7864128	0.1498621	-0.5992465	0	-91.484	-90.893	8.011	B5-03822-P02-CH1	453424	OK	0.751628	0.0052734	-0.6595661	0	-85.042	-73.562	7.26	B5-03822-P03-CH0	453424	OK	0.827111	-0.283768	-0.4851423	0	-92.269	-54.393	12.078	B5-03822-P03-CH1	453424	OK	0.7533944	-0.5994501	-0.2702894	0	-100.677	-20.541	8.334	B5-03822-P04-CH0	453424	OK	0.7005802	-0.387137	0.5994266	0	-126.109	-23.508	12.975	B5-03822-P04-CH1	453424	OK	0.7734704	-0.6336796	0.0139191	0	-113.668	-36.445	11.937	NA
0.679465037715767	B5-03822-P01-CH0	453432	OK	0.195943	0.0864591	0.0884144	-0.9727868	96.024	56.755	-228.612	B5-03822-P02-CH0	453432	OK	0.788956	0.1508972	-0.5956329	0	-90.835	-92.277	7.143	B5-03822-P02-CH1	453432	OK	0.7546108	0.0105817	-0.6560874	0	-85.034	-73.429	6.957	B5-03822-P03-CH0	453432	OK	0.8276222	-0.2797952	-0.4865759	0	-92.443	-53.974	12.865	B5-03822-P03-CH1	453432	OK	0.7531289	-0.5996956	-0.2704847	0	-100.718	-20.55	8.287	B5-03822-P04-CH0	453432	OK	0.7003232	-0.3917414	0.5967295	0	-125.974	-23.68	13.388	B5-03822-P04-CH1	453432	OK	0.773494	-0.6336499	0.0139591	0	-113.785	-36.372	12.002	NA
0.689457170623351	B5-03822-P01-CH0	453440	OK	0.1958563	0.0863643	0.0881063	-0.9728406	95.993	56.707	-228.667	B5-03822-P02-CH0	453440	OK	0.7890807	0.1510498	-0.595429	0	-91.159	-92.293	7.748	B5-03822-P02-CH1	453440	OK	0.7573049	0.0119317	-0.6529525	0	-85.56	-73.699	7.941	B5-03822-P03-CH0	453440	OK	0.8280576	-0.272432	-0.4900014	0	-93.114	-53.924	12.464	B5-03822-P03-CH1	453440	OK	0.7528284	-0.6001145	-0.2703925	0	-100.722	-20.624	8.251	B5-03822-P04-CH0	453440	OK	0.7002393	-0.3970466	0.5933118	0	-125.626	-23.134	13.559	B5-03822-P04-CH1	453440	OK	0.7734371	-0.6337138	0.0142075	0	-113.802	-36.358	12.03	NA
0.699449303530936	B5-03822-P01-CH0	453448	OK	0.1959555	0.0863942	0.0884142	-0.97279	96.004	56.768	-228.655	B5-03822-P02-CH0	453448	OK	0.79121	0.1494577	-0.5930001	0	-90.68	-93.14	6.395	B5-03822-P02-CH1	453448	OK	0.7619254	0.013154	-0.6475312	0	-85.662	-74.092	7.517	B5-03822-P03-CH0	453448	OK	0.8304644	-0.2633801	-0.4908766	0	-93.251	-53.227	13.315	B5-03822-P03-CH1	453448	OK	0.7529536	-0.6001441	-0.2699776	0	-100.736	-20.594	8.312	B5-03822-P04-CH0	453448	OK	0.6995642	-0.401332	0.5912213	0	-125.486	-23.284	12.761	B5-03822-P04-CH1	453448	OK	0.7735702	-0.6335403	0.014691	0	-113.928	-36.439	12.019	NA
0.709441436438521	B5-03822-P01-CH0	453456	OK	0.19585	0.0864951	0.0884028	-0.9728033	96.051	56.794	-228.656	B5-03822-P02-CH0	453456	OK	0.7901248	0.1501592	-0.5942685	0	-91.754	-92.043	7.672	B5-03822-P02-CH1	453456	OK	0.7656944	0.0149306	-0.6430313	0	-86.268	-73.583	7.563	B5-03822-P03-CH0	453456	OK	0.8330501	-0.2575542	-0.489585	0	-93.428	-53.426	12.832	B5-03822-P03-CH1	453456	OK	0.7527612	-0.6005732	-0.2695598	0	-100.786	-20.655	8.38	B5-03822-P04-CH0	453456	OK	0.6988744	-0.4060417	0.5888163	0	-125.019	-22.772	11.925	B5-03822-P04-CH1	453456	OK	0.7735902	-0.633508	0.0150259	0	-114.017	-36.47	12.11	NA
0.719433569346106	B5-03822-P01-CH0	453464	OK	0.1959688	0.0862716	0.0885999	-0.9727813	95.996	56.815	-228.726	B5-03822-P02-CH0	453464	OK	0.7905103	0.1493247	-0.593966	0	-92.323	-91.515	8.009	B5-03822-P02-CH1	453464	OK	0.7700473	0.016019	-0.6377857	0	-86.307	-73.498	7.731	B5-03822-P03-CH0	453464	OK	0.8358245	-0.2510782	-0.4882184	0	-93.915	-53.151	13.338	B5-03822-P03-CH1	453464	OK	0.7529388	-0.6005973	-0.2690093	0	-100.771	-20.629	8.434	B5-03822-P04-CH0	453464	OK	0.6990996	-0.4076655	0.5874254	0	-125.103	-23.044	12.318	B5-03822-P04-CH1	453464	OK	0.7738847	-0.6331409	0.0153306	0	-113.964	-36.446	12.21	NA
0.729425702253691	B5-03822-P01-CH0	453472	OK	0.1959411	0.0861833	0.0884637	-0.9728071	95.973	56.788	-228.72	B5-03822-P02-CH0	453472	OK	0.792592	0.1457619	-0.5920738	0	-92.173	-91.691	7.718	B5-03822-P02-CH1	453472	OK	0.7722411	0.0187355	-0.6350532	0	-87.107	-72.408	8.92	B5-03822-P03-CH0	453472	OK	0.8367955	-0.2493013	-0.4874651	0	-94.221	-53.619	12.961	B5-03822-P03-CH1	453472	OK	0.7528528	-0.6009022	-0.2685688	0	-100.753	-20.654	8.387	B5-03822-P04-CH0	453472	OK	0.6989888	-0.4110169	0.5852177	0	-125.093	-22.997	12.201	B5-03822-P04-CH1	453472	OK	0.7738715	-0.633151	0.0155798	0	-113.942	-36.489	12.253	NA
0.739417835161275	B5-03822-P01-CH0	453480	OK	0.1959095	0.0860703	0.0884958	-0.9728206	95.929	56.787	-228.707	B5-03822-P02-CH0	453480	OK	0.7931955	0.1437159	-0.5917657	0	-92.702	-91.419	7.964	B5-03822-P02-CH1	453480	OK	0.7756105	0.0214883	-0.630846	0	-86.806	-73.198	7.926	B5-03822-P03-CH0	453480	OK	0.8372717	-0.2479236	-0.48735	0	-94.474	-53.077	12.992	B5-03822-P03-CH1	453480	OK	0.7528044	-0.6012623	-0.2678977	0	-100.705	-20.735	8.231	B5-03822-P04-CH0	453480	OK	0.6994947	-0.4130774	0.5831588	0	-125.189	-23.215	13.225	B5-03822-P04-CH1	453480	OK	0.7739385	-0.6330679	0.0156273	0	-113.962	-36.502	12.243	NA
0.74940996806886	B5-03822-P01-CH0	453488	OK	0.1960408	0.0857361	0.0889862	-0.9727789	95.798	56.85	-228.68	B5-03822-P02-CH0	453488	OK	0.7944122	0.1419697	-0.5905539	0	-92.902	-91.657	7.728	B5-03822-P02-CH1	453488	OK	0.7777521	0.0245088	-0.6280931	0	-86.82	-72.622	7.842	B5-03822-P03-CH0	453488	OK	0.8390684	-0.2495673	-0.483405	0	-94.572	-52.572	12.747	B5-03822-P03-CH1	453488	OK	0.7531948	-0.6010545	-0.2672658	0	-100.665	-20.672	8.161	B5-03822-P04-CH0	453488	OK	0.6994716	-0.4170328	0.5803646	0	-125.363	-23.202	12.225	B5-03822-P04-CH1	453488	OK	0.7742573	-0.632667	0.0160639	0	-113.839	-36.499	12.192	NA
0.759402100976445	B5-03822-P01-CH0	453496	OK	0.1960314	0.0856968	0.0890901	-0.9727747	95.772	56.857	-228.647	B5-03822-P02-CH0	453496	OK	0.7960298	0.1409524	-0.5886161	0	-92.675	-91.381	8.445	B5-03822-P02-CH1	453496	OK	0.7790847	0.0243593	-0.6264452	0	-87.428	-72.307	8.836	B5-03822-P03-CH0	453496	OK	0.841759	-0.250649	-0.478139	0	-94.743	-52.47	13.165	B5-03822-P03-CH1	453496	OK	0.7532914	-0.6010617	-0.2669775	0	-100.751	-20.66	8.103	B5-03822-P04-CH0	453496	OK	0.7010592	-0.4175941	0.5780408	0	-125.426	-22.856	14.587	B5-03822-P04-CH1	453496	OK	0.7743199	-0.6325891	0.0161135	0	-113.832	-36.51	12.224	NA
0.76939423388403	B5-03822-P01-CH0	453504	OK	0.196102	0.0855581	0.0891836	-0.9727642	95.705	56.802	-228.591	B5-03822-P02-CH0	453504	OK	0.7961401	0.1422748	-0.5881487	0	-92.973	-90.774	8.903	B5-03822-P02-CH1	453504	OK	0.7813201	0.0226861	-0.623718	0	-87.663	-71.493	9.542	B5-03822-P03-CH0	453504	OK	0.8448837	-0.2489572	-0.473489	0	-95.107	-51.832	13.153	B5-03822-P03-CH1	453504	OK	0.7535192	-0.6011309	-0.2661774	0	-100.673	-20.695	7.888	B5-03822-P04-CH0	453504	OK	0.699807	-0.4202142	0.5776592	0	-125.25	-22.998	12.68	B5-03822-P04-CH1	453504	OK	0.7743397	-0.6325579	0.0163894	0	-113.774	-36.609	12.06	NA
0.779386366791615	B5-03822-P01-CH0	453512	OK	0.196136	0.0856953	0.0894538	-0.9727204	95.73	56.809	-228.564	B5-03822-P02-CH0	453512	OK	0.7979696	0.1415366	-0.5858429	0	-92.362	-91.836	7.998	B5-03822-P02-CH1	453512	OK	0.7838088	0.0176673	-0.6207509	0	-87.482	-72.194	8.515	B5-03822-P03-CH0	453512	OK	0.8470545	-0.2490558	-0.4695422	0	-95.199	-51.975	12.718	B5-03822-P03-CH1	453512	OK	0.7536758	-0.6012487	-0.265467	0	-100.7	-20.772	7.886	B5-03822-P04-CH0	453512	OK	0.6989952	-0.4226281	0.5768805	0	-125.229	-22.902	11.308	B5-03822-P04-CH1	453512	OK	0.7743844	-0.6325005	0.0164875	0	-113.79	-36.702	11.996	NA
0.789378499699199	B5-03822-P01-CH0	453520	OK	0.1960186	0.0858044	0.0896103	-0.97272	95.739	56.825	-228.58	B5-03822-P02-CH0	453520	OK	0.7969744	0.1452315	-0.586293	0	-92.625	-90.924	7.824	B5-03822-P02-CH1	453520	OK	0.7857338	0.0113467	-0.6184607	0	-87	-73.047	8.231	B5-03822-P03-CH0	453520	OK	0.8471919	-0.2500356	-0.468773	0	-95.708	-51.843	13.152	B5-03822-P03-CH1	453520	OK	0.7538638	-0.6011986	-0.2650465	0	-100.713	-20.763	7.928	B5-03822-P04-CH0	453520	OK	0.6984659	-0.4227719	0.577416	0	-125.027	-23.302	11.946	B5-03822-P04-CH1	453520	OK	0.7744658	-0.6324074	0.0162343	0	-113.891	-36.679	12.06	NA
0.799370632606784	B5-03822-P01-CH0	453528	OK	0.1956023	0.0858928	0.0887661	-0.9728735	95.723	56.682	-228.632	B5-03822-P02-CH0	453528	OK	0.7977717	0.1474866	-0.5846434	0	-91.948	-90.982	8.517	B5-03822-P02-CH1	453528	OK	0.7869667	0.0055896	-0.6169701	0	-86.702	-72.893	7.958	B5-03822-P03-CH0	453528	OK	0.8478919	-0.2537285	-0.4655117	0	-95.413	-51.736	13.453	B5-03822-P03-CH1	453528	OK	0.7534332	-0.6017449	-0.2650312	0	-100.702	-20.856	7.876	B5-03822-P04-CH0	453528	OK	0.6986387	-0.4225781	0.5773489	0	-125.032	-23.491	12.768	B5-03822-P04-CH1	453528	OK	0.7738381	-0.6331808	0.0160177	0	-113.83	-36.757	12.086	NA
0.809362765514369	B5-03822-P01-CH0	453536	OK	0.1956419	0.0857898	0.0889748	-0.9728555	95.651	56.61	-228.64	B5-03822-P02-CH0	453536	OK	0.7974291	0.1493125	-0.5846474	0	-91.708	-90.968	8.023	B5-03822-P02-CH1	453536	OK	0.78684	-0.0001825	-0.617157	0	-86.61	-71.5	8.959	B5-03822-P03-CH0	453536	OK	0.8464113	-0.2562706	-0.4668118	0	-95.836	-51.772	13.113	B5-03822-P03-CH1	453536	OK	0.7538098	-0.6015191	-0.2644721	0	-100.657	-20.882	7.778	B5-03822-P04-CH0	453536	OK	0.6988582	-0.4200881	0.5788982	0	-124.762	-22.866	12.064	B5-03822-P04-CH1	453536	OK	0.7738079	-0.6332125	0.0162252	0	-113.759	-36.912	12.012	NA
0.819354898421954	B5-03822-P01-CH0	453544	OK	0.1952957	0.0860016	0.0888955	-0.9729136	95.678	56.533	-228.63	B5-03822-P02-CH0	453544	OK	0.7965374	0.1525543	-0.5850259	0	-91.823	-90.874	7.867	B5-03822-P02-CH1	453544	OK	0.7859474	-0.0050438	-0.6182728	0	-86.582	-71.447	9.079	B5-03822-P03-CH0	453544	OK	0.8471722	-0.2581957	-0.4643644	0	-94.937	-51.136	13.441	B5-03822-P03-CH1	453544	OK	0.7537767	-0.6016198	-0.2643376	0	-100.712	-20.951	7.707	B5-03822-P04-CH0	453544	OK	0.6985553	-0.4224098	0.5775729	0	-124.75	-22.888	11.69	B5-03822-P04-CH1	453544	OK	0.7736129	-0.6334564	0.0160029	0	-113.817	-36.983	12.009	NA
0.829347031329539	B5-03822-P01-CH0	453552	OK	0.1950571	0.0861876	0.0889553	-0.9729396	95.7	56.512	-228.704	B5-03822-P02-CH0	453552	OK	0.7946073	0.1548094	-0.5870547	0	-92.025	-90.125	9.341	B5-03822-P02-CH1	453552	OK	0.7841859	-0.0122205	-0.6204057	0	-86.626	-72.306	8.539	B5-03822-P03-CH0	453552	OK	0.8458198	-0.2613077	-0.4650883	0	-94.764	-51.168	13.162	B5-03822-P03-CH1	453552	OK	0.7538919	-0.6016184	-0.2640121	0	-100.758	-20.99	7.841	B5-03822-P04-CH0	453552	OK	0.698723	-0.4235091	0.5765641	0	-124.861	-22.931	11.919	B5-03822-P04-CH1	453552	OK	0.7736172	-0.633452	0.0159652	0	-113.802	-36.982	12.132	NA
0.839339164237124	B5-03822-P01-CH0	453560	OK	0.1947757	0.0862284	0.0887547	-0.9730106	95.675	56.429	-228.794	B5-03822-P02-CH0	453560	OK	0.795462	0.1534961	-0.5862415	0	-91.035	-91.512	7.903	B5-03822-P02-CH1	453560	OK	0.783041	-0.0180334	-0.6217086	0	-85.943	-71.69	8.111	B5-03822-P03-CH0	453560	OK	0.8425558	-0.2667819	-0.4678965	0	-94.967	-51.481	13.347	B5-03822-P03-CH1	453560	OK	0.7539845	-0.6015559	-0.2638897	0	-100.749	-20.979	7.951	B5-03822-P04-CH0	453560	OK	0.6982923	-0.4250903	0.575922	0	-124.812	-22.932	11.704	B5-03822-P04-CH1	453560	OK	0.7733382	-0.6337937	0.0159233	0	-113.763	-37.063	12.198	NA
0.849331297144708	B5-03822-P01-CH0	453568	OK	0.1943891	0.086352	0.0885329	-0.9730972	95.647	56.312	-228.831	B5-03822-P02-CH0	453568	OK	0.7947897	0.1546445	-0.5868512	0	-90.373	-91.604	7.402	B5-03822-P02-CH1	453568	OK	0.7791548	-0.0237926	-0.6263798	0	-86.589	-70.811	9.979	B5-03822-P03-CH0	453568	OK	0.8401966	-0.2704147	-0.4700485	0	-94.804	-51.373	13.37	B5-03822-P03-CH1	453568	OK	0.754036	-0.6015545	-0.263746	0	-100.701	-21.001	7.905	B5-03822-P04-CH0	453568	OK	0.6977379	-0.4262048	0.5757701	0	-124.75	-23.08	11.509	B5-03822-P04-CH1	453568	OK	0.7731694	-0.6340067	0.0156403	0	-113.752	-37.048	12.114	NA
0.859323430052293	B5-03822-P01-CH0	453576	OK	0.1943668	0.0865977	0.0889562	-0.9730412	95.655	56.274	-228.799	B5-03822-P02-CH0	453576	OK	0.792831	0.1561187	-0.5891061	0	-89.997	-91.533	7.059	B5-03822-P02-CH1	453576	OK	0.779309	-0.0321132	-0.6258164	0	-85.43	-72.115	8.138	B5-03822-P03-CH0	453576	OK	0.8388416	-0.2708156	-0.4722326	0	-95.066	-51.359	13.327	B5-03822-P03-CH1	453576	OK	0.7543862	-0.6014378	-0.2630097	0	-100.669	-21.095	7.929	B5-03822-P04-CH0	453576	OK	0.6974002	-0.4272704	0.5753894	0	-124.697	-23.133	10.89	B5-03822-P04-CH1	453576	OK	0.7734814	-0.6336204	0.0158655	0	-113.749	-37.054	12.121	NA
0.869315562959878	B5-03822-P01-CH0	453584	OK	0.1940699	0.0867558	0.0892597	-0.9730586	95.636	56.25	-228.79	B5-03822-P02-CH0	453584	OK	0.7904572	0.157142	-0.5920167	0	-89.685	-91.588	7.745	B5-03822-P02-CH1	453584	OK	0.7784594	-0.0385867	-0.6265078	0	-84.986	-71.767	7.823	B5-03822-P03-CH0	453584	OK	0.839136	-0.2711834	-0.4714979	0	-94.888	-51.16	13.313	B5-03822-P03-CH1	453584	OK	0.7547024	-0.6010409	-0.2630099	0	-100.744	-21.038	8.024	B5-03822-P04-CH0	453584	OK	0.6973912	-0.4277005	0.5750806	0	-124.667	-23.126	11.129	B5-03822-P04-CH1	453584	OK	0.7736175	-0.6334588	0.0156825	0	-113.789	-37.004	12.083	NA
0.879307695867463	B5-03822-P01-CH0	453592	OK	0.1936322	0.0868962	0.0888478	-0.973171	95.592	56.171	-228.804	B5-03822-P02-CH0	453592	OK	0.788595	0.1573473	-0.5944407	0	-89.43	-91.741	7.353	B5-03822-P02-CH1	453592	OK	0.7773666	-0.0460489	-0.6273601	0	-84.996	-71.868	8.149	B5-03822-P03-CH0	453592	OK	0.8377784	-0.2723565	-0.4732328	0	-95.248	-51.515	12.951	B5-03822-P03-CH1	453592	OK	0.7546349	-0.6010182	-0.2632552	0	-100.71	-20.991	8.009	B5-03822-P04-CH0	453592	OK	0.6970857	-0.4284279	0.5749096	0	-124.661	-23.12	11.244	B5-03822-P04-CH1	453592	OK	0.7733596	-0.6337774	0.0155299	0	-113.762	-36.93	12.105	NA
0.889299828775048	B5-03822-P01-CH0	453600	OK	0.1934311	0.0871037	0.0888869	-0.9731888	95.578	56.123	-228.787	B5-03822-P02-CH0	453600	OK	0.788	0.1579959	-0.5950574	0	-88.475	-91.812	6.285	B5-03822-P02-CH1	453600	OK	0.7753363	-0.0534399	-0.6292836	0	-85.697	-71.497	9.512	B5-03822-P03-CH0	453600	OK	0.8379621	-0.2741863	-0.4718489	0	-94.637	-51.355	13.282	B5-03822-P03-CH1	453600	OK	0.7546803	-0.6010097	-0.2631444	0	-100.745	-21.032	7.989	B5-03822-P04-CH0	453600	OK	0.6970559	-0.4287197	0.5747282	0	-124.707	-23.127	11.291	B5-03822-P04-CH1	453600	OK	0.7732516	-0.6339026	0.0157939	0	-113.731	-36.997	12.041	NA
0.899291961682632	B5-03822-P01-CH0	453608	OK	0.1932741	0.0871453	0.0893514	-0.9731738	95.51	56.146	-228.785	B5-03822-P02-CH0	453608	OK	0.7848474	0.1591072	-0.5989152	0	-88.611	-90.671	7.29	B5-03822-P02-CH1	453608	OK	0.7760385	-0.0575429	-0.6280549	0	-85.07	-70.75	8.714	B5-03822-P03-CH0	453608	OK	0.8366173	-0.2757506	-0.4733214	0	-94.798	-51.32	13.1	B5-03822-P03-CH1	453608	OK	0.7551735	-0.6004542	-0.2629974	0	-100.699	-20.923	8.13	B5-03822-P04-CH0	453608	OK	0.6969239	-0.4297819	0.5740946	0	-124.646	-22.92	10.898	B5-03822-P04-CH1	453608	OK	0.7736815	-0.6333802	0.0157	0	-113.736	-36.846	12.094	NA
0.909284094590217	B5-03822-P01-CH0	453616	OK	0.1932132	0.0872089	0.0898946	-0.9731301	95.46	56.182	-228.769	B5-03822-P02-CH0	453616	OK	0.7850415	0.1559583	-0.5994888	0	-87.591	-91.473	6.228	B5-03822-P02-CH1	453616	OK	0.7758607	-0.0616585	-0.6278841	0	-84.677	-71.33	7.557	B5-03822-P03-CH0	453616	OK	0.8352125	-0.2775406	-0.4747539	0	-95.045	-51.049	13.15	B5-03822-P03-CH1	453616	OK	0.7555538	-0.6000334	-0.2628656	0	-100.735	-20.888	8.122	B5-03822-P04-CH0	453616	OK	0.6973326	-0.4294035	0.5738814	0	-124.705	-22.88	11.27	B5-03822-P04-CH1	453616	OK	0.7741982	-0.6327442	0.015872	0	-113.711	-36.688	12.075	NA
0.919276227497802	B5-03822-P01-CH0	453624	OK	0.1930711	0.0871409	0.0898188	-0.9731714	95.365	56.095	-228.728	B5-03822-P02-CH0	453624	OK	0.7834321	0.1540494	-0.6020822	0	-87.48	-91.101	6.662	B5-03822-P02-CH1	453624	OK	0.7746377	-0.0666366	-0.6288847	0	-84.604	-71.368	8.295	B5-03822-P03-CH0	453624	OK	0.8335457	-0.281226	-0.4755139	0	-95.002	-51.205	13.4	B5-03822-P03-CH1	453624	OK	0.7557285	-0.5997754	-0.2629523	0	-100.636	-20.881	8.172	B5-03822-P04-CH0	453624	OK	0.697242	-0.4292752	0.5740875	0	-124.67	-22.948	11.462	B5-03822-P04-CH1	453624	OK	0.7742682	-0.6326536	0.0160696	0	-113.606	-36.641	11.999	NA
0.929268360405387	B5-03822-P01-CH0	453632	OK	0.1928385	0.0871499	0.0894176	-0.9732537	95.305	55.951	-228.647	B5-03822-P02-CH0	453632	OK	0.7824597	0.1505203	-0.6042355	0	-87.285	-91.281	6.481	B5-03822-P02-CH1	453632	OK	0.773986	-0.0686729	-0.6294678	0	-84.481	-71.062	8.473	B5-03822-P03-CH0	453632	OK	0.8326529	-0.2830607	-0.4759893	0	-94.772	-51.051	12.916	B5-03822-P03-CH1	453632	OK	0.7556651	-0.5996671	-0.2633813	0	-100.643	-20.871	8.026	B5-03822-P04-CH0	453632	OK	0.6967712	-0.4298452	0.5742325	0	-124.579	-22.98	11.242	B5-03822-P04-CH1	453632	OK	0.7739217	-0.6330796	0.0159813	0	-113.631	-36.734	11.829	NA
0.939260493312971	B5-03822-P01-CH0	453640	OK	0.1929307	0.08723	0.089718	-0.9732006	95.287	55.918	-228.607	B5-03822-P02-CH0	453640	OK	0.7796815	0.1480838	-0.6084143	0	-87.807	-90.364	7.701	B5-03822-P02-CH1	453640	OK	0.7730449	-0.0682568	-0.6306684	0	-84.605	-71.325	7.725	B5-03822-P03-CH0	453640	OK	0.8321306	-0.2857649	-0.4752864	0	-94.651	-51.19	13.141	B5-03822-P03-CH1	453640	OK	0.7559499	-0.5992784	-0.2634483	0	-100.657	-20.9	8.029	B5-03822-P04-CH0	453640	OK	0.6972569	-0.4289225	0.574333	0	-124.642	-23.076	11.664	B5-03822-P04-CH1	453640	OK	0.7742412	-0.6326817	0.0162648	0	-113.6	-36.731	11.805	NA
0.949252626220556	B5-03822-P01-CH0	453648	OK	0.1931438	0.0872033	0.0899608	-0.9731383	95.252	55.856	-228.521	B5-03822-P02-CH0	453648	OK	0.7785354	0.1447361	-0.6106833	0	-87.552	-90.471	7.361	B5-03822-P02-CH1	453648	OK	0.77235	-0.0695147	-0.631382	0	-84.85	-71.239	7.944	B5-03822-P03-CH0	453648	OK	0.8327555	-0.2875289	-0.4731231	0	-94.379	-51.291	12.938	B5-03822-P03-CH1	453648	OK	0.7561903	-0.5990644	-0.2632453	0	-100.649	-20.987	7.973	B5-03822-P04-CH0	453648	OK	0.6976668	-0.4280827	0.5744617	0	-124.674	-23.126	11.853	B5-03822-P04-CH1	453648	OK	0.7744559	-0.6324049	0.0167967	0	-113.541	-36.823	11.748	NA
0.959244759128141	B5-03822-P01-CH0	453656	OK	0.1929409	0.0871853	0.0896117	-0.9732123	95.221	55.763	-228.486	B5-03822-P02-CH0	453656	OK	0.7792555	0.1410994	-0.6106159	0	-86.889	-91.361	6.483	B5-03822-P02-CH1	453656	OK	0.7726995	-0.07111	-0.6307764	0	-84.556	-71.579	7.604	B5-03822-P03-CH0	453656	OK	0.8324796	-0.2881662	-0.4732207	0	-94.509	-51.413	12.928	B5-03822-P03-CH1	453656	OK	0.7561849	-0.5988185	-0.2638198	0	-100.651	-20.913	7.964	B5-03822-P04-CH0	453656	OK	0.6976686	-0.4279464	0.5745611	0	-124.665	-23.146	12.028	B5-03822-P04-CH1	453656	OK	0.7742418	-0.6326663	0.0168235	0	-113.538	-36.849	11.692	NA
0.969236892035726	B5-03822-P01-CH0	453664	OK	0.1929116	0.0873893	0.0892199	-0.9732359	95.265	55.712	-228.457	B5-03822-P02-CH0	453664	OK	0.7787318	0.1407119	-0.611373	0	-86.837	-91.555	6.82	B5-03822-P02-CH1	453664	OK	0.7719971	-0.0721632	-0.6315164	0	-84.889	-71.153	8.791	B5-03822-P03-CH0	453664	OK	0.8323619	-0.2894206	-0.4726621	0	-94.42	-51.474	12.838	B5-03822-P03-CH1	453664	OK	0.7561711	-0.5987988	-0.263904	0	-100.589	-20.902	8.131	B5-03822-P04-CH0	453664	OK	0.6976549	-0.4278765	0.5746297	0	-124.767	-23.15	11.835	B5-03822-P04-CH1	453664	OK	0.7740248	-0.6329291	0.0169191	0	-113.582	-36.892	11.772	NA
0.979229024943311	B5-03822-P01-CH0	453672	OK	0.1929164	0.087369	0.0892379	-0.9732351	95.24	55.65	-228.431	B5-03822-P02-CH0	453672	OK	0.77944	0.1411047	-0.6103792	0	-86.242	-91.788	6.009	B5-03822-P02-CH1	453672	OK	0.7729329	-0.0728391	-0.6302929	0	-84.358	-71.251	7.971	B5-03822-P03-CH0	453672	OK	0.8317785	-0.2895476	-0.4736103	0	-94.461	-51.384	12.787	B5-03822-P03-CH1	453672	OK	0.7563924	-0.5984646	-0.2640279	0	-100.56	-20.884	8.22	B5-03822-P04-CH0	453672	OK	0.6977325	-0.427745	0.5746334	0	-124.699	-23.128	11.848	B5-03822-P04-CH1	453672	OK	0.7739787	-0.6329838	0.0169861	0	-113.593	-36.978	11.729	NA
