Wav.Time	B5.03822.P01.CH0	Frame	State	Q0	Qx	Qy	Qz	Tx	Ty	Tz	B5.03822.P02.CH0	Frame.1	State.1	Q0.1	Qx.1	Qy.1	Qz.1	Tx.1	Ty.1	Tz.1	B5.03822.P02.CH1	Frame.2	State.2	Q0.2	Qx.2	Qy.2	Qz.2	Tx.2	Ty.2	Tz.2	B5.03822.P03.CH0	Frame.3	State.3	Q0.3	Qx.3	Qy.3	Qz.3	Tx.3	Ty.3	Tz.3	B5.03822.P03.CH1	Frame.4	State.4	Q0.4	Qx.4	Qy.4	Qz.4	Tx.4	Ty.4	Tz.4	B5.03822.P04.CH0	Frame.5	State.5	Q0.5	Qx.5	Qy.5	Qz.5	Tx.5	Ty.5	Tz.5	B5.03822.P04.CH1	Frame.6	State.6	Q0.6	Qx.6	Qy.6	Qz.6	Tx.6	Ty.6	Tz.6	X
0	B5-03822-P01-CH0	1430080	OK	0.1703087	0.1300338	0.0598093	-0.9749405	158.247	-55.402	-228.807	B5-03822-P02-CH0	1430080	OK	0.7191425	0.4008236	-0.5676042	0	-87.491	-88.191	1.711	B5-03822-P02-CH1	1430080	OK	0.7225868	-0.200685	-0.6615087	0	-87.625	-69.049	3.55	B5-03822-P03-CH0	1430080	OK	0.7932888	0.1685382	-0.5850536	0	-103.436	-53.088	12.755	B5-03822-P03-CH1	1430080	OK	0.7675072	-0.6398442	-0.0391419	0	-101.697	-10.496	4.604	B5-03822-P04-CH0	1430080	OK	0.813769	-0.4405548	0.3790665	0	-126.763	-27.703	15.096	B5-03822-P04-CH1	1430080	OK	0.7937253	-0.6074788	0.0311394	0	-113.435	-33.727	4.929	NA
0.00999199679871949	B5-03822-P01-CH0	1430088	OK	0.1702092	0.1299251	0.0597238	-0.9749776	158.179	-55.356	-228.777	B5-03822-P02-CH0	1430088	OK	0.7186914	0.4025547	-0.5669501	0	-88.093	-88.604	2.315	B5-03822-P02-CH1	1430088	OK	0.7239357	-0.19713	-0.6611028	0	-87.104	-69.477	3.834	B5-03822-P03-CH0	1430088	OK	0.7931131	0.1740069	-0.5836893	0	-103.292	-53.198	13.299	B5-03822-P03-CH1	1430088	OK	0.7674588	-0.6399304	-0.0386803	0	-101.63	-10.473	4.586	B5-03822-P04-CH0	1430088	OK	0.8143791	-0.4450578	0.3724381	0	-125.494	-26.038	14.771	B5-03822-P04-CH1	1430088	OK	0.7938166	-0.6073786	0.030763	0	-113.421	-33.52	4.72	NA
0.019983993597439	B5-03822-P01-CH0	1430096	OK	0.1706184	0.1297519	0.0600679	-0.974908	158.214	-55.319	-228.862	B5-03822-P02-CH0	1430096	OK	0.7192965	0.4046839	-0.5646623	0	-87.798	-88.535	2.113	B5-03822-P02-CH1	1430096	OK	0.7235133	-0.1938103	-0.6625451	0	-87.573	-69.269	3.489	B5-03822-P03-CH0	1430096	OK	0.7924459	0.1762836	-0.5839123	0	-103.59	-53.372	12.386	B5-03822-P03-CH1	1430096	OK	0.7680495	-0.6392702	-0.0378625	0	-101.596	-10.313	4.504	B5-03822-P04-CH0	1430096	OK	0.8149531	-0.4474788	0.3682582	0	-126.221	-27.245	14.594	B5-03822-P04-CH1	1430096	OK	0.794042	-0.6070698	0.0310415	0	-113.332	-33.623	4.736	NA
0.0299759903961585	B5-03822-P01-CH0	1430104	OK	0.1707397	0.1299225	0.0601095	-0.9748615	158.302	-55.267	-228.837	B5-03822-P02-CH0	1430104	OK	0.7201712	0.4070782	-0.5618192	0	-87.455	-87.597	1.942	B5-03822-P02-CH1	1430104	OK	0.7228354	-0.1919757	-0.663818	0	-87.931	-69.651	4.233	B5-03822-P03-CH0	1430104	OK	0.7919325	0.1815121	-0.5830062	0	-103.639	-53.392	12.079	B5-03822-P03-CH1	1430104	OK	0.7682974	-0.6390032	-0.0373371	0	-101.581	-10.22	4.47	B5-03822-P04-CH0	1430104	OK	0.8152364	-0.452197	0.3618113	0	-125.571	-27.169	13.913	B5-03822-P04-CH1	1430104	OK	0.7939823	-0.607133	0.0313312	0	-113.436	-33.839	4.955	NA
0.039967987194878	B5-03822-P01-CH0	1430112	OK	0.1707801	0.1297711	0.0599203	-0.9748862	158.238	-55.19	-228.797	B5-03822-P02-CH0	1430112	OK	0.7221413	0.4038549	-0.5616166	0	-88.547	-88.99	1.843	B5-03822-P02-CH1	1430112	OK	0.723722	-0.1895607	-0.6635459	0	-87.296	-69.611	4.025	B5-03822-P03-CH0	1430112	OK	0.7910482	0.1845186	-0.583263	0	-103.695	-53.301	12.76	B5-03822-P03-CH1	1430112	OK	0.76894	-0.6382469	-0.0370428	0	-101.423	-9.665	4.067	B5-03822-P04-CH0	1430112	OK	0.8163863	-0.4560061	0.3543612	0	-125.373	-26.336	13.049	B5-03822-P04-CH1	1430112	OK	0.7939076	-0.6072297	0.0313489	0	-113.342	-33.833	5.117	NA
0.0499599839935974	B5-03822-P01-CH0	1430120	OK	0.1708767	0.1301171	0.0595759	-0.9748443	158.372	-55.166	-228.727	B5-03822-P02-CH0	1430120	OK	0.7232177	0.4035197	-0.5604712	0	-89.277	-89.129	2.695	B5-03822-P02-CH1	1430120	OK	0.7230777	-0.1864145	-0.6651378	0	-87.415	-69.092	3.32	B5-03822-P03-CH0	1430120	OK	0.7911588	0.1879566	-0.5820138	0	-103.217	-53.264	12.847	B5-03822-P03-CH1	1430120	OK	0.7690064	-0.638219	-0.0361347	0	-101.557	-9.679	4.169	B5-03822-P04-CH0	1430120	OK	0.8175533	-0.4582849	0.3486854	0	-125.839	-27.376	14.061	B5-03822-P04-CH1	1430120	OK	0.7935968	-0.6076338	0.0313899	0	-113.487	-34.011	5.347	NA
0.0599519807923169	B5-03822-P01-CH0	1430128	OK	0.1708591	0.1302828	0.0595513	-0.9748268	158.407	-55.047	-228.658	B5-03822-P02-CH0	1430128	OK	0.7250176	0.4041576	-0.5576792	0	-89.303	-88.886	1.756	B5-03822-P02-CH1	1430128	OK	0.7230244	-0.1829095	-0.666168	0	-87.058	-69.525	2.962	B5-03822-P03-CH0	1430128	OK	0.7901049	0.1868058	-0.5838131	0	-103.758	-53.879	12.449	B5-03822-P03-CH1	1430128	OK	0.7692822	-0.6379295	-0.0353673	0	-101.528	-9.566	4.186	B5-03822-P04-CH0	1430128	OK	0.8181672	-0.4616409	0.3427684	0	-125.169	-27.367	14.424	B5-03822-P04-CH1	1430128	OK	0.7934256	-0.6078649	0.031243	0	-113.56	-34.039	5.405	NA
0.0699439775910364	B5-03822-P01-CH0	1430136	OK	0.1706608	0.1302995	0.0588359	-0.9749027	158.414	-55.044	-228.682	B5-03822-P02-CH0	1430136	OK	0.7272542	0.4041891	-0.5547364	0	-88.927	-88.183	2.432	B5-03822-P02-CH1	1430136	OK	0.7213409	-0.1790072	-0.6690469	0	-87.488	-69.558	3.43	B5-03822-P03-CH0	1430136	OK	0.7894784	0.1889767	-0.5839621	0	-103.818	-53.798	12.817	B5-03822-P03-CH1	1430136	OK	0.7689857	-0.6383406	-0.0343852	0	-101.529	-9.705	4.356	B5-03822-P04-CH0	1430136	OK	0.8184997	-0.4669072	0.3347475	0	-123.917	-25.201	12.708	B5-03822-P04-CH1	1430136	OK	0.7929367	-0.6085109	0.0310805	0	-113.584	-34.08	5.485	NA
0.0799359743897559	B5-03822-P01-CH0	1430144	OK	0.1706647	0.1303465	0.0585531	-0.9749127	158.435	-55.039	-228.614	B5-03822-P02-CH0	1430144	OK	0.7291444	0.4022724	-0.5536473	0	-89.559	-88.478	1.922	B5-03822-P02-CH1	1430144	OK	0.7203356	-0.1758182	-0.6709729	0	-87.263	-69.557	3.739	B5-03822-P03-CH0	1430144	OK	0.7886635	0.1880884	-0.5853483	0	-103.845	-53.796	13.128	B5-03822-P03-CH1	1430144	OK	0.7689654	-0.6384219	-0.0333127	0	-101.607	-9.832	4.425	B5-03822-P04-CH0	1430144	OK	0.8175425	-0.4708738	0.3315148	0	-123.737	-26.7	13.936	B5-03822-P04-CH1	1430144	OK	0.792636	-0.6089032	0.0310654	0	-113.603	-34.193	5.511	NA
0.0899279711884754	B5-03822-P01-CH0	1430152	OK	0.1704586	0.1305346	0.058021	-0.9749555	158.465	-55.034	-228.502	B5-03822-P02-CH0	1430152	OK	0.7316767	0.4021195	-0.5504081	0	-89.86	-88.576	1.651	B5-03822-P02-CH1	1430152	OK	0.7181898	-0.1716568	-0.6743422	0	-87.246	-69.645	4.166	B5-03822-P03-CH0	1430152	OK	0.7888594	0.1869135	-0.5854607	0	-103.522	-54.15	13.239	B5-03822-P03-CH1	1430152	OK	0.7686954	-0.6387888	-0.0324997	0	-101.675	-9.936	4.487	B5-03822-P04-CH0	1430152	OK	0.8166706	-0.4745103	0.3284648	0	-123.942	-27.102	13.045	B5-03822-P04-CH1	1430152	OK	0.7922057	-0.6094907	0.0305142	0	-113.566	-34.147	5.349	NA
0.0999199679871949	B5-03822-P01-CH0	1430160	OK	0.1703819	0.1305528	0.0576115	-0.9749907	158.49	-55.006	-228.531	B5-03822-P02-CH0	1430160	OK	0.7344839	0.4018289	-0.5468702	0	-90.328	-89.336	2.563	B5-03822-P02-CH1	1430160	OK	0.7154307	-0.1659543	-0.6786885	0	-87.331	-69.731	4.061	B5-03822-P03-CH0	1430160	OK	0.7874812	0.1844558	-0.5880897	0	-103.936	-53.983	12.803	B5-03822-P03-CH1	1430160	OK	0.768413	-0.6391733	-0.0316069	0	-101.659	-10.094	4.597	B5-03822-P04-CH0	1430160	OK	0.8166644	-0.4750829	0.3276515	0	-124.001	-28.007	15.266	B5-03822-P04-CH1	1430160	OK	0.7918396	-0.6099648	0.0305465	0	-113.564	-34.313	5.731	NA
0.109911964785914	B5-03822-P01-CH0	1430168	OK	0.170449	0.1306035	0.0573616	-0.9749869	158.555	-55.026	-228.544	B5-03822-P02-CH0	1430168	OK	0.737085	0.4039177	-0.5418083	0	-90.853	-89.586	3.9	B5-03822-P02-CH1	1430168	OK	0.7128302	-0.1604618	-0.6827336	0	-87.089	-69.889	3.736	B5-03822-P03-CH0	1430168	OK	0.7869635	0.1784573	-0.590628	0	-103.816	-53.878	12.927	B5-03822-P03-CH1	1430168	OK	0.7683267	-0.6393146	-0.0308366	0	-101.647	-10.288	4.861	B5-03822-P04-CH0	1430168	OK	0.8163098	-0.4755619	0.3278401	0	-123.167	-27.053	13.445	B5-03822-P04-CH1	1430168	OK	0.7916779	-0.6101845	0.0303482	0	-113.482	-34.362	5.874	NA
0.119903961584634	B5-03822-P01-CH0	1430176	OK	0.1703703	0.1307461	0.0572205	-0.9749899	158.603	-54.986	-228.519	B5-03822-P02-CH0	1430176	OK	0.7402078	0.4079059	-0.5345139	0	-90.993	-89.149	3.386	B5-03822-P02-CH1	1430176	OK	0.7086599	-0.1559633	-0.6880964	0	-86.967	-69.855	3.603	B5-03822-P03-CH0	1430176	OK	0.7866181	0.1674755	-0.5942927	0	-104.231	-54.218	12.887	B5-03822-P03-CH1	1430176	OK	0.7683227	-0.6393355	-0.0305025	0	-101.679	-10.371	5.038	B5-03822-P04-CH0	1430176	OK	0.8164556	-0.4744958	0.3290197	0	-123.133	-27.418	13.81	B5-03822-P04-CH1	1430176	OK	0.7915189	-0.6104029	0.030103	0	-113.558	-34.431	6.055	NA
0.129895958383353	B5-03822-P01-CH0	1430184	OK	0.17034	0.1305462	0.0572624	-0.9750195	158.522	-54.97	-228.479	B5-03822-P02-CH0	1430184	OK	0.7431897	0.4106486	-0.5282393	0	-91.171	-88.949	4.209	B5-03822-P02-CH1	1430184	OK	0.7043822	-0.1508398	-0.6936087	0	-86.245	-69.758	3.647	B5-03822-P03-CH0	1430184	OK	0.7883187	0.1545299	-0.5955452	0	-103.316	-54.057	12.682	B5-03822-P03-CH1	1430184	OK	0.7685345	-0.6390896	-0.0303192	0	-101.603	-10.371	5.04	B5-03822-P04-CH0	1430184	OK	0.8183768	-0.472132	0.3276442	0	-122.619	-25.228	12.591	B5-03822-P04-CH1	1430184	OK	0.7914815	-0.6104581	0.0299664	0	-113.488	-34.441	6.069	NA
0.139887955182073	B5-03822-P01-CH0	1430192	OK	0.1702502	0.1306813	0.0571286	-0.9750249	158.622	-54.999	-228.546	B5-03822-P02-CH0	1430192	OK	0.7457749	0.4165877	-0.5198792	0	-91.326	-88.774	5.281	B5-03822-P02-CH1	1430192	OK	0.6990153	-0.1463233	-0.6999766	0	-85.929	-69.886	4.537	B5-03822-P03-CH0	1430192	OK	0.7891313	0.1358233	-0.599019	0	-103.564	-54.109	12.595	B5-03822-P03-CH1	1430192	OK	0.7680834	-0.6396672	-0.0295577	0	-101.745	-10.984	5.585	B5-03822-P04-CH0	1430192	OK	0.8183058	-0.4686563	0.3327716	0	-122.584	-26.182	13.538	B5-03822-P04-CH1	1430192	OK	0.7911464	-0.6109035	0.0297388	0	-113.467	-34.6	6.038	NA
0.149879951980792	B5-03822-P01-CH0	1430200	OK	0.1703084	0.1304705	0.0576262	-0.9750137	158.572	-54.961	-228.514	B5-03822-P02-CH0	1430200	OK	0.7483938	0.4240012	-0.5100291	0	-91.542	-88.36	4.454	B5-03822-P02-CH1	1430200	OK	0.6953656	-0.1415578	-0.7045765	0	-84.62	-69.723	3.981	B5-03822-P03-CH0	1430200	OK	0.7950718	0.1193338	-0.5946598	0	-103.973	-56.599	14.975	B5-03822-P03-CH1	1430200	OK	0.7688426	-0.6387447	-0.0297719	0	-101.546	-10.875	5.514	B5-03822-P04-CH0	1430200	OK	0.8196272	-0.4621	0.3386366	0	-123.114	-26.024	12.446	B5-03822-P04-CH1	1430200	OK	0.7916225	-0.6102996	0.0294644	0	-113.353	-34.348	5.709	NA
0.159871948779512	B5-03822-P01-CH0	1430208	OK	0.1701226	0.1306038	0.0570619	-0.9750615	158.522	-54.993	-228.306	B5-03822-P02-CH0	1430208	OK	0.7523269	0.4275641	-0.5011918	0	-92.342	-89.341	6.455	B5-03822-P02-CH1	1430208	OK	0.6906337	-0.1390517	-0.709711	0	-84.044	-69.422	3.351	B5-03822-P03-CH0	1430208	OK	0.8081497	0.1116513	-0.5782976	0	-103.301	-56.834	16.116	B5-03822-P03-CH1	1430208	OK	0.7721623	-0.6345233	-0.0338467	0	-101.039	-9.973	4.714	B5-03822-P04-CH0	1430208	OK	0.8207578	-0.4545192	0.3460766	0	-123.621	-26.53	13.529	B5-03822-P04-CH1	1430208	OK	0.7913869	-0.6106141	0.0292757	0	-113.376	-34.207	5.449	NA
0.169863945578231	B5-03822-P01-CH0	1430216	OK	0.1703262	0.1306833	0.0572311	-0.9750054	158.501	-54.895	-228.159	B5-03822-P02-CH0	1430216	OK	0.7564026	0.4323328	-0.4908599	0	-92.358	-89.164	7.37	B5-03822-P02-CH1	1430216	OK	0.6858956	-0.1401356	-0.7140793	0	-83.604	-69.076	3.602	B5-03822-P03-CH0	1430216	OK	0.8179814	0.0984845	-0.5667514	0	-104.016	-55.208	13.986	B5-03822-P03-CH1	1430216	OK	0.7732387	-0.6331612	-0.0347697	0	-100.534	-9.361	3.562	B5-03822-P04-CH0	1430216	OK	0.8219814	-0.4447334	0.355751	0	-124.321	-27.161	14.101	B5-03822-P04-CH1	1430216	OK	0.7914631	-0.6104888	0.0298253	0	-113.309	-34.162	5.085	NA
0.179855942376951	B5-03822-P01-CH0	1430224	OK	0.1702797	0.1307803	0.0570315	-0.9750122	158.52	-54.876	-228.103	B5-03822-P02-CH0	1430224	OK	0.7601661	0.4374917	-0.480363	0	-92.921	-88.712	6.909	B5-03822-P02-CH1	1430224	OK	0.6811117	-0.1442645	-0.7178263	0	-83.446	-69.279	3.838	B5-03822-P03-CH0	1430224	OK	0.8257242	0.0755821	-0.5589874	0	-104.446	-55.779	14.341	B5-03822-P03-CH1	1430224	OK	0.769621	-0.6378349	-0.029159	0	-102.175	-13.019	7.067	B5-03822-P04-CH0	1430224	OK	0.8224942	-0.4353503	0.3660237	0	-124.532	-27.08	14.097	B5-03822-P04-CH1	1430224	OK	0.791375	-0.6105839	0.0302139	0	-113.373	-34.14	4.879	NA
0.18984793917567	B5-03822-P01-CH0	1430232	OK	0.170283	0.130591	0.0573959	-0.9750156	158.494	-54.813	-228.2	B5-03822-P02-CH0	1430232	OK	0.7640438	0.4407956	-0.4711013	0	-93.435	-89.178	7.787	B5-03822-P02-CH1	1430232	OK	0.6781433	-0.146995	-0.7200793	0	-82.783	-68.825	2.989	B5-03822-P03-CH0	1430232	OK	0.8332332	0.0549957	-0.5501799	0	-103.8	-56.275	14.912	B5-03822-P03-CH1	1430232	OK	0.7684644	-0.6392375	-0.0289449	0	-102.308	-13.355	7.755	B5-03822-P04-CH0	1430232	OK	0.8231113	-0.4254858	0.376098	0	-125.539	-26.892	13.4	B5-03822-P04-CH1	1430232	OK	0.791577	-0.6102666	0.0313118	0	-113.493	-34.267	5.016	NA
0.19983993597439	B5-03822-P01-CH0	1430240	OK	0.1704565	0.1305848	0.0578479	-0.9749594	158.498	-54.822	-228.148	B5-03822-P02-CH0	1430240	OK	0.7678157	0.4462124	-0.459732	0	-93.72	-89.475	7.918	B5-03822-P02-CH1	1430240	OK	0.6754021	-0.1459303	-0.7228667	0	-82.317	-68.888	2.759	B5-03822-P03-CH0	1430240	OK	0.837595	0.0422852	-0.5446528	0	-103.434	-56.58	15.6	B5-03822-P03-CH1	1430240	OK	0.7682292	-0.6393319	-0.0328417	0	-102.098	-11.684	6.236	B5-03822-P04-CH0	1430240	OK	0.8229391	-0.417667	0.3851306	0	-126.135	-27.191	13.483	B5-03822-P04-CH1	1430240	OK	0.7921699	-0.609454	0.0321361	0	-113.555	-34.06	4.41	NA
0.209831932773109	B5-03822-P01-CH0	1430248	OK	0.1704111	0.1306499	0.0579777	-0.9749509	158.5	-54.797	-228.134	B5-03822-P02-CH0	1430248	OK	0.7716741	0.450276	-0.4491888	0	-94.132	-89.91	8.697	B5-03822-P02-CH1	1430248	OK	0.6724413	-0.1410733	-0.7265818	0	-82.463	-69.288	2.973	B5-03822-P03-CH0	1430248	OK	0.8394788	0.0353531	-0.5422412	0	-103.546	-56.195	15.518	B5-03822-P03-CH1	1430248	OK	0.7669145	-0.6406338	-0.0378216	0	-101.696	-9.543	4.513	B5-03822-P04-CH0	1430248	OK	0.8220991	-0.4126386	0.3922786	0	-126.089	-27.084	13.63	B5-03822-P04-CH1	1430248	OK	0.7923225	-0.6091915	0.0333288	0	-113.759	-34.205	4.465	NA
0.219823929571829	B5-03822-P01-CH0	1430256	OK	0.1701718	0.1306541	0.0578507	-0.9749997	158.418	-54.788	-227.978	B5-03822-P02-CH0	1430256	OK	0.7749078	0.4521331	-0.441694	0	-95.071	-90.445	10.922	B5-03822-P02-CH1	1430256	OK	0.6711813	-0.1329375	-0.7292759	0	-82.448	-69.093	2.606	B5-03822-P03-CH0	1430256	OK	0.8399518	0.0323691	-0.5416948	0	-103.579	-55.759	15.345	B5-03822-P03-CH1	1430256	OK	0.7612379	-0.6474447	-0.0365011	0	-102.082	-10.894	5.619	B5-03822-P04-CH0	1430256	OK	0.8216776	-0.4084284	0.3975325	0	-126.35	-27.384	13.717	B5-03822-P04-CH1	1430256	OK	0.7922605	-0.6092022	0.0345836	0	-113.878	-34.275	4.212	NA
0.229815926370548	B5-03822-P01-CH0	1430264	OK	0.1702769	0.1305987	0.0580407	-0.9749774	158.424	-54.779	-228.017	B5-03822-P02-CH0	1430264	OK	0.7787463	0.4565627	-0.4302381	0	-95.284	-90.106	9.603	B5-03822-P02-CH1	1430264	OK	0.6725525	-0.1236612	-0.7296444	0	-81.608	-68.845	2.485	B5-03822-P03-CH0	1430264	OK	0.8403872	0.0298648	-0.541163	0	-102.951	-55.797	15.238	B5-03822-P03-CH1	1430264	OK	0.7588049	-0.6503728	-0.0350752	0	-102.059	-10.22	5.705	B5-03822-P04-CH0	1430264	OK	0.8220075	-0.4063669	0.3989607	0	-126.154	-27.082	13.925	B5-03822-P04-CH1	1430264	OK	0.7921963	-0.6086781	0.043999	0	-115.216	-35.723	3.513	NA
0.239807923169268	B5-03822-P01-CH0	1430272	OK	0.1701818	0.1307187	0.0578155	-0.9749914	158.369	-54.737	-227.884	B5-03822-P02-CH0	1430272	OK	0.7815077	0.4578775	-0.4237852	0	-95.79	-90.302	11.455	B5-03822-P02-CH1	1430272	OK	0.6728335	-0.1137739	-0.7309929	0	-81.541	-68.951	2.771	B5-03822-P03-CH0	1430272	OK	0.8372123	0.0325864	-0.5459064	0	-103.312	-55.415	14.959	B5-03822-P03-CH1	1430272	OK	0.7575036	-0.6520067	-0.0327956	0	-102.01	-9.013	4.239	B5-03822-P04-CH0	1430272	OK	0.8217333	-0.4064252	0.3994658	0	-126.014	-27.587	13.787	B5-03822-P04-CH1	1430272	OK	0.7923087	-0.6089418	0.0379041	0	-114.331	-34.679	4.117	NA
0.249799919967987	B5-03822-P01-CH0	1430280	OK	0.1701814	0.130696	0.0579342	-0.9749874	158.382	-54.701	-227.939	B5-03822-P02-CH0	1430280	OK	0.7835226	0.459721	-0.4180299	0	-96.369	-90.34	12.383	B5-03822-P02-CH1	1430280	OK	0.6722825	-0.1048153	-0.732837	0	-82.02	-69.183	3.216	B5-03822-P03-CH0	1430280	OK	0.834135	0.0413775	-0.5500062	0	-103.299	-54.964	14.752	B5-03822-P03-CH1	1430280	OK	0.7558539	-0.6542564	-0.0251688	0	-103.102	-10.051	6.209	B5-03822-P04-CH0	1430280	OK	0.8235105	-0.4065203	0.3956915	0	-126.644	-26.905	12.941	B5-03822-P04-CH1	1430280	OK	0.7924408	-0.6086614	0.0396098	0	-114.578	-34.956	4.423	NA
0.259791916766707	B5-03822-P01-CH0	1430288	OK	0.1703517	0.1302321	0.0586594	-0.9749764	158.289	-54.635	-228.102	B5-03822-P02-CH0	1430288	OK	0.7850162	0.4599287	-0.4149881	0	-97.183	-90.907	13.884	B5-03822-P02-CH1	1430288	OK	0.6738763	-0.0973375	-0.7324044	0	-82.192	-68.752	2.962	B5-03822-P03-CH0	1430288	OK	0.8305611	0.0565213	-0.554052	0	-103.254	-54.631	15.132	B5-03822-P03-CH1	1430288	OK	0.758802	-0.6508827	-0.0238998	0	-101.816	-7.449	3.955	B5-03822-P04-CH0	1430288	OK	0.8246258	-0.4086197	0.3911807	0	-126.087	-27.621	14.321	B5-03822-P04-CH1	1430288	OK	0.7928752	-0.6079892	0.0412085	0	-114.654	-35.152	4.473	NA
0.269783913565426	B5-03822-P01-CH0	1430296	OK	0.1703858	0.1300942	0.0591711	-0.9749579	158.288	-54.581	-228.146	B5-03822-P02-CH0	1430296	OK	0.7864407	0.4634437	-0.408327	0	-97.63	-90.305	12.317	B5-03822-P02-CH1	1430296	OK	0.6774511	-0.0910264	-0.7299139	0	-82.162	-68.6	3.118	B5-03822-P03-CH0	1430296	OK	0.8277378	0.0735418	-0.5562749	0	-102.912	-54.231	14.658	B5-03822-P03-CH1	1430296	OK	0.7585232	-0.651407	-0.0176521	0	-102.051	-8.025	4.602	B5-03822-P04-CH0	1430296	OK	0.825331	-0.4120782	0.3860314	0	-127.049	-30.101	15.688	B5-03822-P04-CH1	1430296	OK	0.7933119	-0.607351	0.042202	0	-114.897	-35.25	4.726	NA
0.279775910364146	B5-03822-P01-CH0	1430304	OK	0.1701605	0.1300269	0.058633	-0.9750388	158.252	-54.641	-228.157	B5-03822-P02-CH0	1430304	OK	0.7877072	0.4610721	-0.4085705	0	-98.823	-91.483	14.835	B5-03822-P02-CH1	1430304	OK	0.6812053	-0.088566	-0.7267155	0	-83.202	-69.192	3.483	B5-03822-P03-CH0	1430304	OK	0.8247476	0.0925792	-0.5578713	0	-102.723	-53.628	13.711	B5-03822-P03-CH1	1430304	OK	0.7593489	-0.6505209	-0.0145531	0	-102.226	-7.295	4.148	B5-03822-P04-CH0	1430304	OK	0.8263415	-0.4172117	0.3782778	0	-125.763	-27.169	13.75	B5-03822-P04-CH1	1430304	OK	0.7928378	-0.6078968	0.0432395	0	-115.147	-35.596	4.907	NA
0.289767907162865	B5-03822-P01-CH0	1430312	OK	0.1700049	0.1301696	0.0581084	-0.9750783	158.232	-54.651	-228.016	B5-03822-P02-CH0	1430312	OK	0.7882894	0.4636921	-0.404462	0	-99.045	-91.199	14.359	B5-03822-P02-CH1	1430312	OK	0.6865784	-0.0915223	-0.7212723	0	-83.965	-68.752	3.836	B5-03822-P03-CH0	1430312	OK	0.8228987	0.1096001	-0.5575173	0	-102.415	-53.673	14.784	B5-03822-P03-CH1	1430312	OK	0.7606647	-0.6489781	-0.0147181	0	-102.288	-6.227	3.848	B5-03822-P04-CH0	1430312	OK	0.8268426	-0.4175813	0.376772	0	-125.379	-26.907	13.848	B5-03822-P04-CH1	1430312	OK	0.7924207	-0.6083987	0.0438233	0	-115.312	-35.788	4.949	NA
0.299759903961585	B5-03822-P01-CH0	1430320	OK	0.1699143	0.1302793	0.0579044	-0.9750915	158.259	-54.595	-228.002	B5-03822-P02-CH0	1430320	OK	0.7870993	0.4666782	-0.4033437	0	-99.343	-90.729	14.318	B5-03822-P02-CH1	1430320	OK	0.6940375	-0.0968534	-0.7133943	0	-84.414	-68.221	4.09	B5-03822-P03-CH0	1430320	OK	0.8213925	0.1220166	-0.5571591	0	-102.954	-54.517	15.438	B5-03822-P03-CH1	1430320	OK	0.7600963	-0.6496259	-0.0154861	0	-101.978	-6.477	3.529	B5-03822-P04-CH0	1430320	OK	0.8273985	-0.4161289	0.3771585	0	-125.256	-27.431	14.697	B5-03822-P04-CH1	1430320	OK	0.7923169	-0.6085357	0.0437977	0	-115.355	-35.712	4.937	NA
0.309751900760304	B5-03822-P01-CH0	1430328	OK	0.169947	0.1302936	0.0578455	-0.9750874	158.246	-54.573	-227.916	B5-03822-P02-CH0	1430328	OK	0.7862689	0.4667685	-0.4048561	0	-99.424	-90.79	14.548	B5-03822-P02-CH1	1430328	OK	0.7014975	-0.1028805	-0.7052069	0	-85.875	-68.933	3.263	B5-03822-P03-CH0	1430328	OK	0.8193692	0.1367468	-0.5567176	0	-104.122	-54.313	15.364	B5-03822-P03-CH1	1430328	OK	0.7551229	-0.6555332	-0.0080967	0	-103.05	-11.33	6.803	B5-03822-P04-CH0	1430328	OK	0.8282453	-0.4139619	0.3776839	0	-124.953	-25.932	13.237	B5-03822-P04-CH1	1430328	OK	0.7923015	-0.6085556	0.0437994	0	-115.385	-35.603	4.606	NA
0.319743897559024	B5-03822-P01-CH0	1430336	OK	0.1703815	0.1302824	0.058076	-0.9749994	158.325	-54.534	-227.944	B5-03822-P02-CH0	1430336	OK	0.785469	0.4641221	-0.4094253	0	-99.613	-91.664	13.557	B5-03822-P02-CH1	1430336	OK	0.7088527	-0.1067856	-0.6972264	0	-87.127	-68.76	3.815	B5-03822-P03-CH0	1430336	OK	0.8182907	0.1492433	-0.5550917	0	-104.626	-54.48	14.456	B5-03822-P03-CH1	1430336	OK	0.7572875	-0.6529841	-0.0112834	0	-102.645	-9.64	5.822	B5-03822-P04-CH0	1430336	OK	0.8284234	-0.4077286	0.3840209	0	-125.898	-27.799	15.274	B5-03822-P04-CH1	1430336	OK	0.7925433	-0.6082178	0.0441155	0	-115.441	-35.655	4.815	NA
0.329735894357743	B5-03822-P01-CH0	1430344	OK	0.1704895	0.1304484	0.0579734	-0.9749644	158.394	-54.463	-227.88	B5-03822-P02-CH0	1430344	OK	0.7825161	0.4629671	-0.4163293	0	-99.448	-91.643	13.646	B5-03822-P02-CH1	1430344	OK	0.7155046	-0.1078395	-0.6902346	0	-88.206	-69.175	4.913	B5-03822-P03-CH0	1430344	OK	0.8168585	0.1643372	-0.5529335	0	-104.574	-54.583	15.54	B5-03822-P03-CH1	1430344	OK	0.7593266	-0.6505466	-0.014567	0	-102.233	-7.771	4.94	B5-03822-P04-CH0	1430344	OK	0.8272821	-0.4028382	0.3915682	0	-125.603	-27.539	15.146	B5-03822-P04-CH1	1430344	OK	0.7926164	-0.6081387	0.0438933	0	-115.436	-35.477	4.8	NA
0.339727891156463	B5-03822-P01-CH0	1430352	OK	0.1706156	0.1304226	0.0579938	-0.9749446	158.464	-54.427	-227.93	B5-03822-P02-CH0	1430352	OK	0.7770279	0.4629613	-0.4264909	0	-99.546	-91.263	12.174	B5-03822-P02-CH1	1430352	OK	0.7214186	-0.1082491	-0.6839864	0	-89.108	-69.652	4.43	B5-03822-P03-CH0	1430352	OK	0.8166899	0.1776591	-0.5490491	0	-104.374	-54.491	15.946	B5-03822-P03-CH1	1430352	OK	0.7596208	-0.6501522	-0.0166853	0	-102.317	-7.078	4.142	B5-03822-P04-CH0	1430352	OK	0.8255786	-0.397302	0.4007132	0	-125.922	-27.8	14.898	B5-03822-P04-CH1	1430352	OK	0.792629	-0.6081094	0.0440714	0	-115.613	-35.533	4.852	NA
0.349719887955182	B5-03822-P01-CH0	1430360	OK	0.1708191	0.1305989	0.0578142	-0.974896	158.536	-54.426	-227.841	B5-03822-P02-CH0	1430360	OK	0.772129	0.4626042	-0.4356767	0	-98.154	-90.068	9.582	B5-03822-P02-CH1	1430360	OK	0.7256553	-0.1122288	-0.6788439	0	-89.476	-70.022	4.644	B5-03822-P03-CH0	1430360	OK	0.8144074	0.1826715	-0.5507918	0	-105.147	-54.655	14.889	B5-03822-P03-CH1	1430360	OK	0.7592599	-0.6506248	-0.0145521	0	-102.366	-7.535	4.214	B5-03822-P04-CH0	1430360	OK	0.8248964	-0.3908746	0.4083662	0	-127.64	-28.311	14.286	B5-03822-P04-CH1	1430360	OK	0.7925865	-0.6081632	0.0440927	0	-115.677	-35.447	4.503	NA
0.359711884753902	B5-03822-P01-CH0	1430368	OK	0.1710173	0.1307909	0.0576351	-0.9748462	158.638	-54.405	-227.813	B5-03822-P02-CH0	1430368	OK	0.7655577	0.4590702	-0.4507505	0	-97.375	-89.556	8.425	B5-03822-P02-CH1	1430368	OK	0.7259286	-0.1188334	-0.6774262	0	-90.073	-69.608	3.686	B5-03822-P03-CH0	1430368	OK	0.8108081	0.1849755	-0.5553146	0	-105.722	-54.666	14.815	B5-03822-P03-CH1	1430368	OK	0.7597997	-0.6500112	-0.0137815	0	-102.395	-7.381	4.135	B5-03822-P04-CH0	1430368	OK	0.8237361	-0.3822442	0.4187459	0	-129.426	-30.942	16.99	B5-03822-P04-CH1	1430368	OK	0.7926055	-0.6081099	0.0444852	0	-115.738	-35.412	4.359	NA
0.369703881552621	B5-03822-P01-CH0	1430376	OK	0.1711699	0.1309508	0.0571408	-0.974827	158.678	-54.4	-227.737	B5-03822-P02-CH0	1430376	OK	0.7607338	0.4545154	-0.4633571	0	-96.739	-89.687	7.61	B5-03822-P02-CH1	1430376	OK	0.7251446	-0.1272639	-0.6767343	0	-90.257	-69.61	4.105	B5-03822-P03-CH0	1430376	OK	0.8095143	0.1879391	-0.5562063	0	-104.899	-54.11	14.694	B5-03822-P03-CH1	1430376	OK	0.7612057	-0.6484364	-0.0098051	0	-102.148	-9.307	4.55	B5-03822-P04-CH0	1430376	OK	0.8216912	-0.3770629	0.4273724	0	-129.974	-29.748	14.569	B5-03822-P04-CH1	1430376	OK	0.7924573	-0.6082496	0.0452091	0	-115.843	-35.435	4.408	NA
0.379695878351341	B5-03822-P01-CH0	1430384	OK	0.1712697	0.1310461	0.0571869	-0.974794	158.711	-54.334	-227.714	B5-03822-P02-CH0	1430384	OK	0.7562154	0.4502993	-0.4747302	0	-96.995	-89.873	6.719	B5-03822-P02-CH1	1430384	OK	0.7252363	-0.133239	-0.6754847	0	-90.927	-69.212	4.142	B5-03822-P03-CH0	1430384	OK	0.8051474	0.1811909	-0.564719	0	-106.015	-55.013	15.432	B5-03822-P03-CH1	1430384	OK	0.7641901	-0.6449556	-0.006766	0	-102.059	-9.967	4.473	B5-03822-P04-CH0	1430384	OK	0.8213115	-0.372227	0.4323129	0	-131.714	-31.785	15.32	B5-03822-P04-CH1	1430384	OK	0.7927404	-0.6078367	0.0457963	0	-115.95	-35.321	4.47	NA
0.38968787515006	B5-03822-P01-CH0	1430392	OK	0.1715069	0.1311199	0.0574546	-0.9747266	158.763	-54.236	-227.722	B5-03822-P02-CH0	1430392	OK	0.7533286	0.4456431	-0.4836304	0	-97.014	-89.884	7.037	B5-03822-P02-CH1	1430392	OK	0.7261421	-0.135268	-0.674107	0	-91.573	-69.486	4.81	B5-03822-P03-CH0	1430392	OK	0.8007945	0.1790931	-0.5715364	0	-106.179	-54.472	14.91	B5-03822-P03-CH1	1430392	OK	0.7671684	-0.6414341	-0.0038676	0	-101.807	-10.367	4.017	B5-03822-P04-CH0	1430392	OK	0.8207576	-0.3697384	0.4354887	0	-131.883	-32.099	15.483	B5-03822-P04-CH1	1430392	OK	0.7931239	-0.6072703	0.0466615	0	-116.011	-35.237	4.433	NA
0.39967987194878	B5-03822-P01-CH0	1430400	OK	0.1717436	0.1310254	0.0576495	-0.9746861	158.787	-54.197	-227.786	B5-03822-P02-CH0	1430400	OK	0.7516221	0.4415274	-0.4900181	0	-96.539	-89.634	6.483	B5-03822-P02-CH1	1430400	OK	0.7276348	-0.1355	-0.6724488	0	-92.045	-69.817	5.051	B5-03822-P03-CH0	1430400	OK	0.7962774	0.1822358	-0.5768296	0	-105.748	-53.89	14.394	B5-03822-P03-CH1	1430400	OK	0.7708955	-0.6369478	-0.0041966	0	-101.465	-9.278	3.321	B5-03822-P04-CH0	1430400	OK	0.8203329	-0.3660015	0.4394278	0	-132.031	-31.91	15.744	B5-03822-P04-CH1	1430400	OK	0.7931085	-0.6071791	0.0480881	0	-116.133	-35.638	4.734	NA
0.409671868747499	B5-03822-P01-CH0	1430408	OK	0.1719117	0.1308739	0.0580742	-0.9746516	158.747	-54.143	-227.763	B5-03822-P02-CH0	1430408	OK	0.7507257	0.4389074	-0.493732	0	-95.925	-88.846	5.007	B5-03822-P02-CH1	1430408	OK	0.7303227	-0.1337224	-0.6698858	0	-91.64	-69.48	4.141	B5-03822-P03-CH0	1430408	OK	0.7897302	0.1872067	-0.5841916	0	-105.78	-53.907	13.89	B5-03822-P03-CH1	1430408	OK	0.7713205	-0.6364462	0.0009639	0	-101.704	-10.925	3.761	B5-03822-P04-CH0	1430408	OK	0.8207779	-0.3627885	0.4412575	0	-131.928	-31.545	16.678	B5-03822-P04-CH1	1430408	OK	0.7932587	-0.6068829	0.0493336	0	-116.226	-35.961	5.016	NA
0.419663865546218	B5-03822-P01-CH0	1430416	OK	0.1718961	0.1308493	0.0580864	-0.974657	158.706	-54.074	-227.757	B5-03822-P02-CH0	1430416	OK	0.7502722	0.4352945	-0.4976046	0	-95.25	-87.915	5.791	B5-03822-P02-CH1	1430416	OK	0.7304453	-0.1292712	-0.6706255	0	-91.775	-68.624	4.5	B5-03822-P03-CH0	1430416	OK	0.783016	0.1978875	-0.5896834	0	-105.083	-53.23	12.616	B5-03822-P03-CH1	1430416	OK	0.7716887	-0.6359937	0.0029421	0	-101.978	-11.825	4.768	B5-03822-P04-CH0	1430416	OK	0.8205283	-0.3612725	0.4429622	0	-132.659	-33.286	16.587	B5-03822-P04-CH1	1430416	OK	0.7931801	-0.6069264	0.050057	0	-116.309	-36.163	5.411	NA
0.429655862344938	B5-03822-P01-CH0	1430424	OK	0.1719912	0.1307912	0.0582465	-0.9746384	158.699	-54.044	-227.792	B5-03822-P02-CH0	1430424	OK	0.7503443	0.4308109	-0.5013834	0	-94.859	-87.048	5.787	B5-03822-P02-CH1	1430424	OK	0.7292862	-0.1246218	-0.6727637	0	-92.017	-68.217	4.949	B5-03822-P03-CH0	1430424	OK	0.7746175	0.2112741	-0.5960965	0	-104.323	-52.418	11.171	B5-03822-P03-CH1	1430424	OK	0.7729869	-0.6344208	0.0012212	0	-101.444	-10.91	4.157	B5-03822-P04-CH0	1430424	OK	0.8208721	-0.3625513	0.4412771	0	-131.606	-31.005	15.394	B5-03822-P04-CH1	1430424	OK	0.793244	-0.6068075	0.0504842	0	-116.328	-36.328	5.625	NA
0.439647859143657	B5-03822-P01-CH0	1430432	OK	0.1719435	0.1305482	0.0583585	-0.9746727	158.605	-54.095	-227.816	B5-03822-P02-CH0	1430432	OK	0.7517212	0.4246566	-0.5045612	0	-94.778	-86.868	6.163	B5-03822-P02-CH1	1430432	OK	0.7299143	-0.1198172	-0.6729553	0	-91.097	-67.099	4.806	B5-03822-P03-CH0	1430432	OK	0.7649384	0.2194354	-0.6055719	0	-103.073	-51.134	11.321	B5-03822-P03-CH1	1430432	OK	0.7736686	-0.6335896	-0.0011099	0	-101.615	-10.25	4.07	B5-03822-P04-CH0	1430432	OK	0.8206024	-0.3652318	0.4395651	0	-131.509	-31.319	15.788	B5-03822-P04-CH1	1430432	OK	0.7934639	-0.6065703	0.0498761	0	-116.118	-36.11	5.374	NA
0.449639855942377	B5-03822-P01-CH0	1430440	OK	0.1716594	0.1305667	0.0578695	-0.9747495	158.524	-54.056	-227.754	B5-03822-P02-CH0	1430440	OK	0.7549798	0.4165576	-0.5064438	0	-94.736	-86.698	6.402	B5-03822-P02-CH1	1430440	OK	0.7304075	-0.1190828	-0.6725505	0	-90.479	-66.465	4.941	B5-03822-P03-CH0	1430440	OK	0.7645099	0.1982304	-0.6133754	0	-103.339	-51.778	12.487	B5-03822-P03-CH1	1430440	OK	0.7709398	-0.6369079	0.0003401	0	-102.151	-12.492	5.96	B5-03822-P04-CH0	1430440	OK	0.8202936	-0.370608	0.4356238	0	-130.608	-29.543	15.166	B5-03822-P04-CH1	1430440	OK	0.7930129	-0.6072189	0.0491504	0	-115.952	-36.088	5.563	NA
0.459631852741096	B5-03822-P01-CH0	1430448	OK	0.1715936	0.1304694	0.0580098	-0.9747657	158.488	-54.028	-227.771	B5-03822-P02-CH0	1430448	OK	0.7564865	0.4100004	-0.5095368	0	-94.685	-86.326	6.767	B5-03822-P02-CH1	1430448	OK	0.7283741	-0.1197879	-0.6746273	0	-90.87	-66.278	3.902	B5-03822-P03-CH0	1430448	OK	0.7660732	0.1837333	-0.6159334	0	-103.478	-50.263	10.799	B5-03822-P03-CH1	1430448	OK	0.7701137	-0.6379039	-0.0018849	0	-101.508	-12.722	4.902	B5-03822-P04-CH0	1430448	OK	0.8198879	-0.3758054	0.431919	0	-130.892	-29.624	14.786	B5-03822-P04-CH1	1430448	OK	0.7930155	-0.6073008	0.0480856	0	-115.793	-36.066	5.84	NA
0.469623849539816	B5-03822-P01-CH0	1430456	OK	0.1713296	0.1305285	0.0576076	-0.9748281	158.501	-54.108	-227.787	B5-03822-P02-CH0	1430456	OK	0.7574705	0.4084522	-0.5093184	0	-93.191	-84.602	6.405	B5-03822-P02-CH1	1430456	OK	0.7261946	-0.1182516	-0.6772429	0	-90.384	-65.965	3.963	B5-03822-P03-CH0	1430456	OK	0.764613	0.1725549	-0.6209603	0	-102.725	-49.179	10.061	B5-03822-P03-CH1	1430456	OK	0.7725709	-0.6348718	-0.0084852	0	-101.209	-10.354	4.065	B5-03822-P04-CH0	1430456	OK	0.8185123	-0.3836277	0.42763	0	-129.871	-29.569	15.833	B5-03822-P04-CH1	1430456	OK	0.7937789	-0.6072726	0.03369	0	-113.905	-33.192	4.606	NA
0.479615846338535	B5-03822-P01-CH0	1430464	OK	0.1710568	0.130741	0.0572026	-0.9748714	158.52	-54.102	-227.719	B5-03822-P02-CH0	1430464	OK	0.7569009	0.4021432	-0.5151523	0	-93.669	-85.452	6.025	B5-03822-P02-CH1	1430464	OK	0.7239443	-0.1189474	-0.6795264	0	-89.771	-65.644	4.421	B5-03822-P03-CH0	1430464	OK	0.7621575	0.1617891	-0.6268494	0	-101.216	-48.128	10.338	B5-03822-P03-CH1	1430464	OK	0.7712477	-0.6364449	-0.0107187	0	-101.121	-11.23	4.339	B5-03822-P04-CH0	1430464	OK	0.8178853	-0.3917732	0.4213994	0	-130.288	-29.755	15.444	B5-03822-P04-CH1	1430464	OK	0.7916047	-0.6101209	0.0333836	0	-114.128	-34.928	6.61	NA
0.489607843137255	B5-03822-P01-CH0	1430472	OK	0.1709346	0.130571	0.0568962	-0.9749335	158.521	-54.214	-227.814	B5-03822-P02-CH0	1430472	OK	0.7567083	0.3983152	-0.518399	0	-93.098	-85.183	5.589	B5-03822-P02-CH1	1430472	OK	0.7219939	-0.1227168	-0.6809298	0	-89.282	-65.903	4.328	B5-03822-P03-CH0	1430472	OK	0.7570657	0.1458677	-0.6368471	0	-101.754	-49.797	10.661	B5-03822-P03-CH1	1430472	OK	0.7722174	-0.6351996	-0.014206	0	-100.913	-10.386	3.882	B5-03822-P04-CH0	1430472	OK	0.816313	-0.4007161	0.4160044	0	-129.661	-29.862	15.879	B5-03822-P04-CH1	1430472	OK	0.7913208	-0.6105675	0.0319187	0	-113.402	-34.685	5.895	NA
0.499599839935974	B5-03822-P01-CH0	1430480	OK	0.1706381	0.130631	0.0567073	-0.9749884	158.451	-54.194	-227.694	B5-03822-P02-CH0	1430480	OK	0.7561758	0.3975967	-0.5197259	0	-91.74	-83.734	4.919	B5-03822-P02-CH1	1430480	OK	0.7209371	-0.1265599	-0.681346	0	-88.545	-65.68	4.038	B5-03822-P03-CH0	1430480	OK	0.7530121	0.1352822	-0.6439499	0	-101.693	-49.493	10.036	B5-03822-P03-CH1	1430480	OK	0.7722394	-0.6351279	-0.0160917	0	-100.382	-9.879	2.762	B5-03822-P04-CH0	1430480	OK	0.8157378	-0.4087638	0.4092482	0	-129.061	-27.409	13.725	B5-03822-P04-CH1	1430480	OK	0.7914639	-0.6105685	0.0281241	0	-113.277	-33.643	4.678	NA
0.509591836734694	B5-03822-P01-CH0	1430488	OK	0.1708891	0.1306215	0.0571638	-0.9749191	158.572	-54.128	-227.855	B5-03822-P02-CH0	1430488	OK	0.7541036	0.3929987	-0.5261936	0	-92.411	-84.706	6.448	B5-03822-P02-CH1	1430488	OK	0.7186487	-0.1330028	-0.6825352	0	-88.81	-65.886	3.972	B5-03822-P03-CH0	1430488	OK	0.7494215	0.1261406	-0.6499662	0	-101.938	-48.638	8.728	B5-03822-P03-CH1	1430488	OK	0.7722557	-0.6351003	-0.0163932	0	-100.373	-10.067	3.221	B5-03822-P04-CH0	1430488	OK	0.8145673	-0.4132916	0.4070259	0	-128.746	-28.064	14.468	B5-03822-P04-CH1	1430488	OK	0.7910777	-0.6110253	0.0290548	0	-113.905	-34.926	7.769	NA
0.519583833533413	B5-03822-P01-CH0	1430496	OK	0.1706863	0.1308398	0.0566967	-0.9749526	158.592	-54.146	-227.767	B5-03822-P02-CH0	1430496	OK	0.7542994	0.392649	-0.526174	0	-92.431	-85.096	6.735	B5-03822-P02-CH1	1430496	OK	0.7169618	-0.1370646	-0.683505	0	-88.544	-65.448	3.856	B5-03822-P03-CH0	1430496	OK	0.7484098	0.1184252	-0.6525781	0	-101.294	-48.574	8.954	B5-03822-P03-CH1	1430496	OK	0.7723056	-0.6350266	-0.0168898	0	-100.602	-9.958	3.526	B5-03822-P04-CH0	1430496	OK	0.813847	-0.4162768	0.4054217	0	-128.59	-27.686	14.278	B5-03822-P04-CH1	1430496	OK	0.7909728	-0.6112722	0.0266135	0	-113.653	-33.889	5.758	NA
0.529575830332133	B5-03822-P01-CH0	1430504	OK	0.1704545	0.1309043	0.0563784	-0.975003	158.601	-54.164	-227.75	B5-03822-P02-CH0	1430504	OK	0.7553723	0.3949355	-0.5229136	0	-91.872	-84.857	6.124	B5-03822-P02-CH1	1430504	OK	0.7148411	-0.1411887	-0.6848853	0	-88.493	-65.594	4.053	B5-03822-P03-CH0	1430504	OK	0.7458357	0.1108008	-0.6568503	0	-101.414	-48.027	8.587	B5-03822-P03-CH1	1430504	OK	0.7704988	-0.6373526	-0.0106388	0	-101.206	-11.391	4.386	B5-03822-P04-CH0	1430504	OK	0.8133219	-0.4175312	0.4051854	0	-129.218	-27.991	14.013	B5-03822-P04-CH1	1430504	OK	0.7910276	-0.6109222	0.0323946	0	-113.996	-34.67	6.14	NA
0.539567827130852	B5-03822-P01-CH0	1430512	OK	0.1704553	0.1313377	0.0562012	-0.9749548	158.71	-54.12	-227.626	B5-03822-P02-CH0	1430512	OK	0.7555943	0.3977785	-0.520432	0	-91.67	-84.431	5.582	B5-03822-P02-CH1	1430512	OK	0.7109546	-0.1443608	-0.6882612	0	-88.973	-66.018	4.513	B5-03822-P03-CH0	1430512	OK	0.7441821	0.1019936	-0.6601441	0	-101.181	-48.07	9.066	B5-03822-P03-CH1	1430512	OK	0.7702024	-0.6376827	-0.0122062	0	-101.252	-11.423	4.318	B5-03822-P04-CH0	1430512	OK	0.8129333	-0.4197248	0.4036961	0	-128.483	-25.978	12.883	B5-03822-P04-CH1	1430512	OK	0.790783	-0.6113281	0.0306609	0	-113.964	-34.458	6.145	NA
0.549559823929572	B5-03822-P01-CH0	1430520	OK	0.1709264	0.1311807	0.0572351	-0.9748333	158.773	-54.034	-227.762	B5-03822-P02-CH0	1430520	OK	0.7545191	0.3979499	-0.521859	0	-92.442	-85.408	6.193	B5-03822-P02-CH1	1430520	OK	0.7095262	-0.1479517	-0.6889723	0	-88.519	-65.805	3.949	B5-03822-P03-CH0	1430520	OK	0.745907	0.094404	-0.6593259	0	-100.369	-47.61	9.492	B5-03822-P03-CH1	1430520	OK	0.7710596	-0.636619	-0.0135395	0	-101.221	-11.163	4.207	B5-03822-P04-CH0	1430520	OK	0.8132263	-0.4190811	0.4037747	0	-128.645	-25.793	13.102	B5-03822-P04-CH1	1430520	OK	0.7915354	-0.6104116	0.0294872	0	-113.794	-34.087	5.855	NA
0.559551820728291	B5-03822-P01-CH0	1430528	OK	0.1706589	0.1313666	0.0565142	-0.9748972	158.793	-54.076	-227.742	B5-03822-P02-CH0	1430528	OK	0.7548966	0.4012477	-0.5187788	0	-92.431	-85.067	6.136	B5-03822-P02-CH1	1430528	OK	0.7107775	-0.1523783	-0.686714	0	-87.573	-65.338	3.169	B5-03822-P03-CH0	1430528	OK	0.7477563	0.0827726	-0.6587938	0	-101.58	-48.777	9.781	B5-03822-P03-CH1	1430528	OK	0.7702978	-0.6375088	-0.0149596	0	-101.247	-11.216	4.203	B5-03822-P04-CH0	1430528	OK	0.8120982	-0.4191342	0.405984	0	-128.818	-26.875	14.121	B5-03822-P04-CH1	1430528	OK	0.7909716	-0.6111984	0.0282911	0	-113.799	-33.91	5.766	NA
0.569543817527011	B5-03822-P01-CH0	1430536	OK	0.1708995	0.131109	0.057189	-0.9748503	158.719	-53.97	-227.793	B5-03822-P02-CH0	1430536	OK	0.7550474	0.4046908	-0.5158768	0	-92.096	-84.893	6.553	B5-03822-P02-CH1	1430536	OK	0.7095633	-0.1578939	-0.6867237	0	-87.694	-65.198	3.481	B5-03822-P03-CH0	1430536	OK	0.7472165	0.0808185	-0.6596483	0	-101.769	-48.624	8.85	B5-03822-P03-CH1	1430536	OK	0.7705049	-0.6372421	-0.0156416	0	-101.129	-11.133	4.159	B5-03822-P04-CH0	1430536	OK	0.8125731	-0.4169215	0.4073099	0	-129.148	-27.057	14.438	B5-03822-P04-CH1	1430536	OK	0.7912993	-0.6107887	0.0279761	0	-113.677	-33.724	5.478	NA
0.57953581432573	B5-03822-P01-CH0	1430544	OK	0.1709172	0.1310605	0.0570675	-0.9748609	158.691	-54.041	-227.799	B5-03822-P02-CH0	1430544	OK	0.7559195	0.4095482	-0.5107405	0	-91.325	-84.715	5.786	B5-03822-P02-CH1	1430544	OK	0.7068658	-0.1639031	-0.6880963	0	-87.473	-65.739	3.553	B5-03822-P03-CH0	1430544	OK	0.7431928	0.0802276	-0.6642499	0	-101.231	-48.361	8.436	B5-03822-P03-CH1	1430544	OK	0.769601	-0.6383343	-0.0156064	0	-101.238	-11.643	4.372	B5-03822-P04-CH0	1430544	OK	0.8120905	-0.4161645	0.4090428	0	-128.953	-27.372	14.306	B5-03822-P04-CH1	1430544	OK	0.7913797	-0.6107091	0.0274343	0	-113.665	-33.555	5.358	NA
0.58952781112445	B5-03822-P01-CH0	1430552	OK	0.171123	0.131008	0.0575878	-0.9748012	158.664	-53.937	-227.808	B5-03822-P02-CH0	1430552	OK	0.7557684	0.4140355	-0.5073349	0	-91.151	-84.97	6.05	B5-03822-P02-CH1	1430552	OK	0.7037235	-0.1687826	-0.6901346	0	-87.006	-65.583	2.788	B5-03822-P03-CH0	1430552	OK	0.7410858	0.0715908	-0.6675827	0	-100.23	-48.523	9.319	B5-03822-P03-CH1	1430552	OK	0.7692773	-0.6387253	-0.0155701	0	-101.286	-11.839	4.512	B5-03822-P04-CH0	1430552	OK	0.813403	-0.4167307	0.4058462	0	-128.691	-26.458	13.182	B5-03822-P04-CH1	1430552	OK	0.7917675	-0.6102152	0.0272355	0	-113.677	-33.27	5.013	NA
0.599519807923169	B5-03822-P01-CH0	1430560	OK	0.1710376	0.1311451	0.0574349	-0.9748068	158.697	-53.918	-227.798	B5-03822-P02-CH0	1430560	OK	0.755592	0.420195	-0.5025106	0	-91.475	-85.24	5.967	B5-03822-P02-CH1	1430560	OK	0.6999954	-0.174232	-0.6925675	0	-86.338	-65.715	3.302	B5-03822-P03-CH0	1430560	OK	0.7399562	0.056906	-0.6702437	0	-99.894	-48.468	8.392	B5-03822-P03-CH1	1430560	OK	0.7685932	-0.6395395	-0.0159299	0	-101.483	-12.012	4.78	B5-03822-P04-CH0	1430560	OK	0.8130406	-0.417257	0.4060314	0	-128.871	-26.683	13.382	B5-03822-P04-CH1	1430560	OK	0.7917334	-0.6102637	0.0271374	0	-113.728	-33.121	4.884	NA
0.609511804721889	B5-03822-P01-CH0	1430568	OK	0.1707376	0.1313221	0.0566994	-0.9748786	158.679	-54.017	-227.742	B5-03822-P02-CH0	1430568	OK	0.7565828	0.4285746	-0.4938688	0	-90.908	-85.025	4.849	B5-03822-P02-CH1	1430568	OK	0.694821	-0.1784437	-0.6966933	0	-86.556	-65.872	2.792	B5-03822-P03-CH0	1430568	OK	0.7358575	0.0436098	-0.6757307	0	-100.685	-48.785	7.84	B5-03822-P03-CH1	1430568	OK	0.767568	-0.6407528	-0.0165925	0	-101.546	-12.136	4.862	B5-03822-P04-CH0	1430568	OK	0.8126074	-0.4177363	0.4064057	0	-129.066	-26.859	13.457	B5-03822-P04-CH1	1430568	OK	0.7913043	-0.6108245	0.027035	0	-113.749	-33.113	4.787	NA
0.619503801520608	B5-03822-P01-CH0	1430576	OK	0.1706734	0.1313215	0.0570001	-0.9748724	158.776	-54.062	-227.941	B5-03822-P02-CH0	1430576	OK	0.756223	0.4365671	-0.4873765	0	-90.965	-85.063	6.018	B5-03822-P02-CH1	1430576	OK	0.6924371	-0.1848088	-0.697407	0	-85.138	-65.96	3.262	B5-03822-P03-CH0	1430576	OK	0.734437	0.0324536	-0.6779005	0	-99.978	-48.873	7.915	B5-03822-P03-CH1	1430576	OK	0.7673954	-0.6409373	-0.0174262	0	-101.548	-12.085	4.974	B5-03822-P04-CH0	1430576	OK	0.8126033	-0.4173826	0.4067771	0	-129.16	-27.053	13.82	B5-03822-P04-CH1	1430576	OK	0.7915225	-0.6105309	0.0272786	0	-113.848	-33.212	5.098	NA
0.629495798319328	B5-03822-P01-CH0	1430584	OK	0.1703342	0.131496	0.0564188	-0.974942	158.751	-54.127	-227.853	B5-03822-P02-CH0	1430584	OK	0.7561956	0.4444803	-0.480214	0	-90.877	-84.946	6.037	B5-03822-P02-CH1	1430584	OK	0.6881078	-0.1950746	-0.6988945	0	-84.898	-66.111	3.816	B5-03822-P03-CH0	1430584	OK	0.7341451	0.0230402	-0.6786016	0	-99.155	-48.441	8.217	B5-03822-P03-CH1	1430584	OK	0.7665824	-0.6418817	-0.0184206	0	-101.512	-11.991	4.853	B5-03822-P04-CH0	1430584	OK	0.8123491	-0.4176863	0.4069731	0	-129.111	-26.959	13.92	B5-03822-P04-CH1	1430584	OK	0.7912604	-0.6108767	0.0271396	0	-113.961	-33.117	5.034	NA
0.639487795118047	B5-03822-P01-CH0	1430592	OK	0.1704176	0.1312861	0.0567414	-0.974937	158.704	-54.119	-227.949	B5-03822-P02-CH0	1430592	OK	0.7557195	0.4510205	-0.4748353	0	-90.498	-85.314	5.418	B5-03822-P02-CH1	1430592	OK	0.6856582	-0.2092583	-0.6971971	0	-83.919	-65.6	3.592	B5-03822-P03-CH0	1430592	OK	0.7335399	0.0113265	-0.679552	0	-99.552	-48.95	8.612	B5-03822-P03-CH1	1430592	OK	0.7664189	-0.6420665	-0.0187799	0	-101.438	-11.967	4.88	B5-03822-P04-CH0	1430592	OK	0.8123424	-0.4170121	0.4076772	0	-129.13	-27.181	14.079	B5-03822-P04-CH1	1430592	OK	0.7914595	-0.6105931	0.027711	0	-113.95	-33.156	4.9	NA
0.649479791916767	B5-03822-P01-CH0	1430600	OK	0.170345	0.1310128	0.0569457	-0.9749746	158.617	-54.121	-228.026	B5-03822-P02-CH0	1430600	OK	0.7533429	0.4588921	-0.4710547	0	-89.647	-84.444	5.131	B5-03822-P02-CH1	1430600	OK	0.6820844	-0.2261687	-0.6954197	0	-83.621	-65.263	3.262	B5-03822-P03-CH0	1430600	OK	0.7353062	0.0069208	-0.6776997	0	-99.427	-48.169	8.196	B5-03822-P03-CH1	1430600	OK	0.766591	-0.6418278	-0.0198852	0	-101.221	-11.53	4.564	B5-03822-P04-CH0	1430600	OK	0.8123193	-0.416788	0.4079524	0	-129.01	-27.177	14.131	B5-03822-P04-CH1	1430600	OK	0.7917472	-0.6102165	0.0277881	0	-113.915	-32.963	4.672	NA
0.659471788715486	B5-03822-P01-CH0	1430608	OK	0.1703494	0.1310515	0.0571499	-0.9749566	158.615	-54.121	-228.026	B5-03822-P02-CH0	1430608	OK	0.7510736	0.4623196	-0.4713268	0	-89.43	-84.8	5.105	B5-03822-P02-CH1	1430608	OK	0.6798216	-0.244112	-0.6915576	0	-83.224	-64.473	3.224	B5-03822-P03-CH0	1430608	OK	0.7360902	0.0038969	-0.6768723	0	-100.119	-48.271	7.566	B5-03822-P03-CH1	1430608	OK	0.7663821	-0.6420661	-0.0202387	0	-101.257	-11.567	4.692	B5-03822-P04-CH0	1430608	OK	0.8124315	-0.4166387	0.4078813	0	-129.004	-27.227	14.111	B5-03822-P04-CH1	1430608	OK	0.7919218	-0.6099816	0.0279705	0	-113.985	-33.001	4.809	NA
0.669463785514206	B5-03822-P01-CH0	1430616	OK	0.1701337	0.1312831	0.0569281	-0.9749761	158.696	-54.237	-228.049	B5-03822-P02-CH0	1430616	OK	0.7503338	0.4689748	-0.4658988	0	-87.779	-83.903	3.261	B5-03822-P02-CH1	1430616	OK	0.6782898	-0.2619096	-0.6865321	0	-82.592	-64.512	3.489	B5-03822-P03-CH0	1430616	OK	0.7364957	0.002056	-0.6764391	0	-100.419	-48.384	8.182	B5-03822-P03-CH1	1430616	OK	0.7661197	-0.6423538	-0.0210288	0	-101.411	-11.5	4.768	B5-03822-P04-CH0	1430616	OK	0.8123672	-0.4177052	0.4069175	0	-128.802	-26.931	13.901	B5-03822-P04-CH1	1430616	OK	0.7919293	-0.6099876	0.0276257	0	-114.039	-32.863	4.549	NA
0.679455782312925	B5-03822-P01-CH0	1430624	OK	0.1702065	0.1310597	0.0573993	-0.9749659	158.671	-54.248	-228.173	B5-03822-P02-CH0	1430624	OK	0.7477591	0.4736306	-0.4653283	0	-87.817	-84.504	4.655	B5-03822-P02-CH1	1430624	OK	0.6767064	-0.2797015	-0.6810547	0	-82.467	-64.73	3.692	B5-03822-P03-CH0	1430624	OK	0.738807	-0.0011537	-0.6739161	0	-99.76	-48.321	8.467	B5-03822-P03-CH1	1430624	OK	0.7666822	-0.6416518	-0.0219398	0	-101.326	-11.139	4.73	B5-03822-P04-CH0	1430624	OK	0.8125543	-0.4178201	0.4064256	0	-128.791	-27.013	13.988	B5-03822-P04-CH1	1430624	OK	0.7921966	-0.6096255	0.0279509	0	-114.01	-32.913	4.612	NA
0.689447779111645	B5-03822-P01-CH0	1430632	OK	0.1701845	0.1310457	0.0573424	-0.9749749	158.626	-54.311	-228.162	B5-03822-P02-CH0	1430632	OK	0.7459629	0.481013	-0.4606146	0	-87.034	-84.503	3.688	B5-03822-P02-CH1	1430632	OK	0.676318	-0.2970173	-0.6740732	0	-81.642	-64.702	3.814	B5-03822-P03-CH0	1430632	OK	0.7412729	-0.0057296	-0.6711793	0	-99.606	-47.641	8.199	B5-03822-P03-CH1	1430632	OK	0.7664367	-0.6419377	-0.0221552	0	-101.413	-11.22	4.791	B5-03822-P04-CH0	1430632	OK	0.8125736	-0.4182112	0.4059847	0	-128.826	-27.139	14.006	B5-03822-P04-CH1	1430632	OK	0.7922123	-0.609603	0.027996	0	-113.987	-32.909	4.572	NA
0.699439775910364	B5-03822-P01-CH0	1430640	OK	0.1701547	0.13092	0.0571412	-0.9750088	158.58	-54.421	-228.243	B5-03822-P02-CH0	1430640	OK	0.741985	0.4914924	-0.4559534	0	-85.789	-84.03	2.77	B5-03822-P02-CH1	1430640	OK	0.6747993	-0.3119504	-0.6688295	0	-81.335	-64.303	3.693	B5-03822-P03-CH0	1430640	OK	0.74363	-0.0091872	-0.6685282	0	-100.548	-47.682	8.458	B5-03822-P03-CH1	1430640	OK	0.7662949	-0.642091	-0.0226092	0	-101.327	-11.198	4.759	B5-03822-P04-CH0	1430640	OK	0.8123926	-0.4190846	0.4054458	0	-128.643	-27.155	14.048	B5-03822-P04-CH1	1430640	OK	0.7922967	-0.6094967	0.0279245	0	-113.83	-32.702	4.231	NA
0.709431772709084	B5-03822-P01-CH0	1430648	OK	0.1702112	0.130919	0.0574382	-0.9749817	158.536	-54.403	-228.219	B5-03822-P02-CH0	1430648	OK	0.7349096	0.5023295	-0.4556017	0	-85.045	-84.066	1.92	B5-03822-P02-CH1	1430648	OK	0.6736394	-0.3239111	-0.6642978	0	-80.952	-63.81	3.336	B5-03822-P03-CH0	1430648	OK	0.7480565	-0.0081017	-0.6635855	0	-100.993	-47.519	7.851	B5-03822-P03-CH1	1430648	OK	0.7661544	-0.642249	-0.0228822	0	-101.403	-11.318	4.757	B5-03822-P04-CH0	1430648	OK	0.8124261	-0.4197382	0.4047021	0	-128.633	-27.23	14.04	B5-03822-P04-CH1	1430648	OK	0.7927166	-0.6089618	0.0276732	0	-113.791	-32.337	3.808	NA
0.719423769507803	B5-03822-P01-CH0	1430656	OK	0.1704269	0.1306959	0.057695	-0.9749587	158.393	-54.441	-228.158	B5-03822-P02-CH0	1430656	OK	0.7262763	0.5140863	-0.456331	0	-83.526	-83.985	-0.089	B5-03822-P02-CH1	1430656	OK	0.6730521	-0.3318017	-0.6609905	0	-80.596	-63.707	3.657	B5-03822-P03-CH0	1430656	OK	0.754888	0.0001006	-0.6558537	0	-100.35	-47.984	8.966	B5-03822-P03-CH1	1430656	OK	0.7660557	-0.6423667	-0.0228844	0	-101.432	-11.53	4.883	B5-03822-P04-CH0	1430656	OK	0.812354	-0.4208668	0.4036732	0	-128.354	-27.022	13.715	B5-03822-P04-CH1	1430656	OK	0.7929037	-0.6087027	0.0280143	0	-113.685	-32.25	3.337	NA
0.729415766306523	B5-03822-P01-CH0	1430664	OK	0.1708174	0.1306805	0.0582656	-0.9748585	158.413	-54.441	-228.211	B5-03822-P02-CH0	1430664	OK	0.714954	0.5227255	-0.4643263	0	-82.848	-85.02	-0.342	B5-03822-P02-CH1	1430664	OK	0.6738462	-0.3389676	-0.6565304	0	-80.541	-63.513	3.527	B5-03822-P03-CH0	1430664	OK	0.7599618	0.0101585	-0.6498884	0	-101.306	-48.148	9.167	B5-03822-P03-CH1	1430664	OK	0.7662957	-0.6420725	-0.0231046	0	-101.512	-11.653	5.122	B5-03822-P04-CH0	1430664	OK	0.8124471	-0.4216049	0.4027145	0	-128.263	-27.039	13.573	B5-03822-P04-CH1	1430664	OK	0.7932655	-0.6082061	0.0285516	0	-113.681	-32.348	3.336	NA
0.739407763105242	B5-03822-P01-CH0	1430672	OK	0.1708238	0.1307021	0.0584499	-0.9748435	158.378	-54.407	-228.206	B5-03822-P02-CH0	1430672	OK	0.7020393	0.531325	-0.4741672	0	-82.174	-84.786	-1.311	B5-03822-P02-CH1	1430672	OK	0.6771207	-0.3465415	-0.6491661	0	-80.269	-63.489	4.182	B5-03822-P03-CH0	1430672	OK	0.7659778	0.0242026	-0.6424113	0	-101.873	-47.843	9.506	B5-03822-P03-CH1	1430672	OK	0.7662743	-0.6420716	-0.0238285	0	-101.571	-11.622	5.257	B5-03822-P04-CH0	1430672	OK	0.8124101	-0.4228943	0.4014353	0	-128.118	-26.932	13.591	B5-03822-P04-CH1	1430672	OK	0.7934594	-0.6079571	0.0284669	0	-113.651	-32.267	3.592	NA
0.749399759903962	B5-03822-P01-CH0	1430680	OK	0.170717	0.1310314	0.0581618	-0.9748352	158.422	-54.462	-228.138	B5-03822-P02-CH0	1430680	OK	0.690245	0.5366436	-0.4853612	0	-82.67	-85.807	0.195	B5-03822-P02-CH1	1430680	OK	0.6802197	-0.353169	-0.6423183	0	-80.801	-63.016	4.159	B5-03822-P03-CH0	1430680	OK	0.7730168	0.0386038	-0.6332099	0	-102.292	-47.947	10.333	B5-03822-P03-CH1	1430680	OK	0.765582	-0.6428868	-0.0241	0	-101.765	-12.019	5.535	B5-03822-P04-CH0	1430680	OK	0.8122491	-0.4244319	0.4001362	0	-128.173	-26.98	13.471	B5-03822-P04-CH1	1430680	OK	0.7929605	-0.6085893	0.0288562	0	-113.75	-32.643	3.812	NA
0.759391756702681	B5-03822-P01-CH0	1430688	OK	0.170879	0.1310113	0.0582465	-0.9748045	158.405	-54.53	-228.096	B5-03822-P02-CH0	1430688	OK	0.6816422	0.5424372	-0.4910456	0	-81.822	-85.844	-0.93	B5-03822-P02-CH1	1430688	OK	0.6824686	-0.3605714	-0.6357868	0	-81.51	-62.209	2.943	B5-03822-P03-CH0	1430688	OK	0.7792526	0.0467334	-0.624965	0	-103.406	-48.463	11.216	B5-03822-P03-CH1	1430688	OK	0.7660368	-0.6423016	-0.0252255	0	-101.649	-11.662	5.212	B5-03822-P04-CH0	1430688	OK	0.8122076	-0.4254526	0.3991351	0	-128.081	-27.044	13.413	B5-03822-P04-CH1	1430688	OK	0.7929356	-0.6086075	0.0291562	0	-113.631	-32.781	3.748	NA
0.769383753501401	B5-03822-P01-CH0	1430696	OK	0.1711995	0.1307931	0.0587631	-0.9747465	158.335	-54.516	-228.101	B5-03822-P02-CH0	1430696	OK	0.6752431	0.5462962	-0.4955877	0	-81.552	-86.805	0.409	B5-03822-P02-CH1	1430696	OK	0.6840777	-0.3667955	-0.630475	0	-80.833	-62.546	3.291	B5-03822-P03-CH0	1430696	OK	0.7849941	0.0498391	-0.6174952	0	-104.063	-48.318	11.211	B5-03822-P03-CH1	1430696	OK	0.7662636	-0.6420191	-0.0255252	0	-101.549	-11.74	5.159	B5-03822-P04-CH0	1430696	OK	0.8122448	-0.4259639	0.3985137	0	-128.01	-27.289	13.453	B5-03822-P04-CH1	1430696	OK	0.7933337	-0.608076	0.0294152	0	-113.44	-32.689	3.545	NA
0.77937575030012	B5-03822-P01-CH0	1430704	OK	0.1712643	0.130799	0.0588914	-0.9747266	158.339	-54.514	-228.117	B5-03822-P02-CH0	1430704	OK	0.6700745	0.5495036	-0.499045	0	-81.516	-86.667	0.689	B5-03822-P02-CH1	1430704	OK	0.683138	-0.3713215	-0.6288424	0	-80.816	-62.456	3.674	B5-03822-P03-CH0	1430704	OK	0.7889374	0.0542067	-0.612078	0	-103.722	-48.056	11.032	B5-03822-P03-CH1	1430704	OK	0.7665275	-0.6416657	-0.0264696	0	-101.464	-11.499	5.058	B5-03822-P04-CH0	1430704	OK	0.8122722	-0.4271251	0.3972129	0	-127.874	-27.145	13.378	B5-03822-P04-CH1	1430704	OK	0.7932115	-0.6082182	0.0297693	0	-113.488	-32.915	3.699	NA
0.78936774709884	B5-03822-P01-CH0	1430712	OK	0.1713831	0.1308733	0.0590462	-0.9746864	158.369	-54.497	-228.073	B5-03822-P02-CH0	1430712	OK	0.6676724	0.5500341	-0.5016732	0	-80.286	-85.833	-1.502	B5-03822-P02-CH1	1430712	OK	0.6807354	-0.3741022	-0.6297991	0	-81.047	-62.029	4.107	B5-03822-P03-CH0	1430712	OK	0.7906564	0.059853	-0.6093276	0	-103.588	-47.703	11.298	B5-03822-P03-CH1	1430712	OK	0.7667774	-0.6413223	-0.0275343	0	-101.383	-11.236	4.88	B5-03822-P04-CH0	1430712	OK	0.8122392	-0.4283752	0.395932	0	-127.674	-26.946	13.206	B5-03822-P04-CH1	1430712	OK	0.7931647	-0.6082623	0.0301109	0	-113.542	-33.101	3.901	NA
0.799359743897559	B5-03822-P01-CH0	1430720	OK	0.171613	0.131081	0.0590645	-0.9746169	158.404	-54.469	-227.915	B5-03822-P02-CH0	1430720	OK	0.6642821	0.548362	-0.5079649	0	-80.597	-86.036	-0.554	B5-03822-P02-CH1	1430720	OK	0.6787066	-0.3754549	-0.6311822	0	-80.795	-61.93	3.437	B5-03822-P03-CH0	1430720	OK	0.7910149	0.0603409	-0.6088139	0	-103.618	-47.975	11.218	B5-03822-P03-CH1	1430720	OK	0.7668483	-0.6412121	-0.0281187	0	-101.375	-11.115	4.732	B5-03822-P04-CH0	1430720	OK	0.8121849	-0.429451	0.3948767	0	-127.625	-26.867	12.932	B5-03822-P04-CH1	1430720	OK	0.7929988	-0.608465	0.0303848	0	-113.677	-33.314	4.04	NA
0.809351740696278	B5-03822-P01-CH0	1430728	OK	0.1715286	0.131255	0.0584369	-0.9746462	158.417	-54.486	-227.83	B5-03822-P02-CH0	1430728	OK	0.662601	0.5459523	-0.5127338	0	-80.695	-86.228	-0.189	B5-03822-P02-CH1	1430728	OK	0.6764045	-0.3746223	-0.6341412	0	-80.957	-61.9	3.417	B5-03822-P03-CH0	1430728	OK	0.7912818	0.0622143	-0.6082783	0	-103.558	-47.768	10.708	B5-03822-P03-CH1	1430728	OK	0.7663413	-0.6418032	-0.0284545	0	-101.409	-11.154	4.817	B5-03822-P04-CH0	1430728	OK	0.8119234	-0.4308793	0.393857	0	-127.502	-26.721	12.906	B5-03822-P04-CH1	1430728	OK	0.7922995	-0.6093637	0.0306185	0	-113.617	-33.596	4.283	NA
0.819343737494998	B5-03822-P01-CH0	1430736	OK	0.1712494	0.1316246	0.0575452	-0.9746985	158.477	-54.484	-227.703	B5-03822-P02-CH0	1430736	OK	0.6616727	0.5440516	-0.5159429	0	-80.456	-85.758	-0.587	B5-03822-P02-CH1	1430736	OK	0.67632	-0.3720619	-0.6357368	0	-79.84	-61.973	3.556	B5-03822-P03-CH0	1430736	OK	0.7921088	0.0648559	-0.6069245	0	-103.388	-47.902	10.788	B5-03822-P03-CH1	1430736	OK	0.7657254	-0.6425069	-0.0291451	0	-101.412	-11.038	4.71	B5-03822-P04-CH0	1430736	OK	0.8115252	-0.4323775	0.3930351	0	-127.548	-26.693	12.842	B5-03822-P04-CH1	1430736	OK	0.7918387	-0.6099912	0.0300374	0	-113.659	-33.374	4.172	NA
0.829335734293717	B5-03822-P01-CH0	1430744	OK	0.1714989	0.1316507	0.0579757	-0.9746256	158.502	-54.371	-227.694	B5-03822-P02-CH0	1430744	OK	0.6616899	0.5420587	-0.5180144	0	-80.61	-86.24	-0.679	B5-03822-P02-CH1	1430744	OK	0.6745045	-0.3720599	-0.6376638	0	-80.451	-62.091	4.152	B5-03822-P03-CH0	1430744	OK	0.7922005	0.0679891	-0.6064618	0	-103.447	-48.2	11.568	B5-03822-P03-CH1	1430744	OK	0.7659338	-0.6422633	-0.0290393	0	-101.402	-10.983	4.711	B5-03822-P04-CH0	1430744	OK	0.811707	-0.4328335	0.3921568	0	-127.461	-26.511	12.801	B5-03822-P04-CH1	1430744	OK	0.7919953	-0.6097764	0.030269	0	-113.584	-33.366	4.153	NA
0.839327731092437	B5-03822-P01-CH0	1430752	OK	0.1716795	0.1316403	0.0579383	-0.9745974	158.527	-54.398	-227.672	B5-03822-P02-CH0	1430752	OK	0.6609976	0.5403625	-0.5206635	0	-80.927	-86.233	0.271	B5-03822-P02-CH1	1430752	OK	0.6739276	-0.3710315	-0.6388718	0	-80.667	-62.268	4.007	B5-03822-P03-CH0	1430752	OK	0.7907464	0.0695241	-0.608183	0	-104.325	-48.416	10.832	B5-03822-P03-CH1	1430752	OK	0.7658556	-0.6423606	-0.028949	0	-101.421	-11.03	4.711	B5-03822-P04-CH0	1430752	OK	0.8117324	-0.4334111	0.3914657	0	-127.534	-26.456	12.57	B5-03822-P04-CH1	1430752	OK	0.7918083	-0.6099987	0.0306775	0	-113.572	-33.515	4.056	NA
0.849319727891156	B5-03822-P01-CH0	1430760	OK	0.1718473	0.1316361	0.057756	-0.9745792	158.519	-54.408	-227.597	B5-03822-P02-CH0	1430760	OK	0.6623317	0.5369512	-0.5224942	0	-80.668	-86.379	-0.791	B5-03822-P02-CH1	1430760	OK	0.6750785	-0.3698982	-0.6383137	0	-80.548	-62.098	3.917	B5-03822-P03-CH0	1430760	OK	0.7909398	0.0723959	-0.6075961	0	-103.884	-48.525	10.889	B5-03822-P03-CH1	1430760	OK	0.7654505	-0.6428541	-0.0287064	0	-101.436	-11.225	4.827	B5-03822-P04-CH0	1430760	OK	0.8115605	-0.4343493	0.3907816	0	-127.361	-26.286	12.427	B5-03822-P04-CH1	1430760	OK	0.7917935	-0.610024	0.0305571	0	-113.537	-33.393	3.996	NA
0.859311724689876	B5-03822-P01-CH0	1430768	OK	0.1717169	0.1320347	0.0570864	-0.9745878	158.647	-54.41	-227.603	B5-03822-P02-CH0	1430768	OK	0.6624218	0.5329756	-0.5264355	0	-80.706	-86.149	0.02	B5-03822-P02-CH1	1430768	OK	0.6759937	-0.368647	-0.6380689	0	-81.005	-62.219	3.843	B5-03822-P03-CH0	1430768	OK	0.7916745	0.075423	-0.6062696	0	-103.381	-48.941	11.401	B5-03822-P03-CH1	1430768	OK	0.7644343	-0.6440699	-0.0285327	0	-101.602	-11.599	5.127	B5-03822-P04-CH0	1430768	OK	0.8112074	-0.4357104	0.3899988	0	-127.37	-26.137	12.361	B5-03822-P04-CH1	1430768	OK	0.7912483	-0.6107385	0.0304075	0	-113.618	-33.417	4.034	NA
0.869303721488595	B5-03822-P01-CH0	1430776	OK	0.1717923	0.1324889	0.0568262	-0.974528	158.776	-54.31	-227.52	B5-03822-P02-CH0	1430776	OK	0.6624526	0.5274953	-0.5318885	0	-80.779	-85.9	-0.059	B5-03822-P02-CH1	1430776	OK	0.6778868	-0.3672771	-0.6368493	0	-80.988	-62.205	4.062	B5-03822-P03-CH0	1430776	OK	0.7904736	0.0806142	-0.6071679	0	-103.481	-48.485	10.944	B5-03822-P03-CH1	1430776	OK	0.7639228	-0.6446755	-0.0285563	0	-101.783	-11.669	5.209	B5-03822-P04-CH0	1430776	OK	0.811182	-0.4362869	0.3894066	0	-127.539	-25.969	12.272	B5-03822-P04-CH1	1430776	OK	0.7910155	-0.6110449	0.0303089	0	-113.739	-33.407	4.266	NA
0.879295718287315	B5-03822-P01-CH0	1430784	OK	0.1720408	0.1327346	0.0570795	-0.974436	158.837	-54.243	-227.411	B5-03822-P02-CH0	1430784	OK	0.6626024	0.5202465	-0.5387965	0	-81.192	-86.336	0.004	B5-03822-P02-CH1	1430784	OK	0.6791292	-0.3663204	-0.6360762	0	-81.89	-61.889	3.693	B5-03822-P03-CH0	1430784	OK	0.7888216	0.0840591	-0.6088469	0	-103.3	-48.184	10.891	B5-03822-P03-CH1	1430784	OK	0.7637993	-0.6448308	-0.0283515	0	-101.876	-11.776	5.205	B5-03822-P04-CH0	1430784	OK	0.8112163	-0.4363605	0.3892525	0	-127.641	-26.063	12.251	B5-03822-P04-CH1	1430784	OK	0.791177	-0.6108383	0.0302563	0	-113.694	-33.302	4.213	NA
0.889287715086034	B5-03822-P01-CH0	1430792	OK	0.171886	0.1330473	0.0564694	-0.9744562	158.932	-54.275	-227.412	B5-03822-P02-CH0	1430792	OK	0.6639028	0.5114079	-0.5456143	0	-81.433	-86.931	0.024	B5-03822-P02-CH1	1430792	OK	0.6808936	-0.3631842	-0.6359883	0	-81.838	-62.542	3.581	B5-03822-P03-CH0	1430792	OK	0.7862592	0.0856562	-0.6119309	0	-103.901	-48.327	10.166	B5-03822-P03-CH1	1430792	OK	0.7630948	-0.6456568	-0.0285245	0	-101.93	-11.957	5.378	B5-03822-P04-CH0	1430792	OK	0.8109188	-0.4370766	0.389069	0	-127.831	-26.136	12.265	B5-03822-P04-CH1	1430792	OK	0.7907123	-0.6114489	0.0300721	0	-113.735	-33.384	4.548	NA
0.899279711884754	B5-03822-P01-CH0	1430800	OK	0.1718855	0.1330679	0.0565026	-0.9744515	158.973	-54.283	-227.503	B5-03822-P02-CH0	1430800	OK	0.6641681	0.5016518	-0.55428	0	-81.246	-86.565	-0.489	B5-03822-P02-CH1	1430800	OK	0.6838513	-0.3596072	-0.6348465	0	-81.31	-62.785	3.61	B5-03822-P03-CH0	1430800	OK	0.7856052	0.0883931	-0.6123816	0	-103.531	-48.884	10.937	B5-03822-P03-CH1	1430800	OK	0.7628367	-0.6459494	-0.0288019	0	-101.89	-12.048	5.43	B5-03822-P04-CH0	1430800	OK	0.8109319	-0.437141	0.3889694	0	-127.877	-26.141	12.407	B5-03822-P04-CH1	1430800	OK	0.7904939	-0.6117263	0.030172	0	-113.732	-33.555	4.752	NA
0.909271708683473	B5-03822-P01-CH0	1430808	OK	0.1720256	0.1329067	0.057105	-0.9744137	158.984	-54.279	-227.585	B5-03822-P02-CH0	1430808	OK	0.6640381	0.4915488	-0.5634122	0	-81.05	-86.523	-0.229	B5-03822-P02-CH1	1430808	OK	0.6852155	-0.356408	-0.6351795	0	-81.671	-62.828	3.861	B5-03822-P03-CH0	1430808	OK	0.7843109	0.0929148	-0.6133704	0	-103.372	-48.304	10.675	B5-03822-P03-CH1	1430808	OK	0.7630849	-0.6456445	-0.0290631	0	-101.769	-12.06	5.432	B5-03822-P04-CH0	1430808	OK	0.8111162	-0.4371664	0.3885563	0	-127.723	-25.959	12.434	B5-03822-P04-CH1	1430808	OK	0.7906136	-0.6115503	0.030599	0	-113.749	-33.868	5.172	NA
0.919263705482193	B5-03822-P01-CH0	1430816	OK	0.1721798	0.1328363	0.0573993	-0.9743787	159.014	-54.288	-227.61	B5-03822-P02-CH0	1430816	OK	0.6626099	0.4808266	-0.5742421	0	-80.661	-85.283	0.215	B5-03822-P02-CH1	1430816	OK	0.6867411	-0.3535044	-0.6351545	0	-81.574	-63.352	4.832	B5-03822-P03-CH0	1430816	OK	0.7822576	0.0946861	-0.6157171	0	-103.819	-48.585	11.278	B5-03822-P03-CH1	1430816	OK	0.7632778	-0.6453988	-0.0294515	0	-101.689	-11.948	5.267	B5-03822-P04-CH0	1430816	OK	0.8112535	-0.4369546	0.388508	0	-127.763	-25.955	12.475	B5-03822-P04-CH1	1430816	OK	0.7906059	-0.6115509	0.0307862	0	-113.769	-34.029	5.233	NA
0.929255702280912	B5-03822-P01-CH0	1430824	OK	0.1719675	0.1328918	0.0567899	-0.9744444	159.048	-54.41	-227.566	B5-03822-P02-CH0	1430824	OK	0.6617912	0.4696196	-0.5843713	0	-81.025	-85.312	1.096	B5-03822-P02-CH1	1430824	OK	0.6872784	-0.3497624	-0.6366432	0	-82.371	-63.081	4.624	B5-03822-P03-CH0	1430824	OK	0.7824036	0.0940421	-0.6156304	0	-103.598	-49.416	12.202	B5-03822-P03-CH1	1430824	OK	0.7628956	-0.645819	-0.0301347	0	-101.695	-11.869	5.082	B5-03822-P04-CH0	1430824	OK	0.8109322	-0.4374354	0.3886376	0	-127.801	-26.123	12.621	B5-03822-P04-CH1	1430824	OK	0.7900535	-0.6122655	0.0307643	0	-113.785	-34.274	5.522	NA
0.939247699079632	B5-03822-P01-CH0	1430832	OK	0.1719355	0.1332839	0.0563141	-0.9744241	159.176	-54.482	-227.413	B5-03822-P02-CH0	1430832	OK	0.6623274	0.4568811	-0.5937862	0	-80.888	-85.698	0.587	B5-03822-P02-CH1	1430832	OK	0.6902286	-0.3452788	-0.6358986	0	-81.897	-62.593	3.729	B5-03822-P03-CH0	1430832	OK	0.7811375	0.094462	-0.6171718	0	-103.995	-49.24	11.611	B5-03822-P03-CH1	1430832	OK	0.7625969	-0.6461441	-0.0307214	0	-101.715	-11.828	4.909	B5-03822-P04-CH0	1430832	OK	0.8107222	-0.4377712	0.3886977	0	-127.831	-26.221	12.63	B5-03822-P04-CH1	1430832	OK	0.7897742	-0.6126316	0.0306452	0	-113.912	-34.357	5.617	NA
0.949239695878351	B5-03822-P01-CH0	1430840	OK	0.1720013	0.133375	0.056255	-0.9744034	159.262	-54.513	-227.414	B5-03822-P02-CH0	1430840	OK	0.6612468	0.444763	-0.6041014	0	-81.386	-85.629	0.911	B5-03822-P02-CH1	1430840	OK	0.6925844	-0.3427549	-0.6347015	0	-81.566	-63.301	3.874	B5-03822-P03-CH0	1430840	OK	0.7808172	0.0951779	-0.6174672	0	-103.637	-48.915	10.723	B5-03822-P03-CH1	1430840	OK	0.7628976	-0.6457575	-0.0313775	0	-101.706	-11.545	4.769	B5-03822-P04-CH0	1430840	OK	0.8107609	-0.4373802	0.3890569	0	-127.967	-26.402	12.817	B5-03822-P04-CH1	1430840	OK	0.7894432	-0.6130276	0.0312497	0	-113.978	-34.828	6.184	NA
0.959231692677071	B5-03822-P01-CH0	1430848	OK	0.1720721	0.1331385	0.0564397	-0.9744126	159.208	-54.481	-227.354	B5-03822-P02-CH0	1430848	OK	0.6612335	0.434302	-0.6116797	0	-81.955	-86.161	0.951	B5-03822-P02-CH1	1430848	OK	0.6930237	-0.3390846	-0.6361917	0	-82.209	-63.875	4.388	B5-03822-P03-CH0	1430848	OK	0.7796371	0.0947098	-0.6190283	0	-103.655	-49.377	11.576	B5-03822-P03-CH1	1430848	OK	0.7633654	-0.645176	-0.0319574	0	-101.626	-11.211	4.63	B5-03822-P04-CH0	1430848	OK	0.8108611	-0.4368126	0.3894856	0	-127.97	-26.397	12.871	B5-03822-P04-CH1	1430848	OK	0.7896676	-0.612742	0.0311827	0	-113.971	-34.688	6.105	NA
0.96922368947579	B5-03822-P01-CH0	1430856	OK	0.1718138	0.1329594	0.0557785	-0.9745207	159.17	-54.618	-227.329	B5-03822-P02-CH0	1430856	OK	0.6633535	0.4267421	-0.6146977	0	-81.102	-85.748	0.644	B5-03822-P02-CH1	1430856	OK	0.6943804	-0.333872	-0.6374679	0	-82.128	-63.921	4.318	B5-03822-P03-CH0	1430856	OK	0.779119	0.0989991	-0.6190096	0	-103.437	-49.044	11.503	B5-03822-P03-CH1	1430856	OK	0.7632325	-0.6452992	-0.0326349	0	-101.556	-11.058	4.502	B5-03822-P04-CH0	1430856	OK	0.8105516	-0.4369989	0.3899206	0	-127.94	-26.503	12.97	B5-03822-P04-CH1	1430856	OK	0.7891806	-0.6133602	0.0313568	0	-114.062	-34.959	6.397	NA
0.97921568627451	B5-03822-P01-CH0	1430864	OK	0.1716292	0.1329141	0.0552159	-0.9745914	159.18	-54.653	-227.307	B5-03822-P02-CH0	1430864	OK	0.66476	0.4204511	-0.6175071	0	-81.236	-85.742	-0.031	B5-03822-P02-CH1	1430864	OK	0.6948548	-0.3294114	-0.6392691	0	-82.502	-63.516	4.083	B5-03822-P03-CH0	1430864	OK	0.7780882	0.1017996	-0.6198512	0	-103.697	-49.035	10.869	B5-03822-P03-CH1	1430864	OK	0.7631565	-0.6453503	-0.0333931	0	-101.457	-10.819	4.229	B5-03822-P04-CH0	1430864	OK	0.8103903	-0.4372103	0.3900188	0	-127.918	-26.35	12.928	B5-03822-P04-CH1	1430864	OK	0.7888558	-0.6137794	0.0313283	0	-114.084	-34.965	6.324	NA
0.989207683073229	B5-03822-P01-CH0	1430872	OK	0.1717279	0.1327758	0.0551695	-0.9745955	159.156	-54.648	-227.267	B5-03822-P02-CH0	1430872	OK	0.6659428	0.4142043	-0.6204474	0	-81.696	-85.929	-0.106	B5-03822-P02-CH1	1430872	OK	0.6948897	-0.3254805	-0.6412415	0	-83.46	-63.403	3.308	B5-03822-P03-CH0	1430872	OK	0.7776809	0.1025639	-0.6202363	0	-103.453	-49.427	11.163	B5-03822-P03-CH1	1430872	OK	0.7634388	-0.6450036	-0.0336379	0	-101.402	-10.667	4.078	B5-03822-P04-CH0	1430872	OK	0.8104052	-0.4368921	0.3903443	0	-127.745	-26.32	13.162	B5-03822-P04-CH1	1430872	OK	0.7891628	-0.6133976	0.0310723	0	-113.969	-34.605	5.761	NA
0.999199679871949	B5-03822-P01-CH0	1430880	OK	0.1719409	0.1325695	0.055318	-0.9745776	159.126	-54.641	-227.189	B5-03822-P02-CH0	1430880	OK	0.6676475	0.4087445	-0.6222337	0	-81.724	-85.734	0.238	B5-03822-P02-CH1	1430880	OK	0.6974107	-0.3208117	-0.6408574	0	-82.785	-63.81	3.919	B5-03822-P03-CH0	1430880	OK	0.776563	0.1065146	-0.6209706	0	-103.509	-49.226	10.902	B5-03822-P03-CH1	1430880	OK	0.76361	-0.6448202	-0.033267	0	-101.534	-10.813	4.152	B5-03822-P04-CH0	1430880	OK	0.8104773	-0.4363446	0.3908068	0	-127.793	-26.518	13.215	B5-03822-P04-CH1	1430880	OK	0.7894962	-0.6129539	0.031357	0	-113.955	-34.607	5.863	NA
1.00919167667067	B5-03822-P01-CH0	1430888	OK	0.1719991	0.1326382	0.0548205	-0.9745861	159.164	-54.648	-227.146	B5-03822-P02-CH0	1430888	OK	0.6694122	0.4042841	-0.6232509	0	-81.854	-85.84	0.127	B5-03822-P02-CH1	1430888	OK	0.6989856	-0.3153217	-0.6418655	0	-82.895	-63.645	4.458	B5-03822-P03-CH0	1430888	OK	0.776345	0.1105248	-0.6205422	0	-103.425	-49.22	11.03	B5-03822-P03-CH1	1430888	OK	0.763511	-0.6449329	-0.0333532	0	-101.679	-10.816	4.166	B5-03822-P04-CH0	1430888	OK	0.8103847	-0.4362781	0.3910729	0	-127.81	-26.445	13.102	B5-03822-P04-CH1	1430888	OK	0.7895606	-0.6128828	0.0311253	0	-114.06	-34.373	5.809	NA
1.01918367346939	B5-03822-P01-CH0	1430896	OK	0.1720012	0.1324796	0.0546963	-0.9746143	159.158	-54.731	-227.201	B5-03822-P02-CH0	1430896	OK	0.6700669	0.400422	-0.6250381	0	-82.159	-85.618	0.1	B5-03822-P02-CH1	1430896	OK	0.6998286	-0.3103477	-0.6433694	0	-83.646	-63.972	4.403	B5-03822-P03-CH0	1430896	OK	0.7752419	0.1138107	-0.6213269	0	-103.784	-49.473	11.168	B5-03822-P03-CH1	1430896	OK	0.7636821	-0.6447171	-0.0336074	0	-101.653	-10.849	4.201	B5-03822-P04-CH0	1430896	OK	0.8103387	-0.436097	0.3913701	0	-127.763	-26.614	13.232	B5-03822-P04-CH1	1430896	OK	0.7896615	-0.6127519	0.0311415	0	-113.984	-34.429	5.925	NA
