Wav.Time	B5.03822.P01.CH0	Frame	State	Q0	Qx	Qy	Qz	Tx	Ty	Tz	B5.03822.P02.CH0	Frame.1	State.1	Q0.1	Qx.1	Qy.1	Qz.1	Tx.1	Ty.1	Tz.1	B5.03822.P02.CH1	Frame.2	State.2	Q0.2	Qx.2	Qy.2	Qz.2	Tx.2	Ty.2	Tz.2	B5.03822.P03.CH0	Frame.3	State.3	Q0.3	Qx.3	Qy.3	Qz.3	Tx.3	Ty.3	Tz.3	B5.03822.P03.CH1	Frame.4	State.4	Q0.4	Qx.4	Qy.4	Qz.4	Tx.4	Ty.4	Tz.4	B5.03822.P04.CH0	Frame.5	State.5	Q0.5	Qx.5	Qy.5	Qz.5	Tx.5	Ty.5	Tz.5	B5.03822.P04.CH1	Frame.6	State.6	Q0.6	Qx.6	Qy.6	Qz.6	Tx.6	Ty.6	Tz.6	X
0	B5-03822-P01-CH0	804200	OK	0.2036333	0.0542925	0.0691221	-0.9750938	108.89	-29.506	-289.882	B5-03822-P02-CH0	804200	OK	0.728608	0.0719354	-0.681143	0	-77.963	-98.07	-0.555	B5-03822-P02-CH1	804200	OK	0.8035961	-0.2206549	-0.5527609	0	-81.037	-80.414	6.474	B5-03822-P03-CH0	804200	OK	0.778303	-0.2152461	-0.589842	0	-94.975	-59.649	6.869	B5-03822-P03-CH1	804200	OK	0.8070326	-0.5117886	0.2945688	0	-99.206	-34.343	11.702	B5-03822-P04-CH0	804200	OK	0.7965487	-0.3205985	0.5125688	0	-120.135	-41.335	14.953	B5-03822-P04-CH1	804200	OK	0.8205972	-0.5712514	0.0170898	0	-108.859	-53.038	12.734	NA
0.00999190152251377	B5-03822-P01-CH0	804208	OK	0.2036288	0.0544243	0.0689002	-0.9751031	108.964	-29.562	-289.837	B5-03822-P02-CH0	804208	OK	0.728853	0.0639427	-0.6816778	0	-77.964	-98.08	-1.368	B5-03822-P02-CH1	804208	OK	0.8061375	-0.222426	-0.5483329	0	-81.161	-80.455	5.473	B5-03822-P03-CH0	804208	OK	0.7779095	-0.2091668	-0.592542	0	-95.494	-59.799	7.11	B5-03822-P03-CH1	804208	OK	0.8070122	-0.5092383	0.2990112	0	-98.658	-34.67	12.101	B5-03822-P04-CH0	804208	OK	0.7963479	-0.3289032	0.507595	0	-118.52	-40.046	14.131	B5-03822-P04-CH1	804208	OK	0.8203849	-0.5715402	0.0176165	0	-108.728	-53.298	12.754	NA
0.0199838030450275	B5-03822-P01-CH0	804216	OK	0.2035421	0.0546568	0.0684921	-0.9751369	109.102	-29.627	-290.049	B5-03822-P02-CH0	804216	OK	0.7272953	0.0577915	-0.6838872	0	-78.864	-98.522	0.22	B5-03822-P02-CH1	804216	OK	0.8048805	-0.2217402	-0.5504532	0	-83.165	-80.904	6.48	B5-03822-P03-CH0	804216	OK	0.778634	-0.2018496	-0.5941261	0	-95.884	-59.59	6.353	B5-03822-P03-CH1	804216	OK	0.8073834	-0.5068554	0.3020425	0	-98.286	-33.55	10.909	B5-03822-P04-CH0	804216	OK	0.7988153	-0.3349154	0.4997257	0	-118.911	-39.736	15.285	B5-03822-P04-CH1	804216	OK	0.8203236	-0.5716266	0.0176695	0	-108.795	-53.391	13.123	NA
0.0299757045675413	B5-03822-P01-CH0	804224	OK	0.2035369	0.0546084	0.0683491	-0.9751508	109.06	-29.699	-289.941	B5-03822-P02-CH0	804224	OK	0.7266133	0.0521617	-0.6850637	0	-78.96	-98.324	0.833	B5-03822-P02-CH1	804224	OK	0.8079376	-0.2211312	-0.5462032	0	-82.619	-80.148	7.708	B5-03822-P03-CH0	804224	OK	0.7802231	-0.1965018	-0.5938341	0	-95.526	-60.297	6.247	B5-03822-P03-CH1	804224	OK	0.8071609	-0.5043452	0.3068015	0	-99.654	-36.002	12.657	B5-03822-P04-CH0	804224	OK	0.800947	-0.3443616	0.4897949	0	-118.939	-40.595	16.4	B5-03822-P04-CH1	804224	OK	0.8203128	-0.5716378	0.0178058	0	-108.811	-53.501	13.031	NA
0.0399676060900551	B5-03822-P01-CH0	804232	OK	0.2035102	0.054868	0.0679644	-0.9751687	109.15	-29.729	-289.97	B5-03822-P02-CH0	804232	OK	0.7263506	0.0466974	-0.6857362	0	-78.199	-98.068	0.165	B5-03822-P02-CH1	804232	OK	0.8102243	-0.2211918	-0.5427806	0	-82.747	-79.862	6.144	B5-03822-P03-CH0	804232	OK	0.7820904	-0.1889266	-0.5938362	0	-95.724	-60.588	8.012	B5-03822-P03-CH1	804232	OK	0.8093329	-0.4979615	0.3114716	0	-100.112	-36.882	19.228	B5-03822-P04-CH0	804232	OK	0.8010132	-0.3574206	0.4802378	0	-118.785	-41.887	14.943	B5-03822-P04-CH1	804232	OK	0.8201453	-0.5718789	0.0177823	0	-108.96	-53.653	13.189	NA
0.0499595076125688	B5-03822-P01-CH0	804240	OK	0.2036704	0.0548287	0.0680602	-0.9751307	109.123	-29.783	-290.012	B5-03822-P02-CH0	804240	OK	0.7261299	0.0375487	-0.6865315	0	-77.371	-99.088	-1.496	B5-03822-P02-CH1	804240	OK	0.810034	-0.2266571	-0.5408063	0	-84.257	-81.631	6.842	B5-03822-P03-CH0	804240	OK	0.7848632	-0.181219	-0.5925787	0	-95.703	-61.487	8.157	B5-03822-P03-CH1	804240	OK	0.80987	-0.4931193	0.3177167	0	-100.281	-37.184	19.058	B5-03822-P04-CH0	804240	OK	0.8015258	-0.3674997	0.4716995	0	-117.506	-40.733	13.63	B5-03822-P04-CH1	804240	OK	0.8202095	-0.571772	0.0182531	0	-108.905	-53.898	13.129	NA
0.0599514091350826	B5-03822-P01-CH0	804248	OK	0.2036396	0.0551253	0.0683969	-0.9750969	109.221	-29.727	-290.008	B5-03822-P02-CH0	804248	OK	0.7235297	0.0312875	-0.6895838	0	-77.924	-99.919	-1.775	B5-03822-P02-CH1	804248	OK	0.8138118	-0.2264717	-0.535183	0	-84.362	-81.437	8.162	B5-03822-P03-CH0	804248	OK	0.7858264	-0.1755403	-0.5930114	0	-96.408	-61.544	9.519	B5-03822-P03-CH1	804248	OK	0.8102763	-0.4896233	0.322058	0	-100.154	-36.342	16.27	B5-03822-P04-CH0	804248	OK	0.8041633	-0.3719843	0.463626	0	-117.736	-41.48	18.117	B5-03822-P04-CH1	804248	OK	0.820564	-0.5712652	0.0181874	0	-109.019	-53.858	13.046	NA
0.0699433106575964	B5-03822-P01-CH0	804256	OK	0.2037766	0.0551409	0.0683905	-0.9750679	109.235	-29.838	-289.986	B5-03822-P02-CH0	804256	OK	0.7216687	0.0254308	-0.6917713	0	-77.903	-100.304	0.09	B5-03822-P02-CH1	804256	OK	0.8197716	-0.2250619	-0.5266134	0	-82.804	-80.804	7.147	B5-03822-P03-CH0	804256	OK	0.7885453	-0.1715605	-0.5905618	0	-96.123	-61.857	10.464	B5-03822-P03-CH1	804256	OK	0.8108721	-0.4871013	0.3243744	0	-99.181	-35.356	15.073	B5-03822-P04-CH0	804256	OK	0.8046575	-0.3768516	0.4588128	0	-117.96	-41.757	17.283	B5-03822-P04-CH1	804256	OK	0.8206089	-0.5711865	0.0186279	0	-108.924	-54.107	12.856	NA
0.0799352121801101	B5-03822-P01-CH0	804264	OK	0.2036069	0.0551955	0.0684818	-0.9750938	109.197	-29.783	-289.798	B5-03822-P02-CH0	804264	OK	0.7212397	0.0203656	-0.6923861	0	-77.463	-99.349	-0.198	B5-03822-P02-CH1	804264	OK	0.8206095	-0.2284075	-0.5238607	0	-83.767	-82.256	7.013	B5-03822-P03-CH0	804264	OK	0.7895169	-0.1678857	-0.5903198	0	-97.137	-61.938	8.587	B5-03822-P03-CH1	804264	OK	0.812021	-0.4846848	0.3251193	0	-100.698	-36.179	16.451	B5-03822-P04-CH0	804264	OK	0.8049734	-0.3795153	0.4560548	0	-117.375	-42.192	18.874	B5-03822-P04-CH1	804264	OK	0.8207728	-0.5709569	0.0184462	0	-108.959	-54.022	12.632	NA
0.0899271137026239	B5-03822-P01-CH0	804272	OK	0.2033815	0.0551214	0.0676849	-0.9752007	109.12	-29.965	-289.817	B5-03822-P02-CH0	804272	OK	0.7210771	0.0138955	-0.6927155	0	-77.387	-99.173	-1.744	B5-03822-P02-CH1	804272	OK	0.8208359	-0.2245673	-0.5251647	0	-85.681	-82.504	7.41	B5-03822-P03-CH0	804272	OK	0.791146	-0.1602753	-0.5902541	0	-97.197	-61.218	7.599	B5-03822-P03-CH1	804272	OK	0.8137637	-0.481644	0.325281	0	-101.735	-35.629	17.457	B5-03822-P04-CH0	804272	OK	0.8047439	-0.3818841	0.4544797	0	-116.942	-41.429	17.228	B5-03822-P04-CH1	804272	OK	0.8204246	-0.5714522	0.0185966	0	-108.628	-54.141	12.617	NA
0.0999190152251377	B5-03822-P01-CH0	804280	OK	0.2034775	0.0548879	0.0682673	-0.9751532	109.031	-29.942	-289.854	B5-03822-P02-CH0	804280	OK	0.7222551	0.0065128	-0.6915961	0	-75.911	-99.361	-1.326	B5-03822-P02-CH1	804280	OK	0.8261129	-0.2274804	-0.5155484	0	-83.747	-83.218	9.276	B5-03822-P03-CH0	804280	OK	0.790442	-0.1479078	-0.5944112	0	-97.246	-61.038	10.367	B5-03822-P03-CH1	804280	OK	0.8117979	-0.4831338	0.3279723	0	-101.661	-39.006	17.93	B5-03822-P04-CH0	804280	OK	0.8042838	-0.3823213	0.4549264	0	-116.801	-42.091	16.067	B5-03822-P04-CH1	804280	OK	0.8209797	-0.5706526	0.0186538	0	-108.542	-54.144	12.786	NA
0.109910916747651	B5-03822-P01-CH0	804288	OK	0.2031048	0.0550605	0.0674904	-0.9752753	108.993	-30.032	-289.708	B5-03822-P02-CH0	804288	OK	0.7213072	-0.0023681	-0.6926113	0	-75.427	-99.819	-0.786	B5-03822-P02-CH1	804288	OK	0.8267642	-0.2270731	-0.5146832	0	-85.304	-82.259	8.787	B5-03822-P03-CH0	804288	OK	0.7880517	-0.1351389	-0.600593	0	-97.378	-61.934	11.093	B5-03822-P03-CH1	804288	OK	0.8131807	-0.4813638	0.3271483	0	-101.796	-38.49	18.374	B5-03822-P04-CH0	804288	OK	0.8043907	-0.3838125	0.4534794	0	-116.145	-40.679	15.543	B5-03822-P04-CH1	804288	OK	0.8206724	-0.5711154	0.0180009	0	-108.579	-54.098	12.875	NA
0.119902818270165	B5-03822-P01-CH0	804296	OK	0.2031636	0.055068	0.0678164	-0.97524	108.916	-29.98	-289.458	B5-03822-P02-CH0	804296	OK	0.7188695	-0.0128704	-0.6950259	0	-75.52	-99.53	-0.079	B5-03822-P02-CH1	804296	OK	0.8321592	-0.2288346	-0.5051195	0	-85.404	-81.438	8.616	B5-03822-P03-CH0	804296	OK	0.7844174	-0.1189115	-0.6087277	0	-97.515	-62.034	9.596	B5-03822-P03-CH1	804296	OK	0.8148926	-0.4799471	0.3249628	0	-100.299	-36.091	17.274	B5-03822-P04-CH0	804296	OK	0.8042148	-0.3830948	0.4543974	0	-115.983	-40.368	14.87	B5-03822-P04-CH1	804296	OK	0.8208437	-0.5708676	0.018048	0	-108.476	-54.057	12.428	NA
0.129894719792679	B5-03822-P01-CH0	804304	OK	0.2032756	0.0548362	0.0682509	-0.9751994	108.829	-29.953	-289.45	B5-03822-P02-CH0	804304	OK	0.71713	-0.0251138	-0.6964868	0	-75.439	-100.169	-0.856	B5-03822-P02-CH1	804304	OK	0.843237	-0.2352236	-0.4833437	0	-83.257	-82.597	11.451	B5-03822-P03-CH0	804304	OK	0.7788899	-0.0975325	-0.6195305	0	-97.778	-61.975	8.26	B5-03822-P03-CH1	804304	OK	0.8142468	-0.4818907	0.3237029	0	-98.777	-34.386	11.525	B5-03822-P04-CH0	804304	OK	0.8046246	-0.3803955	0.455937	0	-117.309	-43.02	17.847	B5-03822-P04-CH1	804304	OK	0.8212032	-0.5703487	0.0181019	0	-108.416	-54.058	12.419	NA
0.139886621315193	B5-03822-P01-CH0	804312	OK	0.2030168	0.0549041	0.067611	-0.975294	108.753	-30.022	-289.235	B5-03822-P02-CH0	804312	OK	0.7169145	-0.037883	-0.6961311	0	-74.078	-99.017	-2.938	B5-03822-P02-CH1	804312	OK	0.8483659	-0.2340183	-0.4748798	0	-86.36	-81.177	10.436	B5-03822-P03-CH0	804312	OK	0.7731363	-0.0701953	-0.6303435	0	-97.998	-61.421	8.55	B5-03822-P03-CH1	804312	OK	0.8138065	-0.4830339	0.3231055	0	-97.114	-34.561	12.86	B5-03822-P04-CH0	804312	OK	0.8041538	-0.3797508	0.457303	0	-116.592	-41.117	16.31	B5-03822-P04-CH1	804312	OK	0.820884	-0.5708094	0.0180601	0	-108.212	-54.049	12.365	NA
0.149878522837707	B5-03822-P01-CH0	804320	OK	0.2029285	0.0548309	0.0679928	-0.97529	108.715	-29.99	-289.173	B5-03822-P02-CH0	804320	OK	0.7137302	-0.0538688	-0.6983462	0	-74.534	-100.373	-2.683	B5-03822-P02-CH1	804320	OK	0.8539772	-0.2345654	-0.4644373	0	-87.64	-81.908	11.369	B5-03822-P03-CH0	804320	OK	0.7684554	-0.0395381	-0.6386806	0	-97.594	-60.085	7.616	B5-03822-P03-CH1	804320	OK	0.8161613	-0.4806842	0.320661	0	-100.133	-37.367	18.51	B5-03822-P04-CH0	804320	OK	0.8043398	-0.3793178	0.4573352	0	-116.944	-41.679	16.031	B5-03822-P04-CH1	804320	OK	0.8212074	-0.5703559	0.0176804	0	-108.299	-53.977	12.473	NA
0.15987042436022	B5-03822-P01-CH0	804328	OK	0.2028272	0.054659	0.0680926	-0.9753138	108.678	-30.025	-289.12	B5-03822-P02-CH0	804328	OK	0.7116583	-0.0693602	-0.6990935	0	-74.218	-101.092	-1.793	B5-03822-P02-CH1	804328	OK	0.8591694	-0.237603	-0.4531806	0	-87.797	-82.743	10.582	B5-03822-P03-CH0	804328	OK	0.7622281	-0.0043832	-0.6472937	0	-97.359	-59.443	8.408	B5-03822-P03-CH1	804328	OK	0.8170314	-0.4813229	0.3174713	0	-101.374	-37.87	19.451	B5-03822-P04-CH0	804328	OK	0.8044927	-0.3611795	0.4715303	0	-117.208	-42.567	16.999	B5-03822-P04-CH1	804328	OK	0.8213259	-0.5701794	0.017868	0	-108.186	-53.951	12.353	NA
0.169862325882734	B5-03822-P01-CH0	804336	OK	0.2027308	0.0546886	0.0683247	-0.9753159	108.709	-29.923	-289.092	B5-03822-P02-CH0	804336	OK	0.7114949	-0.0854351	-0.6974782	0	-72.958	-101.143	-2.726	B5-03822-P02-CH1	804336	OK	0.8635976	-0.2378548	-0.4445494	0	-88.032	-82	11.979	B5-03822-P03-CH0	804336	OK	0.7551703	0.0267902	-0.654981	0	-97.865	-59.096	7.639	B5-03822-P03-CH1	804336	OK	0.815561	-0.4851391	0.3154367	0	-99.803	-37.293	16.923	B5-03822-P04-CH0	804336	OK	0.8047408	-0.3506483	0.4789969	0	-117.511	-41.274	14.939	B5-03822-P04-CH1	804336	OK	0.8215156	-0.5699043	0.0179229	0	-108.362	-53.812	12.313	NA
0.179854227405248	B5-03822-P01-CH0	804344	OK	0.2026322	0.0551186	0.0682087	-0.9753203	108.911	-29.977	-289.167	B5-03822-P02-CH0	804344	OK	0.7091288	-0.1005374	-0.6978744	0	-73.27	-101.081	-2.343	B5-03822-P02-CH1	804344	OK	0.8640333	-0.2427086	-0.4410657	0	-88.491	-82.972	12.227	B5-03822-P03-CH0	804344	OK	0.7511308	0.053076	-0.6580163	0	-96.506	-58.649	6.906	B5-03822-P03-CH1	804344	OK	0.8166129	-0.4859108	0.3115031	0	-99.69	-35.947	14.406	B5-03822-P04-CH0	804344	OK	0.8047584	-0.3384477	0.487665	0	-118.457	-41.639	15.318	B5-03822-P04-CH1	804344	OK	0.8214198	-0.5700334	0.0182085	0	-108.403	-53.985	12.558	NA
0.189846128927762	B5-03822-P01-CH0	804352	OK	0.2026737	0.0553281	0.0689721	-0.9752461	109.031	-29.857	-289.112	B5-03822-P02-CH0	804352	OK	0.7097476	-0.1104088	-0.6957501	0	-72.994	-101.002	-2.346	B5-03822-P02-CH1	804352	OK	0.8627638	-0.2496708	-0.4396625	0	-87.914	-82.826	12.545	B5-03822-P03-CH0	804352	OK	0.7462628	0.0630399	-0.6626596	0	-97.711	-59.231	7.111	B5-03822-P03-CH1	804352	OK	0.8178625	-0.4862305	0.3077025	0	-99.05	-34.684	13.399	B5-03822-P04-CH0	804352	OK	0.803976	-0.3254344	0.4977098	0	-118.816	-41.693	15.399	B5-03822-P04-CH1	804352	OK	0.8217455	-0.5695493	0.0186527	0	-108.636	-54.082	12.529	NA
0.199838030450275	B5-03822-P01-CH0	804360	OK	0.2027198	0.0554143	0.0686338	-0.9752555	109.039	-29.825	-289.011	B5-03822-P02-CH0	804360	OK	0.7104938	-0.1190264	-0.6935642	0	-73.377	-101.021	-1.102	B5-03822-P02-CH1	804360	OK	0.8577899	-0.2568294	-0.445236	0	-89.134	-82.363	11.641	B5-03822-P03-CH0	804360	OK	0.7445966	0.0713829	-0.663687	0	-98.218	-57.875	7.404	B5-03822-P03-CH1	804360	OK	0.8170237	-0.4876698	0.3076531	0	-98.352	-35.387	12.636	B5-03822-P04-CH0	804360	OK	0.8018904	-0.3147092	0.5078681	0	-119.248	-41.458	14.104	B5-03822-P04-CH1	804360	OK	0.8214581	-0.5699402	0.0193568	0	-108.767	-54.151	12.389	NA
0.209829931972789	B5-03822-P01-CH0	804368	OK	0.2028964	0.0550755	0.0689797	-0.9752136	108.884	-29.766	-288.952	B5-03822-P02-CH0	804368	OK	0.7120407	-0.1228958	-0.6912992	0	-72.83	-100.792	-0.889	B5-03822-P02-CH1	804368	OK	0.8547856	-0.2591117	-0.4496696	0	-89.146	-81.573	9.893	B5-03822-P03-CH0	804368	OK	0.7458431	0.0764537	-0.6617196	0	-97.901	-57.803	7.793	B5-03822-P03-CH1	804368	OK	0.8176883	-0.4881517	0.3051127	0	-97.922	-34.771	12.986	B5-03822-P04-CH0	804368	OK	0.8012583	-0.3010955	0.5170363	0	-120.124	-42.686	15.497	B5-03822-P04-CH1	804368	OK	0.8217831	-0.5694313	0.0205044	0	-108.633	-54.08	12.125	NA
0.219821833495303	B5-03822-P01-CH0	804376	OK	0.2025477	0.0552574	0.0682202	-0.9753292	108.89	-29.859	-288.77	B5-03822-P02-CH0	804376	OK	0.7115578	-0.1214599	-0.6920498	0	-72.786	-101.227	-1.254	B5-03822-P02-CH1	804376	OK	0.8522945	-0.2634839	-0.4518521	0	-86.864	-82.37	11.591	B5-03822-P03-CH0	804376	OK	0.7478328	0.0735091	-0.6598049	0	-97.633	-58.916	9.169	B5-03822-P03-CH1	804376	OK	0.8193423	-0.4869859	0.3025277	0	-99.197	-36.49	18.89	B5-03822-P04-CH0	804376	OK	0.8011786	-0.2916586	0.5225401	0	-121.156	-43.589	17.057	B5-03822-P04-CH1	804376	OK	0.8215211	-0.5697933	0.0209437	0	-108.694	-54.056	12.245	NA
0.229813735017817	B5-03822-P01-CH0	804384	OK	0.2022484	0.0555128	0.0679581	-0.9753951	108.963	-29.818	-288.806	B5-03822-P02-CH0	804384	OK	0.7096361	-0.1107347	-0.6958121	0	-73.168	-101.098	-3.123	B5-03822-P02-CH1	804384	OK	0.8447569	-0.2571957	-0.4692933	0	-87.972	-80.793	11.13	B5-03822-P03-CH0	804384	OK	0.7473005	0.062689	-0.6615225	0	-98.909	-59.163	6.172	B5-03822-P03-CH1	804384	OK	0.8190593	-0.4877455	0.3020699	0	-99.388	-37.984	21.813	B5-03822-P04-CH0	804384	OK	0.7996341	-0.2878629	0.5269918	0	-121.257	-43.89	14.805	B5-03822-P04-CH1	804384	OK	0.8213254	-0.5700537	0.0215238	0	-108.702	-54.063	12.307	NA
0.23980563654033	B5-03822-P01-CH0	804392	OK	0.2027421	0.0554447	0.0691958	-0.9752094	108.969	-29.608	-288.873	B5-03822-P02-CH0	804392	OK	0.7062445	-0.0908552	-0.7021139	0	-74.155	-100.725	-1.733	B5-03822-P02-CH1	804392	OK	0.8363284	-0.2567596	-0.4843856	0	-87.054	-81.99	10.517	B5-03822-P03-CH0	804392	OK	0.7493564	0.034683	-0.6612579	0	-98.645	-59.324	5.677	B5-03822-P03-CH1	804392	OK	0.8192726	-0.4881299	0.3008681	0	-99.401	-36.228	17.399	B5-03822-P04-CH0	804392	OK	0.7989812	-0.2839574	0.5300917	0	-119.922	-40.092	12.159	B5-03822-P04-CH1	804392	OK	0.8219438	-0.5691198	0.022605	0	-108.956	-54.137	12.114	NA
0.249797538062844	B5-03822-P01-CH0	804400	OK	0.2028865	0.0558608	0.0687928	-0.9751842	109.093	-29.56	-288.833	B5-03822-P02-CH0	804400	OK	0.7054014	-0.0671192	-0.7056231	0	-74.206	-101.03	-1.304	B5-03822-P02-CH1	804400	OK	0.8265976	-0.251803	-0.5033206	0	-86.317	-82.01	8.466	B5-03822-P03-CH0	804400	OK	0.7546674	-0.0173574	-0.6558779	0	-98.472	-59.081	6.703	B5-03822-P03-CH1	804400	OK	0.8175968	-0.4913493	0.3001856	0	-99.614	-36.485	14.773	B5-03822-P04-CH0	804400	OK	0.7997893	-0.2776201	0.5322257	0	-121.499	-43.355	15.45	B5-03822-P04-CH1	804400	OK	0.8217563	-0.5693523	0.0235485	0	-108.958	-54.179	12.192	NA
0.259789439585358	B5-03822-P01-CH0	804408	OK	0.2030249	0.0558487	0.0687309	-0.9751604	109.013	-29.484	-288.807	B5-03822-P02-CH0	804408	OK	0.7053296	-0.0408675	-0.7077005	0	-73.24	-101.014	-2.893	B5-03822-P02-CH1	804408	OK	0.8152631	-0.2419997	-0.5261009	0	-85.928	-79.84	5.606	B5-03822-P03-CH0	804408	OK	0.7631977	-0.0878066	-0.6401713	0	-97.622	-58.652	7.643	B5-03822-P03-CH1	804408	OK	0.8184232	-0.4872073	0.3046514	0	-99.177	-35.98	17.08	B5-03822-P04-CH0	804408	OK	0.7998588	-0.2733269	0.5343391	0	-121.811	-43.325	15.655	B5-03822-P04-CH1	804408	OK	0.8216943	-0.5694143	0.0242029	0	-109.104	-54.275	12.386	NA
0.269781341107872	B5-03822-P01-CH0	804416	OK	0.2033277	0.0554485	0.0695823	-0.9750598	108.805	-29.382	-288.691	B5-03822-P02-CH0	804416	OK	0.7026759	-0.0149324	-0.7113533	0	-73	-101.7	-3.774	B5-03822-P02-CH1	804416	OK	0.801194	-0.2426803	-0.5469866	0	-84.207	-80.955	5.94	B5-03822-P03-CH0	804416	OK	0.7758498	-0.1529032	-0.6121093	0	-97.994	-58.661	5.976	B5-03822-P03-CH1	804416	OK	0.8189057	-0.4870908	0.303539	0	-99.203	-36.088	17.065	B5-03822-P04-CH0	804416	OK	0.7983777	-0.273525	0.5364486	0	-121.202	-40.73	10.933	B5-03822-P04-CH1	804416	OK	0.8222614	-0.5685694	0.0247983	0	-109.076	-54.252	12.375	NA
0.279773242630385	B5-03822-P01-CH0	804424	OK	0.203585	0.0551029	0.0702182	-0.9749801	108.598	-29.2	-288.564	B5-03822-P02-CH0	804424	OK	0.6987108	0.0119126	-0.715305	0	-72.717	-101.039	-2.483	B5-03822-P02-CH1	804424	OK	0.7868237	-0.2510981	-0.5637891	0	-82.198	-80.694	2.844	B5-03822-P03-CH0	804424	OK	0.7917473	-0.2101256	-0.5735708	0	-98.794	-59.95	6.42	B5-03822-P03-CH1	804424	OK	0.8191243	-0.4872779	0.3026477	0	-99.254	-36.137	16.935	B5-03822-P04-CH0	804424	OK	0.7996106	-0.2685165	0.5371422	0	-122.009	-42.977	15.964	B5-03822-P04-CH1	804424	OK	0.8225944	-0.5680551	0.0255324	0	-109.062	-54.197	12.292	NA
0.289765144152899	B5-03822-P01-CH0	804432	OK	0.2035517	0.0548732	0.069822	-0.9750285	108.437	-29.201	-288.574	B5-03822-P02-CH0	804432	OK	0.6928443	0.0363027	-0.7201728	0	-72.198	-99.521	-1.987	B5-03822-P02-CH1	804432	OK	0.7717219	-0.2676083	-0.5769152	0	-79.642	-80.377	2.284	B5-03822-P03-CH0	804432	OK	0.8071734	-0.2435763	-0.537719	0	-98.832	-60.392	9.814	B5-03822-P03-CH1	804432	OK	0.8184934	-0.4886399	0.3021582	0	-99.352	-36.524	16.851	B5-03822-P04-CH0	804432	OK	0.7990341	-0.2683041	0.5381054	0	-122.06	-42.689	14.876	B5-03822-P04-CH1	804432	OK	0.8223553	-0.5683815	0.0259641	0	-108.96	-54.191	12.274	NA
0.299757045675413	B5-03822-P01-CH0	804440	OK	0.2033902	0.0547409	0.0696792	-0.9750798	108.345	-29.295	-288.491	B5-03822-P02-CH0	804440	OK	0.6858997	0.0598189	-0.7252333	0	-71.113	-99.371	-2.96	B5-03822-P02-CH1	804440	OK	0.7535373	-0.2858231	-0.5920192	0	-78.444	-79.746	-1.249	B5-03822-P03-CH0	804440	OK	0.8206334	-0.2681999	-0.5046084	0	-98.692	-60.831	10.32	B5-03822-P03-CH1	804440	OK	0.8184038	-0.489402	0.3011658	0	-99.512	-36.682	17.076	B5-03822-P04-CH0	804440	OK	0.7988685	-0.2683793	0.5383137	0	-121.992	-42.628	15.349	B5-03822-P04-CH1	804440	OK	0.8223289	-0.5684225	0.0259051	0	-108.968	-54.2	12.198	NA
0.309748947197927	B5-03822-P01-CH0	804448	OK	0.2034133	0.0548879	0.0703493	-0.9750186	108.377	-29.124	-288.6	B5-03822-P02-CH0	804448	OK	0.674986	0.07742	-0.7337575	0	-70.495	-98.478	-2.49	B5-03822-P02-CH1	804448	OK	0.7355042	-0.3097701	-0.602558	0	-77.001	-78.406	-2.43	B5-03822-P03-CH0	804448	OK	0.8310508	-0.2883354	-0.4756231	0	-97.311	-62.029	12.361	B5-03822-P03-CH1	804448	OK	0.8185632	-0.4897554	0.3001566	0	-99.656	-36.454	16.788	B5-03822-P04-CH0	804448	OK	0.7975705	-0.2706582	0.5390969	0	-121.28	-41.31	13.495	B5-03822-P04-CH1	804448	OK	0.8225564	-0.5680901	0.0259743	0	-109.037	-54.231	12.511	NA
0.319740848720441	B5-03822-P01-CH0	804456	OK	0.2036038	0.0549528	0.0711942	-0.9749139	108.43	-29.007	-288.653	B5-03822-P02-CH0	804456	OK	0.6611413	0.0939196	-0.7443597	0	-70.756	-98.058	-0.124	B5-03822-P02-CH1	804456	OK	0.7225932	-0.3271788	-0.6089442	0	-73.618	-76.109	0.274	B5-03822-P03-CH0	804456	OK	0.8351181	-0.3030119	-0.4590877	0	-97.475	-62.338	10.949	B5-03822-P03-CH1	804456	OK	0.8183299	-0.4904237	0.299701	0	-99.588	-36.476	16.138	B5-03822-P04-CH0	804456	OK	0.7970015	-0.2723476	0.5390875	0	-120.819	-41.002	13.525	B5-03822-P04-CH1	804456	OK	0.822896	-0.5676007	0.0259137	0	-109.208	-54.306	12.555	NA
0.329732750242954	B5-03822-P01-CH0	804464	OK	0.2036154	0.0551283	0.0710021	-0.9749156	108.445	-28.994	-288.582	B5-03822-P02-CH0	804464	OK	0.6534767	0.1033472	-0.7498584	0	-68.741	-97.236	0.221	B5-03822-P02-CH1	804464	OK	0.7095515	-0.3411863	-0.6165456	0	-72.254	-75.558	-0.986	B5-03822-P03-CH0	804464	OK	0.8378323	-0.3120132	-0.4479785	0	-97.667	-61.232	11.263	B5-03822-P03-CH1	804464	OK	0.8180927	-0.4912951	0.2989206	0	-99.8	-36.451	16.364	B5-03822-P04-CH0	804464	OK	0.7990134	-0.2716251	0.5364674	0	-121.707	-41.859	13.626	B5-03822-P04-CH1	804464	OK	0.8228219	-0.5677177	0.0257041	0	-109.342	-54.217	12.591	NA
0.339724651765468	B5-03822-P01-CH0	804472	OK	0.2029408	0.0551065	0.0701276	-0.9751207	108.384	-29.155	-288.475	B5-03822-P02-CH0	804472	OK	0.6484996	0.1034742	-0.7541494	0	-67.105	-97.371	-1.242	B5-03822-P02-CH1	804472	OK	0.7067554	-0.3368126	-0.6221367	0	-67.448	-77.591	-4.453	B5-03822-P03-CH0	804472	OK	0.8405713	-0.3213188	-0.4361125	0	-95.362	-61.949	12.944	B5-03822-P03-CH1	804472	OK	0.816965	-0.4936967	0.2980467	0	-99.832	-36.75	16.305	B5-03822-P04-CH0	804472	OK	0.7983433	-0.2726104	0.5369652	0	-121.669	-41.77	13.498	B5-03822-P04-CH1	804472	OK	0.822252	-0.5685585	0.0253545	0	-109.116	-54.152	12.514	NA
0.349716553287982	B5-03822-P01-CH0	804480	OK	0.2022216	0.0547699	0.0694727	-0.975336	108.144	-29.277	-288.41	B5-03822-P02-CH0	804480	OK	0.6424896	0.096944	-0.7601375	0	-66.382	-95.247	-0.756	B5-03822-P02-CH1	804480	OK	0.7022059	-0.2976361	-0.6467763	0	-70.788	-75.839	-3.733	B5-03822-P03-CH0	804480	OK	0.8359707	-0.3293552	-0.4389511	0	-95.554	-62.121	9.319	B5-03822-P03-CH1	804480	OK	0.8159315	-0.4958844	0.2972447	0	-99.74	-36.746	16.045	B5-03822-P04-CH0	804480	OK	0.7974712	-0.274384	0.5373576	0	-121.332	-41.238	13.139	B5-03822-P04-CH1	804480	OK	0.8217538	-0.5693096	0.0246407	0	-108.909	-53.954	12.219	NA
0.359708454810496	B5-03822-P01-CH0	804488	OK	0.2018159	0.0547978	0.0693814	-0.9754249	108.104	-29.32	-288.366	B5-03822-P02-CH0	804488	OK	0.6399492	0.0863619	-0.7635487	0	-65.525	-94.282	0.032	B5-03822-P02-CH1	804488	OK	0.7032634	-0.2661295	-0.6592387	0	-71.098	-74.53	-1.746	B5-03822-P03-CH0	804488	OK	0.8264611	-0.3323711	-0.4544134	0	-95.102	-61.811	8.85	B5-03822-P03-CH1	804488	OK	0.8152524	-0.4976971	0.2960762	0	-99.669	-36.591	15.437	B5-03822-P04-CH0	804488	OK	0.7969257	-0.2762291	0.5372216	0	-121.149	-40.841	12.659	B5-03822-P04-CH1	804488	OK	0.8215665	-0.5696197	0.0237046	0	-108.94	-53.805	12.117	NA
0.369700356333009	B5-03822-P01-CH0	804496	OK	0.2012631	0.0551378	0.0683869	-0.9755902	108.16	-29.42	-288.371	B5-03822-P02-CH0	804496	OK	0.6380827	0.0747618	-0.7663296	0	-65.569	-93.115	0.571	B5-03822-P02-CH1	804496	OK	0.7047496	-0.2505353	-0.6637469	0	-71.339	-75.313	0	B5-03822-P03-CH0	804496	OK	0.8130334	-0.3300156	-0.4796524	0	-93.709	-60.095	8.175	B5-03822-P03-CH1	804496	OK	0.8138897	-0.5048911	0.2875214	0	-100.562	-35.297	16.21	B5-03822-P04-CH0	804496	OK	0.7965009	-0.2780869	0.5368929	0	-121.239	-40.96	13.197	B5-03822-P04-CH1	804496	OK	0.8209133	-0.5705981	0.0227825	0	-109.049	-53.587	12.025	NA
0.379692257855523	B5-03822-P01-CH0	804504	OK	0.2008495	0.0553297	0.0675748	-0.9757212	108.19	-29.604	-288.435	B5-03822-P02-CH0	804504	OK	0.6376313	0.064135	-0.7676673	0	-65.64	-93.126	1.291	B5-03822-P02-CH1	804504	OK	0.7064729	-0.2405519	-0.6656056	0	-71.659	-75.243	-2.909	B5-03822-P03-CH0	804504	OK	0.7913261	-0.3240706	-0.5184412	0	-94.661	-57.641	2.287	B5-03822-P03-CH1	804504	OK	0.8123074	-0.5083592	0.2858803	0	-102.384	-37.478	18.545	B5-03822-P04-CH0	804504	OK	0.7957624	-0.2806983	0.536629	0	-121.018	-40.667	12.897	B5-03822-P04-CH1	804504	OK	0.820262	-0.571566	0.0219681	0	-108.986	-53.553	11.983	NA
0.389684159378037	B5-03822-P01-CH0	804512	OK	0.2005035	0.0554174	0.0672373	-0.9758106	108.157	-29.72	-288.401	B5-03822-P02-CH0	804512	OK	0.6404448	0.0571674	-0.7658736	0	-64.738	-93.991	0.42	B5-03822-P02-CH1	804512	OK	0.705681	-0.2373121	-0.6676057	0	-73.056	-75.582	-2.531	B5-03822-P03-CH0	804512	OK	0.7722509	-0.324835	-0.5459952	0	-91.117	-58.436	3.538	B5-03822-P03-CH1	804512	OK	0.8104766	-0.5111457	0.286108	0	-101.036	-37.433	17.501	B5-03822-P04-CH0	804512	OK	0.7952914	-0.2829127	0.5361641	0	-120.827	-40.483	12.877	B5-03822-P04-CH1	804512	OK	0.8200134	-0.5719648	0.0208405	0	-108.918	-53.416	12.129	NA
0.399676060900551	B5-03822-P01-CH0	804520	OK	0.2002094	0.0560668	0.0667107	-0.9758701	108.334	-29.726	-288.424	B5-03822-P02-CH0	804520	OK	0.6420574	0.0519368	-0.7648953	0	-65.074	-93.478	1.298	B5-03822-P02-CH1	804520	OK	0.7065511	-0.2377402	-0.6665322	0	-72.863	-75.296	-0.795	B5-03822-P03-CH0	804520	OK	0.75512	-0.3199502	-0.5722113	0	-90.489	-56.806	2.069	B5-03822-P03-CH1	804520	OK	0.8099206	-0.5134286	0.2835838	0	-100.417	-35.339	13.454	B5-03822-P04-CH0	804520	OK	0.7947517	-0.2858945	0.5353821	0	-120.662	-40.139	12.624	B5-03822-P04-CH1	804520	OK	0.819497	-0.5727437	0.0197282	0	-109.019	-53.296	12.346	NA
0.409667962423064	B5-03822-P01-CH0	804528	OK	0.2001203	0.056056	0.0665458	-0.9759002	108.349	-29.859	-288.433	B5-03822-P02-CH0	804528	OK	0.6453491	0.0466926	-0.7624594	0	-66.078	-92.912	1.017	B5-03822-P02-CH1	804528	OK	0.7063039	-0.2414597	-0.6654562	0	-73.386	-75.628	-1.157	B5-03822-P03-CH0	804528	OK	0.7430875	-0.3164519	-0.5896432	0	-89.652	-56.188	0.963	B5-03822-P03-CH1	804528	OK	0.8094443	-0.5142675	0.2834235	0	-99.637	-35.374	15.098	B5-03822-P04-CH0	804528	OK	0.7947443	-0.2874334	0.5345686	0	-120.796	-40.387	12.999	B5-03822-P04-CH1	804528	OK	0.8193024	-0.5730505	0.0188883	0	-108.993	-53.211	12.224	NA
0.419659863945578	B5-03822-P01-CH0	804536	OK	0.1997393	0.0555939	0.0663238	-0.9760198	108.121	-29.955	-288.483	B5-03822-P02-CH0	804536	OK	0.6535077	0.0455218	-0.7555498	0	-65.263	-91.876	1.71	B5-03822-P02-CH1	804536	OK	0.7088184	-0.2473069	-0.6606178	0	-71.886	-76.478	0.176	B5-03822-P03-CH0	804536	OK	0.7352788	-0.3119638	-0.6017006	0	-88.667	-56.757	0.384	B5-03822-P03-CH1	804536	OK	0.8091405	-0.5152656	0.2824766	0	-100.825	-35.837	14.625	B5-03822-P04-CH0	804536	OK	0.7943161	-0.2898116	0.5339206	0	-120.636	-40.176	12.776	B5-03822-P04-CH1	804536	OK	0.8191394	-0.5733161	0.0178688	0	-108.746	-52.865	12.067	NA
0.429651765468092	B5-03822-P01-CH0	804544	OK	0.199664	0.0555969	0.0662619	-0.9760393	108.091	-30.039	-288.478	B5-03822-P02-CH0	804544	OK	0.6578238	0.0449605	-0.7518287	0	-67.616	-92.775	0.583	B5-03822-P02-CH1	804544	OK	0.71001	-0.2587809	-0.6549185	0	-72.228	-75.56	-1.932	B5-03822-P03-CH0	804544	OK	0.7301316	-0.3044609	-0.6117282	0	-88.115	-55.268	-3.478	B5-03822-P03-CH1	804544	OK	0.8068728	-0.5191843	0.2817869	0	-98.274	-34.829	11.071	B5-03822-P04-CH0	804544	OK	0.793995	-0.2916262	0.5334098	0	-120.497	-40.041	12.614	B5-03822-P04-CH1	804544	OK	0.8189506	-0.5736164	0.0168568	0	-108.634	-52.779	12.111	NA
0.439643666990606	B5-03822-P01-CH0	804552	OK	0.1998999	0.0557559	0.0666259	-0.9759571	108.121	-30.037	-288.55	B5-03822-P02-CH0	804552	OK	0.6647444	0.0445413	-0.7457418	0	-68.316	-93.374	-0.314	B5-03822-P02-CH1	804552	OK	0.7189357	-0.2729392	-0.6392461	0	-70.244	-74.953	-2.104	B5-03822-P03-CH0	804552	OK	0.729392	-0.2893533	-0.6198887	0	-88.287	-58.427	1.553	B5-03822-P03-CH1	804552	OK	0.8101794	-0.5122984	0.2848855	0	-99.961	-36.179	15.496	B5-03822-P04-CH0	804552	OK	0.7942158	-0.2924583	0.532625	0	-120.694	-40.008	12.65	B5-03822-P04-CH1	804552	OK	0.8190617	-0.573486	0.0158666	0	-108.725	-52.683	12.274	NA
0.44963556851312	B5-03822-P01-CH0	804560	OK	0.200144	0.0559212	0.0673203	-0.97585	108.221	-29.964	-288.52	B5-03822-P02-CH0	804560	OK	0.6700407	0.0451234	-0.7409516	0	-69.283	-93.387	1.06	B5-03822-P02-CH1	804560	OK	0.7269822	-0.2633833	-0.6341342	0	-74.219	-75.108	-1.239	B5-03822-P03-CH0	804560	OK	0.7353571	-0.261017	-0.625396	0	-90.649	-57.978	2.807	B5-03822-P03-CH1	804560	OK	0.8106595	-0.5123848	0.28336	0	-100.175	-36.14	16.199	B5-03822-P04-CH0	804560	OK	0.7943747	-0.293045	0.5320653	0	-120.853	-39.859	12.354	B5-03822-P04-CH1	804560	OK	0.819323	-0.573134	0.0150753	0	-108.891	-52.604	12.303	NA
0.459627470035633	B5-03822-P01-CH0	804568	OK	0.2005184	0.0555896	0.0679224	-0.9757503	108.116	-29.925	-288.613	B5-03822-P02-CH0	804568	OK	0.675412	0.0466422	-0.7359641	0	-70.221	-93.7	0.741	B5-03822-P02-CH1	804568	OK	0.7380023	-0.2579821	-0.6235365	0	-75.064	-76.694	-1.938	B5-03822-P03-CH0	804568	OK	0.7401569	-0.2390611	-0.6285042	0	-90.93	-58.366	1.44	B5-03822-P03-CH1	804568	OK	0.8107022	-0.5128182	0.2824525	0	-100.08	-35.919	15.754	B5-03822-P04-CH0	804568	OK	0.794353	-0.2928958	0.5321798	0	-120.814	-39.938	12.681	B5-03822-P04-CH1	804568	OK	0.819623	-0.5727017	0.0151937	0	-108.524	-52.52	12.237	NA
0.469619371558147	B5-03822-P01-CH0	804576	OK	0.2003769	0.0556881	0.0680614	-0.9757641	108.143	-29.926	-288.581	B5-03822-P02-CH0	804576	OK	0.6787471	0.0514714	-0.7325661	0	-71.897	-94.165	-0.341	B5-03822-P02-CH1	804576	OK	0.7452319	-0.2490055	-0.6185674	0	-76.287	-77.046	-0.042	B5-03822-P03-CH0	804576	OK	0.7418242	-0.2224139	-0.6326365	0	-90.965	-57.813	2.379	B5-03822-P03-CH1	804576	OK	0.8103163	-0.513964	0.2814755	0	-99.915	-35.697	14.829	B5-03822-P04-CH0	804576	OK	0.794249	-0.2937732	0.5318514	0	-120.885	-39.726	12.45	B5-03822-P04-CH1	804576	OK	0.8196133	-0.5727354	0.0144297	0	-108.394	-52.422	12.287	NA
0.479611273080661	B5-03822-P01-CH0	804584	OK	0.2003881	0.0556243	0.0684098	-0.9757411	108.136	-29.962	-288.509	B5-03822-P02-CH0	804584	OK	0.6820275	0.0533842	-0.7293755	0	-72.725	-94.93	1.407	B5-03822-P02-CH1	804584	OK	0.7512309	-0.244258	-0.6131804	0	-77.193	-78.284	-0.314	B5-03822-P03-CH0	804584	OK	0.7440482	-0.2090831	-0.634568	0	-91.197	-57.226	2.61	B5-03822-P03-CH1	804584	OK	0.8102303	-0.514525	0.2806971	0	-99.649	-35.562	14.223	B5-03822-P04-CH0	804584	OK	0.7943451	-0.2939688	0.5315997	0	-120.923	-39.769	12.648	B5-03822-P04-CH1	804584	OK	0.8198313	-0.5724393	0.0137816	0	-108.45	-52.353	12.185	NA
0.489603174603175	B5-03822-P01-CH0	804592	OK	0.2003746	0.0557343	0.0682601	-0.9757481	108.178	-30.037	-288.444	B5-03822-P02-CH0	804592	OK	0.6865945	0.0526965	-0.7251283	0	-72.428	-95.027	0.548	B5-03822-P02-CH1	804592	OK	0.7574709	-0.2425476	-0.6061423	0	-77.569	-77.899	1.037	B5-03822-P03-CH0	804592	OK	0.7452761	-0.1971736	-0.636935	0	-91.922	-58.166	2.712	B5-03822-P03-CH1	804592	OK	0.8101732	-0.5149296	0.2801193	0	-99.639	-35.543	14.056	B5-03822-P04-CH0	804592	OK	0.7942546	-0.294197	0.5316087	0	-121.067	-39.933	12.679	B5-03822-P04-CH1	804592	OK	0.8196333	-0.5727227	0.0137809	0	-108.347	-52.383	11.934	NA
0.499595076125688	B5-03822-P01-CH0	804600	OK	0.2005247	0.0555941	0.0688472	-0.975684	108.109	-29.943	-288.308	B5-03822-P02-CH0	804600	OK	0.6889676	0.0528764	-0.7228608	0	-73.393	-95.578	-0.353	B5-03822-P02-CH1	804600	OK	0.7593043	-0.2449702	-0.6028654	0	-79.117	-77.872	1.735	B5-03822-P03-CH0	804600	OK	0.7480343	-0.1884872	-0.6363311	0	-92.595	-58.192	4.269	B5-03822-P03-CH1	804600	OK	0.8106171	-0.5146296	0.2793855	0	-99.487	-35.188	13.79	B5-03822-P04-CH0	804600	OK	0.7944255	-0.2935397	0.5317167	0	-121.178	-39.814	12.586	B5-03822-P04-CH1	804600	OK	0.8200313	-0.5721565	0.0136215	0	-108.363	-52.229	11.835	NA
0.509586977648202	B5-03822-P01-CH0	804608	OK	0.2005466	0.0554862	0.0688463	-0.9756857	108.019	-29.967	-288.187	B5-03822-P02-CH0	804608	OK	0.6923565	0.0526436	-0.7196326	0	-73.175	-95.566	-1.504	B5-03822-P02-CH1	804608	OK	0.7631609	-0.2475681	-0.5969049	0	-78.365	-78.189	2.816	B5-03822-P03-CH0	804608	OK	0.753339	-0.1868952	-0.6305161	0	-92.173	-58.719	4.367	B5-03822-P03-CH1	804608	OK	0.8104907	-0.5150686	0.2789429	0	-99.248	-35.179	13.222	B5-03822-P04-CH0	804608	OK	0.7942107	-0.2934497	0.5320871	0	-121.113	-39.556	12.217	B5-03822-P04-CH1	804608	OK	0.8201004	-0.572062	0.013434	0	-108.303	-52.12	11.644	NA
0.519578879170716	B5-03822-P01-CH0	804616	OK	0.2008769	0.0558994	0.0687046	-0.9756041	108.217	-29.984	-288.228	B5-03822-P02-CH0	804616	OK	0.6935054	0.0494415	-0.7187529	0	-74.079	-96.439	-1.113	B5-03822-P02-CH1	804616	OK	0.763439	-0.2485392	-0.5961453	0	-79.691	-77.211	-0.084	B5-03822-P03-CH0	804616	OK	0.7557996	-0.1911409	-0.6262844	0	-93.424	-59.201	4.115	B5-03822-P03-CH1	804616	OK	0.8107206	-0.5148387	0.278699	0	-99.28	-35.623	14.409	B5-03822-P04-CH0	804616	OK	0.7942583	-0.2923598	0.5326158	0	-121.299	-39.938	12.767	B5-03822-P04-CH1	804616	OK	0.8200221	-0.5721699	0.0136133	0	-108.513	-52.28	11.611	NA
0.52957078069323	B5-03822-P01-CH0	804624	OK	0.2009352	0.0559459	0.0689999	-0.9755686	108.212	-29.947	-288.105	B5-03822-P02-CH0	804624	OK	0.6953107	0.0496855	-0.7169898	0	-73.984	-96.352	-1.299	B5-03822-P02-CH1	804624	OK	0.7630059	-0.2528296	-0.5948943	0	-80.305	-78.282	2.244	B5-03822-P03-CH0	804624	OK	0.7580496	-0.194824	-0.6224182	0	-93.511	-59.054	3.816	B5-03822-P03-CH1	804624	OK	0.8113917	-0.5142026	0.2779195	0	-99.705	-35.619	14.581	B5-03822-P04-CH0	804624	OK	0.7943625	-0.2915633	0.5328968	0	-121.312	-39.986	12.901	B5-03822-P04-CH1	804624	OK	0.8202616	-0.5718211	0.0138424	0	-108.561	-52.226	11.413	NA
0.539562682215743	B5-03822-P01-CH0	804632	OK	0.2011308	0.0559884	0.0691129	-0.9755179	108.28	-29.941	-288.128	B5-03822-P02-CH0	804632	OK	0.6960704	0.0486221	-0.7163253	0	-73.631	-96.209	-1.238	B5-03822-P02-CH1	804632	OK	0.7642291	-0.2597583	-0.5903216	0	-78.589	-80.048	3.304	B5-03822-P03-CH0	804632	OK	0.7584469	-0.2024558	-0.6194917	0	-93.728	-59.352	4.301	B5-03822-P03-CH1	804632	OK	0.8113868	-0.5143414	0.2776768	0	-99.572	-35.547	13.971	B5-03822-P04-CH0	804632	OK	0.7944595	-0.2907253	0.53321	0	-121.293	-40.058	13.239	B5-03822-P04-CH1	804632	OK	0.820526	-0.5714327	0.0142041	0	-108.552	-52.23	11.462	NA
0.549554583738257	B5-03822-P01-CH0	804640	OK	0.2011429	0.05612	0.0684702	-0.9755531	108.364	-30.063	-288.23	B5-03822-P02-CH0	804640	OK	0.6936275	0.0484667	-0.7187015	0	-74.576	-97.472	0.181	B5-03822-P02-CH1	804640	OK	0.7612743	-0.2668088	-0.5909945	0	-79.373	-79.077	-0.128	B5-03822-P03-CH0	804640	OK	0.7587201	-0.2104699	-0.6164789	0	-93.68	-59.234	4.247	B5-03822-P03-CH1	804640	OK	0.8110986	-0.5149738	0.2773464	0	-99.433	-35.532	13.607	B5-03822-P04-CH0	804640	OK	0.7943491	-0.2907963	0.5333358	0	-121.184	-40.051	13.557	B5-03822-P04-CH1	804640	OK	0.8203952	-0.5716221	0.0141382	0	-108.687	-52.353	11.877	NA
0.559546485260771	B5-03822-P01-CH0	804648	OK	0.2009292	0.056502	0.0675955	-0.9756361	108.494	-30.225	-288.162	B5-03822-P02-CH0	804648	OK	0.6931091	0.0474491	-0.7192693	0	-74.099	-96.903	-1.193	B5-03822-P02-CH1	804648	OK	0.7596106	-0.2692833	-0.592012	0	-79.671	-78.767	2.926	B5-03822-P03-CH0	804648	OK	0.7603136	-0.2182684	-0.611786	0	-92.627	-59.675	3.991	B5-03822-P03-CH1	804648	OK	0.8109198	-0.5155079	0.2768766	0	-99.511	-35.852	14.195	B5-03822-P04-CH0	804648	OK	0.794301	-0.2915739	0.5329827	0	-121.112	-39.95	13.528	B5-03822-P04-CH1	804648	OK	0.8200492	-0.5721244	0.0138915	0	-108.839	-52.461	12.072	NA
0.569538386783285	B5-03822-P01-CH0	804656	OK	0.2010457	0.0560836	0.0677697	-0.9756242	108.361	-30.23	-288.291	B5-03822-P02-CH0	804656	OK	0.691341	0.0480745	-0.7209275	0	-74.377	-97.264	0.075	B5-03822-P02-CH1	804656	OK	0.761157	-0.2745542	-0.5875883	0	-78.164	-79.517	1.558	B5-03822-P03-CH0	804656	OK	0.7628058	-0.2231496	-0.6069032	0	-92.525	-59.737	4.735	B5-03822-P03-CH1	804656	OK	0.8115695	-0.5146916	0.2764913	0	-99.421	-35.832	15.202	B5-03822-P04-CH0	804656	OK	0.7941875	-0.2921244	0.5328504	0	-120.766	-39.76	13.232	B5-03822-P04-CH1	804656	OK	0.8203837	-0.5716346	0.0142985	0	-108.662	-52.462	12.199	NA
0.579530288305799	B5-03822-P01-CH0	804664	OK	0.2006408	0.0562402	0.066768	-0.9757676	108.378	-30.268	-288.284	B5-03822-P02-CH0	804664	OK	0.6922606	0.0521336	-0.719762	0	-73.912	-97.489	-1.102	B5-03822-P02-CH1	804664	OK	0.7600538	-0.2761716	-0.588258	0	-79.316	-79.4	1.037	B5-03822-P03-CH0	804664	OK	0.7653846	-0.2269656	-0.6022234	0	-92.735	-59.949	5.494	B5-03822-P03-CH1	804664	OK	0.811188	-0.5155742	0.2759661	0	-99.13	-35.569	15.137	B5-03822-P04-CH0	804664	OK	0.7939744	-0.2934848	0.5324202	0	-120.636	-39.594	13.253	B5-03822-P04-CH1	804664	OK	0.8199554	-0.5722555	0.0140307	0	-108.652	-52.407	12.492	NA
0.589522189828312	B5-03822-P01-CH0	804672	OK	0.2010215	0.0560149	0.0677494	-0.9756345	108.331	-30.124	-288.283	B5-03822-P02-CH0	804672	OK	0.6936074	0.0501726	-0.7186039	0	-73.707	-96.603	-1.123	B5-03822-P02-CH1	804672	OK	0.7611939	-0.2695622	-0.5898474	0	-79.645	-77.801	1.868	B5-03822-P03-CH0	804672	OK	0.7674594	-0.2305224	-0.5982187	0	-93.295	-60.202	7.016	B5-03822-P03-CH1	804672	OK	0.8120557	-0.5144739	0.2754672	0	-99.04	-35.377	15.262	B5-03822-P04-CH0	804672	OK	0.7944309	-0.2936346	0.5316561	0	-120.441	-39.335	13.117	B5-03822-P04-CH1	804672	OK	0.8206773	-0.5712153	0.014209	0	-108.763	-52.348	12.465	NA
0.599514091350826	B5-03822-P01-CH0	804680	OK	0.2009446	0.0558635	0.0671899	-0.9756977	108.284	-30.227	-288.302	B5-03822-P02-CH0	804680	OK	0.6942447	0.0510978	-0.7179229	0	-73.568	-96.938	-0.934	B5-03822-P02-CH1	804680	OK	0.7630623	-0.2694017	-0.587502	0	-78.017	-80.268	1.925	B5-03822-P03-CH0	804680	OK	0.7708246	-0.2330886	-0.5928736	0	-93.151	-59.298	5.339	B5-03822-P03-CH1	804680	OK	0.8118227	-0.5149544	0.2752561	0	-99.126	-35.702	15.406	B5-03822-P04-CH0	804680	OK	0.7945359	-0.2944003	0.5310754	0	-120.373	-39.533	13.54	B5-03822-P04-CH1	804680	OK	0.8205175	-0.5714397	0.0144103	0	-108.623	-52.406	12.483	NA
0.60950599287334	B5-03822-P01-CH0	804688	OK	0.2011506	0.0561905	0.0671326	-0.9756404	108.473	-30.207	-288.351	B5-03822-P02-CH0	804688	OK	0.6941672	0.0518851	-0.7179414	0	-73.658	-97.162	-0.45	B5-03822-P02-CH1	804688	OK	0.7618092	-0.2636128	-0.5917389	0	-78.829	-80.078	1.291	B5-03822-P03-CH0	804688	OK	0.7710167	-0.234883	-0.5919149	0	-93.573	-60.12	7.406	B5-03822-P03-CH1	804688	OK	0.8121556	-0.514589	0.2749573	0	-99.541	-35.957	16.114	B5-03822-P04-CH0	804688	OK	0.7948712	-0.2949855	0.5302483	0	-120.459	-39.824	13.855	B5-03822-P04-CH1	804688	OK	0.8205291	-0.5714166	0.0146634	0	-108.721	-52.589	12.694	NA
0.619497894395854	B5-03822-P01-CH0	804696	OK	0.2012539	0.0560798	0.0670083	-0.9756341	108.416	-30.18	-288.348	B5-03822-P02-CH0	804696	OK	0.6942048	0.0527922	-0.7178389	0	-73.569	-97.451	-0.204	B5-03822-P02-CH1	804696	OK	0.7590242	-0.2612333	-0.5963551	0	-80.476	-80.159	2.144	B5-03822-P03-CH0	804696	OK	0.7721156	-0.2344046	-0.5906708	0	-92.73	-60.151	6.603	B5-03822-P03-CH1	804696	OK	0.8122167	-0.5147284	0.2745155	0	-99.335	-35.412	15.237	B5-03822-P04-CH0	804696	OK	0.7950896	-0.2958011	0.529466	0	-120.321	-39.914	14.116	B5-03822-P04-CH1	804696	OK	0.8205438	-0.5713975	0.0145861	0	-108.562	-52.652	13.083	NA
0.629489795918367	B5-03822-P01-CH0	804704	OK	0.2012532	0.0558474	0.0666474	-0.9756723	108.319	-30.187	-288.417	B5-03822-P02-CH0	804704	OK	0.6941536	0.0539017	-0.717806	0	-73.494	-97.628	-0.104	B5-03822-P02-CH1	804704	OK	0.7640642	-0.2585287	-0.5910743	0	-77.375	-79.416	1.728	B5-03822-P03-CH0	804704	OK	0.7699209	-0.2308929	-0.5949035	0	-92.844	-59.975	6.325	B5-03822-P03-CH1	804704	OK	0.8117669	-0.5154088	0.2745694	0	-98.957	-35.495	15.088	B5-03822-P04-CH0	804704	OK	0.7950741	-0.2969941	0.528821	0	-120.092	-39.826	14.245	B5-03822-P04-CH1	804704	OK	0.820387	-0.5716236	0.014545	0	-108.437	-52.71	13.259	NA
0.639481697440881	B5-03822-P01-CH0	804712	OK	0.2010622	0.0560055	0.0657735	-0.9757619	108.409	-30.277	-288.526	B5-03822-P02-CH0	804712	OK	0.6938883	0.0552485	-0.7179601	0	-73.607	-97.79	0.064	B5-03822-P02-CH1	804712	OK	0.761903	-0.2525685	-0.5964168	0	-79.073	-78.962	2.381	B5-03822-P03-CH0	804712	OK	0.7674098	-0.2280433	-0.5992316	0	-92.563	-60.04	6.704	B5-03822-P03-CH1	804712	OK	0.8116169	-0.5158057	0.2742672	0	-99.142	-35.746	16.168	B5-03822-P04-CH0	804712	OK	0.7949172	-0.2984547	0.5282343	0	-120.099	-39.94	14.22	B5-03822-P04-CH1	804712	OK	0.8198588	-0.5723939	0.0140263	0	-108.547	-52.854	13.563	NA
0.649473598963395	B5-03822-P01-CH0	804720	OK	0.2012913	0.0558135	0.0665543	-0.9756727	108.308	-30.112	-288.435	B5-03822-P02-CH0	804720	OK	0.6938786	0.0559	-0.717919	0	-73.451	-97.562	-0.257	B5-03822-P02-CH1	804720	OK	0.7619166	-0.2546631	-0.595508	0	-78.76	-80.056	1.956	B5-03822-P03-CH0	804720	OK	0.7639621	-0.2244935	-0.60495	0	-93.396	-59.044	6.253	B5-03822-P03-CH1	804720	OK	0.8122727	-0.5149858	0.2738661	0	-99.263	-35.501	16.071	B5-03822-P04-CH0	804720	OK	0.795107	-0.2987384	0.5277881	0	-119.95	-39.903	14.016	B5-03822-P04-CH1	804720	OK	0.8204439	-0.5715503	0.0142185	0	-108.37	-52.63	13.35	NA
0.659465500485909	B5-03822-P01-CH0	804728	OK	0.2015107	0.0557301	0.0670129	-0.9756008	108.323	-30.015	-288.384	B5-03822-P02-CH0	804728	OK	0.6939434	0.0565689	-0.7178039	0	-73.409	-97.585	-0.55	B5-03822-P02-CH1	804728	OK	0.7629448	-0.2546384	-0.5942008	0	-77.648	-81.024	1.684	B5-03822-P03-CH0	804728	OK	0.7621573	-0.2216114	-0.60828	0	-93.267	-59.379	5.354	B5-03822-P03-CH1	804728	OK	0.8124608	-0.5147485	0.2737544	0	-99.33	-35.415	15.609	B5-03822-P04-CH0	804728	OK	0.7952075	-0.2988687	0.5275628	0	-119.984	-40.034	13.717	B5-03822-P04-CH1	804728	OK	0.8205311	-0.5714184	0.0144821	0	-108.281	-52.766	13.157	NA
0.669457402008422	B5-03822-P01-CH0	804736	OK	0.2014759	0.0561433	0.0666363	-0.9756101	108.493	-29.991	-288.232	B5-03822-P02-CH0	804736	OK	0.6938503	0.0573485	-0.7178321	0	-73.557	-97.71	-0.701	B5-03822-P02-CH1	804736	OK	0.7628959	-0.2561711	-0.5936044	0	-78.127	-80.845	2.085	B5-03822-P03-CH0	804736	OK	0.7620986	-0.2241375	-0.6074274	0	-92.454	-60.249	5.934	B5-03822-P03-CH1	804736	OK	0.8119953	-0.5157108	0.273324	0	-99.291	-35.343	14.767	B5-03822-P04-CH0	804736	OK	0.7952473	-0.2990315	0.5274105	0	-120.098	-40.03	13.783	B5-03822-P04-CH1	804736	OK	0.8202006	-0.5719061	0.013941	0	-108.557	-52.851	13.142	NA
0.679449303530936	B5-03822-P01-CH0	804744	OK	0.2019851	0.0556049	0.0669874	-0.9755116	108.341	-30.041	-288.279	B5-03822-P02-CH0	804744	OK	0.6943976	0.0572265	-0.7173124	0	-73.274	-97.742	-0.894	B5-03822-P02-CH1	804744	OK	0.7632425	-0.2588709	-0.5919855	0	-78.156	-79.66	1.338	B5-03822-P03-CH0	804744	OK	0.7616156	-0.2259995	-0.6073433	0	-92.813	-60.197	5.197	B5-03822-P03-CH1	804744	OK	0.8121109	-0.5154215	0.2735262	0	-99.12	-35.409	14.48	B5-03822-P04-CH0	804744	OK	0.7952026	-0.2981024	0.5280035	0	-120.015	-40.31	13.744	B5-03822-P04-CH1	804744	OK	0.8203843	-0.5716253	0.0146302	0	-108.253	-53	12.9	NA
0.68944120505345	B5-03822-P01-CH0	804752	OK	0.2019103	0.0558302	0.0660791	-0.9755761	108.422	-30.081	-288.427	B5-03822-P02-CH0	804752	OK	0.6947553	0.0578408	-0.7169167	0	-73.278	-97.796	-0.796	B5-03822-P02-CH1	804752	OK	0.7634371	-0.2566501	-0.592701	0	-77.929	-79.868	1.485	B5-03822-P03-CH0	804752	OK	0.7618987	-0.2272306	-0.6065283	0	-92.251	-60.104	5.366	B5-03822-P03-CH1	804752	OK	0.8115691	-0.5163777	0.2733307	0	-99.106	-35.666	15.017	B5-03822-P04-CH0	804752	OK	0.794987	-0.2980049	0.5283832	0	-120.119	-40.325	13.879	B5-03822-P04-CH1	804752	OK	0.819832	-0.5724158	0.0146829	0	-108.074	-53.094	13.198	NA
0.699433106575964	B5-03822-P01-CH0	804760	OK	0.2021703	0.0556846	0.0668927	-0.9754751	108.37	-29.911	-288.368	B5-03822-P02-CH0	804760	OK	0.6946486	0.057979	-0.7170089	0	-73.486	-97.637	-0.855	B5-03822-P02-CH1	804760	OK	0.76382	-0.2540596	-0.5933235	0	-77.866	-79.679	1.309	B5-03822-P03-CH0	804760	OK	0.7603519	-0.226741	-0.6086489	0	-92.705	-60.182	4.906	B5-03822-P03-CH1	804760	OK	0.8120801	-0.5158446	0.2728192	0	-98.989	-35.461	14.872	B5-03822-P04-CH0	804760	OK	0.7952962	-0.2967651	0.5286156	0	-120.213	-40.32	13.867	B5-03822-P04-CH1	804760	OK	0.8203249	-0.5717117	0.0145857	0	-108.072	-52.979	13.097	NA
0.709425008098478	B5-03822-P01-CH0	804768	OK	0.20226	0.0554075	0.0671526	-0.9754545	108.291	-29.902	-288.483	B5-03822-P02-CH0	804768	OK	0.6951344	0.0586489	-0.7164834	0	-73.401	-97.542	-0.925	B5-03822-P02-CH1	804768	OK	0.7642493	-0.2512331	-0.5939739	0	-77.679	-79.525	1.182	B5-03822-P03-CH0	804768	OK	0.760831	-0.2260318	-0.6083139	0	-91.973	-59.603	3.993	B5-03822-P03-CH1	804768	OK	0.8124646	-0.5155298	0.2722689	0	-98.887	-35.281	14.96	B5-03822-P04-CH0	804768	OK	0.7950791	-0.2963009	0.5292022	0	-119.972	-40.267	13.787	B5-03822-P04-CH1	804768	OK	0.8204105	-0.5715907	0.0145163	0	-107.985	-53.012	13.074	NA
0.719416909620991	B5-03822-P01-CH0	804776	OK	0.2021965	0.0555284	0.0670562	-0.9754674	108.371	-29.911	-288.483	B5-03822-P02-CH0	804776	OK	0.6991183	0.0681378	-0.711752	0	-73.377	-97.193	0.045	B5-03822-P02-CH1	804776	OK	0.7605722	-0.2357118	-0.6049544	0	-79.583	-80.435	1.775	B5-03822-P03-CH0	804776	OK	0.7593415	-0.2266495	-0.609943	0	-92.251	-59.936	4.96	B5-03822-P03-CH1	804776	OK	0.8126464	-0.5155975	0.2715971	0	-99.115	-35.273	15.005	B5-03822-P04-CH0	804776	OK	0.7951521	-0.2958675	0.5293351	0	-120.13	-40.255	13.719	B5-03822-P04-CH1	804776	OK	0.8202705	-0.5717919	0.0145046	0	-108.038	-53.032	12.758	NA
0.729408811143505	B5-03822-P01-CH0	804784	OK	0.2020181	0.0558635	0.0668748	-0.9754977	108.558	-29.913	-288.574	B5-03822-P02-CH0	804784	OK	0.6980381	0.0732269	-0.7123065	0	-74.744	-97.437	-0.088	B5-03822-P02-CH1	804784	OK	0.7628047	-0.2354348	-0.6022453	0	-77.756	-80.904	4.219	B5-03822-P03-CH0	804784	OK	0.7603518	-0.2300059	-0.6074228	0	-92.005	-60.442	4.953	B5-03822-P03-CH1	804784	OK	0.8125324	-0.5160272	0.2711219	0	-99.123	-35.249	14.905	B5-03822-P04-CH0	804784	OK	0.7953675	-0.2955596	0.5291833	0	-120.433	-40.31	13.753	B5-03822-P04-CH1	804784	OK	0.8200698	-0.5720853	0.0142772	0	-108.04	-53.141	12.923	NA
0.739400712666019	B5-03822-P01-CH0	804792	OK	0.2023654	0.0557041	0.0678743	-0.9753658	108.573	-29.826	-288.529	B5-03822-P02-CH0	804792	OK	0.6984062	0.0755249	-0.7117055	0	-74.938	-97.714	-0.025	B5-03822-P02-CH1	804792	OK	0.7631956	-0.2297934	-0.6039267	0	-78.146	-78.818	-0.039	B5-03822-P03-CH0	804792	OK	0.7611051	-0.2274203	-0.607453	0	-92.802	-60.233	5.467	B5-03822-P03-CH1	804792	OK	0.8130287	-0.5152358	0.2711391	0	-99.075	-35.426	15.028	B5-03822-P04-CH0	804792	OK	0.7955913	-0.2948554	0.5292398	0	-120.273	-40.002	13.285	B5-03822-P04-CH1	804792	OK	0.8206749	-0.5712029	0.0148297	0	-107.871	-53.173	12.81	NA
0.749392614188533	B5-03822-P01-CH0	804800	OK	0.2024574	0.0557361	0.0675039	-0.9753705	108.625	-29.888	-288.618	B5-03822-P02-CH0	804800	OK	0.6994519	0.0769503	-0.710525	0	-74.754	-97.14	-0.116	B5-03822-P02-CH1	804800	OK	0.7606734	-0.229452	-0.6072296	0	-79.054	-80.489	2.252	B5-03822-P03-CH0	804800	OK	0.7612135	-0.2290948	-0.6066874	0	-92.743	-60.387	5.063	B5-03822-P03-CH1	804800	OK	0.8128847	-0.5154771	0.2711123	0	-99.194	-35.707	15.301	B5-03822-P04-CH0	804800	OK	0.7955996	-0.2944575	0.5294489	0	-120.291	-40.23	13.578	B5-03822-P04-CH1	804800	OK	0.8203198	-0.5717079	0.0150196	0	-107.842	-53.469	13.042	NA
0.759384515711046	B5-03822-P01-CH0	804808	OK	0.2026545	0.0556962	0.0674085	-0.9753385	108.607	-29.881	-288.61	B5-03822-P02-CH0	804808	OK	0.6990118	0.078713	-0.7107649	0	-75.311	-97.849	0.959	B5-03822-P02-CH1	804808	OK	0.7631138	-0.22885	-0.6043882	0	-76.933	-81.407	0.766	B5-03822-P03-CH0	804808	OK	0.7615653	-0.2312622	-0.6054223	0	-92.728	-60.421	4.917	B5-03822-P03-CH1	804808	OK	0.8129173	-0.515494	0.2709821	0	-99.306	-35.889	15.5	B5-03822-P04-CH0	804808	OK	0.7957396	-0.2939001	0.5295481	0	-120.225	-40.262	13.878	B5-03822-P04-CH1	804808	OK	0.8204161	-0.5715689	0.0150461	0	-107.858	-53.385	13.051	NA
0.76937641723356	B5-03822-P01-CH0	804816	OK	0.2025738	0.0556488	0.066965	-0.9753885	108.566	-29.973	-288.522	B5-03822-P02-CH0	804816	OK	0.7014661	0.0813743	-0.7080421	0	-74.419	-98.497	-0.716	B5-03822-P02-CH1	804816	OK	0.7630594	-0.2265837	-0.6053099	0	-77.307	-79.787	-0.172	B5-03822-P03-CH0	804816	OK	0.7653552	-0.242759	-0.59607	0	-92.915	-60.995	5.291	B5-03822-P03-CH1	804816	OK	0.8125899	-0.5159827	0.2710342	0	-99.353	-36.147	15.452	B5-03822-P04-CH0	804816	OK	0.7958653	-0.2937558	0.5294393	0	-120.199	-40.282	14.01	B5-03822-P04-CH1	804816	OK	0.8203521	-0.5716608	0.0150458	0	-107.734	-53.35	13.173	NA
0.779368318756074	B5-03822-P01-CH0	804824	OK	0.2027164	0.0563312	0.0669474	-0.9753209	108.817	-29.862	-288.414	B5-03822-P02-CH0	804824	OK	0.7034827	0.082443	-0.7059144	0	-73.717	-97.797	-1.471	B5-03822-P02-CH1	804824	OK	0.7627324	-0.2338616	-0.6029494	0	-78.012	-80.127	1.207	B5-03822-P03-CH0	804824	OK	0.7661206	-0.2440038	-0.5945766	0	-93.008	-60.716	5.284	B5-03822-P03-CH1	804824	OK	0.8129789	-0.5156379	0.2705233	0	-99.905	-36.138	15.757	B5-03822-P04-CH0	804824	OK	0.7963212	-0.2934827	0.528905	0	-120.397	-40.238	14.077	B5-03822-P04-CH1	804824	OK	0.8202236	-0.5718504	0.0148442	0	-108.038	-53.478	13.337	NA
0.789360220278588	B5-03822-P01-CH0	804832	OK	0.2026876	0.0560952	0.0674368	-0.9753068	108.765	-29.795	-288.4	B5-03822-P02-CH0	804832	OK	0.7028048	0.0850096	-0.7062852	0	-74.559	-97.217	-1.061	B5-03822-P02-CH1	804832	OK	0.7625489	-0.2313641	-0.6041439	0	-78.12	-80.108	1.387	B5-03822-P03-CH0	804832	OK	0.7676067	-0.2445276	-0.5924409	0	-93.467	-59.863	5.133	B5-03822-P03-CH1	804832	OK	0.8130429	-0.5156284	0.2703489	0	-99.831	-35.933	15.132	B5-03822-P04-CH0	804832	OK	0.7964865	-0.2933943	0.5287051	0	-120.352	-40.145	13.803	B5-03822-P04-CH1	804832	OK	0.8204694	-0.5715023	0.01467	0	-108.123	-53.465	13.181	NA
0.799352121801101	B5-03822-P01-CH0	804840	OK	0.2027571	0.0560253	0.0676051	-0.9752847	108.826	-29.822	-288.565	B5-03822-P02-CH0	804840	OK	0.7034125	0.087555	-0.7053687	0	-74.941	-97.824	-1.272	B5-03822-P02-CH1	804840	OK	0.7624258	-0.2295302	-0.6049982	0	-78.202	-80.196	1.471	B5-03822-P03-CH0	804840	OK	0.7694757	-0.245506	-0.5896049	0	-93.34	-59.789	5.785	B5-03822-P03-CH1	804840	OK	0.8129699	-0.5155672	0.2706849	0	-99.618	-35.847	14.955	B5-03822-P04-CH0	804840	OK	0.7964985	-0.293434	0.528665	0	-120.272	-40.24	13.796	B5-03822-P04-CH1	804840	OK	0.8205429	-0.5713934	0.0148005	0	-108.14	-53.584	13.204	NA
0.809344023323615	B5-03822-P01-CH0	804848	OK	0.2026278	0.0560838	0.066847	-0.9753605	108.801	-29.899	-288.402	B5-03822-P02-CH0	804848	OK	0.7035484	0.0904186	-0.7048717	0	-75.551	-98.148	-0.271	B5-03822-P02-CH1	804848	OK	0.7623555	-0.2281448	-0.6056105	0	-78.142	-80.279	1.733	B5-03822-P03-CH0	804848	OK	0.7716409	-0.2498233	-0.5849433	0	-92.421	-60.425	4.968	B5-03822-P03-CH1	804848	OK	0.8123629	-0.5164507	0.2708233	0	-99.21	-35.653	14.625	B5-03822-P04-CH0	804848	OK	0.7964112	-0.2936417	0.5286811	0	-120.298	-40.151	13.637	B5-03822-P04-CH1	804848	OK	0.8200822	-0.5720543	0.0147992	0	-108.168	-53.637	13.095	NA
0.819335924846129	B5-03822-P01-CH0	804856	OK	0.2027863	0.0562269	0.0668478	-0.9753192	108.892	-29.926	-288.413	B5-03822-P02-CH0	804856	OK	0.7051751	0.094094	-0.702762	0	-75.149	-98.335	-1.344	B5-03822-P02-CH1	804856	OK	0.7625575	-0.2267783	-0.6058694	0	-78.08	-80.221	1.435	B5-03822-P03-CH0	804856	OK	0.7712169	-0.2514129	-0.5848214	0	-92.963	-60.193	5.414	B5-03822-P03-CH1	804856	OK	0.8121718	-0.5166821	0.270955	0	-99.379	-36.017	14.732	B5-03822-P04-CH0	804856	OK	0.7965463	-0.2932417	0.5286996	0	-120.275	-40.134	13.702	B5-03822-P04-CH1	804856	OK	0.8200436	-0.5721053	0.0149697	0	-108.252	-53.822	13.31	NA
0.829327826368643	B5-03822-P01-CH0	804864	OK	0.2031573	0.05597	0.0673527	-0.9752221	108.806	-29.885	-288.379	B5-03822-P02-CH0	804864	OK	0.7054467	0.0977561	-0.7019891	0	-75.305	-98.011	0.395	B5-03822-P02-CH1	804864	OK	0.7622975	-0.2256151	-0.6066303	0	-78.182	-80.288	1.13	B5-03822-P03-CH0	804864	OK	0.770914	-0.2532848	-0.5844129	0	-92.938	-59.827	4.831	B5-03822-P03-CH1	804864	OK	0.8124469	-0.5161258	0.2711902	0	-99.678	-36.267	15.008	B5-03822-P04-CH0	804864	OK	0.7966111	-0.2925384	0.5289915	0	-120.209	-40.206	13.544	B5-03822-P04-CH1	804864	OK	0.8203831	-0.5716061	0.015428	0	-108.212	-53.855	13.212	NA
0.839319727891156	B5-03822-P01-CH0	804872	OK	0.2031139	0.0556183	0.0674799	-0.9752424	108.549	-29.761	-288.287	B5-03822-P02-CH0	804872	OK	0.7058642	0.100593	-0.7011681	0	-75.648	-97.573	-0.174	B5-03822-P02-CH1	804872	OK	0.7626784	-0.2241371	-0.6066994	0	-77.893	-80.048	1.194	B5-03822-P03-CH0	804872	OK	0.7697532	-0.2548352	-0.5852684	0	-92.886	-60.532	5.952	B5-03822-P03-CH1	804872	OK	0.8124114	-0.5163625	0.2708459	0	-99.218	-35.507	14.133	B5-03822-P04-CH0	804872	OK	0.7965335	-0.2921984	0.5292962	0	-120.04	-40.173	13.847	B5-03822-P04-CH1	804872	OK	0.8206231	-0.571264	0.0153329	0	-108.046	-53.532	13.095	NA
