Wav.Time	B5.03822.P01.CH0	Frame	State	Q0	Qx	Qy	Qz	Tx	Ty	Tz	B5.03822.P02.CH0	Frame.1	State.1	Q0.1	Qx.1	Qy.1	Qz.1	Tx.1	Ty.1	Tz.1	B5.03822.P02.CH1	Frame.2	State.2	Q0.2	Qx.2	Qy.2	Qz.2	Tx.2	Ty.2	Tz.2	B5.03822.P03.CH0	Frame.3	State.3	Q0.3	Qx.3	Qy.3	Qz.3	Tx.3	Ty.3	Tz.3	B5.03822.P03.CH1	Frame.4	State.4	Q0.4	Qx.4	Qy.4	Qz.4	Tx.4	Ty.4	Tz.4	B5.03822.P04.CH0	Frame.5	State.5	Q0.5	Qx.5	Qy.5	Qz.5	Tx.5	Ty.5	Tz.5	B5.03822.P04.CH1	Frame.6	State.6	Q0.6	Qx.6	Qy.6	Qz.6	Tx.6	Ty.6	Tz.6	X
0	B5-03822-P01-CH0	1439784	OK	0.1794329	0.1313086	0.0663958	-0.9727042	160.363	-51.733	-230.245	B5-03822-P02-CH0	1439784	OK	0.7201745	0.4395905	-0.5367578	0	-90.173	-90.314	2.285	B5-03822-P02-CH1	1439784	OK	0.7395023	-0.1616286	-0.653462	0	-89.721	-70.641	3.327	B5-03822-P03-CH0	1439784	OK	0.8148889	0.1924863	-0.5467222	0	-103.956	-55.218	15.222	B5-03822-P03-CH1	1439784	OK	0.7697448	-0.6373352	-0.0360115	0	-101.588	-11.044	5.962	B5-03822-P04-CH0	1439784	OK	0.8210778	-0.4576582	0.3411456	0	-124.646	-25.538	12.648	B5-03822-P04-CH1	1439784	OK	0.793298	-0.6079764	0.0322943	0	-113.225	-33.998	4.596	NA
0.00999188152627306	B5-03822-P01-CH0	1439792	OK	0.1795432	0.13115	0.0665222	-0.9726966	160.371	-51.78	-230.344	B5-03822-P02-CH0	1439792	OK	0.7184869	0.4361354	-0.541814	0	-90.13	-90.461	2.465	B5-03822-P02-CH1	1439792	OK	0.7394144	-0.1608616	-0.6537506	0	-89.45	-71.082	3.704	B5-03822-P03-CH0	1439792	OK	0.8160713	0.1916182	-0.5452614	0	-104.086	-55.753	15.552	B5-03822-P03-CH1	1439792	OK	0.7699856	-0.6370415	-0.0360602	0	-101.505	-10.922	5.957	B5-03822-P04-CH0	1439792	OK	0.820054	-0.4603845	0.3399374	0	-124.794	-28.028	14.719	B5-03822-P04-CH1	1439792	OK	0.7933439	-0.6079185	0.0322579	0	-113.168	-34.145	4.851	NA
0.0199837630525461	B5-03822-P01-CH0	1439800	OK	0.1795828	0.1311997	0.0664902	-0.9726848	160.391	-51.842	-230.302	B5-03822-P02-CH0	1439800	OK	0.7175404	0.433448	-0.5452143	0	-89.871	-90.642	1.284	B5-03822-P02-CH1	1439800	OK	0.7375585	-0.1607677	-0.6558668	0	-89.705	-71.793	4.499	B5-03822-P03-CH0	1439800	OK	0.8173343	0.1893423	-0.5441637	0	-104.324	-55.948	15.747	B5-03822-P03-CH1	1439800	OK	0.7695804	-0.6375527	-0.0356741	0	-101.567	-11.234	6.025	B5-03822-P04-CH0	1439800	OK	0.8201568	-0.462922	0.3362231	0	-123.714	-26.239	13.209	B5-03822-P04-CH1	1439800	OK	0.7933061	-0.6079796	0.0320335	0	-113.102	-34.258	4.948	NA
0.0299756445788192	B5-03822-P01-CH0	1439808	OK	0.1796215	0.131101	0.0666254	-0.9726817	160.397	-51.834	-230.286	B5-03822-P02-CH0	1439808	OK	0.7165244	0.4311298	-0.5483794	0	-89.559	-90.537	1.529	B5-03822-P02-CH1	1439808	OK	0.7387112	-0.1629719	-0.6540229	0	-89.262	-70.883	4.282	B5-03822-P03-CH0	1439808	OK	0.8201803	0.1845067	-0.5415363	0	-104.524	-56.311	16.008	B5-03822-P03-CH1	1439808	OK	0.7695902	-0.637518	-0.03608	0	-101.532	-11.209	6.081	B5-03822-P04-CH0	1439808	OK	0.8205118	-0.4637619	0.3341935	0	-123.406	-25.162	12.64	B5-03822-P04-CH1	1439808	OK	0.7934585	-0.6078049	0.0315705	0	-112.978	-34.116	4.809	NA
0.0399675261050922	B5-03822-P01-CH0	1439816	OK	0.1796769	0.1311268	0.0667299	-0.9726608	160.409	-51.858	-230.205	B5-03822-P02-CH0	1439816	OK	0.7154723	0.4288479	-0.5515332	0	-89.522	-91.068	0.443	B5-03822-P02-CH1	1439816	OK	0.7343242	-0.1556936	-0.6607022	0	-89.094	-72.061	3.71	B5-03822-P03-CH0	1439816	OK	0.825075	0.1778648	-0.5362978	0	-104.371	-56.477	15.775	B5-03822-P03-CH1	1439816	OK	0.7695439	-0.6375531	-0.0364437	0	-101.526	-11.223	6.002	B5-03822-P04-CH0	1439816	OK	0.8201172	-0.4636854	0.3352666	0	-122.941	-25.195	13.182	B5-03822-P04-CH1	1439816	OK	0.7934646	-0.6078057	0.0314041	0	-113.098	-34.191	4.721	NA
0.0499594076313653	B5-03822-P01-CH0	1439824	OK	0.1797605	0.1312558	0.066867	-0.9726186	160.479	-51.842	-230.169	B5-03822-P02-CH0	1439824	OK	0.7139524	0.4266249	-0.5552145	0	-89.68	-91.682	0.531	B5-03822-P02-CH1	1439824	OK	0.7314969	-0.1548962	-0.6640177	0	-88.702	-72.222	3.338	B5-03822-P03-CH0	1439824	OK	0.8275143	0.1641049	-0.5369262	0	-105.305	-56.592	14.994	B5-03822-P03-CH1	1439824	OK	0.7696699	-0.6373512	-0.0373066	0	-101.481	-10.99	5.712	B5-03822-P04-CH0	1439824	OK	0.8206519	-0.4621079	0.336135	0	-123.347	-24.563	12.075	B5-03822-P04-CH1	1439824	OK	0.7934084	-0.6078794	0.0313979	0	-113.238	-34.488	5.224	NA
0.0599512891576384	B5-03822-P01-CH0	1439832	OK	0.1793926	0.1313432	0.0661374	-0.9727246	160.421	-51.942	-229.995	B5-03822-P02-CH0	1439832	OK	0.712693	0.4261317	-0.5572078	0	-89.175	-91.415	0.187	B5-03822-P02-CH1	1439832	OK	0.7282459	-0.1557557	-0.6673815	0	-88.229	-72.655	3.526	B5-03822-P03-CH0	1439832	OK	0.8315456	0.153777	-0.5337457	0	-104.758	-57.084	15.735	B5-03822-P03-CH1	1439832	OK	0.7685535	-0.6386735	-0.0377056	0	-101.607	-11.377	5.766	B5-03822-P04-CH0	1439832	OK	0.8196532	-0.460683	0.3404995	0	-123.007	-26.045	13.458	B5-03822-P04-CH1	1439832	OK	0.793018	-0.6084221	0.0307399	0	-113.109	-34.374	5.003	NA
0.0699431706839114	B5-03822-P01-CH0	1439840	OK	0.1797891	0.1314122	0.0667027	-0.9726034	160.522	-51.917	-229.984	B5-03822-P02-CH0	1439840	OK	0.7102878	0.4248356	-0.5612539	0	-89.337	-92.478	0.487	B5-03822-P02-CH1	1439840	OK	0.7250694	-0.156123	-0.6707458	0	-87.972	-72.991	3.456	B5-03822-P03-CH0	1439840	OK	0.8336819	0.1461222	-0.5325625	0	-104.709	-57.524	16.071	B5-03822-P03-CH1	1439840	OK	0.7686398	-0.6385616	-0.0378423	0	-101.692	-11.563	5.934	B5-03822-P04-CH0	1439840	OK	0.8201895	-0.4572875	0.3437692	0	-123.22	-26.714	14.194	B5-03822-P04-CH1	1439840	OK	0.7933446	-0.6080014	0.0306357	0	-113.087	-34.475	4.942	NA
0.0799350522101845	B5-03822-P01-CH0	1439848	OK	0.1797847	0.1314258	0.0666179	-0.9726082	160.565	-51.942	-229.999	B5-03822-P02-CH0	1439848	OK	0.709419	0.4252914	-0.5620071	0	-88.643	-92.513	-0.2	B5-03822-P02-CH1	1439848	OK	0.7228575	-0.1571959	-0.6728793	0	-87.582	-73.913	3.241	B5-03822-P03-CH0	1439848	OK	0.8335953	0.1383974	-0.534757	0	-105.405	-58.212	15.55	B5-03822-P03-CH1	1439848	OK	0.76842	-0.6387913	-0.0384232	0	-101.713	-11.643	6.096	B5-03822-P04-CH0	1439848	OK	0.8206068	-0.4596568	0.3395882	0	-123.716	-25.95	13.174	B5-03822-P04-CH1	1439848	OK	0.793392	-0.607965	0.0301279	0	-113.101	-34.441	5.008	NA
0.0899269337364575	B5-03822-P01-CH0	1439856	OK	0.1798414	0.1315143	0.0666777	-0.9725817	160.571	-51.868	-229.921	B5-03822-P02-CH0	1439856	OK	0.7069609	0.4242581	-0.5658721	0	-88.561	-92.896	-0.233	B5-03822-P02-CH1	1439856	OK	0.7219035	-0.1605355	-0.6731149	0	-87.046	-74.059	2.715	B5-03822-P03-CH0	1439856	OK	0.8347427	0.1332316	-0.5342789	0	-105.202	-58.929	15.985	B5-03822-P03-CH1	1439856	OK	0.7683861	-0.638788	-0.0391494	0	-101.711	-11.587	6.133	B5-03822-P04-CH0	1439856	OK	0.8205379	-0.459324	0.3402044	0	-123.61	-25.885	13	B5-03822-P04-CH1	1439856	OK	0.7937041	-0.6075919	0.0294241	0	-112.985	-34.096	4.752	NA
0.0999188152627306	B5-03822-P01-CH0	1439864	OK	0.1797896	0.1315249	0.0663495	-0.9726123	160.603	-51.94	-229.936	B5-03822-P02-CH0	1439864	OK	0.704909	0.4234601	-0.569021	0	-88.289	-93.567	-0.255	B5-03822-P02-CH1	1439864	OK	0.7200259	-0.1667186	-0.6736228	0	-87.228	-74.522	2.756	B5-03822-P03-CH0	1439864	OK	0.8352831	0.1288702	-0.5345041	0	-105.116	-59.39	15.587	B5-03822-P03-CH1	1439864	OK	0.7681349	-0.6390343	-0.0400507	0	-101.681	-11.697	6.258	B5-03822-P04-CH0	1439864	OK	0.8205353	-0.4515709	0.3504361	0	-121.398	-23.582	11.591	B5-03822-P04-CH1	1439864	OK	0.7935412	-0.6078214	0.0290783	0	-112.892	-34.158	4.79	NA
0.109910696789004	B5-03822-P01-CH0	1439872	OK	0.179606	0.1317931	0.0658609	-0.9726431	160.63	-51.917	-229.769	B5-03822-P02-CH0	1439872	OK	0.7017503	0.4229428	-0.5732939	0	-88.829	-94.573	1.232	B5-03822-P02-CH1	1439872	OK	0.7192793	-0.1729378	-0.6728519	0	-86.998	-74.651	2.675	B5-03822-P03-CH0	1439872	OK	0.8345938	0.1242696	-0.5366659	0	-105.628	-60.187	16.314	B5-03822-P03-CH1	1439872	OK	0.7678864	-0.639253	-0.0413047	0	-101.712	-11.598	6.253	B5-03822-P04-CH0	1439872	OK	0.8197993	-0.4480532	0.3566194	0	-121.951	-24.847	12.207	B5-03822-P04-CH1	1439872	OK	0.7932436	-0.6082369	0.028504	0	-112.824	-34.086	4.669	NA
0.119902578315277	B5-03822-P01-CH0	1439880	OK	0.1797344	0.1319183	0.0660168	-0.9725918	160.701	-51.836	-229.711	B5-03822-P02-CH0	1439880	OK	0.7004912	0.4227697	-0.5749591	0	-88.055	-94.967	-1.063	B5-03822-P02-CH1	1439880	OK	0.7176277	-0.1799933	-0.6727651	0	-87.577	-74.786	2.503	B5-03822-P03-CH0	1439880	OK	0.8345516	0.1217247	-0.5373143	0	-106.244	-60.326	15.856	B5-03822-P03-CH1	1439880	OK	0.7682919	-0.6386902	-0.0424536	0	-101.664	-11.395	6.323	B5-03822-P04-CH0	1439880	OK	0.8203048	-0.4422349	0.3626685	0	-123.343	-26.265	13.337	B5-03822-P04-CH1	1439880	OK	0.7934044	-0.6080321	0.0283986	0	-112.822	-34.059	4.632	NA
0.12989445984155	B5-03822-P01-CH0	1439888	OK	0.1796883	0.132033	0.065605	-0.9726127	160.727	-51.809	-229.648	B5-03822-P02-CH0	1439888	OK	0.6973866	0.4220991	-0.57921	0	-87.04	-94.361	-0.995	B5-03822-P02-CH1	1439888	OK	0.7199271	-0.1881192	-0.668069	0	-86.529	-75.061	2.078	B5-03822-P03-CH0	1439888	OK	0.8383827	0.119364	-0.5318521	0	-106.094	-61.443	16.649	B5-03822-P03-CH1	1439888	OK	0.7680134	-0.6389504	-0.0435643	0	-101.591	-11.437	6.365	B5-03822-P04-CH0	1439888	OK	0.8205806	-0.4380144	0.3671388	0	-122.627	-25.63	14.249	B5-03822-P04-CH1	1439888	OK	0.793349	-0.6081088	0.0283044	0	-112.951	-34.001	4.743	NA
0.139886341367823	B5-03822-P01-CH0	1439896	OK	0.1796326	0.1319825	0.0652994	-0.9726504	160.703	-51.743	-229.599	B5-03822-P02-CH0	1439896	OK	0.6930404	0.4189316	-0.5866783	0	-87.484	-95.496	-0.292	B5-03822-P02-CH1	1439896	OK	0.7225243	-0.1943115	-0.6634769	0	-86.657	-75.562	2.324	B5-03822-P03-CH0	1439896	OK	0.8434653	0.1203714	-0.5235237	0	-106.59	-62.493	16.776	B5-03822-P03-CH1	1439896	OK	0.7684692	-0.6377441	-0.0523218	0	-100.862	-11.079	6.291	B5-03822-P04-CH0	1439896	OK	0.8202093	-0.4317048	0.3753501	0	-123.869	-27.277	13.605	B5-03822-P04-CH1	1439896	OK	0.7932771	-0.608205	0.0282495	0	-112.857	-33.934	4.791	NA
0.149878222894096	B5-03822-P01-CH0	1439904	OK	0.1797543	0.13194	0.0650809	-0.9726483	160.694	-51.678	-229.499	B5-03822-P02-CH0	1439904	OK	0.6899445	0.4145623	-0.5933925	0	-87.031	-95.921	-0.631	B5-03822-P02-CH1	1439904	OK	0.7267301	-0.2002261	-0.6570943	0	-85.921	-76.419	2.611	B5-03822-P03-CH0	1439904	OK	0.8491479	0.123737	-0.513456	0	-106.656	-63.09	17.186	B5-03822-P03-CH1	1439904	OK	0.7689921	-0.6368991	-0.0548693	0	-100.481	-10.366	5.743	B5-03822-P04-CH0	1439904	OK	0.8210969	-0.4232367	0.3829758	0	-123.901	-26.305	13.213	B5-03822-P04-CH1	1439904	OK	0.793394	-0.6080454	0.0284044	0	-112.835	-33.69	4.305	NA
0.159870104420369	B5-03822-P01-CH0	1439912	OK	0.180155	0.1320458	0.0655045	-0.9725314	160.763	-51.459	-229.446	B5-03822-P02-CH0	1439912	OK	0.686981	0.4071231	-0.6019202	0	-86.433	-96.452	-0.181	B5-03822-P02-CH1	1439912	OK	0.7303275	-0.206543	-0.6511234	0	-86.295	-76.682	3.043	B5-03822-P03-CH0	1439912	OK	0.854051	0.1257341	-0.5047652	0	-107.244	-63.41	17.709	B5-03822-P03-CH1	1439912	OK	0.7683927	-0.637633	-0.0547426	0	-101.068	-11.088	6.831	B5-03822-P04-CH0	1439912	OK	0.8215734	-0.4142724	0.3916573	0	-124.413	-26.672	13.707	B5-03822-P04-CH1	1439912	OK	0.7936682	-0.6076556	0.0290782	0	-113.018	-33.783	4.491	NA
0.169861985946642	B5-03822-P01-CH0	1439920	OK	0.1801857	0.1319574	0.0654707	-0.9725399	160.729	-51.34	-229.415	B5-03822-P02-CH0	1439920	OK	0.6841551	0.3991227	-0.6104367	0	-85.919	-97.175	-0.903	B5-03822-P02-CH1	1439920	OK	0.7352405	-0.2124535	-0.6436497	0	-86.289	-76.793	2.887	B5-03822-P03-CH0	1439920	OK	0.8596738	0.1243765	-0.4954709	0	-107.612	-63.758	17.459	B5-03822-P03-CH1	1439920	OK	0.7660683	-0.6402473	-0.0567688	0	-101.444	-12.09	6.797	B5-03822-P04-CH0	1439920	OK	0.821243	-0.406677	0.400217	0	-125.109	-27.416	13.68	B5-03822-P04-CH1	1439920	OK	0.7937542	-0.6075167	0.0296249	0	-113.018	-33.752	4.514	NA
0.179853867472915	B5-03822-P01-CH0	1439928	OK	0.1804006	0.1319635	0.065075	-0.9725258	160.733	-51.279	-229.35	B5-03822-P02-CH0	1439928	OK	0.6795202	0.3918424	-0.6202514	0	-85.248	-96.945	0.126	B5-03822-P02-CH1	1439928	OK	0.7389121	-0.2195693	-0.6370229	0	-86.553	-77.714	4.113	B5-03822-P03-CH0	1439928	OK	0.8652184	0.1186649	-0.4871506	0	-107.642	-64.452	17.972	B5-03822-P03-CH1	1439928	OK	0.7643124	-0.6419721	-0.0608141	0	-101.668	-12.76	7.251	B5-03822-P04-CH0	1439928	OK	0.8217898	-0.3986729	0.407089	0	-125.065	-25.667	13.066	B5-03822-P04-CH1	1439928	OK	0.79367	-0.6075882	0.0304066	0	-113.096	-33.72	4.23	NA
0.189845748999188	B5-03822-P01-CH0	1439936	OK	0.1805271	0.1318362	0.0648334	-0.9725358	160.743	-51.262	-229.36	B5-03822-P02-CH0	1439936	OK	0.6757881	0.3847365	-0.6287196	0	-84.477	-96.937	-0.672	B5-03822-P02-CH1	1439936	OK	0.7432703	-0.2261365	-0.6296122	0	-86.298	-77.718	3.887	B5-03822-P03-CH0	1439936	OK	0.8699981	0.1149417	-0.4794702	0	-107.956	-64.525	17.932	B5-03822-P03-CH1	1439936	OK	0.7651091	-0.6403187	-0.0678237	0	-101.268	-11.247	7.368	B5-03822-P04-CH0	1439936	OK	0.8208718	-0.3910348	0.4162467	0	-124.756	-25.56	12.978	B5-03822-P04-CH1	1439936	OK	0.7934834	-0.6077779	0.0314657	0	-113.213	-34.021	4.378	NA
0.199837630525461	B5-03822-P01-CH0	1439944	OK	0.1809078	0.1320383	0.0648867	-0.9724341	160.83	-51.118	-229.244	B5-03822-P02-CH0	1439944	OK	0.6712489	0.3772395	-0.6380559	0	-84.064	-97.226	-1.046	B5-03822-P02-CH1	1439944	OK	0.7468661	-0.23307	-0.6227916	0	-85.864	-77.46	3.561	B5-03822-P03-CH0	1439944	OK	0.8751277	0.1114086	-0.4708925	0	-107.717	-64.345	18.252	B5-03822-P03-CH1	1439944	OK	0.7643149	-0.6405794	-0.074032	0	-101.497	-10.277	6.42	B5-03822-P04-CH0	1439944	OK	0.8205984	-0.3820298	0.4250548	0	-125.84	-27.008	14.074	B5-03822-P04-CH1	1439944	OK	0.7936025	-0.6075523	0.0327907	0	-113.488	-34.164	4.443	NA
0.209829512051734	B5-03822-P01-CH0	1439952	OK	0.1809558	0.1320837	0.0646574	-0.9724342	160.89	-51.109	-229.252	B5-03822-P02-CH0	1439952	OK	0.6667641	0.3714347	-0.6461129	0	-83.609	-97.148	-0.153	B5-03822-P02-CH1	1439952	OK	0.7492375	-0.2394807	-0.6174886	0	-86.079	-78.047	3.514	B5-03822-P03-CH0	1439952	OK	0.8788704	0.1006056	-0.4663318	0	-108.216	-65.355	18.554	B5-03822-P03-CH1	1439952	OK	0.7611139	-0.6440004	-0.0772596	0	-102.019	-11.412	6.271	B5-03822-P04-CH0	1439952	OK	0.8206793	-0.374091	0.4319045	0	-126.885	-27.373	14.272	B5-03822-P04-CH1	1439952	OK	0.7935432	-0.607572	0.0338451	0	-113.714	-34.346	4.513	NA
0.219821393578007	B5-03822-P01-CH0	1439960	OK	0.1809787	0.1320725	0.0642955	-0.9724555	160.89	-51.049	-229.225	B5-03822-P02-CH0	1439960	OK	0.6645673	0.367697	-0.6504992	0	-82.989	-97.351	-0.728	B5-03822-P02-CH1	1439960	OK	0.753258	-0.245005	-0.6103891	0	-85.624	-77.816	4.158	B5-03822-P03-CH0	1439960	OK	0.8810108	0.0924216	-0.4639808	0	-108.816	-65.669	18.183	B5-03822-P03-CH1	1439960	OK	0.7595511	-0.6450438	-0.0836701	0	-102.11	-10.499	6.309	B5-03822-P04-CH0	1439960	OK	0.8203913	-0.3667586	0.4386868	0	-127.401	-28.097	15.855	B5-03822-P04-CH1	1439960	OK	0.7933705	-0.6077224	0.035168	0	-113.967	-34.521	4.727	NA
0.22981327510428	B5-03822-P01-CH0	1439968	OK	0.1813791	0.1320025	0.0648177	-0.9723557	160.955	-50.949	-229.258	B5-03822-P02-CH0	1439968	OK	0.6618395	0.3669234	-0.6537092	0	-82.739	-97.479	-0.11	B5-03822-P02-CH1	1439968	OK	0.7555339	-0.249844	-0.605596	0	-85.807	-78.189	4.596	B5-03822-P03-CH0	1439968	OK	0.8829311	0.0937712	-0.4600431	0	-108.499	-65.298	18.674	B5-03822-P03-CH1	1439968	OK	0.7593438	-0.6445108	-0.0894589	0	-102.134	-9.221	6.59	B5-03822-P04-CH0	1439968	OK	0.8203533	-0.3604901	0.4439227	0	-127.974	-27.503	14.411	B5-03822-P04-CH1	1439968	OK	0.7937842	-0.6070947	0.0366429	0	-114.046	-34.572	4.436	NA
0.239805156630553	B5-03822-P01-CH0	1439976	OK	0.1817417	0.1318736	0.0654604	-0.9722624	160.968	-50.845	-229.273	B5-03822-P02-CH0	1439976	OK	0.6603801	0.3696844	-0.6536295	0	-82.644	-97.062	-1.18	B5-03822-P02-CH1	1439976	OK	0.7562947	-0.2522332	-0.6036528	0	-86.163	-77.771	3.72	B5-03822-P03-CH0	1439976	OK	0.8827778	0.0909452	-0.4609039	0	-108.839	-65.376	18.8	B5-03822-P03-CH1	1439976	OK	0.7578382	-0.6459149	-0.0920609	0	-102.381	-9.289	6.503	B5-03822-P04-CH0	1439976	OK	0.8205986	-0.3560526	0.4470396	0	-127.819	-26.998	14.473	B5-03822-P04-CH1	1439976	OK	0.794072	-0.606615	0.0383133	0	-114.257	-34.898	4.579	NA
0.249797038156827	B5-03822-P01-CH0	1439984	OK	0.1814025	0.1319718	0.064667	-0.9723655	160.923	-50.891	-229.179	B5-03822-P02-CH0	1439984	OK	0.6604662	0.3759252	-0.6499728	0	-82.634	-97.151	-1.024	B5-03822-P02-CH1	1439984	OK	0.7561364	-0.2543882	-0.6029464	0	-85.394	-77.952	3.938	B5-03822-P03-CH0	1439984	OK	0.8822492	0.0888993	-0.4623129	0	-108.835	-65.418	18.923	B5-03822-P03-CH1	1439984	OK	0.7540303	-0.6501566	-0.0934599	0	-102.589	-10.611	7.48	B5-03822-P04-CH0	1439984	OK	0.820161	-0.3557837	0.4480556	0	-127.759	-27.163	14.927	B5-03822-P04-CH1	1439984	OK	0.7934236	-0.6073984	0.0393214	0	-114.426	-35.233	4.924	NA
0.2597889196831	B5-03822-P01-CH0	1439992	OK	0.1814025	0.1317817	0.0646966	-0.9723894	160.908	-50.888	-229.217	B5-03822-P02-CH0	1439992	OK	0.6608062	0.385639	-0.6439081	0	-83.015	-97.494	-0.823	B5-03822-P02-CH1	1439992	OK	0.7537467	-0.2562611	-0.6051414	0	-85.459	-77.568	3.704	B5-03822-P03-CH0	1439992	OK	0.8821122	0.08492	-0.4633214	0	-108.63	-65.673	18.426	B5-03822-P03-CH1	1439992	OK	0.7528233	-0.6512714	-0.0954078	0	-102.386	-10.538	6.412	B5-03822-P04-CH0	1439992	OK	0.8201161	-0.3559027	0.4480434	0	-128.218	-28.059	15.065	B5-03822-P04-CH1	1439992	OK	0.7934772	-0.6072656	0.0402806	0	-114.564	-35.282	4.694	NA
0.269780801209373	B5-03822-P01-CH0	1440000	OK	0.1812794	0.1318616	0.0643533	-0.9724243	160.905	-50.857	-229.123	B5-03822-P02-CH0	1440000	OK	0.6623733	0.3960452	-0.6359322	0	-83.194	-96.97	-0.148	B5-03822-P02-CH1	1440000	OK	0.7521925	-0.257536	-0.6065324	0	-84.882	-77.264	3.134	B5-03822-P03-CH0	1440000	OK	0.8824528	0.0781935	-0.4638566	0	-108.384	-65.845	17.987	B5-03822-P03-CH1	1440000	OK	0.7516087	-0.6527755	-0.0947022	0	-102.418	-10.786	7.44	B5-03822-P04-CH0	1440000	OK	0.820062	-0.3568359	0.4473997	0	-128.063	-27.268	14.422	B5-03822-P04-CH1	1440000	OK	0.7932376	-0.6075267	0.0410551	0	-114.769	-35.337	4.629	NA
0.279772682735646	B5-03822-P01-CH0	1440008	OK	0.1810558	0.131922	0.0640984	-0.9724746	160.92	-50.851	-229.107	B5-03822-P02-CH0	1440008	OK	0.6660257	0.4073624	-0.6248725	0	-83.372	-96.843	-0.311	B5-03822-P02-CH1	1440008	OK	0.7492831	-0.257995	-0.609929	0	-84.985	-77.901	4.583	B5-03822-P03-CH0	1440008	OK	0.8832416	0.0759758	-0.4627224	0	-107.782	-65.61	18.272	B5-03822-P03-CH1	1440008	OK	0.7520499	-0.6522297	-0.09496	0	-102.35	-9.853	6.586	B5-03822-P04-CH0	1440008	OK	0.8196181	-0.358335	0.4470149	0	-127.718	-26.559	13.914	B5-03822-P04-CH1	1440008	OK	0.7930217	-0.607744	0.041997	0	-114.906	-35.523	4.946	NA
0.289764564261919	B5-03822-P01-CH0	1440016	OK	0.1812616	0.1317059	0.0649008	-0.9724123	160.935	-50.76	-229.236	B5-03822-P02-CH0	1440016	OK	0.6706121	0.4172622	-0.6133284	0	-82.949	-96.119	-0.441	B5-03822-P02-CH1	1440016	OK	0.7487171	-0.2570632	-0.6110166	0	-84.052	-77.691	4.38	B5-03822-P03-CH0	1440016	OK	0.8826003	0.0747104	-0.4641498	0	-107.52	-65.51	19.021	B5-03822-P03-CH1	1440016	OK	0.7517852	-0.6528902	-0.0924848	0	-102.729	-10.567	7.205	B5-03822-P04-CH0	1440016	OK	0.8196832	-0.359279	0.4461369	0	-127.569	-26.553	13.983	B5-03822-P04-CH1	1440016	OK	0.7936513	-0.6068607	0.0428686	0	-115.104	-35.468	5.03	NA
0.299756445788192	B5-03822-P01-CH0	1440024	OK	0.1808357	0.1316648	0.0644624	-0.9725263	160.91	-50.851	-229.281	B5-03822-P02-CH0	1440024	OK	0.6762375	0.4297737	-0.5983288	0	-83.305	-95.83	-0.823	B5-03822-P02-CH1	1440024	OK	0.7451712	-0.2525802	-0.6171897	0	-84.652	-77.064	4.178	B5-03822-P03-CH0	1440024	OK	0.8812798	0.0734265	-0.4668559	0	-107.3	-65.173	19.041	B5-03822-P03-CH1	1440024	OK	0.7526034	-0.6518714	-0.0930156	0	-101.991	-10.175	6.496	B5-03822-P04-CH0	1440024	OK	0.8197566	-0.3611884	0.4444571	0	-128.22	-27.519	14.965	B5-03822-P04-CH1	1440024	OK	0.7934053	-0.6071586	0.043204	0	-115.188	-35.494	5.078	NA
0.309748327314465	B5-03822-P01-CH0	1440032	OK	0.1808594	0.1317775	0.0646446	-0.9724945	160.958	-50.824	-229.262	B5-03822-P02-CH0	1440032	OK	0.6830583	0.4451313	-0.5790419	0	-84.071	-95.769	-1.196	B5-03822-P02-CH1	1440032	OK	0.7419693	-0.244504	-0.6242591	0	-84.564	-76.67	4.004	B5-03822-P03-CH0	1440032	OK	0.878253	0.0727608	-0.4726284	0	-107.524	-64.694	18.465	B5-03822-P03-CH1	1440032	OK	0.7538153	-0.6509353	-0.0896978	0	-102.509	-10.943	6.746	B5-03822-P04-CH0	1440032	OK	0.8199944	-0.3593518	0.4455059	0	-128.179	-27.372	14.621	B5-03822-P04-CH1	1440032	OK	0.7936429	-0.606815	0.0436631	0	-115.357	-35.37	4.878	NA
0.319740208840738	B5-03822-P01-CH0	1440040	OK	0.1808151	0.1316987	0.0648153	-0.9725021	160.896	-50.779	-229.225	B5-03822-P02-CH0	1440040	OK	0.6919429	0.4609959	-0.5556057	0	-85.093	-95.864	-0.78	B5-03822-P02-CH1	1440040	OK	0.7395387	-0.2338394	-0.6311907	0	-83.229	-76.492	3.381	B5-03822-P03-CH0	1440040	OK	0.8780034	0.0694962	-0.4735824	0	-106.518	-64.42	18.999	B5-03822-P03-CH1	1440040	OK	0.7579743	-0.6465563	-0.0862552	0	-102.632	-10.094	7.337	B5-03822-P04-CH0	1440040	OK	0.8199738	-0.3603836	0.4447096	0	-127.831	-26.721	14.29	B5-03822-P04-CH1	1440040	OK	0.7938155	-0.6065743	0.0438702	0	-115.353	-35.202	4.586	NA
0.329732090367011	B5-03822-P01-CH0	1440048	OK	0.1806614	0.1316361	0.0647329	-0.9725446	160.841	-50.771	-229.229	B5-03822-P02-CH0	1440048	OK	0.7033314	0.4763133	-0.5276842	0	-85.408	-94.475	-1.275	B5-03822-P02-CH1	1440048	OK	0.7340685	-0.2183659	-0.6430084	0	-83.193	-75.743	3.181	B5-03822-P03-CH0	1440048	OK	0.8776937	0.0632588	-0.4750285	0	-106.084	-64.268	19.187	B5-03822-P03-CH1	1440048	OK	0.7609422	-0.6432586	-0.084767	0	-102.669	-9.055	6.491	B5-03822-P04-CH0	1440048	OK	0.8200473	-0.3707998	0.4359243	0	-127.988	-27.541	15.949	B5-03822-P04-CH1	1440048	OK	0.793836	-0.6065348	0.0440462	0	-115.419	-35.126	4.699	NA
0.339723971893284	B5-03822-P01-CH0	1440056	OK	0.180377	0.131907	0.0641788	-0.9725974	160.91	-50.856	-229.212	B5-03822-P02-CH0	1440056	OK	0.7171149	0.4863368	-0.499222	0	-86.503	-94.498	-0.036	B5-03822-P02-CH1	1440056	OK	0.7271983	-0.1992669	-0.6568679	0	-83.35	-75.542	3.228	B5-03822-P03-CH0	1440056	OK	0.8769112	0.0592593	-0.4769854	0	-105.642	-63.788	19.098	B5-03822-P03-CH1	1440056	OK	0.7597717	-0.6451957	-0.0804333	0	-102.792	-10.703	5.899	B5-03822-P04-CH0	1440056	OK	0.8198976	-0.3754357	0.4322221	0	-128.154	-26.267	13.866	B5-03822-P04-CH1	1440056	OK	0.793674	-0.606765	0.0437922	0	-115.544	-34.98	4.659	NA
0.349715853419557	B5-03822-P01-CH0	1440064	OK	0.1805037	0.1319441	0.064541	-0.9725449	160.945	-50.841	-229.262	B5-03822-P02-CH0	1440064	OK	0.731267	0.4942013	-0.4701208	0	-87.226	-93.85	-0.878	B5-03822-P02-CH1	1440064	OK	0.7217341	-0.1762188	-0.669363	0	-83.011	-75.242	2.87	B5-03822-P03-CH0	1440064	OK	0.8747105	0.0627349	-0.4805683	0	-105.052	-62.522	18.696	B5-03822-P03-CH1	1440064	OK	0.7613696	-0.6436582	-0.0775919	0	-102.181	-10.883	5.678	B5-03822-P04-CH0	1440064	OK	0.8200177	-0.3771169	0.4305275	0	-128.943	-28.352	15.664	B5-03822-P04-CH1	1440064	OK	0.7938038	-0.6065586	0.0442972	0	-115.654	-35.101	4.663	NA
0.35970773494583	B5-03822-P01-CH0	1440072	OK	0.1802728	0.1320533	0.064408	-0.9725817	160.925	-50.885	-229.294	B5-03822-P02-CH0	1440072	OK	0.743458	0.4966619	-0.4478807	0	-88.921	-93.714	1.835	B5-03822-P02-CH1	1440072	OK	0.7167619	-0.1515146	-0.6806583	0	-82.894	-75.362	3.281	B5-03822-P03-CH0	1440072	OK	0.8711594	0.0648193	-0.4867029	0	-105.178	-62.198	18.416	B5-03822-P03-CH1	1440072	OK	0.7642631	-0.6404776	-0.0754339	0	-102.371	-10.033	6.145	B5-03822-P04-CH0	1440072	OK	0.819837	-0.3818482	0.426684	0	-128.867	-28.078	15.102	B5-03822-P04-CH1	1440072	OK	0.7937407	-0.606638	0.0443395	0	-115.643	-35.094	4.868	NA
0.369699616472103	B5-03822-P01-CH0	1440080	OK	0.1801896	0.132119	0.0646195	-0.9725742	160.984	-51.002	-229.383	B5-03822-P02-CH0	1440080	OK	0.7543239	0.495318	-0.4308776	0	-90.427	-93.62	3.344	B5-03822-P02-CH1	1440080	OK	0.711557	-0.1234342	-0.6917012	0	-83	-74.968	3.154	B5-03822-P03-CH0	1440080	OK	0.8686225	0.0650798	-0.4911819	0	-104.986	-61.947	18.555	B5-03822-P03-CH1	1440080	OK	0.7648261	-0.6402553	-0.0715131	0	-102.471	-10.974	6.654	B5-03822-P04-CH0	1440080	OK	0.8207598	-0.3862023	0.4209527	0	-128.241	-25.901	13.504	B5-03822-P04-CH1	1440080	OK	0.7937444	-0.6066114	0.0446365	0	-115.663	-35.291	4.828	NA
0.379691497998376	B5-03822-P01-CH0	1440088	OK	0.1801665	0.1319632	0.0649171	-0.9725798	160.899	-51.025	-229.421	B5-03822-P02-CH0	1440088	OK	0.7631887	0.4903069	-0.4208825	0	-92.161	-93.71	6.239	B5-03822-P02-CH1	1440088	OK	0.7065595	-0.0918912	-0.7016621	0	-82.744	-74.58	3.099	B5-03822-P03-CH0	1440088	OK	0.8654554	0.0631458	-0.4969905	0	-104.775	-60.802	18.006	B5-03822-P03-CH1	1440088	OK	0.7663452	-0.6384982	-0.0709587	0	-101.82	-10.415	5.253	B5-03822-P04-CH0	1440088	OK	0.8205021	-0.3883692	0.4194587	0	-129.048	-28.916	15.455	B5-03822-P04-CH1	1440088	OK	0.7938816	-0.6064095	0.044939	0	-115.643	-35.39	5.009	NA
0.389683379524649	B5-03822-P01-CH0	1440096	OK	0.1798251	0.1322573	0.0643031	-0.9726438	160.879	-51.094	-229.297	B5-03822-P02-CH0	1440096	OK	0.771196	0.4812196	-0.4167547	0	-94.326	-94.563	10.243	B5-03822-P02-CH1	1440096	OK	0.7015362	-0.0622419	-0.7099105	0	-82.596	-74.314	2.833	B5-03822-P03-CH0	1440096	OK	0.8612396	0.0619761	-0.504406	0	-104.286	-59.766	18.067	B5-03822-P03-CH1	1440096	OK	0.7648926	-0.6406474	-0.0671586	0	-102.368	-11.876	6.658	B5-03822-P04-CH0	1440096	OK	0.8203991	-0.3943118	0.4140816	0	-128.555	-27.524	14.529	B5-03822-P04-CH1	1440096	OK	0.7934144	-0.6070149	0.0450156	0	-115.727	-35.506	5.161	NA
0.399675261050922	B5-03822-P01-CH0	1440104	OK	0.1799446	0.1320217	0.064764	-0.9726232	160.733	-51.053	-229.337	B5-03822-P02-CH0	1440104	OK	0.7776941	0.4717947	-0.4154535	0	-96.04	-94.443	12.831	B5-03822-P02-CH1	1440104	OK	0.6963879	-0.033553	-0.7168808	0	-83.097	-73.701	2.899	B5-03822-P03-CH0	1440104	OK	0.8558696	0.0653098	-0.5130516	0	-103.295	-58.167	17.192	B5-03822-P03-CH1	1440104	OK	0.7669409	-0.638342	-0.065736	0	-102.094	-10.495	5.72	B5-03822-P04-CH0	1440104	OK	0.8204732	-0.3977633	0.4106192	0	-128.716	-28.464	15.11	B5-03822-P04-CH1	1440104	OK	0.793508	-0.6068549	0.045521	0	-115.624	-35.631	5.127	NA
0.409667142577195	B5-03822-P01-CH0	1440112	OK	0.1798865	0.1320695	0.0649476	-0.9726152	160.63	-51.028	-229.259	B5-03822-P02-CH0	1440112	OK	0.7838586	0.4613988	-0.415544	0	-97.211	-93.769	13.35	B5-03822-P02-CH1	1440112	OK	0.6930464	-0.0086141	-0.7208415	0	-83.094	-72.344	2.875	B5-03822-P03-CH0	1440112	OK	0.8487389	0.068437	-0.524365	0	-102.297	-56.812	16.54	B5-03822-P03-CH1	1440112	OK	0.7675356	-0.6376094	-0.0659041	0	-101.448	-9.616	5.312	B5-03822-P04-CH0	1440112	OK	0.8210272	-0.4021828	0.4051707	0	-128.15	-28.064	15.918	B5-03822-P04-CH1	1440112	OK	0.7934869	-0.6068692	0.045697	0	-115.626	-35.788	5.501	NA
0.419659024103469	B5-03822-P01-CH0	1440120	OK	0.179662	0.1322749	0.0648998	-0.972632	160.665	-51.062	-229.343	B5-03822-P02-CH0	1440120	OK	0.7885912	0.4502156	-0.4188435	0	-98.108	-93.18	14.464	B5-03822-P02-CH1	1440120	OK	0.6909398	0.00905	-0.7228557	0	-83.379	-71.855	3.91	B5-03822-P03-CH0	1440120	OK	0.840637	0.0776196	-0.5360081	0	-101.235	-55.431	16.322	B5-03822-P03-CH1	1440120	OK	0.766328	-0.639242	-0.0641175	0	-102.528	-10.048	5.69	B5-03822-P04-CH0	1440120	OK	0.821497	-0.4054721	0.4009178	0	-128.21	-28.409	16.296	B5-03822-P04-CH1	1440120	OK	0.7932945	-0.6071311	0.0455594	0	-115.66	-35.872	5.658	NA
0.429650905629742	B5-03822-P01-CH0	1440128	OK	0.17934	0.1324683	0.0644107	-0.9726976	160.623	-51.209	-229.281	B5-03822-P02-CH0	1440128	OK	0.7923152	0.4383108	-0.4244058	0	-98.723	-92.611	14.759	B5-03822-P02-CH1	1440128	OK	0.6910588	0.0227677	-0.7224399	0	-83.906	-70.878	3.638	B5-03822-P03-CH0	1440128	OK	0.8310687	0.0894282	-0.548933	0	-101.092	-54.133	16.395	B5-03822-P03-CH1	1440128	OK	0.7662606	-0.6393204	-0.0641424	0	-102.762	-8.668	4.798	B5-03822-P04-CH0	1440128	OK	0.8216033	-0.4111971	0.3948227	0	-128.108	-28.199	15.027	B5-03822-P04-CH1	1440128	OK	0.7928492	-0.6077385	0.045211	0	-115.618	-36.007	5.632	NA
0.439642787156015	B5-03822-P01-CH0	1440136	OK	0.1794413	0.1321434	0.0651207	-0.9726758	160.483	-51.192	-229.379	B5-03822-P02-CH0	1440136	OK	0.7934382	0.4346059	-0.4261144	0	-98.527	-89.702	13.679	B5-03822-P02-CH1	1440136	OK	0.6930959	0.0299715	-0.7202221	0	-84.065	-69.361	3.231	B5-03822-P03-CH0	1440136	OK	0.8238798	0.0998565	-0.5578986	0	-100.471	-52.837	14.941	B5-03822-P03-CH1	1440136	OK	0.7628944	-0.6439896	-0.0571793	0	-102.751	-11.006	6.374	B5-03822-P04-CH0	1440136	OK	0.823017	-0.4179674	0.3846378	0	-127.037	-26.448	14.034	B5-03822-P04-CH1	1440136	OK	0.7932906	-0.6071795	0.0449779	0	-115.389	-35.798	5.268	NA
0.449634668682288	B5-03822-P01-CH0	1440144	OK	0.1789783	0.1322476	0.0648993	-0.9727617	160.435	-51.27	-229.413	B5-03822-P02-CH0	1440144	OK	0.7956452	0.4220923	-0.4344961	0	-99.425	-90.364	14.977	B5-03822-P02-CH1	1440144	OK	0.6948067	0.0328722	-0.7184449	0	-85.494	-68.699	4.123	B5-03822-P03-CH0	1440144	OK	0.8145247	0.1076348	-0.5700563	0	-100.983	-52.035	13.963	B5-03822-P03-CH1	1440144	OK	0.7629453	-0.6442558	-0.0533755	0	-102.409	-9.714	5.37	B5-03822-P04-CH0	1440144	OK	0.8235242	-0.4254197	0.3752679	0	-127.007	-27.647	15.322	B5-03822-P04-CH1	1440144	OK	0.7932771	-0.6072906	0.0436983	0	-115.24	-35.439	5.06	NA
0.459626550208561	B5-03822-P01-CH0	1440152	OK	0.1789409	0.1323881	0.0649837	-0.9727439	160.412	-51.339	-229.376	B5-03822-P02-CH0	1440152	OK	0.7982029	0.4149981	-0.4366333	0	-99.249	-89.546	14.461	B5-03822-P02-CH1	1440152	OK	0.6998578	0.0305078	-0.7136304	0	-85.665	-68.017	3.738	B5-03822-P03-CH0	1440152	OK	0.8088873	0.1229469	-0.5749656	0	-100.07	-51.155	13.972	B5-03822-P03-CH1	1440152	OK	0.7612314	-0.6468163	-0.0464264	0	-102.394	-10.279	5.62	B5-03822-P04-CH0	1440152	OK	0.8234369	-0.4305475	0.3695681	0	-126.934	-29.123	16.278	B5-03822-P04-CH1	1440152	OK	0.7931522	-0.6074865	0.0432397	0	-115.199	-35.567	5.231	NA
0.469618431734834	B5-03822-P01-CH0	1440160	OK	0.1786335	0.1324528	0.06481	-0.9728032	160.305	-51.341	-229.349	B5-03822-P02-CH0	1440160	OK	0.8002692	0.4102259	-0.4373602	0	-98.937	-88.451	14.469	B5-03822-P02-CH1	1440160	OK	0.7034156	0.0248901	-0.7103429	0	-86.49	-67.479	4.169	B5-03822-P03-CH0	1440160	OK	0.8039612	0.1466152	-0.5763249	0	-99.767	-49.974	12.492	B5-03822-P03-CH1	1440160	OK	0.7613823	-0.6468881	-0.04281	0	-102.879	-9.555	5.678	B5-03822-P04-CH0	1440160	OK	0.824475	-0.4343244	0.3627718	0	-126.322	-26.772	14.574	B5-03822-P04-CH1	1440160	OK	0.7929384	-0.6078278	0.0423557	0	-115.116	-35.448	5.422	NA
0.479610313261107	B5-03822-P01-CH0	1440168	OK	0.1783866	0.1327299	0.0647008	-0.972818	160.342	-51.423	-229.355	B5-03822-P02-CH0	1440168	OK	0.8013417	0.4009071	-0.4439876	0	-100.072	-89.151	15.46	B5-03822-P02-CH1	1440168	OK	0.7077085	0.0184232	-0.7062643	0	-87.348	-67.197	4.524	B5-03822-P03-CH0	1440168	OK	0.7990861	0.1690615	-0.5769573	0	-100.4	-50.374	12.733	B5-03822-P03-CH1	1440168	OK	0.7592355	-0.6497628	-0.0370101	0	-103.052	-11.265	7.341	B5-03822-P04-CH0	1440168	OK	0.8252517	-0.4368495	0.3579417	0	-126.215	-25.441	13.096	B5-03822-P04-CH1	1440168	OK	0.7928242	-0.6080752	0.0409185	0	-114.977	-35.163	5.025	NA
0.48960219478738	B5-03822-P01-CH0	1440176	OK	0.1781157	0.132876	0.0647659	-0.9728433	160.312	-51.474	-229.339	B5-03822-P02-CH0	1440176	OK	0.8032	0.3983537	-0.4429268	0	-99.959	-88.602	14.9	B5-03822-P02-CH1	1440176	OK	0.7140665	0.0110775	-0.6999902	0	-87.094	-66.852	4.396	B5-03822-P03-CH0	1440176	OK	0.7960367	0.1897307	-0.5747415	0	-100.661	-50.687	12.731	B5-03822-P03-CH1	1440176	OK	0.7612046	-0.6473442	-0.0388992	0	-102.151	-8.934	5.393	B5-03822-P04-CH0	1440176	OK	0.8258727	-0.4373335	0.3559124	0	-126.385	-26.013	13.7	B5-03822-P04-CH1	1440176	OK	0.7928163	-0.6081878	0.0393692	0	-114.765	-34.799	4.6	NA
0.499594076313653	B5-03822-P01-CH0	1440184	OK	0.1783127	0.1327323	0.0654127	-0.9727836	160.328	-51.542	-229.527	B5-03822-P02-CH0	1440184	OK	0.8039647	0.3955076	-0.4440883	0	-99.756	-88.84	15.152	B5-03822-P02-CH1	1440184	OK	0.7171588	0.0041307	-0.6968976	0	-88.049	-66.848	3.292	B5-03822-P03-CH0	1440184	OK	0.7955177	0.2015996	-0.5714099	0	-100.08	-50.057	13.408	B5-03822-P03-CH1	1440184	OK	0.7617147	-0.6468233	-0.037554	0	-102.124	-8.702	5.292	B5-03822-P04-CH0	1440184	OK	0.8271769	-0.4369653	0.3533267	0	-124.805	-24.219	13.623	B5-03822-P04-CH1	1440184	OK	0.7931972	-0.607746	0.0385084	0	-114.58	-34.729	4.701	NA
0.509585957839926	B5-03822-P01-CH0	1440192	OK	0.1778061	0.1327817	0.0648554	-0.9729069	160.292	-51.725	-229.588	B5-03822-P02-CH0	1440192	OK	0.8033019	0.3936795	-0.4469032	0	-99.95	-88.773	15.418	B5-03822-P02-CH1	1440192	OK	0.7204568	-0.0034974	-0.693491	0	-88.102	-66.795	4.37	B5-03822-P03-CH0	1440192	OK	0.7972394	0.1967522	-0.5706995	0	-100.841	-51.097	13.934	B5-03822-P03-CH1	1440192	OK	0.7603784	-0.6484762	-0.0361014	0	-102.657	-9.944	6.676	B5-03822-P04-CH0	1440192	OK	0.8276804	-0.4353892	0.3540924	0	-124.729	-24.908	14.321	B5-03822-P04-CH1	1440192	OK	0.7926502	-0.6085319	0.0373434	0	-114.43	-34.781	4.881	NA
0.519577839366199	B5-03822-P01-CH0	1440200	OK	0.1776139	0.1328958	0.0647306	-0.9729347	160.241	-51.818	-229.552	B5-03822-P02-CH0	1440200	OK	0.8037613	0.3881673	-0.4508813	0	-99.878	-89.571	15.107	B5-03822-P02-CH1	1440200	OK	0.7235525	-0.0136528	-0.6901343	0	-88.118	-66.789	4.471	B5-03822-P03-CH0	1440200	OK	0.7995162	0.1967931	-0.5674913	0	-100.788	-51.77	14.221	B5-03822-P03-CH1	1440200	OK	0.7616933	-0.646782	-0.0386833	0	-102.555	-9.184	5.821	B5-03822-P04-CH0	1440200	OK	0.8283163	-0.4329958	0.3555371	0	-124.815	-24.988	13.744	B5-03822-P04-CH1	1440200	OK	0.7924249	-0.6088912	0.0362528	0	-114.297	-34.741	4.93	NA
0.529569720892472	B5-03822-P01-CH0	1440208	OK	0.1774176	0.1331023	0.0651439	-0.9729147	160.251	-51.78	-229.543	B5-03822-P02-CH0	1440208	OK	0.8042481	0.3842415	-0.453369	0	-99.312	-88.838	14.075	B5-03822-P02-CH1	1440208	OK	0.7263136	-0.0195583	-0.6870852	0	-88.683	-66.731	4.531	B5-03822-P03-CH0	1440208	OK	0.8003669	0.1949732	-0.56692	0	-101.379	-52.286	14.605	B5-03822-P03-CH1	1440208	OK	0.7622325	-0.6461433	-0.0387357	0	-102.568	-10.018	6.653	B5-03822-P04-CH0	1440208	OK	0.8303184	-0.4279521	0.356971	0	-125.001	-24.968	15.277	B5-03822-P04-CH1	1440208	OK	0.7924016	-0.6089857	0.035158	0	-114.29	-34.676	5.027	NA
0.539561602418745	B5-03822-P01-CH0	1440216	OK	0.1770633	0.133375	0.0648199	-0.9729636	160.266	-51.876	-229.487	B5-03822-P02-CH0	1440216	OK	0.8039351	0.3764135	-0.460436	0	-99.153	-88.305	13.419	B5-03822-P02-CH1	1440216	OK	0.7293944	-0.0267963	-0.6835684	0	-89.613	-66.872	4.799	B5-03822-P03-CH0	1440216	OK	0.8031387	0.1984501	-0.5617702	0	-100.912	-51.207	14.525	B5-03822-P03-CH1	1440216	OK	0.7636931	-0.6443773	-0.0393794	0	-102.253	-10.199	6.039	B5-03822-P04-CH0	1440216	OK	0.8304738	-0.4230227	0.3624433	0	-126.287	-26.331	14.423	B5-03822-P04-CH1	1440216	OK	0.791975	-0.6096068	0.0339874	0	-114.226	-34.642	5.078	NA
0.549553483945018	B5-03822-P01-CH0	1440224	OK	0.1770951	0.1333089	0.0650371	-0.9729523	160.183	-51.89	-229.485	B5-03822-P02-CH0	1440224	OK	0.8040052	0.3654961	-0.469029	0	-98.718	-88.577	13.359	B5-03822-P02-CH1	1440224	OK	0.7326259	-0.0353757	-0.6797116	0	-90.185	-66.853	4.732	B5-03822-P03-CH0	1440224	OK	0.8039297	0.1969214	-0.5611764	0	-102.095	-51.586	14.542	B5-03822-P03-CH1	1440224	OK	0.7655811	-0.6423478	-0.0357064	0	-102.848	-11.731	6.713	B5-03822-P04-CH0	1440224	OK	0.8302777	-0.4187057	0.3678648	0	-125.809	-25.431	13.295	B5-03822-P04-CH1	1440224	OK	0.7920599	-0.6095389	0.0332174	0	-114.157	-34.455	5.03	NA
0.559545365471291	B5-03822-P01-CH0	1440232	OK	0.1768756	0.1331259	0.0651897	-0.9730071	160.063	-51.914	-229.519	B5-03822-P02-CH0	1440232	OK	0.8027639	0.3568061	-0.4777652	0	-98.431	-88.35	13.086	B5-03822-P02-CH1	1440232	OK	0.7375917	-0.0433649	-0.6738531	0	-89.413	-66.355	4.403	B5-03822-P03-CH0	1440232	OK	0.8054277	0.199444	-0.5581293	0	-102.461	-51.236	14.244	B5-03822-P03-CH1	1440232	OK	0.7686715	-0.6388528	-0.0317998	0	-103.432	-12.648	7.548	B5-03822-P04-CH0	1440232	OK	0.8299494	-0.4130354	0.3749477	0	-125.712	-25.759	14.404	B5-03822-P04-CH1	1440232	OK	0.7922444	-0.609355	0.0321756	0	-114.005	-34.08	4.76	NA
0.569537246997564	B5-03822-P01-CH0	1440240	OK	0.1764981	0.133086	0.0648663	-0.9731027	159.986	-52.032	-229.546	B5-03822-P02-CH0	1440240	OK	0.8010473	0.347546	-0.4873756	0	-98.472	-88.382	12.775	B5-03822-P02-CH1	1440240	OK	0.7392968	-0.0535075	-0.6712504	0	-90.049	-66.588	4.712	B5-03822-P03-CH0	1440240	OK	0.8074055	0.2021567	-0.5542825	0	-102.581	-51.34	14.44	B5-03822-P03-CH1	1440240	OK	0.7732983	-0.633188	-0.0329037	0	-102.58	-10.933	5.292	B5-03822-P04-CH0	1440240	OK	0.8291548	-0.4083693	0.381755	0	-126.707	-26.117	13.891	B5-03822-P04-CH1	1440240	OK	0.792093	-0.6095965	0.031318	0	-113.894	-33.838	4.499	NA
0.579529128523838	B5-03822-P01-CH0	1440248	OK	0.1763133	0.1331439	0.0649359	-0.9731237	159.919	-52.044	-229.479	B5-03822-P02-CH0	1440248	OK	0.7999768	0.3419511	-0.4930583	0	-97.795	-88.065	12.363	B5-03822-P02-CH1	1440248	OK	0.7415704	-0.0643388	-0.6677827	0	-90.311	-66.636	4.839	B5-03822-P03-CH0	1440248	OK	0.8098772	0.2040812	-0.5499543	0	-102.792	-51.652	14.261	B5-03822-P03-CH1	1440248	OK	0.7761958	-0.6296005	-0.0335167	0	-101.867	-10.43	5.198	B5-03822-P04-CH0	1440248	OK	0.8282357	-0.4046787	0.3876347	0	-127.896	-27.748	14.747	B5-03822-P04-CH1	1440248	OK	0.7921281	-0.6095698	0.0309462	0	-113.995	-33.696	4.457	NA
0.589521010050111	B5-03822-P01-CH0	1440256	OK	0.1759525	0.1331339	0.0643168	-0.9732314	159.85	-52.214	-229.488	B5-03822-P02-CH0	1440256	OK	0.7987988	0.3356194	-0.4992795	0	-97.38	-88.229	11.731	B5-03822-P02-CH1	1440256	OK	0.7441974	-0.0742474	-0.6638204	0	-90.284	-66.923	4.701	B5-03822-P03-CH0	1440256	OK	0.8108977	0.2065397	-0.5475274	0	-103.547	-51.59	13.994	B5-03822-P03-CH1	1440256	OK	0.7760103	-0.6297786	-0.0344511	0	-102.058	-11.521	5.148	B5-03822-P04-CH0	1440256	OK	0.8266051	-0.4044603	0.3913258	0	-127.191	-26.597	13.816	B5-03822-P04-CH1	1440256	OK	0.7917431	-0.6100939	0.0304681	0	-113.946	-33.685	4.55	NA
0.599512891576384	B5-03822-P01-CH0	1440264	OK	0.175378	0.1335349	0.0635288	-0.973332	159.856	-52.312	-229.315	B5-03822-P02-CH0	1440264	OK	0.7977986	0.3311517	-0.5038412	0	-96.764	-88.339	11.311	B5-03822-P02-CH1	1440264	OK	0.7453965	-0.0824604	-0.6615015	0	-90.789	-66.951	5.215	B5-03822-P03-CH0	1440264	OK	0.8136448	0.2092073	-0.5424154	0	-103.335	-51.21	14.69	B5-03822-P03-CH1	1440264	OK	0.7739543	-0.632299	-0.0345363	0	-102.25	-13.765	6.012	B5-03822-P04-CH0	1440264	OK	0.8260821	-0.4025788	0.3943586	0	-127.495	-25.722	14.016	B5-03822-P04-CH1	1440264	OK	0.7915198	-0.6104412	0.0292908	0	-113.982	-33.195	4.194	NA
0.609504773102657	B5-03822-P01-CH0	1440272	OK	0.17544	0.1335319	0.0639431	-0.973294	159.835	-52.293	-229.293	B5-03822-P02-CH0	1440272	OK	0.7946737	0.3267755	-0.5115775	0	-97.197	-88.483	11.23	B5-03822-P02-CH1	1440272	OK	0.747954	-0.0889971	-0.657757	0	-90.982	-67.031	5.555	B5-03822-P03-CH0	1440272	OK	0.8167647	0.2082191	-0.5380894	0	-103.059	-51.106	14.937	B5-03822-P03-CH1	1440272	OK	0.7767402	-0.628377	-0.0426262	0	-101.537	-11.095	4.452	B5-03822-P04-CH0	1440272	OK	0.824972	-0.3989467	0.4003282	0	-127.937	-26.353	15.097	B5-03822-P04-CH1	1440272	OK	0.7919362	-0.609921	0.028871	0	-113.887	-32.787	3.66	NA
0.61949665462893	B5-03822-P01-CH0	1440280	OK	0.1754665	0.1332715	0.0644678	-0.9732904	159.768	-52.345	-229.355	B5-03822-P02-CH0	1440280	OK	0.7937657	0.3280531	-0.5121691	0	-96.433	-87.385	9.159	B5-03822-P02-CH1	1440280	OK	0.7501842	-0.0951258	-0.6543506	0	-91.416	-67.262	5.312	B5-03822-P03-CH0	1440280	OK	0.8195461	0.201277	-0.5364996	0	-102.964	-50.94	14.942	B5-03822-P03-CH1	1440280	OK	0.7729004	-0.6331224	-0.042201	0	-101.763	-14.268	6.826	B5-03822-P04-CH0	1440280	OK	0.8235463	-0.3962965	0.4058578	0	-128.546	-26.537	14.342	B5-03822-P04-CH1	1440280	OK	0.7924395	-0.6092737	0.0287265	0	-113.916	-32.637	3.694	NA
0.629488536155203	B5-03822-P01-CH0	1440288	OK	0.1754588	0.1331237	0.0642951	-0.9733234	159.726	-52.439	-229.455	B5-03822-P02-CH0	1440288	OK	0.7935372	0.3281801	-0.5124418	0	-95.651	-87.227	10.016	B5-03822-P02-CH1	1440288	OK	0.7521876	-0.0987967	-0.6515005	0	-91.557	-67.182	4.988	B5-03822-P03-CH0	1440288	OK	0.8227959	0.1871459	-0.5366407	0	-102.459	-51.197	16.022	B5-03822-P03-CH1	1440288	OK	0.773111	-0.6325958	-0.0460641	0	-102.02	-13.215	7.163	B5-03822-P04-CH0	1440288	OK	0.8225253	-0.3958054	0.4083996	0	-128.259	-26.407	15.281	B5-03822-P04-CH1	1440288	OK	0.7923671	-0.6093579	0.0289379	0	-113.866	-32.652	3.781	NA
0.639480417681476	B5-03822-P01-CH0	1440296	OK	0.1752437	0.1330988	0.0642355	-0.9733695	159.674	-52.52	-229.467	B5-03822-P02-CH0	1440296	OK	0.791981	0.3268153	-0.515711	0	-95.882	-88.103	9.964	B5-03822-P02-CH1	1440296	OK	0.7526408	-0.1006362	-0.6506951	0	-91.364	-67.362	5.14	B5-03822-P03-CH0	1440296	OK	0.8206378	0.1701017	-0.5455447	0	-103.716	-51.862	15.299	B5-03822-P03-CH1	1440296	OK	0.7746163	-0.630302	-0.051856	0	-100.824	-10.44	4.964	B5-03822-P04-CH0	1440296	OK	0.8213941	-0.3968474	0.4096631	0	-128.006	-25.634	14.476	B5-03822-P04-CH1	1440296	OK	0.7924696	-0.6092363	0.0286886	0	-113.917	-32.534	3.824	NA
0.649472299207749	B5-03822-P01-CH0	1440304	OK	0.1753852	0.1331203	0.0647436	-0.9733074	159.717	-52.503	-229.536	B5-03822-P02-CH0	1440304	OK	0.7875223	0.3289337	-0.5211633	0	-95.738	-88.286	9.066	B5-03822-P02-CH1	1440304	OK	0.7517857	-0.1036549	-0.6512096	0	-90.855	-67.081	4.612	B5-03822-P03-CH0	1440304	OK	0.8170189	0.1637395	-0.5528739	0	-103.403	-51.691	15.601	B5-03822-P03-CH1	1440304	OK	0.7739669	-0.6311559	-0.0511611	0	-100.77	-10.799	5.344	B5-03822-P04-CH0	1440304	OK	0.8209762	-0.3960938	0.4112271	0	-128.153	-26.721	16.116	B5-03822-P04-CH1	1440304	OK	0.792812	-0.6087788	0.0289413	0	-113.947	-32.569	3.971	NA
0.659464180734022	B5-03822-P01-CH0	1440312	OK	0.1750208	0.1334324	0.0637061	-0.9733987	159.793	-52.692	-229.531	B5-03822-P02-CH0	1440312	OK	0.78256	0.3317821	-0.5268022	0	-95.231	-88.453	9.374	B5-03822-P02-CH1	1440312	OK	0.7505468	-0.1093563	-0.651706	0	-90.675	-67.44	4.401	B5-03822-P03-CH0	1440312	OK	0.8150088	0.155006	-0.5583313	0	-103.506	-51.916	15.424	B5-03822-P03-CH1	1440312	OK	0.7718183	-0.6338003	-0.0509292	0	-101.272	-11.835	6.376	B5-03822-P04-CH0	1440312	OK	0.8205336	-0.3966815	0.4115439	0	-130.012	-27.539	14.717	B5-03822-P04-CH1	1440312	OK	0.792196	-0.6095856	0.0288262	0	-113.964	-32.66	4.136	NA
0.669456062260295	B5-03822-P01-CH0	1440320	OK	0.1749315	0.1335243	0.0635281	-0.9734138	159.777	-52.74	-229.467	B5-03822-P02-CH0	1440320	OK	0.7781794	0.3363406	-0.5303884	0	-94.196	-87.909	7.575	B5-03822-P02-CH1	1440320	OK	0.7501379	-0.117928	-0.6506813	0	-90.754	-67.788	4.994	B5-03822-P03-CH0	1440320	OK	0.8155362	0.1402801	-0.5614465	0	-104.113	-52.568	15.156	B5-03822-P03-CH1	1440320	OK	0.7716318	-0.6340143	-0.0510911	0	-101.252	-11.732	6.106	B5-03822-P04-CH0	1440320	OK	0.8195832	-0.3970966	0.4130347	0	-129.824	-28.805	16.455	B5-03822-P04-CH1	1440320	OK	0.7920431	-0.6097836	0.0288392	0	-113.951	-32.677	4.142	NA
0.679447943786568	B5-03822-P01-CH0	1440328	OK	0.1751681	0.133345	0.0642318	-0.9733496	159.773	-52.71	-229.558	B5-03822-P02-CH0	1440328	OK	0.773059	0.3392797	-0.5359748	0	-93.596	-88.166	6.83	B5-03822-P02-CH1	1440328	OK	0.7506541	-0.1288281	-0.6480137	0	-90.84	-67.862	4.995	B5-03822-P03-CH0	1440328	OK	0.8183365	0.133447	-0.5590325	0	-103.604	-52.319	15.124	B5-03822-P03-CH1	1440328	OK	0.7724704	-0.6329726	-0.0513335	0	-101.515	-11.412	6.155	B5-03822-P04-CH0	1440328	OK	0.8196945	-0.3969724	0.4129332	0	-129.639	-29.116	17.051	B5-03822-P04-CH1	1440328	OK	0.7924045	-0.6093015	0.0290995	0	-113.958	-32.761	4.248	NA
0.689439825312841	B5-03822-P01-CH0	1440336	OK	0.1754711	0.1332987	0.0647547	-0.9732668	159.808	-52.692	-229.638	B5-03822-P02-CH0	1440336	OK	0.7686953	0.3455762	-0.5382236	0	-92.363	-87.058	6.366	B5-03822-P02-CH1	1440336	OK	0.7517856	-0.1387143	-0.6446524	0	-90.546	-68.459	5.274	B5-03822-P03-CH0	1440336	OK	0.8180169	0.1269551	-0.5610087	0	-104.354	-52.876	15.297	B5-03822-P03-CH1	1440336	OK	0.7726883	-0.6328543	-0.0494791	0	-101.587	-11.913	6.74	B5-03822-P04-CH0	1440336	OK	0.8199885	-0.3984031	0.4109669	0	-129.606	-28.551	16.288	B5-03822-P04-CH1	1440336	OK	0.7927073	-0.608881	0.029649	0	-114.027	-32.9	4.403	NA
0.699431706839114	B5-03822-P01-CH0	1440344	OK	0.1756476	0.1332009	0.0650447	-0.973229	159.791	-52.725	-229.648	B5-03822-P02-CH0	1440344	OK	0.7643546	0.3487665	-0.542332	0	-92.717	-87.509	6.409	B5-03822-P02-CH1	1440344	OK	0.7519181	-0.1428771	-0.6435878	0	-90.664	-68.63	5.422	B5-03822-P03-CH0	1440344	OK	0.8180768	0.1289708	-0.5604613	0	-104.038	-52.204	15.074	B5-03822-P03-CH1	1440344	OK	0.7723169	-0.6334801	-0.0472188	0	-101.581	-13.283	6.964	B5-03822-P04-CH0	1440344	OK	0.8202818	-0.4003801	0.4084525	0	-129.503	-27.288	14.353	B5-03822-P04-CH1	1440344	OK	0.7927606	-0.6087847	0.0301946	0	-114.061	-33.135	4.472	NA
0.709423588365387	B5-03822-P01-CH0	1440352	OK	0.1756201	0.1332277	0.0647454	-0.9732502	159.809	-52.819	-229.695	B5-03822-P02-CH0	1440352	OK	0.7608016	0.3530417	-0.5445571	0	-93.119	-87.77	6.273	B5-03822-P02-CH1	1440352	OK	0.7522104	-0.1443357	-0.6429205	0	-90.519	-68.436	4.422	B5-03822-P03-CH0	1440352	OK	0.8173824	0.1284226	-0.5615992	0	-104.098	-52.753	15.427	B5-03822-P03-CH1	1440352	OK	0.7723567	-0.6333267	-0.048604	0	-101.47	-12.84	6.8	B5-03822-P04-CH0	1440352	OK	0.8209593	-0.397876	0.409537	0	-128.929	-27.113	14.967	B5-03822-P04-CH1	1440352	OK	0.7925365	-0.609066	0.0304055	0	-114.099	-33.339	4.758	NA
0.71941546989166	B5-03822-P01-CH0	1440360	OK	0.1753184	0.1335786	0.0639712	-0.9733077	159.836	-52.833	-229.588	B5-03822-P02-CH0	1440360	OK	0.7589783	0.3574456	-0.5442285	0	-93.165	-88.161	5.745	B5-03822-P02-CH1	1440360	OK	0.751477	-0.1449658	-0.6436359	0	-90.851	-68.157	3.828	B5-03822-P03-CH0	1440360	OK	0.8165583	0.1307754	-0.5622548	0	-103.895	-52.865	15.713	B5-03822-P03-CH1	1440360	OK	0.7720821	-0.6335469	-0.0500763	0	-101.42	-12.333	6.57	B5-03822-P04-CH0	1440360	OK	0.8203949	-0.3994476	0.4091379	0	-128.941	-27.154	15.198	B5-03822-P04-CH1	1440360	OK	0.7920633	-0.6096954	0.0301199	0	-114.038	-33.219	4.633	NA
0.729407351417933	B5-03822-P01-CH0	1440368	OK	0.1753728	0.1335028	0.0641998	-0.9732933	159.79	-52.797	-229.51	B5-03822-P02-CH0	1440368	OK	0.7580323	0.3636211	-0.5414487	0	-92.09	-87.543	5.703	B5-03822-P02-CH1	1440368	OK	0.7529678	-0.1449989	-0.6418838	0	-90.25	-68.197	5.24	B5-03822-P03-CH0	1440368	OK	0.8144433	0.1333501	-0.5647123	0	-104.159	-53.204	15.183	B5-03822-P03-CH1	1440368	OK	0.7724456	-0.6330677	-0.0505279	0	-101.363	-11.958	6.165	B5-03822-P04-CH0	1440368	OK	0.8203325	-0.4004413	0.4082908	0	-128.935	-27.153	15.205	B5-03822-P04-CH1	1440368	OK	0.7921657	-0.6095572	0.0302251	0	-114.073	-33.236	4.577	NA
0.739399232944207	B5-03822-P01-CH0	1440376	OK	0.1754976	0.1335257	0.0640786	-0.9732756	159.781	-52.79	-229.481	B5-03822-P02-CH0	1440376	OK	0.7568384	0.3642826	-0.5426728	0	-92.164	-87.923	6.393	B5-03822-P02-CH1	1440376	OK	0.7543797	-0.1467906	-0.6398154	0	-90.275	-68.006	4.869	B5-03822-P03-CH0	1440376	OK	0.8126619	0.1379496	-0.5661719	0	-104.149	-53.102	15.286	B5-03822-P03-CH1	1440376	OK	0.7722182	-0.6333689	-0.0502288	0	-101.451	-12.102	6.258	B5-03822-P04-CH0	1440376	OK	0.8199908	-0.4096704	0.3997315	0	-128.56	-26.663	14.324	B5-03822-P04-CH1	1440376	OK	0.7918659	-0.6099198	0.0307598	0	-114.129	-33.555	4.836	NA
0.74939111447048	B5-03822-P01-CH0	1440384	OK	0.1753179	0.133766	0.0636327	-0.9733043	159.834	-52.849	-229.372	B5-03822-P02-CH0	1440384	OK	0.7546675	0.3650277	-0.5451897	0	-93.279	-88.614	5.892	B5-03822-P02-CH1	1440384	OK	0.7550098	-0.1478965	-0.6388167	0	-90.333	-68.222	5.107	B5-03822-P03-CH0	1440384	OK	0.8117413	0.1441448	-0.565949	0	-103.623	-52.77	15.148	B5-03822-P03-CH1	1440384	OK	0.7720777	-0.633502	-0.0507072	0	-101.492	-11.978	6.064	B5-03822-P04-CH0	1440384	OK	0.8200248	-0.4126827	0.3965504	0	-128.332	-25.676	13.565	B5-03822-P04-CH1	1440384	OK	0.7916405	-0.6102236	0.0305347	0	-114.112	-33.503	4.685	NA
0.759382995996753	B5-03822-P01-CH0	1440392	OK	0.1755959	0.1336107	0.0643744	-0.9732267	159.812	-52.775	-229.353	B5-03822-P02-CH0	1440392	OK	0.7534958	0.3678641	-0.5449037	0	-92.68	-88.24	5.285	B5-03822-P02-CH1	1440392	OK	0.7551406	-0.1493275	-0.6383291	0	-90.438	-67.933	4.847	B5-03822-P03-CH0	1440392	OK	0.8088154	0.1476057	-0.5692365	0	-104.263	-52.736	14.191	B5-03822-P03-CH1	1440392	OK	0.7727091	-0.6327512	-0.0504645	0	-101.471	-11.874	5.988	B5-03822-P04-CH0	1440392	OK	0.8201527	-0.4120305	0.396964	0	-128.56	-26.734	14.397	B5-03822-P04-CH1	1440392	OK	0.7919653	-0.6097841	0.0308909	0	-114.133	-33.605	4.559	NA
0.769374877523026	B5-03822-P01-CH0	1440400	OK	0.1761967	0.1334441	0.0653115	-0.9730785	159.846	-52.68	-229.418	B5-03822-P02-CH0	1440400	OK	0.7516263	0.3707683	-0.545517	0	-91.918	-87.412	5.418	B5-03822-P02-CH1	1440400	OK	0.7550947	-0.1538291	-0.6373136	0	-90.077	-68.282	5.149	B5-03822-P03-CH0	1440400	OK	0.808158	0.1531378	-0.5687086	0	-103.544	-52.446	14.643	B5-03822-P03-CH1	1440400	OK	0.7734553	-0.6318908	-0.0498085	0	-101.516	-11.867	6.062	B5-03822-P04-CH0	1440400	OK	0.8204386	-0.4110567	0.3973825	0	-128.724	-27.849	15.469	B5-03822-P04-CH1	1440400	OK	0.7925825	-0.6089533	0.0314456	0	-114.125	-33.755	4.786	NA
0.779366759049299	B5-03822-P01-CH0	1440408	OK	0.1762876	0.1335086	0.0651167	-0.9730663	159.906	-52.729	-229.44	B5-03822-P02-CH0	1440408	OK	0.7509967	0.3694081	-0.5473039	0	-91.895	-88.246	4.883	B5-03822-P02-CH1	1440408	OK	0.7538529	-0.1582399	-0.6377037	0	-90.431	-67.971	4.876	B5-03822-P03-CH0	1440408	OK	0.8071181	0.1558287	-0.5694539	0	-103.463	-52.399	14.903	B5-03822-P03-CH1	1440408	OK	0.7735621	-0.6317655	-0.0497396	0	-101.489	-11.8	5.999	B5-03822-P04-CH0	1440408	OK	0.8203266	-0.4116115	0.3970393	0	-128.364	-28.256	16.231	B5-03822-P04-CH1	1440408	OK	0.7927027	-0.608812	0.0311501	0	-114.047	-33.605	4.682	NA
0.789358640575572	B5-03822-P01-CH0	1440416	OK	0.1763252	0.1335087	0.0650559	-0.9730635	159.88	-52.683	-229.353	B5-03822-P02-CH0	1440416	OK	0.7503822	0.3692733	-0.5482369	0	-91.823	-88.456	5.5	B5-03822-P02-CH1	1440416	OK	0.7535225	-0.161515	-0.6372729	0	-90.652	-67.66	4.963	B5-03822-P03-CH0	1440416	OK	0.8059938	0.1556729	-0.5710867	0	-103.748	-52.674	15.126	B5-03822-P03-CH1	1440416	OK	0.7733173	-0.6320865	-0.0494678	0	-101.487	-11.932	5.937	B5-03822-P04-CH0	1440416	OK	0.8202578	-0.4129113	0.39583	0	-128.039	-27.68	15.69	B5-03822-P04-CH1	1440416	OK	0.7926066	-0.6089384	0.0311245	0	-114.046	-33.666	4.795	NA
0.799350522101845	B5-03822-P01-CH0	1440424	OK	0.1765212	0.1334117	0.0652402	-0.9730289	159.9	-52.648	-229.37	B5-03822-P02-CH0	1440424	OK	0.7500223	0.3716656	-0.5471117	0	-90.932	-87.479	4.553	B5-03822-P02-CH1	1440424	OK	0.7539191	-0.1650957	-0.6358848	0	-90.428	-67.414	4.933	B5-03822-P03-CH0	1440424	OK	0.8053164	0.1559966	-0.5719533	0	-103.752	-52.615	14.037	B5-03822-P03-CH1	1440424	OK	0.7735096	-0.631876	-0.049149	0	-101.459	-11.907	5.976	B5-03822-P04-CH0	1440424	OK	0.8203901	-0.413162	0.3952939	0	-127.899	-27.476	15.557	B5-03822-P04-CH1	1440424	OK	0.7927438	-0.6087613	0.0310946	0	-114.088	-33.724	5.014	NA
0.809342403628118	B5-03822-P01-CH0	1440432	OK	0.1766945	0.1334725	0.0654694	-0.9729737	159.971	-52.567	-229.409	B5-03822-P02-CH0	1440432	OK	0.7492855	0.3732013	-0.5470758	0	-90.514	-86.978	3.362	B5-03822-P02-CH1	1440432	OK	0.7540656	-0.1687716	-0.634745	0	-89.859	-68.048	4.88	B5-03822-P03-CH0	1440432	OK	0.8045579	0.1566953	-0.5728291	0	-103.491	-52.767	14.851	B5-03822-P03-CH1	1440432	OK	0.7737299	-0.6316303	-0.0488376	0	-101.516	-11.785	5.955	B5-03822-P04-CH0	1440432	OK	0.8206198	-0.4105286	0.3975544	0	-128.223	-26.902	14.855	B5-03822-P04-CH1	1440432	OK	0.792903	-0.6085615	0.0309485	0	-114.148	-33.653	5.003	NA
