Wav.Time	B5.03822.P01.CH0	Frame	State	Q0	Qx	Qy	Qz	Tx	Ty	Tz	B5.03822.P02.CH0	Frame.1	State.1	Q0.1	Qx.1	Qy.1	Qz.1	Tx.1	Ty.1	Tz.1	B5.03822.P02.CH1	Frame.2	State.2	Q0.2	Qx.2	Qy.2	Qz.2	Tx.2	Ty.2	Tz.2	B5.03822.P03.CH0	Frame.3	State.3	Q0.3	Qx.3	Qy.3	Qz.3	Tx.3	Ty.3	Tz.3	B5.03822.P03.CH1	Frame.4	State.4	Q0.4	Qx.4	Qy.4	Qz.4	Tx.4	Ty.4	Tz.4	B5.03822.P04.CH0	Frame.5	State.5	Q0.5	Qx.5	Qy.5	Qz.5	Tx.5	Ty.5	Tz.5	B5.03822.P04.CH1	Frame.6	State.6	Q0.6	Qx.6	Qy.6	Qz.6	Tx.6	Ty.6	Tz.6	X
0	B5-03822-P01-CH0	1705952	OK	0.2228658	0.0765022	0.072167	-0.9691595	98.835	31.811	-265.641	B5-03822-P02-CH0	1705952	OK	0.7864784	0.141904	-0.6010948	0	-91.134	-95.445	3.132	B5-03822-P02-CH1	1705952	OK	0.7204414	0.1246267	-0.682226	0	-83.741	-76.654	1.356	B5-03822-P03-CH0	1705952	OK	0.7275677	-0.4990667	-0.4707204	0	-94.906	-57.128	2.523	B5-03822-P03-CH1	1705952	OK	0.7564288	-0.6346602	0.158183	0	-105.268	-26.592	3.122	B5-03822-P04-CH0	1705952	OK	0.6883449	-0.1310857	0.7134408	0	-130.642	-30.813	10.936	B5-03822-P04-CH1	1705952	OK	0.7637093	-0.6445768	0.0356197	0	-113.49	-44.199	4.006	NA
0.00999211278714384	B5-03822-P01-CH0	1705960	OK	0.2225734	0.0768843	0.0708727	-0.969292	98.92	31.655	-265.587	B5-03822-P02-CH0	1705960	OK	0.7843083	0.1457775	-0.6030003	0	-93.375	-94.876	7.043	B5-03822-P02-CH1	1705960	OK	0.7218365	0.1323154	-0.6792972	0	-83.603	-77.178	0.322	B5-03822-P03-CH0	1705960	OK	0.7171363	-0.4907546	-0.4948489	0	-94.386	-57.447	1.868	B5-03822-P03-CH1	1705960	OK	0.7552028	-0.6360144	0.1586016	0	-105.136	-26.686	2.911	B5-03822-P04-CH0	1705960	OK	0.6881355	-0.1299298	0.7138541	0	-130.686	-30.967	10.814	B5-03822-P04-CH1	1705960	OK	0.762866	-0.6456006	0.0351462	0	-113.399	-44.317	4.439	NA
0.0199842255742877	B5-03822-P01-CH0	1705968	OK	0.2224964	0.0764519	0.0716658	-0.9692855	98.798	31.63	-265.576	B5-03822-P02-CH0	1705968	OK	0.7881219	0.1502581	-0.5968973	0	-92.815	-95.246	5.391	B5-03822-P02-CH1	1705968	OK	0.7213437	0.1404862	-0.6781791	0	-84.244	-77.157	1.038	B5-03822-P03-CH0	1705968	OK	0.7081773	-0.4807888	-0.5170368	0	-93.109	-57.187	1.293	B5-03822-P03-CH1	1705968	OK	0.7552872	-0.6358502	0.158858	0	-105.022	-26.715	2.865	B5-03822-P04-CH0	1705968	OK	0.6877456	-0.1289561	0.7144063	0	-130.528	-30.799	10.455	B5-03822-P04-CH1	1705968	OK	0.7635585	-0.6448223	0.0343884	0	-113.299	-44.131	4.427	NA
0.0299763383614315	B5-03822-P01-CH0	1705976	OK	0.2223982	0.0762203	0.0720577	-0.9692973	98.703	31.685	-265.616	B5-03822-P02-CH0	1705976	OK	0.7912427	0.1537337	-0.5918623	0	-92.511	-95.851	5.483	B5-03822-P02-CH1	1705976	OK	0.7225136	0.1482129	-0.6752829	0	-84.303	-77.076	1.357	B5-03822-P03-CH0	1705976	OK	0.6974599	-0.4700828	-0.5408991	0	-92.046	-57.589	-0.965	B5-03822-P03-CH1	1705976	OK	0.755213	-0.6359312	0.158886	0	-105.108	-26.607	2.924	B5-03822-P04-CH0	1705976	OK	0.6874184	-0.1272514	0.7150266	0	-130.429	-30.738	10.397	B5-03822-P04-CH1	1705976	OK	0.763724	-0.6446389	0.034151	0	-113.122	-44.082	4.553	NA
0.0399684511485754	B5-03822-P01-CH0	1705984	OK	0.2226298	0.0760567	0.072795	-0.9692019	98.658	31.749	-265.69	B5-03822-P02-CH0	1705984	OK	0.7912695	0.1591293	-0.5903985	0	-93.412	-94.73	7.001	B5-03822-P02-CH1	1705984	OK	0.723793	0.1570996	-0.6718954	0	-83.802	-76.76	0.738	B5-03822-P03-CH0	1705984	OK	0.6884911	-0.4599926	-0.5607021	0	-91.323	-57.705	-0.389	B5-03822-P03-CH1	1705984	OK	0.7553585	-0.6357185	0.1590454	0	-104.941	-26.429	2.673	B5-03822-P04-CH0	1705984	OK	0.6871909	-0.1246729	0.7156992	0	-130.362	-30.853	10.304	B5-03822-P04-CH1	1705984	OK	0.7641437	-0.6441259	0.0344424	0	-112.907	-44.139	4.629	NA
0.0499605639357192	B5-03822-P01-CH0	1705992	OK	0.222642	0.0760203	0.0728369	-0.9691988	98.616	31.772	-265.658	B5-03822-P02-CH0	1705992	OK	0.791902	0.1659691	-0.587661	0	-94.34	-94.209	7.151	B5-03822-P02-CH1	1705992	OK	0.7242051	0.1640928	-0.6697764	0	-83.927	-77.046	0.668	B5-03822-P03-CH0	1705992	OK	0.6811004	-0.4506833	-0.5770501	0	-92.119	-56.911	0.195	B5-03822-P03-CH1	1705992	OK	0.754909	-0.6362305	0.1591325	0	-104.863	-26.389	2.572	B5-03822-P04-CH0	1705992	OK	0.6870833	-0.122318	0.7162086	0	-130.401	-30.812	10.278	B5-03822-P04-CH1	1705992	OK	0.764338	-0.6439105	0.0341572	0	-112.938	-43.973	4.513	NA
0.0599526767228631	B5-03822-P01-CH0	1706000	OK	0.2225069	0.0759964	0.0727276	-0.9692399	98.607	31.682	-265.625	B5-03822-P02-CH0	1706000	OK	0.7951474	0.171839	-0.5815599	0	-94.62	-95.265	4.821	B5-03822-P02-CH1	1706000	OK	0.7287663	0.1698575	-0.6633612	0	-81.999	-77.505	-1.083	B5-03822-P03-CH0	1706000	OK	0.6765069	-0.4436597	-0.5877963	0	-91.187	-57.137	0.31	B5-03822-P03-CH1	1706000	OK	0.7545097	-0.6368314	0.1586215	0	-104.813	-26.358	2.61	B5-03822-P04-CH0	1706000	OK	0.6867031	-0.1200048	0.7169642	0	-130.314	-30.783	10.3	B5-03822-P04-CH1	1706000	OK	0.7643138	-0.6439522	0.0339119	0	-112.837	-43.983	4.427	NA
0.0699447895100069	B5-03822-P01-CH0	1706008	OK	0.2224612	0.0758833	0.0725258	-0.9692743	98.514	31.64	-265.603	B5-03822-P02-CH0	1706008	OK	0.7958599	0.1778163	-0.5787818	0	-94.971	-93.733	7.531	B5-03822-P02-CH1	1706008	OK	0.7270355	0.1759332	-0.6636768	0	-83.305	-76.732	1.239	B5-03822-P03-CH0	1706008	OK	0.6714032	-0.4394628	-0.596733	0	-90.092	-57.885	-1.986	B5-03822-P03-CH1	1706008	OK	0.753875	-0.6376177	0.1584807	0	-104.625	-26.434	2.75	B5-03822-P04-CH0	1706008	OK	0.6847263	-0.1073587	0.7208495	0	-130.071	-29.238	9.892	B5-03822-P04-CH1	1706008	OK	0.7641816	-0.6441328	0.0334584	0	-112.885	-43.939	4.247	NA
0.0799369022971507	B5-03822-P01-CH0	1706016	OK	0.2224965	0.0761168	0.0725215	-0.9692483	98.599	31.597	-265.541	B5-03822-P02-CH0	1706016	OK	0.7955829	0.1797839	-0.5785547	0	-96.307	-95.009	9.276	B5-03822-P02-CH1	1706016	OK	0.7270438	0.182116	-0.6619978	0	-83.868	-77.225	1.354	B5-03822-P03-CH0	1706016	OK	0.6660012	-0.4378673	-0.6039161	0	-90.589	-57.554	-1.94	B5-03822-P03-CH1	1706016	OK	0.7535934	-0.6381237	0.1577822	0	-104.725	-26.355	2.797	B5-03822-P04-CH0	1706016	OK	0.6847263	-0.1007346	0.7218049	0	-130.336	-29.482	9.984	B5-03822-P04-CH1	1706016	OK	0.7641247	-0.6442065	0.0333392	0	-112.912	-44.041	4.184	NA
0.0899290150842946	B5-03822-P01-CH0	1706024	OK	0.2223669	0.0761755	0.0726775	-0.9692617	98.6	31.651	-265.516	B5-03822-P02-CH0	1706024	OK	0.7980633	0.1855621	-0.5732902	0	-95.928	-94.137	8.502	B5-03822-P02-CH1	1706024	OK	0.7283362	0.1881966	-0.658869	0	-83.181	-77.007	1.353	B5-03822-P03-CH0	1706024	OK	0.6645766	-0.4377278	-0.6055843	0	-89.764	-56.555	-1.611	B5-03822-P03-CH1	1706024	OK	0.7532392	-0.6388148	0.1566728	0	-104.666	-26.167	2.742	B5-03822-P04-CH0	1706024	OK	0.683846	-0.0910455	0.7239236	0	-130.624	-30.951	9.169	B5-03822-P04-CH1	1706024	OK	0.7641769	-0.6441643	0.0329543	0	-113.022	-44.006	4.259	NA
0.0999211278714384	B5-03822-P01-CH0	1706032	OK	0.2223263	0.0761216	0.0731762	-0.9692377	98.556	31.747	-265.474	B5-03822-P02-CH0	1706032	OK	0.8009628	0.1908348	-0.5674862	0	-95.101	-92.992	7.487	B5-03822-P02-CH1	1706032	OK	0.7292282	0.1914947	-0.6569293	0	-82.993	-76.998	0.637	B5-03822-P03-CH0	1706032	OK	0.6636099	-0.4383231	-0.6062134	0	-89.529	-56.508	-0.84	B5-03822-P03-CH1	1706032	OK	0.753081	-0.6393177	0.1553766	0	-104.718	-26.069	2.989	B5-03822-P04-CH0	1706032	OK	0.6833409	-0.0820404	0.7254754	0	-130.068	-31.27	11.443	B5-03822-P04-CH1	1706032	OK	0.7644702	-0.6438314	0.032657	0	-113.091	-43.954	4.372	NA
0.109913240658582	B5-03822-P01-CH0	1706040	OK	0.2220156	0.0758544	0.0731768	-0.9693298	98.42	31.74	-265.507	B5-03822-P02-CH0	1706040	OK	0.7998211	0.1899124	-0.5694027	0	-96.003	-93.867	10.139	B5-03822-P02-CH1	1706040	OK	0.7295957	0.1948167	-0.6555429	0	-83.032	-76.547	0.99	B5-03822-P03-CH0	1706040	OK	0.6645339	-0.4406822	-0.6034848	0	-89.498	-56.312	-1.093	B5-03822-P03-CH1	1706040	OK	0.7525884	-0.6403485	0.1535074	0	-104.541	-25.919	3.117	B5-03822-P04-CH0	1706040	OK	0.6835498	-0.0774139	0.7257869	0	-130.393	-31.061	10.918	B5-03822-P04-CH1	1706040	OK	0.7645024	-0.6438113	0.0322977	0	-113.026	-43.815	4.112	NA
0.119905353445726	B5-03822-P01-CH0	1706048	OK	0.2216634	0.0762743	0.072044	-0.9694623	98.487	31.737	-265.5	B5-03822-P02-CH0	1706048	OK	0.8008866	0.1935931	-0.5666589	0	-96.103	-93.108	9.331	B5-03822-P02-CH1	1706048	OK	0.7289073	0.1957928	-0.6560178	0	-83.99	-76.922	2.528	B5-03822-P03-CH0	1706048	OK	0.6646825	-0.4423155	-0.6021247	0	-90.061	-56.517	-0.276	B5-03822-P03-CH1	1706048	OK	0.7514906	-0.642149	0.1513492	0	-104.572	-25.723	3.247	B5-03822-P04-CH0	1706048	OK	0.6834309	-0.0715903	0.7264964	0	-130.667	-30.735	10.243	B5-03822-P04-CH1	1706048	OK	0.7636289	-0.6448573	0.0320926	0	-113.102	-43.863	4.147	NA
0.12989746623287	B5-03822-P01-CH0	1706056	OK	0.2216885	0.0763111	0.0722905	-0.9694354	98.467	31.747	-265.456	B5-03822-P02-CH0	1706056	OK	0.7976508	0.1948362	-0.5707819	0	-97.56	-92.507	11.918	B5-03822-P02-CH1	1706056	OK	0.7317323	0.1946379	-0.6532105	0	-83.064	-77.355	0.304	B5-03822-P03-CH0	1706056	OK	0.6672352	-0.44736	-0.5955386	0	-89.348	-57.225	-1.03	B5-03822-P03-CH1	1706056	OK	0.7497456	-0.6468353	0.1395912	0	-105.089	-25.175	2.517	B5-03822-P04-CH0	1706056	OK	0.6828003	-0.0642192	0.7277772	0	-130.201	-29.8	11.409	B5-03822-P04-CH1	1706056	OK	0.7637534	-0.6447172	0.031946	0	-113.232	-43.892	4.031	NA
0.139889579020014	B5-03822-P01-CH0	1706064	OK	0.2214425	0.0763388	0.071963	-0.9695137	98.458	31.707	-265.43	B5-03822-P02-CH0	1706064	OK	0.80131	0.1936129	-0.5660533	0	-95.702	-93.769	9.511	B5-03822-P02-CH1	1706064	OK	0.7315786	0.1917688	-0.6542305	0	-83.253	-76.808	0.851	B5-03822-P03-CH0	1706064	OK	0.6696415	-0.4508231	-0.5902024	0	-90.297	-56.411	0.159	B5-03822-P03-CH1	1706064	OK	0.7479394	-0.6496401	0.1362145	0	-104.789	-25.268	0.124	B5-03822-P04-CH0	1706064	OK	0.6826513	-0.0594829	0.7283193	0	-130.817	-29.692	8.999	B5-03822-P04-CH1	1706064	OK	0.7637256	-0.6447779	0.0313794	0	-113.3	-43.745	4.028	NA
0.149881691807158	B5-03822-P01-CH0	1706072	OK	0.2213852	0.0763809	0.072293	-0.969499	98.453	31.758	-265.378	B5-03822-P02-CH0	1706072	OK	0.8021793	0.1953725	-0.5642144	0	-94.709	-93.187	7.576	B5-03822-P02-CH1	1706072	OK	0.7315825	0.1862115	-0.6558295	0	-83.317	-76.944	1.22	B5-03822-P03-CH0	1706072	OK	0.6746718	-0.453415	-0.582437	0	-90.567	-55.725	-0.604	B5-03822-P03-CH1	1706072	OK	0.7479572	-0.6505862	0.1315202	0	-104.564	-24.423	-1.528	B5-03822-P04-CH0	1706072	OK	0.683641	-0.0532652	0.7278721	0	-131.064	-30.149	10.845	B5-03822-P04-CH1	1706072	OK	0.7638414	-0.6446353	0.031492	0	-113.225	-43.789	4.109	NA
0.159873804594301	B5-03822-P01-CH0	1706080	OK	0.2213346	0.0762349	0.0723828	-0.9695153	98.37	31.77	-265.362	B5-03822-P02-CH0	1706080	OK	0.8014499	0.1897551	-0.5671605	0	-93.685	-93.741	7.252	B5-03822-P02-CH1	1706080	OK	0.7291718	0.1784519	-0.6606538	0	-84.263	-77.546	2.14	B5-03822-P03-CH0	1706080	OK	0.6814298	-0.4594081	-0.5697347	0	-90.39	-56.441	-1.198	B5-03822-P03-CH1	1706080	OK	0.7474318	-0.6517735	0.1285962	0	-104.892	-24.493	0.496	B5-03822-P04-CH0	1706080	OK	0.682888	-0.0474146	0.7289828	0	-131.187	-30.244	10.91	B5-03822-P04-CH1	1706080	OK	0.7639132	-0.6445546	0.0313987	0	-113.312	-43.739	4.086	NA
0.169865917381445	B5-03822-P01-CH0	1706088	OK	0.2212775	0.0762971	0.0727321	-0.9694973	98.383	31.825	-265.39	B5-03822-P02-CH0	1706088	OK	0.7972961	0.1813375	-0.5757045	0	-93.454	-94.297	6.578	B5-03822-P02-CH1	1706088	OK	0.7295734	0.1708001	-0.6622311	0	-82.586	-76.418	1.011	B5-03822-P03-CH0	1706088	OK	0.6913855	-0.4681188	-0.5503189	0	-91.057	-57.376	-2.026	B5-03822-P03-CH1	1706088	OK	0.7458106	-0.6542093	0.1256055	0	-105.294	-24.973	0.558	B5-03822-P04-CH0	1706088	OK	0.6817715	-0.0429405	0.7303039	0	-130.902	-30.306	10.146	B5-03822-P04-CH1	1706088	OK	0.7640352	-0.6443911	0.0317852	0	-113.392	-43.82	4.142	NA
0.179858030168589	B5-03822-P01-CH0	1706096	OK	0.2211647	0.0760155	0.0731024	-0.9695173	98.235	31.842	-265.358	B5-03822-P02-CH0	1706096	OK	0.7916876	0.1689518	-0.5870997	0	-92.53	-95.695	5.576	B5-03822-P02-CH1	1706096	OK	0.7288815	0.1614464	-0.6653321	0	-82.322	-77.632	1.548	B5-03822-P03-CH0	1706096	OK	0.7084295	-0.4835478	-0.5141101	0	-91.202	-57.425	0.439	B5-03822-P03-CH1	1706096	OK	0.7434049	-0.6573722	0.1233329	0	-104.414	-25.181	-1.233	B5-03822-P04-CH0	1706096	OK	0.6807943	-0.0375261	0.7315128	0	-130.904	-30.687	9.99	B5-03822-P04-CH1	1706096	OK	0.7642911	-0.6440797	0.0319434	0	-113.468	-43.735	4.04	NA
0.189850142955733	B5-03822-P01-CH0	1706104	OK	0.2213232	0.0761017	0.0735358	-0.9694416	98.242	31.888	-265.374	B5-03822-P02-CH0	1706104	OK	0.7855266	0.1579036	-0.598343	0	-90.165	-96.211	3.218	B5-03822-P02-CH1	1706104	OK	0.7277317	0.1520515	-0.6687952	0	-81.855	-77.601	0.982	B5-03822-P03-CH0	1706104	OK	0.7247609	-0.5099294	-0.4633505	0	-93.366	-57.966	0.974	B5-03822-P03-CH1	1706104	OK	0.7452468	-0.6556313	0.1214694	0	-104.986	-23.721	1.011	B5-03822-P04-CH0	1706104	OK	0.6811656	-0.0347254	0.7313053	0	-131.056	-31.344	11.496	B5-03822-P04-CH1	1706104	OK	0.7647139	-0.6435445	0.0326043	0	-113.672	-43.723	4.066	NA
0.199842255742877	B5-03822-P01-CH0	1706112	OK	0.2211986	0.0763362	0.0734855	-0.9694555	98.288	31.933	-265.413	B5-03822-P02-CH0	1706112	OK	0.7761051	0.143798	-0.6139894	0	-88.897	-97.426	2.817	B5-03822-P02-CH1	1706112	OK	0.7266894	0.1403322	-0.67248	0	-81.706	-79.089	1.93	B5-03822-P03-CH0	1706112	OK	0.7440022	-0.5405783	-0.3927286	0	-91.398	-60.351	3.721	B5-03822-P03-CH1	1706112	OK	0.7442869	-0.656781	0.121143	0	-105.3	-24.04	2.198	B5-03822-P04-CH0	1706112	OK	0.683931	-0.0361047	0.7286527	0	-132.488	-31.044	10.744	B5-03822-P04-CH1	1706112	OK	0.7645027	-0.6437493	0.0335017	0	-113.831	-43.855	3.94	NA
0.209834368530021	B5-03822-P01-CH0	1706120	OK	0.2211824	0.0762868	0.0739103	-0.9694307	98.249	31.997	-265.452	B5-03822-P02-CH0	1706120	OK	0.7669735	0.1296631	-0.6284418	0	-87.485	-98.727	1.444	B5-03822-P02-CH1	1706120	OK	0.7283406	0.1251797	-0.673684	0	-80.188	-80.678	0.738	B5-03822-P03-CH0	1706120	OK	0.76659	-0.549011	-0.3330566	0	-94.804	-61.477	6.676	B5-03822-P03-CH1	1706120	OK	0.7419083	-0.6593045	0.1220233	0	-104.373	-25.061	-0.033	B5-03822-P04-CH0	1706120	OK	0.6820259	-0.0377148	0.7303549	0	-131.821	-31.085	10.871	B5-03822-P04-CH1	1706120	OK	0.7647778	-0.6433745	0.0344117	0	-113.999	-43.893	3.889	NA
0.219826481317165	B5-03822-P01-CH0	1706128	OK	0.2208918	0.0761612	0.0739136	-0.9695066	98.174	31.947	-265.481	B5-03822-P02-CH0	1706128	OK	0.7593715	0.1162925	-0.6401804	0	-85.761	-100.468	1.123	B5-03822-P02-CH1	1706128	OK	0.7255033	0.1152651	-0.6784975	0	-80.444	-81.565	1.857	B5-03822-P03-CH0	1706128	OK	0.7864757	-0.5516295	-0.2777785	0	-95.174	-63.242	7.259	B5-03822-P03-CH1	1706128	OK	0.7431771	-0.6579601	0.121558	0	-105.013	-24.675	0.361	B5-03822-P04-CH0	1706128	OK	0.6827184	-0.0445969	0.7293194	0	-131.39	-30.592	10.438	B5-03822-P04-CH1	1706128	OK	0.7650148	-0.6430525	0.035154	0	-114.154	-43.846	3.927	NA
0.229818594104308	B5-03822-P01-CH0	1706136	OK	0.220584	0.0761578	0.073715	-0.9695921	98.136	31.96	-265.588	B5-03822-P02-CH0	1706136	OK	0.7571198	0.1059077	-0.6446341	0	-82.875	-102.627	-3.087	B5-03822-P02-CH1	1706136	OK	0.7238666	0.108999	-0.6812755	0	-79.532	-82.448	1.068	B5-03822-P03-CH0	1706136	OK	0.7995879	-0.5524994	-0.2353799	0	-95.672	-64.375	9.187	B5-03822-P03-CH1	1706136	OK	0.7424939	-0.6587812	0.1212855	0	-104.431	-24.926	0.565	B5-03822-P04-CH0	1706136	OK	0.6824273	-0.0440433	0.7296254	0	-131.361	-30.535	10.627	B5-03822-P04-CH1	1706136	OK	0.764955	-0.643073	0.0360691	0	-114.272	-43.85	4.018	NA
0.239810706891452	B5-03822-P01-CH0	1706144	OK	0.2205683	0.0761404	0.0743158	-0.9695511	98.11	32.061	-265.656	B5-03822-P02-CH0	1706144	OK	0.7524807	0.0994811	-0.6510578	0	-83.016	-102.666	-1.552	B5-03822-P02-CH1	1706144	OK	0.7208114	0.1042545	-0.6852459	0	-79.528	-82.53	0.819	B5-03822-P03-CH0	1706144	OK	0.80639	-0.5551093	-0.2039334	0	-96.968	-64.706	7.983	B5-03822-P03-CH1	1706144	OK	0.7447684	-0.6559304	0.122782	0	-104.89	-24.602	1.222	B5-03822-P04-CH0	1706144	OK	0.682183	-0.0442291	0.7298425	0	-131.301	-30.492	10.79	B5-03822-P04-CH1	1706144	OK	0.7652127	-0.6426811	0.0375573	0	-114.392	-44.053	4.131	NA
0.249802819678596	B5-03822-P01-CH0	1706152	OK	0.2202574	0.0762253	0.0738134	-0.9696535	98.084	31.99	-265.666	B5-03822-P02-CH0	1706152	OK	0.7517267	0.0922847	-0.6529858	0	-84.3	-103.003	-0.501	B5-03822-P02-CH1	1706152	OK	0.7196032	0.0999113	-0.6871601	0	-79.213	-82.564	1.15	B5-03822-P03-CH0	1706152	OK	0.8102477	-0.5622591	-0.1654187	0	-95.605	-65.497	11.099	B5-03822-P03-CH1	1706152	OK	0.7440868	-0.6568703	0.1218865	0	-104.875	-24.598	1.295	B5-03822-P04-CH0	1706152	OK	0.6819626	-0.045579	0.7299655	0	-131.232	-30.502	10.874	B5-03822-P04-CH1	1706152	OK	0.7649458	-0.642949	0.038399	0	-114.643	-44.169	4.126	NA
0.25979493246574	B5-03822-P01-CH0	1706160	OK	0.2203223	0.0762032	0.0742622	-0.9696062	98.036	32.099	-265.662	B5-03822-P02-CH0	1706160	OK	0.7568462	0.0844039	-0.6481202	0	-84.066	-102.477	-1.171	B5-03822-P02-CH1	1706160	OK	0.7187367	0.1001959	-0.6880249	0	-79.058	-82.871	1.378	B5-03822-P03-CH0	1706160	OK	0.8157853	-0.5603945	-0.1430121	0	-97.418	-65.886	10.858	B5-03822-P03-CH1	1706160	OK	0.7439606	-0.6570911	0.1214656	0	-104.836	-24.586	0.906	B5-03822-P04-CH0	1706160	OK	0.6827979	-0.0595795	0.7281739	0	-131.525	-31.511	10.226	B5-03822-P04-CH1	1706160	OK	0.7652553	-0.6424861	0.0399476	0	-114.718	-44.273	4.117	NA
0.269787045252884	B5-03822-P01-CH0	1706168	OK	0.2200408	0.0760615	0.0743347	-0.9696757	97.971	32.153	-265.683	B5-03822-P02-CH0	1706168	OK	0.7642747	0.0755923	-0.6404451	0	-83.794	-103.251	-0.215	B5-03822-P02-CH1	1706168	OK	0.7187698	0.1024974	-0.6876513	0	-78.895	-82.918	1.092	B5-03822-P03-CH0	1706168	OK	0.8223578	-0.5560839	-0.1204091	0	-96.324	-66.102	11.858	B5-03822-P03-CH1	1706168	OK	0.7439332	-0.6572258	0.1209037	0	-104.79	-24.524	0.9	B5-03822-P04-CH0	1706168	OK	0.6815308	-0.0601411	0.7293139	0	-131.267	-30.272	9.489	B5-03822-P04-CH1	1706168	OK	0.7654472	-0.6422113	0.0406853	0	-114.896	-44.264	4.276	NA
0.279779158040028	B5-03822-P01-CH0	1706176	OK	0.2199633	0.0759853	0.0741877	-0.9697106	97.933	32.148	-265.701	B5-03822-P02-CH0	1706176	OK	0.7736395	0.0690957	-0.6298474	0	-83.733	-103.527	-0.43	B5-03822-P02-CH1	1706176	OK	0.7182076	0.1108631	-0.6869405	0	-79.671	-82.568	2.223	B5-03822-P03-CH0	1706176	OK	0.827361	-0.5505165	-0.1113792	0	-97.162	-65.62	11.791	B5-03822-P03-CH1	1706176	OK	0.7441106	-0.657051	0.1207619	0	-104.818	-24.496	1.124	B5-03822-P04-CH0	1706176	OK	0.6818914	-0.0508503	0.7296838	0	-131.294	-30.423	10.789	B5-03822-P04-CH1	1706176	OK	0.7654933	-0.6420764	0.0419268	0	-114.989	-44.382	4.298	NA
0.289771270827171	B5-03822-P01-CH0	1706184	OK	0.2199339	0.0759041	0.0742633	-0.9697178	97.927	32.152	-265.687	B5-03822-P02-CH0	1706184	OK	0.7820712	0.0661932	-0.6196637	0	-85.004	-102.477	0.301	B5-03822-P02-CH1	1706184	OK	0.7173767	0.1262263	-0.6851552	0	-80.594	-82.719	1.517	B5-03822-P03-CH0	1706184	OK	0.8282193	-0.5498994	-0.1079975	0	-96.539	-65.828	12.425	B5-03822-P03-CH1	1706184	OK	0.7443408	-0.6568125	0.1206407	0	-104.632	-24.56	0.96	B5-03822-P04-CH0	1706184	OK	0.6817854	-0.0528122	0.7296435	0	-131.311	-30.428	10.41	B5-03822-P04-CH1	1706184	OK	0.7655663	-0.6419284	0.042849	0	-115.118	-44.525	4.21	NA
0.299763383614315	B5-03822-P01-CH0	1706192	OK	0.2201077	0.0758532	0.0747077	-0.9696482	97.939	32.205	-265.69	B5-03822-P02-CH0	1706192	OK	0.7875053	0.0650295	-0.6128674	0	-87.655	-100.479	4.801	B5-03822-P02-CH1	1706192	OK	0.7183656	0.1460549	-0.6801609	0	-80.276	-82.982	1.536	B5-03822-P03-CH0	1706192	OK	0.8252432	-0.5513041	-0.1226272	0	-96.979	-65.714	12.53	B5-03822-P03-CH1	1706192	OK	0.7448556	-0.6561944	0.1208261	0	-104.698	-24.733	0.615	B5-03822-P04-CH0	1706192	OK	0.6818092	-0.0542976	0.7295121	0	-131.242	-30.484	10.404	B5-03822-P04-CH1	1706192	OK	0.7661553	-0.6411691	0.0436838	0	-115.193	-44.521	4.463	NA
0.309755496401459	B5-03822-P01-CH0	1706200	OK	0.2199826	0.0757795	0.0744893	-0.9696992	97.926	32.199	-265.658	B5-03822-P02-CH0	1706200	OK	0.7969863	0.0607183	-0.6009377	0	-88.61	-102.046	4.447	B5-03822-P02-CH1	1706200	OK	0.7223071	0.1731923	-0.6695348	0	-79.242	-83.276	0.495	B5-03822-P03-CH0	1706200	OK	0.8179774	-0.5546183	-0.1526813	0	-96.873	-65.493	11.667	B5-03822-P03-CH1	1706200	OK	0.7454253	-0.6555943	0.1205704	0	-104.616	-24.648	0.764	B5-03822-P04-CH0	1706200	OK	0.682198	-0.0558966	0.7290277	0	-131.32	-30.544	10.489	B5-03822-P04-CH1	1706200	OK	0.7660658	-0.6412532	0.0440171	0	-115.313	-44.623	4.508	NA
0.319747609188603	B5-03822-P01-CH0	1706208	OK	0.2202344	0.0756414	0.0748694	-0.9696235	97.897	32.233	-265.59	B5-03822-P02-CH0	1706208	OK	0.8021909	0.0624717	-0.5937904	0	-90.61	-99.271	6.404	B5-03822-P02-CH1	1706208	OK	0.7212295	0.2021627	-0.6625393	0	-80.806	-82.509	2.102	B5-03822-P03-CH0	1706208	OK	0.8053095	-0.5572963	-0.202231	0	-96.113	-65.17	9.549	B5-03822-P03-CH1	1706208	OK	0.7508177	-0.6495137	0.1200194	0	-104.223	-23.665	1.473	B5-03822-P04-CH0	1706208	OK	0.6823956	-0.0569814	0.7287588	0	-131.294	-30.689	10.382	B5-03822-P04-CH1	1706208	OK	0.7663339	-0.6408933	0.0445887	0	-115.345	-44.73	4.347	NA
0.329739721975747	B5-03822-P01-CH0	1706216	OK	0.2201955	0.0758755	0.0741656	-0.9696681	98.005	32.153	-265.557	B5-03822-P02-CH0	1706216	OK	0.8064179	0.0618899	-0.5880985	0	-92.591	-98.179	9.224	B5-03822-P02-CH1	1706216	OK	0.7231819	0.2311622	-0.6508241	0	-80.675	-82.371	1.952	B5-03822-P03-CH0	1706216	OK	0.7844502	-0.5590472	-0.268522	0	-94.978	-64.834	7.326	B5-03822-P03-CH1	1706216	OK	0.7506006	-0.6493302	0.1223478	0	-104.349	-24.565	1.61	B5-03822-P04-CH0	1706216	OK	0.6829098	-0.0576955	0.7282207	0	-131.442	-30.863	10.483	B5-03822-P04-CH1	1706216	OK	0.7659812	-0.6412912	0.0449271	0	-115.367	-44.876	4.428	NA
0.339731834762891	B5-03822-P01-CH0	1706224	OK	0.2202702	0.0759784	0.074298	-0.969633	98.033	32.273	-265.503	B5-03822-P02-CH0	1706224	OK	0.8116015	0.0592974	-0.5811942	0	-93.672	-97.559	9.811	B5-03822-P02-CH1	1706224	OK	0.7242231	0.2553192	-0.6405568	0	-80.829	-82.259	1.499	B5-03822-P03-CH0	1706224	OK	0.7568882	-0.5547242	-0.345545	0	-93.641	-63.842	4.743	B5-03822-P03-CH1	1706224	OK	0.7514214	-0.6481131	0.1237554	0	-104.642	-24.697	1.331	B5-03822-P04-CH0	1706224	OK	0.6836266	-0.0581635	0.7275106	0	-131.614	-30.831	10.599	B5-03822-P04-CH1	1706224	OK	0.7663043	-0.6408953	0.0450665	0	-115.392	-44.684	4.461	NA
0.349723947550034	B5-03822-P01-CH0	1706232	OK	0.2204572	0.075821	0.0747917	-0.9695648	97.995	32.378	-265.489	B5-03822-P02-CH0	1706232	OK	0.8182564	0.0586173	-0.571857	0	-93.754	-96.38	8.615	B5-03822-P02-CH1	1706232	OK	0.724356	0.2742321	-0.6325387	0	-81.404	-81.779	0.288	B5-03822-P03-CH0	1706232	OK	0.7250598	-0.5436873	-0.4227201	0	-92.295	-62.825	1.855	B5-03822-P03-CH1	1706232	OK	0.7529285	-0.6461158	0.1250326	0	-104.38	-24.437	1.613	B5-03822-P04-CH0	1706232	OK	0.6840943	-0.058597	0.7270361	0	-131.519	-30.812	10.872	B5-03822-P04-CH1	1706232	OK	0.7667336	-0.640381	0.0450758	0	-115.443	-44.587	4.424	NA
0.359716060337178	B5-03822-P01-CH0	1706240	OK	0.2200922	0.0759733	0.073933	-0.9697017	98.045	32.315	-265.595	B5-03822-P02-CH0	1706240	OK	0.8226289	0.0565766	-0.5657569	0	-94.243	-95.699	8.733	B5-03822-P02-CH1	1706240	OK	0.7240774	0.2904918	-0.6255609	0	-82.318	-80.338	0.569	B5-03822-P03-CH0	1706240	OK	0.6943502	-0.518202	-0.4993441	0	-91.081	-61.46	-1.226	B5-03822-P03-CH1	1706240	OK	0.7517046	-0.6468722	0.1284392	0	-103.833	-25.585	1.473	B5-03822-P04-CH0	1706240	OK	0.684801	-0.0604142	0.7262215	0	-131.475	-30.675	11.327	B5-03822-P04-CH1	1706240	OK	0.7663119	-0.640919	0.0445979	0	-115.481	-44.52	4.585	NA
0.369708173124322	B5-03822-P01-CH0	1706248	OK	0.2200591	0.0762487	0.0736673	-0.9697078	98.132	32.294	-265.523	B5-03822-P02-CH0	1706248	OK	0.824913	0.056012	-0.5624777	0	-95.12	-93.508	8.439	B5-03822-P02-CH1	1706248	OK	0.7279647	0.3015274	-0.6157505	0	-81.981	-80.896	0.729	B5-03822-P03-CH0	1706248	OK	0.6765453	-0.4770081	-0.5610256	0	-87.749	-61.424	0.159	B5-03822-P03-CH1	1706248	OK	0.7542416	-0.6435146	0.1304172	0	-104.959	-25.322	3.494	B5-03822-P04-CH0	1706248	OK	0.6920554	-0.0738827	0.7180534	0	-132.268	-31.752	10.167	B5-03822-P04-CH1	1706248	OK	0.7662366	-0.6410339	0.0442373	0	-115.531	-44.457	4.665	NA
0.379700285911466	B5-03822-P01-CH0	1706256	OK	0.2201303	0.0763343	0.0738307	-0.9696725	98.142	32.307	-265.501	B5-03822-P02-CH0	1706256	OK	0.8236948	0.0511097	-0.5647253	0	-96.865	-93.225	12.171	B5-03822-P02-CH1	1706256	OK	0.731345	0.3088906	-0.608047	0	-81.841	-79.426	-0.095	B5-03822-P03-CH0	1706256	OK	0.6626557	-0.4364403	-0.6086109	0	-90.003	-57.531	-4.689	B5-03822-P03-CH1	1706256	OK	0.7549379	-0.6423863	0.1319418	0	-104.04	-25.343	3.987	B5-03822-P04-CH0	1706256	OK	0.6928781	-0.0789817	0.716716	0	-131.702	-31.211	10.787	B5-03822-P04-CH1	1706256	OK	0.7662662	-0.6410197	0.0439296	0	-115.473	-44.475	4.838	NA
0.38969239869861	B5-03822-P01-CH0	1706264	OK	0.2200094	0.076343	0.0736449	-0.9697134	98.077	32.358	-265.553	B5-03822-P02-CH0	1706264	OK	0.8282566	0.0543746	-0.5577046	0	-96.426	-92.194	12.116	B5-03822-P02-CH1	1706264	OK	0.7332018	0.3097602	-0.6053625	0	-82.517	-77.867	0.042	B5-03822-P03-CH0	1706264	OK	0.6536364	-0.4288572	-0.6235712	0	-85.506	-57.837	-0.612	B5-03822-P03-CH1	1706264	OK	0.7558907	-0.6412418	0.1320536	0	-104.78	-25.164	3.859	B5-03822-P04-CH0	1706264	OK	0.6935537	-0.0811287	0.7158222	0	-131.432	-31.732	11.467	B5-03822-P04-CH1	1706264	OK	0.7661354	-0.6412207	0.043274	0	-115.274	-44.314	5.012	NA
0.399684511485754	B5-03822-P01-CH0	1706272	OK	0.219897	0.076177	0.0735347	-0.9697603	98.008	32.255	-265.567	B5-03822-P02-CH0	1706272	OK	0.830128	0.0561966	-0.5547336	0	-97.128	-92.113	12.017	B5-03822-P02-CH1	1706272	OK	0.7358025	0.3041796	-0.6050367	0	-82.827	-77.468	0.908	B5-03822-P03-CH0	1706272	OK	0.6499574	-0.4328588	-0.6246507	0	-85.979	-58.605	0.875	B5-03822-P03-CH1	1706272	OK	0.7561089	-0.6407999	0.1329467	0	-105.539	-25.429	2.623	B5-03822-P04-CH0	1706272	OK	0.6929291	-0.0866068	0.7157853	0	-130.7	-31.214	11.592	B5-03822-P04-CH1	1706272	OK	0.7660881	-0.6413385	0.0423544	0	-115.103	-44.222	5.023	NA
0.409676624272898	B5-03822-P01-CH0	1706280	OK	0.2198923	0.0764109	0.073622	-0.9697363	98.079	32.291	-265.579	B5-03822-P02-CH0	1706280	OK	0.8303038	0.0619048	-0.5538622	0	-97.816	-90.798	13.474	B5-03822-P02-CH1	1706280	OK	0.7374198	0.2957725	-0.6072319	0	-83.588	-77.812	2.545	B5-03822-P03-CH0	1706280	OK	0.6514903	-0.4428258	-0.6160079	0	-88.826	-57.614	-3.54	B5-03822-P03-CH1	1706280	OK	0.7551944	-0.6415601	0.1344695	0	-104.919	-25.98	1.505	B5-03822-P04-CH0	1706280	OK	0.6951535	-0.0900245	0.7132021	0	-131.418	-31.14	11.121	B5-03822-P04-CH1	1706280	OK	0.7661384	-0.6413251	0.0416413	0	-115.044	-44.048	5.115	NA
0.419668737060041	B5-03822-P01-CH0	1706288	OK	0.2196261	0.0767689	0.0730498	-0.9698117	98.142	32.294	-265.548	B5-03822-P02-CH0	1706288	OK	0.8304573	0.0661851	-0.5531367	0	-98.293	-90.982	13.834	B5-03822-P02-CH1	1706288	OK	0.7373224	0.2882478	-0.6109574	0	-84.657	-77.66	3.114	B5-03822-P03-CH0	1706288	OK	0.6570271	-0.4574104	-0.5992421	0	-89.638	-56.751	-4.944	B5-03822-P03-CH1	1706288	OK	0.7557559	-0.6406757	0.1355272	0	-104.7	-25.801	2.957	B5-03822-P04-CH0	1706288	OK	0.6951314	-0.0927795	0.7128705	0	-131.517	-31.295	10.938	B5-03822-P04-CH1	1706288	OK	0.7655976	-0.6420346	0.0406439	0	-115.091	-43.948	5.307	NA
0.429660849847185	B5-03822-P01-CH0	1706296	OK	0.2197948	0.0766718	0.0742484	-0.9696901	98.123	32.43	-265.571	B5-03822-P02-CH0	1706296	OK	0.8320812	0.0703804	-0.5501704	0	-98.031	-91.713	12.157	B5-03822-P02-CH1	1706296	OK	0.7378841	0.2806183	-0.6138245	0	-84.447	-77.099	3.82	B5-03822-P03-CH0	1706296	OK	0.6673506	-0.4722786	-0.5758438	0	-89.257	-56.487	-3.189	B5-03822-P03-CH1	1706296	OK	0.757761	-0.6385185	0.1345076	0	-105.211	-25.14	3.375	B5-03822-P04-CH0	1706296	OK	0.6957424	-0.092713	0.7122828	0	-131.503	-31.046	12.453	B5-03822-P04-CH1	1706296	OK	0.7661602	-0.6414194	0.0397444	0	-115.161	-43.786	5.094	NA
0.439652962634329	B5-03822-P01-CH0	1706304	OK	0.2193006	0.0766925	0.0731622	-0.9698829	98.098	32.233	-265.575	B5-03822-P02-CH0	1706304	OK	0.832218	0.0764976	-0.549146	0	-98.129	-91.275	12.464	B5-03822-P02-CH1	1706304	OK	0.7407346	0.2720442	-0.614251	0	-83.731	-76.903	1.721	B5-03822-P03-CH0	1706304	OK	0.6738787	-0.4808613	-0.5609455	0	-90.789	-56.598	-0.565	B5-03822-P03-CH1	1706304	OK	0.7547847	-0.6425587	0.1319788	0	-104.491	-25.306	2.217	B5-03822-P04-CH0	1706304	OK	0.6939359	-0.0948543	0.7137616	0	-131.245	-30.895	10.934	B5-03822-P04-CH1	1706304	OK	0.7650807	-0.6428013	0.0381838	0	-115.351	-43.865	4.916	NA
0.449645075421473	B5-03822-P01-CH0	1706312	OK	0.2193391	0.0768166	0.0732991	-0.969854	98.153	32.244	-265.635	B5-03822-P02-CH0	1706312	OK	0.8304219	0.0775589	-0.5517101	0	-98.486	-91.688	13.686	B5-03822-P02-CH1	1706312	OK	0.7392103	0.2639108	-0.6196122	0	-84.191	-76.186	2.412	B5-03822-P03-CH0	1706312	OK	0.680342	-0.4887517	-0.5461287	0	-90.194	-57.937	1.168	B5-03822-P03-CH1	1706312	OK	0.7553374	-0.6416208	0.1333723	0	-104.681	-25.491	2.348	B5-03822-P04-CH0	1706312	OK	0.6936186	-0.0879077	0.7149584	0	-131.324	-30.845	11.476	B5-03822-P04-CH1	1706312	OK	0.7650141	-0.6429154	0.0375929	0	-115.313	-43.803	4.956	NA
0.459637188208617	B5-03822-P01-CH0	1706320	OK	0.219617	0.0766072	0.0739753	-0.9697563	98.062	32.239	-265.532	B5-03822-P02-CH0	1706320	OK	0.8282965	0.0791933	-0.5546651	0	-98.296	-91.781	13.583	B5-03822-P02-CH1	1706320	OK	0.7401865	0.2524953	-0.6231935	0	-82.829	-77.716	-1.117	B5-03822-P03-CH0	1706320	OK	0.6868195	-0.494827	-0.5323769	0	-91.303	-58.692	-0.951	B5-03822-P03-CH1	1706320	OK	0.7564184	-0.6400969	0.1345628	0	-104.453	-25.475	2.515	B5-03822-P04-CH0	1706320	OK	0.6942215	-0.089144	0.7142198	0	-131.426	-31.022	11.105	B5-03822-P04-CH1	1706320	OK	0.7653288	-0.642579	0.0369335	0	-115.315	-43.723	4.781	NA
0.469629300995761	B5-03822-P01-CH0	1706328	OK	0.2197727	0.0766223	0.074468	-0.9696822	98.069	32.29	-265.583	B5-03822-P02-CH0	1706328	OK	0.8280215	0.081359	-0.5547622	0	-97.034	-91.745	11.786	B5-03822-P02-CH1	1706328	OK	0.7356882	0.237257	-0.6344068	0	-83.92	-77.165	2.242	B5-03822-P03-CH0	1706328	OK	0.6971215	-0.4988451	-0.5149517	0	-91.921	-58.392	-0.93	B5-03822-P03-CH1	1706328	OK	0.7573111	-0.6388133	0.1356368	0	-104.519	-25.367	2.236	B5-03822-P04-CH0	1706328	OK	0.6947359	-0.0901786	0.7135895	0	-131.601	-31.068	11.094	B5-03822-P04-CH1	1706328	OK	0.7654502	-0.6424371	0.036886	0	-115.247	-43.722	4.695	NA
0.479621413782904	B5-03822-P01-CH0	1706336	OK	0.2197087	0.0768048	0.0746183	-0.9696707	98.12	32.353	-265.572	B5-03822-P02-CH0	1706336	OK	0.8270538	0.080675	-0.5563035	0	-96.107	-92.702	10.082	B5-03822-P02-CH1	1706336	OK	0.7352174	0.2181402	-0.6417712	0	-84.213	-77.747	2.442	B5-03822-P03-CH0	1706336	OK	0.7077321	-0.4997924	-0.4993224	0	-93.006	-58.269	0.008	B5-03822-P03-CH1	1706336	OK	0.7578213	-0.6379651	0.1367752	0	-104.693	-25.427	2.118	B5-03822-P04-CH0	1706336	OK	0.6949863	-0.0913509	0.7131964	0	-131.678	-31.084	11.217	B5-03822-P04-CH1	1706336	OK	0.7654041	-0.6425132	0.0365159	0	-115.275	-43.623	4.602	NA
0.489613526570048	B5-03822-P01-CH0	1706344	OK	0.2197335	0.0768511	0.0750149	-0.9696308	98.17	32.366	-265.504	B5-03822-P02-CH0	1706344	OK	0.8236196	0.0815678	-0.5612463	0	-95.863	-92.611	10.82	B5-03822-P02-CH1	1706344	OK	0.7386784	0.1978146	-0.6443785	0	-83.077	-77.746	0.163	B5-03822-P03-CH0	1706344	OK	0.7184628	-0.5012031	-0.4822931	0	-93.669	-58.466	0.379	B5-03822-P03-CH1	1706344	OK	0.7585251	-0.6368318	0.1381486	0	-104.776	-25.539	2.151	B5-03822-P04-CH0	1706344	OK	0.6956786	-0.0923384	0.7123938	0	-131.927	-31.087	11.345	B5-03822-P04-CH1	1706344	OK	0.7655687	-0.6423235	0.0364016	0	-115.425	-43.596	4.522	NA
0.499605639357192	B5-03822-P01-CH0	1706352	OK	0.2196076	0.0769533	0.0748513	-0.9696638	98.162	32.451	-265.513	B5-03822-P02-CH0	1706352	OK	0.8193811	0.0804008	-0.5675829	0	-96.287	-93.485	11.771	B5-03822-P02-CH1	1706352	OK	0.7394526	0.1750067	-0.6500634	0	-84.182	-78.253	1.58	B5-03822-P03-CH0	1706352	OK	0.7274958	-0.5027792	-0.4668651	0	-93.829	-58.487	1.428	B5-03822-P03-CH1	1706352	OK	0.7608739	-0.6318874	0.1476117	0	-104.566	-26.183	3.248	B5-03822-P04-CH0	1706352	OK	0.6958945	-0.093738	0.7120001	0	-132.067	-30.944	11.16	B5-03822-P04-CH1	1706352	OK	0.7652909	-0.6426533	0.0364217	0	-115.448	-43.54	4.477	NA
0.509597752144336	B5-03822-P01-CH0	1706360	OK	0.2195871	0.0766978	0.0749304	-0.9696826	98.063	32.421	-265.554	B5-03822-P02-CH0	1706360	OK	0.8157493	0.083951	-0.5722808	0	-96.462	-93.403	11.878	B5-03822-P02-CH1	1706360	OK	0.7413583	0.1525709	-0.6535365	0	-84.165	-77.474	1.982	B5-03822-P03-CH0	1706360	OK	0.7343904	-0.5059821	-0.4523858	0	-94.016	-58.882	1.926	B5-03822-P03-CH1	1706360	OK	0.7618335	-0.6302389	0.1496952	0	-104.219	-25.625	2.698	B5-03822-P04-CH0	1706360	OK	0.6962084	-0.0948607	0.7115443	0	-132.136	-30.982	11.276	B5-03822-P04-CH1	1706360	OK	0.7653041	-0.6426319	0.0365224	0	-115.439	-43.512	4.341	NA
0.51958986493148	B5-03822-P01-CH0	1706368	OK	0.2195555	0.0764263	0.0750768	-0.9696999	97.983	32.405	-265.631	B5-03822-P02-CH0	1706368	OK	0.8119913	0.0895361	-0.5767612	0	-96.339	-93.446	11.949	B5-03822-P02-CH1	1706368	OK	0.7417408	0.1307644	-0.6578156	0	-85.182	-77.554	2.046	B5-03822-P03-CH0	1706368	OK	0.7404336	-0.5068729	-0.4414045	0	-94.758	-58.221	2.308	B5-03822-P03-CH1	1706368	OK	0.7620698	-0.6294147	0.1519434	0	-104.421	-25.96	4.186	B5-03822-P04-CH0	1706368	OK	0.6961689	-0.0962538	0.7113958	0	-132.054	-30.955	11.269	B5-03822-P04-CH1	1706368	OK	0.7653943	-0.6425261	0.0364929	0	-115.473	-43.493	4.32	NA
0.529581977718624	B5-03822-P01-CH0	1706376	OK	0.2194589	0.0762353	0.0748366	-0.9697554	97.885	32.399	-265.61	B5-03822-P02-CH0	1706376	OK	0.8111503	0.0956976	-0.576955	0	-95.499	-93.557	9.752	B5-03822-P02-CH1	1706376	OK	0.7463224	0.112027	-0.656089	0	-84.712	-78.049	1.264	B5-03822-P03-CH0	1706376	OK	0.7462585	-0.5091885	-0.4287486	0	-95.437	-57.694	2.901	B5-03822-P03-CH1	1706376	OK	0.7603032	-0.6332784	0.1445597	0	-104.375	-25.523	2.602	B5-03822-P04-CH0	1706376	OK	0.6965706	-0.0976334	0.7108144	0	-132.159	-30.869	11.314	B5-03822-P04-CH1	1706376	OK	0.7654518	-0.642444	0.0367317	0	-115.374	-43.321	4.344	NA
0.539574090505767	B5-03822-P01-CH0	1706384	OK	0.2196694	0.0760904	0.0750533	-0.9697023	97.825	32.363	-265.561	B5-03822-P02-CH0	1706384	OK	0.8098366	0.0966422	-0.5786406	0	-94.783	-94.462	9.652	B5-03822-P02-CH1	1706384	OK	0.7495457	0.0970045	-0.6548064	0	-85.753	-77.508	1.79	B5-03822-P03-CH0	1706384	OK	0.7488591	-0.5113213	-0.4216166	0	-96.376	-57.28	2.852	B5-03822-P03-CH1	1706384	OK	0.7608295	-0.6322408	0.1463217	0	-104.246	-25.636	2.673	B5-03822-P04-CH0	1706384	OK	0.6966732	-0.0989634	0.7105299	0	-131.99	-30.94	11.317	B5-03822-P04-CH1	1706384	OK	0.7657989	-0.6419911	0.0374089	0	-115.152	-43.314	4.433	NA
0.549566203292911	B5-03822-P01-CH0	1706392	OK	0.2196948	0.0763549	0.0748625	-0.9696905	97.891	32.341	-265.497	B5-03822-P02-CH0	1706392	OK	0.8069771	0.0970564	-0.582553	0	-95.191	-95.401	8.305	B5-03822-P02-CH1	1706392	OK	0.7493158	0.087047	-0.6564668	0	-87.874	-76.417	5.412	B5-03822-P03-CH0	1706392	OK	0.7487251	-0.5089387	-0.4247259	0	-96.895	-57.466	2.795	B5-03822-P03-CH1	1706392	OK	0.7611768	-0.631481	0.1477894	0	-104.262	-25.711	3.033	B5-03822-P04-CH0	1706392	OK	0.698091	-0.1103937	0.7074476	0	-131.899	-31.449	10.508	B5-03822-P04-CH1	1706392	OK	0.7657874	-0.6419949	0.0375791	0	-115.235	-43.328	4.499	NA
0.559558316080055	B5-03822-P01-CH0	1706400	OK	0.2195904	0.0763017	0.0744491	-0.9697502	97.85	32.332	-265.486	B5-03822-P02-CH0	1706400	OK	0.8041817	0.0966505	-0.5864729	0	-95.255	-95.739	9.258	B5-03822-P02-CH1	1706400	OK	0.7538106	0.0767239	-0.6525971	0	-87.038	-77.405	2.79	B5-03822-P03-CH0	1706400	OK	0.7473344	-0.5029724	-0.4341775	0	-97.182	-56.876	2.54	B5-03822-P03-CH1	1706400	OK	0.7611478	-0.6312226	0.1490374	0	-104.429	-25.802	3.092	B5-03822-P04-CH0	1706400	OK	0.6972067	-0.1037077	0.7093289	0	-131.833	-30.886	11.469	B5-03822-P04-CH1	1706400	OK	0.7654806	-0.6423351	0.0380144	0	-115.132	-43.383	4.383	NA
0.569550428867199	B5-03822-P01-CH0	1706408	OK	0.219514	0.0761046	0.0739674	-0.9698198	97.751	32.263	-265.466	B5-03822-P02-CH0	1706408	OK	0.8030768	0.0998572	-0.5874489	0	-95.083	-95.022	9.345	B5-03822-P02-CH1	1706408	OK	0.753875	0.0690744	-0.6533767	0	-87.844	-76.127	5.969	B5-03822-P03-CH0	1706408	OK	0.7450298	-0.4949679	-0.4471436	0	-96.616	-55.712	3.118	B5-03822-P03-CH1	1706408	OK	0.7608933	-0.6312589	0.1501786	0	-104.355	-26	3.513	B5-03822-P04-CH0	1706408	OK	0.6972518	-0.1067891	0.7088272	0	-131.642	-30.696	11.303	B5-03822-P04-CH1	1706408	OK	0.7652536	-0.6426147	0.0378579	0	-115.014	-43.359	4.395	NA
0.579542541654343	B5-03822-P01-CH0	1706416	OK	0.2194241	0.0759977	0.0733463	-0.9698957	97.714	32.177	-265.514	B5-03822-P02-CH0	1706416	OK	0.804095	0.1021662	-0.5856563	0	-94.42	-95.54	7.796	B5-03822-P02-CH1	1706416	OK	0.7566221	0.0614773	-0.6509559	0	-87.756	-77.633	3.692	B5-03822-P03-CH0	1706416	OK	0.7392748	-0.4893958	-0.4625629	0	-96.825	-56.309	2.895	B5-03822-P03-CH1	1706416	OK	0.7603608	-0.6317111	0.1509719	0	-104.303	-26.169	3.577	B5-03822-P04-CH0	1706416	OK	0.6974198	-0.1100531	0.7081623	0	-131.609	-30.549	11.013	B5-03822-P04-CH1	1706416	OK	0.7651276	-0.6427942	0.0373554	0	-115.066	-43.244	4.492	NA
0.589534654441487	B5-03822-P01-CH0	1706424	OK	0.2196609	0.0757309	0.0739842	-0.9698145	97.624	32.223	-265.515	B5-03822-P02-CH0	1706424	OK	0.8008348	0.1059901	-0.5894317	0	-95.38	-95	9.905	B5-03822-P02-CH1	1706424	OK	0.7564567	0.057078	-0.6515484	0	-87.949	-76.668	4.152	B5-03822-P03-CH0	1706424	OK	0.7358206	-0.4802214	-0.4774468	0	-96.823	-56.277	1.96	B5-03822-P03-CH1	1706424	OK	0.7606702	-0.6311719	0.1516671	0	-104.223	-26.188	3.588	B5-03822-P04-CH0	1706424	OK	0.697646	-0.1127477	0.7075154	0	-131.497	-30.513	10.836	B5-03822-P04-CH1	1706424	OK	0.7655968	-0.6422403	0.0372689	0	-115.023	-43.212	4.397	NA
0.599526767228631	B5-03822-P01-CH0	1706432	OK	0.2195075	0.0759445	0.073572	-0.9698639	97.693	32.197	-265.478	B5-03822-P02-CH0	1706432	OK	0.8003733	0.1115466	-0.5890331	0	-95.461	-94.7	8.886	B5-03822-P02-CH1	1706432	OK	0.7548766	0.0514493	-0.6538458	0	-88.264	-76.319	6.068	B5-03822-P03-CH0	1706432	OK	0.7331625	-0.4713832	-0.4901741	0	-96.463	-55.756	2.662	B5-03822-P03-CH1	1706432	OK	0.7603983	-0.6315041	0.1516477	0	-104.441	-26.197	3.765	B5-03822-P04-CH0	1706432	OK	0.6979311	-0.1158775	0.7067281	0	-131.549	-30.438	10.788	B5-03822-P04-CH1	1706432	OK	0.7653604	-0.6425394	0.0369667	0	-115.136	-43.235	4.377	NA
0.609518880015774	B5-03822-P01-CH0	1706440	OK	0.2197707	0.0761866	0.0738298	-0.9697658	97.739	32.257	-265.328	B5-03822-P02-CH0	1706440	OK	0.8009431	0.1146355	-0.5876639	0	-94.925	-94.953	8.589	B5-03822-P02-CH1	1706440	OK	0.7550175	0.046756	-0.6540356	0	-87.601	-76.136	4.12	B5-03822-P03-CH0	1706440	OK	0.7316505	-0.4671948	-0.4964037	0	-96.256	-55.631	1.898	B5-03822-P03-CH1	1706440	OK	0.7605572	-0.631263	0.1518544	0	-104.604	-26.179	3.99	B5-03822-P04-CH0	1706440	OK	0.6982461	-0.118651	0.7059563	0	-131.491	-30.228	10.787	B5-03822-P04-CH1	1706440	OK	0.7655321	-0.6423311	0.0370327	0	-115.168	-43.286	4.39	NA
0.619510992802918	B5-03822-P01-CH0	1706448	OK	0.2198545	0.0763202	0.0736039	-0.9697534	97.739	32.24	-265.222	B5-03822-P02-CH0	1706448	OK	0.8011408	0.118824	-0.5865614	0	-94.838	-94.156	8.138	B5-03822-P02-CH1	1706448	OK	0.7542869	0.0402995	-0.655307	0	-87.342	-76.015	3.98	B5-03822-P03-CH0	1706448	OK	0.7308988	-0.4646095	-0.499925	0	-96.261	-55.645	2.497	B5-03822-P03-CH1	1706448	OK	0.7601562	-0.6317114	0.1519976	0	-104.586	-26.176	3.616	B5-03822-P04-CH0	1706448	OK	0.6983636	-0.1212466	0.7053988	0	-131.492	-30.238	10.592	B5-03822-P04-CH1	1706448	OK	0.7656328	-0.6422103	0.0370454	0	-114.942	-43.189	4.422	NA
0.629503105590062	B5-03822-P01-CH0	1706456	OK	0.2199022	0.0763695	0.0732666	-0.9697643	97.748	32.133	-265.225	B5-03822-P02-CH0	1706456	OK	0.8036995	0.1195746	-0.5828971	0	-93.644	-95.299	5.656	B5-03822-P02-CH1	1706456	OK	0.7531669	0.036013	-0.656843	0	-86.966	-75.862	3.499	B5-03822-P03-CH0	1706456	OK	0.7294514	-0.4650913	-0.5015882	0	-97.05	-55.975	2.095	B5-03822-P03-CH1	1706456	OK	0.7597404	-0.6321755	0.152147	0	-104.524	-26.234	3.575	B5-03822-P04-CH0	1706456	OK	0.6979953	-0.1242111	0.7052475	0	-131.286	-30.238	10.319	B5-03822-P04-CH1	1706456	OK	0.765337	-0.6425598	0.0370971	0	-114.809	-43.419	4.475	NA
0.639495218377206	B5-03822-P01-CH0	1706464	OK	0.2199607	0.0764226	0.0736979	-0.9697141	97.748	32.222	-265.22	B5-03822-P02-CH0	1706464	OK	0.8011358	0.1216933	-0.5859797	0	-94.301	-94.447	7.922	B5-03822-P02-CH1	1706464	OK	0.7511733	0.0308522	-0.6593837	0	-87.056	-76.95	2.952	B5-03822-P03-CH0	1706464	OK	0.7283757	-0.4658032	-0.50249	0	-97.457	-55.941	1.175	B5-03822-P03-CH1	1706464	OK	0.7597618	-0.6321482	0.1521535	0	-104.73	-26.206	3.583	B5-03822-P04-CH0	1706464	OK	0.6982521	-0.1269072	0.704513	0	-131.317	-29.993	10.468	B5-03822-P04-CH1	1706464	OK	0.7656741	-0.6421719	0.0368576	0	-114.875	-43.333	4.479	NA
0.64948733116435	B5-03822-P01-CH0	1706472	OK	0.2198822	0.0762553	0.0733433	-0.969772	97.64	32.208	-265.237	B5-03822-P02-CH0	1706472	OK	0.8014231	0.1225552	-0.585407	0	-93.907	-95.12	7.562	B5-03822-P02-CH1	1706472	OK	0.7503162	0.0311683	-0.660344	0	-86.403	-75.692	3.058	B5-03822-P03-CH0	1706472	OK	0.7286697	-0.4670003	-0.5009502	0	-97.14	-55.188	1.699	B5-03822-P03-CH1	1706472	OK	0.7590917	-0.6329437	0.1521912	0	-104.56	-26.177	3.284	B5-03822-P04-CH0	1706472	OK	0.6978984	-0.1293428	0.7044205	0	-131.194	-29.852	10.479	B5-03822-P04-CH1	1706472	OK	0.76551	-0.6423799	0.0366396	0	-114.732	-43.267	4.47	NA
0.659479443951494	B5-03822-P01-CH0	1706480	OK	0.2199294	0.0765324	0.0735352	-0.9697249	97.743	32.269	-265.273	B5-03822-P02-CH0	1706480	OK	0.7993797	0.1239217	-0.5879077	0	-94.358	-95.407	8.143	B5-03822-P02-CH1	1706480	OK	0.7475409	0.031249	-0.6634803	0	-86.627	-75.083	2.854	B5-03822-P03-CH0	1706480	OK	0.7272339	-0.4717499	-0.4985809	0	-97.739	-55.477	0.506	B5-03822-P03-CH1	1706480	OK	0.7589477	-0.6330944	0.1522821	0	-104.663	-26.176	3.333	B5-03822-P04-CH0	1706480	OK	0.6980101	-0.1312913	0.7039492	0	-131.278	-29.758	10.668	B5-03822-P04-CH1	1706480	OK	0.7658243	-0.6420324	0.0361599	0	-114.964	-43.154	4.668	NA
0.669471556738637	B5-03822-P01-CH0	1706488	OK	0.2202064	0.0766373	0.0740341	-0.9696158	97.781	32.343	-265.223	B5-03822-P02-CH0	1706488	OK	0.8010022	0.1288497	-0.5846308	0	-92.99	-95.308	4.814	B5-03822-P02-CH1	1706488	OK	0.7444733	0.0291373	-0.6670162	0	-86.721	-74.92	3.069	B5-03822-P03-CH0	1706488	OK	0.7279771	-0.4774406	-0.4920364	0	-97.127	-55.465	0.628	B5-03822-P03-CH1	1706488	OK	0.7590144	-0.6329532	0.1525366	0	-104.65	-26.149	3.014	B5-03822-P04-CH0	1706488	OK	0.6978674	-0.1325933	0.7038467	0	-131.267	-29.801	10.596	B5-03822-P04-CH1	1706488	OK	0.7662967	-0.6414685	0.0361606	0	-115.147	-43.098	4.633	NA
0.679463669525781	B5-03822-P01-CH0	1706496	OK	0.2202907	0.0767267	0.0742131	-0.9695759	97.812	32.369	-265.221	B5-03822-P02-CH0	1706496	OK	0.7969719	0.1292736	-0.5900204	0	-93.243	-94.847	7.291	B5-03822-P02-CH1	1706496	OK	0.7443533	0.025639	-0.6672936	0	-85.827	-75.628	2.304	B5-03822-P03-CH0	1706496	OK	0.7280629	-0.4815184	-0.4879184	0	-96.794	-55.34	2.007	B5-03822-P03-CH1	1706496	OK	0.7591219	-0.6327966	0.1526514	0	-104.681	-26.08	3.133	B5-03822-P04-CH0	1706496	OK	0.69769	-0.1335817	0.7038356	0	-131.24	-29.922	10.715	B5-03822-P04-CH1	1706496	OK	0.7663466	-0.6413886	0.0365181	0	-115.095	-43.196	4.646	NA
0.689455782312925	B5-03822-P01-CH0	1706504	OK	0.2200838	0.0768859	0.0732715	-0.9696819	97.814	32.247	-265.175	B5-03822-P02-CH0	1706504	OK	0.7933216	0.1287652	-0.5950297	0	-93.391	-94.484	7.484	B5-03822-P02-CH1	1706504	OK	0.7420345	0.0214779	-0.6700175	0	-86.384	-75.481	4.026	B5-03822-P03-CH0	1706504	OK	0.7272763	-0.484268	-0.4863679	0	-96.845	-55.196	2.921	B5-03822-P03-CH1	1706504	OK	0.7585654	-0.6334946	0.1525227	0	-104.756	-26.031	3.153	B5-03822-P04-CH0	1706504	OK	0.6971736	-0.1349481	0.7040867	0	-131.147	-29.875	10.639	B5-03822-P04-CH1	1706504	OK	0.7658104	-0.6420334	0.0364351	0	-115.064	-43.239	4.795	NA
0.699447895100069	B5-03822-P01-CH0	1706512	OK	0.2204815	0.0767187	0.0738896	-0.9695579	97.757	32.27	-265.111	B5-03822-P02-CH0	1706512	OK	0.7904391	0.1275429	-0.5991151	0	-92.971	-94.013	6.451	B5-03822-P02-CH1	1706512	OK	0.7420656	0.0175019	-0.6700987	0	-86.046	-75.459	2.568	B5-03822-P03-CH0	1706512	OK	0.7273347	-0.4880934	-0.4824407	0	-97.277	-55.325	1.756	B5-03822-P03-CH1	1706512	OK	0.7587919	-0.6330777	0.1531255	0	-104.673	-26.118	3.141	B5-03822-P04-CH0	1706512	OK	0.6969173	-0.1351623	0.7042992	0	-131.048	-29.985	10.664	B5-03822-P04-CH1	1706512	OK	0.7662751	-0.641456	0.0368326	0	-115.017	-43.283	4.872	NA
0.709440007887213	B5-03822-P01-CH0	1706520	OK	0.2204023	0.0767835	0.0734003	-0.9696079	97.786	32.19	-265.146	B5-03822-P02-CH0	1706520	OK	0.7891209	0.1234306	-0.6017085	0	-91.963	-95.177	6.108	B5-03822-P02-CH1	1706520	OK	0.7411105	0.0148785	-0.6712182	0	-86.299	-75.759	3.393	B5-03822-P03-CH0	1706520	OK	0.7277242	-0.4924219	-0.4774287	0	-97.455	-55.375	1.731	B5-03822-P03-CH1	1706520	OK	0.7581733	-0.6337497	0.1534099	0	-104.62	-26.298	2.933	B5-03822-P04-CH0	1706520	OK	0.6963279	-0.1358844	0.7047432	0	-131.022	-30.112	10.326	B5-03822-P04-CH1	1706520	OK	0.766051	-0.6417194	0.0369064	0	-114.972	-43.31	4.97	NA
0.719432120674357	B5-03822-P01-CH0	1706528	OK	0.2205672	0.076837	0.0738015	-0.9695357	97.862	32.209	-265.206	B5-03822-P02-CH0	1706528	OK	0.7868338	0.1231864	-0.604746	0	-91.508	-94.626	6.663	B5-03822-P02-CH1	1706528	OK	0.742282	0.0127948	-0.6699654	0	-85.568	-75.792	2.589	B5-03822-P03-CH0	1706528	OK	0.7296219	-0.4996281	-0.46693	0	-97.384	-55.106	1.169	B5-03822-P03-CH1	1706528	OK	0.7584541	-0.6334097	0.1534259	0	-104.671	-26.339	3.17	B5-03822-P04-CH0	1706528	OK	0.6962399	-0.1362063	0.7047679	0	-131.024	-30.108	10.543	B5-03822-P04-CH1	1706528	OK	0.7662185	-0.6415116	0.0370415	0	-115.152	-43.414	5.045	NA
0.729424233461501	B5-03822-P01-CH0	1706536	OK	0.2207046	0.0768829	0.0745689	-0.9694421	97.876	32.366	-265.184	B5-03822-P02-CH0	1706536	OK	0.7852379	0.123701	-0.606712	0	-91.175	-94.591	5.066	B5-03822-P02-CH1	1706536	OK	0.741423	0.0094614	-0.6709713	0	-86.082	-75.767	2.991	B5-03822-P03-CH0	1706536	OK	0.7317786	-0.5094044	-0.4527772	0	-97.928	-54.914	0.009	B5-03822-P03-CH1	1706536	OK	0.758874	-0.6329078	0.1534213	0	-104.739	-26.251	2.956	B5-03822-P04-CH0	1706536	OK	0.696318	-0.1363588	0.7046613	0	-131.163	-30.01	10.452	B5-03822-P04-CH1	1706536	OK	0.7668317	-0.6407955	0.0367458	0	-115.483	-43.2	5.018	NA
0.739416346248644	B5-03822-P01-CH0	1706544	OK	0.2207001	0.0770805	0.0740417	-0.9694678	97.949	32.292	-265.177	B5-03822-P02-CH0	1706544	OK	0.7861308	0.1230905	-0.605679	0	-89.996	-95.592	2.75	B5-03822-P02-CH1	1706544	OK	0.7414881	0.0073188	-0.6709261	0	-86.324	-75.126	2.916	B5-03822-P03-CH0	1706544	OK	0.7340815	-0.5185466	-0.4384448	0	-97.545	-55.207	2.079	B5-03822-P03-CH1	1706544	OK	0.7585689	-0.6332769	0.1534065	0	-104.803	-26.362	2.99	B5-03822-P04-CH0	1706544	OK	0.6963585	-0.1362033	0.7046513	0	-131.304	-30.169	10.649	B5-03822-P04-CH1	1706544	OK	0.7664647	-0.641237	0.0367018	0	-115.543	-43.272	5.127	NA
0.749408459035788	B5-03822-P01-CH0	1706552	OK	0.2206394	0.0770233	0.0740231	-0.9694876	97.968	32.243	-265.163	B5-03822-P02-CH0	1706552	OK	0.7826289	0.1235437	-0.6101058	0	-90.813	-95.182	4.942	B5-03822-P02-CH1	1706552	OK	0.7425039	0.0061468	-0.6698135	0	-86.126	-75.978	1.725	B5-03822-P03-CH0	1706552	OK	0.7362363	-0.5273836	-0.424055	0	-97.292	-56.172	2.98	B5-03822-P03-CH1	1706552	OK	0.7586371	-0.6332423	0.1532123	0	-104.92	-26.395	2.985	B5-03822-P04-CH0	1706552	OK	0.6960891	-0.1367862	0.7048046	0	-131.341	-30.108	10.382	B5-03822-P04-CH1	1706552	OK	0.7663092	-0.6414195	0.0367587	0	-115.569	-43.373	5.123	NA
0.759400571822932	B5-03822-P01-CH0	1706560	OK	0.2204774	0.0770567	0.0732009	-0.9695842	97.985	32.07	-265.194	B5-03822-P02-CH0	1706560	OK	0.7810403	0.1228347	-0.6122807	0	-91.067	-95.292	5.802	B5-03822-P02-CH1	1706560	OK	0.742768	0.0046463	-0.6695328	0	-86.063	-75.976	2.963	B5-03822-P03-CH0	1706560	OK	0.7393016	-0.5348581	-0.4090967	0	-97.334	-55.943	3.684	B5-03822-P03-CH1	1706560	OK	0.7581257	-0.6338422	0.1532629	0	-104.825	-26.494	2.964	B5-03822-P04-CH0	1706560	OK	0.6958005	-0.1376121	0.7049288	0	-131.329	-30.058	10.397	B5-03822-P04-CH1	1706560	OK	0.7656163	-0.6422355	0.0369492	0	-115.439	-43.58	5.27	NA
0.769392684610076	B5-03822-P01-CH0	1706568	OK	0.2202183	0.0771083	0.0724855	-0.9696928	97.997	31.962	-265.266	B5-03822-P02-CH0	1706568	OK	0.7835912	0.1196545	-0.6096455	0	-89.563	-96.536	2.966	B5-03822-P02-CH1	1706568	OK	0.7419006	0.0106528	-0.6704253	0	-86.295	-76.412	3.298	B5-03822-P03-CH0	1706568	OK	0.7430937	-0.5412911	-0.3934663	0	-97.179	-55.819	3.487	B5-03822-P03-CH1	1706568	OK	0.757732	-0.6343564	0.1530824	0	-104.969	-26.481	2.973	B5-03822-P04-CH0	1706568	OK	0.6957457	-0.138109	0.7048857	0	-131.427	-30.03	10.643	B5-03822-P04-CH1	1706568	OK	0.7650676	-0.64291	0.0365832	0	-115.472	-43.612	5.31	NA
0.77938479739722	B5-03822-P01-CH0	1706576	OK	0.2201143	0.077128	0.0724134	-0.9697202	97.993	31.934	-265.244	B5-03822-P02-CH0	1706576	OK	0.7786664	0.1188959	-0.6160701	0	-90.994	-95.271	6.091	B5-03822-P02-CH1	1706576	OK	0.7419767	0.0086175	-0.6703703	0	-86.265	-76.309	3.186	B5-03822-P03-CH0	1706576	OK	0.7445344	-0.5470304	-0.382657	0	-98.945	-55.578	3.694	B5-03822-P03-CH1	1706576	OK	0.7575672	-0.6345362	0.1531526	0	-104.992	-26.499	2.883	B5-03822-P04-CH0	1706576	OK	0.6956283	-0.1390325	0.70482	0	-131.484	-29.797	10.621	B5-03822-P04-CH1	1706576	OK	0.7648995	-0.6431306	0.0362176	0	-115.596	-43.592	5.17	NA
0.789376910184364	B5-03822-P01-CH0	1706584	OK	0.2199495	0.0772057	0.0718146	-0.9697959	98.05	31.894	-265.409	B5-03822-P02-CH0	1706584	OK	0.7783751	0.1168943	-0.6168208	0	-90.584	-95.59	5.136	B5-03822-P02-CH1	1706584	OK	0.742357	0.0068023	-0.66997	0	-86.165	-76.267	3.181	B5-03822-P03-CH0	1706584	OK	0.74906	-0.5549141	-0.3619109	0	-97.249	-55.633	4.471	B5-03822-P03-CH1	1706584	OK	0.7569944	-0.6351583	0.153406	0	-104.941	-26.593	2.972	B5-03822-P04-CH0	1706584	OK	0.6952278	-0.1397181	0.7050796	0	-131.514	-29.761	10.854	B5-03822-P04-CH1	1706584	OK	0.7643645	-0.6437747	0.03607	0	-115.7	-43.662	5.136	NA
0.799369022971507	B5-03822-P01-CH0	1706592	OK	0.2197813	0.0772607	0.0716901	-0.9698389	98.068	31.851	-265.418	B5-03822-P02-CH0	1706592	OK	0.7796937	0.1143001	-0.6156405	0	-89.038	-95.757	3.218	B5-03822-P02-CH1	1706592	OK	0.7425996	0.0052219	-0.6697153	0	-86.13	-76.122	3.242	B5-03822-P03-CH0	1706592	OK	0.750636	-0.5618856	-0.3476064	0	-98.439	-55.517	4.159	B5-03822-P03-CH1	1706592	OK	0.7568171	-0.6353309	0.1535659	0	-104.946	-26.605	3.083	B5-03822-P04-CH0	1706592	OK	0.695049	-0.1401413	0.7051719	0	-131.584	-29.77	10.824	B5-03822-P04-CH1	1706592	OK	0.7642937	-0.6438807	0.0356768	0	-115.754	-43.564	5.018	NA
0.809361135758651	B5-03822-P01-CH0	1706600	OK	0.219783	0.0773113	0.0719586	-0.9698146	98.13	31.823	-265.501	B5-03822-P02-CH0	1706600	OK	0.7769796	0.1130334	-0.6192948	0	-89.542	-94.596	5.346	B5-03822-P02-CH1	1706600	OK	0.7427343	0.0034757	-0.6695773	0	-86.161	-76.1	3.236	B5-03822-P03-CH0	1706600	OK	0.7523993	-0.5670439	-0.3351962	0	-98.5	-55.659	3.734	B5-03822-P03-CH1	1706600	OK	0.756976	-0.6351046	0.1537188	0	-104.939	-26.591	3.118	B5-03822-P04-CH0	1706600	OK	0.6948962	-0.140294	0.705292	0	-131.642	-29.792	10.958	B5-03822-P04-CH1	1706600	OK	0.7644637	-0.6436879	0.0355118	0	-115.78	-43.545	5.146	NA
0.819353248545795	B5-03822-P01-CH0	1706608	OK	0.2198651	0.0772777	0.0720321	-0.9697932	98.11	31.806	-265.56	B5-03822-P02-CH0	1706608	OK	0.7774051	0.1092036	-0.6194481	0	-88.907	-95.955	2.595	B5-03822-P02-CH1	1706608	OK	0.7432254	0.0019158	-0.6690384	0	-86.007	-75.955	3.147	B5-03822-P03-CH0	1706608	OK	0.7539095	-0.5687372	-0.3288746	0	-97.94	-55.704	5.35	B5-03822-P03-CH1	1706608	OK	0.7569386	-0.635085	0.1539837	0	-104.952	-26.579	3.021	B5-03822-P04-CH0	1706608	OK	0.6946873	-0.1402547	0.7055056	0	-131.603	-29.79	11.165	B5-03822-P04-CH1	1706608	OK	0.7644591	-0.6436868	0.0356314	0	-115.725	-43.53	5.082	NA
0.829345361332939	B5-03822-P01-CH0	1706616	OK	0.2196696	0.0772103	0.0711725	-0.9699063	98.091	31.653	-265.602	B5-03822-P02-CH0	1706616	OK	0.7761357	0.1066804	-0.6214763	0	-89.02	-95.883	3.017	B5-03822-P02-CH1	1706616	OK	0.7437672	0.0006816	-0.6684384	0	-85.867	-75.894	3.306	B5-03822-P03-CH0	1706616	OK	0.7550248	-0.5693042	-0.3253155	0	-97.257	-55.391	6.002	B5-03822-P03-CH1	1706616	OK	0.7563159	-0.6357876	0.1541437	0	-104.938	-26.68	3.072	B5-03822-P04-CH0	1706616	OK	0.6942521	-0.1407546	0.7058344	0	-131.55	-29.8	11.299	B5-03822-P04-CH1	1706616	OK	0.7637312	-0.6445456	0.0357162	0	-115.552	-43.691	5.207	NA
0.839337474120083	B5-03822-P01-CH0	1706624	OK	0.2197569	0.0771423	0.0714382	-0.9698724	98.084	31.666	-265.613	B5-03822-P02-CH0	1706624	OK	0.7739637	0.1052792	-0.6244169	0	-89.524	-95.436	3.989	B5-03822-P02-CH1	1706624	OK	0.7437411	-0.0003679	-0.6684677	0	-85.961	-75.617	3.651	B5-03822-P03-CH0	1706624	OK	0.754625	-0.5703108	-0.3244791	0	-97.959	-55.731	4.617	B5-03822-P03-CH1	1706624	OK	0.7565101	-0.6355047	0.1543575	0	-104.808	-26.554	2.926	B5-03822-P04-CH0	1706624	OK	0.6937824	-0.1412361	0.7061999	0	-131.451	-29.723	11.068	B5-03822-P04-CH1	1706624	OK	0.7639718	-0.6442609	0.0357083	0	-115.517	-43.6	5.18	NA
0.849329586907227	B5-03822-P01-CH0	1706632	OK	0.2199252	0.0772978	0.0716393	-0.9698071	98.143	31.661	-265.614	B5-03822-P02-CH0	1706632	OK	0.773837	0.101969	-0.6251228	0	-89.036	-96.209	4.421	B5-03822-P02-CH1	1706632	OK	0.7436896	-0.0018754	-0.6685225	0	-86.004	-75.54	3.991	B5-03822-P03-CH0	1706632	OK	0.7555223	-0.570309	-0.3223876	0	-98.167	-55.779	5.206	B5-03822-P03-CH1	1706632	OK	0.7567627	-0.6351643	0.1545205	0	-104.773	-26.473	2.929	B5-03822-P04-CH0	1706632	OK	0.6938605	-0.1412253	0.7061254	0	-131.485	-29.797	11.206	B5-03822-P04-CH1	1706632	OK	0.764212	-0.6439797	0.035639	0	-115.663	-43.521	5.152	NA
0.85932169969437	B5-03822-P01-CH0	1706640	OK	0.2202433	0.0770898	0.072427	-0.9696929	98.093	31.71	-265.588	B5-03822-P02-CH0	1706640	OK	0.774474	0.1021959	-0.6242964	0	-87.959	-95.144	3.339	B5-03822-P02-CH1	1706640	OK	0.7439648	-0.0028664	-0.6682126	0	-85.886	-75.34	3.918	B5-03822-P03-CH0	1706640	OK	0.7579137	-0.5680213	-0.3208094	0	-98.346	-54.839	6.157	B5-03822-P03-CH1	1706640	OK	0.7573927	-0.6343881	0.1546221	0	-104.801	-26.371	2.845	B5-03822-P04-CH0	1706640	OK	0.6936393	-0.1411836	0.706351	0	-131.382	-29.722	11.019	B5-03822-P04-CH1	1706640	OK	0.7647944	-0.6432885	0.0356293	0	-115.762	-43.431	4.907	NA
0.869313812481514	B5-03822-P01-CH0	1706648	OK	0.2205347	0.076905	0.0730956	-0.9695912	98.064	31.715	-265.546	B5-03822-P02-CH0	1706648	OK	0.7746026	0.1013448	-0.6242756	0	-87.743	-95.303	2.669	B5-03822-P02-CH1	1706648	OK	0.7441013	-0.0037104	-0.6680565	0	-85.839	-75.291	3.775	B5-03822-P03-CH0	1706648	OK	0.7583049	-0.568437	-0.3191442	0	-98.46	-55.304	4.953	B5-03822-P03-CH1	1706648	OK	0.7578098	-0.6338124	0.1549395	0	-104.563	-26.458	2.963	B5-03822-P04-CH0	1706648	OK	0.6935605	-0.1412695	0.7064112	0	-131.325	-29.739	10.847	B5-03822-P04-CH1	1706648	OK	0.7653089	-0.6426493	0.036114	0	-115.642	-43.422	4.86	NA
0.879305925268658	B5-03822-P01-CH0	1706656	OK	0.2206865	0.0769927	0.0730187	-0.9695555	98.104	31.714	-265.566	B5-03822-P02-CH0	1706656	OK	0.7735186	0.100815	-0.6257038	0	-88.086	-95.871	2.485	B5-03822-P02-CH1	1706656	OK	0.7443064	-0.0045947	-0.6678225	0	-85.751	-75.262	3.793	B5-03822-P03-CH0	1706656	OK	0.7578339	-0.5695534	-0.3182714	0	-98.018	-56.117	5.971	B5-03822-P03-CH1	1706656	OK	0.7579262	-0.6336364	0.1550897	0	-104.539	-26.455	3.081	B5-03822-P04-CH0	1706656	OK	0.6933262	-0.1406003	0.7067746	0	-131.238	-29.997	11.013	B5-03822-P04-CH1	1706656	OK	0.7654641	-0.6424562	0.0362595	0	-115.612	-43.342	5.127	NA
0.889298038055802	B5-03822-P01-CH0	1706664	OK	0.220677	0.0770361	0.0732324	-0.9695381	98.13	31.674	-265.459	B5-03822-P02-CH0	1706664	OK	0.7714305	0.1024912	-0.6280052	0	-88.848	-94.773	3.955	B5-03822-P02-CH1	1706664	OK	0.744223	-0.0047975	-0.6679139	0	-85.799	-75.183	3.871	B5-03822-P03-CH0	1706664	OK	0.7585956	-0.569198	-0.3170906	0	-97.077	-56.119	5.11	B5-03822-P03-CH1	1706664	OK	0.7582759	-0.6333204	0.1546701	0	-104.554	-26.38	2.974	B5-03822-P04-CH0	1706664	OK	0.6935814	-0.1402785	0.7065882	0	-131.343	-30.096	10.962	B5-03822-P04-CH1	1706664	OK	0.7657692	-0.6421038	0.0360605	0	-115.67	-43.241	5.236	NA
0.899290150842946	B5-03822-P01-CH0	1706672	OK	0.2208925	0.0770044	0.0733602	-0.9694819	98.153	31.664	-265.485	B5-03822-P02-CH0	1706672	OK	0.7758881	0.098825	-0.6230821	0	-86.559	-97.077	1.457	B5-03822-P02-CH1	1706672	OK	0.7442899	-0.0053912	-0.6678349	0	-85.756	-75.207	3.912	B5-03822-P03-CH0	1706672	OK	0.7568767	-0.5688684	-0.3217551	0	-98.144	-55.777	4.608	B5-03822-P03-CH1	1706672	OK	0.7586432	-0.6329074	0.15456	0	-104.513	-26.327	2.821	B5-03822-P04-CH0	1706672	OK	0.6934936	-0.1403218	0.7066657	0	-131.359	-30.014	10.794	B5-03822-P04-CH1	1706672	OK	0.7659402	-0.6418882	0.0362639	0	-115.706	-43.237	5.286	NA
0.90928226363009	B5-03822-P01-CH0	1706680	OK	0.2210372	0.0768146	0.0732936	-0.969469	98.039	31.642	-265.415	B5-03822-P02-CH0	1706680	OK	0.7744703	0.100724	-0.6245402	0	-87.101	-95.604	1.147	B5-03822-P02-CH1	1706680	OK	0.7445469	-0.0056772	-0.667546	0	-85.555	-75.04	3.95	B5-03822-P03-CH0	1706680	OK	0.7573711	-0.5688949	-0.3205426	0	-98.016	-55.715	4.727	B5-03822-P03-CH1	1706680	OK	0.7587468	-0.6327788	0.1545776	0	-104.388	-26.309	2.628	B5-03822-P04-CH0	1706680	OK	0.6934383	-0.1400019	0.7067834	0	-131.256	-29.992	10.732	B5-03822-P04-CH1	1706680	OK	0.7659526	-0.6418719	0.0362927	0	-115.733	-43.214	5.195	NA
0.919274376417234	B5-03822-P01-CH0	1706688	OK	0.2209696	0.07691	0.0729398	-0.9695035	98.07	31.617	-265.38	B5-03822-P02-CH0	1706688	OK	0.7735156	0.1008373	-0.625704	0	-88.194	-95.95	3.35	B5-03822-P02-CH1	1706688	OK	0.744264	-0.0056976	-0.6678612	0	-85.692	-74.929	4.157	B5-03822-P03-CH0	1706688	OK	0.7575499	-0.5689421	-0.320036	0	-98.083	-55.678	4.704	B5-03822-P03-CH1	1706688	OK	0.7586904	-0.6328801	0.15444	0	-104.436	-26.378	2.783	B5-03822-P04-CH0	1706688	OK	0.6934104	-0.1403811	0.7067355	0	-131.339	-29.823	10.546	B5-03822-P04-CH1	1706688	OK	0.7658315	-0.6420146	0.0363231	0	-115.762	-43.178	5.244	NA
