Wav.Time	B5.03822.P01.CH0	Frame	State	Q0	Qx	Qy	Qz	Tx	Ty	Tz	B5.03822.P02.CH0	Frame.1	State.1	Q0.1	Qx.1	Qy.1	Qz.1	Tx.1	Ty.1	Tz.1	B5.03822.P02.CH1	Frame.2	State.2	Q0.2	Qx.2	Qy.2	Qz.2	Tx.2	Ty.2	Tz.2	B5.03822.P03.CH0	Frame.3	State.3	Q0.3	Qx.3	Qy.3	Qz.3	Tx.3	Ty.3	Tz.3	B5.03822.P03.CH1	Frame.4	State.4	Q0.4	Qx.4	Qy.4	Qz.4	Tx.4	Ty.4	Tz.4	B5.03822.P04.CH0	Frame.5	State.5	Q0.5	Qx.5	Qy.5	Qz.5	Tx.5	Ty.5	Tz.5	B5.03822.P04.CH1	Frame.6	State.6	Q0.6	Qx.6	Qy.6	Qz.6	Tx.6	Ty.6	Tz.6	X
0	B5-03822-P01-CH0	95216	OK	0.2256687	0.0684757	0.0695811	-0.9693004	96.713	24.658	-257.788	B5-03822-P02-CH0	95216	OK	0.6872413	0.4011844	-0.6055992	0	-84.621	-95.723	2.676	B5-03822-P02-CH1	95216	OK	0.6969007	-0.0815776	-0.7125128	0	-77.955	-73.151	-0.813	B5-03822-P03-CH0	95216	OK	0.6974048	-0.652019	-0.2974858	0	-96.192	-52.537	-0.886	B5-03822-P03-CH1	95216	OK	0.7583184	-0.6344881	0.1495929	0	-104.746	-26.84	1.63	B5-03822-P04-CH0	95216	OK	0.6711012	-0.1551752	0.724944	0	-129.381	-32.335	10.719	B5-03822-P04-CH1	95216	OK	0.7683763	-0.6384413	0.0446152	0	-113.223	-44.973	3.112	NA
0.00999183673469388	B5-03822-P01-CH0	95224	OK	0.2255339	0.0684376	0.069598	-0.9693332	96.668	24.629	-257.855	B5-03822-P02-CH0	95224	OK	0.6870203	0.416409	-0.5954886	0	-84.546	-94.906	2.489	B5-03822-P02-CH1	95224	OK	0.6964646	-0.0835595	-0.7127095	0	-78.744	-72.347	1.351	B5-03822-P03-CH0	95224	OK	0.6934252	-0.6597431	-0.289656	0	-95.978	-52.148	-0.526	B5-03822-P03-CH1	95224	OK	0.7579478	-0.6348357	0.1499956	0	-104.606	-26.857	1.464	B5-03822-P04-CH0	95224	OK	0.6710078	-0.1545028	0.7251741	0	-129.323	-32.391	10.855	B5-03822-P04-CH1	95224	OK	0.7681909	-0.6386523	0.0447881	0	-113.231	-45.087	2.986	NA
0.0199836734693878	B5-03822-P01-CH0	95232	OK	0.2256346	0.0687046	0.0699419	-0.9692661	96.742	24.737	-257.904	B5-03822-P02-CH0	95232	OK	0.6899292	0.4265013	-0.5848883	0	-83.761	-95.81	1.815	B5-03822-P02-CH1	95232	OK	0.6985813	-0.0862545	-0.7103129	0	-78.341	-71.814	0.614	B5-03822-P03-CH0	95232	OK	0.6912119	-0.6670703	-0.2779268	0	-96.313	-51.681	0.109	B5-03822-P03-CH1	95232	OK	0.7578931	-0.6348112	0.1503755	0	-104.768	-26.84	1.498	B5-03822-P04-CH0	95232	OK	0.6712574	-0.1531955	0.7252204	0	-129.522	-32.463	10.899	B5-03822-P04-CH1	95232	OK	0.7682536	-0.6385467	0.0452153	0	-113.297	-45.189	3.151	NA
0.0299755102040816	B5-03822-P01-CH0	95240	OK	0.225645	0.0686221	0.0702876	-0.9692445	96.678	24.768	-257.961	B5-03822-P02-CH0	95240	OK	0.690502	0.4367296	-0.5766058	0	-84.521	-95.67	3.616	B5-03822-P02-CH1	95240	OK	0.6976949	-0.0869195	-0.7111025	0	-79.3	-71.937	0.522	B5-03822-P03-CH0	95240	OK	0.6908937	-0.6740165	-0.2614721	0	-96.185	-51.453	0.097	B5-03822-P03-CH1	95240	OK	0.7578913	-0.6347	0.150853	0	-104.75	-26.828	1.584	B5-03822-P04-CH0	95240	OK	0.6713348	-0.1518089	0.7254403	0	-129.591	-32.507	10.854	B5-03822-P04-CH1	95240	OK	0.768416	-0.6383292	0.045527	0	-113.285	-45.186	3.087	NA
0.0399673469387755	B5-03822-P01-CH0	95248	OK	0.2253361	0.0688505	0.0700379	-0.9693183	96.769	24.706	-258.03	B5-03822-P02-CH0	95248	OK	0.6918581	0.4446101	-0.5689061	0	-85.58	-94.725	2.915	B5-03822-P02-CH1	95248	OK	0.6991242	-0.083791	-0.7100736	0	-78.781	-71.777	-0.214	B5-03822-P03-CH0	95248	OK	0.6908748	-0.678545	-0.249537	0	-96.289	-51.842	0.048	B5-03822-P03-CH1	95248	OK	0.7574525	-0.6351642	0.1511028	0	-104.937	-26.933	1.559	B5-03822-P04-CH0	95248	OK	0.6709969	-0.1507156	0.7259807	0	-129.615	-32.658	10.774	B5-03822-P04-CH1	95248	OK	0.7683379	-0.6384311	0.0454159	0	-113.408	-45.165	3.22	NA
0.0499591836734694	B5-03822-P01-CH0	95256	OK	0.2252177	0.0689094	0.0704892	-0.9693089	96.78	24.737	-258.006	B5-03822-P02-CH0	95256	OK	0.6978167	0.4448381	-0.5614008	0	-85.335	-94.555	3.04	B5-03822-P02-CH1	95256	OK	0.7002846	-0.0810595	-0.7092467	0	-78.732	-71.3	-0.188	B5-03822-P03-CH0	95256	OK	0.692443	-0.6805189	-0.2396179	0	-97.491	-52.119	-1.162	B5-03822-P03-CH1	95256	OK	0.7575184	-0.6349957	0.1514805	0	-104.966	-26.993	1.808	B5-03822-P04-CH0	95256	OK	0.6710581	-0.1490629	0.7262653	0	-129.724	-32.782	10.721	B5-03822-P04-CH1	95256	OK	0.7687437	-0.6379297	0.0455934	0	-113.409	-45.021	3.187	NA
0.0599510204081633	B5-03822-P01-CH0	95264	OK	0.2252261	0.0690332	0.0704323	-0.9693023	96.809	24.693	-258.056	B5-03822-P02-CH0	95264	OK	0.7057812	0.4388082	-0.5561656	0	-84.984	-94.869	2.848	B5-03822-P02-CH1	95264	OK	0.7001717	-0.079393	-0.7095466	0	-79.239	-70.683	0.862	B5-03822-P03-CH0	95264	OK	0.6962094	-0.6801483	-0.2295446	0	-97.203	-51.983	-0.091	B5-03822-P03-CH1	95264	OK	0.7573832	-0.6350494	0.1519306	0	-104.976	-26.942	1.624	B5-03822-P04-CH0	95264	OK	0.6709731	-0.1471052	0.7267429	0	-129.72	-32.923	10.96	B5-03822-P04-CH1	95264	OK	0.768624	-0.6380292	0.0462159	0	-113.379	-45.171	3.316	NA
0.0699428571428571	B5-03822-P01-CH0	95272	OK	0.2252592	0.0691822	0.0706499	-0.9692681	96.842	24.706	-258.016	B5-03822-P02-CH0	95272	OK	0.7122351	0.42882	-0.5557289	0	-85.7	-94.666	2.759	B5-03822-P02-CH1	95272	OK	0.6990535	-0.0772032	-0.7108895	0	-79.983	-71.419	1.929	B5-03822-P03-CH0	95272	OK	0.7001296	-0.6798985	-0.2180749	0	-97.207	-52.176	-0.112	B5-03822-P03-CH1	95272	OK	0.7573307	-0.634999	0.1524026	0	-105.114	-26.963	1.509	B5-03822-P04-CH0	95272	OK	0.6711524	-0.1446075	0.7270785	0	-129.885	-33.096	11.019	B5-03822-P04-CH1	95272	OK	0.7687315	-0.637857	0.0468014	0	-113.442	-45.22	3.336	NA
0.079934693877551	B5-03822-P01-CH0	95280	OK	0.2251185	0.0693389	0.07069	-0.9692867	96.913	24.692	-258.047	B5-03822-P02-CH0	95280	OK	0.7193676	0.4130382	-0.5584887	0	-85.927	-94.53	3.537	B5-03822-P02-CH1	95280	OK	0.6994359	-0.0741837	-0.7108349	0	-79.891	-70.823	1.509	B5-03822-P03-CH0	95280	OK	0.704466	-0.6778346	-0.2103995	0	-97.431	-52.452	-0.507	B5-03822-P03-CH1	95280	OK	0.7572686	-0.6349655	0.1528499	0	-105.231	-26.976	1.713	B5-03822-P04-CH0	95280	OK	0.6715016	-0.141948	0.7272801	0	-130.145	-33.316	11.189	B5-03822-P04-CH1	95280	OK	0.7687597	-0.6377924	0.0472159	0	-113.608	-45.271	3.416	NA
0.0899265306122449	B5-03822-P01-CH0	95288	OK	0.2248885	0.0693159	0.07053	-0.9693534	96.921	24.678	-258.144	B5-03822-P02-CH0	95288	OK	0.7271887	0.394303	-0.5618912	0	-85.946	-94.11	1.806	B5-03822-P02-CH1	95288	OK	0.701193	-0.0685346	-0.7096699	0	-78.878	-71.197	-0.14	B5-03822-P03-CH0	95288	OK	0.7101773	-0.6743149	-0.2023552	0	-97.237	-52.648	0.45	B5-03822-P03-CH1	95288	OK	0.7567872	-0.6354448	0.1532414	0	-105.108	-27.06	1.75	B5-03822-P04-CH0	95288	OK	0.6713618	-0.139783	0.7278283	0	-130.321	-33.375	10.948	B5-03822-P04-CH1	95288	OK	0.7685973	-0.637969	0.0474742	0	-113.69	-45.321	3.409	NA
0.0999183673469388	B5-03822-P01-CH0	95296	OK	0.2248169	0.0692126	0.0702287	-0.9693992	96.894	24.602	-258.176	B5-03822-P02-CH0	95296	OK	0.7342846	0.3735112	-0.566847	0	-85.822	-93.964	-0.132	B5-03822-P02-CH1	95296	OK	0.7004265	-0.0645531	-0.7107993	0	-79.593	-70.032	1.673	B5-03822-P03-CH0	95296	OK	0.7161116	-0.6699223	-0.1959291	0	-96.964	-53.017	1.99	B5-03822-P03-CH1	95296	OK	0.7563895	-0.6358637	0.1534676	0	-105.048	-27.131	1.815	B5-03822-P04-CH0	95296	OK	0.6709659	-0.1370972	0.7287037	0	-130.362	-33.56	10.867	B5-03822-P04-CH1	95296	OK	0.7682883	-0.6382932	0.0481126	0	-113.743	-45.487	3.283	NA
0.109910204081633	B5-03822-P01-CH0	95304	OK	0.2244387	0.0694261	0.0695723	-0.969519	96.989	24.536	-258.168	B5-03822-P02-CH0	95304	OK	0.7368441	0.3533257	-0.5763868	0	-87.876	-94.825	1.243	B5-03822-P02-CH1	95304	OK	0.7082119	-0.0703952	-0.7024816	0	-79.519	-70.752	0.547	B5-03822-P03-CH0	95304	OK	0.7199719	-0.6661369	-0.1946845	0	-96.78	-54.102	2.462	B5-03822-P03-CH1	95304	OK	0.755823	-0.6365862	0.1532632	0	-105.18	-27.168	1.775	B5-03822-P04-CH0	95304	OK	0.6708434	-0.1348031	0.7292443	0	-130.656	-33.568	10.661	B5-03822-P04-CH1	95304	OK	0.7678706	-0.6387889	0.0482018	0	-113.938	-45.553	3.479	NA
0.119902040816327	B5-03822-P01-CH0	95312	OK	0.2242417	0.0692114	0.0691658	-0.969609	96.939	24.417	-258.117	B5-03822-P02-CH0	95312	OK	0.7399937	0.335198	-0.5831394	0	-87.82	-94.74	0.462	B5-03822-P02-CH1	95312	OK	0.7193301	-0.0664361	-0.6914843	0	-81.333	-71.623	1.281	B5-03822-P03-CH0	95312	OK	0.7241903	-0.6594015	-0.2018369	0	-96.786	-54.892	2.081	B5-03822-P03-CH1	95312	OK	0.7554917	-0.6369771	0.1532722	0	-105.09	-27.174	1.581	B5-03822-P04-CH0	95312	OK	0.6703952	-0.1325057	0.7300771	0	-130.715	-33.574	10.39	B5-03822-P04-CH1	95312	OK	0.7676933	-0.6389599	0.0487568	0	-113.982	-45.603	3.276	NA
0.12989387755102	B5-03822-P01-CH0	95320	OK	0.2243103	0.0690505	0.0695469	-0.9695773	96.942	24.415	-258.044	B5-03822-P02-CH0	95320	OK	0.7409242	0.3163983	-0.5923879	0	-87.703	-95.324	0.779	B5-03822-P02-CH1	95320	OK	0.7294288	-0.0581692	-0.681579	0	-82.526	-72.412	1.361	B5-03822-P03-CH0	95320	OK	0.7317111	-0.6476193	-0.2125749	0	-96.989	-54.612	3.087	B5-03822-P03-CH1	95320	OK	0.7557378	-0.6366943	0.1532341	0	-104.998	-27.095	1.379	B5-03822-P04-CH0	95320	OK	0.670048	-0.1297995	0.7308815	0	-130.737	-33.75	10.233	B5-03822-P04-CH1	95320	OK	0.7679873	-0.6385434	0.0495764	0	-114.038	-45.696	3.211	NA
0.139885714285714	B5-03822-P01-CH0	95328	OK	0.2241376	0.0689595	0.0692432	-0.9696454	96.909	24.36	-257.958	B5-03822-P02-CH0	95328	OK	0.7395307	0.2958731	-0.6046102	0	-88.14	-95.588	0.067	B5-03822-P02-CH1	95328	OK	0.7386675	-0.0473559	-0.6724044	0	-82.984	-72.561	2.379	B5-03822-P03-CH0	95328	OK	0.7366302	-0.6378812	-0.2246853	0	-97.227	-54.887	2.372	B5-03822-P03-CH1	95328	OK	0.7555114	-0.6370933	0.152691	0	-104.902	-27.014	1.186	B5-03822-P04-CH0	95328	OK	0.6698317	-0.1276904	0.7314511	0	-130.848	-33.708	10.138	B5-03822-P04-CH1	95328	OK	0.7676533	-0.6389036	0.0501054	0	-114.08	-45.852	3.007	NA
0.149877551020408	B5-03822-P01-CH0	95336	OK	0.2240596	0.0687457	0.0690175	-0.9696947	96.855	24.325	-257.952	B5-03822-P02-CH0	95336	OK	0.7386217	0.2697668	-0.6177895	0	-88.171	-96.096	0.236	B5-03822-P02-CH1	95336	OK	0.7486702	-0.0352807	-0.6620032	0	-83.552	-73.149	2.325	B5-03822-P03-CH0	95336	OK	0.7398546	-0.628947	-0.2388322	0	-97.322	-55.571	3.014	B5-03822-P03-CH1	95336	OK	0.7553326	-0.6373866	0.1523516	0	-104.737	-26.976	1.204	B5-03822-P04-CH0	95336	OK	0.6691876	-0.1258379	0.7323611	0	-130.763	-33.635	9.968	B5-03822-P04-CH1	95336	OK	0.7675618	-0.6389972	0.0503138	0	-114.161	-45.929	2.986	NA
0.159869387755102	B5-03822-P01-CH0	95344	OK	0.2238038	0.068489	0.0687669	-0.9697898	96.806	24.314	-257.988	B5-03822-P02-CH0	95344	OK	0.7377114	0.2364563	-0.632353	0	-88.14	-97.288	0.389	B5-03822-P02-CH1	95344	OK	0.7572669	-0.0253738	-0.6526124	0	-84.929	-74.134	2.453	B5-03822-P03-CH0	95344	OK	0.7442681	-0.618524	-0.2519781	0	-96.733	-55.739	4.012	B5-03822-P03-CH1	95344	OK	0.7552501	-0.6376276	0.1517507	0	-104.766	-26.892	1.131	B5-03822-P04-CH0	95344	OK	0.6689222	-0.123922	0.73293	0	-130.858	-33.676	9.934	B5-03822-P04-CH1	95344	OK	0.7675235	-0.6390477	0.0502568	0	-114.295	-45.888	2.957	NA
0.169861224489796	B5-03822-P01-CH0	95352	OK	0.2235164	0.0683594	0.0679782	-0.9699208	96.777	24.239	-258.028	B5-03822-P02-CH0	95352	OK	0.733522	0.1980434	-0.6501725	0	-88.244	-97.647	0.935	B5-03822-P02-CH1	95352	OK	0.764691	-0.019372	-0.6441059	0	-86.217	-74.796	4.092	B5-03822-P03-CH0	95352	OK	0.7476686	-0.6073759	-0.2684887	0	-97.296	-56.134	4.479	B5-03822-P03-CH1	95352	OK	0.7547147	-0.6383942	0.1511905	0	-104.645	-26.924	1.102	B5-03822-P04-CH0	95352	OK	0.6682411	-0.1226396	0.7337666	0	-130.77	-33.682	9.909	B5-03822-P04-CH1	95352	OK	0.7669759	-0.639706	0.0502409	0	-114.413	-46.042	3.025	NA
0.17985306122449	B5-03822-P01-CH0	95360	OK	0.2236114	0.0683127	0.068145	-0.9698905	96.795	24.261	-257.996	B5-03822-P02-CH0	95360	OK	0.7304773	0.154147	-0.6653132	0	-87.267	-99.964	-0.387	B5-03822-P02-CH1	95360	OK	0.7720692	-0.0173268	-0.6353022	0	-86.891	-74.617	4.742	B5-03822-P03-CH0	95360	OK	0.7530595	-0.5971777	-0.2761888	0	-96.665	-57.023	3.977	B5-03822-P03-CH1	95360	OK	0.7547211	-0.6384786	0.1508013	0	-104.499	-26.948	0.73	B5-03822-P04-CH0	95360	OK	0.6677598	-0.1217301	0.734356	0	-130.676	-33.6	9.892	B5-03822-P04-CH1	95360	OK	0.7671819	-0.6394557	0.0502818	0	-114.327	-46.048	3.106	NA
0.189844897959184	B5-03822-P01-CH0	95368	OK	0.2237476	0.0683281	0.0679868	-0.9698691	96.827	24.263	-258.028	B5-03822-P02-CH0	95368	OK	0.7257331	0.1124028	-0.678732	0	-86.411	-100.46	-0.226	B5-03822-P02-CH1	95368	OK	0.7780317	-0.0188997	-0.6279406	0	-87.621	-74.714	5.296	B5-03822-P03-CH0	95368	OK	0.7583442	-0.5868849	-0.2836905	0	-97.386	-57.574	4.405	B5-03822-P03-CH1	95368	OK	0.7548069	-0.6384323	0.1505678	0	-104.524	-26.959	0.841	B5-03822-P04-CH0	95368	OK	0.6673137	-0.1211838	0.7348516	0	-130.537	-33.527	10.254	B5-03822-P04-CH1	95368	OK	0.7672398	-0.639367	0.0505271	0	-114.382	-46.109	3.353	NA
0.199836734693878	B5-03822-P01-CH0	95376	OK	0.2239009	0.0681096	0.06845	-0.9698165	96.784	24.322	-258.044	B5-03822-P02-CH0	95376	OK	0.7207939	0.0751438	-0.6890642	0	-85.63	-100.785	-0.239	B5-03822-P02-CH1	95376	OK	0.7824339	-0.0263961	-0.622174	0	-88.609	-75.709	5.842	B5-03822-P03-CH0	95376	OK	0.7648877	-0.5775782	-0.2852194	0	-97.346	-58.084	5.464	B5-03822-P03-CH1	95376	OK	0.7552039	-0.6379865	0.150467	0	-104.452	-26.923	0.709	B5-03822-P04-CH0	95376	OK	0.6671304	-0.1215755	0.7349534	0	-130.5	-33.305	10.168	B5-03822-P04-CH1	95376	OK	0.7677654	-0.6387328	0.0505636	0	-114.282	-46.048	3.609	NA
0.209828571428571	B5-03822-P01-CH0	95384	OK	0.2240111	0.067831	0.068736	-0.9697904	96.705	24.368	-258.059	B5-03822-P02-CH0	95384	OK	0.7164823	0.0404551	-0.6964313	0	-84.231	-102.069	-1.15	B5-03822-P02-CH1	95384	OK	0.7889995	-0.0379831	-0.6132187	0	-88.84	-75.502	6.899	B5-03822-P03-CH0	95384	OK	0.7715383	-0.5677618	-0.2870107	0	-98.251	-57.694	5.391	B5-03822-P03-CH1	95384	OK	0.7554828	-0.6376574	0.1504619	0	-104.366	-26.916	0.712	B5-03822-P04-CH0	95384	OK	0.6666336	-0.1224217	0.7352636	0	-130.272	-33.196	10.203	B5-03822-P04-CH1	95384	OK	0.7682762	-0.6381306	0.0504087	0	-114.18	-45.896	3.779	NA
0.219820408163265	B5-03822-P01-CH0	95392	OK	0.2240737	0.0677706	0.0688924	-0.969769	96.703	24.437	-258.122	B5-03822-P02-CH0	95392	OK	0.7097265	0.0124225	-0.7043678	0	-83.763	-102.912	-0.474	B5-03822-P02-CH1	95392	OK	0.7970547	-0.0532691	-0.6015531	0	-89.409	-75.474	7.238	B5-03822-P03-CH0	95392	OK	0.7767085	-0.5593954	-0.2894834	0	-98.365	-58.153	6.029	B5-03822-P03-CH1	95392	OK	0.7556917	-0.637417	0.1504316	0	-104.28	-26.92	0.935	B5-03822-P04-CH0	95392	OK	0.6664398	-0.1235479	0.735251	0	-130.161	-33.129	10.314	B5-03822-P04-CH1	95392	OK	0.7684135	-0.6379863	0.0501412	0	-114.179	-45.896	4.02	NA
0.229812244897959	B5-03822-P01-CH0	95400	OK	0.2237656	0.0680212	0.0682882	-0.9698653	96.797	24.439	-258.221	B5-03822-P02-CH0	95400	OK	0.7050033	-0.012532	-0.7090933	0	-82.073	-102.904	-0.856	B5-03822-P02-CH1	95400	OK	0.8054669	-0.0650322	-0.5890618	0	-90.295	-76.262	7.939	B5-03822-P03-CH0	95400	OK	0.7809448	-0.5499421	-0.296123	0	-98.424	-58.928	7.263	B5-03822-P03-CH1	95400	OK	0.7553526	-0.6378571	0.1502692	0	-104.404	-26.977	1.016	B5-03822-P04-CH0	95400	OK	0.6661438	-0.1254762	0.7351926	0	-130.103	-33.007	10.519	B5-03822-P04-CH1	95400	OK	0.7680959	-0.6384342	0.0492995	0	-114.246	-45.84	4.273	NA
0.239804081632653	B5-03822-P01-CH0	95408	OK	0.2239218	0.0679795	0.068643	-0.9698072	96.811	24.508	-258.285	B5-03822-P02-CH0	95408	OK	0.6969673	-0.0326988	-0.716357	0	-82.347	-102.61	0.14	B5-03822-P02-CH1	95408	OK	0.8145503	-0.0740038	-0.5753532	0	-91.116	-76.617	9.031	B5-03822-P03-CH0	95408	OK	0.7857452	-0.5367725	-0.3073757	0	-99.533	-58.913	6.924	B5-03822-P03-CH1	95408	OK	0.7555916	-0.6374575	0.1507626	0	-104.485	-27.158	1.235	B5-03822-P04-CH0	95408	OK	0.666034	-0.1277147	0.7349066	0	-129.993	-32.859	10.582	B5-03822-P04-CH1	95408	OK	0.768341	-0.6381372	0.0493256	0	-114.17	-45.896	4.432	NA
0.249795918367347	B5-03822-P01-CH0	95416	OK	0.2241606	0.0680607	0.0694752	-0.969687	96.862	24.647	-258.284	B5-03822-P02-CH0	95416	OK	0.6892716	-0.0526133	-0.7225901	0	-82.309	-103.252	-0.748	B5-03822-P02-CH1	95416	OK	0.823346	-0.0829566	-0.5614442	0	-92.08	-78.043	8.595	B5-03822-P03-CH0	95416	OK	0.7902867	-0.5233537	-0.3186657	0	-100.314	-58.781	6.54	B5-03822-P03-CH1	95416	OK	0.7561981	-0.6366565	0.1511055	0	-104.686	-27.19	0.987	B5-03822-P04-CH0	95416	OK	0.6662754	-0.130475	0.7342025	0	-130.011	-32.648	10.671	B5-03822-P04-CH1	95416	OK	0.7689019	-0.6374462	0.0495206	0	-114.143	-45.893	4.506	NA
0.259787755102041	B5-03822-P01-CH0	95424	OK	0.2243804	0.0681465	0.0699002	-0.9695996	96.88	24.693	-258.176	B5-03822-P02-CH0	95424	OK	0.6852725	-0.0721403	-0.724705	0	-80.376	-104.35	-1.219	B5-03822-P02-CH1	95424	OK	0.832463	-0.0928011	-0.5462538	0	-92.591	-78.794	9.955	B5-03822-P03-CH0	95424	OK	0.7951564	-0.5086854	-0.3300991	0	-100.476	-58.575	7.054	B5-03822-P03-CH1	95424	OK	0.7565211	-0.6361955	0.1514303	0	-104.691	-27.289	1.004	B5-03822-P04-CH0	95424	OK	0.6661312	-0.1333072	0.7338245	0	-129.858	-32.458	10.619	B5-03822-P04-CH1	95424	OK	0.7691955	-0.637098	0.0494421	0	-114.136	-45.912	4.406	NA
0.269779591836735	B5-03822-P01-CH0	95432	OK	0.2245137	0.0682355	0.0704906	-0.9695198	96.911	24.846	-258.178	B5-03822-P02-CH0	95432	OK	0.6788103	-0.0898275	-0.7287987	0	-79.985	-104.417	-1.169	B5-03822-P02-CH1	95432	OK	0.8396785	-0.0981556	-0.53414	0	-93.697	-79.18	9.335	B5-03822-P03-CH0	95432	OK	0.7996316	-0.493688	-0.3418499	0	-100.58	-58.674	7.601	B5-03822-P03-CH1	95432	OK	0.7570611	-0.635495	0.1516726	0	-104.803	-27.244	1.136	B5-03822-P04-CH0	95432	OK	0.6662102	-0.135943	0.7332691	0	-129.845	-32.304	10.713	B5-03822-P04-CH1	95432	OK	0.7698877	-0.6362721	0.0493028	0	-114.039	-45.66	4.605	NA
0.279771428571429	B5-03822-P01-CH0	95440	OK	0.2244631	0.0683792	0.0703163	-0.969534	96.924	24.92	-258.176	B5-03822-P02-CH0	95440	OK	0.6744353	-0.1028025	-0.731142	0	-79.843	-103.201	-0.25	B5-03822-P02-CH1	95440	OK	0.8456401	-0.1069943	-0.5229197	0	-94.286	-79.92	10.441	B5-03822-P03-CH0	95440	OK	0.8040145	-0.4774463	-0.3544091	0	-100.949	-58.417	7.723	B5-03822-P03-CH1	95440	OK	0.7571859	-0.635323	0.1517702	0	-104.942	-27.217	1.492	B5-03822-P04-CH0	95440	OK	0.6660216	-0.1387841	0.7329081	0	-129.795	-32.119	10.624	B5-03822-P04-CH1	95440	OK	0.7697468	-0.6364459	0.0492592	0	-114.112	-45.64	4.563	NA
0.289763265306122	B5-03822-P01-CH0	95448	OK	0.2243291	0.0685352	0.0703448	-0.969552	96.932	25.025	-258.048	B5-03822-P02-CH0	95448	OK	0.6730202	-0.1155509	-0.7305421	0	-79.635	-104.625	-0.717	B5-03822-P02-CH1	95448	OK	0.8502	-0.1090429	-0.5150433	0	-95.277	-80.087	10.714	B5-03822-P03-CH0	95448	OK	0.804925	-0.46171	-0.3727193	0	-101.789	-58.897	7.886	B5-03822-P03-CH1	95448	OK	0.7572611	-0.6352106	0.1518654	0	-105.06	-27.232	1.607	B5-03822-P04-CH0	95448	OK	0.666156	-0.1411048	0.7323426	0	-129.81	-32.047	10.642	B5-03822-P04-CH1	95448	OK	0.7697793	-0.6364384	0.0488469	0	-114.129	-45.524	4.431	NA
0.299755102040816	B5-03822-P01-CH0	95456	OK	0.2239686	0.0689382	0.069504	-0.9696674	97.044	24.957	-257.968	B5-03822-P02-CH0	95456	OK	0.6733827	-0.127619	-0.7281958	0	-79.429	-104.384	0.245	B5-03822-P02-CH1	95456	OK	0.8544623	-0.1059649	-0.5085918	0	-95.481	-79.443	11.313	B5-03822-P03-CH0	95456	OK	0.8049118	-0.4477459	-0.3894105	0	-101.372	-59.015	8.265	B5-03822-P03-CH1	95456	OK	0.7568236	-0.6357576	0.1517573	0	-105.14	-27.329	1.713	B5-03822-P04-CH0	95456	OK	0.6658577	-0.1433507	0.7321776	0	-129.672	-32.079	10.894	B5-03822-P04-CH1	95456	OK	0.769164	-0.6372269	0.0482548	0	-114.232	-45.602	4.391	NA
0.30974693877551	B5-03822-P01-CH0	95464	OK	0.2239466	0.0690717	0.0693041	-0.9696772	97.083	24.962	-257.971	B5-03822-P02-CH0	95464	OK	0.6738077	-0.1400327	-0.7255163	0	-79.652	-105.055	0.914	B5-03822-P02-CH1	95464	OK	0.8562572	-0.1032055	-0.5061346	0	-96.095	-79.445	12.322	B5-03822-P03-CH0	95464	OK	0.803928	-0.4325587	-0.4081578	0	-100.91	-58.15	8.011	B5-03822-P03-CH1	95464	OK	0.7568267	-0.6357173	0.1519103	0	-105.121	-27.37	1.871	B5-03822-P04-CH0	95464	OK	0.6658871	-0.1449773	0.7318306	0	-129.648	-32.131	11.018	B5-03822-P04-CH1	95464	OK	0.7689897	-0.637443	0.0481788	0	-114.203	-45.672	4.371	NA
0.319738775510204	B5-03822-P01-CH0	95472	OK	0.2239499	0.0691768	0.0691982	-0.9696765	97.082	25.006	-257.887	B5-03822-P02-CH0	95472	OK	0.6761907	-0.1516467	-0.7209504	0	-79.482	-106.327	-0.205	B5-03822-P02-CH1	95472	OK	0.8559189	-0.1025986	-0.5068298	0	-97.119	-79.945	12.656	B5-03822-P03-CH0	95472	OK	0.7978337	-0.4157374	-0.4366048	0	-101.715	-58.689	6.657	B5-03822-P03-CH1	95472	OK	0.7568455	-0.635606	0.1522821	0	-105.209	-27.422	1.951	B5-03822-P04-CH0	95472	OK	0.6659122	-0.1470321	0.7313976	0	-129.595	-32.007	11.097	B5-03822-P04-CH1	95472	OK	0.768924	-0.6375307	0.0480665	0	-114.174	-45.662	4.261	NA
0.329730612244898	B5-03822-P01-CH0	95480	OK	0.2239865	0.0691483	0.0693926	-0.9696562	97.026	25.047	-257.759	B5-03822-P02-CH0	95480	OK	0.6794655	-0.1633938	-0.7152826	0	-80.075	-105.943	-0.927	B5-03822-P02-CH1	95480	OK	0.8562012	-0.1019542	-0.5064828	0	-97.298	-81.008	11.329	B5-03822-P03-CH0	95480	OK	0.7933467	-0.3917795	-0.4659504	0	-100.737	-58.091	6.393	B5-03822-P03-CH1	95480	OK	0.7570356	-0.6353442	0.15243	0	-105.242	-27.46	2.103	B5-03822-P04-CH0	95480	OK	0.6662128	-0.1490355	0.7307181	0	-129.598	-31.851	11.055	B5-03822-P04-CH1	95480	OK	0.7691083	-0.6373317	0.0477568	0	-114.165	-45.564	4.113	NA
0.339722448979592	B5-03822-P01-CH0	95488	OK	0.2240357	0.069234	0.0694427	-0.9696352	97	25.114	-257.63	B5-03822-P02-CH0	95488	OK	0.6841088	-0.1772632	-0.7075118	0	-80.567	-105.409	-0.191	B5-03822-P02-CH1	95488	OK	0.8553138	-0.0928387	-0.5097247	0	-98.023	-79.637	11.331	B5-03822-P03-CH0	95488	OK	0.7862604	-0.3658298	-0.4979589	0	-100.509	-57.749	5.83	B5-03822-P03-CH1	95488	OK	0.7570978	-0.6352491	0.1525173	0	-105.198	-27.336	1.838	B5-03822-P04-CH0	95488	OK	0.6665897	-0.1500089	0.730175	0	-129.669	-31.883	11.154	B5-03822-P04-CH1	95488	OK	0.7692964	-0.6371237	0.0475025	0	-114.122	-45.369	3.979	NA
0.349714285714286	B5-03822-P01-CH0	95496	OK	0.2235871	0.0696191	0.0681408	-0.9698035	97.064	25.008	-257.559	B5-03822-P02-CH0	95496	OK	0.6893237	-0.191593	-0.6986594	0	-80.625	-105.216	-0.046	B5-03822-P02-CH1	95496	OK	0.8536803	-0.0908902	-0.5128049	0	-98.614	-79.596	11.695	B5-03822-P03-CH0	95496	OK	0.7782508	-0.3392674	-0.5284158	0	-101.193	-58.194	4.452	B5-03822-P03-CH1	95496	OK	0.7563254	-0.6362049	0.1523653	0	-105.088	-27.338	2.099	B5-03822-P04-CH0	95496	OK	0.6665177	-0.151729	0.7298853	0	-129.684	-31.879	11.19	B5-03822-P04-CH1	95496	OK	0.7684797	-0.6381761	0.0465846	0	-114.208	-45.327	4.085	NA
0.35970612244898	B5-03822-P01-CH0	95504	OK	0.2235023	0.0695272	0.0677109	-0.9698597	96.99	24.99	-257.556	B5-03822-P02-CH0	95504	OK	0.6937403	-0.2061536	-0.6900906	0	-81.104	-104.479	-0.529	B5-03822-P02-CH1	95504	OK	0.851815	-0.0906438	-0.5159408	0	-98.988	-79.874	11.877	B5-03822-P03-CH0	95504	OK	0.7737272	-0.3103948	-0.5522693	0	-100.359	-57.691	3.98	B5-03822-P03-CH1	95504	OK	0.7561606	-0.6363852	0.1524305	0	-104.987	-27.224	2.12	B5-03822-P04-CH0	95504	OK	0.6663973	-0.1533852	0.7296489	0	-129.61	-31.824	11.122	B5-03822-P04-CH1	95504	OK	0.7682525	-0.6384761	0.0462197	0	-114.141	-45.269	4.25	NA
0.369697959183673	B5-03822-P01-CH0	95512	OK	0.2233306	0.0695495	0.0671443	-0.9699371	96.965	24.931	-257.506	B5-03822-P02-CH0	95512	OK	0.6980834	-0.2228988	-0.6804379	0	-81.668	-104.564	0.388	B5-03822-P02-CH1	95512	OK	0.8492674	-0.0882534	-0.5205345	0	-99.668	-79.8	11.965	B5-03822-P03-CH0	95512	OK	0.7672228	-0.2765792	-0.5786823	0	-100.653	-57.289	4.6	B5-03822-P03-CH1	95512	OK	0.7557246	-0.636883	0.1525134	0	-104.871	-27.288	2.188	B5-03822-P04-CH0	95512	OK	0.6662421	-0.1553159	0.7293822	0	-129.482	-31.8	11.106	B5-03822-P04-CH1	95512	OK	0.7678498	-0.6390062	0.0455818	0	-114.202	-45.242	4.226	NA
0.379689795918367	B5-03822-P01-CH0	95520	OK	0.2230958	0.069694	0.0666101	-0.9700176	96.996	24.883	-257.503	B5-03822-P02-CH0	95520	OK	0.7043228	-0.2378923	-0.6688323	0	-81.546	-104.02	1.318	B5-03822-P02-CH1	95520	OK	0.8469938	-0.0859867	-0.5246025	0	-99.602	-79.888	12.689	B5-03822-P03-CH0	95520	OK	0.7610102	-0.2449871	-0.6007035	0	-101.301	-56.717	3.678	B5-03822-P03-CH1	95520	OK	0.7554234	-0.6372937	0.1522896	0	-104.826	-27.235	2.265	B5-03822-P04-CH0	95520	OK	0.6664791	-0.1571202	0.728779	0	-129.487	-31.74	11.385	B5-03822-P04-CH1	95520	OK	0.7675436	-0.6394241	0.0448737	0	-114.21	-45.176	4.396	NA
0.389681632653061	B5-03822-P01-CH0	95528	OK	0.2231668	0.0697829	0.0667593	-0.9699846	97.01	24.895	-257.442	B5-03822-P02-CH0	95528	OK	0.7094435	-0.2519492	-0.658188	0	-81.887	-103.426	1.643	B5-03822-P02-CH1	95528	OK	0.8443475	-0.0790042	-0.5299393	0	-99.766	-79.298	11.647	B5-03822-P03-CH0	95528	OK	0.7572639	-0.2180279	-0.6156421	0	-100.516	-56.471	3.465	B5-03822-P03-CH1	95528	OK	0.7555183	-0.6372153	0.1521475	0	-104.867	-27.126	1.918	B5-03822-P04-CH0	95528	OK	0.666793	-0.1589874	0.7280866	0	-129.485	-31.632	11.428	B5-03822-P04-CH1	95528	OK	0.767691	-0.6392739	0.0444901	0	-114.184	-45.056	4.458	NA
0.399673469387755	B5-03822-P01-CH0	95536	OK	0.2233199	0.0697471	0.0668907	-0.9699429	96.935	24.954	-257.338	B5-03822-P02-CH0	95536	OK	0.7137268	-0.2614869	-0.6497835	0	-82.388	-103.272	1.952	B5-03822-P02-CH1	95536	OK	0.8399057	-0.0738052	-0.5376907	0	-100.322	-79.046	11.465	B5-03822-P03-CH0	95536	OK	0.7531748	-0.1942382	-0.6284896	0	-100.681	-56.533	3.554	B5-03822-P03-CH1	95536	OK	0.7553277	-0.6373027	0.1527266	0	-104.865	-27.234	1.836	B5-03822-P04-CH0	95536	OK	0.6670125	-0.1610611	0.7274295	0	-129.491	-31.5	11.177	B5-03822-P04-CH1	95536	OK	0.7679005	-0.6390502	0.044087	0	-114.206	-44.823	4.408	NA
0.409665306122449	B5-03822-P01-CH0	95544	OK	0.2232103	0.069666	0.0671186	-0.9699582	96.866	25.047	-257.305	B5-03822-P02-CH0	95544	OK	0.7174386	-0.2665212	-0.6436213	0	-82.934	-102.562	2.857	B5-03822-P02-CH1	95544	OK	0.8369053	-0.0695078	-0.5429163	0	-100.47	-79.348	10.122	B5-03822-P03-CH0	95544	OK	0.7518099	-0.1841172	-0.6331531	0	-100.429	-56.055	2.898	B5-03822-P03-CH1	95544	OK	0.755412	-0.6372384	0.1525778	0	-104.865	-27.115	1.966	B5-03822-P04-CH0	95544	OK	0.6671491	-0.1638799	0.7266743	0	-129.435	-31.202	11.065	B5-03822-P04-CH1	95544	OK	0.7680375	-0.6389396	0.0432967	0	-114.223	-44.562	4.341	NA
0.419657142857143	B5-03822-P01-CH0	95552	OK	0.2231161	0.0697116	0.0670369	-0.9699823	96.838	25.064	-257.225	B5-03822-P02-CH0	95552	OK	0.7221965	-0.2670278	-0.6380661	0	-83.178	-102.131	2.75	B5-03822-P02-CH1	95552	OK	0.8360358	-0.0614675	-0.5452209	0	-100.168	-78.262	10.783	B5-03822-P03-CH0	95552	OK	0.7523215	-0.1817525	-0.6332286	0	-100.12	-55.498	2.685	B5-03822-P03-CH1	95552	OK	0.7550542	-0.6377361	0.1522688	0	-104.874	-27.074	1.464	B5-03822-P04-CH0	95552	OK	0.6674415	-0.1660355	0.725916	0	-129.442	-31.08	11.15	B5-03822-P04-CH1	95552	OK	0.768098	-0.6389108	0.0426439	0	-114.178	-44.3	4.394	NA
0.429648979591837	B5-03822-P01-CH0	95560	OK	0.2230934	0.0698598	0.0666351	-0.9700045	96.873	25.061	-257.265	B5-03822-P02-CH0	95560	OK	0.7265148	-0.2621817	-0.6351669	0	-83.663	-102.056	3.024	B5-03822-P02-CH1	95560	OK	0.8344639	-0.0552523	-0.5482856	0	-100.574	-77.926	11.303	B5-03822-P03-CH0	95560	OK	0.7526702	-0.181394	-0.6329169	0	-100.587	-55.031	3.91	B5-03822-P03-CH1	95560	OK	0.7545966	-0.6382732	0.152287	0	-104.832	-27.058	1.263	B5-03822-P04-CH0	95560	OK	0.6675093	-0.1678542	0.7254353	0	-129.439	-31.029	11.245	B5-03822-P04-CH1	95560	OK	0.7677826	-0.6393121	0.0423085	0	-114.249	-44.263	4.557	NA
0.439640816326531	B5-03822-P01-CH0	95568	OK	0.2229897	0.0700781	0.0662468	-0.9700392	96.902	25.05	-257.222	B5-03822-P02-CH0	95568	OK	0.7313356	-0.255741	-0.6322537	0	-84.052	-101.241	2.218	B5-03822-P02-CH1	95568	OK	0.835094	-0.047785	-0.5480279	0	-100.657	-77.466	10.849	B5-03822-P03-CH0	95568	OK	0.7534576	-0.1880472	-0.6300317	0	-101.345	-54.088	4.961	B5-03822-P03-CH1	95568	OK	0.7542995	-0.6386526	0.1521682	0	-104.839	-27.027	1.423	B5-03822-P04-CH0	95568	OK	0.6677129	-0.1698154	0.7247912	0	-129.423	-30.917	11.319	B5-03822-P04-CH1	95568	OK	0.7674665	-0.6397381	0.0415972	0	-114.403	-44.146	4.625	NA
0.449632653061224	B5-03822-P01-CH0	95576	OK	0.2230692	0.0698568	0.0663327	-0.970031	96.822	25.057	-257.245	B5-03822-P02-CH0	95576	OK	0.7368871	-0.2440174	-0.6304387	0	-84.275	-100.413	2.885	B5-03822-P02-CH1	95576	OK	0.8374828	-0.0446329	-0.544638	0	-100.266	-77.986	10.577	B5-03822-P03-CH0	95576	OK	0.757483	-0.2063383	-0.6193901	0	-100.461	-54.488	4.066	B5-03822-P03-CH1	95576	OK	0.754285	-0.6386732	0.1521538	0	-104.743	-26.951	1.386	B5-03822-P04-CH0	95576	OK	0.6680424	-0.1707887	0.7242586	0	-129.429	-30.987	11.362	B5-03822-P04-CH1	95576	OK	0.7674304	-0.6397825	0.0415818	0	-114.225	-44.069	4.522	NA
0.459624489795918	B5-03822-P01-CH0	95584	OK	0.2231232	0.0702088	0.0663031	-0.9699952	96.941	25.082	-257.234	B5-03822-P02-CH0	95584	OK	0.7407749	-0.2265995	-0.6323806	0	-85.552	-100.198	4.199	B5-03822-P02-CH1	95584	OK	0.840153	-0.0419842	-0.540722	0	-99.813	-77.442	11.341	B5-03822-P03-CH0	95584	OK	0.7599934	-0.2312096	-0.6074143	0	-100.681	-55.227	3.239	B5-03822-P03-CH1	95584	OK	0.7540979	-0.6389062	0.1521029	0	-104.831	-26.998	1.207	B5-03822-P04-CH0	95584	OK	0.6688998	-0.1714598	0.7233081	0	-129.643	-31.011	11.673	B5-03822-P04-CH1	95584	OK	0.767333	-0.6399149	0.0413401	0	-114.299	-44.012	4.574	NA
0.469616326530612	B5-03822-P01-CH0	95592	OK	0.2233351	0.0700559	0.0666997	-0.9699303	96.874	25.109	-257.208	B5-03822-P02-CH0	95592	OK	0.7450542	-0.2050261	-0.6347114	0	-86.533	-100.47	3.368	B5-03822-P02-CH1	95592	OK	0.8424624	-0.0360934	-0.5375447	0	-99.364	-76.587	10.782	B5-03822-P03-CH0	95592	OK	0.761226	-0.259819	-0.5941624	0	-101.073	-56.279	3.729	B5-03822-P03-CH1	95592	OK	0.7542592	-0.6387027	0.1521574	0	-104.745	-26.874	0.863	B5-03822-P04-CH0	95592	OK	0.6696574	-0.1715931	0.7225751	0	-129.731	-31.04	11.815	B5-03822-P04-CH1	95592	OK	0.7675591	-0.6396472	0.041286	0	-114.255	-43.905	4.465	NA
0.479608163265306	B5-03822-P01-CH0	95600	OK	0.2234012	0.0702264	0.0666291	-0.9699076	96.907	25.112	-257.107	B5-03822-P02-CH0	95600	OK	0.7500429	-0.1830083	-0.6355655	0	-86.716	-100.287	3.519	B5-03822-P02-CH1	95600	OK	0.8407297	-0.0350252	-0.5403211	0	-100.077	-77.569	10.943	B5-03822-P03-CH0	95600	OK	0.7633626	-0.2905774	-0.5769248	0	-100.902	-56.792	3.589	B5-03822-P03-CH1	95600	OK	0.7539326	-0.6390322	0.1523926	0	-104.792	-27.052	0.652	B5-03822-P04-CH0	95600	OK	0.6701356	-0.1720591	0.7220207	0	-129.854	-31.037	11.701	B5-03822-P04-CH1	95600	OK	0.7673935	-0.6398621	0.0410342	0	-114.325	-43.853	4.371	NA
0.4896	B5-03822-P01-CH0	95608	OK	0.2233489	0.070204	0.0661997	-0.9699506	96.861	25.089	-257.139	B5-03822-P02-CH0	95608	OK	0.7524596	-0.1590414	-0.6391481	0	-87.437	-99.665	4.529	B5-03822-P02-CH1	95608	OK	0.8421146	-0.0282364	-0.5385589	0	-98.948	-76.621	11.169	B5-03822-P03-CH0	95608	OK	0.7635566	-0.3248775	-0.5580644	0	-101.675	-55.867	3.517	B5-03822-P03-CH1	95608	OK	0.7534755	-0.6395557	0.1524571	0	-104.706	-27.168	0.794	B5-03822-P04-CH0	95608	OK	0.6703338	-0.1722827	0.7217834	0	-129.824	-31.021	11.796	B5-03822-P04-CH1	95608	OK	0.7670497	-0.6402854	0.0408565	0	-114.372	-43.792	4.375	NA
0.499591836734694	B5-03822-P01-CH0	95616	OK	0.2233737	0.0702456	0.0664779	-0.9699229	96.91	25.104	-257.222	B5-03822-P02-CH0	95616	OK	0.7528949	-0.134525	-0.6442455	0	-87.62	-99.212	5.134	B5-03822-P02-CH1	95616	OK	0.8422079	-0.0239167	-0.5386222	0	-97.834	-75.966	11.284	B5-03822-P03-CH0	95616	OK	0.7656511	-0.3604974	-0.5327476	0	-100.271	-55.514	4.661	B5-03822-P03-CH1	95616	OK	0.7536932	-0.6393974	0.1520449	0	-104.609	-27.076	0.829	B5-03822-P04-CH0	95616	OK	0.6710736	-0.1724316	0.7210601	0	-129.959	-30.952	11.992	B5-03822-P04-CH1	95616	OK	0.7670784	-0.6402567	0.0407693	0	-114.424	-43.758	4.304	NA
0.509583673469388	B5-03822-P01-CH0	95624	OK	0.2234948	0.070403	0.066335	-0.9698934	96.93	25.053	-257.14	B5-03822-P02-CH0	95624	OK	0.7518658	-0.1104536	-0.6499984	0	-86.794	-99.16	3.298	B5-03822-P02-CH1	95624	OK	0.8373299	-0.025285	-0.5461129	0	-97.974	-75.933	10.919	B5-03822-P03-CH0	95624	OK	0.762034	-0.3888274	-0.5178006	0	-100.421	-56.241	4.244	B5-03822-P03-CH1	95624	OK	0.7535618	-0.6395392	0.1520994	0	-104.503	-27.1	0.608	B5-03822-P04-CH0	95624	OK	0.6717476	-0.1715251	0.7206485	0	-130.091	-31.091	12.118	B5-03822-P04-CH1	95624	OK	0.766802	-0.6405897	0.0407373	0	-114.591	-43.838	4.244	NA
0.519575510204082	B5-03822-P01-CH0	95632	OK	0.2236572	0.0704077	0.0664857	-0.9698453	96.941	25.028	-257.233	B5-03822-P02-CH0	95632	OK	0.7470883	-0.0866784	-0.6590493	0	-86.942	-99.539	3.049	B5-03822-P02-CH1	95632	OK	0.832445	-0.0304459	-0.5532705	0	-97.35	-76.263	9.628	B5-03822-P03-CH0	95632	OK	0.7612456	-0.4172452	-0.4963986	0	-99.551	-56.19	3.681	B5-03822-P03-CH1	95632	OK	0.7538656	-0.6392021	0.1520111	0	-104.468	-27.057	0.842	B5-03822-P04-CH0	95632	OK	0.6722084	-0.1707157	0.720411	0	-130.151	-31.239	12.126	B5-03822-P04-CH1	95632	OK	0.7667019	-0.6406986	0.0409085	0	-114.713	-43.929	4.164	NA
0.529567346938775	B5-03822-P01-CH0	95640	OK	0.2235546	0.0703677	0.0666486	-0.9698607	96.9	25.014	-257.149	B5-03822-P02-CH0	95640	OK	0.7432047	-0.0622633	-0.6661607	0	-86.345	-99.447	3.042	B5-03822-P02-CH1	95640	OK	0.8269414	-0.0343885	-0.5612356	0	-95.895	-75.982	9.597	B5-03822-P03-CH0	95640	OK	0.7600401	-0.4494988	-0.4693505	0	-99.033	-56.541	3.558	B5-03822-P03-CH1	95640	OK	0.7538591	-0.6392614	0.1517937	0	-104.339	-27.089	0.854	B5-03822-P04-CH0	95640	OK	0.6727147	-0.1706731	0.7199483	0	-130.206	-31.149	12.003	B5-03822-P04-CH1	95640	OK	0.7667463	-0.6406671	0.0405671	0	-114.805	-43.806	4.039	NA
0.539559183673469	B5-03822-P01-CH0	95648	OK	0.2236104	0.0702111	0.0670244	-0.9698332	96.877	25.031	-257.247	B5-03822-P02-CH0	95648	OK	0.7395506	-0.0383244	-0.6720091	0	-85.458	-99.63	2.126	B5-03822-P02-CH1	95648	OK	0.8196121	-0.0402206	-0.5715053	0	-94.589	-75.809	9.846	B5-03822-P03-CH0	95648	OK	0.7592881	-0.4782018	-0.4413667	0	-98.862	-56.632	3.981	B5-03822-P03-CH1	95648	OK	0.7540584	-0.6390712	0.1516047	0	-104.296	-27.054	0.716	B5-03822-P04-CH0	95648	OK	0.6732236	-0.1702481	0.7195732	0	-130.279	-31.119	12.051	B5-03822-P04-CH1	95648	OK	0.7668752	-0.6405058	0.0406784	0	-114.789	-43.791	4.058	NA
0.549551020408163	B5-03822-P01-CH0	95656	OK	0.2238551	0.0701744	0.0675934	-0.96974	96.837	25.132	-257.203	B5-03822-P02-CH0	95656	OK	0.7331238	-0.0162004	-0.6799022	0	-86.103	-99.553	1.36	B5-03822-P02-CH1	95656	OK	0.8118073	-0.0400727	-0.5825487	0	-93.358	-75.523	7.41	B5-03822-P03-CH0	95656	OK	0.7595309	-0.5008969	-0.4149881	0	-98.845	-56.697	3.727	B5-03822-P03-CH1	95656	OK	0.7544	-0.6386392	0.1517258	0	-104.391	-26.973	0.508	B5-03822-P04-CH0	95656	OK	0.6737043	-0.1693513	0.7193349	0	-130.334	-31.056	12.061	B5-03822-P04-CH1	95656	OK	0.7672123	-0.6401034	0.0406566	0	-114.97	-43.681	4.048	NA
0.559542857142857	B5-03822-P01-CH0	95664	OK	0.2241041	0.0700083	0.0680814	-0.9696603	96.78	25.139	-257.165	B5-03822-P02-CH0	95664	OK	0.7309635	0.0047377	-0.6824002	0	-84.781	-99.348	0.622	B5-03822-P02-CH1	95664	OK	0.8009369	-0.0377137	-0.5975599	0	-92.754	-74.943	7.447	B5-03822-P03-CH0	95664	OK	0.7602419	-0.5177892	-0.3923348	0	-97.862	-57.132	3.957	B5-03822-P03-CH1	95664	OK	0.7547013	-0.6381851	0.1521374	0	-104.337	-27.047	0.815	B5-03822-P04-CH0	95664	OK	0.6739051	-0.1687305	0.7192927	0	-130.302	-31.086	11.907	B5-03822-P04-CH1	95664	OK	0.7675107	-0.6397275	0.0409408	0	-114.954	-43.651	3.851	NA
0.569534693877551	B5-03822-P01-CH0	95672	OK	0.224215	0.0701354	0.0683648	-0.9696056	96.835	25.19	-257.158	B5-03822-P02-CH0	95672	OK	0.7266038	0.0228964	-0.6866751	0	-84.933	-98.619	1.363	B5-03822-P02-CH1	95672	OK	0.7910571	-0.0354584	-0.6107138	0	-91.87	-73.999	7.589	B5-03822-P03-CH0	95672	OK	0.758748	-0.5287956	-0.380364	0	-98.233	-57.214	3.951	B5-03822-P03-CH1	95672	OK	0.7548542	-0.6379929	0.1521849	0	-104.38	-27.118	1.052	B5-03822-P04-CH0	95672	OK	0.6743449	-0.1688672	0.7188483	0	-130.438	-30.887	11.858	B5-03822-P04-CH1	95672	OK	0.7675681	-0.6396678	0.0407954	0	-115.097	-43.656	3.83	NA
0.579526530612245	B5-03822-P01-CH0	95680	OK	0.2244935	0.0698874	0.0692171	-0.9694985	96.784	25.217	-257.174	B5-03822-P02-CH0	95680	OK	0.7243582	0.0387997	-0.6883311	0	-84.457	-98.463	0.73	B5-03822-P02-CH1	95680	OK	0.7833473	-0.0345846	-0.6206213	0	-90.918	-74.34	5.275	B5-03822-P03-CH0	95680	OK	0.7581602	-0.5353487	-0.3722835	0	-97.795	-57.265	3.662	B5-03822-P03-CH1	95680	OK	0.7555967	-0.637148	0.1520395	0	-104.341	-26.949	1.028	B5-03822-P04-CH0	95680	OK	0.6747659	-0.1685881	0.7185186	0	-130.389	-30.872	11.95	B5-03822-P04-CH1	95680	OK	0.7681188	-0.6390003	0.0408929	0	-115.116	-43.638	3.731	NA
0.589518367346939	B5-03822-P01-CH0	95688	OK	0.2247629	0.0698645	0.0698451	-0.9693927	96.818	25.207	-257.195	B5-03822-P02-CH0	95688	OK	0.7232547	0.0520228	-0.6886191	0	-83.798	-98.429	0.065	B5-03822-P02-CH1	95688	OK	0.7781508	-0.0339891	-0.6271571	0	-89.939	-74.404	4.174	B5-03822-P03-CH0	95688	OK	0.7584373	-0.5362955	-0.3703511	0	-97.443	-56.925	4.09	B5-03822-P03-CH1	95688	OK	0.756123	-0.6364975	0.152148	0	-104.262	-26.953	1.193	B5-03822-P04-CH0	95688	OK	0.6752831	-0.1684152	0.7180732	0	-130.494	-30.898	11.848	B5-03822-P04-CH1	95688	OK	0.7684648	-0.6385725	0.0410733	0	-115.159	-43.708	3.702	NA
0.599510204081633	B5-03822-P01-CH0	95696	OK	0.2249451	0.0699567	0.0702111	-0.9693174	96.864	25.294	-257.178	B5-03822-P02-CH0	95696	OK	0.7207686	0.0630834	-0.6902993	0	-84.237	-98.915	0.582	B5-03822-P02-CH1	95696	OK	0.7730898	-0.0327924	-0.6334483	0	-89.84	-75.244	4.082	B5-03822-P03-CH0	95696	OK	0.7578471	-0.5365574	-0.371179	0	-97.926	-56.43	4.282	B5-03822-P03-CH1	95696	OK	0.7566367	-0.6358979	0.1521013	0	-104.475	-26.859	1.384	B5-03822-P04-CH0	95696	OK	0.67559	-0.1680406	0.7178722	0	-130.532	-30.962	11.991	B5-03822-P04-CH1	95696	OK	0.7686511	-0.6383371	0.0412471	0	-115.195	-43.738	3.809	NA
0.609502040816327	B5-03822-P01-CH0	95704	OK	0.2251564	0.0698643	0.0705226	-0.9692524	96.856	25.32	-257.248	B5-03822-P02-CH0	95704	OK	0.7185679	0.0717238	-0.6917485	0	-84.285	-98.103	0.784	B5-03822-P02-CH1	95704	OK	0.7686199	-0.0300447	-0.6389998	0	-89.141	-75.047	3.348	B5-03822-P03-CH0	95704	OK	0.755662	-0.5396062	-0.3712144	0	-98.247	-56.94	3.308	B5-03822-P03-CH1	95704	OK	0.7571381	-0.6353779	0.1517789	0	-104.6	-26.749	1.453	B5-03822-P04-CH0	95704	OK	0.6756943	-0.1682729	0.7177196	0	-130.441	-30.936	12.087	B5-03822-P04-CH1	95704	OK	0.7689613	-0.6379344	0.0416925	0	-115.033	-43.686	3.751	NA
0.61949387755102	B5-03822-P01-CH0	95712	OK	0.2253705	0.0697288	0.0708375	-0.9691894	96.849	25.311	-257.268	B5-03822-P02-CH0	95712	OK	0.7160517	0.081247	-0.6933028	0	-84.436	-98.126	-0.149	B5-03822-P02-CH1	95712	OK	0.7631077	-0.0278229	-0.6456722	0	-88.593	-75.529	3.163	B5-03822-P03-CH0	95712	OK	0.7554782	-0.5415124	-0.3688048	0	-97.604	-56.897	2.664	B5-03822-P03-CH1	95712	OK	0.7575001	-0.6349342	0.1518296	0	-104.543	-26.847	1.649	B5-03822-P04-CH0	95712	OK	0.6758602	-0.1681199	0.7175993	0	-130.397	-31.067	12.159	B5-03822-P04-CH1	95712	OK	0.7693191	-0.6374952	0.0418095	0	-114.914	-43.665	3.854	NA
0.629485714285714	B5-03822-P01-CH0	95720	OK	0.2254128	0.0696161	0.0704144	-0.9692185	96.836	25.251	-257.338	B5-03822-P02-CH0	95720	OK	0.7150794	0.0910595	-0.693087	0	-83.702	-99.275	0.151	B5-03822-P02-CH1	95720	OK	0.757795	-0.0276624	-0.6519061	0	-88.018	-75.862	2.965	B5-03822-P03-CH0	95720	OK	0.7538895	-0.5441821	-0.3681256	0	-97.632	-57.027	2.814	B5-03822-P03-CH1	95720	OK	0.7576499	-0.6348118	0.1515935	0	-104.542	-26.779	1.728	B5-03822-P04-CH0	95720	OK	0.6758983	-0.1678478	0.7176271	0	-130.301	-31.181	12.588	B5-03822-P04-CH1	95720	OK	0.7691577	-0.6376802	0.041956	0	-114.813	-43.665	3.759	NA
0.639477551020408	B5-03822-P01-CH0	95728	OK	0.2255786	0.0694974	0.0701392	-0.9692084	96.777	25.171	-257.256	B5-03822-P02-CH0	95728	OK	0.7139183	0.1022765	-0.6927194	0	-83.024	-98.871	-1.164	B5-03822-P02-CH1	95728	OK	0.7529106	-0.0278455	-0.6575334	0	-87.512	-75.924	1.464	B5-03822-P03-CH0	95728	OK	0.7525619	-0.5470388	-0.3666048	0	-97.225	-57.025	2.973	B5-03822-P03-CH1	95728	OK	0.7578843	-0.6345305	0.1515996	0	-104.474	-26.802	1.777	B5-03822-P04-CH0	95728	OK	0.6754824	-0.1680797	0.7179643	0	-130.067	-31.174	12.421	B5-03822-P04-CH1	95728	OK	0.7690916	-0.6377437	0.0422029	0	-114.581	-43.729	3.699	NA
0.649469387755102	B5-03822-P01-CH0	95736	OK	0.2255688	0.0693891	0.0696458	-0.969254	96.759	25.046	-257.27	B5-03822-P02-CH0	95736	OK	0.7113911	0.1116287	-0.6938744	0	-83.418	-98.26	0.48	B5-03822-P02-CH1	95736	OK	0.7497266	-0.0273819	-0.661181	0	-86.145	-74.791	1.84	B5-03822-P03-CH0	95736	OK	0.7508173	-0.5481165	-0.368567	0	-97.285	-56.566	2.251	B5-03822-P03-CH1	95736	OK	0.7577871	-0.6346759	0.1514766	0	-104.427	-27.015	1.924	B5-03822-P04-CH0	95736	OK	0.6753326	-0.1685679	0.7179907	0	-129.93	-31.144	12.451	B5-03822-P04-CH1	95736	OK	0.7689369	-0.637932	0.0421758	0	-114.505	-43.757	3.634	NA
0.659461224489796	B5-03822-P01-CH0	95744	OK	0.2255216	0.0694785	0.0694737	-0.9692709	96.817	25.071	-257.317	B5-03822-P02-CH0	95744	OK	0.7092906	0.1205011	-0.6945404	0	-83.769	-97.74	1.466	B5-03822-P02-CH1	95744	OK	0.7441936	-0.0274147	-0.6674012	0	-86.236	-75.28	2.323	B5-03822-P03-CH0	95744	OK	0.7499934	-0.5482755	-0.3700053	0	-97.043	-56.022	3.349	B5-03822-P03-CH1	95744	OK	0.7578832	-0.6346418	0.1511386	0	-104.461	-27.074	1.876	B5-03822-P04-CH0	95744	OK	0.6753834	-0.1689688	0.7178488	0	-129.918	-31.061	12.487	B5-03822-P04-CH1	95744	OK	0.7689402	-0.6379452	0.0419142	0	-114.54	-43.717	3.662	NA
0.66945306122449	B5-03822-P01-CH0	95752	OK	0.225565	0.0696299	0.069455	-0.9692513	96.897	25.037	-257.329	B5-03822-P02-CH0	95752	OK	0.7092241	0.1284909	-0.6931748	0	-83.206	-97.609	0.184	B5-03822-P02-CH1	95752	OK	0.7401945	-0.0253072	-0.6719164	0	-86.123	-75.799	1.296	B5-03822-P03-CH0	95752	OK	0.747418	-0.5501601	-0.3724113	0	-97.313	-56.501	2.733	B5-03822-P03-CH1	95752	OK	0.7582547	-0.6342406	0.150959	0	-104.509	-27.065	1.771	B5-03822-P04-CH0	95752	OK	0.6752291	-0.1687885	0.7180363	0	-129.822	-31.23	12.406	B5-03822-P04-CH1	95752	OK	0.7689899	-0.6378771	0.0420398	0	-114.47	-43.823	3.764	NA
0.679444897959184	B5-03822-P01-CH0	95760	OK	0.2254147	0.0698833	0.0685462	-0.9693327	96.961	25.017	-257.346	B5-03822-P02-CH0	95760	OK	0.7094951	0.1349684	-0.6916648	0	-82.942	-97.573	0.469	B5-03822-P02-CH1	95760	OK	0.7369249	-0.0241993	-0.6755414	0	-86.231	-75.567	2.566	B5-03822-P03-CH0	95760	OK	0.7454513	-0.5521742	-0.3733711	0	-97.504	-56.964	3.07	B5-03822-P03-CH1	95760	OK	0.7578818	-0.6347076	0.1508686	0	-104.602	-27.196	1.95	B5-03822-P04-CH0	95760	OK	0.6751696	-0.1687069	0.7181114	0	-129.807	-31.259	12.514	B5-03822-P04-CH1	95760	OK	0.7685873	-0.6383698	0.0419237	0	-114.417	-43.782	4.001	NA
0.689436734693878	B5-03822-P01-CH0	95768	OK	0.2254023	0.0699322	0.0680978	-0.9693637	96.959	24.983	-257.285	B5-03822-P02-CH0	95768	OK	0.709717	0.1407036	-0.6902928	0	-82.891	-98.027	0.121	B5-03822-P02-CH1	95768	OK	0.7368365	-0.0231815	-0.6756734	0	-85.633	-75.61	1.041	B5-03822-P03-CH0	95768	OK	0.7453925	-0.5533386	-0.3717612	0	-97.473	-56.857	3.292	B5-03822-P03-CH1	95768	OK	0.7578775	-0.6347648	0.1506496	0	-104.649	-27.171	1.616	B5-03822-P04-CH0	95768	OK	0.6751068	-0.1687144	0.7181687	0	-129.72	-31.252	12.532	B5-03822-P04-CH1	95768	OK	0.7683749	-0.6386296	0.041859	0	-114.372	-43.793	3.841	NA
0.699428571428571	B5-03822-P01-CH0	95776	OK	0.2255428	0.0699904	0.0679725	-0.9693356	96.973	24.966	-257.237	B5-03822-P02-CH0	95776	OK	0.7091038	0.1458942	-0.6898454	0	-83.266	-98.109	0.946	B5-03822-P02-CH1	95776	OK	0.7361926	-0.0214552	-0.6764319	0	-85.468	-75.494	1.857	B5-03822-P03-CH0	95776	OK	0.7458624	-0.5543201	-0.3693488	0	-96.899	-56.8	3.776	B5-03822-P03-CH1	95776	OK	0.7579791	-0.6346453	0.1506423	0	-104.615	-27.233	1.4	B5-03822-P04-CH0	95776	OK	0.6752772	-0.1682538	0.7181165	0	-129.709	-31.285	12.511	B5-03822-P04-CH1	95776	OK	0.7683902	-0.638607	0.0419227	0	-114.391	-43.829	3.733	NA
0.709420408163265	B5-03822-P01-CH0	95784	OK	0.2255065	0.0700849	0.0677469	-0.969353	97.01	24.92	-257.151	B5-03822-P02-CH0	95784	OK	0.7066248	0.1511895	-0.6912475	0	-84.325	-97.924	0.912	B5-03822-P02-CH1	95784	OK	0.7368358	-0.0191058	-0.6758017	0	-84.729	-75.104	1.521	B5-03822-P03-CH0	95784	OK	0.7454311	-0.5537393	-0.3710866	0	-96.919	-56.544	3.336	B5-03822-P03-CH1	95784	OK	0.7580315	-0.6345439	0.1508051	0	-104.55	-27.314	1.493	B5-03822-P04-CH0	95784	OK	0.6753427	-0.167839	0.718152	0	-129.726	-31.403	12.353	B5-03822-P04-CH1	95784	OK	0.7682554	-0.6387813	0.0417379	0	-114.326	-43.923	3.701	NA
0.719412244897959	B5-03822-P01-CH0	95792	OK	0.2254408	0.0701546	0.067561	-0.9693762	97.02	24.933	-257.091	B5-03822-P02-CH0	95792	OK	0.7087008	0.153563	-0.6885939	0	-83.019	-98.443	-0.143	B5-03822-P02-CH1	95792	OK	0.7352582	-0.0173107	-0.677566	0	-85.308	-75.173	2.934	B5-03822-P03-CH0	95792	OK	0.7451838	-0.5529193	-0.3728021	0	-97.032	-56.025	3.693	B5-03822-P03-CH1	95792	OK	0.7580754	-0.6344865	0.1508263	0	-104.604	-27.292	1.429	B5-03822-P04-CH0	95792	OK	0.6753993	-0.1679331	0.7180768	0	-129.731	-31.252	12.155	B5-03822-P04-CH1	95792	OK	0.7681236	-0.6389518	0.0415546	0	-114.37	-43.933	3.474	NA
0.729404081632653	B5-03822-P01-CH0	95800	OK	0.2256782	0.0703318	0.0676575	-0.9693014	97.094	25.008	-257.074	B5-03822-P02-CH0	95800	OK	0.7068076	0.1548771	-0.6902435	0	-83.809	-98.57	0.952	B5-03822-P02-CH1	95800	OK	0.7353235	-0.0157161	-0.677534	0	-85.193	-75.838	1.705	B5-03822-P03-CH0	95800	OK	0.7453943	-0.5540258	-0.3707327	0	-96.483	-56.278	2.256	B5-03822-P03-CH1	95800	OK	0.7582472	-0.6342165	0.1510979	0	-104.686	-27.337	1.513	B5-03822-P04-CH0	95800	OK	0.6754453	-0.1675927	0.718113	0	-129.779	-31.262	11.809	B5-03822-P04-CH1	95800	OK	0.7681024	-0.6389522	0.0419371	0	-114.263	-44.064	3.589	NA
0.739395918367347	B5-03822-P01-CH0	95808	OK	0.2255146	0.0706527	0.0674133	-0.9693332	97.213	25.07	-257.051	B5-03822-P02-CH0	95808	OK	0.7065773	0.1578594	-0.6898035	0	-84.064	-98.045	0.846	B5-03822-P02-CH1	95808	OK	0.7345958	-0.0126854	-0.6783864	0	-85.058	-75.662	2.835	B5-03822-P03-CH0	95808	OK	0.7455721	-0.5529061	-0.3720445	0	-97.335	-56.531	3.602	B5-03822-P03-CH1	95808	OK	0.7581492	-0.6343672	0.1509568	0	-104.845	-27.276	1.434	B5-03822-P04-CH0	95808	OK	0.6759967	-0.1671276	0.7177025	0	-130.007	-31.261	11.888	B5-03822-P04-CH1	95808	OK	0.7678843	-0.6392402	0.0415415	0	-114.35	-44.083	3.69	NA
0.749387755102041	B5-03822-P01-CH0	95816	OK	0.2254364	0.0709207	0.0670708	-0.9693556	97.313	25.08	-257.03	B5-03822-P02-CH0	95816	OK	0.7049892	0.1614011	-0.6906083	0	-84.977	-98.025	1.786	B5-03822-P02-CH1	95816	OK	0.733213	-0.0123393	-0.6798871	0	-85.132	-76.705	1.238	B5-03822-P03-CH0	95816	OK	0.7447169	-0.5539083	-0.3722665	0	-97.445	-56.661	3.555	B5-03822-P03-CH1	95816	OK	0.7579431	-0.6345866	0.1510694	0	-104.881	-27.304	1.482	B5-03822-P04-CH0	95816	OK	0.675892	-0.1670225	0.7178255	0	-129.982	-31.318	11.758	B5-03822-P04-CH1	95816	OK	0.7675851	-0.6396057	0.0414442	0	-114.247	-44.179	3.786	NA
