Wav.Time	B5.03822.P01.CH0	Frame	State	Q0	Qx	Qy	Qz	Tx	Ty	Tz	B5.03822.P02.CH0	Frame.1	State.1	Q0.1	Qx.1	Qy.1	Qz.1	Tx.1	Ty.1	Tz.1	B5.03822.P02.CH1	Frame.2	State.2	Q0.2	Qx.2	Qy.2	Qz.2	Tx.2	Ty.2	Tz.2	B5.03822.P03.CH0	Frame.3	State.3	Q0.3	Qx.3	Qy.3	Qz.3	Tx.3	Ty.3	Tz.3	B5.03822.P03.CH1	Frame.4	State.4	Q0.4	Qx.4	Qy.4	Qz.4	Tx.4	Ty.4	Tz.4	B5.03822.P04.CH0	Frame.5	State.5	Q0.5	Qx.5	Qy.5	Qz.5	Tx.5	Ty.5	Tz.5	B5.03822.P04.CH1	Frame.6	State.6	Q0.6	Qx.6	Qy.6	Qz.6	Tx.6	Ty.6	Tz.6	X
0	B5-03822-P01-CH0	160288	OK	0.2272395	0.0205991	0.0482052	-0.9724269	103.218	-24.044	-235.374	B5-03822-P02-CH0	160288	OK	0.8261264	0.2378272	-0.5108359	0	-79.516	-97.994	8.274	B5-03822-P02-CH1	160288	OK	0.8001829	-0.0987126	-0.5915768	0	-76.138	-77.761	3.435	B5-03822-P03-CH0	160288	OK	0.8165724	-0.386636	-0.4286281	0	-89.983	-59.359	7.16	B5-03822-P03-CH1	160288	OK	0.7894972	-0.5260367	-0.3161954	0	-96.034	-30.671	2.714	B5-03822-P04-CH0	160288	OK	0.7385059	-0.344149	0.5798021	0	-120.176	-39.151	7.628	B5-03822-P04-CH1	160288	OK	0.7366372	-0.6730343	0.0662605	0	-108.424	-46.351	-0.091	NA
0.00999173501176171	B5-03822-P01-CH0	160296	OK	0.2270841	0.0206411	0.0478997	-0.9724774	103.191	-24.056	-235.283	B5-03822-P02-CH0	160296	OK	0.8261669	0.2377351	-0.5108133	0	-79.533	-97.97	8.295	B5-03822-P02-CH1	160296	OK	0.80013	-0.0990612	-0.5915901	0	-76.181	-77.786	3.364	B5-03822-P03-CH0	160296	OK	0.8165358	-0.3868711	-0.4284858	0	-90.065	-59.282	7.048	B5-03822-P03-CH1	160296	OK	0.7893503	-0.5261147	-0.3164324	0	-96.058	-30.591	2.7	B5-03822-P04-CH0	160296	OK	0.7382885	-0.3446412	0.5797866	0	-120.095	-39.015	7.505	B5-03822-P04-CH1	160296	OK	0.736444	-0.6732298	0.0664224	0	-108.447	-46.392	0.034	NA
0.0199834700235234	B5-03822-P01-CH0	160304	OK	0.2269906	0.0207716	0.0476741	-0.9725076	103.216	-24.063	-235.315	B5-03822-P02-CH0	160304	OK	0.8261476	0.2377197	-0.5108518	0	-79.561	-97.973	8.395	B5-03822-P02-CH1	160304	OK	0.8002825	-0.099329	-0.5913389	0	-76.154	-77.799	3.386	B5-03822-P03-CH0	160304	OK	0.8164769	-0.3875006	-0.4280288	0	-90.102	-59.355	7.011	B5-03822-P03-CH1	160304	OK	0.7891416	-0.526435	-0.3164201	0	-96.046	-30.662	2.75	B5-03822-P04-CH0	160304	OK	0.7382731	-0.3443299	0.5799912	0	-120.19	-39.166	7.726	B5-03822-P04-CH1	160304	OK	0.7361136	-0.6735693	0.0666422	0	-108.438	-46.572	0.225	NA
0.0299752050352851	B5-03822-P01-CH0	160312	OK	0.226933	0.0209098	0.0476289	-0.9725203	103.249	-24.057	-235.32	B5-03822-P02-CH0	160312	OK	0.826159	0.2376515	-0.5108651	0	-79.569	-98.014	8.419	B5-03822-P02-CH1	160312	OK	0.8002933	-0.0994513	-0.5913037	0	-76.216	-77.75	3.468	B5-03822-P03-CH0	160312	OK	0.8166172	-0.3880623	-0.4272517	0	-90.102	-59.415	7.055	B5-03822-P03-CH1	160312	OK	0.7889823	-0.5265205	-0.316675	0	-96.167	-30.646	2.874	B5-03822-P04-CH0	160312	OK	0.7382793	-0.3442215	0.5800476	0	-120.253	-39.154	7.771	B5-03822-P04-CH1	160312	OK	0.7361476	-0.6735179	0.0667861	0	-108.494	-46.572	0.276	NA
0.0399669400470469	B5-03822-P01-CH0	160320	OK	0.2271557	0.0211056	0.0478884	-0.9724513	103.318	-24.002	-235.295	B5-03822-P02-CH0	160320	OK	0.8260346	0.2377758	-0.5110083	0	-79.563	-97.984	8.349	B5-03822-P02-CH1	160320	OK	0.8002298	-0.1001865	-0.5912655	0	-76.313	-77.81	3.471	B5-03822-P03-CH0	160320	OK	0.8166842	-0.3886795	-0.426562	0	-90.255	-59.44	7.119	B5-03822-P03-CH1	160320	OK	0.7888678	-0.5267962	-0.3165017	0	-96.277	-30.77	2.97	B5-03822-P04-CH0	160320	OK	0.7383638	-0.3435994	0.5803089	0	-120.34	-39.306	7.798	B5-03822-P04-CH1	160320	OK	0.7364115	-0.6732088	0.0669922	0	-108.689	-46.497	-0.193	NA
0.0499586750588086	B5-03822-P01-CH0	160328	OK	0.2269589	0.0213385	0.0473517	-0.9725184	103.375	-24.077	-235.281	B5-03822-P02-CH0	160328	OK	0.8261528	0.237768	-0.5108209	0	-79.59	-98.036	8.356	B5-03822-P02-CH1	160328	OK	0.8001752	-0.1005986	-0.5912694	0	-76.405	-77.933	3.546	B5-03822-P03-CH0	160328	OK	0.8166734	-0.3895358	-0.425801	0	-90.258	-59.514	7.187	B5-03822-P03-CH1	160328	OK	0.7884095	-0.5272118	-0.3169513	0	-96.411	-30.825	3.051	B5-03822-P04-CH0	160328	OK	0.73806	-0.3441518	0.5803679	0	-120.332	-39.243	7.633	B5-03822-P04-CH1	160328	OK	0.7358907	-0.6737608	0.0671657	0	-108.645	-46.708	-0.027	NA
0.0599504100705703	B5-03822-P01-CH0	160336	OK	0.2266809	0.0215638	0.0469073	-0.9725998	103.411	-24.134	-235.194	B5-03822-P02-CH0	160336	OK	0.826315	0.2377563	-0.5105639	0	-79.615	-98.082	8.357	B5-03822-P02-CH1	160336	OK	0.8002291	-0.1008211	-0.5911587	0	-76.469	-77.986	3.482	B5-03822-P03-CH0	160336	OK	0.8166176	-0.3902268	-0.4252749	0	-90.348	-59.537	7.18	B5-03822-P03-CH1	160336	OK	0.7880647	-0.5273557	-0.3175688	0	-96.549	-30.779	3.134	B5-03822-P04-CH0	160336	OK	0.7378707	-0.3442599	0.5805446	0	-120.388	-39.355	7.776	B5-03822-P04-CH1	160336	OK	0.7355213	-0.6741658	0.0671487	0	-108.705	-46.828	0.161	NA
0.069942145082332	B5-03822-P01-CH0	160344	OK	0.2267893	0.0213725	0.0473186	-0.9725589	103.357	-24.13	-235.209	B5-03822-P02-CH0	160344	OK	0.8263225	0.2377339	-0.5105621	0	-79.551	-98.129	8.29	B5-03822-P02-CH1	160344	OK	0.8004798	-0.1011992	-0.5907544	0	-76.434	-78.018	3.354	B5-03822-P03-CH0	160344	OK	0.8170095	-0.3906301	-0.4241504	0	-90.327	-59.575	7.166	B5-03822-P03-CH1	160344	OK	0.7881324	-0.5272626	-0.3175555	0	-96.667	-30.785	3.155	B5-03822-P04-CH0	160344	OK	0.7379499	-0.3437307	0.5807573	0	-120.387	-39.433	7.836	B5-03822-P04-CH1	160344	OK	0.7358299	-0.6737804	0.0676341	0	-108.651	-46.93	0.375	NA
0.0799338800940937	B5-03822-P01-CH0	160352	OK	0.2264819	0.0214864	0.0467298	-0.9726565	103.338	-24.19	-235.174	B5-03822-P02-CH0	160352	OK	0.8264417	0.2377224	-0.5103745	0	-79.6	-98.123	8.398	B5-03822-P02-CH1	160352	OK	0.8006589	-0.1013814	-0.5904804	0	-76.43	-78.026	3.547	B5-03822-P03-CH0	160352	OK	0.817074	-0.3913431	-0.4233682	0	-90.341	-59.576	7.252	B5-03822-P03-CH1	160352	OK	0.7878171	-0.5275574	-0.3178482	0	-96.629	-30.773	3.101	B5-03822-P04-CH0	160352	OK	0.7376024	-0.3443855	0.5808109	0	-120.349	-39.298	7.678	B5-03822-P04-CH1	160352	OK	0.7355719	-0.674084	0.0674156	0	-108.796	-46.865	0.225	NA
0.0899256151058554	B5-03822-P01-CH0	160360	OK	0.2264435	0.0213061	0.0470315	-0.9726548	103.281	-24.184	-235.281	B5-03822-P02-CH0	160360	OK	0.8263576	0.2374487	-0.510638	0	-79.638	-98.233	8.467	B5-03822-P02-CH1	160360	OK	0.8007336	-0.1015119	-0.5903567	0	-76.482	-77.998	3.666	B5-03822-P03-CH0	160360	OK	0.8175346	-0.3917591	-0.4220924	0	-90.279	-59.598	7.314	B5-03822-P03-CH1	160360	OK	0.788046	-0.5274034	-0.317536	0	-96.543	-30.797	3.174	B5-03822-P04-CH0	160360	OK	0.737573	-0.3438462	0.5811677	0	-120.344	-39.474	7.906	B5-03822-P04-CH1	160360	OK	0.7357974	-0.6738144	0.0676482	0	-108.786	-46.903	0.41	NA
0.0999173501176172	B5-03822-P01-CH0	160368	OK	0.2264438	0.0214405	0.0467377	-0.972666	103.283	-24.226	-235.221	B5-03822-P02-CH0	160368	OK	0.8263089	0.2368275	-0.5110052	0	-79.685	-98.351	8.445	B5-03822-P02-CH1	160368	OK	0.8006631	-0.1021065	-0.5903497	0	-76.526	-78.075	3.723	B5-03822-P03-CH0	160368	OK	0.8175033	-0.3924994	-0.4214649	0	-90.377	-59.646	7.349	B5-03822-P03-CH1	160368	OK	0.7878013	-0.5276922	-0.3176634	0	-96.622	-30.821	3.141	B5-03822-P04-CH0	160368	OK	0.7374963	-0.3430919	0.5817105	0	-120.389	-39.78	8.276	B5-03822-P04-CH1	160368	OK	0.73562	-0.6739506	0.0682191	0	-108.794	-47.059	0.599	NA
0.109909085129379	B5-03822-P01-CH0	160376	OK	0.2264278	0.021492	0.0467469	-0.9726681	103.292	-24.243	-235.24	B5-03822-P02-CH0	160376	OK	0.8261615	0.236572	-0.5113617	0	-79.728	-98.37	8.399	B5-03822-P02-CH1	160376	OK	0.8007011	-0.1025076	-0.5902287	0	-76.561	-78.101	3.768	B5-03822-P03-CH0	160376	OK	0.8176042	-0.3932091	-0.4206066	0	-90.443	-59.729	7.435	B5-03822-P03-CH1	160376	OK	0.7878119	-0.5278744	-0.3173343	0	-96.538	-30.94	3.111	B5-03822-P04-CH0	160376	OK	0.7374679	-0.3425159	0.5820858	0	-120.448	-40.023	8.534	B5-03822-P04-CH1	160376	OK	0.7355536	-0.6739989	0.0684567	0	-108.783	-47.132	0.33	NA
0.119900820141141	B5-03822-P01-CH0	160384	OK	0.2264052	0.0214324	0.0467197	-0.972676	103.242	-24.284	-235.191	B5-03822-P02-CH0	160384	OK	0.8261375	0.2361266	-0.5116064	0	-79.692	-98.395	8.426	B5-03822-P02-CH1	160384	OK	0.8008051	-0.1030676	-0.58999	0	-76.55	-78.14	3.677	B5-03822-P03-CH0	160384	OK	0.8178219	-0.3937638	-0.4196634	0	-90.504	-59.754	7.447	B5-03822-P03-CH1	160384	OK	0.7878817	-0.5277626	-0.3173469	0	-96.564	-30.871	3.099	B5-03822-P04-CH0	160384	OK	0.737353	-0.3424822	0.5822512	0	-120.367	-40.021	8.463	B5-03822-P04-CH1	160384	OK	0.735653	-0.6738318	0.0690319	0	-108.751	-47.234	0.516	NA
0.129892555152902	B5-03822-P01-CH0	160392	OK	0.2262692	0.021389	0.0464477	-0.9727216	103.148	-24.306	-235.069	B5-03822-P02-CH0	160392	OK	0.8262588	0.235734	-0.5115915	0	-79.622	-98.391	8.36	B5-03822-P02-CH1	160392	OK	0.8009995	-0.1035714	-0.5896378	0	-76.534	-78.126	3.537	B5-03822-P03-CH0	160392	OK	0.8179554	-0.3945562	-0.4186578	0	-90.54	-59.757	7.33	B5-03822-P03-CH1	160392	OK	0.7878346	-0.5280775	-0.3169397	0	-96.372	-30.886	2.919	B5-03822-P04-CH0	160392	OK	0.7372794	-0.3419232	0.5826728	0	-120.374	-40.143	8.46	B5-03822-P04-CH1	160392	OK	0.7354767	-0.6739902	0.0693628	0	-108.72	-47.261	0.516	NA
0.139884290164664	B5-03822-P01-CH0	160400	OK	0.2261839	0.0213003	0.0464593	-0.9727429	103.1	-24.351	-235.079	B5-03822-P02-CH0	160400	OK	0.8263072	0.2355937	-0.511578	0	-79.6	-98.437	8.291	B5-03822-P02-CH1	160400	OK	0.8013749	-0.104066	-0.5890404	0	-76.515	-78.126	3.493	B5-03822-P03-CH0	160400	OK	0.8205802	-0.3989775	-0.4092251	0	-90.562	-60.193	8.097	B5-03822-P03-CH1	160400	OK	0.7878424	-0.5282655	-0.3166068	0	-96.322	-30.896	2.899	B5-03822-P04-CH0	160400	OK	0.7373972	-0.3408732	0.5831388	0	-120.448	-40.375	8.621	B5-03822-P04-CH1	160400	OK	0.7354899	-0.6739352	0.0697565	0	-108.715	-47.361	0.595	NA
0.149876025176426	B5-03822-P01-CH0	160408	OK	0.226391	0.0211188	0.0473346	-0.9726564	103.051	-24.274	-235.119	B5-03822-P02-CH0	160408	OK	0.8263756	0.2361864	-0.5111941	0	-79.474	-98.351	7.935	B5-03822-P02-CH1	160408	OK	0.8048061	-0.1086653	-0.5835058	0	-76.569	-78.048	4.034	B5-03822-P03-CH0	160408	OK	0.8224428	-0.4005199	-0.4039452	0	-90.744	-60.015	7.41	B5-03822-P03-CH1	160408	OK	0.7882711	-0.5281743	-0.3156906	0	-96.242	-30.914	3.03	B5-03822-P04-CH0	160408	OK	0.737971	-0.3384011	0.5838522	0	-120.601	-40.766	9.047	B5-03822-P04-CH1	160408	OK	0.736196	-0.6730905	0.0704604	0	-108.765	-47.376	0.611	NA
0.159867760188187	B5-03822-P01-CH0	160416	OK	0.2264063	0.0210139	0.0477212	-0.9726363	103.02	-24.213	-235.165	B5-03822-P02-CH0	160416	OK	0.8275622	0.2377772	-0.50853	0	-79.864	-98.483	8.42	B5-03822-P02-CH1	160416	OK	0.8072333	-0.110248	-0.5798447	0	-76.653	-78.13	4.554	B5-03822-P03-CH0	160416	OK	0.8241291	-0.4026587	-0.3983431	0	-90.932	-60.205	8.091	B5-03822-P03-CH1	160416	OK	0.7882607	-0.5286828	-0.3148643	0	-96.234	-30.962	3.107	B5-03822-P04-CH0	160416	OK	0.7393575	-0.3252563	0.5895412	0	-121.468	-42.228	9.747	B5-03822-P04-CH1	160416	OK	0.7364298	-0.6727437	0.0713235	0	-108.872	-47.444	0.471	NA
0.169859495199949	B5-03822-P01-CH0	160424	OK	0.2261887	0.0211666	0.047294	-0.9727044	103.037	-24.216	-235.158	B5-03822-P02-CH0	160424	OK	0.8282192	0.2378704	-0.5074156	0	-80.452	-98.712	8.635	B5-03822-P02-CH1	160424	OK	0.809503	-0.1109396	-0.5765391	0	-77.001	-77.907	4.14	B5-03822-P03-CH0	160424	OK	0.8258404	-0.4067146	-0.3906032	0	-91.033	-60.482	8.634	B5-03822-P03-CH1	160424	OK	0.7863194	-0.534727	-0.3094652	0	-96.292	-30.782	2.808	B5-03822-P04-CH0	160424	OK	0.7386625	-0.3224208	0.591965	0	-121.254	-41.45	9.083	B5-03822-P04-CH1	160424	OK	0.7361349	-0.6730068	0.0718839	0	-108.989	-47.489	0.368	NA
0.179851230211711	B5-03822-P01-CH0	160432	OK	0.2261043	0.0212011	0.0468495	-0.9727448	103.045	-24.267	-235.201	B5-03822-P02-CH0	160432	OK	0.8295361	0.2387376	-0.5048507	0	-80.753	-98.743	8.859	B5-03822-P02-CH1	160432	OK	0.8128899	-0.112446	-0.5714594	0	-76.923	-78.239	4.76	B5-03822-P03-CH0	160432	OK	0.8278011	-0.4117887	-0.3810189	0	-91.403	-60.729	8.658	B5-03822-P03-CH1	160432	OK	0.7853583	-0.5375795	-0.3069539	0	-95.945	-31.189	2.921	B5-03822-P04-CH0	160432	OK	0.7381323	-0.3186358	0.5946697	0	-121.393	-41.19	8.051	B5-03822-P04-CH1	160432	OK	0.7358573	-0.6731969	0.0729383	0	-109.074	-47.599	0.349	NA
0.189842965223473	B5-03822-P01-CH0	160440	OK	0.2262597	0.0210793	0.0471303	-0.9726978	102.99	-24.207	-235.146	B5-03822-P02-CH0	160440	OK	0.8309462	0.2383858	-0.5026934	0	-80.884	-98.732	9.192	B5-03822-P02-CH1	160440	OK	0.816609	-0.1142523	-0.5657704	0	-76.996	-78.34	4.678	B5-03822-P03-CH0	160440	OK	0.8293001	-0.4159891	-0.3731144	0	-92.343	-60.985	8.093	B5-03822-P03-CH1	160440	OK	0.7845832	-0.5403536	-0.3040512	0	-96.075	-31.409	2.738	B5-03822-P04-CH0	160440	OK	0.7388565	-0.3104096	0.5981112	0	-122.327	-43.14	9.151	B5-03822-P04-CH1	160440	OK	0.7360355	-0.6728539	0.0742918	0	-109.196	-47.681	0.199	NA
0.199834700235234	B5-03822-P01-CH0	160448	OK	0.2260206	0.0211458	0.0468487	-0.9727655	102.994	-24.211	-235.116	B5-03822-P02-CH0	160448	OK	0.8323243	0.2375871	-0.5007881	0	-81.012	-98.73	8.999	B5-03822-P02-CH1	160448	OK	0.8199834	-0.1149267	-0.5607308	0	-77.531	-78.284	5.379	B5-03822-P03-CH0	160448	OK	0.8319654	-0.4197981	-0.3627714	0	-92.125	-61.582	8.608	B5-03822-P03-CH1	160448	OK	0.7837523	-0.5426782	-0.3020475	0	-96.212	-31.081	3.212	B5-03822-P04-CH0	160448	OK	0.7386468	-0.3055201	0.6008813	0	-122.6	-43.635	9.459	B5-03822-P04-CH1	160448	OK	0.7357473	-0.6730744	0.0751447	0	-109.44	-47.743	-0.179	NA
0.209826435246996	B5-03822-P01-CH0	160456	OK	0.2260209	0.0209639	0.0470774	-0.9727583	102.943	-24.185	-235.106	B5-03822-P02-CH0	160456	OK	0.8332368	0.2331527	-0.5013545	0	-81.376	-99.299	10.552	B5-03822-P02-CH1	160456	OK	0.823133	-0.1155654	-0.5559647	0	-77.941	-78.311	5.045	B5-03822-P03-CH0	160456	OK	0.8348645	-0.4214854	-0.3540499	0	-92.413	-61.538	8.741	B5-03822-P03-CH1	160456	OK	0.7835363	-0.5456982	-0.2971268	0	-95.518	-31.353	3.339	B5-03822-P04-CH0	160456	OK	0.7385837	-0.301436	0.6030178	0	-122.736	-43.636	9.295	B5-03822-P04-CH1	160456	OK	0.7359655	-0.672676	0.0765629	0	-109.593	-47.843	-0.089	NA
0.219818170258758	B5-03822-P01-CH0	160464	OK	0.2259258	0.020983	0.0471327	-0.9727773	102.971	-24.158	-235.133	B5-03822-P02-CH0	160464	OK	0.834403	0.2309609	-0.5004285	0	-81.438	-99.723	9.927	B5-03822-P02-CH1	160464	OK	0.8255265	-0.1178289	-0.551926	0	-78.5	-78.465	5.501	B5-03822-P03-CH0	160464	OK	0.836671	-0.4238006	-0.3469505	0	-92.933	-61.89	9.337	B5-03822-P03-CH1	160464	OK	0.7832388	-0.547081	-0.2953631	0	-96.087	-30.638	2.825	B5-03822-P04-CH0	160464	OK	0.7392047	-0.2996935	0.6031253	0	-123.186	-42.503	7.977	B5-03822-P04-CH1	160464	OK	0.7359739	-0.6725066	0.077957	0	-109.833	-47.95	-0.067	NA
0.229809905270519	B5-03822-P01-CH0	160472	OK	0.225976	0.0209059	0.0474784	-0.9727505	102.993	-24.138	-235.149	B5-03822-P02-CH0	160472	OK	0.8339884	0.2271781	-0.5028454	0	-81.85	-99.906	10.029	B5-03822-P02-CH1	160472	OK	0.8284093	-0.1203007	-0.5470519	0	-78.515	-78.149	5.557	B5-03822-P03-CH0	160472	OK	0.8383343	-0.4247566	-0.3417271	0	-93.032	-62.213	9.094	B5-03822-P03-CH1	160472	OK	0.7832526	-0.5490851	-0.2915834	0	-95.554	-31.062	2.702	B5-03822-P04-CH0	160472	OK	0.7398936	-0.2956787	0.6042611	0	-123.497	-42.848	7.344	B5-03822-P04-CH1	160472	OK	0.7355329	-0.6718219	0.0874456	0	-110.649	-49.12	0.323	NA
0.239801640282281	B5-03822-P01-CH0	160480	OK	0.2258376	0.0210684	0.0472076	-0.9727924	103.031	-24.098	-235.111	B5-03822-P02-CH0	160480	OK	0.8351348	0.2253255	-0.5017752	0	-81.221	-99.43	9.547	B5-03822-P02-CH1	160480	OK	0.8300531	-0.12433	-0.5436486	0	-78.983	-78.169	5.433	B5-03822-P03-CH0	160480	OK	0.8393179	-0.4241173	-0.3401029	0	-93.352	-62.129	9.524	B5-03822-P03-CH1	160480	OK	0.7832948	-0.5502339	-0.2892957	0	-95.798	-30.532	1.931	B5-03822-P04-CH0	160480	OK	0.7407345	-0.2908185	0.6055882	0	-123.555	-43.786	8.787	B5-03822-P04-CH1	160480	OK	0.735082	-0.6721168	0.0889578	0	-110.893	-49.521	1.114	NA
0.249793375294043	B5-03822-P01-CH0	160488	OK	0.2257416	0.021001	0.0469188	-0.97283	103.029	-24.132	-235.083	B5-03822-P02-CH0	160488	OK	0.8344319	0.2221623	-0.5043484	0	-81.345	-99.106	9.691	B5-03822-P02-CH1	160488	OK	0.8329694	-0.1288605	-0.5381049	0	-78.801	-78.288	5.743	B5-03822-P03-CH0	160488	OK	0.8399416	-0.4227288	-0.3402918	0	-93.246	-62.272	9.296	B5-03822-P03-CH1	160488	OK	0.7836244	-0.5510366	-0.2868649	0	-95.517	-30.766	2.838	B5-03822-P04-CH0	160488	OK	0.7414128	-0.2871817	0.606493	0	-123.423	-44.685	9.321	B5-03822-P04-CH1	160488	OK	0.735611	-0.6722949	0.083042	0	-110.451	-48.534	0.151	NA
0.259785110305805	B5-03822-P01-CH0	160496	OK	0.2258505	0.0207431	0.0473771	-0.9727881	103.003	-24.136	-235.092	B5-03822-P02-CH0	160496	OK	0.8335062	0.2199411	-0.5068464	0	-81.368	-98.839	9.556	B5-03822-P02-CH1	160496	OK	0.8341953	-0.1320421	-0.535428	0	-79.469	-78.641	5.889	B5-03822-P03-CH0	160496	OK	0.8403162	-0.4197886	-0.3429959	0	-93.132	-62.463	9.048	B5-03822-P03-CH1	160496	OK	0.7836205	-0.5517494	-0.2855022	0	-95.979	-30.827	3.757	B5-03822-P04-CH0	160496	OK	0.7434212	-0.2839097	0.6055743	0	-123.486	-44.634	9.696	B5-03822-P04-CH1	160496	OK	0.7360138	-0.6716953	0.0843151	0	-110.609	-48.583	-0.099	NA
0.269776845317566	B5-03822-P01-CH0	160504	OK	0.2257576	0.0206933	0.0470586	-0.9728262	102.994	-24.171	-235.059	B5-03822-P02-CH0	160504	OK	0.8333216	0.2182249	-0.5078907	0	-81.095	-98.869	9.283	B5-03822-P02-CH1	160504	OK	0.8371465	-0.135219	-0.5300015	0	-79.284	-78.277	6.249	B5-03822-P03-CH0	160504	OK	0.839459	-0.4171274	-0.3483005	0	-92.869	-62.915	8.71	B5-03822-P03-CH1	160504	OK	0.7838091	-0.5523788	-0.2837621	0	-96.093	-30.045	2.705	B5-03822-P04-CH0	160504	OK	0.7442333	-0.2842695	0.6044069	0	-123.378	-43.917	8.997	B5-03822-P04-CH1	160504	OK	0.7357812	-0.6718007	0.0854977	0	-110.788	-48.735	-0.094	NA
0.279768580329328	B5-03822-P01-CH0	160512	OK	0.2257156	0.0206786	0.0474485	-0.9728173	103.012	-24.087	-235.017	B5-03822-P02-CH0	160512	OK	0.8328979	0.2163534	-0.5093842	0	-80.965	-98.923	8.798	B5-03822-P02-CH1	160512	OK	0.8387786	-0.1371163	-0.5269246	0	-79.632	-77.932	5.822	B5-03822-P03-CH0	160512	OK	0.838797	-0.4114147	-0.3565915	0	-92.539	-62.807	8.871	B5-03822-P03-CH1	160512	OK	0.7834345	-0.5538783	-0.2818672	0	-96.097	-30.552	3.045	B5-03822-P04-CH0	160512	OK	0.7446866	-0.284917	0.603543	0	-123.171	-44.129	8.952	B5-03822-P04-CH1	160512	OK	0.7358796	-0.671531	0.0867604	0	-110.821	-48.962	0.3	NA
0.28976031534109	B5-03822-P01-CH0	160520	OK	0.2255815	0.0209104	0.0470901	-0.9728609	103.124	-24.132	-235	B5-03822-P02-CH0	160520	OK	0.832449	0.2133119	-0.5113969	0	-81.105	-99.087	8.752	B5-03822-P02-CH1	160520	OK	0.8396842	-0.1375385	-0.52537	0	-79.803	-78.163	5.917	B5-03822-P03-CH0	160520	OK	0.8359003	-0.4040855	-0.3714641	0	-93.112	-62.576	8.587	B5-03822-P03-CH1	160520	OK	0.7828583	-0.5554867	-0.2802987	0	-95.723	-30.83	2.541	B5-03822-P04-CH0	160520	OK	0.7451448	-0.2872751	0.6018574	0	-123.265	-43.465	7.933	B5-03822-P04-CH1	160520	OK	0.7356231	-0.6717241	0.0874376	0	-110.88	-49.127	0.528	NA
0.299752050352851	B5-03822-P01-CH0	160528	OK	0.2258175	0.0206403	0.0478197	-0.9727763	103.098	-24.066	-235.108	B5-03822-P02-CH0	160528	OK	0.8328488	0.2105809	-0.5118776	0	-80.771	-98.516	8.555	B5-03822-P02-CH1	160528	OK	0.8406334	-0.1377327	-0.5237988	0	-79.76	-78.071	5.836	B5-03822-P03-CH0	160528	OK	0.833932	-0.3933941	-0.3870382	0	-92.363	-62.54	9.121	B5-03822-P03-CH1	160528	OK	0.7832226	-0.5553296	-0.2795916	0	-95.64	-30.681	2.588	B5-03822-P04-CH0	160528	OK	0.7456207	-0.2877793	0.6010265	0	-123.494	-43.575	8.694	B5-03822-P04-CH1	160528	OK	0.7362409	-0.6709706	0.0880211	0	-110.761	-49.107	0.721	NA
0.309743785364613	B5-03822-P01-CH0	160536	OK	0.225843	0.020641	0.047995	-0.9727617	103.133	-24.051	-235.138	B5-03822-P02-CH0	160536	OK	0.8325808	0.2053896	-0.5144165	0	-80.984	-98.654	8.517	B5-03822-P02-CH1	160536	OK	0.841581	-0.1360566	-0.5227141	0	-79.385	-77.643	5.593	B5-03822-P03-CH0	160536	OK	0.8299906	-0.3747569	-0.4131257	0	-92.156	-61.868	8.468	B5-03822-P03-CH1	160536	OK	0.7825323	-0.5551787	-0.2818151	0	-96.197	-30.541	3.183	B5-03822-P04-CH0	160536	OK	0.7435696	-0.2928338	0.6011261	0	-122.861	-42.538	8.454	B5-03822-P04-CH1	160536	OK	0.7363232	-0.6708802	0.0880223	0	-110.707	-49.127	0.818	NA
0.319735520376375	B5-03822-P01-CH0	160544	OK	0.225804	0.0205653	0.0480011	-0.9727721	103.095	-24.053	-235.077	B5-03822-P02-CH0	160544	OK	0.8338232	0.2019378	-0.5137704	0	-80.502	-98.398	8.145	B5-03822-P02-CH1	160544	OK	0.8400476	-0.1345798	-0.5255552	0	-79.333	-77.578	5.939	B5-03822-P03-CH0	160544	OK	0.8246811	-0.3467954	-0.4468043	0	-91.524	-61.328	8.233	B5-03822-P03-CH1	160544	OK	0.7815931	-0.5555051	-0.2837714	0	-95.663	-30.728	2.848	B5-03822-P04-CH0	160544	OK	0.7415194	-0.2970083	0.6016105	0	-122.587	-42.218	8.611	B5-03822-P04-CH1	160544	OK	0.7362765	-0.6710022	0.0874813	0	-110.545	-49.125	0.782	NA
0.329727255388137	B5-03822-P01-CH0	160552	OK	0.2257448	0.0205726	0.0479963	-0.9727859	103.116	-24.049	-235.141	B5-03822-P02-CH0	160552	OK	0.8347253	0.2015621	-0.5124514	0	-80.417	-97.62	8.947	B5-03822-P02-CH1	160552	OK	0.8375689	-0.1305861	-0.5304956	0	-79.036	-77.417	5.738	B5-03822-P03-CH0	160552	OK	0.816038	-0.3085805	-0.4887331	0	-90.937	-60.474	7.599	B5-03822-P03-CH1	160552	OK	0.7803994	-0.5552317	-0.2875665	0	-95.721	-30.739	2.824	B5-03822-P04-CH0	160552	OK	0.7398827	-0.300227	0.6020277	0	-122.419	-42.969	10.264	B5-03822-P04-CH1	160552	OK	0.7364054	-0.6710064	0.0863564	0	-110.384	-49.003	0.825	NA
0.339718990399898	B5-03822-P01-CH0	160560	OK	0.2257713	0.0204869	0.048314	-0.9727658	103.102	-24.035	-235.135	B5-03822-P02-CH0	160560	OK	0.836371	0.2032682	-0.509083	0	-80.334	-97.796	7.763	B5-03822-P02-CH1	160560	OK	0.835095	-0.1227776	-0.5362294	0	-78.95	-77.285	4.678	B5-03822-P03-CH0	160560	OK	0.8050258	-0.2670565	-0.5297304	0	-90.325	-59.872	6.057	B5-03822-P03-CH1	160560	OK	0.7801975	-0.5539245	-0.2906192	0	-95.8	-30.449	2.105	B5-03822-P04-CH0	160560	OK	0.7373294	-0.3092677	0.600582	0	-121.388	-42.006	10.094	B5-03822-P04-CH1	160560	OK	0.7372784	-0.6711895	0.076976	0	-109.191	-48.313	1.752	NA
0.34971072541166	B5-03822-P01-CH0	160568	OK	0.2255515	0.020707	0.0479305	-0.9728311	103.15	-24.05	-235.092	B5-03822-P02-CH0	160568	OK	0.8381522	0.2087401	-0.5039132	0	-80.563	-97.333	7.373	B5-03822-P02-CH1	160568	OK	0.8335304	-0.1151996	-0.5403297	0	-79.136	-77.435	5.778	B5-03822-P03-CH0	160568	OK	0.8022154	-0.245187	-0.5443655	0	-88.481	-58.685	7.38	B5-03822-P03-CH1	160568	OK	0.7798075	-0.5522439	-0.2948337	0	-95.882	-30.49	2.297	B5-03822-P04-CH0	160568	OK	0.7349136	-0.3212571	0.5972402	0	-120.481	-40.644	9.648	B5-03822-P04-CH1	160568	OK	0.7369359	-0.6719927	0.0731531	0	-108.37	-47.98	1.583	NA
0.359702460423422	B5-03822-P01-CH0	160576	OK	0.2251754	0.0210713	0.0470207	-0.9729548	103.209	-24.06	-235.041	B5-03822-P02-CH0	160576	OK	0.8397682	0.2130443	-0.4994011	0	-81.16	-97.573	9.626	B5-03822-P02-CH1	160576	OK	0.833147	-0.1086747	-0.5422692	0	-79.275	-77.402	5.808	B5-03822-P03-CH0	160576	OK	0.8011605	-0.2475067	-0.544869	0	-88.869	-60.188	7.987	B5-03822-P03-CH1	160576	OK	0.7792362	-0.550366	-0.2998138	0	-96.333	-30.168	2.322	B5-03822-P04-CH0	160576	OK	0.7329423	-0.3354857	0.5918149	0	-119.716	-39.599	8.762	B5-03822-P04-CH1	160576	OK	0.7368219	-0.6726565	0.0680197	0	-108.905	-46.74	-0.87	NA
0.369694195435183	B5-03822-P01-CH0	160584	OK	0.2251648	0.0211425	0.0472916	-0.9729426	103.244	-23.997	-235.052	B5-03822-P02-CH0	160584	OK	0.8416849	0.2189641	-0.4935801	0	-81.946	-97.876	8.999	B5-03822-P02-CH1	160584	OK	0.8342166	-0.1006627	-0.5421713	0	-79.401	-77.354	5.416	B5-03822-P03-CH0	160584	OK	0.7977535	-0.2387543	-0.5537019	0	-91.319	-58.831	6.125	B5-03822-P03-CH1	160584	OK	0.7792379	-0.5488229	-0.3026247	0	-96.421	-30.122	2.413	B5-03822-P04-CH0	160584	OK	0.7311745	-0.3534787	0.5834695	0	-118.686	-38.643	8.85	B5-03822-P04-CH1	160584	OK	0.7365162	-0.6730025	0.0679077	0	-108.904	-46.916	-0.488	NA
0.379685930446945	B5-03822-P01-CH0	160592	OK	0.2252692	0.0209971	0.0475595	-0.9729085	103.205	-23.975	-235.003	B5-03822-P02-CH0	160592	OK	0.8448528	0.2258917	-0.4849708	0	-81.973	-97.452	9.377	B5-03822-P02-CH1	160592	OK	0.8355437	-0.0928078	-0.5415288	0	-79.297	-77.214	5.554	B5-03822-P03-CH0	160592	OK	0.8031711	-0.2380302	-0.5461298	0	-88.722	-57.909	6.72	B5-03822-P03-CH1	160592	OK	0.7792159	-0.5466738	-0.3065458	0	-96.384	-29.367	1.168	B5-03822-P04-CH0	160592	OK	0.728332	-0.3636171	0.5807884	0	-119.001	-41.594	13.277	B5-03822-P04-CH1	160592	OK	0.7379093	-0.6716636	0.066014	0	-108.853	-46.282	1.284	NA
0.389677665458707	B5-03822-P01-CH0	160600	OK	0.2253938	0.020902	0.04791	-0.9728645	103.184	-23.898	-235.019	B5-03822-P02-CH0	160600	OK	0.8467777	0.2320345	-0.4786727	0	-82.44	-97.437	10.399	B5-03822-P02-CH1	160600	OK	0.8354974	-0.0858091	-0.5427531	0	-79.409	-77.823	5.329	B5-03822-P03-CH0	160600	OK	0.8009861	-0.2446268	-0.5464238	0	-88.882	-59.697	8.939	B5-03822-P03-CH1	160600	OK	0.777782	-0.5439154	-0.314978	0	-97.285	-29.054	2.18	B5-03822-P04-CH0	160600	OK	0.7240888	-0.3821256	0.5741737	0	-117.432	-37.474	9.545	B5-03822-P04-CH1	160600	OK	0.7378951	-0.6719758	0.0629239	0	-109.12	-45.868	0.428	NA
0.399669400470469	B5-03822-P01-CH0	160608	OK	0.2253443	0.021057	0.0473549	-0.9728998	103.207	-23.902	-234.916	B5-03822-P02-CH0	160608	OK	0.8475087	0.2362473	-0.4753064	0	-83.435	-98.11	12.059	B5-03822-P02-CH1	160608	OK	0.8359095	-0.0767434	-0.5434756	0	-79.42	-77.988	5.674	B5-03822-P03-CH0	160608	OK	0.7991398	-0.2516715	-0.5459277	0	-90.525	-59.21	6.23	B5-03822-P03-CH1	160608	OK	0.7772108	-0.5419846	-0.3196812	0	-96.665	-28.726	1.812	B5-03822-P04-CH0	160608	OK	0.7215778	-0.3861011	0.574675	0	-117.72	-37.479	10.393	B5-03822-P04-CH1	160608	OK	0.737907	-0.6722287	0.0600157	0	-109.334	-44.959	-1.232	NA
0.40966113548223	B5-03822-P01-CH0	160616	OK	0.2251766	0.0211813	0.0468402	-0.9729609	103.236	-23.884	-234.799	B5-03822-P02-CH0	160616	OK	0.8509018	0.2438348	-0.4653072	0	-83.329	-97.955	11.039	B5-03822-P02-CH1	160616	OK	0.8358425	-0.0651664	-0.5450878	0	-79.36	-77.955	5.663	B5-03822-P03-CH0	160616	OK	0.803216	-0.2652969	-0.5333495	0	-90.869	-58.141	5.133	B5-03822-P03-CH1	160616	OK	0.7765851	-0.5404827	-0.3237191	0	-96.17	-28.973	2.427	B5-03822-P04-CH0	160616	OK	0.7188263	-0.3848595	0.5789404	0	-118.117	-39.19	12.21	B5-03822-P04-CH1	160616	OK	0.7362879	-0.6737464	0.0628167	0	-108.765	-46.2	1.457	NA
0.419652870493992	B5-03822-P01-CH0	160624	OK	0.2252786	0.0213872	0.0464642	-0.9729508	103.368	-23.846	-234.846	B5-03822-P02-CH0	160624	OK	0.8534424	0.2470071	-0.4589373	0	-83.899	-99.031	10.963	B5-03822-P02-CH1	160624	OK	0.8335919	-0.0522547	-0.5499036	0	-79.688	-78.287	6.092	B5-03822-P03-CH0	160624	OK	0.8117131	-0.2893549	-0.5073417	0	-90.472	-58.763	7.391	B5-03822-P03-CH1	160624	OK	0.7753521	-0.5390275	-0.3290571	0	-96.764	-29.199	3.006	B5-03822-P04-CH0	160624	OK	0.7179708	-0.3867616	0.5787344	0	-118.435	-38.24	12.154	B5-03822-P04-CH1	160624	OK	0.7359788	-0.6741703	0.0618844	0	-108.913	-45.629	-0.487	NA
0.429644605505754	B5-03822-P01-CH0	160632	OK	0.2254906	0.0213799	0.0463817	-0.9729058	103.405	-23.772	-234.816	B5-03822-P02-CH0	160632	OK	0.8543776	0.2522316	-0.4543327	0	-84.221	-98.756	11.523	B5-03822-P02-CH1	160632	OK	0.8309609	-0.0414857	-0.5547818	0	-79.235	-78.345	5.457	B5-03822-P03-CH0	160632	OK	0.8199918	-0.3099368	-0.4811992	0	-89.873	-58.962	7.264	B5-03822-P03-CH1	160632	OK	0.7756692	-0.5367411	-0.3320336	0	-97.336	-28.252	2.364	B5-03822-P04-CH0	160632	OK	0.7172297	-0.3855337	0.5804699	0	-118.786	-37.906	11.453	B5-03822-P04-CH1	160632	OK	0.7360952	-0.6736239	0.0662927	0	-108.968	-46.544	0.831	NA
0.439636340517515	B5-03822-P01-CH0	160640	OK	0.2255868	0.0214159	0.0460814	-0.9728969	103.467	-23.742	-234.803	B5-03822-P02-CH0	160640	OK	0.8546944	0.2513656	-0.4542166	0	-84.612	-99.028	12.391	B5-03822-P02-CH1	160640	OK	0.8283629	-0.0376374	-0.558926	0	-78.791	-78.363	5.681	B5-03822-P03-CH0	160640	OK	0.8250531	-0.3308171	-0.4580911	0	-90.377	-59.68	7.782	B5-03822-P03-CH1	160640	OK	0.7760689	-0.5367172	-0.331137	0	-96.951	-28.193	2.24	B5-03822-P04-CH0	160640	OK	0.7158313	-0.3879691	0.5805735	0	-118.096	-35.888	9.852	B5-03822-P04-CH1	160640	OK	0.7359634	-0.6738956	0.0649805	0	-109.081	-46.192	0.202	NA
0.449628075529277	B5-03822-P01-CH0	160648	OK	0.2256607	0.0213687	0.045677	-0.9728999	103.478	-23.678	-234.776	B5-03822-P02-CH0	160648	OK	0.8544765	0.2503684	-0.4551764	0	-85.057	-99.453	13.202	B5-03822-P02-CH1	160648	OK	0.8261886	-0.0371732	-0.5621659	0	-78.527	-78.531	6.346	B5-03822-P03-CH0	160648	OK	0.8314933	-0.3458335	-0.4347621	0	-90.469	-60.155	8.829	B5-03822-P03-CH1	160648	OK	0.7762268	-0.5380543	-0.3285874	0	-96.974	-28.236	2.031	B5-03822-P04-CH0	160648	OK	0.7162109	-0.3793192	0.5857977	0	-119.17	-37.881	10.252	B5-03822-P04-CH1	160648	OK	0.7357716	-0.67416	0.0644082	0	-109.296	-45.953	-0.013	NA
0.459619810541039	B5-03822-P01-CH0	160656	OK	0.226194	0.0212304	0.0461987	-0.9727545	103.545	-23.622	-234.864	B5-03822-P02-CH0	160656	OK	0.8533632	0.2552918	-0.4545298	0	-85.015	-99.54	13.197	B5-03822-P02-CH1	160656	OK	0.8237314	-0.0375092	-0.5657381	0	-78.429	-79.124	5.853	B5-03822-P03-CH0	160656	OK	0.8367339	-0.3564086	-0.4157516	0	-90.733	-60.601	8.731	B5-03822-P03-CH1	160656	OK	0.7767485	-0.541077	-0.3223311	0	-97.417	-28.808	2.538	B5-03822-P04-CH0	160656	OK	0.7181655	-0.3738848	0.5868973	0	-119.814	-37.39	9.63	B5-03822-P04-CH1	160656	OK	0.7361131	-0.673729	0.065014	0	-109.322	-46.004	0.015	NA
0.469611545552801	B5-03822-P01-CH0	160664	OK	0.2263031	0.0211099	0.0456934	-0.9727556	103.538	-23.625	-234.888	B5-03822-P02-CH0	160664	OK	0.8517363	0.2632488	-0.4530401	0	-84.662	-99.7	13.298	B5-03822-P02-CH1	160664	OK	0.8206351	-0.040357	-0.5700258	0	-77.815	-79.263	4.619	B5-03822-P03-CH0	160664	OK	0.839558	-0.3656972	-0.401756	0	-90.872	-61.02	9.05	B5-03822-P03-CH1	160664	OK	0.7773706	-0.5449142	-0.3142665	0	-97.659	-29.598	2.952	B5-03822-P04-CH0	160664	OK	0.7186531	-0.361853	0.5938014	0	-120.441	-40.367	11.677	B5-03822-P04-CH1	160664	OK	0.7356994	-0.6741226	0.065613	0	-109.376	-46.072	0.088	NA
0.479603280564562	B5-03822-P01-CH0	160672	OK	0.2264211	0.0211709	0.0453066	-0.9727449	103.608	-23.651	-234.96	B5-03822-P02-CH0	160672	OK	0.8490158	0.2705232	-0.4538606	0	-84.328	-99.927	12.936	B5-03822-P02-CH1	160672	OK	0.8165632	-0.0476492	-0.5752861	0	-77.388	-78.938	4.659	B5-03822-P03-CH0	160672	OK	0.841411	-0.3751394	-0.3889703	0	-90.97	-61.307	8.799	B5-03822-P03-CH1	160672	OK	0.7796793	-0.5476072	-0.3036883	0	-97.325	-30.001	2.545	B5-03822-P04-CH0	160672	OK	0.7212859	-0.3511703	0.5970143	0	-121.347	-41.897	12.126	B5-03822-P04-CH1	160672	OK	0.7354952	-0.6742718	0.0663652	0	-109.561	-46.095	-0.122	NA
0.489595015576324	B5-03822-P01-CH0	160680	OK	0.2262501	0.0212743	0.0444498	-0.9728219	103.65	-23.755	-234.906	B5-03822-P02-CH0	160680	OK	0.8457725	0.2752448	-0.4570658	0	-84.113	-99.866	12.674	B5-03822-P02-CH1	160680	OK	0.8124277	-0.0619675	-0.5797597	0	-77.096	-78.577	5.092	B5-03822-P03-CH0	160680	OK	0.8427228	-0.3878979	-0.3733009	0	-91.386	-61.529	9.036	B5-03822-P03-CH1	160680	OK	0.7820378	-0.5496572	-0.2937582	0	-97.068	-30.708	3.059	B5-03822-P04-CH0	160680	OK	0.7251206	-0.3416936	0.5978676	0	-122.077	-41.717	10.253	B5-03822-P04-CH1	160680	OK	0.7349413	-0.6747771	0.0673584	0	-109.83	-46.197	-0.356	NA
0.499586750588086	B5-03822-P01-CH0	160688	OK	0.2263167	0.0212652	0.0443128	-0.9728129	103.671	-23.771	-234.907	B5-03822-P02-CH0	160688	OK	0.8435235	0.2779601	-0.4595718	0	-83.431	-99.801	12.676	B5-03822-P02-CH1	160688	OK	0.8092151	-0.0786997	-0.5822176	0	-76.75	-78.365	4.963	B5-03822-P03-CH0	160688	OK	0.8437924	-0.4030744	-0.3543238	0	-91.818	-61.727	9.164	B5-03822-P03-CH1	160688	OK	0.7844005	-0.549369	-0.2879402	0	-96.464	-31.121	3.221	B5-03822-P04-CH0	160688	OK	0.7292356	-0.3223188	0.6035943	0	-122.811	-43.06	10.074	B5-03822-P04-CH1	160688	OK	0.7349539	-0.6733259	0.0804674	0	-111.003	-47.667	0.817	NA
0.509578485599847	B5-03822-P01-CH0	160696	OK	0.2264853	0.0211079	0.0444929	-0.9727689	103.638	-23.797	-234.921	B5-03822-P02-CH0	160696	OK	0.8407334	0.2805587	-0.4630919	0	-83.339	-99.404	11.991	B5-03822-P02-CH1	160696	OK	0.8066467	-0.0946179	-0.5834112	0	-76.57	-78.296	4.494	B5-03822-P03-CH0	160696	OK	0.8441121	-0.4173305	-0.3366155	0	-91.836	-62.036	9.446	B5-03822-P03-CH1	160696	OK	0.7855229	-0.5488424	-0.2858773	0	-96.434	-31.188	3.345	B5-03822-P04-CH0	160696	OK	0.7347834	-0.3050839	0.6058195	0	-122.842	-41.297	8.375	B5-03822-P04-CH1	160696	OK	0.7336682	-0.6741414	0.0852313	0	-110.615	-48.882	0.482	NA
0.519570220611609	B5-03822-P01-CH0	160704	OK	0.2265461	0.0210279	0.044632	-0.9727501	103.608	-23.822	-234.907	B5-03822-P02-CH0	160704	OK	0.8392219	0.2799458	-0.4661941	0	-83.191	-99.346	12.255	B5-03822-P02-CH1	160704	OK	0.8044433	-0.1077928	-0.5841675	0	-76.452	-78.057	4.114	B5-03822-P03-CH0	160704	OK	0.8432875	-0.4298308	-0.3226634	0	-91.848	-62.316	9.058	B5-03822-P03-CH1	160704	OK	0.7855586	-0.5498681	-0.2838005	0	-96.946	-31.112	3.756	B5-03822-P04-CH0	160704	OK	0.7406595	-0.2940668	0.6041094	0	-123.968	-42.565	8.846	B5-03822-P04-CH1	160704	OK	0.7339907	-0.6736443	0.0863766	0	-111.239	-48.663	-0.595	NA
0.529561955623371	B5-03822-P01-CH0	160712	OK	0.2264198	0.0210492	0.0445822	-0.9727813	103.612	-23.873	-234.872	B5-03822-P02-CH0	160712	OK	0.8379806	0.2785871	-0.469231	0	-83.068	-99.1	13.464	B5-03822-P02-CH1	160712	OK	0.8023008	-0.1180299	-0.5851344	0	-76.117	-77.613	3.825	B5-03822-P03-CH0	160712	OK	0.8424464	-0.4401962	-0.3106627	0	-91.598	-62.352	8.886	B5-03822-P03-CH1	160712	OK	0.7851948	-0.5520793	-0.2804952	0	-96.619	-31.213	3.498	B5-03822-P04-CH0	160712	OK	0.7433386	-0.2924121	0.6016169	0	-123.657	-43.177	8.528	B5-03822-P04-CH1	160712	OK	0.7341449	-0.6733317	0.0874973	0	-111.504	-48.789	-0.342	NA
0.539553690635133	B5-03822-P01-CH0	160720	OK	0.2263998	0.021018	0.0446204	-0.9727849	103.602	-23.917	-234.929	B5-03822-P02-CH0	160720	OK	0.8378264	0.2786156	-0.4694894	0	-82.632	-98.873	12.159	B5-03822-P02-CH1	160720	OK	0.7984232	-0.1280413	-0.5883246	0	-76.205	-77.777	4.252	B5-03822-P03-CH0	160720	OK	0.8402625	-0.4486429	-0.3044314	0	-92.203	-62.435	8.69	B5-03822-P03-CH1	160720	OK	0.7848108	-0.5539143	-0.2779406	0	-96.657	-30.837	2.827	B5-03822-P04-CH0	160720	OK	0.745372	-0.2887871	0.6008516	0	-123.781	-43.898	8.892	B5-03822-P04-CH1	160720	OK	0.734379	-0.6729507	0.088458	0	-111.161	-49.056	1.955	NA
0.549545425646894	B5-03822-P01-CH0	160728	OK	0.2267243	0.0209849	0.045599	-0.9726646	103.627	-23.907	-234.976	B5-03822-P02-CH0	160728	OK	0.83842	0.2803302	-0.4674044	0	-81.484	-98.168	10.589	B5-03822-P02-CH1	160728	OK	0.7956634	-0.1327274	-0.5910187	0	-75.935	-77.396	3.06	B5-03822-P03-CH0	160728	OK	0.8402965	-0.4521595	-0.2990878	0	-92.189	-62.184	8.795	B5-03822-P03-CH1	160728	OK	0.7844303	-0.5549846	-0.2768777	0	-96.671	-30.713	2.704	B5-03822-P04-CH0	160728	OK	0.7470544	-0.2863259	0.5999394	0	-124.156	-44.234	8.664	B5-03822-P04-CH1	160728	OK	0.7339404	-0.6732864	0.0895373	0	-110.84	-49.304	-1.29	NA
0.559537160658656	B5-03822-P01-CH0	160736	OK	0.226622	0.0209267	0.0455542	-0.9726918	103.556	-23.932	-234.933	B5-03822-P02-CH0	160736	OK	0.8373985	0.2787739	-0.4701584	0	-81.576	-98.307	10.844	B5-03822-P02-CH1	160736	OK	0.794552	-0.1366608	-0.5916173	0	-75.622	-77.2	3.104	B5-03822-P03-CH0	160736	OK	0.8397639	-0.4533841	-0.2987299	0	-92.549	-62.022	9.06	B5-03822-P03-CH1	160736	OK	0.7840141	-0.5570873	-0.2738169	0	-95.91	-31.256	3.211	B5-03822-P04-CH0	160736	OK	0.7473595	-0.2860663	0.5996831	0	-124.001	-44.382	9.095	B5-03822-P04-CH1	160736	OK	0.7351913	-0.6727276	0.0832543	0	-110.905	-48.207	-0.328	NA
0.569528895670418	B5-03822-P01-CH0	160744	OK	0.2266409	0.0209634	0.0461478	-0.9726586	103.539	-23.92	-234.876	B5-03822-P02-CH0	160744	OK	0.8360576	0.2798292	-0.4719146	0	-81.302	-98.138	10.304	B5-03822-P02-CH1	160744	OK	0.7944377	-0.1385715	-0.5913263	0	-75.807	-77.017	3.702	B5-03822-P03-CH0	160744	OK	0.8403125	-0.4518605	-0.2994945	0	-91.895	-62.292	9.567	B5-03822-P03-CH1	160744	OK	0.7839571	-0.5575654	-0.2730059	0	-96.094	-31.286	3.832	B5-03822-P04-CH0	160744	OK	0.7481855	-0.285253	0.5990402	0	-124.464	-44.71	9.506	B5-03822-P04-CH1	160744	OK	0.7356578	-0.6720486	0.084607	0	-111.058	-48.29	-0.471	NA
0.579520630682179	B5-03822-P01-CH0	160752	OK	0.2263735	0.0211262	0.0458296	-0.9727324	103.534	-23.935	-234.839	B5-03822-P02-CH0	160752	OK	0.8345583	0.2788503	-0.4751367	0	-81.417	-98.463	10.517	B5-03822-P02-CH1	160752	OK	0.7967115	-0.139005	-0.5881567	0	-75.809	-76.99	3.923	B5-03822-P03-CH0	160752	OK	0.8402986	-0.4465562	-0.3073855	0	-91.674	-62.208	8.88	B5-03822-P03-CH1	160752	OK	0.7841159	-0.5570269	-0.273648	0	-96.191	-30.749	3.649	B5-03822-P04-CH0	160752	OK	0.7475568	-0.2873549	0.5988205	0	-124.423	-44.396	8.984	B5-03822-P04-CH1	160752	OK	0.7353351	-0.6722753	0.0856049	0	-111.209	-48.461	-0.348	NA
0.589512365693941	B5-03822-P01-CH0	160760	OK	0.226545	0.021026	0.046313	-0.9726718	103.501	-23.921	-234.933	B5-03822-P02-CH0	160760	OK	0.8325591	0.2763114	-0.4801013	0	-81.81	-98.849	10.513	B5-03822-P02-CH1	160760	OK	0.8018815	-0.1403851	-0.5807564	0	-75.528	-77.177	3.527	B5-03822-P03-CH0	160760	OK	0.8393722	-0.4367542	-0.323574	0	-92.022	-62.153	8.735	B5-03822-P03-CH1	160760	OK	0.7841585	-0.5571491	-0.2732772	0	-95.911	-31.093	3.111	B5-03822-P04-CH0	160760	OK	0.7466594	-0.2883495	0.5994616	0	-124.303	-44.857	9.685	B5-03822-P04-CH1	160760	OK	0.7355255	-0.6719021	0.0868896	0	-111.016	-48.693	-0.028	NA
0.599504100705703	B5-03822-P01-CH0	160768	OK	0.2264951	0.0209619	0.0463827	-0.9726815	103.459	-23.95	-234.935	B5-03822-P02-CH0	160768	OK	0.8315605	0.2739842	-0.483156	0	-81.807	-98.652	10.772	B5-03822-P02-CH1	160768	OK	0.8069735	-0.1408943	-0.5735352	0	-76.109	-77.566	3.823	B5-03822-P03-CH0	160768	OK	0.8379194	-0.424428	-0.3431501	0	-92.279	-62.123	8.805	B5-03822-P03-CH1	160768	OK	0.7844086	-0.5563461	-0.2741939	0	-95.749	-31.359	3.206	B5-03822-P04-CH0	160768	OK	0.7447974	-0.293882	0.5990912	0	-123.673	-43.611	8.196	B5-03822-P04-CH1	160768	OK	0.7354957	-0.6719066	0.0871069	0	-110.921	-48.761	-0.105	NA
0.609495835717465	B5-03822-P01-CH0	160776	OK	0.2264551	0.0211901	0.0462643	-0.9726915	103.501	-23.956	-234.98	B5-03822-P02-CH0	160776	OK	0.8307749	0.2701905	-0.4866314	0	-81.85	-98.61	10.641	B5-03822-P02-CH1	160776	OK	0.8121087	-0.1407577	-0.5662744	0	-77.098	-78.117	4.01	B5-03822-P03-CH0	160776	OK	0.8365816	-0.410269	-0.3630573	0	-92.29	-62.131	8.714	B5-03822-P03-CH1	160776	OK	0.784788	-0.5549584	-0.275915	0	-95.671	-31.226	3.195	B5-03822-P04-CH0	160776	OK	0.744131	-0.2986163	0.5975762	0	-123.684	-43.566	8.762	B5-03822-P04-CH1	160776	OK	0.7354354	-0.6720236	0.0867127	0	-110.866	-48.749	0.192	NA
0.619487570729226	B5-03822-P01-CH0	160784	OK	0.2264612	0.0213716	0.046073	-0.9726952	103.534	-23.985	-234.986	B5-03822-P02-CH0	160784	OK	0.8313082	0.2640112	-0.4891061	0	-81.651	-98.958	9.494	B5-03822-P02-CH1	160784	OK	0.8186876	-0.1370958	-0.5576337	0	-77.427	-77.885	4.684	B5-03822-P03-CH0	160784	OK	0.83523	-0.393937	-0.3836724	0	-91.961	-61.931	8.657	B5-03822-P03-CH1	160784	OK	0.7843981	-0.555388	-0.2761589	0	-96.143	-31.147	3.443	B5-03822-P04-CH0	160784	OK	0.7428725	-0.304184	0.5963326	0	-123.325	-44.348	10.473	B5-03822-P04-CH1	160784	OK	0.7353388	-0.6722081	0.0860996	0	-110.793	-48.727	0.298	NA
0.629479305740988	B5-03822-P01-CH0	160792	OK	0.2263783	0.0213833	0.045918	-0.9727215	103.517	-23.997	-235.03	B5-03822-P02-CH0	160792	OK	0.8307764	0.2573266	-0.4935521	0	-82.01	-99.394	10.121	B5-03822-P02-CH1	160792	OK	0.8247803	-0.1337188	-0.5494149	0	-77.564	-77.863	5.045	B5-03822-P03-CH0	160792	OK	0.8314146	-0.3763084	-0.4088298	0	-91.768	-61.928	8.411	B5-03822-P03-CH1	160792	OK	0.7843537	-0.5552584	-0.2765455	0	-95.944	-31.149	3.314	B5-03822-P04-CH0	160792	OK	0.7422824	-0.3126065	0.5927006	0	-123.015	-43.053	9.32	B5-03822-P04-CH1	160792	OK	0.7352609	-0.6723958	0.0852955	0	-110.733	-48.679	0.43	NA
0.63947104075275	B5-03822-P01-CH0	160800	OK	0.2264869	0.0213272	0.0459956	-0.9726938	103.486	-23.979	-235.027	B5-03822-P02-CH0	160800	OK	0.8316339	0.2535092	-0.4940832	0	-81.647	-98.89	9.591	B5-03822-P02-CH1	160800	OK	0.8285421	-0.1306522	-0.5444704	0	-78.315	-78.047	4.882	B5-03822-P03-CH0	160800	OK	0.826506	-0.3528062	-0.438652	0	-91.75	-61.169	8.346	B5-03822-P03-CH1	160800	OK	0.7853955	-0.5485222	-0.2868404	0	-95.883	-31.111	2.396	B5-03822-P04-CH0	160800	OK	0.7416146	-0.320491	0.589316	0	-122.492	-42.645	9.092	B5-03822-P04-CH1	160800	OK	0.735238	-0.6725289	0.0844396	0	-110.546	-48.615	0.221	NA
0.649462775764512	B5-03822-P01-CH0	160808	OK	0.2263706	0.0213208	0.0455925	-0.97274	103.466	-23.991	-235.021	B5-03822-P02-CH0	160808	OK	0.8325189	0.24786	-0.4954572	0	-81.773	-98.761	9.861	B5-03822-P02-CH1	160808	OK	0.8326781	-0.126706	-0.5390666	0	-78.392	-77.789	5.666	B5-03822-P03-CH0	160808	OK	0.8200664	-0.3254872	-0.4706901	0	-91.3	-60.479	8.093	B5-03822-P03-CH1	160808	OK	0.7853697	-0.5467869	-0.2902044	0	-96.058	-31.224	2.882	B5-03822-P04-CH0	160808	OK	0.7409054	-0.3335702	0.5829152	0	-121.377	-40.231	6.94	B5-03822-P04-CH1	160808	OK	0.7350195	-0.6729571	0.0829162	0	-110.388	-48.465	0.423	NA
0.659454510776273	B5-03822-P01-CH0	160816	OK	0.226372	0.0214112	0.0455747	-0.9727385	103.484	-23.941	-235.01	B5-03822-P02-CH0	160816	OK	0.8332301	0.243205	-0.4965672	0	-82.162	-98.862	9.725	B5-03822-P02-CH1	160816	OK	0.8360275	-0.1236792	-0.5345666	0	-78.658	-77.844	5.837	B5-03822-P03-CH0	160816	OK	0.812446	-0.2945476	-0.5031632	0	-90.689	-59.996	7.924	B5-03822-P03-CH1	160816	OK	0.7853188	-0.5451439	-0.2934154	0	-96.032	-31.296	3.001	B5-03822-P04-CH0	160816	OK	0.741207	-0.3386206	0.5796104	0	-121.169	-41.034	8.939	B5-03822-P04-CH1	160816	OK	0.7350396	-0.6731231	0.0813763	0	-110.272	-48.251	0.442	NA
0.669446245788035	B5-03822-P01-CH0	160824	OK	0.2262867	0.0215196	0.0451555	-0.9727755	103.543	-23.947	-235.064	B5-03822-P02-CH0	160824	OK	0.8339591	0.240192	-0.4968099	0	-82.451	-98.643	9.715	B5-03822-P02-CH1	160824	OK	0.8383416	-0.1205613	-0.5316468	0	-79.096	-78.107	6.541	B5-03822-P03-CH0	160824	OK	0.8043526	-0.262982	-0.5327827	0	-90.416	-59.604	7.571	B5-03822-P03-CH1	160824	OK	0.7855747	-0.5437441	-0.2953215	0	-95.709	-31.369	3.318	B5-03822-P04-CH0	160824	OK	0.7413543	-0.3414531	0.5777574	0	-121.599	-41.934	10.048	B5-03822-P04-CH1	160824	OK	0.734706	-0.673689	0.079688	0	-110.176	-48.122	0.535	NA
0.679437980799797	B5-03822-P01-CH0	160832	OK	0.2263484	0.0214131	0.0451268	-0.9727649	103.536	-23.955	-235.08	B5-03822-P02-CH0	160832	OK	0.8355859	0.2367234	-0.4957401	0	-82.1	-98.633	9.312	B5-03822-P02-CH1	160832	OK	0.8401727	-0.1179386	-0.5293396	0	-79.121	-78.214	6.734	B5-03822-P03-CH0	160832	OK	0.7975442	-0.2372526	-0.5546481	0	-90.145	-59.083	6.187	B5-03822-P03-CH1	160832	OK	0.7860444	-0.5416955	-0.2978259	0	-95.762	-31.119	3.126	B5-03822-P04-CH0	160832	OK	0.7401141	-0.3465908	0.5762864	0	-120.819	-41.166	9.223	B5-03822-P04-CH1	160832	OK	0.7346055	-0.6739746	0.0781852	0	-109.895	-47.973	0.44	NA
0.689429715811558	B5-03822-P01-CH0	160840	OK	0.2264166	0.0214178	0.0451732	-0.9727467	103.562	-23.865	-235.063	B5-03822-P02-CH0	160840	OK	0.8362983	0.233293	-0.4961649	0	-82.244	-98.633	9.028	B5-03822-P02-CH1	160840	OK	0.8412171	-0.1144333	-0.5284495	0	-79.324	-78.054	6.323	B5-03822-P03-CH0	160840	OK	0.7971608	-0.2328172	-0.5570734	0	-88.739	-59.787	8.019	B5-03822-P03-CH1	160840	OK	0.7863426	-0.5398641	-0.3003532	0	-95.643	-31.376	3.184	B5-03822-P04-CH0	160840	OK	0.7399794	-0.3489357	0.5750429	0	-120.655	-40.713	8.436	B5-03822-P04-CH1	160840	OK	0.734515	-0.6742455	0.0766854	0	-109.794	-47.793	0.402	NA
0.69942145082332	B5-03822-P01-CH0	160848	OK	0.2265212	0.0213156	0.0453953	-0.9727143	103.576	-23.807	-235.065	B5-03822-P02-CH0	160848	OK	0.8362976	0.2301916	-0.4976125	0	-82.159	-98.59	9.853	B5-03822-P02-CH1	160848	OK	0.8417945	-0.112495	-0.527946	0	-79.369	-77.991	6.447	B5-03822-P03-CH0	160848	OK	0.7974458	-0.2324701	-0.5568104	0	-89.104	-59.512	7.738	B5-03822-P03-CH1	160848	OK	0.7870811	-0.5381897	-0.301422	0	-95.487	-31.365	2.768	B5-03822-P04-CH0	160848	OK	0.7406845	-0.3513101	0.5726846	0	-120.38	-39.663	7.383	B5-03822-P04-CH1	160848	OK	0.7346457	-0.6742739	0.0751688	0	-109.728	-47.625	0.471	NA
0.709413185835082	B5-03822-P01-CH0	160856	OK	0.226714	0.0212816	0.045652	-0.9726581	103.643	-23.749	-235.111	B5-03822-P02-CH0	160856	OK	0.8361311	0.2278059	-0.4989883	0	-82.064	-98.751	9.165	B5-03822-P02-CH1	160856	OK	0.8417068	-0.1103142	-0.5285455	0	-79.525	-77.9	6.666	B5-03822-P03-CH0	160856	OK	0.7969438	-0.2328233	-0.5573812	0	-89.469	-59.625	7.607	B5-03822-P03-CH1	160856	OK	0.787737	-0.5359633	-0.303667	0	-95.932	-30.958	3.07	B5-03822-P04-CH0	160856	OK	0.7405394	-0.3522053	0.5723223	0	-119.991	-39.42	7.73	B5-03822-P04-CH1	160856	OK	0.7348457	-0.6742019	0.0738486	0	-109.717	-47.384	0.055	NA
0.719404920846843	B5-03822-P01-CH0	160864	OK	0.2269779	0.0209561	0.0462724	-0.9725743	103.62	-23.65	-235.154	B5-03822-P02-CH0	160864	OK	0.8359902	0.2262319	-0.4999395	0	-81.741	-98.487	9.229	B5-03822-P02-CH1	160864	OK	0.8415709	-0.1068224	-0.5294783	0	-79.31	-77.825	5.874	B5-03822-P03-CH0	160864	OK	0.7973425	-0.2343239	-0.556181	0	-89.18	-59.661	7.624	B5-03822-P03-CH1	160864	OK	0.7884123	-0.5344781	-0.3045311	0	-95.947	-31.001	3.03	B5-03822-P04-CH0	160864	OK	0.7412666	-0.3510738	0.5720761	0	-120.054	-39.566	8.273	B5-03822-P04-CH1	160864	OK	0.735263	-0.67387	0.072715	0	-109.539	-47.154	-0.015	NA
0.729396655858605	B5-03822-P01-CH0	160872	OK	0.227313	0.0208886	0.0464907	-0.9724871	103.682	-23.625	-235.202	B5-03822-P02-CH0	160872	OK	0.8357692	0.223582	-0.5014986	0	-81.572	-98.537	8.894	B5-03822-P02-CH1	160872	OK	0.8411289	-0.1069615	-0.5301523	0	-79.013	-77.885	6.204	B5-03822-P03-CH0	160872	OK	0.7956499	-0.2359941	-0.5578961	0	-89.848	-59.558	7.094	B5-03822-P03-CH1	160872	OK	0.7889535	-0.5335806	-0.3047032	0	-95.818	-31.021	2.196	B5-03822-P04-CH0	160872	OK	0.7406552	-0.3497713	0.5736635	0	-120.171	-40.42	8.457	B5-03822-P04-CH1	160872	OK	0.7355205	-0.6736998	0.0716819	0	-109.439	-46.944	-0.145	NA
0.739388390870367	B5-03822-P01-CH0	160880	OK	0.2274605	0.0208209	0.0467013	-0.9724439	103.744	-23.597	-235.294	B5-03822-P02-CH0	160880	OK	0.8350188	0.2216537	-0.5036003	0	-81.323	-98.374	7.885	B5-03822-P02-CH1	160880	OK	0.8395392	-0.1070352	-0.5326512	0	-78.923	-77.918	5.799	B5-03822-P03-CH0	160880	OK	0.7952443	-0.2402805	-0.5566434	0	-89.865	-59.548	7.116	B5-03822-P03-CH1	160880	OK	0.7892066	-0.5323748	-0.3061535	0	-96.03	-30.704	2.28	B5-03822-P04-CH0	160880	OK	0.7404501	-0.352051	0.5725328	0	-119.935	-39.248	7.232	B5-03822-P04-CH1	160880	OK	0.7356265	-0.6736891	0.0706862	0	-109.398	-46.81	-0.187	NA
0.749380125882129	B5-03822-P01-CH0	160888	OK	0.2277708	0.0207501	0.0470308	-0.9723569	103.792	-23.53	-235.336	B5-03822-P02-CH0	160888	OK	0.8334673	0.2188341	-0.5073893	0	-81.007	-98.255	7.824	B5-03822-P02-CH1	160888	OK	0.8380333	-0.1089434	-0.5346322	0	-78.638	-77.979	4.969	B5-03822-P03-CH0	160888	OK	0.7956974	-0.24824	-0.5524876	0	-89.7	-59.194	6.259	B5-03822-P03-CH1	160888	OK	0.7892002	-0.5317014	-0.3073381	0	-96.488	-30.45	2.243	B5-03822-P04-CH0	160888	OK	0.7408018	-0.3485376	0.5742249	0	-120.365	-40.033	8.192	B5-03822-P04-CH1	160888	OK	0.7357692	-0.6735661	0.0703729	0	-109.279	-46.773	-0.053	NA
0.75937186089389	B5-03822-P01-CH0	160896	OK	0.2277565	0.0207718	0.0466171	-0.9723797	103.839	-23.544	-235.343	B5-03822-P02-CH0	160896	OK	0.8323612	0.2158992	-0.5104531	0	-80.555	-98.149	7.464	B5-03822-P02-CH1	160896	OK	0.8365449	-0.1105311	-0.5366335	0	-78.365	-78.139	5.989	B5-03822-P03-CH0	160896	OK	0.7963671	-0.2585767	-0.5467517	0	-89.433	-58.8	5.693	B5-03822-P03-CH1	160896	OK	0.7895782	-0.5315269	-0.3066684	0	-96.047	-30.592	2.549	B5-03822-P04-CH0	160896	OK	0.7405548	-0.3493341	0.5740595	0	-120.303	-40.19	8.506	B5-03822-P04-CH1	160896	OK	0.7354287	-0.6740246	0.069538	0	-109.262	-46.679	-0.25	NA
0.769363595905652	B5-03822-P01-CH0	160904	OK	0.2281273	0.0205231	0.0473616	-0.9722621	103.828	-23.449	-235.393	B5-03822-P02-CH0	160904	OK	0.8301339	0.2111167	-0.5160499	0	-80.566	-98.282	7.606	B5-03822-P02-CH1	160904	OK	0.8342831	-0.110144	-0.5402222	0	-78.45	-78.015	5.548	B5-03822-P03-CH0	160904	OK	0.7967427	-0.2696585	-0.5408191	0	-89.065	-58.907	6.649	B5-03822-P03-CH1	160904	OK	0.789415	-0.5342465	-0.3023319	0	-95.832	-30.952	2.578	B5-03822-P04-CH0	160904	OK	0.7408896	-0.3492953	0.5736509	0	-120.257	-40.1	8.355	B5-03822-P04-CH1	160904	OK	0.7359346	-0.6734882	0.0693826	0	-109.27	-46.542	-0.478	NA
0.779355330917414	B5-03822-P01-CH0	160912	OK	0.2283303	0.0205615	0.04747	-0.9722084	103.89	-23.423	-235.422	B5-03822-P02-CH0	160912	OK	0.8289141	0.2074558	-0.5194839	0	-80.085	-98.273	7.674	B5-03822-P02-CH1	160912	OK	0.8325137	-0.1110717	-0.5427559	0	-78.245	-78.174	5.251	B5-03822-P03-CH0	160912	OK	0.7968516	-0.2811243	-0.5347866	0	-88.77	-59.267	7.122	B5-03822-P03-CH1	160912	OK	0.7896519	-0.5333361	-0.3033191	0	-95.948	-30.957	2.619	B5-03822-P04-CH0	160912	OK	0.7410955	-0.3491469	0.5734753	0	-120.3	-40.147	8.379	B5-03822-P04-CH1	160912	OK	0.7360458	-0.6733941	0.0691157	0	-109.298	-46.471	-0.574	NA
0.789347065929175	B5-03822-P01-CH0	160920	OK	0.2284217	0.0204882	0.0474878	-0.9721876	103.876	-23.431	-235.416	B5-03822-P02-CH0	160920	OK	0.8276158	0.2062876	-0.522013	0	-79.524	-97.94	7.347	B5-03822-P02-CH1	160920	OK	0.8304019	-0.1120845	-0.5457745	0	-78.231	-78.518	5.981	B5-03822-P03-CH0	160920	OK	0.7968499	-0.2906619	-0.5296658	0	-88.895	-59.581	7.398	B5-03822-P03-CH1	160920	OK	0.7898952	-0.5325575	-0.3040527	0	-95.953	-30.927	2.62	B5-03822-P04-CH0	160920	OK	0.7410383	-0.3497903	0.573157	0	-120.199	-39.886	7.942	B5-03822-P04-CH1	160920	OK	0.7359634	-0.6734803	0.0691532	0	-109.221	-46.513	-0.656	NA
0.799338800940937	B5-03822-P01-CH0	160928	OK	0.2285312	0.0206145	0.047633	-0.9721521	103.95	-23.376	-235.518	B5-03822-P02-CH0	160928	OK	0.8257021	0.2066619	-0.5248875	0	-79.205	-97.483	6.333	B5-03822-P02-CH1	160928	OK	0.8287868	-0.1123385	-0.5481719	0	-78.122	-78.148	5.407	B5-03822-P03-CH0	160928	OK	0.7991124	-0.3007043	-0.5205731	0	-88.701	-59.439	6.876	B5-03822-P03-CH1	160928	OK	0.7900367	-0.5319168	-0.3048057	0	-96.083	-30.875	2.757	B5-03822-P04-CH0	160928	OK	0.7411683	-0.349785	0.5729922	0	-120.254	-39.748	7.96	B5-03822-P04-CH1	160928	OK	0.7361013	-0.673351	0.068944	0	-109.286	-46.388	-0.8	NA
0.809330535952699	B5-03822-P01-CH0	160936	OK	0.2286502	0.0204769	0.0474823	-0.9721344	103.918	-23.394	-235.573	B5-03822-P02-CH0	160936	OK	0.8237332	0.2032022	-0.5293133	0	-79.284	-98.354	6.606	B5-03822-P02-CH1	160936	OK	0.8265676	-0.1137474	-0.5512237	0	-77.95	-78.231	4.684	B5-03822-P03-CH0	160936	OK	0.802735	-0.3167507	-0.505258	0	-88.894	-59.872	6.861	B5-03822-P03-CH1	160936	OK	0.7900945	-0.5316042	-0.3052011	0	-96.011	-30.967	2.844	B5-03822-P04-CH0	160936	OK	0.7409082	-0.3498597	0.5732829	0	-120.213	-39.75	7.737	B5-03822-P04-CH1	160936	OK	0.7360078	-0.6734387	0.069086	0	-109.284	-46.417	-0.68	NA
0.819322270964461	B5-03822-P01-CH0	160944	OK	0.2286124	0.020541	0.0472457	-0.9721534	103.891	-23.377	-235.578	B5-03822-P02-CH0	160944	OK	0.8226437	0.2030499	-0.5310631	0	-78.856	-98.254	6.628	B5-03822-P02-CH1	160944	OK	0.824938	-0.1140768	-0.5535918	0	-77.36	-77.912	4.49	B5-03822-P03-CH0	160944	OK	0.8073153	-0.3329426	-0.4872281	0	-88.938	-60.102	7.142	B5-03822-P03-CH1	160944	OK	0.790015	-0.5313854	-0.3057874	0	-96.001	-30.93	2.881	B5-03822-P04-CH0	160944	OK	0.7406706	-0.3499711	0.5735218	0	-120.17	-39.694	7.796	B5-03822-P04-CH1	160944	OK	0.7357894	-0.6736675	0.0691814	0	-109.269	-46.453	-0.536	NA
0.829314005976222	B5-03822-P01-CH0	160952	OK	0.2285895	0.0205057	0.0472928	-0.9721573	103.833	-23.322	-235.546	B5-03822-P02-CH0	160952	OK	0.8208654	0.2030949	-0.5337906	0	-78.771	-98.021	6.874	B5-03822-P02-CH1	160952	OK	0.8213747	-0.1153759	-0.5585982	0	-77.578	-78.014	4.533	B5-03822-P03-CH0	160952	OK	0.8100519	-0.3439405	-0.4748903	0	-89.603	-59.96	7.218	B5-03822-P03-CH1	160952	OK	0.7900825	-0.531029	-0.3062318	0	-95.979	-30.856	2.883	B5-03822-P04-CH0	160952	OK	0.7406727	-0.3498265	0.5736074	0	-120.2	-39.605	7.793	B5-03822-P04-CH1	160952	OK	0.7356757	-0.6737773	0.069321	0	-109.221	-46.479	-0.461	NA
0.839305740987984	B5-03822-P01-CH0	160960	OK	0.2283768	0.0206959	0.046718	-0.972231	103.832	-23.346	-235.461	B5-03822-P02-CH0	160960	OK	0.8203263	0.2034409	-0.5344871	0	-78.332	-97.729	6.007	B5-03822-P02-CH1	160960	OK	0.8197962	-0.1164984	-0.5606802	0	-77.162	-77.823	4.192	B5-03822-P03-CH0	160960	OK	0.8123167	-0.3526402	-0.4645281	0	-89.467	-59.96	7.406	B5-03822-P03-CH1	160960	OK	0.7898053	-0.5310396	-0.3069275	0	-95.975	-30.842	2.868	B5-03822-P04-CH0	160960	OK	0.74039	-0.3503937	0.5736262	0	-120.241	-39.472	7.554	B5-03822-P04-CH1	160960	OK	0.7353118	-0.674204	0.0690325	0	-109.263	-46.48	-0.29	NA
0.849297475999746	B5-03822-P01-CH0	160968	OK	0.2282987	0.0207262	0.0464037	-0.9722638	103.788	-23.368	-235.428	B5-03822-P02-CH0	160968	OK	0.8199027	0.2037149	-0.5350326	0	-77.951	-97.57	5.937	B5-03822-P02-CH1	160968	OK	0.8182216	-0.1174219	-0.5627837	0	-77.102	-77.797	4.367	B5-03822-P03-CH0	160968	OK	0.813971	-0.3605544	-0.4554688	0	-89.141	-60.016	7.275	B5-03822-P03-CH1	160968	OK	0.7897331	-0.53097	-0.3072335	0	-95.883	-30.861	2.92	B5-03822-P04-CH0	160968	OK	0.7401849	-0.3503534	0.5739153	0	-120.282	-39.448	7.534	B5-03822-P04-CH1	160968	OK	0.7351347	-0.6744165	0.0688428	0	-109.363	-46.434	-0.514	NA
0.859289211011507	B5-03822-P01-CH0	160976	OK	0.2285018	0.0205491	0.0470282	-0.9721898	103.728	-23.365	-235.413	B5-03822-P02-CH0	160976	OK	0.8192336	0.2037522	-0.5360423	0	-77.739	-97.436	5.925	B5-03822-P02-CH1	160976	OK	0.8169438	-0.1173543	-0.564651	0	-77.031	-77.694	4.624	B5-03822-P03-CH0	160976	OK	0.8148587	-0.3671588	-0.4485529	0	-89.451	-60.158	7.688	B5-03822-P03-CH1	160976	OK	0.7900575	-0.53047	-0.3072632	0	-95.832	-30.926	2.876	B5-03822-P04-CH0	160976	OK	0.7402912	-0.3496632	0.5741991	0	-120.302	-39.494	7.418	B5-03822-P04-CH1	160976	OK	0.7356624	-0.6738203	0.069044	0	-109.284	-46.438	-0.454	NA
0.869280946023269	B5-03822-P01-CH0	160984	OK	0.2284444	0.0205735	0.0468014	-0.9722137	103.685	-23.448	-235.343	B5-03822-P02-CH0	160984	OK	0.8188621	0.2021949	-0.5371984	0	-77.718	-97.991	6.271	B5-03822-P02-CH1	160984	OK	0.8153084	-0.1163306	-0.5672208	0	-76.97	-78.242	3.86	B5-03822-P03-CH0	160984	OK	0.81644	-0.3730345	-0.4407619	0	-89.183	-60.512	7.89	B5-03822-P03-CH1	160984	OK	0.7899128	-0.5304473	-0.3076742	0	-95.801	-31.015	2.848	B5-03822-P04-CH0	160984	OK	0.7399022	-0.3499955	0.574498	0	-120.21	-39.432	7.236	B5-03822-P04-CH1	160984	OK	0.7354673	-0.6740301	0.0690749	0	-109.143	-46.545	-0.46	NA
0.879272681035031	B5-03822-P01-CH0	160992	OK	0.2285654	0.0205512	0.0471169	-0.9721705	103.661	-23.462	-235.319	B5-03822-P02-CH0	160992	OK	0.8182635	0.2024145	-0.5380271	0	-77.67	-98.452	5.442	B5-03822-P02-CH1	160992	OK	0.8150713	-0.1158987	-0.5676498	0	-76.57	-78.272	4.431	B5-03822-P03-CH0	160992	OK	0.8180697	-0.3771497	-0.434189	0	-89.127	-60.742	7.637	B5-03822-P03-CH1	160992	OK	0.7900233	-0.5302081	-0.3078028	0	-95.786	-31.08	2.831	B5-03822-P04-CH0	160992	OK	0.7398551	-0.3495613	0.5748229	0	-120.204	-39.457	7.23	B5-03822-P04-CH1	160992	OK	0.7356799	-0.6737592	0.0694521	0	-109.085	-46.705	-0.086	NA
0.889264416046793	B5-03822-P01-CH0	161000	OK	0.228618	0.0206861	0.0474936	-0.9721369	103.689	-23.415	-235.339	B5-03822-P02-CH0	161000	OK	0.8171753	0.2038389	-0.5391421	0	-77.838	-98.431	5.565	B5-03822-P02-CH1	161000	OK	0.8132504	-0.1133267	-0.5707721	0	-76.893	-78.282	4.02	B5-03822-P03-CH0	161000	OK	0.8187712	-0.3789692	-0.4312726	0	-89.744	-60.685	8.139	B5-03822-P03-CH1	161000	OK	0.7900894	-0.5299571	-0.3080651	0	-95.831	-31.092	2.873	B5-03822-P04-CH0	161000	OK	0.7400058	-0.3487839	0.575101	0	-120.367	-39.684	7.545	B5-03822-P04-CH1	161000	OK	0.7362196	-0.6732015	0.0691411	0	-109.287	-46.506	-0.155	NA
0.899256151058554	B5-03822-P01-CH0	161008	OK	0.2284142	0.0208136	0.0470113	-0.9722056	103.69	-23.507	-235.257	B5-03822-P02-CH0	161008	OK	0.8165848	0.2063999	-0.5390625	0	-77.828	-98.071	4.954	B5-03822-P02-CH1	161008	OK	0.8132613	-0.1112964	-0.571156	0	-76.244	-78.111	4.775	B5-03822-P03-CH0	161008	OK	0.8206354	-0.3816308	-0.4253416	0	-89.183	-60.679	8.189	B5-03822-P03-CH1	161008	OK	0.7897858	-0.530141	-0.308527	0	-95.815	-31.19	2.877	B5-03822-P04-CH0	161008	OK	0.7396634	-0.3489903	0.5754163	0	-120.354	-39.835	7.723	B5-03822-P04-CH1	161008	OK	0.7358919	-0.673576	0.0689821	0	-109.239	-46.608	-0.021	NA
0.909247886070316	B5-03822-P01-CH0	161016	OK	0.228356	0.0207951	0.0472157	-0.9722097	103.636	-23.491	-235.199	B5-03822-P02-CH0	161016	OK	0.8161755	0.2072735	-0.5393471	0	-77.878	-98.017	5.838	B5-03822-P02-CH1	161016	OK	0.8116573	-0.1095213	-0.5737749	0	-76.495	-78.21	4.547	B5-03822-P03-CH0	161016	OK	0.8207221	-0.3826174	-0.4242867	0	-89.657	-60.421	7.653	B5-03822-P03-CH1	161016	OK	0.7899236	-0.5298137	-0.3087363	0	-95.825	-31.059	2.769	B5-03822-P04-CH0	161016	OK	0.7396572	-0.3489674	0.575438	0	-120.346	-39.856	7.836	B5-03822-P04-CH1	161016	OK	0.7360648	-0.6733992	0.068863	0	-109.081	-46.58	0.006	NA
0.919239621082078	B5-03822-P01-CH0	161024	OK	0.2284518	0.0207001	0.0477056	-0.9721653	103.622	-23.46	-235.243	B5-03822-P02-CH0	161024	OK	0.8164828	0.2094392	-0.5380437	0	-77.535	-97.825	5.76	B5-03822-P02-CH1	161024	OK	0.8106334	-0.1085298	-0.5754083	0	-76.525	-78.329	3.118	B5-03822-P03-CH0	161024	OK	0.8215988	-0.3833242	-0.4219455	0	-89.378	-60.485	7.652	B5-03822-P03-CH1	161024	OK	0.790187	-0.5294639	-0.3086624	0	-95.835	-31.037	2.76	B5-03822-P04-CH0	161024	OK	0.7398028	-0.3487807	0.5753641	0	-120.328	-39.859	8.036	B5-03822-P04-CH1	161024	OK	0.7363094	-0.6731003	0.0691701	0	-108.985	-46.705	0.167	NA
0.929231356093839	B5-03822-P01-CH0	161032	OK	0.2284121	0.0209053	0.047545	-0.9721782	103.697	-23.528	-235.225	B5-03822-P02-CH0	161032	OK	0.8164764	0.2112326	-0.5373519	0	-77.567	-98.124	5.203	B5-03822-P02-CH1	161032	OK	0.8097174	-0.1085626	-0.5766904	0	-76.733	-78.47	3.314	B5-03822-P03-CH0	161032	OK	0.8214395	-0.3820217	-0.4234344	0	-89.397	-60.617	7.77	B5-03822-P03-CH1	161032	OK	0.790037	-0.5295421	-0.308912	0	-95.928	-31.096	2.795	B5-03822-P04-CH0	161032	OK	0.7397814	-0.3488135	0.5753716	0	-120.386	-40.023	8.192	B5-03822-P04-CH1	161032	OK	0.7363749	-0.6730527	0.0689348	0	-108.987	-46.713	0.166	NA
0.939223091105601	B5-03822-P01-CH0	161040	OK	0.2285359	0.0208892	0.0477613	-0.9721388	103.69	-23.525	-235.177	B5-03822-P02-CH0	161040	OK	0.816364	0.2132626	-0.5367204	0	-77.456	-98.003	5.476	B5-03822-P02-CH1	161040	OK	0.8091874	-0.107154	-0.577697	0	-76.732	-78.154	4.085	B5-03822-P03-CH0	161040	OK	0.8209051	-0.3816961	-0.4247622	0	-89.388	-61.013	7.86	B5-03822-P03-CH1	161040	OK	0.79015	-0.5295394	-0.3086276	0	-95.884	-31.158	2.804	B5-03822-P04-CH0	161040	OK	0.7397814	-0.3485433	0.5755355	0	-120.355	-40.139	8.325	B5-03822-P04-CH1	161040	OK	0.736644	-0.6727456	0.0690586	0	-109.025	-46.685	0.109	NA
0.949214826117363	B5-03822-P01-CH0	161048	OK	0.2284849	0.0209604	0.0476991	-0.9721523	103.708	-23.548	-235.181	B5-03822-P02-CH0	161048	OK	0.8163679	0.2151926	-0.5359437	0	-77.496	-97.952	4.769	B5-03822-P02-CH1	161048	OK	0.8089099	-0.106339	-0.5782359	0	-76.697	-77.761	4.284	B5-03822-P03-CH0	161048	OK	0.8201841	-0.3811026	-0.4266836	0	-89.503	-61.114	7.615	B5-03822-P03-CH1	161048	OK	0.7900694	-0.529621	-0.308694	0	-95.884	-31.201	2.824	B5-03822-P04-CH0	161048	OK	0.7397501	-0.3484544	0.5756295	0	-120.366	-40.296	8.576	B5-03822-P04-CH1	161048	OK	0.7366185	-0.6727877	0.068919	0	-108.958	-46.751	0.334	NA
0.959206561129125	B5-03822-P01-CH0	161056	OK	0.228455	0.0209785	0.0476303	-0.9721623	103.722	-23.543	-235.203	B5-03822-P02-CH0	161056	OK	0.8165157	0.2150006	-0.5357956	0	-77.479	-98.215	5.506	B5-03822-P02-CH1	161056	OK	0.8080627	-0.1064735	-0.5793946	0	-76.78	-78.417	3.763	B5-03822-P03-CH0	161056	OK	0.8205185	-0.3803915	-0.4266752	0	-89.222	-61.027	7.408	B5-03822-P03-CH1	161056	OK	0.790019	-0.5296989	-0.3086893	0	-95.924	-31.189	2.835	B5-03822-P04-CH0	161056	OK	0.7396969	-0.3488523	0.5754568	0	-120.354	-40.21	8.43	B5-03822-P04-CH1	161056	OK	0.7364953	-0.6729065	0.069076	0	-108.916	-46.841	0.419	NA
0.969198296140886	B5-03822-P01-CH0	161064	OK	0.2285008	0.0210685	0.0475372	-0.9721542	103.764	-23.525	-235.252	B5-03822-P02-CH0	161064	OK	0.8158357	0.2148341	-0.536897	0	-77.974	-98.458	6.118	B5-03822-P02-CH1	161064	OK	0.8082793	-0.1065342	-0.5790811	0	-76.501	-78.392	3.84	B5-03822-P03-CH0	161064	OK	0.8202805	-0.3809784	-0.4266091	0	-89.508	-60.784	7.643	B5-03822-P03-CH1	161064	OK	0.7899725	-0.5297455	-0.3087283	0	-95.933	-31.149	2.864	B5-03822-P04-CH0	161064	OK	0.7397034	-0.3487666	0.5755004	0	-120.373	-40.282	8.632	B5-03822-P04-CH1	161064	OK	0.7363588	-0.6730294	0.0693334	0	-108.863	-46.962	0.784	NA
0.979190031152648	B5-03822-P01-CH0	161072	OK	0.2285434	0.0210133	0.0477199	-0.9721364	103.745	-23.486	-235.259	B5-03822-P02-CH0	161072	OK	0.8162691	0.2122351	-0.5372719	0	-77.614	-97.942	5.632	B5-03822-P02-CH1	161072	OK	0.8074364	-0.1065524	-0.5802525	0	-76.632	-78.377	4.033	B5-03822-P03-CH0	161072	OK	0.8206728	-0.3809049	-0.4259198	0	-89.423	-60.778	7.755	B5-03822-P03-CH1	161072	OK	0.7900967	-0.5296471	-0.3085792	0	-95.874	-31.128	2.872	B5-03822-P04-CH0	161072	OK	0.7397289	-0.3489814	0.5753373	0	-120.349	-40.168	8.541	B5-03822-P04-CH1	161072	OK	0.7364909	-0.6728946	0.0692394	0	-108.82	-46.864	0.49	NA
0.98918176616441	B5-03822-P01-CH0	161080	OK	0.2284798	0.0211525	0.0472781	-0.9721699	103.809	-23.551	-235.233	B5-03822-P02-CH0	161080	OK	0.8163145	0.2131649	-0.5368345	0	-77.613	-97.988	5.732	B5-03822-P02-CH1	161080	OK	0.8073676	-0.1063579	-0.5803839	0	-76.416	-78.089	4.968	B5-03822-P03-CH0	161080	OK	0.820643	-0.3809205	-0.4259632	0	-89.413	-60.827	7.874	B5-03822-P03-CH1	161080	OK	0.789848	-0.5298775	-0.3088202	0	-95.937	-31.153	2.917	B5-03822-P04-CH0	161080	OK	0.7395529	-0.349206	0.5754274	0	-120.361	-40.216	8.636	B5-03822-P04-CH1	161080	OK	0.7360619	-0.6733697	0.0691826	0	-108.788	-47.034	0.666	NA
0.999173501176171	B5-03822-P01-CH0	161088	OK	0.2286177	0.0212098	0.047395	-0.9721306	103.81	-23.506	-235.184	B5-03822-P02-CH0	161088	OK	0.8162688	0.2143042	-0.5364503	0	-77.567	-97.9	5.723	B5-03822-P02-CH1	161088	OK	0.8060956	-0.1066707	-0.5820921	0	-76.482	-78.387	3.729	B5-03822-P03-CH0	161088	OK	0.8207363	-0.3806115	-0.4260597	0	-89.325	-60.854	7.85	B5-03822-P03-CH1	161088	OK	0.7899062	-0.5297851	-0.3088299	0	-95.912	-31.076	2.784	B5-03822-P04-CH0	161088	OK	0.7396115	-0.3489915	0.5754822	0	-120.404	-40.172	8.519	B5-03822-P04-CH1	161088	OK	0.7360859	-0.6733152	0.0694561	0	-108.776	-47.084	0.704	NA
1.00916523618793	B5-03822-P01-CH0	161096	OK	0.2285803	0.0216074	0.046921	-0.9721536	103.935	-23.538	-235.152	B5-03822-P02-CH0	161096	OK	0.8162664	0.2152943	-0.5360573	0	-77.637	-97.958	5.753	B5-03822-P02-CH1	161096	OK	0.8054244	-0.1065203	-0.583048	0	-76.653	-78.316	4.276	B5-03822-P03-CH0	161096	OK	0.8204283	-0.3803479	-0.4268875	0	-89.341	-60.94	8.043	B5-03822-P03-CH1	161096	OK	0.7895077	-0.5301428	-0.3092349	0	-96.003	-31.137	2.8	B5-03822-P04-CH0	161096	OK	0.7393929	-0.3492291	0.5756189	0	-120.46	-40.167	8.467	B5-03822-P04-CH1	161096	OK	0.7356404	-0.6737983	0.0694917	0	-108.894	-47.235	0.792	NA
1.01915697119969	B5-03822-P01-CH0	161104	OK	0.2284682	0.0219433	0.0463077	-0.9722018	104.032	-23.633	-235.113	B5-03822-P02-CH0	161104	OK	0.8163729	0.2161314	-0.5355581	0	-77.695	-98.118	5.766	B5-03822-P02-CH1	161104	OK	0.8053968	-0.1057147	-0.5832328	0	-76.461	-78.337	3.556	B5-03822-P03-CH0	161104	OK	0.8199117	-0.3801629	-0.4280432	0	-89.38	-61.082	8.185	B5-03822-P03-CH1	161104	OK	0.7890452	-0.5305602	-0.309699	0	-96.003	-31.271	2.873	B5-03822-P04-CH0	161104	OK	0.7391699	-0.3495786	0.5756932	0	-120.545	-40.202	8.369	B5-03822-P04-CH1	161104	OK	0.735421	-0.6740889	0.0689934	0	-109.005	-47.131	0.642	NA
1.02914870621146	B5-03822-P01-CH0	161112	OK	0.2284423	0.0219487	0.0461692	-0.9722144	104.024	-23.613	-235.139	B5-03822-P02-CH0	161112	OK	0.8164855	0.217058	-0.5350115	0	-77.719	-98.093	5.776	B5-03822-P02-CH1	161112	OK	0.8059496	-0.105393	-0.5825269	0	-76.086	-78.24	3.855	B5-03822-P03-CH0	161112	OK	0.8196357	-0.3796979	-0.4289835	0	-89.409	-61.035	8.165	B5-03822-P03-CH1	161112	OK	0.7889191	-0.5305678	-0.3100071	0	-96.048	-31.178	2.874	B5-03822-P04-CH0	161112	OK	0.7389437	-0.3501967	0.5756079	0	-120.483	-39.882	8.057	B5-03822-P04-CH1	161112	OK	0.7352774	-0.6742649	0.0688043	0	-109.024	-47.068	0.556	NA
1.03914044122322	B5-03822-P01-CH0	161120	OK	0.2283846	0.0219875	0.0460015	-0.972235	104.031	-23.611	-235.217	B5-03822-P02-CH0	161120	OK	0.8166579	0.2179654	-0.534379	0	-77.722	-98.077	5.989	B5-03822-P02-CH1	161120	OK	0.8053754	-0.1048526	-0.5834178	0	-76.215	-78.379	4.148	B5-03822-P03-CH0	161120	OK	0.8194633	-0.3793655	-0.4296064	0	-89.381	-60.983	8.203	B5-03822-P03-CH1	161120	OK	0.78875	-0.5306174	-0.3103524	0	-96.068	-31.15	2.951	B5-03822-P04-CH0	161120	OK	0.7387938	-0.3499734	0.5759361	0	-120.514	-39.994	8.403	B5-03822-P04-CH1	161120	OK	0.7350825	-0.6744847	0.0687316	0	-108.957	-47.117	0.79	NA
1.04913217623498	B5-03822-P01-CH0	161128	OK	0.2282686	0.0219477	0.0459978	-0.9722633	104.013	-23.634	-235.215	B5-03822-P02-CH0	161128	OK	0.8176448	0.2238017	-0.530443	0	-77.804	-98.175	6.463	B5-03822-P02-CH1	161128	OK	0.8040896	-0.1041525	-0.5853137	0	-76.619	-78.728	4.268	B5-03822-P03-CH0	161128	OK	0.8193916	-0.3789528	-0.4301072	0	-89.264	-60.99	8.295	B5-03822-P03-CH1	161128	OK	0.7887117	-0.5305006	-0.3106491	0	-96.074	-31.103	2.862	B5-03822-P04-CH0	161128	OK	0.7386464	-0.3507769	0.5756363	0	-120.455	-39.716	8.013	B5-03822-P04-CH1	161128	OK	0.7351513	-0.6744416	0.0684183	0	-108.931	-46.986	0.529	NA
1.05912391124674	B5-03822-P01-CH0	161136	OK	0.2282986	0.0219711	0.0459705	-0.972257	104.007	-23.641	-235.231	B5-03822-P02-CH0	161136	OK	0.8175114	0.2260082	-0.5297125	0	-78.069	-98.171	6.118	B5-03822-P02-CH1	161136	OK	0.8047261	-0.1036814	-0.5845221	0	-76.138	-78.288	3.776	B5-03822-P03-CH0	161136	OK	0.8191239	-0.3786065	-0.4309213	0	-89.272	-60.923	8.303	B5-03822-P03-CH1	161136	OK	0.7887066	-0.5304585	-0.3107341	0	-96.005	-31.136	3.022	B5-03822-P04-CH0	161136	OK	0.738556	-0.3507908	0.5757437	0	-120.466	-39.698	8.047	B5-03822-P04-CH1	161136	OK	0.7351318	-0.6744559	0.0684876	0	-108.926	-47.021	0.706	NA
1.0691156462585	B5-03822-P01-CH0	161144	OK	0.2283432	0.0219323	0.0460961	-0.9722415	103.977	-23.622	-235.224	B5-03822-P02-CH0	161144	OK	0.8173888	0.2272762	-0.5293592	0	-78.337	-98.164	6.425	B5-03822-P02-CH1	161144	OK	0.8054426	-0.1052236	-0.5832583	0	-76.349	-78.363	4.603	B5-03822-P03-CH0	161144	OK	0.8188589	-0.3784233	-0.4315854	0	-89.292	-60.882	8.204	B5-03822-P03-CH1	161144	OK	0.7886797	-0.5304517	-0.310814	0	-96.008	-31.175	3.045	B5-03822-P04-CH0	161144	OK	0.7383881	-0.3507253	0.5759989	0	-120.426	-39.721	8.048	B5-03822-P04-CH1	161144	OK	0.7353001	-0.674299	0.0682246	0	-108.958	-46.902	0.444	NA
