Wav.Time	B5.03822.P01.CH0	Frame	State	Q0	Qx	Qy	Qz	Tx	Ty	Tz	B5.03822.P02.CH0	Frame.1	State.1	Q0.1	Qx.1	Qy.1	Qz.1	Tx.1	Ty.1	Tz.1	B5.03822.P02.CH1	Frame.2	State.2	Q0.2	Qx.2	Qy.2	Qz.2	Tx.2	Ty.2	Tz.2	B5.03822.P03.CH0	Frame.3	State.3	Q0.3	Qx.3	Qy.3	Qz.3	Tx.3	Ty.3	Tz.3	B5.03822.P03.CH1	Frame.4	State.4	Q0.4	Qx.4	Qy.4	Qz.4	Tx.4	Ty.4	Tz.4	B5.03822.P04.CH0	Frame.5	State.5	Q0.5	Qx.5	Qy.5	Qz.5	Tx.5	Ty.5	Tz.5	B5.03822.P04.CH1	Frame.6	State.6	Q0.6	Qx.6	Qy.6	Qz.6	Tx.6	Ty.6	Tz.6	X
0	B5-03822-P01-CH0	870360	OK	0.209319	0.0658528	0.0742925	-0.9727947	95.518	24.176	-266.729	B5-03822-P02-CH0	870360	OK	0.7717916	0.2512345	-0.5841395	0	-88.899	-96.969	-0.469	B5-03822-P02-CH1	870360	OK	0.7269863	-0.0077197	-0.6866085	0	-84.385	-75.401	3.717	B5-03822-P03-CH0	870360	OK	0.7531349	-0.5814514	-0.307737	0	-97.528	-55.106	4.546	B5-03822-P03-CH1	870360	OK	0.7704839	-0.6197341	0.1492791	0	-105.184	-25.737	3.976	B5-03822-P04-CH0	870360	OK	0.6973644	-0.1624577	0.6980619	0	-130.403	-29.352	10.938	B5-03822-P04-CH1	870360	OK	0.7636136	-0.6448868	0.0318632	0	-114.668	-43.348	4.981	NA
0.00999196529005303	B5-03822-P01-CH0	870368	OK	0.2089825	0.0659187	0.0734386	-0.9729274	95.518	24.1	-266.764	B5-03822-P02-CH0	870368	OK	0.7726024	0.2542566	-0.5817552	0	-89.801	-97.108	0.061	B5-03822-P02-CH1	870368	OK	0.7265563	-0.0062122	-0.6870788	0	-84.378	-75.317	3.839	B5-03822-P03-CH0	870368	OK	0.7534444	-0.5816638	-0.306576	0	-98.353	-54.357	4.879	B5-03822-P03-CH1	870368	OK	0.7698413	-0.6205354	0.1492658	0	-105.235	-25.764	3.774	B5-03822-P04-CH0	870368	OK	0.6970765	-0.1625522	0.6983273	0	-130.329	-29.538	11.309	B5-03822-P04-CH1	870368	OK	0.7631014	-0.6455023	0.0316718	0	-114.53	-43.27	4.877	NA
0.0199839305801061	B5-03822-P01-CH0	870376	OK	0.208933	0.0656474	0.073493	-0.9729523	95.434	24.108	-266.887	B5-03822-P02-CH0	870376	OK	0.7729686	0.2569654	-0.5800762	0	-90.192	-96.068	2.135	B5-03822-P02-CH1	870376	OK	0.7263052	-0.004949	-0.6873545	0	-84.284	-75.333	3.695	B5-03822-P03-CH0	870376	OK	0.753824	-0.5848058	-0.2995858	0	-97.384	-55.103	5.96	B5-03822-P03-CH1	870376	OK	0.7699064	-0.6204128	0.1494395	0	-105.241	-25.755	3.927	B5-03822-P04-CH0	870376	OK	0.6971536	-0.1627291	0.6982092	0	-130.423	-29.526	11.313	B5-03822-P04-CH1	870376	OK	0.7631957	-0.6453836	0.031817	0	-114.397	-43.219	4.936	NA
0.0299758958701591	B5-03822-P01-CH0	870384	OK	0.2087479	0.0655678	0.07378	-0.9729757	95.43	24.106	-266.916	B5-03822-P02-CH0	870384	OK	0.7738816	0.2578541	-0.5784622	0	-90.935	-96.707	3.113	B5-03822-P02-CH1	870384	OK	0.7260765	-0.0035206	-0.6876049	0	-84.216	-75.258	3.665	B5-03822-P03-CH0	870384	OK	0.7540217	-0.5870164	-0.2947253	0	-97.565	-55.345	5.932	B5-03822-P03-CH1	870384	OK	0.770064	-0.6202227	0.1494162	0	-105.228	-25.688	3.779	B5-03822-P04-CH0	870384	OK	0.69719	-0.1628266	0.6981502	0	-130.412	-29.538	11.594	B5-03822-P04-CH1	870384	OK	0.7634879	-0.64505	0.0315692	0	-114.41	-43.126	4.983	NA
0.0399678611602121	B5-03822-P01-CH0	870392	OK	0.2088668	0.0657081	0.073953	-0.9729276	95.485	24.131	-266.903	B5-03822-P02-CH0	870392	OK	0.7740611	0.2595713	-0.5774531	0	-91.851	-96.174	4.118	B5-03822-P02-CH1	870392	OK	0.7257464	-0.0023625	-0.6879583	0	-84.201	-75.129	3.567	B5-03822-P03-CH0	870392	OK	0.7558705	-0.5880722	-0.2878035	0	-97.667	-54.762	6.037	B5-03822-P03-CH1	870392	OK	0.7701828	-0.6200079	0.1496949	0	-105.313	-25.715	3.799	B5-03822-P04-CH0	870392	OK	0.6972714	-0.1623135	0.6981883	0	-130.504	-29.723	11.573	B5-03822-P04-CH1	870392	OK	0.7634527	-0.6450769	0.0318707	0	-114.491	-43.257	4.827	NA
0.0499598264502651	B5-03822-P01-CH0	870400	OK	0.2086291	0.0657077	0.0740934	-0.9729679	95.459	24.208	-266.922	B5-03822-P02-CH0	870400	OK	0.7745122	0.2612339	-0.576097	0	-92.578	-95.174	5.609	B5-03822-P02-CH1	870400	OK	0.7256264	-0.000786	-0.6880885	0	-84.153	-74.979	3.517	B5-03822-P03-CH0	870400	OK	0.756878	-0.58968	-0.2818034	0	-98.197	-54.409	5.91	B5-03822-P03-CH1	870400	OK	0.7703231	-0.6198142	0.1497756	0	-105.403	-25.634	3.996	B5-03822-P04-CH0	870400	OK	0.6972762	-0.1619097	0.6982773	0	-130.566	-29.755	11.624	B5-03822-P04-CH1	870400	OK	0.7634663	-0.6450602	0.031882	0	-114.454	-43.221	4.84	NA
0.0599517917403182	B5-03822-P01-CH0	870408	OK	0.2085783	0.0656998	0.074509	-0.9729476	95.437	24.28	-266.928	B5-03822-P02-CH0	870408	OK	0.778828	0.2626094	-0.5696168	0	-91.863	-96.079	3.281	B5-03822-P02-CH1	870408	OK	0.7255748	5e-04	-0.6881431	0	-84.062	-74.862	3.322	B5-03822-P03-CH0	870408	OK	0.756375	-0.5925848	-0.27702	0	-98.457	-54.568	5.726	B5-03822-P03-CH1	870408	OK	0.7706546	-0.6193352	0.1500513	0	-105.471	-25.523	3.876	B5-03822-P04-CH0	870408	OK	0.6974866	-0.1611801	0.6982359	0	-130.643	-29.742	11.694	B5-03822-P04-CH1	870408	OK	0.7636727	-0.644805	0.0321004	0	-114.47	-43.237	4.829	NA
0.0699437570303712	B5-03822-P01-CH0	870416	OK	0.2083981	0.0656457	0.0746903	-0.972976	95.409	24.261	-266.902	B5-03822-P02-CH0	870416	OK	0.7812845	0.2625405	-0.5662746	0	-92.032	-96.341	3.454	B5-03822-P02-CH1	870416	OK	0.7258173	0.0017458	-0.6878853	0	-83.863	-74.974	2.916	B5-03822-P03-CH0	870416	OK	0.7557054	-0.5961037	-0.2712374	0	-97.904	-54.976	5.936	B5-03822-P03-CH1	870416	OK	0.7709091	-0.6190402	0.1499614	0	-105.606	-25.417	3.799	B5-03822-P04-CH0	870416	OK	0.697739	-0.1600666	0.6982399	0	-130.731	-29.86	11.908	B5-03822-P04-CH1	870416	OK	0.7638143	-0.6446411	0.0320245	0	-114.574	-43.245	4.859	NA
0.0799357223204242	B5-03822-P01-CH0	870424	OK	0.2084964	0.0656145	0.0749801	-0.9729347	95.361	24.277	-266.732	B5-03822-P02-CH0	870424	OK	0.7825594	0.2655065	-0.5631227	0	-92.454	-94.971	3.114	B5-03822-P02-CH1	870424	OK	0.7256807	0.0025741	-0.6880269	0	-83.878	-74.891	2.535	B5-03822-P03-CH0	870424	OK	0.7543296	-0.5973754	-0.2722674	0	-98.238	-54.877	4.838	B5-03822-P03-CH1	870424	OK	0.7710453	-0.6187748	0.1503558	0	-105.57	-25.43	3.481	B5-03822-P04-CH0	870424	OK	0.6977492	-0.1585479	0.6985761	0	-130.769	-30.063	11.601	B5-03822-P04-CH1	870424	OK	0.7641218	-0.6442601	0.0323551	0	-114.496	-43.202	4.735	NA
0.0899276876104773	B5-03822-P01-CH0	870432	OK	0.2088727	0.0654114	0.0754406	-0.9728321	95.257	24.351	-266.692	B5-03822-P02-CH0	870432	OK	0.7817319	0.2642138	-0.5648772	0	-93.942	-94.795	5.346	B5-03822-P02-CH1	870432	OK	0.7258475	0.003059	-0.6878489	0	-83.732	-74.809	2.295	B5-03822-P03-CH0	870432	OK	0.7548398	-0.5973117	-0.2709902	0	-97.77	-54.283	5.11	B5-03822-P03-CH1	870432	OK	0.771405	-0.6181821	0.1509481	0	-105.596	-25.436	3.318	B5-03822-P04-CH0	870432	OK	0.697805	-0.1570272	0.6988638	0	-130.774	-29.972	11.434	B5-03822-P04-CH1	870432	OK	0.7644362	-0.6438373	0.0333288	0	-114.374	-43.239	4.502	NA
0.0999196529005303	B5-03822-P01-CH0	870440	OK	0.2088233	0.065429	0.0751935	-0.9728606	95.267	24.354	-266.695	B5-03822-P02-CH0	870440	OK	0.7852904	0.262804	-0.5605828	0	-93.718	-95.122	5.911	B5-03822-P02-CH1	870440	OK	0.7262412	0.0042784	-0.6874266	0	-83.638	-74.624	2.018	B5-03822-P03-CH0	870440	OK	0.7553389	-0.597475	-0.2692338	0	-97.425	-53.763	4.605	B5-03822-P03-CH1	870440	OK	0.7711985	-0.6183639	0.151258	0	-105.723	-25.585	3.344	B5-03822-P04-CH0	870440	OK	0.697673	-0.155238	0.6993951	0	-130.785	-30.122	11.568	B5-03822-P04-CH1	870440	OK	0.7642589	-0.6440365	0.0335464	0	-114.446	-43.297	4.403	NA
0.109911618190583	B5-03822-P01-CH0	870448	OK	0.2089283	0.0653571	0.0755701	-0.9728137	95.267	24.408	-266.639	B5-03822-P02-CH0	870448	OK	0.7866791	0.264126	-0.5580085	0	-94.57	-94.244	5.536	B5-03822-P02-CH1	870448	OK	0.7268408	0.0055396	-0.6867837	0	-83.529	-74.515	1.577	B5-03822-P03-CH0	870448	OK	0.7549012	-0.59972	-0.2654432	0	-97.426	-53.915	4.8	B5-03822-P03-CH1	870448	OK	0.7714417	-0.6179455	0.1517272	0	-105.67	-25.634	3.322	B5-03822-P04-CH0	870448	OK	0.6978535	-0.1533481	0.6996319	0	-130.917	-30.19	11.532	B5-03822-P04-CH1	870448	OK	0.7644735	-0.6437669	0.03383	0	-114.623	-43.378	4.416	NA
0.119903583480636	B5-03822-P01-CH0	870456	OK	0.2090373	0.065753	0.0760863	-0.9727234	95.454	24.551	-266.57	B5-03822-P02-CH0	870456	OK	0.7903198	0.2644408	-0.5526894	0	-94.254	-94.305	4.483	B5-03822-P02-CH1	870456	OK	0.7307143	0.0145384	-0.6825286	0	-83.547	-74.043	1.867	B5-03822-P03-CH0	870456	OK	0.7537393	-0.6023892	-0.2626869	0	-97.291	-54.328	4.997	B5-03822-P03-CH1	870456	OK	0.7718634	-0.6173307	0.1520844	0	-105.95	-25.609	3.195	B5-03822-P04-CH0	870456	OK	0.6984665	-0.1506791	0.6996001	0	-131.27	-30.461	11.751	B5-03822-P04-CH1	870456	OK	0.7648308	-0.6433304	0.0340565	0	-114.949	-43.367	4.427	NA
0.129895548770689	B5-03822-P01-CH0	870464	OK	0.2092278	0.0657782	0.0757798	-0.9727047	95.447	24.558	-266.452	B5-03822-P02-CH0	870464	OK	0.7902551	0.2635343	-0.5532147	0	-95.651	-93.748	7.409	B5-03822-P02-CH1	870464	OK	0.7317194	0.018222	-0.6813624	0	-84.195	-73.678	2.456	B5-03822-P03-CH0	870464	OK	0.7537753	-0.6035112	-0.2599945	0	-96.899	-54.072	4.709	B5-03822-P03-CH1	870464	OK	0.7717395	-0.6173369	0.1526872	0	-105.944	-25.667	3.028	B5-03822-P04-CH0	870464	OK	0.6985025	-0.1485296	0.7000238	0	-131.439	-30.572	11.46	B5-03822-P04-CH1	870464	OK	0.7645013	-0.6436888	0.034676	0	-114.938	-43.548	4.294	NA
0.139887514060742	B5-03822-P01-CH0	870472	OK	0.2091036	0.0657137	0.075183	-0.9727821	95.429	24.516	-266.48	B5-03822-P02-CH0	870472	OK	0.7926367	0.2643998	-0.5493813	0	-95.753	-93.191	7.547	B5-03822-P02-CH1	870472	OK	0.7333723	0.0218941	-0.6794746	0	-84.318	-74.113	2.616	B5-03822-P03-CH0	870472	OK	0.7530779	-0.6047433	-0.2591511	0	-97.5	-54.359	5.96	B5-03822-P03-CH1	870472	OK	0.7714552	-0.6175862	0.153115	0	-105.942	-25.72	2.964	B5-03822-P04-CH0	870472	OK	0.6983562	-0.1467413	0.7005466	0	-131.528	-30.662	11.427	B5-03822-P04-CH1	870472	OK	0.7643468	-0.6438636	0.0348375	0	-114.844	-43.456	4.531	NA
0.149879479350795	B5-03822-P01-CH0	870480	OK	0.2092899	0.0657316	0.0748077	-0.9727697	95.439	24.462	-266.366	B5-03822-P02-CH0	870480	OK	0.7983041	0.2633966	-0.5416021	0	-94.559	-93.812	5.364	B5-03822-P02-CH1	870480	OK	0.7352363	0.0274989	-0.6772528	0	-83.856	-74.324	0.876	B5-03822-P03-CH0	870480	OK	0.7531804	-0.6057831	-0.2564101	0	-97.702	-54.812	4.789	B5-03822-P03-CH1	870480	OK	0.7713117	-0.6176139	0.1537248	0	-105.909	-25.815	2.816	B5-03822-P04-CH0	870480	OK	0.6982467	-0.1450153	0.701015	0	-131.642	-30.767	11.116	B5-03822-P04-CH1	870480	OK	0.7639871	-0.6442589	0.0354153	0	-114.971	-43.661	4.279	NA
0.159871444640848	B5-03822-P01-CH0	870488	OK	0.2093057	0.0654646	0.0747047	-0.9727922	95.339	24.46	-266.311	B5-03822-P02-CH0	870488	OK	0.7935222	0.2611945	-0.5496361	0	-97.587	-92.858	12.23	B5-03822-P02-CH1	870488	OK	0.7360892	0.0347635	-0.6759912	0	-84.052	-73.88	2.122	B5-03822-P03-CH0	870488	OK	0.7538697	-0.6015872	-0.2641466	0	-97.658	-54.418	4.674	B5-03822-P03-CH1	870488	OK	0.7713215	-0.617479	0.154217	0	-105.647	-25.75	2.579	B5-03822-P04-CH0	870488	OK	0.697865	-0.143519	0.7017027	0	-131.575	-30.816	10.943	B5-03822-P04-CH1	870488	OK	0.7638725	-0.6443769	0.0357384	0	-114.798	-43.698	4.133	NA
0.169863409930901	B5-03822-P01-CH0	870496	OK	0.2094438	0.0654232	0.074683	-0.9727669	95.385	24.502	-266.384	B5-03822-P02-CH0	870496	OK	0.7980296	0.2603387	-0.5434819	0	-97.073	-94.319	7.943	B5-03822-P02-CH1	870496	OK	0.7384813	0.0396617	-0.6731065	0	-84.169	-74.31	2.359	B5-03822-P03-CH0	870496	OK	0.7538951	-0.601794	-0.2636023	0	-97.547	-54.37	4.737	B5-03822-P03-CH1	870496	OK	0.7713978	-0.6172373	0.1548016	0	-105.575	-25.833	2.676	B5-03822-P04-CH0	870496	OK	0.6978666	-0.1416962	0.7020715	0	-131.651	-30.96	11.258	B5-03822-P04-CH1	870496	OK	0.7638068	-0.6444311	0.0361628	0	-114.851	-43.758	4.129	NA
0.179855375220955	B5-03822-P01-CH0	870504	OK	0.2095306	0.0654117	0.0751773	-0.972711	95.473	24.581	-266.548	B5-03822-P02-CH0	870504	OK	0.796415	0.2601908	-0.5459157	0	-98.259	-93.051	11.923	B5-03822-P02-CH1	870504	OK	0.7392956	0.0448319	-0.671887	0	-85.223	-74.306	2.96	B5-03822-P03-CH0	870504	OK	0.7532028	-0.5960658	-0.2781925	0	-97.636	-54.951	3.644	B5-03822-P03-CH1	870504	OK	0.771801	-0.6165717	0.155443	0	-105.631	-25.941	3.002	B5-03822-P04-CH0	870504	OK	0.6976657	-0.1405803	0.7024953	0	-131.718	-30.978	11.214	B5-03822-P04-CH1	870504	OK	0.7641819	-0.6439787	0.0362955	0	-114.89	-43.713	4.254	NA
0.189847340511008	B5-03822-P01-CH0	870512	OK	0.2092468	0.0654474	0.0745839	-0.9728153	95.496	24.508	-266.555	B5-03822-P02-CH0	870512	OK	0.8026225	0.2571244	-0.5382231	0	-97.021	-94.232	7.446	B5-03822-P02-CH1	870512	OK	0.7417431	0.0496946	-0.6688405	0	-85.563	-74.457	2.651	B5-03822-P03-CH0	870512	OK	0.7507988	-0.5875542	-0.3017968	0	-98.025	-55.045	3.599	B5-03822-P03-CH1	870512	OK	0.7716265	-0.6167114	0.1557549	0	-105.447	-25.851	3.034	B5-03822-P04-CH0	870512	OK	0.6973821	-0.1396294	0.7029665	0	-131.791	-31.178	11.16	B5-03822-P04-CH1	870512	OK	0.7637354	-0.6445372	0.0357779	0	-115.048	-43.733	4.251	NA
0.199839305801061	B5-03822-P01-CH0	870520	OK	0.2094194	0.0654816	0.074967	-0.9727464	95.537	24.594	-266.653	B5-03822-P02-CH0	870520	OK	0.8016342	0.2529001	-0.5416863	0	-97.898	-93.531	9.991	B5-03822-P02-CH1	870520	OK	0.7440853	0.0527127	-0.6660018	0	-85.604	-74.554	3.374	B5-03822-P03-CH0	870520	OK	0.7472173	-0.5763173	-0.3309452	0	-97.955	-55.617	2.94	B5-03822-P03-CH1	870520	OK	0.7720926	-0.6159924	0.1562893	0	-105.352	-25.774	3.321	B5-03822-P04-CH0	870520	OK	0.6977119	-0.1386833	0.7028265	0	-132.011	-31.21	11.303	B5-03822-P04-CH1	870520	OK	0.7640296	-0.6441782	0.0359611	0	-115.119	-43.686	4.369	NA
0.209831271091114	B5-03822-P01-CH0	870528	OK	0.2097044	0.0651752	0.0755529	-0.9726603	95.464	24.632	-266.679	B5-03822-P02-CH0	870528	OK	0.8010347	0.2470765	-0.5452492	0	-98.298	-92.922	10.263	B5-03822-P02-CH1	870528	OK	0.7447211	0.0574143	-0.6649015	0	-86.421	-74.697	3.062	B5-03822-P03-CH0	870528	OK	0.7427405	-0.5608098	-0.3658262	0	-97.453	-55.394	2.416	B5-03822-P03-CH1	870528	OK	0.7724898	-0.6153149	0.1569939	0	-105.293	-25.81	3.277	B5-03822-P04-CH0	870528	OK	0.6975372	-0.1382883	0.7030777	0	-132.027	-31.223	10.931	B5-03822-P04-CH1	870528	OK	0.7644184	-0.6436984	0.0362899	0	-115.038	-43.652	4.184	NA
0.219823236381167	B5-03822-P01-CH0	870536	OK	0.2093647	0.0651115	0.0748306	-0.9727936	95.424	24.512	-266.66	B5-03822-P02-CH0	870536	OK	0.8019096	0.240739	-0.5467958	0	-98.067	-92.894	10.268	B5-03822-P02-CH1	870536	OK	0.7459553	0.0626662	-0.6630412	0	-86.162	-74.193	3.498	B5-03822-P03-CH0	870536	OK	0.7363383	-0.542077	-0.4049178	0	-96.825	-55.13	2.843	B5-03822-P03-CH1	870536	OK	0.7720998	-0.6157999	0.1570111	0	-105.189	-25.753	3.239	B5-03822-P04-CH0	870536	OK	0.696953	-0.1395785	0.703402	0	-131.897	-31.035	10.726	B5-03822-P04-CH1	870536	OK	0.7639429	-0.6442905	0.035792	0	-114.849	-43.573	4.126	NA
0.22981520167122	B5-03822-P01-CH0	870544	OK	0.2092159	0.0651535	0.0751095	-0.9728012	95.485	24.586	-266.786	B5-03822-P02-CH0	870544	OK	0.8014113	0.2339722	-0.5504516	0	-98.15	-92.511	11.162	B5-03822-P02-CH1	870544	OK	0.7455788	0.0648635	-0.6632534	0	-86.301	-74.903	3.376	B5-03822-P03-CH0	870544	OK	0.7274601	-0.5156169	-0.4527042	0	-97.435	-54.295	2.217	B5-03822-P03-CH1	870544	OK	0.7720979	-0.6157097	0.1573732	0	-105.199	-25.84	3.528	B5-03822-P04-CH0	870544	OK	0.6968596	-0.1407935	0.7032524	0	-131.955	-30.821	10.8	B5-03822-P04-CH1	870544	OK	0.7641385	-0.6440877	0.0352625	0	-115.032	-43.429	4.285	NA
0.239807166961273	B5-03822-P01-CH0	870552	OK	0.209399	0.0650618	0.0758307	-0.972712	95.449	24.65	-266.717	B5-03822-P02-CH0	870552	OK	0.8006765	0.2271178	-0.5543776	0	-97.999	-92.144	10.859	B5-03822-P02-CH1	870552	OK	0.7417673	0.0697588	-0.6670195	0	-86.827	-73.785	3.538	B5-03822-P03-CH0	870552	OK	0.7193992	-0.4953842	-0.4868873	0	-95.274	-53.428	-0.155	B5-03822-P03-CH1	870552	OK	0.7723788	-0.6151838	0.1580504	0	-105.076	-25.868	3.358	B5-03822-P04-CH0	870552	OK	0.6968302	-0.1418588	0.7030674	0	-131.967	-30.696	10.588	B5-03822-P04-CH1	870552	OK	0.7643896	-0.6437998	0.0350768	0	-115.067	-43.482	4.183	NA
0.249799132251326	B5-03822-P01-CH0	870560	OK	0.2092123	0.0650246	0.0759882	-0.9727424	95.455	24.673	-266.859	B5-03822-P02-CH0	870560	OK	0.799809	0.2166987	-0.5597743	0	-97.807	-92.53	11.902	B5-03822-P02-CH1	870560	OK	0.7369792	0.071799	-0.6720911	0	-87.065	-72.961	4.309	B5-03822-P03-CH0	870560	OK	0.7160813	-0.4866926	-0.5003578	0	-94.809	-53.807	1.389	B5-03822-P03-CH1	870560	OK	0.7723663	-0.6151482	0.1582498	0	-105.103	-25.902	3.442	B5-03822-P04-CH0	870560	OK	0.6967822	-0.1430618	0.7028712	0	-131.985	-30.653	10.793	B5-03822-P04-CH1	870560	OK	0.7643725	-0.6438534	0.0344609	0	-115.042	-43.389	4.234	NA
0.259791097541379	B5-03822-P01-CH0	870568	OK	0.2091301	0.065168	0.075958	-0.9727529	95.544	24.673	-267.001	B5-03822-P02-CH0	870568	OK	0.7996713	0.2044361	-0.5645633	0	-97.548	-93.871	10.817	B5-03822-P02-CH1	870568	OK	0.7342518	0.0669347	-0.6755695	0	-86.499	-74.006	2.855	B5-03822-P03-CH0	870568	OK	0.7143514	-0.48104	-0.5082348	0	-95.356	-54.496	3.149	B5-03822-P03-CH1	870568	OK	0.7722523	-0.6152563	0.1583855	0	-105.277	-26.004	3.532	B5-03822-P04-CH0	870568	OK	0.6968209	-0.144402	0.7025586	0	-132.133	-30.634	10.904	B5-03822-P04-CH1	870568	OK	0.7644385	-0.6438175	0.0336566	0	-115.206	-43.262	4.549	NA
0.269783062831432	B5-03822-P01-CH0	870576	OK	0.208867	0.0653272	0.0757812	-0.9728125	95.549	24.648	-266.983	B5-03822-P02-CH0	870576	OK	0.799922	0.1966317	-0.566975	0	-96.317	-92.505	8.612	B5-03822-P02-CH1	870576	OK	0.7297234	0.0631853	-0.6808167	0	-86.588	-74.127	3.839	B5-03822-P03-CH0	870576	OK	0.7130241	-0.4798258	-0.5112375	0	-95.523	-54.913	3.576	B5-03822-P03-CH1	870576	OK	0.7719866	-0.6155626	0.1584909	0	-105.326	-26.108	3.511	B5-03822-P04-CH0	870576	OK	0.6966391	-0.1459775	0.7024134	0	-132.166	-30.612	10.826	B5-03822-P04-CH1	870576	OK	0.7643178	-0.6440069	0.0327637	0	-115.182	-43.108	4.535	NA
0.279775028121485	B5-03822-P01-CH0	870584	OK	0.208823	0.0649924	0.0759393	-0.972832	95.376	24.652	-266.987	B5-03822-P02-CH0	870584	OK	0.7987495	0.182784	-0.573227	0	-95.417	-92.096	8.862	B5-03822-P02-CH1	870584	OK	0.7258652	0.0610235	-0.6851247	0	-86.801	-73.897	3.442	B5-03822-P03-CH0	870584	OK	0.712146	-0.4765353	-0.5155213	0	-97.449	-53.699	0.719	B5-03822-P03-CH1	870584	OK	0.7721515	-0.615363	0.1584628	0	-105.276	-25.955	3.367	B5-03822-P04-CH0	870584	OK	0.6963301	-0.147746	0.70235	0	-132.07	-30.405	10.689	B5-03822-P04-CH1	870584	OK	0.7643184	-0.6440274	0.0323426	0	-115.11	-43.05	4.442	NA
0.289766993411538	B5-03822-P01-CH0	870592	OK	0.2085282	0.0648369	0.0761826	-0.9728866	95.312	24.663	-267.04	B5-03822-P02-CH0	870592	OK	0.7956988	0.1634657	-0.5832172	0	-95.373	-93.001	10.138	B5-03822-P02-CH1	870592	OK	0.7247489	0.0572142	-0.6866335	0	-86.207	-74.435	2.527	B5-03822-P03-CH0	870592	OK	0.7153818	-0.4746819	-0.5127436	0	-96.487	-53.989	-0.553	B5-03822-P03-CH1	870592	OK	0.7721717	-0.6153535	0.1584012	0	-105.357	-26.012	3.425	B5-03822-P04-CH0	870592	OK	0.6962185	-0.1492185	0.7021493	0	-132.09	-30.322	10.833	B5-03822-P04-CH1	870592	OK	0.7645533	-0.6437964	0.0313752	0	-115.078	-42.799	4.458	NA
0.299758958701591	B5-03822-P01-CH0	870600	OK	0.2082397	0.0646197	0.0761445	-0.9729658	95.175	24.615	-266.982	B5-03822-P02-CH0	870600	OK	0.793598	0.1467706	-0.5904749	0	-94.836	-92.293	8.758	B5-03822-P02-CH1	870600	OK	0.7240278	0.0528405	-0.6877438	0	-85.923	-74.851	0.801	B5-03822-P03-CH0	870600	OK	0.7196674	-0.4696276	-0.5113988	0	-95.861	-54.201	1.155	B5-03822-P03-CH1	870600	OK	0.7719867	-0.6155731	0.1584496	0	-105.302	-26.045	3.207	B5-03822-P04-CH0	870600	OK	0.6959809	-0.1506139	0.7020869	0	-132.087	-30.241	10.681	B5-03822-P04-CH1	870600	OK	0.7644714	-0.6439375	0.0304617	0	-115.065	-42.678	4.381	NA
0.309750923991644	B5-03822-P01-CH0	870608	OK	0.2077123	0.0648	0.0755606	-0.9731121	95.2	24.551	-267.054	B5-03822-P02-CH0	870608	OK	0.7944658	0.1287973	-0.5934941	0	-93.467	-93.137	5.585	B5-03822-P02-CH1	870608	OK	0.7228073	0.049158	-0.689299	0	-86.432	-73.564	1.783	B5-03822-P03-CH0	870608	OK	0.7236513	-0.4623937	-0.5123679	0	-97.059	-53.936	2.861	B5-03822-P03-CH1	870608	OK	0.7717342	-0.6159571	0.158187	0	-105.321	-25.943	3.255	B5-03822-P04-CH0	870608	OK	0.6957327	-0.1519722	0.7020402	0	-132.09	-30.204	11.133	B5-03822-P04-CH1	870608	OK	0.7640252	-0.6445164	0.0293948	0	-115.119	-42.599	4.67	NA
0.319742889281697	B5-03822-P01-CH0	870616	OK	0.2074773	0.0646103	0.0756599	-0.9731671	95.097	24.528	-267.103	B5-03822-P02-CH0	870616	OK	0.7921682	0.1125957	-0.5998264	0	-93.311	-93.3	6.079	B5-03822-P02-CH1	870616	OK	0.7208263	0.0428239	-0.6917915	0	-87.844	-74.552	3.062	B5-03822-P03-CH0	870616	OK	0.7280401	-0.4592659	-0.5089523	0	-98.177	-54.204	2.789	B5-03822-P03-CH1	870616	OK	0.7717079	-0.6159584	0.1583103	0	-105.258	-26.03	3.387	B5-03822-P04-CH0	870616	OK	0.6956412	-0.1522922	0.7020616	0	-132.144	-30.265	11.301	B5-03822-P04-CH1	870616	OK	0.7641325	-0.6444102	0.0289315	0	-115.137	-42.474	4.715	NA
0.32973485457175	B5-03822-P01-CH0	870624	OK	0.2071515	0.0645706	0.075278	-0.9732688	95.025	24.455	-267.123	B5-03822-P02-CH0	870624	OK	0.7910232	0.0997195	-0.6036045	0	-92.864	-93.461	6.205	B5-03822-P02-CH1	870624	OK	0.7215441	0.0377391	-0.6913392	0	-87.628	-75.058	2.692	B5-03822-P03-CH0	870624	OK	0.7348734	-0.4606745	-0.497735	0	-97.928	-54.461	3.11	B5-03822-P03-CH1	870624	OK	0.7716226	-0.6161019	0.1581675	0	-105.143	-25.927	3.406	B5-03822-P04-CH0	870624	OK	0.6952948	-0.1526959	0.702317	0	-132.174	-30.409	11.197	B5-03822-P04-CH1	870624	OK	0.763708	-0.64493	0.0285549	0	-115.094	-42.466	4.623	NA
0.339726819861803	B5-03822-P01-CH0	870632	OK	0.2065541	0.0646301	0.0745621	-0.9734469	95.017	24.306	-267.152	B5-03822-P02-CH0	870632	OK	0.7893279	0.089795	-0.60737	0	-92.988	-93.992	5.643	B5-03822-P02-CH1	870632	OK	0.7205033	0.0339351	-0.6926207	0	-88.071	-74.956	3.334	B5-03822-P03-CH0	870632	OK	0.7428031	-0.4686652	-0.4781176	0	-97.771	-54.578	5.019	B5-03822-P03-CH1	870632	OK	0.7713804	-0.6164938	0.1578216	0	-105.225	-25.907	3.584	B5-03822-P04-CH0	870632	OK	0.6950442	-0.1530436	0.7024893	0	-132.222	-30.426	11.438	B5-03822-P04-CH1	870632	OK	0.7633057	-0.6454403	0.0277693	0	-115.215	-42.341	4.634	NA
0.349718785151856	B5-03822-P01-CH0	870640	OK	0.2064459	0.0647096	0.0748238	-0.9734445	95.027	24.318	-267.166	B5-03822-P02-CH0	870640	OK	0.7871774	0.0815061	-0.6113171	0	-93.27	-94.01	6.366	B5-03822-P02-CH1	870640	OK	0.7209109	0.0295121	-0.6923991	0	-88.005	-75.468	3.01	B5-03822-P03-CH0	870640	OK	0.7485182	-0.4750661	-0.4626367	0	-98.281	-54.781	4.225	B5-03822-P03-CH1	870640	OK	0.7716732	-0.6161328	0.1578	0	-105.321	-25.876	3.697	B5-03822-P04-CH0	870640	OK	0.6951097	-0.1523825	0.7025682	0	-132.43	-30.488	11.472	B5-03822-P04-CH1	870640	OK	0.76346	-0.6452479	0.0279998	0	-115.343	-42.336	4.721	NA
0.359710750441909	B5-03822-P01-CH0	870648	OK	0.2062663	0.064565	0.0750112	-0.9734777	94.968	24.283	-267.216	B5-03822-P02-CH0	870648	OK	0.7861576	0.0767332	-0.613244	0	-93.032	-93.988	7.002	B5-03822-P02-CH1	870648	OK	0.7210717	0.0272575	-0.692324	0	-87.81	-75.33	2.764	B5-03822-P03-CH0	870648	OK	0.7539443	-0.4784795	-0.4501393	0	-97.891	-55.41	5.364	B5-03822-P03-CH1	870648	OK	0.7718846	-0.6158567	0.1578437	0	-105.217	-25.864	3.933	B5-03822-P04-CH0	870648	OK	0.6950242	-0.1516088	0.7028201	0	-132.603	-30.53	11.255	B5-03822-P04-CH1	870648	OK	0.7633711	-0.6453303	0.0285201	0	-115.418	-42.446	4.462	NA
0.369702715731962	B5-03822-P01-CH0	870656	OK	0.2064337	0.0645225	0.0755708	-0.9734018	94.961	24.299	-267.148	B5-03822-P02-CH0	870656	OK	0.788067	0.077213	-0.6107279	0	-91.815	-94.499	4.997	B5-03822-P02-CH1	870656	OK	0.7211322	0.0239811	-0.6923823	0	-87.753	-75.899	1.715	B5-03822-P03-CH0	870656	OK	0.7590813	-0.4836228	-0.4357805	0	-98.797	-56.143	5.234	B5-03822-P03-CH1	870656	OK	0.7722347	-0.6152989	0.1583059	0	-105.195	-25.889	3.874	B5-03822-P04-CH0	870656	OK	0.6949868	-0.1501062	0.7031796	0	-132.766	-30.604	11.035	B5-03822-P04-CH1	870656	OK	0.7636405	-0.6449642	0.0295699	0	-115.606	-42.556	4.225	NA
0.379694681022015	B5-03822-P01-CH0	870664	OK	0.2061459	0.0645866	0.0751254	-0.973493	94.932	24.287	-267.17	B5-03822-P02-CH0	870664	OK	0.7869469	0.0793869	-0.6118924	0	-92.608	-94.872	6.799	B5-03822-P02-CH1	870664	OK	0.7222927	0.0219164	-0.6912401	0	-87.861	-76.175	2.23	B5-03822-P03-CH0	870664	OK	0.7625284	-0.4894035	-0.423125	0	-99.005	-56.744	4.895	B5-03822-P03-CH1	870664	OK	0.7718336	-0.6157888	0.1583575	0	-105.12	-25.846	3.861	B5-03822-P04-CH0	870664	OK	0.6948484	-0.1490523	0.7035404	0	-132.835	-30.666	11.361	B5-03822-P04-CH1	870664	OK	0.7632827	-0.6453538	0.030298	0	-115.799	-42.596	4.355	NA
0.389686646312068	B5-03822-P01-CH0	870672	OK	0.2062471	0.0646604	0.075032	-0.9734739	94.942	24.274	-267.159	B5-03822-P02-CH0	870672	OK	0.7888158	0.0857577	-0.6086175	0	-92.92	-94.69	6.711	B5-03822-P02-CH1	870672	OK	0.7250566	0.0202513	-0.6883915	0	-88.546	-76.296	2.618	B5-03822-P03-CH0	870672	OK	0.7643113	-0.4923953	-0.4163833	0	-99.114	-56.515	5.855	B5-03822-P03-CH1	870672	OK	0.7715967	-0.615966	0.1588222	0	-105.075	-25.952	3.777	B5-03822-P04-CH0	870672	OK	0.6947409	-0.1481609	0.7038348	0	-132.891	-30.67	11.414	B5-03822-P04-CH1	870672	OK	0.7631452	-0.6454562	0.0315549	0	-115.872	-42.794	4.434	NA
0.399678611602121	B5-03822-P01-CH0	870680	OK	0.2061838	0.0647788	0.0752228	-0.9734647	95.01	24.287	-267.216	B5-03822-P02-CH0	870680	OK	0.7901671	0.0920065	-0.6059462	0	-93.954	-94.902	6.447	B5-03822-P02-CH1	870680	OK	0.7295721	0.0196841	-0.6836206	0	-88.923	-76.161	4.027	B5-03822-P03-CH0	870680	OK	0.7638547	-0.4910859	-0.4187608	0	-99.546	-55.947	6.114	B5-03822-P03-CH1	870680	OK	0.7716472	-0.615893	0.1588599	0	-105.203	-25.929	3.735	B5-03822-P04-CH0	870680	OK	0.6944555	-0.1474171	0.7042725	0	-132.909	-30.853	11.374	B5-03822-P04-CH1	870680	OK	0.7631653	-0.6453853	0.032506	0	-116.031	-42.951	4.548	NA
0.409670576892174	B5-03822-P01-CH0	870688	OK	0.2064746	0.0647944	0.0756277	-0.9733706	94.995	24.344	-267.179	B5-03822-P02-CH0	870688	OK	0.7931106	0.0974958	-0.6012238	0	-93.972	-94.26	6.756	B5-03822-P02-CH1	870688	OK	0.7335286	0.0178009	-0.6794255	0	-89.543	-76.123	3.789	B5-03822-P03-CH0	870688	OK	0.7619007	-0.4874256	-0.4265251	0	-98.274	-55.931	4.545	B5-03822-P03-CH1	870688	OK	0.7718195	-0.6155739	0.1592588	0	-105.267	-25.932	3.791	B5-03822-P04-CH0	870688	OK	0.6945117	-0.1466082	0.7043859	0	-133	-30.892	11.177	B5-03822-P04-CH1	870688	OK	0.7634608	-0.6449891	0.0334171	0	-116.104	-42.977	4.434	NA
0.419662542182227	B5-03822-P01-CH0	870696	OK	0.2067833	0.0648985	0.0757933	-0.9732853	95.054	24.306	-267.146	B5-03822-P02-CH0	870696	OK	0.7935631	0.0980424	-0.6005375	0	-95.15	-94.589	8.428	B5-03822-P02-CH1	870696	OK	0.7369167	0.0103827	-0.6759039	0	-89.941	-76.145	4.154	B5-03822-P03-CH0	870696	OK	0.7569589	-0.4748788	-0.4488913	0	-98.587	-54.767	5.254	B5-03822-P03-CH1	870696	OK	0.7717344	-0.6154817	0.160026	0	-105.338	-26.085	3.728	B5-03822-P04-CH0	870696	OK	0.6943712	-0.1466202	0.7045219	0	-132.995	-30.954	10.944	B5-03822-P04-CH1	870696	OK	0.7635914	-0.6447892	0.034279	0	-116.204	-43.192	4.675	NA
0.42965450747228	B5-03822-P01-CH0	870704	OK	0.206918	0.0649174	0.07591	-0.9732463	95.066	24.315	-267.089	B5-03822-P02-CH0	870704	OK	0.7974428	0.0972196	-0.5955109	0	-94.405	-94.53	6.552	B5-03822-P02-CH1	870704	OK	0.7404669	0.0010169	-0.672092	0	-89.83	-75.647	4.199	B5-03822-P03-CH0	870704	OK	0.7506232	-0.4610652	-0.4732691	0	-98.581	-54.163	5.164	B5-03822-P03-CH1	870704	OK	0.7714927	-0.615605	0.1607157	0	-105.373	-26.138	3.459	B5-03822-P04-CH0	870704	OK	0.694348	-0.1471654	0.7044311	0	-132.931	-30.865	11.066	B5-03822-P04-CH1	870704	OK	0.7638654	-0.6444401	0.0347356	0	-116.273	-43.137	4.62	NA
0.439646472762333	B5-03822-P01-CH0	870712	OK	0.2073068	0.0649277	0.0763821	-0.9731259	95.054	24.448	-267.015	B5-03822-P02-CH0	870712	OK	0.8003869	0.0934384	-0.5921571	0	-93.465	-94.792	6.431	B5-03822-P02-CH1	870712	OK	0.7426399	-0.0094859	-0.6696238	0	-89.812	-74.751	4.518	B5-03822-P03-CH0	870712	OK	0.7420332	-0.4521616	-0.4949108	0	-97.826	-53.113	5.243	B5-03822-P03-CH1	870712	OK	0.7714172	-0.6154938	0.161502	0	-105.36	-26.101	3.205	B5-03822-P04-CH0	870712	OK	0.6943378	-0.148383	0.7041857	0	-132.844	-30.715	10.911	B5-03822-P04-CH1	870712	OK	0.7642149	-0.6439894	0.0354018	0	-116.271	-43.117	4.54	NA
0.449638438052386	B5-03822-P01-CH0	870720	OK	0.2074525	0.0650105	0.0764357	-0.9730851	95.074	24.45	-266.892	B5-03822-P02-CH0	870720	OK	0.8007029	0.090561	-0.5921769	0	-93.258	-94.211	6.001	B5-03822-P02-CH1	870720	OK	0.7432034	-0.0214766	-0.6687207	0	-90.492	-75	3.964	B5-03822-P03-CH0	870720	OK	0.7253071	-0.4483453	-0.5224138	0	-97.579	-52.098	3.824	B5-03822-P03-CH1	870720	OK	0.7711387	-0.6156661	0.1621738	0	-105.357	-26.125	3.15	B5-03822-P04-CH0	870720	OK	0.6944863	-0.1666962	0.6999294	0	-131.732	-29.813	11.545	B5-03822-P04-CH1	870720	OK	0.7644207	-0.6437593	0.0351413	0	-116.205	-43.038	4.613	NA
0.459630403342439	B5-03822-P01-CH0	870728	OK	0.2075368	0.0651215	0.0762733	-0.9730725	95.073	24.494	-266.772	B5-03822-P02-CH0	870728	OK	0.8012215	0.0885785	-0.5917752	0	-92.599	-93.012	6.548	B5-03822-P02-CH1	870728	OK	0.7453543	-0.0346667	-0.6657666	0	-89.735	-74.904	2.213	B5-03822-P03-CH0	870728	OK	0.7071435	-0.4477214	-0.5472601	0	-96.097	-51.184	4.243	B5-03822-P03-CH1	870728	OK	0.7707296	-0.6160434	0.1626849	0	-105.475	-26.091	3.154	B5-03822-P04-CH0	870728	OK	0.6932435	-0.1725087	0.699753	0	-130.943	-28.529	11.636	B5-03822-P04-CH1	870728	OK	0.7645007	-0.6436934	0.0346051	0	-116.147	-42.896	4.777	NA
0.469622368632492	B5-03822-P01-CH0	870736	OK	0.2073839	0.0650659	0.0759525	-0.9731339	94.976	24.513	-266.739	B5-03822-P02-CH0	870736	OK	0.8004318	0.0831755	-0.5936251	0	-92.041	-93.544	7.175	B5-03822-P02-CH1	870736	OK	0.7458835	-0.0464754	-0.664453	0	-89.876	-74.31	4.086	B5-03822-P03-CH0	870736	OK	0.6937585	-0.4488828	-0.5632081	0	-96.395	-49.95	0.376	B5-03822-P03-CH1	870736	OK	0.7701656	-0.6166731	0.1629702	0	-105.398	-25.95	3.087	B5-03822-P04-CH0	870736	OK	0.6925415	-0.1700658	0.7010449	0	-130.528	-29.729	11.666	B5-03822-P04-CH1	870736	OK	0.7644765	-0.6437915	0.0332898	0	-115.935	-42.688	5.156	NA
0.479614333922545	B5-03822-P01-CH0	870744	OK	0.2075123	0.0653612	0.0758871	-0.9730918	95.096	24.477	-266.609	B5-03822-P02-CH0	870744	OK	0.7992014	0.0783111	-0.59594	0	-91.301	-93.697	5.834	B5-03822-P02-CH1	870744	OK	0.7477304	-0.058599	-0.6614116	0	-89.997	-75.154	4.479	B5-03822-P03-CH0	870744	OK	0.6885492	-0.4507621	-0.5680788	0	-95.311	-50.315	2.129	B5-03822-P03-CH1	870744	OK	0.7697685	-0.6169997	0.1636087	0	-105.436	-26.093	3.123	B5-03822-P04-CH0	870744	OK	0.6930613	-0.1711643	0.7002634	0	-130.891	-28.807	10.411	B5-03822-P04-CH1	870744	OK	0.7645586	-0.6437467	0.0322544	0	-115.676	-42.62	5.122	NA
0.489606299212598	B5-03822-P01-CH0	870752	OK	0.2075617	0.0654655	0.0757969	-0.9730813	95.106	24.533	-266.493	B5-03822-P02-CH0	870752	OK	0.7958703	0.0720343	-0.6011668	0	-91.303	-94.378	5.957	B5-03822-P02-CH1	870752	OK	0.7503106	-0.0684576	-0.6575315	0	-89.929	-74.612	3.799	B5-03822-P03-CH0	870752	OK	0.6842155	-0.449385	-0.5743712	0	-96.424	-50.323	1.052	B5-03822-P03-CH1	870752	OK	0.769553	-0.6172063	0.1638433	0	-105.37	-25.935	3.158	B5-03822-P04-CH0	870752	OK	0.6937329	-0.1619729	0.701783	0	-131.742	-29.658	10.814	B5-03822-P04-CH1	870752	OK	0.7645401	-0.6438151	0.0313142	0	-115.58	-42.512	5.095	NA
0.499598264502651	B5-03822-P01-CH0	870760	OK	0.2074376	0.0655257	0.0749068	-0.9731726	95.064	24.472	-266.346	B5-03822-P02-CH0	870760	OK	0.7927988	0.0678336	-0.6056968	0	-91.12	-93.668	7.769	B5-03822-P02-CH1	870760	OK	0.7508025	-0.0742937	-0.6563353	0	-90.566	-74.72	4.076	B5-03822-P03-CH0	870760	OK	0.6844325	-0.4441078	-0.5782044	0	-97.592	-49.167	-0.212	B5-03822-P03-CH1	870760	OK	0.7687737	-0.6180819	0.1642004	0	-105.102	-25.878	3.164	B5-03822-P04-CH0	870760	OK	0.6935034	-0.1643016	0.7014684	0	-131.571	-29.44	10.753	B5-03822-P04-CH1	870760	OK	0.7641961	-0.6442732	0.030272	0	-115.216	-42.337	5.128	NA
0.509590229792704	B5-03822-P01-CH0	870768	OK	0.2073075	0.0656467	0.074471	-0.9732257	95.081	24.465	-266.307	B5-03822-P02-CH0	870768	OK	0.7915761	0.0657604	-0.6075219	0	-90.933	-93.845	4.86	B5-03822-P02-CH1	870768	OK	0.7530132	-0.077625	-0.6534107	0	-90.424	-74.491	3.853	B5-03822-P03-CH0	870768	OK	0.6902745	-0.4380651	-0.5758647	0	-95.027	-50.705	1.26	B5-03822-P03-CH1	870768	OK	0.7682446	-0.6187175	0.1642833	0	-105.107	-25.944	3.304	B5-03822-P04-CH0	870768	OK	0.6930471	-0.1665348	0.7013928	0	-131.366	-29.221	10.521	B5-03822-P04-CH1	870768	OK	0.7640214	-0.6445163	0.0294946	0	-115.075	-42.28	5.203	NA
0.519582195082757	B5-03822-P01-CH0	870776	OK	0.2070187	0.0658081	0.0735897	-0.9733433	95.046	24.483	-266.22	B5-03822-P02-CH0	870776	OK	0.7910801	0.0630646	-0.6084531	0	-90.824	-94.423	3.993	B5-03822-P02-CH1	870776	OK	0.7554296	-0.0793119	-0.650412	0	-90.437	-74.425	3.74	B5-03822-P03-CH0	870776	OK	0.6947911	-0.4297649	-0.5766867	0	-95.751	-51.899	3.559	B5-03822-P03-CH1	870776	OK	0.7676928	-0.6195277	0.1638082	0	-104.993	-25.742	3.405	B5-03822-P04-CH0	870776	OK	0.6925535	-0.1684667	0.701419	0	-131.164	-28.953	10.51	B5-03822-P04-CH1	870776	OK	0.7634789	-0.6452152	0.0282368	0	-115.038	-42.135	4.951	NA
0.529574160372811	B5-03822-P01-CH0	870784	OK	0.2070458	0.0658088	0.0734374	-0.9733489	95.029	24.495	-266.205	B5-03822-P02-CH0	870784	OK	0.7917953	0.0602229	-0.6078104	0	-90.553	-94.597	5.241	B5-03822-P02-CH1	870784	OK	0.7585188	-0.080783	-0.6466245	0	-90.635	-74.929	4.07	B5-03822-P03-CH0	870784	OK	0.7032546	-0.4192906	-0.5741326	0	-97.298	-50.98	3.505	B5-03822-P03-CH1	870784	OK	0.7674529	-0.619843	0.1637396	0	-104.884	-25.832	3.515	B5-03822-P04-CH0	870784	OK	0.6921444	-0.1698513	0.7014889	0	-130.976	-28.816	10.608	B5-03822-P04-CH1	870784	OK	0.7633815	-0.6453567	0.0276285	0	-114.877	-42.192	5.06	NA
0.539566125662864	B5-03822-P01-CH0	870792	OK	0.206782	0.0659091	0.0727332	-0.9734511	95.002	24.417	-266.116	B5-03822-P02-CH0	870792	OK	0.7927271	0.0601068	-0.6066061	0	-90.464	-94.244	4.842	B5-03822-P02-CH1	870792	OK	0.7627932	-0.0780022	-0.6419207	0	-90.622	-74.764	3.38	B5-03822-P03-CH0	870792	OK	0.7108933	-0.413706	-0.5687512	0	-98.053	-51.41	2.252	B5-03822-P03-CH1	870792	OK	0.7670915	-0.6204501	0.1631327	0	-104.739	-25.755	3.626	B5-03822-P04-CH0	870792	OK	0.6917028	-0.1707201	0.7017135	0	-130.81	-28.902	10.856	B5-03822-P04-CH1	870792	OK	0.7629419	-0.6459118	0.0267893	0	-114.692	-42.23	5.106	NA
0.549558090952917	B5-03822-P01-CH0	870800	OK	0.2066331	0.0659134	0.0722066	-0.9735217	94.962	24.438	-266.106	B5-03822-P02-CH0	870800	OK	0.7920849	0.0572213	-0.607723	0	-90.597	-94.13	5.525	B5-03822-P02-CH1	870800	OK	0.7635874	-0.0785302	-0.6409113	0	-91.424	-74.81	5.009	B5-03822-P03-CH0	870800	OK	0.717459	-0.4132373	-0.5607919	0	-98.24	-51.434	3.294	B5-03822-P03-CH1	870800	OK	0.766771	-0.6209333	0.1628007	0	-104.574	-25.7	3.484	B5-03822-P04-CH0	870800	OK	0.6913522	-0.1713456	0.7019066	0	-130.744	-28.878	10.94	B5-03822-P04-CH1	870800	OK	0.7625547	-0.6463786	0.0265517	0	-114.573	-42.295	5.198	NA
0.55955005624297	B5-03822-P01-CH0	870808	OK	0.2065548	0.0660216	0.0715454	-0.9735797	94.959	24.416	-266.047	B5-03822-P02-CH0	870808	OK	0.7893797	0.0518534	-0.6117115	0	-91.089	-94.457	7.037	B5-03822-P02-CH1	870808	OK	0.7655553	-0.0787269	-0.6385352	0	-91.01	-74.498	5.266	B5-03822-P03-CH0	870808	OK	0.7218335	-0.4179099	-0.5516409	0	-98.009	-51.676	3.32	B5-03822-P03-CH1	870808	OK	0.7663865	-0.6214592	0.1626047	0	-104.435	-25.768	3.331	B5-03822-P04-CH0	870808	OK	0.6909635	-0.1722712	0.7020627	0	-130.656	-28.908	10.912	B5-03822-P04-CH1	870808	OK	0.7623593	-0.6466185	0.0263197	0	-114.452	-42.219	5.304	NA
0.569542021533023	B5-03822-P01-CH0	870816	OK	0.2064474	0.0661674	0.0709372	-0.9736371	95.023	24.348	-265.911	B5-03822-P02-CH0	870816	OK	0.7897675	0.0478195	-0.6115396	0	-90.227	-94.91	4.735	B5-03822-P02-CH1	870816	OK	0.7661516	-0.080134	-0.6376443	0	-90.891	-74.585	5.021	B5-03822-P03-CH0	870816	OK	0.7253493	-0.42577	-0.5409143	0	-98.445	-51.633	3.134	B5-03822-P03-CH1	870816	OK	0.7661986	-0.62176	0.1623398	0	-104.477	-25.899	3.346	B5-03822-P04-CH0	870816	OK	0.6905835	-0.1736956	0.7020857	0	-130.646	-28.858	10.81	B5-03822-P04-CH1	870816	OK	0.7619608	-0.6470856	0.0263815	0	-114.429	-42.334	5.016	NA
0.579533986823076	B5-03822-P01-CH0	870824	OK	0.2060733	0.0662452	0.0702849	-0.9737584	95.014	24.384	-265.87	B5-03822-P02-CH0	870824	OK	0.7896511	0.045139	-0.6118935	0	-89.52	-94.448	4.862	B5-03822-P02-CH1	870824	OK	0.766592	-0.0805368	-0.637064	0	-90.957	-74.792	4.087	B5-03822-P03-CH0	870824	OK	0.7298036	-0.4326941	-0.5293038	0	-98.594	-51.351	3.975	B5-03822-P03-CH1	870824	OK	0.7660678	-0.6220529	0.1618342	0	-104.42	-25.763	3.431	B5-03822-P04-CH0	870824	OK	0.6902017	-0.176309	0.7018096	0	-130.572	-28.569	10.773	B5-03822-P04-CH1	870824	OK	0.7615618	-0.6475723	0.0259546	0	-114.695	-42.303	5.056	NA
0.589525952113129	B5-03822-P01-CH0	870832	OK	0.2062265	0.0662614	0.0703503	-0.9737201	94.99	24.417	-265.847	B5-03822-P02-CH0	870832	OK	0.7876084	0.0436902	-0.6146252	0	-89.681	-94.508	6.567	B5-03822-P02-CH1	870832	OK	0.7643919	-0.0809583	-0.639649	0	-91.607	-75.129	4.652	B5-03822-P03-CH0	870832	OK	0.7330601	-0.4427514	-0.5163276	0	-99.721	-51.991	3.594	B5-03822-P03-CH1	870832	OK	0.7663879	-0.6216331	0.1619318	0	-104.458	-25.799	3.419	B5-03822-P04-CH0	870832	OK	0.6897217	-0.1797359	0.7014121	0	-130.317	-28.339	10.696	B5-03822-P04-CH1	870832	OK	0.7616265	-0.6474778	0.0264115	0	-114.64	-42.385	4.904	NA
0.599517917403182	B5-03822-P01-CH0	870840	OK	0.2065546	0.0662114	0.0705952	-0.9736363	94.98	24.473	-265.859	B5-03822-P02-CH0	870840	OK	0.7876112	0.0431273	-0.6146614	0	-89.173	-95.806	5.067	B5-03822-P02-CH1	870840	OK	0.7632826	-0.0779432	-0.6413459	0	-91.044	-74.641	5.325	B5-03822-P03-CH0	870840	OK	0.7407102	-0.4568539	-0.4925778	0	-98.312	-52.362	4.14	B5-03822-P03-CH1	870840	OK	0.7667305	-0.6210949	0.1623744	0	-104.523	-25.893	3.399	B5-03822-P04-CH0	870840	OK	0.6884845	-0.2049697	0.6956842	0	-129.47	-29.155	11.022	B5-03822-P04-CH1	870840	OK	0.7617815	-0.6472654	0.027136	0	-114.679	-42.534	4.843	NA
0.609509882693235	B5-03822-P01-CH0	870848	OK	0.2066116	0.0660001	0.0708751	-0.9736182	94.891	24.596	-265.756	B5-03822-P02-CH0	870848	OK	0.7853333	0.0459038	-0.6173689	0	-89.529	-95.548	5.42	B5-03822-P02-CH1	870848	OK	0.760566	-0.0729685	-0.6451472	0	-91.064	-74.028	4.852	B5-03822-P03-CH0	870848	OK	0.7477241	-0.4702218	-0.4688286	0	-98.202	-52.221	5.352	B5-03822-P03-CH1	870848	OK	0.7670921	-0.6206257	0.1624607	0	-104.4	-25.708	3.181	B5-03822-P04-CH0	870848	OK	0.688825	-0.215551	0.6921401	0	-129.433	-30.054	12.832	B5-03822-P04-CH1	870848	OK	0.762073	-0.6469099	0.0274282	0	-114.806	-42.447	4.625	NA
0.619501847983288	B5-03822-P01-CH0	870856	OK	0.2066709	0.0661	0.0707094	-0.9736109	94.932	24.642	-265.739	B5-03822-P02-CH0	870856	OK	0.7835049	0.0506156	-0.6193207	0	-89.716	-94.976	5.652	B5-03822-P02-CH1	870856	OK	0.7585922	-0.0687205	-0.6479316	0	-90.319	-74.846	3.632	B5-03822-P03-CH0	870856	OK	0.7537121	-0.4832906	-0.4453632	0	-99.468	-52.872	5.88	B5-03822-P03-CH1	870856	OK	0.7670843	-0.6205924	0.1626246	0	-104.408	-25.692	3.073	B5-03822-P04-CH0	870856	OK	0.6862131	-0.2333174	0.6889663	0	-128.444	-29.078	11.996	B5-03822-P04-CH1	870856	OK	0.7620858	-0.6468656	0.0281078	0	-114.883	-42.505	4.765	NA
0.629493813273341	B5-03822-P01-CH0	870864	OK	0.2065933	0.0661427	0.0700938	-0.9736689	94.935	24.635	-265.704	B5-03822-P02-CH0	870864	OK	0.7831268	0.05232	-0.6196571	0	-89.249	-95.715	4.803	B5-03822-P02-CH1	870864	OK	0.7562289	-0.0642796	-0.6511421	0	-89.481	-75.364	2.691	B5-03822-P03-CH0	870864	OK	0.7610588	-0.4954288	-0.418736	0	-99.576	-53.485	6.902	B5-03822-P03-CH1	870864	OK	0.7669648	-0.6207936	0.1624204	0	-104.515	-25.567	3.139	B5-03822-P04-CH0	870864	OK	0.6841405	-0.2483679	0.6857589	0	-128.093	-29.583	12.508	B5-03822-P04-CH1	870864	OK	0.7618887	-0.6470732	0.0286677	0	-114.909	-42.531	4.88	NA
0.639485778563394	B5-03822-P01-CH0	870872	OK	0.2070041	0.0660773	0.0708034	-0.9735348	94.973	24.815	-265.702	B5-03822-P02-CH0	870872	OK	0.7821352	0.0564449	-0.6205469	0	-88.883	-95.961	5.072	B5-03822-P02-CH1	870872	OK	0.7523467	-0.0613484	-0.6559046	0	-89.407	-76.385	2.198	B5-03822-P03-CH0	870872	OK	0.7701867	-0.5051681	-0.3893812	0	-99.668	-52.972	7.879	B5-03822-P03-CH1	870872	OK	0.7673672	-0.6201592	0.1629424	0	-104.656	-25.663	3.233	B5-03822-P04-CH0	870872	OK	0.6829667	-0.2607213	0.6823348	0	-127.93	-29.7	13.673	B5-03822-P04-CH1	870872	OK	0.7626283	-0.646151	0.0297831	0	-115.055	-42.461	4.906	NA
0.649477743853447	B5-03822-P01-CH0	870880	OK	0.2072862	0.0660618	0.0711057	-0.9734538	94.995	24.876	-265.605	B5-03822-P02-CH0	870880	OK	0.7802586	0.0618446	-0.622392	0	-89.319	-96.523	4.175	B5-03822-P02-CH1	870880	OK	0.7506939	-0.0564548	-0.6582336	0	-88.37	-76.847	1.399	B5-03822-P03-CH0	870880	OK	0.7771312	-0.5212213	-0.3526975	0	-99.106	-54.335	6.888	B5-03822-P03-CH1	870880	OK	0.7675959	-0.6198249	0.1631368	0	-104.72	-25.639	3.284	B5-03822-P04-CH0	870880	OK	0.6803303	-0.2748469	0.6794187	0	-127.203	-29.573	12.082	B5-03822-P04-CH1	870880	OK	0.7629867	-0.6456836	0.0307236	0	-115.133	-42.524	4.788	NA
0.6594697091435	B5-03822-P01-CH0	870888	OK	0.2076166	0.0661528	0.0716805	-0.973335	95.049	25.063	-265.656	B5-03822-P02-CH0	870888	OK	0.7793111	0.0678376	-0.6229544	0	-89.324	-97.136	3.213	B5-03822-P02-CH1	870888	OK	0.7471677	-0.0507463	-0.6626954	0	-88.903	-76.699	2.93	B5-03822-P03-CH0	870888	OK	0.7829421	-0.5301448	-0.3254967	0	-100.051	-54.874	7.894	B5-03822-P03-CH1	870888	OK	0.7679638	-0.6192774	0.1634842	0	-104.839	-25.576	3.52	B5-03822-P04-CH0	870888	OK	0.6799189	-0.2849227	0.6756695	0	-126.694	-29.912	13.491	B5-03822-P04-CH1	870888	OK	0.7632708	-0.6452919	0.031875	0	-115.264	-42.686	4.858	NA
0.669461674433553	B5-03822-P01-CH0	870896	OK	0.2078035	0.0662348	0.0715591	-0.9732985	95.074	25.133	-265.665	B5-03822-P02-CH0	870896	OK	0.7767084	0.0733216	-0.6255782	0	-90.15	-96.979	4.062	B5-03822-P02-CH1	870896	OK	0.7450916	-0.0447099	-0.6654619	0	-89.151	-75.91	4.208	B5-03822-P03-CH0	870896	OK	0.790418	-0.5329202	-0.3020522	0	-99.37	-55.079	8.935	B5-03822-P03-CH1	870896	OK	0.7678159	-0.6193698	0.1638288	0	-104.71	-25.501	3.332	B5-03822-P04-CH0	870896	OK	0.6793641	-0.2955474	0.6716518	0	-126.598	-28.793	11.131	B5-03822-P04-CH1	870896	OK	0.7631955	-0.6453335	0.0328228	0	-115.353	-42.844	4.886	NA
0.679453639723606	B5-03822-P01-CH0	870904	OK	0.2081897	0.0660943	0.0716927	-0.9732157	95.055	25.138	-265.632	B5-03822-P02-CH0	870904	OK	0.7780683	0.0742039	-0.6237816	0	-88.846	-97.813	2.745	B5-03822-P02-CH1	870904	OK	0.7449035	-0.0424767	-0.6658187	0	-88.712	-77.289	3.753	B5-03822-P03-CH0	870904	OK	0.7963293	-0.5313979	-0.2889221	0	-100.081	-55.408	9.371	B5-03822-P03-CH1	870904	OK	0.7678096	-0.6192962	0.1641358	0	-104.574	-25.562	3.041	B5-03822-P04-CH0	870904	OK	0.6817718	-0.2926119	0.6704964	0	-127.257	-30.27	14.257	B5-03822-P04-CH1	870904	OK	0.763376	-0.6450523	0.0341279	0	-115.16	-43.031	4.82	NA
0.689445605013659	B5-03822-P01-CH0	870912	OK	0.2082693	0.0661433	0.0715267	-0.9732075	95.068	25.193	-265.515	B5-03822-P02-CH0	870912	OK	0.7748495	0.0747145	-0.6277149	0	-89.837	-97.595	4.203	B5-03822-P02-CH1	870912	OK	0.7434489	-0.0371956	-0.6677576	0	-88.964	-76.993	3.75	B5-03822-P03-CH0	870912	OK	0.8010581	-0.5297428	-0.2787088	0	-100.433	-56.497	9.834	B5-03822-P03-CH1	870912	OK	0.7677495	-0.6193399	0.1642523	0	-104.573	-25.533	3.114	B5-03822-P04-CH0	870912	OK	0.6816065	-0.2929257	0.6705275	0	-126.757	-30.376	14.921	B5-03822-P04-CH1	870912	OK	0.7633825	-0.6450161	0.0346621	0	-115.299	-43.051	4.835	NA
0.699437570303712	B5-03822-P01-CH0	870920	OK	0.2082115	0.0661901	0.071415	-0.9732249	95.115	25.239	-265.505	B5-03822-P02-CH0	870920	OK	0.7753314	0.0745126	-0.6271436	0	-89.206	-98.628	3.103	B5-03822-P02-CH1	870920	OK	0.7428575	-0.0299447	-0.6687795	0	-88.659	-76.891	3.549	B5-03822-P03-CH0	870920	OK	0.8066801	-0.5269505	-0.2675637	0	-101.599	-56.788	10.476	B5-03822-P03-CH1	870920	OK	0.7678384	-0.6193351	0.1638542	0	-104.576	-25.51	3.276	B5-03822-P04-CH0	870920	OK	0.682776	-0.290011	0.6706046	0	-127.563	-30.444	13.272	B5-03822-P04-CH1	870920	OK	0.7633637	-0.645007	0.0352413	0	-115.355	-43.094	4.917	NA
0.709429535593765	B5-03822-P01-CH0	870928	OK	0.2085195	0.0663626	0.071421	-0.9731468	95.229	25.267	-265.581	B5-03822-P02-CH0	870928	OK	0.7745186	0.0721561	-0.6284222	0	-89.131	-99.069	2.61	B5-03822-P02-CH1	870928	OK	0.743158	-0.027137	-0.6685655	0	-87.893	-78.491	2.493	B5-03822-P03-CH0	870928	OK	0.8128206	-0.5249878	-0.2524095	0	-101.401	-57.618	11.292	B5-03822-P03-CH1	870928	OK	0.7679921	-0.6191324	0.1639002	0	-104.526	-25.713	3.46	B5-03822-P04-CH0	870928	OK	0.6823645	-0.2882829	0.6717676	0	-127.856	-29.575	9.04	B5-03822-P04-CH1	870928	OK	0.7633624	-0.644935	0.0365611	0	-115.288	-43.344	5.238	NA
0.719421500883818	B5-03822-P01-CH0	870936	OK	0.2087395	0.0662498	0.0717284	-0.9730847	95.227	25.335	-265.521	B5-03822-P02-CH0	870936	OK	0.7738874	0.0705797	-0.6293781	0	-88.991	-98.611	3.035	B5-03822-P02-CH1	870936	OK	0.7419108	-0.0239585	-0.6700704	0	-88.266	-78.728	1.443	B5-03822-P03-CH0	870936	OK	0.8191374	-0.5196869	-0.2427744	0	-101.626	-57.967	10.82	B5-03822-P03-CH1	870936	OK	0.7714114	-0.6156844	0.1608013	0	-103.961	-25.897	4.341	B5-03822-P04-CH0	870936	OK	0.6840643	-0.2751005	0.6755559	0	-127.74	-30.452	13.02	B5-03822-P04-CH1	870936	OK	0.76354	-0.6446703	0.0375081	0	-115.295	-43.435	5.087	NA
0.729413466173871	B5-03822-P01-CH0	870944	OK	0.2090773	0.0662968	0.0720914	-0.9729821	95.285	25.375	-265.502	B5-03822-P02-CH0	870944	OK	0.7731302	0.065205	-0.6308866	0	-89.442	-99.266	3.319	B5-03822-P02-CH1	870944	OK	0.7411791	-0.0234573	-0.6708974	0	-88.485	-78.828	1.859	B5-03822-P03-CH0	870944	OK	0.82494	-0.5120902	-0.239244	0	-101.876	-57.798	11.915	B5-03822-P03-CH1	870944	OK	0.7720865	-0.6153508	0.1588263	0	-104.03	-26.069	3.672	B5-03822-P04-CH0	870944	OK	0.6860128	-0.260269	0.6794457	0	-128.452	-31.507	12.668	B5-03822-P04-CH1	870944	OK	0.7635427	-0.644592	0.0387764	0	-115.497	-43.751	4.801	NA
0.739405431463924	B5-03822-P01-CH0	870952	OK	0.2091235	0.0664393	0.0718803	-0.9729781	95.327	25.397	-265.497	B5-03822-P02-CH0	870952	OK	0.7730293	0.0606012	-0.6314691	0	-89.334	-99.49	3.393	B5-03822-P02-CH1	870952	OK	0.7404553	-0.0259151	-0.6716058	0	-88.748	-79.671	1.18	B5-03822-P03-CH0	870952	OK	0.8267702	-0.5102375	-0.2368729	0	-101.991	-58.658	11.421	B5-03822-P03-CH1	870952	OK	0.7721199	-0.6157719	0.1570215	0	-104.294	-26.51	4.176	B5-03822-P04-CH0	870952	OK	0.6893821	-0.2462692	0.6812516	0	-129.245	-31.494	12.925	B5-03822-P04-CH1	870952	OK	0.7631578	-0.6449723	0.0400118	0	-115.576	-44.041	4.638	NA
0.749397396753977	B5-03822-P01-CH0	870960	OK	0.2092438	0.0664039	0.0716431	-0.9729721	95.293	25.427	-265.532	B5-03822-P02-CH0	870960	OK	0.7723837	0.0540481	-0.6328525	0	-88.823	-100.142	2.23	B5-03822-P02-CH1	870960	OK	0.7394619	-0.0296339	-0.6725459	0	-88.78	-78.866	1.972	B5-03822-P03-CH0	870960	OK	0.8264532	-0.5103757	-0.2376798	0	-102.353	-59.374	11.254	B5-03822-P03-CH1	870960	OK	0.7728758	-0.6154296	0.1546266	0	-104.823	-26.563	4.99	B5-03822-P04-CH0	870960	OK	0.6916067	-0.2330062	0.683658	0	-129.765	-31.013	12.636	B5-03822-P04-CH1	870960	OK	0.7630089	-0.6450656	0.0413254	0	-115.604	-44.167	4.618	NA
0.75938936204403	B5-03822-P01-CH0	870968	OK	0.2093382	0.0661777	0.0716175	-0.9729692	95.219	25.351	-265.451	B5-03822-P02-CH0	870968	OK	0.7715475	0.0484549	-0.6343238	0	-87.966	-100.594	1.822	B5-03822-P02-CH1	870968	OK	0.7372031	-0.0344747	-0.6747912	0	-89.304	-79.021	2.83	B5-03822-P03-CH0	870968	OK	0.8255423	-0.5122361	-0.2368419	0	-102.557	-60.229	10.901	B5-03822-P03-CH1	870968	OK	0.7742314	-0.6140835	0.1531902	0	-104.112	-26.181	4.589	B5-03822-P04-CH0	870968	OK	0.6917144	-0.2131465	0.6899999	0	-130.483	-33.252	12.687	B5-03822-P04-CH1	870968	OK	0.7630072	-0.6449673	0.0428625	0	-115.618	-44.374	4.255	NA
0.769381327334083	B5-03822-P01-CH0	870976	OK	0.2097837	0.0659595	0.0723168	-0.9728363	95.164	25.429	-265.369	B5-03822-P02-CH0	870976	OK	0.7690708	0.046358	-0.6374802	0	-88.616	-99.74	3.435	B5-03822-P02-CH1	870976	OK	0.7369946	-0.0380143	-0.6748288	0	-89.226	-79.069	2.892	B5-03822-P03-CH0	870976	OK	0.825653	-0.5143251	-0.2318767	0	-103.167	-60.423	10.647	B5-03822-P03-CH1	870976	OK	0.7748745	-0.6131308	0.1537535	0	-103.448	-26.567	4.929	B5-03822-P04-CH0	870976	OK	0.6923016	-0.1949286	0.6947815	0	-131.408	-33.399	12.843	B5-03822-P04-CH1	870976	OK	0.7635825	-0.6441438	0.0449501	0	-115.67	-44.519	4.175	NA
0.779373292624136	B5-03822-P01-CH0	870984	OK	0.2100627	0.0659567	0.0727544	-0.9727436	95.191	25.579	-265.423	B5-03822-P02-CH0	870984	OK	0.7690395	0.0440347	-0.6376826	0	-88.595	-100.191	3.448	B5-03822-P02-CH1	870984	OK	0.7366918	-0.0425955	-0.6748858	0	-89.026	-79.603	2.729	B5-03822-P03-CH0	870984	OK	0.8254128	-0.5197423	-0.2203672	0	-102.624	-60.695	11.168	B5-03822-P03-CH1	870984	OK	0.7764398	-0.6114247	0.152647	0	-103.725	-26.044	5.794	B5-03822-P04-CH0	870984	OK	0.6933442	-0.1797461	0.6978289	0	-132.615	-33.446	13.455	B5-03822-P04-CH1	870984	OK	0.7638892	-0.6436514	0.0467563	0	-115.945	-44.641	4.181	NA
0.789365257914189	B5-03822-P01-CH0	870992	OK	0.2100682	0.0659435	0.0725808	-0.9727563	95.232	25.569	-265.456	B5-03822-P02-CH0	870992	OK	0.7713879	0.0413974	-0.6350173	0	-87.688	-100.875	2.192	B5-03822-P02-CH1	870992	OK	0.7365829	-0.0445033	-0.6748815	0	-88.914	-80.157	2.181	B5-03822-P03-CH0	870992	OK	0.8251477	-0.521183	-0.217944	0	-103.074	-60.358	11.388	B5-03822-P03-CH1	870992	OK	0.7763101	-0.6117638	0.1519468	0	-104.168	-26.213	5.536	B5-03822-P04-CH0	870992	OK	0.6921108	-0.167978	0.7019729	0	-133.002	-34.704	13.432	B5-03822-P04-CH1	870992	OK	0.7638568	-0.6435703	0.048374	0	-116.197	-44.835	4.184	NA
0.799357223204242	B5-03822-P01-CH0	871000	OK	0.210231	0.0660742	0.0724592	-0.9727213	95.274	25.572	-265.4	B5-03822-P02-CH0	871000	OK	0.7709201	0.0432052	-0.6354648	0	-88.333	-100.671	2.46	B5-03822-P02-CH1	871000	OK	0.7351211	-0.0410885	-0.6766895	0	-88.968	-79.823	2.86	B5-03822-P03-CH0	871000	OK	0.8246015	-0.5237142	-0.2139062	0	-103.112	-60.575	11.421	B5-03822-P03-CH1	871000	OK	0.7757351	-0.6124431	0.1521463	0	-104.809	-26.636	4.566	B5-03822-P04-CH0	871000	OK	0.69302	-0.1615941	0.7025742	0	-134.11	-34.097	12.919	B5-03822-P04-CH1	871000	OK	0.7637297	-0.6435856	0.0501447	0	-116.539	-45.14	4.096	NA
0.809349188494295	B5-03822-P01-CH0	871008	OK	0.2102401	0.0660398	0.0723429	-0.9727304	95.237	25.578	-265.282	B5-03822-P02-CH0	871008	OK	0.7699118	0.0503255	-0.6361629	0	-89.072	-100.204	2.856	B5-03822-P02-CH1	871008	OK	0.7338986	-0.0375565	-0.67822	0	-88.663	-80.365	1.526	B5-03822-P03-CH0	871008	OK	0.8230192	-0.5287886	-0.2074176	0	-103.227	-61.204	11.067	B5-03822-P03-CH1	871008	OK	0.7751408	-0.6126927	0.1541574	0	-104.627	-27.021	4.735	B5-03822-P04-CH0	871008	OK	0.6918243	-0.156736	0.7048496	0	-133.706	-34.259	13.644	B5-03822-P04-CH1	871008	OK	0.7636052	-0.6436264	0.0514994	0	-116.682	-45.318	3.772	NA
0.819341153784348	B5-03822-P01-CH0	871016	OK	0.2104019	0.0659425	0.0723886	-0.9726986	95.204	25.586	-265.241	B5-03822-P02-CH0	871016	OK	0.7693663	0.0582755	-0.6361443	0	-89.564	-100.246	2.537	B5-03822-P02-CH1	871016	OK	0.7321853	-0.0317807	-0.6803636	0	-88.087	-79.821	1.574	B5-03822-P03-CH0	871016	OK	0.8215833	-0.5329235	-0.2024682	0	-103.112	-61.316	11.664	B5-03822-P03-CH1	871016	OK	0.7748392	-0.61291	0.1548078	0	-104.164	-26.421	4.714	B5-03822-P04-CH0	871016	OK	0.6910412	-0.1535571	0.706316	0	-133.95	-34.21	11.293	B5-03822-P04-CH1	871016	OK	0.7636162	-0.6434823	0.053112	0	-116.773	-45.551	3.637	NA
0.829333119074401	B5-03822-P01-CH0	871024	OK	0.2101985	0.0659309	0.0717971	-0.9727872	95.154	25.575	-265.135	B5-03822-P02-CH0	871024	OK	0.7687013	0.0674046	-0.6360464	0	-89.944	-99.91	3.783	B5-03822-P02-CH1	871024	OK	0.7292804	-0.0245812	-0.6837732	0	-88.303	-79.398	1.952	B5-03822-P03-CH0	871024	OK	0.8190236	-0.5382581	-0.1986921	0	-102.123	-61.369	10.787	B5-03822-P03-CH1	871024	OK	0.7746467	-0.6133029	0.1542143	0	-104.139	-26.331	4.508	B5-03822-P04-CH0	871024	OK	0.6898844	-0.1504018	0.7081235	0	-133.007	-34.371	13.857	B5-03822-P04-CH1	871024	OK	0.7633768	-0.6436841	0.054098	0	-116.731	-45.559	3.727	NA
0.839325084364454	B5-03822-P01-CH0	871032	OK	0.210394	0.0657129	0.0720108	-0.9727439	95.095	25.591	-265.127	B5-03822-P02-CH0	871032	OK	0.770136	0.077117	-0.633201	0	-89.111	-99.566	3.869	B5-03822-P02-CH1	871032	OK	0.7274655	-0.0191141	-0.685878	0	-87.875	-79.648	1.296	B5-03822-P03-CH0	871032	OK	0.8154943	-0.5415027	-0.2043132	0	-103.472	-60.609	9.849	B5-03822-P03-CH1	871032	OK	0.7747872	-0.6131115	0.1542694	0	-104.072	-26.365	4.325	B5-03822-P04-CH0	871032	OK	0.6902061	-0.1488256	0.708143	0	-133.266	-34.317	13.486	B5-03822-P04-CH1	871032	OK	0.763722	-0.6431926	0.0550639	0	-116.714	-45.611	3.871	NA
0.849317049654507	B5-03822-P01-CH0	871040	OK	0.2103966	0.0657561	0.0720603	-0.9727367	95.154	25.628	-265.109	B5-03822-P02-CH0	871040	OK	0.7699056	0.0880255	-0.6320576	0	-89.621	-100.285	2.651	B5-03822-P02-CH1	871040	OK	0.7244954	-0.0133974	-0.6891494	0	-87.993	-79.646	2.271	B5-03822-P03-CH0	871040	OK	0.8106901	-0.5480605	-0.2059398	0	-102.921	-61.068	9.696	B5-03822-P03-CH1	871040	OK	0.7747654	-0.6131486	0.1542317	0	-104.274	-26.367	4.314	B5-03822-P04-CH0	871040	OK	0.6907099	-0.1510088	0.7071889	0	-133.477	-33.506	12.859	B5-03822-P04-CH1	871040	OK	0.7637332	-0.6431474	0.0554343	0	-116.965	-45.717	3.925	NA
0.85930901494456	B5-03822-P01-CH0	871048	OK	0.210202	0.0658274	0.0716711	-0.9728027	95.196	25.614	-265.067	B5-03822-P02-CH0	871048	OK	0.7715146	0.1006519	-0.6281994	0	-89.495	-100.081	2.045	B5-03822-P02-CH1	871048	OK	0.7221489	-0.0079705	-0.6916917	0	-87.906	-80.056	1.049	B5-03822-P03-CH0	871048	OK	0.8072101	-0.551426	-0.2105736	0	-102.02	-60.613	10.616	B5-03822-P03-CH1	871048	OK	0.7741386	-0.6139353	0.1542496	0	-104.363	-26.457	4.329	B5-03822-P04-CH0	871048	OK	0.6916902	-0.1508171	0.7062711	0	-133.906	-33.815	13.506	B5-03822-P04-CH1	871048	OK	0.7634325	-0.6435021	0.05546	0	-117.069	-45.789	4.02	NA
0.869300980234613	B5-03822-P01-CH0	871056	OK	0.2101807	0.0660729	0.0716471	-0.9727924	95.301	25.71	-265.129	B5-03822-P02-CH0	871056	OK	0.7739494	0.1143231	-0.6228423	0	-89.611	-100.831	1.85	B5-03822-P02-CH1	871056	OK	0.7204995	-0.0044632	-0.6934411	0	-87.214	-79.417	1.4	B5-03822-P03-CH0	871056	OK	0.803139	-0.5540753	-0.2190165	0	-101.82	-59.834	10.483	B5-03822-P03-CH1	871056	OK	0.7739023	-0.6142564	0.1541566	0	-104.686	-26.3	4.258	B5-03822-P04-CH0	871056	OK	0.691665	-0.1547036	0.7054546	0	-133.85	-34.444	13.238	B5-03822-P04-CH1	871056	OK	0.7633995	-0.6435429	0.0554416	0	-117.183	-45.765	4.284	NA
0.879292945524667	B5-03822-P01-CH0	871064	OK	0.2100689	0.066158	0.0711797	-0.9728451	95.314	25.641	-265.102	B5-03822-P02-CH0	871064	OK	0.7753729	0.130502	-0.6178723	0	-90.561	-100.326	2.579	B5-03822-P02-CH1	871064	OK	0.7168279	0.0008573	-0.6972496	0	-87.442	-79.916	1.492	B5-03822-P03-CH0	871064	OK	0.7942867	-0.5633934	-0.2273689	0	-101.486	-60.109	9.066	B5-03822-P03-CH1	871064	OK	0.7707486	-0.6176565	0.1563556	0	-105.127	-26.187	3.511	B5-03822-P04-CH0	871064	OK	0.6910017	-0.1543243	0.7061874	0	-133.562	-34.097	13.198	B5-03822-P04-CH1	871064	OK	0.7631647	-0.6438638	0.0549466	0	-117.209	-45.735	4.437	NA
0.88928491081472	B5-03822-P01-CH0	871072	OK	0.2100516	0.0663022	0.0708964	-0.9728597	95.354	25.617	-265.161	B5-03822-P02-CH0	871072	OK	0.7778552	0.1443693	-0.6116361	0	-91.367	-99.639	5.624	B5-03822-P02-CH1	871072	OK	0.7141968	0.0051321	-0.6999261	0	-86.83	-79.261	1.468	B5-03822-P03-CH0	871072	OK	0.784448	-0.5718896	-0.2399657	0	-101.659	-59.258	8.654	B5-03822-P03-CH1	871072	OK	0.7703321	-0.6180248	0.1569514	0	-105.313	-25.983	4.075	B5-03822-P04-CH0	871072	OK	0.6906875	-0.1547111	0.7064101	0	-133.341	-33.794	13.145	B5-03822-P04-CH1	871072	OK	0.7630421	-0.6440315	0.0546816	0	-116.965	-45.659	4.61	NA
0.899276876104773	B5-03822-P01-CH0	871080	OK	0.2098593	0.06643	0.0704625	-0.972924	95.403	25.597	-265.208	B5-03822-P02-CH0	871080	OK	0.7853326	0.1547088	-0.5994314	0	-90.102	-99.586	3.458	B5-03822-P02-CH1	871080	OK	0.7124382	0.013073	-0.7016131	0	-85.657	-78.368	2.184	B5-03822-P03-CH0	871080	OK	0.7734719	-0.5827979	-0.2491743	0	-101.014	-58.986	7.986	B5-03822-P03-CH1	871080	OK	0.7688833	-0.6193726	0.1587328	0	-104.925	-26.336	3.774	B5-03822-P04-CH0	871080	OK	0.6912402	-0.1657908	0.7033494	0	-132.813	-32.404	10.342	B5-03822-P04-CH1	871080	OK	0.7628032	-0.644373	0.0539871	0	-116.847	-45.521	4.735	NA
0.909268841394826	B5-03822-P01-CH0	871088	OK	0.2098018	0.0664526	0.0701424	-0.972958	95.412	25.489	-265.225	B5-03822-P02-CH0	871088	OK	0.7866324	0.1638599	-0.595281	0	-91.57	-97.784	4.375	B5-03822-P02-CH1	871088	OK	0.7098909	0.0191291	-0.7040519	0	-85.124	-77.002	0.698	B5-03822-P03-CH0	871088	OK	0.7619018	-0.5915482	-0.2637734	0	-100.523	-58.243	7.546	B5-03822-P03-CH1	871088	OK	0.7676885	-0.6205338	0.1599756	0	-104.488	-26.604	3.591	B5-03822-P04-CH0	871088	OK	0.6903198	-0.1704729	0.7031341	0	-131.725	-31.834	11.003	B5-03822-P04-CH1	871088	OK	0.7626117	-0.6446598	0.0532642	0	-116.765	-45.493	4.867	NA
0.919260806684879	B5-03822-P01-CH0	871096	OK	0.2098316	0.0666433	0.0701331	-0.9729392	95.476	25.496	-265.3	B5-03822-P02-CH0	871096	OK	0.7896224	0.1695215	-0.5897109	0	-91.777	-97.32	4.276	B5-03822-P02-CH1	871096	OK	0.7067625	0.0226348	-0.7070887	0	-85.13	-76.732	1.396	B5-03822-P03-CH0	871096	OK	0.7501235	-0.5994451	-0.2792496	0	-100.239	-57.799	6.77	B5-03822-P03-CH1	871096	OK	0.7672512	-0.6207805	0.1611122	0	-104.398	-26.568	3.306	B5-03822-P04-CH0	871096	OK	0.690657	-0.1730518	0.7021723	0	-131.678	-31.808	11.576	B5-03822-P04-CH1	871096	OK	0.7625133	-0.6448208	0.0527217	0	-116.669	-45.48	5.168	NA
0.929252771974932	B5-03822-P01-CH0	871104	OK	0.2097227	0.0666853	0.0701913	-0.9729556	95.508	25.429	-265.332	B5-03822-P02-CH0	871104	OK	0.7925022	0.1724402	-0.5849825	0	-91.391	-97.939	4.161	B5-03822-P02-CH1	871104	OK	0.705704	0.0229655	-0.7081345	0	-84.386	-76.582	2.549	B5-03822-P03-CH0	871104	OK	0.7393996	-0.6061324	-0.2930729	0	-100.249	-57.894	4.93	B5-03822-P03-CH1	871104	OK	0.7664899	-0.6219543	0.1602065	0	-104.543	-26.831	3.322	B5-03822-P04-CH0	871104	OK	0.6914604	-0.1743322	0.701064	0	-131.917	-32.27	11.968	B5-03822-P04-CH1	871104	OK	0.7624805	-0.6449606	0.0514718	0	-116.698	-45.419	5.221	NA
0.939244737264985	B5-03822-P01-CH0	871112	OK	0.2094488	0.0669296	0.0697373	-0.9730305	95.589	25.363	-265.428	B5-03822-P02-CH0	871112	OK	0.790323	0.1802368	-0.5855803	0	-92.712	-95.161	8.139	B5-03822-P02-CH1	871112	OK	0.7040541	0.0223467	-0.7097946	0	-84.227	-76.32	1.56	B5-03822-P03-CH0	871112	OK	0.7319406	-0.609597	-0.3043919	0	-99.79	-57.075	4.825	B5-03822-P03-CH1	871112	OK	0.7685244	-0.6201042	0.1576102	0	-105.056	-26.645	3.951	B5-03822-P04-CH0	871112	OK	0.6905731	-0.1808335	0.7002914	0	-131.575	-31.744	10.842	B5-03822-P04-CH1	871112	OK	0.7620713	-0.6455528	0.0500899	0	-116.77	-45.322	5.307	NA
0.949236702555038	B5-03822-P01-CH0	871120	OK	0.2094274	0.0668446	0.0700809	-0.9730163	95.564	25.391	-265.519	B5-03822-P02-CH0	871120	OK	0.7895135	0.1846521	-0.5852965	0	-93.48	-94.903	7.788	B5-03822-P02-CH1	871120	OK	0.7024526	0.0220247	-0.7113897	0	-84.023	-76.06	1.993	B5-03822-P03-CH0	871120	OK	0.7263264	-0.6103153	-0.3161728	0	-99.259	-56.652	4.513	B5-03822-P03-CH1	871120	OK	0.7682424	-0.6203388	0.1580613	0	-104.953	-26.602	4.009	B5-03822-P04-CH0	871120	OK	0.6917098	-0.1823839	0.6987658	0	-131.566	-32.169	12.511	B5-03822-P04-CH1	871120	OK	0.7622515	-0.6454033	0.0492672	0	-116.577	-45.197	5.529	NA
0.959228667845091	B5-03822-P01-CH0	871128	OK	0.2094131	0.0669015	0.0702308	-0.9730046	95.558	25.39	-265.568	B5-03822-P02-CH0	871128	OK	0.791552	0.1892516	-0.5810588	0	-92.138	-94.824	6.579	B5-03822-P02-CH1	871128	OK	0.7013314	0.0184744	-0.712596	0	-83.444	-75.398	2.361	B5-03822-P03-CH0	871128	OK	0.7238473	-0.6070488	-0.3279281	0	-98.914	-56.543	4.975	B5-03822-P03-CH1	871128	OK	0.7680503	-0.6204741	0.1584631	0	-105.111	-26.518	3.893	B5-03822-P04-CH0	871128	OK	0.6914332	-0.1902739	0.6969333	0	-131.607	-31.347	10.993	B5-03822-P04-CH1	871128	OK	0.7623761	-0.6453414	0.0481357	0	-116.503	-45.033	5.779	NA
0.969220633135144	B5-03822-P01-CH0	871136	OK	0.20912	0.0669239	0.0701089	-0.9730749	95.54	25.328	-265.581	B5-03822-P02-CH0	871136	OK	0.7900157	0.1924852	-0.5820864	0	-91.927	-94.995	6.891	B5-03822-P02-CH1	871136	OK	0.7010771	0.0139083	-0.7129498	0	-82.463	-75.136	1.71	B5-03822-P03-CH0	871136	OK	0.7275883	-0.5990177	-0.3343549	0	-98.123	-55.901	4.349	B5-03822-P03-CH1	871136	OK	0.7675221	-0.6210715	0.1586822	0	-104.988	-26.58	4.005	B5-03822-P04-CH0	871136	OK	0.6914391	-0.1938087	0.6959527	0	-131.275	-30.815	11.147	B5-03822-P04-CH1	871136	OK	0.7621485	-0.6457274	0.046539	0	-116.511	-44.928	5.655	NA
0.979212598425197	B5-03822-P01-CH0	871144	OK	0.2091607	0.0668432	0.0705214	-0.9730419	95.512	25.348	-265.619	B5-03822-P02-CH0	871144	OK	0.7867215	0.1936776	-0.5861384	0	-92.054	-94.716	6.968	B5-03822-P02-CH1	871144	OK	0.7000654	0.0073847	-0.7140405	0	-82.353	-74.621	2.048	B5-03822-P03-CH0	871144	OK	0.7381126	-0.5901898	-0.3269033	0	-99.951	-55.181	4.723	B5-03822-P03-CH1	871144	OK	0.7675102	-0.6210402	0.1588623	0	-104.935	-26.525	3.894	B5-03822-P04-CH0	871144	OK	0.6932622	-0.1934603	0.6942338	0	-131.646	-30.98	12.014	B5-03822-P04-CH1	871144	OK	0.7622087	-0.6457094	0.0457953	0	-116.35	-44.918	5.578	NA
0.98920456371525	B5-03822-P01-CH0	871152	OK	0.2091728	0.0667532	0.0706261	-0.9730379	95.472	25.312	-265.572	B5-03822-P02-CH0	871152	OK	0.7848649	0.1904603	-0.5896711	0	-91.487	-95.644	4.289	B5-03822-P02-CH1	871152	OK	0.6993776	0.0015782	-0.7147507	0	-82.913	-74.163	1.42	B5-03822-P03-CH0	871152	OK	0.7513545	-0.58313	-0.3089107	0	-99.82	-55.015	6.408	B5-03822-P03-CH1	871152	OK	0.7671755	-0.6213537	0.1592523	0	-104.878	-26.677	3.771	B5-03822-P04-CH0	871152	OK	0.692156	-0.1977182	0.694138	0	-131.364	-31.002	10.884	B5-03822-P04-CH1	871152	OK	0.7622438	-0.6457474	0.0446621	0	-116.326	-44.813	5.539	NA
0.999196529005303	B5-03822-P01-CH0	871160	OK	0.2090848	0.0667385	0.0706488	-0.9730562	95.459	25.281	-265.565	B5-03822-P02-CH0	871160	OK	0.7824321	0.1871716	-0.5939418	0	-90.153	-94.459	4.594	B5-03822-P02-CH1	871160	OK	0.6986414	-0.0029135	-0.7154661	0	-83.387	-73.934	2.271	B5-03822-P03-CH0	871160	OK	0.7581515	-0.579792	-0.2984082	0	-100.126	-54.888	5.749	B5-03822-P03-CH1	871160	OK	0.7670748	-0.6214916	0.1591995	0	-104.957	-26.628	3.62	B5-03822-P04-CH0	871160	OK	0.6907363	-0.189716	0.6977759	0	-130.988	-30.75	11.045	B5-03822-P04-CH1	871160	OK	0.7622334	-0.6458254	0.0437005	0	-116.189	-44.74	5.602	NA
1.00918849429536	B5-03822-P01-CH0	871168	OK	0.2090053	0.0667475	0.070846	-0.9730583	95.469	25.352	-265.628	B5-03822-P02-CH0	871168	OK	0.7802044	0.1798172	-0.5991218	0	-89.03	-95.756	2.252	B5-03822-P02-CH1	871168	OK	0.6981296	-0.0062854	-0.7159438	0	-83.814	-74.35	2.157	B5-03822-P03-CH0	871168	OK	0.7601261	-0.579203	-0.2945033	0	-99.37	-55.552	6.653	B5-03822-P03-CH1	871168	OK	0.7671749	-0.6214147	0.159017	0	-105.017	-26.483	3.748	B5-03822-P04-CH0	871168	OK	0.6910714	-0.1923106	0.696733	0	-130.973	-30.679	11.356	B5-03822-P04-CH1	871168	OK	0.7623387	-0.6457594	0.0428317	0	-116.133	-44.581	5.671	NA
1.01918045958541	B5-03822-P01-CH0	871176	OK	0.2089245	0.0666784	0.0708535	-0.9730798	95.473	25.327	-265.651	B5-03822-P02-CH0	871176	OK	0.7741381	0.1731451	-0.6088768	0	-89.289	-95.431	3.358	B5-03822-P02-CH1	871176	OK	0.7002868	-0.0076562	-0.7138206	0	-82.607	-74.584	1.78	B5-03822-P03-CH0	871176	OK	0.7613753	-0.5785473	-0.2925586	0	-98.981	-56.101	6.684	B5-03822-P03-CH1	871176	OK	0.7671226	-0.6215339	0.1588034	0	-105.075	-26.544	3.925	B5-03822-P04-CH0	871176	OK	0.6909824	-0.195264	0.6959995	0	-130.836	-30.637	11.301	B5-03822-P04-CH1	871176	OK	0.7623758	-0.6457725	0.041963	0	-116.121	-44.493	5.646	NA
1.02917242487546	B5-03822-P01-CH0	871184	OK	0.2093036	0.0666463	0.0719524	-0.9729199	95.49	25.555	-265.655	B5-03822-P02-CH0	871184	OK	0.768208	0.1663987	-0.6181974	0	-89.51	-95.146	3.856	B5-03822-P02-CH1	871184	OK	0.7021876	-0.010304	-0.7119174	0	-82.056	-74.764	0.288	B5-03822-P03-CH0	871184	OK	0.7638231	-0.5757285	-0.2917378	0	-98.824	-55.778	6.496	B5-03822-P03-CH1	871184	OK	0.7679582	-0.6204641	0.1589479	0	-105.157	-26.279	3.849	B5-03822-P04-CH0	871184	OK	0.6916315	-0.1967998	0.6949213	0	-130.859	-30.49	11.538	B5-03822-P04-CH1	871184	OK	0.7632193	-0.6447976	0.0416227	0	-116.074	-44.234	5.633	NA
1.03916439016551	B5-03822-P01-CH0	871192	OK	0.2093218	0.0666573	0.0718572	-0.9729223	95.507	25.551	-265.612	B5-03822-P02-CH0	871192	OK	0.7647705	0.1584639	-0.624512	0	-89.228	-95.797	3.396	B5-03822-P02-CH1	871192	OK	0.7013588	-0.0105753	-0.7127299	0	-83.054	-74.863	1.806	B5-03822-P03-CH0	871192	OK	0.7649692	-0.5725224	-0.2950258	0	-99.571	-55.414	6.901	B5-03822-P03-CH1	871192	OK	0.7679849	-0.6204568	0.1588475	0	-105.181	-26.164	3.776	B5-03822-P04-CH0	871192	OK	0.6917718	-0.1985749	0.6942764	0	-130.862	-30.498	11.424	B5-03822-P04-CH1	871192	OK	0.763091	-0.6449892	0.0410014	0	-116.042	-44.202	5.459	NA
1.04915635545557	B5-03822-P01-CH0	871200	OK	0.2093044	0.066869	0.0715585	-0.9729335	95.589	25.541	-265.568	B5-03822-P02-CH0	871200	OK	0.7628871	0.1529111	-0.6281891	0	-88.428	-95.81	3.529	B5-03822-P02-CH1	871200	OK	0.7020427	-0.0117108	-0.7120385	0	-83.67	-74.418	1.667	B5-03822-P03-CH0	871200	OK	0.7654573	-0.5711213	-0.2964718	0	-99.592	-55.66	6.87	B5-03822-P03-CH1	871200	OK	0.7677196	-0.6207771	0.1588787	0	-105.38	-26.256	3.743	B5-03822-P04-CH0	871200	OK	0.6920435	-0.2001285	0.6935592	0	-130.942	-30.43	11.441	B5-03822-P04-CH1	871200	OK	0.76294	-0.6452098	0.0403349	0	-115.977	-44.114	5.418	NA
1.05914832074562	B5-03822-P01-CH0	871208	OK	0.2095564	0.0668503	0.0716494	-0.9728738	95.624	25.618	-265.654	B5-03822-P02-CH0	871208	OK	0.7627547	0.1481853	-0.629481	0	-87.352	-96.118	2.109	B5-03822-P02-CH1	871208	OK	0.7045091	-0.0121341	-0.7095912	0	-83.548	-75.125	1.926	B5-03822-P03-CH0	871208	OK	0.7661043	-0.569773	-0.2973935	0	-99.314	-56.028	6.746	B5-03822-P03-CH1	871208	OK	0.7676345	-0.6208237	0.1591076	0	-105.414	-26.276	3.645	B5-03822-P04-CH0	871208	OK	0.6922648	-0.2007674	0.6931536	0	-130.932	-30.485	11.663	B5-03822-P04-CH1	871208	OK	0.7629806	-0.6451843	0.0399725	0	-116.048	-44.056	5.323	NA
1.06914028603567	B5-03822-P01-CH0	871216	OK	0.2097803	0.0667787	0.0715518	-0.9728377	95.637	25.607	-265.675	B5-03822-P02-CH0	871216	OK	0.7612439	0.142323	-0.6326547	0	-87.473	-96.469	1.57	B5-03822-P02-CH1	871216	OK	0.7060471	-0.0123561	-0.7080571	0	-83.986	-74.847	2.875	B5-03822-P03-CH0	871216	OK	0.7671911	-0.5668563	-0.3001529	0	-99.519	-55.695	6.875	B5-03822-P03-CH1	871216	OK	0.7676569	-0.6207235	0.1593901	0	-105.522	-26.232	3.543	B5-03822-P04-CH0	871216	OK	0.6920098	-0.2019798	0.693056	0	-130.786	-30.42	11.516	B5-03822-P04-CH1	871216	OK	0.7630065	-0.6451645	0.0397972	0	-115.939	-44.004	5.289	NA
1.07913225132573	B5-03822-P01-CH0	871224	OK	0.2097352	0.0668826	0.0714701	-0.9728463	95.725	25.637	-265.693	B5-03822-P02-CH0	871224	OK	0.7589254	0.1384228	-0.636295	0	-87.926	-95.828	3.988	B5-03822-P02-CH1	871224	OK	0.7077491	-0.0106718	-0.7063833	0	-84.694	-75.296	3.216	B5-03822-P03-CH0	871224	OK	0.7680364	-0.5652633	-0.3009942	0	-99.255	-55.757	7.275	B5-03822-P03-CH1	871224	OK	0.7674785	-0.6209095	0.1595244	0	-105.627	-26.234	3.527	B5-03822-P04-CH0	871224	OK	0.6919454	-0.202942	0.6928392	0	-130.785	-30.448	11.52	B5-03822-P04-CH1	871224	OK	0.7630165	-0.6451872	0.0392332	0	-115.972	-43.867	5.327	NA
1.08912421661578	B5-03822-P01-CH0	871232	OK	0.20989	0.0667914	0.0717544	-0.9727982	95.733	25.741	-265.776	B5-03822-P02-CH0	871232	OK	0.7580952	0.1336979	-0.6382919	0	-88.301	-96.057	2.663	B5-03822-P02-CH1	871232	OK	0.7122401	-0.0108623	-0.7018519	0	-83.633	-75.298	2.674	B5-03822-P03-CH0	871232	OK	0.7683961	-0.5637936	-0.3028271	0	-99.638	-55.937	7.113	B5-03822-P03-CH1	871232	OK	0.7675837	-0.6207427	0.1596676	0	-105.577	-26.099	3.521	B5-03822-P04-CH0	871232	OK	0.6919166	-0.2036067	0.6926728	0	-130.678	-30.344	11.634	B5-03822-P04-CH1	871232	OK	0.7630211	-0.6451778	0.0392986	0	-115.93	-43.908	5.291	NA
1.09911618190583	B5-03822-P01-CH0	871240	OK	0.2102766	0.0669246	0.0723024	-0.972665	95.829	25.871	-265.788	B5-03822-P02-CH0	871240	OK	0.7562917	0.1304034	-0.6411067	0	-88.825	-95.229	3.634	B5-03822-P02-CH1	871240	OK	0.7137329	-0.0096805	-0.7003511	0	-84.168	-74.967	1.873	B5-03822-P03-CH0	871240	OK	0.7690327	-0.5610647	-0.3062599	0	-100.28	-55.877	7.523	B5-03822-P03-CH1	871240	OK	0.7678112	-0.6203399	0.1601388	0	-105.518	-26.068	3.509	B5-03822-P04-CH0	871240	OK	0.6925365	-0.2029309	0.6922515	0	-130.871	-30.508	11.864	B5-03822-P04-CH1	871240	OK	0.7633352	-0.6448132	0.0391823	0	-116.141	-43.837	5.128	NA
1.10910814719589	B5-03822-P01-CH0	871248	OK	0.2107037	0.0668222	0.0726173	-0.9725562	95.883	25.904	-265.859	B5-03822-P02-CH0	871248	OK	0.7578789	0.1254745	-0.6402153	0	-87.984	-96.548	1.701	B5-03822-P02-CH1	871248	OK	0.7165622	-0.0102207	-0.6974483	0	-83.749	-75.405	0.203	B5-03822-P03-CH0	871248	OK	0.7698797	-0.5592351	-0.3074758	0	-99.856	-55.933	7.775	B5-03822-P03-CH1	871248	OK	0.7678178	-0.6201878	0.160695	0	-105.572	-26.185	3.379	B5-03822-P04-CH0	871248	OK	0.6925419	-0.2028354	0.6922742	0	-130.879	-30.439	11.674	B5-03822-P04-CH1	871248	OK	0.7636141	-0.6444788	0.0392509	0	-116.186	-43.841	5.216	NA
1.11910011248594	B5-03822-P01-CH0	871256	OK	0.2109975	0.0667182	0.0731158	-0.9724622	95.886	25.968	-265.879	B5-03822-P02-CH0	871256	OK	0.7577281	0.122737	-0.6409242	0	-87.803	-96.694	2.225	B5-03822-P02-CH1	871256	OK	0.7170155	-0.010601	-0.6969766	0	-84.315	-75.621	2.396	B5-03822-P03-CH0	871256	OK	0.7703706	-0.5562901	-0.3115614	0	-100.002	-55.26	7.372	B5-03822-P03-CH1	871256	OK	0.7680911	-0.6197695	0.1610024	0	-105.504	-26.033	3.262	B5-03822-P04-CH0	871256	OK	0.6927772	-0.2024882	0.6921404	0	-130.923	-30.345	11.546	B5-03822-P04-CH1	871256	OK	0.7639192	-0.6441247	0.0391257	0	-116.112	-43.763	5.074	NA
1.12909207777599	B5-03822-P01-CH0	871264	OK	0.2110516	0.0667255	0.0727585	-0.9724768	95.929	25.823	-265.89	B5-03822-P02-CH0	871264	OK	0.7564118	0.1202938	-0.642939	0	-88.422	-96.544	3.902	B5-03822-P02-CH1	871264	OK	0.719125	-0.0094076	-0.694817	0	-83.957	-74.918	1.927	B5-03822-P03-CH0	871264	OK	0.7676591	-0.556102	-0.3185123	0	-99.46	-55.327	7.055	B5-03822-P03-CH1	871264	OK	0.7676877	-0.6202065	0.1612434	0	-105.505	-26.234	3.19	B5-03822-P04-CH0	871264	OK	0.6926387	-0.2022678	0.6923434	0	-130.934	-30.44	11.36	B5-03822-P04-CH1	871264	OK	0.7635742	-0.644537	0.0390714	0	-116.065	-43.92	4.994	NA
1.13908404306605	B5-03822-P01-CH0	871272	OK	0.2110969	0.0666534	0.0729346	-0.9724587	95.914	25.832	-265.888	B5-03822-P02-CH0	871272	OK	0.7570021	0.1193302	-0.6424237	0	-88.223	-96.264	2.924	B5-03822-P02-CH1	871272	OK	0.7200951	-0.0101388	-0.6938013	0	-84.315	-75.743	1.504	B5-03822-P03-CH0	871272	OK	0.7642278	-0.5550273	-0.3284822	0	-98.986	-55.222	7.087	B5-03822-P03-CH1	871272	OK	0.7677126	-0.6201667	0.1612778	0	-105.409	-26.239	3.36	B5-03822-P04-CH0	871272	OK	0.6925277	-0.2020969	0.6925044	0	-130.863	-30.256	11.316	B5-03822-P04-CH1	871272	OK	0.7635909	-0.6445175	0.0390652	0	-115.986	-43.935	5.035	NA
1.1490760083561	B5-03822-P01-CH0	871280	OK	0.2114123	0.0666146	0.0735174	-0.972349	95.945	25.848	-265.966	B5-03822-P02-CH0	871280	OK	0.7590204	0.1175666	-0.640364	0	-87.094	-95.995	1.799	B5-03822-P02-CH1	871280	OK	0.7215312	-0.0103803	-0.6923041	0	-83.948	-75.813	0.517	B5-03822-P03-CH0	871280	OK	0.7600536	-0.5536856	-0.3402218	0	-100.254	-54.79	6.581	B5-03822-P03-CH1	871280	OK	0.7681105	-0.6196331	0.1614344	0	-105.421	-26.229	3.446	B5-03822-P04-CH0	871280	OK	0.6930124	-0.2003916	0.692515	0	-130.959	-30.451	11.692	B5-03822-P04-CH1	871280	OK	0.7640157	-0.6440092	0.0391438	0	-116.013	-43.91	5.053	NA
1.15906797364615	B5-03822-P01-CH0	871288	OK	0.2111288	0.0664508	0.0729055	-0.9724679	95.891	25.685	-265.948	B5-03822-P02-CH0	871288	OK	0.7577575	0.1159688	-0.6421486	0	-87.864	-96.142	1.791	B5-03822-P02-CH1	871288	OK	0.7200651	-0.0100755	-0.6938334	0	-84.821	-74.742	2.794	B5-03822-P03-CH0	871288	OK	0.7545211	-0.5546419	-0.3508138	0	-99.849	-55.216	5.763	B5-03822-P03-CH1	871288	OK	0.7676765	-0.6202278	0.1612152	0	-105.313	-26.257	3.368	B5-03822-P04-CH0	871288	OK	0.6925283	-0.2001055	0.6930817	0	-130.815	-30.368	11.586	B5-03822-P04-CH1	871288	OK	0.7637567	-0.644349	0.0386009	0	-115.879	-43.83	5.034	NA
1.1690599389362	B5-03822-P01-CH0	871296	OK	0.2111174	0.0662903	0.0729374	-0.9724789	95.841	25.692	-265.988	B5-03822-P02-CH0	871296	OK	0.757478	0.1217592	-0.6414061	0	-88.122	-96.88	2.812	B5-03822-P02-CH1	871296	OK	0.7214272	-0.010519	-0.6924103	0	-84.462	-74.974	2.107	B5-03822-P03-CH0	871296	OK	0.7518673	-0.553555	-0.3581515	0	-98.646	-55.26	5.852	B5-03822-P03-CH1	871296	OK	0.7675089	-0.6204043	0.1613338	0	-105.175	-26.303	3.328	B5-03822-P04-CH0	871296	OK	0.6924486	-0.1989702	0.6934882	0	-130.797	-30.337	11.644	B5-03822-P04-CH1	871296	OK	0.7637063	-0.6444081	0.0386116	0	-115.847	-43.845	5.097	NA
1.17905190422626	B5-03822-P01-CH0	871304	OK	0.2115052	0.0660988	0.0736162	-0.9723565	95.792	25.654	-265.911	B5-03822-P02-CH0	871304	OK	0.7577016	0.1198341	-0.6415045	0	-87.783	-96.768	2.35	B5-03822-P02-CH1	871304	OK	0.7223503	-0.011358	-0.691434	0	-83.924	-74.542	2.37	B5-03822-P03-CH0	871304	OK	0.7524298	-0.5489326	-0.3640363	0	-98.741	-54.526	6.08	B5-03822-P03-CH1	871304	OK	0.7679708	-0.6197737	0.1615592	0	-105.088	-26.328	3.189	B5-03822-P04-CH0	871304	OK	0.6925827	-0.1972545	0.6938442	0	-130.824	-30.432	11.355	B5-03822-P04-CH1	871304	OK	0.7642251	-0.6437766	0.0388802	0	-115.816	-43.887	4.911	NA
1.18904386951631	B5-03822-P01-CH0	871312	OK	0.2115742	0.0661938	0.0738093	-0.9723204	95.844	25.679	-265.932	B5-03822-P02-CH0	871312	OK	0.7579299	0.1186002	-0.6414642	0	-87.604	-96.647	2.187	B5-03822-P02-CH1	871312	OK	0.7223223	-0.0127653	-0.6914388	0	-83.996	-75.163	0.625	B5-03822-P03-CH0	871312	OK	0.7554354	-0.5457105	-0.3626533	0	-98.257	-54.208	5.764	B5-03822-P03-CH1	871312	OK	0.7681551	-0.6195521	0.161533	0	-105.173	-26.265	3.217	B5-03822-P04-CH0	871312	OK	0.6929304	-0.1957917	0.6939115	0	-131.006	-30.396	11.373	B5-03822-P04-CH1	871312	OK	0.7645441	-0.6434243	0.0384387	0	-115.87	-43.738	5.151	NA
1.19903583480636	B5-03822-P01-CH0	871320	OK	0.2115221	0.0658056	0.07423	-0.972326	95.686	25.717	-265.966	B5-03822-P02-CH0	871320	OK	0.7583292	0.1180002	-0.6411028	0	-87.319	-96.465	1.956	B5-03822-P02-CH1	871320	OK	0.7201748	-0.0108217	-0.6937082	0	-84.606	-74.151	2.625	B5-03822-P03-CH0	871320	OK	0.7604013	-0.5432514	-0.3559042	0	-97.067	-54.304	7.69	B5-03822-P03-CH1	871320	OK	0.7686004	-0.6190254	0.161434	0	-105.13	-26.048	3.353	B5-03822-P04-CH0	871320	OK	0.6926804	-0.1950404	0.6943725	0	-130.854	-30.021	11.206	B5-03822-P04-CH1	871320	OK	0.7648933	-0.6430368	0.0379713	0	-115.711	-43.561	5.216	NA
1.20902780009642	B5-03822-P01-CH0	871328	OK	0.2112992	0.0658194	0.0744835	-0.9723542	95.64	25.721	-265.919	B5-03822-P02-CH0	871328	OK	0.7583442	0.1177467	-0.6411316	0	-87.242	-96.335	1.953	B5-03822-P02-CH1	871328	OK	0.7207901	-0.0102269	-0.693078	0	-84.053	-74.709	1.365	B5-03822-P03-CH0	871328	OK	0.763055	-0.5402393	-0.3548078	0	-99.113	-53.517	6.641	B5-03822-P03-CH1	871328	OK	0.7688759	-0.6187674	0.1611108	0	-105.16	-25.918	3.418	B5-03822-P04-CH0	871328	OK	0.6925057	-0.194745	0.6946295	0	-130.764	-29.759	10.984	B5-03822-P04-CH1	871328	OK	0.7648805	-0.6430795	0.037504	0	-115.761	-43.53	4.999	NA
1.21901976538647	B5-03822-P01-CH0	871336	OK	0.2110358	0.0659436	0.0741175	-0.9724309	95.649	25.651	-265.898	B5-03822-P02-CH0	871336	OK	0.7585555	0.117878	-0.6408575	0	-87.142	-96.301	1.829	B5-03822-P02-CH1	871336	OK	0.7207719	-0.0099498	-0.6931009	0	-84.103	-74.755	1.387	B5-03822-P03-CH0	871336	OK	0.7643434	-0.5427071	-0.3482071	0	-98.509	-54.352	6.957	B5-03822-P03-CH1	871336	OK	0.7685849	-0.6191492	0.1610328	0	-105.17	-25.906	3.146	B5-03822-P04-CH0	871336	OK	0.6924839	-0.1940054	0.6948582	0	-130.79	-29.674	11.157	B5-03822-P04-CH1	871336	OK	0.7647123	-0.6433196	0.0368105	0	-115.859	-43.443	5.086	NA
1.22901173067652	B5-03822-P01-CH0	871344	OK	0.2110727	0.0659325	0.0741643	-0.9724201	95.633	25.678	-265.981	B5-03822-P02-CH0	871344	OK	0.7587573	0.1178522	-0.6406233	0	-86.967	-96.281	1.733	B5-03822-P02-CH1	871344	OK	0.720386	-0.0101298	-0.6934994	0	-84.199	-74.686	1.853	B5-03822-P03-CH0	871344	OK	0.7646133	-0.5454671	-0.343267	0	-97.75	-54.86	7.835	B5-03822-P03-CH1	871344	OK	0.7687022	-0.6189648	0.1611816	0	-105.22	-25.841	3.309	B5-03822-P04-CH0	871344	OK	0.692334	-0.1934054	0.6951748	0	-130.756	-29.572	11.155	B5-03822-P04-CH1	871344	OK	0.7647358	-0.6432989	0.0366824	0	-115.864	-43.436	5.283	NA
1.23900369596658	B5-03822-P01-CH0	871352	OK	0.2111529	0.0659182	0.0741308	-0.9724062	95.632	25.65	-266.046	B5-03822-P02-CH0	871352	OK	0.7586204	0.1180221	-0.6407541	0	-86.924	-96.267	1.718	B5-03822-P02-CH1	871352	OK	0.7200358	-0.0107131	-0.6938543	0	-84.216	-74.704	1.959	B5-03822-P03-CH0	871352	OK	0.764807	-0.5454864	-0.3428043	0	-97.752	-53.936	8.403	B5-03822-P03-CH1	871352	OK	0.7686255	-0.618941	0.161638	0	-105.359	-25.966	3.353	B5-03822-P04-CH0	871352	OK	0.6922872	-0.1924757	0.6954794	0	-130.76	-29.65	11.27	B5-03822-P04-CH1	871352	OK	0.7648399	-0.6431911	0.0364035	0	-115.83	-43.373	5.422	NA
1.24899566125663	B5-03822-P01-CH0	871360	OK	0.2107567	0.0659725	0.0736527	-0.9725248	95.619	25.574	-265.961	B5-03822-P02-CH0	871360	OK	0.7585715	0.1189794	-0.640635	0	-86.937	-96.255	1.657	B5-03822-P02-CH1	871360	OK	0.719765	-0.0107472	-0.6941346	0	-84.254	-74.617	1.932	B5-03822-P03-CH0	871360	OK	0.7636294	-0.5459349	-0.3447103	0	-98.062	-53.691	8.399	B5-03822-P03-CH1	871360	OK	0.7682355	-0.6194091	0.1616992	0	-105.363	-25.983	3.347	B5-03822-P04-CH0	871360	OK	0.691816	-0.1927927	0.6958603	0	-130.709	-29.448	10.905	B5-03822-P04-CH1	871360	OK	0.7643686	-0.6437874	0.0357552	0	-115.919	-43.405	5.329	NA
1.25898762654668	B5-03822-P01-CH0	871368	OK	0.2109241	0.0661215	0.0741558	-0.9724402	95.691	25.609	-266.034	B5-03822-P02-CH0	871368	OK	0.7581305	0.1198658	-0.6409917	0	-86.943	-96.255	1.718	B5-03822-P02-CH1	871368	OK	0.719352	-0.0116523	-0.694548	0	-84.255	-74.625	2.133	B5-03822-P03-CH0	871368	OK	0.7626794	-0.5485224	-0.3426999	0	-97.071	-54.341	6.727	B5-03822-P03-CH1	871368	OK	0.7684962	-0.6189254	0.162311	0	-105.379	-26.061	3.593	B5-03822-P04-CH0	871368	OK	0.6922465	-0.1920563	0.6956358	0	-130.871	-29.456	11.085	B5-03822-P04-CH1	871368	OK	0.7646244	-0.6434814	0.0357944	0	-115.843	-43.436	5.446	NA
1.26897959183673	B5-03822-P01-CH0	871376	OK	0.210964	0.0662308	0.0742199	-0.9724192	95.718	25.55	-266.076	B5-03822-P02-CH0	871376	OK	0.7577999	0.1207219	-0.641222	0	-86.93	-96.296	1.652	B5-03822-P02-CH1	871376	OK	0.7189533	-0.0125524	-0.694945	0	-84.251	-74.704	2.131	B5-03822-P03-CH0	871376	OK	0.7609606	-0.5470354	-0.3488426	0	-98.213	-53.967	8.035	B5-03822-P03-CH1	871376	OK	0.7684879	-0.6187982	0.1628346	0	-105.458	-26.167	3.712	B5-03822-P04-CH0	871376	OK	0.6922868	-0.1916824	0.6956989	0	-130.862	-29.522	11.18	B5-03822-P04-CH1	871376	OK	0.7646954	-0.6434122	0.0355194	0	-115.798	-43.431	5.531	NA
