Wav.Time	B5.03822.P01.CH0	Frame	State	Q0	Qx	Qy	Qz	Tx	Ty	Tz	B5.03822.P02.CH0	Frame.1	State.1	Q0.1	Qx.1	Qy.1	Qz.1	Tx.1	Ty.1	Tz.1	B5.03822.P02.CH1	Frame.2	State.2	Q0.2	Qx.2	Qy.2	Qz.2	Tx.2	Ty.2	Tz.2	B5.03822.P03.CH0	Frame.3	State.3	Q0.3	Qx.3	Qy.3	Qz.3	Tx.3	Ty.3	Tz.3	B5.03822.P03.CH1	Frame.4	State.4	Q0.4	Qx.4	Qy.4	Qz.4	Tx.4	Ty.4	Tz.4	B5.03822.P04.CH0	Frame.5	State.5	Q0.5	Qx.5	Qy.5	Qz.5	Tx.5	Ty.5	Tz.5	B5.03822.P04.CH1	Frame.6	State.6	Q0.6	Qx.6	Qy.6	Qz.6	Tx.6	Ty.6	Tz.6	X
0	B5-03822-P01-CH0	6340344	OK	0.2061131	0.0365534	0.0618752	-0.9758856	101.361	-51.773	-297.093	B5-03822-P02-CH0	6340344	OK	0.6860482	0.1938701	-0.7012505	0	-83.324	-96.017	-0.943	B5-03822-P02-CH1	6340344	OK	0.7583358	-0.065632	-0.6485516	0	-84.083	-72.326	1.099	B5-03822-P03-CH0	6340344	OK	0.7615343	-0.150009	-0.6305258	0	-102.004	-53.982	4.981	B5-03822-P03-CH1	6340344	OK	0.733162	-0.6751665	0.0813857	0	-102.923	-17.778	-1.713	B5-03822-P04-CH0	6340344	OK	0.7702563	0.33813	-0.5407156	0	-130.428	-43.985	20.35	B5-03822-P04-CH1	6340344	OK	0.7381954	-0.670307	0.0758693	0	-113.957	-40.975	-9.437	NA
0.00999199679871949	B5-03822-P01-CH0	6340352	OK	0.2057643	0.0371361	0.0603905	-0.9760302	101.499	-51.83	-297.043	B5-03822-P02-CH0	6340352	OK	0.6910315	0.2005455	-0.6944473	0	-81.651	-95.214	-4.746	B5-03822-P02-CH1	6340352	OK	0.7578994	-0.0632679	-0.6492962	0	-84.205	-72.431	1.308	B5-03822-P03-CH0	6340352	OK	0.7612515	-0.1514899	-0.6305133	0	-102.14	-54.094	5.021	B5-03822-P03-CH1	6340352	OK	0.7320142	-0.6764197	0.081312	0	-103.233	-18.013	-1.66	B5-03822-P04-CH0	6340352	OK	0.7706173	0.3384951	-0.5399723	0	-130.512	-43.853	20.432	B5-03822-P04-CH1	6340352	OK	0.7372394	-0.671417	0.0753481	0	-114.039	-40.975	-9.275	NA
0.019983993597439	B5-03822-P01-CH0	6340360	OK	0.2056099	0.0373677	0.0601764	-0.9760671	101.523	-51.837	-296.843	B5-03822-P02-CH0	6340360	OK	0.690142	0.2057219	-0.6938173	0	-82.821	-95.806	-2.271	B5-03822-P02-CH1	6340360	OK	0.7575052	-0.0606339	-0.6500072	0	-84.189	-72.493	1.172	B5-03822-P03-CH0	6340360	OK	0.7615303	-0.1527895	-0.6298627	0	-102.021	-54.135	4.81	B5-03822-P03-CH1	6340360	OK	0.7322222	-0.6762873	0.0805363	0	-103.184	-17.688	-2.006	B5-03822-P04-CH0	6340360	OK	0.7703477	0.3396456	-0.5396344	0	-130.616	-43.489	20.038	B5-03822-P04-CH1	6340360	OK	0.7371172	-0.6716537	0.0744287	0	-113.776	-40.82	-9.31	NA
0.0299759903961585	B5-03822-P01-CH0	6340368	OK	0.2057328	0.0369404	0.0604619	-0.9760398	101.301	-51.823	-296.857	B5-03822-P02-CH0	6340368	OK	0.6908193	0.2104509	-0.6917219	0	-82.908	-94.942	-4.112	B5-03822-P02-CH1	6340368	OK	0.7571538	-0.0585369	-0.6506086	0	-84.021	-72.549	1.358	B5-03822-P03-CH0	6340368	OK	0.7620071	-0.1544214	-0.6288873	0	-101.859	-53.982	4.495	B5-03822-P03-CH1	6340368	OK	0.7322566	-0.6761632	0.0812627	0	-103.331	-17.917	-2.009	B5-03822-P04-CH0	6340368	OK	0.7701695	0.3398808	-0.5397406	0	-130.454	-43.355	20.111	B5-03822-P04-CH1	6340368	OK	0.7369555	-0.6717568	0.0750961	0	-113.549	-41.109	-9.468	NA
0.039967987194878	B5-03822-P01-CH0	6340376	OK	0.2058457	0.0368784	0.0606002	-0.9760098	101.302	-51.857	-297.124	B5-03822-P02-CH0	6340376	OK	0.6927139	0.213746	-0.6888106	0	-82.931	-95.884	-5.049	B5-03822-P02-CH1	6340376	OK	0.7565014	-0.0563737	-0.6515579	0	-84.025	-72.639	1.604	B5-03822-P03-CH0	6340376	OK	0.762283	-0.1570964	-0.6278896	0	-101.741	-54.389	4.976	B5-03822-P03-CH1	6340376	OK	0.7323189	-0.6761212	0.0810503	0	-103.132	-18.04	-1.938	B5-03822-P04-CH0	6340376	OK	0.7702356	0.3393485	-0.5399812	0	-130.359	-43.662	20.453	B5-03822-P04-CH1	6340376	OK	0.7370852	-0.6716046	0.0751841	0	-113.623	-41.369	-8.502	NA
0.0499599839935974	B5-03822-P01-CH0	6340384	OK	0.2062266	0.0366194	0.061812	-0.9758631	101.189	-51.632	-297.155	B5-03822-P02-CH0	6340384	OK	0.6940745	0.213675	-0.6874617	0	-83.4	-96.732	-3.708	B5-03822-P02-CH1	6340384	OK	0.7561399	-0.0542474	-0.6521577	0	-83.834	-72.405	1.385	B5-03822-P03-CH0	6340384	OK	0.7637974	-0.173521	-0.6216945	0	-101.479	-53.751	5.107	B5-03822-P03-CH1	6340384	OK	0.7330117	-0.6753014	0.0816203	0	-103.01	-18.023	-1.979	B5-03822-P04-CH0	6340384	OK	0.7699352	0.3396154	-0.5402418	0	-130.248	-43.57	20.387	B5-03822-P04-CH1	6340384	OK	0.7379837	-0.6705995	0.0753422	0	-113.553	-41.094	-8.913	NA
0.0599519807923169	B5-03822-P01-CH0	6340392	OK	0.2059589	0.036847	0.0612796	-0.9759447	101.199	-51.667	-297.194	B5-03822-P02-CH0	6340392	OK	0.6959841	0.2154302	-0.6849788	0	-83.559	-96.702	-1.739	B5-03822-P02-CH1	6340392	OK	0.7554477	-0.0519445	-0.6531467	0	-83.796	-72.482	1.531	B5-03822-P03-CH0	6340392	OK	0.7651179	-0.1807577	-0.6179978	0	-100.609	-54.026	4.065	B5-03822-P03-CH1	6340392	OK	0.732567	-0.6757668	0.0817615	0	-103.265	-18.093	-1.938	B5-03822-P04-CH0	6340392	OK	0.7699012	0.3397605	-0.5401991	0	-130.418	-43.509	20.303	B5-03822-P04-CH1	6340392	OK	0.7375312	-0.6711292	0.0750552	0	-113.561	-41.135	-8.933	NA
0.0699439775910364	B5-03822-P01-CH0	6340400	OK	0.206174	0.0365575	0.0622729	-0.9758473	101.067	-51.523	-297.251	B5-03822-P02-CH0	6340400	OK	0.6963277	0.2185594	-0.683637	0	-84.35	-96.517	-0.905	B5-03822-P02-CH1	6340400	OK	0.7549526	-0.0495855	-0.6539021	0	-83.666	-72.26	1.409	B5-03822-P03-CH0	6340400	OK	0.7646257	-0.1861669	-0.6170004	0	-100.99	-55.042	3.428	B5-03822-P03-CH1	6340400	OK	0.7330778	-0.6751279	0.082458	0	-103.26	-18.153	-1.825	B5-03822-P04-CH0	6340400	OK	0.7696757	0.3404466	-0.5400883	0	-130.203	-43.362	20.24	B5-03822-P04-CH1	6340400	OK	0.738015	-0.6705332	0.075624	0	-113.291	-41.266	-8.593	NA
0.0799359743897559	B5-03822-P01-CH0	6340408	OK	0.2059245	0.0368268	0.0615434	-0.9759361	101.113	-51.623	-297.229	B5-03822-P02-CH0	6340408	OK	0.6999385	0.2229788	-0.6785031	0	-83.633	-96.877	-2.05	B5-03822-P02-CH1	6340408	OK	0.7502031	-0.0395742	-0.6600221	0	-84.054	-73.588	2.592	B5-03822-P03-CH0	6340408	OK	0.7648684	-0.188692	-0.6159315	0	-101.371	-54.67	2.717	B5-03822-P03-CH1	6340408	OK	0.732004	-0.6762653	0.0826763	0	-103.186	-18.623	-1.711	B5-03822-P04-CH0	6340408	OK	0.7702355	0.340332	-0.5393621	0	-129.986	-43.485	20.421	B5-03822-P04-CH1	6340408	OK	0.7378188	-0.6708311	0.0748928	0	-113.396	-41.084	-8.505	NA
0.0899279711884754	B5-03822-P01-CH0	6340416	OK	0.206549	0.0365547	0.0628705	-0.9757298	100.978	-51.388	-297.246	B5-03822-P02-CH0	6340416	OK	0.7007778	0.228178	-0.6759033	0	-83.644	-94.714	-1.655	B5-03822-P02-CH1	6340416	OK	0.7504078	-0.0389219	-0.6598282	0	-83.562	-73.495	-0.756	B5-03822-P03-CH0	6340416	OK	0.7677756	-0.1949493	-0.6103404	0	-100.438	-55.139	3.637	B5-03822-P03-CH1	6340416	OK	0.7331198	-0.6749476	0.0835531	0	-103.226	-18.207	-2.08	B5-03822-P04-CH0	6340416	OK	0.7698163	0.3404689	-0.5398739	0	-129.861	-43.477	20.319	B5-03822-P04-CH1	6340416	OK	0.7386124	-0.6698837	0.0755488	0	-113.31	-41.021	-8.77	NA
0.0999199679871949	B5-03822-P01-CH0	6340424	OK	0.2068457	0.0367324	0.0632682	-0.9756345	101.019	-51.294	-297.288	B5-03822-P02-CH0	6340424	OK	0.7026008	0.2311194	-0.6730051	0	-84.827	-96.339	-2.55	B5-03822-P02-CH1	6340424	OK	0.7530071	-0.0440696	-0.6565349	0	-83.484	-72.522	1.041	B5-03822-P03-CH0	6340424	OK	0.7704532	-0.2020699	-0.6046236	0	-100.609	-55.323	4.197	B5-03822-P03-CH1	6340424	OK	0.7332107	-0.6747332	0.0844821	0	-103.409	-18.291	-2.055	B5-03822-P04-CH0	6340424	OK	0.7695257	0.3392352	-0.5410635	0	-129.967	-43.868	20.485	B5-03822-P04-CH1	6340424	OK	0.7387966	-0.6696317	0.0759796	0	-113.371	-41.134	-8.749	NA
0.109911964785914	B5-03822-P01-CH0	6340432	OK	0.20707	0.0367592	0.0639487	-0.9755416	101.059	-51.279	-297.34	B5-03822-P02-CH0	6340432	OK	0.7052805	0.235572	-0.6686444	0	-84.878	-96.491	-5.294	B5-03822-P02-CH1	6340432	OK	0.7524541	-0.0419868	-0.6573051	0	-83.589	-72.631	0.629	B5-03822-P03-CH0	6340432	OK	0.772738	-0.2060297	-0.6003563	0	-101.735	-55.849	4.432	B5-03822-P03-CH1	6340432	OK	0.7333833	-0.6744591	0.0851696	0	-103.351	-18.547	-1.89	B5-03822-P04-CH0	6340432	OK	0.7692713	0.3389014	-0.5416342	0	-129.962	-44.053	20.525	B5-03822-P04-CH1	6340432	OK	0.7394684	-0.6688553	0.0762836	0	-113.437	-41.135	-8.535	NA
0.119903961584634	B5-03822-P01-CH0	6340440	OK	0.2066358	0.0371081	0.0628637	-0.9756909	101.136	-51.42	-297.336	B5-03822-P02-CH0	6340440	OK	0.7059562	0.2369699	-0.6674362	0	-85.695	-96.601	-3.794	B5-03822-P02-CH1	6340440	OK	0.7562172	-0.0311381	-0.6535793	0	-83.29	-73.7	1.035	B5-03822-P03-CH0	6340440	OK	0.7774438	-0.2065191	-0.5940799	0	-100.876	-56.026	4.335	B5-03822-P03-CH1	6340440	OK	0.7322963	-0.6756373	0.085184	0	-103.309	-18.805	-1.709	B5-03822-P04-CH0	6340440	OK	0.7695554	0.338588	-0.5414265	0	-130.02	-44.128	20.618	B5-03822-P04-CH1	6340440	OK	0.7390028	-0.6694059	0.0759651	0	-113.646	-40.891	-9.381	NA
0.129895958383353	B5-03822-P01-CH0	6340448	OK	0.2064958	0.0369568	0.0633542	-0.9756946	101.013	-51.277	-297.197	B5-03822-P02-CH0	6340448	OK	0.7072322	0.2376942	-0.6658259	0	-85.94	-95.718	-2.718	B5-03822-P02-CH1	6340448	OK	0.7584793	-0.0298306	-0.651014	0	-84.523	-73.812	2.747	B5-03822-P03-CH0	6340448	OK	0.7773754	-0.2048258	-0.5947554	0	-101.84	-55.535	3.995	B5-03822-P03-CH1	6340448	OK	0.7330323	-0.6750148	0.0837772	0	-102.878	-17.914	-2.569	B5-03822-P04-CH0	6340448	OK	0.769226	0.3386874	-0.5418322	0	-130.098	-43.789	20.081	B5-03822-P04-CH1	6340448	OK	0.7398885	-0.668525	0.0750959	0	-113.732	-40.17	-9.808	NA
0.139887955182073	B5-03822-P01-CH0	6340456	OK	0.2062753	0.0368362	0.0638427	-0.975714	100.888	-51.138	-296.992	B5-03822-P02-CH0	6340456	OK	0.7068829	0.2347345	-0.6672453	0	-87.074	-97.176	0.64	B5-03822-P02-CH1	6340456	OK	0.7621737	-0.0301276	-0.6466712	0	-85.072	-73.722	2.176	B5-03822-P03-CH0	6340456	OK	0.7768672	-0.199408	-0.5972553	0	-101.224	-56.189	5.467	B5-03822-P03-CH1	6340456	OK	0.7332725	-0.674772	0.0836313	0	-102.781	-17.637	-2.947	B5-03822-P04-CH0	6340456	OK	0.7689934	0.3386109	-0.5422102	0	-130.058	-43.543	19.931	B5-03822-P04-CH1	6340456	OK	0.7401438	-0.668256	0.0749738	0	-113.629	-40.023	-9.993	NA
0.149879951980792	B5-03822-P01-CH0	6340464	OK	0.2059605	0.0368312	0.0639287	-0.975775	100.871	-51.144	-296.899	B5-03822-P02-CH0	6340464	OK	0.709288	0.2325527	-0.6654546	0	-86.744	-96.497	-3.301	B5-03822-P02-CH1	6340464	OK	0.7655619	-0.0312206	-0.6426043	0	-86.037	-74.124	1.278	B5-03822-P03-CH0	6340464	OK	0.7750456	-0.1903836	-0.6025433	0	-100.603	-56.387	3.629	B5-03822-P03-CH1	6340464	OK	0.7331338	-0.6749647	0.083292	0	-102.767	-17.596	-3.281	B5-03822-P04-CH0	6340464	OK	0.768938	0.3371542	-0.5431955	0	-130.168	-43.822	19.996	B5-03822-P04-CH1	6340464	OK	0.7401688	-0.6682578	0.0747107	0	-113.539	-40.036	-10.084	NA
0.159871948779512	B5-03822-P01-CH0	6340472	OK	0.2061885	0.036555	0.0644932	-0.9757001	100.79	-51.042	-296.9	B5-03822-P02-CH0	6340472	OK	0.7106222	0.2274747	-0.6657862	0	-86.772	-95.282	-2.435	B5-03822-P02-CH1	6340472	OK	0.7693262	-0.0345481	-0.6379213	0	-86.904	-74.226	2.159	B5-03822-P03-CH0	6340472	OK	0.766811	-0.1766905	-0.6170748	0	-101.113	-57.866	3.602	B5-03822-P03-CH1	6340472	OK	0.7333856	-0.6746915	0.0832884	0	-102.453	-17.483	-3.457	B5-03822-P04-CH0	6340472	OK	0.7686727	0.3362324	-0.5441416	0	-130.173	-43.903	19.953	B5-03822-P04-CH1	6340472	OK	0.7409161	-0.6674114	0.0748693	0	-113.593	-39.768	-10.107	NA
0.169863945578231	B5-03822-P01-CH0	6340480	OK	0.2059076	0.0367728	0.0637942	-0.9757972	100.852	-51.036	-296.873	B5-03822-P02-CH0	6340480	OK	0.7124748	0.2178382	-0.6670279	0	-87.62	-95.75	-1.252	B5-03822-P02-CH1	6340480	OK	0.7751267	-0.0340817	-0.6308859	0	-86.382	-74.148	1.219	B5-03822-P03-CH0	6340480	OK	0.7545731	-0.1337166	-0.6424479	0	-99.539	-55.656	0.654	B5-03822-P03-CH1	6340480	OK	0.7327766	-0.6753957	0.0829407	0	-102.558	-17.443	-3.527	B5-03822-P04-CH0	6340480	OK	0.7688758	0.3349622	-0.5446379	0	-130.254	-44.064	20.062	B5-03822-P04-CH1	6340480	OK	0.7404377	-0.6679882	0.0744565	0	-113.687	-39.688	-10.278	NA
0.179855942376951	B5-03822-P01-CH0	6340488	OK	0.2060747	0.036565	0.0645345	-0.975721	100.754	-50.835	-296.821	B5-03822-P02-CH0	6340488	OK	0.7159164	0.2058402	-0.6671533	0	-87.183	-95.917	-3.745	B5-03822-P02-CH1	6340488	OK	0.7768028	-0.0329254	-0.6288826	0	-87.945	-73.733	1.54	B5-03822-P03-CH0	6340488	OK	0.7421441	-0.0890868	-0.6642934	0	-97.99	-56.011	1.645	B5-03822-P03-CH1	6340488	OK	0.7332947	-0.6747936	0.0832615	0	-102.61	-17.209	-3.586	B5-03822-P04-CH0	6340488	OK	0.7683696	0.3339228	-0.5459888	0	-130.394	-44.094	19.835	B5-03822-P04-CH1	6340488	OK	0.7408322	-0.6675232	0.0747029	0	-113.657	-39.628	-10.441	NA
0.18984793917567	B5-03822-P01-CH0	6340496	OK	0.2057614	0.036058	0.064838	-0.9757859	100.516	-50.725	-296.884	B5-03822-P02-CH0	6340496	OK	0.7173365	0.1905306	-0.6701689	0	-87.491	-95.355	-1.438	B5-03822-P02-CH1	6340496	OK	0.7811823	-0.0368277	-0.6232158	0	-87.008	-73.621	4.043	B5-03822-P03-CH0	6340496	OK	0.7390495	-0.0680297	-0.6702073	0	-98.87	-55.672	2.43	B5-03822-P03-CH1	6340496	OK	0.7334179	-0.6747429	0.0825847	0	-102.435	-16.912	-3.736	B5-03822-P04-CH0	6340496	OK	0.7681749	0.3339843	-0.546225	0	-130.201	-43.848	19.993	B5-03822-P04-CH1	6340496	OK	0.7409174	-0.6674337	0.0746569	0	-113.603	-39.681	-10.021	NA
0.19983993597439	B5-03822-P01-CH0	6340504	OK	0.2055267	0.035946	0.0645315	-0.9758598	100.439	-50.755	-296.823	B5-03822-P02-CH0	6340504	OK	0.7209316	0.1745536	-0.6706628	0	-86.77	-94.691	-2.822	B5-03822-P02-CH1	6340504	OK	0.7833068	-0.0454038	-0.619975	0	-87.45	-74.559	3.158	B5-03822-P03-CH0	6340504	OK	0.7446299	-0.0556496	-0.6651537	0	-97.717	-54.738	2.806	B5-03822-P03-CH1	6340504	OK	0.7334147	-0.6748551	0.0816913	0	-101.997	-16.551	-4.003	B5-03822-P04-CH0	6340504	OK	0.7683968	0.3341032	-0.5458401	0	-129.95	-43.777	19.855	B5-03822-P04-CH1	6340504	OK	0.7405541	-0.6678488	0.0745499	0	-113.63	-39.944	-9.656	NA
0.209831932773109	B5-03822-P01-CH0	6340512	OK	0.2051541	0.0354276	0.0642642	-0.9759748	100.181	-50.795	-296.801	B5-03822-P02-CH0	6340512	OK	0.7224305	0.1528301	-0.674342	0	-87.507	-95.239	-2.251	B5-03822-P02-CH1	6340512	OK	0.7849828	-0.0467345	-0.6177523	0	-88.039	-73.992	1.23	B5-03822-P03-CH0	6340512	OK	0.7463328	-0.0448507	-0.66406	0	-98.097	-56.593	5.258	B5-03822-P03-CH1	6340512	OK	0.7334532	-0.6749113	0.0808772	0	-101.794	-16.154	-4.18	B5-03822-P04-CH0	6340512	OK	0.7686481	0.3345034	-0.5452408	0	-129.682	-43.509	19.41	B5-03822-P04-CH1	6340512	OK	0.7405828	-0.6679956	0.0729312	0	-113.604	-39.325	-10.801	NA
0.219823929571829	B5-03822-P01-CH0	6340520	OK	0.2051537	0.0352395	0.0643855	-0.9759737	100.075	-50.724	-296.873	B5-03822-P02-CH0	6340520	OK	0.7254891	0.1291356	-0.67601	0	-87.365	-96.351	-3.971	B5-03822-P02-CH1	6340520	OK	0.785363	-0.0481673	-0.6171587	0	-88.72	-75.046	2.732	B5-03822-P03-CH0	6340520	OK	0.7479032	-0.0312064	-0.6630739	0	-99.644	-55.655	1.329	B5-03822-P03-CH1	6340520	OK	0.7335999	-0.6748052	0.0804308	0	-101.796	-15.948	-4.314	B5-03822-P04-CH0	6340520	OK	0.7684805	0.333879	-0.5458594	0	-129.521	-43.603	19.675	B5-03822-P04-CH1	6340520	OK	0.7404721	-0.6681396	0.0727365	0	-113.492	-39.462	-10.579	NA
0.229815926370548	B5-03822-P01-CH0	6340528	OK	0.2049479	0.0353778	0.0642287	-0.9760223	100.118	-50.736	-297.04	B5-03822-P02-CH0	6340528	OK	0.7275482	0.106669	-0.6777134	0	-86.594	-96.491	-1.662	B5-03822-P02-CH1	6340528	OK	0.7853947	-0.0478454	-0.6171434	0	-89.548	-75.368	4.318	B5-03822-P03-CH0	6340528	OK	0.7493843	-0.0224232	-0.6617555	0	-100.825	-55.267	-0.181	B5-03822-P03-CH1	6340528	OK	0.7335491	-0.6748927	0.0801596	0	-101.968	-15.967	-3.986	B5-03822-P04-CH0	6340528	OK	0.7684959	0.3334852	-0.5460784	0	-129.409	-43.867	20.071	B5-03822-P04-CH1	6340528	OK	0.7401283	-0.66855	0.0724639	0	-113.345	-39.738	-10.061	NA
0.239807923169268	B5-03822-P01-CH0	6340536	OK	0.2048747	0.0353781	0.0643465	-0.9760298	100.074	-50.683	-297.119	B5-03822-P02-CH0	6340536	OK	0.7264228	0.0850442	-0.6819659	0	-87.24	-96.946	-1.52	B5-03822-P02-CH1	6340536	OK	0.785088	-0.0432746	-0.6178707	0	-89.625	-75.365	4.477	B5-03822-P03-CH0	6340536	OK	0.752332	-0.0219294	-0.658419	0	-100.928	-54.529	-1.161	B5-03822-P03-CH1	6340536	OK	0.7332208	-0.6752288	0.0803329	0	-102.018	-16.248	-3.783	B5-03822-P04-CH0	6340536	OK	0.7685149	0.33304	-0.5463234	0	-129.149	-44.083	20.293	B5-03822-P04-CH1	6340536	OK	0.7403615	-0.6683736	0.0717049	0	-113.322	-39.54	-10.188	NA
0.249799919967987	B5-03822-P01-CH0	6340544	OK	0.2046608	0.0355331	0.0641342	-0.9760831	100.044	-50.616	-297.192	B5-03822-P02-CH0	6340544	OK	0.724056	0.0663949	-0.6865381	0	-87.816	-97.277	-1.431	B5-03822-P02-CH1	6340544	OK	0.7826318	-0.0402044	-0.6211853	0	-90.126	-75.537	1.224	B5-03822-P03-CH0	6340544	OK	0.7560974	-0.0365066	-0.6534402	0	-100.143	-56.281	1.327	B5-03822-P03-CH1	6340544	OK	0.7323581	-0.6761292	0.0806277	0	-102.033	-16.721	-3.272	B5-03822-P04-CH0	6340544	OK	0.7682358	0.3342869	-0.5459542	0	-128.92	-43.724	20.468	B5-03822-P04-CH1	6340544	OK	0.7400341	-0.6687825	0.0712709	0	-113.477	-39.641	-10.044	NA
0.259791916766707	B5-03822-P01-CH0	6340552	OK	0.2041402	0.0357317	0.0636272	-0.976218	99.941	-50.548	-297.23	B5-03822-P02-CH0	6340552	OK	0.7244804	0.0552456	-0.6870779	0	-86.604	-95.948	-3.046	B5-03822-P02-CH1	6340552	OK	0.7789449	-0.0326278	-0.6262429	0	-89.175	-76.766	2.956	B5-03822-P03-CH0	6340552	OK	0.7617238	-0.0685923	-0.6442608	0	-99.391	-56.363	4.189	B5-03822-P03-CH1	6340552	OK	0.731473	-0.6771388	0.0801889	0	-102.138	-16.887	-2.999	B5-03822-P04-CH0	6340552	OK	0.7680536	0.3347866	-0.5459043	0	-128.781	-43.565	20.642	B5-03822-P04-CH1	6340552	OK	0.7390748	-0.6698542	0.0711602	0	-113.478	-40.149	-9.555	NA
0.269783913565426	B5-03822-P01-CH0	6340560	OK	0.2038697	0.036027	0.0632579	-0.9762877	99.963	-50.652	-297.374	B5-03822-P02-CH0	6340560	OK	0.7237701	0.0515256	-0.6881148	0	-86.626	-97.056	-4.498	B5-03822-P02-CH1	6340560	OK	0.7727244	-0.0215883	-0.6343744	0	-87.904	-76.891	4.757	B5-03822-P03-CH0	6340560	OK	0.7669513	-0.1137945	-0.631535	0	-99.369	-58.075	5.524	B5-03822-P03-CH1	6340560	OK	0.731095	-0.6776525	0.0792917	0	-102.002	-16.813	-2.887	B5-03822-P04-CH0	6340560	OK	0.7676953	0.3352402	-0.5461299	0	-128.742	-43.587	20.867	B5-03822-P04-CH1	6340560	OK	0.738801	-0.6702051	0.0706986	0	-113.508	-40.45	-8.924	NA
0.279775910364146	B5-03822-P01-CH0	6340568	OK	0.203437	0.0363833	0.062975	-0.976383	100.011	-50.611	-297.469	B5-03822-P02-CH0	6340568	OK	0.7227564	0.0523206	-0.6891195	0	-86.432	-95.891	-3.173	B5-03822-P02-CH1	6340568	OK	0.7624552	-0.0066716	-0.6470066	0	-87.437	-76.091	1.54	B5-03822-P03-CH0	6340568	OK	0.763458	-0.1514914	-0.6278393	0	-99.17	-57.753	3.538	B5-03822-P03-CH1	6340568	OK	0.7307752	-0.6781593	0.0778941	0	-101.99	-16.563	-2.985	B5-03822-P04-CH0	6340568	OK	0.767359	0.3362321	-0.5459929	0	-128.645	-43.357	21.199	B5-03822-P04-CH1	6340568	OK	0.7389009	-0.6702279	0.0694271	0	-113.856	-40.069	-9.237	NA
0.289767907162865	B5-03822-P01-CH0	6340576	OK	0.2029348	0.0370717	0.0621545	-0.9765142	100.14	-50.651	-297.424	B5-03822-P02-CH0	6340576	OK	0.7214217	0.0554897	-0.6902693	0	-87.001	-97.466	-2.675	B5-03822-P02-CH1	6340576	OK	0.7514981	0.0093918	-0.6596684	0	-85.84	-75.958	1.013	B5-03822-P03-CH0	6340576	OK	0.7547328	-0.1797113	-0.6309376	0	-97.136	-57.523	1.686	B5-03822-P03-CH1	6340576	OK	0.7298363	-0.6792834	0.0768959	0	-102.1	-16.76	-2.687	B5-03822-P04-CH0	6340576	OK	0.7671815	0.3362738	-0.5462166	0	-128.718	-43.347	21.239	B5-03822-P04-CH1	6340576	OK	0.7388735	-0.6704271	0.0677756	0	-114.057	-39.572	-9.313	NA
0.299759903961585	B5-03822-P01-CH0	6340584	OK	0.2024222	0.0371427	0.0615997	-0.976653	99.981	-50.625	-297.441	B5-03822-P02-CH0	6340584	OK	0.7224433	0.0624483	-0.6886043	0	-86.385	-96.745	-2.051	B5-03822-P02-CH1	6340584	OK	0.7410705	0.0235996	-0.6710123	0	-84.629	-76.232	0.663	B5-03822-P03-CH0	6340584	OK	0.7471447	-0.2037744	-0.6326538	0	-96.006	-56.603	0.13	B5-03822-P03-CH1	6340584	OK	0.7293355	-0.6799224	0.0759959	0	-102.361	-16.614	-2.695	B5-03822-P04-CH0	6340584	OK	0.7665638	0.3368944	-0.5467011	0	-128.77	-43.107	21.543	B5-03822-P04-CH1	6340584	OK	0.7387081	-0.6706845	0.0670273	0	-114.048	-39.348	-9.229	NA
0.309751900760304	B5-03822-P01-CH0	6340592	OK	0.2021719	0.0372329	0.0620587	-0.9766724	99.866	-50.432	-297.471	B5-03822-P02-CH0	6340592	OK	0.7234719	0.0676131	-0.6870349	0	-86.48	-96.983	-1.651	B5-03822-P02-CH1	6340592	OK	0.7351767	0.0346107	-0.6769914	0	-83.391	-75.899	-2.637	B5-03822-P03-CH0	6340592	OK	0.7454395	-0.2225306	-0.6283312	0	-94.343	-56.763	0.455	B5-03822-P03-CH1	6340592	OK	0.7293103	-0.6800404	0.0751766	0	-102.293	-16.466	-2.889	B5-03822-P04-CH0	6340592	OK	0.7657556	0.3377746	-0.5472904	0	-128.663	-42.961	21.994	B5-03822-P04-CH1	6340592	OK	0.7386843	-0.6706531	0.067601	0	-113.913	-39.75	-8.527	NA
0.319743897559024	B5-03822-P01-CH0	6340600	OK	0.201994	0.0370164	0.0635848	-0.9766193	99.666	-50.077	-297.434	B5-03822-P02-CH0	6340600	OK	0.7253623	0.0748146	-0.6842896	0	-86.297	-96.384	-1.903	B5-03822-P02-CH1	6340600	OK	0.7324734	0.0356187	-0.6798632	0	-82.166	-75.166	-2.218	B5-03822-P03-CH0	6340600	OK	0.7442633	-0.2300287	-0.6270239	0	-94.528	-56.553	-0.907	B5-03822-P03-CH1	6340600	OK	0.7298796	-0.6794098	0.0753537	0	-102.36	-16.512	-2.424	B5-03822-P04-CH0	6340600	OK	0.7647407	0.3389402	-0.5479883	0	-128.575	-42.82	22.168	B5-03822-P04-CH1	6340600	OK	0.7398173	-0.6694157	0.0674763	0	-114.08	-39.619	-7.735	NA
0.329735894357743	B5-03822-P01-CH0	6340608	OK	0.2014779	0.0375563	0.0631426	-0.9767339	99.723	-50.029	-297.229	B5-03822-P02-CH0	6340608	OK	0.7263551	0.0783052	-0.6828445	0	-86.917	-95.935	-0.6	B5-03822-P02-CH1	6340608	OK	0.7287517	0.0304643	-0.6841001	0	-83.258	-75.606	-3.5	B5-03822-P03-CH0	6340608	OK	0.7403073	-0.2286945	-0.632174	0	-95.318	-57.134	2.313	B5-03822-P03-CH1	6340608	OK	0.7289294	-0.6804016	0.0756011	0	-102.672	-16.93	-2.15	B5-03822-P04-CH0	6340608	OK	0.7639285	0.3401017	-0.5484014	0	-128.799	-42.7	22.265	B5-03822-P04-CH1	6340608	OK	0.7392719	-0.6700429	0.0672277	0	-114.221	-39.924	-7.355	NA
0.339727891156463	B5-03822-P01-CH0	6340616	OK	0.2011174	0.0374918	0.0630755	-0.976815	99.558	-49.959	-297.237	B5-03822-P02-CH0	6340616	OK	0.729182	0.0813182	-0.679471	0	-86.835	-95.984	-2.728	B5-03822-P02-CH1	6340616	OK	0.7289277	0.0215011	-0.684253	0	-82.374	-75.155	0.844	B5-03822-P03-CH0	6340616	OK	0.739217	-0.2224464	-0.6356696	0	-94.926	-54.783	-0.417	B5-03822-P03-CH1	6340616	OK	0.7289673	-0.6804536	0.0747638	0	-102.659	-16.53	-2.251	B5-03822-P04-CH0	6340616	OK	0.7633222	0.3409976	-0.5486892	0	-128.863	-42.56	22.32	B5-03822-P04-CH1	6340616	OK	0.739135	-0.670237	0.0667959	0	-114.081	-39.768	-8.177	NA
0.349719887955182	B5-03822-P01-CH0	6340624	OK	0.2008869	0.037502	0.0626073	-0.9768922	99.402	-49.925	-297.122	B5-03822-P02-CH0	6340624	OK	0.7303766	0.0803766	-0.6782991	0	-87.388	-96.464	-1.632	B5-03822-P02-CH1	6340624	OK	0.7315887	0.0070329	-0.68171	0	-82.196	-74.216	-1.402	B5-03822-P03-CH0	6340624	OK	0.7365992	-0.2118489	-0.6422941	0	-94.487	-55.204	0.017	B5-03822-P03-CH1	6340624	OK	0.7287997	-0.6806777	0.0743565	0	-102.666	-16.258	-2.451	B5-03822-P04-CH0	6340624	OK	0.7631578	0.3404101	-0.5492824	0	-128.943	-42.784	22.326	B5-03822-P04-CH1	6340624	OK	0.7390569	-0.6703236	0.0667917	0	-114.18	-39.796	-7.408	NA
0.359711884753902	B5-03822-P01-CH0	6340632	OK	0.2008147	0.037576	0.0630044	-0.9768787	99.378	-49.826	-297.113	B5-03822-P02-CH0	6340632	OK	0.732863	0.0784939	-0.6758333	0	-86.95	-95.318	-0.304	B5-03822-P02-CH1	6340632	OK	0.7356426	-0.0138284	-0.6772288	0	-82.874	-74.297	-1.315	B5-03822-P03-CH0	6340632	OK	0.7349413	-0.1975082	-0.6487309	0	-95.031	-54.528	0.931	B5-03822-P03-CH1	6340632	OK	0.7292425	-0.6802132	0.0742654	0	-102.724	-16.053	-2.53	B5-03822-P04-CH0	6340632	OK	0.7627076	0.3403785	-0.5499269	0	-129.131	-42.816	22.299	B5-03822-P04-CH1	6340632	OK	0.7392171	-0.6701733	0.0665262	0	-114.145	-39.935	-7.088	NA
0.369703881552621	B5-03822-P01-CH0	6340640	OK	0.2006127	0.0375099	0.0630862	-0.9769174	99.245	-49.71	-297.091	B5-03822-P02-CH0	6340640	OK	0.73653	0.0689816	-0.6728782	0	-86.599	-95.583	-1.888	B5-03822-P02-CH1	6340640	OK	0.7399007	-0.0354974	-0.6717789	0	-84.682	-73.205	-0.991	B5-03822-P03-CH0	6340640	OK	0.7328016	-0.1776473	-0.6568434	0	-95.682	-53.178	0.331	B5-03822-P03-CH1	6340640	OK	0.7292887	-0.6801622	0.0742787	0	-102.765	-15.966	-2.695	B5-03822-P04-CH0	6340640	OK	0.7624761	0.3401906	-0.550364	0	-129.192	-42.803	22.44	B5-03822-P04-CH1	6340640	OK	0.7396421	-0.6698095	0.0654585	0	-114.171	-39.391	-7.655	NA
0.379695878351341	B5-03822-P01-CH0	6340648	OK	0.2002989	0.0376238	0.0633275	-0.9769618	99.214	-49.658	-296.943	B5-03822-P02-CH0	6340648	OK	0.7380449	0.058849	-0.6721804	0	-87.274	-95.85	-2.121	B5-03822-P02-CH1	6340648	OK	0.7476432	-0.0551021	-0.6618106	0	-84.937	-72.375	-0.648	B5-03822-P03-CH0	6340648	OK	0.7289314	-0.1528358	-0.6673082	0	-96.736	-54.458	3.341	B5-03822-P03-CH1	6340648	OK	0.7295578	-0.6798729	0.0742855	0	-102.9	-15.854	-2.929	B5-03822-P04-CH0	6340648	OK	0.7618297	0.3404608	-0.5510916	0	-129.493	-42.725	22.409	B5-03822-P04-CH1	6340648	OK	0.7392512	-0.6702535	0.0653296	0	-113.788	-39.89	-6.936	NA
0.38968787515006	B5-03822-P01-CH0	6340656	OK	0.2000979	0.0375129	0.0629173	-0.9770338	99.083	-49.643	-296.919	B5-03822-P02-CH0	6340656	OK	0.7397572	0.0510204	-0.6709368	0	-87.149	-94.832	-2.486	B5-03822-P02-CH1	6340656	OK	0.7549744	-0.0747233	-0.651483	0	-85.411	-72.578	0.318	B5-03822-P03-CH0	6340656	OK	0.7292764	-0.1264447	-0.6724341	0	-95.576	-53.397	3.744	B5-03822-P03-CH1	6340656	OK	0.7295978	-0.6798013	0.0745466	0	-102.755	-15.656	-3.109	B5-03822-P04-CH0	6340656	OK	0.7619704	0.3403648	-0.5509564	0	-129.489	-42.648	22.445	B5-03822-P04-CH1	6340656	OK	0.7387154	-0.6708534	0.0652316	0	-113.563	-40.104	-6.788	NA
0.39967987194878	B5-03822-P01-CH0	6340664	OK	0.1998487	0.0376409	0.0626513	-0.977097	99.081	-49.574	-296.859	B5-03822-P02-CH0	6340664	OK	0.74212	0.0417625	-0.6689647	0	-86.382	-93.734	-1.425	B5-03822-P02-CH1	6340664	OK	0.7590406	-0.0872667	-0.6451681	0	-86.897	-72.59	1.341	B5-03822-P03-CH0	6340664	OK	0.7293225	-0.1060184	-0.6759058	0	-94.818	-52.235	2.645	B5-03822-P03-CH1	6340664	OK	0.7295569	-0.6798602	0.0744106	0	-102.528	-15.498	-3.556	B5-03822-P04-CH0	6340664	OK	0.7623994	0.3401255	-0.5505105	0	-129.389	-42.501	22.459	B5-03822-P04-CH1	6340664	OK	0.7386604	-0.6710716	0.0635892	0	-113.633	-39.584	-7.417	NA
0.409671868747499	B5-03822-P01-CH0	6340672	OK	0.19978	0.0377294	0.0630184	-0.977084	99.106	-49.413	-296.847	B5-03822-P02-CH0	6340672	OK	0.7403192	0.0306462	-0.6715566	0	-87.726	-94.171	-0.25	B5-03822-P02-CH1	6340672	OK	0.7634793	-0.0961878	-0.6386292	0	-87.794	-71.948	-0.419	B5-03822-P03-CH0	6340672	OK	0.728612	-0.0938843	-0.6784617	0	-96.012	-51.811	1.55	B5-03822-P03-CH1	6340672	OK	0.7305414	-0.678815	0.074293	0	-102.522	-14.979	-3.879	B5-03822-P04-CH0	6340672	OK	0.7622139	0.3389743	-0.5514767	0	-129.683	-42.591	22.48	B5-03822-P04-CH1	6340672	OK	0.7390527	-0.6707748	0.0621471	0	-113.789	-39.094	-7.588	NA
0.419663865546218	B5-03822-P01-CH0	6340680	OK	0.1997642	0.0378707	0.0622188	-0.977133	99.144	-49.454	-296.941	B5-03822-P02-CH0	6340680	OK	0.7395209	0.0227511	-0.6727491	0	-87.508	-94.231	1.224	B5-03822-P02-CH1	6340680	OK	0.7684025	-0.1040173	-0.631457	0	-88.318	-71.62	-0.175	B5-03822-P03-CH0	6340680	OK	0.7297751	-0.0826062	-0.6786785	0	-97.078	-51.788	2.653	B5-03822-P03-CH1	6340680	OK	0.7306887	-0.6786533	0.0743213	0	-102.456	-14.617	-4.608	B5-03822-P04-CH0	6340680	OK	0.7625713	0.3382733	-0.5514129	0	-129.804	-42.475	22.406	B5-03822-P04-CH1	6340680	OK	0.7386992	-0.6712794	0.0608892	0	-113.744	-38.706	-8.012	NA
0.429655862344938	B5-03822-P01-CH0	6340688	OK	0.1999894	0.037739	0.0626318	-0.9770656	99.061	-49.247	-297.091	B5-03822-P02-CH0	6340688	OK	0.7375471	0.0159112	-0.6751082	0	-88.023	-94.396	0.661	B5-03822-P02-CH1	6340688	OK	0.7718467	-0.111906	-0.6258832	0	-89.047	-72.292	1.38	B5-03822-P03-CH0	6340688	OK	0.7338805	-0.0776046	-0.674831	0	-96.844	-52.692	4.553	B5-03822-P03-CH1	6340688	OK	0.7317767	-0.6774261	0.0748117	0	-102.352	-14.191	-4.549	B5-03822-P04-CH0	6340688	OK	0.7629448	0.3368667	-0.5517572	0	-129.629	-42.569	22.75	B5-03822-P04-CH1	6340688	OK	0.739143	-0.6708475	0.0602592	0	-113.693	-38.358	-7.651	NA
0.439647859143657	B5-03822-P01-CH0	6340696	OK	0.2004884	0.0380176	0.0631737	-0.9769177	99.277	-49.139	-297.091	B5-03822-P02-CH0	6340696	OK	0.7362604	0.0136018	-0.6765616	0	-88.093	-94.639	0.147	B5-03822-P02-CH1	6340696	OK	0.7746878	-0.1144825	-0.6218944	0	-89.276	-72.158	0.706	B5-03822-P03-CH0	6340696	OK	0.7377553	-0.0808887	-0.6702046	0	-98.156	-52.99	3.794	B5-03822-P03-CH1	6340696	OK	0.7326339	-0.6763572	0.0760825	0	-102.273	-14.299	-4.637	B5-03822-P04-CH0	6340696	OK	0.7628502	0.3368448	-0.5519014	0	-129.715	-42.456	22.674	B5-03822-P04-CH1	6340696	OK	0.7392462	-0.6706924	0.0607189	0	-113.865	-38.636	-7.123	NA
0.449639855942377	B5-03822-P01-CH0	6340704	OK	0.2008126	0.0382056	0.0632984	-0.9768357	99.472	-49.071	-297.252	B5-03822-P02-CH0	6340704	OK	0.7365492	0.0170684	-0.6761685	0	-87.131	-95.139	-1.017	B5-03822-P02-CH1	6340704	OK	0.7747334	-0.1149537	-0.6217507	0	-90.395	-73.268	0.22	B5-03822-P03-CH0	6340704	OK	0.7450131	-0.0905295	-0.6608781	0	-98.537	-52.984	4.556	B5-03822-P03-CH1	6340704	OK	0.733421	-0.6754041	0.07696	0	-102.227	-14.22	-4.719	B5-03822-P04-CH0	6340704	OK	0.7628008	0.3364426	-0.5522149	0	-129.892	-42.518	22.746	B5-03822-P04-CH1	6340704	OK	0.7396834	-0.6703253	0.0594342	0	-113.994	-37.994	-7.73	NA
0.459631852741096	B5-03822-P01-CH0	6340712	OK	0.2010564	0.0381605	0.0627543	-0.9768224	99.505	-49.093	-297.259	B5-03822-P02-CH0	6340712	OK	0.7361672	0.0161381	-0.6766073	0	-87.055	-95.242	-1.45	B5-03822-P02-CH1	6340712	OK	0.7759356	-0.1129254	-0.6206221	0	-90.364	-73.796	-0.024	B5-03822-P03-CH0	6340712	OK	0.7559306	-0.1139387	-0.6446603	0	-99.583	-54.39	5.742	B5-03822-P03-CH1	6340712	OK	0.7337132	-0.67499	0.0778036	0	-102.045	-14.16	-5.106	B5-03822-P04-CH0	6340712	OK	0.7631798	0.3360444	-0.5519336	0	-129.784	-42.579	22.823	B5-03822-P04-CH1	6340712	OK	0.7393992	-0.6706631	0.0591591	0	-114.17	-37.701	-8.411	NA
0.469623849539816	B5-03822-P01-CH0	6340720	OK	0.2014301	0.0379103	0.0633005	-0.9767199	99.469	-48.903	-297.27	B5-03822-P02-CH0	6340720	OK	0.7355691	0.0157072	-0.6772676	0	-87.189	-95.196	-1.008	B5-03822-P02-CH1	6340720	OK	0.776922	-0.113696	-0.6192458	0	-90.145	-73.81	2.057	B5-03822-P03-CH0	6340720	OK	0.7717137	-0.136516	-0.6211452	0	-99.521	-53.773	5.429	B5-03822-P03-CH1	6340720	OK	0.7344444	-0.6740087	0.0793956	0	-102.106	-14.344	-4.958	B5-03822-P04-CH0	6340720	OK	0.7626026	0.3362876	-0.552583	0	-130.035	-42.327	22.416	B5-03822-P04-CH1	6340720	OK	0.7393889	-0.6706074	0.0599146	0	-114.173	-37.809	-8.571	NA
0.479615846338535	B5-03822-P01-CH0	6340728	OK	0.2019562	0.0376174	0.063657	-0.9765994	99.392	-48.724	-297.393	B5-03822-P02-CH0	6340728	OK	0.7333292	0.0153359	-0.6797007	0	-88.032	-95.765	-1.221	B5-03822-P02-CH1	6340728	OK	0.779449	-0.1147677	-0.6158633	0	-89.583	-73.598	1.576	B5-03822-P03-CH0	6340728	OK	0.7872042	-0.1643586	-0.594387	0	-100.552	-55.28	8.4	B5-03822-P03-CH1	6340728	OK	0.7352477	-0.6730054	0.0804649	0	-102.013	-14.281	-5.001	B5-03822-P04-CH0	6340728	OK	0.7627148	0.3353746	-0.5529829	0	-129.925	-42.506	22.469	B5-03822-P04-CH1	6340728	OK	0.7397068	-0.6701796	0.060772	0	-114.319	-37.691	-8.452	NA
0.489607843137255	B5-03822-P01-CH0	6340736	OK	0.202416	0.0377997	0.0638279	-0.976486	99.545	-48.555	-297.377	B5-03822-P02-CH0	6340736	OK	0.7329628	0.0167463	-0.6800625	0	-87.838	-96.027	-0.931	B5-03822-P02-CH1	6340736	OK	0.7791681	-0.1181446	-0.6155802	0	-90.7	-74.535	0.514	B5-03822-P03-CH0	6340736	OK	0.7959643	-0.1882735	-0.5753207	0	-102.939	-53.925	5.543	B5-03822-P03-CH1	6340736	OK	0.7357336	-0.6723513	0.0814848	0	-102.254	-14.412	-5.187	B5-03822-P04-CH0	6340736	OK	0.7624191	0.3340109	-0.5542146	0	-130.097	-43.029	22.802	B5-03822-P04-CH1	6340736	OK	0.7400708	-0.6697191	0.0614131	0	-114.616	-37.283	-9.233	NA
0.499599839935974	B5-03822-P01-CH0	6340744	OK	0.2029561	0.0376368	0.064339	-0.9763466	99.529	-48.391	-297.368	B5-03822-P02-CH0	6340744	OK	0.7310289	0.0240071	-0.681924	0	-88.55	-95.572	-2.443	B5-03822-P02-CH1	6340744	OK	0.7782783	-0.1229549	-0.6157637	0	-91.44	-75.071	2.554	B5-03822-P03-CH0	6340744	OK	0.8007253	-0.207815	-0.5618291	0	-102.137	-56.239	9.385	B5-03822-P03-CH1	6340744	OK	0.7363562	-0.6715399	0.0825456	0	-102.292	-14.658	-5.086	B5-03822-P04-CH0	6340744	OK	0.7616974	0.3335708	-0.5554705	0	-130.393	-43.168	22.592	B5-03822-P04-CH1	6340744	OK	0.7405267	-0.6690354	0.0633389	0	-114.536	-37.292	-9.212	NA
0.509591836734694	B5-03822-P01-CH0	6340752	OK	0.2032709	0.0375332	0.0640308	-0.9763054	99.59	-48.454	-297.415	B5-03822-P02-CH0	6340752	OK	0.7294228	0.0344168	-0.6831967	0	-88.149	-96.472	-1.907	B5-03822-P02-CH1	6340752	OK	0.7779855	-0.1240674	-0.6159106	0	-90.245	-75.398	3.094	B5-03822-P03-CH0	6340752	OK	0.8029701	-0.2182494	-0.5546225	0	-102.528	-56.153	7.661	B5-03822-P03-CH1	6340752	OK	0.7360529	-0.671744	0.0835827	0	-102.37	-15.347	-4.724	B5-03822-P04-CH0	6340752	OK	0.7616139	0.3330347	-0.5559067	0	-130.467	-43.489	22.615	B5-03822-P04-CH1	6340752	OK	0.7403772	-0.6690064	0.0653609	0	-114.712	-37.645	-9.19	NA
0.519583833533413	B5-03822-P01-CH0	6340760	OK	0.203789	0.0376496	0.063853	-0.9762046	99.744	-48.469	-297.469	B5-03822-P02-CH0	6340760	OK	0.7272756	0.0476525	-0.6846893	0	-87.62	-97.21	-2.384	B5-03822-P02-CH1	6340760	OK	0.7737531	-0.1238963	-0.6212535	0	-90.09	-74.857	0.511	B5-03822-P03-CH0	6340760	OK	0.8033992	-0.2303819	-0.5490664	0	-102.482	-58.407	7.722	B5-03822-P03-CH1	6340760	OK	0.735669	-0.6720357	0.0846112	0	-102.186	-16.173	-4.206	B5-03822-P04-CH0	6340760	OK	0.7611145	0.3323748	-0.5569846	0	-130.744	-43.856	22.569	B5-03822-P04-CH1	6340760	OK	0.7401963	-0.6689625	0.0678128	0	-115.018	-38.124	-9.164	NA
0.529575830332133	B5-03822-P01-CH0	6340768	OK	0.2041405	0.0374225	0.0635572	-0.9761592	99.754	-48.487	-297.452	B5-03822-P02-CH0	6340768	OK	0.7234588	0.0619485	-0.6875825	0	-87.635	-98.13	-1.493	B5-03822-P02-CH1	6340768	OK	0.7691877	-0.1249244	-0.6266931	0	-88.376	-76.183	0.659	B5-03822-P03-CH0	6340768	OK	0.8055591	-0.2338105	-0.5444329	0	-102.453	-58.478	7.679	B5-03822-P03-CH1	6340768	OK	0.7354973	-0.6722638	0.0842913	0	-101.957	-16.344	-4.697	B5-03822-P04-CH0	6340768	OK	0.7606104	0.3322794	-0.5577296	0	-131.07	-44.013	22.203	B5-03822-P04-CH1	6340768	OK	0.7399342	-0.6690287	0.0699862	0	-115.341	-38.221	-10.689	NA
0.539567827130852	B5-03822-P01-CH0	6340776	OK	0.2044976	0.0371226	0.0632652	-0.9761148	99.688	-48.388	-297.554	B5-03822-P02-CH0	6340776	OK	0.7206026	0.0812644	-0.6885695	0	-86.756	-98.164	-2.259	B5-03822-P02-CH1	6340776	OK	0.7592369	-0.1269818	-0.6383063	0	-88.586	-75.836	-0.834	B5-03822-P03-CH0	6340776	OK	0.805933	-0.2409502	-0.5407542	0	-103.51	-59.943	8.395	B5-03822-P03-CH1	6340776	OK	0.7350403	-0.6726857	0.0849099	0	-102.088	-16.862	-4.382	B5-03822-P04-CH0	6340776	OK	0.7599734	0.3309909	-0.5593617	0	-131.49	-44.437	22.345	B5-03822-P04-CH1	6340776	OK	0.7400299	-0.6687055	0.0720321	0	-115.624	-38.321	-10.448	NA
0.549559823929572	B5-03822-P01-CH0	6340784	OK	0.204659	0.0365827	0.0636473	-0.9760766	99.489	-48.224	-297.538	B5-03822-P02-CH0	6340784	OK	0.7161178	0.1002663	-0.6907401	0	-85.526	-98.506	-3.578	B5-03822-P02-CH1	6340784	OK	0.7505015	-0.1297038	-0.6480157	0	-86.469	-75.543	-2.203	B5-03822-P03-CH0	6340784	OK	0.8099299	-0.2428411	-0.533893	0	-102.992	-59.508	7.437	B5-03822-P03-CH1	6340784	OK	0.7351129	-0.6726154	0.0848381	0	-102.059	-16.998	-4.475	B5-03822-P04-CH0	6340784	OK	0.7598832	0.3310464	-0.5594513	0	-131.461	-44.498	22.114	B5-03822-P04-CH1	6340784	OK	0.7396182	-0.6687694	0.0755808	0	-115.468	-39.279	-9.898	NA
0.559551820728291	B5-03822-P01-CH0	6340792	OK	0.2048142	0.0366877	0.0632659	-0.9760648	99.617	-48.142	-297.581	B5-03822-P02-CH0	6340792	OK	0.7082964	0.1213807	-0.6954013	0	-84.982	-98.715	-3.72	B5-03822-P02-CH1	6340792	OK	0.740711	-0.1380813	-0.6574807	0	-84.188	-75.54	-1.545	B5-03822-P03-CH0	6340792	OK	0.811517	-0.2475814	-0.529286	0	-102.612	-60.685	7.427	B5-03822-P03-CH1	6340792	OK	0.734657	-0.673147	0.0845708	0	-102.221	-17.279	-4.325	B5-03822-P04-CH0	6340792	OK	0.759508	0.3315311	-0.5596738	0	-131.808	-44.642	22.171	B5-03822-P04-CH1	6340792	OK	0.7395193	-0.6686424	0.0776441	0	-115.594	-39.596	-9.621	NA
0.569543817527011	B5-03822-P01-CH0	6340800	OK	0.2051145	0.0369417	0.0628397	-0.9760197	99.756	-48.06	-297.519	B5-03822-P02-CH0	6340800	OK	0.7001102	0.1452346	-0.6991084	0	-83.279	-99.926	-4.042	B5-03822-P02-CH1	6340800	OK	0.7272739	-0.1556199	-0.6684722	0	-83.986	-75.717	-4.345	B5-03822-P03-CH0	6340800	OK	0.8130638	-0.2500174	-0.5257552	0	-102.714	-61.082	8.804	B5-03822-P03-CH1	6340800	OK	0.7345675	-0.6733446	0.083771	0	-102.142	-17.119	-4.496	B5-03822-P04-CH0	6340800	OK	0.7597068	0.3326133	-0.5587612	0	-131.861	-44.734	21.972	B5-03822-P04-CH1	6340800	OK	0.7393179	-0.6686541	0.0794401	0	-115.885	-39.902	-9.527	NA
0.57953581432573	B5-03822-P01-CH0	6340808	OK	0.2051437	0.0371248	0.0620598	-0.9760565	99.861	-48.06	-297.496	B5-03822-P02-CH0	6340808	OK	0.6902096	0.1701774	-0.7033138	0	-80.584	-99.388	-4.284	B5-03822-P02-CH1	6340808	OK	0.7180069	-0.1749105	-0.6737005	0	-80.738	-73.441	-5.043	B5-03822-P03-CH0	6340808	OK	0.8161087	-0.2587268	-0.5167467	0	-102.022	-62.065	9.106	B5-03822-P03-CH1	6340808	OK	0.7339569	-0.6740427	0.0835085	0	-102.169	-17.279	-4.287	B5-03822-P04-CH0	6340808	OK	0.7597148	0.3351836	-0.5572121	0	-132.014	-44.486	21.65	B5-03822-P04-CH1	6340808	OK	0.7388458	-0.6690215	0.0807287	0	-116.144	-40.18	-9.632	NA
0.58952781112445	B5-03822-P01-CH0	6340816	OK	0.2051739	0.0367447	0.0617018	-0.9760873	99.736	-48.052	-297.61	B5-03822-P02-CH0	6340816	OK	0.678449	0.1887082	-0.7099973	0	-77.885	-99.191	-3.558	B5-03822-P02-CH1	6340816	OK	0.709121	-0.1956216	-0.6774065	0	-78.541	-73.431	-4.945	B5-03822-P03-CH0	6340816	OK	0.8181265	-0.2637837	-0.5109668	0	-101.885	-60.635	7.795	B5-03822-P03-CH1	6340816	OK	0.7333412	-0.6747253	0.083405	0	-101.924	-17.507	-4.017	B5-03822-P04-CH0	6340816	OK	0.7598387	0.3383629	-0.5551178	0	-132.096	-44.062	20.918	B5-03822-P04-CH1	6340816	OK	0.7382115	-0.6695278	0.0823179	0	-116.003	-40.787	-9.531	NA
0.599519807923169	B5-03822-P01-CH0	6340824	OK	0.2050982	0.036937	0.0611259	-0.9761322	99.886	-48.07	-297.704	B5-03822-P02-CH0	6340824	OK	0.6630688	0.1991981	-0.7215677	0	-76.375	-97.677	-1.889	B5-03822-P02-CH1	6340824	OK	0.7039469	-0.2140801	-0.6772212	0	-76.497	-73.012	-5.474	B5-03822-P03-CH0	6340824	OK	0.8170898	-0.2692542	-0.5097709	0	-101.667	-60.631	7.469	B5-03822-P03-CH1	6340824	OK	0.7325499	-0.6755626	0.0835815	0	-102.099	-17.75	-3.789	B5-03822-P04-CH0	6340824	OK	0.7638853	0.3557299	-0.5384565	0	-130.574	-44.576	20.34	B5-03822-P04-CH1	6340824	OK	0.7377069	-0.6700532	0.082567	0	-116.318	-41.113	-9.398	NA
0.609511804721889	B5-03822-P01-CH0	6340832	OK	0.2051051	0.0372296	0.0603693	-0.9761667	99.969	-47.993	-297.712	B5-03822-P02-CH0	6340832	OK	0.6486682	0.1938829	-0.7359613	0	-75.459	-97.066	-1.896	B5-03822-P02-CH1	6340832	OK	0.6988952	-0.2254749	-0.6787537	0	-76.6	-72.436	-5.959	B5-03822-P03-CH0	6340832	OK	0.8130952	-0.2722692	-0.5145345	0	-100.81	-60.298	7.871	B5-03822-P03-CH1	6340832	OK	0.7318665	-0.6763488	0.0832093	0	-102.003	-17.456	-4.283	B5-03822-P04-CH0	6340832	OK	0.765127	0.3576321	-0.535425	0	-129.949	-44.883	21.873	B5-03822-P04-CH1	6340832	OK	0.737164	-0.6706839	0.082294	0	-116.285	-41.126	-9.39	NA
0.619503801520608	B5-03822-P01-CH0	6340840	OK	0.2048823	0.0370709	0.0599895	-0.9762429	99.806	-47.836	-297.564	B5-03822-P02-CH0	6340840	OK	0.6380504	0.1707052	-0.7508338	0	-73.774	-96.557	-2.571	B5-03822-P02-CH1	6340840	OK	0.700152	-0.2215008	-0.678767	0	-76.749	-72.152	-4.897	B5-03822-P03-CH0	6340840	OK	0.8059087	-0.2712939	-0.5262231	0	-99.251	-60.039	7.134	B5-03822-P03-CH1	6340840	OK	0.7314656	-0.6768541	0.0826226	0	-101.985	-16.925	-4.719	B5-03822-P04-CH0	6340840	OK	0.7655079	0.358828	-0.5340789	0	-130.476	-44.109	21.877	B5-03822-P04-CH1	6340840	OK	0.7366225	-0.6713172	0.0819784	0	-116.101	-41.111	-9.74	NA
0.629495798319328	B5-03822-P01-CH0	6340848	OK	0.2048261	0.0372178	0.0592964	-0.9762915	99.802	-47.792	-297.464	B5-03822-P02-CH0	6340848	OK	0.6320981	0.1403729	-0.7620679	0	-70.883	-94.774	-3.129	B5-03822-P02-CH1	6340848	OK	0.7036628	-0.2145046	-0.6773821	0	-77.291	-70.909	-5.389	B5-03822-P03-CH0	6340848	OK	0.7907371	-0.2678182	-0.5504618	0	-99.811	-59.274	4.124	B5-03822-P03-CH1	6340848	OK	0.7305342	-0.6777613	0.0834236	0	-102.061	-17.081	-4.479	B5-03822-P04-CH0	6340848	OK	0.7668002	0.3598062	-0.5315608	0	-130.391	-43.255	20.527	B5-03822-P04-CH1	6340848	OK	0.7357957	-0.6722299	0.0819249	0	-115.887	-41.624	-8.8	NA
0.639487795118047	B5-03822-P01-CH0	6340856	OK	0.204492	0.0375934	0.0584875	-0.9763959	99.902	-47.805	-297.3	B5-03822-P02-CH0	6340856	OK	0.6277608	0.1119809	-0.7703095	0	-69.896	-93.854	-2.621	B5-03822-P02-CH1	6340856	OK	0.7063637	-0.2102692	-0.6758973	0	-77.369	-70.706	-5.431	B5-03822-P03-CH0	6340856	OK	0.7733994	-0.2575299	-0.579251	0	-98.498	-57.759	2.266	B5-03822-P03-CH1	6340856	OK	0.7298227	-0.6785848	0.0829547	0	-102.18	-16.847	-4.583	B5-03822-P04-CH0	6340856	OK	0.7685874	0.3608364	-0.5282713	0	-129.821	-42.666	19.465	B5-03822-P04-CH1	6340856	OK	0.7349558	-0.6733076	0.0806027	0	-115.759	-41.705	-8.867	NA
0.649479791916767	B5-03822-P01-CH0	6340864	OK	0.2044124	0.0377596	0.0580951	-0.9764296	99.964	-47.748	-297.389	B5-03822-P02-CH0	6340864	OK	0.626325	0.0887503	-0.7744936	0	-70.001	-94.476	-2.195	B5-03822-P02-CH1	6340864	OK	0.7081759	-0.207702	-0.6747938	0	-76.89	-71.362	-5.06	B5-03822-P03-CH0	6340864	OK	0.7531944	-0.2374342	-0.6134519	0	-97.367	-56.203	0.207	B5-03822-P03-CH1	6340864	OK	0.729467	-0.678998	0.0827022	0	-102.214	-16.672	-4.481	B5-03822-P04-CH0	6340864	OK	0.7650301	0.3560899	-0.5365901	0	-131.162	-42.738	19.863	B5-03822-P04-CH1	6340864	OK	0.7348689	-0.6736494	0.0785117	0	-115.9	-41.086	-9.898	NA
0.659471788715486	B5-03822-P01-CH0	6340872	OK	0.2041966	0.0376093	0.0580974	-0.9764804	99.898	-47.681	-297.385	B5-03822-P02-CH0	6340872	OK	0.6252647	0.0714926	-0.7771312	0	-70.961	-93.822	-1.551	B5-03822-P02-CH1	6340872	OK	0.7078064	-0.2058301	-0.6757544	0	-77.306	-71.011	-6.355	B5-03822-P03-CH0	6340872	OK	0.732418	-0.2134971	-0.646516	0	-94.714	-54.746	-4.276	B5-03822-P03-CH1	6340872	OK	0.7294846	-0.6790343	0.0822472	0	-102.143	-16.327	-4.734	B5-03822-P04-CH0	6340872	OK	0.7658691	0.3591208	-0.5333636	0	-130.82	-42.333	19.656	B5-03822-P04-CH1	6340872	OK	0.7348103	-0.6739217	0.076703	0	-115.617	-40.806	-9.699	NA
0.669463785514206	B5-03822-P01-CH0	6340880	OK	0.2042463	0.0374735	0.0585098	-0.9764506	99.911	-47.635	-297.514	B5-03822-P02-CH0	6340880	OK	0.6278043	0.0567862	-0.7762971	0	-71.163	-92.957	-0.824	B5-03822-P02-CH1	6340880	OK	0.7060509	-0.2057082	-0.6776255	0	-77.763	-71.75	-5.837	B5-03822-P03-CH0	6340880	OK	0.7096766	-0.1861518	-0.6794899	0	-92.487	-51.935	-4.346	B5-03822-P03-CH1	6340880	OK	0.7291604	-0.6792975	0.0829465	0	-102.138	-16.69	-4.703	B5-03822-P04-CH0	6340880	OK	0.7664647	0.3610117	-0.5312272	0	-130.566	-42.353	19.924	B5-03822-P04-CH1	6340880	OK	0.7346898	-0.6741139	0.0761668	0	-115.423	-41.117	-9.056	NA
0.679455782312925	B5-03822-P01-CH0	6340888	OK	0.2041888	0.0373942	0.0582211	-0.9764829	99.896	-47.665	-297.542	B5-03822-P02-CH0	6340888	OK	0.6328238	0.0473898	-0.7728443	0	-71.46	-92.769	-0.431	B5-03822-P02-CH1	6340888	OK	0.7034834	-0.2088564	-0.6793306	0	-78.307	-71.565	-4.673	B5-03822-P03-CH0	6340888	OK	0.7003846	-0.1657479	-0.6942543	0	-91.901	-55.004	-1.988	B5-03822-P03-CH1	6340888	OK	0.7289614	-0.6795468	0.0826525	0	-101.998	-16.584	-4.756	B5-03822-P04-CH0	6340888	OK	0.7676437	0.3619586	-0.5288754	0	-130.242	-42.443	19.955	B5-03822-P04-CH1	6340888	OK	0.7343898	-0.6745925	0.0748108	0	-115.254	-41.01	-9.186	NA
0.689447779111645	B5-03822-P01-CH0	6340896	OK	0.2043277	0.0371962	0.0587364	-0.9764306	99.828	-47.534	-297.515	B5-03822-P02-CH0	6340896	OK	0.6391004	0.0415338	-0.768001	0	-72.42	-92.558	-1.25	B5-03822-P02-CH1	6340896	OK	0.7049154	-0.211097	-0.6771502	0	-76.769	-70.273	-6.378	B5-03822-P03-CH0	6340896	OK	0.6984602	-0.155719	-0.6985019	0	-92.6	-53.964	-2.339	B5-03822-P03-CH1	6340896	OK	0.7292081	-0.6792407	0.0829909	0	-102.057	-16.452	-4.9	B5-03822-P04-CH0	6340896	OK	0.7683408	0.3630438	-0.5271164	0	-129.972	-42.289	19.894	B5-03822-P04-CH1	6340896	OK	0.7346998	-0.6744626	0.0729128	0	-114.986	-40.514	-9.479	NA
0.699439775910364	B5-03822-P01-CH0	6340904	OK	0.2045394	0.0368791	0.0595349	-0.9763499	99.75	-47.378	-297.601	B5-03822-P02-CH0	6340904	OK	0.6495437	0.0353024	-0.7595043	0	-71.777	-91.784	-3.59	B5-03822-P02-CH1	6340904	OK	0.704453	-0.2075461	-0.6787272	0	-77.385	-70.515	-5.285	B5-03822-P03-CH0	6340904	OK	0.7000935	-0.1474947	-0.6986519	0	-91.3	-49.964	-5.02	B5-03822-P03-CH1	6340904	OK	0.7293647	-0.6790079	0.0835192	0	-101.973	-16.595	-4.811	B5-03822-P04-CH0	6340904	OK	0.7688492	0.3630594	-0.5263637	0	-129.89	-42.445	20.03	B5-03822-P04-CH1	6340904	OK	0.7352243	-0.6740257	0.0716561	0	-114.664	-40.111	-9.697	NA
0.709431772709084	B5-03822-P01-CH0	6340912	OK	0.2047221	0.0367201	0.0602137	-0.976276	99.763	-47.274	-297.587	B5-03822-P02-CH0	6340912	OK	0.6545218	0.0259579	-0.7555974	0	-74.159	-91.758	-2.406	B5-03822-P02-CH1	6340912	OK	0.7115896	-0.2022379	-0.6728596	0	-76.85	-71.029	-6.202	B5-03822-P03-CH0	6340912	OK	0.7057907	-0.1344834	-0.6955385	0	-93.004	-53.203	-1.727	B5-03822-P03-CH1	6340912	OK	0.7297898	-0.6785208	0.0837637	0	-102.031	-16.622	-4.652	B5-03822-P04-CH0	6340912	OK	0.769004	0.3651206	-0.5247092	0	-129.779	-41.891	19.631	B5-03822-P04-CH1	6340912	OK	0.7359128	-0.6734263	0.0702092	0	-114.655	-39.564	-9.981	NA
0.719423769507803	B5-03822-P01-CH0	6340920	OK	0.2050556	0.0366876	0.0607338	-0.976175	99.873	-47.238	-297.753	B5-03822-P02-CH0	6340920	OK	0.661949	0.0154029	-0.7493906	0	-74.954	-92.271	-3.284	B5-03822-P02-CH1	6340920	OK	0.7173937	-0.1996052	-0.6674608	0	-79.595	-71.266	-4.36	B5-03822-P03-CH0	6340920	OK	0.7145265	-0.1218662	-0.6889125	0	-95.236	-53.866	-1.534	B5-03822-P03-CH1	6340920	OK	0.730121	-0.6780963	0.0843132	0	-102.173	-16.825	-4.368	B5-03822-P04-CH0	6340920	OK	0.7693204	0.3655408	-0.5239524	0	-129.666	-42.006	19.775	B5-03822-P04-CH1	6340920	OK	0.7361325	-0.6732952	0.0691561	0	-114.361	-39.476	-9.715	NA
0.729415766306523	B5-03822-P01-CH0	6340928	OK	0.2051242	0.0365321	0.0612913	-0.9761316	99.871	-47.192	-297.879	B5-03822-P02-CH0	6340928	OK	0.668149	0.0119845	-0.743931	0	-75.706	-92.899	-3.08	B5-03822-P02-CH1	6340928	OK	0.7245912	-0.1909386	-0.6622009	0	-80.233	-70.211	-7.195	B5-03822-P03-CH0	6340928	OK	0.7203399	-0.1210536	-0.6829762	0	-95.804	-54.809	-0.013	B5-03822-P03-CH1	6340928	OK	0.7307047	-0.6775656	0.0835196	0	-102.097	-16.494	-4.821	B5-03822-P04-CH0	6340928	OK	0.7694636	0.3658615	-0.523518	0	-129.571	-42.176	20.209	B5-03822-P04-CH1	6340928	OK	0.7364833	-0.6730154	0.0681363	0	-114.249	-39.241	-9.439	NA
0.739407763105242	B5-03822-P01-CH0	6340936	OK	0.2051161	0.0363037	0.0618416	-0.9761071	99.883	-47.182	-298.01	B5-03822-P02-CH0	6340936	OK	0.6741649	0.0097699	-0.7385163	0	-75.926	-93.011	-4.138	B5-03822-P02-CH1	6340936	OK	0.7309338	-0.1813188	-0.6579204	0	-80.349	-71.303	-5.414	B5-03822-P03-CH0	6340936	OK	0.7261747	-0.1253189	-0.6759922	0	-95.166	-54.787	1.088	B5-03822-P03-CH1	6340936	OK	0.731198	-0.6770848	0.0830999	0	-101.994	-16.405	-4.923	B5-03822-P04-CH0	6340936	OK	0.7696102	0.3661395	-0.523108	0	-129.44	-42.358	20.622	B5-03822-P04-CH1	6340936	OK	0.7367503	-0.672818	0.0671933	0	-114.271	-39.084	-9.649	NA
0.749399759903962	B5-03822-P01-CH0	6340944	OK	0.2052099	0.0363309	0.0625103	-0.9760438	99.977	-47.255	-297.992	B5-03822-P02-CH0	6340944	OK	0.6768463	0.0108523	-0.7360443	0	-77.463	-93.28	-4.577	B5-03822-P02-CH1	6340944	OK	0.7355961	-0.1709518	-0.6554952	0	-81.677	-72.064	-2.982	B5-03822-P03-CH0	6340944	OK	0.7283507	-0.1326166	-0.6722485	0	-96.824	-55.016	0.645	B5-03822-P03-CH1	6340944	OK	0.7312173	-0.6770076	0.0835588	0	-102.083	-16.944	-4.694	B5-03822-P04-CH0	6340944	OK	0.7693276	0.36676	-0.5230891	0	-129.493	-42.471	20.694	B5-03822-P04-CH1	6340944	OK	0.7369261	-0.6726735	0.0667114	0	-113.914	-39.259	-9.625	NA
0.759391756702681	B5-03822-P01-CH0	6340952	OK	0.2053707	0.0362864	0.063085	-0.9759746	100.01	-47.2	-298.011	B5-03822-P02-CH0	6340952	OK	0.6785087	0.0112845	-0.7345057	0	-79.256	-93.746	-3.174	B5-03822-P02-CH1	6340952	OK	0.7421037	-0.1614981	-0.6505386	0	-81.594	-72.298	-1.647	B5-03822-P03-CH0	6340952	OK	0.7370026	-0.1459106	-0.6599525	0	-96.049	-54.969	2.283	B5-03822-P03-CH1	6340952	OK	0.7314206	-0.6767607	0.0837789	0	-102.004	-17.1	-4.613	B5-03822-P04-CH0	6340952	OK	0.7691099	0.3665349	-0.5235668	0	-129.641	-42.589	20.737	B5-03822-P04-CH1	6340952	OK	0.7373618	-0.6722629	0.0660319	0	-114.12	-38.913	-10.169	NA
0.769383753501401	B5-03822-P01-CH0	6340960	OK	0.2049829	0.0359804	0.0628765	-0.9760809	99.836	-47.248	-297.865	B5-03822-P02-CH0	6340960	OK	0.6854034	0.013256	-0.7280428	0	-77.027	-93.336	-6.137	B5-03822-P02-CH1	6340960	OK	0.7434556	-0.1567667	-0.6501522	0	-83.063	-73.155	-0.309	B5-03822-P03-CH0	6340960	OK	0.7445224	-0.1627751	-0.6474493	0	-96.997	-54.751	0.44	B5-03822-P03-CH1	6340960	OK	0.7319274	-0.6763681	0.082514	0	-101.966	-16.396	-4.963	B5-03822-P04-CH0	6340960	OK	0.7693937	0.3668493	-0.5229293	0	-129.532	-42.35	20.515	B5-03822-P04-CH1	6340960	OK	0.7377334	-0.6720838	0.0636623	0	-113.853	-37.848	-11.332	NA
0.77937575030012	B5-03822-P01-CH0	6340968	OK	0.2050802	0.035943	0.0629175	-0.9760592	99.828	-47.248	-297.899	B5-03822-P02-CH0	6340968	OK	0.6856546	0.0130528	-0.72781	0	-77.741	-93.464	-4.249	B5-03822-P02-CH1	6340968	OK	0.7467137	-0.1536965	-0.6471445	0	-82.99	-72.514	-1.504	B5-03822-P03-CH0	6340968	OK	0.7502859	-0.1738612	-0.6378427	0	-96.559	-54.901	1.283	B5-03822-P03-CH1	6340968	OK	0.7319716	-0.6763063	0.082628	0	-101.912	-16.425	-5.008	B5-03822-P04-CH0	6340968	OK	0.7692635	0.367181	-0.5228879	0	-129.534	-42.155	20.6	B5-03822-P04-CH1	6340968	OK	0.7373548	-0.6724609	0.0640642	0	-113.724	-38.217	-11.013	NA
0.78936774709884	B5-03822-P01-CH0	6340976	OK	0.2052485	0.0358908	0.0632568	-0.9760038	99.883	-47.252	-297.916	B5-03822-P02-CH0	6340976	OK	0.6863829	0.0122676	-0.7271369	0	-77.917	-93.385	-4.075	B5-03822-P02-CH1	6340976	OK	0.7485441	-0.1518038	-0.6454745	0	-83.85	-71.703	-2.358	B5-03822-P03-CH0	6340976	OK	0.7555129	-0.1818317	-0.6293946	0	-96.853	-55.474	1.794	B5-03822-P03-CH1	6340976	OK	0.7325344	-0.6757705	0.0820219	0	-101.884	-16.208	-5.313	B5-03822-P04-CH0	6340976	OK	0.7694373	0.3661813	-0.5233331	0	-129.385	-42.461	20.975	B5-03822-P04-CH1	6340976	OK	0.7375199	-0.6721895	0.0650048	0	-113.926	-38.607	-10.397	NA
0.799359743897559	B5-03822-P01-CH0	6340984	OK	0.205216	0.0359574	0.062854	-0.9760342	99.936	-47.408	-297.982	B5-03822-P02-CH0	6340984	OK	0.6869238	0.0142441	-0.7265898	0	-77.859	-94.345	-4.293	B5-03822-P02-CH1	6340984	OK	0.7522211	-0.1500424	-0.6416001	0	-83.008	-71.878	-2.583	B5-03822-P03-CH0	6340984	OK	0.7588194	-0.1869692	-0.6238875	0	-97.852	-55.458	2.788	B5-03822-P03-CH1	6340984	OK	0.7325736	-0.6757882	0.0815243	0	-101.882	-16.211	-5.349	B5-03822-P04-CH0	6340984	OK	0.769477	0.3667016	-0.5229103	0	-129.312	-42.172	20.841	B5-03822-P04-CH1	6340984	OK	0.7370286	-0.6726888	0.0654109	0	-113.811	-39.055	-9.764	NA
0.809351740696278	B5-03822-P01-CH0	6340992	OK	0.2051788	0.0357538	0.0624786	-0.9760736	99.847	-47.485	-298.035	B5-03822-P02-CH0	6340992	OK	0.6849506	0.0161686	-0.7284101	0	-78.672	-94.066	-3.724	B5-03822-P02-CH1	6340992	OK	0.7517645	-0.1500935	-0.6421231	0	-83.383	-73.113	-0.273	B5-03822-P03-CH0	6340992	OK	0.7613968	-0.1910502	-0.6194956	0	-97.931	-54.594	2.006	B5-03822-P03-CH1	6340992	OK	0.7323091	-0.6760978	0.0813341	0	-101.789	-16.386	-5.19	B5-03822-P04-CH0	6340992	OK	0.7698192	0.3647207	-0.5237912	0	-129.216	-42.621	21.401	B5-03822-P04-CH1	6340992	OK	0.7368846	-0.6728729	0.0651403	0	-113.598	-38.937	-9.876	NA
0.819343737494998	B5-03822-P01-CH0	6341000	OK	0.205337	0.0359011	0.0625978	-0.9760273	99.931	-47.452	-298.01	B5-03822-P02-CH0	6341000	OK	0.684804	0.0208279	-0.7284296	0	-77.644	-93.422	-4.413	B5-03822-P02-CH1	6341000	OK	0.7507756	-0.1489566	-0.6435433	0	-83.357	-72.807	-1.731	B5-03822-P03-CH0	6341000	OK	0.7612846	-0.1939974	-0.618717	0	-98.732	-54.11	2.436	B5-03822-P03-CH1	6341000	OK	0.7324703	-0.6759044	0.0814894	0	-102.01	-16.529	-5.076	B5-03822-P04-CH0	6341000	OK	0.7697526	0.3642912	-0.5241878	0	-129.196	-42.6	21.397	B5-03822-P04-CH1	6341000	OK	0.7370444	-0.6726527	0.0656033	0	-113.934	-39.094	-9.439	NA
0.829335734293717	B5-03822-P01-CH0	6341008	OK	0.2055515	0.0360869	0.0629527	-0.9759525	100.044	-47.354	-298.024	B5-03822-P02-CH0	6341008	OK	0.6848086	0.0246816	-0.7283049	0	-76.475	-93.196	-4.103	B5-03822-P02-CH1	6341008	OK	0.7493844	-0.1491453	-0.6451192	0	-83.585	-72.227	-1.498	B5-03822-P03-CH0	6341008	OK	0.7617553	-0.1939338	-0.6181573	0	-98.721	-53.649	3.55	B5-03822-P03-CH1	6341008	OK	0.7328781	-0.6754592	0.081514	0	-102.085	-16.6	-4.778	B5-03822-P04-CH0	6341008	OK	0.769353	0.3643278	-0.5247487	0	-129.417	-42.41	21.141	B5-03822-P04-CH1	6341008	OK	0.7375818	-0.6720566	0.065673	0	-114.141	-38.874	-9.696	NA
0.839327731092437	B5-03822-P01-CH0	6341016	OK	0.2059091	0.0365348	0.0627986	-0.9758704	100.223	-47.255	-297.977	B5-03822-P02-CH0	6341016	OK	0.6828678	0.0291582	-0.7299599	0	-76.875	-94.122	-4.764	B5-03822-P02-CH1	6341016	OK	0.7498379	-0.1486902	-0.6446971	0	-82.656	-72.476	-2.454	B5-03822-P03-CH0	6341016	OK	0.7600461	-0.1957116	-0.619699	0	-99.574	-54.449	3.594	B5-03822-P03-CH1	6341016	OK	0.7330349	-0.6752808	0.0815831	0	-102.164	-16.707	-4.482	B5-03822-P04-CH0	6341016	OK	0.7689886	0.3644004	-0.5252323	0	-129.673	-42.154	21.013	B5-03822-P04-CH1	6341016	OK	0.7375231	-0.6720583	0.066312	0	-114.236	-38.993	-9.551	NA
0.849319727891156	B5-03822-P01-CH0	6341024	OK	0.2056791	0.0368926	0.0614581	-0.9759907	100.272	-47.308	-297.779	B5-03822-P02-CH0	6341024	OK	0.6831269	0.0337164	-0.7295209	0	-76.271	-93.665	-4.974	B5-03822-P02-CH1	6341024	OK	0.7485933	-0.1497596	-0.6458948	0	-82.79	-72.509	-3.619	B5-03822-P03-CH0	6341024	OK	0.76182	-0.1958859	-0.6174617	0	-98.072	-55.38	2.373	B5-03822-P03-CH1	6341024	OK	0.7328794	-0.6756329	0.0800495	0	-102.058	-16.134	-5.221	B5-03822-P04-CH0	6341024	OK	0.7697157	0.3643307	-0.5242146	0	-129.479	-41.906	20.996	B5-03822-P04-CH1	6341024	OK	0.7367681	-0.6729139	0.066027	0	-114.47	-38.909	-9.759	NA
0.859311724689876	B5-03822-P01-CH0	6341032	OK	0.2058307	0.0371226	0.0608351	-0.9759891	100.357	-47.374	-297.768	B5-03822-P02-CH0	6341032	OK	0.6801136	0.0376283	-0.7321404	0	-77.529	-94.774	-4.644	B5-03822-P02-CH1	6341032	OK	0.7478049	-0.1476372	-0.6472952	0	-83.015	-73.059	-2.83	B5-03822-P03-CH0	6341032	OK	0.7611708	-0.195297	-0.6184482	0	-97.777	-55.88	2.696	B5-03822-P03-CH1	6341032	OK	0.7326667	-0.6758644	0.0800423	0	-102.159	-16.358	-5.118	B5-03822-P04-CH0	6341032	OK	0.7700557	0.3640917	-0.5238812	0	-129.435	-41.9	20.898	B5-03822-P04-CH1	6341032	OK	0.7365692	-0.673094	0.0664094	0	-114.367	-39.027	-9.513	NA
0.869303721488595	B5-03822-P01-CH0	6341040	OK	0.2061997	0.0371036	0.0609747	-0.9759032	100.428	-47.299	-297.914	B5-03822-P02-CH0	6341040	OK	0.6791176	0.0397313	-0.7329534	0	-77.398	-94.335	-5.438	B5-03822-P02-CH1	6341040	OK	0.7491216	-0.1504745	-0.6451157	0	-83.331	-72.486	-2.267	B5-03822-P03-CH0	6341040	OK	0.7603611	-0.1938171	-0.619908	0	-97.909	-55.069	0.814	B5-03822-P03-CH1	6341040	OK	0.7326534	-0.6758731	0.0800915	0	-102.016	-16.741	-4.828	B5-03822-P04-CH0	6341040	OK	0.7699246	0.3632	-0.5246923	0	-129.506	-42.106	21.256	B5-03822-P04-CH1	6341040	OK	0.7364746	-0.6730513	0.0678753	0	-114.409	-39.605	-8.72	NA
0.879295718287315	B5-03822-P01-CH0	6341048	OK	0.2063287	0.037147	0.061045	-0.9758699	100.497	-47.277	-297.975	B5-03822-P02-CH0	6341048	OK	0.6783327	0.0401534	-0.7336569	0	-77.133	-94.827	-4.242	B5-03822-P02-CH1	6341048	OK	0.7491125	-0.1498179	-0.645279	0	-83.247	-72.724	-1.897	B5-03822-P03-CH0	6341048	OK	0.7596661	-0.1939702	-0.6207117	0	-98.645	-54.997	2.403	B5-03822-P03-CH1	6341048	OK	0.732751	-0.6758041	0.0797793	0	-102.143	-16.927	-4.879	B5-03822-P04-CH0	6341048	OK	0.7699892	0.3622064	-0.5252839	0	-129.521	-42.388	21.442	B5-03822-P04-CH1	6341048	OK	0.7369901	-0.6725184	0.0675623	0	-114.598	-39.249	-8.978	NA
0.889287715086034	B5-03822-P01-CH0	6341056	OK	0.2063927	0.0373615	0.0607432	-0.975867	100.601	-47.327	-297.964	B5-03822-P02-CH0	6341056	OK	0.6785207	0.0414846	-0.7334089	0	-76.529	-95.035	-6.02	B5-03822-P02-CH1	6341056	OK	0.748682	-0.1494188	-0.645871	0	-83.175	-73.184	-1.547	B5-03822-P03-CH0	6341056	OK	0.759712	-0.1941881	-0.6205873	0	-98.482	-55.222	3.45	B5-03822-P03-CH1	6341056	OK	0.7327726	-0.6758163	0.0794771	0	-102.103	-17.05	-4.763	B5-03822-P04-CH0	6341056	OK	0.7699576	0.3619056	-0.5255375	0	-129.583	-42.457	21.573	B5-03822-P04-CH1	6341056	OK	0.7368843	-0.6726851	0.0670541	0	-114.597	-39.241	-8.831	NA
0.899279711884754	B5-03822-P01-CH0	6341064	OK	0.2066908	0.0377732	0.0608271	-0.9757829	100.763	-47.185	-297.769	B5-03822-P02-CH0	6341064	OK	0.675784	0.0398749	-0.7360204	0	-77.681	-94.981	-4.076	B5-03822-P02-CH1	6341064	OK	0.7476568	-0.149343	-0.6470749	0	-83.46	-73.234	-1.538	B5-03822-P03-CH0	6341064	OK	0.7593133	-0.194068	-0.6211126	0	-98.44	-55.232	3.424	B5-03822-P03-CH1	6341064	OK	0.733404	-0.6752071	0.0788282	0	-102.246	-16.707	-4.981	B5-03822-P04-CH0	6341064	OK	0.7696755	0.3616121	-0.5261525	0	-129.756	-42.39	21.448	B5-03822-P04-CH1	6341064	OK	0.7370385	-0.6724945	0.0672707	0	-114.788	-39.089	-9.401	NA
0.909271708683473	B5-03822-P01-CH0	6341072	OK	0.2067767	0.0377895	0.0612346	-0.9757385	100.856	-47.127	-297.847	B5-03822-P02-CH0	6341072	OK	0.6755382	0.0420058	-0.7361275	0	-77.38	-94.649	-4.04	B5-03822-P02-CH1	6341072	OK	0.7474339	-0.1488557	-0.6474447	0	-83.426	-73.168	-1.849	B5-03822-P03-CH0	6341072	OK	0.7561988	-0.1848415	-0.6276918	0	-97.453	-54.439	0.173	B5-03822-P03-CH1	6341072	OK	0.7338197	-0.6747616	0.0787744	0	-102.45	-16.827	-4.684	B5-03822-P04-CH0	6341072	OK	0.7694932	0.3624576	-0.5258371	0	-129.783	-42.116	21.103	B5-03822-P04-CH1	6341072	OK	0.7371884	-0.6723022	0.0675502	0	-114.694	-39.353	-8.967	NA
0.919263705482193	B5-03822-P01-CH0	6341080	OK	0.2068842	0.0376118	0.06118	-0.975726	100.814	-47.169	-297.796	B5-03822-P02-CH0	6341080	OK	0.6761343	0.043403	-0.7354989	0	-77.033	-95.751	-4.474	B5-03822-P02-CH1	6341080	OK	0.7475679	-0.1481423	-0.6474536	0	-83.284	-73.037	-2.111	B5-03822-P03-CH0	6341080	OK	0.7551756	-0.1829206	-0.6294838	0	-97.658	-54.596	2.262	B5-03822-P03-CH1	6341080	OK	0.733916	-0.6746986	0.0784163	0	-102.355	-16.776	-5.08	B5-03822-P04-CH0	6341080	OK	0.769741	0.3618256	-0.5259097	0	-129.686	-42.311	21.172	B5-03822-P04-CH1	6341080	OK	0.7370754	-0.6724122	0.0676875	0	-114.505	-39.378	-9.494	NA
0.929255702280912	B5-03822-P01-CH0	6341088	OK	0.2068179	0.0375816	0.0604301	-0.975788	100.84	-47.334	-297.754	B5-03822-P02-CH0	6341088	OK	0.6784191	0.0395188	-0.7336115	0	-77.012	-94.913	-4.131	B5-03822-P02-CH1	6341088	OK	0.7475166	-0.147506	-0.647658	0	-83.255	-73.347	-2.511	B5-03822-P03-CH0	6341088	OK	0.7549439	-0.1813449	-0.6302173	0	-97.946	-54.26	2.065	B5-03822-P03-CH1	6341088	OK	0.7336592	-0.675021	0.0780438	0	-102.361	-16.834	-4.961	B5-03822-P04-CH0	6341088	OK	0.7702909	0.3611565	-0.5255644	0	-129.51	-42.501	21.182	B5-03822-P04-CH1	6341088	OK	0.7367305	-0.6728681	0.066908	0	-114.398	-39.217	-10.035	NA
0.939247699079632	B5-03822-P01-CH0	6341096	OK	0.2066959	0.0373825	0.0600968	-0.9758421	100.797	-47.414	-297.763	B5-03822-P02-CH0	6341096	OK	0.677991	0.0416238	-0.7338907	0	-77.027	-95.114	-4.217	B5-03822-P02-CH1	6341096	OK	0.7478722	-0.1459686	-0.6475958	0	-83.184	-73.272	-2.902	B5-03822-P03-CH0	6341096	OK	0.7574443	-0.1878368	-0.6252963	0	-97.936	-55.083	2.633	B5-03822-P03-CH1	6341096	OK	0.7331698	-0.6755935	0.0776889	0	-102.246	-16.982	-5.339	B5-03822-P04-CH0	6341096	OK	0.7707018	0.3609969	-0.5250714	0	-129.342	-42.531	21.151	B5-03822-P04-CH1	6341096	OK	0.7366272	-0.6729932	0.0667864	0	-114.412	-39.261	-9.766	NA
0.949239695878351	B5-03822-P01-CH0	6341104	OK	0.2073944	0.037102	0.0612839	-0.9756307	100.847	-47.268	-298.016	B5-03822-P02-CH0	6341104	OK	0.6775174	0.0423874	-0.7342843	0	-77.018	-95.172	-4.325	B5-03822-P02-CH1	6341104	OK	0.7483176	-0.1451364	-0.6472683	0	-83.195	-73.361	-2.799	B5-03822-P03-CH0	6341104	OK	0.7570812	-0.1864307	-0.6261563	0	-98.03	-54.957	2.61	B5-03822-P03-CH1	6341104	OK	0.7336615	-0.6749327	0.0787824	0	-102.27	-17.288	-4.898	B5-03822-P04-CH0	6341104	OK	0.7703315	0.3605288	-0.5259358	0	-129.293	-42.774	21.478	B5-03822-P04-CH1	6341104	OK	0.7374453	-0.6720086	0.0676673	0	-114.314	-39.472	-8.921	NA
0.959231692677071	B5-03822-P01-CH0	6341112	OK	0.2077852	0.0369567	0.0619294	-0.9755123	100.832	-47.163	-297.984	B5-03822-P02-CH0	6341112	OK	0.6775094	0.0435574	-0.7342233	0	-76.824	-95.062	-4.786	B5-03822-P02-CH1	6341112	OK	0.7487137	-0.1439985	-0.6470643	0	-83.179	-73.279	-2.987	B5-03822-P03-CH0	6341112	OK	0.7567803	-0.1848537	-0.6269869	0	-98.081	-54.679	2.161	B5-03822-P03-CH1	6341112	OK	0.7338143	-0.6747032	0.0793227	0	-102.336	-17.448	-4.73	B5-03822-P04-CH0	6341112	OK	0.7704578	0.3602611	-0.5259341	0	-129.002	-42.878	21.592	B5-03822-P04-CH1	6341112	OK	0.737834	-0.6715887	0.0675991	0	-113.998	-39.329	-9.305	NA
0.96922368947579	B5-03822-P01-CH0	6341120	OK	0.2078552	0.0370789	0.0619037	-0.9754944	100.894	-47.165	-297.922	B5-03822-P02-CH0	6341120	OK	0.6774707	0.045428	-0.7341456	0	-76.761	-95.186	-4.956	B5-03822-P02-CH1	6341120	OK	0.7492999	-0.133471	-0.648641	0	-84.055	-74.07	-1.909	B5-03822-P03-CH0	6341120	OK	0.7561187	-0.1832404	-0.6282575	0	-98.258	-54.767	1.977	B5-03822-P03-CH1	6341120	OK	0.7339004	-0.6746097	0.0793215	0	-102.509	-17.265	-4.843	B5-03822-P04-CH0	6341120	OK	0.7705338	0.3611596	-0.5252062	0	-128.887	-42.678	21.443	B5-03822-P04-CH1	6341120	OK	0.7379171	-0.6715648	0.0669259	0	-114.011	-39.153	-9.356	NA
0.97921568627451	B5-03822-P01-CH0	6341128	OK	0.2079155	0.0373693	0.0613312	-0.9755066	101.026	-47.189	-297.929	B5-03822-P02-CH0	6341128	OK	0.6773661	0.0474732	-0.7341127	0	-76.845	-95.267	-4.924	B5-03822-P02-CH1	6341128	OK	0.7507597	-0.1312779	-0.6473994	0	-83.331	-74.367	-1.123	B5-03822-P03-CH0	6341128	OK	0.7555638	-0.1819718	-0.629293	0	-98.462	-54.833	2.029	B5-03822-P03-CH1	6341128	OK	0.7332915	-0.6752429	0.0795653	0	-102.558	-17.398	-4.686	B5-03822-P04-CH0	6341128	OK	0.7708221	0.3610883	-0.5248319	0	-128.878	-42.779	21.483	B5-03822-P04-CH1	6341128	OK	0.737266	-0.6722687	0.0670348	0	-113.84	-39.545	-8.647	NA
0.989207683073229	B5-03822-P01-CH0	6341136	OK	0.2082766	0.0374348	0.0614157	-0.9754218	101.112	-47.147	-297.939	B5-03822-P02-CH0	6341136	OK	0.6771019	0.0492382	-0.7342401	0	-77	-95.087	-4.731	B5-03822-P02-CH1	6341136	OK	0.7513042	-0.1254338	-0.6479262	0	-83.385	-73.807	-0.551	B5-03822-P03-CH0	6341136	OK	0.7554744	-0.1810841	-0.6296563	0	-98.638	-54.876	1.532	B5-03822-P03-CH1	6341136	OK	0.7331245	-0.6753611	0.0800992	0	-102.625	-17.542	-4.55	B5-03822-P04-CH0	6341136	OK	0.7705559	0.3611322	-0.5251925	0	-129.047	-42.933	21.428	B5-03822-P04-CH1	6341136	OK	0.7373608	-0.6721329	0.0673523	0	-113.832	-39.621	-8.735	NA
0.999199679871949	B5-03822-P01-CH0	6341144	OK	0.2085951	0.037009	0.0613517	-0.975374	101.023	-47.212	-298.258	B5-03822-P02-CH0	6341144	OK	0.6778007	0.0513095	-0.7334532	0	-76.708	-95.21	-4.827	B5-03822-P02-CH1	6341144	OK	0.7494783	-0.1251317	-0.6500956	0	-84.819	-74.586	-1.822	B5-03822-P03-CH0	6341144	OK	0.7558124	-0.1802692	-0.6294844	0	-98.714	-54.821	1.489	B5-03822-P03-CH1	6341144	OK	0.7326363	-0.6757835	0.0809979	0	-102.525	-17.965	-4.141	B5-03822-P04-CH0	6341144	OK	0.7708964	0.3614455	-0.5244767	0	-128.759	-43.027	21.616	B5-03822-P04-CH1	6341144	OK	0.737387	-0.6720887	0.0675074	0	-113.855	-39.658	-8.714	NA
1.00919167667067	B5-03822-P01-CH0	6341152	OK	0.2087321	0.037205	0.0612821	-0.9753416	101.115	-47.185	-298.218	B5-03822-P02-CH0	6341152	OK	0.6787964	0.0651538	-0.7314304	0	-77.053	-95.906	-4.93	B5-03822-P02-CH1	6341152	OK	0.7521446	-0.1225379	-0.6475052	0	-83.627	-74.638	-1.516	B5-03822-P03-CH0	6341152	OK	0.7560692	-0.1791681	-0.6294904	0	-98.944	-54.71	1.574	B5-03822-P03-CH1	6341152	OK	0.7326855	-0.6757868	0.080524	0	-102.527	-17.757	-4.493	B5-03822-P04-CH0	6341152	OK	0.7708279	0.3618634	-0.5242893	0	-128.823	-42.986	21.563	B5-03822-P04-CH1	6341152	OK	0.7374583	-0.6720485	0.0671271	0	-114.003	-39.475	-8.991	NA
1.01918367346939	B5-03822-P01-CH0	6341160	OK	0.2085652	0.0373912	0.0614757	-0.975358	101.231	-47.109	-298.325	B5-03822-P02-CH0	6341160	OK	0.6751058	0.0691666	-0.7344713	0	-79.647	-96.719	-2.297	B5-03822-P02-CH1	6341160	OK	0.7520374	-0.1204435	-0.6480225	0	-84.094	-74.603	-1.688	B5-03822-P03-CH0	6341160	OK	0.760862	-0.1725111	-0.6255629	0	-98.205	-55.204	3.38	B5-03822-P03-CH1	6341160	OK	0.7328717	-0.6756911	0.0796282	0	-102.566	-17.583	-4.423	B5-03822-P04-CH0	6341160	OK	0.7705014	0.3632872	-0.5237842	0	-128.876	-42.619	21.656	B5-03822-P04-CH1	6341160	OK	0.7378277	-0.6717366	0.0661829	0	-114.131	-39.136	-8.874	NA
