Wav.Time	B5.03822.P01.CH0	Frame	State	Q0	Qx	Qy	Qz	Tx	Ty	Tz	B5.03822.P02.CH0	Frame.1	State.1	Q0.1	Qx.1	Qy.1	Qz.1	Tx.1	Ty.1	Tz.1	B5.03822.P02.CH1	Frame.2	State.2	Q0.2	Qx.2	Qy.2	Qz.2	Tx.2	Ty.2	Tz.2	B5.03822.P03.CH0	Frame.3	State.3	Q0.3	Qx.3	Qy.3	Qz.3	Tx.3	Ty.3	Tz.3	B5.03822.P03.CH1	Frame.4	State.4	Q0.4	Qx.4	Qy.4	Qz.4	Tx.4	Ty.4	Tz.4	B5.03822.P04.CH0	Frame.5	State.5	Q0.5	Qx.5	Qy.5	Qz.5	Tx.5	Ty.5	Tz.5	B5.03822.P04.CH1	Frame.6	State.6	Q0.6	Qx.6	Qy.6	Qz.6	Tx.6	Ty.6	Tz.6	X
0	B5-03822-P01-CH0	245656	OK	0.238213	0.0874097	0.0861024	-0.9634316	161.297	-37.033	-264.506	B5-03822-P02-CH0	245656	OK	0.59257	0.3436516	-0.7285357	0	-83.012	-100.138	3.331	B5-03822-P02-CH1	245656	OK	0.8205518	-0.1524451	-0.5508677	0	-87.341	-80.158	4.025	B5-03822-P03-CH0	245656	OK	0.8229903	-0.4086919	-0.3945351	0	-97.86	-60.015	5.239	B5-03822-P03-CH1	245656	OK	0.6055875	0.7895146	0.0996521	0	-101.536	-27.12	0.801	B5-03822-P04-CH0	245656	OK	0.7782992	-0.2749666	0.5644853	0	-128.53	-39.472	5.51	B5-03822-P04-CH1	245656	OK	0.7406932	-0.658379	0.1338307	0	-114.883	-32.556	-6.224	NA
0.00999202149995801	B5-03822-P01-CH0	245664	OK	0.238631	0.0870968	0.0870784	-0.9632688	161.332	-36.996	-264.728	B5-03822-P02-CH0	245664	OK	0.5914161	0.3521676	-0.7253999	0	-82.492	-99.647	3.076	B5-03822-P02-CH1	245664	OK	0.8169856	-0.1502573	-0.5567381	0	-87.322	-79.916	3.391	B5-03822-P03-CH0	245664	OK	0.8237045	-0.411187	-0.3904307	0	-97.329	-60.326	5.703	B5-03822-P03-CH1	245664	OK	0.6050771	0.7900517	0.0984884	0	-101.468	-27.466	1.068	B5-03822-P04-CH0	245664	OK	0.7782452	-0.274624	0.5647265	0	-128.308	-39.357	5.671	B5-03822-P04-CH1	245664	OK	0.7413653	-0.6575076	0.1343924	0	-114.902	-32.69	-6.065	NA
0.019984042999916	B5-03822-P01-CH0	245672	OK	0.2387323	0.0865657	0.087874	-0.9632193	161.174	-36.962	-264.856	B5-03822-P02-CH0	245672	OK	0.5903571	0.3615036	-0.7216603	0	-82.598	-99.577	2.693	B5-03822-P02-CH1	245672	OK	0.8170884	-0.1479276	-0.5572108	0	-86.466	-79.939	3.069	B5-03822-P03-CH0	245672	OK	0.8239374	-0.4128353	-0.3881934	0	-97.672	-59.755	4.669	B5-03822-P03-CH1	245672	OK	0.6043607	0.7906533	0.0980583	0	-101.433	-27.325	1.099	B5-03822-P04-CH0	245672	OK	0.7779529	-0.2748545	0.5650171	0	-127.976	-39.012	5.438	B5-03822-P04-CH1	245672	OK	0.741655	-0.657182	0.1343862	0	-114.631	-32.755	-6.096	NA
0.029976064499874	B5-03822-P01-CH0	245680	OK	0.2382721	0.0869589	0.0871133	-0.9633669	161.237	-37.038	-264.804	B5-03822-P02-CH0	245680	OK	0.5896853	0.3745995	-0.7155043	0	-83.275	-100.612	2.895	B5-03822-P02-CH1	245680	OK	0.8150005	-0.1467835	-0.5605611	0	-86.271	-80.142	2.384	B5-03822-P03-CH0	245680	OK	0.8231201	-0.4158561	-0.3867001	0	-98.434	-59.503	4.46	B5-03822-P03-CH1	245680	OK	0.6053352	0.7899021	0.098102	0	-101.557	-27.349	0.851	B5-03822-P04-CH0	245680	OK	0.7776063	-0.2757059	0.5650793	0	-127.916	-38.857	5.476	B5-03822-P04-CH1	245680	OK	0.7407484	-0.6581617	0.1345921	0	-114.786	-33.132	-5.85	NA
0.039968085999832	B5-03822-P01-CH0	245688	OK	0.2380383	0.0867055	0.0877758	-0.9633874	161.114	-37.088	-264.725	B5-03822-P02-CH0	245688	OK	0.5895275	0.3870138	-0.7089976	0	-82.831	-100.778	2.572	B5-03822-P02-CH1	245688	OK	0.8116971	-0.143926	-0.5660682	0	-86.815	-79.649	1.658	B5-03822-P03-CH0	245688	OK	0.8250792	-0.4191147	-0.378929	0	-96.96	-60.056	4.925	B5-03822-P03-CH1	245688	OK	0.6044792	0.7905062	0.0985132	0	-101.455	-26.786	0.253	B5-03822-P04-CH0	245688	OK	0.7775051	-0.2757902	0.5651775	0	-127.741	-38.787	5.322	B5-03822-P04-CH1	245688	OK	0.741006	-0.6579632	0.1341436	0	-114.65	-33.16	-5.956	NA
0.04996010749979	B5-03822-P01-CH0	245696	OK	0.2382085	0.0866978	0.0884544	-0.963284	161.093	-37.005	-264.69	B5-03822-P02-CH0	245696	OK	0.5873256	0.4007993	-0.7031419	0	-82.94	-100.408	3.153	B5-03822-P02-CH1	245696	OK	0.8097935	-0.1416741	-0.5693531	0	-86.414	-79.463	2.692	B5-03822-P03-CH0	245696	OK	0.8253409	-0.4236069	-0.3733223	0	-97.867	-59.96	4.388	B5-03822-P03-CH1	245696	OK	0.6038941	0.7910047	0.0980991	0	-101.573	-26.522	0.154	B5-03822-P04-CH0	245696	OK	0.7776136	-0.2750896	0.5653696	0	-127.74	-38.804	5.353	B5-03822-P04-CH1	245696	OK	0.7418127	-0.6571413	0.1337134	0	-114.661	-32.687	-6.439	NA
0.059952128999748	B5-03822-P01-CH0	245704	OK	0.2378041	0.0868975	0.0877677	-0.9634287	161.114	-37.028	-264.784	B5-03822-P02-CH0	245704	OK	0.5851874	0.4181819	-0.6947515	0	-83.749	-99.929	3.541	B5-03822-P02-CH1	245704	OK	0.8069855	-0.1408924	-0.5735187	0	-86.475	-79.106	1.976	B5-03822-P03-CH0	245704	OK	0.8275391	-0.4292272	-0.3618604	0	-96.924	-59.913	4.707	B5-03822-P03-CH1	245704	OK	0.6048981	0.7902929	0.0976496	0	-101.683	-26.658	0.458	B5-03822-P04-CH0	245704	OK	0.7772429	-0.2749666	0.5659389	0	-127.766	-38.936	5.779	B5-03822-P04-CH1	245704	OK	0.7412549	-0.6578563	0.1332901	0	-114.522	-32.772	-6.031	NA
0.0699441504997061	B5-03822-P01-CH0	245712	OK	0.2379756	0.0866529	0.0890556	-0.9632902	161.184	-37.069	-264.951	B5-03822-P02-CH0	245712	OK	0.5837147	0.4336141	-0.6864809	0	-84.385	-100.165	3.405	B5-03822-P02-CH1	245712	OK	0.8062769	-0.1393197	-0.5748979	0	-85.43	-78.573	2.253	B5-03822-P03-CH0	245712	OK	0.8294891	-0.4332918	-0.3524288	0	-96.374	-60.106	4.781	B5-03822-P03-CH1	245712	OK	0.6041921	0.7909459	0.0967289	0	-101.562	-26.845	0.5	B5-03822-P04-CH0	245712	OK	0.7774452	-0.2737949	0.566229	0	-127.727	-39.07	5.844	B5-03822-P04-CH1	245712	OK	0.7423113	-0.6566835	0.1331943	0	-114.525	-32.81	-5.734	NA
0.0799361719996641	B5-03822-P01-CH0	245720	OK	0.2379961	0.0862713	0.0894499	-0.9632828	161.04	-37.015	-265.029	B5-03822-P02-CH0	245720	OK	0.5825243	0.446687	-0.6790701	0	-84.829	-99.652	4.17	B5-03822-P02-CH1	245720	OK	0.8044554	-0.1381371	-0.5777281	0	-85.115	-78.49	1.68	B5-03822-P03-CH0	245720	OK	0.8303608	-0.4352545	-0.347929	0	-96.556	-58.874	3.327	B5-03822-P03-CH1	245720	OK	0.6039281	0.7912555	0.0958416	0	-101.365	-26.563	0.127	B5-03822-P04-CH0	245720	OK	0.7773186	-0.2729038	0.5668327	0	-127.684	-39.071	5.756	B5-03822-P04-CH1	245720	OK	0.7423888	-0.6565706	0.1333188	0	-114.175	-32.889	-5.617	NA
0.0899281934996221	B5-03822-P01-CH0	245728	OK	0.2379175	0.0862943	0.0896866	-0.9632782	161.022	-36.977	-264.971	B5-03822-P02-CH0	245728	OK	0.5836462	0.458306	-0.6703079	0	-84.905	-99.99	4.228	B5-03822-P02-CH1	245728	OK	0.7997994	-0.1345791	-0.5849866	0	-86.208	-78.994	1.892	B5-03822-P03-CH0	245728	OK	0.831048	-0.437426	-0.3435371	0	-96.131	-59.459	4.544	B5-03822-P03-CH1	245728	OK	0.6040542	0.7912874	0.0947769	0	-101.438	-26.656	0.308	B5-03822-P04-CH0	245728	OK	0.7773262	-0.2717672	0.5673681	0	-127.782	-38.939	5.565	B5-03822-P04-CH1	245728	OK	0.7423701	-0.6565203	0.1336701	0	-114.328	-33.062	-5.645	NA
0.0999202149995801	B5-03822-P01-CH0	245736	OK	0.2384245	0.086072	0.0908686	-0.9630619	161.101	-36.859	-265.186	B5-03822-P02-CH0	245736	OK	0.5840163	0.4686764	-0.6627725	0	-85.503	-100.618	3.739	B5-03822-P02-CH1	245736	OK	0.798094	-0.1267747	-0.5890451	0	-85.528	-78.112	0.982	B5-03822-P03-CH0	245736	OK	0.8314982	-0.4385181	-0.3410463	0	-96.821	-59.798	4.64	B5-03822-P03-CH1	245736	OK	0.6032048	0.7921228	0.0931958	0	-101.483	-26.747	0.541	B5-03822-P04-CH0	245736	OK	0.7776526	-0.2689915	0.5682429	0	-128.03	-39.299	5.73	B5-03822-P04-CH1	245736	OK	0.7432205	-0.6554676	0.1341101	0	-114.327	-33.138	-5.472	NA
0.109912236499538	B5-03822-P01-CH0	245744	OK	0.2381433	0.0860039	0.0907752	-0.9631464	160.998	-36.879	-265.105	B5-03822-P02-CH0	245744	OK	0.5845607	0.4794998	-0.6544989	0	-85.95	-100.245	3.405	B5-03822-P02-CH1	245744	OK	0.7969385	-0.1187305	-0.5922771	0	-84.801	-78.021	0.505	B5-03822-P03-CH0	245744	OK	0.8323312	-0.4384308	-0.3391212	0	-95.675	-60.264	4.14	B5-03822-P03-CH1	245744	OK	0.6036418	0.7918828	0.0924026	0	-101.633	-26.763	0.471	B5-03822-P04-CH0	245744	OK	0.7774885	-0.2672136	0.5693053	0	-128.162	-39.615	5.658	B5-03822-P04-CH1	245744	OK	0.7432355	-0.6555684	0.1335331	0	-114.193	-32.98	-5.602	NA
0.119904257999496	B5-03822-P01-CH0	245752	OK	0.237776	0.086367	0.089592	-0.9633154	161.037	-37.001	-265.056	B5-03822-P02-CH0	245752	OK	0.5873253	0.4892388	-0.6447437	0	-86.105	-100.338	3.515	B5-03822-P02-CH1	245752	OK	0.7955327	-0.1119456	-0.5954795	0	-84.682	-78.543	1.312	B5-03822-P03-CH0	245752	OK	0.8308624	-0.433527	-0.3488867	0	-96.719	-59.843	4.19	B5-03822-P03-CH1	245752	OK	0.6046914	0.7911809	0.0915481	0	-101.587	-26.737	0.407	B5-03822-P04-CH0	245752	OK	0.7771866	-0.2657531	0.5704001	0	-128.318	-39.908	5.929	B5-03822-P04-CH1	245752	OK	0.7424171	-0.6564209	0.1338971	0	-114.352	-33.205	-5.501	NA
0.129896279499454	B5-03822-P01-CH0	245760	OK	0.2381131	0.0859006	0.0907583	-0.9631647	160.935	-36.978	-265.108	B5-03822-P02-CH0	245760	OK	0.5877414	0.4961627	-0.6390482	0	-86.814	-100.281	3.385	B5-03822-P02-CH1	245760	OK	0.7931799	-0.1037982	-0.6000763	0	-85.364	-78.737	1.164	B5-03822-P03-CH0	245760	OK	0.829822	-0.4254797	-0.3610574	0	-95.707	-60.133	4.486	B5-03822-P03-CH1	245760	OK	0.6038651	0.7920158	0.0897664	0	-101.527	-26.762	0.297	B5-03822-P04-CH0	245760	OK	0.777509	-0.2623376	0.5715407	0	-128.521	-40.395	6.04	B5-03822-P04-CH1	245760	OK	0.7441614	-0.6546641	0.1328107	0	-114.183	-32.333	-6.094	NA
0.139888300999412	B5-03822-P01-CH0	245768	OK	0.2382471	0.0860729	0.0910465	-0.9630889	161.044	-36.903	-265.159	B5-03822-P02-CH0	245768	OK	0.5902729	0.5001074	-0.633617	0	-86.266	-100.421	3.341	B5-03822-P02-CH1	245768	OK	0.7923297	-0.0970613	-0.6023228	0	-85.547	-78.4	0.637	B5-03822-P03-CH0	245768	OK	0.8240758	-0.4159282	-0.3845813	0	-96.006	-59.944	4.273	B5-03822-P03-CH1	245768	OK	0.6040224	0.7920577	0.0883266	0	-101.707	-27.012	0.651	B5-03822-P04-CH0	245768	OK	0.777769	-0.2594587	0.5725003	0	-128.861	-40.674	6.122	B5-03822-P04-CH1	245768	OK	0.7443223	-0.6543865	0.1332768	0	-114.189	-32.473	-5.838	NA
0.14988032249937	B5-03822-P01-CH0	245776	OK	0.2380026	0.0865104	0.0902269	-0.9631873	161.143	-37.009	-265.049	B5-03822-P02-CH0	245776	OK	0.5908502	0.5046412	-0.6294707	0	-86.186	-100.091	3.903	B5-03822-P02-CH1	245776	OK	0.792026	-0.0905035	-0.6037415	0	-85.184	-78.735	2.165	B5-03822-P03-CH0	245776	OK	0.8152919	-0.4024512	-0.4163318	0	-96.077	-59.117	3.57	B5-03822-P03-CH1	245776	OK	0.6051664	0.791314	0.0871533	0	-101.63	-27.327	0.622	B5-03822-P04-CH0	245776	OK	0.777472	-0.2574679	0.573801	0	-128.977	-41.092	6.219	B5-03822-P04-CH1	245776	OK	0.7437989	-0.6549946	0.1332112	0	-114.173	-32.656	-5.671	NA
0.159872343999328	B5-03822-P01-CH0	245784	OK	0.2376315	0.0864523	0.0895068	-0.9633513	161.018	-37.134	-264.943	B5-03822-P02-CH0	245784	OK	0.5914572	0.5080024	-0.6261884	0	-86.283	-99.846	4.166	B5-03822-P02-CH1	245784	OK	0.7910052	-0.0865125	-0.6056619	0	-85.199	-79.247	1.786	B5-03822-P03-CH0	245784	OK	0.8048494	-0.3856559	-0.4510953	0	-95.372	-58.378	1.694	B5-03822-P03-CH1	245784	OK	0.6058154	0.7908793	0.0865892	0	-101.377	-27.195	0.273	B5-03822-P04-CH0	245784	OK	0.7769058	-0.2566074	0.5749521	0	-128.718	-40.761	5.619	B5-03822-P04-CH1	245784	OK	0.7430915	-0.6557358	0.1335123	0	-114.074	-32.906	-5.68	NA
0.169864365499286	B5-03822-P01-CH0	245792	OK	0.2371411	0.0869742	0.0880411	-0.9635603	161.041	-37.178	-264.796	B5-03822-P02-CH0	245792	OK	0.5931842	0.5097372	-0.6231376	0	-86.987	-100.136	3.778	B5-03822-P02-CH1	245792	OK	0.7903756	-0.0770341	-0.60776	0	-85.042	-78.576	0.251	B5-03822-P03-CH0	245792	OK	0.7903986	-0.3613193	-0.4946903	0	-95.414	-57.309	0.974	B5-03822-P03-CH1	245792	OK	0.6072914	0.7897942	0.0861533	0	-101.525	-27.143	0.253	B5-03822-P04-CH0	245792	OK	0.7767921	-0.2549004	0.5758644	0	-128.976	-40.792	5.726	B5-03822-P04-CH1	245792	OK	0.7419596	-0.6570366	0.1334125	0	-114.131	-33.042	-5.594	NA
0.179856386999244	B5-03822-P01-CH0	245800	OK	0.2366478	0.0873293	0.08732	-0.963715	161.122	-37.217	-264.786	B5-03822-P02-CH0	245800	OK	0.594426	0.5082525	-0.623167	0	-87.332	-99.353	3.165	B5-03822-P02-CH1	245800	OK	0.7884466	-0.0690124	-0.6112195	0	-85.626	-79.268	0.975	B5-03822-P03-CH0	245800	OK	0.7768422	-0.3406957	-0.5295683	0	-94.145	-54.827	-0.345	B5-03822-P03-CH1	245800	OK	0.6085998	0.7888364	0.0856936	0	-101.473	-27.368	0.303	B5-03822-P04-CH0	245800	OK	0.7765399	-0.253526	0.5768105	0	-128.912	-40.684	5.869	B5-03822-P04-CH1	245800	OK	0.7413603	-0.6577158	0.1333971	0	-114.376	-33.217	-5.298	NA
0.189848408499202	B5-03822-P01-CH0	245808	OK	0.236516	0.0873847	0.0874707	-0.9637287	161.155	-37.27	-264.802	B5-03822-P02-CH0	245808	OK	0.597479	0.5042811	-0.6234737	0	-87.332	-100.319	3.964	B5-03822-P02-CH1	245808	OK	0.7882955	-0.0612894	-0.6122368	0	-85.18	-78.944	1.196	B5-03822-P03-CH0	245808	OK	0.768515	-0.3347101	-0.5453016	0	-92.633	-58.169	1.734	B5-03822-P03-CH1	245808	OK	0.6086308	0.7888051	0.0857615	0	-101.482	-27.164	0.202	B5-03822-P04-CH0	245808	OK	0.7765934	-0.2508103	0.5779246	0	-129.048	-41.196	5.979	B5-03822-P04-CH1	245808	OK	0.7415374	-0.6575747	0.1331083	0	-114.315	-33.19	-5.119	NA
0.19984042999916	B5-03822-P01-CH0	245816	OK	0.2360298	0.0873865	0.0873867	-0.9638553	161.118	-37.365	-264.847	B5-03822-P02-CH0	245816	OK	0.5997766	0.4985001	-0.6259119	0	-86.998	-99.74	4.362	B5-03822-P02-CH1	245816	OK	0.788148	-0.0576956	-0.6127756	0	-84.915	-79.642	1.381	B5-03822-P03-CH0	245816	OK	0.7635443	-0.3252816	-0.5578459	0	-92.242	-59.675	2.261	B5-03822-P03-CH1	245816	OK	0.6091198	0.7883569	0.0864089	0	-101.381	-26.985	0.093	B5-03822-P04-CH0	245816	OK	0.775693	-0.2410925	0.5832451	0	-127.798	-37.733	3.465	B5-03822-P04-CH1	245816	OK	0.7412782	-0.6579765	0.1325654	0	-114.313	-33.32	-4.906	NA
0.209832451499118	B5-03822-P01-CH0	245824	OK	0.2354841	0.0874688	0.0866459	-0.9640482	161.086	-37.475	-264.895	B5-03822-P02-CH0	245824	OK	0.6035221	0.4928344	-0.6267977	0	-86.088	-99.153	3.546	B5-03822-P02-CH1	245824	OK	0.7879839	-0.0551567	-0.6132202	0	-84.295	-79.406	0.893	B5-03822-P03-CH0	245824	OK	0.7547866	-0.3182055	-0.5736222	0	-94.031	-58.762	0.26	B5-03822-P03-CH1	245824	OK	0.6101987	0.7874484	0.0870774	0	-101.16	-26.796	-0.058	B5-03822-P04-CH0	245824	OK	0.7749621	-0.232417	0.5877211	0	-128.38	-41.245	6.151	B5-03822-P04-CH1	245824	OK	0.7408662	-0.65868	0.1313696	0	-114.131	-33.072	-4.981	NA
0.219824472999076	B5-03822-P01-CH0	245832	OK	0.2352908	0.0872879	0.087026	-0.9640776	161.008	-37.58	-264.944	B5-03822-P02-CH0	245832	OK	0.6067449	0.4858453	-0.6291383	0	-85.597	-99.96	3.11	B5-03822-P02-CH1	245832	OK	0.7871595	-0.0538704	-0.6143922	0	-84.281	-79.589	1.587	B5-03822-P03-CH0	245832	OK	0.7471081	-0.3095585	-0.5882202	0	-94.111	-56.547	-2.001	B5-03822-P03-CH1	245832	OK	0.6110463	0.7867659	0.0873027	0	-101.161	-27.065	0.053	B5-03822-P04-CH0	245832	OK	0.7742479	-0.23014	0.5895555	0	-127.389	-38.244	3.443	B5-03822-P04-CH1	245832	OK	0.741428	-0.6583776	0.129705	0	-113.818	-32.555	-5.386	NA
0.229816494499034	B5-03822-P01-CH0	245840	OK	0.2350935	0.0873174	0.0869699	-0.9641281	161.036	-37.584	-265.146	B5-03822-P02-CH0	245840	OK	0.6073968	0.4766609	-0.6355026	0	-86.14	-99.869	4.103	B5-03822-P02-CH1	245840	OK	0.7864738	-0.0541628	-0.6152442	0	-84.8	-79.79	1.28	B5-03822-P03-CH0	245840	OK	0.7422289	-0.3025287	-0.5979738	0	-91.497	-56.998	0.793	B5-03822-P03-CH1	245840	OK	0.6165519	0.7821606	0.0899361	0	-102.193	-26.363	-0.571	B5-03822-P04-CH0	245840	OK	0.774401	-0.2246591	0.5914654	0	-128.048	-38.66	3.67	B5-03822-P04-CH1	245840	OK	0.7407885	-0.6590581	0.1299029	0	-113.788	-33.035	-4.697	NA
0.239808515998992	B5-03822-P01-CH0	245848	OK	0.2346017	0.0873037	0.0863121	-0.9643082	160.954	-37.721	-265.282	B5-03822-P02-CH0	245848	OK	0.6094275	0.4641758	-0.6427589	0	-85.901	-99.18	3.757	B5-03822-P02-CH1	245848	OK	0.7879006	-0.0558607	-0.6132636	0	-84.212	-79.655	0.628	B5-03822-P03-CH0	245848	OK	0.7351924	-0.2977226	-0.6089773	0	-91.349	-57.788	1.487	B5-03822-P03-CH1	245848	OK	0.6192083	0.7799227	0.0911129	0	-102.494	-27.138	1.366	B5-03822-P04-CH0	245848	OK	0.7731727	-0.2212128	0.5943642	0	-127.674	-38.471	4.281	B5-03822-P04-CH1	245848	OK	0.7400169	-0.6601002	0.1290064	0	-113.593	-33.106	-4.572	NA
0.24980053749895	B5-03822-P01-CH0	245856	OK	0.23422	0.0871381	0.0865243	-0.964397	160.866	-37.781	-265.441	B5-03822-P02-CH0	245856	OK	0.6111796	0.4473513	-0.6529443	0	-85.62	-98.602	4.172	B5-03822-P02-CH1	245856	OK	0.7880433	-0.0594021	-0.6127472	0	-84.323	-79.919	1.38	B5-03822-P03-CH0	245856	OK	0.7325094	-0.289697	-0.6160403	0	-88.83	-60.748	2.171	B5-03822-P03-CH1	245856	OK	0.6189556	0.7797669	0.0941149	0	-102.005	-25.547	0.148	B5-03822-P04-CH0	245856	OK	0.7716486	-0.2169746	0.5978967	0	-127.1	-37.894	4.703	B5-03822-P04-CH1	245856	OK	0.7395706	-0.6607071	0.1284581	0	-113.486	-33.308	-4.436	NA
0.259792558998908	B5-03822-P01-CH0	245864	OK	0.2340872	0.0869103	0.0868858	-0.9644173	160.781	-37.803	-265.59	B5-03822-P02-CH0	245864	OK	0.616943	0.4278298	-0.6605627	0	-84.109	-99.185	2.504	B5-03822-P02-CH1	245864	OK	0.7884918	-0.0587025	-0.6122375	0	-84.274	-79.587	1.856	B5-03822-P03-CH0	245864	OK	0.7287831	-0.2836426	-0.6232352	0	-89.085	-61.118	0.948	B5-03822-P03-CH1	245864	OK	0.6215915	0.7778915	0.0922435	0	-101.786	-26.667	0.94	B5-03822-P04-CH0	245864	OK	0.7712247	-0.2093408	0.6011562	0	-127.762	-38.74	5.032	B5-03822-P04-CH1	245864	OK	0.739757	-0.6606315	0.1277717	0	-113.517	-33.056	-4.549	NA
0.269784580498866	B5-03822-P01-CH0	245872	OK	0.2336897	0.0869351	0.0867951	-0.9645196	160.699	-37.887	-265.689	B5-03822-P02-CH0	245872	OK	0.6187661	0.4091389	-0.670622	0	-84.083	-99.35	3.877	B5-03822-P02-CH1	245872	OK	0.788272	-0.0592166	-0.612471	0	-84.216	-80.007	2.048	B5-03822-P03-CH0	245872	OK	0.7254131	-0.2814864	-0.6281252	0	-90.883	-59.819	-0.282	B5-03822-P03-CH1	245872	OK	0.6217287	0.7773238	0.0960267	0	-102.472	-25.529	1.288	B5-03822-P04-CH0	245872	OK	0.7703088	-0.199907	0.6055259	0	-128.325	-39.034	6.311	B5-03822-P04-CH1	245872	OK	0.7397649	-0.6609203	0.1262231	0	-113.344	-32.594	-4.842	NA
0.279776601998824	B5-03822-P01-CH0	245880	OK	0.2331023	0.0870721	0.0864657	-0.9646789	160.682	-38.08	-265.706	B5-03822-P02-CH0	245880	OK	0.6209552	0.388685	-0.6806898	0	-83.604	-99.202	3.418	B5-03822-P02-CH1	245880	OK	0.7910446	-0.0779514	-0.6067717	0	-83.022	-79.884	1.73	B5-03822-P03-CH0	245880	OK	0.7258641	-0.2810424	-0.6278029	0	-91.899	-59.338	0.324	B5-03822-P03-CH1	245880	OK	0.6208834	0.7772073	0.1022384	0	-101.611	-23.274	-0.367	B5-03822-P04-CH0	245880	OK	0.7679632	-0.1939189	0.6104327	0	-127.973	-38.589	6.161	B5-03822-P04-CH1	245880	OK	0.7392772	-0.6617009	0.124985	0	-113.307	-32.47	-5.178	NA
0.289768623498782	B5-03822-P01-CH0	245888	OK	0.2327806	0.0867952	0.0871457	-0.9647204	160.527	-38.101	-265.81	B5-03822-P02-CH0	245888	OK	0.6226979	0.3683751	-0.6903239	0	-82.927	-99.244	3.037	B5-03822-P02-CH1	245888	OK	0.7912403	-0.0851753	-0.6055444	0	-82.999	-79.859	1.216	B5-03822-P03-CH0	245888	OK	0.7292789	-0.2819905	-0.6234049	0	-91.618	-59.276	-0.245	B5-03822-P03-CH1	245888	OK	0.6220833	0.7759186	0.1047027	0	-101.801	-23.463	-0.619	B5-03822-P04-CH0	245888	OK	0.7671428	-0.1897126	0.6127814	0	-128.061	-36.877	3.819	B5-03822-P04-CH1	245888	OK	0.7393132	-0.6617474	0.1245247	0	-113.332	-32.456	-5.127	NA
0.29976064499874	B5-03822-P01-CH0	245896	OK	0.2327859	0.0868968	0.0874224	-0.9646849	160.492	-38.035	-265.822	B5-03822-P02-CH0	245896	OK	0.6245456	0.3487738	-0.6987844	0	-81.846	-98.307	1.202	B5-03822-P02-CH1	245896	OK	0.7894627	-0.0929751	-0.606716	0	-83.811	-79.693	-0.079	B5-03822-P03-CH0	245896	OK	0.7332463	-0.2868157	-0.6165116	0	-90.834	-59.44	0.115	B5-03822-P03-CH1	245896	OK	0.6223457	0.7753422	0.1073798	0	-102.298	-22.982	-0.282	B5-03822-P04-CH0	245896	OK	0.7681239	-0.1831431	0.6135506	0	-129.11	-37.966	5.263	B5-03822-P04-CH1	245896	OK	0.7391665	-0.6618797	0.124692	0	-113.443	-32.439	-5.064	NA
0.309752666498698	B5-03822-P01-CH0	245904	OK	0.2325321	0.0871441	0.0872359	-0.9647407	160.543	-38.09	-265.871	B5-03822-P02-CH0	245904	OK	0.6252614	0.3344592	-0.7051136	0	-81.325	-97.633	1.984	B5-03822-P02-CH1	245904	OK	0.7884091	-0.0959775	-0.6076179	0	-83.602	-79.845	1.742	B5-03822-P03-CH0	245904	OK	0.7391336	-0.2935871	-0.606208	0	-90.417	-58.915	0.442	B5-03822-P03-CH1	245904	OK	0.6227422	0.7749235	0.1081005	0	-101.428	-22.676	-0.442	B5-03822-P04-CH0	245904	OK	0.7673741	-0.1823872	0.6147128	0	-128.998	-37.839	5.294	B5-03822-P04-CH1	245904	OK	0.7384587	-0.6625807	0.1251619	0	-113.715	-32.815	-4.67	NA
0.319744687998656	B5-03822-P01-CH0	245912	OK	0.2322036	0.086808	0.0874108	-0.9648343	160.424	-38.158	-265.96	B5-03822-P02-CH0	245912	OK	0.6254105	0.3264498	-0.7087258	0	-80.801	-97.042	2.444	B5-03822-P02-CH1	245912	OK	0.7882263	-0.0974002	-0.6076286	0	-82.939	-79.736	0.632	B5-03822-P03-CH0	245912	OK	0.7480931	-0.303784	-0.5899762	0	-90.504	-58.284	-0.265	B5-03822-P03-CH1	245912	OK	0.6205221	0.7764179	0.1101253	0	-101.557	-20.589	-1.5	B5-03822-P04-CH0	245912	OK	0.7670045	-0.1839081	0.614721	0	-128.674	-38.814	6.197	B5-03822-P04-CH1	245912	OK	0.7380999	-0.6629824	0.1251517	0	-113.798	-32.893	-4.743	NA
0.329736709498614	B5-03822-P01-CH0	245920	OK	0.2321247	0.0867325	0.087713	-0.9648326	160.412	-38.258	-265.955	B5-03822-P02-CH0	245920	OK	0.6230704	0.3254459	-0.7112442	0	-81.177	-96.651	1.814	B5-03822-P02-CH1	245920	OK	0.7859958	-0.0947548	-0.6109273	0	-82.647	-79.413	1.052	B5-03822-P03-CH0	245920	OK	0.7560484	-0.3169933	-0.5726309	0	-91.642	-58.027	-0.81	B5-03822-P03-CH1	245920	OK	0.6225067	0.7750394	0.1086243	0	-101.388	-22.044	-1.886	B5-03822-P04-CH0	245920	OK	0.7677457	-0.1858705	0.6132037	0	-128.891	-38.438	5.66	B5-03822-P04-CH1	245920	OK	0.7382941	-0.6628616	0.1246449	0	-113.904	-32.645	-4.966	NA
0.339728730998572	B5-03822-P01-CH0	245928	OK	0.2317092	0.0869989	0.087259	-0.9649497	160.495	-38.395	-265.881	B5-03822-P02-CH0	245928	OK	0.6198526	0.3323301	-0.7108723	0	-82.303	-97.966	3.128	B5-03822-P02-CH1	245928	OK	0.7817625	-0.0892264	-0.6171596	0	-82.922	-79.758	0.319	B5-03822-P03-CH0	245928	OK	0.7658488	-0.3322606	-0.5505257	0	-91.457	-58.887	0.775	B5-03822-P03-CH1	245928	OK	0.6232193	0.7750555	0.104339	0	-101.631	-24.599	0.404	B5-03822-P04-CH0	245928	OK	0.7684169	-0.1879203	0.6117364	0	-128.822	-37.949	6.367	B5-03822-P04-CH1	245928	OK	0.7376651	-0.6636528	0.1241581	0	-114.06	-32.602	-5.247	NA
0.34972075249853	B5-03822-P01-CH0	245936	OK	0.2318422	0.0866441	0.0875208	-0.964926	160.397	-38.394	-265.943	B5-03822-P02-CH0	245936	OK	0.6187384	0.3434387	-0.7065498	0	-81.409	-97.429	2.309	B5-03822-P02-CH1	245936	OK	0.7777942	-0.0792551	-0.6235021	0	-82.246	-79.923	-0.328	B5-03822-P03-CH0	245936	OK	0.7781674	-0.3515069	-0.520479	0	-92.762	-59.24	1.394	B5-03822-P03-CH1	245936	OK	0.6231375	0.7750476	0.1048849	0	-101.496	-24.346	0.374	B5-03822-P04-CH0	245936	OK	0.7679723	-0.1920315	0.6110175	0	-128.091	-36.347	4.715	B5-03822-P04-CH1	245936	OK	0.7379491	-0.6633043	0.1243322	0	-114.268	-32.312	-5.334	NA
0.359712773998488	B5-03822-P01-CH0	245944	OK	0.2316066	0.0865719	0.0877534	-0.9649679	160.441	-38.485	-265.946	B5-03822-P02-CH0	245944	OK	0.616034	0.3612078	-0.7000221	0	-81.956	-98.368	2.459	B5-03822-P02-CH1	245944	OK	0.7733977	-0.0627942	-0.6308033	0	-81.051	-80.072	-0.171	B5-03822-P03-CH0	245944	OK	0.7935411	-0.3729535	-0.4808307	0	-93.6	-59.093	1.234	B5-03822-P03-CH1	245944	OK	0.6226919	0.7752021	0.1063796	0	-101.379	-23.822	-0.015	B5-03822-P04-CH0	245944	OK	0.7683243	-0.1891389	0.6114771	0	-128.697	-38.162	5.52	B5-03822-P04-CH1	245944	OK	0.7376898	-0.6635327	0.1246519	0	-114.507	-32.622	-4.879	NA
0.369704795498446	B5-03822-P01-CH0	245952	OK	0.2317456	0.0860946	0.0884227	-0.9649161	160.428	-38.518	-266.121	B5-03822-P02-CH0	245952	OK	0.6118961	0.3800591	-0.6936413	0	-82.803	-98.341	2.287	B5-03822-P02-CH1	245952	OK	0.7676813	-0.0458019	-0.6391929	0	-80.934	-79.916	-1.862	B5-03822-P03-CH0	245952	OK	0.8086726	-0.3930696	-0.4376584	0	-92.335	-60.766	2.093	B5-03822-P03-CH1	245952	OK	0.6218699	0.7758269	0.1066323	0	-101.332	-23.486	-0.326	B5-03822-P04-CH0	245952	OK	0.7681281	-0.1900546	0.6114397	0	-128.222	-37.419	5.295	B5-03822-P04-CH1	245952	OK	0.7377908	-0.6632874	0.1253576	0	-114.721	-32.746	-4.934	NA
0.379696816998404	B5-03822-P01-CH0	245960	OK	0.2322079	0.0857268	0.0892897	-0.9647579	160.458	-38.376	-266.307	B5-03822-P02-CH0	245960	OK	0.6088431	0.3977814	-0.6863527	0	-82.931	-98.083	2.357	B5-03822-P02-CH1	245960	OK	0.7625527	-0.0288893	-0.6462807	0	-80.704	-79.638	-0.817	B5-03822-P03-CH0	245960	OK	0.8195667	-0.4083749	-0.4019209	0	-93.008	-60.112	1.557	B5-03822-P03-CH1	245960	OK	0.621085	0.7765637	0.1058405	0	-101.29	-23.4	-0.373	B5-03822-P04-CH0	245960	OK	0.7708666	-0.2029799	0.6037912	0	-127.281	-36.883	5.09	B5-03822-P04-CH1	245960	OK	0.7382104	-0.6626552	0.1262277	0	-114.949	-32.764	-4.642	NA
0.389688838498362	B5-03822-P01-CH0	245968	OK	0.2322306	0.0854823	0.089119	-0.9647899	160.463	-38.404	-266.437	B5-03822-P02-CH0	245968	OK	0.6053187	0.4185798	-0.6770378	0	-83.728	-99.147	3.13	B5-03822-P02-CH1	245968	OK	0.7586234	-0.0175757	-0.6512923	0	-80.044	-79.789	-0.56	B5-03822-P03-CH0	245968	OK	0.8283988	-0.4221294	-0.3681876	0	-90.821	-61.659	2.785	B5-03822-P03-CH1	245968	OK	0.6209852	0.7767539	0.1050273	0	-101.124	-23.333	-0.488	B5-03822-P04-CH0	245968	OK	0.7717657	-0.2094064	0.6004387	0	-126.93	-36.367	4.356	B5-03822-P04-CH1	245968	OK	0.737988	-0.662874	0.1263795	0	-115.046	-32.724	-4.657	NA
0.39968085999832	B5-03822-P01-CH0	245976	OK	0.2321982	0.0854828	0.0885637	-0.9648488	160.55	-38.519	-266.446	B5-03822-P02-CH0	245976	OK	0.601902	0.4393131	-0.6668718	0	-84.378	-99.953	3.589	B5-03822-P02-CH1	245976	OK	0.7546576	-0.0138996	-0.6559716	0	-79.521	-80.104	-0.689	B5-03822-P03-CH0	245976	OK	0.8331377	-0.4326115	-0.3445706	0	-90.827	-63.176	3.756	B5-03822-P03-CH1	245976	OK	0.6210844	0.7768084	0.1040332	0	-101.08	-23.289	-0.853	B5-03822-P04-CH0	245976	OK	0.7739735	-0.2117642	0.5967587	0	-127.8	-37.655	6.205	B5-03822-P04-CH1	245976	OK	0.7378773	-0.6630986	0.1258465	0	-115.086	-32.409	-5.05	NA
0.409672881498278	B5-03822-P01-CH0	245984	OK	0.2321491	0.0856384	0.0880488	-0.9648939	160.662	-38.558	-266.424	B5-03822-P02-CH0	245984	OK	0.598395	0.457056	-0.658045	0	-84.784	-99.627	3.785	B5-03822-P02-CH1	245984	OK	0.7519835	-0.0147576	-0.6590167	0	-78.9	-79.829	-1.758	B5-03822-P03-CH0	245984	OK	0.8378607	-0.4365184	-0.3277823	0	-92.228	-63.748	6.147	B5-03822-P03-CH1	245984	OK	0.6211539	0.7768743	0.1031216	0	-101.024	-23.341	-0.965	B5-03822-P04-CH0	245984	OK	0.7757165	-0.2166676	0.5927218	0	-128.156	-37.314	5.56	B5-03822-P04-CH1	245984	OK	0.7372997	-0.663702	0.1260508	0	-115.176	-32.53	-5.124	NA
0.419664902998236	B5-03822-P01-CH0	245992	OK	0.2326376	0.0855198	0.0888796	-0.9647106	160.723	-38.36	-266.529	B5-03822-P02-CH0	245992	OK	0.5964783	0.4699837	-0.6506373	0	-84.184	-99.292	3.008	B5-03822-P02-CH1	245992	OK	0.7488408	-0.0168836	-0.6625349	0	-78.94	-79.369	-1.696	B5-03822-P03-CH0	245992	OK	0.8430397	-0.4365653	-0.3141572	0	-92.772	-63.103	5.219	B5-03822-P03-CH1	245992	OK	0.620104	0.7779132	0.101598	0	-101.027	-23.346	-0.91	B5-03822-P04-CH0	245992	OK	0.7764613	-0.2217091	0.5898753	0	-127.731	-37.258	5.32	B5-03822-P04-CH1	245992	OK	0.7382613	-0.662693	0.1257309	0	-115.257	-32.008	-5.258	NA
0.429656924498194	B5-03822-P01-CH0	246000	OK	0.2322506	0.085722	0.087901	-0.9648755	160.793	-38.42	-266.485	B5-03822-P02-CH0	246000	OK	0.5955389	0.4819276	-0.6427123	0	-83.942	-99.14	2.855	B5-03822-P02-CH1	246000	OK	0.7479087	-0.0194398	-0.6635169	0	-78.016	-78.918	-2.026	B5-03822-P03-CH0	246000	OK	0.8458147	-0.4408026	-0.3004839	0	-91.334	-64.497	6.022	B5-03822-P03-CH1	246000	OK	0.6200313	0.7780411	0.1010607	0	-100.949	-23.146	-1.038	B5-03822-P04-CH0	246000	OK	0.7782998	-0.2265337	0.5856039	0	-128.103	-37.409	5.29	B5-03822-P04-CH1	246000	OK	0.737489	-0.6635727	0.1256233	0	-115.405	-31.988	-5.552	NA
0.439648945998152	B5-03822-P01-CH0	246008	OK	0.2324335	0.085425	0.0881135	-0.9648385	160.73	-38.341	-266.513	B5-03822-P02-CH0	246008	OK	0.5912813	0.4912208	-0.6396004	0	-85.345	-98.548	4.11	B5-03822-P02-CH1	246008	OK	0.7470853	-0.0214746	-0.6643812	0	-77.59	-78.466	-2.389	B5-03822-P03-CH0	246008	OK	0.847554	-0.4407779	-0.2955793	0	-91.324	-64.915	7.567	B5-03822-P03-CH1	246008	OK	0.6186878	0.7792196	0.1002112	0	-100.895	-22.76	-1.401	B5-03822-P04-CH0	246008	OK	0.7797815	-0.2306652	0.5820089	0	-127.719	-37.113	5.098	B5-03822-P04-CH1	246008	OK	0.7376417	-0.6632187	0.1265927	0	-115.635	-32.117	-5.246	NA
0.44964096749811	B5-03822-P01-CH0	246016	OK	0.2328538	0.0853717	0.0893105	-0.9646318	160.869	-38.201	-266.558	B5-03822-P02-CH0	246016	OK	0.5929643	0.4971986	-0.6333931	0	-85.045	-98.81	2.884	B5-03822-P02-CH1	246016	OK	0.7454727	-0.0285305	-0.6659253	0	-77.978	-78.803	-1.513	B5-03822-P03-CH0	246016	OK	0.8468388	-0.4374168	-0.3025403	0	-93.409	-64.098	6.445	B5-03822-P03-CH1	246016	OK	0.6123166	0.7845867	0.0974277	0	-100.433	-23.436	-1.356	B5-03822-P04-CH0	246016	OK	0.7805717	-0.2317588	0.5805134	0	-127.767	-37.69	3.687	B5-03822-P04-CH1	246016	OK	0.7385531	-0.6621568	0.1268372	0	-115.732	-32.058	-5.28	NA
0.459632988998068	B5-03822-P01-CH0	246024	OK	0.2329858	0.0852556	0.088948	-0.9646436	160.829	-38.121	-266.612	B5-03822-P02-CH0	246024	OK	0.5963183	0.5027699	-0.625801	0	-84.601	-99.555	3.354	B5-03822-P02-CH1	246024	OK	0.7455269	-0.0373402	-0.6654287	0	-77.612	-79.094	-2.138	B5-03822-P03-CH0	246024	OK	0.8433616	-0.4343444	-0.316364	0	-93.594	-63.311	5.223	B5-03822-P03-CH1	246024	OK	0.6104054	0.7861334	0.0969513	0	-100.331	-23.856	-0.998	B5-03822-P04-CH0	246024	OK	0.7811107	-0.2330153	0.579284	0	-126.965	-37.626	5.056	B5-03822-P04-CH1	246024	OK	0.7385597	-0.662209	0.1265256	0	-115.576	-31.721	-5.639	NA
0.469625010498026	B5-03822-P01-CH0	246032	OK	0.2330047	0.0851039	0.0887599	-0.9646698	160.782	-38.033	-266.558	B5-03822-P02-CH0	246032	OK	0.5982095	0.507045	-0.6205246	0	-84.626	-99.061	3.266	B5-03822-P02-CH1	246032	OK	0.7448728	-0.0507211	-0.6652758	0	-77.822	-78.599	-1.161	B5-03822-P03-CH0	246032	OK	0.8356865	-0.4298454	-0.3418494	0	-93.177	-63.054	4.951	B5-03822-P03-CH1	246032	OK	0.6102699	0.7863246	0.0962511	0	-100.287	-26.085	0.669	B5-03822-P04-CH0	246032	OK	0.7827681	-0.2325697	0.5772221	0	-126.768	-37.331	5.932	B5-03822-P04-CH1	246032	OK	0.7383219	-0.6624315	0.1267487	0	-115.46	-31.884	-5.442	NA
0.479617031997984	B5-03822-P01-CH0	246040	OK	0.2333073	0.0849741	0.0888965	-0.9645955	160.829	-38.038	-266.622	B5-03822-P02-CH0	246040	OK	0.5990244	0.5100675	-0.6172527	0	-85.012	-98.554	4.009	B5-03822-P02-CH1	246040	OK	0.7458386	-0.0724735	-0.6621725	0	-78.126	-77.844	-1.638	B5-03822-P03-CH0	246040	OK	0.8246227	-0.4225839	-0.3760588	0	-92.946	-61.843	3.11	B5-03822-P03-CH1	246040	OK	0.6068735	0.7886096	0.0989922	0	-100.125	-25.323	0.493	B5-03822-P04-CH0	246040	OK	0.7834975	-0.2330041	0.5760562	0	-126.62	-38.04	6.232	B5-03822-P04-CH1	246040	OK	0.738862	-0.6618486	0.1266468	0	-115.396	-31.766	-5.424	NA
0.489609053497942	B5-03822-P01-CH0	246048	OK	0.2335033	0.084647	0.0888357	-0.9645824	160.722	-37.959	-266.644	B5-03822-P02-CH0	246048	OK	0.602465	0.5080008	-0.6156063	0	-84.571	-98.314	4.127	B5-03822-P02-CH1	246048	OK	0.7500788	-0.0934102	-0.6547185	0	-77.981	-77.427	-0.725	B5-03822-P03-CH0	246048	OK	0.812731	-0.4095135	-0.4144478	0	-92.124	-60.213	2.315	B5-03822-P03-CH1	246048	OK	0.6066716	0.7889991	0.0971083	0	-99.833	-26.671	0.825	B5-03822-P04-CH0	246048	OK	0.7836837	-0.2336752	0.5755309	0	-126.359	-37.932	6.267	B5-03822-P04-CH1	246048	OK	0.7388771	-0.6617672	0.1269833	0	-115.236	-31.744	-5.558	NA
0.4996010749979	B5-03822-P01-CH0	246056	OK	0.2336419	0.0841041	0.0893921	-0.964545	160.558	-37.774	-266.675	B5-03822-P02-CH0	246056	OK	0.6052905	0.5026133	-0.6172546	0	-84.574	-97.744	3.8	B5-03822-P02-CH1	246056	OK	0.755121	-0.1117695	-0.6459876	0	-78.758	-76.606	-0.648	B5-03822-P03-CH0	246056	OK	0.8004249	-0.3892915	-0.4558202	0	-92.189	-57.996	-0.067	B5-03822-P03-CH1	246056	OK	0.60226	0.7920123	0.0999965	0	-100.136	-24.933	-0.561	B5-03822-P04-CH0	246056	OK	0.7841189	-0.2350576	0.574374	0	-126.249	-37.278	5.966	B5-03822-P04-CH1	246056	OK	0.7394943	-0.6611361	0.1266781	0	-115.057	-31.42	-5.712	NA
0.509593096497858	B5-03822-P01-CH0	246064	OK	0.2342731	0.082994	0.0910927	-0.9643289	160.278	-37.54	-266.87	B5-03822-P02-CH0	246064	OK	0.6094492	0.4945457	-0.6196743	0	-84.159	-98.051	3.724	B5-03822-P02-CH1	246064	OK	0.7620463	-0.1265094	-0.635044	0	-78.724	-75.706	0.143	B5-03822-P03-CH0	246064	OK	0.7923203	-0.3650096	-0.4888727	0	-91.201	-59.069	2.515	B5-03822-P03-CH1	246064	OK	0.6003744	0.7936767	0.0981215	0	-99.987	-26.593	1.002	B5-03822-P04-CH0	246064	OK	0.7855412	-0.2337804	0.5729501	0	-127.299	-37.378	5.279	B5-03822-P04-CH1	246064	OK	0.7412589	-0.6592089	0.1264075	0	-114.751	-30.838	-5.921	NA
0.519585117997816	B5-03822-P01-CH0	246072	OK	0.2341909	0.0832574	0.0900817	-0.9644211	160.344	-37.592	-266.67	B5-03822-P02-CH0	246072	OK	0.6127077	0.4854489	-0.6236414	0	-84.399	-97.236	3.529	B5-03822-P02-CH1	246072	OK	0.7668133	-0.1406329	-0.6262745	0	-79.611	-76.015	-0.414	B5-03822-P03-CH0	246072	OK	0.7878537	-0.3380416	-0.5147956	0	-92.33	-57.678	0.833	B5-03822-P03-CH1	246072	OK	0.5977649	0.7951743	0.1018574	0	-99.431	-25.217	-0.721	B5-03822-P04-CH0	246072	OK	0.7861824	-0.2334795	0.5721928	0	-127.604	-38.629	8.088	B5-03822-P04-CH1	246072	OK	0.7401566	-0.6601681	0.1278528	0	-114.911	-31.595	-5.624	NA
0.529577139497774	B5-03822-P01-CH0	246080	OK	0.2350207	0.0829791	0.0914888	-0.9641107	160.433	-37.383	-266.822	B5-03822-P02-CH0	246080	OK	0.6154691	0.4728878	-0.6305355	0	-84.325	-97.651	2.772	B5-03822-P02-CH1	246080	OK	0.7706596	-0.1524816	-0.6187351	0	-81.179	-75.986	0.272	B5-03822-P03-CH0	246080	OK	0.7898096	-0.3164189	-0.525433	0	-92.933	-60.277	3.865	B5-03822-P03-CH1	246080	OK	0.5960843	0.7965748	0.1007576	0	-99.156	-26.712	0.293	B5-03822-P04-CH0	246080	OK	0.7837721	-0.2318339	0.5761547	0	-126.606	-37.306	6.528	B5-03822-P04-CH1	246080	OK	0.741295	-0.6587027	0.1288117	0	-114.879	-31.722	-5.44	NA
0.539569160997732	B5-03822-P01-CH0	246088	OK	0.2354674	0.0826602	0.0916415	-0.9640146	160.379	-37.338	-266.806	B5-03822-P02-CH0	246088	OK	0.6169381	0.4600645	-0.6385359	0	-84.099	-98.046	3.425	B5-03822-P02-CH1	246088	OK	0.7774425	-0.1641325	-0.6071603	0	-80.379	-76.282	0.57	B5-03822-P03-CH0	246088	OK	0.7936753	-0.2985403	-0.5300501	0	-96.547	-59.466	1.862	B5-03822-P03-CH1	246088	OK	0.5947086	0.797571	0.1010059	0	-99.46	-27.36	1.525	B5-03822-P04-CH0	246088	OK	0.7844351	-0.2320777	0.5751534	0	-126.514	-37.61	6.787	B5-03822-P04-CH1	246088	OK	0.7420527	-0.657941	0.1283408	0	-114.652	-31.251	-6.045	NA
0.54956118249769	B5-03822-P01-CH0	246096	OK	0.2353314	0.0831211	0.0902856	-0.9641362	160.498	-37.402	-266.652	B5-03822-P02-CH0	246096	OK	0.616849	0.4480461	-0.6471106	0	-83.861	-97.375	3.372	B5-03822-P02-CH1	246096	OK	0.7820723	-0.173416	-0.5985732	0	-80.003	-76.036	-0.631	B5-03822-P03-CH0	246096	OK	0.8009071	-0.2870253	-0.5255133	0	-97.611	-59.318	2.259	B5-03822-P03-CH1	246096	OK	0.593983	0.7978257	0.1032394	0	-99.481	-26.112	0.119	B5-03822-P04-CH0	246096	OK	0.7851218	-0.2335151	0.5736327	0	-126.591	-37.725	7.223	B5-03822-P04-CH1	246096	OK	0.7416615	-0.6584761	0.127857	0	-114.644	-31.069	-6.182	NA
0.559553203997648	B5-03822-P01-CH0	246104	OK	0.2356539	0.0835077	0.0897912	-0.9640702	160.631	-37.417	-266.47	B5-03822-P02-CH0	246104	OK	0.617537	0.4378044	-0.6534335	0	-83.18	-97.287	2.168	B5-03822-P02-CH1	246104	OK	0.7827568	-0.1797015	-0.595818	0	-81.255	-76.127	0.497	B5-03822-P03-CH0	246104	OK	0.8079026	-0.2850373	-0.5157976	0	-97.825	-59.062	2.819	B5-03822-P03-CH1	246104	OK	0.59522	0.7974525	0.0989069	0	-99.724	-27.503	1.242	B5-03822-P04-CH0	246104	OK	0.7904684	-0.2387853	0.5640401	0	-128.151	-39.798	7.237	B5-03822-P04-CH1	246104	OK	0.7416625	-0.6583535	0.1284812	0	-114.817	-31.139	-6.354	NA
0.569545225497606	B5-03822-P01-CH0	246112	OK	0.2359456	0.0839751	0.0895837	-0.9639775	160.789	-37.338	-266.315	B5-03822-P02-CH0	246112	OK	0.6159455	0.4300818	-0.6600309	0	-83.274	-96.821	2.961	B5-03822-P02-CH1	246112	OK	0.7825974	-0.1840076	-0.5947121	0	-82.363	-76.117	0.661	B5-03822-P03-CH0	246112	OK	0.8148432	-0.2912311	-0.5012136	0	-98.019	-59.251	3.681	B5-03822-P03-CH1	246112	OK	0.5964154	0.7968135	0.0968351	0	-99.24	-27.823	-0.594	B5-03822-P04-CH0	246112	OK	0.7903975	-0.2419415	0.5627931	0	-127.319	-38.076	5.402	B5-03822-P04-CH1	246112	OK	0.7418827	-0.6579689	0.129178	0	-115.109	-31.126	-6.459	NA
0.579537246997564	B5-03822-P01-CH0	246120	OK	0.2361706	0.0842523	0.0898081	-0.9638773	160.874	-37.175	-266.148	B5-03822-P02-CH0	246120	OK	0.6154969	0.4256237	-0.663331	0	-83.679	-97.526	3.064	B5-03822-P02-CH1	246120	OK	0.7832845	-0.1851693	-0.5934456	0	-82.553	-76.147	0.655	B5-03822-P03-CH0	246120	OK	0.8244103	-0.3005153	-0.4796229	0	-98.493	-59.005	3.736	B5-03822-P03-CH1	246120	OK	0.5960267	0.79708	0.0970344	0	-100.82	-28.093	2.314	B5-03822-P04-CH0	246120	OK	0.7908544	-0.2415522	0.5623182	0	-127.662	-39.167	5.976	B5-03822-P04-CH1	246120	OK	0.7426437	-0.657149	0.1289787	0	-115.261	-30.581	-6.996	NA
0.589529268497522	B5-03822-P01-CH0	246128	OK	0.2365769	0.0847894	0.0897892	-0.9637323	161.099	-37.099	-266.026	B5-03822-P02-CH0	246128	OK	0.6156796	0.4235387	-0.664495	0	-84.261	-99.308	3.341	B5-03822-P02-CH1	246128	OK	0.7838126	-0.1829605	-0.5934334	0	-82.777	-76.459	-0.142	B5-03822-P03-CH0	246128	OK	0.8350051	-0.3124797	-0.452905	0	-99.019	-59.695	3.687	B5-03822-P03-CH1	246128	OK	0.5957136	0.7974033	0.0962979	0	-100.854	-27.196	1.107	B5-03822-P04-CH0	246128	OK	0.7920332	-0.2391145	0.5617007	0	-128.705	-42.048	9.099	B5-03822-P04-CH1	246128	OK	0.7430565	-0.6566038	0.1293772	0	-115.41	-30.568	-6.88	NA
0.59952128999748	B5-03822-P01-CH0	246136	OK	0.2368169	0.0851324	0.0893725	-0.9636819	161.206	-37.16	-265.926	B5-03822-P02-CH0	246136	OK	0.6146695	0.4187642	-0.6684444	0	-84.48	-99.282	4.376	B5-03822-P02-CH1	246136	OK	0.784809	-0.1815848	-0.5925385	0	-83.705	-77.08	-0.214	B5-03822-P03-CH0	246136	OK	0.8454123	-0.3197257	-0.4278476	0	-100.195	-60.731	6.362	B5-03822-P03-CH1	246136	OK	0.5967851	0.796519	0.0969792	0	-100.489	-27.227	0.568	B5-03822-P04-CH0	246136	OK	0.7924	-0.2399139	0.5608419	0	-129.069	-41.161	8.45	B5-03822-P04-CH1	246136	OK	0.7430688	-0.6565109	0.1297776	0	-115.41	-30.616	-7.013	NA
0.609513311497438	B5-03822-P01-CH0	246144	OK	0.2365413	0.0859812	0.0882266	-0.9637798	161.375	-37.216	-265.578	B5-03822-P02-CH0	246144	OK	0.6160819	0.4145894	-0.6697452	0	-84.801	-99.992	4.472	B5-03822-P02-CH1	246144	OK	0.7874673	-0.1766357	-0.5905041	0	-84.55	-77.972	2.089	B5-03822-P03-CH0	246144	OK	0.8555143	-0.3243151	-0.4036273	0	-100.015	-61.8	7.167	B5-03822-P03-CH1	246144	OK	0.5977146	0.7958174	0.0970149	0	-100.747	-27.514	0.591	B5-03822-P04-CH0	246144	OK	0.7914086	-0.2410969	0.5617336	0	-128.813	-40.339	7.283	B5-03822-P04-CH1	246144	OK	0.7419973	-0.6575175	0.1308077	0	-115.761	-31.099	-7.059	NA
0.619505332997397	B5-03822-P01-CH0	246152	OK	0.23652	0.0859717	0.0882396	-0.9637847	161.387	-37.305	-265.63	B5-03822-P02-CH0	246152	OK	0.6171987	0.4106733	-0.6711283	0	-84.793	-100.229	3.704	B5-03822-P02-CH1	246152	OK	0.7909236	-0.1698923	-0.5878575	0	-85.183	-79.157	1.7	B5-03822-P03-CH0	246152	OK	0.8596385	-0.3273135	-0.392285	0	-101.622	-63.255	8.815	B5-03822-P03-CH1	246152	OK	0.5978378	0.7957857	0.0965145	0	-100.782	-27.929	0.947	B5-03822-P04-CH0	246152	OK	0.7904574	-0.2393418	0.5638197	0	-128.244	-39.626	7.326	B5-03822-P04-CH1	246152	OK	0.7424897	-0.6569754	0.1307374	0	-115.785	-30.997	-6.78	NA
0.629497354497354	B5-03822-P01-CH0	246160	OK	0.2359041	0.0865003	0.0868235	-0.9640169	161.361	-37.426	-265.262	B5-03822-P02-CH0	246160	OK	0.6183105	0.4101494	-0.670425	0	-85.747	-101.402	3.831	B5-03822-P02-CH1	246160	OK	0.7931118	-0.1627438	-0.5869311	0	-85.737	-79.836	2.037	B5-03822-P03-CH0	246160	OK	0.8624042	-0.3295943	-0.3842219	0	-101.21	-63.248	9	B5-03822-P03-CH1	246160	OK	0.5992678	0.7947068	0.0965359	0	-100.913	-27.937	0.693	B5-03822-P04-CH0	246160	OK	0.7902986	-0.2415538	0.5630985	0	-128.222	-39.544	7.029	B5-03822-P04-CH1	246160	OK	0.7410842	-0.6584242	0.1314226	0	-115.885	-31.58	-6.324	NA
0.639489375997312	B5-03822-P01-CH0	246168	OK	0.2356504	0.0866575	0.086741	-0.9640723	161.348	-37.428	-265.2	B5-03822-P02-CH0	246168	OK	0.6182589	0.4083058	-0.6715968	0	-86.009	-100.959	3.684	B5-03822-P02-CH1	246168	OK	0.7956851	-0.157548	-0.5848622	0	-85.773	-79.707	1.824	B5-03822-P03-CH0	246168	OK	0.8612724	-0.3310913	-0.3854716	0	-101.53	-63.395	8.565	B5-03822-P03-CH1	246168	OK	0.5995413	0.7945226	0.0963545	0	-100.909	-27.834	0.573	B5-03822-P04-CH0	246168	OK	0.7904634	-0.2425661	0.5624316	0	-128.309	-39.508	7.003	B5-03822-P04-CH1	246168	OK	0.740984	-0.6584387	0.1319138	0	-115.937	-31.751	-6.02	NA
0.649481397497271	B5-03822-P01-CH0	246176	OK	0.2356939	0.0862761	0.0874699	-0.96403	161.14	-37.34	-265.205	B5-03822-P02-CH0	246176	OK	0.6186837	0.4060522	-0.6725713	0	-85.877	-100.303	3.093	B5-03822-P02-CH1	246176	OK	0.7980233	-0.1543471	-0.5825253	0	-86.071	-79.634	1.652	B5-03822-P03-CH0	246176	OK	0.8566091	-0.3307761	-0.3959899	0	-101.334	-63.088	7.59	B5-03822-P03-CH1	246176	OK	0.5993225	0.7947928	0.0954821	0	-100.943	-27.848	0.62	B5-03822-P04-CH0	246176	OK	0.7903448	-0.243132	0.5623539	0	-128.229	-39.47	6.669	B5-03822-P04-CH1	246176	OK	0.741373	-0.6578959	0.1324355	0	-115.812	-31.733	-6.114	NA
0.659473418997228	B5-03822-P01-CH0	246184	OK	0.2354718	0.0863993	0.0878023	-0.964043	161.075	-37.227	-265.13	B5-03822-P02-CH0	246184	OK	0.6198769	0.4059679	-0.6715227	0	-86.59	-101.478	3.802	B5-03822-P02-CH1	246184	OK	0.799994	-0.1525602	-0.5802887	0	-86.46	-79.892	2.472	B5-03822-P03-CH0	246184	OK	0.8491528	-0.330302	-0.4121167	0	-101.017	-62.424	7.253	B5-03822-P03-CH1	246184	OK	0.5993188	0.7947955	0.0954838	0	-100.998	-27.61	0.607	B5-03822-P04-CH0	246184	OK	0.7901833	-0.2445531	0.5619646	0	-128.019	-39.001	6.587	B5-03822-P04-CH1	246184	OK	0.7416888	-0.6575693	0.1322889	0	-115.776	-31.539	-6.17	NA
0.669465440497186	B5-03822-P01-CH0	246192	OK	0.2354758	0.0861663	0.0885245	-0.9639969	160.982	-37.192	-265.231	B5-03822-P02-CH0	246192	OK	0.6221152	0.4036605	-0.6708435	0	-86.755	-101.763	4.029	B5-03822-P02-CH1	246192	OK	0.801449	-0.152047	-0.5784127	0	-87.405	-80.118	2.278	B5-03822-P03-CH0	246192	OK	0.842083	-0.3298007	-0.4267643	0	-99.892	-61.963	5.818	B5-03822-P03-CH1	246192	OK	0.5989658	0.7951018	0.0951477	0	-100.972	-27.543	0.605	B5-03822-P04-CH0	246192	OK	0.7900678	-0.2453138	0.5617953	0	-127.972	-39.125	6.679	B5-03822-P04-CH1	246192	OK	0.7422269	-0.6569538	0.132329	0	-115.631	-31.48	-6.043	NA
0.679457461997145	B5-03822-P01-CH0	246200	OK	0.2349483	0.0862007	0.0879708	-0.9641731	160.918	-37.389	-265.321	B5-03822-P02-CH0	246200	OK	0.6282583	0.3989905	-0.6679058	0	-85.803	-101.4	2.813	B5-03822-P02-CH1	246200	OK	0.8041706	-0.1512892	-0.5748228	0	-87.565	-79.666	1.935	B5-03822-P03-CH0	246200	OK	0.8322213	-0.3205642	-0.4523785	0	-100.66	-60.14	4.863	B5-03822-P03-CH1	246200	OK	0.5997363	0.79452	0.0951541	0	-100.893	-27.642	0.599	B5-03822-P04-CH0	246200	OK	0.7896135	-0.2477229	0.5613768	0	-127.838	-39.051	6.521	B5-03822-P04-CH1	246200	OK	0.7416141	-0.6576196	0.1324577	0	-115.515	-31.847	-5.672	NA
0.689449483497103	B5-03822-P01-CH0	246208	OK	0.2347338	0.0860123	0.0881976	-0.9642215	160.732	-37.389	-265.245	B5-03822-P02-CH0	246208	OK	0.6325003	0.3920962	-0.667985	0	-84.901	-98.977	2.591	B5-03822-P02-CH1	246208	OK	0.8087996	-0.1499643	-0.5686422	0	-86.977	-79.293	2.155	B5-03822-P03-CH0	246208	OK	0.8244621	-0.3074611	-0.4751104	0	-99.281	-60.584	5.278	B5-03822-P03-CH1	246208	OK	0.5996092	0.7946086	0.0952151	0	-100.818	-27.494	0.611	B5-03822-P04-CH0	246208	OK	0.789321	-0.2499898	0.5607829	0	-127.544	-38.518	6.155	B5-03822-P04-CH1	246208	OK	0.7418473	-0.6573908	0.1322877	0	-115.393	-31.652	-5.875	NA
0.69944150499706	B5-03822-P01-CH0	246216	OK	0.2343178	0.0863803	0.0878701	-0.9643197	160.751	-37.395	-265.151	B5-03822-P02-CH0	246216	OK	0.6397001	0.3853111	-0.6650708	0	-85.519	-100.343	1.389	B5-03822-P02-CH1	246216	OK	0.8109521	-0.151155	-0.5652512	0	-88.179	-79.822	2.373	B5-03822-P03-CH0	246216	OK	0.8155498	-0.2854093	-0.5034084	0	-99.092	-59.673	5.545	B5-03822-P03-CH1	246216	OK	0.5999428	0.7943064	0.0956343	0	-100.896	-27.235	0.448	B5-03822-P04-CH0	246216	OK	0.7896728	-0.2621488	0.5547025	0	-128.658	-40.918	7.033	B5-03822-P04-CH1	246216	OK	0.7412863	-0.6578987	0.1329058	0	-115.58	-32.055	-5.217	NA
0.709433526497019	B5-03822-P01-CH0	246224	OK	0.2340372	0.0864962	0.0878902	-0.9643756	160.774	-37.53	-265.125	B5-03822-P02-CH0	246224	OK	0.6450359	0.3749602	-0.665833	0	-86.014	-99.552	1.643	B5-03822-P02-CH1	246224	OK	0.8151919	-0.1514449	-0.5590408	0	-88.474	-79.441	3.047	B5-03822-P03-CH0	246224	OK	0.8074972	-0.2605712	-0.5291984	0	-98.988	-58.276	3.636	B5-03822-P03-CH1	246224	OK	0.6004915	0.7939092	0.0954895	0	-100.805	-27.55	0.405	B5-03822-P04-CH0	246224	OK	0.7901461	-0.2656437	0.5523609	0	-128.714	-39.112	5.91	B5-03822-P04-CH1	246224	OK	0.7417414	-0.6575614	0.1320328	0	-115.47	-31.765	-5.203	NA
0.719425547996977	B5-03822-P01-CH0	246232	OK	0.2340644	0.0863305	0.0883265	-0.964344	160.649	-37.455	-265.108	B5-03822-P02-CH0	246232	OK	0.6530679	0.3629349	-0.6646658	0	-85.832	-99.182	0.729	B5-03822-P02-CH1	246232	OK	0.8185387	-0.1512209	-0.55419	0	-89.343	-79.505	3.9	B5-03822-P03-CH0	246232	OK	0.8012009	-0.2414629	-0.5475151	0	-99.442	-57.408	2.79	B5-03822-P03-CH1	246232	OK	0.600304	0.794073	0.0953061	0	-100.717	-27.463	0.371	B5-03822-P04-CH0	246232	OK	0.7896381	-0.2675145	0.5521844	0	-128.45	-38.996	5.649	B5-03822-P04-CH1	246232	OK	0.7419005	-0.6573931	0.1319774	0	-115.365	-31.627	-5.563	NA
0.729417569496935	B5-03822-P01-CH0	246240	OK	0.2342151	0.0861726	0.0889451	-0.9642647	160.629	-37.443	-265.201	B5-03822-P02-CH0	246240	OK	0.6597366	0.3499865	-0.6650241	0	-86.173	-99.043	0.401	B5-03822-P02-CH1	246240	OK	0.8212388	-0.1531036	-0.54966	0	-89.669	-79.464	3.654	B5-03822-P03-CH0	246240	OK	0.7974502	-0.2292042	-0.5581564	0	-100.066	-58.554	4.175	B5-03822-P03-CH1	246240	OK	0.5997945	0.7944476	0.0953918	0	-100.747	-27.397	0.467	B5-03822-P04-CH0	246240	OK	0.7896063	-0.2683532	0.5518228	0	-128.029	-38.494	6.684	B5-03822-P04-CH1	246240	OK	0.7425124	-0.6567316	0.1318294	0	-115.4	-31.396	-5.895	NA
0.739409590996893	B5-03822-P01-CH0	246248	OK	0.2342017	0.0865371	0.0888282	-0.964246	160.736	-37.457	-265.122	B5-03822-P02-CH0	246248	OK	0.664677	0.3422823	-0.6641139	0	-86.172	-98.321	0.554	B5-03822-P02-CH1	246248	OK	0.8229157	-0.1582096	-0.5456917	0	-89.232	-79.228	1.86	B5-03822-P03-CH0	246248	OK	0.7951667	-0.2125079	-0.5679352	0	-100.105	-58.443	5.407	B5-03822-P03-CH1	246248	OK	0.6003162	0.7940443	0.0954677	0	-101.005	-27.655	0.722	B5-03822-P04-CH0	246248	OK	0.7895324	-0.2694094	0.5514138	0	-127.956	-38.384	6.623	B5-03822-P04-CH1	246248	OK	0.742731	-0.6566381	0.1310614	0	-115.444	-31.015	-6.333	NA
0.749401612496851	B5-03822-P01-CH0	246256	OK	0.2342235	0.0865786	0.08878	-0.9642415	160.767	-37.456	-265.212	B5-03822-P02-CH0	246256	OK	0.6680864	0.3388184	-0.6624671	0	-86.13	-98.421	-0.402	B5-03822-P02-CH1	246256	OK	0.8230133	-0.1645534	-0.5436647	0	-89.107	-79.569	3.325	B5-03822-P03-CH0	246256	OK	0.7944529	-0.2039054	-0.5720727	0	-99.676	-59.267	6.58	B5-03822-P03-CH1	246256	OK	0.6004441	0.7939479	0.0954654	0	-100.905	-27.682	0.838	B5-03822-P04-CH0	246256	OK	0.7893637	-0.2644032	0.5540721	0	-127.514	-38.055	5.89	B5-03822-P04-CH1	246256	OK	0.7425263	-0.656811	0.1313548	0	-115.483	-31.178	-6.197	NA
0.759393633996809	B5-03822-P01-CH0	246264	OK	0.2340992	0.0866848	0.0884396	-0.9642934	160.79	-37.525	-265.165	B5-03822-P02-CH0	246264	OK	0.6696163	0.3354946	-0.6626141	0	-86.028	-98.547	0.274	B5-03822-P02-CH1	246264	OK	0.8216593	-0.1678657	-0.5446991	0	-89.88	-78.762	2.518	B5-03822-P03-CH0	246264	OK	0.7948414	-0.2046453	-0.5712682	0	-100.619	-58.527	5.08	B5-03822-P03-CH1	246264	OK	0.6011524	0.7934104	0.0954761	0	-100.995	-27.988	0.901	B5-03822-P04-CH0	246264	OK	0.7893686	-0.2662539	0.5531781	0	-127.763	-38.344	5.88	B5-03822-P04-CH1	246264	OK	0.7418763	-0.6574884	0.1316379	0	-115.497	-31.547	-5.906	NA
0.769385655496767	B5-03822-P01-CH0	246272	OK	0.2339271	0.0871444	0.087605	-0.9643699	160.896	-37.685	-264.925	B5-03822-P02-CH0	246272	OK	0.6689525	0.3333157	-0.6643818	0	-85.949	-98.433	0.318	B5-03822-P02-CH1	246272	OK	0.8218607	-0.1732145	-0.5427169	0	-89.485	-79.802	2.524	B5-03822-P03-CH0	246272	OK	0.796911	-0.2195919	-0.5627719	0	-102.067	-59.153	5.056	B5-03822-P03-CH1	246272	OK	0.6016893	0.7929379	0.0960176	0	-101.133	-27.883	0.864	B5-03822-P04-CH0	246272	OK	0.7893602	-0.2684304	0.5521373	0	-127.955	-38.41	5.755	B5-03822-P04-CH1	246272	OK	0.7409685	-0.6584587	0.1319009	0	-115.554	-31.991	-5.713	NA
0.779377676996725	B5-03822-P01-CH0	246280	OK	0.2341582	0.0870752	0.0878572	-0.9642971	160.836	-37.606	-264.787	B5-03822-P02-CH0	246280	OK	0.6669207	0.3306174	-0.6677641	0	-85.79	-99.188	0.036	B5-03822-P02-CH1	246280	OK	0.8223295	-0.1740131	-0.5417505	0	-89.364	-80.021	2.402	B5-03822-P03-CH0	246280	OK	0.8079194	-0.2401002	-0.5381618	0	-100.897	-59.101	5.217	B5-03822-P03-CH1	246280	OK	0.6015605	0.7930364	0.096012	0	-101.136	-27.835	0.804	B5-03822-P04-CH0	246280	OK	0.7893629	-0.2695865	0.5515699	0	-128.003	-38.326	5.622	B5-03822-P04-CH1	246280	OK	0.7409366	-0.658497	0.1318889	0	-115.374	-31.953	-6.013	NA
0.789369698496683	B5-03822-P01-CH0	246288	OK	0.2342043	0.0871149	0.0878154	-0.9642862	160.893	-37.656	-264.773	B5-03822-P02-CH0	246288	OK	0.6630761	0.3270013	-0.6733501	0	-85.346	-98.684	0.635	B5-03822-P02-CH1	246288	OK	0.8216577	-0.1722023	-0.5433462	0	-89.279	-80.032	3.161	B5-03822-P03-CH0	246288	OK	0.8173967	-0.264748	-0.5116358	0	-101.824	-59.698	5.391	B5-03822-P03-CH1	246288	OK	0.6016145	0.7929772	0.0961617	0	-100.998	-27.814	0.589	B5-03822-P04-CH0	246288	OK	0.7892273	-0.2708365	0.5511514	0	-128.065	-38.53	5.647	B5-03822-P04-CH1	246288	OK	0.7408646	-0.6586167	0.1316953	0	-115.41	-31.999	-6.043	NA
0.799361719996641	B5-03822-P01-CH0	246296	OK	0.2344406	0.0870106	0.0887197	-0.9641554	160.983	-37.591	-264.892	B5-03822-P02-CH0	246296	OK	0.6581215	0.320174	-0.6814431	0	-85.61	-98.746	1.209	B5-03822-P02-CH1	246296	OK	0.8197261	-0.1712146	-0.5465663	0	-89.402	-79.527	2.866	B5-03822-P03-CH0	246296	OK	0.8280618	-0.2856662	-0.4823987	0	-101.718	-60.462	6.23	B5-03822-P03-CH1	246296	OK	0.6011273	0.7933295	0.0963033	0	-101.121	-28.026	0.857	B5-03822-P04-CH0	246296	OK	0.7894191	-0.2714581	0.5505705	0	-128.078	-38.489	5.741	B5-03822-P04-CH1	246296	OK	0.7416226	-0.6578628	0.1311964	0	-115.454	-31.738	-6.385	NA
0.809353741496599	B5-03822-P01-CH0	246304	OK	0.2346579	0.0870398	0.0884595	-0.9641238	160.964	-37.578	-264.796	B5-03822-P02-CH0	246304	OK	0.6552434	0.3134952	-0.6872968	0	-84.984	-98.643	0.636	B5-03822-P02-CH1	246304	OK	0.8174089	-0.175682	-0.5486152	0	-89.089	-79.72	2.999	B5-03822-P03-CH0	246304	OK	0.8394242	-0.3054485	-0.4495199	0	-100.72	-61.244	6.584	B5-03822-P03-CH1	246304	OK	0.6009817	0.7934004	0.0966264	0	-101.132	-27.766	0.695	B5-03822-P04-CH0	246304	OK	0.7891744	-0.2720919	0.5506086	0	-128.047	-38.762	5.926	B5-03822-P04-CH1	246304	OK	0.7410785	-0.6583279	0.1319358	0	-115.485	-32.087	-6.24	NA
0.819345762996557	B5-03822-P01-CH0	246312	OK	0.2346545	0.0872532	0.0881527	-0.9641334	161.034	-37.599	-264.616	B5-03822-P02-CH0	246312	OK	0.6519877	0.3069212	-0.6933335	0	-84.666	-98.946	0.674	B5-03822-P02-CH1	246312	OK	0.8154134	-0.1791445	-0.5504618	0	-88.623	-79.584	1.884	B5-03822-P03-CH0	246312	OK	0.846002	-0.3221162	-0.4248785	0	-102.389	-61.581	7.851	B5-03822-P03-CH1	246312	OK	0.60131	0.7931317	0.0967911	0	-101.256	-27.841	0.5	B5-03822-P04-CH0	246312	OK	0.789142	-0.2728206	0.5502944	0	-128.217	-38.815	5.727	B5-03822-P04-CH1	246312	OK	0.7407618	-0.6586736	0.1319884	0	-115.469	-32.215	-6.14	NA
0.829337784496515	B5-03822-P01-CH0	246320	OK	0.2344124	0.0873427	0.0871745	-0.9642731	160.982	-37.641	-264.55	B5-03822-P02-CH0	246320	OK	0.6488095	0.2993338	-0.6996038	0	-84.301	-98.734	1.577	B5-03822-P02-CH1	246320	OK	0.8126606	-0.1842405	-0.5528456	0	-88.354	-79.736	1.902	B5-03822-P03-CH0	246320	OK	0.8524266	-0.3345218	-0.401826	0	-101.011	-62.139	8.468	B5-03822-P03-CH1	246320	OK	0.6020055	0.7925695	0.0970725	0	-101.112	-27.819	0.346	B5-03822-P04-CH0	246320	OK	0.7885979	-0.2742679	0.5503548	0	-128.072	-38.749	5.69	B5-03822-P04-CH1	246320	OK	0.7404148	-0.6592113	0.1312493	0	-115.366	-31.916	-6.07	NA
0.839329805996473	B5-03822-P01-CH0	246328	OK	0.2345971	0.0871013	0.0874233	-0.9642275	161	-37.675	-264.755	B5-03822-P02-CH0	246328	OK	0.6478394	0.2914177	-0.7038323	0	-82.87	-98.1	0.438	B5-03822-P02-CH1	246328	OK	0.8109811	-0.1874267	-0.554239	0	-87.786	-79.377	1.67	B5-03822-P03-CH0	246328	OK	0.8551485	-0.3411142	-0.390336	0	-100.389	-62.444	8.406	B5-03822-P03-CH1	246328	OK	0.6014964	0.7929561	0.0970706	0	-101.087	-27.828	0.502	B5-03822-P04-CH0	246328	OK	0.7884098	-0.2748176	0.5503501	0	-127.88	-38.699	5.833	B5-03822-P04-CH1	246328	OK	0.7403482	-0.6592477	0.1314419	0	-115.186	-32.195	-5.789	NA
0.849321827496431	B5-03822-P01-CH0	246336	OK	0.2342798	0.0871384	0.0870522	-0.9643349	160.993	-37.735	-264.647	B5-03822-P02-CH0	246336	OK	0.6472812	0.2851149	-0.7069204	0	-82.018	-98.674	0.708	B5-03822-P02-CH1	246336	OK	0.8077283	-0.1904643	-0.5579411	0	-88.039	-79.11	1.338	B5-03822-P03-CH0	246336	OK	0.8547225	-0.3461334	-0.3868348	0	-100.556	-62.644	8.845	B5-03822-P03-CH1	246336	OK	0.6017265	0.792675	0.0979362	0	-101.043	-27.77	0.273	B5-03822-P04-CH0	246336	OK	0.7882458	-0.2756432	0.5501722	0	-127.911	-38.554	5.731	B5-03822-P04-CH1	246336	OK	0.7400417	-0.659718	0.1308069	0	-115.118	-32.171	-5.784	NA
0.859313848996389	B5-03822-P01-CH0	246344	OK	0.234299	0.0867898	0.0870214	-0.9643644	160.878	-37.69	-264.763	B5-03822-P02-CH0	246344	OK	0.6462557	0.2796665	-0.7100283	0	-81.163	-98.126	-0.666	B5-03822-P02-CH1	246344	OK	0.8063302	-0.193384	-0.5589581	0	-87.375	-78.874	1.553	B5-03822-P03-CH0	246344	OK	0.8535674	-0.3486207	-0.3871515	0	-100.468	-62.306	8.852	B5-03822-P03-CH1	246344	OK	0.6014152	0.7928684	0.0982823	0	-100.92	-27.638	0.534	B5-03822-P04-CH0	246344	OK	0.7878868	-0.2763239	0.5503448	0	-127.665	-38.377	5.678	B5-03822-P04-CH1	246344	OK	0.7405368	-0.6593465	0.129875	0	-114.938	-31.603	-5.975	NA
0.869305870496347	B5-03822-P01-CH0	246352	OK	0.2347636	0.0864335	0.0879583	-0.9641984	160.843	-37.489	-264.936	B5-03822-P02-CH0	246352	OK	0.6434446	0.2714569	-0.7157445	0	-81.102	-97.644	0.307	B5-03822-P02-CH1	246352	OK	0.8049355	-0.1962536	-0.5599673	0	-86.819	-78.02	-0.05	B5-03822-P03-CH0	246352	OK	0.8516554	-0.3506192	-0.3895501	0	-100.177	-61.859	8.133	B5-03822-P03-CH1	246352	OK	0.6005144	0.7935674	0.0981489	0	-100.955	-27.59	0.642	B5-03822-P04-CH0	246352	OK	0.787975	-0.2758367	0.550463	0	-127.606	-38.285	5.666	B5-03822-P04-CH1	246352	OK	0.741718	-0.6581384	0.1292607	0	-114.939	-30.969	-6.238	NA
0.879297891996305	B5-03822-P01-CH0	246360	OK	0.2349708	0.0863621	0.087784	-0.9641703	160.874	-37.547	-264.965	B5-03822-P02-CH0	246360	OK	0.6399973	0.266271	-0.7207657	0	-81.421	-97.063	2.405	B5-03822-P02-CH1	246360	OK	0.8037565	-0.1976613	-0.5611644	0	-86.372	-77.958	0.66	B5-03822-P03-CH0	246360	OK	0.8497136	-0.3546704	-0.3901226	0	-99.512	-61.976	7.733	B5-03822-P03-CH1	246360	OK	0.6003741	0.7936678	0.0981951	0	-100.873	-27.547	0.493	B5-03822-P04-CH0	246360	OK	0.7877259	-0.2762145	0.5506301	0	-127.404	-38.287	5.722	B5-03822-P04-CH1	246360	OK	0.7416886	-0.6581669	0.1292839	0	-114.928	-31.035	-6.075	NA
0.889289913496263	B5-03822-P01-CH0	246368	OK	0.2347393	0.0864143	0.0870049	-0.9642926	160.858	-37.631	-264.965	B5-03822-P02-CH0	246368	OK	0.6402899	0.263366	-0.7215728	0	-80.685	-95.943	0.591	B5-03822-P02-CH1	246368	OK	0.8022574	-0.1979371	-0.5632087	0	-86.603	-77.717	0.208	B5-03822-P03-CH0	246368	OK	0.8475286	-0.3558741	-0.3937625	0	-98.968	-61.262	7.046	B5-03822-P03-CH1	246368	OK	0.6010867	0.7930784	0.0985977	0	-100.85	-27.73	0.559	B5-03822-P04-CH0	246368	OK	0.7874774	-0.2768203	0.5506813	0	-127.352	-38.211	5.837	B5-03822-P04-CH1	246368	OK	0.7412076	-0.6587742	0.1289491	0	-114.915	-31.044	-5.958	NA
0.899281934996221	B5-03822-P01-CH0	246376	OK	0.2350272	0.0863366	0.0866337	-0.9642628	160.873	-37.738	-264.908	B5-03822-P02-CH0	246376	OK	0.6407536	0.2621287	-0.7216117	0	-80.478	-96.395	0.957	B5-03822-P02-CH1	246376	OK	0.8010742	-0.1991139	-0.5644765	0	-86.791	-78.524	0.326	B5-03822-P03-CH0	246376	OK	0.8451471	-0.3539632	-0.4005451	0	-98.695	-61.021	7.477	B5-03822-P03-CH1	246376	OK	0.6009814	0.7931813	0.0984112	0	-100.682	-27.709	0.367	B5-03822-P04-CH0	246376	OK	0.7872038	-0.2768762	0.5510442	0	-127.159	-38.295	5.829	B5-03822-P04-CH1	246376	OK	0.740834	-0.6591206	0.1293253	0	-114.82	-31.346	-5.784	NA
0.909273956496179	B5-03822-P01-CH0	246384	OK	0.2358803	0.0857418	0.0882602	-0.96396	160.845	-37.514	-265.23	B5-03822-P02-CH0	246384	OK	0.6406931	0.2617822	-0.7217911	0	-80.122	-97.103	1.398	B5-03822-P02-CH1	246384	OK	0.8036395	-0.1968909	-0.5616027	0	-84.984	-78.101	0.284	B5-03822-P03-CH0	246384	OK	0.8424516	-0.3541205	-0.4060467	0	-98.83	-61.261	7.239	B5-03822-P03-CH1	246384	OK	0.5995453	0.794339	0.0978315	0	-100.671	-27.708	0.54	B5-03822-P04-CH0	246384	OK	0.7874819	-0.2758285	0.5511723	0	-126.972	-38.067	5.811	B5-03822-P04-CH1	246384	OK	0.7421802	-0.6576388	0.1291502	0	-114.702	-31.034	-5.821	NA
0.919265977996137	B5-03822-P01-CH0	246392	OK	0.236142	0.0856664	0.0885551	-0.9638756	160.928	-37.469	-265.418	B5-03822-P02-CH0	246392	OK	0.6405129	0.2620998	-0.7218358	0	-79.741	-97.046	1.308	B5-03822-P02-CH1	246392	OK	0.8027762	-0.1975153	-0.5626172	0	-84.888	-79.023	1.284	B5-03822-P03-CH0	246392	OK	0.8401867	-0.3542613	-0.4105913	0	-99.218	-61.391	7.162	B5-03822-P03-CH1	246392	OK	0.5989695	0.7947428	0.0980793	0	-100.721	-27.605	0.69	B5-03822-P04-CH0	246392	OK	0.7874472	-0.2758232	0.5512245	0	-126.868	-38.058	5.977	B5-03822-P04-CH1	246392	OK	0.7424711	-0.6573036	0.1291847	0	-114.835	-31.091	-5.502	NA
0.929257999496095	B5-03822-P01-CH0	246400	OK	0.2368505	0.0855633	0.089656	-0.9636091	161.06	-37.334	-265.566	B5-03822-P02-CH0	246400	OK	0.6395742	0.2609802	-0.7230727	0	-79.786	-97.4	0.94	B5-03822-P02-CH1	246400	OK	0.8016099	-0.1944087	-0.5653555	0	-85.635	-78.644	1	B5-03822-P03-CH0	246400	OK	0.839961	-0.3545605	-0.4107948	0	-98.788	-61.546	6.83	B5-03822-P03-CH1	246400	OK	0.5982156	0.7953627	0.0976544	0	-100.822	-27.849	0.999	B5-03822-P04-CH0	246400	OK	0.7878144	-0.2747913	0.5512152	0	-126.912	-38.125	6.07	B5-03822-P04-CH1	246400	OK	0.7426728	-0.6567965	0.1305967	0	-114.986	-31.737	-4.996	NA
0.939250020996053	B5-03822-P01-CH0	246408	OK	0.2371705	0.0856998	0.0895363	-0.9635294	161.156	-37.288	-265.529	B5-03822-P02-CH0	246408	OK	0.6366375	0.2619859	-0.7252972	0	-81.057	-98.264	1.236	B5-03822-P02-CH1	246408	OK	0.8009645	-0.192454	-0.5669368	0	-85.934	-78.211	0.243	B5-03822-P03-CH0	246408	OK	0.8379921	-0.3528187	-0.4162789	0	-99.479	-60.794	6.655	B5-03822-P03-CH1	246408	OK	0.598184	0.7954108	0.0974554	0	-100.691	-27.815	0.791	B5-03822-P04-CH0	246408	OK	0.7877912	-0.2745326	0.5513773	0	-126.986	-38.3	6.169	B5-03822-P04-CH1	246408	OK	0.7428625	-0.6565887	0.1305624	0	-115.122	-31.626	-4.947	NA
0.949242042496011	B5-03822-P01-CH0	246416	OK	0.2378427	0.0856232	0.0900328	-0.9633243	161.218	-37.235	-265.558	B5-03822-P02-CH0	246416	OK	0.6356374	0.260208	-0.7268128	0	-80.929	-98.063	2.237	B5-03822-P02-CH1	246416	OK	0.8017842	-0.1910873	-0.56624	0	-85.717	-78.418	0.423	B5-03822-P03-CH0	246416	OK	0.8370648	-0.350459	-0.4201203	0	-98.902	-60.397	6.981	B5-03822-P03-CH1	246416	OK	0.5976587	0.7958735	0.0968992	0	-100.694	-27.924	0.846	B5-03822-P04-CH0	246416	OK	0.7876249	-0.2743234	0.5517188	0	-126.764	-38.312	5.921	B5-03822-P04-CH1	246416	OK	0.7430505	-0.6561663	0.1316118	0	-115.24	-32.028	-4.564	NA
0.959234063995969	B5-03822-P01-CH0	246424	OK	0.2383073	0.0854399	0.090813	-0.9631525	161.264	-37.206	-265.544	B5-03822-P02-CH0	246424	OK	0.638326	0.2597497	-0.7246171	0	-80.687	-98.106	1.652	B5-03822-P02-CH1	246424	OK	0.803059	-0.1959136	-0.5627736	0	-85.766	-78.649	0.757	B5-03822-P03-CH0	246424	OK	0.8356216	-0.3508457	-0.4226627	0	-98.045	-61.055	5.771	B5-03822-P03-CH1	246424	OK	0.5967261	0.7965659	0.0969574	0	-100.598	-27.749	0.485	B5-03822-P04-CH0	246424	OK	0.7877864	-0.2738756	0.5517108	0	-126.749	-38.401	5.927	B5-03822-P04-CH1	246424	OK	0.7434748	-0.6556532	0.1317732	0	-115.191	-32.189	-4.54	NA
0.969226085495927	B5-03822-P01-CH0	246432	OK	0.238198	0.0853404	0.0899828	-0.9632662	161.23	-37.402	-265.526	B5-03822-P02-CH0	246432	OK	0.6386202	0.2596413	-0.7243967	0	-80.309	-97.934	1.361	B5-03822-P02-CH1	246432	OK	0.8028611	-0.1947862	-0.5634469	0	-85.645	-78.617	0.543	B5-03822-P03-CH0	246432	OK	0.8328202	-0.3502558	-0.4286391	0	-98.569	-60.711	4.415	B5-03822-P03-CH1	246432	OK	0.5971564	0.7962216	0.0971361	0	-100.374	-27.779	0.298	B5-03822-P04-CH0	246432	OK	0.7873643	-0.2747185	0.5518941	0	-126.584	-38.419	5.916	B5-03822-P04-CH1	246432	OK	0.7425334	-0.6566715	0.1320099	0	-114.99	-32.688	-4.359	NA
0.979218106995885	B5-03822-P01-CH0	246440	OK	0.2383916	0.0856084	0.0903044	-0.9631644	161.367	-37.22	-265.423	B5-03822-P02-CH0	246440	OK	0.6381208	0.259591	-0.7248547	0	-80.373	-97.788	1.317	B5-03822-P02-CH1	246440	OK	0.8027561	-0.1932513	-0.5641246	0	-85.719	-78.455	0.493	B5-03822-P03-CH0	246440	OK	0.8309701	-0.3482271	-0.433851	0	-99.51	-60.692	5.979	B5-03822-P03-CH1	246440	OK	0.5970087	0.7963113	0.0973079	0	-100.574	-27.804	0.387	B5-03822-P04-CH0	246440	OK	0.7876262	-0.2743576	0.5517	0	-126.809	-38.342	5.948	B5-03822-P04-CH1	246440	OK	0.7425681	-0.6565226	0.1325547	0	-115.28	-32.965	-3.914	NA
0.989210128495843	B5-03822-P01-CH0	246448	OK	0.2387699	0.0855471	0.0906382	-0.9630448	161.415	-37.133	-265.478	B5-03822-P02-CH0	246448	OK	0.6377568	0.2596607	-0.72515	0	-80.311	-97.859	1.504	B5-03822-P02-CH1	246448	OK	0.8028891	-0.1916683	-0.5644753	0	-85.601	-78.439	0.47	B5-03822-P03-CH0	246448	OK	0.8326144	-0.3473159	-0.431422	0	-98.283	-60.401	5.46	B5-03822-P03-CH1	246448	OK	0.5965122	0.7966961	0.0972035	0	-100.666	-27.686	0.423	B5-03822-P04-CH0	246448	OK	0.7876297	-0.2740721	0.5518369	0	-126.763	-38.41	6.141	B5-03822-P04-CH1	246448	OK	0.742749	-0.6562908	0.1326886	0	-115.173	-33.064	-3.775	NA
0.999202149995801	B5-03822-P01-CH0	246456	OK	0.239172	0.0854913	0.0911702	-0.9628998	161.461	-36.998	-265.545	B5-03822-P02-CH0	246456	OK	0.6372821	0.2598736	-0.725491	0	-80.306	-97.88	1.458	B5-03822-P02-CH1	246456	OK	0.8027347	-0.1902019	-0.5651905	0	-85.661	-78.464	0.393	B5-03822-P03-CH0	246456	OK	0.8321878	-0.3475096	-0.4320885	0	-98.694	-60.776	6.446	B5-03822-P03-CH1	246456	OK	0.5959933	0.7970781	0.0972554	0	-100.768	-27.573	0.457	B5-03822-P04-CH0	246456	OK	0.7878148	-0.2736969	0.5517589	0	-126.839	-38.359	6.186	B5-03822-P04-CH1	246456	OK	0.7432567	-0.6556783	0.132874	0	-115.275	-32.981	-3.745	NA
1.00919417149576	B5-03822-P01-CH0	246464	OK	0.2390999	0.0858807	0.0904264	-0.9629532	161.619	-37.165	-265.415	B5-03822-P02-CH0	246464	OK	0.6370236	0.2609622	-0.7253273	0	-80.448	-98.226	1.466	B5-03822-P02-CH1	246464	OK	0.8004589	-0.1807295	-0.5714913	0	-86.505	-78.868	0.02	B5-03822-P03-CH0	246464	OK	0.8305071	-0.3486613	-0.4343883	0	-99.165	-61.274	6.687	B5-03822-P03-CH1	246464	OK	0.5968489	0.7964507	0.0971479	0	-100.824	-27.987	0.619	B5-03822-P04-CH0	246464	OK	0.7876158	-0.2741175	0.5518341	0	-126.92	-38.595	6.197	B5-03822-P04-CH1	246464	OK	0.7427315	-0.6562084	0.1331933	0	-115.432	-33.349	-3.591	NA
1.01918619299572	B5-03822-P01-CH0	246472	OK	0.2393192	0.0859251	0.0901708	-0.9629187	161.664	-37.214	-265.359	B5-03822-P02-CH0	246472	OK	0.6367293	0.2613986	-0.7254286	0	-80.521	-98.29	1.464	B5-03822-P02-CH1	246472	OK	0.802009	-0.1869598	-0.5672985	0	-86.022	-78.568	0.237	B5-03822-P03-CH0	246472	OK	0.8310003	-0.3496849	-0.4326188	0	-97.935	-61.643	6.144	B5-03822-P03-CH1	246472	OK	0.5970143	0.7963332	0.0970943	0	-100.907	-28.044	0.694	B5-03822-P04-CH0	246472	OK	0.7874354	-0.2743241	0.551989	0	-126.82	-38.659	6.165	B5-03822-P04-CH1	246472	OK	0.7427159	-0.6562914	0.1328707	0	-115.243	-33.31	-3.724	NA
1.02917821449567	B5-03822-P01-CH0	246480	OK	0.2390235	0.0864816	0.0889356	-0.9630572	161.767	-37.275	-265.143	B5-03822-P02-CH0	246480	OK	0.6365497	0.2626737	-0.7251256	0	-80.763	-98.254	1.601	B5-03822-P02-CH1	246480	OK	0.8018025	-0.1857509	-0.567987	0	-86.123	-78.6	0.053	B5-03822-P03-CH0	246480	OK	0.8282133	-0.3494543	-0.4381147	0	-99.216	-61.134	5.924	B5-03822-P03-CH1	246480	OK	0.5977018	0.7957276	0.097827	0	-101.082	-27.785	0.639	B5-03822-P04-CH0	246480	OK	0.7871162	-0.2754335	0.5518917	0	-126.889	-38.646	6.111	B5-03822-P04-CH1	246480	OK	0.7419217	-0.6573668	0.1319886	0	-115.115	-33.232	-3.946	NA
1.03917023599563	B5-03822-P01-CH0	246488	OK	0.2390233	0.0862128	0.0890318	-0.9630724	161.691	-37.265	-265.184	B5-03822-P02-CH0	246488	OK	0.6367411	0.2632944	-0.7247322	0	-80.621	-98.2	1.571	B5-03822-P02-CH1	246488	OK	0.8023745	-0.1837982	-0.5678146	0	-85.929	-78.541	0.045	B5-03822-P03-CH0	246488	OK	0.8279201	-0.3494953	-0.4386357	0	-98.701	-60.675	5.366	B5-03822-P03-CH1	246488	OK	0.5973706	0.795933	0.0981783	0	-101.028	-27.579	0.663	B5-03822-P04-CH0	246488	OK	0.7870054	-0.2757935	0.5518699	0	-126.846	-38.551	5.982	B5-03822-P04-CH1	246488	OK	0.741903	-0.657378	0.1320382	0	-115.062	-33.344	-3.742	NA
1.04916225749559	B5-03822-P01-CH0	246496	OK	0.2388864	0.0864521	0.0882137	-0.9631603	161.76	-37.331	-265.145	B5-03822-P02-CH0	246496	OK	0.6366471	0.2642406	-0.7244705	0	-80.72	-98.352	1.888	B5-03822-P02-CH1	246496	OK	0.8022749	-0.1825104	-0.5683705	0	-86.021	-78.688	0.388	B5-03822-P03-CH0	246496	OK	0.8271478	-0.3511117	-0.438802	0	-98.119	-61.255	5.704	B5-03822-P03-CH1	246496	OK	0.5982949	0.7952339	0.098215	0	-101.213	-27.814	0.818	B5-03822-P04-CH0	246496	OK	0.7868629	-0.2760805	0.5519297	0	-127.018	-38.868	6.229	B5-03822-P04-CH1	246496	OK	0.7413483	-0.6580966	0.1315734	0	-114.926	-33.317	-3.98	NA
1.05915427899555	B5-03822-P01-CH0	246504	OK	0.2386058	0.086861	0.087122	-0.9632924	161.862	-37.411	-265.112	B5-03822-P02-CH0	246504	OK	0.6364308	0.2654521	-0.7242175	0	-80.833	-98.48	2.207	B5-03822-P02-CH1	246504	OK	0.8020317	-0.1810203	-0.5691895	0	-86.133	-78.798	0.661	B5-03822-P03-CH0	246504	OK	0.8274817	-0.3520993	-0.4373787	0	-97.138	-61.182	4.487	B5-03822-P03-CH1	246504	OK	0.5993456	0.7944124	0.0984577	0	-101.275	-27.995	0.992	B5-03822-P04-CH0	246504	OK	0.7865793	-0.2766984	0.5520245	0	-127.129	-39.094	6.504	B5-03822-P04-CH1	246504	OK	0.7404388	-0.6590604	0.1318704	0	-115.047	-33.634	-3.726	NA
1.06914630049551	B5-03822-P01-CH0	246512	OK	0.2385716	0.0869097	0.0869235	-0.9633144	161.877	-37.34	-265.121	B5-03822-P02-CH0	246512	OK	0.6358194	0.2664765	-0.7243784	0	-80.95	-98.578	2.38	B5-03822-P02-CH1	246512	OK	0.8020911	-0.1795983	-0.5695562	0	-86.134	-78.851	0.75	B5-03822-P03-CH0	246512	OK	0.826237	-0.3526065	-0.4393189	0	-97.799	-61.336	5.806	B5-03822-P03-CH1	246512	OK	0.5996196	0.794191	0.0985744	0	-101.3	-28.013	1.179	B5-03822-P04-CH0	246512	OK	0.7863963	-0.2771116	0.5520779	0	-127.083	-39.007	6.609	B5-03822-P04-CH1	246512	OK	0.7408137	-0.6588356	0.1308844	0	-114.977	-33.09	-3.937	NA
1.07913832199546	B5-03822-P01-CH0	246520	OK	0.2385862	0.086736	0.0868017	-0.9633374	161.821	-37.408	-265.178	B5-03822-P02-CH0	246520	OK	0.6319267	0.2696878	-0.7265928	0	-80.273	-98.022	1.758	B5-03822-P02-CH1	246520	OK	0.8021691	-0.1780699	-0.5699261	0	-86.088	-78.984	0.699	B5-03822-P03-CH0	246520	OK	0.8255726	-0.3532483	-0.4400518	0	-97.899	-61.024	5.314	B5-03822-P03-CH1	246520	OK	0.5996802	0.7941386	0.0986286	0	-101.119	-28.035	1.109	B5-03822-P04-CH0	246520	OK	0.7862372	-0.277416	0.5521517	0	-127.002	-39.039	6.621	B5-03822-P04-CH1	246520	OK	0.7406615	-0.6590328	0.1307529	0	-114.807	-33.113	-4.229	NA
