Wav.Time	B5.03822.P01.CH0	Frame	State	Q0	Qx	Qy	Qz	Tx	Ty	Tz	B5.03822.P02.CH0	Frame.1	State.1	Q0.1	Qx.1	Qy.1	Qz.1	Tx.1	Ty.1	Tz.1	B5.03822.P02.CH1	Frame.2	State.2	Q0.2	Qx.2	Qy.2	Qz.2	Tx.2	Ty.2	Tz.2	B5.03822.P03.CH0	Frame.3	State.3	Q0.3	Qx.3	Qy.3	Qz.3	Tx.3	Ty.3	Tz.3	B5.03822.P03.CH1	Frame.4	State.4	Q0.4	Qx.4	Qy.4	Qz.4	Tx.4	Ty.4	Tz.4	B5.03822.P04.CH0	Frame.5	State.5	Q0.5	Qx.5	Qy.5	Qz.5	Tx.5	Ty.5	Tz.5	B5.03822.P04.CH1	Frame.6	State.6	Q0.6	Qx.6	Qy.6	Qz.6	Tx.6	Ty.6	Tz.6	X
0	B5-03822-P01-CH0	1558976	OK	0.249068	0.0642151	0.0708556	-0.9637536	113.807	-33.405	-226.296	B5-03822-P02-CH0	1558976	OK	0.7974468	0.3450028	-0.495027	0	-83.175	-101.311	9.43	B5-03822-P02-CH1	1558976	OK	0.815587	-0.0810836	-0.5729252	0	-78.463	-78.975	1.35	B5-03822-P03-CH0	1558976	OK	0.7076268	-0.3103385	-0.6347869	0	-87.303	-58.519	-2.021	B5-03822-P03-CH1	1558976	OK	0.7537781	-0.6538831	-0.0652342	0	-97.26	-24.854	-4.757	B5-03822-P04-CH0	1558976	OK	0.7842861	-0.3291854	0.5258634	0	-118.81	-38.424	4.701	B5-03822-P04-CH1	1558976	OK	0.7830562	-0.6216726	0.018602	0	-107.387	-45.434	-3.252	NA
0.00999181803305515	B5-03822-P01-CH0	1558984	OK	0.2492269	0.0640636	0.0713354	-0.9636872	113.776	-33.337	-226.328	B5-03822-P02-CH0	1558984	OK	0.7977125	0.3406295	-0.4976206	0	-83.421	-101.555	10.058	B5-03822-P02-CH1	1558984	OK	0.8141766	-0.0775529	-0.5754146	0	-78.602	-78.857	1.729	B5-03822-P03-CH0	1558984	OK	0.6985316	-0.2951899	-0.6518562	0	-86.079	-58.573	-1.618	B5-03822-P03-CH1	1558984	OK	0.754031	-0.6536453	-0.0646925	0	-97.182	-24.87	-4.73	B5-03822-P04-CH0	1558984	OK	0.7842777	-0.3277197	0.5267905	0	-118.707	-36.373	2.394	B5-03822-P04-CH1	1558984	OK	0.7833476	-0.6213041	0.0186484	0	-107.304	-45.395	-3.32	NA
0.0199836360661103	B5-03822-P01-CH0	1558992	OK	0.249146	0.0640586	0.071225	-0.9637167	113.776	-33.372	-226.34	B5-03822-P02-CH0	1558992	OK	0.7988177	0.339168	-0.4968454	0	-83.429	-101.202	9.52	B5-03822-P02-CH1	1558992	OK	0.8140373	-0.0734939	-0.576144	0	-78.083	-78.951	1.487	B5-03822-P03-CH0	1558992	OK	0.6912815	-0.2821826	-0.6652089	0	-85.496	-58.011	-1.511	B5-03822-P03-CH1	1558992	OK	0.7539703	-0.6537171	-0.0646735	0	-97.085	-24.834	-4.687	B5-03822-P04-CH0	1558992	OK	0.7842067	-0.3218525	0.5305005	0	-118.84	-36.51	2.864	B5-03822-P04-CH1	1558992	OK	0.7833108	-0.6213616	0.0182717	0	-107.351	-45.365	-3.308	NA
0.0299754540991654	B5-03822-P01-CH0	1559000	OK	0.2490534	0.0641629	0.0709785	-0.9637518	113.818	-33.388	-226.334	B5-03822-P02-CH0	1559000	OK	0.800405	0.3392951	-0.494197	0	-83.354	-100.25	8.78	B5-03822-P02-CH1	1559000	OK	0.8129873	-0.0692599	-0.5781476	0	-78.07	-78.72	1.238	B5-03822-P03-CH0	1559000	OK	0.6873933	-0.2726115	-0.6731816	0	-85.289	-58.278	-2.02	B5-03822-P03-CH1	1559000	OK	0.7536262	-0.6541322	-0.0644881	0	-97.104	-24.973	-4.51	B5-03822-P04-CH0	1559000	OK	0.7840479	-0.3151806	0.5347243	0	-119.227	-37.631	4.211	B5-03822-P04-CH1	1559000	OK	0.7831993	-0.6215112	0.0179616	0	-107.307	-45.39	-3.127	NA
0.0399672721322206	B5-03822-P01-CH0	1559008	OK	0.2490239	0.0641175	0.0709872	-0.9637618	113.854	-33.395	-226.412	B5-03822-P02-CH0	1559008	OK	0.8014901	0.3373406	-0.4937762	0	-83.524	-100.243	9.474	B5-03822-P02-CH1	1559008	OK	0.8129737	-0.0638496	-0.5787892	0	-77.925	-78.509	1.432	B5-03822-P03-CH0	1559008	OK	0.6856779	-0.2663416	-0.6774275	0	-85.22	-58.547	-1.843	B5-03822-P03-CH1	1559008	OK	0.7536598	-0.6540964	-0.0644575	0	-97.146	-24.9	-4.447	B5-03822-P04-CH0	1559008	OK	0.7838741	-0.3139419	0.5357069	0	-118.831	-36.246	3.247	B5-03822-P04-CH1	1559008	OK	0.7831113	-0.6216253	0.0178511	0	-107.191	-45.528	-2.922	NA
0.0499590901652757	B5-03822-P01-CH0	1559016	OK	0.2489222	0.0640459	0.0708912	-0.9637999	113.84	-33.392	-226.409	B5-03822-P02-CH0	1559016	OK	0.8022662	0.3377778	-0.4922146	0	-83.828	-100.049	8.96	B5-03822-P02-CH1	1559016	OK	0.8127419	-0.0574898	-0.5797805	0	-77.815	-78.188	1.581	B5-03822-P03-CH0	1559016	OK	0.6856063	-0.2637412	-0.6785164	0	-84.805	-58.502	-1.773	B5-03822-P03-CH1	1559016	OK	0.7535419	-0.6542216	-0.0645649	0	-97.122	-24.83	-4.428	B5-03822-P04-CH0	1559016	OK	0.7834623	-0.3067192	0.5404721	0	-119.288	-38.202	4.353	B5-03822-P04-CH1	1559016	OK	0.783051	-0.6217073	0.017638	0	-107.092	-45.482	-3.038	NA
0.0599509081983309	B5-03822-P01-CH0	1559024	OK	0.2489281	0.0639664	0.0708546	-0.9638064	113.809	-33.364	-226.476	B5-03822-P02-CH0	1559024	OK	0.8036201	0.3348304	-0.4920197	0	-83.954	-100.692	10.454	B5-03822-P02-CH1	1559024	OK	0.8132747	-0.0543002	-0.5793408	0	-77.841	-78.158	1.564	B5-03822-P03-CH0	1559024	OK	0.6854839	-0.2618051	-0.6793894	0	-84.78	-58.274	-1.212	B5-03822-P03-CH1	1559024	OK	0.7533159	-0.6544895	-0.0644876	0	-97.048	-24.822	-4.395	B5-03822-P04-CH0	1559024	OK	0.7824989	-0.3057566	0.5424098	0	-118.519	-35.45	2.24	B5-03822-P04-CH1	1559024	OK	0.7830636	-0.6216946	0.0175271	0	-106.961	-45.478	-2.829	NA
0.069942726231386	B5-03822-P01-CH0	1559032	OK	0.2488856	0.0640206	0.0707801	-0.9638192	113.816	-33.315	-226.447	B5-03822-P02-CH0	1559032	OK	0.8057632	0.3373474	-0.4867673	0	-83.666	-99.991	8.875	B5-03822-P02-CH1	1559032	OK	0.8139127	-0.0508983	-0.5787533	0	-78.085	-78.022	1.6	B5-03822-P03-CH0	1559032	OK	0.6867583	-0.2629013	-0.6776768	0	-84.291	-58.121	-0.999	B5-03822-P03-CH1	1559032	OK	0.7529409	-0.6549084	-0.0646137	0	-96.985	-24.777	-4.404	B5-03822-P04-CH0	1559032	OK	0.7822517	-0.2975366	0.5473155	0	-119.262	-35.952	1.021	B5-03822-P04-CH1	1559032	OK	0.7830518	-0.6217175	0.0172376	0	-107.003	-45.346	-3.002	NA
0.0799345442644412	B5-03822-P01-CH0	1559040	OK	0.2487774	0.0640606	0.0706759	-0.9638521	113.814	-33.3	-226.46	B5-03822-P02-CH0	1559040	OK	0.8067012	0.3378311	-0.4848745	0	-83.833	-99.807	9.692	B5-03822-P02-CH1	1559040	OK	0.8144934	-0.0468396	-0.578279	0	-77.891	-77.737	1.841	B5-03822-P03-CH0	1559040	OK	0.6868549	-0.2664446	-0.6761935	0	-84.064	-57.956	-1.835	B5-03822-P03-CH1	1559040	OK	0.7522152	-0.6557161	-0.0648743	0	-96.972	-24.9	-4.235	B5-03822-P04-CH0	1559040	OK	0.7822864	-0.2881871	0.5522465	0	-119.309	-36.443	2.403	B5-03822-P04-CH1	1559040	OK	0.7829926	-0.6217989	0.0169887	0	-106.976	-45.265	-3.013	NA
0.0899263622974963	B5-03822-P01-CH0	1559048	OK	0.2488027	0.0639028	0.0709206	-0.9638381	113.765	-33.282	-226.442	B5-03822-P02-CH0	1559048	OK	0.8081071	0.3379816	-0.4824224	0	-83.595	-99.551	10.325	B5-03822-P02-CH1	1559048	OK	0.8144909	-0.0441815	-0.5784916	0	-77.877	-77.298	1.233	B5-03822-P03-CH0	1559048	OK	0.6863739	-0.2724868	-0.6742713	0	-83.753	-57.662	-2.138	B5-03822-P03-CH1	1559048	OK	0.7491736	-0.6587484	-0.0692061	0	-97.516	-23.569	-5.116	B5-03822-P04-CH0	1559048	OK	0.7814626	-0.2778509	0.5586726	0	-118.778	-37.702	4.182	B5-03822-P04-CH1	1559048	OK	0.7831834	-0.6215633	0.0168164	0	-106.946	-45.226	-2.994	NA
0.0999181803305515	B5-03822-P01-CH0	1559056	OK	0.2490108	0.0638167	0.0709232	-0.9637899	113.707	-33.262	-226.391	B5-03822-P02-CH0	1559056	OK	0.8085053	0.3358784	-0.4832234	0	-84.22	-100.1	11.03	B5-03822-P02-CH1	1559056	OK	0.8138389	-0.0442645	-0.5794022	0	-78.196	-77.694	1.39	B5-03822-P03-CH0	1559056	OK	0.6852178	-0.2800279	-0.6723548	0	-83.651	-57.708	-1.924	B5-03822-P03-CH1	1559056	OK	0.7480119	-0.6598394	-0.0713455	0	-97.557	-23.376	-4.644	B5-03822-P04-CH0	1559056	OK	0.7821668	-0.2697516	0.5616487	0	-119.259	-36.475	2.745	B5-03822-P04-CH1	1559056	OK	0.7832247	-0.6215073	0.0169648	0	-106.843	-45.178	-3.082	NA
0.109909998363607	B5-03822-P01-CH0	1559064	OK	0.248856	0.0638426	0.0708221	-0.9638356	113.707	-33.255	-226.365	B5-03822-P02-CH0	1559064	OK	0.8094518	0.3370886	-0.4807901	0	-84.194	-99.984	10.986	B5-03822-P02-CH1	1559064	OK	0.8153293	-0.0411681	-0.5775321	0	-77.647	-77.29	2.316	B5-03822-P03-CH0	1559064	OK	0.6845819	-0.2890414	-0.6691806	0	-83.68	-57.28	-2.012	B5-03822-P03-CH1	1559064	OK	0.7466932	-0.6610795	-0.0736419	0	-96.922	-23.475	-4.666	B5-03822-P04-CH0	1559064	OK	0.7815963	-0.2626504	0.5657933	0	-119.027	-34.67	1.283	B5-03822-P04-CH1	1559064	OK	0.7831534	-0.6216037	0.0167195	0	-106.883	-45.124	-3.092	NA
0.119901816396662	B5-03822-P01-CH0	1559072	OK	0.2487072	0.0640147	0.0704454	-0.9638902	113.714	-33.228	-226.314	B5-03822-P02-CH0	1559072	OK	0.8100998	0.3374758	-0.4794251	0	-84.364	-99.666	10.987	B5-03822-P02-CH1	1559072	OK	0.8152653	-0.0377748	-0.5778543	0	-77.613	-77.167	1.361	B5-03822-P03-CH0	1559072	OK	0.6834691	-0.2974493	-0.6666287	0	-83.834	-57.572	-2.22	B5-03822-P03-CH1	1559072	OK	0.7462732	-0.6611864	-0.076869	0	-97.246	-22.729	-4.984	B5-03822-P04-CH0	1559072	OK	0.7809457	-0.2528478	0.571132	0	-118.859	-34.785	1.392	B5-03822-P04-CH1	1559072	OK	0.7828214	-0.6220254	0.0165826	0	-106.844	-45.111	-3.141	NA
0.129893634429717	B5-03822-P01-CH0	1559080	OK	0.2484296	0.0640248	0.070084	-0.9639874	113.698	-33.262	-226.274	B5-03822-P02-CH0	1559080	OK	0.8115632	0.3350553	-0.4786472	0	-84.382	-100.147	12.415	B5-03822-P02-CH1	1559080	OK	0.814718	-0.0373788	-0.5786513	0	-77.8	-77.567	1.518	B5-03822-P03-CH0	1559080	OK	0.6857618	-0.3045796	-0.661031	0	-82.82	-57.4	-2.397	B5-03822-P03-CH1	1559080	OK	0.7444416	-0.6628216	-0.0804629	0	-97.506	-23.153	-4.381	B5-03822-P04-CH0	1559080	OK	0.780962	-0.2438996	0.5749881	0	-119.01	-34.714	1.107	B5-03822-P04-CH1	1559080	OK	0.7825407	-0.6223861	0.0162972	0	-106.851	-45.083	-3.217	NA
0.139885452462772	B5-03822-P01-CH0	1559088	OK	0.2482463	0.0640206	0.0700594	-0.9640367	113.688	-33.199	-226.266	B5-03822-P02-CH0	1559088	OK	0.8119634	0.335806	-0.4774409	0	-84.848	-100.06	12.593	B5-03822-P02-CH1	1559088	OK	0.8142707	-0.0363712	-0.5793448	0	-77.717	-77.517	2.029	B5-03822-P03-CH0	1559088	OK	0.6862975	-0.312817	-0.6566134	0	-83.093	-57.313	-1.898	B5-03822-P03-CH1	1559088	OK	0.7435997	-0.6633837	-0.0835561	0	-97.071	-23.12	-4.032	B5-03822-P04-CH0	1559088	OK	0.7813908	-0.237237	0.5771888	0	-119.234	-34.082	0.917	B5-03822-P04-CH1	1559088	OK	0.7826359	-0.6222739	0.016006	0	-106.948	-44.859	-3.258	NA
0.149877270495827	B5-03822-P01-CH0	1559096	OK	0.2481892	0.0640574	0.0699733	-0.9640552	113.716	-33.198	-226.211	B5-03822-P02-CH0	1559096	OK	0.8133061	0.3347623	-0.4758859	0	-84.672	-100.274	12.351	B5-03822-P02-CH1	1559096	OK	0.8132748	-0.035237	-0.5808119	0	-77.596	-77.262	1.264	B5-03822-P03-CH0	1559096	OK	0.6876557	-0.3213584	-0.6510441	0	-83.654	-57.277	-1.956	B5-03822-P03-CH1	1559096	OK	0.7436888	-0.6628605	-0.0868502	0	-97.301	-22.173	-4.973	B5-03822-P04-CH0	1559096	OK	0.7814135	-0.2287325	0.5805811	0	-119.511	-36.25	2.335	B5-03822-P04-CH1	1559096	OK	0.7825914	-0.6223347	0.0158185	0	-107.042	-44.775	-3.398	NA
0.159869088528882	B5-03822-P01-CH0	1559104	OK	0.248346	0.0638646	0.0702493	-0.9640076	113.68	-33.165	-226.139	B5-03822-P02-CH0	1559104	OK	0.8130915	0.3332644	-0.4773018	0	-84.514	-100.095	13.05	B5-03822-P02-CH1	1559104	OK	0.8115015	-0.0367029	-0.5831966	0	-77.242	-77.205	1.011	B5-03822-P03-CH0	1559104	OK	0.6922272	-0.3313984	-0.6410901	0	-83.474	-57.297	-1.704	B5-03822-P03-CH1	1559104	OK	0.7428675	-0.6632786	-0.0906054	0	-97.411	-21.971	-5.336	B5-03822-P04-CH0	1559104	OK	0.781492	-0.2215169	0.5832671	0	-119.35	-37.084	3.516	B5-03822-P04-CH1	1559104	OK	0.7826981	-0.6221962	0.0159892	0	-107.059	-44.782	-3.581	NA
0.169860906561938	B5-03822-P01-CH0	1559112	OK	0.2484681	0.0638589	0.0702896	-0.9639735	113.708	-33.152	-226.154	B5-03822-P02-CH0	1559112	OK	0.8123267	0.3328242	-0.4789084	0	-84.448	-100.09	11.865	B5-03822-P02-CH1	1559112	OK	0.8092542	-0.0381232	-0.5862204	0	-76.695	-77.192	0.718	B5-03822-P03-CH0	1559112	OK	0.6982653	-0.343949	-0.6277935	0	-83.339	-57.607	-1.818	B5-03822-P03-CH1	1559112	OK	0.7429568	-0.6625932	-0.0947916	0	-97.331	-21.121	-5.581	B5-03822-P04-CH0	1559112	OK	0.7813721	-0.2190619	0.584354	0	-118.962	-35.27	2.61	B5-03822-P04-CH1	1559112	OK	0.782733	-0.6221492	0.016107	0	-107.065	-44.786	-3.494	NA
0.179852724594993	B5-03822-P01-CH0	1559120	OK	0.2485855	0.0638355	0.0703834	-0.963938	113.755	-33.129	-226.103	B5-03822-P02-CH0	1559120	OK	0.8105059	0.3339192	-0.4812257	0	-83.996	-99.365	10.045	B5-03822-P02-CH1	1559120	OK	0.8047619	-0.0405076	-0.5922139	0	-76.489	-77.018	-0.284	B5-03822-P03-CH0	1559120	OK	0.7054832	-0.3576038	-0.6118929	0	-83.027	-57.637	-2.371	B5-03822-P03-CH1	1559120	OK	0.7409937	-0.6645521	-0.09643	0	-97.552	-22.031	-4.109	B5-03822-P04-CH0	1559120	OK	0.7809387	-0.2156655	0.5861938	0	-119.166	-35.498	1.806	B5-03822-P04-CH1	1559120	OK	0.7828313	-0.6220212	0.0162714	0	-107.167	-44.733	-3.689	NA
0.189844542628048	B5-03822-P01-CH0	1559128	OK	0.2485446	0.0640213	0.0698556	-0.9639746	113.842	-33.125	-226.099	B5-03822-P02-CH0	1559128	OK	0.8080817	0.3284722	-0.4889887	0	-83.343	-99.56	10.128	B5-03822-P02-CH1	1559128	OK	0.7995733	-0.0496529	-0.5985124	0	-76.566	-77.494	0.207	B5-03822-P03-CH0	1559128	OK	0.7129218	-0.3721256	-0.5943611	0	-83.58	-58.116	-1.385	B5-03822-P03-CH1	1559128	OK	0.7387107	-0.6668832	-0.0978432	0	-97.456	-22.987	-2.815	B5-03822-P04-CH0	1559128	OK	0.7816123	-0.2126405	0.5864011	0	-119.505	-34.908	1.675	B5-03822-P04-CH1	1559128	OK	0.7824506	-0.6224954	0.016447	0	-107.268	-44.816	-3.552	NA
0.199836360661103	B5-03822-P01-CH0	1559136	OK	0.2483776	0.0638899	0.0699112	-0.9640223	113.845	-33.089	-226.125	B5-03822-P02-CH0	1559136	OK	0.8038493	0.3211292	-0.5007019	0	-82.61	-99.599	9.103	B5-03822-P02-CH1	1559136	OK	0.7963999	-0.0604232	-0.6017443	0	-75.706	-77.397	0.618	B5-03822-P03-CH0	1559136	OK	0.7225461	-0.3872972	-0.57265	0	-84.874	-58.193	-1.766	B5-03822-P03-CH1	1559136	OK	0.7400763	-0.6649509	-0.1006347	0	-97.692	-21.316	-4.935	B5-03822-P04-CH0	1559136	OK	0.7827726	-0.208825	0.5862246	0	-120.278	-35.816	2.001	B5-03822-P04-CH1	1559136	OK	0.7824592	-0.622482	0.0165455	0	-107.322	-44.814	-3.548	NA
0.209828178694158	B5-03822-P01-CH0	1559144	OK	0.2483953	0.064023	0.0695491	-0.9640351	113.91	-33.072	-226.102	B5-03822-P02-CH0	1559144	OK	0.7975195	0.3105135	-0.5172465	0	-82.052	-100.204	8.307	B5-03822-P02-CH1	1559144	OK	0.7916435	-0.0724147	-0.6066767	0	-75.487	-77.454	-0.377	B5-03822-P03-CH0	1559144	OK	0.7350954	-0.3998749	-0.5474804	0	-84.359	-58.614	-2.181	B5-03822-P03-CH1	1559144	OK	0.7390059	-0.6663861	-0.0989943	0	-97.845	-22.471	-4.014	B5-03822-P04-CH0	1559144	OK	0.7827921	-0.2095408	0.5859429	0	-120.31	-36.421	1.8	B5-03822-P04-CH1	1559144	OK	0.7822163	-0.6227791	0.0168448	0	-107.371	-44.898	-3.487	NA
0.219819996727213	B5-03822-P01-CH0	1559152	OK	0.2484459	0.0638578	0.0697514	-0.9640185	113.893	-32.984	-226.108	B5-03822-P02-CH0	1559152	OK	0.7907223	0.3015615	-0.5327466	0	-80.175	-99.074	5.14	B5-03822-P02-CH1	1559152	OK	0.7881339	-0.0890953	-0.6090213	0	-75.096	-77.262	-0.92	B5-03822-P03-CH0	1559152	OK	0.7459926	-0.4054186	-0.5283284	0	-84.471	-59.244	-1.208	B5-03822-P03-CH1	1559152	OK	0.7392421	-0.6664061	-0.0970777	0	-97.946	-22.963	-3.435	B5-03822-P04-CH0	1559152	OK	0.7829672	-0.2128522	0.5845138	0	-119.767	-36.804	2.674	B5-03822-P04-CH1	1559152	OK	0.7823818	-0.6225584	0.017314	0	-107.386	-44.88	-3.508	NA
0.229811814760268	B5-03822-P01-CH0	1559160	OK	0.2487333	0.0636473	0.0703331	-0.963916	113.869	-32.864	-226.118	B5-03822-P02-CH0	1559160	OK	0.7803407	0.2825259	-0.5578956	0	-78.826	-98.972	3.346	B5-03822-P02-CH1	1559160	OK	0.7866493	-0.1098663	-0.6075461	0	-74.592	-77.492	-0.204	B5-03822-P03-CH0	1559160	OK	0.7562235	-0.4042752	-0.514478	0	-85.774	-59.527	-0.428	B5-03822-P03-CH1	1559160	OK	0.7408053	-0.6648347	-0.095929	0	-98.089	-22.325	-4.122	B5-03822-P04-CH0	1559160	OK	0.7841775	-0.2181213	0.5809378	0	-119.844	-36.418	2.375	B5-03822-P04-CH1	1559160	OK	0.7827785	-0.6220385	0.0180525	0	-107.405	-44.887	-3.618	NA
0.239803632793324	B5-03822-P01-CH0	1559168	OK	0.2489955	0.0636082	0.0705677	-0.9638337	113.883	-32.815	-226.082	B5-03822-P02-CH0	1559168	OK	0.7697623	0.2583191	-0.583727	0	-76.758	-98.658	-0.085	B5-03822-P02-CH1	1559168	OK	0.7872131	-0.1298901	-0.6028467	0	-74.68	-77.496	-0.931	B5-03822-P03-CH0	1559168	OK	0.7678975	-0.3967959	-0.5028781	0	-86.327	-59.973	1.009	B5-03822-P03-CH1	1559168	OK	0.7405706	-0.6652902	-0.0945736	0	-97.803	-22.623	-3.873	B5-03822-P04-CH0	1559168	OK	0.7846681	-0.2222529	0.5787052	0	-119.588	-36.893	2.449	B5-03822-P04-CH1	1559168	OK	0.7828526	-0.6219171	0.0189996	0	-107.432	-45.064	-3.737	NA
0.249795450826379	B5-03822-P01-CH0	1559176	OK	0.2491187	0.0635386	0.0706491	-0.9638005	113.891	-32.74	-226.102	B5-03822-P02-CH0	1559176	OK	0.7569302	0.2234284	-0.6141144	0	-75.245	-99.052	-1.991	B5-03822-P02-CH1	1559176	OK	0.7928346	-0.1482066	-0.5911414	0	-75.095	-77.637	-0.949	B5-03822-P03-CH0	1559176	OK	0.7768048	-0.3843912	-0.4988162	0	-88.357	-59.65	1.64	B5-03822-P03-CH1	1559176	OK	0.7407134	-0.6650682	-0.0950153	0	-97.902	-22.415	-3.879	B5-03822-P04-CH0	1559176	OK	0.7851882	-0.2243705	0.5771805	0	-119.576	-37.245	3.15	B5-03822-P04-CH1	1559176	OK	0.7829749	-0.6217356	0.0198796	0	-107.438	-45.168	-3.684	NA
0.259787268859434	B5-03822-P01-CH0	1559184	OK	0.2489873	0.0637212	0.0704297	-0.9638385	113.966	-32.723	-226.075	B5-03822-P02-CH0	1559184	OK	0.7429912	0.1826482	-0.6438973	0	-73.699	-98.775	-2.463	B5-03822-P02-CH1	1559184	OK	0.8011351	-0.1576673	-0.5773418	0	-76.56	-78.568	0.589	B5-03822-P03-CH0	1559184	OK	0.7812398	-0.366547	-0.5052799	0	-90.018	-59.531	2.508	B5-03822-P03-CH1	1559184	OK	0.7408935	-0.6648433	-0.0951851	0	-98.144	-22.127	-4.065	B5-03822-P04-CH0	1559184	OK	0.7861453	-0.22588	0.5752858	0	-120.126	-37.834	3.393	B5-03822-P04-CH1	1559184	OK	0.7829127	-0.6217953	0.0204526	0	-107.532	-45.257	-3.673	NA
0.269779086892489	B5-03822-P01-CH0	1559192	OK	0.2488859	0.0637183	0.0701579	-0.9638847	113.945	-32.71	-225.976	B5-03822-P02-CH0	1559192	OK	0.7287178	0.1381704	-0.6707305	0	-72.552	-99.078	-4.629	B5-03822-P02-CH1	1559192	OK	0.8099092	-0.1542547	-0.5659086	0	-77.724	-77.597	-0.376	B5-03822-P03-CH0	1559192	OK	0.7793306	-0.3371803	-0.5281603	0	-91.303	-57.158	0.362	B5-03822-P03-CH1	1559192	OK	0.7421256	-0.6648387	-0.0850827	0	-97.665	-23.785	-3.438	B5-03822-P04-CH0	1559192	OK	0.785822	-0.2309468	0.5737136	0	-119.807	-36.096	1.428	B5-03822-P04-CH1	1559192	OK	0.7826804	-0.6220596	0.0212919	0	-107.553	-45.479	-3.744	NA
0.279770904925544	B5-03822-P01-CH0	1559200	OK	0.2489195	0.0636212	0.0702045	-0.963879	113.904	-32.641	-225.945	B5-03822-P02-CH0	1559200	OK	0.7205431	0.0919758	-0.6872831	0	-70.654	-98.319	-4.28	B5-03822-P02-CH1	1559200	OK	0.8170776	-0.1548775	-0.5553352	0	-80.097	-77.576	0.131	B5-03822-P03-CH0	1559200	OK	0.774496	-0.2849004	-0.5647899	0	-91.944	-57.38	2.247	B5-03822-P03-CH1	1559200	OK	0.7441612	-0.6630458	-0.0812062	0	-97.409	-23.693	-3.745	B5-03822-P04-CH0	1559200	OK	0.7858357	-0.2321273	0.5732183	0	-119.692	-37.602	3.324	B5-03822-P04-CH1	1559200	OK	0.7827308	-0.6219646	0.0221939	0	-107.566	-45.617	-3.733	NA
0.289762722958599	B5-03822-P01-CH0	1559208	OK	0.2489122	0.0633772	0.0704847	-0.9638765	113.83	-32.553	-225.903	B5-03822-P02-CH0	1559208	OK	0.715715	0.053628	-0.6963304	0	-70.574	-99.261	-4.601	B5-03822-P02-CH1	1559208	OK	0.8244935	-0.1579234	-0.5433882	0	-81.609	-77.765	1.609	B5-03822-P03-CH0	1559208	OK	0.7689084	-0.2150193	-0.6021184	0	-93.442	-56.431	1.488	B5-03822-P03-CH1	1559208	OK	0.7465983	-0.6608063	-0.0769809	0	-96.863	-23.573	-4.19	B5-03822-P04-CH0	1559208	OK	0.7862033	-0.2371141	0.5706674	0	-120.137	-37.191	2.638	B5-03822-P04-CH1	1559208	OK	0.7830202	-0.62157	0.0230248	0	-107.562	-45.658	-3.787	NA
0.299754540991654	B5-03822-P01-CH0	1559216	OK	0.2487951	0.0636537	0.0699166	-0.9639299	113.861	-32.51	-225.758	B5-03822-P02-CH0	1559216	OK	0.7145672	0.0312352	-0.6988691	0	-70.373	-99.289	-4.451	B5-03822-P02-CH1	1559216	OK	0.8287933	-0.1571411	-0.5370366	0	-82.002	-77.998	2.053	B5-03822-P03-CH0	1559216	OK	0.7651088	-0.1589333	-0.6239781	0	-92.894	-54.935	1.722	B5-03822-P03-CH1	1559216	OK	0.7484014	-0.6592268	-0.072907	0	-97.232	-23.562	-3.803	B5-03822-P04-CH0	1559216	OK	0.7857818	-0.2437248	0.5684587	0	-120.564	-36.741	1.744	B5-03822-P04-CH1	1559216	OK	0.7827152	-0.6219292	0.0236855	0	-107.735	-45.75	-3.9	NA
0.30974635902471	B5-03822-P01-CH0	1559224	OK	0.2488663	0.0636339	0.0697172	-0.9639273	113.839	-32.502	-225.652	B5-03822-P02-CH0	1559224	OK	0.7123337	0.0210384	-0.7015255	0	-71.588	-101.75	-3.837	B5-03822-P02-CH1	1559224	OK	0.8315037	-0.1505538	-0.5347291	0	-82.485	-78.132	1.561	B5-03822-P03-CH0	1559224	OK	0.7636599	-0.1291236	-0.6325747	0	-94.022	-55.374	1.161	B5-03822-P03-CH1	1559224	OK	0.7492213	-0.658709	-0.0690642	0	-96.925	-24.411	-3.521	B5-03822-P04-CH0	1559224	OK	0.7858785	-0.2478042	0.5665581	0	-121.14	-38.673	3.055	B5-03822-P04-CH1	1559224	OK	0.7827046	-0.6219003	0.0247685	0	-107.779	-45.841	-4.096	NA
0.319738177057765	B5-03822-P01-CH0	1559232	OK	0.2489869	0.0634448	0.0697834	-0.9639038	113.81	-32.505	-225.611	B5-03822-P02-CH0	1559232	OK	0.7119944	0.0154283	-0.7020156	0	-71.388	-102.543	-4.068	B5-03822-P02-CH1	1559232	OK	0.8338454	-0.142539	-0.5332771	0	-83.532	-78.847	1.597	B5-03822-P03-CH0	1559232	OK	0.765774	-0.1119126	-0.6332975	0	-94.565	-55.291	0.816	B5-03822-P03-CH1	1559232	OK	0.7517742	-0.6559969	-0.067109	0	-97.49	-23.805	-4.612	B5-03822-P04-CH0	1559232	OK	0.7857355	-0.2537452	0.5641215	0	-121.218	-38.393	2.506	B5-03822-P04-CH1	1559232	OK	0.7828481	-0.6216722	0.025933	0	-107.8	-46.049	-4.104	NA
0.32972999509082	B5-03822-P01-CH0	1559240	OK	0.2488782	0.0635921	0.0693	-0.963957	113.821	-32.496	-225.499	B5-03822-P02-CH0	1559240	OK	0.7117754	0.0116449	-0.7023106	0	-71.971	-103.198	-4.453	B5-03822-P02-CH1	1559240	OK	0.8360824	-0.1355454	-0.5315955	0	-83.968	-79.281	1.663	B5-03822-P03-CH0	1559240	OK	0.7634474	-0.106217	-0.6370761	0	-95.61	-54.754	-0.022	B5-03822-P03-CH1	1559240	OK	0.7530998	-0.6546249	-0.0656278	0	-97.043	-23.527	-5.313	B5-03822-P04-CH0	1559240	OK	0.7847703	-0.2606678	0.5623059	0	-121.046	-37.632	1.751	B5-03822-P04-CH1	1559240	OK	0.7826274	-0.6219052	0.0269868	0	-107.865	-46.195	-4.047	NA
0.339721813123875	B5-03822-P01-CH0	1559248	OK	0.2488984	0.0636069	0.0690481	-0.9639689	113.811	-32.484	-225.426	B5-03822-P02-CH0	1559248	OK	0.7148418	0.0109822	-0.6992	0	-71.98	-103.628	-5.096	B5-03822-P02-CH1	1559248	OK	0.8370551	-0.1283571	-0.5318489	0	-84.504	-79.192	1.625	B5-03822-P03-CH0	1559248	OK	0.7638388	-0.1107089	-0.635841	0	-95.049	-54.909	0.148	B5-03822-P03-CH1	1559248	OK	0.7525988	-0.6552768	-0.0648647	0	-96.813	-24.584	-4.502	B5-03822-P04-CH0	1559248	OK	0.7845147	-0.264219	0.5610036	0	-121.121	-38.466	2.91	B5-03822-P04-CH1	1559248	OK	0.7825443	-0.6219597	0.0281165	0	-107.937	-46.374	-3.941	NA
0.34971363115693	B5-03822-P01-CH0	1559256	OK	0.2490103	0.0636413	0.0690651	-0.9639366	113.806	-32.483	-225.326	B5-03822-P02-CH0	1559256	OK	0.7181014	0.015761	-0.69576	0	-72.114	-103.592	-4.918	B5-03822-P02-CH1	1559256	OK	0.8373844	-0.1251638	-0.5320915	0	-84.882	-79.856	1.823	B5-03822-P03-CH0	1559256	OK	0.7654531	-0.1303785	-0.6301452	0	-95.656	-55.792	1.343	B5-03822-P03-CH1	1559256	OK	0.7536355	-0.6539553	-0.0661506	0	-97.227	-24.074	-4.533	B5-03822-P04-CH0	1559256	OK	0.7842569	-0.2686021	0.55928	0	-121.433	-38.164	2.005	B5-03822-P04-CH1	1559256	OK	0.7825495	-0.6218939	0.0293991	0	-108.046	-46.645	-3.83	NA
0.359705449189985	B5-03822-P01-CH0	1559264	OK	0.2491294	0.063522	0.0691446	-0.9639079	113.787	-32.469	-225.301	B5-03822-P02-CH0	1559264	OK	0.720452	0.0291791	-0.6928907	0	-72.861	-103.836	-3.914	B5-03822-P02-CH1	1559264	OK	0.8383086	-0.116441	-0.5326164	0	-84.107	-80.144	1.686	B5-03822-P03-CH0	1559264	OK	0.7712695	-0.1630368	-0.6152742	0	-95.558	-55.692	0.528	B5-03822-P03-CH1	1559264	OK	0.754497	-0.6527728	-0.0679841	0	-97.562	-23.162	-5.398	B5-03822-P04-CH0	1559264	OK	0.7844299	-0.2706649	0.5580414	0	-121.596	-38.348	2.492	B5-03822-P04-CH1	1559264	OK	0.7826601	-0.6216965	0.030603	0	-108.129	-46.838	-3.728	NA
0.36969726722304	B5-03822-P01-CH0	1559272	OK	0.2491194	0.0635707	0.0690784	-0.9639121	113.814	-32.462	-225.318	B5-03822-P02-CH0	1559272	OK	0.7234132	0.0515255	-0.6884899	0	-73.756	-104.248	-3.422	B5-03822-P02-CH1	1559272	OK	0.8353559	-0.1041171	-0.5397593	0	-84.423	-79.928	0.927	B5-03822-P03-CH0	1559272	OK	0.7750982	-0.2131511	-0.594802	0	-96.487	-56.568	0.296	B5-03822-P03-CH1	1559272	OK	0.7520339	-0.655801	-0.066106	0	-97.114	-25.198	-3.179	B5-03822-P04-CH0	1559272	OK	0.7843331	-0.2740587	0.5565191	0	-121.549	-39.174	2.743	B5-03822-P04-CH1	1559272	OK	0.7827105	-0.6215853	0.0315598	0	-108.257	-46.94	-3.651	NA
0.379689085256096	B5-03822-P01-CH0	1559280	OK	0.2491988	0.0636311	0.0690991	-0.9638861	113.798	-32.431	-225.269	B5-03822-P02-CH0	1559280	OK	0.7288961	0.0764686	-0.6803404	0	-74.13	-104.683	-2.805	B5-03822-P02-CH1	1559280	OK	0.8326975	-0.0968794	-0.5451874	0	-83.865	-80.672	1.364	B5-03822-P03-CH0	1559280	OK	0.7811825	-0.2691968	-0.5632824	0	-95.387	-57.187	0.351	B5-03822-P03-CH1	1559280	OK	0.7516295	-0.6561642	-0.0670933	0	-97.279	-24.594	-4.797	B5-03822-P04-CH0	1559280	OK	0.784247	-0.2785907	0.554386	0	-121.223	-38.223	1.491	B5-03822-P04-CH1	1559280	OK	0.7827341	-0.6215062	0.0325166	0	-108.367	-47.055	-3.649	NA
0.389680903289151	B5-03822-P01-CH0	1559288	OK	0.2491425	0.0638912	0.0686522	-0.9639154	113.847	-32.509	-225.201	B5-03822-P02-CH0	1559288	OK	0.7345347	0.1007415	-0.6710513	0	-75.058	-105.301	-2.868	B5-03822-P02-CH1	1559288	OK	0.8314155	-0.0878403	-0.5486641	0	-82.674	-80.637	1.575	B5-03822-P03-CH0	1559288	OK	0.7876602	-0.3173164	-0.5281114	0	-94.9	-58.304	0.682	B5-03822-P03-CH1	1559288	OK	0.7500188	-0.6579431	-0.0676957	0	-97.172	-24.954	-4.209	B5-03822-P04-CH0	1559288	OK	0.7841895	-0.2836608	0.5518908	0	-120.655	-37.631	2.174	B5-03822-P04-CH1	1559288	OK	0.7824309	-0.6218468	0.0332931	0	-108.445	-47.233	-3.722	NA
0.399672721322206	B5-03822-P01-CH0	1559296	OK	0.2491474	0.0638957	0.0684584	-0.9639276	113.831	-32.558	-225.197	B5-03822-P02-CH0	1559296	OK	0.7406447	0.1236927	-0.6604132	0	-75.884	-105.054	-1.837	B5-03822-P02-CH1	1559296	OK	0.8280277	-0.0805158	-0.554876	0	-82.515	-80.523	0.783	B5-03822-P03-CH0	1559296	OK	0.7980909	-0.3496738	-0.4906926	0	-94.647	-59.307	1.421	B5-03822-P03-CH1	1559296	OK	0.7498359	-0.6579993	-0.0691595	0	-97.552	-23.466	-5.094	B5-03822-P04-CH0	1559296	OK	0.7844189	-0.2879173	0.5493547	0	-121.101	-39.119	2.491	B5-03822-P04-CH1	1559296	OK	0.7822844	-0.6219878	0.0340931	0	-108.497	-47.431	-3.589	NA
0.409664539355261	B5-03822-P01-CH0	1559304	OK	0.2490324	0.0640989	0.0684076	-0.9639474	113.833	-32.537	-225.133	B5-03822-P02-CH0	1559304	OK	0.7471771	0.1447351	-0.6486741	0	-77.068	-105.224	-1.446	B5-03822-P02-CH1	1559304	OK	0.8247471	-0.0802971	-0.5597719	0	-82.589	-81.424	0.772	B5-03822-P03-CH0	1559304	OK	0.8093	-0.3688245	-0.4571674	0	-94.753	-60.089	0.947	B5-03822-P03-CH1	1559304	OK	0.7456963	-0.6629189	-0.066899	0	-97.413	-24.888	-3.622	B5-03822-P04-CH0	1559304	OK	0.7844578	-0.2995398	0.5430487	0	-120.412	-37.144	1.342	B5-03822-P04-CH1	1559304	OK	0.7821683	-0.6221069	0.0345801	0	-108.569	-47.564	-3.509	NA
0.419656357388316	B5-03822-P01-CH0	1559312	OK	0.2491598	0.0641975	0.0687331	-0.9638848	113.822	-32.494	-225.118	B5-03822-P02-CH0	1559312	OK	0.754835	0.163547	-0.635198	0	-77.475	-105.617	-1.259	B5-03822-P02-CH1	1559312	OK	0.8240332	-0.0790269	-0.5610027	0	-82.117	-81.572	1.35	B5-03822-P03-CH0	1559312	OK	0.8195904	-0.3748823	-0.4332839	0	-94.218	-60.761	1.739	B5-03822-P03-CH1	1559312	OK	0.7442252	-0.6648609	-0.0639449	0	-98.38	-23.91	-3.534	B5-03822-P04-CH0	1559312	OK	0.7858912	-0.3129131	0.5333483	0	-119.735	-36.646	1.895	B5-03822-P04-CH1	1559312	OK	0.7823837	-0.6218115	0.0350172	0	-108.617	-47.553	-3.566	NA
0.429648175421371	B5-03822-P01-CH0	1559320	OK	0.2492696	0.064258	0.0689498	-0.9638369	113.816	-32.489	-225.122	B5-03822-P02-CH0	1559320	OK	0.7612963	0.1793648	-0.6231021	0	-78.153	-105.285	-1.003	B5-03822-P02-CH1	1559320	OK	0.8242489	-0.0754167	-0.5611827	0	-82.137	-81.332	0.784	B5-03822-P03-CH0	1559320	OK	0.825647	-0.3733113	-0.4230198	0	-94.125	-61.133	2.854	B5-03822-P03-CH1	1559320	OK	0.7418644	-0.6681058	-0.0572012	0	-98.22	-23.851	-3.425	B5-03822-P04-CH0	1559320	OK	0.7884356	-0.3267588	0.5211507	0	-119.87	-40.397	5.023	B5-03822-P04-CH1	1559320	OK	0.7823944	-0.6217832	0.0352787	0	-108.621	-47.717	-3.435	NA
0.439639993454426	B5-03822-P01-CH0	1559328	OK	0.2493189	0.0644111	0.0690549	-0.9638064	113.82	-32.47	-225.088	B5-03822-P02-CH0	1559328	OK	0.7670984	0.1901018	-0.6127163	0	-79.104	-104.56	0.231	B5-03822-P02-CH1	1559328	OK	0.8259045	-0.0749968	-0.5587999	0	-82.036	-81.049	0.631	B5-03822-P03-CH0	1559328	OK	0.8258897	-0.3695711	-0.4258208	0	-94.257	-61.325	2.735	B5-03822-P03-CH1	1559328	OK	0.7390615	-0.6718299	-0.0493215	0	-97.883	-24.157	-4.141	B5-03822-P04-CH0	1559328	OK	0.7906323	-0.3447969	0.50598	0	-118.582	-40.072	5.956	B5-03822-P04-CH1	1559328	OK	0.7824535	-0.6217126	0.0352135	0	-108.619	-47.659	-3.63	NA
0.449631811487482	B5-03822-P01-CH0	1559336	OK	0.249009	0.0645446	0.0686058	-0.9639096	113.781	-32.487	-225.049	B5-03822-P02-CH0	1559336	OK	0.7731434	0.1953676	-0.603391	0	-80.279	-104.723	0.645	B5-03822-P02-CH1	1559336	OK	0.8298558	-0.0752888	-0.5528751	0	-81.561	-80.763	1.511	B5-03822-P03-CH0	1559336	OK	0.8221583	-0.3641741	-0.4375306	0	-93.729	-61.424	2.126	B5-03822-P03-CH1	1559336	OK	0.7378191	-0.6733796	-0.0467226	0	-98.729	-23.267	-3.72	B5-03822-P04-CH0	1559336	OK	0.7923624	-0.3583163	0.4937319	0	-118.307	-36.935	3.359	B5-03822-P04-CH1	1559336	OK	0.7821564	-0.6221221	0.0345746	0	-108.601	-47.516	-3.713	NA
0.459623629520537	B5-03822-P01-CH0	1559344	OK	0.2491407	0.0645084	0.0690065	-0.9638494	113.74	-32.433	-225.058	B5-03822-P02-CH0	1559344	OK	0.7792043	0.1978132	-0.5947357	0	-81.183	-104.428	1.917	B5-03822-P02-CH1	1559344	OK	0.8323976	-0.0771938	-0.5487763	0	-82.402	-81.62	1.707	B5-03822-P03-CH0	1559344	OK	0.8144768	-0.3529391	-0.4605013	0	-93.916	-60.875	1.707	B5-03822-P03-CH1	1559344	OK	0.7359879	-0.675409	-0.0463088	0	-98.268	-23.347	-3.582	B5-03822-P04-CH0	1559344	OK	0.7935501	-0.3640822	0.4875678	0	-118.263	-36.312	3.046	B5-03822-P04-CH1	1559344	OK	0.7823513	-0.6219024	0.0341144	0	-108.59	-47.424	-3.759	NA
0.469615447553592	B5-03822-P01-CH0	1559352	OK	0.2491894	0.0644335	0.0690725	-0.9638371	113.659	-32.426	-225.008	B5-03822-P02-CH0	1559352	OK	0.7862348	0.1946054	-0.5864841	0	-82.101	-104.441	2.689	B5-03822-P02-CH1	1559352	OK	0.8374222	-0.0753287	-0.5413406	0	-82.893	-80.658	1.269	B5-03822-P03-CH0	1559352	OK	0.8064222	-0.3380748	-0.4851686	0	-93.348	-60.385	2.044	B5-03822-P03-CH1	1559352	OK	0.735355	-0.6760374	-0.047185	0	-98.578	-22.663	-3.965	B5-03822-P04-CH0	1559352	OK	0.7941673	-0.3678227	0.4837403	0	-117.729	-36.38	3.71	B5-03822-P04-CH1	1559352	OK	0.7823355	-0.6219515	0.0335792	0	-108.462	-47.355	-3.737	NA
0.479607265586647	B5-03822-P01-CH0	1559360	OK	0.2490852	0.0646111	0.0687868	-0.9638726	113.685	-32.448	-224.957	B5-03822-P02-CH0	1559360	OK	0.7933264	0.1888078	-0.5787787	0	-82.384	-103.863	2.767	B5-03822-P02-CH1	1559360	OK	0.8432216	-0.0758028	-0.5321947	0	-83.063	-80.285	1.359	B5-03822-P03-CH0	1559360	OK	0.7953811	-0.3257027	-0.511162	0	-93.535	-59.628	1.284	B5-03822-P03-CH1	1559360	OK	0.7350943	-0.6761127	-0.0500797	0	-98.309	-21.494	-4.856	B5-03822-P04-CH0	1559360	OK	0.7947369	-0.3701484	0.4810232	0	-118.096	-35.389	2.629	B5-03822-P04-CH1	1559360	OK	0.7821338	-0.6222541	0.0326562	0	-108.392	-47.256	-3.696	NA
0.489599083619702	B5-03822-P01-CH0	1559368	OK	0.2492236	0.0646243	0.0687849	-0.9638361	113.661	-32.426	-224.941	B5-03822-P02-CH0	1559368	OK	0.8004616	0.1807378	-0.571485	0	-82.114	-102.25	2.263	B5-03822-P02-CH1	1559368	OK	0.8503704	-0.0766564	-0.5205708	0	-82.847	-79.908	2.24	B5-03822-P03-CH0	1559368	OK	0.7833272	-0.3163387	-0.5350966	0	-92.52	-59.098	0.655	B5-03822-P03-CH1	1559368	OK	0.7348352	-0.6763711	-0.050393	0	-99.581	-21.092	-4.05	B5-03822-P04-CH0	1559368	OK	0.7936986	-0.3682419	0.4841904	0	-117.691	-35.943	3.875	B5-03822-P04-CH1	1559368	OK	0.7821857	-0.6222287	0.0318906	0	-108.353	-47.096	-3.611	NA
0.499590901652757	B5-03822-P01-CH0	1559376	OK	0.2492444	0.0646879	0.0690891	-0.9638047	113.673	-32.395	-224.944	B5-03822-P02-CH0	1559376	OK	0.8064422	0.1646227	-0.5679351	0	-82.565	-101.975	2.503	B5-03822-P02-CH1	1559376	OK	0.8547389	-0.0795846	-0.5129207	0	-84.044	-79.14	1.345	B5-03822-P03-CH0	1559376	OK	0.7710345	-0.3036388	-0.5597404	0	-91.544	-58.681	0.449	B5-03822-P03-CH1	1559376	OK	0.7337635	-0.6774995	-0.0508484	0	-99.409	-21.624	-4.041	B5-03822-P04-CH0	1559376	OK	0.7928622	-0.3632696	0.4892901	0	-117.693	-36.89	4.633	B5-03822-P04-CH1	1559376	OK	0.7823846	-0.6220311	0.0308503	0	-108.257	-46.85	-3.779	NA
0.509582719685812	B5-03822-P01-CH0	1559384	OK	0.2492988	0.0645579	0.0691235	-0.9637968	113.657	-32.383	-225.029	B5-03822-P02-CH0	1559384	OK	0.8115163	0.1477491	-0.5653419	0	-82.682	-101.522	2.472	B5-03822-P02-CH1	1559384	OK	0.8595723	-0.0840821	-0.5040493	0	-84.164	-78.877	2.508	B5-03822-P03-CH0	1559384	OK	0.7589395	-0.2896324	-0.5832014	0	-92.082	-58.122	-0.192	B5-03822-P03-CH1	1559384	OK	0.7333196	-0.6779295	-0.0515167	0	-98.555	-22.343	-3.453	B5-03822-P04-CH0	1559384	OK	0.7928026	-0.3577803	0.4934139	0	-118.129	-35.537	2.858	B5-03822-P04-CH1	1559384	OK	0.7823807	-0.6220871	0.0298008	0	-108.12	-46.69	-3.733	NA
0.519574537718868	B5-03822-P01-CH0	1559392	OK	0.249027	0.0647147	0.0683419	-0.9639123	113.666	-32.476	-224.933	B5-03822-P02-CH0	1559392	OK	0.8163637	0.132567	-0.5621177	0	-82.296	-100.797	2.183	B5-03822-P02-CH1	1559392	OK	0.8633625	-0.0879661	-0.4968573	0	-84.041	-78.092	1.776	B5-03822-P03-CH0	1559392	OK	0.7518921	-0.2786451	-0.5975075	0	-91.945	-57.694	-0.254	B5-03822-P03-CH1	1559392	OK	0.7340773	-0.6769253	-0.0538764	0	-98.462	-22.078	-4.685	B5-03822-P04-CH0	1559392	OK	0.791332	-0.3510448	0.5005609	0	-118.421	-35.028	1.728	B5-03822-P04-CH1	1559392	OK	0.7818122	-0.6228667	0.0284029	0	-108.071	-46.584	-3.735	NA
0.529566355751923	B5-03822-P01-CH0	1559400	OK	0.2489319	0.0647482	0.068348	-0.9639342	113.673	-32.471	-224.923	B5-03822-P02-CH0	1559400	OK	0.8186368	0.1157594	-0.5625243	0	-82.508	-99.835	2.397	B5-03822-P02-CH1	1559400	OK	0.8644715	-0.093358	-0.4939365	0	-84.61	-77.836	2.141	B5-03822-P03-CH0	1559400	OK	0.7482763	-0.268947	-0.606424	0	-91.69	-57.69	-0.795	B5-03822-P03-CH1	1559400	OK	0.7351896	-0.67559	-0.0554464	0	-98.113	-22.611	-4.21	B5-03822-P04-CH0	1559400	OK	0.7897657	-0.3378476	0.5119854	0	-118.659	-38.303	5.036	B5-03822-P04-CH1	1559400	OK	0.7818653	-0.6228597	0.0270645	0	-108.111	-46.258	-4.059	NA
0.539558173784978	B5-03822-P01-CH0	1559408	OK	0.2487456	0.064731	0.0681958	-0.9639942	113.669	-32.487	-224.974	B5-03822-P02-CH0	1559408	OK	0.8217652	0.0974599	-0.5614299	0	-81.99	-99.249	2.278	B5-03822-P02-CH1	1559408	OK	0.8665494	-0.0973026	-0.4895144	0	-84.584	-77.516	2.431	B5-03822-P03-CH0	1559408	OK	0.7481356	-0.2575166	-0.6115376	0	-90.829	-57.342	-1.055	B5-03822-P03-CH1	1559408	OK	0.7370046	-0.6734612	-0.0572204	0	-98.341	-22.863	-4.322	B5-03822-P04-CH0	1559408	OK	0.7882289	-0.3312359	0.5186308	0	-119.268	-36.247	1.716	B5-03822-P04-CH1	1559408	OK	0.7817718	-0.6230354	0.0256861	0	-108.09	-46.075	-3.875	NA
0.549549991818033	B5-03822-P01-CH0	1559416	OK	0.2488663	0.0646874	0.0685147	-0.9639434	113.693	-32.47	-225.059	B5-03822-P02-CH0	1559416	OK	0.8239471	0.0771295	-0.5613931	0	-81.718	-99.126	2.015	B5-03822-P02-CH1	1559416	OK	0.8674245	-0.0994968	-0.4875194	0	-84.669	-77.746	2.007	B5-03822-P03-CH0	1559416	OK	0.7484259	-0.2474665	-0.6153202	0	-91.142	-57.52	-0.479	B5-03822-P03-CH1	1559416	OK	0.7394315	-0.6706092	-0.0593668	0	-98.217	-22.373	-5.08	B5-03822-P04-CH0	1559416	OK	0.7862774	-0.3230258	0.5267089	0	-119.166	-33.605	-0.755	B5-03822-P04-CH1	1559416	OK	0.7819313	-0.6228727	0.0247603	0	-107.985	-45.912	-3.999	NA
0.559541809851088	B5-03822-P01-CH0	1559424	OK	0.248621	0.06485	0.0679127	-0.9640383	113.701	-32.514	-225.006	B5-03822-P02-CH0	1559424	OK	0.8268043	0.0587604	-0.5594121	0	-81.13	-98.577	2.366	B5-03822-P02-CH1	1559424	OK	0.8684949	-0.0984304	-0.4858271	0	-84.609	-77.245	2.167	B5-03822-P03-CH0	1559424	OK	0.7499803	-0.2400324	-0.6163716	0	-91.196	-57.852	0.565	B5-03822-P03-CH1	1559424	OK	0.7394324	-0.670633	-0.0590855	0	-97.875	-23.142	-4.077	B5-03822-P04-CH0	1559424	OK	0.7845733	-0.3106478	0.5366029	0	-120.145	-36.925	1.897	B5-03822-P04-CH1	1559424	OK	0.781537	-0.6234069	0.0237417	0	-107.882	-45.754	-3.995	NA
0.569533627884143	B5-03822-P01-CH0	1559432	OK	0.2486519	0.0648527	0.0680162	-0.9640229	113.708	-32.477	-225.003	B5-03822-P02-CH0	1559432	OK	0.8281252	0.0418476	-0.5589789	0	-81.097	-98.088	2.038	B5-03822-P02-CH1	1559432	OK	0.8685883	-0.0999297	-0.4853539	0	-84.972	-77.314	2.147	B5-03822-P03-CH0	1559432	OK	0.7515212	-0.2341856	-0.6167438	0	-91.184	-57.589	0.428	B5-03822-P03-CH1	1559432	OK	0.7411747	-0.6687555	-0.0585341	0	-97.611	-22.933	-4.446	B5-03822-P04-CH0	1559432	OK	0.7840413	-0.3022666	0.5421386	0	-120.607	-38.366	3.388	B5-03822-P04-CH1	1559432	OK	0.7816221	-0.6233299	0.0229501	0	-107.896	-45.571	-4.08	NA
0.579525445917198	B5-03822-P01-CH0	1559440	OK	0.2485573	0.0648184	0.067899	-0.9640579	113.696	-32.504	-225.05	B5-03822-P02-CH0	1559440	OK	0.8295737	0.0289533	-0.5576462	0	-80.841	-97.749	1.623	B5-03822-P02-CH1	1559440	OK	0.8699606	-0.0987806	-0.4831261	0	-84.681	-77.1	1.825	B5-03822-P03-CH0	1559440	OK	0.7515785	-0.2301379	-0.618196	0	-91.407	-57.178	0.186	B5-03822-P03-CH1	1559440	OK	0.7413886	-0.6686835	-0.0566149	0	-97.184	-24.553	-3.105	B5-03822-P04-CH0	1559440	OK	0.7839003	-0.2946951	0.5464934	0	-121.019	-37.301	1.74	B5-03822-P04-CH1	1559440	OK	0.7815682	-0.6234287	0.0220854	0	-107.88	-45.432	-4.056	NA
0.589517263950254	B5-03822-P01-CH0	1559448	OK	0.2483314	0.0648154	0.0678546	-0.9641194	113.674	-32.494	-225.044	B5-03822-P02-CH0	1559448	OK	0.8303636	0.0176762	-0.5569415	0	-80.717	-97.613	1.15	B5-03822-P02-CH1	1559448	OK	0.8696104	-0.0967189	-0.4841727	0	-84.789	-76.505	1.836	B5-03822-P03-CH0	1559448	OK	0.7519478	-0.2285143	-0.6183492	0	-91.419	-57.219	0.431	B5-03822-P03-CH1	1559448	OK	0.7441039	-0.6657705	-0.0553093	0	-97.3	-24.369	-3.501	B5-03822-P04-CH0	1559448	OK	0.783904	-0.2844822	0.5518735	0	-121.302	-38.135	2.495	B5-03822-P04-CH1	1559448	OK	0.78147	-0.6235805	0.0212629	0	-107.77	-45.315	-4.066	NA
0.599509081983309	B5-03822-P01-CH0	1559456	OK	0.2483113	0.0646914	0.0676883	-0.9641446	113.633	-32.524	-225.025	B5-03822-P02-CH0	1559456	OK	0.8320303	0.0114631	-0.5546118	0	-79.858	-96.967	1.068	B5-03822-P02-CH1	1559456	OK	0.8679324	-0.0977091	-0.4869767	0	-84.75	-76.819	2.626	B5-03822-P03-CH0	1559456	OK	0.7533584	-0.2257898	-0.6176326	0	-90.842	-57.058	0.809	B5-03822-P03-CH1	1559456	OK	0.7468784	-0.6628241	-0.0532616	0	-96.999	-24.128	-4.377	B5-03822-P04-CH0	1559456	OK	0.7831076	-0.2795347	0.5555203	0	-120.628	-36.557	1.091	B5-03822-P04-CH1	1559456	OK	0.7813102	-0.6237979	0.0207467	0	-107.7	-45.336	-3.967	NA
0.609500900016364	B5-03822-P01-CH0	1559464	OK	0.2483269	0.0647231	0.067918	-0.9641223	113.65	-32.493	-225.021	B5-03822-P02-CH0	1559464	OK	0.8311532	0.0056857	-0.5560145	0	-79.932	-96.803	0.992	B5-03822-P02-CH1	1559464	OK	0.8676058	-0.095675	-0.4879615	0	-84.386	-76.498	1.815	B5-03822-P03-CH0	1559464	OK	0.7530297	-0.2266664	-0.6177123	0	-90.986	-57.122	0.807	B5-03822-P03-CH1	1559464	OK	0.7490983	-0.6603908	-0.0523039	0	-97.068	-24.068	-3.782	B5-03822-P04-CH0	1559464	OK	0.7835078	-0.2718839	0.5587439	0	-121.152	-37.521	2.453	B5-03822-P04-CH1	1559464	OK	0.7814684	-0.6236177	0.0202029	0	-107.697	-45.232	-3.957	NA
0.619492718049419	B5-03822-P01-CH0	1559472	OK	0.2485196	0.0644989	0.0684578	-0.9640495	113.595	-32.398	-225.089	B5-03822-P02-CH0	1559472	OK	0.8310958	3.4e-05	-0.5561292	0	-79.887	-96.743	1.25	B5-03822-P02-CH1	1559472	OK	0.8660209	-0.0927142	-0.4913368	0	-84.543	-76.006	1.201	B5-03822-P03-CH0	1559472	OK	0.7538898	-0.2290455	-0.6157827	0	-90.7	-56.829	0.198	B5-03822-P03-CH1	1559472	OK	0.7503514	-0.6589099	-0.0530154	0	-96.565	-23.724	-5.339	B5-03822-P04-CH0	1559472	OK	0.7832025	-0.2686183	0.5607478	0	-121.303	-37.982	2.798	B5-03822-P04-CH1	1559472	OK	0.7818675	-0.6231271	0.0198941	0	-107.635	-45.058	-4.014	NA
0.629484536082474	B5-03822-P01-CH0	1559480	OK	0.2484517	0.0644972	0.0681608	-0.9640882	113.618	-32.43	-225.152	B5-03822-P02-CH0	1559480	OK	0.8328335	-0.0037033	-0.5535111	0	-79.42	-96.57	1.699	B5-03822-P02-CH1	1559480	OK	0.8645962	-0.093527	-0.4936862	0	-84.35	-76.565	1.912	B5-03822-P03-CH0	1559480	OK	0.7548286	-0.2335434	-0.6129366	0	-90.49	-57.172	1.254	B5-03822-P03-CH1	1559480	OK	0.7507262	-0.6583122	-0.0550928	0	-96.727	-23.722	-5.141	B5-03822-P04-CH0	1559480	OK	0.7816917	-0.2689265	0.5627047	0	-120.672	-37.111	1.708	B5-03822-P04-CH1	1559480	OK	0.7816585	-0.6233996	0.0195704	0	-107.558	-45.11	-3.79	NA
0.639476354115529	B5-03822-P01-CH0	1559488	OK	0.2485824	0.0644538	0.0678837	-0.9640769	113.615	-32.484	-225.164	B5-03822-P02-CH0	1559488	OK	0.8335968	-0.0069855	-0.5523293	0	-79.363	-96.928	1.419	B5-03822-P02-CH1	1559488	OK	0.8637035	-0.0925538	-0.4954291	0	-83.757	-76.801	2.226	B5-03822-P03-CH0	1559488	OK	0.7567806	-0.2405144	-0.6078124	0	-90.423	-57.192	0.687	B5-03822-P03-CH1	1559488	OK	0.7503878	-0.6587257	-0.054759	0	-96.73	-24.791	-4.054	B5-03822-P04-CH0	1559488	OK	0.7814824	-0.2672716	0.5637829	0	-120.675	-36.572	2.014	B5-03822-P04-CH1	1559488	OK	0.7815191	-0.6235795	0.0194041	0	-107.534	-45.073	-3.967	NA
0.649468172148585	B5-03822-P01-CH0	1559496	OK	0.2486846	0.0643628	0.0681566	-0.9640374	113.591	-32.436	-225.121	B5-03822-P02-CH0	1559496	OK	0.8339873	-0.0083553	-0.5517203	0	-79.777	-97.24	0.708	B5-03822-P02-CH1	1559496	OK	0.8603006	-0.0909358	-0.501611	0	-84.12	-76.819	1.6	B5-03822-P03-CH0	1559496	OK	0.7590153	-0.2476844	-0.6021198	0	-90.654	-57.201	0.453	B5-03822-P03-CH1	1559496	OK	0.751244	-0.6576314	-0.0561562	0	-96.945	-24.398	-4.629	B5-03822-P04-CH0	1559496	OK	0.7815495	-0.2647988	0.5648558	0	-121.161	-38.473	3.225	B5-03822-P04-CH1	1559496	OK	0.7818265	-0.6232031	0.0191109	0	-107.576	-44.932	-3.984	NA
0.65945999018164	B5-03822-P01-CH0	1559504	OK	0.2488289	0.064439	0.0682834	-0.9639861	113.635	-32.395	-225.139	B5-03822-P02-CH0	1559504	OK	0.8357134	-0.0061696	-0.5491311	0	-79.703	-96.848	1.535	B5-03822-P02-CH1	1559504	OK	0.8567489	-0.0916983	-0.5075163	0	-83.873	-77.088	1.235	B5-03822-P03-CH0	1559504	OK	0.7624547	-0.2573138	-0.593677	0	-90.653	-56.958	0.508	B5-03822-P03-CH1	1559504	OK	0.7511838	-0.6575616	-0.0577552	0	-96.834	-24.625	-4.002	B5-03822-P04-CH0	1559504	OK	0.7819427	-0.2645278	0.5644384	0	-121.68	-39.414	3.116	B5-03822-P04-CH1	1559504	OK	0.7819941	-0.6229981	0.0189364	0	-107.699	-44.884	-3.922	NA
0.669451808214695	B5-03822-P01-CH0	1559512	OK	0.2488538	0.064636	0.0680076	-0.963986	113.701	-32.399	-225.166	B5-03822-P02-CH0	1559512	OK	0.8365593	-0.0021605	-0.5478721	0	-80.244	-96.923	1.115	B5-03822-P02-CH1	1559512	OK	0.8542893	-0.0911361	-0.511746	0	-82.823	-76.894	1.522	B5-03822-P03-CH0	1559512	OK	0.765058	-0.2692591	-0.5849665	0	-90.669	-57.26	1.095	B5-03822-P03-CH1	1559512	OK	0.7515315	-0.6569812	-0.0598015	0	-96.523	-23.953	-5.56	B5-03822-P04-CH0	1559512	OK	0.7815657	-0.2701329	0.5623018	0	-121.093	-37.582	2.418	B5-03822-P04-CH1	1559512	OK	0.7817627	-0.6232893	0.0189083	0	-107.671	-44.938	-3.908	NA
0.67944362624775	B5-03822-P01-CH0	1559520	OK	0.249035	0.0645833	0.0682554	-0.9639252	113.716	-32.351	-225.162	B5-03822-P02-CH0	1559520	OK	0.8392979	0.0003842	-0.5436716	0	-79.912	-97.183	1.594	B5-03822-P02-CH1	1559520	OK	0.8499084	-0.0896574	-0.5192468	0	-82.921	-76.447	1.171	B5-03822-P03-CH0	1559520	OK	0.7668587	-0.2821793	-0.576457	0	-90.873	-57.571	1.386	B5-03822-P03-CH1	1559520	OK	0.7510647	-0.6574667	-0.0603271	0	-96.589	-24.407	-5.303	B5-03822-P04-CH0	1559520	OK	0.7813133	-0.2708477	0.5623087	0	-120.985	-39.551	4.255	B5-03822-P04-CH1	1559520	OK	0.7818766	-0.6231346	0.0192946	0	-107.63	-45.032	-3.835	NA
0.689435444280805	B5-03822-P01-CH0	1559528	OK	0.2491504	0.0644649	0.0684128	-0.9638921	113.714	-32.347	-225.18	B5-03822-P02-CH0	1559528	OK	0.8416647	0.0043502	-0.539983	0	-79.953	-97.109	1.762	B5-03822-P02-CH1	1559528	OK	0.847041	-0.091531	-0.5235873	0	-82.595	-76.551	1.612	B5-03822-P03-CH0	1559528	OK	0.768864	-0.2917571	-0.5689693	0	-90.264	-57.829	1.569	B5-03822-P03-CH1	1559528	OK	0.752523	-0.6555974	-0.0624596	0	-97.3	-23.03	-6.658	B5-03822-P04-CH0	1559528	OK	0.7820775	-0.2691707	0.5620516	0	-121.127	-38.151	2.609	B5-03822-P04-CH1	1559528	OK	0.7819675	-0.623013	0.0195374	0	-107.673	-45.074	-3.919	NA
0.69942726231386	B5-03822-P01-CH0	1559536	OK	0.2492577	0.064334	0.0687351	-0.9638502	113.731	-32.326	-225.28	B5-03822-P02-CH0	1559536	OK	0.8433476	0.0098663	-0.5372779	0	-80.101	-96.727	1.355	B5-03822-P02-CH1	1559536	OK	0.8468137	-0.0942404	-0.5234743	0	-81.76	-76.436	1.75	B5-03822-P03-CH0	1559536	OK	0.7700079	-0.2983043	-0.5640057	0	-89.955	-57.372	0.786	B5-03822-P03-CH1	1559536	OK	0.7508436	-0.6575081	-0.0625857	0	-96.952	-24.297	-5.488	B5-03822-P04-CH0	1559536	OK	0.782067	-0.2699191	0.5617071	0	-121.052	-37.829	2.652	B5-03822-P04-CH1	1559536	OK	0.7822386	-0.6226688	0.0196544	0	-107.694	-45.043	-3.894	NA
0.709419080346915	B5-03822-P01-CH0	1559544	OK	0.2493367	0.0643588	0.0686291	-0.9638357	113.755	-32.359	-225.291	B5-03822-P02-CH0	1559544	OK	0.8442509	0.0125306	-0.5358017	0	-80.4	-96.702	1.85	B5-03822-P02-CH1	1559544	OK	0.8440836	-0.095225	-0.5276884	0	-82.28	-75.972	1.237	B5-03822-P03-CH0	1559544	OK	0.7687649	-0.3063794	-0.5613663	0	-90.644	-57.182	0.673	B5-03822-P03-CH1	1559544	OK	0.7511079	-0.6576097	-0.0581922	0	-96.728	-24.451	-4.902	B5-03822-P04-CH0	1559544	OK	0.782345	-0.2784397	0.5571423	0	-120.94	-38.486	3.528	B5-03822-P04-CH1	1559544	OK	0.7821717	-0.6227453	0.0198927	0	-107.804	-45.062	-4.102	NA
0.719410898379971	B5-03822-P01-CH0	1559552	OK	0.249306	0.0646509	0.0681552	-0.9638577	113.828	-32.388	-225.267	B5-03822-P02-CH0	1559552	OK	0.8452702	0.0138161	-0.5341605	0	-80.672	-97.218	1.932	B5-03822-P02-CH1	1559552	OK	0.8418978	-0.0999124	-0.5303071	0	-82.252	-76.328	1.155	B5-03822-P03-CH0	1559552	OK	0.7689526	-0.3147022	-0.556484	0	-90.445	-57.507	1.506	B5-03822-P03-CH1	1559552	OK	0.7507681	-0.6578948	-0.0593442	0	-96.808	-24.513	-4.785	B5-03822-P04-CH0	1559552	OK	0.7825451	-0.2803595	0.5558973	0	-120.948	-39.208	4.085	B5-03822-P04-CH1	1559552	OK	0.7818307	-0.6231671	0.0200863	0	-107.919	-45.162	-4.027	NA
0.729402716413026	B5-03822-P01-CH0	1559560	OK	0.2493201	0.0645855	0.0680712	-0.9638644	113.777	-32.376	-225.203	B5-03822-P02-CH0	1559560	OK	0.8465612	0.018679	-0.5319636	0	-80.655	-97.195	1.949	B5-03822-P02-CH1	1559560	OK	0.8408613	-0.1033664	-0.5312887	0	-81.613	-76.19	1.587	B5-03822-P03-CH0	1559560	OK	0.7697099	-0.3229119	-0.5507037	0	-90.26	-56.962	0.599	B5-03822-P03-CH1	1559560	OK	0.7505152	-0.6581029	-0.0602283	0	-96.762	-24.581	-4.893	B5-03822-P04-CH0	1559560	OK	0.7834623	-0.28471	0.5523831	0	-121.26	-37.768	2.918	B5-03822-P04-CH1	1559560	OK	0.7817811	-0.623224	0.0202501	0	-107.884	-45.107	-4.164	NA
0.739394534446081	B5-03822-P01-CH0	1559568	OK	0.2492078	0.0647107	0.0681216	-0.9638815	113.806	-32.335	-225.152	B5-03822-P02-CH0	1559568	OK	0.8466951	0.0242896	-0.5315237	0	-80.968	-96.979	1.865	B5-03822-P02-CH1	1559568	OK	0.837803	-0.1062567	-0.535533	0	-82.225	-75.772	0.28	B5-03822-P03-CH0	1559568	OK	0.769821	-0.3286944	-0.5471158	0	-89.86	-56.931	1.012	B5-03822-P03-CH1	1559568	OK	0.7504172	-0.658118	-0.0612762	0	-96.802	-24.532	-4.925	B5-03822-P04-CH0	1559568	OK	0.7829874	-0.2885807	0.5510462	0	-120.852	-37.314	2.094	B5-03822-P04-CH1	1559568	OK	0.7817056	-0.6233103	0.0205077	0	-107.845	-45.206	-3.992	NA
0.749386352479136	B5-03822-P01-CH0	1559576	OK	0.2490541	0.0648213	0.0674261	-0.9639626	113.791	-32.377	-225.116	B5-03822-P02-CH0	1559576	OK	0.8479954	0.0320325	-0.5290347	0	-80.643	-96.353	2.314	B5-03822-P02-CH1	1559576	OK	0.8372134	-0.1127283	-0.5351318	0	-81.685	-75.587	0.748	B5-03822-P03-CH0	1559576	OK	0.7689527	-0.3327919	-0.5458583	0	-89.813	-56.873	1.234	B5-03822-P03-CH1	1559576	OK	0.7501485	-0.6583229	-0.0623554	0	-96.793	-24.299	-5.185	B5-03822-P04-CH0	1559576	OK	0.7827768	-0.289055	0.5510968	0	-120.659	-39.002	3.57	B5-03822-P04-CH1	1559576	OK	0.7811898	-0.6239539	0.0205916	0	-107.862	-45.297	-3.851	NA
0.759378170512191	B5-03822-P01-CH0	1559584	OK	0.2491133	0.0647833	0.067602	-0.9639376	113.775	-32.345	-225.12	B5-03822-P02-CH0	1559584	OK	0.8480651	0.0392427	-0.5284369	0	-80.617	-96.289	2.528	B5-03822-P02-CH1	1559584	OK	0.8371444	-0.1184183	-0.5340098	0	-81.157	-75.387	1.344	B5-03822-P03-CH0	1559584	OK	0.7692209	-0.3356604	-0.5437199	0	-89.56	-56.619	0.99	B5-03822-P03-CH1	1559584	OK	0.7502755	-0.6581299	-0.0628623	0	-96.841	-24.192	-5.305	B5-03822-P04-CH0	1559584	OK	0.7839148	-0.2893719	0.5493101	0	-121.297	-39.715	4.398	B5-03822-P04-CH1	1559584	OK	0.7811892	-0.6239408	0.0210074	0	-107.759	-45.364	-3.894	NA
0.769369988545246	B5-03822-P01-CH0	1559592	OK	0.249167	0.0648907	0.0674692	-0.9639258	113.823	-32.374	-225.094	B5-03822-P02-CH0	1559592	OK	0.8472957	0.0455354	-0.5291659	0	-80.609	-96.678	2.748	B5-03822-P02-CH1	1559592	OK	0.8356138	-0.1224236	-0.5355017	0	-81.073	-75.179	0.709	B5-03822-P03-CH0	1559592	OK	0.7683503	-0.3394015	-0.5426273	0	-90.006	-56.848	0.548	B5-03822-P03-CH1	1559592	OK	0.7502595	-0.6581094	-0.0632664	0	-96.872	-24.18	-5.284	B5-03822-P04-CH0	1559592	OK	0.7833264	-0.2955753	0.5468409	0	-120.598	-37.363	1.697	B5-03822-P04-CH1	1559592	OK	0.7811335	-0.6240078	0.021088	0	-107.876	-45.394	-3.831	NA
0.779361806578301	B5-03822-P01-CH0	1559600	OK	0.2490933	0.065028	0.0672445	-0.9639513	113.844	-32.401	-225.038	B5-03822-P02-CH0	1559600	OK	0.8464149	0.0538684	-0.5297924	0	-80.56	-96.688	2.791	B5-03822-P02-CH1	1559600	OK	0.8323521	-0.129553	-0.5388933	0	-81.37	-75.31	0.826	B5-03822-P03-CH0	1559600	OK	0.76925	-0.3432723	-0.538905	0	-89.774	-57.02	0.703	B5-03822-P03-CH1	1559600	OK	0.7498296	-0.6585713	-0.0635566	0	-96.794	-24.423	-5.082	B5-03822-P04-CH0	1559600	OK	0.7838844	-0.2948625	0.546426	0	-120.585	-38.854	3.868	B5-03822-P04-CH1	1559600	OK	0.7810151	-0.6241618	0.0209172	0	-107.953	-45.288	-4.078	NA
0.789353624611357	B5-03822-P01-CH0	1559608	OK	0.2490871	0.0651057	0.0672053	-0.9639504	113.87	-32.401	-225.058	B5-03822-P02-CH0	1559608	OK	0.8448254	0.0629242	-0.5313291	0	-80.574	-96.787	2.905	B5-03822-P02-CH1	1559608	OK	0.8294193	-0.1359455	-0.5418324	0	-81.173	-75.059	0.417	B5-03822-P03-CH0	1559608	OK	0.7687109	-0.3477617	-0.5367917	0	-90.497	-56.443	0.72	B5-03822-P03-CH1	1559608	OK	0.7498875	-0.6584835	-0.0637823	0	-96.83	-24.383	-5.132	B5-03822-P04-CH0	1559608	OK	0.7845398	-0.2991678	0.5431352	0	-120.406	-37.112	2.639	B5-03822-P04-CH1	1559608	OK	0.7809248	-0.624276	0.0208781	0	-107.998	-45.33	-3.969	NA
0.799345442644412	B5-03822-P01-CH0	1559616	OK	0.249204	0.0652369	0.0671504	-0.9639151	113.893	-32.401	-225.015	B5-03822-P02-CH0	1559616	OK	0.8434385	0.0705434	-0.532574	0	-80.353	-97.035	3.355	B5-03822-P02-CH1	1559616	OK	0.8265768	-0.1410066	-0.5448742	0	-80.932	-74.84	0.873	B5-03822-P03-CH0	1559616	OK	0.7682031	-0.3526977	-0.5342924	0	-90.779	-56.516	0.685	B5-03822-P03-CH1	1559616	OK	0.7501377	-0.6581949	-0.0638194	0	-96.906	-24.291	-5.196	B5-03822-P04-CH0	1559616	OK	0.784472	-0.3025712	0.541345	0	-120.034	-36.42	1.958	B5-03822-P04-CH1	1559616	OK	0.7808705	-0.6243358	0.0211193	0	-108.007	-45.335	-4.012	NA
0.809337260677467	B5-03822-P01-CH0	1559624	OK	0.2491354	0.0650616	0.0674017	-0.9639271	113.834	-32.375	-225.015	B5-03822-P02-CH0	1559624	OK	0.8419743	0.080825	-0.533429	0	-80.209	-96.426	3.002	B5-03822-P02-CH1	1559624	OK	0.8239948	-0.1482805	-0.5468505	0	-80.849	-75.106	0.233	B5-03822-P03-CH0	1559624	OK	0.7687781	-0.3550372	-0.5319106	0	-90.432	-56.279	0.675	B5-03822-P03-CH1	1559624	OK	0.7505214	-0.6577478	-0.0639175	0	-96.841	-24.219	-5.251	B5-03822-P04-CH0	1559624	OK	0.7846694	-0.3043742	0.5400466	0	-120.258	-36.995	1.631	B5-03822-P04-CH1	1559624	OK	0.7810472	-0.6241186	0.0210059	0	-107.967	-45.223	-4.012	NA
0.819329078710522	B5-03822-P01-CH0	1559632	OK	0.2491771	0.065106	0.067375	-0.9639152	113.852	-32.385	-224.998	B5-03822-P02-CH0	1559632	OK	0.8397743	0.0889699	-0.5355963	0	-79.993	-96.376	2.801	B5-03822-P02-CH1	1559632	OK	0.8225972	-0.151804	-0.5479867	0	-80.577	-74.5	-0.053	B5-03822-P03-CH0	1559632	OK	0.7687707	-0.3583716	-0.5296804	0	-90.074	-56.277	0.279	B5-03822-P03-CH1	1559632	OK	0.7505187	-0.6577503	-0.0639236	0	-96.794	-24.397	-5.205	B5-03822-P04-CH0	1559632	OK	0.7854043	-0.3050301	0.5386063	0	-120.564	-37.497	2.372	B5-03822-P04-CH1	1559632	OK	0.7809951	-0.6241767	0.0212162	0	-107.908	-45.278	-3.972	NA
0.829320896743577	B5-03822-P01-CH0	1559640	OK	0.2493483	0.0650751	0.0677431	-0.9638473	113.879	-32.375	-225.085	B5-03822-P02-CH0	1559640	OK	0.835711	0.0945761	-0.5409644	0	-80.445	-96.507	3.504	B5-03822-P02-CH1	1559640	OK	0.8204813	-0.1563081	-0.5498892	0	-80.372	-74.822	-0.186	B5-03822-P03-CH0	1559640	OK	0.7678529	-0.3612322	-0.5290684	0	-90.269	-56.255	0.208	B5-03822-P03-CH1	1559640	OK	0.7509969	-0.65721	-0.0638642	0	-96.774	-24.431	-5.069	B5-03822-P04-CH0	1559640	OK	0.7851337	-0.3072272	0.5377514	0	-120.175	-36.754	1.949	B5-03822-P04-CH1	1559640	OK	0.7811596	-0.6239602	0.0215264	0	-107.91	-45.366	-3.904	NA
0.839312714776632	B5-03822-P01-CH0	1559648	OK	0.2494734	0.0650033	0.0677896	-0.9638165	113.862	-32.381	-225.133	B5-03822-P02-CH0	1559648	OK	0.8324446	0.1018542	-0.5446666	0	-80.577	-96.668	2.877	B5-03822-P02-CH1	1559648	OK	0.8179444	-0.1583484	-0.5530758	0	-80.215	-74.761	0.513	B5-03822-P03-CH0	1559648	OK	0.7670649	-0.3640388	-0.528287	0	-90.264	-56.47	0.381	B5-03822-P03-CH1	1559648	OK	0.751257	-0.6569043	-0.0639504	0	-96.747	-24.436	-5.045	B5-03822-P04-CH0	1559648	OK	0.7849345	-0.3051106	0.5392451	0	-120.107	-38.718	4.123	B5-03822-P04-CH1	1559648	OK	0.7811893	-0.6239228	0.0215323	0	-107.924	-45.321	-4.057	NA
0.849304532809687	B5-03822-P01-CH0	1559656	OK	0.2494531	0.0650993	0.0677847	-0.9638156	113.895	-32.399	-225.119	B5-03822-P02-CH0	1559656	OK	0.8301698	0.1090956	-0.5467323	0	-80.489	-96.813	2.661	B5-03822-P02-CH1	1559656	OK	0.8154216	-0.1599667	-0.5563256	0	-80.455	-74.333	-0.043	B5-03822-P03-CH0	1559656	OK	0.7671315	-0.3672318	-0.5259754	0	-90.082	-56.467	0.2	B5-03822-P03-CH1	1559656	OK	0.7513669	-0.6567561	-0.0641811	0	-96.835	-24.484	-5.083	B5-03822-P04-CH0	1559656	OK	0.7852754	-0.3084262	0.5368573	0	-120.428	-37.057	2.199	B5-03822-P04-CH1	1559656	OK	0.781137	-0.6239861	0.0215944	0	-107.945	-45.307	-4.228	NA
0.859296350842743	B5-03822-P01-CH0	1559664	OK	0.2494223	0.0649403	0.067833	-0.9638309	113.906	-32.458	-225.226	B5-03822-P02-CH0	1559664	OK	0.8281906	0.1153205	-0.5484537	0	-80.218	-96.983	3.346	B5-03822-P02-CH1	1559664	OK	0.8137776	-0.1617237	-0.5582217	0	-80.461	-74.861	-0.324	B5-03822-P03-CH0	1559664	OK	0.76784	-0.3696653	-0.5232297	0	-89.835	-56.488	0.488	B5-03822-P03-CH1	1559664	OK	0.7515933	-0.6564808	-0.0643473	0	-96.818	-24.559	-5.095	B5-03822-P04-CH0	1559664	OK	0.7847773	-0.3115288	0.5357933	0	-120.198	-35.686	1.058	B5-03822-P04-CH1	1559664	OK	0.7811635	-0.6239545	0.0215497	0	-107.946	-45.373	-4.112	NA
0.869288168875798	B5-03822-P01-CH0	1559672	OK	0.2493937	0.0647572	0.0681786	-0.9638262	113.845	-32.431	-225.248	B5-03822-P02-CH0	1559672	OK	0.8264045	0.1239349	-0.5492683	0	-79.93	-96.53	3.179	B5-03822-P02-CH1	1559672	OK	0.8127825	-0.1622637	-0.5595133	0	-80.317	-75.061	-0.692	B5-03822-P03-CH0	1559672	OK	0.7682189	-0.3719047	-0.5210821	0	-90.053	-56.315	0.586	B5-03822-P03-CH1	1559672	OK	0.752042	-0.6559565	-0.0644504	0	-96.809	-24.514	-5.2	B5-03822-P04-CH0	1559672	OK	0.7849215	-0.306671	0.5383783	0	-120.035	-36.447	1.947	B5-03822-P04-CH1	1559672	OK	0.7813976	-0.6236621	0.0215276	0	-107.843	-45.318	-4.085	NA
0.879279986908853	B5-03822-P01-CH0	1559680	OK	0.2494419	0.0646869	0.0681168	-0.9638228	113.83	-32.466	-225.296	B5-03822-P02-CH0	1559680	OK	0.8241343	0.1283025	-0.5516712	0	-79.928	-96.976	3.139	B5-03822-P02-CH1	1559680	OK	0.8115507	-0.1616972	-0.561462	0	-80.176	-74.815	-0.841	B5-03822-P03-CH0	1559680	OK	0.7690741	-0.3745744	-0.5178987	0	-89.849	-56.216	0.523	B5-03822-P03-CH1	1559680	OK	0.7523107	-0.6556521	-0.064412	0	-96.851	-24.511	-5.272	B5-03822-P04-CH0	1559680	OK	0.7848258	-0.3087069	0.5373533	0	-119.978	-36.19	1.589	B5-03822-P04-CH1	1559680	OK	0.7813527	-0.6237143	0.0216433	0	-107.778	-45.362	-4.036	NA
0.889271804941908	B5-03822-P01-CH0	1559688	OK	0.249507	0.0647848	0.0679503	-0.9638112	113.853	-32.499	-225.29	B5-03822-P02-CH0	1559688	OK	0.8222134	0.1347737	-0.5529929	0	-79.65	-96.661	2.842	B5-03822-P02-CH1	1559688	OK	0.8095412	-0.1613859	-0.5644446	0	-80.107	-74.91	-0.72	B5-03822-P03-CH0	1559688	OK	0.7685104	-0.3771087	-0.5168953	0	-90.406	-56.258	0.884	B5-03822-P03-CH1	1559688	OK	0.7524022	-0.6555451	-0.0644328	0	-96.838	-24.601	-5.224	B5-03822-P04-CH0	1559688	OK	0.7841559	-0.3163358	0.5338832	0	-120.221	-36.035	1.432	B5-03822-P04-CH1	1559688	OK	0.7812731	-0.6238104	0.0217462	0	-107.812	-45.358	-4.176	NA
0.899263622974963	B5-03822-P01-CH0	1559696	OK	0.2494478	0.0649122	0.0678172	-0.9638273	113.911	-32.522	-225.322	B5-03822-P02-CH0	1559696	OK	0.8192083	0.1383198	-0.5565657	0	-79.958	-97.342	2.551	B5-03822-P02-CH1	1559696	OK	0.8077643	-0.1578863	-0.5679689	0	-79.766	-74.542	-0.619	B5-03822-P03-CH0	1559696	OK	0.7693723	-0.3793171	-0.5139891	0	-90.318	-56.054	0.388	B5-03822-P03-CH1	1559696	OK	0.7524298	-0.6555039	-0.064529	0	-96.918	-24.702	-5.166	B5-03822-P04-CH0	1559696	OK	0.7846694	-0.3120765	0.5356325	0	-120.083	-36.074	1.414	B5-03822-P04-CH1	1559696	OK	0.781106	-0.6240216	0.0216886	0	-107.861	-45.459	-4.027	NA
0.909255441008018	B5-03822-P01-CH0	1559704	OK	0.2496351	0.0649736	0.0679867	-0.9637627	113.982	-32.526	-225.405	B5-03822-P02-CH0	1559704	OK	0.8173684	0.1443867	-0.5577288	0	-79.619	-97.057	2.12	B5-03822-P02-CH1	1559704	OK	0.8048323	-0.158103	-0.5720564	0	-80.407	-75.096	-0.94	B5-03822-P03-CH0	1559704	OK	0.7698801	-0.381289	-0.5117649	0	-90.11	-56.66	0.771	B5-03822-P03-CH1	1559704	OK	0.7529017	-0.6549555	-0.0645935	0	-97.053	-24.6	-5.215	B5-03822-P04-CH0	1559704	OK	0.7846312	-0.3128714	0.5352246	0	-120.167	-36.275	1.537	B5-03822-P04-CH1	1559704	OK	0.7812525	-0.6238345	0.0217966	0	-107.849	-45.52	-3.851	NA
0.919247259041074	B5-03822-P01-CH0	1559712	OK	0.2497484	0.0646627	0.0685908	-0.9637114	113.945	-32.517	-225.496	B5-03822-P02-CH0	1559712	OK	0.8149076	0.1486422	-0.5602063	0	-79.543	-97.062	2.828	B5-03822-P02-CH1	1559712	OK	0.8067181	-0.1553688	-0.570146	0	-79.382	-74.925	-0.326	B5-03822-P03-CH0	1559712	OK	0.7698451	-0.3813582	-0.5117661	0	-90.318	-56.86	0.576	B5-03822-P03-CH1	1559712	OK	0.7535539	-0.6542244	-0.064397	0	-97.083	-24.548	-5.231	B5-03822-P04-CH0	1559712	OK	0.7846053	-0.3136353	0.5348152	0	-120.112	-36.268	1.603	B5-03822-P04-CH1	1559712	OK	0.7816554	-0.6233297	0.0217924	0	-107.793	-45.485	-3.84	NA
0.929239077074129	B5-03822-P01-CH0	1559720	OK	0.2497861	0.0646904	0.0687116	-0.9636912	113.963	-32.521	-225.451	B5-03822-P02-CH0	1559720	OK	0.813451	0.1551513	-0.5605583	0	-79.286	-96.742	2.18	B5-03822-P02-CH1	1559720	OK	0.8065104	-0.1525597	-0.5711974	0	-79.227	-74.903	-0.838	B5-03822-P03-CH0	1559720	OK	0.7704503	-0.3806677	-0.5113691	0	-89.908	-56.814	0.95	B5-03822-P03-CH1	1559720	OK	0.7537179	-0.6540553	-0.0641948	0	-97.21	-24.619	-5.209	B5-03822-P04-CH0	1559720	OK	0.7844952	-0.3150382	0.534152	0	-120.118	-36.183	1.449	B5-03822-P04-CH1	1559720	OK	0.78174	-0.6232274	0.021686	0	-107.824	-45.442	-3.896	NA
0.939230895107184	B5-03822-P01-CH0	1559728	OK	0.2498542	0.0646353	0.0688553	-0.963667	113.969	-32.528	-225.481	B5-03822-P02-CH0	1559728	OK	0.8112282	0.1587541	-0.5627663	0	-79.413	-96.965	2.457	B5-03822-P02-CH1	1559728	OK	0.8051699	-0.1521977	-0.5731817	0	-79.396	-75.143	-0.96	B5-03822-P03-CH0	1559728	OK	0.7693563	-0.3817174	-0.5122331	0	-90.671	-56.523	0.6	B5-03822-P03-CH1	1559728	OK	0.7538835	-0.6538863	-0.0639719	0	-97.22	-24.702	-5.11	B5-03822-P04-CH0	1559728	OK	0.7843525	-0.3165862	0.5334457	0	-120.061	-36.036	1.345	B5-03822-P04-CH1	1559728	OK	0.7818138	-0.6231331	0.0217319	0	-107.82	-45.465	-3.808	NA
0.949222713140239	B5-03822-P01-CH0	1559736	OK	0.2500069	0.0644855	0.0692308	-0.9636105	113.969	-32.537	-225.526	B5-03822-P02-CH0	1559736	OK	0.8093373	0.1627811	-0.5643363	0	-79.429	-97.26	2.723	B5-03822-P02-CH1	1559736	OK	0.8051075	-0.1499137	-0.5738709	0	-78.918	-75.185	-0.512	B5-03822-P03-CH0	1559736	OK	0.769966	-0.3820373	-0.5110772	0	-90.205	-56.671	0.29	B5-03822-P03-CH1	1559736	OK	0.7539736	-0.6538243	-0.0635424	0	-97.103	-24.953	-4.962	B5-03822-P04-CH0	1559736	OK	0.7842981	-0.3176369	0.5329008	0	-120.016	-36.051	1.304	B5-03822-P04-CH1	1559736	OK	0.7820741	-0.6228007	0.0218937	0	-107.768	-45.477	-3.783	NA
0.959214531173294	B5-03822-P01-CH0	1559744	OK	0.2499886	0.0645171	0.0690972	-0.9636227	113.968	-32.591	-225.494	B5-03822-P02-CH0	1559744	OK	0.8081327	0.1664886	-0.5649805	0	-79.316	-97.266	2.954	B5-03822-P02-CH1	1559744	OK	0.802684	-0.1461252	-0.5782265	0	-79.561	-75.192	-0.883	B5-03822-P03-CH0	1559744	OK	0.7695363	-0.3798844	-0.5133241	0	-90.3	-56.709	0.583	B5-03822-P03-CH1	1559744	OK	0.753736	-0.6541204	-0.0633123	0	-97.013	-25.167	-4.79	B5-03822-P04-CH0	1559744	OK	0.7841129	-0.3186058	0.5325949	0	-120.014	-36.389	1.547	B5-03822-P04-CH1	1559744	OK	0.7820414	-0.6228507	0.0216402	0	-107.833	-45.35	-4.087	NA
0.969206349206349	B5-03822-P01-CH0	1559752	OK	0.2500707	0.064347	0.0693512	-0.9635946	113.914	-32.586	-225.46	B5-03822-P02-CH0	1559752	OK	0.8072654	0.1711256	-0.564835	0	-79.074	-97.135	2.612	B5-03822-P02-CH1	1559752	OK	0.8017236	-0.1432223	-0.5802816	0	-79.647	-74.923	-1.373	B5-03822-P03-CH0	1559752	OK	0.769821	-0.380875	-0.512162	0	-90.227	-56.719	0.576	B5-03822-P03-CH1	1559752	OK	0.7539774	-0.6538484	-0.0632479	0	-97.012	-25.044	-4.922	B5-03822-P04-CH0	1559752	OK	0.783936	-0.3192994	0.53244	0	-119.946	-36.667	1.728	B5-03822-P04-CH1	1559752	OK	0.7821342	-0.6227316	0.021714	0	-107.807	-45.282	-4.41	NA
