Wav.Time	B5.03822.P01.CH0	Frame	State	Q0	Qx	Qy	Qz	Tx	Ty	Tz	B5.03822.P02.CH0	Frame.1	State.1	Q0.1	Qx.1	Qy.1	Qz.1	Tx.1	Ty.1	Tz.1	B5.03822.P02.CH1	Frame.2	State.2	Q0.2	Qx.2	Qy.2	Qz.2	Tx.2	Ty.2	Tz.2	B5.03822.P03.CH0	Frame.3	State.3	Q0.3	Qx.3	Qy.3	Qz.3	Tx.3	Ty.3	Tz.3	B5.03822.P03.CH1	Frame.4	State.4	Q0.4	Qx.4	Qy.4	Qz.4	Tx.4	Ty.4	Tz.4	B5.03822.P04.CH0	Frame.5	State.5	Q0.5	Qx.5	Qy.5	Qz.5	Tx.5	Ty.5	Tz.5	B5.03822.P04.CH1	Frame.6	State.6	Q0.6	Qx.6	Qy.6	Qz.6	Tx.6	Ty.6	Tz.6	X
0	B5-03822-P01-CH0	1916472	OK	0.2034786	0.0550614	0.1196589	-0.9701786	98.523	22.53	-269.363	B5-03822-P02-CH0	1916472	OK	0.8369037	0.1111919	-0.5359371	0	-94.356	-91.637	7.367	B5-03822-P02-CH1	1916472	OK	0.6743512	0.0167131	-0.7382216	0	-80.417	-69.575	-0.774	B5-03822-P03-CH0	1916472	OK	0.7138785	-0.4292854	-0.5532554	0	-94.368	-49.849	-0.858	B5-03822-P03-CH1	1916472	OK	0.7691768	-0.6384831	-0.026579	0	-99.681	-20.677	-0.448	B5-03822-P04-CH0	1916472	OK	0.682055	-0.2858664	0.6731132	0	-127.197	-27.204	13.167	B5-03822-P04-CH1	1916472	OK	0.7860082	-0.6143384	-0.0691331	0	-111.455	-39.154	2.822	NA
0.00999181803305515	B5-03822-P01-CH0	1916480	OK	0.2035077	0.0549672	0.1197747	-0.9701635	98.531	22.564	-269.426	B5-03822-P02-CH0	1916480	OK	0.838755	0.1138159	-0.532481	0	-95.124	-91.135	9.012	B5-03822-P02-CH1	1916480	OK	0.6724905	0.0236406	-0.7397281	0	-81.644	-69.352	-0.216	B5-03822-P03-CH0	1916480	OK	0.7016939	-0.4002536	-0.5894257	0	-92.99	-49.727	-1.772	B5-03822-P03-CH1	1916480	OK	0.7688431	-0.6388769	-0.0267701	0	-99.722	-20.669	-0.528	B5-03822-P04-CH0	1916480	OK	0.6820128	-0.2843546	0.6737959	0	-127.221	-27.472	13.624	B5-03822-P04-CH1	1916480	OK	0.7862708	-0.61394	-0.0696846	0	-111.34	-39.024	3.027	NA
0.0199836360661103	B5-03822-P01-CH0	1916488	OK	0.2035666	0.0548435	0.1204055	-0.9700801	98.517	22.647	-269.421	B5-03822-P02-CH0	1916488	OK	0.8421984	0.1150414	-0.5267516	0	-95.191	-91.26	8.662	B5-03822-P02-CH1	1916488	OK	0.6707943	0.0319755	-0.7409538	0	-82.084	-68.84	0.498	B5-03822-P03-CH0	1916488	OK	0.6903856	-0.3671112	-0.6233755	0	-91.616	-49.523	-1.993	B5-03822-P03-CH1	1916488	OK	0.7688772	-0.6388251	-0.0270253	0	-99.756	-20.578	-0.538	B5-03822-P04-CH0	1916488	OK	0.6819385	-0.2831451	0.6743802	0	-127.202	-27.476	13.684	B5-03822-P04-CH1	1916488	OK	0.7868139	-0.6131954	-0.0701094	0	-111.334	-38.883	3.119	NA
0.0299754540991654	B5-03822-P01-CH0	1916496	OK	0.2037764	0.0549546	0.1207501	-0.9699869	98.557	22.729	-269.345	B5-03822-P02-CH0	1916496	OK	0.8433596	0.1193054	-0.5239378	0	-95.506	-89.929	8.747	B5-03822-P02-CH1	1916496	OK	0.6706843	0.0435109	-0.7404657	0	-81.536	-68.899	-0.554	B5-03822-P03-CH0	1916496	OK	0.6807978	-0.3414668	-0.6480083	0	-91.132	-49.902	-0.926	B5-03822-P03-CH1	1916496	OK	0.7687062	-0.6390288	-0.0270741	0	-99.76	-20.596	-0.315	B5-03822-P04-CH0	1916496	OK	0.6793146	-0.2749418	0.680396	0	-126.771	-25.637	13.632	B5-03822-P04-CH1	1916496	OK	0.7870711	-0.6128327	-0.0703928	0	-111.443	-38.895	3.351	NA
0.0399672721322206	B5-03822-P01-CH0	1916504	OK	0.2034016	0.0554443	0.1193469	-0.9702113	98.714	22.694	-269.357	B5-03822-P02-CH0	1916504	OK	0.8434567	0.116855	-0.5243335	0	-96.477	-90.178	9.934	B5-03822-P02-CH1	1916504	OK	0.6703572	0.0564774	-0.7398862	0	-81.848	-69.89	-0.873	B5-03822-P03-CH0	1916504	OK	0.6744044	-0.3344939	-0.6582496	0	-90.618	-49.56	-1.616	B5-03822-P03-CH1	1916504	OK	0.7673113	-0.6406633	-0.0279983	0	-99.955	-20.64	-0.144	B5-03822-P04-CH0	1916504	OK	0.6763886	-0.2654844	0.6870346	0	-126.643	-27.652	14.472	B5-03822-P04-CH1	1916504	OK	0.7862173	-0.6137842	-0.071634	0	-111.665	-38.893	3.591	NA
0.0499590901652757	B5-03822-P01-CH0	1916512	OK	0.2033788	0.0550851	0.1197657	-0.970185	98.557	22.741	-269.325	B5-03822-P02-CH0	1916512	OK	0.8457086	0.1171281	-0.5206322	0	-96.107	-89.744	10.669	B5-03822-P02-CH1	1916512	OK	0.6711103	0.0662563	-0.7383909	0	-81.61	-70.027	-0.337	B5-03822-P03-CH0	1916512	OK	0.6700182	-0.3339245	-0.6630008	0	-90.253	-49.74	-0.955	B5-03822-P03-CH1	1916512	OK	0.7673309	-0.6406057	-0.028767	0	-99.898	-20.412	-0.074	B5-03822-P04-CH0	1916512	OK	0.6762346	-0.2598491	0.6893368	0	-127.733	-27.213	12.358	B5-03822-P04-CH1	1916512	OK	0.7865865	-0.6132672	-0.072007	0	-111.492	-38.825	3.63	NA
0.0599509081983309	B5-03822-P01-CH0	1916520	OK	0.2035254	0.0549248	0.1200945	-0.9701227	98.492	22.775	-269.189	B5-03822-P02-CH0	1916520	OK	0.8464888	0.1148847	-0.5198637	0	-96.621	-90.19	9.391	B5-03822-P02-CH1	1916520	OK	0.6721863	0.0739262	-0.736682	0	-81.311	-69.112	0.199	B5-03822-P03-CH0	1916520	OK	0.6681939	-0.3388377	-0.6623489	0	-89.714	-49.945	-1.695	B5-03822-P03-CH1	1916520	OK	0.7672109	-0.6407279	-0.029243	0	-99.727	-20.378	-0.131	B5-03822-P04-CH0	1916520	OK	0.6748037	-0.2548839	0.6925851	0	-127.137	-27.157	13.523	B5-03822-P04-CH1	1916520	OK	0.7868869	-0.6128676	-0.0721272	0	-111.372	-38.772	3.393	NA
0.069942726231386	B5-03822-P01-CH0	1916528	OK	0.203344	0.0551925	0.1198675	-0.9701736	98.597	22.813	-269.159	B5-03822-P02-CH0	1916528	OK	0.8486027	0.1142522	-0.5165462	0	-96.541	-90.229	9.53	B5-03822-P02-CH1	1916528	OK	0.6754237	0.0833801	-0.7327009	0	-80.565	-69.247	-0.774	B5-03822-P03-CH0	1916528	OK	0.6662572	-0.3467544	-0.660199	0	-90.364	-49.304	-1.706	B5-03822-P03-CH1	1916528	OK	0.7666875	-0.6412958	-0.0304948	0	-99.885	-20.305	-0.061	B5-03822-P04-CH0	1916528	OK	0.6746501	-0.2510614	0.6941292	0	-127.225	-26.116	13.891	B5-03822-P04-CH1	1916528	OK	0.7868909	-0.6127907	-0.0727338	0	-111.426	-38.723	3.512	NA
0.0799345442644412	B5-03822-P01-CH0	1916536	OK	0.2033331	0.0551935	0.1199083	-0.9701708	98.581	22.8	-269.053	B5-03822-P02-CH0	1916536	OK	0.8489204	0.1162841	-0.5155697	0	-97.025	-89.346	10.058	B5-03822-P02-CH1	1916536	OK	0.6762516	0.0913514	-0.7309847	0	-81	-69.097	0.452	B5-03822-P03-CH0	1916536	OK	0.6680987	-0.3564221	-0.6531519	0	-88.874	-49.458	-1.375	B5-03822-P03-CH1	1916536	OK	0.7664208	-0.6415718	-0.0313815	0	-99.821	-20.237	-0.101	B5-03822-P04-CH0	1916536	OK	0.6744711	-0.2445403	0.6966267	0	-127.359	-26.824	14.769	B5-03822-P04-CH1	1916536	OK	0.7870606	-0.6125383	-0.0730232	0	-111.416	-38.749	3.628	NA
0.0899263622974963	B5-03822-P01-CH0	1916544	OK	0.203109	0.0550399	0.1197493	-0.9702461	98.487	22.807	-268.897	B5-03822-P02-CH0	1916544	OK	0.8491347	0.1159085	-0.5153013	0	-97.747	-89.297	10.703	B5-03822-P02-CH1	1916544	OK	0.6785149	0.1007412	-0.727646	0	-81.347	-68.92	0.117	B5-03822-P03-CH0	1916544	OK	0.6680585	-0.3641598	-0.648911	0	-89.069	-49.284	-0.493	B5-03822-P03-CH1	1916544	OK	0.7660915	-0.6418998	-0.032687	0	-99.623	-20.075	-0.235	B5-03822-P04-CH0	1916544	OK	0.6729751	-0.2418643	0.6990037	0	-127.408	-26.673	12.467	B5-03822-P04-CH1	1916544	OK	0.7872371	-0.6122461	-0.0735695	0	-111.382	-38.562	3.642	NA
0.0999181803305515	B5-03822-P01-CH0	1916552	OK	0.2027895	0.0551707	0.1192467	-0.9703674	98.487	22.815	-268.81	B5-03822-P02-CH0	1916552	OK	0.8517853	0.1170917	-0.5106381	0	-97.228	-88.912	10.706	B5-03822-P02-CH1	1916552	OK	0.6806329	0.1092164	-0.7244381	0	-82.037	-69.661	-0.597	B5-03822-P03-CH0	1916552	OK	0.6696832	-0.3731509	-0.6420926	0	-89.034	-49.07	-1.694	B5-03822-P03-CH1	1916552	OK	0.7654911	-0.6425427	-0.0340927	0	-99.441	-19.983	-0.166	B5-03822-P04-CH0	1916552	OK	0.6730105	-0.2351639	0.7012523	0	-127.73	-27.523	14.049	B5-03822-P04-CH1	1916552	OK	0.7872189	-0.6122097	-0.0740656	0	-111.3	-38.369	3.637	NA
0.109909998363607	B5-03822-P01-CH0	1916560	OK	0.2027844	0.0551487	0.1188904	-0.9704134	98.438	22.822	-268.714	B5-03822-P02-CH0	1916560	OK	0.8540437	0.1186307	-0.506494	0	-96.815	-88.666	10.832	B5-03822-P02-CH1	1916560	OK	0.6847662	0.1177473	-0.7191877	0	-81.156	-69.307	-0.246	B5-03822-P03-CH0	1916560	OK	0.6726961	-0.382294	-0.6335071	0	-88.717	-49.262	-2.277	B5-03822-P03-CH1	1916560	OK	0.7651053	-0.6429376	-0.0352871	0	-99.34	-19.943	-0.158	B5-03822-P04-CH0	1916560	OK	0.6712012	-0.2371912	0.7023029	0	-127.331	-25.701	11.949	B5-03822-P04-CH1	1916560	OK	0.7869192	-0.6126006	-0.0740181	0	-111.302	-38.471	3.331	NA
0.119901816396662	B5-03822-P01-CH0	1916568	OK	0.2026667	0.0551605	0.1183918	-0.9704983	98.39	22.767	-268.549	B5-03822-P02-CH0	1916568	OK	0.8554097	0.1185287	-0.5042075	0	-96.922	-88.579	10.557	B5-03822-P02-CH1	1916568	OK	0.6878651	0.1252809	-0.7149449	0	-80.683	-69.096	-0.476	B5-03822-P03-CH0	1916568	OK	0.6765012	-0.3904343	-0.6244255	0	-88.656	-48.764	-2.063	B5-03822-P03-CH1	1916568	OK	0.7647476	-0.6432739	-0.0368755	0	-99.106	-19.83	-0.309	B5-03822-P04-CH0	1916568	OK	0.6699274	-0.2336306	0.7047084	0	-126.957	-25.968	12.216	B5-03822-P04-CH1	1916568	OK	0.7867212	-0.6128099	-0.0743895	0	-111.376	-38.465	3.247	NA
0.129893634429717	B5-03822-P01-CH0	1916576	OK	0.2024435	0.054956	0.1175897	-0.970654	98.25	22.701	-268.498	B5-03822-P02-CH0	1916576	OK	0.8561699	0.1175336	-0.5031491	0	-96.978	-88.743	10.949	B5-03822-P02-CH1	1916576	OK	0.6893282	0.1304241	-0.7126122	0	-80.856	-69.583	0.325	B5-03822-P03-CH0	1916576	OK	0.6787998	-0.3979375	-0.617152	0	-89.728	-48.725	-1.852	B5-03822-P03-CH1	1916576	OK	0.7641404	-0.6439016	-0.0384733	0	-99.02	-19.791	-0.366	B5-03822-P04-CH0	1916576	OK	0.6688294	-0.2298968	0.7069758	0	-126.863	-26.08	12.165	B5-03822-P04-CH1	1916576	OK	0.7864344	-0.6131564	-0.0745671	0	-111.208	-38.357	2.997	NA
0.139885452462772	B5-03822-P01-CH0	1916584	OK	0.202596	0.0546512	0.1182661	-0.9705572	98.1	22.731	-268.331	B5-03822-P02-CH0	1916584	OK	0.8558345	0.1177005	-0.5036803	0	-97.256	-88.369	10.94	B5-03822-P02-CH1	1916584	OK	0.691684	0.1334644	-0.7097609	0	-80.039	-69.86	-1.246	B5-03822-P03-CH0	1916584	OK	0.6846368	-0.4048321	-0.6061216	0	-88.959	-48.97	-1.868	B5-03822-P03-CH1	1916584	OK	0.7646321	-0.6432519	-0.0395569	0	-98.92	-19.615	-0.531	B5-03822-P04-CH0	1916584	OK	0.6690802	-0.2218381	0.7093092	0	-127.102	-27.435	13.663	B5-03822-P04-CH1	1916584	OK	0.7869504	-0.612585	-0.073815	0	-110.866	-38.423	2.822	NA
0.149877270495827	B5-03822-P01-CH0	1916592	OK	0.2024789	0.0548984	0.117687	-0.9706381	98.136	22.696	-268.217	B5-03822-P02-CH0	1916592	OK	0.8570266	0.1175616	-0.5016819	0	-96.611	-88.277	10.636	B5-03822-P02-CH1	1916592	OK	0.6917295	0.1336814	-0.7096757	0	-80.056	-69.141	-1.278	B5-03822-P03-CH0	1916592	OK	0.6911025	-0.4135389	-0.5927588	0	-88.791	-49.504	-2.678	B5-03822-P03-CH1	1916592	OK	0.764183	-0.6437064	-0.0408228	0	-98.872	-19.674	-0.47	B5-03822-P04-CH0	1916592	OK	0.6689048	-0.2223302	0.7093206	0	-126.903	-26.404	14.195	B5-03822-P04-CH1	1916592	OK	0.7867446	-0.6128541	-0.0737751	0	-110.898	-38.405	2.854	NA
0.159869088528882	B5-03822-P01-CH0	1916600	OK	0.2023387	0.0553238	0.1170029	-0.9707258	98.28	22.656	-268.266	B5-03822-P02-CH0	1916600	OK	0.8550636	0.1154123	-0.5055159	0	-97.42	-88.792	11.761	B5-03822-P02-CH1	1916600	OK	0.6903919	0.1325024	-0.7111977	0	-80.571	-68.794	0.268	B5-03822-P03-CH0	1916600	OK	0.6992176	-0.4248671	-0.5749632	0	-89.653	-50.053	-1.619	B5-03822-P03-CH1	1916600	OK	0.7637172	-0.6441829	-0.0420056	0	-99.01	-19.721	-0.199	B5-03822-P04-CH0	1916600	OK	0.6689485	-0.2228597	0.7091131	0	-126.771	-26.148	14.063	B5-03822-P04-CH1	1916600	OK	0.7863999	-0.6132833	-0.073884	0	-111.081	-38.46	3.048	NA
0.169860906561938	B5-03822-P01-CH0	1916608	OK	0.2024621	0.0552558	0.1170705	-0.9706958	98.213	22.659	-268.199	B5-03822-P02-CH0	1916608	OK	0.8546487	0.1184371	-0.5055179	0	-97.32	-88.304	10.676	B5-03822-P02-CH1	1916608	OK	0.6914482	0.1304019	-0.7105594	0	-79.492	-69.547	-1.104	B5-03822-P03-CH0	1916608	OK	0.70977	-0.4385865	-0.5512426	0	-90.264	-50.474	-1.645	B5-03822-P03-CH1	1916608	OK	0.763784	-0.6440704	-0.0425127	0	-98.858	-19.643	-0.375	B5-03822-P04-CH0	1916608	OK	0.6700614	-0.2221439	0.7082865	0	-127.014	-25.894	13.845	B5-03822-P04-CH1	1916608	OK	0.7864782	-0.6132595	-0.0732451	0	-111.088	-38.509	2.935	NA
0.179852724594993	B5-03822-P01-CH0	1916616	OK	0.2021632	0.0553914	0.1161812	-0.9708572	98.168	22.504	-268.059	B5-03822-P02-CH0	1916616	OK	0.8541601	0.1164374	-0.5068066	0	-97.257	-89.399	10.451	B5-03822-P02-CH1	1916616	OK	0.6887074	0.1274996	-0.7137408	0	-80.333	-70.489	0.29	B5-03822-P03-CH0	1916616	OK	0.7213568	-0.4499272	-0.5265072	0	-90.752	-50.587	-1.382	B5-03822-P03-CH1	1916616	OK	0.7631164	-0.6448074	-0.0433221	0	-98.682	-19.688	-0.638	B5-03822-P04-CH0	1916616	OK	0.6701104	-0.2261865	0.7069595	0	-127.242	-26.899	13.233	B5-03822-P04-CH1	1916616	OK	0.7859299	-0.6139784	-0.0731079	0	-111.045	-38.578	2.693	NA
0.189844542628048	B5-03822-P01-CH0	1916624	OK	0.2020275	0.0556446	0.1155926	-0.9709412	98.197	22.503	-268.037	B5-03822-P02-CH0	1916624	OK	0.8527878	0.1188338	-0.5085583	0	-96.814	-88.981	11.185	B5-03822-P02-CH1	1916624	OK	0.689963	0.1238082	-0.7131778	0	-78.738	-69.744	-0.932	B5-03822-P03-CH0	1916624	OK	0.7332394	-0.4592961	-0.5014051	0	-91.433	-50.547	-0.637	B5-03822-P03-CH1	1916624	OK	0.7625962	-0.6453992	-0.0436688	0	-98.787	-19.715	-0.605	B5-03822-P04-CH0	1916624	OK	0.6699531	-0.2250401	0.7074742	0	-127.252	-26.725	13.401	B5-03822-P04-CH1	1916624	OK	0.7855294	-0.6145165	-0.07289	0	-111.139	-38.635	2.689	NA
0.199836360661103	B5-03822-P01-CH0	1916632	OK	0.2018885	0.0554759	0.1154963	-0.9709913	98.111	22.425	-268.05	B5-03822-P02-CH0	1916632	OK	0.8522028	0.1221093	-0.5087629	0	-96.011	-88.832	10.44	B5-03822-P02-CH1	1916632	OK	0.6877289	0.1189943	-0.716149	0	-79.345	-69.513	-0.143	B5-03822-P03-CH0	1916632	OK	0.7439962	-0.4660406	-0.4788276	0	-91.567	-51.413	0.133	B5-03822-P03-CH1	1916632	OK	0.7624619	-0.645545	-0.0438588	0	-98.741	-19.742	-0.664	B5-03822-P04-CH0	1916632	OK	0.6697442	-0.2246352	0.7078007	0	-127.094	-26.578	13.335	B5-03822-P04-CH1	1916632	OK	0.7854393	-0.6146677	-0.0725858	0	-111.139	-38.739	2.67	NA
0.209828178694158	B5-03822-P01-CH0	1916640	OK	0.2017825	0.0556231	0.1157527	-0.9709743	98.108	22.452	-267.967	B5-03822-P02-CH0	1916640	OK	0.8504981	0.1236933	-0.511227	0	-95.62	-89.465	10.117	B5-03822-P02-CH1	1916640	OK	0.6874485	0.1143694	-0.7171709	0	-79.233	-70.253	-1.058	B5-03822-P03-CH0	1916640	OK	0.7519702	-0.469912	-0.4623024	0	-91.768	-51.834	0.774	B5-03822-P03-CH1	1916640	OK	0.7623849	-0.6456417	-0.043773	0	-98.737	-19.87	-0.426	B5-03822-P04-CH0	1916640	OK	0.6700496	-0.2243263	0.7076096	0	-127.054	-26.508	13.457	B5-03822-P04-CH1	1916640	OK	0.7857488	-0.6142928	-0.0724105	0	-111.305	-38.638	2.894	NA
0.219819996727213	B5-03822-P01-CH0	1916648	OK	0.2016755	0.0559205	0.1154599	-0.9710144	98.168	22.374	-267.929	B5-03822-P02-CH0	1916648	OK	0.8472615	0.1266274	-0.5158618	0	-95.933	-89.375	10.358	B5-03822-P02-CH1	1916648	OK	0.6876001	0.1093116	-0.7178141	0	-79.119	-70.104	-1.288	B5-03822-P03-CH0	1916648	OK	0.7569727	-0.4716439	-0.4522659	0	-91.687	-52.264	1.391	B5-03822-P03-CH1	1916648	OK	0.7620206	-0.6460792	-0.0436615	0	-98.85	-19.995	-0.409	B5-03822-P04-CH0	1916648	OK	0.6702594	-0.2249066	0.7072266	0	-126.963	-26.468	13.636	B5-03822-P04-CH1	1916648	OK	0.7853867	-0.6148092	-0.0719536	0	-111.312	-38.883	3.027	NA
0.229811814760268	B5-03822-P01-CH0	1916656	OK	0.2015745	0.0562224	0.1157108	-0.970988	98.254	22.389	-267.842	B5-03822-P02-CH0	1916656	OK	0.8440993	0.1284341	-0.5205776	0	-96.394	-89.469	10.558	B5-03822-P02-CH1	1916656	OK	0.6891179	0.1011434	-0.717556	0	-78.425	-69.831	-0.587	B5-03822-P03-CH0	1916656	OK	0.7581757	-0.4698152	-0.4521539	0	-92.64	-52.231	0.252	B5-03822-P03-CH1	1916656	OK	0.7620204	-0.6460677	-0.0438328	0	-98.926	-20.035	-0.29	B5-03822-P04-CH0	1916656	OK	0.6709749	-0.2263273	0.7060939	0	-126.991	-26.274	13.783	B5-03822-P04-CH1	1916656	OK	0.7855056	-0.6146796	-0.0717631	0	-111.481	-38.932	3.216	NA
0.239803632793324	B5-03822-P01-CH0	1916664	OK	0.2016263	0.0564324	0.1159448	-0.9709372	98.314	22.45	-267.846	B5-03822-P02-CH0	1916664	OK	0.843292	0.131903	-0.5210185	0	-95.728	-89.072	9.668	B5-03822-P02-CH1	1916664	OK	0.6888522	0.0941903	-0.7187564	0	-78.936	-70.585	-0.408	B5-03822-P03-CH0	1916664	OK	0.7552233	-0.4653221	-0.4616417	0	-93.567	-51.963	-0.021	B5-03822-P03-CH1	1916664	OK	0.7620864	-0.6459893	-0.0438427	0	-98.984	-20.048	-0.168	B5-03822-P04-CH0	1916664	OK	0.6717011	-0.2280124	0.7048603	0	-126.983	-26.123	13.846	B5-03822-P04-CH1	1916664	OK	0.7856989	-0.6144379	-0.0717168	0	-111.663	-38.836	3.299	NA
0.249795450826379	B5-03822-P01-CH0	1916672	OK	0.2017941	0.056521	0.1163544	-0.9708482	98.391	22.494	-267.856	B5-03822-P02-CH0	1916672	OK	0.8408735	0.1326433	-0.5247261	0	-95.661	-89.636	9.787	B5-03822-P02-CH1	1916672	OK	0.6889671	0.0868514	-0.7195701	0	-78.83	-70.004	-0.642	B5-03822-P03-CH0	1916672	OK	0.7481094	-0.4606724	-0.4776121	0	-92.466	-52.684	0.11	B5-03822-P03-CH1	1916672	OK	0.7623307	-0.6457055	-0.0437758	0	-99.04	-20.023	-0.26	B5-03822-P04-CH0	1916672	OK	0.6753538	-0.2388208	0.6977549	0	-127.002	-26.436	13.226	B5-03822-P04-CH1	1916672	OK	0.7858952	-0.6142255	-0.0713847	0	-111.852	-38.944	3.441	NA
0.259787268859434	B5-03822-P01-CH0	1916680	OK	0.2015495	0.0563392	0.1162011	-0.9709279	98.283	22.509	-267.778	B5-03822-P02-CH0	1916680	OK	0.8387958	0.1347106	-0.5275175	0	-95.838	-89.342	10.022	B5-03822-P02-CH1	1916680	OK	0.6888046	0.0816029	-0.7203396	0	-78.695	-69.845	-0.444	B5-03822-P03-CH0	1916680	OK	0.7363118	-0.4513934	-0.5040724	0	-91.298	-52.243	-1.088	B5-03822-P03-CH1	1916680	OK	0.7620613	-0.6459959	-0.0441785	0	-99.023	-19.979	-0.426	B5-03822-P04-CH0	1916680	OK	0.6762827	-0.2412679	0.6960111	0	-127.046	-26.834	13.449	B5-03822-P04-CH1	1916680	OK	0.785947	-0.6141555	-0.0714166	0	-111.733	-38.811	3.535	NA
0.269779086892489	B5-03822-P01-CH0	1916688	OK	0.2014378	0.0561957	0.116256	-0.9709528	98.221	22.514	-267.642	B5-03822-P02-CH0	1916688	OK	0.8387026	0.1356787	-0.5274176	0	-95.558	-88.938	10.183	B5-03822-P02-CH1	1916688	OK	0.6883289	0.0747363	-0.7215385	0	-78.747	-69.788	-0.418	B5-03822-P03-CH0	1916688	OK	0.720472	-0.4367931	-0.538639	0	-91.441	-51.665	-1.042	B5-03822-P03-CH1	1916688	OK	0.7620435	-0.6459882	-0.0445972	0	-98.955	-19.941	-0.519	B5-03822-P04-CH0	1916688	OK	0.6771617	-0.2458332	0.6935547	0	-127.267	-26.036	13.165	B5-03822-P04-CH1	1916688	OK	0.7860829	-0.6139344	-0.0718209	0	-111.788	-38.662	3.547	NA
0.279770904925544	B5-03822-P01-CH0	1916696	OK	0.2017707	0.0561157	0.1172489	-0.9707689	98.244	22.685	-267.683	B5-03822-P02-CH0	1916696	OK	0.8391782	0.1353822	-0.5267367	0	-95.56	-89.044	9.638	B5-03822-P02-CH1	1916696	OK	0.6895128	0.0691138	-0.7209683	0	-78.193	-69.918	-1.874	B5-03822-P03-CH0	1916696	OK	0.7048909	-0.4238241	-0.5687724	0	-90.489	-51.087	-1.925	B5-03822-P03-CH1	1916696	OK	0.7627112	-0.6452075	-0.0444849	0	-99.044	-19.905	-0.285	B5-03822-P04-CH0	1916696	OK	0.6767063	-0.248299	0.6931206	0	-126.797	-26.203	13.49	B5-03822-P04-CH1	1916696	OK	0.7867689	-0.6130707	-0.0716868	0	-111.926	-38.542	3.676	NA
0.289762722958599	B5-03822-P01-CH0	1916704	OK	0.2021608	0.0559219	0.1182589	-0.9705764	98.199	22.803	-267.598	B5-03822-P02-CH0	1916704	OK	0.8408006	0.1342334	-0.5244386	0	-95.456	-88.814	9.196	B5-03822-P02-CH1	1916704	OK	0.6884754	0.0654899	-0.7222969	0	-78.93	-69.589	-1.508	B5-03822-P03-CH0	1916704	OK	0.6904796	-0.4115749	-0.5948479	0	-88.775	-50.187	-0.77	B5-03822-P03-CH1	1916704	OK	0.7634757	-0.6443077	-0.0444136	0	-98.959	-19.844	-0.41	B5-03822-P04-CH0	1916704	OK	0.6773289	-0.2499803	0.691907	0	-126.738	-26.05	12.812	B5-03822-P04-CH1	1916704	OK	0.787521	-0.6121628	-0.0711856	0	-111.918	-38.441	3.592	NA
0.299754540991654	B5-03822-P01-CH0	1916712	OK	0.202367	0.0559668	0.1185426	-0.9704962	98.228	22.84	-267.48	B5-03822-P02-CH0	1916712	OK	0.8449092	0.1319195	-0.5183875	0	-94.631	-88.184	8.261	B5-03822-P02-CH1	1916712	OK	0.6896231	0.0648014	-0.7212633	0	-78.453	-69.241	-0.736	B5-03822-P03-CH0	1916712	OK	0.676946	-0.4044007	-0.614983	0	-88.381	-49.83	-1.28	B5-03822-P03-CH1	1916712	OK	0.7638956	-0.6438009	-0.0445403	0	-98.973	-19.805	-0.493	B5-03822-P04-CH0	1916712	OK	0.6757821	-0.242915	0.6959245	0	-126.749	-25.568	13.026	B5-03822-P04-CH1	1916712	OK	0.7877703	-0.6118444	-0.0711642	0	-112.066	-38.362	3.583	NA
0.30974635902471	B5-03822-P01-CH0	1916720	OK	0.2024656	0.0560189	0.1187571	-0.9704464	98.263	22.879	-267.397	B5-03822-P02-CH0	1916720	OK	0.8476945	0.1289586	-0.5145714	0	-94.298	-88.137	9.741	B5-03822-P02-CH1	1916720	OK	0.6906788	0.0644958	-0.7202799	0	-78.526	-69.237	-2.111	B5-03822-P03-CH0	1916720	OK	0.6679628	-0.4027507	-0.6257935	0	-88.594	-49.215	-2.106	B5-03822-P03-CH1	1916720	OK	0.7643705	-0.6432108	-0.0449183	0	-99.011	-19.622	-0.837	B5-03822-P04-CH0	1916720	OK	0.6764891	-0.2450658	0.694482	0	-126.758	-25.569	13.108	B5-03822-P04-CH1	1916720	OK	0.7878403	-0.6117721	-0.0710101	0	-111.961	-38.379	3.37	NA
0.319738177057765	B5-03822-P01-CH0	1916728	OK	0.2028318	0.055844	0.1191692	-0.9703295	98.238	22.96	-267.351	B5-03822-P02-CH0	1916728	OK	0.849008	0.1266659	-0.5129728	0	-94.798	-88.288	9.275	B5-03822-P02-CH1	1916728	OK	0.6911639	0.0661071	-0.7196682	0	-78.447	-67.779	-1.547	B5-03822-P03-CH0	1916728	OK	0.663906	-0.4046252	-0.6288937	0	-87.833	-48.684	-1.376	B5-03822-P03-CH1	1916728	OK	0.765012	-0.6424744	-0.0445344	0	-98.863	-19.621	-0.853	B5-03822-P04-CH0	1916728	OK	0.6772243	-0.2462441	0.6933477	0	-126.858	-25.757	13.052	B5-03822-P04-CH1	1916728	OK	0.7883182	-0.6111937	-0.0706874	0	-111.93	-38.247	3.267	NA
0.32972999509082	B5-03822-P01-CH0	1916736	OK	0.2028831	0.0556142	0.1191511	-0.9703342	98.175	23.015	-267.399	B5-03822-P02-CH0	1916736	OK	0.8511233	0.1216172	-0.5106842	0	-95.111	-88.532	10.139	B5-03822-P02-CH1	1916736	OK	0.6924835	0.0683325	-0.7181903	0	-78.161	-68.213	-1.423	B5-03822-P03-CH0	1916736	OK	0.6605934	-0.4099647	-0.6289239	0	-87.649	-48.671	-0.928	B5-03822-P03-CH1	1916736	OK	0.7653995	-0.6420267	-0.0443313	0	-98.82	-19.539	-0.992	B5-03822-P04-CH0	1916736	OK	0.6773013	-0.2480986	0.6926111	0	-126.743	-25.762	12.994	B5-03822-P04-CH1	1916736	OK	0.7883389	-0.6111845	-0.0705366	0	-111.874	-38.259	3.358	NA
0.339721813123875	B5-03822-P01-CH0	1916744	OK	0.2026166	0.0558286	0.1181816	-0.9704961	98.217	22.877	-267.278	B5-03822-P02-CH0	1916744	OK	0.8541892	0.1225227	-0.5053207	0	-94.971	-87.07	10.35	B5-03822-P02-CH1	1916744	OK	0.6900063	0.069784	-0.7204314	0	-78.79	-69.071	-1.482	B5-03822-P03-CH0	1916744	OK	0.6586087	-0.4155133	-0.6273622	0	-86.765	-49.435	-1.261	B5-03822-P03-CH1	1916744	OK	0.7650445	-0.6424438	-0.044417	0	-98.739	-19.682	-1.124	B5-03822-P04-CH0	1916744	OK	0.6774413	-0.2499994	0.6917901	0	-126.801	-25.881	12.907	B5-03822-P04-CH1	1916744	OK	0.7877243	-0.6119432	-0.0708238	0	-111.917	-38.345	3.362	NA
0.34971363115693	B5-03822-P01-CH0	1916752	OK	0.202645	0.0558389	0.1182621	-0.9704798	98.193	22.874	-267.245	B5-03822-P02-CH0	1916752	OK	0.8561099	0.1176735	-0.5032185	0	-95.217	-87.511	10.114	B5-03822-P02-CH1	1916752	OK	0.6941179	0.073455	-0.7161038	0	-78.322	-68.095	-0.359	B5-03822-P03-CH0	1916752	OK	0.6575103	-0.424251	-0.6226487	0	-87.666	-48.447	-1.202	B5-03822-P03-CH1	1916752	OK	0.7655291	-0.6418886	-0.0440932	0	-98.869	-19.725	-1.034	B5-03822-P04-CH0	1916752	OK	0.6777874	-0.2512296	0.6910051	0	-126.881	-26.047	12.797	B5-03822-P04-CH1	1916752	OK	0.7877852	-0.6118682	-0.0707946	0	-111.947	-38.292	3.236	NA
0.359705449189985	B5-03822-P01-CH0	1916760	OK	0.2025059	0.0561056	0.1175485	-0.9705802	98.229	22.796	-267.234	B5-03822-P02-CH0	1916760	OK	0.8581806	0.1148723	-0.5003302	0	-95.257	-87.365	10.362	B5-03822-P02-CH1	1916760	OK	0.6939673	0.0779533	-0.7157741	0	-78.907	-68.442	0.407	B5-03822-P03-CH0	1916760	OK	0.6590294	-0.4308219	-0.6165003	0	-87.526	-47.851	-0.933	B5-03822-P03-CH1	1916760	OK	0.7681747	-0.6388502	-0.0421661	0	-100.853	-20.363	1.011	B5-03822-P04-CH0	1916760	OK	0.6779324	-0.2525918	0.6903659	0	-126.92	-26.173	12.885	B5-03822-P04-CH1	1916760	OK	0.7872601	-0.6125213	-0.0709872	0	-112.003	-38.426	3.34	NA
0.36969726722304	B5-03822-P01-CH0	1916768	OK	0.2024994	0.0561799	0.117315	-0.9706055	98.203	22.74	-267.194	B5-03822-P02-CH0	1916768	OK	0.8592082	0.111082	-0.4994218	0	-95.569	-87.742	11.249	B5-03822-P02-CH1	1916768	OK	0.6961049	0.0822811	-0.7132095	0	-78.463	-68.559	-1.984	B5-03822-P03-CH0	1916768	OK	0.664356	-0.4346599	-0.6080312	0	-86.451	-48.853	-0.064	B5-03822-P03-CH1	1916768	OK	0.7678626	-0.6393545	-0.0401602	0	-98.685	-20.518	-1.075	B5-03822-P04-CH0	1916768	OK	0.678132	-0.2538217	0.6897185	0	-126.888	-26.266	12.898	B5-03822-P04-CH1	1916768	OK	0.787003	-0.6128998	-0.07057	0	-111.916	-38.597	3.292	NA
0.379689085256096	B5-03822-P01-CH0	1916776	OK	0.2022563	0.0561687	0.1165683	-0.9707468	98.126	22.596	-267.076	B5-03822-P02-CH0	1916776	OK	0.8601525	0.1107621	-0.4978648	0	-95.819	-87.518	10.228	B5-03822-P02-CH1	1916776	OK	0.6968554	0.089868	-0.7115591	0	-78.58	-68.379	-1.547	B5-03822-P03-CH0	1916776	OK	0.6731347	-0.4367262	-0.5967914	0	-86.655	-49.697	-1.875	B5-03822-P03-CH1	1916776	OK	0.7684693	-0.6386478	-0.0397987	0	-98.113	-20.675	0.384	B5-03822-P04-CH0	1916776	OK	0.6781542	-0.2555837	0.6890457	0	-126.909	-26.252	12.668	B5-03822-P04-CH1	1916776	OK	0.7865501	-0.6134917	-0.0704767	0	-111.727	-38.68	3.158	NA
0.389680903289151	B5-03822-P01-CH0	1916784	OK	0.2019417	0.0563108	0.1156851	-0.9709097	98.109	22.429	-266.995	B5-03822-P02-CH0	1916784	OK	0.8594326	0.1094305	-0.4994001	0	-96.587	-87.208	10.356	B5-03822-P02-CH1	1916784	OK	0.6969217	0.0961746	-0.7106691	0	-79.439	-69.134	0.497	B5-03822-P03-CH0	1916784	OK	0.6863073	-0.4348503	-0.5829987	0	-88.23	-49.945	-1.273	B5-03822-P03-CH1	1916784	OK	0.7682173	-0.6390418	-0.038312	0	-98.733	-21.163	1.097	B5-03822-P04-CH0	1916784	OK	0.6782768	-0.2570102	0.688394	0	-126.99	-26.343	12.658	B5-03822-P04-CH1	1916784	OK	0.7860496	-0.6140981	-0.0707786	0	-111.708	-38.749	3.276	NA
0.399672721322206	B5-03822-P01-CH0	1916792	OK	0.2017666	0.056519	0.1154238	-0.9709651	98.116	22.427	-266.923	B5-03822-P02-CH0	1916792	OK	0.8596938	0.1063745	-0.4996109	0	-96.449	-87.764	10.88	B5-03822-P02-CH1	1916792	OK	0.6985178	0.1007966	-0.7084581	0	-79.739	-69.599	0.409	B5-03822-P03-CH0	1916792	OK	0.7031889	-0.4329213	-0.5640075	0	-90.104	-50.668	-0.747	B5-03822-P03-CH1	1916792	OK	0.7691666	-0.6380037	-0.0365231	0	-98.576	-20.18	0.113	B5-03822-P04-CH0	1916792	OK	0.6786526	-0.2578283	0.6877174	0	-127.116	-26.513	12.87	B5-03822-P04-CH1	1916792	OK	0.7857751	-0.6144665	-0.0706289	0	-111.647	-38.851	3.31	NA
0.409664539355261	B5-03822-P01-CH0	1916800	OK	0.2018167	0.0563807	0.1155925	-0.9709427	98.015	22.43	-266.875	B5-03822-P02-CH0	1916800	OK	0.8598079	0.1016619	-0.500395	0	-96.228	-88.739	9.532	B5-03822-P02-CH1	1916800	OK	0.7007647	0.1029006	-0.7059322	0	-79.559	-70.165	-0.788	B5-03822-P03-CH0	1916800	OK	0.72107	-0.4323894	-0.5413848	0	-90.886	-51.309	-1.45	B5-03822-P03-CH1	1916800	OK	0.7671596	-0.6401615	-0.0407357	0	-98.693	-20.119	-0.936	B5-03822-P04-CH0	1916800	OK	0.6788057	-0.2592632	0.6870265	0	-127.177	-26.503	12.566	B5-03822-P04-CH1	1916800	OK	0.7859777	-0.6142267	-0.0704603	0	-111.714	-38.785	3.287	NA
0.419656357388316	B5-03822-P01-CH0	1916808	OK	0.2016783	0.0567463	0.1155539	-0.9709547	98.059	22.485	-266.717	B5-03822-P02-CH0	1916808	OK	0.8571022	0.0947968	-0.5063491	0	-96.77	-90.067	10.036	B5-03822-P02-CH1	1916808	OK	0.7002451	0.1043784	-0.7062308	0	-80.432	-70.528	0.538	B5-03822-P03-CH0	1916808	OK	0.7349114	-0.4325779	-0.522285	0	-92.422	-51.275	-0.622	B5-03822-P03-CH1	1916808	OK	0.7674398	-0.6398753	-0.0399483	0	-98.928	-20.142	-0.926	B5-03822-P04-CH0	1916808	OK	0.679123	-0.2605476	0.6862266	0	-127.295	-26.448	12.474	B5-03822-P04-CH1	1916808	OK	0.7858706	-0.6143571	-0.0705175	0	-111.97	-38.735	3.277	NA
0.429648175421371	B5-03822-P01-CH0	1916816	OK	0.2016107	0.0568739	0.1153617	-0.9709841	98.018	22.41	-266.567	B5-03822-P02-CH0	1916816	OK	0.8557717	0.0937888	-0.5087814	0	-96.241	-90.022	9.528	B5-03822-P02-CH1	1916816	OK	0.7005175	0.1037575	-0.7060522	0	-80.556	-70.835	-0.301	B5-03822-P03-CH0	1916816	OK	0.7461994	-0.4415615	-0.4982068	0	-92.473	-52.579	0.951	B5-03822-P03-CH1	1916816	OK	0.7677065	-0.6396211	-0.0388783	0	-98.959	-20.259	-0.792	B5-03822-P04-CH0	1916816	OK	0.6796006	-0.2612627	0.6854814	0	-127.38	-26.661	12.661	B5-03822-P04-CH1	1916816	OK	0.7857507	-0.6145413	-0.0702483	0	-112.013	-38.776	3.182	NA
0.439639993454426	B5-03822-P01-CH0	1916824	OK	0.2017495	0.0569832	0.1155447	-0.9709271	97.994	22.472	-266.455	B5-03822-P02-CH0	1916824	OK	0.8522367	0.0926632	-0.5148845	0	-96.63	-89.961	9.181	B5-03822-P02-CH1	1916824	OK	0.7005098	0.1015647	-0.7063786	0	-80.324	-71.168	-1.728	B5-03822-P03-CH0	1916824	OK	0.7563792	-0.4483824	-0.4762811	0	-93.589	-53.017	0.49	B5-03822-P03-CH1	1916824	OK	0.7681281	-0.6392002	-0.0374474	0	-99.039	-20.307	-0.802	B5-03822-P04-CH0	1916824	OK	0.6799148	-0.2620556	0.6848669	0	-127.452	-26.704	12.451	B5-03822-P04-CH1	1916824	OK	0.7858034	-0.6145491	-0.0695881	0	-112.098	-38.833	3.117	NA
0.449631811487482	B5-03822-P01-CH0	1916832	OK	0.2015047	0.0572159	0.1148404	-0.9710478	98.017	22.412	-266.345	B5-03822-P02-CH0	1916832	OK	0.8480343	0.0916601	-0.5219543	0	-97.305	-90.154	9.327	B5-03822-P02-CH1	1916832	OK	0.6991217	0.1010934	-0.7078199	0	-79.832	-71.134	-1.707	B5-03822-P03-CH0	1916832	OK	0.7651958	-0.4532558	-0.4572029	0	-93.709	-53.367	0.175	B5-03822-P03-CH1	1916832	OK	0.767836	-0.6396063	-0.0364923	0	-98.9	-20.456	-0.832	B5-03822-P04-CH0	1916832	OK	0.6801377	-0.2632208	0.6841985	0	-127.566	-26.699	12.468	B5-03822-P04-CH1	1916832	OK	0.7854638	-0.6149964	-0.0694702	0	-112.113	-38.854	3.201	NA
0.459623629520537	B5-03822-P01-CH0	1916840	OK	0.2017651	0.0571771	0.1158155	-0.9708802	98.003	22.536	-266.266	B5-03822-P02-CH0	1916840	OK	0.8465404	0.0922708	-0.5242666	0	-97.027	-90.253	8.242	B5-03822-P02-CH1	1916840	OK	0.6978028	0.101328	-0.7090867	0	-78.948	-71.395	-1.702	B5-03822-P03-CH0	1916840	OK	0.7713861	-0.4554418	-0.4444505	0	-93.987	-53.718	1.223	B5-03822-P03-CH1	1916840	OK	0.7687752	-0.63855	-0.035193	0	-98.775	-20.443	-0.626	B5-03822-P04-CH0	1916840	OK	0.6808124	-0.2636314	0.6833688	0	-127.699	-26.746	12.507	B5-03822-P04-CH1	1916840	OK	0.7861289	-0.6142139	-0.0688673	0	-112.243	-38.778	3.142	NA
0.469615447553592	B5-03822-P01-CH0	1916848	OK	0.2019288	0.0570543	0.1163059	-0.9707948	97.923	22.633	-266.197	B5-03822-P02-CH0	1916848	OK	0.8471991	0.0914243	-0.5233501	0	-95.972	-90.734	7.949	B5-03822-P02-CH1	1916848	OK	0.6946619	0.1026418	-0.7119757	0	-79.324	-72.303	-1.88	B5-03822-P03-CH0	1916848	OK	0.7763102	-0.4565659	-0.4346148	0	-94.146	-53.803	1.149	B5-03822-P03-CH1	1916848	OK	0.7691705	-0.6381439	-0.0338987	0	-98.874	-20.49	-0.648	B5-03822-P04-CH0	1916848	OK	0.6812488	-0.263523	0.6829756	0	-127.814	-26.918	12.585	B5-03822-P04-CH1	1916848	OK	0.7866316	-0.6136357	-0.0682777	0	-112.252	-38.648	3.09	NA
0.479607265586647	B5-03822-P01-CH0	1916856	OK	0.2021504	0.0568729	0.1170774	-0.9706666	97.814	22.754	-266.175	B5-03822-P02-CH0	1916856	OK	0.8474715	0.095288	-0.5222186	0	-95.204	-89.85	7.088	B5-03822-P02-CH1	1916856	OK	0.6918404	0.1035394	-0.7145884	0	-79.455	-71.109	-1.528	B5-03822-P03-CH0	1916856	OK	0.7813251	-0.455561	-0.426609	0	-93.466	-53.803	2.068	B5-03822-P03-CH1	1916856	OK	0.7697816	-0.6374692	-0.032701	0	-98.859	-20.411	-0.663	B5-03822-P04-CH0	1916856	OK	0.6816386	-0.2635855	0.6825624	0	-127.815	-26.974	12.505	B5-03822-P04-CH1	1916856	OK	0.7870889	-0.6131224	-0.0676166	0	-112.295	-38.647	2.978	NA
0.489599083619702	B5-03822-P01-CH0	1916864	OK	0.2019136	0.0570235	0.1165941	-0.9707652	97.823	22.74	-266.099	B5-03822-P02-CH0	1916864	OK	0.8470851	0.0944615	-0.5229951	0	-95.35	-89.611	7.832	B5-03822-P02-CH1	1916864	OK	0.6904311	0.1041105	-0.7158672	0	-79.464	-70.345	-1.292	B5-03822-P03-CH0	1916864	OK	0.7837313	-0.4542543	-0.4235779	0	-93.577	-53.896	2.04	B5-03822-P03-CH1	1916864	OK	0.7693606	-0.6379958	-0.032336	0	-98.93	-20.498	-0.66	B5-03822-P04-CH0	1916864	OK	0.6816566	-0.2644311	0.6822173	0	-127.807	-27.002	12.631	B5-03822-P04-CH1	1916864	OK	0.7866955	-0.6136499	-0.0674096	0	-112.373	-38.752	2.973	NA
0.499590901652757	B5-03822-P01-CH0	1916872	OK	0.2019212	0.0570688	0.1168396	-0.9707314	97.813	22.789	-266.008	B5-03822-P02-CH0	1916872	OK	0.8466411	0.0921175	-0.5241309	0	-95.7	-89.634	7.552	B5-03822-P02-CH1	1916872	OK	0.6910914	0.104865	-0.7151196	0	-78.667	-70.542	-2.294	B5-03822-P03-CH0	1916872	OK	0.7852994	-0.4512871	-0.4238453	0	-93.865	-53.613	3.236	B5-03822-P03-CH1	1916872	OK	0.7693463	-0.6380515	-0.0315677	0	-99.073	-20.64	-0.62	B5-03822-P04-CH0	1916872	OK	0.6821371	-0.2648454	0.681576	0	-127.95	-26.939	12.565	B5-03822-P04-CH1	1916872	OK	0.7870414	-0.6132227	-0.0672583	0	-112.487	-38.593	2.894	NA
0.509582719685812	B5-03822-P01-CH0	1916880	OK	0.2015902	0.0573481	0.1162223	-0.9708578	97.85	22.776	-265.931	B5-03822-P02-CH0	1916880	OK	0.8474102	0.0884557	-0.5235184	0	-95.663	-89.672	7.948	B5-03822-P02-CH1	1916880	OK	0.6897071	0.1061526	-0.7162651	0	-79.573	-71.019	-2.138	B5-03822-P03-CH0	1916880	OK	0.784353	-0.447867	-0.4291917	0	-93.776	-53.824	2.649	B5-03822-P03-CH1	1916880	OK	0.7688448	-0.6386646	-0.0313896	0	-99.127	-20.715	-0.547	B5-03822-P04-CH0	1916880	OK	0.6821587	-0.2655504	0.68128	0	-127.941	-26.97	12.79	B5-03822-P04-CH1	1916880	OK	0.7866108	-0.613744	-0.0675407	0	-112.661	-38.581	2.932	NA
0.519574537718868	B5-03822-P01-CH0	1916888	OK	0.2012656	0.0573977	0.1156683	-0.9709884	97.847	22.712	-266.001	B5-03822-P02-CH0	1916888	OK	0.8488845	0.0820524	-0.522171	0	-95.371	-90.509	8.543	B5-03822-P02-CH1	1916888	OK	0.690259	0.1073816	-0.7155499	0	-79.621	-70.508	-1.442	B5-03822-P03-CH0	1916888	OK	0.7825484	-0.4424851	-0.4379783	0	-92.962	-54.144	1.958	B5-03822-P03-CH1	1916888	OK	0.7684032	-0.639201	-0.0312837	0	-99.156	-20.823	-0.336	B5-03822-P04-CH0	1916888	OK	0.6820277	-0.2668032	0.6809216	0	-127.893	-26.886	12.875	B5-03822-P04-CH1	1916888	OK	0.7863691	-0.6140371	-0.0676918	0	-112.571	-38.611	3.181	NA
0.529566355751923	B5-03822-P01-CH0	1916896	OK	0.2011525	0.0575083	0.1158527	-0.9709833	97.87	22.798	-266.043	B5-03822-P02-CH0	1916896	OK	0.8501248	0.0801328	-0.5204485	0	-95.18	-90.331	8.061	B5-03822-P02-CH1	1916896	OK	0.6922606	0.1073478	-0.7136188	0	-79.128	-70.13	-1.369	B5-03822-P03-CH0	1916896	OK	0.7785977	-0.4345716	-0.4526954	0	-93.805	-53.419	2.657	B5-03822-P03-CH1	1916896	OK	0.7683309	-0.6392998	-0.0310384	0	-99.111	-20.86	-0.189	B5-03822-P04-CH0	1916896	OK	0.6820418	-0.2681803	0.6803663	0	-127.912	-26.688	12.598	B5-03822-P04-CH1	1916896	OK	0.7864937	-0.6138685	-0.0677722	0	-112.595	-38.52	3.17	NA
0.539558173784978	B5-03822-P01-CH0	1916904	OK	0.2011194	0.0571725	0.1163242	-0.9709536	97.741	22.801	-266.147	B5-03822-P02-CH0	1916904	OK	0.8474369	0.0868956	-0.5237365	0	-95.967	-90.299	8.511	B5-03822-P02-CH1	1916904	OK	0.6931228	0.1049628	-0.7131365	0	-79.734	-70.217	-0.208	B5-03822-P03-CH0	1916904	OK	0.7763573	-0.4290984	-0.461675	0	-91.867	-53.558	2.888	B5-03822-P03-CH1	1916904	OK	0.7685553	-0.639048	-0.0306651	0	-98.958	-20.869	-0.095	B5-03822-P04-CH0	1916904	OK	0.6821828	-0.269027	0.6798906	0	-127.82	-26.629	12.713	B5-03822-P04-CH1	1916904	OK	0.7869056	-0.6133427	-0.0677523	0	-112.391	-38.43	3.206	NA
0.549549991818033	B5-03822-P01-CH0	1916912	OK	0.2011139	0.0568326	0.1167675	-0.9709215	97.614	22.807	-266.186	B5-03822-P02-CH0	1916912	OK	0.8500928	0.0762653	-0.5210814	0	-95.579	-89.608	7.819	B5-03822-P02-CH1	1916912	OK	0.6959916	0.1006719	-0.7109577	0	-79.357	-69.78	-1.787	B5-03822-P03-CH0	1916912	OK	0.7717567	-0.4215228	-0.4761409	0	-92.004	-52.643	1.901	B5-03822-P03-CH1	1916912	OK	0.768863	-0.6386857	-0.0304997	0	-98.906	-20.745	-0.068	B5-03822-P04-CH0	1916912	OK	0.6821981	-0.2697664	0.6795821	0	-127.708	-26.629	12.689	B5-03822-P04-CH1	1916912	OK	0.7872565	-0.6128841	-0.0678247	0	-112.318	-38.329	3.176	NA
0.559541809851088	B5-03822-P01-CH0	1916920	OK	0.201081	0.0566843	0.1170677	-0.9709009	97.522	22.76	-266.153	B5-03822-P02-CH0	1916920	OK	0.8510239	0.0744234	-0.5198265	0	-95.409	-89.565	7.009	B5-03822-P02-CH1	1916920	OK	0.6989739	0.0941516	-0.7089224	0	-79.124	-70.126	-0.942	B5-03822-P03-CH0	1916920	OK	0.7661469	-0.4137342	-0.4917754	0	-92.42	-52.1	0.601	B5-03822-P03-CH1	1916920	OK	0.7689297	-0.6386152	-0.0302947	0	-98.918	-20.724	-0.215	B5-03822-P04-CH0	1916920	OK	0.6820647	-0.2707304	0.6793327	0	-127.505	-26.61	12.544	B5-03822-P04-CH1	1916920	OK	0.7873314	-0.6127858	-0.0678442	0	-112.187	-38.394	3.024	NA
0.569533627884143	B5-03822-P01-CH0	1916928	OK	0.2007276	0.0570452	0.1164762	-0.971024	97.646	22.689	-266.259	B5-03822-P02-CH0	1916928	OK	0.8502004	0.0715732	-0.5215712	0	-95.828	-89.586	8.263	B5-03822-P02-CH1	1916928	OK	0.7010806	0.0836447	-0.7081593	0	-79.48	-69.752	-1.001	B5-03822-P03-CH0	1916928	OK	0.7590648	-0.408972	-0.50652	0	-93.286	-51.629	0.271	B5-03822-P03-CH1	1916928	OK	0.7684062	-0.6392363	-0.030477	0	-98.973	-20.794	-0.034	B5-03822-P04-CH0	1916928	OK	0.6821584	-0.2718482	0.6787919	0	-127.534	-26.582	12.866	B5-03822-P04-CH1	1916928	OK	0.7867317	-0.6134712	-0.0686018	0	-112.292	-38.55	3.259	NA
0.579525445917198	B5-03822-P01-CH0	1916936	OK	0.2004889	0.057389	0.1161142	-0.9710964	97.741	22.632	-266.206	B5-03822-P02-CH0	1916936	OK	0.8509623	0.0698002	-0.5205681	0	-95.002	-89.637	7.625	B5-03822-P02-CH1	1916936	OK	0.7028054	0.0694028	-0.7079885	0	-80.066	-69.885	0.03	B5-03822-P03-CH0	1916936	OK	0.7536047	-0.4067472	-0.5163688	0	-92.293	-51.149	0.657	B5-03822-P03-CH1	1916936	OK	0.7680302	-0.6396908	-0.0304175	0	-99.084	-20.86	-0.106	B5-03822-P04-CH0	1916936	OK	0.682229	-0.2727089	0.6783756	0	-127.544	-26.588	13.017	B5-03822-P04-CH1	1916936	OK	0.7865318	-0.6136729	-0.0690889	0	-112.218	-38.535	3.472	NA
0.589517263950254	B5-03822-P01-CH0	1916944	OK	0.2007024	0.0575217	0.1166667	-0.9709782	97.79	22.665	-266.284	B5-03822-P02-CH0	1916944	OK	0.8486616	0.0687366	-0.5244508	0	-94.999	-89.169	8.665	B5-03822-P02-CH1	1916944	OK	0.7063736	0.0483672	-0.7061848	0	-79.472	-69.267	-1.81	B5-03822-P03-CH0	1916944	OK	0.7473229	-0.4067387	-0.5254256	0	-92.282	-51.056	1.053	B5-03822-P03-CH1	1916944	OK	0.7684006	-0.6392781	-0.029733	0	-99.181	-20.844	-0.001	B5-03822-P04-CH0	1916944	OK	0.6826283	-0.2727293	0.6779656	0	-127.563	-26.632	13.208	B5-03822-P04-CH1	1916944	OK	0.7868703	-0.6132193	-0.0692619	0	-112.342	-38.453	3.499	NA
0.599509081983309	B5-03822-P01-CH0	1916952	OK	0.200545	0.0575586	0.1162049	-0.9710639	97.777	22.579	-266.354	B5-03822-P02-CH0	1916952	OK	0.8468311	0.066798	-0.5276506	0	-94.8	-88.915	8.132	B5-03822-P02-CH1	1916952	OK	0.7077299	0.0246319	-0.7060536	0	-80.305	-69.082	-1.187	B5-03822-P03-CH0	1916952	OK	0.7435147	-0.4048952	-0.5322084	0	-91.724	-50.617	0.781	B5-03822-P03-CH1	1916952	OK	0.7680725	-0.6396696	-0.0297888	0	-99.166	-20.918	0.367	B5-03822-P04-CH0	1916952	OK	0.6824316	-0.273649	0.677793	0	-127.417	-26.571	13.226	B5-03822-P04-CH1	1916952	OK	0.7865675	-0.6135445	-0.0698195	0	-112.293	-38.462	3.689	NA
0.609500900016364	B5-03822-P01-CH0	1916960	OK	0.2004306	0.0573873	0.1163108	-0.971085	97.736	22.549	-266.542	B5-03822-P02-CH0	1916960	OK	0.8445214	0.0619101	-0.5319312	0	-94.373	-89.216	7.804	B5-03822-P02-CH1	1916960	OK	0.7105164	-0.0004389	-0.7036805	0	-80.703	-68.936	-0.898	B5-03822-P03-CH0	1916960	OK	0.7403702	-0.4012418	-0.5393116	0	-92.294	-50.1	0.514	B5-03822-P03-CH1	1916960	OK	0.7681248	-0.6396111	-0.0296963	0	-99.139	-20.955	0.676	B5-03822-P04-CH0	1916960	OK	0.6824581	-0.2741439	0.6775663	0	-127.324	-26.52	13.3	B5-03822-P04-CH1	1916960	OK	0.7867336	-0.6133239	-0.0698856	0	-111.992	-38.464	4.01	NA
0.619492718049419	B5-03822-P01-CH0	1916968	OK	0.2005203	0.0572754	0.1168586	-0.9710073	97.683	22.567	-266.539	B5-03822-P02-CH0	1916968	OK	0.8428531	0.0580753	-0.5350009	0	-92.727	-89.147	6.86	B5-03822-P02-CH1	1916968	OK	0.7132425	-0.022401	-0.7005593	0	-80.671	-68.254	-1.414	B5-03822-P03-CH0	1916968	OK	0.7397208	-0.3955744	-0.5443658	0	-92.346	-49.656	1.875	B5-03822-P03-CH1	1916968	OK	0.7684554	-0.6392233	-0.0294913	0	-99.158	-20.852	0.505	B5-03822-P04-CH0	1916968	OK	0.6828464	-0.2741229	0.6771835	0	-127.201	-26.515	13.482	B5-03822-P04-CH1	1916968	OK	0.7871048	-0.612815	-0.0701698	0	-111.907	-38.353	4.047	NA
0.629484536082474	B5-03822-P01-CH0	1916976	OK	0.2002384	0.0573595	0.1160599	-0.9711563	97.699	22.434	-266.563	B5-03822-P02-CH0	1916976	OK	0.8369631	0.0538755	-0.5446009	0	-92.489	-88.868	7.686	B5-03822-P02-CH1	1916976	OK	0.7134199	-0.0454585	-0.6992608	0	-81.431	-67.888	-0.869	B5-03822-P03-CH0	1916976	OK	0.7400476	-0.3916687	-0.5467404	0	-92.264	-49.612	1.385	B5-03822-P03-CH1	1916976	OK	0.767891	-0.6398961	-0.0296042	0	-99.223	-20.774	0.083	B5-03822-P04-CH0	1916976	OK	0.6830545	-0.2741371	0.6769678	0	-127.283	-26.564	13.654	B5-03822-P04-CH1	1916976	OK	0.7866095	-0.6133739	-0.0708376	0	-111.799	-38.353	4.134	NA
0.639476354115529	B5-03822-P01-CH0	1916984	OK	0.200101	0.0576954	0.1155489	-0.9712257	97.839	22.364	-266.61	B5-03822-P02-CH0	1916984	OK	0.8313229	0.0489543	-0.5536295	0	-91.813	-89.428	5.153	B5-03822-P02-CH1	1916984	OK	0.7154064	-0.0702894	-0.695164	0	-81.17	-67.472	-0.775	B5-03822-P03-CH0	1916984	OK	0.7425647	-0.3888183	-0.5453605	0	-92.527	-49.995	1.793	B5-03822-P03-CH1	1916984	OK	0.7676107	-0.6402259	-0.0297423	0	-99.323	-20.79	0.34	B5-03822-P04-CH0	1916984	OK	0.6832855	-0.2741352	0.6767354	0	-127.316	-26.572	13.842	B5-03822-P04-CH1	1916984	OK	0.7862847	-0.6136934	-0.0716709	0	-111.928	-38.345	4.295	NA
0.649468172148585	B5-03822-P01-CH0	1916992	OK	0.1999928	0.0577924	0.1150659	-0.9712995	97.864	22.341	-266.674	B5-03822-P02-CH0	1916992	OK	0.82327	0.0474104	-0.5656666	0	-91.67	-88.834	5.571	B5-03822-P02-CH1	1916992	OK	0.7159559	-0.0941745	-0.6917647	0	-81.818	-67.904	-1.323	B5-03822-P03-CH0	1916992	OK	0.7474555	-0.3834516	-0.5424714	0	-93.947	-49.769	1.76	B5-03822-P03-CH1	1916992	OK	0.7671762	-0.6407524	-0.0296134	0	-99.282	-20.817	0.242	B5-03822-P04-CH0	1916992	OK	0.6834997	-0.2739808	0.6765816	0	-127.237	-26.522	14.231	B5-03822-P04-CH1	1916992	OK	0.7859205	-0.6141042	-0.0721461	0	-111.944	-38.32	4.262	NA
0.65945999018164	B5-03822-P01-CH0	1917000	OK	0.2000124	0.0580227	0.1144947	-0.9713492	97.974	22.304	-266.699	B5-03822-P02-CH0	1917000	OK	0.8172745	0.0425603	-0.5746747	0	-90.414	-89.88	3.186	B5-03822-P02-CH1	1917000	OK	0.7151662	-0.1168514	-0.6891175	0	-82.684	-67.573	-1.928	B5-03822-P03-CH0	1917000	OK	0.7540163	-0.3758794	-0.5386781	0	-94.668	-49.62	2.562	B5-03822-P03-CH1	1917000	OK	0.7666841	-0.6413567	-0.0292764	0	-99.271	-20.91	0.253	B5-03822-P04-CH0	1917000	OK	0.6840144	-0.2730343	0.6764441	0	-127.455	-26.626	14.394	B5-03822-P04-CH1	1917000	OK	0.7856424	-0.6144045	-0.0726162	0	-112.138	-38.247	4.393	NA
0.669451808214695	B5-03822-P01-CH0	1917008	OK	0.2000697	0.0581762	0.1141633	-0.9713673	98.049	22.229	-266.678	B5-03822-P02-CH0	1917008	OK	0.8088967	0.0398354	-0.5865998	0	-89.624	-90.061	4.116	B5-03822-P02-CH1	1917008	OK	0.7149642	-0.1401132	-0.6849778	0	-82.619	-67.554	-0.888	B5-03822-P03-CH0	1917008	OK	0.7580377	-0.3703555	-0.5368573	0	-95.418	-49.585	2.977	B5-03822-P03-CH1	1917008	OK	0.7665057	-0.641574	-0.029185	0	-99.383	-20.947	0.337	B5-03822-P04-CH0	1917008	OK	0.6841783	-0.2723216	0.6765656	0	-127.48	-26.774	14.37	B5-03822-P04-CH1	1917008	OK	0.7855741	-0.6144638	-0.0728529	0	-112.221	-38.136	4.369	NA
0.67944362624775	B5-03822-P01-CH0	1917016	OK	0.2001609	0.0581609	0.1141252	-0.9713539	98.081	22.187	-266.685	B5-03822-P02-CH0	1917016	OK	0.800975	0.0402077	-0.5973461	0	-88.827	-89.038	3.278	B5-03822-P02-CH1	1917016	OK	0.7133285	-0.1626027	-0.6817058	0	-83.867	-67.056	-0.878	B5-03822-P03-CH0	1917016	OK	0.7602144	-0.3683268	-0.5351723	0	-95.377	-49.869	2.544	B5-03822-P03-CH1	1917016	OK	0.7664623	-0.6416246	-0.0292127	0	-99.385	-20.948	0.302	B5-03822-P04-CH0	1917016	OK	0.6844894	-0.2719811	0.6763879	0	-127.5	-26.733	14.289	B5-03822-P04-CH1	1917016	OK	0.7855064	-0.6145188	-0.0731186	0	-112.384	-38.141	4.344	NA
0.689435444280805	B5-03822-P01-CH0	1917024	OK	0.200153	0.0580757	0.1140537	-0.971369	98.064	22.187	-266.714	B5-03822-P02-CH0	1917024	OK	0.792585	0.0354009	-0.6087329	0	-87.931	-89.963	1.249	B5-03822-P02-CH1	1917024	OK	0.7133327	-0.1835594	-0.6763597	0	-83.799	-66.818	-1.86	B5-03822-P03-CH0	1917024	OK	0.7626099	-0.3658952	-0.5334293	0	-94.752	-49.163	2.769	B5-03822-P03-CH1	1917024	OK	0.7664354	-0.6416422	-0.0295321	0	-99.318	-20.88	0.244	B5-03822-P04-CH0	1917024	OK	0.6847828	-0.2717901	0.6761676	0	-127.552	-26.756	14.126	B5-03822-P04-CH1	1917024	OK	0.7855931	-0.6143866	-0.0732981	0	-112.326	-38.009	4.331	NA
0.69942726231386	B5-03822-P01-CH0	1917032	OK	0.2002313	0.058115	0.1143767	-0.9713125	98.117	22.238	-266.761	B5-03822-P02-CH0	1917032	OK	0.784013	0.0296758	-0.6200346	0	-86.365	-90.886	-0.677	B5-03822-P02-CH1	1917032	OK	0.7128449	-0.2015945	-0.6717231	0	-83.562	-66.654	-2.469	B5-03822-P03-CH0	1917032	OK	0.7622051	-0.3666923	-0.5334606	0	-95.268	-48.811	2.969	B5-03822-P03-CH1	1917032	OK	0.7667656	-0.6412373	-0.0297522	0	-99.281	-20.669	-0.212	B5-03822-P04-CH0	1917032	OK	0.6852332	-0.2711878	0.6759531	0	-127.619	-26.853	14.317	B5-03822-P04-CH1	1917032	OK	0.7855917	-0.6144123	-0.0730967	0	-112.464	-38.095	4.229	NA
0.709419080346915	B5-03822-P01-CH0	1917040	OK	0.2003502	0.058309	0.1142709	-0.9712889	98.208	22.202	-266.715	B5-03822-P02-CH0	1917040	OK	0.773912	0.022505	-0.6328932	0	-85.196	-90.691	-0.572	B5-03822-P02-CH1	1917040	OK	0.7122824	-0.2205459	-0.6663432	0	-83.677	-66.424	-1.817	B5-03822-P03-CH0	1917040	OK	0.7604394	-0.3683864	-0.5348115	0	-95.686	-48.745	3.25	B5-03822-P03-CH1	1917040	OK	0.766857	-0.6411139	-0.030056	0	-99.375	-20.584	-0.426	B5-03822-P04-CH0	1917040	OK	0.685947	-0.27028	0.6755926	0	-127.84	-26.994	14.557	B5-03822-P04-CH1	1917040	OK	0.7853805	-0.6146806	-0.0731112	0	-112.676	-38.146	4.03	NA
0.719410898379971	B5-03822-P01-CH0	1917048	OK	0.2003342	0.0585288	0.1137943	-0.9713349	98.311	22.156	-266.75	B5-03822-P02-CH0	1917048	OK	0.7663732	0.0146435	-0.6422287	0	-83.559	-90.617	-2.479	B5-03822-P02-CH1	1917048	OK	0.7121178	-0.2370744	-0.6608207	0	-84.365	-66.937	-1.88	B5-03822-P03-CH0	1917048	OK	0.7601144	-0.3684587	-0.5352235	0	-95.526	-48.492	3.284	B5-03822-P03-CH1	1917048	OK	0.7666535	-0.641347	-0.0302714	0	-99.371	-20.661	-0.319	B5-03822-P04-CH0	1917048	OK	0.686294	-0.2703495	0.6752123	0	-128.067	-26.885	14.423	B5-03822-P04-CH1	1917048	OK	0.7849646	-0.6152415	-0.0728593	0	-112.845	-38.261	3.95	NA
0.729402716413026	B5-03822-P01-CH0	1917056	OK	0.2004552	0.0586147	0.1137585	-0.9713089	98.375	22.087	-266.724	B5-03822-P02-CH0	1917056	OK	0.7574594	0.0097384	-0.6528097	0	-83.764	-90.859	-2.623	B5-03822-P02-CH1	1917056	OK	0.7116382	-0.246999	-0.6576949	0	-85.542	-66.807	-1.489	B5-03822-P03-CH0	1917056	OK	0.7603791	-0.3701879	-0.533652	0	-95.623	-48.518	3.775	B5-03822-P03-CH1	1917056	OK	0.7668292	-0.6411275	-0.0304713	0	-99.393	-20.755	-0.164	B5-03822-P04-CH0	1917056	OK	0.6864847	-0.2697817	0.6752456	0	-128.118	-27.077	14.4	B5-03822-P04-CH1	1917056	OK	0.7849467	-0.6153028	-0.0725341	0	-113.003	-38.304	3.894	NA
0.739394534446081	B5-03822-P01-CH0	1917064	OK	0.2006535	0.0585108	0.1140824	-0.9712363	98.312	22.125	-266.593	B5-03822-P02-CH0	1917064	OK	0.7521552	0.0061131	-0.6589577	0	-83.197	-90.7	-2.863	B5-03822-P02-CH1	1917064	OK	0.7147203	-0.2561129	-0.6508311	0	-84.539	-66.438	-1.429	B5-03822-P03-CH0	1917064	OK	0.7606093	-0.3719887	-0.5320694	0	-96.027	-48.313	1.426	B5-03822-P03-CH1	1917064	OK	0.7671138	-0.6407854	-0.0305041	0	-99.348	-20.754	-0.266	B5-03822-P04-CH0	1917064	OK	0.6866883	-0.2694367	0.6751763	0	-128.143	-27.058	14.2	B5-03822-P04-CH1	1917064	OK	0.7851	-0.6151848	-0.071872	0	-113.143	-38.213	3.471	NA
0.749386352479136	B5-03822-P01-CH0	1917072	OK	0.2008199	0.0586878	0.114364	-0.9711581	98.394	22.153	-266.587	B5-03822-P02-CH0	1917072	OK	0.7484986	0.0044466	-0.6631215	0	-82.652	-90.877	-3.135	B5-03822-P02-CH1	1917072	OK	0.7152018	-0.2625648	-0.6477237	0	-85.172	-66.635	-3.443	B5-03822-P03-CH0	1917072	OK	0.7604047	-0.3708503	-0.5331554	0	-95.763	-48.949	1.679	B5-03822-P03-CH1	1917072	OK	0.7674175	-0.6404252	-0.0304282	0	-99.415	-20.791	-0.147	B5-03822-P04-CH0	1917072	OK	0.6869534	-0.2691768	0.6750102	0	-128.279	-27.124	14.062	B5-03822-P04-CH1	1917072	OK	0.78515	-0.6151702	-0.0714507	0	-113.304	-38.301	3.57	NA
0.759378170512191	B5-03822-P01-CH0	1917080	OK	0.2009856	0.0582791	0.1149992	-0.9710734	98.276	22.149	-266.658	B5-03822-P02-CH0	1917080	OK	0.7469094	0.0042071	-0.6649125	0	-81.838	-91.714	-4.867	B5-03822-P02-CH1	1917080	OK	0.7164756	-0.2672475	-0.6443923	0	-85.212	-66.799	-1.118	B5-03822-P03-CH0	1917080	OK	0.7612657	-0.3708427	-0.5319306	0	-95.88	-48.888	1.95	B5-03822-P03-CH1	1917080	OK	0.7681129	-0.6395835	-0.0305867	0	-99.363	-20.677	-0.194	B5-03822-P04-CH0	1917080	OK	0.6869124	-0.2697555	0.674821	0	-128.112	-27.005	13.938	B5-03822-P04-CH1	1917080	OK	0.7856749	-0.6145695	-0.0708469	0	-113.209	-38.217	3.51	NA
0.769369988545246	B5-03822-P01-CH0	1917088	OK	0.2010596	0.0581109	0.1154573	-0.9710138	98.233	22.236	-266.728	B5-03822-P02-CH0	1917088	OK	0.7435829	0.0063964	-0.6686132	0	-82.288	-91.104	-2.835	B5-03822-P02-CH1	1917088	OK	0.7176993	-0.2711758	-0.6413824	0	-85.176	-66.735	-2.132	B5-03822-P03-CH0	1917088	OK	0.7646005	-0.3805046	-0.5201945	0	-96.566	-48.312	1.839	B5-03822-P03-CH1	1917088	OK	0.7687305	-0.6388213	-0.0309946	0	-99.307	-20.396	-0.234	B5-03822-P04-CH0	1917088	OK	0.6871045	-0.2706112	0.6742825	0	-128.153	-26.744	13.628	B5-03822-P04-CH1	1917088	OK	0.7858369	-0.614419	-0.0703534	0	-113.264	-38.228	3.498	NA
0.779361806578301	B5-03822-P01-CH0	1917096	OK	0.2012547	0.0579411	0.1159661	-0.9709229	98.194	22.293	-266.792	B5-03822-P02-CH0	1917096	OK	0.7429163	0.0095761	-0.6693158	0	-81.678	-90.398	-3.393	B5-03822-P02-CH1	1917096	OK	0.718657	-0.270725	-0.6404999	0	-84.803	-66.874	-1.441	B5-03822-P03-CH0	1917096	OK	0.7675219	-0.3852723	-0.5123235	0	-95.983	-48.134	3.77	B5-03822-P03-CH1	1917096	OK	0.7692083	-0.6382592	-0.0307218	0	-99.181	-20.41	-0.066	B5-03822-P04-CH0	1917096	OK	0.6873208	-0.2703464	0.6741683	0	-128.237	-26.832	13.623	B5-03822-P04-CH1	1917096	OK	0.786228	-0.6140161	-0.0694957	0	-113.244	-38.16	3.483	NA
0.789353624611357	B5-03822-P01-CH0	1917104	OK	0.2011592	0.0579741	0.1155573	-0.9709894	98.2	22.204	-266.805	B5-03822-P02-CH0	1917104	OK	0.7411409	0.0140573	-0.6712024	0	-82.22	-90.253	-3.043	B5-03822-P02-CH1	1917104	OK	0.7186843	-0.2681258	-0.6415617	0	-84.576	-67.17	-2.582	B5-03822-P03-CH0	1917104	OK	0.767483	-0.3927224	-0.5066942	0	-96.923	-48.041	3.319	B5-03822-P03-CH1	1917104	OK	0.768976	-0.638542	-0.0306616	0	-99.04	-20.512	-0.006	B5-03822-P04-CH0	1917104	OK	0.6872337	-0.2708393	0.6740593	0	-128.246	-26.769	13.598	B5-03822-P04-CH1	1917104	OK	0.785941	-0.6144079	-0.0692801	0	-113.319	-38.201	3.458	NA
0.799345442644412	B5-03822-P01-CH0	1917112	OK	0.201184	0.0577786	0.1153875	-0.9710162	98.149	22.156	-266.818	B5-03822-P02-CH0	1917112	OK	0.7427695	0.0170778	-0.6693294	0	-81.343	-91.103	-3.985	B5-03822-P02-CH1	1917112	OK	0.7185502	-0.2650453	-0.6429903	0	-84.278	-66.916	-2.653	B5-03822-P03-CH0	1917112	OK	0.7693863	-0.3994407	-0.4984895	0	-96.798	-48.006	2.811	B5-03822-P03-CH1	1917112	OK	0.7689091	-0.6386298	-0.0305089	0	-98.967	-20.591	0.111	B5-03822-P04-CH0	1917112	OK	0.6870475	-0.2719843	0.673788	0	-128.223	-26.573	13.215	B5-03822-P04-CH1	1917112	OK	0.7860566	-0.6142883	-0.0690284	0	-113.242	-38.059	3.511	NA
0.809337260677467	B5-03822-P01-CH0	1917120	OK	0.2011675	0.057647	0.1151999	-0.9710497	98.093	22.076	-266.755	B5-03822-P02-CH0	1917120	OK	0.7420051	0.0213295	-0.6700549	0	-81.939	-90.956	-3.453	B5-03822-P02-CH1	1917120	OK	0.7187996	-0.259757	-0.644867	0	-83.827	-66.334	-1.794	B5-03822-P03-CH0	1917120	OK	0.7716828	-0.4060384	-0.4895289	0	-96.368	-48.565	3.235	B5-03822-P03-CH1	1917120	OK	0.76876	-0.6388286	-0.0301022	0	-98.832	-20.685	0.097	B5-03822-P04-CH0	1917120	OK	0.6867989	-0.2731818	0.673557	0	-128.122	-26.485	12.855	B5-03822-P04-CH1	1917120	OK	0.7859283	-0.6144746	-0.0688309	0	-113.356	-38.059	3.367	NA
0.819329078710522	B5-03822-P01-CH0	1917128	OK	0.2011547	0.0574572	0.1148212	-0.9711084	98.074	21.942	-266.81	B5-03822-P02-CH0	1917128	OK	0.7417548	0.0276945	-0.6700991	0	-82.614	-90.712	-3.786	B5-03822-P02-CH1	1917128	OK	0.7176037	-0.2620087	-0.6452878	0	-84.38	-66.78	-2.304	B5-03822-P03-CH0	1917128	OK	0.7733205	-0.4116052	-0.4822412	0	-96.969	-48.603	3.029	B5-03822-P03-CH1	1917128	OK	0.7685264	-0.6391221	-0.0298354	0	-98.809	-20.745	-0.029	B5-03822-P04-CH0	1917128	OK	0.6863559	-0.2736981	0.6737989	0	-127.991	-26.795	12.82	B5-03822-P04-CH1	1917128	OK	0.7855726	-0.6149558	-0.0685934	0	-113.349	-38.192	3.207	NA
0.829320896743577	B5-03822-P01-CH0	1917136	OK	0.2014197	0.0573956	0.115227	-0.9710091	98.123	22.014	-266.995	B5-03822-P02-CH0	1917136	OK	0.7420765	0.0346518	-0.6694189	0	-82.905	-90.438	-3.454	B5-03822-P02-CH1	1917136	OK	0.7173417	-0.244678	-0.6523447	0	-84.03	-66.84	-1.463	B5-03822-P03-CH0	1917136	OK	0.7766195	-0.4191401	-0.4703018	0	-96.349	-48.672	3.793	B5-03822-P03-CH1	1917136	OK	0.7688982	-0.6386959	-0.0293788	0	-98.861	-20.676	0.235	B5-03822-P04-CH0	1917136	OK	0.6865233	-0.2747104	0.6732161	0	-127.989	-26.689	12.959	B5-03822-P04-CH1	1917136	OK	0.785745	-0.6147698	-0.0682856	0	-113.473	-38.212	3.269	NA
0.839312714776632	B5-03822-P01-CH0	1917144	OK	0.2012516	0.0574097	0.1149755	-0.9710729	98.16	21.959	-267.044	B5-03822-P02-CH0	1917144	OK	0.7422	0.0377968	-0.6691117	0	-83.26	-91.001	-2.824	B5-03822-P02-CH1	1917144	OK	0.7175161	-0.2376363	-0.6547516	0	-84.202	-66.773	-2.163	B5-03822-P03-CH0	1917144	OK	0.7776921	-0.4255183	-0.4627409	0	-96.114	-48.996	3.147	B5-03822-P03-CH1	1917144	OK	0.7687579	-0.6388679	-0.0293089	0	-98.909	-20.617	0.149	B5-03822-P04-CH0	1917144	OK	0.6867444	-0.275932	0.6724907	0	-128.066	-26.622	13.035	B5-03822-P04-CH1	1917144	OK	0.785504	-0.6150577	-0.0684657	0	-113.507	-38.301	3.57	NA
0.849304532809687	B5-03822-P01-CH0	1917152	OK	0.2014255	0.0570416	0.1155443	-0.970991	98.102	21.956	-267.125	B5-03822-P02-CH0	1917152	OK	0.7426082	0.0414501	-0.6684421	0	-82.985	-89.818	-3.058	B5-03822-P02-CH1	1917152	OK	0.719387	-0.2319205	-0.6547482	0	-83.537	-66.567	-2.332	B5-03822-P03-CH0	1917152	OK	0.7788687	-0.427672	-0.4587595	0	-96.131	-48.796	2.978	B5-03822-P03-CH1	1917152	OK	0.7692228	-0.6383285	-0.0288622	0	-98.833	-20.521	-0.056	B5-03822-P04-CH0	1917152	OK	0.6869954	-0.2769712	0.6718067	0	-128.053	-26.539	12.987	B5-03822-P04-CH1	1917152	OK	0.7859939	-0.6144632	-0.0681803	0	-113.41	-38.226	3.532	NA
0.859296350842743	B5-03822-P01-CH0	1917160	OK	0.2012964	0.0572805	0.1152118	-0.9710432	98.197	21.957	-267.123	B5-03822-P02-CH0	1917160	OK	0.742007	0.0410911	-0.6691316	0	-83.477	-90.627	-2.431	B5-03822-P02-CH1	1917160	OK	0.7189972	-0.2278334	-0.6566087	0	-83.874	-66.529	-2.185	B5-03822-P03-CH0	1917160	OK	0.7787478	-0.4292022	-0.4575339	0	-96.553	-48.533	3.362	B5-03822-P03-CH1	1917160	OK	0.7687245	-0.638939	-0.0286294	0	-98.846	-20.64	-0.21	B5-03822-P04-CH0	1917160	OK	0.6870808	-0.2781089	0.6712491	0	-128.206	-26.483	12.798	B5-03822-P04-CH1	1917160	OK	0.7855741	-0.6149813	-0.0683468	0	-113.511	-38.269	3.352	NA
0.869288168875798	B5-03822-P01-CH0	1917168	OK	0.2012625	0.0574278	0.1147679	-0.9710941	98.252	21.898	-267.089	B5-03822-P02-CH0	1917168	OK	0.7431864	0.0420558	-0.6677615	0	-82.993	-90.682	-2.497	B5-03822-P02-CH1	1917168	OK	0.7178923	-0.2237707	-0.6592096	0	-84.114	-66.471	-1.238	B5-03822-P03-CH0	1917168	OK	0.7775028	-0.432842	-0.4562206	0	-97.272	-48.549	2.244	B5-03822-P03-CH1	1917168	OK	0.7681098	-0.6397102	-0.0278944	0	-98.896	-20.903	-0.305	B5-03822-P04-CH0	1917168	OK	0.6871167	-0.2788076	0.6709224	0	-128.217	-26.526	13.023	B5-03822-P04-CH1	1917168	OK	0.7852271	-0.6154096	-0.0684792	0	-113.562	-38.289	3.218	NA
0.879279986908853	B5-03822-P01-CH0	1917176	OK	0.2010608	0.0577202	0.1141111	-0.971196	98.444	21.856	-267.287	B5-03822-P02-CH0	1917176	OK	0.7440403	0.0441057	-0.6666774	0	-82.71	-91.142	-4.056	B5-03822-P02-CH1	1917176	OK	0.7155789	-0.2193954	-0.6631836	0	-84.275	-67.11	-1.925	B5-03822-P03-CH0	1917176	OK	0.7775486	-0.4371214	-0.4520431	0	-96.706	-49.158	3.258	B5-03822-P03-CH1	1917176	OK	0.7676412	-0.6402739	-0.0278642	0	-99.119	-20.901	-0.205	B5-03822-P04-CH0	1917176	OK	0.6870118	-0.2804671	0.670338	0	-128.308	-26.454	13.035	B5-03822-P04-CH1	1917176	OK	0.7846203	-0.6161235	-0.0690135	0	-113.801	-38.436	3.44	NA
0.889271804941908	B5-03822-P01-CH0	1917184	OK	0.2010074	0.0576796	0.1139892	-0.9712237	98.473	21.835	-267.392	B5-03822-P02-CH0	1917184	OK	0.7431537	0.0459905	-0.6675384	0	-83.118	-91.331	-3.063	B5-03822-P02-CH1	1917184	OK	0.7137265	-0.2136912	-0.6670312	0	-83.733	-67.174	-2.784	B5-03822-P03-CH0	1917184	OK	0.7770377	-0.4408029	-0.4493387	0	-96.86	-49.354	3.122	B5-03822-P03-CH1	1917184	OK	0.76764	-0.6402809	-0.0277331	0	-99.203	-20.853	-0.077	B5-03822-P04-CH0	1917184	OK	0.687096	-0.2816372	0.6697609	0	-128.335	-26.363	13.031	B5-03822-P04-CH1	1917184	OK	0.7844915	-0.6162859	-0.0690267	0	-113.691	-38.521	3.62	NA
0.899263622974963	B5-03822-P01-CH0	1917192	OK	0.2012307	0.0577535	0.1143432	-0.9711315	98.538	21.889	-267.467	B5-03822-P02-CH0	1917192	OK	0.7427856	0.0461143	-0.6679394	0	-83.238	-91.452	-2.641	B5-03822-P02-CH1	1917192	OK	0.7116397	-0.2080948	-0.6710183	0	-83.264	-66.795	-1.934	B5-03822-P03-CH0	1917192	OK	0.7772796	-0.444065	-0.4456935	0	-96.416	-49.59	3.498	B5-03822-P03-CH1	1917192	OK	0.7676987	-0.6402383	-0.0270854	0	-99.279	-20.972	0.025	B5-03822-P04-CH0	1917192	OK	0.6875178	-0.2816178	0.669336	0	-128.45	-26.495	13.149	B5-03822-P04-CH1	1917192	OK	0.784503	-0.6163278	-0.0685207	0	-113.696	-38.693	3.598	NA
0.909255441008018	B5-03822-P01-CH0	1917200	OK	0.2014482	0.0578866	0.1148662	-0.9710168	98.641	22.026	-267.621	B5-03822-P02-CH0	1917200	OK	0.7431464	0.0420356	-0.6678071	0	-82.951	-90.58	-2.996	B5-03822-P02-CH1	1917200	OK	0.7089657	-0.2034601	-0.6752567	0	-83.678	-66.861	-1.555	B5-03822-P03-CH0	1917200	OK	0.7772384	-0.44452	-0.4453115	0	-97.095	-48.789	3.577	B5-03822-P03-CH1	1917200	OK	0.7678745	-0.6400486	-0.0265818	0	-99.464	-21.017	0.201	B5-03822-P04-CH0	1917200	OK	0.6876127	-0.2821917	0.6689968	0	-128.454	-26.419	13.234	B5-03822-P04-CH1	1917200	OK	0.7847449	-0.616071	-0.0680582	0	-113.679	-38.737	3.826	NA
0.919247259041074	B5-03822-P01-CH0	1917208	OK	0.2014754	0.0575836	0.1154175	-0.9709638	98.536	22.038	-267.525	B5-03822-P02-CH0	1917208	OK	0.7432077	0.0438038	-0.6676253	0	-83.044	-90.644	-3.111	B5-03822-P02-CH1	1917208	OK	0.7070972	-0.1994404	-0.6784077	0	-83.969	-66.427	-2.633	B5-03822-P03-CH0	1917208	OK	0.7776623	-0.4471814	-0.4418938	0	-96.661	-49.039	3.724	B5-03822-P03-CH1	1917208	OK	0.768167	-0.639701	-0.0264964	0	-99.383	-20.924	-0.076	B5-03822-P04-CH0	1917208	OK	0.6878693	-0.2825394	0.668586	0	-128.457	-26.375	13.117	B5-03822-P04-CH1	1917208	OK	0.7851938	-0.6155083	-0.0679723	0	-113.525	-38.597	3.661	NA
0.929239077074129	B5-03822-P01-CH0	1917216	OK	0.2015697	0.0575349	0.115566	-0.9709294	98.531	22.025	-267.524	B5-03822-P02-CH0	1917216	OK	0.7432415	0.0451921	-0.6674952	0	-83.1	-90.694	-2.974	B5-03822-P02-CH1	1917216	OK	0.7072476	-0.1952396	-0.6794721	0	-82.966	-66.337	-3.103	B5-03822-P03-CH0	1917216	OK	0.7766712	-0.4497334	-0.4410462	0	-96.743	-49.619	3.068	B5-03822-P03-CH1	1917216	OK	0.7680365	-0.6398745	-0.0260883	0	-99.335	-21.113	-0.062	B5-03822-P04-CH0	1917216	OK	0.687811	-0.2827937	0.6685385	0	-128.399	-26.43	13.119	B5-03822-P04-CH1	1917216	OK	0.7852949	-0.6154101	-0.0676925	0	-113.434	-38.612	3.636	NA
0.939230895107184	B5-03822-P01-CH0	1917224	OK	0.2016907	0.0574882	0.1155653	-0.9709071	98.542	22.028	-267.642	B5-03822-P02-CH0	1917224	OK	0.7434705	0.0463416	-0.6671612	0	-83.111	-90.836	-3.039	B5-03822-P02-CH1	1917224	OK	0.704071	-0.1918074	-0.6837353	0	-83.684	-66.69	-3.396	B5-03822-P03-CH0	1917224	OK	0.7764582	-0.451103	-0.4400213	0	-96.784	-49.567	3.412	B5-03822-P03-CH1	1917224	OK	0.7678649	-0.6400908	-0.0258296	0	-99.357	-21.195	-0.167	B5-03822-P04-CH0	1917224	OK	0.6876939	-0.2829798	0.6685803	0	-128.365	-26.509	13.196	B5-03822-P04-CH1	1917224	OK	0.7852379	-0.6155215	-0.0673412	0	-113.37	-38.69	3.599	NA
0.949222713140239	B5-03822-P01-CH0	1917232	OK	0.2016216	0.0577956	0.1152842	-0.9709366	98.637	22.047	-267.578	B5-03822-P02-CH0	1917232	OK	0.7438431	0.0478597	-0.6666385	0	-83.119	-90.892	-3.102	B5-03822-P02-CH1	1917232	OK	0.7013817	-0.1881138	-0.687515	0	-83.775	-66.701	-1.379	B5-03822-P03-CH0	1917232	OK	0.7757404	-0.4523923	-0.4399636	0	-97.188	-49.146	2.633	B5-03822-P03-CH1	1917232	OK	0.7675172	-0.640503	-0.0259479	0	-99.459	-21.248	-0.139	B5-03822-P04-CH0	1917232	OK	0.6877082	-0.2829415	0.6685818	0	-128.498	-26.585	13.195	B5-03822-P04-CH1	1917232	OK	0.784877	-0.6159841	-0.0673175	0	-113.508	-38.767	3.665	NA
0.959214531173294	B5-03822-P01-CH0	1917240	OK	0.2017577	0.0576704	0.1154165	-0.9709001	98.623	22.089	-267.673	B5-03822-P02-CH0	1917240	OK	0.7444889	0.0563645	-0.6652513	0	-84.239	-90.635	-2.062	B5-03822-P02-CH1	1917240	OK	0.699863	-0.1840001	-0.6901708	0	-83.187	-66.287	-0.521	B5-03822-P03-CH0	1917240	OK	0.7757243	-0.454114	-0.4382149	0	-97.322	-48.982	2.73	B5-03822-P03-CH1	1917240	OK	0.767703	-0.6402856	-0.0258142	0	-99.546	-21.231	0.113	B5-03822-P04-CH0	1917240	OK	0.6876689	-0.282815	0.6686757	0	-128.448	-26.657	13.409	B5-03822-P04-CH1	1917240	OK	0.7850017	-0.6158726	-0.0668826	0	-113.362	-38.792	3.879	NA
0.969206349206349	B5-03822-P01-CH0	1917248	OK	0.2017359	0.0574645	0.1152786	-0.9709332	98.588	22.02	-267.752	B5-03822-P02-CH0	1917248	OK	0.7464992	0.0573627	-0.6629091	0	-83.783	-91.205	-2.959	B5-03822-P02-CH1	1917248	OK	0.6979219	-0.1771326	-0.6939229	0	-82.819	-65.981	-1.106	B5-03822-P03-CH0	1917248	OK	0.7758463	-0.457408	-0.4345577	0	-96.755	-49.778	3.452	B5-03822-P03-CH1	1917248	OK	0.7677376	-0.6402383	-0.0259579	0	-99.538	-21.171	0.025	B5-03822-P04-CH0	1917248	OK	0.6873804	-0.2831548	0.6688285	0	-128.351	-26.702	13.425	B5-03822-P04-CH1	1917248	OK	0.784929	-0.6159858	-0.0666929	0	-113.183	-38.818	3.801	NA
