Wav.Time	B5.03822.P01.CH0	Frame	State	Q0	Qx	Qy	Qz	Tx	Ty	Tz	B5.03822.P02.CH0	Frame.1	State.1	Q0.1	Qx.1	Qy.1	Qz.1	Tx.1	Ty.1	Tz.1	B5.03822.P02.CH1	Frame.2	State.2	Q0.2	Qx.2	Qy.2	Qz.2	Tx.2	Ty.2	Tz.2	B5.03822.P03.CH0	Frame.3	State.3	Q0.3	Qx.3	Qy.3	Qz.3	Tx.3	Ty.3	Tz.3	B5.03822.P03.CH1	Frame.4	State.4	Q0.4	Qx.4	Qy.4	Qz.4	Tx.4	Ty.4	Tz.4	B5.03822.P04.CH0	Frame.5	State.5	Q0.5	Qx.5	Qy.5	Qz.5	Tx.5	Ty.5	Tz.5	B5.03822.P04.CH1	Frame.6	State.6	Q0.6	Qx.6	Qy.6	Qz.6	Tx.6	Ty.6	Tz.6	X
0	B5-03822-P01-CH0	3338320	OK	0.2399798	0.0217849	0.0844566	-0.9668517	95.095	-23.958	-229.257	B5-03822-P02-CH0	3338320	OK	0.6999146	0.4212626	-0.5767645	0	-72.746	-99.563	1.028	B5-03822-P02-CH1	3338320	OK	0.7416343	-0.1997199	-0.640383	0	-73.65	-78.558	1.913	B5-03822-P03-CH0	3338320	OK	0.8289915	-0.2872276	-0.4798682	0	-89.786	-59.748	7.978	B5-03822-P03-CH1	3338320	OK	0.8248037	-0.1753738	-0.537534	0	-99.107	-32.43	7.773	B5-03822-P04-CH0	3338320	OK	0.7585733	-0.2620568	0.5965675	0	-118.609	-42.039	7.516	B5-03822-P04-CH1	3338320	OK	0.7465125	-0.6632854	0.0526453	0	-107.509	-45.818	-0.11	NA
0.00999183673469388	B5-03822-P01-CH0	3338328	OK	0.2399696	0.0215473	0.0846164	-0.9668456	95.033	-23.959	-229.251	B5-03822-P02-CH0	3338328	OK	0.6993616	0.4146425	-0.582207	0	-72.968	-99.651	1.579	B5-03822-P02-CH1	3338328	OK	0.7445691	-0.2068611	-0.6346852	0	-73.741	-78.478	1.775	B5-03822-P03-CH0	3338328	OK	0.8293464	-0.2826693	-0.481957	0	-89.787	-59.536	7.911	B5-03822-P03-CH1	3338328	OK	0.8247831	-0.1753171	-0.5375841	0	-99.143	-32.387	7.665	B5-03822-P04-CH0	3338328	OK	0.758459	-0.2617159	0.5968625	0	-118.542	-42.183	7.514	B5-03822-P04-CH1	3338328	OK	0.7466818	-0.6630889	0.0527198	0	-107.48	-45.787	-0.195	NA
0.0199836734693878	B5-03822-P01-CH0	3338336	OK	0.2401131	0.0215487	0.0845481	-0.9668159	95.036	-23.966	-229.258	B5-03822-P02-CH0	3338336	OK	0.6989966	0.405389	-0.5891209	0	-72.965	-99.486	1.465	B5-03822-P02-CH1	3338336	OK	0.7477967	-0.2140399	-0.62848	0	-73.866	-78.524	2.28	B5-03822-P03-CH0	3338336	OK	0.8290633	-0.2765282	-0.4859899	0	-90.134	-59.538	7.758	B5-03822-P03-CH1	3338336	OK	0.8247263	-0.1754548	-0.5376265	0	-99.141	-32.418	7.737	B5-03822-P04-CH0	3338336	OK	0.7584356	-0.2613404	0.5970567	0	-118.532	-42.28	7.546	B5-03822-P04-CH1	3338336	OK	0.7465484	-0.6632036	0.0531648	0	-107.42	-45.959	-0.111	NA
0.0299755102040816	B5-03822-P01-CH0	3338344	OK	0.2401124	0.0217808	0.0841874	-0.9668423	95.073	-23.935	-229.21	B5-03822-P02-CH0	3338344	OK	0.6992716	0.3930722	-0.5970875	0	-72.912	-99.676	2.129	B5-03822-P02-CH1	3338344	OK	0.7499748	-0.2203726	-0.6236776	0	-74.642	-78.55	2.434	B5-03822-P03-CH0	3338344	OK	0.8284908	-0.2686373	-0.4913624	0	-90.34	-59.381	7.936	B5-03822-P03-CH1	3338344	OK	0.8245208	-0.1756715	-0.5378707	0	-99.207	-32.385	7.764	B5-03822-P04-CH0	3338344	OK	0.7583164	-0.2613871	0.5971876	0	-118.515	-42.225	7.493	B5-03822-P04-CH1	3338344	OK	0.7463647	-0.6634022	0.0532665	0	-107.446	-45.974	0.07	NA
0.0399673469387755	B5-03822-P01-CH0	3338352	OK	0.2400796	0.021944	0.0839624	-0.9668664	95.1	-23.91	-229.201	B5-03822-P02-CH0	3338352	OK	0.7000617	0.3777965	-0.6059566	0	-72.603	-99.45	1.396	B5-03822-P02-CH1	3338352	OK	0.7530091	-0.2261508	-0.6179264	0	-75.115	-78.486	2.023	B5-03822-P03-CH0	3338352	OK	0.8255893	-0.2594418	-0.501091	0	-90.99	-58.883	7.086	B5-03822-P03-CH1	3338352	OK	0.8242489	-0.1758757	-0.5382207	0	-99.295	-32.387	7.78	B5-03822-P04-CH0	3338352	OK	0.7583335	-0.2612853	0.5972104	0	-118.567	-42.185	7.47	B5-03822-P04-CH1	3338352	OK	0.7461711	-0.663604	0.0534647	0	-107.48	-46.047	0.184	NA
0.0499591836734694	B5-03822-P01-CH0	3338360	OK	0.2401334	0.0220773	0.0838797	-0.9668571	95.133	-23.861	-229.183	B5-03822-P02-CH0	3338360	OK	0.7005367	0.3585043	-0.6170275	0	-72.423	-99.428	1.529	B5-03822-P02-CH1	3338360	OK	0.7551099	-0.2334541	-0.612624	0	-76.01	-78.778	1.608	B5-03822-P03-CH0	3338360	OK	0.8220079	-0.2488646	-0.5122201	0	-90.859	-57.988	6.699	B5-03822-P03-CH1	3338360	OK	0.8241088	-0.1758843	-0.5384324	0	-99.35	-32.346	7.808	B5-03822-P04-CH0	3338360	OK	0.7583487	-0.2611918	0.5972321	0	-118.572	-42.14	7.493	B5-03822-P04-CH1	3338360	OK	0.7460643	-0.6637051	0.0536995	0	-107.493	-46.129	0.311	NA
0.0599510204081633	B5-03822-P01-CH0	3338368	OK	0.2400891	0.0221981	0.0833236	-0.9669135	95.143	-23.883	-229.113	B5-03822-P02-CH0	3338368	OK	0.6999859	0.3374298	-0.6294131	0	-72.495	-99.788	1.632	B5-03822-P02-CH1	3338368	OK	0.758186	-0.2449718	-0.6042705	0	-76.547	-78.65	2.503	B5-03822-P03-CH0	3338368	OK	0.8170505	-0.2318864	-0.5278798	0	-90.84	-57.428	6.8	B5-03822-P03-CH1	3338368	OK	0.8239811	-0.1761598	-0.5385377	0	-99.351	-32.346	7.747	B5-03822-P04-CH0	3338368	OK	0.758225	-0.2607866	0.5975661	0	-118.597	-42.303	7.639	B5-03822-P04-CH1	3338368	OK	0.7457477	-0.6640493	0.0538415	0	-107.413	-46.213	0.603	NA
0.0699428571428571	B5-03822-P01-CH0	3338376	OK	0.2402431	0.0221316	0.0835017	-0.9668614	95.096	-23.824	-229.08	B5-03822-P02-CH0	3338376	OK	0.6972169	0.3174217	-0.6427535	0	-72.397	-99.74	1.465	B5-03822-P02-CH1	3338376	OK	0.7623025	-0.2545481	-0.5950631	0	-76.982	-78.674	2.971	B5-03822-P03-CH0	3338376	OK	0.8131333	-0.2077876	-0.5437266	0	-90.654	-56.412	5.694	B5-03822-P03-CH1	3338376	OK	0.8239997	-0.1763911	-0.5384335	0	-99.32	-32.326	7.689	B5-03822-P04-CH0	3338376	OK	0.7583461	-0.2602451	0.5976485	0	-118.606	-42.256	7.548	B5-03822-P04-CH1	3338376	OK	0.7458917	-0.6638541	0.0542519	0	-107.371	-46.243	0.665	NA
0.079934693877551	B5-03822-P01-CH0	3338384	OK	0.2402014	0.0222543	0.0832791	-0.9668881	95.092	-23.774	-229	B5-03822-P02-CH0	3338384	OK	0.6928118	0.3024278	-0.6546367	0	-72.094	-100.073	0.772	B5-03822-P02-CH1	3338384	OK	0.7652397	-0.2570946	-0.5901784	0	-77.82	-78.707	2.477	B5-03822-P03-CH0	3338384	OK	0.8101002	-0.1866679	-0.5557812	0	-90.76	-56.379	6.672	B5-03822-P03-CH1	3338384	OK	0.8239272	-0.1767582	-0.5384242	0	-99.314	-32.306	7.636	B5-03822-P04-CH0	3338384	OK	0.7582353	-0.2601014	0.5978516	0	-118.568	-42.216	7.509	B5-03822-P04-CH1	3338384	OK	0.7456611	-0.6640881	0.054558	0	-107.344	-46.274	0.467	NA
0.0899265306122449	B5-03822-P01-CH0	3338392	OK	0.240132	0.0224154	0.0832047	-0.966908	95.151	-23.763	-228.943	B5-03822-P02-CH0	3338392	OK	0.6869785	0.2913307	-0.6657228	0	-71.659	-100.628	1.26	B5-03822-P02-CH1	3338392	OK	0.7666064	-0.2568767	-0.5884972	0	-78.563	-79.26	2.482	B5-03822-P03-CH0	3338392	OK	0.8088794	-0.1704378	-0.56273	0	-91.265	-56.258	6.136	B5-03822-P03-CH1	3338392	OK	0.8237679	-0.1770205	-0.5385816	0	-99.362	-32.33	7.586	B5-03822-P04-CH0	3338392	OK	0.7583783	-0.2597585	0.5978192	0	-118.681	-42.253	7.484	B5-03822-P04-CH1	3338392	OK	0.7456209	-0.6641214	0.0547015	0	-107.349	-46.346	0.558	NA
0.0999183673469388	B5-03822-P01-CH0	3338400	OK	0.2401347	0.0223455	0.0832058	-0.9669089	95.135	-23.735	-228.904	B5-03822-P02-CH0	3338400	OK	0.6799942	0.2832139	-0.6763119	0	-71.864	-101.992	1.688	B5-03822-P02-CH1	3338400	OK	0.7665773	-0.2527015	-0.5903399	0	-79.152	-79.931	2.934	B5-03822-P03-CH0	3338400	OK	0.8087603	-0.1593041	-0.5661527	0	-91.397	-56.147	5.857	B5-03822-P03-CH1	3338400	OK	0.8237806	-0.1771042	-0.5385346	0	-99.336	-32.265	7.568	B5-03822-P04-CH0	3338400	OK	0.7583238	-0.2593382	0.5980709	0	-118.67	-42.269	7.422	B5-03822-P04-CH1	3338400	OK	0.7457782	-0.6639288	0.0548942	0	-107.449	-46.257	0.327	NA
0.109910204081633	B5-03822-P01-CH0	3338408	OK	0.2402399	0.0224052	0.0833625	-0.9668679	95.163	-23.666	-228.874	B5-03822-P02-CH0	3338408	OK	0.6734503	0.2767759	-0.6854632	0	-71.237	-102.291	1.267	B5-03822-P02-CH1	3338408	OK	0.7652438	-0.2493943	-0.5934682	0	-79.721	-80.652	2.718	B5-03822-P03-CH0	3338408	OK	0.8084024	-0.1506564	-0.5690239	0	-91.729	-56.011	6.041	B5-03822-P03-CH1	3338408	OK	0.8236007	-0.1774601	-0.5386927	0	-99.381	-32.28	7.658	B5-03822-P04-CH0	3338408	OK	0.7584913	-0.2587367	0.5981189	0	-118.755	-42.242	7.431	B5-03822-P04-CH1	3338408	OK	0.7458318	-0.6638314	0.0553432	0	-107.477	-46.33	0.271	NA
0.119902040816327	B5-03822-P01-CH0	3338416	OK	0.2401024	0.0222842	0.0834788	-0.9668948	95.149	-23.635	-228.873	B5-03822-P02-CH0	3338416	OK	0.665679	0.2717171	-0.6950117	0	-71.439	-103.323	1.72	B5-03822-P02-CH1	3338416	OK	0.7631796	-0.2465483	-0.597303	0	-80.356	-80.656	2.531	B5-03822-P03-CH0	3338416	OK	0.8089314	-0.1428244	-0.5702904	0	-91.503	-55.682	6.257	B5-03822-P03-CH1	3338416	OK	0.8236095	-0.1775919	-0.5386358	0	-99.352	-32.249	7.626	B5-03822-P04-CH0	3338416	OK	0.758461	-0.2586905	0.5981773	0	-118.78	-42.147	7.246	B5-03822-P04-CH1	3338416	OK	0.746042	-0.6635984	0.0553043	0	-107.595	-46.222	0.15	NA
0.12989387755102	B5-03822-P01-CH0	3338424	OK	0.2402241	0.0220549	0.0838113	-0.9668411	95.106	-23.613	-228.924	B5-03822-P02-CH0	3338424	OK	0.6583421	0.2660811	-0.7041211	0	-71.067	-103.043	1.869	B5-03822-P02-CH1	3338424	OK	0.7621443	-0.2472701	-0.5983256	0	-80.246	-80.695	2.622	B5-03822-P03-CH0	3338424	OK	0.8092566	-0.1382753	-0.5709498	0	-91.472	-55.824	5.582	B5-03822-P03-CH1	3338424	OK	0.8236388	-0.1780514	-0.5384393	0	-99.273	-32.323	7.632	B5-03822-P04-CH0	3338424	OK	0.758559	-0.2577681	0.5984512	0	-118.806	-42.3	7.268	B5-03822-P04-CH1	3338424	OK	0.7462789	-0.6632963	0.0557307	0	-107.614	-46.243	-0.038	NA
0.139885714285714	B5-03822-P01-CH0	3338432	OK	0.2403165	0.0220813	0.0837516	-0.9668227	95.138	-23.616	-228.937	B5-03822-P02-CH0	3338432	OK	0.6527258	0.2618758	-0.7108938	0	-70.722	-103.207	2.088	B5-03822-P02-CH1	3338432	OK	0.759331	-0.2522935	-0.5998036	0	-80.603	-81.043	2.508	B5-03822-P03-CH0	3338432	OK	0.8088091	-0.1366904	-0.5719646	0	-91.883	-55.902	5.413	B5-03822-P03-CH1	3338432	OK	0.8236484	-0.1786367	-0.5382307	0	-99.172	-32.383	7.693	B5-03822-P04-CH0	3338432	OK	0.7584779	-0.2572308	0.5987851	0	-118.802	-42.391	7.258	B5-03822-P04-CH1	3338432	OK	0.7461994	-0.6633296	0.0563943	0	-107.613	-46.414	0.032	NA
0.149877551020408	B5-03822-P01-CH0	3338440	OK	0.2403798	0.0220234	0.083729	-0.9668102	95.132	-23.615	-228.9	B5-03822-P02-CH0	3338440	OK	0.6483608	0.2598075	-0.7156314	0	-70.841	-103.304	2.253	B5-03822-P02-CH1	3338440	OK	0.7565191	-0.2586749	-0.6006381	0	-80.689	-81.089	2.663	B5-03822-P03-CH0	3338440	OK	0.8094204	-0.1390498	-0.5705293	0	-91.72	-55.875	5.802	B5-03822-P03-CH1	3338440	OK	0.8234421	-0.1794215	-0.5382853	0	-99.162	-32.429	7.661	B5-03822-P04-CH0	3338440	OK	0.7584481	-0.2562523	0.5992422	0	-118.852	-42.572	7.3	B5-03822-P04-CH1	3338440	OK	0.7462315	-0.6632429	0.0569861	0	-107.704	-46.457	-0.124	NA
0.159869387755102	B5-03822-P01-CH0	3338448	OK	0.2404713	0.0220827	0.083639	-0.9667939	95.179	-23.611	-228.895	B5-03822-P02-CH0	3338448	OK	0.6482362	0.2585396	-0.7162033	0	-70.081	-103.537	1.608	B5-03822-P02-CH1	3338448	OK	0.7531224	-0.2642375	-0.6024826	0	-80.576	-80.831	2.22	B5-03822-P03-CH0	3338448	OK	0.8094758	-0.1458061	-0.5687614	0	-91.744	-55.755	5.886	B5-03822-P03-CH1	3338448	OK	0.8215925	-0.1832315	-0.5398258	0	-99.287	-32.302	7.78	B5-03822-P04-CH0	3338448	OK	0.7583707	-0.255408	0.5997004	0	-118.896	-42.718	7.264	B5-03822-P04-CH1	3338448	OK	0.7461831	-0.6632528	0.0575016	0	-107.799	-46.523	-0.241	NA
0.169861224489796	B5-03822-P01-CH0	3338456	OK	0.2404339	0.0220912	0.0835958	-0.9668067	95.22	-23.625	-228.907	B5-03822-P02-CH0	3338456	OK	0.6467372	0.2606327	-0.7167996	0	-70.245	-103.831	1.781	B5-03822-P02-CH1	3338456	OK	0.7497508	-0.2714622	-0.603475	0	-80.312	-80.747	2.3	B5-03822-P03-CH0	3338456	OK	0.8102632	-0.1587937	-0.5641437	0	-91.704	-55.852	5.874	B5-03822-P03-CH1	3338456	OK	0.8218802	-0.1849583	-0.5387981	0	-99.023	-32.505	7.56	B5-03822-P04-CH0	3338456	OK	0.7583659	-0.2545315	0.6000791	0	-119.007	-42.87	7.253	B5-03822-P04-CH1	3338456	OK	0.7461958	-0.663203	0.0579102	0	-107.912	-46.551	-0.419	NA
0.17985306122449	B5-03822-P01-CH0	3338464	OK	0.2406377	0.0219468	0.0838907	-0.9667338	95.215	-23.609	-228.932	B5-03822-P02-CH0	3338464	OK	0.6454149	0.2650286	-0.7163794	0	-70.118	-102.862	1.944	B5-03822-P02-CH1	3338464	OK	0.7465023	-0.2780982	-0.6044797	0	-80.001	-80.58	1.841	B5-03822-P03-CH0	3338464	OK	0.8102409	-0.1780793	-0.5583882	0	-92.053	-55.916	4.974	B5-03822-P03-CH1	3338464	OK	0.8228385	-0.1855151	-0.5371415	0	-98.48	-32.43	7.77	B5-03822-P04-CH0	3338464	OK	0.7584974	-0.2530224	0.6005509	0	-119.12	-43.055	7.232	B5-03822-P04-CH1	3338464	OK	0.7465335	-0.6627602	0.0586221	0	-108.047	-46.573	-0.429	NA
0.189844897959184	B5-03822-P01-CH0	3338472	OK	0.2406984	0.0221438	0.0833598	-0.9667601	95.321	-23.668	-228.961	B5-03822-P02-CH0	3338472	OK	0.6464667	0.2771526	-0.7108215	0	-69.942	-103.247	2.113	B5-03822-P02-CH1	3338472	OK	0.7438029	-0.2853167	-0.6044432	0	-79.69	-80.169	2.07	B5-03822-P03-CH0	3338472	OK	0.8123496	-0.1986816	-0.5482825	0	-91.529	-55.61	5.866	B5-03822-P03-CH1	3338472	OK	0.8214447	-0.186055	-0.5390845	0	-98.919	-32.305	7.938	B5-03822-P04-CH0	3338472	OK	0.7583823	-0.2519578	0.6011436	0	-119.207	-43.289	7.386	B5-03822-P04-CH1	3338472	OK	0.7462546	-0.6630179	0.0592571	0	-108.236	-46.711	-0.354	NA
0.199836734693878	B5-03822-P01-CH0	3338480	OK	0.2407246	0.0222179	0.0833326	-0.9667542	95.388	-23.664	-228.996	B5-03822-P02-CH0	3338480	OK	0.6484251	0.292568	-0.702815	0	-69.719	-102.409	1.622	B5-03822-P02-CH1	3338480	OK	0.7435636	-0.290786	-0.6021268	0	-78.925	-79.644	2.197	B5-03822-P03-CH0	3338480	OK	0.8136941	-0.2219558	-0.5372499	0	-91.241	-56.338	6.746	B5-03822-P03-CH1	3338480	OK	0.8212563	-0.1879774	-0.5387045	0	-98.825	-32.558	7.568	B5-03822-P04-CH0	3338480	OK	0.7584199	-0.2504363	0.6017317	0	-119.346	-43.486	7.509	B5-03822-P04-CH1	3338480	OK	0.7462104	-0.6629885	0.0601354	0	-108.27	-46.855	-0.311	NA
0.209828571428571	B5-03822-P01-CH0	3338488	OK	0.2406416	0.0221552	0.0832719	-0.9667815	95.412	-23.674	-228.985	B5-03822-P02-CH0	3338488	OK	0.6521193	0.3089356	-0.6923144	0	-70.063	-101.968	1.951	B5-03822-P02-CH1	3338488	OK	0.7447912	-0.288459	-0.6017287	0	-78.645	-79.23	2.223	B5-03822-P03-CH0	3338488	OK	0.8137854	-0.2423051	-0.5282439	0	-92.439	-56.35	5.84	B5-03822-P03-CH1	3338488	OK	0.8215068	-0.187399	-0.5385241	0	-98.589	-32.469	7.684	B5-03822-P04-CH0	3338488	OK	0.7584263	-0.2491321	0.6022647	0	-119.477	-43.608	7.484	B5-03822-P04-CH1	3338488	OK	0.7462428	-0.662884	0.0608809	0	-108.375	-46.938	-0.2	NA
0.219820408163265	B5-03822-P01-CH0	3338496	OK	0.2406538	0.0221757	0.0831976	-0.9667844	95.463	-23.651	-229.006	B5-03822-P02-CH0	3338496	OK	0.6568559	0.3259856	-0.6799071	0	-70.753	-101.951	2.47	B5-03822-P02-CH1	3338496	OK	0.7468235	-0.2781086	-0.604078	0	-78.355	-78.889	2.059	B5-03822-P03-CH0	3338496	OK	0.8215109	-0.2644912	-0.5051379	0	-91.732	-56.253	6.176	B5-03822-P03-CH1	3338496	OK	0.8208432	-0.1883066	-0.539219	0	-98.687	-32.553	8.121	B5-03822-P04-CH0	3338496	OK	0.7585198	-0.2473128	0.6028965	0	-119.678	-43.846	7.629	B5-03822-P04-CH1	3338496	OK	0.7463139	-0.6627314	0.0616653	0	-108.473	-46.973	-0.175	NA
0.229812244897959	B5-03822-P01-CH0	3338504	OK	0.240514	0.0221997	0.082901	-0.9668442	95.515	-23.664	-228.997	B5-03822-P02-CH0	3338504	OK	0.6634448	0.3447493	-0.6640699	0	-70.906	-101.722	2.031	B5-03822-P02-CH1	3338504	OK	0.7458894	-0.2637447	-0.6116271	0	-78.077	-78.624	2.575	B5-03822-P03-CH0	3338504	OK	0.82784	-0.2892965	-0.4806126	0	-92.054	-57.336	6.171	B5-03822-P03-CH1	3338504	OK	0.8207857	-0.1884524	-0.5392555	0	-98.568	-32.431	7.864	B5-03822-P04-CH0	3338504	OK	0.758307	-0.2464698	0.603509	0	-119.767	-43.832	7.498	B5-03822-P04-CH1	3338504	OK	0.7461414	-0.6628579	0.0623883	0	-108.576	-47.074	-0.162	NA
0.239804081632653	B5-03822-P01-CH0	3338512	OK	0.2404634	0.0222989	0.0827505	-0.9668674	95.577	-23.617	-228.943	B5-03822-P02-CH0	3338512	OK	0.669127	0.362592	-0.648688	0	-71.256	-101.137	2.082	B5-03822-P02-CH1	3338512	OK	0.7416077	-0.2533021	-0.6211731	0	-77.274	-78.462	2.675	B5-03822-P03-CH0	3338512	OK	0.8334887	-0.3079137	-0.4587871	0	-92.261	-58.275	6.665	B5-03822-P03-CH1	3338512	OK	0.8195598	-0.1886981	-0.5410312	0	-99.01	-32.38	7.837	B5-03822-P04-CH0	3338512	OK	0.7583967	-0.2451224	0.603945	0	-120.002	-43.987	7.519	B5-03822-P04-CH1	3338512	OK	0.7461184	-0.6628013	0.0632595	0	-108.759	-47.121	-0.146	NA
0.249795918367347	B5-03822-P01-CH0	3338520	OK	0.2403662	0.0220616	0.0830297	-0.966873	95.559	-23.57	-228.929	B5-03822-P02-CH0	3338520	OK	0.6769465	0.3770864	-0.6320992	0	-71.151	-101.5	1.299	B5-03822-P02-CH1	3338520	OK	0.7358652	-0.24609	-0.6308265	0	-76.333	-78.111	1.61	B5-03822-P03-CH0	3338520	OK	0.8381918	-0.3213451	-0.4406493	0	-91.769	-58.881	7.114	B5-03822-P03-CH1	3338520	OK	0.8200388	-0.1882895	-0.5404474	0	-98.743	-32.446	7.624	B5-03822-P04-CH0	3338520	OK	0.7583365	-0.244476	0.6042824	0	-120.062	-43.87	7.344	B5-03822-P04-CH1	3338520	OK	0.7463975	-0.6624264	0.0638915	0	-108.793	-47.147	-0.175	NA
0.259787755102041	B5-03822-P01-CH0	3338528	OK	0.2403448	0.0219836	0.0830871	-0.9668752	95.574	-23.52	-228.882	B5-03822-P02-CH0	3338528	OK	0.6823375	0.3896377	-0.618545	0	-71.516	-100.831	1.718	B5-03822-P02-CH1	3338528	OK	0.7307122	-0.2411641	-0.6386702	0	-75.457	-77.716	1.441	B5-03822-P03-CH0	3338528	OK	0.8399644	-0.3304976	-0.4303849	0	-91.703	-59.083	6.98	B5-03822-P03-CH1	3338528	OK	0.8209766	-0.1873898	-0.5393353	0	-98.871	-32.523	7.984	B5-03822-P04-CH0	3338528	OK	0.7581324	-0.2443478	0.6045903	0	-120.052	-43.657	7.132	B5-03822-P04-CH1	3338528	OK	0.7464533	-0.6622817	0.0647332	0	-108.832	-47.257	-0.16	NA
0.269779591836735	B5-03822-P01-CH0	3338536	OK	0.2404015	0.0219575	0.0831049	-0.9668602	95.591	-23.468	-228.797	B5-03822-P02-CH0	3338536	OK	0.6872777	0.4005805	-0.6059576	0	-71.974	-100.777	1.684	B5-03822-P02-CH1	3338536	OK	0.7263795	-0.2334149	-0.6464444	0	-75.181	-77.51	1.048	B5-03822-P03-CH0	3338536	OK	0.841732	-0.3387291	-0.4204161	0	-91.276	-59.993	7.191	B5-03822-P03-CH1	3338536	OK	0.8207242	-0.1875511	-0.5396632	0	-98.92	-32.43	7.916	B5-03822-P04-CH0	3338536	OK	0.758003	-0.2440568	0.6048701	0	-120.061	-43.687	7.053	B5-03822-P04-CH1	3338536	OK	0.7464864	-0.6621633	0.065558	0	-108.899	-47.401	-0.102	NA
0.279771428571429	B5-03822-P01-CH0	3338544	OK	0.2403771	0.0218663	0.0832497	-0.9668558	95.62	-23.415	-228.755	B5-03822-P02-CH0	3338544	OK	0.6910002	0.4117686	-0.5941089	0	-72.699	-100.572	1.532	B5-03822-P02-CH1	3338544	OK	0.7250939	-0.2239092	-0.6512323	0	-74.356	-77.873	1.227	B5-03822-P03-CH0	3338544	OK	0.8451348	-0.3389159	-0.4133801	0	-91.34	-60.364	7.681	B5-03822-P03-CH1	3338544	OK	0.820494	-0.1875744	-0.540005	0	-99.039	-32.338	7.774	B5-03822-P04-CH0	3338544	OK	0.7579838	-0.2444754	0.6047249	0	-120.072	-43.489	6.906	B5-03822-P04-CH1	3338544	OK	0.7466078	-0.6619768	0.0660561	0	-108.919	-47.531	-0.052	NA
0.289763265306122	B5-03822-P01-CH0	3338552	OK	0.2403791	0.0217264	0.0832597	-0.9668576	95.599	-23.316	-228.712	B5-03822-P02-CH0	3338552	OK	0.6946756	0.4223165	-0.5823011	0	-73.355	-100.728	1.88	B5-03822-P02-CH1	3338552	OK	0.724882	-0.2132706	-0.6550281	0	-73.982	-77.643	1.46	B5-03822-P03-CH0	3338552	OK	0.8486992	-0.3327783	-0.4110575	0	-91.186	-60.581	7.861	B5-03822-P03-CH1	3338552	OK	0.8205428	-0.1875436	-0.5399415	0	-99.088	-32.18	7.63	B5-03822-P04-CH0	3338552	OK	0.7578199	-0.2453199	0.6045885	0	-120.009	-43.221	6.77	B5-03822-P04-CH1	3338552	OK	0.7466477	-0.6618886	0.0664887	0	-108.819	-47.547	-0.126	NA
0.299755102040816	B5-03822-P01-CH0	3338560	OK	0.2404813	0.0217415	0.0831887	-0.966838	95.628	-23.244	-228.64	B5-03822-P02-CH0	3338560	OK	0.6974399	0.4327926	-0.5711989	0	-73.741	-100.728	1.971	B5-03822-P02-CH1	3338560	OK	0.7257213	-0.2074777	-0.6559585	0	-74.253	-77.807	1.6	B5-03822-P03-CH0	3338560	OK	0.8510493	-0.3233152	-0.4137419	0	-91.375	-60.982	7.889	B5-03822-P03-CH1	3338560	OK	0.820448	-0.187686	-0.5400362	0	-99.271	-32.087	7.534	B5-03822-P04-CH0	3338560	OK	0.7576417	-0.2469551	0.6041459	0	-119.856	-42.907	6.614	B5-03822-P04-CH1	3338560	OK	0.7466843	-0.6618307	0.0666536	0	-108.845	-47.585	-0.134	NA
0.30974693877551	B5-03822-P01-CH0	3338568	OK	0.2405124	0.0218092	0.0828742	-0.9668557	95.656	-23.181	-228.593	B5-03822-P02-CH0	3338568	OK	0.6983795	0.4428134	-0.562301	0	-74.098	-100.394	1.16	B5-03822-P02-CH1	3338568	OK	0.7277118	-0.2028957	-0.6551861	0	-74.311	-78.033	1.379	B5-03822-P03-CH0	3338568	OK	0.8546556	-0.3118403	-0.4151137	0	-91.605	-61.013	8.185	B5-03822-P03-CH1	3338568	OK	0.8204929	-0.1880209	-0.5398515	0	-99.452	-31.996	7.478	B5-03822-P04-CH0	3338568	OK	0.7575098	-0.2567818	0.6002017	0	-118.846	-42.872	7.2	B5-03822-P04-CH1	3338568	OK	0.7465338	-0.6620081	0.0665781	0	-108.889	-47.66	-0.184	NA
0.319738775510204	B5-03822-P01-CH0	3338576	OK	0.240723	0.0218231	0.0829077	-0.9668001	95.688	-23.094	-228.541	B5-03822-P02-CH0	3338576	OK	0.6985735	0.4494721	-0.5567495	0	-74.565	-101.468	0.633	B5-03822-P02-CH1	3338576	OK	0.7298726	-0.1956348	-0.6549909	0	-74.665	-78.551	2.003	B5-03822-P03-CH0	3338576	OK	0.8593684	-0.2995006	-0.4144699	0	-91.191	-61.72	8.971	B5-03822-P03-CH1	3338576	OK	0.8229873	-0.1909439	-0.5350069	0	-100.219	-31.748	7.504	B5-03822-P04-CH0	3338576	OK	0.7581074	-0.2597349	0.5981731	0	-118.494	-41.988	7.226	B5-03822-P04-CH1	3338576	OK	0.7466431	-0.6618807	0.0666187	0	-108.82	-47.722	-0.274	NA
0.329730612244898	B5-03822-P01-CH0	3338584	OK	0.2409422	0.0218848	0.0829803	-0.9667379	95.706	-22.988	-228.473	B5-03822-P02-CH0	3338584	OK	0.6965451	0.4533763	-0.5561249	0	-74.901	-101.701	1.063	B5-03822-P02-CH1	3338584	OK	0.7341563	-0.1865086	-0.6528622	0	-74.711	-78.973	2.251	B5-03822-P03-CH0	3338584	OK	0.8630499	-0.282937	-0.4184394	0	-91.364	-62.104	9.377	B5-03822-P03-CH1	3338584	OK	0.8234155	-0.1942048	-0.5331711	0	-100.473	-31.641	7.133	B5-03822-P04-CH0	3338584	OK	0.75751	-0.2592002	0.5991609	0	-117.763	-42.638	8.481	B5-03822-P04-CH1	3338584	OK	0.7468835	-0.6616361	0.0663531	0	-108.866	-47.664	-0.355	NA
0.339722448979592	B5-03822-P01-CH0	3338592	OK	0.2409244	0.0217573	0.0827425	-0.9667656	95.693	-22.96	-228.456	B5-03822-P02-CH0	3338592	OK	0.6935363	0.4537889	-0.5595383	0	-75.276	-102.082	0.896	B5-03822-P02-CH1	3338592	OK	0.7390577	-0.1782658	-0.6496269	0	-75.064	-79.836	1.742	B5-03822-P03-CH0	3338592	OK	0.8634768	-0.2638117	-0.4298968	0	-92.248	-61.863	8.971	B5-03822-P03-CH1	3338592	OK	0.8242497	-0.193698	-0.5320653	0	-100.448	-31.471	7.47	B5-03822-P04-CH0	3338592	OK	0.7577723	-0.255901	0.6002465	0	-118.063	-43.216	8.853	B5-03822-P04-CH1	3338592	OK	0.746792	-0.6618039	0.0657057	0	-108.774	-47.693	-0.473	NA
0.349714285714286	B5-03822-P01-CH0	3338600	OK	0.2409273	0.0217127	0.0825488	-0.9667824	95.684	-22.935	-228.443	B5-03822-P02-CH0	3338600	OK	0.6891546	0.4499885	-0.5679579	0	-75.482	-101.891	1.343	B5-03822-P02-CH1	3338600	OK	0.742994	-0.1712105	-0.6470293	0	-75.486	-80.494	1.648	B5-03822-P03-CH0	3338600	OK	0.8615605	-0.2461175	-0.4440042	0	-92.102	-61.893	8.905	B5-03822-P03-CH1	3338600	OK	0.8244864	-0.1943392	-0.5314645	0	-100.727	-31.495	7.77	B5-03822-P04-CH0	3338600	OK	0.7570858	-0.2585503	0.5999773	0	-117.395	-40.43	6.911	B5-03822-P04-CH1	3338600	OK	0.746943	-0.6617296	0.0647304	0	-108.68	-47.494	-0.649	NA
0.35970612244898	B5-03822-P01-CH0	3338608	OK	0.240979	0.0218124	0.0824809	-0.9667731	95.734	-22.896	-228.457	B5-03822-P02-CH0	3338608	OK	0.6859148	0.4427678	-0.5774752	0	-75.565	-102.588	1.709	B5-03822-P02-CH1	3338608	OK	0.7456183	-0.1679425	-0.6448633	0	-75.546	-80.47	2.029	B5-03822-P03-CH0	3338608	OK	0.8561032	-0.2301567	-0.4627259	0	-91.961	-62.017	8.681	B5-03822-P03-CH1	3338608	OK	0.8256614	-0.1940898	-0.5297285	0	-100.535	-31.334	7.544	B5-03822-P04-CH0	3338608	OK	0.7572522	-0.2564018	0.600689	0	-117.448	-39.716	6.235	B5-03822-P04-CH1	3338608	OK	0.7470818	-0.6616513	0.0639244	0	-108.731	-47.377	-0.747	NA
0.369697959183673	B5-03822-P01-CH0	3338616	OK	0.2409902	0.0218699	0.0824138	-0.9667747	95.767	-22.836	-228.486	B5-03822-P02-CH0	3338616	OK	0.6833478	0.4340153	-0.587083	0	-75.135	-102.348	1.461	B5-03822-P02-CH1	3338616	OK	0.745916	-0.1707062	-0.6437924	0	-75.993	-80.508	1.441	B5-03822-P03-CH0	3338616	OK	0.8495225	-0.213936	-0.482227	0	-91.559	-62.048	8.619	B5-03822-P03-CH1	3338616	OK	0.8265557	-0.1947638	-0.5280841	0	-100.457	-31.356	7.595	B5-03822-P04-CH0	3338616	OK	0.7575016	-0.2540609	0.6013688	0	-118.446	-42.199	8.021	B5-03822-P04-CH1	3338616	OK	0.7470974	-0.6617186	0.0630403	0	-108.711	-47.32	-0.7	NA
0.379689795918367	B5-03822-P01-CH0	3338624	OK	0.2410301	0.0219672	0.0820604	-0.9667927	95.78	-22.808	-228.475	B5-03822-P02-CH0	3338624	OK	0.682182	0.4233895	-0.5961284	0	-74.717	-101.894	1.246	B5-03822-P02-CH1	3338624	OK	0.7473715	-0.1752248	-0.6408839	0	-75.956	-80.234	2.08	B5-03822-P03-CH0	3338624	OK	0.8412486	-0.1983369	-0.5029545	0	-91.324	-61.908	8.675	B5-03822-P03-CH1	3338624	OK	0.8264763	-0.1945955	-0.5282703	0	-100.744	-31.19	7.527	B5-03822-P04-CH0	3338624	OK	0.7571011	-0.2477581	0.6044947	0	-117.498	-40.666	7.68	B5-03822-P04-CH1	3338624	OK	0.7469774	-0.6619262	0.0622771	0	-108.627	-47.205	-0.633	NA
0.389681632653061	B5-03822-P01-CH0	3338632	OK	0.240995	0.0218055	0.0821231	-0.9667997	95.729	-22.797	-228.498	B5-03822-P02-CH0	3338632	OK	0.6825992	0.4118276	-0.6037022	0	-74.219	-101.759	0.743	B5-03822-P02-CH1	3338632	OK	0.7492143	-0.1780727	-0.6379405	0	-75.952	-80.153	2.202	B5-03822-P03-CH0	3338632	OK	0.8338067	-0.1809988	-0.5215419	0	-90.296	-61.561	8.506	B5-03822-P03-CH1	3338632	OK	0.8268123	-0.192187	-0.5286262	0	-100.772	-30.733	7.508	B5-03822-P04-CH0	3338632	OK	0.7577954	-0.2420576	0.6059326	0	-117.807	-41.457	8.593	B5-03822-P04-CH1	3338632	OK	0.7471547	-0.6618155	0.0613199	0	-108.556	-47.048	-0.621	NA
0.399673469387755	B5-03822-P01-CH0	3338640	OK	0.2408888	0.0216621	0.0821044	-0.966831	95.674	-22.784	-228.537	B5-03822-P02-CH0	3338640	OK	0.682847	0.4006169	-0.6109224	0	-73.642	-100.917	0.914	B5-03822-P02-CH1	3338640	OK	0.7498425	-0.1799053	-0.6366869	0	-76.076	-80.124	1.965	B5-03822-P03-CH0	3338640	OK	0.8235894	-0.165049	-0.542641	0	-90.324	-61.286	7.574	B5-03822-P03-CH1	3338640	OK	0.8249563	-0.1932933	-0.5311165	0	-100.772	-31.074	7.352	B5-03822-P04-CH0	3338640	OK	0.7581521	-0.2384982	0.606897	0	-118.07	-41.614	8.458	B5-03822-P04-CH1	3338640	OK	0.7470896	-0.6619684	0.0604572	0	-108.429	-46.974	-0.641	NA
0.409665306122449	B5-03822-P01-CH0	3338648	OK	0.2408238	0.0216145	0.0819848	-0.9668584	95.652	-22.773	-228.584	B5-03822-P02-CH0	3338648	OK	0.6842367	0.3897264	-0.6163874	0	-73.304	-100.451	1.151	B5-03822-P02-CH1	3338648	OK	0.749326	-0.1791547	-0.6375062	0	-76.27	-79.719	2.679	B5-03822-P03-CH0	3338648	OK	0.814948	-0.1493222	-0.5599666	0	-89.446	-60.679	7.734	B5-03822-P03-CH1	3338648	OK	0.8255596	-0.1935845	-0.530072	0	-100.708	-31.009	7.428	B5-03822-P04-CH0	3338648	OK	0.7580872	-0.2368306	0.6076307	0	-117.938	-40.979	7.83	B5-03822-P04-CH1	3338648	OK	0.7471099	-0.6620347	0.0594711	0	-108.319	-46.761	-0.547	NA
0.419657142857143	B5-03822-P01-CH0	3338656	OK	0.24067	0.0216802	0.0816895	-0.9669202	95.66	-22.816	-228.588	B5-03822-P02-CH0	3338656	OK	0.6859935	0.378939	-0.6211426	0	-73.17	-99.772	0.971	B5-03822-P02-CH1	3338656	OK	0.7486888	-0.1791227	-0.6382633	0	-75.914	-79.137	1.411	B5-03822-P03-CH0	3338656	OK	0.8054344	-0.1349324	-0.577121	0	-88.709	-60.42	7.08	B5-03822-P03-CH1	3338656	OK	0.8259421	-0.1935687	-0.5294817	0	-100.649	-30.974	7.56	B5-03822-P04-CH0	3338656	OK	0.7580911	-0.2308475	0.6099241	0	-118.271	-42.31	7.957	B5-03822-P04-CH1	3338656	OK	0.7468893	-0.6623644	0.0585646	0	-108.3	-46.605	-0.554	NA
0.429648979591837	B5-03822-P01-CH0	3338664	OK	0.2404701	0.0218066	0.0814257	-0.9669894	95.693	-22.836	-228.56	B5-03822-P02-CH0	3338664	OK	0.688911	0.3697235	-0.623463	0	-73.524	-99.485	1.108	B5-03822-P02-CH1	3338664	OK	0.7457139	-0.178168	-0.6420023	0	-75.99	-78.976	1.923	B5-03822-P03-CH0	3338664	OK	0.7990087	-0.1240526	-0.5883843	0	-87.901	-59.562	6.54	B5-03822-P03-CH1	3338664	OK	0.8261119	-0.1935704	-0.529216	0	-100.621	-30.973	7.748	B5-03822-P04-CH0	3338664	OK	0.7592757	-0.2248964	0.6106734	0	-119.159	-42.284	7.746	B5-03822-P04-CH1	3338664	OK	0.7465427	-0.6628101	0.0579374	0	-108.184	-46.534	-0.658	NA
0.439640816326531	B5-03822-P01-CH0	3338672	OK	0.2405548	0.0217237	0.0817889	-0.9669395	95.685	-22.804	-228.643	B5-03822-P02-CH0	3338672	OK	0.6926948	0.3611866	-0.6242741	0	-73.341	-98.978	1.01	B5-03822-P02-CH1	3338672	OK	0.7431856	-0.1772251	-0.6451871	0	-75.546	-78.496	2.134	B5-03822-P03-CH0	3338672	OK	0.7979004	-0.1317353	-0.5882183	0	-88.368	-59.484	6.858	B5-03822-P03-CH1	3338672	OK	0.8263677	-0.1935778	-0.5288138	0	-100.522	-30.962	7.945	B5-03822-P04-CH0	3338672	OK	0.7586892	-0.2226285	0.6122314	0	-118.795	-41.097	6.631	B5-03822-P04-CH1	3338672	OK	0.7469483	-0.6624259	0.0570972	0	-108.201	-46.214	-0.615	NA
0.449632653061224	B5-03822-P01-CH0	3338680	OK	0.240657	0.0219755	0.0814975	-0.966933	95.778	-22.811	-228.643	B5-03822-P02-CH0	3338680	OK	0.6962067	0.3540483	-0.6244566	0	-73.097	-98.071	1.161	B5-03822-P02-CH1	3338680	OK	0.7410635	-0.1769637	-0.6476949	0	-75.288	-77.89	1.699	B5-03822-P03-CH0	3338680	OK	0.7996275	-0.1430471	-0.5832096	0	-88.813	-59.391	6.673	B5-03822-P03-CH1	3338680	OK	0.8253161	-0.1978564	-0.5288726	0	-99.976	-31.121	7.69	B5-03822-P04-CH0	3338680	OK	0.7595285	-0.2176951	0.6129644	0	-119.421	-42.515	7.346	B5-03822-P04-CH1	3338680	OK	0.7465148	-0.6629328	0.0568839	0	-108.254	-46.3	-0.377	NA
0.459624489795918	B5-03822-P01-CH0	3338688	OK	0.2406669	0.0219491	0.0812525	-0.9669518	95.77	-22.827	-228.625	B5-03822-P02-CH0	3338688	OK	0.6993414	0.3473434	-0.6247192	0	-73.039	-97.626	1.03	B5-03822-P02-CH1	3338688	OK	0.7410209	-0.1783555	-0.6473619	0	-74.99	-77.638	1.373	B5-03822-P03-CH0	3338688	OK	0.8021253	-0.1515252	-0.5776116	0	-88.596	-59.411	7.079	B5-03822-P03-CH1	3338688	OK	0.8246712	-0.20181	-0.5283845	0	-99.736	-31.352	7.717	B5-03822-P04-CH0	3338688	OK	0.7604575	-0.217309	0.6119487	0	-119.792	-43.475	7.818	B5-03822-P04-CH1	3338688	OK	0.7460622	-0.6634622	0.0566492	0	-108.098	-46.363	-0.288	NA
0.469616326530612	B5-03822-P01-CH0	3338696	OK	0.2408499	0.0218733	0.0813009	-0.9669038	95.757	-22.843	-228.619	B5-03822-P02-CH0	3338696	OK	0.702107	0.3394546	-0.6259523	0	-72.855	-97.652	1.115	B5-03822-P02-CH1	3338696	OK	0.7400892	-0.1797401	-0.6480443	0	-75.481	-77.969	2.282	B5-03822-P03-CH0	3338696	OK	0.802766	-0.1596453	-0.574526	0	-89.035	-59.384	6.965	B5-03822-P03-CH1	3338696	OK	0.8231288	-0.2055096	-0.5293626	0	-99.922	-31.282	8.019	B5-03822-P04-CH0	3338696	OK	0.7606464	-0.218069	0.6114433	0	-120.119	-43.641	7.526	B5-03822-P04-CH1	3338696	OK	0.7460919	-0.6634433	0.0564791	0	-107.962	-46.274	-0.12	NA
0.479608163265306	B5-03822-P01-CH0	3338704	OK	0.2409487	0.0218466	0.0812231	-0.9668864	95.763	-22.838	-228.618	B5-03822-P02-CH0	3338704	OK	0.7039838	0.3322834	-0.6276899	0	-72.782	-97.806	1.251	B5-03822-P02-CH1	3338704	OK	0.7404255	-0.1794251	-0.6477474	0	-74.988	-77.602	1.573	B5-03822-P03-CH0	3338704	OK	0.8022555	-0.1678024	-0.5729123	0	-88.844	-58.843	6.776	B5-03822-P03-CH1	3338704	OK	0.8227247	-0.2086339	-0.5287683	0	-99.424	-31.747	7.797	B5-03822-P04-CH0	3338704	OK	0.76008	-0.2173919	0.6123881	0	-120.237	-43.63	7.089	B5-03822-P04-CH1	3338704	OK	0.7459599	-0.6636241	0.0560963	0	-107.992	-46.126	-0.303	NA
0.4896	B5-03822-P01-CH0	3338712	OK	0.2411469	0.0219843	0.0813997	-0.966819	95.832	-22.787	-228.594	B5-03822-P02-CH0	3338712	OK	0.7037966	0.327008	-0.6306632	0	-72.739	-97.326	1.106	B5-03822-P02-CH1	3338712	OK	0.739109	-0.1802466	-0.6490216	0	-74.823	-77.632	2.033	B5-03822-P03-CH0	3338712	OK	0.8002309	-0.1766796	-0.5730749	0	-88.473	-58.66	6.525	B5-03822-P03-CH1	3338712	OK	0.8230484	-0.2075483	-0.5286918	0	-98.942	-31.866	7.804	B5-03822-P04-CH0	3338712	OK	0.7611023	-0.2122295	0.612929	0	-120.987	-44.088	7.69	B5-03822-P04-CH1	3338712	OK	0.7458175	-0.6637814	0.0561296	0	-107.963	-46.191	-0.106	NA
0.499591836734694	B5-03822-P01-CH0	3338720	OK	0.2413137	0.0219156	0.0813587	-0.9667824	95.799	-22.778	-228.548	B5-03822-P02-CH0	3338720	OK	0.7038385	0.3215789	-0.6334023	0	-72.223	-97.063	0.558	B5-03822-P02-CH1	3338720	OK	0.7372706	-0.1806192	-0.651006	0	-74.448	-77.671	1.435	B5-03822-P03-CH0	3338720	OK	0.7974372	-0.1861104	-0.5739833	0	-88.137	-58.929	6	B5-03822-P03-CH1	3338720	OK	0.8236702	-0.2051221	-0.5286703	0	-98.803	-31.775	7.808	B5-03822-P04-CH0	3338720	OK	0.761295	-0.208481	0.6139753	0	-121.038	-43.939	7.957	B5-03822-P04-CH1	3338720	OK	0.7457721	-0.6638516	0.0559026	0	-107.941	-46.091	0.012	NA
0.509583673469388	B5-03822-P01-CH0	3338728	OK	0.2415164	0.021915	0.0815009	-0.9667198	95.805	-22.804	-228.464	B5-03822-P02-CH0	3338728	OK	0.701969	0.3169646	-0.6377876	0	-72.314	-96.974	1.068	B5-03822-P02-CH1	3338728	OK	0.7339468	-0.1831409	-0.65405	0	-74.546	-77.798	1.044	B5-03822-P03-CH0	3338728	OK	0.7957114	-0.1937679	-0.5738444	0	-87.67	-58.954	5.686	B5-03822-P03-CH1	3338728	OK	0.8240375	-0.204426	-0.5283676	0	-98.598	-31.577	7.452	B5-03822-P04-CH0	3338728	OK	0.7612019	-0.2065968	0.6147271	0	-121.307	-44.006	6.764	B5-03822-P04-CH1	3338728	OK	0.7457241	-0.6639104	0.0558449	0	-107.876	-46.116	-0.044	NA
0.519575510204082	B5-03822-P01-CH0	3338736	OK	0.2415808	0.0219912	0.0815028	-0.9667018	95.854	-22.766	-228.474	B5-03822-P02-CH0	3338736	OK	0.7006454	0.3131582	-0.6411146	0	-72.319	-97.387	0.795	B5-03822-P02-CH1	3338736	OK	0.7315231	-0.1861068	-0.6559255	0	-74.276	-77.608	0.88	B5-03822-P03-CH0	3338736	OK	0.7941293	-0.2035417	-0.5726513	0	-87.73	-59.117	6.018	B5-03822-P03-CH1	3338736	OK	0.8239827	-0.2045429	-0.5284078	0	-98.514	-31.713	7.449	B5-03822-P04-CH0	3338736	OK	0.7612803	-0.2045835	0.6153031	0	-121.367	-44.719	7.841	B5-03822-P04-CH1	3338736	OK	0.7455648	-0.6641094	0.0556047	0	-107.877	-46.197	0.28	NA
0.529567346938775	B5-03822-P01-CH0	3338744	OK	0.2418149	0.0218808	0.081687	-0.9666302	95.852	-22.739	-228.525	B5-03822-P02-CH0	3338744	OK	0.6994283	0.3101166	-0.6439159	0	-71.87	-97.34	1.045	B5-03822-P02-CH1	3338744	OK	0.7299457	-0.1883534	-0.6570405	0	-73.78	-77.121	1.158	B5-03822-P03-CH0	3338744	OK	0.7933359	-0.2140194	-0.5699245	0	-87.933	-59.098	5.645	B5-03822-P03-CH1	3338744	OK	0.8237229	-0.2034037	-0.5292518	0	-98.74	-31.472	7.71	B5-03822-P04-CH0	3338744	OK	0.7614381	-0.2036634	0.615413	0	-121.494	-45.035	8.013	B5-03822-P04-CH1	3338744	OK	0.7456289	-0.6640578	0.0553597	0	-107.922	-46.192	0.487	NA
0.539559183673469	B5-03822-P01-CH0	3338752	OK	0.2420132	0.021778	0.0819694	-0.966559	95.836	-22.698	-228.545	B5-03822-P02-CH0	3338752	OK	0.6983961	0.3073265	-0.6463693	0	-71.69	-97.355	0.711	B5-03822-P02-CH1	3338752	OK	0.7291083	-0.1909234	-0.6572285	0	-73.814	-77.832	1.787	B5-03822-P03-CH0	3338752	OK	0.7952387	-0.2248131	-0.5630759	0	-87.764	-59.259	5.55	B5-03822-P03-CH1	3338752	OK	0.8237884	-0.2025647	-0.5294717	0	-98.637	-31.284	7.393	B5-03822-P04-CH0	3338752	OK	0.7614125	-0.203027	0.615655	0	-121.442	-44.934	7.91	B5-03822-P04-CH1	3338752	OK	0.7456309	-0.6640555	0.0553602	0	-107.848	-46.251	0.545	NA
0.549551020408163	B5-03822-P01-CH0	3338760	OK	0.242054	0.0217744	0.0820909	-0.9665386	95.829	-22.659	-228.503	B5-03822-P02-CH0	3338760	OK	0.6972804	0.3065587	-0.6479366	0	-71.571	-97.368	0.604	B5-03822-P02-CH1	3338760	OK	0.7301568	-0.1906417	-0.6561454	0	-73.679	-77.813	1.277	B5-03822-P03-CH0	3338760	OK	0.7993645	-0.2383067	-0.5515672	0	-87.827	-59.393	5.659	B5-03822-P03-CH1	3338760	OK	0.8237608	-0.2049334	-0.5286024	0	-98.818	-31.738	7.928	B5-03822-P04-CH0	3338760	OK	0.7612978	-0.2035844	0.6156128	0	-121.733	-44.29	6.806	B5-03822-P04-CH1	3338760	OK	0.745683	-0.6640246	0.0550293	0	-107.902	-46.132	0.351	NA
0.559542857142857	B5-03822-P01-CH0	3338768	OK	0.2421772	0.0216751	0.0825193	-0.9664735	95.787	-22.595	-228.462	B5-03822-P02-CH0	3338768	OK	0.6973434	0.306311	-0.6479859	0	-71.269	-97.805	0.195	B5-03822-P02-CH1	3338768	OK	0.7301718	-0.1911794	-0.6559722	0	-73.787	-77.796	1.243	B5-03822-P03-CH0	3338768	OK	0.8014761	-0.2535446	-0.541619	0	-88.73	-59.506	6.075	B5-03822-P03-CH1	3338768	OK	0.8235681	-0.2043313	-0.5291354	0	-98.726	-31.622	7.777	B5-03822-P04-CH0	3338768	OK	0.7610451	-0.2024168	0.6163098	0	-121.724	-45.041	7.703	B5-03822-P04-CH1	3338768	OK	0.7460782	-0.6636095	0.0546777	0	-107.954	-45.93	0.222	NA
0.569534693877551	B5-03822-P01-CH0	3338776	OK	0.2420658	0.0217892	0.0823209	-0.9665157	95.798	-22.569	-228.442	B5-03822-P02-CH0	3338776	OK	0.6974189	0.3080791	-0.6470658	0	-70.883	-97.621	0.052	B5-03822-P02-CH1	3338776	OK	0.7291239	-0.1902363	-0.6574105	0	-73.638	-77.901	1.68	B5-03822-P03-CH0	3338776	OK	0.8027447	-0.2660865	-0.5336655	0	-88.127	-59.426	5.974	B5-03822-P03-CH1	3338776	OK	0.821525	-0.1997087	-0.5340534	0	-98.62	-31.656	7.518	B5-03822-P04-CH0	3338776	OK	0.7610669	-0.2052885	0.6153322	0	-121.409	-44.631	7.235	B5-03822-P04-CH1	3338776	OK	0.7459067	-0.6638429	0.0541831	0	-108.044	-45.818	0.123	NA
0.579526530612245	B5-03822-P01-CH0	3338784	OK	0.2420953	0.021941	0.0822925	-0.9665073	95.864	-22.572	-228.459	B5-03822-P02-CH0	3338784	OK	0.696389	0.3114628	-0.6465549	0	-71.09	-97.724	0.527	B5-03822-P02-CH1	3338784	OK	0.7282078	-0.1890443	-0.6587683	0	-73.074	-77.8	1.581	B5-03822-P03-CH0	3338784	OK	0.8014486	-0.2759946	-0.5305724	0	-87.863	-59.301	5.671	B5-03822-P03-CH1	3338784	OK	0.8221736	-0.1973563	-0.5339299	0	-98.128	-32.192	7.925	B5-03822-P04-CH0	3338784	OK	0.760953	-0.204931	0.6155923	0	-121.499	-44.576	7.115	B5-03822-P04-CH1	3338784	OK	0.7458127	-0.6639597	0.0540459	0	-108.095	-45.873	0.166	NA
0.589518367346939	B5-03822-P01-CH0	3338792	OK	0.2421616	0.021965	0.0824028	-0.9664808	95.872	-22.538	-228.483	B5-03822-P02-CH0	3338792	OK	0.695399	0.3141775	-0.646307	0	-71.552	-98.131	1.127	B5-03822-P02-CH1	3338792	OK	0.72598	-0.189728	-0.6610267	0	-73.385	-77.874	1.367	B5-03822-P03-CH0	3338792	OK	0.8008579	-0.2819584	-0.5283238	0	-87.458	-59.486	5.736	B5-03822-P03-CH1	3338792	OK	0.820811	-0.1948462	-0.5369398	0	-98.828	-31.893	7.458	B5-03822-P04-CH0	3338792	OK	0.7606904	-0.205721	0.6156533	0	-121.494	-44.24	6.649	B5-03822-P04-CH1	3338792	OK	0.7459228	-0.6638571	0.0537851	0	-108.236	-45.795	0.028	NA
0.599510204081633	B5-03822-P01-CH0	3338800	OK	0.242157	0.0221784	0.0820962	-0.9665031	95.947	-22.543	-228.537	B5-03822-P02-CH0	3338800	OK	0.6955001	0.3180076	-0.6443219	0	-71.3	-98.044	1.364	B5-03822-P02-CH1	3338800	OK	0.7251834	-0.19279	-0.6610151	0	-73.421	-77.974	1.411	B5-03822-P03-CH0	3338800	OK	0.8005375	-0.2861999	-0.5265257	0	-87.451	-59.766	6.134	B5-03822-P03-CH1	3338800	OK	0.8207347	-0.1925518	-0.5378833	0	-98.857	-31.992	7.351	B5-03822-P04-CH0	3338800	OK	0.7603271	-0.2072531	0.6155882	0	-121.459	-43.934	6.424	B5-03822-P04-CH1	3338800	OK	0.7457072	-0.6641216	0.0535102	0	-108.314	-45.769	-0.085	NA
0.609502040816327	B5-03822-P01-CH0	3338808	OK	0.2421272	0.022307	0.0820503	-0.9665116	95.994	-22.493	-228.579	B5-03822-P02-CH0	3338808	OK	0.6955326	0.3234956	-0.641549	0	-71.032	-97.907	0.487	B5-03822-P02-CH1	3338808	OK	0.725943	-0.1960904	-0.6592081	0	-73.091	-78.04	1.327	B5-03822-P03-CH0	3338808	OK	0.8017078	-0.2899638	-0.5226716	0	-87.226	-59.878	6.145	B5-03822-P03-CH1	3338808	OK	0.8210939	-0.1895275	-0.538409	0	-98.857	-32.122	7.687	B5-03822-P04-CH0	3338808	OK	0.759333	-0.2171844	0.6133876	0	-121.311	-43.212	6.488	B5-03822-P04-CH1	3338808	OK	0.7456346	-0.6642037	0.0535034	0	-108.318	-45.768	-0.04	NA
0.61949387755102	B5-03822-P01-CH0	3338816	OK	0.2422791	0.0222263	0.0820683	-0.9664738	95.963	-22.473	-228.587	B5-03822-P02-CH0	3338816	OK	0.6943519	0.3298655	-0.6395813	0	-71.304	-97.94	0.985	B5-03822-P02-CH1	3338816	OK	0.7268705	-0.1993298	-0.6572114	0	-72.944	-77.827	1.349	B5-03822-P03-CH0	3338816	OK	0.8024395	-0.2919415	-0.5204431	0	-87.509	-59.705	6.069	B5-03822-P03-CH1	3338816	OK	0.8217059	-0.1864647	-0.5385446	0	-98.757	-32.008	7.573	B5-03822-P04-CH0	3338816	OK	0.7590188	-0.2217883	0.6121278	0	-120.976	-42.971	5.376	B5-03822-P04-CH1	3338816	OK	0.7456529	-0.6641793	0.0535506	0	-108.362	-45.69	-0.299	NA
0.629485714285714	B5-03822-P01-CH0	3338824	OK	0.2422732	0.0221401	0.0821906	-0.9664669	95.934	-22.494	-228.568	B5-03822-P02-CH0	3338824	OK	0.6942729	0.3364626	-0.6362217	0	-71.038	-98.028	1.275	B5-03822-P02-CH1	3338824	OK	0.7273892	-0.2024512	-0.6556816	0	-73.086	-77.851	1.38	B5-03822-P03-CH0	3338824	OK	0.8024632	-0.2913133	-0.5207584	0	-88.095	-59.769	6.149	B5-03822-P03-CH1	3338824	OK	0.822046	-0.1826115	-0.5393453	0	-98.838	-32.021	8.259	B5-03822-P04-CH0	3338824	OK	0.7590415	-0.2236385	0.611426	0	-120.475	-43.388	6.546	B5-03822-P04-CH1	3338824	OK	0.7458022	-0.6640267	0.0533631	0	-108.302	-45.669	-0.328	NA
0.639477551020408	B5-03822-P01-CH0	3338832	OK	0.2422637	0.0221539	0.0820281	-0.9664827	95.937	-22.518	-228.566	B5-03822-P02-CH0	3338832	OK	0.6941626	0.3433184	-0.6326695	0	-70.795	-97.91	0.992	B5-03822-P02-CH1	3338832	OK	0.7276654	-0.2064854	-0.6541153	0	-73.097	-78.135	1.435	B5-03822-P03-CH0	3338832	OK	0.8036214	-0.2897569	-0.51984	0	-87.786	-59.988	6.575	B5-03822-P03-CH1	3338832	OK	0.8224138	-0.1812284	-0.5392512	0	-98.808	-32.213	8.002	B5-03822-P04-CH0	3338832	OK	0.7589177	-0.2274333	0.6101787	0	-119.926	-42.383	6.666	B5-03822-P04-CH1	3338832	OK	0.7457353	-0.664098	0.0534107	0	-108.301	-45.702	-0.304	NA
0.649469387755102	B5-03822-P01-CH0	3338840	OK	0.2425043	0.0220583	0.0823024	-0.9664013	95.936	-22.504	-228.663	B5-03822-P02-CH0	3338840	OK	0.6933256	0.350021	-0.6299086	0	-70.731	-97.866	0.637	B5-03822-P02-CH1	3338840	OK	0.7278037	-0.2104707	-0.6526897	0	-72.764	-77.725	1.447	B5-03822-P03-CH0	3338840	OK	0.8045899	-0.2874016	-0.5196493	0	-87.393	-60.027	5.913	B5-03822-P03-CH1	3338840	OK	0.8229988	-0.1803045	-0.538668	0	-98.512	-32.699	8.308	B5-03822-P04-CH0	3338840	OK	0.7601269	-0.226132	0.6091563	0	-120.438	-43.97	7.24	B5-03822-P04-CH1	3338840	OK	0.7459377	-0.6638422	0.0537628	0	-108.282	-45.829	-0.03	NA
0.659461224489796	B5-03822-P01-CH0	3338848	OK	0.2424652	0.0220532	0.0820324	-0.9664342	95.939	-22.538	-228.688	B5-03822-P02-CH0	3338848	OK	0.6928357	0.3551079	-0.6275963	0	-70.647	-98.195	1.547	B5-03822-P02-CH1	3338848	OK	0.7256494	-0.2130812	-0.6542395	0	-73.148	-77.688	0.98	B5-03822-P03-CH0	3338848	OK	0.8039576	-0.286413	-0.5211715	0	-87.665	-60.16	6.187	B5-03822-P03-CH1	3338848	OK	0.8226041	-0.1782591	-0.5399502	0	-98.819	-32.529	8.463	B5-03822-P04-CH0	3338848	OK	0.7605955	-0.2296888	0.6072377	0	-120.263	-43.337	7.225	B5-03822-P04-CH1	3338848	OK	0.7458491	-0.6639582	0.0535598	0	-108.286	-45.82	-0.01	NA
0.66945306122449	B5-03822-P01-CH0	3338856	OK	0.2425005	0.0219502	0.0823265	-0.9664026	95.931	-22.525	-228.704	B5-03822-P02-CH0	3338856	OK	0.6917117	0.3597021	-0.6262183	0	-70.713	-97.983	1.611	B5-03822-P02-CH1	3338856	OK	0.72524	-0.2149891	-0.6540693	0	-72.947	-77.722	1.032	B5-03822-P03-CH0	3338856	OK	0.8040685	-0.2854483	-0.5215295	0	-87.637	-59.948	6.591	B5-03822-P03-CH1	3338856	OK	0.823954	-0.1771127	-0.5382666	0	-98.435	-32.499	7.983	B5-03822-P04-CH0	3338856	OK	0.7603458	-0.2339509	0.6059218	0	-119.608	-42.188	6.954	B5-03822-P04-CH1	3338856	OK	0.7460942	-0.6636838	0.0535463	0	-108.215	-45.827	-0.031	NA
0.679444897959184	B5-03822-P01-CH0	3338864	OK	0.242405	0.0218481	0.0822684	-0.9664339	95.873	-22.518	-228.694	B5-03822-P02-CH0	3338864	OK	0.6910822	0.3623888	-0.6253636	0	-70.929	-97.988	1.671	B5-03822-P02-CH1	3338864	OK	0.7258517	-0.2157018	-0.6531554	0	-72.797	-77.489	0.846	B5-03822-P03-CH0	3338864	OK	0.8036647	-0.2848109	-0.5224995	0	-87.73	-59.912	5.831	B5-03822-P03-CH1	3338864	OK	0.8231203	-0.1757228	-0.5399949	0	-98.975	-32.212	7.929	B5-03822-P04-CH0	3338864	OK	0.7612627	-0.2342093	0.6046695	0	-119.947	-42.635	7.295	B5-03822-P04-CH1	3338864	OK	0.7461257	-0.6636605	0.0533955	0	-108.127	-45.804	0.114	NA
0.689436734693878	B5-03822-P01-CH0	3338872	OK	0.2422411	0.0218701	0.0818455	-0.9665104	95.845	-22.562	-228.668	B5-03822-P02-CH0	3338872	OK	0.6919555	0.3639301	-0.6235001	0	-70.441	-97.774	1.382	B5-03822-P02-CH1	3338872	OK	0.7264739	-0.2176224	-0.6518253	0	-72.825	-77.658	1.593	B5-03822-P03-CH0	3338872	OK	0.8032524	-0.2850112	-0.5230241	0	-87.743	-60.1	5.799	B5-03822-P03-CH1	3338872	OK	0.8241503	-0.175668	-0.5384395	0	-98.484	-32.268	7.848	B5-03822-P04-CH0	3338872	OK	0.7611759	-0.235593	0.604241	0	-119.926	-42.965	7.585	B5-03822-P04-CH1	3338872	OK	0.7458948	-0.6639374	0.0531797	0	-108.04	-45.817	0.262	NA
0.699428571428571	B5-03822-P01-CH0	3338880	OK	0.242169	0.0218713	0.0817903	-0.9665331	95.84	-22.565	-228.653	B5-03822-P02-CH0	3338880	OK	0.6922978	0.3654551	-0.6222269	0	-70.238	-97.794	1.125	B5-03822-P02-CH1	3338880	OK	0.7274216	-0.2200081	-0.6499648	0	-72.678	-77.742	1.355	B5-03822-P03-CH0	3338880	OK	0.8031163	-0.2833697	-0.5241239	0	-87.577	-60.137	6.265	B5-03822-P03-CH1	3338880	OK	0.8244566	-0.1760464	-0.5378466	0	-98.412	-32.493	7.788	B5-03822-P04-CH0	3338880	OK	0.7608624	-0.2382691	0.6035861	0	-119.696	-42.324	6.995	B5-03822-P04-CH1	3338880	OK	0.7459009	-0.66394	0.0530612	0	-108.019	-45.827	0.389	NA
0.709420408163265	B5-03822-P01-CH0	3338888	OK	0.2420409	0.0219126	0.0815012	-0.9665886	95.845	-22.61	-228.679	B5-03822-P02-CH0	3338888	OK	0.6918566	0.3669364	-0.6218458	0	-70.609	-98.219	1.882	B5-03822-P02-CH1	3338888	OK	0.7274651	-0.2208104	-0.6496439	0	-72.751	-77.711	1.702	B5-03822-P03-CH0	3338888	OK	0.8023426	-0.2813659	-0.5263835	0	-87.801	-59.783	5.87	B5-03822-P03-CH1	3338888	OK	0.8240664	-0.1763848	-0.5383335	0	-98.623	-32.346	7.626	B5-03822-P04-CH0	3338888	OK	0.7611822	-0.2379131	0.6033233	0	-119.774	-43.54	8.095	B5-03822-P04-CH1	3338888	OK	0.7457696	-0.6641227	0.0526184	0	-108.122	-45.797	0.411	NA
0.719412244897959	B5-03822-P01-CH0	3338896	OK	0.2419389	0.0219722	0.0813461	-0.9666259	95.847	-22.65	-228.685	B5-03822-P02-CH0	3338896	OK	0.6925214	0.3692222	-0.6197492	0	-70.26	-98.185	1.36	B5-03822-P02-CH1	3338896	OK	0.7276449	-0.2219452	-0.6490556	0	-72.728	-77.665	1.045	B5-03822-P03-CH0	3338896	OK	0.8036637	-0.2847835	-0.522516	0	-87.453	-59.927	6.261	B5-03822-P03-CH1	3338896	OK	0.8234433	-0.1773689	-0.5389633	0	-98.639	-32.252	7.918	B5-03822-P04-CH0	3338896	OK	0.7609812	-0.242322	0.6018202	0	-119.491	-42.373	6.69	B5-03822-P04-CH1	3338896	OK	0.7456252	-0.6642935	0.0525103	0	-108.047	-45.927	0.729	NA
0.729404081632653	B5-03822-P01-CH0	3338904	OK	0.2419658	0.021967	0.0814344	-0.9666118	95.819	-22.637	-228.68	B5-03822-P02-CH0	3338904	OK	0.6921297	0.370566	-0.6193846	0	-70.362	-97.981	1.522	B5-03822-P02-CH1	3338904	OK	0.7279978	-0.2225036	-0.6484685	0	-72.914	-77.627	1.367	B5-03822-P03-CH0	3338904	OK	0.8036472	-0.2835049	-0.5232362	0	-87.421	-59.854	6.189	B5-03822-P03-CH1	3338904	OK	0.8237289	-0.1769099	-0.5386776	0	-98.552	-32.314	7.882	B5-03822-P04-CH0	3338904	OK	0.7610527	-0.2444377	0.6008736	0	-119.098	-41.623	6.881	B5-03822-P04-CH1	3338904	OK	0.7457068	-0.6642086	0.0524243	0	-108	-45.878	0.752	NA
0.739395918367347	B5-03822-P01-CH0	3338912	OK	0.2419003	0.0221378	0.0811199	-0.9666508	95.841	-22.666	-228.668	B5-03822-P02-CH0	3338912	OK	0.6920789	0.370653	-0.6193893	0	-70.55	-98.121	1.629	B5-03822-P02-CH1	3338912	OK	0.7289598	-0.2240524	-0.6468525	0	-72.922	-77.67	1.759	B5-03822-P03-CH0	3338912	OK	0.8032246	-0.282634	-0.5243551	0	-87.528	-59.861	6.146	B5-03822-P03-CH1	3338912	OK	0.8237357	-0.1765434	-0.5387874	0	-98.567	-32.343	7.932	B5-03822-P04-CH0	3338912	OK	0.7607196	-0.239568	0.6032519	0	-119.466	-41.931	6.933	B5-03822-P04-CH1	3338912	OK	0.7454372	-0.664533	0.0521469	0	-107.972	-45.888	0.777	NA
0.749387755102041	B5-03822-P01-CH0	3338920	OK	0.2417407	0.0222703	0.0809122	-0.9667051	95.856	-22.704	-228.633	B5-03822-P02-CH0	3338920	OK	0.6920871	0.3668782	-0.6216235	0	-70.479	-97.781	1.733	B5-03822-P02-CH1	3338920	OK	0.7298338	-0.2252856	-0.6454371	0	-72.94	-77.464	1.458	B5-03822-P03-CH0	3338920	OK	0.8030783	-0.2817265	-0.5250671	0	-87.6	-59.799	6.17	B5-03822-P03-CH1	3338920	OK	0.8237545	-0.1761779	-0.5388784	0	-98.603	-32.312	7.881	B5-03822-P04-CH0	3338920	OK	0.7610416	-0.2410501	0.6022545	0	-119.468	-41.95	7.093	B5-03822-P04-CH1	3338920	OK	0.7452809	-0.6647399	0.0517419	0	-107.896	-45.872	0.77	NA
