Wav.Time	B5.03822.P01.CH0	Frame	State	Q0	Qx	Qy	Qz	Tx	Ty	Tz	B5.03822.P02.CH0	Frame.1	State.1	Q0.1	Qx.1	Qy.1	Qz.1	Tx.1	Ty.1	Tz.1	B5.03822.P02.CH1	Frame.2	State.2	Q0.2	Qx.2	Qy.2	Qz.2	Tx.2	Ty.2	Tz.2	B5.03822.P03.CH0	Frame.3	State.3	Q0.3	Qx.3	Qy.3	Qz.3	Tx.3	Ty.3	Tz.3	B5.03822.P03.CH1	Frame.4	State.4	Q0.4	Qx.4	Qy.4	Qz.4	Tx.4	Ty.4	Tz.4	B5.03822.P04.CH0	Frame.5	State.5	Q0.5	Qx.5	Qy.5	Qz.5	Tx.5	Ty.5	Tz.5	B5.03822.P04.CH1	Frame.6	State.6	Q0.6	Qx.6	Qy.6	Qz.6	Tx.6	Ty.6	Tz.6	X
0	B5-03822-P01-CH0	852328	OK	0.2402716	0.0642161	0.0562674	-0.9669436	119.058	-35.429	-244.866	B5-03822-P02-CH0	852328	OK	0.7554223	0.1629597	-0.6346506	0	-78.979	-100.833	-3.335	B5-03822-P02-CH1	852328	OK	0.8381381	-0.1813606	-0.5144248	0	-82.292	-79.073	1.625	B5-03822-P03-CH0	852328	OK	0.749744	-0.325978	-0.5758665	0	-95.658	-55.744	-0.519	B5-03822-P03-CH1	852328	OK	0.744558	-0.6628849	-0.0788482	0	-97.764	-25.115	-5.966	B5-03822-P04-CH0	852328	OK	0.7822271	-0.3731648	0.4988675	0	-119.908	-38.944	2.905	B5-03822-P04-CH1	852328	OK	0.7814048	-0.6235454	0.0244484	0	-107.544	-47.403	-3.755	NA
0.00999175427746856	B5-03822-P01-CH0	852336	OK	0.2400152	0.0642744	0.0559017	-0.9670246	119.055	-35.539	-244.827	B5-03822-P02-CH0	852336	OK	0.7541918	0.1593635	-0.6370228	0	-78.948	-100.937	-2.118	B5-03822-P02-CH1	852336	OK	0.8379311	-0.1816502	-0.5146598	0	-82.465	-79.096	1.317	B5-03822-P03-CH0	852336	OK	0.7496006	-0.3227018	-0.5778948	0	-95.859	-55.413	-0.425	B5-03822-P03-CH1	852336	OK	0.744266	-0.6631823	-0.0791031	0	-97.715	-25.173	-5.982	B5-03822-P04-CH0	852336	OK	0.7819936	-0.3737118	0.4988241	0	-119.8	-38.873	2.805	B5-03822-P04-CH1	852336	OK	0.781177	-0.6238463	0.024047	0	-107.525	-47.438	-3.652	NA
0.0199835085549371	B5-03822-P01-CH0	852344	OK	0.2402059	0.0642523	0.056281	-0.9669567	119.053	-35.491	-244.899	B5-03822-P02-CH0	852344	OK	0.7539816	0.1531131	-0.6388021	0	-78.712	-101.193	-2.095	B5-03822-P02-CH1	852344	OK	0.8405045	-0.1853475	-0.5091154	0	-82.87	-78.912	1.764	B5-03822-P03-CH0	852344	OK	0.7490472	-0.3195054	-0.5803831	0	-95.295	-55.492	-0.422	B5-03822-P03-CH1	852344	OK	0.7445585	-0.6629186	-0.0785594	0	-97.69	-25.146	-5.897	B5-03822-P04-CH0	852344	OK	0.7821058	-0.3737915	0.4985883	0	-119.737	-38.626	2.438	B5-03822-P04-CH1	852344	OK	0.7814604	-0.623485	0.0242108	0	-107.559	-47.426	-3.448	NA
0.0299752628324057	B5-03822-P01-CH0	852352	OK	0.240138	0.064375	0.0563415	-0.9669619	119.059	-35.46	-244.863	B5-03822-P02-CH0	852352	OK	0.7533035	0.1453816	-0.6414031	0	-78.639	-101.868	-2.227	B5-03822-P02-CH1	852352	OK	0.8448661	-0.1860891	-0.5015697	0	-82.691	-78.556	2.22	B5-03822-P03-CH0	852352	OK	0.743773	-0.3114458	-0.5914416	0	-96.154	-55.163	-0.079	B5-03822-P03-CH1	852352	OK	0.7444644	-0.6630625	-0.0782364	0	-97.808	-25.173	-5.81	B5-03822-P04-CH0	852352	OK	0.7821564	-0.3740031	0.4983503	0	-119.689	-38.434	2.318	B5-03822-P04-CH1	852352	OK	0.7814235	-0.623531	0.0242147	0	-107.66	-47.424	-3.394	NA
0.0399670171098743	B5-03822-P01-CH0	852360	OK	0.2400543	0.0645061	0.0562348	-0.9669801	119.089	-35.528	-244.836	B5-03822-P02-CH0	852360	OK	0.7522348	0.1377489	-0.6443354	0	-78.527	-102.186	-2.721	B5-03822-P02-CH1	852360	OK	0.8478432	-0.1904073	-0.4948809	0	-83.473	-79.141	2.212	B5-03822-P03-CH0	852360	OK	0.7379312	-0.2989357	-0.6050579	0	-96.244	-54.474	-0.491	B5-03822-P03-CH1	852360	OK	0.744352	-0.6632291	-0.0778925	0	-97.75	-25.259	-5.821	B5-03822-P04-CH0	852360	OK	0.7820767	-0.3741501	0.498365	0	-119.644	-38.449	2.202	B5-03822-P04-CH1	852360	OK	0.7813493	-0.6236334	0.0239718	0	-107.68	-47.417	-3.471	NA
0.0499587713873428	B5-03822-P01-CH0	852368	OK	0.2397265	0.0644655	0.0558738	-0.9670851	119.021	-35.555	-244.807	B5-03822-P02-CH0	852368	OK	0.752201	0.1318735	-0.6456029	0	-77.121	-100.995	-3.591	B5-03822-P02-CH1	852368	OK	0.8513376	-0.1940662	-0.4874039	0	-84.079	-79.69	2.284	B5-03822-P03-CH0	852368	OK	0.733194	-0.284085	-0.6178368	0	-95.025	-54.326	0.039	B5-03822-P03-CH1	852368	OK	0.7442882	-0.6632559	-0.0782731	0	-97.749	-24.98	-6.065	B5-03822-P04-CH0	852368	OK	0.7817917	-0.374661	0.4984283	0	-119.512	-38.387	2.162	B5-03822-P04-CH1	852368	OK	0.781223	-0.6238114	0.0234518	0	-107.634	-47.189	-3.598	NA
0.0599505256648114	B5-03822-P01-CH0	852376	OK	0.2396086	0.0643856	0.055793	-0.9671243	119.001	-35.583	-244.882	B5-03822-P02-CH0	852376	OK	0.7483149	0.121044	-0.6522064	0	-77.441	-102.017	-4.005	B5-03822-P02-CH1	852376	OK	0.8563378	-0.1928299	-0.4790638	0	-84.479	-79.154	3.486	B5-03822-P03-CH0	852376	OK	0.7276351	-0.2684945	-0.6312352	0	-94.856	-53.717	-0.747	B5-03822-P03-CH1	852376	OK	0.7442695	-0.6633046	-0.0780381	0	-97.76	-24.935	-6.011	B5-03822-P04-CH0	852376	OK	0.781769	-0.3748194	0.4983449	0	-119.471	-38.234	2.017	B5-03822-P04-CH1	852376	OK	0.7811667	-0.6238863	0.023333	0	-107.613	-47.144	-3.66	NA
0.0699422799422799	B5-03822-P01-CH0	852384	OK	0.2397191	0.064334	0.0560766	-0.9670839	118.974	-35.549	-244.878	B5-03822-P02-CH0	852384	OK	0.7432037	0.1101666	-0.659933	0	-77.676	-102.442	-4.547	B5-03822-P02-CH1	852384	OK	0.8620039	-0.1937249	-0.4684228	0	-84.174	-78.996	3.903	B5-03822-P03-CH0	852384	OK	0.7235858	-0.2539953	-0.6418022	0	-94.882	-52.507	-2.15	B5-03822-P03-CH1	852384	OK	0.7443422	-0.6632863	-0.0774984	0	-97.743	-24.976	-6.071	B5-03822-P04-CH0	852384	OK	0.7820139	-0.3738714	0.4986726	0	-119.516	-38.36	2.267	B5-03822-P04-CH1	852384	OK	0.7815526	-0.6234094	0.0231571	0	-107.726	-46.926	-3.585	NA
0.0799340342197485	B5-03822-P01-CH0	852392	OK	0.2398502	0.0640902	0.056598	-0.9670372	118.89	-35.487	-244.876	B5-03822-P02-CH0	852392	OK	0.7405464	0.0997295	-0.6645638	0	-76.328	-102.135	-5.298	B5-03822-P02-CH1	852392	OK	0.8656238	-0.1935154	-0.461787	0	-84.773	-79.229	4.077	B5-03822-P03-CH0	852392	OK	0.7203139	-0.2457146	-0.6486696	0	-94.346	-51.707	-2.511	B5-03822-P03-CH1	852392	OK	0.7447521	-0.6628609	-0.0771998	0	-97.655	-24.816	-6.233	B5-03822-P04-CH0	852392	OK	0.7822721	-0.3730134	0.4989102	0	-119.495	-38.37	2.344	B5-03822-P04-CH1	852392	OK	0.7819046	-0.6229642	0.0232534	0	-107.692	-46.894	-3.399	NA
0.0899257884972171	B5-03822-P01-CH0	852400	OK	0.2398981	0.0637755	0.057076	-0.9670181	118.833	-35.461	-244.964	B5-03822-P02-CH0	852400	OK	0.7346168	0.0900023	-0.6724863	0	-76.401	-102.381	-4.247	B5-03822-P02-CH1	852400	OK	0.8690332	-0.1972223	-0.4537451	0	-85.115	-79.719	4.328	B5-03822-P03-CH0	852400	OK	0.7179798	-0.24139	-0.6528674	0	-94.231	-51.857	-2.108	B5-03822-P03-CH1	852400	OK	0.7452105	-0.6623805	-0.0768988	0	-97.69	-24.666	-6.191	B5-03822-P04-CH0	852400	OK	0.7824199	-0.3722919	0.4992172	0	-119.501	-38.428	2.278	B5-03822-P04-CH1	852400	OK	0.7821414	-0.6226616	0.0233944	0	-107.731	-46.953	-3.317	NA
0.0999175427746856	B5-03822-P01-CH0	852408	OK	0.2400067	0.0637464	0.0576744	-0.9669575	118.835	-35.357	-244.986	B5-03822-P02-CH0	852408	OK	0.7305489	0.0808099	-0.678062	0	-75.539	-102.975	-5.911	B5-03822-P02-CH1	852408	OK	0.8717742	-0.1962749	-0.4488719	0	-85.456	-79.659	4.293	B5-03822-P03-CH0	852408	OK	0.7177556	-0.2321245	-0.6564641	0	-94.097	-51.667	-2.895	B5-03822-P03-CH1	852408	OK	0.7453646	-0.6622671	-0.0763802	0	-97.801	-24.733	-6.065	B5-03822-P04-CH0	852408	OK	0.7827985	-0.3712418	0.4994057	0	-119.55	-38.339	2.401	B5-03822-P04-CH1	852408	OK	0.7825301	-0.6221667	0.0235645	0	-107.898	-46.873	-3.451	NA
0.109909297052154	B5-03822-P01-CH0	852416	OK	0.2399811	0.0638639	0.0576196	-0.9669594	118.896	-35.32	-245.066	B5-03822-P02-CH0	852416	OK	0.7253816	0.0727454	-0.6844922	0	-74.993	-103.93	-5.584	B5-03822-P02-CH1	852416	OK	0.8724395	-0.1940571	-0.4485434	0	-86.154	-79.712	4.367	B5-03822-P03-CH0	852416	OK	0.7170833	-0.2188888	-0.6617245	0	-94.174	-52.389	-0.395	B5-03822-P03-CH1	852416	OK	0.7453593	-0.6622766	-0.0763498	0	-97.813	-24.595	-6.231	B5-03822-P04-CH0	852416	OK	0.7828482	-0.3706965	0.4997328	0	-119.586	-38.169	2.281	B5-03822-P04-CH1	852416	OK	0.7824465	-0.6222704	0.0236011	0	-108.017	-46.903	-3.385	NA
0.119901051329623	B5-03822-P01-CH0	852424	OK	0.2397566	0.0638619	0.0573082	-0.9670337	118.878	-35.343	-245.019	B5-03822-P02-CH0	852424	OK	0.7191073	0.0674512	-0.6916176	0	-74.919	-104.393	-7.101	B5-03822-P02-CH1	852424	OK	0.8731114	-0.1946271	-0.4469863	0	-85.775	-79.965	4.247	B5-03822-P03-CH0	852424	OK	0.7172965	-0.2075832	-0.6651278	0	-94.41	-51.64	-1.822	B5-03822-P03-CH1	852424	OK	0.7450044	-0.6626673	-0.0764233	0	-97.813	-24.658	-6.113	B5-03822-P04-CH0	852424	OK	0.7827888	-0.3699733	0.5003614	0	-119.585	-38.051	2.181	B5-03822-P04-CH1	852424	OK	0.782174	-0.6226111	0.0236481	0	-107.951	-46.9	-3.561	NA
0.129892805607091	B5-03822-P01-CH0	852432	OK	0.2397932	0.0637601	0.0575795	-0.9670152	118.902	-35.343	-245.081	B5-03822-P02-CH0	852432	OK	0.7127831	0.0624219	-0.6986013	0	-74.793	-104.782	-6.727	B5-03822-P02-CH1	852432	OK	0.8727275	-0.1959502	-0.447158	0	-85.605	-80.167	4.323	B5-03822-P03-CH0	852432	OK	0.7173159	-0.2015728	-0.666953	0	-94.638	-52.116	-0.77	B5-03822-P03-CH1	852432	OK	0.7451874	-0.6624609	-0.0764284	0	-97.776	-24.585	-6.168	B5-03822-P04-CH0	852432	OK	0.7828267	-0.3684041	0.5014586	0	-119.591	-38.268	2.377	B5-03822-P04-CH1	852432	OK	0.7822842	-0.6224648	0.0238541	0	-107.956	-47.005	-3.482	NA
0.13988455988456	B5-03822-P01-CH0	852440	OK	0.2398443	0.0637088	0.0577046	-0.9669985	118.875	-35.272	-245.097	B5-03822-P02-CH0	852440	OK	0.7084978	0.0578537	-0.7033377	0	-74.233	-104.294	-5.805	B5-03822-P02-CH1	852440	OK	0.8713059	-0.1969804	-0.4494717	0	-86.148	-80.113	3.834	B5-03822-P03-CH0	852440	OK	0.7180104	-0.1990564	-0.6669615	0	-94.052	-51.345	-1.612	B5-03822-P03-CH1	852440	OK	0.7452333	-0.6624137	-0.0763896	0	-97.781	-24.426	-6.274	B5-03822-P04-CH0	852440	OK	0.7828103	-0.3666198	0.5027902	0	-119.653	-38.461	2.578	B5-03822-P04-CH1	852440	OK	0.7824302	-0.6222679	0.0242011	0	-107.905	-46.952	-3.427	NA
0.149876314162028	B5-03822-P01-CH0	852448	OK	0.2399138	0.0637493	0.0576964	-0.9669791	118.94	-35.284	-245.155	B5-03822-P02-CH0	852448	OK	0.7055603	0.0549096	-0.7065193	0	-74.244	-105.01	-5.908	B5-03822-P02-CH1	852448	OK	0.8705834	-0.1968497	-0.4509266	0	-86.417	-80.25	3.689	B5-03822-P03-CH0	852448	OK	0.7184732	-0.2024801	-0.6654307	0	-93.579	-51.193	-1.79	B5-03822-P03-CH1	852448	OK	0.7450938	-0.662606	-0.0760822	0	-97.904	-24.489	-6.092	B5-03822-P04-CH0	852448	OK	0.782913	-0.3541948	0.511462	0	-120.314	-39.726	3.483	B5-03822-P04-CH1	852448	OK	0.7822785	-0.6224359	0.0247745	0	-107.907	-47.145	-3.472	NA
0.159868068439497	B5-03822-P01-CH0	852456	OK	0.2401982	0.0635317	0.0577895	-0.9669172	118.894	-35.27	-245.156	B5-03822-P02-CH0	852456	OK	0.7043854	0.0521314	-0.7079008	0	-74.075	-105.868	-6.288	B5-03822-P02-CH1	852456	OK	0.8702598	-0.1963727	-0.4517584	0	-86.509	-80.261	3.892	B5-03822-P03-CH0	852456	OK	0.7175874	-0.2017499	-0.6666073	0	-94.525	-51.087	-2.018	B5-03822-P03-CH1	852456	OK	0.745117	-0.6626138	-0.0757863	0	-97.813	-24.432	-6.198	B5-03822-P04-CH0	852456	OK	0.7822565	-0.3538068	0.5127334	0	-119.561	-38.502	2.247	B5-03822-P04-CH1	852456	OK	0.7824251	-0.6222266	0.0253977	0	-107.835	-47.162	-3.502	NA
0.169859822716966	B5-03822-P01-CH0	852464	OK	0.2399822	0.0635435	0.0572194	-0.967004	118.893	-35.309	-245.101	B5-03822-P02-CH0	852464	OK	0.7043647	0.0511129	-0.7079956	0	-74.003	-105.712	-6.108	B5-03822-P02-CH1	852464	OK	0.8699122	-0.196713	-0.4522795	0	-86.827	-80.585	4.06	B5-03822-P03-CH0	852464	OK	0.7201124	-0.1936151	-0.6662967	0	-94.268	-51.35	-0.928	B5-03822-P03-CH1	852464	OK	0.7446768	-0.6630644	-0.0761714	0	-97.768	-24.352	-6.219	B5-03822-P04-CH0	852464	OK	0.7819647	-0.3527622	0.5138969	0	-119.818	-38.124	1.496	B5-03822-P04-CH1	852464	OK	0.7820981	-0.6226254	0.0256935	0	-107.807	-47.202	-3.614	NA
0.179851576994434	B5-03822-P01-CH0	852472	OK	0.2399198	0.0639053	0.0565535	-0.9670348	119.041	-35.36	-245.117	B5-03822-P02-CH0	852472	OK	0.7054748	0.0473675	-0.7071504	0	-74.125	-106.129	-7.56	B5-03822-P02-CH1	852472	OK	0.8711263	-0.1973393	-0.4496622	0	-86.383	-80.234	3.736	B5-03822-P03-CH0	852472	OK	0.722521	-0.1867494	-0.6656486	0	-95.083	-52.527	0.042	B5-03822-P03-CH1	852472	OK	0.7442535	-0.6634989	-0.0765247	0	-97.966	-24.318	-6.006	B5-03822-P04-CH0	852472	OK	0.7815834	-0.3482963	0.5175104	0	-120.172	-39.063	1.632	B5-03822-P04-CH1	852472	OK	0.7815981	-0.6232269	0.026318	0	-107.971	-47.409	-3.585	NA
0.189843331271903	B5-03822-P01-CH0	852480	OK	0.2401563	0.0638292	0.0567857	-0.9669675	119.075	-35.329	-245.146	B5-03822-P02-CH0	852480	OK	0.7071289	0.0423716	-0.705814	0	-74.138	-105.837	-5.989	B5-03822-P02-CH1	852480	OK	0.8713378	-0.1980507	-0.4489391	0	-86.473	-80.526	3.926	B5-03822-P03-CH0	852480	OK	0.7283869	-0.1882444	-0.6587993	0	-95.305	-53.741	0.638	B5-03822-P03-CH1	852480	OK	0.7441432	-0.6636397	-0.0763753	0	-97.906	-24.484	-5.786	B5-03822-P04-CH0	852480	OK	0.7822234	-0.3404444	0.5217511	0	-121.045	-40.9	3.676	B5-03822-P04-CH1	852480	OK	0.7817434	-0.6229967	0.0274304	0	-108.025	-47.495	-3.827	NA
0.199835085549371	B5-03822-P01-CH0	852488	OK	0.240054	0.0635548	0.0566267	-0.9670203	118.991	-35.361	-245.118	B5-03822-P02-CH0	852488	OK	0.7082732	0.041091	-0.7047415	0	-74.877	-105.594	-5.137	B5-03822-P02-CH1	852488	OK	0.8713605	-0.1992597	-0.4483598	0	-86.448	-80.727	4.036	B5-03822-P03-CH0	852488	OK	0.7358254	-0.2063875	-0.6449536	0	-96.133	-52.957	-0.73	B5-03822-P03-CH1	852488	OK	0.7439287	-0.6638432	-0.0766966	0	-97.812	-24.483	-5.919	B5-03822-P04-CH0	852488	OK	0.7816881	-0.3394885	0.5231741	0	-120.825	-38.222	0.068	B5-03822-P04-CH1	852488	OK	0.7816552	-0.6230623	0.0284337	0	-108.078	-47.545	-4.159	NA
0.20982683982684	B5-03822-P01-CH0	852496	OK	0.2401073	0.0633814	0.0566831	-0.9670151	118.966	-35.358	-245.055	B5-03822-P02-CH0	852496	OK	0.711673	0.0436484	-0.7011536	0	-74.279	-105.714	-6.595	B5-03822-P02-CH1	852496	OK	0.8698047	-0.2108124	-0.4460918	0	-86.768	-81.305	3.68	B5-03822-P03-CH0	852496	OK	0.7465875	-0.2523926	-0.6155527	0	-97.403	-53.85	-2.476	B5-03822-P03-CH1	852496	OK	0.7436771	-0.6641128	-0.0768024	0	-97.946	-24.607	-5.646	B5-03822-P04-CH0	852496	OK	0.781328	-0.3375999	0.5249312	0	-120.745	-37.785	-0.75	B5-03822-P04-CH1	852496	OK	0.7817324	-0.6228969	0.0298992	0	-108.113	-47.636	-4.406	NA
0.219818594104308	B5-03822-P01-CH0	852504	OK	0.2401459	0.0633033	0.0566391	-0.9670133	118.986	-35.382	-245.055	B5-03822-P02-CH0	852504	OK	0.711981	0.0528039	-0.7002105	0	-74.727	-106.563	-6.519	B5-03822-P02-CH1	852504	OK	0.8662379	-0.2187079	-0.4492202	0	-86.2	-81.682	3.319	B5-03822-P03-CH0	852504	OK	0.7600394	-0.2951276	-0.578999	0	-96.56	-55.903	-0.982	B5-03822-P03-CH1	852504	OK	0.7435	-0.6642506	-0.0773235	0	-97.834	-24.58	-5.644	B5-03822-P04-CH0	852504	OK	0.7821027	-0.3317574	0.5274964	0	-121.828	-40.76	2.848	B5-03822-P04-CH1	852504	OK	0.7817583	-0.6227906	0.0313994	0	-108.326	-47.856	-4.345	NA
0.229810348381777	B5-03822-P01-CH0	852512	OK	0.2402271	0.0631571	0.0567808	-0.9669944	118.988	-35.392	-245.043	B5-03822-P02-CH0	852512	OK	0.7129288	0.0673748	-0.6979922	0	-74.482	-106.13	-6.862	B5-03822-P02-CH1	852512	OK	0.8612995	-0.2261523	-0.4549927	0	-85.564	-82.448	2.847	B5-03822-P03-CH0	852512	OK	0.7741115	-0.3211646	-0.5455315	0	-98.172	-57.287	-0.717	B5-03822-P03-CH1	852512	OK	0.7432822	-0.6644426	-0.0777664	0	-97.791	-24.603	-5.723	B5-03822-P04-CH0	852512	OK	0.7824828	-0.3316916	0.5269737	0	-121.965	-40.267	2.631	B5-03822-P04-CH1	852512	OK	0.7819138	-0.6225116	0.0330168	0	-108.419	-48.028	-4.383	NA
0.239802102659246	B5-03822-P01-CH0	852520	OK	0.2402857	0.062933	0.056844	-0.9669907	118.962	-35.404	-245.091	B5-03822-P02-CH0	852520	OK	0.713602	0.0810547	-0.6958464	0	-74.669	-107.105	-6.553	B5-03822-P02-CH1	852520	OK	0.8550723	-0.2292304	-0.4650857	0	-85.433	-82.94	2.278	B5-03822-P03-CH0	852520	OK	0.8016424	-0.3479135	-0.4861334	0	-97.302	-60.081	1.287	B5-03822-P03-CH1	852520	OK	0.7430122	-0.6646788	-0.0783258	0	-97.806	-24.601	-5.843	B5-03822-P04-CH0	852520	OK	0.7816289	-0.3338525	0.5268765	0	-121.945	-40.467	1.185	B5-03822-P04-CH1	852520	OK	0.781888	-0.6224501	0.0347425	0	-108.598	-48.274	-4.503	NA
0.249793856936714	B5-03822-P01-CH0	852528	OK	0.240129	0.0629322	0.0567935	-0.9670326	118.974	-35.368	-245.083	B5-03822-P02-CH0	852528	OK	0.7136947	0.0960127	-0.6938454	0	-74.772	-107.247	-6.081	B5-03822-P02-CH1	852528	OK	0.849532	-0.2300676	-0.4747255	0	-84.963	-82.892	2.262	B5-03822-P03-CH0	852528	OK	0.8278234	-0.3662285	-0.4249531	0	-100.633	-60.916	2.696	B5-03822-P03-CH1	852528	OK	0.7424584	-0.665197	-0.0791739	0	-97.73	-24.66	-5.943	B5-03822-P04-CH0	852528	OK	0.7815173	-0.33626	0.5255093	0	-121.576	-39.825	1.412	B5-03822-P04-CH1	852528	OK	0.781892	-0.6223751	0.0359744	0	-108.813	-48.399	-4.376	NA
0.259785611214183	B5-03822-P01-CH0	852536	OK	0.2399053	0.0629637	0.0566327	-0.9670955	119.028	-35.4	-245.131	B5-03822-P02-CH0	852536	OK	0.7132722	0.1108911	-0.6920592	0	-74.634	-107.534	-5.801	B5-03822-P02-CH1	852536	OK	0.8421717	-0.2317583	-0.4868624	0	-85.001	-82.39	0.782	B5-03822-P03-CH0	852536	OK	0.8519238	-0.3750424	-0.3654711	0	-99.781	-62.32	5.107	B5-03822-P03-CH1	852536	OK	0.7418588	-0.6657646	-0.0800193	0	-97.732	-24.761	-5.94	B5-03822-P04-CH0	852536	OK	0.781576	-0.3377779	0.5244474	0	-121.548	-40.305	1.837	B5-03822-P04-CH1	852536	OK	0.7818206	-0.6224013	0.0370565	0	-109.099	-48.615	-4.202	NA
0.269777365491651	B5-03822-P01-CH0	852544	OK	0.2398171	0.0627835	0.0568843	-0.9671143	119	-35.323	-245.186	B5-03822-P02-CH0	852544	OK	0.710462	0.1257281	-0.6924133	0	-74.33	-107.067	-5.889	B5-03822-P02-CH1	852544	OK	0.8351295	-0.2399493	-0.4949577	0	-84.269	-82.294	0.952	B5-03822-P03-CH0	852544	OK	0.8672769	-0.3753684	-0.3270004	0	-99.82	-63.501	5.652	B5-03822-P03-CH1	852544	OK	0.7416504	-0.6659021	-0.0808031	0	-97.817	-24.625	-5.952	B5-03822-P04-CH0	852544	OK	0.7814759	-0.3373471	0.5248737	0	-121.5	-40.051	1.705	B5-03822-P04-CH1	852544	OK	0.7818431	-0.6223084	0.0381268	0	-109.235	-48.731	-4.264	NA
0.27976911976912	B5-03822-P01-CH0	852552	OK	0.239826	0.0624653	0.0570992	-0.9671201	118.937	-35.298	-245.22	B5-03822-P02-CH0	852552	OK	0.7050993	0.1427571	-0.6945901	0	-74.379	-106.954	-7.013	B5-03822-P02-CH1	852552	OK	0.8290547	-0.2492424	-0.5005462	0	-82.944	-81.638	-1.086	B5-03822-P03-CH0	852552	OK	0.8801291	-0.3712746	-0.2958511	0	-99.741	-64.297	6.456	B5-03822-P03-CH1	852552	OK	0.7410889	-0.6664748	-0.0812312	0	-97.693	-24.768	-5.886	B5-03822-P04-CH0	852552	OK	0.7812718	-0.3382053	0.5246251	0	-121.308	-39.471	1.196	B5-03822-P04-CH1	852552	OK	0.7820705	-0.6219626	0.0390938	0	-109.269	-48.754	-4.325	NA
0.289760874046588	B5-03822-P01-CH0	852560	OK	0.2396597	0.0623143	0.057317	-0.9671582	118.952	-35.275	-245.292	B5-03822-P02-CH0	852560	OK	0.7006129	0.1625096	-0.6947893	0	-72.919	-106.996	-8.033	B5-03822-P02-CH1	852560	OK	0.8230014	-0.2599362	-0.5050761	0	-81.265	-82.008	-0.257	B5-03822-P03-CH0	852560	OK	0.8904184	-0.3681076	-0.2676785	0	-99.211	-65.132	7.154	B5-03822-P03-CH1	852560	OK	0.7407013	-0.6668005	-0.0820896	0	-97.733	-24.678	-5.913	B5-03822-P04-CH0	852560	OK	0.7811197	-0.3400452	0.5236615	0	-121.057	-38.884	0.971	B5-03822-P04-CH1	852560	OK	0.7822396	-0.6217232	0.0395157	0	-109.379	-48.792	-4.165	NA
0.299752628324057	B5-03822-P01-CH0	852568	OK	0.239636	0.062411	0.0572014	-0.9671646	119.038	-35.246	-245.358	B5-03822-P02-CH0	852568	OK	0.6928503	0.1817072	-0.6978115	0	-71.82	-106.249	-7.233	B5-03822-P02-CH1	852568	OK	0.8171505	-0.2650297	-0.5118831	0	-79.761	-81.66	-0.587	B5-03822-P03-CH0	852568	OK	0.8952682	-0.3688521	-0.2498861	0	-98.744	-66.076	7.525	B5-03822-P03-CH1	852568	OK	0.7402383	-0.667219	-0.0828623	0	-97.832	-24.454	-5.828	B5-03822-P04-CH0	852568	OK	0.7804039	-0.3518118	0.5169122	0	-120.499	-39.229	2.111	B5-03822-P04-CH1	852568	OK	0.7821246	-0.6218524	0.0397581	0	-109.441	-48.923	-3.865	NA
0.309744382601525	B5-03822-P01-CH0	852576	OK	0.2396064	0.0621555	0.0570809	-0.9671956	118.955	-35.238	-245.392	B5-03822-P02-CH0	852576	OK	0.6838203	0.1984362	-0.7021488	0	-71.579	-107.065	-6.904	B5-03822-P02-CH1	852576	OK	0.8111931	-0.2720029	-0.517668	0	-78.371	-81.962	-0.881	B5-03822-P03-CH0	852576	OK	0.8969083	-0.3727642	-0.2379125	0	-97.697	-66.631	7.123	B5-03822-P03-CH1	852576	OK	0.7397873	-0.6676619	-0.0833207	0	-97.655	-24.286	-5.891	B5-03822-P04-CH0	852576	OK	0.7804748	-0.3542714	0.5151222	0	-120.828	-39.437	1.596	B5-03822-P04-CH1	852576	OK	0.7820495	-0.6219444	0.0397961	0	-109.336	-48.938	-3.764	NA
0.319736136878994	B5-03822-P01-CH0	852584	OK	0.2395233	0.0622369	0.0570551	-0.9672124	119.023	-35.147	-245.489	B5-03822-P02-CH0	852584	OK	0.6757707	0.212249	-0.7058926	0	-70.31	-106.334	-7.021	B5-03822-P02-CH1	852584	OK	0.8052937	-0.2819131	-0.5215622	0	-77.287	-81.54	-1.867	B5-03822-P03-CH0	852584	OK	0.8960889	-0.378254	-0.2322683	0	-97.567	-66.881	7.324	B5-03822-P03-CH1	852584	OK	0.7391856	-0.6683043	-0.0835104	0	-97.83	-24.166	-6.014	B5-03822-P04-CH0	852584	OK	0.7800517	-0.3568661	0.5139707	0	-120.011	-38.728	2.153	B5-03822-P04-CH1	852584	OK	0.7820828	-0.6219331	0.0393146	0	-109.435	-48.771	-3.745	NA
0.329727891156463	B5-03822-P01-CH0	852592	OK	0.2396729	0.062244	0.0571056	-0.9671719	119.063	-35.083	-245.542	B5-03822-P02-CH0	852592	OK	0.6667545	0.2253353	-0.710396	0	-69.682	-105.465	-5.239	B5-03822-P02-CH1	852592	OK	0.8008421	-0.2898777	-0.5240447	0	-76.221	-80.538	-2.808	B5-03822-P03-CH0	852592	OK	0.8956887	-0.3843872	-0.2235804	0	-96.789	-66.839	8.128	B5-03822-P03-CH1	852592	OK	0.738716	-0.6688675	-0.0831555	0	-97.74	-24.226	-5.877	B5-03822-P04-CH0	852592	OK	0.781124	-0.3540905	0.5142619	0	-120.853	-39.762	3.059	B5-03822-P04-CH1	852592	OK	0.7821938	-0.6218186	0.0389176	0	-109.596	-48.633	-3.858	NA
0.339719645433931	B5-03822-P01-CH0	852600	OK	0.2396953	0.0622496	0.0570504	-0.9671693	119.098	-35.063	-245.493	B5-03822-P02-CH0	852600	OK	0.661445	0.2386537	-0.7110098	0	-68.877	-104.894	-5.002	B5-03822-P02-CH1	852600	OK	0.7959078	-0.2961839	-0.5280207	0	-76.252	-79.938	-3.344	B5-03822-P03-CH0	852600	OK	0.8956017	-0.3925368	-0.2093141	0	-94.656	-67.149	7.888	B5-03822-P03-CH1	852600	OK	0.7383185	-0.6693117	-0.083112	0	-97.755	-24.162	-5.89	B5-03822-P04-CH0	852600	OK	0.7813628	-0.352652	0.5148871	0	-120.574	-39.557	2.011	B5-03822-P04-CH1	852600	OK	0.7822274	-0.6218081	0.0384044	0	-109.603	-48.53	-3.842	NA
0.3497113997114	B5-03822-P01-CH0	852608	OK	0.2399585	0.0620238	0.057506	-0.9670915	119.052	-35.023	-245.45	B5-03822-P02-CH0	852608	OK	0.6590219	0.249351	-0.7095874	0	-68.334	-104.277	-5.287	B5-03822-P02-CH1	852608	OK	0.7933382	-0.3035107	-0.5277269	0	-74.032	-79.851	-3.702	B5-03822-P03-CH0	852608	OK	0.893276	-0.3997723	-0.2055242	0	-94.045	-67.366	7.59	B5-03822-P03-CH1	852608	OK	0.7385007	-0.6691787	-0.0825622	0	-97.754	-24.022	-5.939	B5-03822-P04-CH0	852608	OK	0.782618	-0.353082	0.5126813	0	-120.264	-38.931	1.441	B5-03822-P04-CH1	852608	OK	0.7825118	-0.6214516	0.0383813	0	-109.644	-48.505	-3.951	NA
0.359703153988868	B5-03822-P01-CH0	852616	OK	0.2402653	0.0617556	0.058184	-0.966992	118.985	-34.923	-245.474	B5-03822-P02-CH0	852616	OK	0.6612682	0.2552384	-0.7053919	0	-67.486	-103.957	-5.954	B5-03822-P02-CH1	852616	OK	0.7898449	-0.3065477	-0.5312	0	-73.312	-79.373	-3.064	B5-03822-P03-CH0	852616	OK	0.8887329	-0.4060766	-0.2127338	0	-94.089	-67.308	7.133	B5-03822-P03-CH1	852616	OK	0.7392668	-0.6683884	-0.0821072	0	-97.794	-23.56	-6.139	B5-03822-P04-CH0	852616	OK	0.7853348	-0.3527981	0.5087068	0	-120.639	-39.173	2.134	B5-03822-P04-CH1	852616	OK	0.7828645	-0.6209935	0.0386026	0	-109.601	-48.436	-4.18	NA
0.369694908266337	B5-03822-P01-CH0	852624	OK	0.2403493	0.0618434	0.0582426	-0.9669619	119.021	-34.908	-245.47	B5-03822-P02-CH0	852624	OK	0.6658636	0.2586159	-0.6998167	0	-68.171	-104.139	-5.593	B5-03822-P02-CH1	852624	OK	0.7860897	-0.3046423	-0.5378253	0	-73.559	-79.147	-3.041	B5-03822-P03-CH0	852624	OK	0.883015	-0.4107362	-0.2271129	0	-94.287	-66.765	7.199	B5-03822-P03-CH1	852624	OK	0.7395168	-0.6681561	-0.0817457	0	-97.824	-23.38	-6.333	B5-03822-P04-CH0	852624	OK	0.7874954	-0.3566799	0.5026235	0	-120.463	-38.844	2.059	B5-03822-P04-CH1	852624	OK	0.7828907	-0.6209547	0.0386962	0	-109.635	-48.486	-3.986	NA
0.379686662543805	B5-03822-P01-CH0	852632	OK	0.2404343	0.0619086	0.0581842	-0.9669402	119.043	-34.916	-245.484	B5-03822-P02-CH0	852632	OK	0.6735222	0.2574308	-0.6928905	0	-69.053	-102.81	-5.283	B5-03822-P02-CH1	852632	OK	0.7854562	-0.2997237	-0.5415018	0	-73.319	-78.46	-3.511	B5-03822-P03-CH0	852632	OK	0.8768346	-0.4189582	-0.235871	0	-92.593	-67.188	6.69	B5-03822-P03-CH1	852632	OK	0.7400449	-0.6676266	-0.0812908	0	-97.932	-23.035	-6.667	B5-03822-P04-CH0	852632	OK	0.7887582	-0.3589201	0.499036	0	-120.54	-40.66	3.854	B5-03822-P04-CH1	852632	OK	0.7827659	-0.6211087	0.0387489	0	-109.79	-48.566	-3.958	NA
0.389678416821274	B5-03822-P01-CH0	852640	OK	0.2404719	0.0619664	0.058012	-0.9669375	118.994	-34.925	-245.4	B5-03822-P02-CH0	852640	OK	0.6839303	0.2528625	-0.6843244	0	-69.635	-101.37	-5.39	B5-03822-P02-CH1	852640	OK	0.7857166	-0.2945604	-0.5439518	0	-73.812	-78.034	-3.489	B5-03822-P03-CH0	852640	OK	0.8692307	-0.4238025	-0.2546162	0	-92.262	-66.809	6.339	B5-03822-P03-CH1	852640	OK	0.7404384	-0.6672879	-0.0804851	0	-97.993	-22.842	-6.889	B5-03822-P04-CH0	852640	OK	0.7901052	-0.3629736	0.4939473	0	-120.446	-40.184	3.161	B5-03822-P04-CH1	852640	OK	0.7826335	-0.6212804	0.0386717	0	-109.883	-48.548	-4.023	NA
0.399670171098743	B5-03822-P01-CH0	852648	OK	0.2403954	0.062016	0.0579407	-0.9669576	118.976	-34.92	-245.342	B5-03822-P02-CH0	852648	OK	0.6960534	0.2465019	-0.6743489	0	-70.204	-100.263	-6.022	B5-03822-P02-CH1	852648	OK	0.7885122	-0.2843215	-0.5453529	0	-74.138	-77.716	-3.667	B5-03822-P03-CH0	852648	OK	0.861436	-0.4263561	-0.2759502	0	-92.659	-66.43	6.339	B5-03822-P03-CH1	852648	OK	0.7408384	-0.6669452	-0.0796404	0	-97.97	-22.839	-6.982	B5-03822-P04-CH0	852648	OK	0.7913823	-0.3663094	0.4894195	0	-120.052	-40.47	3.766	B5-03822-P04-CH1	852648	OK	0.7825856	-0.6213399	0.0386863	0	-109.964	-48.469	-4.088	NA
0.409661925376211	B5-03822-P01-CH0	852656	OK	0.2404598	0.0622409	0.0582097	-0.966911	119.091	-34.918	-245.374	B5-03822-P02-CH0	852656	OK	0.7092163	0.2397387	-0.6629763	0	-70.572	-99.885	-8.388	B5-03822-P02-CH1	852656	OK	0.7949444	-0.2679337	-0.5443114	0	-74.078	-78.108	-2.409	B5-03822-P03-CH0	852656	OK	0.8561536	-0.4265893	-0.2915864	0	-91.584	-66.545	5.963	B5-03822-P03-CH1	852656	OK	0.7435576	-0.66462	-0.0735013	0	-97.899	-23.941	-6.614	B5-03822-P04-CH0	852656	OK	0.7938261	-0.3665552	0.4852602	0	-120.937	-40.136	2.875	B5-03822-P04-CH1	852656	OK	0.7827237	-0.6211453	0.0390148	0	-110.163	-48.476	-4.211	NA
0.41965367965368	B5-03822-P01-CH0	852664	OK	0.2402453	0.0625294	0.057472	-0.9669898	119.098	-35.041	-245.257	B5-03822-P02-CH0	852664	OK	0.7179527	0.2339199	-0.6556107	0	-72.993	-101.17	-7.044	B5-03822-P02-CH1	852664	OK	0.8011639	-0.2524315	-0.5426	0	-75.291	-78.606	-1.366	B5-03822-P03-CH0	852664	OK	0.8489241	-0.4207097	-0.3198925	0	-92.907	-66.044	4.922	B5-03822-P03-CH1	852664	OK	0.7435466	-0.6647803	-0.0721501	0	-98.753	-24.275	-6.317	B5-03822-P04-CH0	852664	OK	0.7951663	-0.3654566	0.4838925	0	-121.103	-39.84	2.39	B5-03822-P04-CH1	852664	OK	0.7821912	-0.6218108	0.0390939	0	-110.349	-48.543	-4.361	NA
0.429645433931148	B5-03822-P01-CH0	852672	OK	0.2400255	0.0625647	0.0571805	-0.9670594	119.041	-35.128	-245.162	B5-03822-P02-CH0	852672	OK	0.7265995	0.2306816	-0.6471779	0	-73.841	-100.971	-7.338	B5-03822-P02-CH1	852672	OK	0.8067865	-0.2385237	-0.5405571	0	-76.546	-79.257	-1.29	B5-03822-P03-CH0	852672	OK	0.8440151	-0.4116641	-0.3437602	0	-93.669	-66.174	4.781	B5-03822-P03-CH1	852672	OK	0.7436919	-0.6646692	-0.0716747	0	-98.119	-24.603	-6.988	B5-03822-P04-CH0	852672	OK	0.7959964	-0.3610132	0.4858592	0	-121.778	-42.374	4.011	B5-03822-P04-CH1	852672	OK	0.7819228	-0.6221287	0.0394033	0	-110.32	-48.675	-4.212	NA
0.439637188208617	B5-03822-P01-CH0	852680	OK	0.2400338	0.0626745	0.0573432	-0.9670406	119.048	-35.11	-245.198	B5-03822-P02-CH0	852680	OK	0.7328739	0.2266099	-0.6415168	0	-74.983	-101.438	-6.765	B5-03822-P02-CH1	852680	OK	0.8110126	-0.2291789	-0.538271	0	-77.104	-79.773	-1.451	B5-03822-P03-CH0	852680	OK	0.841825	-0.4023875	-0.359743	0	-93.443	-66.557	4.693	B5-03822-P03-CH1	852680	OK	0.7458142	-0.66228	-0.0717375	0	-98.392	-23.915	-6.486	B5-03822-P04-CH0	852680	OK	0.7970437	-0.3580692	0.4863208	0	-121.324	-42.53	5.452	B5-03822-P04-CH1	852680	OK	0.7819743	-0.6220348	0.0398617	0	-110.419	-48.735	-4.047	NA
0.449628942486085	B5-03822-P01-CH0	852688	OK	0.2397078	0.0629732	0.056729	-0.9671382	119.1	-35.19	-245.232	B5-03822-P02-CH0	852688	OK	0.7362574	0.2206606	-0.639714	0	-76.179	-102.295	-6.028	B5-03822-P02-CH1	852688	OK	0.8116491	-0.2235254	-0.5396871	0	-78.071	-80.292	-0.345	B5-03822-P03-CH0	852688	OK	0.8399734	-0.3938384	-0.3732774	0	-93.468	-67.427	6.261	B5-03822-P03-CH1	852688	OK	0.7462748	-0.6615836	-0.0733556	0	-97.923	-23.573	-6.665	B5-03822-P04-CH0	852688	OK	0.7962861	-0.359394	0.4865843	0	-120.247	-40.539	3.877	B5-03822-P04-CH1	852688	OK	0.7814573	-0.6226745	0.0400112	0	-110.469	-48.831	-4.085	NA
0.459620696763554	B5-03822-P01-CH0	852696	OK	0.2394315	0.0629581	0.0564083	-0.9672264	119.078	-35.284	-245.236	B5-03822-P02-CH0	852696	OK	0.7370821	0.2155969	-0.6404904	0	-76.482	-101.93	-5.425	B5-03822-P02-CH1	852696	OK	0.8117925	-0.2194938	-0.5411241	0	-78.089	-80.461	-0.22	B5-03822-P03-CH0	852696	OK	0.8383734	-0.3859639	-0.3849181	0	-94.29	-66.692	5.153	B5-03822-P03-CH1	852696	OK	0.747216	-0.6602153	-0.0760524	0	-98.339	-22.642	-7.198	B5-03822-P04-CH0	852696	OK	0.7958298	-0.356924	0.4891422	0	-120.699	-40.624	3.447	B5-03822-P04-CH1	852696	OK	0.7811924	-0.6230067	0.040014	0	-110.501	-48.925	-3.909	NA
0.469612451041023	B5-03822-P01-CH0	852704	OK	0.239409	0.0628629	0.0563744	-0.9672402	119.024	-35.39	-245.277	B5-03822-P02-CH0	852704	OK	0.7370131	0.2103035	-0.6423271	0	-76.224	-101.713	-6.28	B5-03822-P02-CH1	852704	OK	0.8129935	-0.2197015	-0.5392336	0	-77.412	-80.444	-0.73	B5-03822-P03-CH0	852704	OK	0.8375911	-0.3796937	-0.3927771	0	-94.149	-66.256	4.988	B5-03822-P03-CH1	852704	OK	0.7451045	-0.6626348	-0.0757256	0	-97.457	-24.191	-7.52	B5-03822-P04-CH0	852704	OK	0.7948341	-0.3549193	0.4922104	0	-121.55	-41.364	3.185	B5-03822-P04-CH1	852704	OK	0.7812919	-0.6228801	0.0400412	0	-110.532	-48.825	-4.162	NA
0.479604205318491	B5-03822-P01-CH0	852712	OK	0.2392976	0.0627227	0.0568113	-0.9672513	118.951	-35.394	-245.267	B5-03822-P02-CH0	852712	OK	0.7353538	0.2034815	-0.6464132	0	-76.693	-101.345	-6.06	B5-03822-P02-CH1	852712	OK	0.8134273	-0.2212098	-0.5379612	0	-78.276	-80.554	-0.318	B5-03822-P03-CH0	852712	OK	0.8361036	-0.3750623	-0.4003237	0	-94.823	-66.306	5.342	B5-03822-P03-CH1	852712	OK	0.7447231	-0.6631012	-0.0753938	0	-98.002	-23.585	-6.935	B5-03822-P04-CH0	852712	OK	0.7940428	-0.3557478	0.492889	0	-121.079	-39.335	2.429	B5-03822-P04-CH1	852712	OK	0.7815124	-0.6225984	0.0401192	0	-110.509	-48.743	-4.337	NA
0.48959595959596	B5-03822-P01-CH0	852720	OK	0.2393116	0.0628419	0.0568864	-0.9672356	118.986	-35.442	-245.282	B5-03822-P02-CH0	852720	OK	0.7359691	0.1962443	-0.6479488	0	-76.069	-101.558	-5.912	B5-03822-P02-CH1	852720	OK	0.8147549	-0.2237646	-0.5348868	0	-78.682	-80.248	-1.017	B5-03822-P03-CH0	852720	OK	0.8358627	-0.3723652	-0.4033334	0	-95.164	-66.312	4.797	B5-03822-P03-CH1	852720	OK	0.7446162	-0.6632281	-0.075334	0	-97.93	-23.947	-6.845	B5-03822-P04-CH0	852720	OK	0.7927424	-0.3558505	0.494904	0	-121.29	-39.336	1.723	B5-03822-P04-CH1	852720	OK	0.781516	-0.6225688	0.0405078	0	-110.529	-48.847	-4.217	NA
0.499587713873428	B5-03822-P01-CH0	852728	OK	0.2391667	0.0630778	0.0563456	-0.9672878	118.991	-35.6	-245.264	B5-03822-P02-CH0	852728	OK	0.7363001	0.1901125	-0.6493992	0	-75.291	-101.595	-6.754	B5-03822-P02-CH1	852728	OK	0.8164871	-0.2273991	-0.5306962	0	-78.054	-80.879	-0.143	B5-03822-P03-CH0	852728	OK	0.8349706	-0.3698613	-0.4074638	0	-94.797	-66.474	5.708	B5-03822-P03-CH1	852728	OK	0.7441618	-0.6636773	-0.0758669	0	-97.787	-24.217	-6.831	B5-03822-P04-CH0	852728	OK	0.7906478	-0.3575061	0.4970567	0	-120.759	-38.815	0.799	B5-03822-P04-CH1	852728	OK	0.781052	-0.6231488	0.040538	0	-110.509	-49.075	-3.958	NA
0.509579468150897	B5-03822-P01-CH0	852736	OK	0.2389175	0.0634357	0.0559696	-0.9673478	119.039	-35.684	-245.191	B5-03822-P02-CH0	852736	OK	0.7333085	0.1836686	-0.6546179	0	-76.246	-102.29	-4.663	B5-03822-P02-CH1	852736	OK	0.8171038	-0.2273377	-0.5297725	0	-78.027	-80.889	-0.803	B5-03822-P03-CH0	852736	OK	0.8313755	-0.3658263	-0.4183132	0	-94.674	-66.491	5.396	B5-03822-P03-CH1	852736	OK	0.7438321	-0.6639383	-0.0768098	0	-97.87	-24.318	-6.635	B5-03822-P04-CH0	852736	OK	0.789172	-0.3568857	0.4998401	0	-120.68	-38.897	1.117	B5-03822-P04-CH1	852736	OK	0.7809139	-0.6233628	0.039905	0	-110.702	-49.04	-3.583	NA
0.519571222428365	B5-03822-P01-CH0	852744	OK	0.238985	0.0632525	0.0567097	-0.9673	118.985	-35.752	-245.205	B5-03822-P02-CH0	852744	OK	0.7331015	0.1796946	-0.6559512	0	-75.84	-102.8	-6.457	B5-03822-P02-CH1	852744	OK	0.817937	-0.2247712	-0.5295819	0	-78.073	-80.967	-0.925	B5-03822-P03-CH0	852744	OK	0.8281094	-0.3612605	-0.4286323	0	-94.201	-66.696	5.157	B5-03822-P03-CH1	852744	OK	0.7444189	-0.6631894	-0.0775908	0	-97.79	-24.221	-6.628	B5-03822-P04-CH0	852744	OK	0.7896194	-0.3565068	0.4994037	0	-120.475	-37.503	1.188	B5-03822-P04-CH1	852744	OK	0.7813558	-0.6228207	0.0397173	0	-110.604	-49.09	-3.412	NA
0.529562976705834	B5-03822-P01-CH0	852752	OK	0.2391043	0.0631671	0.0573051	-0.967241	118.943	-35.768	-245.284	B5-03822-P02-CH0	852752	OK	0.7317064	0.1746937	-0.6588535	0	-75.69	-102.883	-6.353	B5-03822-P02-CH1	852752	OK	0.8186194	-0.223793	-0.5289414	0	-78.221	-81.053	-0.739	B5-03822-P03-CH0	852752	OK	0.824389	-0.3566436	-0.4395316	0	-94.736	-66.618	3.977	B5-03822-P03-CH1	852752	OK	0.7443185	-0.6632674	-0.0778866	0	-97.771	-24.547	-6.065	B5-03822-P04-CH0	852752	OK	0.7893979	-0.3567907	0.4995512	0	-120.9	-38.348	0.751	B5-03822-P04-CH1	852752	OK	0.7817538	-0.6223323	0.0395404	0	-110.529	-48.972	-3.484	NA
0.539554730983302	B5-03822-P01-CH0	852760	OK	0.2388132	0.0633518	0.0570421	-0.9673164	118.892	-35.856	-245.199	B5-03822-P02-CH0	852760	OK	0.7305816	0.1713031	-0.6609884	0	-75.376	-101.819	-6.761	B5-03822-P02-CH1	852760	OK	0.818849	-0.2245047	-0.528284	0	-78.193	-81.643	-0.533	B5-03822-P03-CH0	852760	OK	0.8237363	-0.350174	-0.445911	0	-94.045	-66.124	4.961	B5-03822-P03-CH1	852760	OK	0.7439389	-0.6635646	-0.0789745	0	-97.771	-24.401	-6.279	B5-03822-P04-CH0	852760	OK	0.7893859	-0.359224	0.4978232	0	-120.812	-38.608	2.071	B5-03822-P04-CH1	852760	OK	0.7815584	-0.6226316	0.0386827	0	-110.483	-48.853	-3.536	NA
0.549546485260771	B5-03822-P01-CH0	852768	OK	0.2387276	0.0633165	0.0572186	-0.9673294	118.843	-35.951	-245.167	B5-03822-P02-CH0	852768	OK	0.7288676	0.1667216	-0.6640451	0	-75.523	-102.639	-6.006	B5-03822-P02-CH1	852768	OK	0.8187237	-0.2251798	-0.5281908	0	-78.371	-81.971	-0.771	B5-03822-P03-CH0	852768	OK	0.8208228	-0.3456477	-0.454728	0	-94.571	-66.248	5.062	B5-03822-P03-CH1	852768	OK	0.7436107	-0.6638897	-0.0793317	0	-97.89	-24.555	-6.13	B5-03822-P04-CH0	852768	OK	0.788899	-0.3633575	0.4955903	0	-120.393	-36.962	0.083	B5-03822-P04-CH1	852768	OK	0.7818525	-0.6223137	0.0378459	0	-110.398	-48.636	-3.542	NA
0.55953823953824	B5-03822-P01-CH0	852776	OK	0.2386775	0.0633018	0.0575023	-0.9673259	118.756	-36.02	-245.224	B5-03822-P02-CH0	852776	OK	0.7285083	0.1625539	-0.6654712	0	-74.876	-102.987	-7.236	B5-03822-P02-CH1	852776	OK	0.8201791	-0.2256432	-0.5257293	0	-77.599	-81.728	-0.252	B5-03822-P03-CH0	852776	OK	0.8176501	-0.3428993	-0.4624591	0	-94.095	-66.325	5.138	B5-03822-P03-CH1	852776	OK	0.7435171	-0.6639842	-0.0794189	0	-97.907	-24.485	-6.027	B5-03822-P04-CH0	852776	OK	0.7886148	-0.3627817	0.4964637	0	-120.504	-39.58	2.532	B5-03822-P04-CH1	852776	OK	0.7820771	-0.6220672	0.0372537	0	-110.185	-48.54	-3.375	NA
0.569529993815708	B5-03822-P01-CH0	852784	OK	0.2383914	0.0636574	0.0573015	-0.967385	118.796	-36.122	-245.098	B5-03822-P02-CH0	852784	OK	0.7273144	0.1585331	-0.6677432	0	-74.733	-102.338	-6.339	B5-03822-P02-CH1	852784	OK	0.8193242	-0.2277692	-0.5261454	0	-78.187	-81.476	-0.731	B5-03822-P03-CH0	852784	OK	0.8122168	-0.3393342	-0.4745063	0	-94.115	-65.809	4	B5-03822-P03-CH1	852784	OK	0.743243	-0.664252	-0.0797442	0	-98.17	-24.312	-6.101	B5-03822-P04-CH0	852784	OK	0.7901768	-0.3641239	0.4929852	0	-120.975	-39.021	2.976	B5-03822-P04-CH1	852784	OK	0.7819351	-0.6222913	0.0364834	0	-110.149	-48.557	-3.116	NA
0.579521748093177	B5-03822-P01-CH0	852792	OK	0.2380263	0.0639915	0.0566714	-0.96749	118.79	-36.237	-245.081	B5-03822-P02-CH0	852792	OK	0.7273749	0.1532153	-0.6689176	0	-74.692	-102.898	-6.077	B5-03822-P02-CH1	852792	OK	0.819888	-0.2298001	-0.5243812	0	-78.33	-81.607	-0.319	B5-03822-P03-CH0	852792	OK	0.8064506	-0.3370876	-0.485808	0	-93.9	-65.768	4.225	B5-03822-P03-CH1	852792	OK	0.7427073	-0.6648329	-0.0798936	0	-98.208	-24.222	-6.232	B5-03822-P04-CH0	852792	OK	0.7892201	-0.3667075	0.4926026	0	-120.383	-38.359	2.116	B5-03822-P04-CH1	852792	OK	0.7815781	-0.6228011	0.0354193	0	-109.985	-48.452	-3.001	NA
0.589513502370645	B5-03822-P01-CH0	852800	OK	0.2378678	0.0642439	0.0567438	-0.967508	118.788	-36.301	-245.06	B5-03822-P02-CH0	852800	OK	0.7272832	0.1472693	-0.6703513	0	-74.982	-103.454	-6.341	B5-03822-P02-CH1	852800	OK	0.8231821	-0.2333305	-0.5176177	0	-77.981	-81.804	0.309	B5-03822-P03-CH0	852800	OK	0.7986955	-0.3333044	-0.5009926	0	-94.31	-65.362	3.616	B5-03822-P03-CH1	852800	OK	0.7426917	-0.664884	-0.0796132	0	-98.295	-24.212	-6.034	B5-03822-P04-CH0	852800	OK	0.7895	-0.3628725	0.4949881	0	-120.265	-37.972	1.193	B5-03822-P04-CH1	852800	OK	0.7816517	-0.6227662	0.0343931	0	-109.893	-48.3	-3.083	NA
0.599505256648114	B5-03822-P01-CH0	852808	OK	0.23774	0.0642773	0.0572192	-0.9675092	118.724	-36.254	-245.052	B5-03822-P02-CH0	852808	OK	0.7268335	0.1392228	-0.6725549	0	-75.373	-103.085	-5.384	B5-03822-P02-CH1	852808	OK	0.8253494	-0.2380009	-0.5120097	0	-78.667	-81.642	-0.345	B5-03822-P03-CH0	852808	OK	0.7910767	-0.3269687	-0.5170001	0	-93.955	-64.725	3.099	B5-03822-P03-CH1	852808	OK	0.7430767	-0.6645255	-0.0790119	0	-98.458	-23.994	-5.922	B5-03822-P04-CH0	852808	OK	0.7896166	-0.3631672	0.4945858	0	-120.246	-37.928	1.532	B5-03822-P04-CH1	852808	OK	0.7821885	-0.622147	0.0333809	0	-109.777	-47.934	-3.12	NA
0.609497010925582	B5-03822-P01-CH0	852816	OK	0.2376037	0.0640145	0.0575367	-0.9675413	118.538	-36.282	-245.082	B5-03822-P02-CH0	852816	OK	0.7273925	0.126843	-0.6743967	0	-74.655	-101.804	-6.052	B5-03822-P02-CH1	852816	OK	0.8292396	-0.2430132	-0.5032954	0	-78.406	-81.29	-0.01	B5-03822-P03-CH0	852816	OK	0.7838956	-0.3189536	-0.5327065	0	-92.661	-63.757	2.107	B5-03822-P03-CH1	852816	OK	0.7431834	-0.6644828	-0.0783646	0	-98.294	-23.926	-5.984	B5-03822-P04-CH0	852816	OK	0.7894715	-0.3635808	0.4945137	0	-119.981	-37.909	1.811	B5-03822-P04-CH1	852816	OK	0.7823496	-0.6219828	0.0326555	0	-109.453	-47.834	-3.128	NA
0.619488765203051	B5-03822-P01-CH0	852824	OK	0.2375315	0.0638569	0.0578978	-0.9675479	118.401	-36.271	-245.071	B5-03822-P02-CH0	852824	OK	0.7285544	0.1073604	-0.6765222	0	-74.208	-101.147	-6.122	B5-03822-P02-CH1	852824	OK	0.8328885	-0.2470637	-0.4952335	0	-79.659	-80.965	1.336	B5-03822-P03-CH0	852824	OK	0.7769721	-0.310484	-0.5476441	0	-92.224	-62.55	2.806	B5-03822-P03-CH1	852824	OK	0.7433601	-0.6643806	-0.0775514	0	-98.212	-23.806	-6.065	B5-03822-P04-CH0	852824	OK	0.7895618	-0.363245	0.4946162	0	-119.943	-38.188	2.311	B5-03822-P04-CH1	852824	OK	0.7826535	-0.6216419	0.0318568	0	-109.173	-47.667	-3.088	NA
0.62948051948052	B5-03822-P01-CH0	852832	OK	0.2372464	0.0639477	0.0575638	-0.9676318	118.315	-36.354	-245.011	B5-03822-P02-CH0	852832	OK	0.7309195	0.0871467	-0.6768768	0	-74.447	-100.702	-4.761	B5-03822-P02-CH1	852832	OK	0.839546	-0.2509938	-0.4818347	0	-79.346	-81.099	1.688	B5-03822-P03-CH0	852832	OK	0.7709341	-0.3035502	-0.5599267	0	-92.73	-61.591	2.843	B5-03822-P03-CH1	852832	OK	0.7433099	-0.6644738	-0.0772326	0	-98.213	-23.559	-6.311	B5-03822-P04-CH0	852832	OK	0.7894108	-0.3635651	0.4946221	0	-119.827	-38.107	2.431	B5-03822-P04-CH1	852832	OK	0.7825537	-0.6218281	0.0306514	0	-108.991	-47.522	-3.053	NA
0.639472273757988	B5-03822-P01-CH0	852840	OK	0.2370721	0.0638515	0.0576724	-0.9676744	118.257	-36.442	-245.035	B5-03822-P02-CH0	852840	OK	0.7365507	0.0691345	-0.6728399	0	-74.181	-100.381	-5.644	B5-03822-P02-CH1	852840	OK	0.8460079	-0.248898	-0.4715087	0	-80.15	-80.612	1.134	B5-03822-P03-CH0	852840	OK	0.7691619	-0.3005236	-0.5639818	0	-92.609	-60.823	2.231	B5-03822-P03-CH1	852840	OK	0.7433041	-0.6645474	-0.076653	0	-98.156	-23.605	-6.167	B5-03822-P04-CH0	852840	OK	0.7893029	-0.3625791	0.4955173	0	-119.708	-38.607	3.134	B5-03822-P04-CH1	852840	OK	0.7826599	-0.6217341	0.0298361	0	-108.756	-47.478	-3.073	NA
0.649464028035457	B5-03822-P01-CH0	852848	OK	0.2368733	0.0638659	0.0575881	-0.9677271	118.156	-36.465	-244.972	B5-03822-P02-CH0	852848	OK	0.7403821	0.0527236	-0.6701153	0	-74.761	-99.913	-5.432	B5-03822-P02-CH1	852848	OK	0.8537776	-0.2430696	-0.460414	0	-80.648	-79.383	1.988	B5-03822-P03-CH0	852848	OK	0.7678988	-0.3003786	-0.5657775	0	-92.42	-59.949	2.765	B5-03822-P03-CH1	852848	OK	0.7431281	-0.6648026	-0.0761462	0	-98.101	-23.583	-6.088	B5-03822-P04-CH0	852848	OK	0.7887022	-0.3524614	0.503706	0	-118.992	-38.531	3.804	B5-03822-P04-CH1	852848	OK	0.7826047	-0.6218464	0.0289302	0	-108.578	-47.379	-3.126	NA
0.659455782312925	B5-03822-P01-CH0	852856	OK	0.2365444	0.0643934	0.0568298	-0.9678174	118.259	-36.547	-244.811	B5-03822-P02-CH0	852856	OK	0.7456638	0.0373731	-0.6652735	0	-74.408	-98.565	-4.315	B5-03822-P02-CH1	852856	OK	0.8582499	-0.2400215	-0.4536483	0	-82.205	-79	2.296	B5-03822-P03-CH0	852856	OK	0.7659165	-0.3004453	-0.5684229	0	-92.528	-58.678	2.029	B5-03822-P03-CH1	852856	OK	0.7425214	-0.6654673	-0.0762576	0	-98.155	-23.673	-5.985	B5-03822-P04-CH0	852856	OK	0.7882501	-0.3448423	0.5096524	0	-119.578	-39.246	3.805	B5-03822-P04-CH1	852856	OK	0.782081	-0.6225528	0.0278801	0	-108.591	-47.405	-3.079	NA
0.669447536590394	B5-03822-P01-CH0	852864	OK	0.2364564	0.0643688	0.0568238	-0.9678409	118.181	-36.527	-244.842	B5-03822-P02-CH0	852864	OK	0.7502498	0.0228408	-0.6607598	0	-74.191	-97.559	-6.057	B5-03822-P02-CH1	852864	OK	0.8649608	-0.2335951	-0.4441579	0	-82.269	-77.907	3.001	B5-03822-P03-CH0	852864	OK	0.7644453	-0.3015182	-0.5698334	0	-92.993	-57.702	1.854	B5-03822-P03-CH1	852864	OK	0.7423062	-0.6657218	-0.0761318	0	-97.979	-23.806	-5.828	B5-03822-P04-CH0	852864	OK	0.7882171	-0.3380205	0.5142528	0	-119.876	-38.523	2.758	B5-03822-P04-CH1	852864	OK	0.7820288	-0.6226603	0.0269298	0	-108.423	-47.272	-3.155	NA
0.679439290867862	B5-03822-P01-CH0	852872	OK	0.2362253	0.0644035	0.0565994	-0.9679082	118.101	-36.554	-244.684	B5-03822-P02-CH0	852872	OK	0.752695	0.0092569	-0.6583043	0	-74.701	-97.539	-5.502	B5-03822-P02-CH1	852872	OK	0.8697166	-0.2296835	-0.4368506	0	-82.35	-77.337	2.92	B5-03822-P03-CH0	852872	OK	0.7628128	-0.3012577	-0.5721542	0	-93.436	-57.123	1.972	B5-03822-P03-CH1	852872	OK	0.7421838	-0.6658278	-0.0763973	0	-97.895	-23.758	-5.87	B5-03822-P04-CH0	852872	OK	0.7878919	-0.3343352	0.5171521	0	-118.936	-36.844	2.016	B5-03822-P04-CH1	852872	OK	0.7819167	-0.6228455	0.0258778	0	-108.354	-47.171	-3.069	NA
0.689431045145331	B5-03822-P01-CH0	852880	OK	0.2359856	0.0643077	0.0561988	-0.9679964	118.032	-36.634	-244.674	B5-03822-P02-CH0	852880	OK	0.7560328	-0.0013738	-0.6545323	0	-75.054	-97.341	-5.302	B5-03822-P02-CH1	852880	OK	0.8735759	-0.2260517	-0.4310056	0	-82.773	-77.34	3.066	B5-03822-P03-CH0	852880	OK	0.7619906	-0.3014468	-0.5731493	0	-92.795	-57.001	2.54	B5-03822-P03-CH1	852880	OK	0.7423418	-0.6655812	-0.0770089	0	-97.868	-23.403	-6.152	B5-03822-P04-CH0	852880	OK	0.788575	-0.3293168	0.5193264	0	-119.252	-37.523	3.178	B5-03822-P04-CH1	852880	OK	0.7817229	-0.6231338	0.0247703	0	-108.231	-46.995	-3.206	NA
0.6994227994228	B5-03822-P01-CH0	852888	OK	0.2358542	0.0642757	0.0561342	-0.9680343	117.991	-36.687	-244.571	B5-03822-P02-CH0	852888	OK	0.7614237	-0.0098119	-0.6481803	0	-74.385	-96.502	-5.134	B5-03822-P02-CH1	852888	OK	0.8769523	-0.2202097	-0.4271561	0	-83.353	-77.037	3.486	B5-03822-P03-CH0	852888	OK	0.7604603	-0.2999167	-0.5759775	0	-92.882	-56.085	2.369	B5-03822-P03-CH1	852888	OK	0.7426351	-0.6652149	-0.0773449	0	-97.836	-23.11	-6.465	B5-03822-P04-CH0	852888	OK	0.7888762	-0.3260211	0.5209459	0	-119.838	-38.123	2.6	B5-03822-P04-CH1	852888	OK	0.7816109	-0.6233099	0.0238588	0	-108.212	-46.942	-3.253	NA
0.709414553700268	B5-03822-P01-CH0	852896	OK	0.2358491	0.0643635	0.0562159	-0.968025	117.997	-36.685	-244.496	B5-03822-P02-CH0	852896	OK	0.7636078	-0.0190117	-0.6454004	0	-74.808	-96.312	-4.965	B5-03822-P02-CH1	852896	OK	0.8794761	-0.2159384	-0.4241372	0	-83.989	-76.849	3.195	B5-03822-P03-CH0	852896	OK	0.7599196	-0.2999162	-0.5766909	0	-92.4	-55.818	2.808	B5-03822-P03-CH1	852896	OK	0.7430318	-0.6647752	-0.0773148	0	-97.906	-22.882	-6.605	B5-03822-P04-CH0	852896	OK	0.7898779	-0.3215108	0.5222295	0	-119.569	-37.587	3.476	B5-03822-P04-CH1	852896	OK	0.7815493	-0.623417	0.0230623	0	-108.154	-46.881	-3.39	NA
0.719406307977737	B5-03822-P01-CH0	852904	OK	0.2356004	0.0647344	0.05545	-0.968105	118.08	-36.778	-244.47	B5-03822-P02-CH0	852904	OK	0.7638102	-0.0278654	-0.6448392	0	-75.022	-95.983	-3.862	B5-03822-P02-CH1	852904	OK	0.8832312	-0.2134823	-0.417526	0	-83.301	-76.822	3.455	B5-03822-P03-CH0	852904	OK	0.7592845	-0.3016369	-0.57663	0	-91.989	-55.367	2.779	B5-03822-P03-CH1	852904	OK	0.7425198	-0.6653384	-0.0773896	0	-97.884	-23.051	-6.406	B5-03822-P04-CH0	852904	OK	0.7906412	-0.3150652	0.5249956	0	-119.781	-38.424	4.398	B5-03822-P04-CH1	852904	OK	0.7809843	-0.6241621	0.0220284	0	-108.175	-46.852	-3.265	NA
0.729398062255205	B5-03822-P01-CH0	852912	OK	0.235474	0.0647862	0.0553271	-0.9681393	118.07	-36.815	-244.42	B5-03822-P02-CH0	852912	OK	0.7641411	-0.035249	-0.6440853	0	-74.739	-96.247	-4.145	B5-03822-P02-CH1	852912	OK	0.8857148	-0.2083492	-0.4148492	0	-83.399	-76.124	3.622	B5-03822-P03-CH0	852912	OK	0.7555632	-0.3001419	-0.5822707	0	-93.102	-54.646	2.785	B5-03822-P03-CH1	852912	OK	0.7424011	-0.6654895	-0.0772286	0	-97.822	-23.158	-6.341	B5-03822-P04-CH0	852912	OK	0.7906247	-0.3103563	0.5278178	0	-119.888	-38.117	3.203	B5-03822-P04-CH1	852912	OK	0.7807217	-0.6245198	0.0211809	0	-108.104	-46.805	-3.297	NA
0.739389816532674	B5-03822-P01-CH0	852920	OK	0.2354709	0.0648721	0.0554315	-0.9681283	118.107	-36.819	-244.418	B5-03822-P02-CH0	852920	OK	0.7630958	-0.0407965	-0.6449964	0	-75.1	-96.666	-4.555	B5-03822-P02-CH1	852920	OK	0.8867978	-0.2070437	-0.413186	0	-83.884	-75.846	3.962	B5-03822-P03-CH0	852920	OK	0.7525927	-0.2947712	-0.5888245	0	-93.607	-54.142	2.383	B5-03822-P03-CH1	852920	OK	0.7426201	-0.6652662	-0.0770472	0	-97.775	-23.143	-6.377	B5-03822-P04-CH0	852920	OK	0.7907587	-0.3039599	0.5313277	0	-120.338	-38.674	3.511	B5-03822-P04-CH1	852920	OK	0.7807284	-0.6245435	0.0202146	0	-108.15	-46.702	-3.154	NA
0.749381570810142	B5-03822-P01-CH0	852928	OK	0.2357004	0.0649601	0.055717	-0.9680502	118.202	-36.815	-244.52	B5-03822-P02-CH0	852928	OK	0.7635954	-0.0417293	-0.6443452	0	-74.673	-95.873	-4.214	B5-03822-P02-CH1	852928	OK	0.8886036	-0.2092979	-0.4081398	0	-83.742	-76.177	4.145	B5-03822-P03-CH0	852928	OK	0.7520425	-0.2915237	-0.5911396	0	-92.806	-53.887	1.445	B5-03822-P03-CH1	852928	OK	0.7431718	-0.6646771	-0.0768118	0	-97.751	-23.025	-6.411	B5-03822-P04-CH0	852928	OK	0.7907046	-0.2999569	0.5336778	0	-121.114	-39.749	3.749	B5-03822-P04-CH1	852928	OK	0.7808276	-0.6244352	0.0197247	0	-108.148	-46.609	-3.07	NA
0.759373325087611	B5-03822-P01-CH0	852936	OK	0.2359068	0.0647873	0.0564134	-0.9679711	118.138	-36.78	-244.519	B5-03822-P02-CH0	852936	OK	0.7623559	-0.0408756	-0.6458658	0	-74.846	-95.832	-4.817	B5-03822-P02-CH1	852936	OK	0.8874207	-0.2119817	-0.4093266	0	-84.825	-76.033	3.162	B5-03822-P03-CH0	852936	OK	0.7510888	-0.2930881	-0.5915784	0	-93.422	-53.381	1.695	B5-03822-P03-CH1	852936	OK	0.7437993	-0.6640308	-0.0763264	0	-97.741	-22.953	-6.582	B5-03822-P04-CH0	852936	OK	0.7899579	-0.3019895	0.5336374	0	-119.986	-37.17	2.16	B5-03822-P04-CH1	852936	OK	0.7812449	-0.6239329	0.019082	0	-108.102	-46.369	-3.236	NA
0.769365079365079	B5-03822-P01-CH0	852944	OK	0.2358081	0.0649393	0.0560458	-0.9680063	118.16	-36.831	-244.459	B5-03822-P02-CH0	852944	OK	0.7615876	-0.038798	-0.6468996	0	-74.836	-95.839	-4.102	B5-03822-P02-CH1	852944	OK	0.8887945	-0.2159728	-0.4042277	0	-84.174	-76.069	3.289	B5-03822-P03-CH0	852944	OK	0.7527354	-0.2969238	-0.5875591	0	-93.038	-53.555	1.749	B5-03822-P03-CH1	852944	OK	0.7441078	-0.6636782	-0.0763858	0	-97.797	-22.626	-6.655	B5-03822-P04-CH0	852944	OK	0.7901117	-0.3013795	0.5337545	0	-120.077	-36.172	1.682	B5-03822-P04-CH1	852944	OK	0.7809126	-0.6243676	0.0184551	0	-108.058	-46.293	-3.278	NA
0.779356833642548	B5-03822-P01-CH0	852952	OK	0.2360573	0.0648051	0.056637	-0.9679202	118.221	-36.862	-244.553	B5-03822-P02-CH0	852952	OK	0.7631381	-0.0354885	-0.6452602	0	-73.853	-95.7	-4.141	B5-03822-P02-CH1	852952	OK	0.8899084	-0.2170232	-0.4012032	0	-83.77	-75.904	3.364	B5-03822-P03-CH0	852952	OK	0.7549147	-0.3002249	-0.5830684	0	-93.484	-53.325	1.811	B5-03822-P03-CH1	852952	OK	0.7447011	-0.6631042	-0.0755849	0	-97.795	-22.69	-6.518	B5-03822-P04-CH0	852952	OK	0.7908523	-0.2982029	0.5344415	0	-120.813	-37.913	3.582	B5-03822-P04-CH1	852952	OK	0.7813222	-0.6238622	0.0182085	0	-107.979	-46.104	-3.662	NA
0.789348587920017	B5-03822-P01-CH0	852960	OK	0.235996	0.0647933	0.0562772	-0.9679569	118.201	-36.888	-244.481	B5-03822-P02-CH0	852960	OK	0.7627264	-0.028596	-0.6460887	0	-74.12	-95.083	-5.189	B5-03822-P02-CH1	852960	OK	0.8881018	-0.2191202	-0.4040563	0	-84.321	-75.791	3.381	B5-03822-P03-CH0	852960	OK	0.7592566	-0.30417	-0.5753347	0	-92.975	-53.75	2.189	B5-03822-P03-CH1	852960	OK	0.7444922	-0.6633861	-0.0751686	0	-97.804	-22.784	-6.475	B5-03822-P04-CH0	852960	OK	0.7899521	-0.2986742	0.5355086	0	-120.071	-37.766	3.429	B5-03822-P04-CH1	852960	OK	0.7810028	-0.6242708	0.0179048	0	-107.818	-46.079	-3.598	NA
0.799340342197485	B5-03822-P01-CH0	852968	OK	0.2361095	0.0647036	0.0562218	-0.9679385	118.251	-36.954	-244.66	B5-03822-P02-CH0	852968	OK	0.7626582	-0.0253636	-0.6463042	0	-74.26	-95.681	-3.918	B5-03822-P02-CH1	852968	OK	0.8884171	-0.223065	-0.4011946	0	-83.262	-76.108	3.505	B5-03822-P03-CH0	852968	OK	0.7629807	-0.3083452	-0.5681405	0	-93.749	-54.301	2.573	B5-03822-P03-CH1	852968	OK	0.7444573	-0.6634795	-0.074688	0	-97.771	-23.008	-6.218	B5-03822-P04-CH0	852968	OK	0.7900943	-0.2995103	0.5348314	0	-120.648	-37.977	2.601	B5-03822-P04-CH1	852968	OK	0.7809281	-0.6243702	0.0176953	0	-107.758	-46.04	-3.719	NA
0.809332096474954	B5-03822-P01-CH0	852976	OK	0.2363463	0.0647506	0.0563853	-0.967868	118.341	-36.945	-244.697	B5-03822-P02-CH0	852976	OK	0.7630581	-0.0214937	-0.6459724	0	-74.462	-96.105	-4.427	B5-03822-P02-CH1	852976	OK	0.8874013	-0.2232038	-0.4033596	0	-83.333	-75.986	3.455	B5-03822-P03-CH0	852976	OK	0.7680375	-0.3124351	-0.5590195	0	-94.113	-54.292	2.404	B5-03822-P03-CH1	852976	OK	0.7444887	-0.6635132	-0.0740723	0	-97.696	-23.284	-5.975	B5-03822-P04-CH0	852976	OK	0.7906142	-0.3005469	0.5334798	0	-120.851	-39.144	3.502	B5-03822-P04-CH1	852976	OK	0.7811369	-0.6241043	0.0178596	0	-107.822	-45.933	-3.77	NA
0.819323850752422	B5-03822-P01-CH0	852984	OK	0.2366054	0.064413	0.0569934	-0.9677916	118.283	-36.862	-244.693	B5-03822-P02-CH0	852984	OK	0.7646828	-0.0118135	-0.6442986	0	-74.256	-95.852	-4.073	B5-03822-P02-CH1	852984	OK	0.8870207	-0.2234723	-0.4040476	0	-83.23	-76.151	3.833	B5-03822-P03-CH0	852984	OK	0.7725645	-0.3179702	-0.5495808	0	-94.409	-54.6	2.269	B5-03822-P03-CH1	852984	OK	0.7450774	-0.6629005	-0.0736377	0	-97.73	-23.214	-6.182	B5-03822-P04-CH0	852984	OK	0.7904252	-0.3001409	0.5339882	0	-120.646	-38.535	2.979	B5-03822-P04-CH1	852984	OK	0.781605	-0.6235116	0.0180779	0	-107.815	-45.754	-3.968	NA
0.829315605029891	B5-03822-P01-CH0	852992	OK	0.236658	0.0643973	0.0568983	-0.9677854	118.331	-36.838	-244.755	B5-03822-P02-CH0	852992	OK	0.7649119	-0.0024837	-0.6441302	0	-74.876	-95.824	-3.861	B5-03822-P02-CH1	852992	OK	0.886266	-0.2228305	-0.4060532	0	-83.48	-76.457	3.422	B5-03822-P03-CH0	852992	OK	0.7773751	-0.3226252	-0.5400008	0	-94.16	-54.607	2.617	B5-03822-P03-CH1	852992	OK	0.745504	-0.6624076	-0.0737559	0	-97.762	-22.966	-6.36	B5-03822-P04-CH0	852992	OK	0.7902788	-0.300805	0.5338313	0	-120.57	-38.169	2.987	B5-03822-P04-CH1	852992	OK	0.7816174	-0.623495	0.0181143	0	-107.979	-45.69	-3.954	NA
0.839307359307359	B5-03822-P01-CH0	853000	OK	0.2370275	0.0644188	0.0570288	-0.9676858	118.361	-36.764	-244.763	B5-03822-P02-CH0	853000	OK	0.7658219	0.0063994	-0.6430209	0	-75.219	-96.124	-3.329	B5-03822-P02-CH1	853000	OK	0.8861846	-0.2207962	-0.40734	0	-83.435	-76.79	3.443	B5-03822-P03-CH0	853000	OK	0.7798855	-0.3292405	-0.5323337	0	-94.235	-55.223	3.282	B5-03822-P03-CH1	853000	OK	0.7456849	-0.6622684	-0.0731753	0	-97.739	-23.112	-6.28	B5-03822-P04-CH0	853000	OK	0.7902594	-0.3018726	0.533257	0	-120.423	-37.842	2.925	B5-03822-P04-CH1	853000	OK	0.7816782	-0.6233946	0.0189303	0	-107.981	-45.758	-4.049	NA
0.849299113584828	B5-03822-P01-CH0	853008	OK	0.2370426	0.064508	0.0567728	-0.9676913	118.373	-36.727	-244.663	B5-03822-P02-CH0	853008	OK	0.7664554	0.0167546	-0.642079	0	-75.269	-96.318	-4.854	B5-03822-P02-CH1	853008	OK	0.8861756	-0.2180976	-0.4088107	0	-83.207	-76.421	4.065	B5-03822-P03-CH0	853008	OK	0.7833211	-0.3374254	-0.5220653	0	-93.654	-55.596	3.464	B5-03822-P03-CH1	853008	OK	0.745501	-0.6625059	-0.0728988	0	-97.732	-23.28	-6.293	B5-03822-P04-CH0	853008	OK	0.7911994	-0.3127792	0.5255214	0	-120.546	-37.44	2.418	B5-03822-P04-CH1	853008	OK	0.7815074	-0.6236003	0.0192077	0	-107.998	-45.812	-4.06	NA
0.859290867862296	B5-03822-P01-CH0	853016	OK	0.2372191	0.0642342	0.0570056	-0.9676525	118.347	-36.662	-244.757	B5-03822-P02-CH0	853016	OK	0.7650372	0.025912	-0.6434646	0	-75.458	-96.395	-4.181	B5-03822-P02-CH1	853016	OK	0.8854362	-0.2190956	-0.4098778	0	-82.943	-76.38	3.523	B5-03822-P03-CH0	853016	OK	0.7855273	-0.3453578	-0.5134929	0	-93.838	-55.766	3.463	B5-03822-P03-CH1	853016	OK	0.7457505	-0.6622797	-0.0724004	0	-97.592	-23.454	-6.027	B5-03822-P04-CH0	853016	OK	0.7913317	-0.3140515	0.5245626	0	-120.775	-38.721	2.985	B5-03822-P04-CH1	853016	OK	0.7817821	-0.6232473	0.0194799	0	-108.076	-45.764	-4.056	NA
0.869282622139765	B5-03822-P01-CH0	853024	OK	0.2373662	0.0642394	0.057173	-0.9676062	118.412	-36.644	-244.796	B5-03822-P02-CH0	853024	OK	0.7636706	0.0323431	-0.6447955	0	-75.258	-96.722	-4.124	B5-03822-P02-CH1	853024	OK	0.8848648	-0.2190793	-0.4111187	0	-82.501	-76.538	3.537	B5-03822-P03-CH0	853024	OK	0.7879598	-0.3532715	-0.5043002	0	-93.644	-55.906	3.282	B5-03822-P03-CH1	853024	OK	0.7457758	-0.6623057	-0.0718992	0	-97.6	-23.748	-5.802	B5-03822-P04-CH0	853024	OK	0.791962	-0.3190904	0.520555	0	-120.537	-37.122	1.899	B5-03822-P04-CH1	853024	OK	0.7820201	-0.6229417	0.019702	0	-108.195	-45.707	-4.278	NA
0.879274376417234	B5-03822-P01-CH0	853032	OK	0.2374206	0.0642882	0.0565585	-0.9676258	118.386	-36.634	-244.761	B5-03822-P02-CH0	853032	OK	0.7623223	0.0393609	-0.6459995	0	-75.076	-96.523	-4.482	B5-03822-P02-CH1	853032	OK	0.8820426	-0.2196103	-0.4168599	0	-82.881	-76.74	3.508	B5-03822-P03-CH0	853032	OK	0.7887078	-0.3599156	-0.4983981	0	-93.986	-55.644	3.675	B5-03822-P03-CH1	853032	OK	0.7455913	-0.6625144	-0.0718905	0	-97.5	-23.704	-5.896	B5-03822-P04-CH0	853032	OK	0.7918295	-0.321437	0.5193113	0	-121.195	-39.585	3.367	B5-03822-P04-CH1	853032	OK	0.7816857	-0.6233534	0.0199516	0	-108.272	-45.794	-4.11	NA
0.889266130694702	B5-03822-P01-CH0	853040	OK	0.2377535	0.0643609	0.0569523	-0.9675161	118.421	-36.529	-244.771	B5-03822-P02-CH0	853040	OK	0.760673	0.0458604	-0.6475132	0	-75.252	-96.706	-4.457	B5-03822-P02-CH1	853040	OK	0.8812313	-0.2173423	-0.4197543	0	-82.48	-76.337	3.744	B5-03822-P03-CH0	853040	OK	0.788144	-0.365585	-0.4951531	0	-94.391	-55.368	3.62	B5-03822-P03-CH1	853040	OK	0.7459658	-0.6621438	-0.0714186	0	-97.5	-23.692	-5.873	B5-03822-P04-CH0	853040	OK	0.7924885	-0.3252483	0.515922	0	-121.331	-39.404	4.088	B5-03822-P04-CH1	853040	OK	0.7819782	-0.6229673	0.0205405	0	-108.37	-45.883	-3.889	NA
0.899257884972171	B5-03822-P01-CH0	853048	OK	0.2379796	0.0644162	0.0571594	-0.9674446	118.431	-36.423	-244.674	B5-03822-P02-CH0	853048	OK	0.7593055	0.0508822	-0.648742	0	-75.39	-97.148	-3.772	B5-03822-P02-CH1	853048	OK	0.8782823	-0.2176885	-0.4257135	0	-82.745	-76.497	3.069	B5-03822-P03-CH0	853048	OK	0.7871677	-0.372918	-0.4912222	0	-94.53	-55.054	2.572	B5-03822-P03-CH1	853048	OK	0.746018	-0.662123	-0.0710657	0	-97.449	-23.844	-5.784	B5-03822-P04-CH0	853048	OK	0.7921576	-0.3292747	0.5138721	0	-120.987	-39.368	4.484	B5-03822-P04-CH1	853048	OK	0.7821694	-0.6227103	0.0210447	0	-108.408	-45.954	-3.7	NA
0.909249639249639	B5-03822-P01-CH0	853056	OK	0.2378867	0.0645508	0.0561857	-0.9675155	118.434	-36.522	-244.566	B5-03822-P02-CH0	853056	OK	0.7583041	0.0572761	-0.64938	0	-75.518	-97.119	-4.194	B5-03822-P02-CH1	853056	OK	0.8762111	-0.2184154	-0.4295914	0	-82.013	-76.715	3.486	B5-03822-P03-CH0	853056	OK	0.7854896	-0.3800843	-0.4884077	0	-94.068	-55.721	2.675	B5-03822-P03-CH1	853056	OK	0.7455001	-0.6626784	-0.0713227	0	-97.433	-23.919	-5.915	B5-03822-P04-CH0	853056	OK	0.7908026	-0.3338986	0.5129746	0	-120.943	-39.824	3.481	B5-03822-P04-CH1	853056	OK	0.7815062	-0.6235363	0.0212249	0	-108.349	-46.167	-3.66	NA
0.919241393527108	B5-03822-P01-CH0	853064	OK	0.2378174	0.0647655	0.0556667	-0.9675482	118.47	-36.522	-244.517	B5-03822-P02-CH0	853064	OK	0.7573819	0.0622893	-0.6499943	0	-75.52	-97.009	-4.981	B5-03822-P02-CH1	853064	OK	0.8718184	-0.2183699	-0.4384602	0	-82.5	-76.678	2.818	B5-03822-P03-CH0	853064	OK	0.7842073	-0.3833517	-0.4879143	0	-93.873	-55.672	2.515	B5-03822-P03-CH1	853064	OK	0.74516	-0.6630486	-0.0714366	0	-97.385	-23.975	-5.827	B5-03822-P04-CH0	853064	OK	0.7905339	-0.3382498	0.5105322	0	-121.066	-38.664	1.109	B5-03822-P04-CH1	853064	OK	0.7811622	-0.6239612	0.0214015	0	-108.373	-46.256	-3.577	NA
0.929233147804576	B5-03822-P01-CH0	853072	OK	0.2379849	0.06488	0.0557373	-0.9674953	118.555	-36.503	-244.512	B5-03822-P02-CH0	853072	OK	0.7565639	0.0666396	-0.6505154	0	-75.359	-97.232	-3.908	B5-03822-P02-CH1	853072	OK	0.8691787	-0.2184645	-0.4436233	0	-82.511	-76.628	3.163	B5-03822-P03-CH0	853072	OK	0.7831226	-0.3834737	-0.4895578	0	-93.781	-55.738	2.274	B5-03822-P03-CH1	853072	OK	0.7449481	-0.6633121	-0.0711996	0	-97.365	-24.267	-5.644	B5-03822-P04-CH0	853072	OK	0.7911671	-0.3432231	0.5062139	0	-120.37	-35.471	-0.508	B5-03822-P04-CH1	853072	OK	0.7811947	-0.6239031	0.021904	0	-108.359	-46.399	-3.518	NA
0.939224902082045	B5-03822-P01-CH0	853080	OK	0.237951	0.0647491	0.0558155	-0.9675079	118.514	-36.478	-244.469	B5-03822-P02-CH0	853080	OK	0.7559521	0.0714701	-0.6507138	0	-75.157	-97.133	-5.018	B5-03822-P02-CH1	853080	OK	0.8662587	-0.2200877	-0.4485055	0	-82.713	-76.708	2.918	B5-03822-P03-CH0	853080	OK	0.7821265	-0.3846999	-0.4901878	0	-93.734	-55.893	2.367	B5-03822-P03-CH1	853080	OK	0.7449317	-0.6632932	-0.071546	0	-97.262	-24.268	-5.702	B5-03822-P04-CH0	853080	OK	0.7910037	-0.3412439	0.5078048	0	-120.913	-39.248	4.008	B5-03822-P04-CH1	853080	OK	0.781312	-0.6237599	0.0217983	0	-108.403	-46.302	-3.605	NA
0.949216656359514	B5-03822-P01-CH0	853088	OK	0.2381225	0.0647865	0.0559515	-0.9674553	118.569	-36.459	-244.514	B5-03822-P02-CH0	853088	OK	0.7553574	0.0755536	-0.650943	0	-74.868	-96.395	-4.631	B5-03822-P02-CH1	853088	OK	0.8647041	-0.22019	-0.4514457	0	-82.289	-76.446	3.127	B5-03822-P03-CH0	853088	OK	0.7805564	-0.3861199	-0.491572	0	-93.979	-55.852	2.141	B5-03822-P03-CH1	853088	OK	0.7451763	-0.6629946	-0.0717664	0	-97.256	-24.148	-5.812	B5-03822-P04-CH0	853088	OK	0.7899667	-0.3447024	0.5070826	0	-120.422	-39.401	2.918	B5-03822-P04-CH1	853088	OK	0.7814376	-0.6235992	0.0218933	0	-108.458	-46.327	-3.561	NA
0.959208410636982	B5-03822-P01-CH0	853096	OK	0.2379988	0.0652877	0.0553327	-0.9674877	118.695	-36.453	-244.387	B5-03822-P02-CH0	853096	OK	0.7531427	0.0787643	-0.653125	0	-75.546	-97.244	-4.1	B5-03822-P02-CH1	853096	OK	0.8620949	-0.222127	-0.4554689	0	-82.157	-76.378	3.139	B5-03822-P03-CH0	853096	OK	0.7793007	-0.3875347	-0.4924502	0	-93.877	-55.801	2.436	B5-03822-P03-CH1	853096	OK	0.7446459	-0.663529	-0.0723313	0	-97.351	-24.171	-5.898	B5-03822-P04-CH0	853096	OK	0.7904725	-0.3494551	0.5030252	0	-120.245	-37.397	1.445	B5-03822-P04-CH1	853096	OK	0.7809807	-0.6241704	0.0219201	0	-108.54	-46.372	-3.592	NA
0.969200164914451	B5-03822-P01-CH0	853104	OK	0.2382629	0.0652917	0.0554364	-0.9674164	118.719	-36.404	-244.34	B5-03822-P02-CH0	853104	OK	0.7520411	0.0821841	-0.6539724	0	-75.762	-97.384	-4.04	B5-03822-P02-CH1	853104	OK	0.8598937	-0.2250724	-0.458176	0	-81.928	-76.543	2.705	B5-03822-P03-CH0	853104	OK	0.7776165	-0.3885829	-0.4942832	0	-94.324	-55.693	2.683	B5-03822-P03-CH1	853104	OK	0.7445583	-0.6636218	-0.072381	0	-97.359	-24.29	-6.012	B5-03822-P04-CH0	853104	OK	0.790594	-0.3504306	0.5021549	0	-120.04	-38.005	2.87	B5-03822-P04-CH1	853104	OK	0.781036	-0.6240905	0.0222193	0	-108.508	-46.429	-3.428	NA
0.979191919191919	B5-03822-P01-CH0	853112	OK	0.2384306	0.0653801	0.0561443	-0.9673283	118.817	-36.3	-244.391	B5-03822-P02-CH0	853112	OK	0.7522185	0.0867063	-0.653184	0	-75.405	-97.314	-4.763	B5-03822-P02-CH1	853112	OK	0.8573026	-0.2249659	-0.4630579	0	-82.133	-76.616	2.478	B5-03822-P03-CH0	853112	OK	0.7763113	-0.3889347	-0.496055	0	-94.414	-56.004	2.825	B5-03822-P03-CH1	853112	OK	0.7447132	-0.663435	-0.0724998	0	-97.466	-24.498	-5.84	B5-03822-P04-CH0	853112	OK	0.790271	-0.3539423	0.5001966	0	-119.775	-36.53	0.773	B5-03822-P04-CH1	853112	OK	0.7814867	-0.6235233	0.022299	0	-108.576	-46.387	-3.313	NA
0.989183673469388	B5-03822-P01-CH0	853120	OK	0.2384787	0.0655021	0.0559192	-0.9673213	118.939	-36.361	-244.419	B5-03822-P02-CH0	853120	OK	0.7520652	0.0901318	-0.6528968	0	-75.498	-97.28	-4.256	B5-03822-P02-CH1	853120	OK	0.8554697	-0.2227565	-0.4674944	0	-81.921	-76.593	2.759	B5-03822-P03-CH0	853120	OK	0.775348	-0.3896481	-0.4970008	0	-94.34	-56.161	2.453	B5-03822-P03-CH1	853120	OK	0.7445616	-0.663563	-0.0728849	0	-97.488	-24.672	-5.645	B5-03822-P04-CH0	853120	OK	0.7900442	-0.3542296	0.5003514	0	-120.454	-38.142	1.635	B5-03822-P04-CH1	853120	OK	0.7813559	-0.62369	0.0222217	0	-108.71	-46.4	-3.567	NA
0.999175427746856	B5-03822-P01-CH0	853128	OK	0.2387018	0.0655743	0.0558412	-0.9672659	118.982	-36.359	-244.416	B5-03822-P02-CH0	853128	OK	0.7519689	0.0931099	-0.6525897	0	-75.571	-97.785	-4.098	B5-03822-P02-CH1	853128	OK	0.8548479	-0.2215495	-0.4692023	0	-81.121	-76.681	2.285	B5-03822-P03-CH0	853128	OK	0.7745397	-0.3894323	-0.4984282	0	-94.503	-55.781	1.788	B5-03822-P03-CH1	853128	OK	0.744586	-0.663529	-0.0729449	0	-97.531	-24.675	-5.764	B5-03822-P04-CH0	853128	OK	0.7901021	-0.3533966	0.5008489	0	-120.796	-39.524	2.709	B5-03822-P04-CH1	853128	OK	0.7812568	-0.623807	0.0224212	0	-108.686	-46.447	-3.672	NA
1.00916718202432	B5-03822-P01-CH0	853136	OK	0.238898	0.0654705	0.0564715	-0.9671879	118.982	-36.248	-244.443	B5-03822-P02-CH0	853136	OK	0.7506594	0.0961666	-0.6536532	0	-76.322	-97.391	-3.777	B5-03822-P02-CH1	853136	OK	0.853021	-0.2201844	-0.4731532	0	-81.587	-76.697	1.838	B5-03822-P03-CH0	853136	OK	0.774355	-0.3897374	-0.4984768	0	-93.907	-56.082	2.234	B5-03822-P03-CH1	853136	OK	0.7449351	-0.6631247	-0.0730568	0	-97.481	-24.679	-5.839	B5-03822-P04-CH0	853136	OK	0.790707	-0.3495664	0.5025791	0	-120.222	-37.254	1.565	B5-03822-P04-CH1	853136	OK	0.7816744	-0.6232851	0.0223785	0	-108.793	-46.335	-3.701	NA
1.01915893630179	B5-03822-P01-CH0	853144	OK	0.239248	0.0653715	0.0568283	-0.9670871	119.033	-36.251	-244.539	B5-03822-P02-CH0	853144	OK	0.7507964	0.0988479	-0.6530956	0	-76.403	-98.136	-4.459	B5-03822-P02-CH1	853144	OK	0.8516183	-0.2209133	-0.4753352	0	-81.598	-77.076	2.58	B5-03822-P03-CH0	853144	OK	0.7729858	-0.3893735	-0.5008804	0	-94.494	-55.675	1.766	B5-03822-P03-CH1	853144	OK	0.7452321	-0.6628021	-0.0729556	0	-97.444	-24.765	-5.828	B5-03822-P04-CH0	853144	OK	0.7906713	-0.3510058	0.5016312	0	-120.111	-37.357	1.812	B5-03822-P04-CH1	853144	OK	0.7819496	-0.6229347	0.0225206	0	-108.771	-46.343	-3.79	NA
1.02915069057926	B5-03822-P01-CH0	853152	OK	0.2394372	0.0652201	0.0571875	-0.9670294	119.003	-36.169	-244.56	B5-03822-P02-CH0	853152	OK	0.7518235	0.102843	-0.6512946	0	-75.809	-97.381	-5.168	B5-03822-P02-CH1	853152	OK	0.8490019	-0.2205654	-0.4801528	0	-82.243	-76.852	2.235	B5-03822-P03-CH0	853152	OK	0.772274	-0.390073	-0.5014338	0	-94.427	-55.751	1.476	B5-03822-P03-CH1	853152	OK	0.7455498	-0.662413	-0.0732429	0	-97.438	-24.666	-5.899	B5-03822-P04-CH0	853152	OK	0.790571	-0.3521433	0.5009916	0	-120.089	-37.634	2.144	B5-03822-P04-CH1	853152	OK	0.7821928	-0.6226282	0.0225486	0	-108.69	-46.232	-3.918	NA
1.03914244485673	B5-03822-P01-CH0	853160	OK	0.2393585	0.0653204	0.0567001	-0.9670708	119.051	-36.208	-244.557	B5-03822-P02-CH0	853160	OK	0.7517079	0.1060419	-0.650915	0	-75.706	-97.346	-4.29	B5-03822-P02-CH1	853160	OK	0.84791	-0.2194154	-0.4826029	0	-81.953	-76.688	2.44	B5-03822-P03-CH0	853160	OK	0.7720922	-0.389755	-0.5019608	0	-93.922	-55.819	1.797	B5-03822-P03-CH1	853160	OK	0.7452992	-0.6626412	-0.0737274	0	-97.476	-24.676	-5.93	B5-03822-P04-CH0	853160	OK	0.7902293	-0.3542784	0.5000245	0	-120.058	-37.566	2.041	B5-03822-P04-CH1	853160	OK	0.7819852	-0.6228994	0.0222589	0	-108.702	-46.171	-3.858	NA
1.0491341991342	B5-03822-P01-CH0	853168	OK	0.2392361	0.0652483	0.05635	-0.9671264	119.033	-36.251	-244.516	B5-03822-P02-CH0	853168	OK	0.7507282	0.1098777	-0.6514093	0	-76.24	-97.699	-3.715	B5-03822-P02-CH1	853168	OK	0.8458476	-0.2189893	-0.4864006	0	-81.933	-77.015	2.544	B5-03822-P03-CH0	853168	OK	0.7704068	-0.3895587	-0.5046953	0	-94.31	-55.879	1.531	B5-03822-P03-CH1	853168	OK	0.7448216	-0.6631386	-0.0740808	0	-97.489	-24.887	-5.941	B5-03822-P04-CH0	853168	OK	0.7898913	-0.3562506	0.4991566	0	-120.024	-37.468	1.871	B5-03822-P04-CH1	853168	OK	0.7817826	-0.6231607	0.0220612	0	-108.739	-46.16	-3.908	NA
1.05912595341167	B5-03822-P01-CH0	853176	OK	0.2393878	0.0651318	0.0561009	-0.9671112	119.07	-36.314	-244.593	B5-03822-P02-CH0	853176	OK	0.7511426	0.1145645	-0.6501229	0	-76.159	-97.684	-4.193	B5-03822-P02-CH1	853176	OK	0.8445652	-0.2190772	-0.4885844	0	-81.711	-76.896	1.393	B5-03822-P03-CH0	853176	OK	0.7693244	-0.3894615	-0.5064184	0	-94.061	-56.119	1.699	B5-03822-P03-CH1	853176	OK	0.7447468	-0.6632118	-0.0741778	0	-97.386	-24.982	-5.977	B5-03822-P04-CH0	853176	OK	0.7894355	-0.3579093	0.4986908	0	-119.887	-37.542	1.89	B5-03822-P04-CH1	853176	OK	0.7816128	-0.6233681	0.0222166	0	-108.551	-46.267	-3.897	NA
1.06911770768914	B5-03822-P01-CH0	853184	OK	0.2394163	0.0649942	0.0560539	-0.9671161	119.057	-36.308	-244.657	B5-03822-P02-CH0	853184	OK	0.7520194	0.1189635	-0.6483167	0	-75.669	-97.435	-4.393	B5-03822-P02-CH1	853184	OK	0.8423199	-0.2197137	-0.4921617	0	-81.759	-76.891	1.172	B5-03822-P03-CH0	853184	OK	0.7688271	-0.3898401	-0.5068823	0	-93.752	-56.11	1.287	B5-03822-P03-CH1	853184	OK	0.7448393	-0.6630748	-0.0744733	0	-97.275	-24.91	-6.072	B5-03822-P04-CH0	853184	OK	0.7891767	-0.3590748	0.4982625	0	-119.876	-37.715	2.161	B5-03822-P04-CH1	853184	OK	0.7815502	-0.6234499	0.0221264	0	-108.629	-46.345	-3.714	NA
1.0791094619666	B5-03822-P01-CH0	853192	OK	0.2396786	0.0648944	0.0561013	-0.9670551	119.053	-36.295	-244.675	B5-03822-P02-CH0	853192	OK	0.7508539	0.1203728	-0.6494065	0	-76.26	-98.041	-3.83	B5-03822-P02-CH1	853192	OK	0.8423031	-0.2193358	-0.4923589	0	-80.662	-76.775	1.758	B5-03822-P03-CH0	853192	OK	0.767851	-0.3906183	-0.507762	0	-93.78	-56.21	1.562	B5-03822-P03-CH1	853192	OK	0.7451352	-0.6627412	-0.0744826	0	-97.296	-24.705	-6.389	B5-03822-P04-CH0	853192	OK	0.7889966	-0.3599496	0.4979162	0	-119.838	-37.844	2.325	B5-03822-P04-CH1	853192	OK	0.7814517	-0.6235651	0.0223575	0	-108.605	-46.471	-3.765	NA
1.08910121624407	B5-03822-P01-CH0	853200	OK	0.2395899	0.0649187	0.0558665	-0.967089	119.05	-36.26	-244.697	B5-03822-P02-CH0	853200	OK	0.7510796	0.1238509	-0.6484908	0	-76.124	-97.755	-3.679	B5-03822-P02-CH1	853200	OK	0.8404653	-0.2194654	-0.4954322	0	-80.867	-76.735	1.61	B5-03822-P03-CH0	853200	OK	0.7673587	-0.3915423	-0.5077944	0	-93.585	-56.468	2.284	B5-03822-P03-CH1	853200	OK	0.7447317	-0.6631786	-0.0746244	0	-97.282	-24.843	-6.268	B5-03822-P04-CH0	853200	OK	0.7887415	-0.3614879	0.4972055	0	-119.85	-37.716	2.303	B5-03822-P04-CH1	853200	OK	0.7812597	-0.6238113	0.0221953	0	-108.506	-46.449	-3.657	NA
1.09909297052154	B5-03822-P01-CH0	853208	OK	0.2395806	0.0649409	0.0559939	-0.9670825	119.104	-36.198	-244.767	B5-03822-P02-CH0	853208	OK	0.7494628	0.1243072	-0.6502717	0	-77.201	-98.176	-3.265	B5-03822-P02-CH1	853208	OK	0.8396788	-0.2201881	-0.4964441	0	-80.674	-77.027	1.643	B5-03822-P03-CH0	853208	OK	0.7675399	-0.3928586	-0.5065024	0	-93.55	-56.347	1.87	B5-03822-P03-CH1	853208	OK	0.7447403	-0.6631406	-0.0748755	0	-97.364	-24.846	-6.135	B5-03822-P04-CH0	853208	OK	0.7885763	-0.3631311	0.4962693	0	-119.74	-37.328	2.2	B5-03822-P04-CH1	853208	OK	0.7813075	-0.6237534	0.0221444	0	-108.533	-46.39	-3.761	NA
