Wav.Time	B5.03822.P01.CH0	Frame	State	Q0	Qx	Qy	Qz	Tx	Ty	Tz	B5.03822.P02.CH0	Frame.1	State.1	Q0.1	Qx.1	Qy.1	Qz.1	Tx.1	Ty.1	Tz.1	B5.03822.P02.CH1	Frame.2	State.2	Q0.2	Qx.2	Qy.2	Qz.2	Tx.2	Ty.2	Tz.2	B5.03822.P03.CH0	Frame.3	State.3	Q0.3	Qx.3	Qy.3	Qz.3	Tx.3	Ty.3	Tz.3	B5.03822.P03.CH1	Frame.4	State.4	Q0.4	Qx.4	Qy.4	Qz.4	Tx.4	Ty.4	Tz.4	B5.03822.P04.CH0	Frame.5	State.5	Q0.5	Qx.5	Qy.5	Qz.5	Tx.5	Ty.5	Tz.5	B5.03822.P04.CH1	Frame.6	State.6	Q0.6	Qx.6	Qy.6	Qz.6	Tx.6	Ty.6	Tz.6	X
0	B5-03822-P01-CH0	2740400	OK	0.1892541	0.1439832	0.087617	-0.9673546	164.037	-39.44	-242.449	B5-03822-P02-CH0	2740400	OK	0.7246085	0.4305469	-0.5381188	0	-90.332	-89.367	1.241	B5-03822-P02-CH1	2740400	OK	0.7412276	-0.1332321	-0.6578988	0	-89.534	-70.379	3.899	B5-03822-P03-CH0	2740400	OK	0.777898	-0.2100861	-0.5922319	0	-102.894	-51.339	10.308	B5-03822-P03-CH1	2740400	OK	0.7558805	-0.6536151	-0.037842	0	-101.629	-10.93	4.537	B5-03822-P04-CH0	2740400	OK	0.8048752	-0.4182462	0.4210059	0	-128.066	-25.669	13.502	B5-03822-P04-CH1	2740400	OK	0.7934661	-0.6078799	0.0298929	0	-113.271	-32.105	1.774	NA
0.009992077152146	B5-03822-P01-CH0	2740408	OK	0.1892953	0.1440324	0.0879022	-0.9673134	164.054	-39.348	-242.455	B5-03822-P02-CH0	2740408	OK	0.7232146	0.4255377	-0.543947	0	-90.805	-90.241	1.209	B5-03822-P02-CH1	2740408	OK	0.7408846	-0.1322133	-0.6584904	0	-89.718	-70.348	3.924	B5-03822-P03-CH0	2740408	OK	0.7775816	-0.205517	-0.594247	0	-102.475	-51.021	10.078	B5-03822-P03-CH1	2740408	OK	0.756015	-0.653461	-0.037816	0	-101.668	-10.858	4.41	B5-03822-P04-CH0	2740408	OK	0.8050536	-0.4178571	0.4210513	0	-128.128	-25.667	13.612	B5-03822-P04-CH1	2740408	OK	0.7932585	-0.6081398	0.0301155	0	-113.343	-32.426	2.104	NA
0.019984154304292	B5-03822-P01-CH0	2740416	OK	0.1897915	0.1436859	0.0888077	-0.967185	164.001	-39.226	-242.51	B5-03822-P02-CH0	2740416	OK	0.7216221	0.4207869	-0.5497271	0	-90.366	-89.789	0.396	B5-03822-P02-CH1	2740416	OK	0.7409956	-0.1317954	-0.6584494	0	-89.733	-70.297	3.532	B5-03822-P03-CH0	2740416	OK	0.7772058	-0.1981199	-0.5972434	0	-102.142	-50.734	10.203	B5-03822-P03-CH1	2740416	OK	0.7566342	-0.6527675	-0.0374056	0	-101.55	-10.821	4.358	B5-03822-P04-CH0	2740416	OK	0.8053795	-0.4169394	0.4213377	0	-128.139	-25.608	13.449	B5-03822-P04-CH1	2740416	OK	0.7940221	-0.6071268	0.0304305	0	-113.321	-32.317	2.132	NA
0.029976231456438	B5-03822-P01-CH0	2740424	OK	0.1893626	0.143898	0.0877414	-0.9673348	163.987	-39.262	-242.401	B5-03822-P02-CH0	2740424	OK	0.7202093	0.4128204	-0.5575642	0	-90.471	-90.055	0.786	B5-03822-P02-CH1	2740424	OK	0.7408588	-0.1315975	-0.6586428	0	-89.869	-70.317	3.494	B5-03822-P03-CH0	2740424	OK	0.7765677	-0.1901322	-0.6006599	0	-102.079	-50.547	9.876	B5-03822-P03-CH1	2740424	OK	0.7557109	-0.6538076	-0.0379021	0	-101.514	-10.831	4.203	B5-03822-P04-CH0	2740424	OK	0.8047965	-0.4173858	0.4220092	0	-128.222	-25.79	13.604	B5-03822-P04-CH1	2740424	OK	0.7935534	-0.6077724	0.0297591	0	-113.371	-32.01	1.911	NA
0.039968308608584	B5-03822-P01-CH0	2740432	OK	0.1894163	0.1439498	0.0878085	-0.9673105	164.03	-39.136	-242.442	B5-03822-P02-CH0	2740432	OK	0.717529	0.4038745	-0.5674835	0	-90.259	-89.8	1.479	B5-03822-P02-CH1	2740432	OK	0.7410982	-0.1322416	-0.6582443	0	-90.051	-70.292	3.289	B5-03822-P03-CH0	2740432	OK	0.7758969	-0.1820681	-0.6040159	0	-102.219	-50.263	9.975	B5-03822-P03-CH1	2740432	OK	0.7555503	-0.6540009	-0.0377687	0	-101.509	-10.885	4.394	B5-03822-P04-CH0	2740432	OK	0.8049056	-0.4170261	0.4221566	0	-128.34	-25.652	13.623	B5-03822-P04-CH1	2740432	OK	0.793679	-0.6076193	0.0295375	0	-113.254	-31.739	1.626	NA
0.04996038576073	B5-03822-P01-CH0	2740440	OK	0.189475	0.1436987	0.0877984	-0.9673372	163.93	-39.135	-242.425	B5-03822-P02-CH0	2740440	OK	0.7145158	0.3955569	-0.5770631	0	-90.071	-89.501	1.234	B5-03822-P02-CH1	2740440	OK	0.7435297	-0.1394812	-0.6539944	0	-91.469	-70.656	4.351	B5-03822-P03-CH0	2740440	OK	0.7748565	-0.1747048	-0.607516	0	-102.183	-50.088	9.21	B5-03822-P03-CH1	2740440	OK	0.7558108	-0.6536789	-0.0381311	0	-101.433	-10.605	4.192	B5-03822-P04-CH0	2740440	OK	0.8047786	-0.4164124	0.4230037	0	-128.366	-25.93	13.878	B5-03822-P04-CH1	2740440	OK	0.7937335	-0.607548	0.0295391	0	-113.037	-31.531	1.213	NA
0.059952462912876	B5-03822-P01-CH0	2740448	OK	0.1893	0.1436101	0.0873659	-0.9674238	163.877	-39.179	-242.449	B5-03822-P02-CH0	2740448	OK	0.7119057	0.3832379	-0.5884887	0	-89.895	-90.431	-0.286	B5-03822-P02-CH1	2740448	OK	0.7484753	-0.141667	-0.6478543	0	-91.113	-70.111	4.02	B5-03822-P03-CH0	2740448	OK	0.7708067	-0.1636433	-0.615693	0	-102.566	-49.784	8.144	B5-03822-P03-CH1	2740448	OK	0.7556889	-0.6538051	-0.0383825	0	-101.347	-10.478	4.202	B5-03822-P04-CH0	2740448	OK	0.8045318	-0.4166362	0.4232527	0	-128.297	-25.743	13.797	B5-03822-P04-CH1	2740448	OK	0.7932877	-0.6081387	0.0293568	0	-112.898	-31.622	1.156	NA
0.069944540065022	B5-03822-P01-CH0	2740456	OK	0.1894828	0.1436158	0.08775	-0.9673524	163.88	-39.059	-242.388	B5-03822-P02-CH0	2740456	OK	0.7076946	0.367767	-0.6032543	0	-89.463	-90.089	-0.177	B5-03822-P02-CH1	2740456	OK	0.7535844	-0.1435138	-0.6414938	0	-91.163	-69.909	3.688	B5-03822-P03-CH0	2740456	OK	0.7666902	-0.1461788	-0.6251543	0	-102.412	-49.763	8.976	B5-03822-P03-CH1	2740456	OK	0.7562012	-0.6531825	-0.0388889	0	-101.331	-10.103	4.041	B5-03822-P04-CH0	2740456	OK	0.8046007	-0.4167203	0.4230389	0	-128.207	-25.327	13.311	B5-03822-P04-CH1	2740456	OK	0.7931845	-0.6082463	0.0299145	0	-113.151	-32.103	1.799	NA
0.079936617217168	B5-03822-P01-CH0	2740464	OK	0.1893433	0.1440286	0.087413	-0.9673489	164.034	-39.029	-242.313	B5-03822-P02-CH0	2740464	OK	0.7046594	0.3506873	-0.6168253	0	-89.06	-89.671	-1.23	B5-03822-P02-CH1	2740464	OK	0.757534	-0.1406741	-0.6374582	0	-92.327	-70.896	4.69	B5-03822-P03-CH0	2740464	OK	0.7622401	-0.1243379	-0.6352402	0	-103.27	-49.184	9.753	B5-03822-P03-CH1	2740464	OK	0.7561604	-0.6531935	-0.0394933	0	-101.511	-9.888	4.142	B5-03822-P04-CH0	2740464	OK	0.8045185	-0.4167985	0.4231183	0	-128.364	-25.263	13.311	B5-03822-P04-CH1	2740464	OK	0.7924987	-0.6091162	0.0303848	0	-113.338	-32.691	2.368	NA
0.089928694369314	B5-03822-P01-CH0	2740472	OK	0.1895264	0.1438292	0.0878783	-0.9673005	164.084	-38.955	-242.443	B5-03822-P02-CH0	2740472	OK	0.7005864	0.3306156	-0.6323543	0	-88.688	-89.334	-0.867	B5-03822-P02-CH1	2740472	OK	0.7622705	-0.1347711	-0.6330723	0	-93.821	-70.595	4.915	B5-03822-P03-CH0	2740472	OK	0.7601428	-0.0970855	-0.6424619	0	-103.574	-47.833	9.267	B5-03822-P03-CH1	2740472	OK	0.756483	-0.6528226	-0.0394474	0	-101.644	-9.874	4.342	B5-03822-P04-CH0	2740472	OK	0.8044599	-0.4159679	0.4240459	0	-128.432	-25.509	13.504	B5-03822-P04-CH1	2740472	OK	0.7928536	-0.6086616	0.0302365	0	-113.315	-32.662	2.53	NA
0.09992077152146	B5-03822-P01-CH0	2740480	OK	0.1898005	0.1436976	0.0884497	-0.9672142	164.081	-38.896	-242.405	B5-03822-P02-CH0	2740480	OK	0.6973454	0.3105718	-0.6459524	0	-88.887	-90.128	-1.08	B5-03822-P02-CH1	2740480	OK	0.7673907	-0.1296189	-0.6279415	0	-94.703	-70.291	6.075	B5-03822-P03-CH0	2740480	OK	0.7602053	-0.0703091	-0.6458673	0	-102.937	-46.75	8.231	B5-03822-P03-CH1	2740480	OK	0.7568392	-0.6523895	-0.0397783	0	-101.587	-9.764	4.138	B5-03822-P04-CH0	2740480	OK	0.8043974	-0.4150263	0.4250858	0	-128.397	-25.671	13.645	B5-03822-P04-CH1	2740480	OK	0.7932194	-0.6081692	0.030549	0	-113.343	-32.578	2.209	NA
0.109912848673606	B5-03822-P01-CH0	2740488	OK	0.1896006	0.1436358	0.087938	-0.9673093	164.052	-38.942	-242.395	B5-03822-P02-CH0	2740488	OK	0.6963831	0.2920601	-0.6555543	0	-88.109	-90.012	-0.566	B5-03822-P02-CH1	2740488	OK	0.7708542	-0.1302493	-0.6235535	0	-95.185	-69.451	5.557	B5-03822-P03-CH0	2740488	OK	0.7585054	-0.0485159	-0.6498582	0	-103.005	-46.578	8.168	B5-03822-P03-CH1	2740488	OK	0.7560802	-0.6532451	-0.0401686	0	-101.572	-10.013	4.168	B5-03822-P04-CH0	2740488	OK	0.8037766	-0.4144705	0.426799	0	-128.553	-26.023	13.805	B5-03822-P04-CH1	2740488	OK	0.7929486	-0.6085214	0.0305652	0	-113.196	-32.489	1.878	NA
0.119904925825752	B5-03822-P01-CH0	2740496	OK	0.1892465	0.1437489	0.0873825	-0.9674122	164.064	-38.977	-242.348	B5-03822-P02-CH0	2740496	OK	0.6956876	0.2738762	-0.6640863	0	-87.395	-89.553	-1.642	B5-03822-P02-CH1	2740496	OK	0.7728364	-0.1340512	-0.6202855	0	-95.98	-70.168	7.087	B5-03822-P03-CH0	2740496	OK	0.7568318	-0.0272405	-0.6530418	0	-103.468	-46.028	7.812	B5-03822-P03-CH1	2740496	OK	0.7557097	-0.6536076	-0.04123	0	-101.589	-9.891	4.192	B5-03822-P04-CH0	2740496	OK	0.8008969	-0.4087981	0.437548	0	-129.05	-26.898	13.968	B5-03822-P04-CH1	2740496	OK	0.7924	-0.6092365	0.030546	0	-113.247	-32.657	2.045	NA
0.129897002977898	B5-03822-P01-CH0	2740504	OK	0.18975	0.1433177	0.0886656	-0.9672608	164.02	-38.817	-242.506	B5-03822-P02-CH0	2740504	OK	0.6941264	0.2566208	-0.672558	0	-86.588	-89.477	-1.451	B5-03822-P02-CH1	2740504	OK	0.7750982	-0.13673	-0.6168693	0	-96.32	-70.006	6.911	B5-03822-P03-CH0	2740504	OK	0.7552414	-0.0075615	-0.6554031	0	-104.309	-46.241	8.058	B5-03822-P03-CH1	2740504	OK	0.7565487	-0.6526173	-0.0415286	0	-101.479	-9.777	4.294	B5-03822-P04-CH0	2740504	OK	0.800691	-0.4052084	0.4412483	0	-129.111	-26.458	13.882	B5-03822-P04-CH1	2740504	OK	0.793145	-0.6082321	0.0312192	0	-113.21	-32.686	2.052	NA
0.139889080130044	B5-03822-P01-CH0	2740512	OK	0.1900881	0.1430321	0.0897416	-0.9671374	164.04	-38.787	-242.595	B5-03822-P02-CH0	2740512	OK	0.6907343	0.2401086	-0.6820806	0	-86.772	-90	-0.919	B5-03822-P02-CH1	2740512	OK	0.7747762	-0.1440383	-0.6156092	0	-95.899	-69.595	5.906	B5-03822-P03-CH0	2740512	OK	0.7550002	0.0118063	-0.6556183	0	-104.036	-46.44	8.751	B5-03822-P03-CH1	2740512	OK	0.7570738	-0.6519814	-0.0419459	0	-101.552	-9.828	4.277	B5-03822-P04-CH0	2740512	OK	0.8000005	-0.4020689	0.4453535	0	-128.718	-25.895	14.062	B5-03822-P04-CH1	2740512	OK	0.7935062	-0.607702	0.0323456	0	-113.27	-33.235	2.44	NA
0.14988115728219	B5-03822-P01-CH0	2740520	OK	0.1900088	0.143063	0.089759	-0.9671468	164.047	-38.746	-242.577	B5-03822-P02-CH0	2740520	OK	0.6871885	0.2300681	-0.6890868	0	-86.587	-89.556	-1.237	B5-03822-P02-CH1	2740520	OK	0.771062	-0.1508652	-0.61863	0	-95.702	-69.448	5.816	B5-03822-P03-CH0	2740520	OK	0.7559275	0.0231834	-0.6542447	0	-103.05	-46.489	8.489	B5-03822-P03-CH1	2740520	OK	0.7568531	-0.6521826	-0.0427921	0	-101.564	-9.848	4.374	B5-03822-P04-CH0	2740520	OK	0.7985546	-0.397521	0.4519819	0	-129.02	-27.318	15.083	B5-03822-P04-CH1	2740520	OK	0.7936348	-0.6075251	0.0325128	0	-113.35	-33.209	2.684	NA
0.159873234434336	B5-03822-P01-CH0	2740528	OK	0.1899094	0.1432314	0.089754	-0.9671419	164.054	-38.709	-242.417	B5-03822-P02-CH0	2740528	OK	0.6825978	0.2235953	-0.6957481	0	-87.011	-90.295	-1.621	B5-03822-P02-CH1	2740528	OK	0.7676047	-0.1536579	-0.6222317	0	-96.609	-69.073	4.996	B5-03822-P03-CH0	2740528	OK	0.7554049	0.0280681	-0.6546569	0	-103.26	-46.932	8.227	B5-03822-P03-CH1	2740528	OK	0.7565261	-0.6524857	-0.0439384	0	-101.555	-9.764	4.146	B5-03822-P04-CH0	2740528	OK	0.7978376	-0.3939579	0.4563468	0	-129.281	-27.877	15.235	B5-03822-P04-CH1	2740528	OK	0.7935749	-0.6075813	0.0329212	0	-113.47	-33.245	2.534	NA
0.169865311586482	B5-03822-P01-CH0	2740536	OK	0.189727	0.143231	0.0892394	-0.9672253	164.07	-38.749	-242.513	B5-03822-P02-CH0	2740536	OK	0.6789843	0.2207163	-0.700189	0	-86.559	-89.756	-0.511	B5-03822-P02-CH1	2740536	OK	0.7662903	-0.1557649	-0.623327	0	-95.875	-69.352	6.37	B5-03822-P03-CH0	2740536	OK	0.7545722	0.0274758	-0.6556415	0	-103.999	-47.236	9.202	B5-03822-P03-CH1	2740536	OK	0.7555655	-0.6535682	-0.0443772	0	-101.707	-10.075	4.32	B5-03822-P04-CH0	2740536	OK	0.7974588	-0.3931204	0.457729	0	-128.63	-25.876	14.369	B5-03822-P04-CH1	2740536	OK	0.7934235	-0.6077795	0.0329131	0	-113.389	-32.958	2.031	NA
0.179857388738628	B5-03822-P01-CH0	2740544	OK	0.1896899	0.1431509	0.0894175	-0.967228	164.054	-38.718	-242.54	B5-03822-P02-CH0	2740544	OK	0.6765029	0.2222521	-0.7021025	0	-86.324	-90.107	-0.514	B5-03822-P02-CH1	2740544	OK	0.7621124	-0.1571151	-0.6280919	0	-96.149	-69.077	5.445	B5-03822-P03-CH0	2740544	OK	0.7556445	0.024038	-0.6545407	0	-103.614	-46.882	9.168	B5-03822-P03-CH1	2740544	OK	0.7550899	-0.6540814	-0.0449093	0	-101.709	-10.284	4.355	B5-03822-P04-CH0	2740544	OK	0.7975444	-0.3905502	0.4597754	0	-128.92	-25.679	13.965	B5-03822-P04-CH1	2740544	OK	0.7937042	-0.6074121	0.0329275	0	-113.327	-32.697	1.811	NA
0.189849465890774	B5-03822-P01-CH0	2740552	OK	0.1896559	0.1433024	0.0892982	-0.9672233	164.078	-38.665	-242.485	B5-03822-P02-CH0	2740552	OK	0.673741	0.2271036	-0.7032048	0	-85.772	-89.257	-1.597	B5-03822-P02-CH1	2740552	OK	0.7574121	-0.1613117	-0.6326969	0	-94.915	-68.429	4.89	B5-03822-P03-CH0	2740552	OK	0.7550819	0.012911	-0.6555034	0	-103.606	-46.904	9.25	B5-03822-P03-CH1	2740552	OK	0.7545878	-0.6545901	-0.0459243	0	-101.744	-10.263	4.371	B5-03822-P04-CH0	2740552	OK	0.7969882	-0.3876261	0.4632017	0	-129.16	-26.584	14.057	B5-03822-P04-CH1	2740552	OK	0.7936195	-0.6075038	0.0332738	0	-113.391	-32.63	1.503	NA
0.19984154304292	B5-03822-P01-CH0	2740560	OK	0.1899769	0.1432321	0.089649	-0.9671383	164.127	-38.61	-242.565	B5-03822-P02-CH0	2740560	OK	0.6706263	0.2348532	-0.7036365	0	-85.72	-89.798	-2.086	B5-03822-P02-CH1	2740560	OK	0.7493639	-0.1702703	-0.639892	0	-94.534	-68.16	4.771	B5-03822-P03-CH0	2740560	OK	0.7531469	-0.0040215	-0.6578401	0	-103.815	-46.411	8.664	B5-03822-P03-CH1	2740560	OK	0.7546446	-0.6544772	-0.0465951	0	-101.743	-10.197	4.505	B5-03822-P04-CH0	2740560	OK	0.7969903	-0.3851001	0.4653003	0	-129.077	-26.83	14.381	B5-03822-P04-CH1	2740560	OK	0.793745	-0.607284	0.0342785	0	-113.438	-32.988	1.82	NA
0.209833620195066	B5-03822-P01-CH0	2740568	OK	0.1903953	0.1431708	0.090474	-0.9669882	164.179	-38.508	-242.566	B5-03822-P02-CH0	2740568	OK	0.6674658	0.2436836	-0.7036389	0	-85.373	-89.354	-2.02	B5-03822-P02-CH1	2740568	OK	0.7438124	-0.1809528	-0.6434277	0	-92.522	-67.541	3.804	B5-03822-P03-CH0	2740568	OK	0.752008	-0.0287773	-0.6585255	0	-103.657	-46.383	7.934	B5-03822-P03-CH1	2740568	OK	0.7552338	-0.6537502	-0.0472508	0	-101.726	-9.908	4.443	B5-03822-P04-CH0	2740568	OK	0.7971761	-0.3836555	0.4661746	0	-128.932	-27.002	13.977	B5-03822-P04-CH1	2740568	OK	0.7943287	-0.6064834	0.0349248	0	-113.526	-33.004	1.769	NA
0.219825697347212	B5-03822-P01-CH0	2740576	OK	0.1903269	0.1432353	0.0902347	-0.9670145	164.201	-38.495	-242.572	B5-03822-P02-CH0	2740576	OK	0.6662687	0.2550744	-0.7007303	0	-84.61	-89.318	-2.756	B5-03822-P02-CH1	2740576	OK	0.7339358	-0.1936986	-0.6510139	0	-92.391	-67.024	2.623	B5-03822-P03-CH0	2740576	OK	0.7513643	-0.059317	-0.6572162	0	-103.842	-46.895	7.595	B5-03822-P03-CH1	2740576	OK	0.7545451	-0.6544916	-0.0479837	0	-101.728	-9.946	4.341	B5-03822-P04-CH0	2740576	OK	0.7973959	-0.3822091	0.466986	0	-128.863	-27.4	14.726	B5-03822-P04-CH1	2740576	OK	0.7943575	-0.6064443	0.0349502	0	-113.47	-32.736	1.324	NA
0.229817774499358	B5-03822-P01-CH0	2740584	OK	0.1902806	0.1434914	0.0898262	-0.9670237	164.321	-38.532	-242.507	B5-03822-P02-CH0	2740584	OK	0.6637056	0.2671178	-0.6986723	0	-84.109	-89.137	-2.089	B5-03822-P02-CH1	2740584	OK	0.7244607	-0.2064308	-0.65768	0	-91.197	-66.425	2.216	B5-03822-P03-CH0	2740584	OK	0.75271	-0.0903001	-0.65213	0	-103.616	-46.197	6.996	B5-03822-P03-CH1	2740584	OK	0.7536517	-0.6554983	-0.0482807	0	-101.965	-10.091	4.286	B5-03822-P04-CH0	2740584	OK	0.7982747	-0.3810233	0.4664533	0	-128.896	-27.263	15.603	B5-03822-P04-CH1	2740584	OK	0.7941048	-0.6067598	0.0352143	0	-113.543	-32.795	1.18	NA
0.239809851651504	B5-03822-P01-CH0	2740592	OK	0.1899329	0.1434199	0.0890581	-0.9671736	164.238	-38.533	-242.452	B5-03822-P02-CH0	2740592	OK	0.6603474	0.2812222	-0.6963155	0	-83.849	-88.89	-2.761	B5-03822-P02-CH1	2740592	OK	0.7167964	-0.2162943	-0.6628874	0	-88.847	-65.856	2.102	B5-03822-P03-CH0	2740592	OK	0.7592509	-0.1264465	-0.6383959	0	-101.736	-46.349	8.711	B5-03822-P03-CH1	2740592	OK	0.7522592	-0.6570769	-0.0485392	0	-102.035	-10.349	4.531	B5-03822-P04-CH0	2740592	OK	0.797728	-0.3847221	0.4643479	0	-129.894	-28.299	15.792	B5-03822-P04-CH1	2740592	OK	0.7938328	-0.6071459	0.0346888	0	-113.456	-32.353	0.714	NA
0.24980192880365	B5-03822-P01-CH0	2740600	OK	0.1901403	0.1434206	0.0894911	-0.9670928	164.321	-38.461	-242.457	B5-03822-P02-CH0	2740600	OK	0.6540283	0.2944626	-0.6968061	0	-83.847	-89.089	-2.788	B5-03822-P02-CH1	2740600	OK	0.7072943	-0.226301	-0.6697183	0	-88.095	-66.741	2.516	B5-03822-P03-CH0	2740600	OK	0.7668494	-0.1714639	-0.6184999	0	-102.497	-48.152	8.621	B5-03822-P03-CH1	2740600	OK	0.751437	-0.6580431	-0.0481838	0	-102.26	-10.774	4.877	B5-03822-P04-CH0	2740600	OK	0.7981325	-0.3827214	0.4653052	0	-129.887	-28.089	15.678	B5-03822-P04-CH1	2740600	OK	0.7938904	-0.607046	0.0351167	0	-113.615	-32.513	0.547	NA
0.259794005955796	B5-03822-P01-CH0	2740608	OK	0.1899643	0.1433678	0.0890895	-0.9671723	164.327	-38.466	-242.519	B5-03822-P02-CH0	2740608	OK	0.6483542	0.306681	-0.6968383	0	-82.26	-88.308	-1.995	B5-03822-P02-CH1	2740608	OK	0.7004834	-0.2346628	-0.6739854	0	-87.199	-66.514	1.571	B5-03822-P03-CH0	2740608	OK	0.7775065	-0.2018015	-0.5956171	0	-102.036	-48.46	8.795	B5-03822-P03-CH1	2740608	OK	0.7487488	-0.6607086	-0.0532857	0	-101.768	-9.129	5.067	B5-03822-P04-CH0	2740608	OK	0.7981562	-0.3817556	0.4660572	0	-129.636	-27.857	15.797	B5-03822-P04-CH1	2740608	OK	0.7937982	-0.6071873	0.0347566	0	-113.539	-32.266	0.46	NA
0.269786083107942	B5-03822-P01-CH0	2740616	OK	0.1903819	0.1429332	0.090182	-0.9670533	164.285	-38.358	-242.607	B5-03822-P02-CH0	2740616	OK	0.6411573	0.3175756	-0.698615	0	-82.346	-88.27	-1.253	B5-03822-P02-CH1	2740616	OK	0.6983177	-0.2380882	-0.6750307	0	-85.235	-66.991	2.117	B5-03822-P03-CH0	2740616	OK	0.785152	-0.2206752	-0.5786526	0	-102.45	-49.717	9.698	B5-03822-P03-CH1	2740616	OK	0.7477842	-0.6617591	-0.0537924	0	-101.003	-9.342	4.777	B5-03822-P04-CH0	2740616	OK	0.8009174	-0.3764032	0.4656736	0	-128.873	-26.194	14.001	B5-03822-P04-CH1	2740616	OK	0.7945409	-0.6061959	0.03509	0	-113.406	-32.183	0.45	NA
0.279778160260088	B5-03822-P01-CH0	2740624	OK	0.1905915	0.1428782	0.0905084	-0.9669896	164.335	-38.31	-242.603	B5-03822-P02-CH0	2740624	OK	0.6378268	0.3272022	-0.69722	0	-82.24	-88.242	-2.62	B5-03822-P02-CH1	2740624	OK	0.696445	-0.2382692	-0.6768989	0	-84.546	-66.736	1.209	B5-03822-P03-CH0	2740624	OK	0.7896442	-0.2246577	-0.5709562	0	-102.798	-50.582	9.954	B5-03822-P03-CH1	2740624	OK	0.7476496	-0.6617806	-0.0553767	0	-101.443	-9.239	5.399	B5-03822-P04-CH0	2740624	OK	0.801584	-0.3743828	0.4661551	0	-129.045	-28.039	15.628	B5-03822-P04-CH1	2740624	OK	0.7950081	-0.6055799	0.0351431	0	-113.584	-32.044	0.489	NA
0.289770237412234	B5-03822-P01-CH0	2740632	OK	0.1904497	0.1427318	0.0901223	-0.9670752	164.305	-38.333	-242.642	B5-03822-P02-CH0	2740632	OK	0.636089	0.3330248	-0.6960498	0	-82.091	-87.499	-1.968	B5-03822-P02-CH1	2740632	OK	0.6949105	-0.2403512	-0.6777394	0	-83.794	-66.907	2.4	B5-03822-P03-CH0	2740632	OK	0.7913326	-0.2169474	-0.5715999	0	-101.889	-50.667	9.951	B5-03822-P03-CH1	2740632	OK	0.7477281	-0.6617037	-0.0552349	0	-101.804	-9.233	6.206	B5-03822-P04-CH0	2740632	OK	0.8022716	-0.3775184	0.4624286	0	-127.465	-25.216	14.041	B5-03822-P04-CH1	2740632	OK	0.7947697	-0.6058883	0.0352193	0	-113.636	-32.124	0.765	NA
0.29976231456438	B5-03822-P01-CH0	2740640	OK	0.1904043	0.1427676	0.090152	-0.9670761	164.342	-38.267	-242.583	B5-03822-P02-CH0	2740640	OK	0.636692	0.3354567	-0.6943285	0	-82.588	-88.003	-1.087	B5-03822-P02-CH1	2740640	OK	0.6940746	-0.2423105	-0.6778983	0	-84.209	-66.44	1.812	B5-03822-P03-CH0	2740640	OK	0.7862868	-0.2039167	-0.5832418	0	-101.972	-51.188	10.142	B5-03822-P03-CH1	2740640	OK	0.7504377	-0.6584956	-0.0568052	0	-101.79	-7.076	4.535	B5-03822-P04-CH0	2740640	OK	0.8041456	-0.3754327	0.4608688	0	-127.913	-25.254	14.274	B5-03822-P04-CH1	2740640	OK	0.7947158	-0.6059681	0.0350634	0	-113.711	-31.985	0.473	NA
0.309754391716526	B5-03822-P01-CH0	2740648	OK	0.1902948	0.1429042	0.0899423	-0.967097	164.44	-38.29	-242.575	B5-03822-P02-CH0	2740648	OK	0.6411159	0.3351767	-0.6903818	0	-81.949	-87.143	-0.614	B5-03822-P02-CH1	2740648	OK	0.6978958	-0.2444849	-0.673178	0	-84.235	-67.382	2.508	B5-03822-P03-CH0	2740648	OK	0.7803093	-0.1811841	-0.5985731	0	-101.626	-51.221	9.217	B5-03822-P03-CH1	2740648	OK	0.7514854	-0.6571264	-0.0587755	0	-101.764	-6.104	3.639	B5-03822-P04-CH0	2740648	OK	0.8060299	-0.3704152	0.4616366	0	-128.585	-26.52	15.87	B5-03822-P04-CH1	2740648	OK	0.7947632	-0.6059256	0.034722	0	-113.807	-31.948	0.946	NA
0.319746468868672	B5-03822-P01-CH0	2740656	OK	0.1902889	0.1429872	0.0900586	-0.9670751	164.546	-38.236	-242.54	B5-03822-P02-CH0	2740656	OK	0.6485174	0.3327227	-0.6846319	0	-82.056	-87.608	-2.449	B5-03822-P02-CH1	2740656	OK	0.7036555	-0.2442003	-0.6672595	0	-85.11	-67.101	1.991	B5-03822-P03-CH0	2740656	OK	0.773362	-0.1497844	-0.6160161	0	-101.273	-51.139	9.251	B5-03822-P03-CH1	2740656	OK	0.7479412	-0.6617022	-0.0522892	0	-102.403	-10.026	5.64	B5-03822-P04-CH0	2740656	OK	0.8075122	-0.3692456	0.4599801	0	-128.533	-25.477	14.127	B5-03822-P04-CH1	2740656	OK	0.7946448	-0.6060754	0.0348161	0	-113.992	-32.17	1.314	NA
0.329738546020818	B5-03822-P01-CH0	2740664	OK	0.1897363	0.1432253	0.0886889	-0.967275	164.584	-38.391	-242.429	B5-03822-P02-CH0	2740664	OK	0.6542808	0.3310049	-0.679965	0	-82.987	-87.244	-0.83	B5-03822-P02-CH1	2740664	OK	0.7094702	-0.241827	-0.6619454	0	-85.097	-67.473	1.539	B5-03822-P03-CH0	2740664	OK	0.7647707	-0.1116013	-0.6345636	0	-101.163	-51.536	9.836	B5-03822-P03-CH1	2740664	OK	0.7475033	-0.6620263	-0.0544055	0	-102.139	-9.411	5.386	B5-03822-P04-CH0	2740664	OK	0.8074898	-0.3693373	0.4599458	0	-128.504	-26.272	14.002	B5-03822-P04-CH1	2740664	OK	0.7936291	-0.6074246	0.0344701	0	-113.914	-32.392	1.57	NA
0.339730623172964	B5-03822-P01-CH0	2740672	OK	0.189794	0.1434314	0.0884556	-0.9672545	164.656	-38.416	-242.286	B5-03822-P02-CH0	2740672	OK	0.6648609	0.32938	-0.6704244	0	-82.913	-87.114	-2.229	B5-03822-P02-CH1	2740672	OK	0.7147183	-0.2364031	-0.6582487	0	-85.475	-67.547	2.135	B5-03822-P03-CH0	2740672	OK	0.7574339	-0.0728863	-0.6488309	0	-101.284	-51.351	9.33	B5-03822-P03-CH1	2740672	OK	0.7482074	-0.6610891	-0.056097	0	-101.958	-8.595	4.863	B5-03822-P04-CH0	2740672	OK	0.8084815	-0.3682424	0.4590808	0	-128.431	-26.526	14.707	B5-03822-P04-CH1	2740672	OK	0.7935593	-0.6075109	0.034556	0	-114.175	-32.396	1.625	NA
0.34972270032511	B5-03822-P01-CH0	2740680	OK	0.1896134	0.1434004	0.0877937	-0.9673548	164.609	-38.447	-242.225	B5-03822-P02-CH0	2740680	OK	0.6771623	0.3303912	-0.6574898	0	-83.749	-85.824	-1.159	B5-03822-P02-CH1	2740680	OK	0.7202401	-0.2301848	-0.6544228	0	-86.422	-67.353	2.662	B5-03822-P03-CH0	2740680	OK	0.7570153	-0.04806	-0.6516273	0	-101.422	-51.326	10.22	B5-03822-P03-CH1	2740680	OK	0.7487664	-0.6603283	-0.0575792	0	-101.661	-7.871	4.482	B5-03822-P04-CH0	2740680	OK	0.8099887	-0.3681016	0.4565298	0	-128.645	-26.143	14.598	B5-03822-P04-CH1	2740680	OK	0.792968	-0.6082696	0.0347821	0	-114.204	-32.615	1.875	NA
0.359714777477256	B5-03822-P01-CH0	2740688	OK	0.1898613	0.1432451	0.0881667	-0.9672953	164.697	-38.434	-242.313	B5-03822-P02-CH0	2740688	OK	0.6926028	0.3326454	-0.6400378	0	-85.806	-86.408	-0.802	B5-03822-P02-CH1	2740688	OK	0.7256465	-0.2232609	-0.6508392	0	-87.618	-67.536	3.634	B5-03822-P03-CH0	2740688	OK	0.7640919	-0.0450376	-0.6435334	0	-102.636	-51.775	10.095	B5-03822-P03-CH1	2740688	OK	0.750445	-0.6583552	-0.0583152	0	-101.606	-7.145	4.099	B5-03822-P04-CH0	2740688	OK	0.8113649	-0.3673175	0.4547139	0	-128.367	-26.324	15.136	B5-03822-P04-CH1	2740688	OK	0.7928399	-0.6083917	0.0355593	0	-114.315	-33.176	2.417	NA
0.369706854629402	B5-03822-P01-CH0	2740696	OK	0.1896647	0.1433976	0.0873298	-0.9673872	164.693	-38.507	-242.134	B5-03822-P02-CH0	2740696	OK	0.7068489	0.3415377	-0.6194487	0	-87.62	-86.578	-0.146	B5-03822-P02-CH1	2740696	OK	0.7301372	-0.2144903	-0.6487631	0	-88.432	-66.853	2.66	B5-03822-P03-CH0	2740696	OK	0.7755379	-0.0514633	-0.6291999	0	-103.4	-51.086	10.127	B5-03822-P03-CH1	2740696	OK	0.7543255	-0.6541461	-0.0555516	0	-102.109	-7.498	3.256	B5-03822-P04-CH0	2740696	OK	0.8124236	-0.3673746	0.4527734	0	-128.361	-27.362	16.466	B5-03822-P04-CH1	2740696	OK	0.7921392	-0.6092986	0.0356474	0	-114.385	-33.305	2.273	NA
0.379698931781548	B5-03822-P01-CH0	2740704	OK	0.1898668	0.1434641	0.0873014	-0.9673402	164.765	-38.51	-242.129	B5-03822-P02-CH0	2740704	OK	0.7169464	0.3557574	-0.5995203	0	-88.678	-87.246	0.441	B5-03822-P02-CH1	2740704	OK	0.7312873	-0.2067804	-0.6499698	0	-89.848	-67.251	2.701	B5-03822-P03-CH0	2740704	OK	0.7835281	-0.0590905	-0.6185402	0	-104.617	-50.966	10.906	B5-03822-P03-CH1	2740704	OK	0.7559048	-0.6525269	-0.0530718	0	-101.916	-7.88	3.318	B5-03822-P04-CH0	2740704	OK	0.8143037	-0.368635	0.4483499	0	-128	-25.244	14.43	B5-03822-P04-CH1	2740704	OK	0.7920482	-0.609395	0.0360191	0	-114.418	-33.375	2.257	NA
0.389691008933694	B5-03822-P01-CH0	2740712	OK	0.1898457	0.1437045	0.0870637	-0.9673301	164.859	-38.536	-242.053	B5-03822-P02-CH0	2740712	OK	0.7201778	0.377894	-0.581842	0	-89.493	-87.354	0.214	B5-03822-P02-CH1	2740712	OK	0.7303201	-0.198423	-0.6536519	0	-90.112	-67.832	3.786	B5-03822-P03-CH0	2740712	OK	0.7873996	-0.0610129	-0.6134161	0	-105.204	-50.726	12.153	B5-03822-P03-CH1	2740712	OK	0.7561703	-0.6525754	-0.0484951	0	-102.332	-9.218	3.884	B5-03822-P04-CH0	2740712	OK	0.8162906	-0.3662858	0.446659	0	-129.27	-27.576	16.043	B5-03822-P04-CH1	2740712	OK	0.7917412	-0.6097646	0.0365108	0	-114.529	-33.596	2.414	NA
0.39968308608584	B5-03822-P01-CH0	2740720	OK	0.1898301	0.1437439	0.0869897	-0.967334	164.848	-38.555	-242.014	B5-03822-P02-CH0	2740720	OK	0.7200992	0.4039744	-0.564147	0	-89.593	-87.153	1.061	B5-03822-P02-CH1	2740720	OK	0.7281919	-0.1947549	-0.6571203	0	-88.872	-67.539	3.115	B5-03822-P03-CH0	2740720	OK	0.7948772	-0.0900133	-0.6000565	0	-105.32	-51.703	12.905	B5-03822-P03-CH1	2740720	OK	0.7575285	-0.6511283	-0.046717	0	-101.993	-9.381	4.133	B5-03822-P04-CH0	2740720	OK	0.8174486	-0.3677684	0.4433105	0	-129.301	-27.804	15.627	B5-03822-P04-CH1	2740720	OK	0.7918373	-0.6096364	0.0365674	0	-114.496	-33.502	2.451	NA
0.409675163237986	B5-03822-P01-CH0	2740728	OK	0.1897956	0.1435329	0.0869501	-0.9673756	164.694	-38.579	-241.959	B5-03822-P02-CH0	2740728	OK	0.7195084	0.4278602	-0.5470314	0	-90.837	-88.127	1.891	B5-03822-P02-CH1	2740728	OK	0.7217728	-0.1957011	-0.6638863	0	-88.761	-68.064	3.194	B5-03822-P03-CH0	2740728	OK	0.806768	-0.1487813	-0.57183	0	-105.894	-52.782	12.559	B5-03822-P03-CH1	2740728	OK	0.7566641	-0.6522469	-0.0450928	0	-101.955	-10.684	4.154	B5-03822-P04-CH0	2740728	OK	0.818162	-0.3703038	0.4398704	0	-128.652	-26.947	14.953	B5-03822-P04-CH1	2740728	OK	0.7917734	-0.6097041	0.036821	0	-114.572	-33.439	2.125	NA
0.419667240390132	B5-03822-P01-CH0	2740736	OK	0.1902336	0.143406	0.0873762	-0.96727	164.672	-38.598	-242.032	B5-03822-P02-CH0	2740736	OK	0.7217749	0.4499541	-0.5259109	0	-90.699	-88.999	1.567	B5-03822-P02-CH1	2740736	OK	0.7159662	-0.1940078	-0.6706366	0	-88.102	-68.263	2.397	B5-03822-P03-CH0	2740736	OK	0.8190849	-0.2048853	-0.5358376	0	-105.202	-54.621	13.694	B5-03822-P03-CH1	2740736	OK	0.7565296	-0.6525592	-0.0427717	0	-102.245	-11.793	4.753	B5-03822-P04-CH0	2740736	OK	0.8189725	-0.3696774	0.4388879	0	-129.134	-27.001	14.041	B5-03822-P04-CH1	2740736	OK	0.7919868	-0.6093619	0.0378804	0	-114.507	-33.711	2.227	NA
0.429659317542278	B5-03822-P01-CH0	2740744	OK	0.1905809	0.1432562	0.088486	-0.967123	164.645	-38.514	-242.106	B5-03822-P02-CH0	2740744	OK	0.7244296	0.4731838	-0.5012973	0	-89.791	-87.617	1.214	B5-03822-P02-CH1	2740744	OK	0.7112175	-0.1890822	-0.6770654	0	-86.278	-68.357	1.4	B5-03822-P03-CH0	2740744	OK	0.8246421	-0.2443355	-0.5101623	0	-105.229	-54.836	13.565	B5-03822-P03-CH1	2740744	OK	0.7600994	-0.6482325	-0.0452052	0	-102.226	-9.59	4.931	B5-03822-P04-CH0	2740744	OK	0.8190836	-0.3694892	0.4388391	0	-129.106	-27.886	14.638	B5-03822-P04-CH1	2740744	OK	0.7928959	-0.6081609	0.038163	0	-114.65	-33.537	2.195	NA
0.439651394694424	B5-03822-P01-CH0	2740752	OK	0.1903679	0.1432577	0.0886436	-0.9671503	164.625	-38.513	-242.209	B5-03822-P02-CH0	2740752	OK	0.7288381	0.493872	-0.4742208	0	-90.159	-87.059	0.161	B5-03822-P02-CH1	2740752	OK	0.7047989	-0.180468	-0.6860684	0	-85.008	-68.819	2.607	B5-03822-P03-CH0	2740752	OK	0.8238798	-0.2706396	-0.4979721	0	-104.381	-54.627	12.073	B5-03822-P03-CH1	2740752	OK	0.7568373	-0.6522539	-0.0419776	0	-102.342	-12.056	4.836	B5-03822-P04-CH0	2740752	OK	0.8192003	-0.3706999	0.4375985	0	-129.288	-28.027	16.236	B5-03822-P04-CH1	2740752	OK	0.7929294	-0.6080928	0.0385499	0	-114.738	-33.735	2.582	NA
0.44964347184657	B5-03822-P01-CH0	2740760	OK	0.1905825	0.1431169	0.0893688	-0.9670621	164.594	-38.527	-242.289	B5-03822-P02-CH0	2740760	OK	0.7343463	0.506788	-0.4515544	0	-91.336	-87.972	2.576	B5-03822-P02-CH1	2740760	OK	0.6977154	-0.1734212	-0.6950671	0	-84.921	-69.197	3.188	B5-03822-P03-CH0	2740760	OK	0.8228302	-0.2933384	-0.4867269	0	-102.589	-55.37	11.986	B5-03822-P03-CH1	2740760	OK	0.7587881	-0.6498769	-0.0435968	0	-102.303	-10.738	3.761	B5-03822-P04-CH0	2740760	OK	0.8182588	-0.3741328	0.4364368	0	-128.46	-26.372	14.557	B5-03822-P04-CH1	2740760	OK	0.7935742	-0.6072396	0.0387311	0	-114.668	-33.612	2.453	NA
0.459635548998716	B5-03822-P01-CH0	2740768	OK	0.190217	0.1433312	0.0890729	-0.9671296	164.543	-38.581	-242.177	B5-03822-P02-CH0	2740768	OK	0.7426289	0.5175677	-0.4250012	0	-91.596	-88.22	1.927	B5-03822-P02-CH1	2740768	OK	0.6929444	-0.166723	-0.7014495	0	-83.867	-69.741	2.938	B5-03822-P03-CH0	2740768	OK	0.8223315	-0.315565	-0.4734867	0	-101.591	-56.247	12.687	B5-03822-P03-CH1	2740768	OK	0.7596994	-0.6484848	-0.0482113	0	-101.674	-8.625	3.35	B5-03822-P04-CH0	2740768	OK	0.8171835	-0.377326	0.4357021	0	-128.66	-26.251	13.758	B5-03822-P04-CH1	2740768	OK	0.7936324	-0.6071821	0.0384382	0	-114.786	-33.398	2.438	NA
0.469627626150862	B5-03822-P01-CH0	2740776	OK	0.1899117	0.1435452	0.0892408	-0.9671424	164.498	-38.537	-242.079	B5-03822-P02-CH0	2740776	OK	0.7476845	0.5260877	-0.4052154	0	-92.492	-88.538	3.33	B5-03822-P02-CH1	2740776	OK	0.6885487	-0.1631235	-0.7066055	0	-82.911	-69.152	1.794	B5-03822-P03-CH0	2740776	OK	0.8231489	-0.3338384	-0.4593232	0	-100.838	-56.078	12.271	B5-03822-P03-CH1	2740776	OK	0.7594973	-0.6488128	-0.0469655	0	-101.804	-9.199	3.677	B5-03822-P04-CH0	2740776	OK	0.818167	-0.3721493	0.438301	0	-128.352	-26.17	14.528	B5-03822-P04-CH1	2740776	OK	0.7940434	-0.6066559	0.0382585	0	-114.95	-33.121	2.649	NA
0.479619703303008	B5-03822-P01-CH0	2740784	OK	0.1896188	0.1436144	0.0891672	-0.9671964	164.425	-38.582	-242.09	B5-03822-P02-CH0	2740784	OK	0.7519934	0.5336719	-0.3869111	0	-92.616	-88.317	4.068	B5-03822-P02-CH1	2740784	OK	0.6838684	-0.1615313	-0.7114996	0	-82.453	-68.852	2.035	B5-03822-P03-CH0	2740784	OK	0.8243641	-0.3507996	-0.4442562	0	-100.559	-56.059	12.208	B5-03822-P03-CH1	2740784	OK	0.7591279	-0.6492898	-0.0463431	0	-101.844	-9.649	3.867	B5-03822-P04-CH0	2740784	OK	0.8155448	-0.3805906	0.4359328	0	-128.869	-27.018	14.681	B5-03822-P04-CH1	2740784	OK	0.7939325	-0.6067961	0.0383376	0	-114.997	-33.224	2.698	NA
0.489611780455154	B5-03822-P01-CH0	2740792	OK	0.1895021	0.1435255	0.0893646	-0.9672142	164.303	-38.585	-242.044	B5-03822-P02-CH0	2740792	OK	0.755191	0.53765	-0.374992	0	-93.331	-88.798	6.521	B5-03822-P02-CH1	2740792	OK	0.680331	-0.1585507	-0.7155497	0	-82.191	-68.432	1.402	B5-03822-P03-CH0	2740792	OK	0.8252046	-0.3645731	-0.4314207	0	-99.891	-56.646	12.245	B5-03822-P03-CH1	2740792	OK	0.7588903	-0.6496032	-0.0458378	0	-101.834	-9.99	3.996	B5-03822-P04-CH0	2740792	OK	0.8147158	-0.3822459	0.4360347	0	-128.798	-27.777	15.311	B5-03822-P04-CH1	2740792	OK	0.7942831	-0.6063418	0.0382612	0	-114.991	-33.057	2.674	NA
0.4996038576073	B5-03822-P01-CH0	2740800	OK	0.1892479	0.1435916	0.0892209	-0.9672674	164.254	-38.624	-242.05	B5-03822-P02-CH0	2740800	OK	0.7601639	0.5375199	-0.3649976	0	-94.003	-90.016	7.118	B5-03822-P02-CH1	2740800	OK	0.6795535	-0.1555514	-0.7169455	0	-81.213	-68.956	1.542	B5-03822-P03-CH0	2740800	OK	0.8274133	-0.3755159	-0.4175824	0	-97.982	-57.659	12.439	B5-03822-P03-CH1	2740800	OK	0.7584141	-0.6501673	-0.0457221	0	-101.896	-10.247	4.036	B5-03822-P04-CH0	2740800	OK	0.8145717	-0.3838285	0.4349122	0	-128.692	-28.243	16.263	B5-03822-P04-CH1	2740800	OK	0.7943019	-0.6063258	0.0381267	0	-115.158	-33.044	3.004	NA
0.509595934759446	B5-03822-P01-CH0	2740808	OK	0.1887884	0.1439674	0.08846	-0.9673713	164.323	-38.724	-242.023	B5-03822-P02-CH0	2740808	OK	0.762341	0.5406435	-0.3557257	0	-94.317	-88.271	6.677	B5-03822-P02-CH1	2740808	OK	0.6783514	-0.1540643	-0.7184035	0	-81.442	-69.285	2.025	B5-03822-P03-CH0	2740808	OK	0.8277452	-0.3799875	-0.4128528	0	-98.817	-56.577	11.705	B5-03822-P03-CH1	2740808	OK	0.7573861	-0.6513718	-0.0456189	0	-102.004	-10.643	4.366	B5-03822-P04-CH0	2740808	OK	0.8143344	-0.3881854	0.4314761	0	-128.609	-26.699	14.839	B5-03822-P04-CH1	2740808	OK	0.7937105	-0.607106	0.0380264	0	-115.249	-33.208	3.051	NA
0.519588011911592	B5-03822-P01-CH0	2740816	OK	0.1881858	0.1442447	0.0877258	-0.9675142	164.32	-38.792	-241.951	B5-03822-P02-CH0	2740816	OK	0.7648018	0.5322997	-0.3629535	0	-96.533	-90.315	12.877	B5-03822-P02-CH1	2740816	OK	0.6776979	-0.1522519	-0.7194059	0	-82.054	-68.674	1.803	B5-03822-P03-CH0	2740816	OK	0.8282735	-0.383515	-0.4085085	0	-98.504	-56.86	12.24	B5-03822-P03-CH1	2740816	OK	0.7564124	-0.6524849	-0.0458669	0	-102.17	-10.8	4.445	B5-03822-P04-CH0	2740816	OK	0.814511	-0.3891289	0.4302912	0	-129.368	-27.828	16.477	B5-03822-P04-CH1	2740816	OK	0.7934634	-0.6074878	0.0370726	0	-115.415	-32.891	3.052	NA
0.529580089063738	B5-03822-P01-CH0	2740824	OK	0.1880096	0.1443074	0.0875165	-0.9675581	164.301	-38.809	-241.972	B5-03822-P02-CH0	2740824	OK	0.76867	0.5255327	-0.3646392	0	-96.93	-91.481	15.415	B5-03822-P02-CH1	2740824	OK	0.6779273	-0.1526781	-0.7190995	0	-82.686	-68.808	1.561	B5-03822-P03-CH0	2740824	OK	0.8279613	-0.3827131	-0.4098912	0	-98.94	-56.846	12.08	B5-03822-P03-CH1	2740824	OK	0.7561096	-0.6528218	-0.0460658	0	-102.118	-10.749	4.237	B5-03822-P04-CH0	2740824	OK	0.8143803	-0.3904297	0.4293592	0	-129.442	-28.274	17.059	B5-03822-P04-CH1	2740824	OK	0.7932311	-0.6077976	0.0369653	0	-115.384	-32.856	2.884	NA
0.539572166215884	B5-03822-P01-CH0	2740832	OK	0.1881526	0.1443217	0.0878884	-0.9674944	164.288	-38.748	-241.966	B5-03822-P02-CH0	2740832	OK	0.7704787	0.5262891	-0.3596977	0	-96.12	-89.862	13.091	B5-03822-P02-CH1	2740832	OK	0.6809667	-0.1535558	-0.7160342	0	-82.022	-68.423	1.11	B5-03822-P03-CH0	2740832	OK	0.8279603	-0.3796411	-0.41274	0	-99.168	-56.702	11.816	B5-03822-P03-CH1	2740832	OK	0.7563886	-0.6525065	-0.0459515	0	-102.172	-10.616	4.3	B5-03822-P04-CH0	2740832	OK	0.8140978	-0.3931817	0.4273791	0	-129.208	-27.712	16.065	B5-03822-P04-CH1	2740832	OK	0.7934556	-0.6075244	0.0366376	0	-115.336	-32.755	2.861	NA
0.54956424336803	B5-03822-P01-CH0	2740840	OK	0.1880098	0.1446552	0.0877924	-0.9674811	164.363	-38.732	-241.918	B5-03822-P02-CH0	2740840	OK	0.7711642	0.5205196	-0.3665584	0	-96.859	-90.281	15.079	B5-03822-P02-CH1	2740840	OK	0.6820846	-0.1558454	-0.7144738	0	-82.387	-68.731	1.308	B5-03822-P03-CH0	2740840	OK	0.827417	-0.376063	-0.4170824	0	-98.726	-56.854	12.505	B5-03822-P03-CH1	2740840	OK	0.7565687	-0.6522488	-0.0466414	0	-102.162	-10.239	4.198	B5-03822-P04-CH0	2740840	OK	0.8141129	-0.3948128	0.425844	0	-129.063	-27.677	16.468	B5-03822-P04-CH1	2740840	OK	0.7934458	-0.6075611	0.0362389	0	-115.401	-32.66	2.995	NA
0.559556320520176	B5-03822-P01-CH0	2740848	OK	0.1876869	0.1448562	0.0875614	-0.9675347	164.347	-38.72	-241.871	B5-03822-P02-CH0	2740848	OK	0.7729803	0.5086289	-0.3792073	0	-97.808	-92.508	17.908	B5-03822-P02-CH1	2740848	OK	0.6845478	-0.1588919	-0.7114406	0	-82.04	-68.282	2.145	B5-03822-P03-CH0	2740848	OK	0.8236974	-0.3690371	-0.4305046	0	-99.643	-55.685	12.452	B5-03822-P03-CH1	2740848	OK	0.7563611	-0.6524611	-0.0470358	0	-102.198	-10.129	4.203	B5-03822-P04-CH0	2740848	OK	0.8143369	-0.390691	0.4292039	0	-128.639	-26.493	15.309	B5-03822-P04-CH1	2740848	OK	0.7933988	-0.6076576	0.0356459	0	-115.322	-32.394	2.96	NA
0.569548397672322	B5-03822-P01-CH0	2740856	OK	0.187855	0.1446421	0.0875535	-0.9675348	164.284	-38.782	-241.947	B5-03822-P02-CH0	2740856	OK	0.7737072	0.5002095	-0.3888028	0	-97.995	-93.233	18.259	B5-03822-P02-CH1	2740856	OK	0.6861356	-0.1616094	-0.7092957	0	-82.262	-67.956	1.926	B5-03822-P03-CH0	2740856	OK	0.8178244	-0.3631198	-0.4464384	0	-100.306	-55.07	10.771	B5-03822-P03-CH1	2740856	OK	0.7566978	-0.6520576	-0.0472155	0	-102.042	-9.924	4.007	B5-03822-P04-CH0	2740856	OK	0.8140066	-0.3920135	0.4286241	0	-128.584	-26.824	15.581	B5-03822-P04-CH1	2740856	OK	0.7933061	-0.6077789	0.0356395	0	-115.224	-32.539	3.023	NA
0.579540474824468	B5-03822-P01-CH0	2740864	OK	0.1877623	0.1444024	0.0873797	-0.9676043	164.197	-38.846	-241.983	B5-03822-P02-CH0	2740864	OK	0.7737908	0.4958757	-0.3941511	0	-97.613	-92.122	18.08	B5-03822-P02-CH1	2740864	OK	0.6877615	-0.1643512	-0.7070875	0	-82.197	-68.078	2.315	B5-03822-P03-CH0	2740864	OK	0.8116793	-0.3571443	-0.4621954	0	-100.393	-54.771	11.348	B5-03822-P03-CH1	2740864	OK	0.756522	-0.6522905	-0.046814	0	-101.984	-10.083	4.07	B5-03822-P04-CH0	2740864	OK	0.8136814	-0.3936897	0.4277044	0	-128.504	-26.973	15.749	B5-03822-P04-CH1	2740864	OK	0.7930387	-0.6081392	0.0354448	0	-115.052	-32.591	2.862	NA
0.589532551976614	B5-03822-P01-CH0	2740872	OK	0.1878692	0.1444218	0.0876942	-0.9675522	164.203	-38.78	-241.987	B5-03822-P02-CH0	2740872	OK	0.7746495	0.4891676	-0.4007908	0	-97.499	-92.038	17.752	B5-03822-P02-CH1	2740872	OK	0.6888556	-0.1681651	-0.705123	0	-82.373	-67.767	1.635	B5-03822-P03-CH0	2740872	OK	0.8066864	-0.3516471	-0.4749751	0	-100.09	-53.527	10.438	B5-03822-P03-CH1	2740872	OK	0.7568224	-0.6519575	-0.0465966	0	-102.068	-9.996	4.046	B5-03822-P04-CH0	2740872	OK	0.8137166	-0.3952604	0.426186	0	-128.488	-26.7	15.598	B5-03822-P04-CH1	2740872	OK	0.7932302	-0.6079168	0.0349702	0	-115.012	-32.388	2.682	NA
0.59952462912876	B5-03822-P01-CH0	2740880	OK	0.1880228	0.1443705	0.0879331	-0.9675083	164.209	-38.735	-241.998	B5-03822-P02-CH0	2740880	OK	0.7755861	0.4827854	-0.4066749	0	-97.054	-91.538	16.507	B5-03822-P02-CH1	2740880	OK	0.6891868	-0.1723175	-0.7037956	0	-82.784	-67.698	2.316	B5-03822-P03-CH0	2740880	OK	0.8012287	-0.3472218	-0.4873085	0	-99.679	-53.34	9.99	B5-03822-P03-CH1	2740880	OK	0.7568636	-0.6519569	-0.045932	0	-102.195	-10.142	4.142	B5-03822-P04-CH0	2740880	OK	0.8138002	-0.3965125	0.4248613	0	-128.631	-26.545	15.369	B5-03822-P04-CH1	2740880	OK	0.7934114	-0.6077009	0.03461	0	-114.962	-32.218	2.549	NA
0.609516706280906	B5-03822-P01-CH0	2740888	OK	0.1880875	0.1440418	0.0882856	-0.9675126	164.1	-38.698	-242.081	B5-03822-P02-CH0	2740888	OK	0.7756216	0.4759935	-0.4145375	0	-96.818	-91.563	15.827	B5-03822-P02-CH1	2740888	OK	0.6909817	-0.1742524	-0.7015557	0	-82.754	-67.017	1.405	B5-03822-P03-CH0	2740888	OK	0.7956605	-0.3399576	-0.5013513	0	-99.094	-52.789	9.589	B5-03822-P03-CH1	2740888	OK	0.7577077	-0.6509366	-0.0464821	0	-101.927	-9.572	3.665	B5-03822-P04-CH0	2740888	OK	0.8137052	-0.3979754	0.4236737	0	-128.461	-26.305	15.203	B5-03822-P04-CH1	2740888	OK	0.7935345	-0.6075557	0.0343367	0	-114.609	-32.153	2.563	NA
0.619508783433052	B5-03822-P01-CH0	2740896	OK	0.1887123	0.1437448	0.0897544	-0.9673	164.05	-38.525	-242.116	B5-03822-P02-CH0	2740896	OK	0.7737584	0.472814	-0.421598	0	-95.97	-91.034	15.218	B5-03822-P02-CH1	2740896	OK	0.6935661	-0.1747381	-0.6988796	0	-82.458	-67.111	1.158	B5-03822-P03-CH0	2740896	OK	0.7895455	-0.3321302	-0.5160499	0	-98.919	-52.745	9.282	B5-03822-P03-CH1	2740896	OK	0.7591394	-0.6492787	-0.0463098	0	-101.755	-9.2	3.432	B5-03822-P04-CH0	2740896	OK	0.8140919	-0.398431	0.422501	0	-128.304	-26.111	14.992	B5-03822-P04-CH1	2740896	OK	0.7946625	-0.6060814	0.0343054	0	-114.648	-31.886	2.526	NA
0.629500860585198	B5-03822-P01-CH0	2740904	OK	0.1884296	0.1438532	0.0892443	-0.9673862	164.02	-38.596	-242.016	B5-03822-P02-CH0	2740904	OK	0.7731923	0.4704253	-0.4252925	0	-95.065	-90.307	12.854	B5-03822-P02-CH1	2740904	OK	0.69574	-0.1719829	-0.6974007	0	-82.301	-67.409	1.853	B5-03822-P03-CH0	2740904	OK	0.7821265	-0.3235279	-0.5325485	0	-99.134	-52.293	9	B5-03822-P03-CH1	2740904	OK	0.7590818	-0.6493213	-0.0466546	0	-101.702	-9.017	3.224	B5-03822-P04-CH0	2740904	OK	0.8138199	-0.4004638	0.4211009	0	-128.234	-25.745	14.571	B5-03822-P04-CH1	2740904	OK	0.7941398	-0.6067799	0.0340603	0	-114.778	-32.15	2.958	NA
0.639492937737344	B5-03822-P01-CH0	2740912	OK	0.18823	0.1439414	0.0885909	-0.967472	164.019	-38.671	-241.986	B5-03822-P02-CH0	2740912	OK	0.7703617	0.4719954	-0.4286761	0	-94.399	-89.327	11.756	B5-03822-P02-CH1	2740912	OK	0.6976784	-0.1691662	-0.6961521	0	-82.607	-67.745	2.065	B5-03822-P03-CH0	2740912	OK	0.7763748	-0.3150704	-0.5458689	0	-98.982	-51.935	8.927	B5-03822-P03-CH1	2740912	OK	0.758794	-0.649654	-0.0467045	0	-101.597	-9.04	3.147	B5-03822-P04-CH0	2740912	OK	0.8133585	-0.402357	0.4201866	0	-128.122	-25.631	14.475	B5-03822-P04-CH1	2740912	OK	0.7936345	-0.6074597	0.0337201	0	-114.596	-32.124	2.812	NA
0.64948501488949	B5-03822-P01-CH0	2740920	OK	0.1880411	0.1440061	0.0882417	-0.967531	164.059	-38.736	-242.056	B5-03822-P02-CH0	2740920	OK	0.7655116	0.4730157	-0.4361744	0	-94.729	-90.192	12.352	B5-03822-P02-CH1	2740920	OK	0.6986363	-0.1644618	-0.6963186	0	-83.792	-67.661	1.824	B5-03822-P03-CH0	2740920	OK	0.7709252	-0.3050177	-0.5591408	0	-99.518	-50.871	7.916	B5-03822-P03-CH1	2740920	OK	0.7582799	-0.6502864	-0.0462503	0	-101.588	-9.454	3.373	B5-03822-P04-CH0	2740920	OK	0.8130852	-0.4036956	0.4194309	0	-128.146	-25.731	14.637	B5-03822-P04-CH1	2740920	OK	0.7931776	-0.6080722	0.0334303	0	-114.54	-32.289	2.955	NA
0.659477092041636	B5-03822-P01-CH0	2740928	OK	0.1887005	0.1434955	0.0893654	-0.9673753	164.008	-38.655	-242.221	B5-03822-P02-CH0	2740928	OK	0.7596666	0.481551	-0.4370529	0	-93.226	-88.942	10.358	B5-03822-P02-CH1	2740928	OK	0.7035528	-0.160635	-0.6922498	0	-82.88	-67.365	1.449	B5-03822-P03-CH0	2740928	OK	0.7691196	-0.2977578	-0.5655046	0	-98.405	-51.501	8.051	B5-03822-P03-CH1	2740928	OK	0.7589289	-0.6496156	-0.0450179	0	-101.574	-9.72	3.544	B5-03822-P04-CH0	2740928	OK	0.8133423	-0.403972	0.4186656	0	-128.005	-25.496	14.228	B5-03822-P04-CH1	2740928	OK	0.7938948	-0.6071217	0.0336808	0	-114.418	-32.239	2.825	NA
0.669469169193782	B5-03822-P01-CH0	2740936	OK	0.1881872	0.1437851	0.0886187	-0.967501	164.065	-38.735	-242.188	B5-03822-P02-CH0	2740936	OK	0.7571723	0.4848303	-0.4377552	0	-91.928	-88.815	6.989	B5-03822-P02-CH1	2740936	OK	0.7034739	-0.1593451	-0.6926281	0	-84.488	-68.157	1.484	B5-03822-P03-CH0	2740936	OK	0.7663942	-0.2894641	-0.5734549	0	-98.269	-51.21	7.533	B5-03822-P03-CH1	2740936	OK	0.7583276	-0.6502849	-0.0454846	0	-101.54	-9.766	3.526	B5-03822-P04-CH0	2740936	OK	0.8130531	-0.4059635	0.4172988	0	-128.007	-25.191	14.191	B5-03822-P04-CH1	2740936	OK	0.793174	-0.6080975	0.0330526	0	-114.441	-32.257	2.577	NA
0.679461246345928	B5-03822-P01-CH0	2740944	OK	0.1882016	0.1438271	0.089166	-0.9674416	164.086	-38.663	-242.175	B5-03822-P02-CH0	2740944	OK	0.750955	0.4881511	-0.4447191	0	-91.297	-87.681	6.118	B5-03822-P02-CH1	2740944	OK	0.7063085	-0.1585488	-0.6899207	0	-84.189	-67.659	1.283	B5-03822-P03-CH0	2740944	OK	0.764681	-0.2818002	-0.5795271	0	-98.202	-50.872	7.849	B5-03822-P03-CH1	2740944	OK	0.7588728	-0.6496381	-0.0456338	0	-101.597	-9.552	3.456	B5-03822-P04-CH0	2740944	OK	0.8132895	-0.406759	0.4160616	0	-128.116	-24.917	13.893	B5-03822-P04-CH1	2740944	OK	0.7936466	-0.6075151	0.0324106	0	-114.564	-31.975	2.613	NA
0.689453323498074	B5-03822-P01-CH0	2740952	OK	0.1881347	0.1440942	0.088827	-0.9674461	164.185	-38.771	-242.172	B5-03822-P02-CH0	2740952	OK	0.7471094	0.4872896	-0.4520801	0	-90.603	-87.695	3.582	B5-03822-P02-CH1	2740952	OK	0.7071738	-0.1589745	-0.6889356	0	-84.509	-68.08	1.104	B5-03822-P03-CH0	2740952	OK	0.7624589	-0.2786684	-0.5839523	0	-98.781	-51.226	8.545	B5-03822-P03-CH1	2740952	OK	0.758528	-0.6500612	-0.0453398	0	-101.617	-9.839	3.627	B5-03822-P04-CH0	2740952	OK	0.8130991	-0.4078273	0.4153875	0	-128.155	-25.042	13.969	B5-03822-P04-CH1	2740952	OK	0.7933139	-0.6079533	0.0323388	0	-114.702	-32.181	2.798	NA
0.69944540065022	B5-03822-P01-CH0	2740960	OK	0.1882103	0.1440701	0.0887747	-0.9674398	164.266	-38.888	-242.358	B5-03822-P02-CH0	2740960	OK	0.7425031	0.4857027	-0.461283	0	-89.748	-87.033	3.386	B5-03822-P02-CH1	2740960	OK	0.7082141	-0.1595344	-0.6877366	0	-84.599	-68.303	1.126	B5-03822-P03-CH0	2740960	OK	0.7623421	-0.2760108	-0.5853654	0	-98.15	-51.523	8.954	B5-03822-P03-CH1	2740960	OK	0.7590343	-0.6494413	-0.0457482	0	-101.473	-9.635	3.778	B5-03822-P04-CH0	2740960	OK	0.8128099	-0.4084328	0.4153585	0	-128.075	-25.455	14.369	B5-03822-P04-CH1	2740960	OK	0.7930709	-0.6082666	0.0324084	0	-114.544	-32.403	2.689	NA
0.709437477802366	B5-03822-P01-CH0	2740968	OK	0.1885715	0.1442465	0.0890681	-0.9673162	164.383	-38.873	-242.385	B5-03822-P02-CH0	2740968	OK	0.7394548	0.4810447	-0.4709593	0	-89.444	-87.308	2.097	B5-03822-P02-CH1	2740968	OK	0.7093436	-0.1608178	-0.686272	0	-84.525	-68.382	1.373	B5-03822-P03-CH0	2740968	OK	0.7603709	-0.2751474	-0.5883281	0	-99.237	-51.301	7.88	B5-03822-P03-CH1	2740968	OK	0.7591199	-0.649387	-0.0450935	0	-101.68	-9.896	4.046	B5-03822-P04-CH0	2740968	OK	0.8128102	-0.4086236	0.4151703	0	-128.138	-25.615	14.467	B5-03822-P04-CH1	2740968	OK	0.7932612	-0.6080128	0.0325121	0	-114.648	-32.429	2.696	NA
0.719429554954512	B5-03822-P01-CH0	2740976	OK	0.188323	0.1443173	0.0882844	-0.9674259	164.45	-39.046	-242.485	B5-03822-P02-CH0	2740976	OK	0.7366106	0.4750688	-0.4813673	0	-89.614	-87.949	3.235	B5-03822-P02-CH1	2740976	OK	0.7085308	-0.1604136	-0.6872057	0	-85.464	-68.697	1.688	B5-03822-P03-CH0	2740976	OK	0.7609885	-0.2734433	-0.588324	0	-98.607	-51.289	8.246	B5-03822-P03-CH1	2740976	OK	0.7585932	-0.6500084	-0.0450045	0	-101.785	-10.103	4.205	B5-03822-P04-CH0	2740976	OK	0.8122553	-0.4096685	0.4152266	0	-128.237	-25.813	14.499	B5-03822-P04-CH1	2740976	OK	0.7924252	-0.6091009	0.0325336	0	-114.511	-32.825	2.94	NA
0.729421632106658	B5-03822-P01-CH0	2740984	OK	0.1880948	0.1441929	0.0882547	-0.9674915	164.339	-38.995	-242.44	B5-03822-P02-CH0	2740984	OK	0.734676	0.4729461	-0.4863879	0	-89.495	-87.777	2.7	B5-03822-P02-CH1	2740984	OK	0.7115508	-0.1591339	-0.6843769	0	-84.173	-68.548	2.203	B5-03822-P03-CH0	2740984	OK	0.7615378	-0.2714812	-0.5885221	0	-98.529	-50.915	8.216	B5-03822-P03-CH1	2740984	OK	0.7583524	-0.6502903	-0.0449915	0	-101.802	-10.162	4.269	B5-03822-P04-CH0	2740984	OK	0.8118588	-0.4105152	0.4151656	0	-128.172	-25.693	14.362	B5-03822-P04-CH1	2740984	OK	0.7922305	-0.6093666	0.0322968	0	-114.457	-32.899	3.244	NA
0.739413709258804	B5-03822-P01-CH0	2740992	OK	0.1881271	0.1440116	0.0884464	-0.9674948	164.324	-39.04	-242.483	B5-03822-P02-CH0	2740992	OK	0.733784	0.4707338	-0.4898681	0	-88.95	-87.478	2.88	B5-03822-P02-CH1	2740992	OK	0.7132427	-0.1584789	-0.6827659	0	-84	-68.456	1.314	B5-03822-P03-CH0	2740992	OK	0.7627178	-0.2687649	-0.5882406	0	-98.49	-50.607	8.181	B5-03822-P03-CH1	2740992	OK	0.758298	-0.6503674	-0.0447925	0	-101.859	-10.368	4.436	B5-03822-P04-CH0	2740992	OK	0.8117852	-0.4105652	0.4152602	0	-128.322	-25.819	14.387	B5-03822-P04-CH1	2740992	OK	0.7925283	-0.6089946	0.0320058	0	-114.462	-32.712	3.082	NA
0.74940578641095	B5-03822-P01-CH0	2741000	OK	0.1880602	0.1438389	0.0884571	-0.9675325	164.265	-39.086	-242.489	B5-03822-P02-CH0	2741000	OK	0.7328217	0.4672791	-0.4945934	0	-88.943	-87.534	1.88	B5-03822-P02-CH1	2741000	OK	0.7139513	-0.1580203	-0.6821313	0	-84.263	-68.562	1.715	B5-03822-P03-CH0	2741000	OK	0.7628688	-0.2680837	-0.5883556	0	-98.686	-51.371	8.867	B5-03822-P03-CH1	2741000	OK	0.7583701	-0.6502819	-0.0448127	0	-101.901	-10.298	4.433	B5-03822-P04-CH0	2741000	OK	0.8115534	-0.411284	0.4150018	0	-128.215	-25.479	13.995	B5-03822-P04-CH1	2741000	OK	0.7927101	-0.6087722	0.031736	0	-114.447	-32.546	2.987	NA
0.759397863563096	B5-03822-P01-CH0	2741008	OK	0.1880054	0.1440796	0.088459	-0.9675071	164.363	-39.073	-242.444	B5-03822-P02-CH0	2741008	OK	0.7313717	0.464278	-0.4995412	0	-88.729	-87.19	1.939	B5-03822-P02-CH1	2741008	OK	0.713955	-0.1570627	-0.6823486	0	-84.955	-68.781	2.162	B5-03822-P03-CH0	2741008	OK	0.7640461	-0.2664389	-0.5875745	0	-98.522	-51.702	8.921	B5-03822-P03-CH1	2741008	OK	0.7584611	-0.6501534	-0.0451365	0	-102.065	-10.205	4.542	B5-03822-P04-CH0	2741008	OK	0.8114704	-0.4116487	0.4148025	0	-128.234	-25.392	14.222	B5-03822-P04-CH1	2741008	OK	0.7925911	-0.6089467	0.0313559	0	-114.555	-32.507	2.74	NA
0.769389940715242	B5-03822-P01-CH0	2741016	OK	0.1884211	0.1438663	0.089283	-0.9673823	164.406	-39.036	-242.571	B5-03822-P02-CH0	2741016	OK	0.7309893	0.4628885	-0.5013869	0	-87.656	-86.726	-0.693	B5-03822-P02-CH1	2741016	OK	0.7162914	-0.1560682	-0.6801245	0	-84.366	-68.79	2.535	B5-03822-P03-CH0	2741016	OK	0.7662593	-0.263487	-0.5860216	0	-98.364	-51.264	8.355	B5-03822-P03-CH1	2741016	OK	0.7589974	-0.6495669	-0.0445611	0	-102.19	-10.324	4.715	B5-03822-P04-CH0	2741016	OK	0.8116215	-0.4112349	0.4149174	0	-128.218	-25.405	14.233	B5-03822-P04-CH1	2741016	OK	0.7931817	-0.6081704	0.0314886	0	-114.526	-32.508	2.872	NA
0.779382017867388	B5-03822-P01-CH0	2741024	OK	0.188583	0.1439721	0.0889021	-0.9673701	164.515	-39.077	-242.661	B5-03822-P02-CH0	2741024	OK	0.728803	0.4584089	-0.508633	0	-88.65	-88.195	1.727	B5-03822-P02-CH1	2741024	OK	0.7162627	-0.1554287	-0.6803012	0	-85.279	-68.684	1.872	B5-03822-P03-CH0	2741024	OK	0.7665037	-0.2623601	-0.5862075	0	-99.368	-51.141	8.316	B5-03822-P03-CH1	2741024	OK	0.7585363	-0.6501325	-0.044163	0	-102.206	-10.676	4.944	B5-03822-P04-CH0	2741024	OK	0.8111926	-0.411308	0.415683	0	-128.286	-25.736	14.539	B5-03822-P04-CH1	2741024	OK	0.7927556	-0.6087084	0.0318221	0	-114.446	-32.805	3.03	NA
0.789374095019534	B5-03822-P01-CH0	2741032	OK	0.1885567	0.1435892	0.0891457	-0.9674097	164.393	-39.044	-242.672	B5-03822-P02-CH0	2741032	OK	0.7270159	0.4566484	-0.5127575	0	-88.633	-88.145	2.722	B5-03822-P02-CH1	2741032	OK	0.7180639	-0.1536429	-0.6788064	0	-85.067	-68.63	2.291	B5-03822-P03-CH0	2741032	OK	0.7689388	-0.2601905	-0.5839812	0	-98.695	-51.335	8.872	B5-03822-P03-CH1	2741032	OK	0.7589879	-0.649566	-0.044738	0	-102.024	-10.314	4.706	B5-03822-P04-CH0	2741032	OK	0.8110083	-0.4112698	0.4160802	0	-128.32	-25.765	14.486	B5-03822-P04-CH1	2741032	OK	0.7927307	-0.6087393	0.0318523	0	-114.246	-32.853	2.941	NA
0.79936617217168	B5-03822-P01-CH0	2741040	OK	0.1880991	0.1437372	0.0884662	-0.9675392	164.353	-39.048	-242.519	B5-03822-P02-CH0	2741040	OK	0.7270097	0.4571858	-0.512287	0	-88.227	-87.144	0.524	B5-03822-P02-CH1	2741040	OK	0.7179364	-0.1528808	-0.6791133	0	-85.853	-69.052	2.194	B5-03822-P03-CH0	2741040	OK	0.7681757	-0.2588198	-0.5855923	0	-100.068	-50.769	8.566	B5-03822-P03-CH1	2741040	OK	0.7583656	-0.6502466	-0.0453989	0	-101.977	-10.213	4.327	B5-03822-P04-CH0	2741040	OK	0.8106298	-0.4121768	0.4159201	0	-128.375	-25.538	14.435	B5-03822-P04-CH1	2741040	OK	0.7922513	-0.6093798	0.0315304	0	-114.315	-32.858	2.996	NA
0.809358249323826	B5-03822-P01-CH0	2741048	OK	0.1881106	0.1436253	0.0886847	-0.9675336	164.353	-39.007	-242.566	B5-03822-P02-CH0	2741048	OK	0.7262833	0.4553524	-0.5149435	0	-88.131	-87.041	0.901	B5-03822-P02-CH1	2741048	OK	0.7197604	-0.1522058	-0.6773318	0	-85.805	-68.519	1.588	B5-03822-P03-CH0	2741048	OK	0.7710499	-0.2573544	-0.5824523	0	-99.42	-51.185	9.266	B5-03822-P03-CH1	2741048	OK	0.7581145	-0.6505693	-0.0449667	0	-102.017	-10.512	4.471	B5-03822-P04-CH0	2741048	OK	0.8106211	-0.4119347	0.4161769	0	-128.554	-25.702	14.567	B5-03822-P04-CH1	2741048	OK	0.7925013	-0.6090561	0.0315017	0	-114.541	-32.795	3.159	NA
0.819350326475972	B5-03822-P01-CH0	2741056	OK	0.1880284	0.1436207	0.0886837	-0.9675503	164.32	-38.955	-242.484	B5-03822-P02-CH0	2741056	OK	0.7269284	0.4504237	-0.5183567	0	-88.519	-88.374	0.544	B5-03822-P02-CH1	2741056	OK	0.7210757	-0.1517682	-0.6760298	0	-85.732	-68.432	2.191	B5-03822-P03-CH0	2741056	OK	0.77139	-0.256185	-0.5825175	0	-100.198	-51.234	9.29	B5-03822-P03-CH1	2741056	OK	0.758008	-0.6506713	-0.0452852	0	-101.98	-10.452	4.394	B5-03822-P04-CH0	2741056	OK	0.8105886	-0.4124056	0.4157736	0	-128.482	-25.319	14.332	B5-03822-P04-CH1	2741056	OK	0.7925964	-0.6089449	0.0312572	0	-114.522	-32.624	2.993	NA
0.829342403628118	B5-03822-P01-CH0	2741064	OK	0.1884586	0.1434202	0.0891113	-0.9674571	164.388	-38.96	-242.613	B5-03822-P02-CH0	2741064	OK	0.725215	0.4476233	-0.5231601	0	-88.764	-87.969	2.779	B5-03822-P02-CH1	2741064	OK	0.7214145	-0.1519226	-0.6756335	0	-86.077	-68.594	2.119	B5-03822-P03-CH0	2741064	OK	0.7725867	-0.2551166	-0.5813994	0	-99.946	-51.645	9.775	B5-03822-P03-CH1	2741064	OK	0.7587493	-0.6497878	-0.045556	0	-101.829	-10.172	4.188	B5-03822-P04-CH0	2741064	OK	0.8107192	-0.4118995	0.4160206	0	-128.538	-25.516	14.558	B5-03822-P04-CH1	2741064	OK	0.7931737	-0.6081977	0.0311614	0	-114.374	-32.283	2.398	NA
