Wav.Time	B5.03822.P01.CH0	Frame	State	Q0	Qx	Qy	Qz	Tx	Ty	Tz	B5.03822.P02.CH0	Frame.1	State.1	Q0.1	Qx.1	Qy.1	Qz.1	Tx.1	Ty.1	Tz.1	B5.03822.P02.CH1	Frame.2	State.2	Q0.2	Qx.2	Qy.2	Qz.2	Tx.2	Ty.2	Tz.2	B5.03822.P03.CH0	Frame.3	State.3	Q0.3	Qx.3	Qy.3	Qz.3	Tx.3	Ty.3	Tz.3	B5.03822.P03.CH1	Frame.4	State.4	Q0.4	Qx.4	Qy.4	Qz.4	Tx.4	Ty.4	Tz.4	B5.03822.P04.CH0	Frame.5	State.5	Q0.5	Qx.5	Qy.5	Qz.5	Tx.5	Ty.5	Tz.5	B5.03822.P04.CH1	Frame.6	State.6	Q0.6	Qx.6	Qy.6	Qz.6	Tx.6	Ty.6	Tz.6	X
0	B5-03822-P01-CH0	1092552	OK	0.2562265	0.0845959	0.1025065	-0.9574361	166.027	-26.439	-274.126	B5-03822-P02-CH0	1092552	OK	0.5591774	0.3528166	-0.7502273	0	-82.583	-105.101	2.123	B5-03822-P02-CH1	1092552	OK	0.8098153	-0.1513688	-0.5668216	0	-87.188	-83.419	-0.551	B5-03822-P03-CH0	1092552	OK	0.8606811	-0.362919	-0.3570963	0	-101.643	-62.263	6.296	B5-03822-P03-CH1	1092552	OK	0.6061086	0.7938727	0.0489753	0	-101.038	-24.864	-1.612	B5-03822-P04-CH0	1092552	OK	0.7772935	-0.2803211	0.5632361	0	-127.15	-38.737	4.864	B5-03822-P04-CH1	1092552	OK	0.7480527	-0.6480239	0.1431162	0	-113.783	-34.434	-8.125	NA
0.00999205380157761	B5-03822-P01-CH0	1092560	OK	0.2561586	0.0849138	0.1015537	-0.9575277	166.11	-26.552	-274.021	B5-03822-P02-CH0	1092560	OK	0.5574441	0.3448843	-0.7551893	0	-83.038	-104.352	2.962	B5-03822-P02-CH1	1092560	OK	0.8124281	-0.1507704	-0.5632307	0	-86.873	-83.76	-0.131	B5-03822-P03-CH0	1092560	OK	0.8635112	-0.3578716	-0.3553538	0	-101.44	-63.942	8.408	B5-03822-P03-CH1	1092560	OK	0.6129076	0.7890542	0.0416862	0	-100.971	-27.439	-0.645	B5-03822-P04-CH0	1092560	OK	0.7771894	-0.2939567	0.5563866	0	-127.933	-41.449	7.502	B5-03822-P04-CH1	1092560	OK	0.7473377	-0.6488185	0.143251	0	-113.767	-34.641	-8.077	NA
0.0199841076031552	B5-03822-P01-CH0	1092568	OK	0.2564565	0.0851227	0.1014942	-0.9574357	166.256	-26.477	-274.153	B5-03822-P02-CH0	1092568	OK	0.5578388	0.3353678	-0.7591735	0	-82.882	-104.934	3.565	B5-03822-P02-CH1	1092568	OK	0.8145315	-0.1496446	-0.5604863	0	-87.083	-84.134	0.482	B5-03822-P03-CH0	1092568	OK	0.8674004	-0.3505651	-0.3531581	0	-101.012	-64.138	7.984	B5-03822-P03-CH1	1092568	OK	0.6147836	0.7878205	0.0371481	0	-101.429	-26.425	-0.329	B5-03822-P04-CH0	1092568	OK	0.7766257	-0.306518	0.5503628	0	-126.854	-39.835	4.941	B5-03822-P04-CH1	1092568	OK	0.7474709	-0.6486364	0.1433808	0	-113.833	-34.585	-8.042	NA
0.0299761614047328	B5-03822-P01-CH0	1092576	OK	0.2563078	0.0854605	0.1008347	-0.9575151	166.362	-26.391	-274.149	B5-03822-P02-CH0	1092576	OK	0.5595935	0.3274091	-0.761353	0	-82.625	-105.481	1.473	B5-03822-P02-CH1	1092576	OK	0.8161838	-0.1471761	-0.5587336	0	-87.552	-84.265	0.514	B5-03822-P03-CH0	1092576	OK	0.8701198	-0.3416202	-0.3552283	0	-101.757	-64.14	8.575	B5-03822-P03-CH1	1092576	OK	0.6173448	0.7861251	0.029878	0	-102.092	-24.622	-0.417	B5-03822-P04-CH0	1092576	OK	0.7773548	-0.3226933	0.5399893	0	-125.985	-37.577	3.232	B5-03822-P04-CH1	1092576	OK	0.7470832	-0.6491349	0.1431452	0	-113.898	-34.463	-8.119	NA
0.0399682152063104	B5-03822-P01-CH0	1092584	OK	0.2567185	0.0852399	0.1017291	-0.9573301	166.335	-26.175	-274.264	B5-03822-P02-CH0	1092584	OK	0.5563792	0.3184289	-0.7674928	0	-83.382	-105.23	2.347	B5-03822-P02-CH1	1092584	OK	0.817395	-0.1446691	-0.5576166	0	-88.17	-84.69	1.296	B5-03822-P03-CH0	1092584	OK	0.8718396	-0.3302657	-0.361691	0	-103.285	-63.949	9.019	B5-03822-P03-CH1	1092584	OK	0.6214054	0.7832867	0.0178132	0	-101.491	-25.014	-0.485	B5-03822-P04-CH0	1092584	OK	0.7791395	-0.3304868	0.5326538	0	-127.207	-42.461	7.396	B5-03822-P04-CH1	1092584	OK	0.7477841	-0.6482751	0.1433818	0	-113.958	-34.24	-8.291	NA
0.0499602690078881	B5-03822-P01-CH0	1092592	OK	0.2563241	0.0855438	0.1010303	-0.9574827	166.445	-26.33	-274.22	B5-03822-P02-CH0	1092592	OK	0.5559773	0.3069008	-0.7724643	0	-82.895	-105.248	2.723	B5-03822-P02-CH1	1092592	OK	0.8187185	-0.1432415	-0.5560413	0	-88.371	-85.175	2.421	B5-03822-P03-CH0	1092592	OK	0.8750061	-0.3178841	-0.3651219	0	-103.097	-64.257	9.261	B5-03822-P03-CH1	1092592	OK	0.6238688	0.7814441	0.0115308	0	-101.565	-24.471	-0.381	B5-03822-P04-CH0	1092592	OK	0.7809421	-0.3413229	0.5230947	0	-126.313	-39.797	6.447	B5-03822-P04-CH1	1092592	OK	0.7473419	-0.6488693	0.142999	0	-114.042	-34.451	-8.088	NA
0.0599523228094657	B5-03822-P01-CH0	1092600	OK	0.2562253	0.0858605	0.1004519	-0.9575416	166.606	-26.399	-274.322	B5-03822-P02-CH0	1092600	OK	0.5531244	0.3011495	-0.776764	0	-84.138	-106.623	3.724	B5-03822-P02-CH1	1092600	OK	0.8200214	-0.1431567	-0.5541399	0	-88.809	-86.234	1.3	B5-03822-P03-CH0	1092600	OK	0.8787271	-0.307749	-0.3648687	0	-102.298	-65.326	10.035	B5-03822-P03-CH1	1092600	OK	0.6251049	0.7804825	0.0095408	0	-101.494	-23.068	-1.437	B5-03822-P04-CH0	1092600	OK	0.7818366	-0.3445763	0.5196139	0	-126.751	-40.509	6.401	B5-03822-P04-CH1	1092600	OK	0.7468867	-0.6493629	0.1431365	0	-114.22	-34.722	-7.818	NA
0.0699443766110433	B5-03822-P01-CH0	1092608	OK	0.256182	0.0853002	0.1007245	-0.9575747	166.423	-26.407	-274.392	B5-03822-P02-CH0	1092608	OK	0.5558088	0.2904893	-0.7789047	0	-82.408	-107.395	2.414	B5-03822-P02-CH1	1092608	OK	0.8221264	-0.1418108	-0.5513601	0	-88.916	-87.027	1.171	B5-03822-P03-CH0	1092608	OK	0.880724	-0.2956608	-0.3700133	0	-103.878	-65.608	10.417	B5-03822-P03-CH1	1092608	OK	0.6247094	0.7808122	0.008395	0	-101.858	-21.891	-1.979	B5-03822-P04-CH0	1092608	OK	0.7811989	-0.3485426	0.517925	0	-125.473	-38.811	4.052	B5-03822-P04-CH1	1092608	OK	0.746951	-0.6492458	0.1433321	0	-114.205	-34.815	-7.696	NA
0.0799364304126209	B5-03822-P01-CH0	1092616	OK	0.2554867	0.0854654	0.0995728	-0.9578661	166.43	-26.524	-274.42	B5-03822-P02-CH0	1092616	OK	0.5559632	0.2721475	-0.785392	0	-81.181	-106.414	2.269	B5-03822-P02-CH1	1092616	OK	0.8253338	-0.143357	-0.5461436	0	-88.855	-87.131	2.349	B5-03822-P03-CH0	1092616	OK	0.8861592	-0.2863188	-0.3643396	0	-103.203	-66.582	10.768	B5-03822-P03-CH1	1092616	OK	0.6291827	0.7772185	0.0077845	0	-103.568	-24.262	-0.198	B5-03822-P04-CH0	1092616	OK	0.7812111	-0.3468992	0.5190088	0	-125.161	-39.512	5.324	B5-03822-P04-CH1	1092616	OK	0.7459399	-0.6505161	0.1428372	0	-114.197	-34.99	-7.567	NA
0.0899284842141985	B5-03822-P01-CH0	1092624	OK	0.2556829	0.0855307	0.0991671	-0.95785	166.517	-26.563	-274.625	B5-03822-P02-CH0	1092624	OK	0.5543885	0.2487774	-0.794206	0	-81.147	-106.818	2.625	B5-03822-P02-CH1	1092624	OK	0.8291516	-0.1509664	-0.5382534	0	-89.184	-87.579	2.847	B5-03822-P03-CH0	1092624	OK	0.8907128	-0.2754856	-0.3615776	0	-104.494	-67.093	10.54	B5-03822-P03-CH1	1092624	OK	0.6272483	0.7787211	0.0123697	0	-102.733	-21.932	-1.107	B5-03822-P04-CH0	1092624	OK	0.7826135	-0.3380862	0.5226985	0	-125.064	-39.574	7.618	B5-03822-P04-CH1	1092624	OK	0.745654	-0.65086	0.1427635	0	-114.054	-35.064	-7.62	NA
0.0999205380157761	B5-03822-P01-CH0	1092632	OK	0.2555803	0.0857511	0.0990481	-0.95787	166.526	-26.477	-274.37	B5-03822-P02-CH0	1092632	OK	0.5531299	0.2202522	-0.8034527	0	-80.952	-107.086	2.584	B5-03822-P02-CH1	1092632	OK	0.8346694	-0.1609508	-0.5267085	0	-89.665	-87.702	3.28	B5-03822-P03-CH0	1092632	OK	0.8953544	-0.2618108	-0.3602716	0	-106.28	-67.169	10.704	B5-03822-P03-CH1	1092632	OK	0.6267619	0.7791005	0.0131092	0	-102.272	-21.358	-1.274	B5-03822-P04-CH0	1092632	OK	0.7836447	-0.3241326	0.5299425	0	-126.688	-42.388	7.974	B5-03822-P04-CH1	1092632	OK	0.7459712	-0.6506618	0.142008	0	-114.333	-34.582	-8.135	NA
0.109912591817354	B5-03822-P01-CH0	1092640	OK	0.2554607	0.0855161	0.0994223	-0.9578842	166.41	-26.299	-274.386	B5-03822-P02-CH0	1092640	OK	0.5531181	0.1872107	-0.8117959	0	-80.449	-107.053	1.947	B5-03822-P02-CH1	1092640	OK	0.8396068	-0.172174	-0.515186	0	-91.068	-88.623	4.157	B5-03822-P03-CH0	1092640	OK	0.9024146	-0.248329	-0.3521087	0	-105.892	-68.103	13.291	B5-03822-P03-CH1	1092640	OK	0.6307055	0.7759716	0.0088693	0	-102.656	-25.378	1.512	B5-03822-P04-CH0	1092640	OK	0.7848126	-0.3107977	0.536166	0	-125.935	-39.552	7.068	B5-03822-P04-CH1	1092640	OK	0.746548	-0.6501557	0.1412929	0	-114.287	-33.994	-8.541	NA
0.119904645618931	B5-03822-P01-CH0	1092648	OK	0.2555743	0.0852444	0.1001253	-0.9578048	166.397	-26.333	-274.403	B5-03822-P02-CH0	1092648	OK	0.5537205	0.1499143	-0.8190966	0	-79.511	-106.759	2.2	B5-03822-P02-CH1	1092648	OK	0.8471642	-0.1831698	-0.4987602	0	-91.307	-89.186	4.463	B5-03822-P03-CH0	1092648	OK	0.9064201	-0.2380742	-0.3488888	0	-106.743	-68.589	12.965	B5-03822-P03-CH1	1092648	OK	0.6262829	0.779431	0.0160344	0	-101.623	-22.553	-0.762	B5-03822-P04-CH0	1092648	OK	0.7851537	-0.2932913	0.5454483	0	-126.711	-40.469	6.509	B5-03822-P04-CH1	1092648	OK	0.7471347	-0.649446	0.1414555	0	-114.242	-33.902	-8.821	NA
0.129896699420509	B5-03822-P01-CH0	1092656	OK	0.25588	0.0850822	0.1009754	-0.9576484	166.414	-26.292	-274.342	B5-03822-P02-CH0	1092656	OK	0.5567418	0.1139775	-0.8228291	0	-78.303	-107.221	2.184	B5-03822-P02-CH1	1092656	OK	0.8545692	-0.197017	-0.4805162	0	-91.967	-89.636	4.884	B5-03822-P03-CH0	1092656	OK	0.910152	-0.2237753	-0.3486373	0	-107.215	-68.37	13.17	B5-03822-P03-CH1	1092656	OK	0.6258877	0.7798213	0.0119728	0	-102.33	-23.385	-0.621	B5-03822-P04-CH0	1092656	OK	0.7847022	-0.2759787	0.5550479	0	-127.231	-41.641	7.63	B5-03822-P04-CH1	1092656	OK	0.7478066	-0.6484073	0.1426651	0	-114.408	-34.059	-8.798	NA
0.139888753222087	B5-03822-P01-CH0	1092664	OK	0.2556524	0.0852772	0.1002491	-0.9577681	166.436	-26.377	-274.23	B5-03822-P02-CH0	1092664	OK	0.5583264	0.082309	-0.8255282	0	-78.842	-108.318	2.207	B5-03822-P02-CH1	1092664	OK	0.8597094	-0.2110667	-0.465135	0	-93.768	-90.453	5.408	B5-03822-P03-CH0	1092664	OK	0.9107013	-0.215377	-0.3524711	0	-108.539	-68.826	13.458	B5-03822-P03-CH1	1092664	OK	0.6243131	0.7809045	0.0205257	0	-101.557	-23.991	-0.344	B5-03822-P04-CH0	1092664	OK	0.7836827	-0.2593637	0.5644217	0	-128.364	-41.673	7.005	B5-03822-P04-CH1	1092664	OK	0.7475662	-0.648498	0.1435101	0	-114.529	-34.116	-8.779	NA
0.149880807023664	B5-03822-P01-CH0	1092672	OK	0.2558314	0.0849452	0.1004949	-0.9577241	166.28	-26.29	-274.172	B5-03822-P02-CH0	1092672	OK	0.5663613	0.0468764	-0.8228229	0	-76.856	-107.059	1.815	B5-03822-P02-CH1	1092672	OK	0.8668106	-0.2227339	-0.4461268	0	-94.212	-91.051	4.955	B5-03822-P03-CH0	1092672	OK	0.911123	-0.2108094	-0.3541388	0	-107.828	-69.842	13.371	B5-03822-P03-CH1	1092672	OK	0.6219919	0.782686	0.0229924	0	-101.624	-24.428	-1.026	B5-03822-P04-CH0	1092672	OK	0.7815743	-0.2427082	0.5746601	0	-128.596	-41.998	7.102	B5-03822-P04-CH1	1092672	OK	0.7479921	-0.6477424	0.1446982	0	-114.582	-33.823	-9.306	NA
0.159872860825242	B5-03822-P01-CH0	1092680	OK	0.256138	0.0843822	0.1018621	-0.9575474	166.112	-26.074	-274.131	B5-03822-P02-CH0	1092680	OK	0.5761595	0.0124138	-0.817243	0	-76.453	-107.666	0.516	B5-03822-P02-CH1	1092680	OK	0.8756479	-0.2260832	-0.4267636	0	-94.02	-91.283	6.067	B5-03822-P03-CH0	1092680	OK	0.9061885	-0.2018781	-0.3715746	0	-108.907	-69.466	12.197	B5-03822-P03-CH1	1092680	OK	0.6175123	0.7861319	0.0259843	0	-103.612	-24.675	0.505	B5-03822-P04-CH0	1092680	OK	0.7796211	-0.2254699	0.5842553	0	-129.031	-42.611	6.091	B5-03822-P04-CH1	1092680	OK	0.7488553	-0.6463001	0.1466697	0	-114.68	-33.968	-9.319	NA
0.169864914626819	B5-03822-P01-CH0	1092688	OK	0.256061	0.08454	0.1018301	-0.9575575	166.176	-26.017	-274.164	B5-03822-P02-CH0	1092688	OK	0.5893013	-0.0244099	-0.8075445	0	-75.883	-106.872	0.462	B5-03822-P02-CH1	1092688	OK	0.8807944	-0.2250396	-0.4166034	0	-95.527	-91.648	5.941	B5-03822-P03-CH0	1092688	OK	0.8984477	-0.1913641	-0.3951855	0	-108.65	-68.339	10.899	B5-03822-P03-CH1	1092688	OK	0.61655	0.7867523	0.0297813	0	-103.716	-25.887	1.095	B5-03822-P04-CH0	1092688	OK	0.778586	-0.2127199	0.5903847	0	-129.124	-42.982	7.225	B5-03822-P04-CH1	1092688	OK	0.7486562	-0.6461768	0.1482211	0	-114.681	-34.31	-9.199	NA
0.179856968428397	B5-03822-P01-CH0	1092696	OK	0.2566877	0.084184	0.1031148	-0.9572836	166.182	-25.833	-274.374	B5-03822-P02-CH0	1092696	OK	0.602451	-0.0621674	-0.7957311	0	-76.179	-107.362	0.638	B5-03822-P02-CH1	1092696	OK	0.8864589	-0.21772	-0.4083976	0	-96.24	-91.607	5.793	B5-03822-P03-CH0	1092696	OK	0.8881426	-0.1824556	-0.421797	0	-107.674	-68.44	10.335	B5-03822-P03-CH1	1092696	OK	0.6128677	0.7894868	0.0332239	0	-102.377	-25.071	0.861	B5-03822-P04-CH0	1092696	OK	0.7786752	-0.2034681	0.5935197	0	-129.857	-43.784	6.727	B5-03822-P04-CH1	1092696	OK	0.7499039	-0.6443845	0.1497088	0	-114.679	-34.111	-9.439	NA
0.189849022229975	B5-03822-P01-CH0	1092704	OK	0.2564624	0.0841436	0.1030299	-0.9573566	166.178	-25.757	-274.343	B5-03822-P02-CH0	1092704	OK	0.6171005	-0.1000144	-0.7805024	0	-76.36	-107.17	0.253	B5-03822-P02-CH1	1092704	OK	0.8902297	-0.2099267	-0.4042548	0	-96.825	-91.736	6.849	B5-03822-P03-CH0	1092704	OK	0.871046	-0.1688514	-0.461268	0	-109.035	-67.372	9.227	B5-03822-P03-CH1	1092704	OK	0.6138449	0.7887228	0.03333	0	-101.442	-26.35	0.123	B5-03822-P04-CH0	1092704	OK	0.7794527	-0.2006883	0.5934456	0	-129.681	-42.029	7.554	B5-03822-P04-CH1	1092704	OK	0.7495364	-0.6443357	0.1517452	0	-114.835	-34.71	-8.97	NA
0.199841076031552	B5-03822-P01-CH0	1092712	OK	0.2564903	0.0837276	0.1036445	-0.9573193	166.15	-25.702	-274.587	B5-03822-P02-CH0	1092712	OK	0.632773	-0.1380038	-0.7619405	0	-75.884	-106.113	-0.064	B5-03822-P02-CH1	1092712	OK	0.8911358	-0.1977319	-0.4083859	0	-97.911	-91.69	7.806	B5-03822-P03-CH0	1092712	OK	0.8548343	-0.1469227	-0.4976666	0	-108.069	-65.937	7.969	B5-03822-P03-CH1	1092712	OK	0.6101151	0.7915071	0.0357225	0	-102.469	-24.821	0.459	B5-03822-P04-CH0	1092712	OK	0.7795744	-0.1979041	0.5942202	0	-130.008	-43.433	7.078	B5-03822-P04-CH1	1092712	OK	0.7495012	-0.6439148	0.1536932	0	-114.701	-35.365	-8.58	NA
0.20983312983313	B5-03822-P01-CH0	1092720	OK	0.2565017	0.0836941	0.1037116	-0.9573119	166.186	-25.732	-274.669	B5-03822-P02-CH0	1092720	OK	0.649432	-0.1675707	-0.7417265	0	-75.383	-105.788	-1.594	B5-03822-P02-CH1	1092720	OK	0.8911107	-0.18291	-0.4152898	0	-98.617	-90.76	7.227	B5-03822-P03-CH0	1092720	OK	0.834646	-0.120627	-0.5374153	0	-107.053	-65.635	6.145	B5-03822-P03-CH1	1092720	OK	0.6090952	0.7922395	0.0368732	0	-102.279	-24.683	0.123	B5-03822-P04-CH0	1092720	OK	0.7796257	-0.200531	0.5932715	0	-129.212	-43.156	7.646	B5-03822-P04-CH1	1092720	OK	0.7493485	-0.6436975	0.1553395	0	-114.861	-35.981	-8.12	NA
0.219825183634707	B5-03822-P01-CH0	1092728	OK	0.2561205	0.0840355	0.1028937	-0.9574723	166.195	-25.629	-274.575	B5-03822-P02-CH0	1092728	OK	0.6627515	-0.1940291	-0.7232656	0	-75.474	-104.424	-1.147	B5-03822-P02-CH1	1092728	OK	0.8902597	-0.1704158	-0.4223696	0	-98.956	-89.747	7.659	B5-03822-P03-CH0	1092728	OK	0.8120559	-0.0846021	-0.5774147	0	-105.644	-64.487	4.768	B5-03822-P03-CH1	1092728	OK	0.6095896	0.7918975	0.0360397	0	-101.428	-24.875	-1.576	B5-03822-P04-CH0	1092728	OK	0.7795653	-0.2066798	0.5912372	0	-127.923	-40.621	7.325	B5-03822-P04-CH1	1092728	OK	0.7486759	-0.6443675	0.1558042	0	-114.978	-36.18	-7.865	NA
0.229817237436285	B5-03822-P01-CH0	1092736	OK	0.25567	0.084086	0.1020592	-0.9576776	166.175	-25.685	-274.624	B5-03822-P02-CH0	1092736	OK	0.6711883	-0.2145169	-0.7095694	0	-75.946	-104.105	-1.364	B5-03822-P02-CH1	1092736	OK	0.8888125	-0.1638833	-0.4279655	0	-98.39	-88.845	7.081	B5-03822-P03-CH0	1092736	OK	0.7914673	-0.0448957	-0.6095604	0	-104.085	-64.286	4.057	B5-03822-P03-CH1	1092736	OK	0.6093134	0.7921199	0.0358223	0	-102.193	-25.667	-0.017	B5-03822-P04-CH0	1092736	OK	0.7804414	-0.2102698	0.5888106	0	-128.601	-40.902	7.863	B5-03822-P04-CH1	1092736	OK	0.7479366	-0.6452484	0.1557095	0	-114.98	-36.428	-7.611	NA
0.239809291237863	B5-03822-P01-CH0	1092744	OK	0.2554308	0.084107	0.10194	-0.9577522	166.141	-25.651	-274.613	B5-03822-P02-CH0	1092744	OK	0.6758772	-0.2365702	-0.6980147	0	-75.961	-102.454	-1.98	B5-03822-P02-CH1	1092744	OK	0.888704	-0.1579791	-0.4304043	0	-97.005	-87.816	8.15	B5-03822-P03-CH0	1092744	OK	0.7809635	-0.0144621	-0.6244092	0	-102.298	-61.95	3.222	B5-03822-P03-CH1	1092744	OK	0.6067945	0.794076	0.0352659	0	-100.745	-25.603	0.031	B5-03822-P04-CH0	1092744	OK	0.7789575	-0.2183991	0.5878155	0	-127.445	-39.214	6.48	B5-03822-P04-CH1	1092744	OK	0.7475256	-0.6459133	0.1549243	0	-114.721	-36.546	-7.508	NA
0.24980134503944	B5-03822-P01-CH0	1092752	OK	0.2551849	0.0841061	0.1016936	-0.9578441	166.149	-25.729	-274.678	B5-03822-P02-CH0	1092752	OK	0.677572	-0.2500373	-0.6916484	0	-75.36	-101.444	-2.552	B5-03822-P02-CH1	1092752	OK	0.8846434	-0.1535783	-0.4402496	0	-98.824	-87.308	7.957	B5-03822-P03-CH0	1092752	OK	0.7790505	-0.0151093	-0.6267791	0	-102.647	-63.206	1.773	B5-03822-P03-CH1	1092752	OK	0.6027592	0.7972036	0.0338798	0	-102.076	-25.627	2.108	B5-03822-P04-CH0	1092752	OK	0.7791304	-0.2106933	0.5903932	0	-128.933	-41.843	7.628	B5-03822-P04-CH1	1092752	OK	0.7472267	-0.6465537	0.15369	0	-114.428	-36.605	-7.363	NA
0.259793398841018	B5-03822-P01-CH0	1092760	OK	0.2549606	0.0845996	0.1010738	-0.9579259	166.3	-25.721	-274.672	B5-03822-P02-CH0	1092760	OK	0.6755969	-0.2495154	-0.6937658	0	-75.613	-100.31	-1.585	B5-03822-P02-CH1	1092760	OK	0.8841601	-0.1481419	-0.4430744	0	-97.873	-86.507	8.564	B5-03822-P03-CH0	1092760	OK	0.782401	-0.0192271	-0.6224781	0	-101.903	-60.474	3.187	B5-03822-P03-CH1	1092760	OK	0.6033975	0.7967466	0.0332612	0	-100.113	-26.708	-0.12	B5-03822-P04-CH0	1092760	OK	0.7785835	-0.2298958	0.5839141	0	-126.828	-38.922	7.991	B5-03822-P04-CH1	1092760	OK	0.7465974	-0.6476346	0.1521897	0	-114.317	-36.615	-7.145	NA
0.269785452642596	B5-03822-P01-CH0	1092768	OK	0.2549639	0.0844713	0.1016394	-0.9578765	166.276	-25.67	-274.601	B5-03822-P02-CH0	1092768	OK	0.6701958	-0.2334253	-0.7045212	0	-76.694	-100.171	-1.195	B5-03822-P02-CH1	1092768	OK	0.8827798	-0.1445747	-0.4469878	0	-96.529	-85.634	7.68	B5-03822-P03-CH0	1092768	OK	0.7830346	-0.0378075	-0.620828	0	-102.474	-60.31	4.957	B5-03822-P03-CH1	1092768	OK	0.6030423	0.7970896	0.0314355	0	-101.336	-28.839	2.372	B5-03822-P04-CH0	1092768	OK	0.7791207	-0.2318004	0.5824427	0	-127.672	-41.507	9.624	B5-03822-P04-CH1	1092768	OK	0.7469608	-0.6476211	0.1504543	0	-114.26	-36.37	-7.25	NA
0.279777506444173	B5-03822-P01-CH0	1092776	OK	0.2544227	0.0849631	0.1004103	-0.9581066	166.303	-25.706	-274.366	B5-03822-P02-CH0	1092776	OK	0.664772	-0.2011445	-0.7194575	0	-75.956	-99.843	0.159	B5-03822-P02-CH1	1092776	OK	0.8773279	-0.1456382	-0.4572585	0	-95.929	-85.118	7.543	B5-03822-P03-CH0	1092776	OK	0.7841922	-0.0716362	-0.6163691	0	-102.779	-61.41	4.15	B5-03822-P03-CH1	1092776	OK	0.6009232	0.7986017	0.0335657	0	-99.853	-27.295	0.325	B5-03822-P04-CH0	1092776	OK	0.779048	-0.23584	0.5809163	0	-128.377	-41.456	7.676	B5-03822-P04-CH1	1092776	OK	0.745829	-0.6493351	0.1486707	0	-114.239	-36.399	-7.039	NA
0.289769560245751	B5-03822-P01-CH0	1092784	OK	0.2546651	0.0846487	0.1013056	-0.9579757	166.194	-25.625	-274.379	B5-03822-P02-CH0	1092784	OK	0.6574085	-0.1561082	-0.7371867	0	-76.007	-100.334	-0.226	B5-03822-P02-CH1	1092784	OK	0.868784	-0.148276	-0.4724707	0	-95.156	-85.065	6.911	B5-03822-P03-CH0	1092784	OK	0.7886416	-0.1195601	-0.6031167	0	-101.742	-60.298	1.004	B5-03822-P03-CH1	1092784	OK	0.5995187	0.7996311	0.0341666	0	-101.084	-28.456	2.651	B5-03822-P04-CH0	1092784	OK	0.780221	-0.2362852	0.5791584	0	-128.933	-41.571	8.29	B5-03822-P04-CH1	1092784	OK	0.7460517	-0.649398	0.147272	0	-114.076	-36.287	-7.133	NA
0.299761614047328	B5-03822-P01-CH0	1092792	OK	0.2547487	0.0847065	0.1010384	-0.9579766	166.143	-25.66	-274.288	B5-03822-P02-CH0	1092792	OK	0.6499087	-0.1010137	-0.7532695	0	-75.732	-98.968	0.184	B5-03822-P02-CH1	1092792	OK	0.8556588	-0.150709	-0.4951108	0	-93.323	-84.321	5.067	B5-03822-P03-CH0	1092792	OK	0.7937776	-0.1800615	-0.5809432	0	-99.632	-58.469	1.12	B5-03822-P03-CH1	1092792	OK	0.5987309	0.8001423	0.0359665	0	-100.466	-27.619	1.154	B5-03822-P04-CH0	1092792	OK	0.7800509	-0.2379399	0.57871	0	-128.705	-39.841	6.821	B5-03822-P04-CH1	1092792	OK	0.7460276	-0.6499226	0.1450635	0	-113.845	-35.762	-7.39	NA
0.309753667848906	B5-03822-P01-CH0	1092800	OK	0.2545002	0.0849363	0.1005386	-0.9580749	166.195	-25.739	-274.208	B5-03822-P02-CH0	1092800	OK	0.6404865	-0.0345706	-0.767191	0	-76.252	-98.785	-0.457	B5-03822-P02-CH1	1092800	OK	0.8358664	-0.1493039	-0.5282383	0	-91.576	-82.372	3.666	B5-03822-P03-CH0	1092800	OK	0.796607	-0.247464	-0.5515242	0	-99.049	-57.862	1.231	B5-03822-P03-CH1	1092800	OK	0.599961	0.7991962	0.0364999	0	-101.968	-28.583	1.177	B5-03822-P04-CH0	1092800	OK	0.7794208	-0.2376713	0.5796684	0	-128.901	-41.165	6.61	B5-03822-P04-CH1	1092800	OK	0.7459045	-0.6505876	0.1426966	0	-113.721	-35.282	-7.43	NA
0.319745721650484	B5-03822-P01-CH0	1092808	OK	0.2545065	0.0850387	0.1004854	-0.9580697	166.234	-25.824	-274.158	B5-03822-P02-CH0	1092808	OK	0.6301661	0.0372645	-0.7755656	0	-77.315	-98.345	1.572	B5-03822-P02-CH1	1092808	OK	0.8117053	-0.1465628	-0.5653794	0	-88.641	-80.482	0.361	B5-03822-P03-CH0	1092808	OK	0.8010579	-0.3141182	-0.509545	0	-98.412	-56.746	-0.402	B5-03822-P03-CH1	1092808	OK	0.5981648	0.8004947	0.0375118	0	-101.929	-27.885	2.139	B5-03822-P04-CH0	1092808	OK	0.7792973	-0.2370905	0.5800722	0	-128.71	-40.281	6.43	B5-03822-P04-CH1	1092808	OK	0.7453077	-0.6513199	0.1424739	0	-113.754	-35.705	-7.072	NA
0.329737775452061	B5-03822-P01-CH0	1092816	OK	0.2547645	0.0845293	0.1017499	-0.9579127	166.022	-25.658	-274.147	B5-03822-P02-CH0	1092816	OK	0.6217398	0.104816	-0.7761786	0	-77.708	-97.566	2.089	B5-03822-P02-CH1	1092816	OK	0.7866353	-0.1404388	-0.6012336	0	-83.812	-77.317	-1.449	B5-03822-P03-CH0	1092816	OK	0.8028111	-0.3689236	-0.4683905	0	-96.288	-57.896	-0.545	B5-03822-P03-CH1	1092816	OK	0.5968968	0.8014575	0.0371499	0	-101.585	-27.754	2.238	B5-03822-P04-CH0	1092816	OK	0.779129	-0.234506	0.5813476	0	-127.517	-38.931	6.17	B5-03822-P04-CH1	1092816	OK	0.7462358	-0.6504706	0.1414926	0	-113.6	-35.221	-7.108	NA
0.339729829253639	B5-03822-P01-CH0	1092824	OK	0.2550258	0.084268	0.1023473	-0.9578026	165.98	-25.551	-274.274	B5-03822-P02-CH0	1092824	OK	0.6139526	0.1651984	-0.7718625	0	-78.589	-97.388	1.806	B5-03822-P02-CH1	1092824	OK	0.7626367	-0.1281124	-0.634013	0	-81.324	-75.929	-2.197	B5-03822-P03-CH0	1092824	OK	0.8018001	-0.4096076	-0.4351301	0	-94.525	-58.847	0.218	B5-03822-P03-CH1	1092824	OK	0.5956074	0.8024058	0.0373729	0	-101.307	-26.732	0.292	B5-03822-P04-CH0	1092824	OK	0.7794743	-0.2344496	0.5809072	0	-127.871	-39.405	6.438	B5-03822-P04-CH1	1092824	OK	0.74683	-0.6499126	0.1409204	0	-113.669	-34.882	-7.02	NA
0.349721883055216	B5-03822-P01-CH0	1092832	OK	0.2550414	0.0840462	0.1024831	-0.9578034	165.937	-25.614	-274.357	B5-03822-P02-CH0	1092832	OK	0.6076061	0.2213844	-0.7627606	0	-79.407	-97.572	2.534	B5-03822-P02-CH1	1092832	OK	0.7492605	-0.1069955	-0.6535753	0	-80.227	-76.768	-3.598	B5-03822-P03-CH0	1092832	OK	0.8018623	-0.433659	-0.4110435	0	-94.636	-58.307	0.373	B5-03822-P03-CH1	1092832	OK	0.5972056	0.8013024	0.0354948	0	-100.809	-27.104	0.867	B5-03822-P04-CH0	1092832	OK	0.7797749	-0.2339191	0.5807176	0	-128.299	-40.272	6.839	B5-03822-P04-CH1	1092832	OK	0.746973	-0.6498061	0.1406534	0	-113.701	-34.833	-6.854	NA
0.359713936856794	B5-03822-P01-CH0	1092840	OK	0.255144	0.0836961	0.1026966	-0.9577838	165.81	-25.713	-274.355	B5-03822-P02-CH0	1092840	OK	0.602413	0.2720005	-0.7504094	0	-80.694	-98.265	3.059	B5-03822-P02-CH1	1092840	OK	0.7434897	-0.0821536	-0.663682	0	-79.345	-77.106	-3.828	B5-03822-P03-CH0	1092840	OK	0.8022543	-0.4454155	-0.3974835	0	-92.432	-58.408	-0.216	B5-03822-P03-CH1	1092840	OK	0.5960497	0.8021457	0.0358751	0	-100.713	-26.904	0.815	B5-03822-P04-CH0	1092840	OK	0.7800444	-0.2329385	0.5807499	0	-128.613	-41.112	6.902	B5-03822-P04-CH1	1092840	OK	0.747358	-0.6494699	0.1401604	0	-113.498	-34.589	-7.097	NA
0.369705990658372	B5-03822-P01-CH0	1092848	OK	0.2553039	0.0837668	0.1027771	-0.9577264	165.876	-25.779	-274.355	B5-03822-P02-CH0	1092848	OK	0.6000556	0.3131488	-0.7361189	0	-81.41	-99.184	2.675	B5-03822-P02-CH1	1092848	OK	0.7406862	-0.0609324	-0.6690823	0	-79.117	-77.721	-2.696	B5-03822-P03-CH0	1092848	OK	0.7977212	-0.451237	-0.4000326	0	-90.973	-58.62	-1.47	B5-03822-P03-CH1	1092848	OK	0.5961151	0.8021097	0.0355936	0	-100.92	-27.448	1.001	B5-03822-P04-CH0	1092848	OK	0.7805014	-0.2317979	0.5805922	0	-129.009	-41.519	6.887	B5-03822-P04-CH1	1092848	OK	0.7474488	-0.6493529	0.1402182	0	-113.553	-34.67	-7.033	NA
0.379698044459949	B5-03822-P01-CH0	1092856	OK	0.2553446	0.0835052	0.1033237	-0.9576796	165.82	-25.766	-274.491	B5-03822-P02-CH0	1092856	OK	0.5983166	0.340419	-0.7253497	0	-81.518	-98.691	2.177	B5-03822-P02-CH1	1092856	OK	0.7416728	-0.0434103	-0.6693557	0	-79.289	-77.924	-2.357	B5-03822-P03-CH0	1092856	OK	0.7915506	-0.4551577	-0.4077734	0	-90.828	-58.674	-0.778	B5-03822-P03-CH1	1092856	OK	0.5953321	0.8026761	0.0359261	0	-100.887	-27.392	0.996	B5-03822-P04-CH0	1092856	OK	0.7807944	-0.2301005	0.5808733	0	-129.263	-42.066	7.136	B5-03822-P04-CH1	1092856	OK	0.7481296	-0.6486583	0.1398015	0	-113.493	-34.366	-6.986	NA
0.389690098261527	B5-03822-P01-CH0	1092864	OK	0.2550743	0.0836094	0.102385	-0.9578434	165.798	-25.789	-274.598	B5-03822-P02-CH0	1092864	OK	0.5990126	0.3629384	-0.7137644	0	-81.332	-99.444	2.499	B5-03822-P02-CH1	1092864	OK	0.7453866	-0.0315137	-0.6658872	0	-79.202	-77.781	-2.789	B5-03822-P03-CH0	1092864	OK	0.7844907	-0.4627279	-0.4128647	0	-90.032	-58.072	-1.518	B5-03822-P03-CH1	1092864	OK	0.5959179	0.8022174	0.0364574	0	-100.891	-27.367	1.006	B5-03822-P04-CH0	1092864	OK	0.7806745	-0.2285815	0.5816337	0	-129.498	-42.574	7.452	B5-03822-P04-CH1	1092864	OK	0.7479923	-0.648974	0.1390695	0	-113.473	-34.025	-6.874	NA
0.399682152063104	B5-03822-P01-CH0	1092872	OK	0.2549208	0.0836422	0.1018137	-0.9579423	165.732	-25.831	-274.534	B5-03822-P02-CH0	1092872	OK	0.5979428	0.378846	-0.706357	0	-81.92	-99.847	2.425	B5-03822-P02-CH1	1092872	OK	0.7496878	-0.0249043	-0.6613229	0	-79.763	-78.132	-3.263	B5-03822-P03-CH0	1092872	OK	0.776618	-0.4692988	-0.4202656	0	-89.134	-57.875	-2.081	B5-03822-P03-CH1	1092872	OK	0.5961214	0.8020439	0.0369429	0	-100.766	-27.296	0.859	B5-03822-P04-CH0	1092872	OK	0.7805925	-0.227066	0.582337	0	-129.593	-42.644	7.416	B5-03822-P04-CH1	1092872	OK	0.7478028	-0.6492841	0.1386404	0	-113.405	-33.894	-6.964	NA
0.409674205864682	B5-03822-P01-CH0	1092880	OK	0.2552075	0.083375	0.1026486	-0.9578001	165.66	-25.77	-274.62	B5-03822-P02-CH0	1092880	OK	0.5963989	0.3860082	-0.7037798	0	-82.568	-99.451	2.566	B5-03822-P02-CH1	1092880	OK	0.7550253	-0.0197877	-0.6553971	0	-80.463	-78.405	-2.545	B5-03822-P03-CH0	1092880	OK	0.7711047	-0.4700715	-0.4294535	0	-88.282	-59.221	-2.141	B5-03822-P03-CH1	1092880	OK	0.5947714	0.803039	0.0370863	0	-100.57	-26.905	0.641	B5-03822-P04-CH0	1092880	OK	0.7808818	-0.2242242	0.5830499	0	-129.642	-42.856	7.652	B5-03822-P04-CH1	1092880	OK	0.7480534	-0.6488621	0.1392624	0	-113.335	-34.215	-6.796	NA
0.41966625966626	B5-03822-P01-CH0	1092888	OK	0.2545955	0.0834868	0.1016306	-0.9580617	165.566	-25.786	-274.644	B5-03822-P02-CH0	1092888	OK	0.5987763	0.3908197	-0.6990901	0	-83.095	-100.358	2.183	B5-03822-P02-CH1	1092888	OK	0.7613508	-0.0154834	-0.6481552	0	-81.331	-79.14	-2.437	B5-03822-P03-CH0	1092888	OK	0.768561	-0.4632997	-0.4412112	0	-89.256	-58.199	-2.657	B5-03822-P03-CH1	1092888	OK	0.5953859	0.8025299	0.0382275	0	-100.356	-26.651	0.39	B5-03822-P04-CH0	1092888	OK	0.7804305	-0.2232269	0.5840359	0	-129.597	-42.779	7.639	B5-03822-P04-CH1	1092888	OK	0.7478723	-0.6494651	0.1374124	0	-113.1	-33.579	-6.946	NA
0.429658313467837	B5-03822-P01-CH0	1092896	OK	0.2543638	0.084026	0.1005616	-0.9581889	165.682	-25.846	-274.545	B5-03822-P02-CH0	1092896	OK	0.6005548	0.3933115	-0.6961609	0	-83.258	-100.146	2.796	B5-03822-P02-CH1	1092896	OK	0.7679031	-0.0116339	-0.6404604	0	-81.589	-79.468	-1.255	B5-03822-P03-CH0	1092896	OK	0.7674508	-0.4579689	-0.4486465	0	-90.019	-57.116	-2.367	B5-03822-P03-CH1	1092896	OK	0.5963654	0.8017778	0.0387394	0	-100.389	-26.848	0.413	B5-03822-P04-CH0	1092896	OK	0.7802318	-0.221421	0.5849881	0	-129.721	-43.064	8.054	B5-03822-P04-CH1	1092896	OK	0.7474053	-0.6502185	0.1363863	0	-113.146	-33.4	-6.977	NA
0.439650367269415	B5-03822-P01-CH0	1092904	OK	0.2537085	0.0843968	0.0987157	-0.958522	165.641	-25.988	-274.419	B5-03822-P02-CH0	1092904	OK	0.6019684	0.3958614	-0.6934896	0	-83.314	-99.211	3.736	B5-03822-P02-CH1	1092904	OK	0.7717425	-0.0092948	-0.6358672	0	-82.563	-79.512	-0.976	B5-03822-P03-CH0	1092904	OK	0.7651496	-0.4567547	-0.4537854	0	-89.663	-56.33	-2.403	B5-03822-P03-CH1	1092904	OK	0.5979972	0.800529	0.0394048	0	-100.279	-27.07	0.596	B5-03822-P04-CH0	1092904	OK	0.7795814	-0.2204677	0.586214	0	-129.797	-43.051	7.891	B5-03822-P04-CH1	1092904	OK	0.7458742	-0.6521302	0.1356391	0	-112.95	-33.612	-6.935	NA
0.449642421070993	B5-03822-P01-CH0	1092912	OK	0.2537484	0.0846937	0.0985881	-0.9584984	165.699	-25.827	-274.45	B5-03822-P02-CH0	1092912	OK	0.602485	0.3975242	-0.6920884	0	-83.873	-99.297	3.836	B5-03822-P02-CH1	1092912	OK	0.7759432	-0.004168	-0.630789	0	-82.349	-78.938	-0.859	B5-03822-P03-CH0	1092912	OK	0.7618106	-0.4568718	-0.4592523	0	-90.187	-56.71	-2.452	B5-03822-P03-CH1	1092912	OK	0.5980772	0.8004667	0.0394557	0	-100.205	-26.956	0.444	B5-03822-P04-CH0	1092912	OK	0.7763792	-0.210691	0.5940072	0	-128.555	-39.684	5.357	B5-03822-P04-CH1	1092912	OK	0.7459724	-0.652228	0.1346246	0	-113.007	-33.279	-7.046	NA
0.45963447487257	B5-03822-P01-CH0	1092920	OK	0.2538738	0.0847485	0.0986263	-0.9584564	165.672	-25.741	-274.369	B5-03822-P02-CH0	1092920	OK	0.602381	0.3978633	-0.691984	0	-84.383	-99.155	3.646	B5-03822-P02-CH1	1092920	OK	0.777947	-0.0015186	-0.6283281	0	-83.342	-80.439	0.385	B5-03822-P03-CH0	1092920	OK	0.763107	-0.453291	-0.4606464	0	-89.598	-56.595	-3.585	B5-03822-P03-CH1	1092920	OK	0.5979161	0.800586	0.0394772	0	-100.173	-26.898	0.215	B5-03822-P04-CH0	1092920	OK	0.7766482	-0.2077592	0.5946878	0	-128.597	-39.872	6.37	B5-03822-P04-CH1	1092920	OK	0.7458872	-0.6524393	0.1340718	0	-112.934	-33.221	-7.19	NA
0.469626528674148	B5-03822-P01-CH0	1092928	OK	0.2532831	0.0845394	0.097657	-0.9587304	165.397	-25.748	-274.361	B5-03822-P02-CH0	1092928	OK	0.6020155	0.3980723	-0.6921819	0	-85.132	-98.629	4.603	B5-03822-P02-CH1	1092928	OK	0.7806646	0.0058881	-0.6249225	0	-83.595	-80.94	0.62	B5-03822-P03-CH0	1092928	OK	0.7685233	-0.4460322	-0.4587234	0	-88.713	-57.742	-1.315	B5-03822-P03-CH1	1092928	OK	0.5983227	0.8002309	0.0405015	0	-99.946	-26.652	0.429	B5-03822-P04-CH0	1092928	OK	0.7777744	-0.2045265	0.5943366	0	-129.694	-42.3	9.84	B5-03822-P04-CH1	1092928	OK	0.7451433	-0.6534055	0.1335016	0	-112.932	-33.154	-6.89	NA
0.479618582475725	B5-03822-P01-CH0	1092936	OK	0.2531579	0.0847551	0.0972245	-0.9587883	165.395	-25.774	-274.248	B5-03822-P02-CH0	1092936	OK	0.6026244	0.3961627	-0.6927474	0	-85.504	-98.785	4.238	B5-03822-P02-CH1	1092936	OK	0.7808553	0.0127868	-0.6245811	0	-84.592	-81.481	1.467	B5-03822-P03-CH0	1092936	OK	0.7747532	-0.4361828	-0.457714	0	-90.579	-57.043	-1.83	B5-03822-P03-CH1	1092936	OK	0.5984751	0.8000986	0.0408631	0	-100.089	-26.64	0.548	B5-03822-P04-CH0	1092936	OK	0.7777541	-0.212997	0.5913804	0	-129.375	-41.694	7.507	B5-03822-P04-CH1	1092936	OK	0.7445405	-0.6541296	0.1333192	0	-112.94	-33.373	-6.934	NA
0.489610636277303	B5-03822-P01-CH0	1092944	OK	0.2531529	0.0851546	0.0970564	-0.9587713	165.486	-25.749	-274.042	B5-03822-P02-CH0	1092944	OK	0.6042729	0.3950273	-0.6919594	0	-84.911	-99.285	3.581	B5-03822-P02-CH1	1092944	OK	0.7824736	0.0197276	-0.6223712	0	-83.567	-81.613	0.795	B5-03822-P03-CH0	1092944	OK	0.7838457	-0.4276911	-0.4501847	0	-89.365	-58.679	-0.835	B5-03822-P03-CH1	1092944	OK	0.5984899	0.8000679	0.0412457	0	-100.259	-26.615	0.532	B5-03822-P04-CH0	1092944	OK	0.7775441	-0.2113531	0.5922457	0	-129.437	-41.499	7.363	B5-03822-P04-CH1	1092944	OK	0.7442228	-0.6545247	0.1331532	0	-113.056	-33.519	-6.805	NA
0.499602690078881	B5-03822-P01-CH0	1092952	OK	0.2530786	0.0853119	0.0972998	-0.9587522	165.566	-25.649	-274.156	B5-03822-P02-CH0	1092952	OK	0.6062063	0.3998211	-0.6875005	0	-84.961	-101.022	2.832	B5-03822-P02-CH1	1092952	OK	0.7831023	0.0260229	-0.6213482	0	-83.098	-81.609	1.199	B5-03822-P03-CH0	1092952	OK	0.7927435	-0.4201513	-0.4416227	0	-91.074	-59.715	-0.679	B5-03822-P03-CH1	1092952	OK	0.5985962	0.8000039	0.0409425	0	-100.28	-26.904	0.892	B5-03822-P04-CH0	1092952	OK	0.7773511	-0.2101219	0.5929368	0	-129.425	-41.367	7.425	B5-03822-P04-CH1	1092952	OK	0.7443622	-0.6543705	0.1331323	0	-113.257	-33.533	-6.419	NA
0.509594743880458	B5-03822-P01-CH0	1092960	OK	0.2525297	0.0854243	0.0961172	-0.9590062	165.475	-25.686	-274.098	B5-03822-P02-CH0	1092960	OK	0.6077237	0.4039681	-0.6837263	0	-84.678	-101.226	2.939	B5-03822-P02-CH1	1092960	OK	0.7820116	0.0261765	-0.6227139	0	-83.765	-82.536	0.567	B5-03822-P03-CH0	1092960	OK	0.8046477	-0.4103046	-0.4291762	0	-92.215	-59.978	-0.227	B5-03822-P03-CH1	1092960	OK	0.599851	0.7990419	0.0413631	0	-100.162	-27.052	0.986	B5-03822-P04-CH0	1092960	OK	0.7767129	-0.2099681	0.593827	0	-129.356	-41.115	7.268	B5-03822-P04-CH1	1092960	OK	0.7440683	-0.6548901	0.1322171	0	-113.179	-32.918	-6.815	NA
0.519586797682036	B5-03822-P01-CH0	1092968	OK	0.252992	0.0852209	0.0970011	-0.9588134	165.465	-25.624	-274.042	B5-03822-P02-CH0	1092968	OK	0.6040143	0.3990688	-0.6898629	0	-84.483	-99.008	3.422	B5-03822-P02-CH1	1092968	OK	0.7805413	0.0240533	-0.6246413	0	-84.06	-83.081	0.88	B5-03822-P03-CH0	1092968	OK	0.8198945	-0.4006916	-0.4089244	0	-93.649	-60.535	-0.305	B5-03822-P03-CH1	1092968	OK	0.5992355	0.7995375	0.0407011	0	-100.171	-27.242	0.936	B5-03822-P04-CH0	1092968	OK	0.776935	-0.2075765	0.594377	0	-129.559	-41.273	7.146	B5-03822-P04-CH1	1092968	OK	0.74486	-0.653828	0.1330133	0	-113.364	-32.798	-7.153	NA
0.529578851483613	B5-03822-P01-CH0	1092976	OK	0.2531675	0.0850937	0.0972864	-0.9587495	165.502	-25.67	-274.163	B5-03822-P02-CH0	1092976	OK	0.6044311	0.399731	-0.6891141	0	-84.601	-99.446	3.668	B5-03822-P02-CH1	1092976	OK	0.7800268	0.0215916	-0.6253735	0	-83.558	-83.187	0.401	B5-03822-P03-CH0	1092976	OK	0.8359706	-0.3959448	-0.3799749	0	-93.558	-62.659	2.385	B5-03822-P03-CH1	1092976	OK	0.5988739	0.7998218	0.0404377	0	-100.099	-27.24	0.661	B5-03822-P04-CH0	1092976	OK	0.7769463	-0.2058497	0.5949625	0	-129.728	-41.421	7.096	B5-03822-P04-CH1	1092976	OK	0.7451074	-0.6533522	0.1339618	0	-113.299	-32.842	-7.647	NA
0.539570905285191	B5-03822-P01-CH0	1092984	OK	0.2537495	0.0848897	0.0990931	-0.9584287	165.53	-25.465	-274.224	B5-03822-P02-CH0	1092984	OK	0.603971	0.4001806	-0.6892565	0	-84.763	-99.802	3.368	B5-03822-P02-CH1	1092984	OK	0.778917	0.0170156	-0.6268961	0	-83.196	-83.474	-0.659	B5-03822-P03-CH0	1092984	OK	0.850444	-0.3909138	-0.3520389	0	-95.439	-64.194	4.616	B5-03822-P03-CH1	1092984	OK	0.5973508	0.8009777	0.0400842	0	-100.153	-27.133	0.434	B5-03822-P04-CH0	1092984	OK	0.7772599	-0.2042269	0.5951121	0	-129.636	-41.208	7.238	B5-03822-P04-CH1	1092984	OK	0.7465339	-0.6513802	0.1356134	0	-113.62	-32.698	-7.931	NA
0.549562959086769	B5-03822-P01-CH0	1092992	OK	0.2536547	0.0850922	0.0989121	-0.9584545	165.576	-25.509	-274.144	B5-03822-P02-CH0	1092992	OK	0.6042344	0.4018387	-0.6880599	0	-84.891	-100.351	3.507	B5-03822-P02-CH1	1092992	OK	0.7770653	0.0121299	-0.6293031	0	-82.543	-82.949	-0.596	B5-03822-P03-CH0	1092992	OK	0.863348	-0.3859599	-0.3250617	0	-95.511	-64.492	4.214	B5-03822-P03-CH1	1092992	OK	0.5975263	0.8008353	0.0403136	0	-100.346	-27.296	0.559	B5-03822-P04-CH0	1092992	OK	0.7772504	-0.2044223	0.5950575	0	-129.639	-41.034	7.174	B5-03822-P04-CH1	1092992	OK	0.7462236	-0.6513403	0.1375	0	-113.837	-33.114	-7.954	NA
0.559555012888346	B5-03822-P01-CH0	1093000	OK	0.2536888	0.0851428	0.0994456	-0.9583858	165.637	-25.433	-274.283	B5-03822-P02-CH0	1093000	OK	0.6046026	0.413279	-0.680923	0	-83.863	-102.732	2.769	B5-03822-P02-CH1	1093000	OK	0.7737058	0.0043983	-0.6335297	0	-82.655	-82.764	-1.629	B5-03822-P03-CH0	1093000	OK	0.8718262	-0.3824243	-0.3060568	0	-94.972	-65.938	5.167	B5-03822-P03-CH1	1093000	OK	0.5974258	0.8009315	0.0398889	0	-100.482	-27.678	1.089	B5-03822-P04-CH0	1093000	OK	0.7773351	-0.2051618	0.5946921	0	-129.659	-41.036	7.156	B5-03822-P04-CH1	1093000	OK	0.7468547	-0.6502873	0.1390484	0	-114.152	-33.095	-7.982	NA
0.569547066689924	B5-03822-P01-CH0	1093008	OK	0.2537598	0.0857311	0.0992812	-0.9583316	165.881	-25.435	-274.236	B5-03822-P02-CH0	1093008	OK	0.6011434	0.4145944	-0.6831823	0	-84.213	-102.578	3.161	B5-03822-P02-CH1	1093008	OK	0.7708748	-0.0083173	-0.6369324	0	-82.655	-83.399	-0.683	B5-03822-P03-CH0	1093008	OK	0.874593	-0.3789195	-0.3025015	0	-97.138	-65.857	6.441	B5-03822-P03-CH1	1093008	OK	0.5978519	0.8006367	0.0394206	0	-100.608	-27.926	1.049	B5-03822-P04-CH0	1093008	OK	0.7774556	-0.206729	0.5939915	0	-129.736	-41.033	6.838	B5-03822-P04-CH1	1093008	OK	0.7467721	-0.6500399	0.14064	0	-114.363	-33.366	-8.178	NA
0.579539120491501	B5-03822-P01-CH0	1093016	OK	0.2540126	0.0852509	0.0999697	-0.9582359	165.731	-25.376	-274.3	B5-03822-P02-CH0	1093016	OK	0.6003971	0.4110716	-0.6859616	0	-84.085	-102.797	2.307	B5-03822-P02-CH1	1093016	OK	0.7706021	-0.0225955	-0.6369159	0	-82.465	-83.078	-1.254	B5-03822-P03-CH0	1093016	OK	0.8757145	-0.3787352	-0.2994723	0	-96.444	-67.126	7.687	B5-03822-P03-CH1	1093016	OK	0.5974559	0.8009624	0.038802	0	-100.401	-27.981	0.867	B5-03822-P04-CH0	1093016	OK	0.7776414	-0.2082896	0.5932026	0	-129.608	-40.968	6.82	B5-03822-P04-CH1	1093016	OK	0.7475516	-0.6488276	0.1420894	0	-114.354	-33.229	-8.53	NA
0.589531174293079	B5-03822-P01-CH0	1093024	OK	0.2538324	0.0853109	0.0994863	-0.9583286	165.688	-25.512	-274.237	B5-03822-P02-CH0	1093024	OK	0.6000781	0.4056202	-0.689477	0	-84.34	-103.549	2.823	B5-03822-P02-CH1	1093024	OK	0.77307	-0.0353278	-0.6333362	0	-81.957	-82.381	-1.957	B5-03822-P03-CH0	1093024	OK	0.8721696	-0.3756859	-0.3133374	0	-98.548	-66.477	7.599	B5-03822-P03-CH1	1093024	OK	0.5983228	0.8003301	0.038491	0	-100.244	-28.262	0.677	B5-03822-P04-CH0	1093024	OK	0.7803409	-0.2260457	0.5830707	0	-131.027	-43.739	7.647	B5-03822-P04-CH1	1093024	OK	0.7470261	-0.6488965	0.1445177	0	-114.603	-33.853	-8.483	NA
0.599523228094657	B5-03822-P01-CH0	1093032	OK	0.2540819	0.085399	0.0995533	-0.9582477	165.664	-25.515	-274.104	B5-03822-P02-CH0	1093032	OK	0.5991671	0.3939968	-0.6969686	0	-84.122	-102.934	3.1	B5-03822-P02-CH1	1093032	OK	0.7750465	-0.047596	-0.6301092	0	-82.728	-82.94	-0.331	B5-03822-P03-CH0	1093032	OK	0.8654219	-0.372333	-0.3352806	0	-98.744	-65.711	5.846	B5-03822-P03-CH1	1093032	OK	0.5982234	0.8004097	0.038381	0	-100.361	-28.1	0.483	B5-03822-P04-CH0	1093032	OK	0.7801627	-0.2337831	0.5802514	0	-130.108	-42.674	6.455	B5-03822-P04-CH1	1093032	OK	0.7471705	-0.6482813	0.1465184	0	-114.679	-34.065	-8.863	NA
0.609515281896234	B5-03822-P01-CH0	1093040	OK	0.2542128	0.0854263	0.0997116	-0.958194	165.635	-25.423	-274.112	B5-03822-P02-CH0	1093040	OK	0.5975333	0.3773877	-0.7074832	0	-84.615	-103.176	3.279	B5-03822-P02-CH1	1093040	OK	0.7779781	-0.0572963	-0.6256734	0	-83.228	-83.812	-0.763	B5-03822-P03-CH0	1093040	OK	0.8537171	-0.3666216	-0.3698049	0	-98.993	-65.932	4.873	B5-03822-P03-CH1	1093040	OK	0.598428	0.80027	0.0381034	0	-100.449	-28.123	0.682	B5-03822-P04-CH0	1093040	OK	0.7794166	-0.2410519	0.5782765	0	-129.125	-42.162	5.528	B5-03822-P04-CH1	1093040	OK	0.7467565	-0.6482131	0.1489109	0	-114.865	-34.757	-8.716	NA
0.619507335697812	B5-03822-P01-CH0	1093048	OK	0.2540809	0.0858248	0.0988498	-0.9582827	165.722	-25.351	-274.158	B5-03822-P02-CH0	1093048	OK	0.5975534	0.3574827	-0.7177297	0	-84.428	-102.761	3.59	B5-03822-P02-CH1	1093048	OK	0.7814499	-0.0681057	-0.62024	0	-83.907	-84.173	-0.219	B5-03822-P03-CH0	1093048	OK	0.8379802	-0.3502163	-0.4184945	0	-98.101	-63.493	2.116	B5-03822-P03-CH1	1093048	OK	0.5999802	0.7991389	0.0374275	0	-100.664	-28.432	1.08	B5-03822-P04-CH0	1093048	OK	0.7801245	-0.2474908	0.5745903	0	-129.587	-43.675	7.421	B5-03822-P04-CH1	1093048	OK	0.7458298	-0.6488446	0.1507933	0	-114.982	-35.41	-8.102	NA
0.62949938949939	B5-03822-P01-CH0	1093056	OK	0.2541375	0.0857561	0.0990461	-0.9582536	165.636	-25.166	-274.139	B5-03822-P02-CH0	1093056	OK	0.5993285	0.3369393	-0.7261386	0	-84.107	-103.364	2.301	B5-03822-P02-CH1	1093056	OK	0.7867731	-0.0750089	-0.6126678	0	-83.516	-83.093	-1.098	B5-03822-P03-CH0	1093056	OK	0.8170816	-0.3182396	-0.4807299	0	-97.92	-61.82	1.03	B5-03822-P03-CH1	1093056	OK	0.6003819	0.7988607	0.0369216	0	-100.829	-28.409	1.548	B5-03822-P04-CH0	1093056	OK	0.7811296	-0.2563021	0.5693379	0	-128.873	-40.45	6.968	B5-03822-P04-CH1	1093056	OK	0.74584	-0.6485781	0.1518853	0	-115.17	-35.611	-7.781	NA
0.639491443300967	B5-03822-P01-CH0	1093064	OK	0.253752	0.0861005	0.0979286	-0.9584397	165.745	-25.276	-274.108	B5-03822-P02-CH0	1093064	OK	0.598999	0.3151395	-0.73613	0	-84.078	-102.626	3.054	B5-03822-P02-CH1	1093064	OK	0.7877118	-0.081512	-0.6106275	0	-84.986	-83.723	0.33	B5-03822-P03-CH0	1093064	OK	0.7935251	-0.2761223	-0.5422863	0	-97.34	-61.152	0.517	B5-03822-P03-CH1	1093064	OK	0.6023002	0.797428	0.0366478	0	-100.919	-28.867	1.939	B5-03822-P04-CH0	1093064	OK	0.7810399	-0.263149	0.5663296	0	-129.211	-41.58	6.789	B5-03822-P04-CH1	1093064	OK	0.7448631	-0.6496015	0.1523052	0	-115.41	-36.099	-7.492	NA
0.649483497102545	B5-03822-P01-CH0	1093072	OK	0.2536475	0.0858766	0.0977224	-0.9585085	165.622	-25.243	-274.112	B5-03822-P02-CH0	1093072	OK	0.5992442	0.2928168	-0.7450937	0	-83.592	-102.609	1.917	B5-03822-P02-CH1	1093072	OK	0.790448	-0.0881027	-0.6061599	0	-85.463	-83.372	-0.793	B5-03822-P03-CH0	1093072	OK	0.7765489	-0.2264264	-0.587965	0	-95.76	-58.172	1.201	B5-03822-P03-CH1	1093072	OK	0.6029172	0.7969543	0.0368062	0	-100.82	-28.666	1.887	B5-03822-P04-CH0	1093072	OK	0.7813569	-0.2695281	0.5628818	0	-129.162	-41.67	5.94	B5-03822-P04-CH1	1093072	OK	0.7445997	-0.6498982	0.1523273	0	-115.283	-36.17	-7.401	NA
0.659475550904122	B5-03822-P01-CH0	1093080	OK	0.2532126	0.0859473	0.0964874	-0.9587422	165.566	-25.29	-274.015	B5-03822-P02-CH0	1093080	OK	0.5984865	0.2675487	-0.7551368	0	-83.204	-101.995	2.321	B5-03822-P02-CH1	1093080	OK	0.7934252	-0.0970214	-0.6008855	0	-86.249	-83.409	0.516	B5-03822-P03-CH0	1093080	OK	0.7770546	-0.2063764	-0.5946385	0	-95.115	-60.35	-0.05	B5-03822-P03-CH1	1093080	OK	0.6044419	0.7957681	0.0374574	0	-100.616	-28.487	1.652	B5-03822-P04-CH0	1093080	OK	0.7810224	-0.2771961	0.5596127	0	-127.807	-40.346	6.737	B5-03822-P04-CH1	1093080	OK	0.743248	-0.6513391	0.1527738	0	-115.357	-36.693	-6.929	NA
0.6694676047057	B5-03822-P01-CH0	1093088	OK	0.253385	0.0854463	0.0970499	-0.9586847	165.459	-25.201	-274.121	B5-03822-P02-CH0	1093088	OK	0.5983648	0.2362372	-0.7656053	0	-82.053	-101.798	2.335	B5-03822-P02-CH1	1093088	OK	0.7979082	-0.109181	-0.5928085	0	-86.363	-83.183	-0.291	B5-03822-P03-CH0	1093088	OK	0.7859454	-0.1914096	-0.5879219	0	-96.369	-59.659	1.707	B5-03822-P03-CH1	1093088	OK	0.6042218	0.7959223	0.0377321	0	-100.556	-28.223	1.457	B5-03822-P04-CH0	1093088	OK	0.7797762	-0.2804763	0.5597162	0	-127.096	-40.009	5.349	B5-03822-P04-CH1	1093088	OK	0.7435158	-0.6510763	0.1525906	0	-115.203	-36.623	-7.138	NA
0.679459658507278	B5-03822-P01-CH0	1093096	OK	0.2534168	0.0858154	0.096907	-0.9586577	165.641	-25.047	-274.108	B5-03822-P02-CH0	1093096	OK	0.5969519	0.207042	-0.7751013	0	-81.955	-102.702	2.925	B5-03822-P02-CH1	1093096	OK	0.8015343	-0.1227215	-0.5852199	0	-86.591	-82.967	-1.084	B5-03822-P03-CH0	1093096	OK	0.7985851	-0.1863479	-0.5723078	0	-98.043	-60.052	3.357	B5-03822-P03-CH1	1093096	OK	0.6046151	0.7955943	0.0383427	0	-100.667	-27.891	1.224	B5-03822-P04-CH0	1093096	OK	0.7798134	-0.2788033	0.5604995	0	-127.493	-41.107	6.67	B5-03822-P04-CH1	1093096	OK	0.7430907	-0.6515183	0.1527746	0	-115.505	-36.89	-6.793	NA
0.689451712308855	B5-03822-P01-CH0	1093104	OK	0.253577	0.0852102	0.0978929	-0.9585692	165.571	-24.956	-274.313	B5-03822-P02-CH0	1093104	OK	0.5964424	0.1789583	-0.7824515	0	-81.15	-102.819	3.095	B5-03822-P02-CH1	1093104	OK	0.8054687	-0.1346487	-0.5771394	0	-87.226	-83.64	0.006	B5-03822-P03-CH0	1093104	OK	0.8170632	-0.1935092	-0.543104	0	-100.589	-61.019	3.383	B5-03822-P03-CH1	1093104	OK	0.6037283	0.7962435	0.0388385	0	-100.7	-27.606	1.38	B5-03822-P04-CH0	1093104	OK	0.7812531	-0.2771411	0.5593177	0	-127.955	-39.765	6.269	B5-03822-P04-CH1	1093104	OK	0.7439026	-0.6508653	0.1516025	0	-115.271	-36.425	-7.273	NA
0.699443766110433	B5-03822-P01-CH0	1093112	OK	0.2531918	0.0853676	0.0974856	-0.9586985	165.653	-24.943	-274.384	B5-03822-P02-CH0	1093112	OK	0.5967075	0.1527721	-0.7877822	0	-80.331	-102.515	1.37	B5-03822-P02-CH1	1093112	OK	0.811572	-0.1472671	-0.5653877	0	-87.935	-84.779	1.139	B5-03822-P03-CH0	1093112	OK	0.8405347	-0.2148436	-0.4973365	0	-102.855	-61.556	5.875	B5-03822-P03-CH1	1093112	OK	0.6044813	0.7956279	0.0397304	0	-100.727	-27.69	1.581	B5-03822-P04-CH0	1093112	OK	0.7804889	-0.2811493	0.5583836	0	-126.518	-38.328	5.481	B5-03822-P04-CH1	1093112	OK	0.7439049	-0.6512302	0.1500158	0	-115.269	-35.938	-7.379	NA
0.70943581991201	B5-03822-P01-CH0	1093120	OK	0.2528978	0.0858158	0.0964324	-0.9588426	165.828	-25.084	-274.353	B5-03822-P02-CH0	1093120	OK	0.5969532	0.1226188	-0.7928503	0	-79.94	-102.719	2.758	B5-03822-P02-CH1	1093120	OK	0.8220996	-0.1555517	-0.5476823	0	-88.414	-85.634	2.625	B5-03822-P03-CH0	1093120	OK	0.8642366	-0.2394877	-0.4424261	0	-105.37	-62.789	8.357	B5-03822-P03-CH1	1093120	OK	0.6053644	0.7949182	0.0404849	0	-100.863	-27.656	1.348	B5-03822-P04-CH0	1093120	OK	0.7812023	-0.2799548	0.5579859	0	-127.972	-40.967	6.601	B5-03822-P04-CH1	1093120	OK	0.7434429	-0.6520596	0.1486973	0	-115.211	-35.706	-7.524	NA
0.719427873713588	B5-03822-P01-CH0	1093128	OK	0.2536218	0.0852892	0.0981189	-0.9585272	165.834	-25.044	-274.527	B5-03822-P02-CH0	1093128	OK	0.6012584	0.0939844	-0.7935082	0	-78.844	-104.065	2.023	B5-03822-P02-CH1	1093128	OK	0.8345209	-0.1598786	-0.5272701	0	-88.787	-86.069	3.214	B5-03822-P03-CH0	1093128	OK	0.8864821	-0.2512834	-0.3885952	0	-107.018	-66.934	15.293	B5-03822-P03-CH1	1093128	OK	0.6036074	0.7962482	0.040581	0	-100.721	-27.472	1.062	B5-03822-P04-CH0	1093128	OK	0.7808273	-0.2771794	0.5598931	0	-127.299	-39.048	6.032	B5-03822-P04-CH1	1093128	OK	0.744946	-0.6504924	0.1480375	0	-115.086	-35.307	-8.072	NA
0.729419927515166	B5-03822-P01-CH0	1093136	OK	0.2541895	0.0852241	0.0991585	-0.9582756	165.947	-25.043	-274.577	B5-03822-P02-CH0	1093136	OK	0.6040823	0.0708019	-0.7937705	0	-78.503	-104.839	1.213	B5-03822-P02-CH1	1093136	OK	0.8416518	-0.1622622	-0.5150662	0	-89.922	-86.969	2.865	B5-03822-P03-CH0	1093136	OK	0.8993815	-0.2397121	-0.3655831	0	-108.685	-65.04	11.67	B5-03822-P03-CH1	1093136	OK	0.6025083	0.7970754	0.0406752	0	-100.667	-27.442	0.636	B5-03822-P04-CH0	1093136	OK	0.7812783	-0.2781725	0.5587704	0	-127.248	-39.599	6.214	B5-03822-P04-CH1	1093136	OK	0.7455319	-0.6497483	0.1483558	0	-115.211	-35.577	-7.834	NA
0.739411981316743	B5-03822-P01-CH0	1093144	OK	0.2542267	0.0846386	0.099634	-0.9582683	165.718	-25.057	-274.553	B5-03822-P02-CH0	1093144	OK	0.6048931	0.0558906	-0.7943429	0	-78.742	-105.204	0.652	B5-03822-P02-CH1	1093144	OK	0.8439222	-0.1639677	-0.5107934	0	-91.059	-88.561	3.456	B5-03822-P03-CH0	1093144	OK	0.9053194	-0.238705	-0.3513071	0	-108.435	-66.485	12.993	B5-03822-P03-CH1	1093144	OK	0.6015437	0.7977544	0.0416296	0	-100.471	-27	0.004	B5-03822-P04-CH0	1093144	OK	0.7812758	-0.2797841	0.5579686	0	-126.973	-39.639	6.111	B5-03822-P04-CH1	1093144	OK	0.7462846	-0.6491401	0.1472292	0	-114.835	-34.918	-8.419	NA
0.749404035118321	B5-03822-P01-CH0	1093152	OK	0.2543695	0.0846018	0.1000271	-0.9581927	165.746	-25.087	-274.544	B5-03822-P02-CH0	1093152	OK	0.6084904	0.0457394	-0.792242	0	-77.57	-105.107	0.173	B5-03822-P02-CH1	1093152	OK	0.8461766	-0.1657624	-0.5064663	0	-91.948	-89.26	4.566	B5-03822-P03-CH0	1093152	OK	0.9092978	-0.2386972	-0.340883	0	-108.299	-66.861	12.974	B5-03822-P03-CH1	1093152	OK	0.6009289	0.7981975	0.0420132	0	-100.362	-26.982	-0.295	B5-03822-P04-CH0	1093152	OK	0.7813751	-0.2806426	0.5573981	0	-126.98	-39.952	6.079	B5-03822-P04-CH1	1093152	OK	0.7465921	-0.648848	0.1469577	0	-114.832	-34.892	-8.565	NA
0.759396088919899	B5-03822-P01-CH0	1093160	OK	0.2546813	0.0845297	0.1007579	-0.9580397	165.732	-25.059	-274.467	B5-03822-P02-CH0	1093160	OK	0.6088595	0.0397716	-0.7922805	0	-78.537	-106.263	0.285	B5-03822-P02-CH1	1093160	OK	0.8515462	-0.164801	-0.4977044	0	-91.205	-88.332	3.85	B5-03822-P03-CH0	1093160	OK	0.9107261	-0.2346161	-0.3399019	0	-108.957	-66.544	12.938	B5-03822-P03-CH1	1093160	OK	0.5997882	0.7990329	0.0424316	0	-100.412	-26.765	-0.543	B5-03822-P04-CH0	1093160	OK	0.7818927	-0.280781	0.556602	0	-127.106	-40.066	6.16	B5-03822-P04-CH1	1093160	OK	0.7473732	-0.6480634	0.1464483	0	-114.742	-34.597	-8.816	NA
0.769388142721476	B5-03822-P01-CH0	1093168	OK	0.254787	0.0848416	0.100203	-0.9580422	165.827	-25.13	-274.382	B5-03822-P02-CH0	1093168	OK	0.6121186	0.0331175	-0.7900722	0	-77.969	-106.048	0.014	B5-03822-P02-CH1	1093168	OK	0.855192	-0.1655122	-0.4911744	0	-91.487	-88.931	4.721	B5-03822-P03-CH0	1093168	OK	0.9134354	-0.2314888	-0.3347367	0	-108.616	-66.625	13.299	B5-03822-P03-CH1	1093168	OK	0.6003528	0.7986322	0.0419898	0	-100.261	-27.18	-0.569	B5-03822-P04-CH0	1093168	OK	0.7819054	-0.2817164	0.5561113	0	-127.162	-40.275	6.427	B5-03822-P04-CH1	1093168	OK	0.7471918	-0.6483767	0.1459862	0	-114.672	-34.539	-8.731	NA
0.779380196523054	B5-03822-P01-CH0	1093176	OK	0.2547256	0.0851281	0.0992777	-0.9581294	165.845	-25.275	-274.295	B5-03822-P02-CH0	1093176	OK	0.6148305	0.0294831	-0.788108	0	-77.292	-105.817	0.746	B5-03822-P02-CH1	1093176	OK	0.8579176	-0.1646415	-0.4866936	0	-91.666	-89.506	4.819	B5-03822-P03-CH0	1093176	OK	0.9152855	-0.2326302	-0.3288399	0	-107.861	-67.483	13.455	B5-03822-P03-CH1	1093176	OK	0.6011017	0.7980762	0.0418466	0	-100.342	-27.576	-0.43	B5-03822-P04-CH0	1093176	OK	0.7816013	-0.2839953	0.5553792	0	-126.894	-39.988	6.212	B5-03822-P04-CH1	1093176	OK	0.7466963	-0.649033	0.1456047	0	-114.459	-34.525	-8.742	NA
0.789372250324631	B5-03822-P01-CH0	1093184	OK	0.2547064	0.0853524	0.098975	-0.9581459	165.85	-25.209	-274.184	B5-03822-P02-CH0	1093184	OK	0.615314	0.028506	-0.7877665	0	-78.043	-106.123	0.624	B5-03822-P02-CH1	1093184	OK	0.8595572	-0.1604624	-0.4851941	0	-91.971	-89.438	6.027	B5-03822-P03-CH0	1093184	OK	0.9156425	-0.2354089	-0.325855	0	-107.25	-67.502	12.993	B5-03822-P03-CH1	1093184	OK	0.6010973	0.7980818	0.0418017	0	-100.419	-27.456	-0.622	B5-03822-P04-CH0	1093184	OK	0.7814739	-0.2859037	0.5545788	0	-126.885	-39.784	5.842	B5-03822-P04-CH1	1093184	OK	0.7465711	-0.6492986	0.1450615	0	-114.401	-34.382	-8.665	NA
0.799364304126209	B5-03822-P01-CH0	1093192	OK	0.2547839	0.0850933	0.0991022	-0.9581352	165.765	-25.178	-274.181	B5-03822-P02-CH0	1093192	OK	0.6166481	0.0276838	-0.786752	0	-78.286	-105.933	0.674	B5-03822-P02-CH1	1093192	OK	0.8605728	-0.1588723	-0.4839153	0	-92.312	-90.295	7.262	B5-03822-P03-CH0	1093192	OK	0.9135082	-0.2391738	-0.3290877	0	-107.321	-67.374	12.515	B5-03822-P03-CH1	1093192	OK	0.6006292	0.7984406	0.0416787	0	-100.375	-27.277	-0.838	B5-03822-P04-CH0	1093192	OK	0.7813067	-0.2876483	0.5539118	0	-126.786	-39.517	5.644	B5-03822-P04-CH1	1093192	OK	0.7464875	-0.6494483	0.1448215	0	-114.267	-34.452	-8.638	NA
0.809356357927787	B5-03822-P01-CH0	1093200	OK	0.2552887	0.0845727	0.1006018	-0.9578906	165.689	-25.022	-274.269	B5-03822-P02-CH0	1093200	OK	0.6184192	0.0270243	-0.7853836	0	-78.559	-106.09	-0.573	B5-03822-P02-CH1	1093200	OK	0.8612865	-0.1537663	-0.4842948	0	-92.893	-89.953	5.925	B5-03822-P03-CH0	1093200	OK	0.9114103	-0.2419522	-0.3328519	0	-106.729	-67.441	12.278	B5-03822-P03-CH1	1093200	OK	0.5990335	0.7996719	0.0410338	0	-100.418	-27.237	-0.63	B5-03822-P04-CH0	1093200	OK	0.7815262	-0.2885219	0.5531473	0	-126.602	-39.372	5.646	B5-03822-P04-CH1	1093200	OK	0.7474414	-0.6482977	0.1450566	0	-114.326	-34.539	-8.369	NA
0.819348411729364	B5-03822-P01-CH0	1093208	OK	0.2549562	0.0849443	0.0996304	-0.9580478	165.742	-25.058	-274.118	B5-03822-P02-CH0	1093208	OK	0.6193588	0.0270202	-0.784643	0	-79.623	-105.77	0.003	B5-03822-P02-CH1	1093208	OK	0.8623518	-0.1486829	-0.4839863	0	-92.89	-89.318	5.767	B5-03822-P03-CH0	1093208	OK	0.9070639	-0.2436212	-0.3433422	0	-107.01	-66.583	12.696	B5-03822-P03-CH1	1093208	OK	0.5997756	0.7991147	0.041047	0	-100.467	-27.354	-0.508	B5-03822-P04-CH0	1093208	OK	0.7811247	-0.2906883	0.5525798	0	-126.64	-39.382	5.682	B5-03822-P04-CH1	1093208	OK	0.7463626	-0.6495564	0.1449806	0	-114.437	-34.914	-8.05	NA
0.829340465530942	B5-03822-P01-CH0	1093216	OK	0.2546166	0.0850882	0.0987903	-0.9582123	165.785	-25.106	-274.172	B5-03822-P02-CH0	1093216	OK	0.6231904	0.0302288	-0.7814857	0	-79.507	-106.474	0.479	B5-03822-P02-CH1	1093216	OK	0.8621719	-0.1427251	-0.4860959	0	-93.054	-88.693	5.503	B5-03822-P03-CH0	1093216	OK	0.9031962	-0.2492369	-0.3494532	0	-106.492	-66.517	11.954	B5-03822-P03-CH1	1093216	OK	0.6001463	0.7988184	0.0413951	0	-100.604	-27.257	-0.321	B5-03822-P04-CH0	1093216	OK	0.7807362	-0.2927419	0.5520445	0	-126.706	-39.432	5.902	B5-03822-P04-CH1	1093216	OK	0.7458007	-0.6503997	0.1440889	0	-114.314	-34.833	-7.989	NA
0.839332519332519	B5-03822-P01-CH0	1093224	OK	0.2547131	0.0856331	0.0985142	-0.9581666	166.073	-25.123	-274.162	B5-03822-P02-CH0	1093224	OK	0.6257523	0.034446	-0.7792609	0	-79.586	-106.566	0.007	B5-03822-P02-CH1	1093224	OK	0.8593967	-0.1408134	-0.4915374	0	-94.246	-89.163	5.874	B5-03822-P03-CH0	1093224	OK	0.9005445	-0.2551973	-0.3519856	0	-105.823	-67.124	12.991	B5-03822-P03-CH1	1093224	OK	0.6000566	0.798895	0.0412173	0	-100.716	-27.313	-0.092	B5-03822-P04-CH0	1093224	OK	0.7808168	-0.2934023	0.5515797	0	-127.09	-39.771	6.201	B5-03822-P04-CH1	1093224	OK	0.7453696	-0.6508953	0.1440813	0	-114.471	-35.237	-7.514	NA
0.849324573134097	B5-03822-P01-CH0	1093232	OK	0.2545257	0.0859559	0.0979467	-0.9582456	166.153	-25.131	-274.063	B5-03822-P02-CH0	1093232	OK	0.6268275	0.0408791	-0.778085	0	-79.617	-106.654	1.153	B5-03822-P02-CH1	1093232	OK	0.8582763	-0.135371	-0.4950116	0	-93.794	-88.718	6.371	B5-03822-P03-CH0	1093232	OK	0.8972986	-0.2594551	-0.3571252	0	-106.159	-66.093	11.674	B5-03822-P03-CH1	1093232	OK	0.6005993	0.7984924	0.0411137	0	-100.892	-27.471	0.152	B5-03822-P04-CH0	1093232	OK	0.7804511	-0.2947508	0.5513783	0	-127.109	-39.752	6.136	B5-03822-P04-CH1	1093232	OK	0.7452858	-0.6512247	0.1430226	0	-114.408	-34.838	-7.668	NA
0.859316626935675	B5-03822-P01-CH0	1093240	OK	0.2543212	0.0863513	0.0968427	-0.9583766	166.395	-25.321	-274.169	B5-03822-P02-CH0	1093240	OK	0.6278697	0.0508565	-0.7766552	0	-79.438	-106.612	-0.232	B5-03822-P02-CH1	1093240	OK	0.8556762	-0.1316307	-0.5004913	0	-93.332	-89.551	6.625	B5-03822-P03-CH0	1093240	OK	0.8947725	-0.2650085	-0.3593782	0	-105.897	-65.726	11.091	B5-03822-P03-CH1	1093240	OK	0.601579	0.7977579	0.0410503	0	-101.051	-27.857	0.38	B5-03822-P04-CH0	1093240	OK	0.7798698	-0.2957432	0.5516694	0	-127.203	-40.205	6.336	B5-03822-P04-CH1	1093240	OK	0.7443012	-0.6523735	0.1429141	0	-114.551	-35.286	-7.443	NA
0.869308680737252	B5-03822-P01-CH0	1093248	OK	0.2541325	0.0864804	0.0966938	-0.95843	166.416	-25.263	-274.087	B5-03822-P02-CH0	1093248	OK	0.6254202	0.06174	-0.7778417	0	-80.046	-105.374	1.042	B5-03822-P02-CH1	1093248	OK	0.8514014	-0.1290283	-0.5083969	0	-93.785	-89.549	5.992	B5-03822-P03-CH0	1093248	OK	0.8922584	-0.2725515	-0.3599871	0	-104.87	-66.216	11.803	B5-03822-P03-CH1	1093248	OK	0.6012311	0.7979647	0.042113	0	-101.267	-27.396	0.233	B5-03822-P04-CH0	1093248	OK	0.7796413	-0.2964815	0.551596	0	-127.254	-40.036	5.965	B5-03822-P04-CH1	1093248	OK	0.7440271	-0.6526868	0.1429116	0	-114.79	-35.393	-7.292	NA
0.87930073453883	B5-03822-P01-CH0	1093256	OK	0.2545196	0.0860233	0.0975541	-0.9582812	166.356	-25.189	-274.217	B5-03822-P02-CH0	1093256	OK	0.6238135	0.0720238	-0.7782476	0	-80.298	-105.391	0.824	B5-03822-P02-CH1	1093256	OK	0.8496782	-0.1252683	-0.5122058	0	-92.924	-89.31	6.33	B5-03822-P03-CH0	1093256	OK	0.8887455	-0.2774215	-0.3649229	0	-104.823	-65.687	11.511	B5-03822-P03-CH1	1093256	OK	0.6005211	0.7985191	0.0417327	0	-101.239	-27.511	0.357	B5-03822-P04-CH0	1093256	OK	0.779646	-0.2956272	0.5520476	0	-127.263	-40.198	5.927	B5-03822-P04-CH1	1093256	OK	0.7446563	-0.6519905	0.1428126	0	-114.592	-35.331	-7.163	NA
0.889292788340407	B5-03822-P01-CH0	1093264	OK	0.2547063	0.0864028	0.0968255	-0.9582714	166.535	-25.238	-274.236	B5-03822-P02-CH0	1093264	OK	0.6223742	0.0816088	-0.7784539	0	-81.034	-106.244	1.312	B5-03822-P02-CH1	1093264	OK	0.8491581	-0.1207209	-0.5141565	0	-91.953	-88.514	5.526	B5-03822-P03-CH0	1093264	OK	0.8853902	-0.2857306	-0.3666638	0	-104.079	-65.599	11.057	B5-03822-P03-CH1	1093264	OK	0.6016515	0.7976966	0.0411778	0	-101.259	-28.285	0.93	B5-03822-P04-CH0	1093264	OK	0.7794895	-0.2948565	0.5526805	0	-127.463	-40.669	6.615	B5-03822-P04-CH1	1093264	OK	0.7438487	-0.652702	0.1437677	0	-114.777	-35.944	-6.514	NA
0.899284842141985	B5-03822-P01-CH0	1093272	OK	0.2550691	0.0862687	0.0971207	-0.9581571	166.564	-25.303	-274.193	B5-03822-P02-CH0	1093272	OK	0.621545	0.0862359	-0.7786175	0	-80.77	-104.883	1.719	B5-03822-P02-CH1	1093272	OK	0.8471589	-0.1217168	-0.5172107	0	-91.961	-88.74	5.792	B5-03822-P03-CH0	1093272	OK	0.8811828	-0.2905267	-0.372976	0	-104.552	-64.696	10.288	B5-03822-P03-CH1	1093272	OK	0.6010737	0.7981349	0.0411231	0	-101.083	-28.248	0.762	B5-03822-P04-CH0	1093272	OK	0.7796405	-0.2936833	0.553092	0	-127.595	-40.893	6.541	B5-03822-P04-CH1	1093272	OK	0.7437417	-0.6526358	0.1446196	0	-114.79	-36.424	-6.272	NA
0.909276895943563	B5-03822-P01-CH0	1093280	OK	0.2550848	0.0861311	0.0966021	-0.9582177	166.449	-25.306	-274.142	B5-03822-P02-CH0	1093280	OK	0.621342	0.0978417	-0.7774067	0	-80.364	-106.202	0.966	B5-03822-P02-CH1	1093280	OK	0.8464582	-0.1210821	-0.5185052	0	-90.912	-87.951	5.236	B5-03822-P03-CH0	1093280	OK	0.8775923	-0.2977224	-0.3757566	0	-103.574	-64.578	10.635	B5-03822-P03-CH1	1093280	OK	0.6015042	0.7978049	0.0412322	0	-100.646	-28.22	0.45	B5-03822-P04-CH0	1093280	OK	0.7794342	-0.293202	0.5536378	0	-127.577	-40.833	6.563	B5-03822-P04-CH1	1093280	OK	0.7433904	-0.6530182	0.1446994	0	-114.784	-36.399	-5.998	NA
0.91926894974514	B5-03822-P01-CH0	1093288	OK	0.2546986	0.0861353	0.095416	-0.9584389	166.424	-25.495	-274.116	B5-03822-P02-CH0	1093288	OK	0.6186111	0.107471	-0.7783125	0	-80.813	-104.89	0.809	B5-03822-P02-CH1	1093288	OK	0.8434278	-0.1233751	-0.5228845	0	-91.211	-87.889	4.962	B5-03822-P03-CH0	1093288	OK	0.8726308	-0.3043909	-0.3819184	0	-103.155	-64.335	9.627	B5-03822-P03-CH1	1093288	OK	0.6021125	0.7972911	0.0422786	0	-100.615	-28.064	0.301	B5-03822-P04-CH0	1093288	OK	0.7790015	-0.2936537	0.5540075	0	-127.525	-40.71	6.449	B5-03822-P04-CH1	1093288	OK	0.7424403	-0.6541045	0.1446711	0	-114.762	-36.674	-5.733	NA
0.929261003546718	B5-03822-P01-CH0	1093296	OK	0.2545579	0.0862939	0.0947183	-0.9585312	166.418	-25.534	-273.95	B5-03822-P02-CH0	1093296	OK	0.616322	0.1214695	-0.7780697	0	-81.402	-105.687	2.441	B5-03822-P02-CH1	1093296	OK	0.8414966	-0.1249437	-0.5256163	0	-91.266	-86.943	3.847	B5-03822-P03-CH0	1093296	OK	0.8680846	-0.3091637	-0.3883902	0	-102.857	-63.4	8.586	B5-03822-P03-CH1	1093296	OK	0.6028112	0.796744	0.0426343	0	-100.455	-28.251	0.311	B5-03822-P04-CH0	1093296	OK	0.7788231	-0.2936816	0.5542434	0	-127.504	-40.444	6.105	B5-03822-P04-CH1	1093296	OK	0.741725	-0.6548707	0.1448738	0	-114.761	-36.889	-5.636	NA
0.939253057348296	B5-03822-P01-CH0	1093304	OK	0.2545566	0.0860614	0.0941299	-0.9586104	166.209	-25.487	-273.889	B5-03822-P02-CH0	1093304	OK	0.6162937	0.1306518	-0.776603	0	-80.686	-104.384	1.944	B5-03822-P02-CH1	1093304	OK	0.8400532	-0.1282388	-0.5271294	0	-91.129	-86.7	3.836	B5-03822-P03-CH0	1093304	OK	0.8624975	-0.3132544	-0.3974541	0	-104.094	-62.295	8.289	B5-03822-P03-CH1	1093304	OK	0.6033278	0.7963507	0.0426745	0	-100.485	-28.355	0.678	B5-03822-P04-CH0	1093304	OK	0.7785137	-0.2940712	0.5544714	0	-127.189	-39.88	5.779	B5-03822-P04-CH1	1093304	OK	0.7416639	-0.655128	0.1440208	0	-114.49	-36.328	-6.043	NA
0.949245111149873	B5-03822-P01-CH0	1093312	OK	0.2548972	0.0856475	0.0943346	-0.9585369	166.087	-25.443	-273.884	B5-03822-P02-CH0	1093312	OK	0.6149441	0.1380449	-0.7763938	0	-80.752	-103.211	1.785	B5-03822-P02-CH1	1093312	OK	0.8388584	-0.131143	-0.5283163	0	-90.913	-86.11	3.85	B5-03822-P03-CH0	1093312	OK	0.8609906	-0.318205	-0.396788	0	-102.605	-62.494	8.236	B5-03822-P03-CH1	1093312	OK	0.6029729	0.7966293	0.042491	0	-100.27	-28.42	0.79	B5-03822-P04-CH0	1093312	OK	0.7787563	-0.2929245	0.5547376	0	-127.241	-39.763	5.798	B5-03822-P04-CH1	1093312	OK	0.7418706	-0.654796	0.1444655	0	-114.525	-36.365	-5.784	NA
0.959237164951451	B5-03822-P01-CH0	1093320	OK	0.2554454	0.0853475	0.0956905	-0.9582833	165.983	-25.2	-273.766	B5-03822-P02-CH0	1093320	OK	0.6140495	0.1470834	-0.7754416	0	-80.907	-104.028	1.648	B5-03822-P02-CH1	1093320	OK	0.838873	-0.1352602	-0.527254	0	-90.614	-85.326	3.625	B5-03822-P03-CH0	1093320	OK	0.8601642	-0.3188914	-0.3980273	0	-101.427	-62.228	7.218	B5-03822-P03-CH1	1093320	OK	0.6017852	0.7975325	0.0423842	0	-100.291	-28.229	0.594	B5-03822-P04-CH0	1093320	OK	0.7792773	-0.2917266	0.5546373	0	-127.223	-39.522	5.672	B5-03822-P04-CH1	1093320	OK	0.7430582	-0.6535443	0.1440289	0	-114.399	-35.857	-5.998	NA
0.969229218753028	B5-03822-P01-CH0	1093328	OK	0.2558033	0.0852998	0.0957831	-0.9581828	166.028	-25.261	-273.74	B5-03822-P02-CH0	1093328	OK	0.6131448	0.1549022	-0.7746346	0	-80.563	-103.353	1.816	B5-03822-P02-CH1	1093328	OK	0.8384606	-0.1397729	-0.5267327	0	-90.085	-85.801	3.574	B5-03822-P03-CH0	1093328	OK	0.8579118	-0.3213971	-0.4008631	0	-101.457	-62.855	7.443	B5-03822-P03-CH1	1093328	OK	0.6015258	0.7977375	0.0422093	0	-100.225	-28.332	0.601	B5-03822-P04-CH0	1093328	OK	0.7795343	-0.2907824	0.5547719	0	-127.307	-39.673	5.762	B5-03822-P04-CH1	1093328	OK	0.7437845	-0.6529343	0.1430439	0	-114.18	-35.258	-6.506	NA
0.979221272554606	B5-03822-P01-CH0	1093336	OK	0.2560557	0.0850504	0.0962669	-0.958089	165.973	-25.174	-273.73	B5-03822-P02-CH0	1093336	OK	0.6130041	0.1640093	-0.7728693	0	-79.969	-103.641	1.652	B5-03822-P02-CH1	1093336	OK	0.8365107	-0.1401062	-0.5297359	0	-90.107	-85.626	3.607	B5-03822-P03-CH0	1093336	OK	0.8560663	-0.3216231	-0.4046098	0	-102.282	-62.279	7.807	B5-03822-P03-CH1	1093336	OK	0.6006341	0.7983938	0.0424977	0	-100.152	-27.947	0.517	B5-03822-P04-CH0	1093336	OK	0.7799214	-0.2900577	0.5546072	0	-127.411	-39.548	5.89	B5-03822-P04-CH1	1093336	OK	0.7438527	-0.6527447	0.1435533	0	-114.317	-35.457	-6.385	NA
0.989213326356184	B5-03822-P01-CH0	1093344	OK	0.2561809	0.0849727	0.096214	-0.9580678	165.925	-25.175	-273.645	B5-03822-P02-CH0	1093344	OK	0.6104835	0.1709699	-0.7733558	0	-80.223	-102.81	2.098	B5-03822-P02-CH1	1093344	OK	0.8350103	-0.1398712	-0.5321596	0	-89.769	-85.372	3.985	B5-03822-P03-CH0	1093344	OK	0.8556776	-0.3240856	-0.4034654	0	-102.249	-62.099	6.76	B5-03822-P03-CH1	1093344	OK	0.6001296	0.7987411	0.0430944	0	-100.094	-27.378	-0.069	B5-03822-P04-CH0	1093344	OK	0.7799429	-0.2903197	0.5544399	0	-127.253	-39.226	5.678	B5-03822-P04-CH1	1093344	OK	0.744122	-0.6525671	0.142964	0	-114.194	-35.085	-6.723	NA
0.999205380157761	B5-03822-P01-CH0	1093352	OK	0.2563018	0.0847995	0.0961708	-0.9580551	165.83	-25.174	-273.639	B5-03822-P02-CH0	1093352	OK	0.6108961	0.1783829	-0.7713531	0	-79.165	-102.731	1.252	B5-03822-P02-CH1	1093352	OK	0.8330644	-0.1376341	-0.5357803	0	-90	-85.26	3.033	B5-03822-P03-CH0	1093352	OK	0.8569095	-0.3275496	-0.3980168	0	-100.922	-62.412	6.681	B5-03822-P03-CH1	1093352	OK	0.6005019	0.7984703	0.0429255	0	-100.158	-27.742	0.255	B5-03822-P04-CH0	1093352	OK	0.779805	-0.2900261	0.5547873	0	-127.115	-39.367	5.891	B5-03822-P04-CH1	1093352	OK	0.7444938	-0.6522839	0.1423189	0	-114.124	-34.577	-7.176	NA
1.00919743395934	B5-03822-P01-CH0	1093360	OK	0.2566126	0.0849794	0.0964449	-0.9579284	165.914	-25.143	-273.565	B5-03822-P02-CH0	1093360	OK	0.6087221	0.1878994	-0.7708121	0	-79.694	-102.847	0.419	B5-03822-P02-CH1	1093360	OK	0.832448	-0.1367564	-0.5369618	0	-89.706	-85.494	2.512	B5-03822-P03-CH0	1093360	OK	0.8561343	-0.3297814	-0.397842	0	-101.394	-62.217	7.152	B5-03822-P03-CH1	1093360	OK	0.6002415	0.7986542	0.0431463	0	-100.457	-27.84	0.498	B5-03822-P04-CH0	1093360	OK	0.7800087	-0.2896371	0.5547042	0	-127.184	-39.329	5.739	B5-03822-P04-CH1	1093360	OK	0.744626	-0.6520458	0.1427177	0	-114.086	-34.701	-7.163	NA
1.01918948776092	B5-03822-P01-CH0	1093368	OK	0.2572046	0.0845074	0.0980787	-0.9576455	165.84	-24.945	-273.649	B5-03822-P02-CH0	1093368	OK	0.6054073	0.194683	-0.7717387	0	-80.75	-102.493	1.075	B5-03822-P02-CH1	1093368	OK	0.833039	-0.1347222	-0.5365593	0	-89.324	-85.193	2.036	B5-03822-P03-CH0	1093368	OK	0.8552767	-0.3316641	-0.3981214	0	-101.735	-62.046	6.043	B5-03822-P03-CH1	1093368	OK	0.5990215	0.7995947	0.0426797	0	-100.385	-27.965	0.56	B5-03822-P04-CH0	1093368	OK	0.780521	-0.2881947	0.5547349	0	-127.213	-39.337	5.807	B5-03822-P04-CH1	1093368	OK	0.7461727	-0.6503537	0.14236	0	-113.93	-34.122	-7.351	NA
1.02918154156249	B5-03822-P01-CH0	1093376	OK	0.2573963	0.0845376	0.0981772	-0.9575812	165.792	-24.913	-273.52	B5-03822-P02-CH0	1093376	OK	0.603602	0.2047055	-0.7705584	0	-81.886	-104.21	2.257	B5-03822-P02-CH1	1093376	OK	0.83285	-0.1325128	-0.5374023	0	-89.179	-84.463	2.416	B5-03822-P03-CH0	1093376	OK	0.8545813	-0.3347189	-0.3970568	0	-100.958	-62.553	6.468	B5-03822-P03-CH1	1093376	OK	0.5989151	0.7996621	0.0429107	0	-100.466	-27.988	0.514	B5-03822-P04-CH0	1093376	OK	0.7806081	-0.2875393	0.5549523	0	-127.355	-39.464	5.844	B5-03822-P04-CH1	1093376	OK	0.7467088	-0.6499128	0.1415603	0	-113.832	-33.49	-7.937	NA
1.03917359536407	B5-03822-P01-CH0	1093384	OK	0.2578274	0.0848555	0.0988469	-0.9573682	166.013	-24.995	-273.42	B5-03822-P02-CH0	1093384	OK	0.6013681	0.2106579	-0.7707008	0	-82.232	-103.516	2.355	B5-03822-P02-CH1	1093384	OK	0.8305125	-0.1330025	-0.5408875	0	-89.644	-84.619	1.626	B5-03822-P03-CH0	1093384	OK	0.8536939	-0.3353792	-0.3984062	0	-100.92	-62.378	6.059	B5-03822-P03-CH1	1093384	OK	0.5983402	0.8000878	0.0429943	0	-100.519	-28.102	0.117	B5-03822-P04-CH0	1093384	OK	0.7809062	-0.28639	0.5551272	0	-127.598	-39.949	5.795	B5-03822-P04-CH1	1093384	OK	0.746794	-0.6495903	0.1425875	0	-114.085	-34.062	-7.794	NA
1.04916564916565	B5-03822-P01-CH0	1093392	OK	0.2580606	0.0850971	0.0993467	-0.9572322	166.168	-24.915	-273.566	B5-03822-P02-CH0	1093392	OK	0.6013886	0.2172423	-0.7688547	0	-81.797	-103.343	1.687	B5-03822-P02-CH1	1093392	OK	0.8300187	-0.1325215	-0.5417628	0	-88.949	-84.882	2.537	B5-03822-P03-CH0	1093392	OK	0.8517082	-0.3364317	-0.4017547	0	-102.305	-61.568	5.706	B5-03822-P03-CH1	1093392	OK	0.5979572	0.8003525	0.0433951	0	-100.76	-28.122	0.26	B5-03822-P04-CH0	1093392	OK	0.7811289	-0.2861515	0.5549369	0	-127.683	-39.96	6.1	B5-03822-P04-CH1	1093392	OK	0.7469783	-0.6493951	0.1425113	0	-114.044	-34.066	-7.88	NA
1.05915770296723	B5-03822-P01-CH0	1093400	OK	0.2578044	0.0851682	0.0987969	-0.9573518	166.162	-25.067	-273.577	B5-03822-P02-CH0	1093400	OK	0.6016973	0.2257242	-0.7661651	0	-81.071	-103.339	1.066	B5-03822-P02-CH1	1093400	OK	0.828463	-0.1308983	-0.5445317	0	-88.988	-84.481	2.672	B5-03822-P03-CH0	1093400	OK	0.8512919	-0.3395418	-0.4000167	0	-101.519	-61.987	5.816	B5-03822-P03-CH1	1093400	OK	0.5985616	0.7998778	0.043812	0	-100.619	-28.412	0.465	B5-03822-P04-CH0	1093400	OK	0.7810074	-0.2866972	0.5548262	0	-127.725	-39.939	6.093	B5-03822-P04-CH1	1093400	OK	0.7466461	-0.6498294	0.1422721	0	-114.02	-34.022	-8.038	NA
1.0691497567688	B5-03822-P01-CH0	1093408	OK	0.2580913	0.0850604	0.0996563	-0.957195	166.156	-25.054	-273.573	B5-03822-P02-CH0	1093408	OK	0.6004362	0.2310205	-0.7655755	0	-80.598	-103.465	1.234	B5-03822-P02-CH1	1093408	OK	0.8274182	-0.1323478	-0.5457685	0	-88.547	-84.51	1.58	B5-03822-P03-CH0	1093408	OK	0.8506346	-0.3390157	-0.4018571	0	-102.094	-61.159	5.463	B5-03822-P03-CH1	1093408	OK	0.5980561	0.8002472	0.0439697	0	-100.676	-28.593	0.493	B5-03822-P04-CH0	1093408	OK	0.7811062	-0.286699	0.5546862	0	-127.528	-39.741	6.096	B5-03822-P04-CH1	1093408	OK	0.7470055	-0.6493176	0.1427218	0	-113.997	-34.272	-7.756	NA
1.07914181057038	B5-03822-P01-CH0	1093416	OK	0.257604	0.0853414	0.0989488	-0.9573746	166.199	-25.304	-273.449	B5-03822-P02-CH0	1093416	OK	0.5973658	0.2362659	-0.7663762	0	-81.613	-103.752	1.188	B5-03822-P02-CH1	1093416	OK	0.8263918	-0.1320548	-0.5473921	0	-88.578	-85.005	2.016	B5-03822-P03-CH0	1093416	OK	0.8503355	-0.3391511	-0.4023756	0	-101.519	-61.108	5.537	B5-03822-P03-CH1	1093416	OK	0.5989252	0.7995448	0.044909	0	-100.701	-28.985	0.6	B5-03822-P04-CH0	1093416	OK	0.7807184	-0.2884342	0.5543324	0	-127.303	-39.442	5.695	B5-03822-P04-CH1	1093416	OK	0.7467978	-0.6497701	0.141746	0	-113.969	-33.966	-8.192	NA
1.08913386437196	B5-03822-P01-CH0	1093424	OK	0.2575621	0.0851012	0.1000165	-0.9572963	166.102	-25.227	-273.393	B5-03822-P02-CH0	1093424	OK	0.5937484	0.239509	-0.7681785	0	-82.709	-103.309	2.082	B5-03822-P02-CH1	1093424	OK	0.8257707	-0.1326553	-0.5481836	0	-88.551	-85.017	1.803	B5-03822-P03-CH0	1093424	OK	0.8492402	-0.3399114	-0.4040436	0	-101.584	-61.995	6.448	B5-03822-P03-CH1	1093424	OK	0.5982327	0.8000411	0.0452981	0	-100.641	-29.127	0.798	B5-03822-P04-CH0	1093424	OK	0.7808822	-0.2882615	0.5541916	0	-127.375	-39.489	5.521	B5-03822-P04-CH1	1093424	OK	0.7476633	-0.6488845	0.1412391	0	-114.014	-33.54	-8.448	NA
1.09912591817354	B5-03822-P01-CH0	1093432	OK	0.2575021	0.0853602	0.1005372	-0.9572349	166.188	-25.093	-273.349	B5-03822-P02-CH0	1093432	OK	0.5931854	0.2440359	-0.7671881	0	-82.34	-102.544	1.623	B5-03822-P02-CH1	1093432	OK	0.8252885	-0.1317422	-0.5491291	0	-88.421	-84.205	1.554	B5-03822-P03-CH0	1093432	OK	0.8494803	-0.3393295	-0.4040282	0	-101.529	-61.562	6.088	B5-03822-P03-CH1	1093432	OK	0.5977115	0.8003702	0.0463511	0	-100.849	-28.914	0.854	B5-03822-P04-CH0	1093432	OK	0.7811167	-0.2886821	0.5536419	0	-127.524	-39.22	5.44	B5-03822-P04-CH1	1093432	OK	0.7478245	-0.648701	0.1412285	0	-114.116	-33.529	-8.342	NA
1.10911797197511	B5-03822-P01-CH0	1093440	OK	0.2574228	0.0854479	0.100567	-0.9572452	166.207	-25.184	-273.308	B5-03822-P02-CH0	1093440	OK	0.5927336	0.2509157	-0.7653158	0	-82.154	-102.854	1.33	B5-03822-P02-CH1	1093440	OK	0.8229605	-0.1327401	-0.5523731	0	-89.214	-84.219	0.652	B5-03822-P03-CH0	1093440	OK	0.8502645	-0.3389836	-0.4026665	0	-100.622	-61.232	5.546	B5-03822-P03-CH1	1093440	OK	0.5976234	0.8004066	0.0468569	0	-100.949	-28.869	0.695	B5-03822-P04-CH0	1093440	OK	0.7810362	-0.2890689	0.5535536	0	-127.5	-39.144	5.346	B5-03822-P04-CH1	1093440	OK	0.7477212	-0.6488819	0.1409443	0	-114.033	-33.581	-8.398	NA
1.11911002577669	B5-03822-P01-CH0	1093448	OK	0.2572102	0.086074	0.099835	-0.9573229	166.339	-25.283	-273.153	B5-03822-P02-CH0	1093448	OK	0.5918491	0.2561281	-0.7642728	0	-82.178	-102.926	2.047	B5-03822-P02-CH1	1093448	OK	0.8213275	-0.1341242	-0.5544653	0	-89.524	-84.86	2.203	B5-03822-P03-CH0	1093448	OK	0.8492663	-0.3390056	-0.4047493	0	-101.181	-60.815	6.228	B5-03822-P03-CH1	1093448	OK	0.5980132	0.8000591	0.0478082	0	-101.178	-28.67	0.66	B5-03822-P04-CH0	1093448	OK	0.7809324	-0.2896503	0.5533961	0	-127.684	-39.229	5.409	B5-03822-P04-CH1	1093448	OK	0.7470557	-0.6496645	0.1408679	0	-114.198	-33.706	-8.481	NA
1.12910207957827	B5-03822-P01-CH0	1093456	OK	0.2573919	0.0859783	0.1005864	-0.957204	166.38	-25.322	-273.25	B5-03822-P02-CH0	1093456	OK	0.5906311	0.26046	-0.7637509	0	-82.919	-103.555	1.5	B5-03822-P02-CH1	1093456	OK	0.8223237	-0.1330765	-0.5532399	0	-88.814	-84.279	2.016	B5-03822-P03-CH0	1093456	OK	0.8496783	-0.3414141	-0.4018497	0	-100.347	-61.102	5.356	B5-03822-P03-CH1	1093456	OK	0.5974641	0.8004706	0.0477865	0	-101.061	-28.738	0.542	B5-03822-P04-CH0	1093456	OK	0.7809423	-0.2897956	0.5533061	0	-127.564	-39.27	5.284	B5-03822-P04-CH1	1093456	OK	0.7473431	-0.6492068	0.1414524	0	-114.3	-34.016	-8.276	NA
1.13909413337985	B5-03822-P01-CH0	1093464	OK	0.257542	0.0853684	0.1015703	-0.9571143	166.185	-25.236	-273.415	B5-03822-P02-CH0	1093464	OK	0.591204	0.2626089	-0.7625709	0	-82.106	-102.93	1.044	B5-03822-P02-CH1	1093464	OK	0.8222647	-0.1333478	-0.5532623	0	-88.656	-83.967	1.746	B5-03822-P03-CH0	1093464	OK	0.8501486	-0.3388097	-0.4030576	0	-101.243	-61.638	6.044	B5-03822-P03-CH1	1093464	OK	0.5965086	0.8011708	0.0479869	0	-101.01	-28.525	0.641	B5-03822-P04-CH0	1093464	OK	0.7810302	-0.289656	0.5532551	0	-127.41	-39.148	5.463	B5-03822-P04-CH1	1093464	OK	0.748043	-0.6483992	0.1414572	0	-114.155	-33.854	-8.129	NA
1.14908618718143	B5-03822-P01-CH0	1093472	OK	0.2575663	0.0856673	0.101206	-0.9571197	166.287	-25.334	-273.325	B5-03822-P02-CH0	1093472	OK	0.5907245	0.267973	-0.7610749	0	-82.038	-103.978	2.45	B5-03822-P02-CH1	1093472	OK	0.82292	-0.1320743	-0.552593	0	-87.965	-83.639	1.292	B5-03822-P03-CH0	1093472	OK	0.8497112	-0.3399293	-0.4030373	0	-101.14	-61.668	5.885	B5-03822-P03-CH1	1093472	OK	0.5968562	0.8009155	0.0479278	0	-101.041	-28.624	0.638	B5-03822-P04-CH0	1093472	OK	0.7808181	-0.2901462	0.5532976	0	-127.411	-39.234	5.262	B5-03822-P04-CH1	1093472	OK	0.7477144	-0.6486718	0.1419438	0	-114.368	-34.161	-7.763	NA
1.159078240983	B5-03822-P01-CH0	1093480	OK	0.2575662	0.0854573	0.1013424	-0.9571241	166.226	-25.344	-273.484	B5-03822-P02-CH0	1093480	OK	0.5890549	0.2715399	-0.7611048	0	-82.358	-103.396	2.065	B5-03822-P02-CH1	1093480	OK	0.8215455	-0.132732	-0.5544774	0	-88.31	-84.152	0.946	B5-03822-P03-CH0	1093480	OK	0.8496586	-0.3402344	-0.4028905	0	-100.953	-61.481	5.834	B5-03822-P03-CH1	1093480	OK	0.5969275	0.8008705	0.047791	0	-101.117	-28.671	0.614	B5-03822-P04-CH0	1093480	OK	0.7805133	-0.2907473	0.5534122	0	-127.175	-39.014	5.256	B5-03822-P04-CH1	1093480	OK	0.7476935	-0.64867	0.1420625	0	-114.302	-34.24	-7.521	NA
1.16907029478458	B5-03822-P01-CH0	1093488	OK	0.2576607	0.0854137	0.1013975	-0.9570967	166.21	-25.392	-273.542	B5-03822-P02-CH0	1093488	OK	0.5879998	0.277382	-0.7598128	0	-82.631	-103.548	2.33	B5-03822-P02-CH1	1093488	OK	0.8207123	-0.1325489	-0.5557536	0	-88.513	-83.72	1.225	B5-03822-P03-CH0	1093488	OK	0.8493165	-0.3409721	-0.4029881	0	-100.947	-61.484	5.793	B5-03822-P03-CH1	1093488	OK	0.5965631	0.8011459	0.0477257	0	-101.015	-28.364	0.355	B5-03822-P04-CH0	1093488	OK	0.7805116	-0.2907327	0.5534221	0	-127.307	-39.177	5.174	B5-03822-P04-CH1	1093488	OK	0.7474333	-0.6488054	0.1428111	0	-114.359	-34.557	-7.307	NA
