Wav.Time	B5.03822.P01.CH0	Frame	State	Q0	Qx	Qy	Qz	Tx	Ty	Tz	B5.03822.P02.CH0	Frame.1	State.1	Q0.1	Qx.1	Qy.1	Qz.1	Tx.1	Ty.1	Tz.1	B5.03822.P02.CH1	Frame.2	State.2	Q0.2	Qx.2	Qy.2	Qz.2	Tx.2	Ty.2	Tz.2	B5.03822.P03.CH0	Frame.3	State.3	Q0.3	Qx.3	Qy.3	Qz.3	Tx.3	Ty.3	Tz.3	B5.03822.P03.CH1	Frame.4	State.4	Q0.4	Qx.4	Qy.4	Qz.4	Tx.4	Ty.4	Tz.4	B5.03822.P04.CH0	Frame.5	State.5	Q0.5	Qx.5	Qy.5	Qz.5	Tx.5	Ty.5	Tz.5	B5.03822.P04.CH1	Frame.6	State.6	Q0.6	Qx.6	Qy.6	Qz.6	Tx.6	Ty.6	Tz.6	X
0	B5-03822-P01-CH0	3614632	OK	0.2443896	0.0164198	0.0632278	-0.9674742	97.249	-17.561	-230.6	B5-03822-P02-CH0	3614632	OK	0.6978563	0.4227444	-0.5781727	0	-74.214	-100.626	2.109	B5-03822-P02-CH1	3614632	OK	0.7238844	-0.1958975	-0.6615252	0	-74.545	-79.555	1.168	B5-03822-P03-CH0	3614632	OK	0.8376235	-0.1863621	-0.5134744	0	-90.614	-60.386	9.011	B5-03822-P03-CH1	3614632	OK	0.8271839	-0.1289403	-0.5469379	0	-99.545	-32.168	7.995	B5-03822-P04-CH0	3614632	OK	0.7407875	-0.29109	0.6053929	0	-119.071	-42.094	8.586	B5-03822-P04-CH1	3614632	OK	0.7417297	-0.6683173	0.0564718	0	-107.164	-47.414	1.589	NA
0.00999177693055244	B5-03822-P01-CH0	3614640	OK	0.2443409	0.0162614	0.0631327	-0.9674954	97.202	-17.518	-230.678	B5-03822-P02-CH0	3614640	OK	0.6980885	0.4217367	-0.5786282	0	-74.228	-100.676	2.175	B5-03822-P02-CH1	3614640	OK	0.7248676	-0.1954916	-0.6605679	0	-74.657	-79.417	0.956	B5-03822-P03-CH0	3614640	OK	0.8390259	-0.1840058	-0.5120327	0	-90.831	-60.591	9.031	B5-03822-P03-CH1	3614640	OK	0.8271857	-0.1292727	-0.5468568	0	-99.531	-32.132	7.953	B5-03822-P04-CH0	3614640	OK	0.7404856	-0.2929405	0.6048693	0	-118.928	-41.722	8.334	B5-03822-P04-CH1	3614640	OK	0.7416738	-0.6683721	0.0565577	0	-107.144	-47.332	1.37	NA
0.0199835538611049	B5-03822-P01-CH0	3614648	OK	0.2443497	0.0162689	0.0630124	-0.9675009	97.197	-17.513	-230.685	B5-03822-P02-CH0	3614648	OK	0.6983071	0.4205878	-0.5792004	0	-74.238	-100.784	2.081	B5-03822-P02-CH1	3614648	OK	0.7261824	-0.1953043	-0.6591777	0	-74.312	-79.754	1.152	B5-03822-P03-CH0	3614648	OK	0.8405192	-0.1813849	-0.5105164	0	-91.312	-60.839	8.911	B5-03822-P03-CH1	3614648	OK	0.8270561	-0.1300597	-0.5468662	0	-99.583	-32.116	7.918	B5-03822-P04-CH0	3614648	OK	0.7397681	-0.3015194	0.6015224	0	-118.952	-42.673	9.409	B5-03822-P04-CH1	3614648	OK	0.7415988	-0.6684416	0.0567193	0	-107.177	-47.443	1.597	NA
0.0299753307916573	B5-03822-P01-CH0	3614656	OK	0.244536	0.0160896	0.0635082	-0.9674244	97.182	-17.466	-230.701	B5-03822-P02-CH0	3614656	OK	0.6982702	0.4193784	-0.5801211	0	-74.227	-100.868	1.947	B5-03822-P02-CH1	3614656	OK	0.7271508	-0.1952867	-0.6581146	0	-74.363	-79.902	1.155	B5-03822-P03-CH0	3614656	OK	0.8443084	-0.1765458	-0.5059396	0	-91.219	-60.665	9.09	B5-03822-P03-CH1	3614656	OK	0.8270184	-0.1381362	-0.5449394	0	-99.88	-31.792	7.84	B5-03822-P04-CH0	3614656	OK	0.7382898	-0.3074553	0.6003327	0	-118.582	-43.295	10.456	B5-03822-P04-CH1	3614656	OK	0.7419593	-0.6680175	0.0570004	0	-107.16	-47.486	1.513	NA
0.0399671077222098	B5-03822-P01-CH0	3614664	OK	0.2445972	0.0161019	0.0634707	-0.9674112	97.174	-17.441	-230.64	B5-03822-P02-CH0	3614664	OK	0.6975655	0.4140401	-0.5847847	0	-74.361	-100.898	2.016	B5-03822-P02-CH1	3614664	OK	0.7271858	-0.19512	-0.6581254	0	-74.883	-80.128	1.057	B5-03822-P03-CH0	3614664	OK	0.8476043	-0.1741163	-0.5012489	0	-91.57	-61.031	9.59	B5-03822-P03-CH1	3614664	OK	0.8276418	-0.1442745	-0.5423964	0	-99.997	-32.002	7.841	B5-03822-P04-CH0	3614664	OK	0.7355685	-0.3165914	0.5989231	0	-117.911	-42.398	9.185	B5-03822-P04-CH1	3614664	OK	0.7419586	-0.6680124	0.0570696	0	-107.218	-47.386	1.027	NA
0.0499588846527622	B5-03822-P01-CH0	3614672	OK	0.2446041	0.015774	0.0639801	-0.9673813	97.125	-17.387	-230.743	B5-03822-P02-CH0	3614672	OK	0.6962967	0.4138302	-0.586443	0	-74.659	-101.434	2.145	B5-03822-P02-CH1	3614672	OK	0.7289641	-0.1941866	-0.6564319	0	-74.773	-80.395	1.581	B5-03822-P03-CH0	3614672	OK	0.8527745	-0.1696622	-0.4939539	0	-91.872	-61.156	9.973	B5-03822-P03-CH1	3614672	OK	0.8285098	-0.1475275	-0.5401918	0	-100.145	-31.706	8.014	B5-03822-P04-CH0	3614672	OK	0.7340567	-0.3212572	0.5982931	0	-117.779	-41.792	8.229	B5-03822-P04-CH1	3614672	OK	0.7424394	-0.6674648	0.0572226	0	-107.301	-47.311	0.876	NA
0.0599506615833146	B5-03822-P01-CH0	3614680	OK	0.2445388	0.015848	0.0637987	-0.9674086	97.143	-17.388	-230.746	B5-03822-P02-CH0	3614680	OK	0.6943765	0.4143699	-0.5883356	0	-75.004	-101.995	1.944	B5-03822-P02-CH1	3614680	OK	0.7306771	-0.1952219	-0.6542166	0	-74.945	-81.047	1.233	B5-03822-P03-CH0	3614680	OK	0.8599822	-0.1632194	-0.4835184	0	-91.939	-61.181	10.301	B5-03822-P03-CH1	3614680	OK	0.8287023	-0.1519415	-0.5386708	0	-100.497	-31.619	7.735	B5-03822-P04-CH0	3614680	OK	0.7328676	-0.3240458	0.598247	0	-117.35	-41.09	8.386	B5-03822-P04-CH1	3614680	OK	0.7423012	-0.667574	0.0577396	0	-107.283	-47.49	0.985	NA
0.0699424385138671	B5-03822-P01-CH0	3614688	OK	0.2443079	0.0159484	0.0633723	-0.9674933	97.168	-17.397	-230.738	B5-03822-P02-CH0	3614688	OK	0.6930943	0.4131314	-0.5907138	0	-74.9	-102.452	1.863	B5-03822-P02-CH1	3614688	OK	0.7329981	-0.194781	-0.651747	0	-75.166	-81.191	1.672	B5-03822-P03-CH0	3614688	OK	0.8676972	-0.157268	-0.4715595	0	-92.377	-61.76	11.046	B5-03822-P03-CH1	3614688	OK	0.8302885	-0.1527677	-0.535988	0	-100.275	-31.085	7.634	B5-03822-P04-CH0	3614688	OK	0.7324125	-0.3213974	0.6002297	0	-117.405	-41.612	8.718	B5-03822-P04-CH1	3614688	OK	0.742241	-0.6676384	0.057769	0	-107.422	-47.4	0.959	NA
0.0799342154444195	B5-03822-P01-CH0	3614696	OK	0.2443534	0.0159624	0.0632699	-0.9674883	97.158	-17.376	-230.713	B5-03822-P02-CH0	3614696	OK	0.6903596	0.4110217	-0.5953694	0	-74.837	-102.423	2.233	B5-03822-P02-CH1	3614696	OK	0.7353104	-0.1951441	-0.6490281	0	-75.118	-81.685	2.016	B5-03822-P03-CH0	3614696	OK	0.8753471	-0.1491223	-0.459924	0	-93.18	-62.329	11	B5-03822-P03-CH1	3614696	OK	0.8297919	-0.1540997	-0.5363755	0	-100.729	-30.924	7.669	B5-03822-P04-CH0	3614696	OK	0.7332343	-0.3168678	0.6016331	0	-117.952	-41.702	8.468	B5-03822-P04-CH1	3614696	OK	0.7420858	-0.6677758	0.0581736	0	-107.547	-47.405	0.205	NA
0.089925992374972	B5-03822-P01-CH0	3614704	OK	0.2445855	0.0157822	0.0637762	-0.9673993	97.135	-17.349	-230.748	B5-03822-P02-CH0	3614704	OK	0.6870352	0.4077466	-0.6014361	0	-74.686	-102.871	1.515	B5-03822-P02-CH1	3614704	OK	0.737286	-0.1953392	-0.646724	0	-75.277	-82.15	1.562	B5-03822-P03-CH0	3614704	OK	0.8846774	-0.1396432	-0.4447984	0	-93.496	-62.857	11.357	B5-03822-P03-CH1	3614704	OK	0.8297458	-0.1541866	-0.5364218	0	-100.97	-30.928	7.788	B5-03822-P04-CH0	3614704	OK	0.7336403	-0.3137582	0.6027668	0	-117.775	-41.015	8.13	B5-03822-P04-CH1	3614704	OK	0.7426078	-0.66713	0.0589169	0	-107.649	-47.433	0.027	NA
0.0999177693055244	B5-03822-P01-CH0	3614712	OK	0.2445658	0.0158185	0.0637406	-0.9674061	97.164	-17.351	-230.737	B5-03822-P02-CH0	3614712	OK	0.6828519	0.4042503	-0.6085187	0	-75.214	-103.698	1.886	B5-03822-P02-CH1	3614712	OK	0.7388828	-0.1962003	-0.6446376	0	-75.712	-82.87	1.267	B5-03822-P03-CH0	3614712	OK	0.8930519	-0.1328587	-0.4298916	0	-94.203	-63.891	11.739	B5-03822-P03-CH1	3614712	OK	0.8309273	-0.1525294	-0.5350651	0	-100.584	-30.866	7.482	B5-03822-P04-CH0	3614712	OK	0.7330395	-0.3107212	0.6050665	0	-117.457	-40.778	6.848	B5-03822-P04-CH1	3614712	OK	0.7425962	-0.6670636	0.059808	0	-107.897	-47.639	0.101	NA
0.109909546236077	B5-03822-P01-CH0	3614720	OK	0.2445606	0.0157878	0.0637763	-0.9674055	97.178	-17.333	-230.721	B5-03822-P02-CH0	3614720	OK	0.6798346	0.3988912	-0.6153948	0	-75.097	-104.017	1.621	B5-03822-P02-CH1	3614720	OK	0.7411062	-0.1990756	-0.6411945	0	-75.961	-83.587	1.775	B5-03822-P03-CH0	3614720	OK	0.9012798	-0.1252642	-0.4147331	0	-94.311	-64.649	12.067	B5-03822-P03-CH1	3614720	OK	0.8309462	-0.1514147	-0.5353523	0	-100.759	-30.709	7.322	B5-03822-P04-CH0	3614720	OK	0.7336421	-0.3035617	0.6079634	0	-117.554	-41.202	6.922	B5-03822-P04-CH1	3614720	OK	0.7427003	-0.6668519	0.0608666	0	-108.139	-47.782	0.071	NA
0.119901323166629	B5-03822-P01-CH0	3614728	OK	0.2446803	0.0156776	0.0640049	-0.967362	97.19	-17.325	-230.731	B5-03822-P02-CH0	3614728	OK	0.6792361	0.390382	-0.6214823	0	-74.1	-104.583	0.813	B5-03822-P02-CH1	3614728	OK	0.7429252	-0.2033835	-0.6377282	0	-76.264	-84.086	1.224	B5-03822-P03-CH0	3614728	OK	0.9078827	-0.1190864	-0.4019545	0	-94.409	-65.544	12.314	B5-03822-P03-CH1	3614728	OK	0.8312186	-0.1513429	-0.5349496	0	-100.645	-30.801	7.223	B5-03822-P04-CH0	3614728	OK	0.7344608	-0.2929984	0.6121431	0	-118.213	-42.953	7.718	B5-03822-P04-CH1	3614728	OK	0.7429639	-0.6664607	0.0619264	0	-108.432	-47.828	-0.381	NA
0.129893100097182	B5-03822-P01-CH0	3614736	OK	0.2447635	0.0157254	0.0639272	-0.9673452	97.24	-17.326	-230.752	B5-03822-P02-CH0	3614736	OK	0.6770694	0.3820407	-0.6289848	0	-74.341	-105.243	1.589	B5-03822-P02-CH1	3614736	OK	0.7445528	-0.2095773	-0.6338126	0	-76.245	-84.37	0.942	B5-03822-P03-CH0	3614736	OK	0.9114787	-0.1157946	-0.3947128	0	-95.34	-66.325	12.133	B5-03822-P03-CH1	3614736	OK	0.8307244	-0.1520338	-0.535521	0	-100.824	-30.88	7.471	B5-03822-P04-CH0	3614736	OK	0.7343654	-0.2869693	0.6151066	0	-118.47	-43.003	7.485	B5-03822-P04-CH1	3614736	OK	0.7429644	-0.666305	0.0635733	0	-108.695	-48.064	-0.354	NA
0.139884877027734	B5-03822-P01-CH0	3614744	OK	0.2447245	0.0157047	0.0640151	-0.9673496	97.267	-17.336	-230.738	B5-03822-P02-CH0	3614744	OK	0.6744922	0.3732236	-0.6369963	0	-74.407	-105.365	1.638	B5-03822-P02-CH1	3614744	OK	0.7446666	-0.2158113	-0.631583	0	-76.497	-85.001	0.879	B5-03822-P03-CH0	3614744	OK	0.9150628	-0.1162602	-0.3861911	0	-95.146	-66.867	12.069	B5-03822-P03-CH1	3614744	OK	0.8300971	-0.1529533	-0.5362314	0	-100.79	-31.174	7.499	B5-03822-P04-CH0	3614744	OK	0.7351592	-0.2799	0.6174115	0	-119.403	-43.184	7.29	B5-03822-P04-CH1	3614744	OK	0.7425069	-0.6654225	0.0767876	0	-109.032	-50.406	1.915	NA
0.149876653958287	B5-03822-P01-CH0	3614752	OK	0.2447275	0.0156826	0.0640508	-0.9673469	97.236	-17.294	-230.617	B5-03822-P02-CH0	3614752	OK	0.6735016	0.363826	-0.6434487	0	-73.832	-105.154	1.238	B5-03822-P02-CH1	3614752	OK	0.7431215	-0.2238676	-0.6305979	0	-76.838	-85.206	0.831	B5-03822-P03-CH0	3614752	OK	0.9153299	-0.1225714	-0.383598	0	-95.081	-67.565	12.243	B5-03822-P03-CH1	3614752	OK	0.830272	-0.1538463	-0.5357048	0	-100.77	-31.08	7.459	B5-03822-P04-CH0	3614752	OK	0.735321	-0.2712222	0.621081	0	-120.023	-45.51	8.588	B5-03822-P04-CH1	3614752	OK	0.7438464	-0.6639199	0.0768304	0	-110.216	-49.638	1.116	NA
0.159868430888839	B5-03822-P01-CH0	3614760	OK	0.2450115	0.0154844	0.0648433	-0.9672254	97.208	-17.189	-230.591	B5-03822-P02-CH0	3614760	OK	0.6733581	0.3548582	-0.6485865	0	-73.531	-105.554	1.223	B5-03822-P02-CH1	3614760	OK	0.7425893	-0.2314805	-0.6284726	0	-76.153	-85.287	0.144	B5-03822-P03-CH0	3614760	OK	0.9129011	-0.1293044	-0.3871588	0	-95.415	-67.486	11.101	B5-03822-P03-CH1	3614760	OK	0.829272	-0.1623697	-0.5347373	0	-100.482	-31.387	7.564	B5-03822-P04-CH0	3614760	OK	0.7365716	-0.268109	0.6209507	0	-120.48	-46.145	8.201	B5-03822-P04-CH1	3614760	OK	0.7441019	-0.6632548	0.0800343	0	-109.414	-49.677	0.427	NA
0.169860207819391	B5-03822-P01-CH0	3614768	OK	0.2451325	0.0155193	0.0647867	-0.967198	97.247	-17.197	-230.595	B5-03822-P02-CH0	3614768	OK	0.6728729	0.3484797	-0.6525365	0	-73.652	-105.773	1.429	B5-03822-P02-CH1	3614768	OK	0.7404571	-0.2375382	-0.628728	0	-75.903	-85.665	0.305	B5-03822-P03-CH0	3614768	OK	0.908903	-0.1387954	-0.3932317	0	-94.65	-67.659	11.31	B5-03822-P03-CH1	3614768	OK	0.8277716	-0.1646644	-0.5363579	0	-100.565	-31.45	7.368	B5-03822-P04-CH0	3614768	OK	0.7369668	-0.2631201	0.6226137	0	-120.663	-45.362	6.561	B5-03822-P04-CH1	3614768	OK	0.7442614	-0.6629727	0.080884	0	-109.3	-49.731	1.143	NA
0.179851984749944	B5-03822-P01-CH0	3614776	OK	0.2451277	0.0154635	0.0649009	-0.9671924	97.241	-17.16	-230.607	B5-03822-P02-CH0	3614776	OK	0.6719166	0.3448141	-0.6554626	0	-73.572	-105.613	1.721	B5-03822-P02-CH1	3614776	OK	0.7380321	-0.2410156	-0.630254	0	-75.331	-85.656	-0.464	B5-03822-P03-CH0	3614776	OK	0.9017191	-0.1469538	-0.4065799	0	-93.831	-67.732	11.075	B5-03822-P03-CH1	3614776	OK	0.8272068	-0.1639738	-0.5374397	0	-100.459	-31.403	7.207	B5-03822-P04-CH0	3614776	OK	0.7374732	-0.2479829	0.628202	0	-121.111	-46.302	7.595	B5-03822-P04-CH1	3614776	OK	0.7436251	-0.6635851	0.0817095	0	-109.448	-50.598	2.012	NA
0.189843761680496	B5-03822-P01-CH0	3614784	OK	0.2450453	0.0155105	0.064897	-0.9672128	97.224	-17.078	-230.563	B5-03822-P02-CH0	3614784	OK	0.6711277	0.3424849	-0.6574889	0	-73.199	-104.835	1.706	B5-03822-P02-CH1	3614784	OK	0.7345278	-0.2393084	-0.6349806	0	-75.182	-85.214	0.749	B5-03822-P03-CH0	3614784	OK	0.8919838	-0.1522112	-0.4256721	0	-93.213	-67.658	10.175	B5-03822-P03-CH1	3614784	OK	0.8266302	-0.1643856	-0.5382006	0	-100.258	-31.23	7.304	B5-03822-P04-CH0	3614784	OK	0.7371947	-0.2403852	0.6314736	0	-121.346	-46.015	8.258	B5-03822-P04-CH1	3614784	OK	0.7438261	-0.663541	0.0802245	0	-109.315	-50.298	2.436	NA
0.199835538611049	B5-03822-P01-CH0	3614792	OK	0.2451381	0.0153093	0.0651294	-0.9671769	97.157	-17.044	-230.573	B5-03822-P02-CH0	3614792	OK	0.6722882	0.3420476	-0.6565303	0	-72.789	-104.586	1.503	B5-03822-P02-CH1	3614792	OK	0.7313933	-0.2348792	-0.6402309	0	-74.488	-84.468	0.701	B5-03822-P03-CH0	3614792	OK	0.8800342	-0.1568311	-0.4482676	0	-92.283	-67.079	9.723	B5-03822-P03-CH1	3614792	OK	0.8267691	-0.1676823	-0.5369688	0	-99.864	-31.338	6.982	B5-03822-P04-CH0	3614792	OK	0.7367639	-0.2385096	0.6326864	0	-121.218	-45.447	7.376	B5-03822-P04-CH1	3614792	OK	0.7442788	-0.6633955	0.0771718	0	-109.117	-49.251	0.204	NA
0.209827315541601	B5-03822-P01-CH0	3614800	OK	0.245003	0.0153528	0.0650534	-0.9672155	97.147	-17.034	-230.517	B5-03822-P02-CH0	3614800	OK	0.6740017	0.3436871	-0.653912	0	-72.901	-104.173	1.605	B5-03822-P02-CH1	3614800	OK	0.7263356	-0.2260239	-0.6491146	0	-74.316	-84.314	-0.072	B5-03822-P03-CH0	3614800	OK	0.8648475	-0.1620731	-0.4751538	0	-91.021	-66.193	9.3	B5-03822-P03-CH1	3614800	OK	0.8256971	-0.1696533	-0.5379983	0	-99.96	-31.573	6.938	B5-03822-P04-CH0	3614800	OK	0.7365934	-0.2351557	0.6341388	0	-121.09	-45.677	7.36	B5-03822-P04-CH1	3614800	OK	0.7442127	-0.6635408	0.0765575	0	-109.506	-49.356	0.808	NA
0.219819092472154	B5-03822-P01-CH0	3614808	OK	0.2446613	0.0153946	0.0647326	-0.9673229	97.114	-17.062	-230.439	B5-03822-P02-CH0	3614808	OK	0.6754028	0.3450658	-0.6517366	0	-73.12	-103.424	1.883	B5-03822-P02-CH1	3614808	OK	0.7204067	-0.2138569	-0.6597571	0	-73.798	-83.529	0.287	B5-03822-P03-CH0	3614808	OK	0.8455216	-0.1682695	-0.5067332	0	-89.816	-65.512	7.656	B5-03822-P03-CH1	3614808	OK	0.8254087	-0.1710469	-0.5379994	0	-99.732	-31.753	7.611	B5-03822-P04-CH0	3614808	OK	0.7363136	-0.2319032	0.6356597	0	-120.99	-45.794	8.384	B5-03822-P04-CH1	3614808	OK	0.7440156	-0.6637319	0.0768163	0	-109.287	-49.438	1.411	NA
0.229810869402706	B5-03822-P01-CH0	3614816	OK	0.2443456	0.0155191	0.0643152	-0.9674285	97.084	-17.073	-230.363	B5-03822-P02-CH0	3614816	OK	0.678197	0.3460608	-0.6482983	0	-73.052	-102.91	1.378	B5-03822-P02-CH1	3614816	OK	0.71424	-0.1982391	-0.6712395	0	-73.333	-82.85	-0.05	B5-03822-P03-CH0	3614816	OK	0.8263472	-0.1703695	-0.5367724	0	-88.12	-64.64	7.333	B5-03822-P03-CH1	3614816	OK	0.8240011	-0.1711888	-0.5401079	0	-100.118	-31.635	7.908	B5-03822-P04-CH0	3614816	OK	0.7362121	-0.2306472	0.636234	0	-121.19	-45.812	8.067	B5-03822-P04-CH1	3614816	OK	0.7436406	-0.6642263	0.0761711	0	-109.094	-49.382	1.522	NA
0.239802646333259	B5-03822-P01-CH0	3614824	OK	0.244121	0.0156445	0.063933	-0.9675085	97.075	-17.066	-230.341	B5-03822-P02-CH0	3614824	OK	0.6808557	0.3467381	-0.6451419	0	-73.013	-101.898	1.974	B5-03822-P02-CH1	3614824	OK	0.7097372	-0.1799238	-0.6811024	0	-72.859	-82.516	0.602	B5-03822-P03-CH0	3614824	OK	0.8101867	-0.1622116	-0.5632805	0	-85.988	-63.689	7.164	B5-03822-P03-CH1	3614824	OK	0.8235997	-0.1710512	-0.5407633	0	-100.063	-31.427	7.78	B5-03822-P04-CH0	3614824	OK	0.735585	-0.2335109	0.6359146	0	-120.723	-43.593	6.923	B5-03822-P04-CH1	3614824	OK	0.743345	-0.6657485	0.0649402	0	-108.59	-47.91	0.542	NA
0.249794423263811	B5-03822-P01-CH0	3614832	OK	0.2439566	0.0156235	0.0637855	-0.9675601	97.043	-17.106	-230.34	B5-03822-P02-CH0	3614832	OK	0.6846153	0.3480121	-0.6404604	0	-72.897	-101.467	1.955	B5-03822-P02-CH1	3614832	OK	0.7072803	-0.160197	-0.688543	0	-72.493	-82.055	0.322	B5-03822-P03-CH0	3614832	OK	0.792264	-0.148949	-0.5917194	0	-84.949	-62.67	4.559	B5-03822-P03-CH1	3614832	OK	0.8234518	-0.1692743	-0.5415471	0	-99.936	-31.159	7.456	B5-03822-P04-CH0	3614832	OK	0.7356125	-0.2306734	0.6369176	0	-120.792	-44.081	8.117	B5-03822-P04-CH1	3614832	OK	0.7426029	-0.6667088	0.0635637	0	-107.888	-48.21	1.161	NA
0.259786200194363	B5-03822-P01-CH0	3614840	OK	0.2433791	0.0156792	0.0630597	-0.9677522	97.007	-17.149	-230.335	B5-03822-P02-CH0	3614840	OK	0.688743	0.3494227	-0.6352456	0	-73.058	-100.638	2.194	B5-03822-P02-CH1	3614840	OK	0.7081222	-0.145616	-0.6909116	0	-72.003	-81.411	0.671	B5-03822-P03-CH0	3614840	OK	0.7817973	-0.1463936	-0.6061038	0	-83.808	-61.65	4.319	B5-03822-P03-CH1	3614840	OK	0.8239572	-0.1675334	-0.5413198	0	-99.527	-31.067	7.553	B5-03822-P04-CH0	3614840	OK	0.7352037	-0.2306424	0.6374007	0	-120.629	-43.571	7.65	B5-03822-P04-CH1	3614840	OK	0.7420582	-0.6675382	0.0611746	0	-107	-48.305	3.238	NA
0.269777977124916	B5-03822-P01-CH0	3614848	OK	0.2431695	0.0156255	0.0631381	-0.9678006	96.956	-17.105	-230.321	B5-03822-P02-CH0	3614848	OK	0.6934361	0.3488149	-0.6304558	0	-72.958	-100.016	1.933	B5-03822-P02-CH1	3614848	OK	0.7107227	-0.1385863	-0.6896862	0	-71.748	-80.752	1.265	B5-03822-P03-CH0	3614848	OK	0.7803893	-0.1498796	-0.6070656	0	-84.042	-61.455	4.517	B5-03822-P03-CH1	3614848	OK	0.8236622	-0.1649722	-0.542554	0	-99.618	-30.863	7.481	B5-03822-P04-CH0	3614848	OK	0.7339318	-0.2307792	0.6388154	0	-119.725	-42.52	7.226	B5-03822-P04-CH1	3614848	OK	0.7429774	-0.6670065	0.0555593	0	-107.492	-46.839	1.895	NA
0.279769754055468	B5-03822-P01-CH0	3614856	OK	0.2430116	0.0155864	0.0631568	-0.9678397	96.918	-17.117	-230.267	B5-03822-P02-CH0	3614856	OK	0.6976645	0.348643	-0.6258692	0	-72.877	-100.049	1.669	B5-03822-P02-CH1	3614856	OK	0.7107535	-0.1342928	-0.6905034	0	-72.25	-80.362	0.653	B5-03822-P03-CH0	3614856	OK	0.7797962	-0.1561848	-0.6062378	0	-84.836	-60.903	3.848	B5-03822-P03-CH1	3614856	OK	0.8246298	-0.166847	-0.540507	0	-99.654	-30.992	7.578	B5-03822-P04-CH0	3614856	OK	0.7341781	-0.2295224	0.6389851	0	-119.643	-42.383	8.104	B5-03822-P04-CH1	3614856	OK	0.7422931	-0.6678701	0.0543173	0	-107.303	-46.759	1.192	NA
0.289761530986021	B5-03822-P01-CH0	3614864	OK	0.242785	0.0155185	0.0629629	-0.9679103	96.88	-17.171	-230.25	B5-03822-P02-CH0	3614864	OK	0.700226	0.3507445	-0.6218214	0	-72.932	-99.484	1.965	B5-03822-P02-CH1	3614864	OK	0.7101211	-0.130685	-0.691845	0	-72.162	-80.072	0.782	B5-03822-P03-CH0	3614864	OK	0.7779372	-0.1632104	-0.6067751	0	-84.629	-60.655	3.627	B5-03822-P03-CH1	3614864	OK	0.8251034	-0.1594942	-0.5420018	0	-98.866	-30.735	7.814	B5-03822-P04-CH0	3614864	OK	0.7339943	-0.2319143	0.6383323	0	-119.712	-41.409	6.469	B5-03822-P04-CH1	3614864	OK	0.7425076	-0.6678321	0.051795	0	-107.595	-46.079	0.605	NA
0.299753307916573	B5-03822-P01-CH0	3614872	OK	0.2425677	0.0157411	0.0627369	-0.9679758	96.941	-17.16	-230.26	B5-03822-P02-CH0	3614872	OK	0.7029137	0.3526941	-0.6176723	0	-72.596	-98.662	1.363	B5-03822-P02-CH1	3614872	OK	0.7098745	-0.125606	-0.6930378	0	-71.855	-79.789	0.682	B5-03822-P03-CH0	3614872	OK	0.7767177	-0.1702153	-0.6064127	0	-84.093	-60.548	4.1	B5-03822-P03-CH1	3614872	OK	0.8243031	-0.1570834	-0.5439203	0	-99.346	-30.515	7.517	B5-03822-P04-CH0	3614872	OK	0.7343956	-0.2281856	0.6392139	0	-119.88	-42.459	8.881	B5-03822-P04-CH1	3614872	OK	0.741827	-0.6686122	0.0514819	0	-107.682	-46.816	2.402	NA
0.309745084847126	B5-03822-P01-CH0	3614880	OK	0.2424422	0.0159008	0.0624581	-0.9680227	96.963	-17.185	-230.246	B5-03822-P02-CH0	3614880	OK	0.7049842	0.354786	-0.6141043	0	-73.087	-98.674	1.375	B5-03822-P02-CH1	3614880	OK	0.7097864	-0.1182877	-0.6944143	0	-71.73	-79.58	0.36	B5-03822-P03-CH0	3614880	OK	0.7749694	-0.1771131	-0.6066741	0	-84.005	-60.327	3.922	B5-03822-P03-CH1	3614880	OK	0.8243671	-0.1540535	-0.5446893	0	-99.506	-30.405	7.797	B5-03822-P04-CH0	3614880	OK	0.7348188	-0.2312968	0.6376073	0	-120.31	-43.292	8.257	B5-03822-P04-CH1	3614880	OK	0.7427358	-0.6678477	0.048196	0	-107.58	-45.738	1.488	NA
0.319736861777678	B5-03822-P01-CH0	3614888	OK	0.2424477	0.015952	0.0627454	-0.9680019	96.972	-17.154	-230.232	B5-03822-P02-CH0	3614888	OK	0.7066261	0.3592042	-0.6096326	0	-73.732	-98.315	2.916	B5-03822-P02-CH1	3614888	OK	0.7092843	-0.1085634	-0.6965126	0	-71.771	-79.417	0.745	B5-03822-P03-CH0	3614888	OK	0.7729877	-0.1853341	-0.6067465	0	-84.157	-60.377	3.711	B5-03822-P03-CH1	3614888	OK	0.8243933	-0.151531	-0.5453567	0	-99.728	-30.39	7.557	B5-03822-P04-CH0	3614888	OK	0.7346261	-0.2318596	0.637625	0	-120.019	-42.687	8.144	B5-03822-P04-CH1	3614888	OK	0.7432603	-0.6672696	0.0481194	0	-107.604	-45.446	2.03	NA
0.32972863870823	B5-03822-P01-CH0	3614896	OK	0.2423181	0.0157962	0.0630832	-0.9680149	96.932	-17.179	-230.291	B5-03822-P02-CH0	3614896	OK	0.7107187	0.3661744	-0.6006624	0	-73.688	-98.78	2.339	B5-03822-P02-CH1	3614896	OK	0.7086369	-0.0982048	-0.6987057	0	-71.489	-79.464	0.978	B5-03822-P03-CH0	3614896	OK	0.7730234	-0.1950057	-0.6036618	0	-83.689	-59.99	3.592	B5-03822-P03-CH1	3614896	OK	0.8254	-0.1491635	-0.5444861	0	-99.643	-30.155	7.234	B5-03822-P04-CH0	3614896	OK	0.7342582	-0.2336527	0.6373941	0	-119.61	-41.948	7.886	B5-03822-P04-CH1	3614896	OK	0.7430016	-0.6675457	0.0482838	0	-107.868	-45.67	0.492	NA
0.339720415638783	B5-03822-P01-CH0	3614904	OK	0.2422746	0.0157495	0.0634211	-0.9680045	96.883	-17.187	-230.299	B5-03822-P02-CH0	3614904	OK	0.7129392	0.3745685	-0.5928036	0	-73.757	-98.812	1.708	B5-03822-P02-CH1	3614904	OK	0.7074535	-0.087852	-0.7012785	0	-70.493	-79.006	-0.033	B5-03822-P03-CH0	3614904	OK	0.7734468	-0.2060276	-0.5994436	0	-83.384	-59.892	3.16	B5-03822-P03-CH1	3614904	OK	0.8247595	-0.1488621	-0.5455381	0	-100.243	-30.301	7.374	B5-03822-P04-CH0	3614904	OK	0.7349508	-0.2460444	0.6319094	0	-118.96	-40.506	7.703	B5-03822-P04-CH1	3614904	OK	0.7428415	-0.6674328	0.0521526	0	-107.471	-46.587	2.158	NA
0.349712192569335	B5-03822-P01-CH0	3614912	OK	0.24205	0.0158286	0.0632799	-0.9680686	96.857	-17.22	-230.339	B5-03822-P02-CH0	3614912	OK	0.7144798	0.3836151	-0.5851138	0	-73.69	-98.371	0.755	B5-03822-P02-CH1	3614912	OK	0.7033678	-0.0774283	-0.7065964	0	-70.391	-79.049	-0.113	B5-03822-P03-CH0	3614912	OK	0.7730834	-0.2172033	-0.5959571	0	-83.528	-59.886	3.505	B5-03822-P03-CH1	3614912	OK	0.8245308	-0.1470131	-0.5463845	0	-100.552	-30.34	7.41	B5-03822-P04-CH0	3614912	OK	0.7354543	-0.2536022	0.6283255	0	-118.864	-40.321	8.479	B5-03822-P04-CH1	3614912	OK	0.7429622	-0.6674211	0.0505592	0	-107.61	-46.283	2.114	NA
0.359703969499888	B5-03822-P01-CH0	3614920	OK	0.2419621	0.0157266	0.0636206	-0.96807	96.779	-17.252	-230.368	B5-03822-P02-CH0	3614920	OK	0.713658	0.3934621	-0.5795514	0	-74.523	-98.097	1.294	B5-03822-P02-CH1	3614920	OK	0.6994197	-0.0659886	-0.7116584	0	-69.908	-78.954	0.228	B5-03822-P03-CH0	3614920	OK	0.7750276	-0.2296943	-0.5887043	0	-83.099	-59.672	3.345	B5-03822-P03-CH1	3614920	OK	0.8251055	-0.1459126	-0.5458117	0	-100.381	-30.458	7.392	B5-03822-P04-CH0	3614920	OK	0.7358665	-0.2607273	0.6249174	0	-118.9	-39.886	8.314	B5-03822-P04-CH1	3614920	OK	0.7433929	-0.6670171	0.0495494	0	-107.778	-45.973	1.698	NA
0.36969574643044	B5-03822-P01-CH0	3614928	OK	0.2417042	0.0157727	0.0636584	-0.9681311	96.725	-17.314	-230.39	B5-03822-P02-CH0	3614928	OK	0.7134172	0.4031541	-0.5731515	0	-74.998	-98.004	1.503	B5-03822-P02-CH1	3614928	OK	0.6948189	-0.0532861	-0.7172079	0	-69.625	-78.847	0.023	B5-03822-P03-CH0	3614928	OK	0.7795918	-0.2452083	-0.5762895	0	-83.134	-59.271	3.048	B5-03822-P03-CH1	3614928	OK	0.8252748	-0.1432775	-0.5462536	0	-100.317	-30.204	7.488	B5-03822-P04-CH0	3614928	OK	0.7364395	-0.2642279	0.6227684	0	-119.217	-40.834	8.619	B5-03822-P04-CH1	3614928	OK	0.7435639	-0.6668731	0.0489183	0	-107.96	-45.824	1.575	NA
0.379687523360993	B5-03822-P01-CH0	3614936	OK	0.2412591	0.016067	0.0630573	-0.9682766	96.696	-17.404	-230.386	B5-03822-P02-CH0	3614936	OK	0.7135692	0.4132774	-0.5657038	0	-75.346	-97.545	1.944	B5-03822-P02-CH1	3614936	OK	0.6902799	-0.0391001	-0.7224852	0	-69.674	-78.831	0.534	B5-03822-P03-CH0	3614936	OK	0.7885798	-0.2625759	-0.5560537	0	-82.887	-59.243	4.186	B5-03822-P03-CH1	3614936	OK	0.8249947	-0.1417684	-0.5470699	0	-100.326	-30.134	7.966	B5-03822-P04-CH0	3614936	OK	0.7369381	-0.2691321	0.6200727	0	-119.292	-40.659	8.672	B5-03822-P04-CH1	3614936	OK	0.7433404	-0.6671598	0.0484031	0	-108.141	-45.789	1.909	NA
0.389679300291545	B5-03822-P01-CH0	3614944	OK	0.2408951	0.0163567	0.0626893	-0.9683863	96.675	-17.475	-230.398	B5-03822-P02-CH0	3614944	OK	0.7143115	0.4220884	-0.5582119	0	-75.934	-97.847	2.701	B5-03822-P02-CH1	3614944	OK	0.6875099	-0.0248867	-0.7257484	0	-69.289	-78.343	0.814	B5-03822-P03-CH0	3614944	OK	0.7986811	-0.2790584	-0.5331369	0	-83.522	-59.862	4.898	B5-03822-P03-CH1	3614944	OK	0.8246876	-0.1408038	-0.5477816	0	-100.161	-30.359	8.595	B5-03822-P04-CH0	3614944	OK	0.7371503	-0.2744351	0.6174907	0	-119.008	-40.068	8.766	B5-03822-P04-CH1	3614944	OK	0.7432377	-0.6672922	0.0481545	0	-108.295	-45.715	1.804	NA
0.399671077222098	B5-03822-P01-CH0	3614952	OK	0.2405237	0.0163058	0.062633	-0.9684831	96.532	-17.588	-230.355	B5-03822-P02-CH0	3614952	OK	0.7162583	0.4290563	-0.5503497	0	-75.82	-97.909	2.376	B5-03822-P02-CH1	3614952	OK	0.6865116	-0.0125766	-0.7270101	0	-68.897	-78.503	0.303	B5-03822-P03-CH0	3614952	OK	0.8087033	-0.2899414	-0.5117939	0	-84.618	-60.148	5.229	B5-03822-P03-CH1	3614952	OK	0.8235435	-0.1398672	-0.5497393	0	-100.579	-30.362	8.018	B5-03822-P04-CH0	3614952	OK	0.7383685	-0.2762715	0.6152122	0	-119.287	-39.843	7.794	B5-03822-P04-CH1	3614952	OK	0.7434373	-0.667077	0.0480549	0	-108.448	-45.611	1.704	NA
0.40966285415265	B5-03822-P01-CH0	3614960	OK	0.2401329	0.0163045	0.0626033	-0.9685821	96.431	-17.684	-230.369	B5-03822-P02-CH0	3614960	OK	0.7173649	0.4356	-0.5437281	0	-76.099	-97.71	1.801	B5-03822-P02-CH1	3614960	OK	0.6872652	-0.0051827	-0.7263881	0	-68.652	-78.512	0.147	B5-03822-P03-CH0	3614960	OK	0.8213217	-0.297208	-0.4869271	0	-84.35	-60.557	6.348	B5-03822-P03-CH1	3614960	OK	0.8246214	-0.1391118	-0.5483133	0	-100.043	-30.394	8.388	B5-03822-P04-CH0	3614960	OK	0.7385153	-0.2763056	0.6150206	0	-118.817	-40.391	9.298	B5-03822-P04-CH1	3614960	OK	0.7436448	-0.6668182	0.0484346	0	-108.613	-45.573	1.642	NA
0.419654631083202	B5-03822-P01-CH0	3614968	OK	0.239751	0.016509	0.0620997	-0.9687056	96.376	-17.79	-230.361	B5-03822-P02-CH0	3614968	OK	0.7182569	0.4414937	-0.5377643	0	-76.673	-97.665	1.822	B5-03822-P02-CH1	3614968	OK	0.6878333	-0.0005384	-0.7258685	0	-68.913	-78.673	0.378	B5-03822-P03-CH0	3614968	OK	0.8326848	-0.3014348	-0.4645138	0	-85.055	-60.707	7.232	B5-03822-P03-CH1	3614968	OK	0.8242748	-0.1419149	-0.5481161	0	-99.996	-30.08	7.832	B5-03822-P04-CH0	3614968	OK	0.7392953	-0.2758458	0.6142895	0	-118.925	-40.566	9.233	B5-03822-P04-CH1	3614968	OK	0.7434643	-0.6669717	0.0490879	0	-108.713	-45.681	1.87	NA
0.429646408013755	B5-03822-P01-CH0	3614976	OK	0.2396066	0.0166749	0.0619813	-0.9687461	96.3	-17.828	-230.289	B5-03822-P02-CH0	3614976	OK	0.7195797	0.4461216	-0.5321471	0	-76.984	-97.733	1.054	B5-03822-P02-CH1	3614976	OK	0.6893687	0.0041319	-0.7243989	0	-68.923	-79.199	0.591	B5-03822-P03-CH0	3614976	OK	0.8419916	-0.3039274	-0.4457334	0	-85.849	-60.909	7.678	B5-03822-P03-CH1	3614976	OK	0.8241966	-0.1411164	-0.5484398	0	-99.977	-30.063	7.932	B5-03822-P04-CH0	3614976	OK	0.7398792	-0.2771047	0.6130186	0	-119.128	-40.135	7.516	B5-03822-P04-CH1	3614976	OK	0.7435527	-0.6668194	0.0498132	0	-108.952	-45.729	1.909	NA
0.439638184944307	B5-03822-P01-CH0	3614984	OK	0.2393613	0.0165866	0.0618083	-0.9688193	96.186	-17.917	-230.242	B5-03822-P02-CH0	3614984	OK	0.7204533	0.449644	-0.5279843	0	-77.336	-97.5	1.201	B5-03822-P02-CH1	3614984	OK	0.6904444	0.0084091	-0.7233366	0	-69.053	-79.174	0.241	B5-03822-P03-CH0	3614984	OK	0.8489204	-0.3018261	-0.4338608	0	-86.48	-61.096	8.444	B5-03822-P03-CH1	3614984	OK	0.8243869	-0.1400942	-0.5484157	0	-99.824	-30.04	7.899	B5-03822-P04-CH0	3614984	OK	0.7401777	-0.2761349	0.6130959	0	-118.904	-40.445	8.549	B5-03822-P04-CH1	3614984	OK	0.7437611	-0.6665596	0.0501769	0	-109.029	-45.597	1.498	NA
0.44962996187486	B5-03822-P01-CH0	3614992	OK	0.2391975	0.0167267	0.0614906	-0.9688775	96.114	-17.984	-230.079	B5-03822-P02-CH0	3614992	OK	0.721654	0.4521544	-0.5241869	0	-77.737	-97.37	2.03	B5-03822-P02-CH1	3614992	OK	0.6911306	0.0102441	-0.7226573	0	-68.958	-78.789	0.255	B5-03822-P03-CH0	3614992	OK	0.855112	-0.2999396	-0.4228708	0	-85.983	-61.585	9.034	B5-03822-P03-CH1	3614992	OK	0.8243861	-0.1393271	-0.5486124	0	-99.728	-29.976	7.833	B5-03822-P04-CH0	3614992	OK	0.7410257	-0.2759503	0.6121539	0	-118.642	-40.068	9.23	B5-03822-P04-CH1	3614992	OK	0.7438258	-0.6664292	0.0509445	0	-108.993	-45.644	1.621	NA
0.459621738805412	B5-03822-P01-CH0	3615000	OK	0.2390814	0.0169577	0.0610376	-0.9689308	96.101	-18.048	-229.945	B5-03822-P02-CH0	3615000	OK	0.7248303	0.4544474	-0.5177824	0	-78.039	-97.573	1.735	B5-03822-P02-CH1	3615000	OK	0.6909971	0.0082131	-0.7228109	0	-69.056	-78.659	0.343	B5-03822-P03-CH0	3615000	OK	0.8593835	-0.2984122	-0.4152231	0	-86.205	-61.709	9.847	B5-03822-P03-CH1	3615000	OK	0.8240498	-0.139119	-0.5491702	0	-99.773	-30.018	7.866	B5-03822-P04-CH0	3615000	OK	0.7416959	-0.276219	0.6112203	0	-118.822	-40.184	8.758	B5-03822-P04-CH1	3615000	OK	0.7437003	-0.6665159	0.0516377	0	-109.066	-45.798	1.767	NA
0.469613515735965	B5-03822-P01-CH0	3615008	OK	0.2390589	0.0170346	0.0607059	-0.9689558	96.072	-18.113	-229.847	B5-03822-P02-CH0	3615008	OK	0.7283634	0.4567564	-0.5107449	0	-77.934	-97.255	1.069	B5-03822-P02-CH1	3615008	OK	0.6901394	0.0009121	-0.7236759	0	-69.152	-78.53	0.65	B5-03822-P03-CH0	3615008	OK	0.8619289	-0.2988721	-0.4095778	0	-86.781	-61.59	9.304	B5-03822-P03-CH1	3615008	OK	0.8239216	-0.1390259	-0.549386	0	-99.721	-30.085	7.928	B5-03822-P04-CH0	3615008	OK	0.7417586	-0.2771711	0.610713	0	-118.656	-39.946	8.038	B5-03822-P04-CH1	3615008	OK	0.7437132	-0.6664486	0.0523162	0	-108.961	-45.925	1.885	NA
0.479605292666517	B5-03822-P01-CH0	3615016	OK	0.2390587	0.0169329	0.0604674	-0.9689726	96.015	-18.186	-229.711	B5-03822-P02-CH0	3615016	OK	0.7319208	0.4578677	-0.5046278	0	-77.708	-97.339	0.398	B5-03822-P02-CH1	3615016	OK	0.6906589	-0.0099328	-0.7231124	0	-68.384	-78.187	-0.288	B5-03822-P03-CH0	3615016	OK	0.8643192	-0.3009504	-0.4029654	0	-86.98	-61.703	9.202	B5-03822-P03-CH1	3615016	OK	0.8238426	-0.1390976	-0.5494863	0	-99.695	-30.116	7.793	B5-03822-P04-CH0	3615016	OK	0.7416673	-0.277635	0.6106131	0	-118.33	-39.685	8.105	B5-03822-P04-CH1	3615016	OK	0.7438739	-0.666237	0.052724	0	-108.944	-45.85	1.503	NA
0.48959706959707	B5-03822-P01-CH0	3615024	OK	0.2391528	0.016963	0.0602487	-0.9689625	96.011	-18.249	-229.614	B5-03822-P02-CH0	3615024	OK	0.7332113	0.4588689	-0.5018371	0	-77.827	-97.374	-0.004	B5-03822-P02-CH1	3615024	OK	0.6897445	-0.0176533	-0.7238376	0	-68.413	-78.412	-0.213	B5-03822-P03-CH0	3615024	OK	0.8663111	-0.3013188	-0.3983868	0	-87.192	-61.824	9.55	B5-03822-P03-CH1	3615024	OK	0.8237884	-0.1395401	-0.5494554	0	-99.657	-30.205	7.746	B5-03822-P04-CH0	3615024	OK	0.741654	-0.2793951	0.6098259	0	-118.26	-39.325	7.208	B5-03822-P04-CH1	3615024	OK	0.7439206	-0.6661332	0.0533737	0	-108.96	-46.001	1.581	NA
0.499588846527622	B5-03822-P01-CH0	3615032	OK	0.2393408	0.0171799	0.0598268	-0.9689384	96.059	-18.256	-229.517	B5-03822-P02-CH0	3615032	OK	0.7332145	0.4602148	-0.5005985	0	-78.239	-97.539	1.114	B5-03822-P02-CH1	3615032	OK	0.689447	-0.0235467	-0.7239534	0	-68.094	-78.544	0.556	B5-03822-P03-CH0	3615032	OK	0.8678679	-0.3003721	-0.3957043	0	-87.171	-61.975	9.564	B5-03822-P03-CH1	3615032	OK	0.8236417	-0.1403477	-0.5494697	0	-99.681	-30.266	7.787	B5-03822-P04-CH0	3615032	OK	0.7406232	-0.2764478	0.6124165	0	-118.502	-40.553	8.659	B5-03822-P04-CH1	3615032	OK	0.7437653	-0.666229	0.0543338	0	-108.822	-46.23	1.931	NA
0.509580623458174	B5-03822-P01-CH0	3615040	OK	0.2396402	0.0171657	0.0599366	-0.9688578	96.058	-18.201	-229.413	B5-03822-P02-CH0	3615040	OK	0.7342901	0.4608685	-0.4984157	0	-77.926	-97.779	0.4	B5-03822-P02-CH1	3615040	OK	0.6867361	-0.0296366	-0.7263024	0	-68.492	-78.415	0.341	B5-03822-P03-CH0	3615040	OK	0.868175	-0.2973204	-0.397332	0	-87.61	-61.991	9.38	B5-03822-P03-CH1	3615040	OK	0.8237635	-0.1408188	-0.5491665	0	-99.608	-30.278	7.777	B5-03822-P04-CH0	3615040	OK	0.7410603	-0.2762353	0.6119835	0	-118.497	-40.472	8.454	B5-03822-P04-CH1	3615040	OK	0.7439506	-0.6659721	0.0549429	0	-108.782	-46.348	2.122	NA
0.519572400388727	B5-03822-P01-CH0	3615048	OK	0.2398352	0.0170667	0.0598577	-0.9688162	96.07	-18.229	-229.342	B5-03822-P02-CH0	3615048	OK	0.7339632	0.462405	-0.4974733	0	-78.052	-97.337	0.614	B5-03822-P02-CH1	3615048	OK	0.683862	-0.0369418	-0.7286755	0	-68.579	-78.484	-0.033	B5-03822-P03-CH0	3615048	OK	0.8685331	-0.2942975	-0.3987973	0	-87.678	-61.973	9.427	B5-03822-P03-CH1	3615048	OK	0.8239269	-0.1412559	-0.5488089	0	-99.514	-30.336	7.695	B5-03822-P04-CH0	3615048	OK	0.7413313	-0.2761496	0.6116937	0	-118.45	-40.578	8.445	B5-03822-P04-CH1	3615048	OK	0.7439829	-0.6659308	0.0550068	0	-108.802	-46.409	1.699	NA
0.529564177319279	B5-03822-P01-CH0	3615056	OK	0.2398439	0.0170468	0.0595566	-0.968833	96.1	-18.242	-229.307	B5-03822-P02-CH0	3615056	OK	0.7359052	0.461854	-0.4951105	0	-77.937	-97.924	-0.11	B5-03822-P02-CH1	3615056	OK	0.6819784	-0.0457758	-0.7299384	0	-68.247	-78.28	0.151	B5-03822-P03-CH0	3615056	OK	0.8677266	-0.2903873	-0.4033928	0	-87.958	-61.916	9.536	B5-03822-P03-CH1	3615056	OK	0.8239354	-0.1417098	-0.5486791	0	-99.49	-30.412	7.692	B5-03822-P04-CH0	3615056	OK	0.7416943	-0.2762623	0.6112026	0	-118.501	-40.638	8.548	B5-03822-P04-CH1	3615056	OK	0.7439142	-0.6660056	0.0550296	0	-108.618	-46.426	1.721	NA
0.539555954249832	B5-03822-P01-CH0	3615064	OK	0.2398978	0.0172068	0.0590707	-0.9688465	96.172	-18.242	-229.232	B5-03822-P02-CH0	3615064	OK	0.737089	0.4618249	-0.4933737	0	-77.922	-98.005	0.368	B5-03822-P02-CH1	3615064	OK	0.6798101	-0.0525416	-0.7315037	0	-68.246	-78.153	0.194	B5-03822-P03-CH0	3615064	OK	0.8672026	-0.2861456	-0.4075297	0	-87.751	-61.951	9.728	B5-03822-P03-CH1	3615064	OK	0.8236366	-0.1423985	-0.5489493	0	-99.604	-30.477	7.765	B5-03822-P04-CH0	3615064	OK	0.7419853	-0.276708	0.6106476	0	-118.591	-40.642	8.439	B5-03822-P04-CH1	3615064	OK	0.7435414	-0.6663996	0.0552976	0	-108.563	-46.65	2.159	NA
0.549547731180384	B5-03822-P01-CH0	3615072	OK	0.2400889	0.0172303	0.0588069	-0.9688148	96.262	-18.272	-229.282	B5-03822-P02-CH0	3615072	OK	0.7388013	0.4628257	-0.4898623	0	-77.344	-98.192	0.027	B5-03822-P02-CH1	3615072	OK	0.6775551	-0.0590493	-0.7330977	0	-68.434	-78.497	0.523	B5-03822-P03-CH0	3615072	OK	0.8666646	-0.2820063	-0.4115396	0	-87.418	-62.259	9.947	B5-03822-P03-CH1	3615072	OK	0.8235245	-0.1430737	-0.548942	0	-99.645	-30.634	7.927	B5-03822-P04-CH0	3615072	OK	0.7420275	-0.2774934	0.6102398	0	-118.552	-40.666	8.347	B5-03822-P04-CH1	3615072	OK	0.7433757	-0.6665811	0.0553361	0	-108.679	-46.747	2.042	NA
0.559539508110937	B5-03822-P01-CH0	3615080	OK	0.2403808	0.0171863	0.0588667	-0.9687396	96.32	-18.246	-229.344	B5-03822-P02-CH0	3615080	OK	0.7389008	0.4643565	-0.4882609	0	-77.549	-98.677	0.675	B5-03822-P02-CH1	3615080	OK	0.6769614	-0.0674021	-0.7329258	0	-68.1	-78.673	0.324	B5-03822-P03-CH0	3615080	OK	0.8644904	-0.276723	-0.4196198	0	-88.018	-62.391	9.446	B5-03822-P03-CH1	3615080	OK	0.8236299	-0.1435749	-0.5486529	0	-99.624	-30.743	8.011	B5-03822-P04-CH0	3615080	OK	0.7421853	-0.2779829	0.609825	0	-118.514	-40.729	8.34	B5-03822-P04-CH1	3615080	OK	0.743457	-0.6664665	0.0556246	0	-108.658	-46.778	1.992	NA
0.569531285041489	B5-03822-P01-CH0	3615088	OK	0.2406102	0.0173134	0.0587295	-0.9686887	96.421	-18.241	-229.38	B5-03822-P02-CH0	3615088	OK	0.7389965	0.4660673	-0.4864826	0	-77.256	-99.001	-0.226	B5-03822-P02-CH1	3615088	OK	0.6767708	-0.0761603	-0.7322437	0	-68.28	-78.802	0.687	B5-03822-P03-CH0	3615088	OK	0.8623664	-0.2684961	-0.4292249	0	-88.112	-62.476	9.757	B5-03822-P03-CH1	3615088	OK	0.8235429	-0.1440883	-0.5486489	0	-99.706	-30.852	8.016	B5-03822-P04-CH0	3615088	OK	0.7433147	-0.2820138	0.60659	0	-118.448	-41.427	8.82	B5-03822-P04-CH1	3615088	OK	0.7432802	-0.6666374	0.0559387	0	-108.633	-46.873	1.931	NA
0.579523061972042	B5-03822-P01-CH0	3615096	OK	0.2408329	0.0172596	0.059102	-0.9686117	96.49	-18.147	-229.493	B5-03822-P02-CH0	3615096	OK	0.7367567	0.4672307	-0.4887587	0	-77.192	-99.043	0.613	B5-03822-P02-CH1	3615096	OK	0.6786248	-0.0847691	-0.729577	0	-68.361	-78.791	0.621	B5-03822-P03-CH0	3615096	OK	0.8597636	-0.255671	-0.4420848	0	-88.382	-62.415	9.803	B5-03822-P03-CH1	3615096	OK	0.8236774	-0.1439114	-0.5484934	0	-99.762	-30.839	8.074	B5-03822-P04-CH0	3615096	OK	0.7437985	-0.2844181	0.6048721	0	-118.461	-40.927	8.403	B5-03822-P04-CH1	3615096	OK	0.743359	-0.6665138	0.056362	0	-108.649	-47.05	2.266	NA
0.589514838902594	B5-03822-P01-CH0	3615104	OK	0.2409889	0.0173404	0.0589987	-0.9685777	96.564	-18.093	-229.538	B5-03822-P02-CH0	3615104	OK	0.7342329	0.4662463	-0.4934738	0	-76.886	-99.687	0.105	B5-03822-P02-CH1	3615104	OK	0.6815182	-0.0944508	-0.7256804	0	-68.488	-78.955	0.637	B5-03822-P03-CH0	3615104	OK	0.8566181	-0.2407756	-0.456325	0	-88.627	-62.552	9.886	B5-03822-P03-CH1	3615104	OK	0.8238708	-0.1434639	-0.5483202	0	-99.781	-30.778	8.07	B5-03822-P04-CH0	3615104	OK	0.7431135	-0.288742	0.6036641	0	-118.266	-40.047	6.555	B5-03822-P04-CH1	3615104	OK	0.7432459	-0.6666451	0.0563013	0	-108.588	-47.041	2.302	NA
0.599506615833146	B5-03822-P01-CH0	3615112	OK	0.2409984	0.0172299	0.059119	-0.96857	96.595	-18.071	-229.562	B5-03822-P02-CH0	3615112	OK	0.7290057	0.4651929	-0.5021417	0	-76.846	-99.938	0.596	B5-03822-P02-CH1	3615112	OK	0.684257	-0.1020281	-0.7220683	0	-68.921	-79.137	0.637	B5-03822-P03-CH0	3615112	OK	0.8539594	-0.2246608	-0.4693409	0	-88.942	-62.686	10.039	B5-03822-P03-CH1	3615112	OK	0.824173	-0.1426573	-0.5480764	0	-99.79	-30.726	7.971	B5-03822-P04-CH0	3615112	OK	0.7428957	-0.2909537	0.6028697	0	-118.025	-40.21	7.17	B5-03822-P04-CH1	3615112	OK	0.7433162	-0.6666159	0.0557159	0	-108.591	-46.865	1.906	NA
0.609498392763699	B5-03822-P01-CH0	3615120	OK	0.240908	0.0171416	0.0586415	-0.9686231	96.594	-18.105	-229.635	B5-03822-P02-CH0	3615120	OK	0.7236184	0.462965	-0.5118983	0	-76.442	-100.244	1.119	B5-03822-P02-CH1	3615120	OK	0.686618	-0.1083079	-0.7189055	0	-69.376	-79.349	0.906	B5-03822-P03-CH0	3615120	OK	0.8522547	-0.210285	-0.4790012	0	-89.098	-62.705	9.658	B5-03822-P03-CH1	3615120	OK	0.8254932	-0.1378107	-0.5473292	0	-99.901	-30.571	7.763	B5-03822-P04-CH0	3615120	OK	0.7431171	-0.2924437	0.6018751	0	-117.912	-41.287	8.616	B5-03822-P04-CH1	3615120	OK	0.7429308	-0.6670838	0.0552538	0	-108.516	-46.81	1.72	NA
0.619490169694251	B5-03822-P01-CH0	3615128	OK	0.2409283	0.0170977	0.0584561	-0.96863	96.608	-18.088	-229.72	B5-03822-P02-CH0	3615128	OK	0.7181118	0.4610919	-0.5212579	0	-76.065	-100.584	1.107	B5-03822-P02-CH1	3615128	OK	0.6907644	-0.113042	-0.7141891	0	-68.904	-79.622	0.663	B5-03822-P03-CH0	3615128	OK	0.850025	-0.1978025	-0.4881922	0	-89.29	-62.932	9.732	B5-03822-P03-CH1	3615128	OK	0.8251536	-0.1379067	-0.5478169	0	-100.158	-30.898	8.032	B5-03822-P04-CH0	3615128	OK	0.7435799	-0.2936949	0.6006931	0	-118.078	-41.5	8.918	B5-03822-P04-CH1	3615128	OK	0.7427403	-0.6673042	0.055154	0	-108.445	-46.824	1.961	NA
0.629481946624804	B5-03822-P01-CH0	3615136	OK	0.2411449	0.0170016	0.0586349	-0.968567	96.633	-18.041	-229.822	B5-03822-P02-CH0	3615136	OK	0.7122964	0.4597438	-0.5303484	0	-76.058	-100.929	1.526	B5-03822-P02-CH1	3615136	OK	0.6928188	-0.1165191	-0.7116357	0	-69.632	-80.164	0.839	B5-03822-P03-CH0	3615136	OK	0.8479458	-0.1865672	-0.496166	0	-89.205	-63.284	9.72	B5-03822-P03-CH1	3615136	OK	0.8267246	-0.1358355	-0.5459626	0	-99.54	-30.653	7.855	B5-03822-P04-CH0	3615136	OK	0.7435405	-0.2935466	0.6008144	0	-118.022	-41.373	9.389	B5-03822-P04-CH1	3615136	OK	0.7427551	-0.667281	0.0552361	0	-108.451	-46.879	2.128	NA
0.639473723555356	B5-03822-P01-CH0	3615144	OK	0.2413457	0.0168895	0.0589193	-0.9685017	96.661	-18.02	-229.917	B5-03822-P02-CH0	3615144	OK	0.7073244	0.4585518	-0.53798	0	-75.838	-101.598	1.472	B5-03822-P02-CH1	3615144	OK	0.6963525	-0.120455	-0.7075195	0	-69.682	-80.21	0.983	B5-03822-P03-CH0	3615144	OK	0.8459073	-0.1747353	-0.5038932	0	-89.281	-63.316	9.92	B5-03822-P03-CH1	3615144	OK	0.8262235	-0.1358187	-0.5467247	0	-99.816	-30.993	7.681	B5-03822-P04-CH0	3615144	OK	0.7432813	-0.2965172	0.5996752	0	-117.656	-39.279	7.27	B5-03822-P04-CH1	3615144	OK	0.7430041	-0.6670221	0.0550129	0	-108.47	-46.693	1.737	NA
0.649465500485909	B5-03822-P01-CH0	3615152	OK	0.2414731	0.0168885	0.0592472	-0.9684499	96.717	-17.955	-229.985	B5-03822-P02-CH0	3615152	OK	0.7023974	0.4588822	-0.5441186	0	-75.514	-101.942	1.599	B5-03822-P02-CH1	3615152	OK	0.6997252	-0.1241648	-0.7035395	0	-69.874	-80.929	0.858	B5-03822-P03-CH0	3615152	OK	0.8448913	-0.1647965	-0.5089212	0	-89.166	-63.247	10.286	B5-03822-P03-CH1	3615152	OK	0.8260861	-0.1345875	-0.5472367	0	-100.012	-30.901	7.731	B5-03822-P04-CH0	3615152	OK	0.742551	-0.2945883	0.6015279	0	-117.528	-39.913	7.7	B5-03822-P04-CH1	3615152	OK	0.7430359	-0.6669769	0.0551319	0	-108.39	-46.705	1.662	NA
0.659457277416461	B5-03822-P01-CH0	3615160	OK	0.2413734	0.0168459	0.0591405	-0.9684821	96.752	-17.949	-230.018	B5-03822-P02-CH0	3615160	OK	0.6971855	0.4592845	-0.5504454	0	-75.638	-102.169	2.101	B5-03822-P02-CH1	3615160	OK	0.7024374	-0.1256148	-0.7005731	0	-70.483	-81.331	0.824	B5-03822-P03-CH0	3615160	OK	0.8422939	-0.1567624	-0.5157194	0	-89.913	-63.341	9.802	B5-03822-P03-CH1	3615160	OK	0.8260874	-0.1333913	-0.5475276	0	-100.135	-30.682	8.28	B5-03822-P04-CH0	3615160	OK	0.7429355	-0.2916212	0.6024981	0	-118.054	-40.346	7.978	B5-03822-P04-CH1	3615160	OK	0.7426922	-0.6673561	0.0551727	0	-108.297	-46.85	1.844	NA
0.669449054347014	B5-03822-P01-CH0	3615168	OK	0.2411942	0.0167223	0.0588533	-0.9685463	96.746	-17.957	-230.064	B5-03822-P02-CH0	3615168	OK	0.6911872	0.4604165	-0.5570251	0	-76.162	-101.847	2.76	B5-03822-P02-CH1	3615168	OK	0.7053151	-0.1237462	-0.6980097	0	-70.783	-81.449	1.156	B5-03822-P03-CH0	3615168	OK	0.8417173	-0.1494132	-0.518833	0	-89.829	-63.076	9.929	B5-03822-P03-CH1	3615168	OK	0.8260855	-0.136095	-0.5468646	0	-99.975	-30.563	7.91	B5-03822-P04-CH0	3615168	OK	0.742554	-0.2923295	0.6026251	0	-118.057	-40.379	7.864	B5-03822-P04-CH1	3615168	OK	0.7423462	-0.667781	0.0546861	0	-108.392	-46.837	1.862	NA
0.679440831277566	B5-03822-P01-CH0	3615176	OK	0.2412526	0.0167641	0.0589815	-0.9685233	96.806	-17.943	-230.118	B5-03822-P02-CH0	3615176	OK	0.6890949	0.4613608	-0.5588331	0	-75.785	-102.518	2.321	B5-03822-P02-CH1	3615176	OK	0.7080001	-0.1190811	-0.6961002	0	-70.979	-82.002	1.009	B5-03822-P03-CH0	3615176	OK	0.840513	-0.1448458	-0.5220705	0	-89.629	-63.013	9.921	B5-03822-P03-CH1	3615176	OK	0.8263786	-0.1353851	-0.5465979	0	-100.002	-30.568	7.944	B5-03822-P04-CH0	3615176	OK	0.7408715	-0.2869064	0.6072842	0	-118.116	-40.994	8.296	B5-03822-P04-CH1	3615176	OK	0.7422507	-0.6679204	0.0542783	0	-108.394	-46.845	1.525	NA
0.689432608208118	B5-03822-P01-CH0	3615184	OK	0.2413375	0.0165257	0.0591998	-0.9684929	96.769	-17.915	-230.162	B5-03822-P02-CH0	3615184	OK	0.6876134	0.4648218	-0.5577889	0	-75.535	-102.625	2.29	B5-03822-P02-CH1	3615184	OK	0.7099301	-0.1122365	-0.6952713	0	-71.115	-82.198	1.329	B5-03822-P03-CH0	3615184	OK	0.8379676	-0.1409406	-0.5272059	0	-89.546	-63.111	9.754	B5-03822-P03-CH1	3615184	OK	0.8267715	-0.1347987	-0.5461486	0	-99.945	-30.578	7.998	B5-03822-P04-CH0	3615184	OK	0.7407364	-0.2852414	0.6082326	0	-117.814	-40.561	8.656	B5-03822-P04-CH1	3615184	OK	0.7424329	-0.6677272	0.0541637	0	-108.289	-46.715	1.374	NA
0.699424385138671	B5-03822-P01-CH0	3615192	OK	0.241457	0.0166915	0.0589986	-0.9684725	96.882	-17.931	-230.239	B5-03822-P02-CH0	3615192	OK	0.6874502	0.4698708	-0.5537451	0	-75.668	-102.945	2.61	B5-03822-P02-CH1	3615192	OK	0.7106596	-0.1064684	-0.6954333	0	-71.483	-82.267	0.887	B5-03822-P03-CH0	3615192	OK	0.8363214	-0.1378443	-0.5306275	0	-89.044	-63.168	9.766	B5-03822-P03-CH1	3615192	OK	0.8268431	-0.1348172	-0.5460356	0	-99.989	-30.754	8.17	B5-03822-P04-CH0	3615192	OK	0.7409189	-0.2828783	0.6091134	0	-118.005	-41.205	8.587	B5-03822-P04-CH1	3615192	OK	0.7421529	-0.6680008	0.0546262	0	-108.323	-46.928	1.654	NA
0.709416162069223	B5-03822-P01-CH0	3615200	OK	0.2415485	0.0167139	0.0592424	-0.9684345	96.952	-17.917	-230.266	B5-03822-P02-CH0	3615200	OK	0.6889341	0.4746305	-0.5478099	0	-76.059	-103.456	2.297	B5-03822-P02-CH1	3615200	OK	0.7120326	-0.0999403	-0.6949975	0	-71.552	-82.287	0.886	B5-03822-P03-CH0	3615200	OK	0.8333869	-0.1367508	-0.5355048	0	-89.225	-63.37	9.501	B5-03822-P03-CH1	3615200	OK	0.8271181	-0.1346609	-0.5456575	0	-99.944	-30.818	8.201	B5-03822-P04-CH0	3615200	OK	0.7420797	-0.2809868	0.6085755	0	-118.383	-41.4	8.632	B5-03822-P04-CH1	3615200	OK	0.7421677	-0.6679739	0.0547526	0	-108.299	-46.997	1.567	NA
0.719407938999776	B5-03822-P01-CH0	3615208	OK	0.241808	0.0166247	0.0596142	-0.9683484	96.963	-17.84	-230.305	B5-03822-P02-CH0	3615208	OK	0.6923992	0.4756009	-0.5425746	0	-75.786	-103.472	2.121	B5-03822-P02-CH1	3615208	OK	0.7131717	-0.0948466	-0.6945432	0	-71.937	-82.418	0.734	B5-03822-P03-CH0	3615208	OK	0.830987	-0.1362706	-0.539343	0	-89.121	-63.071	9.15	B5-03822-P03-CH1	3615208	OK	0.8271504	-0.1349739	-0.5455312	0	-99.999	-30.852	8.179	B5-03822-P04-CH0	3615208	OK	0.7433491	-0.2790701	0.6079079	0	-118.615	-41.406	8.712	B5-03822-P04-CH1	3615208	OK	0.7423662	-0.6677435	0.0548725	0	-108.29	-46.902	1.187	NA
0.729399715930328	B5-03822-P01-CH0	3615216	OK	0.2418522	0.0166596	0.0594286	-0.9683482	96.978	-17.854	-230.215	B5-03822-P02-CH0	3615216	OK	0.6956704	0.4754346	-0.5385208	0	-75.892	-103.369	2.267	B5-03822-P02-CH1	3615216	OK	0.7144021	-0.0904106	-0.6938699	0	-72.311	-82.353	0.738	B5-03822-P03-CH0	3615216	OK	0.829095	-0.1364071	-0.5422127	0	-88.974	-62.72	9.049	B5-03822-P03-CH1	3615216	OK	0.8271794	-0.1354756	-0.5453628	0	-99.974	-30.915	8.196	B5-03822-P04-CH0	3615216	OK	0.7434649	-0.2800637	0.607309	0	-118.333	-40.763	7.949	B5-03822-P04-CH1	3615216	OK	0.7422373	-0.6678853	0.0548912	0	-108.214	-46.898	1.106	NA
0.739391492860881	B5-03822-P01-CH0	3615224	OK	0.2419909	0.016849	0.059414	-0.9683111	97.087	-17.814	-230.231	B5-03822-P02-CH0	3615224	OK	0.698366	0.473974	-0.5363147	0	-76.128	-103.333	2.415	B5-03822-P02-CH1	3615224	OK	0.7156622	-0.0886466	-0.6927983	0	-72.671	-82.321	1.3	B5-03822-P03-CH0	3615224	OK	0.8278001	-0.1388835	-0.5435609	0	-89.066	-62.604	8.997	B5-03822-P03-CH1	3615224	OK	0.8270591	-0.1365409	-0.5452796	0	-100.055	-31.027	8.323	B5-03822-P04-CH0	3615224	OK	0.7437091	-0.279478	0.6072798	0	-118.392	-40.594	7.447	B5-03822-P04-CH1	3615224	OK	0.7419679	-0.6681458	0.0553606	0	-108.229	-47.201	1.528	NA
0.749383269791433	B5-03822-P01-CH0	3615232	OK	0.2421082	0.0167662	0.0593171	-0.9682892	97.08	-17.793	-230.23	B5-03822-P02-CH0	3615232	OK	0.6991106	0.4722797	-0.5368391	0	-76.438	-102.806	2.407	B5-03822-P02-CH1	3615232	OK	0.7180882	-0.0883528	-0.6903211	0	-72.318	-82.047	0.56	B5-03822-P03-CH0	3615232	OK	0.8279093	-0.1412509	-0.542784	0	-89.094	-62.398	9.342	B5-03822-P03-CH1	3615232	OK	0.8271273	-0.1447196	-0.5430623	0	-99.566	-31.439	8.101	B5-03822-P04-CH0	3615232	OK	0.7437657	-0.274682	0.6093951	0	-118.861	-42.573	8.979	B5-03822-P04-CH1	3615232	OK	0.7419837	-0.6681305	0.0553336	0	-108.217	-47.19	1.566	NA
0.759375046721985	B5-03822-P01-CH0	3615240	OK	0.2423228	0.0166963	0.0593793	-0.9682329	97.062	-17.772	-230.203	B5-03822-P02-CH0	3615240	OK	0.7001358	0.4689308	-0.5384365	0	-76.229	-102.923	2.559	B5-03822-P02-CH1	3615240	OK	0.7196062	-0.0918798	-0.6882768	0	-72.434	-82.021	1.235	B5-03822-P03-CH0	3615240	OK	0.8291301	-0.1438367	-0.5402355	0	-88.927	-62.193	9.324	B5-03822-P03-CH1	3615240	OK	0.8271828	-0.1468128	-0.5424155	0	-99.449	-31.502	8.207	B5-03822-P04-CH0	3615240	OK	0.7440657	-0.2731366	0.6097234	0	-118.86	-43.45	10.434	B5-03822-P04-CH1	3615240	OK	0.7422778	-0.667819	0.0551491	0	-108.24	-46.996	1.347	NA
0.769366823652538	B5-03822-P01-CH0	3615248	OK	0.242579	0.0167047	0.0595086	-0.9681607	97.077	-17.747	-230.205	B5-03822-P02-CH0	3615248	OK	0.7011662	0.4637699	-0.5415564	0	-75.379	-102.714	2.236	B5-03822-P02-CH1	3615248	OK	0.7216943	-0.0968975	-0.6853964	0	-72.184	-81.783	1.022	B5-03822-P03-CH0	3615248	OK	0.8298044	-0.1463063	-0.5385343	0	-89.307	-61.96	9.289	B5-03822-P03-CH1	3615248	OK	0.8270891	-0.1484449	-0.5421141	0	-99.437	-31.696	8.35	B5-03822-P04-CH0	3615248	OK	0.7440409	-0.2772527	0.6078932	0	-118.494	-41.167	7.98	B5-03822-P04-CH1	3615248	OK	0.7424773	-0.6675624	0.0555688	0	-108.134	-47.018	1.382	NA
0.77935860058309	B5-03822-P01-CH0	3615256	OK	0.2428383	0.016508	0.0596143	-0.9680925	97.028	-17.742	-230.192	B5-03822-P02-CH0	3615256	OK	0.6999921	0.4583616	-0.5476455	0	-75.417	-102.459	2.234	B5-03822-P02-CH1	3615256	OK	0.7229083	-0.1026566	-0.6832753	0	-72.141	-82.041	1.054	B5-03822-P03-CH0	3615256	OK	0.8308805	-0.1497023	-0.5359355	0	-89.357	-62.125	9.486	B5-03822-P03-CH1	3615256	OK	0.8268602	-0.1480949	-0.5425588	0	-99.455	-31.473	8.287	B5-03822-P04-CH0	3615256	OK	0.7434215	-0.2761386	0.6091568	0	-118.558	-42.112	9.192	B5-03822-P04-CH1	3615256	OK	0.7427823	-0.6671841	0.0560349	0	-107.983	-46.953	1.394	NA
0.789350377513643	B5-03822-P01-CH0	3615264	OK	0.2428944	0.0165225	0.0594072	-0.9680909	97.044	-17.762	-230.17	B5-03822-P02-CH0	3615264	OK	0.7000324	0.4524455	-0.5524923	0	-74.991	-102.436	2.243	B5-03822-P02-CH1	3615264	OK	0.7232237	-0.1067875	-0.6823078	0	-72.528	-81.675	1.156	B5-03822-P03-CH0	3615264	OK	0.8311808	-0.1523247	-0.5347295	0	-89.679	-61.972	9.747	B5-03822-P03-CH1	3615264	OK	0.8270637	-0.1479472	-0.5422889	0	-99.205	-31.696	8.411	B5-03822-P04-CH0	3615264	OK	0.7437862	-0.2754677	0.6090154	0	-118.668	-42.192	9.123	B5-03822-P04-CH1	3615264	OK	0.7426759	-0.6672826	0.0562719	0	-107.985	-47.07	1.612	NA
0.799342154444195	B5-03822-P01-CH0	3615272	OK	0.2429673	0.0163801	0.0593543	-0.9680783	96.96	-17.734	-230.082	B5-03822-P02-CH0	3615272	OK	0.7000352	0.4474936	-0.5565072	0	-74.602	-102.419	2.168	B5-03822-P02-CH1	3615272	OK	0.7241368	-0.1116543	-0.6805581	0	-72.597	-81.261	1.146	B5-03822-P03-CH0	3615272	OK	0.8316215	-0.1542096	-0.5335027	0	-89.494	-61.847	9.433	B5-03822-P03-CH1	3615272	OK	0.8266305	-0.1470648	-0.5431887	0	-99.186	-31.351	8.283	B5-03822-P04-CH0	3615272	OK	0.7439793	-0.274934	0.6090206	0	-118.673	-42.138	8.989	B5-03822-P04-CH1	3615272	OK	0.7427361	-0.6672328	0.0560666	0	-107.982	-46.928	1.229	NA
0.809333931374748	B5-03822-P01-CH0	3615280	OK	0.2432728	0.01641	0.0594463	-0.9679955	96.957	-17.691	-230.003	B5-03822-P02-CH0	3615280	OK	0.6986697	0.4440737	-0.5609449	0	-74.624	-102.159	2.234	B5-03822-P02-CH1	3615280	OK	0.7246893	-0.1153478	-0.6793529	0	-72.538	-81.323	1.013	B5-03822-P03-CH0	3615280	OK	0.8316652	-0.1557768	-0.532979	0	-89.386	-61.595	9.333	B5-03822-P03-CH1	3615280	OK	0.8268605	-0.1460948	-0.5431003	0	-99.475	-31.525	8.308	B5-03822-P04-CH0	3615280	OK	0.7441115	-0.2744053	0.6090975	0	-118.724	-42.149	8.719	B5-03822-P04-CH1	3615280	OK	0.7429602	-0.6669523	0.056434	0	-107.971	-46.923	1.207	NA
0.8193257083053	B5-03822-P01-CH0	3615288	OK	0.2433516	0.0164846	0.0593893	-0.9679779	96.973	-17.693	-229.892	B5-03822-P02-CH0	3615288	OK	0.6969117	0.4419912	-0.5647635	0	-74.765	-102.006	2.51	B5-03822-P02-CH1	3615288	OK	0.7248391	-0.1184411	-0.6786604	0	-72.616	-81.483	0.941	B5-03822-P03-CH0	3615288	OK	0.832087	-0.1580524	-0.531649	0	-89.264	-61.635	9.393	B5-03822-P03-CH1	3615288	OK	0.8266554	-0.1470555	-0.5431533	0	-99.428	-31.588	8.336	B5-03822-P04-CH0	3615288	OK	0.7442017	-0.2741744	0.6090912	0	-118.836	-42.156	8.489	B5-03822-P04-CH1	3615288	OK	0.7431169	-0.6667557	0.0566935	0	-107.916	-47.015	1.758	NA
0.829317485235852	B5-03822-P01-CH0	3615296	OK	0.2434353	0.0166107	0.0591715	-0.967968	97.008	-17.709	-229.837	B5-03822-P02-CH0	3615296	OK	0.6967619	0.4396703	-0.5667564	0	-74.553	-102.221	1.943	B5-03822-P02-CH1	3615296	OK	0.7251267	-0.1218557	-0.6777481	0	-72.724	-81.193	1.165	B5-03822-P03-CH0	3615296	OK	0.8324459	-0.1620777	-0.5298723	0	-89.24	-61.902	9.184	B5-03822-P03-CH1	3615296	OK	0.8265137	-0.1480367	-0.5431024	0	-99.37	-31.646	8.277	B5-03822-P04-CH0	3615296	OK	0.7440167	-0.2742229	0.6092954	0	-118.869	-42.195	8.422	B5-03822-P04-CH1	3615296	OK	0.7430999	-0.6667566	0.0569051	0	-107.922	-47.027	1.818	NA
0.839309262166405	B5-03822-P01-CH0	3615304	OK	0.2434123	0.0165061	0.0588303	-0.9679964	96.921	-17.725	-229.724	B5-03822-P02-CH0	3615304	OK	0.6956706	0.4381866	-0.5692406	0	-74.362	-101.672	2.783	B5-03822-P02-CH1	3615304	OK	0.7258628	-0.1238364	-0.6766001	0	-72.37	-80.774	1.173	B5-03822-P03-CH0	3615304	OK	0.8329733	-0.1635943	-0.5285758	0	-89.177	-61.626	9.113	B5-03822-P03-CH1	3615304	OK	0.8264268	-0.1485802	-0.5430862	0	-99.254	-31.598	8.256	B5-03822-P04-CH0	3615304	OK	0.7438496	-0.2745117	0.6093695	0	-118.886	-42.195	8.458	B5-03822-P04-CH1	3615304	OK	0.7430742	-0.6668106	0.0566083	0	-107.904	-46.793	1.29	NA
0.849301039096957	B5-03822-P01-CH0	3615312	OK	0.2434045	0.0166535	0.058596	-0.96801	96.924	-17.723	-229.629	B5-03822-P02-CH0	3615312	OK	0.6958954	0.4357349	-0.5708456	0	-74.3	-102.239	2.169	B5-03822-P02-CH1	3615312	OK	0.7257914	-0.1266412	-0.6761574	0	-72.262	-81.192	0.939	B5-03822-P03-CH0	3615312	OK	0.8328646	-0.1657242	-0.5280833	0	-89.166	-61.589	9.339	B5-03822-P03-CH1	3615312	OK	0.82621	-0.148901	-0.5433281	0	-99.229	-31.588	8.245	B5-03822-P04-CH0	3615312	OK	0.7428578	-0.2764754	0.6096915	0	-119.111	-42.341	9.408	B5-03822-P04-CH1	3615312	OK	0.7429863	-0.6668979	0.0567324	0	-107.921	-46.795	1.349	NA
0.85929281602751	B5-03822-P01-CH0	3615320	OK	0.2434591	0.0170927	0.0580046	-0.9680243	97.035	-17.752	-229.519	B5-03822-P02-CH0	3615320	OK	0.695202	0.4331031	-0.5736862	0	-74.412	-102.197	2.511	B5-03822-P02-CH1	3615320	OK	0.7263843	-0.1288553	-0.6751016	0	-71.907	-80.809	0.496	B5-03822-P03-CH0	3615320	OK	0.8325064	-0.1684953	-0.5277712	0	-89.273	-61.757	9.076	B5-03822-P03-CH1	3615320	OK	0.8258404	-0.1494361	-0.543743	0	-99.257	-31.657	8.353	B5-03822-P04-CH0	3615320	OK	0.7422687	-0.2776347	0.6098821	0	-119.099	-41.926	8.599	B5-03822-P04-CH1	3615320	OK	0.7425213	-0.6673858	0.0570814	0	-107.957	-47.012	1.646	NA
0.869284592958062	B5-03822-P01-CH0	3615328	OK	0.243483	0.0170641	0.0581894	-0.9680077	97.004	-17.712	-229.378	B5-03822-P02-CH0	3615328	OK	0.694618	0.4314468	-0.5756383	0	-74.27	-101.953	2.731	B5-03822-P02-CH1	3615328	OK	0.725511	-0.1301446	-0.675793	0	-72.191	-80.991	0.989	B5-03822-P03-CH0	3615328	OK	0.8323677	-0.1704253	-0.5273701	0	-89.34	-61.716	8.619	B5-03822-P03-CH1	3615328	OK	0.82574	-0.1494066	-0.5439035	0	-99.208	-31.608	8.282	B5-03822-P04-CH0	3615328	OK	0.7428441	-0.2756066	0.6101013	0	-119.729	-43.019	8.738	B5-03822-P04-CH1	3615328	OK	0.7427372	-0.6671579	0.0569369	0	-107.979	-46.91	1.515	NA
0.879276369888615	B5-03822-P01-CH0	3615336	OK	0.2434987	0.0172687	0.0578698	-0.9680192	97.041	-17.748	-229.223	B5-03822-P02-CH0	3615336	OK	0.6947513	0.429235	-0.577129	0	-73.921	-101.843	2.388	B5-03822-P02-CH1	3615336	OK	0.724766	-0.1316427	-0.6763021	0	-72.268	-81.026	1.224	B5-03822-P03-CH0	3615336	OK	0.8323709	-0.1722895	-0.526759	0	-89.285	-61.653	9.304	B5-03822-P03-CH1	3615336	OK	0.8255626	-0.1496762	-0.5440987	0	-99.155	-31.705	8.285	B5-03822-P04-CH0	3615336	OK	0.7421545	-0.2768815	0.6103633	0	-119.512	-42.309	7.802	B5-03822-P04-CH1	3615336	OK	0.7424133	-0.6675199	0.0569189	0	-108.032	-47.005	1.393	NA
0.889268146819167	B5-03822-P01-CH0	3615344	OK	0.2437483	0.0173767	0.0581225	-0.9679394	97.071	-17.701	-229.139	B5-03822-P02-CH0	3615344	OK	0.6943939	0.4267421	-0.5794034	0	-73.593	-101.613	2.34	B5-03822-P02-CH1	3615344	OK	0.7238545	-0.1337116	-0.6768722	0	-72.213	-80.868	0.693	B5-03822-P03-CH0	3615344	OK	0.8319354	-0.1736768	-0.5269913	0	-89.378	-61.425	8.718	B5-03822-P03-CH1	3615344	OK	0.8253726	-0.1497376	-0.54437	0	-99.158	-31.747	8.27	B5-03822-P04-CH0	3615344	OK	0.7430066	-0.2756936	0.6098641	0	-119.381	-42.241	7.753	B5-03822-P04-CH1	3615344	OK	0.7425238	-0.6673751	0.0571745	0	-108.039	-47.053	1.355	NA
0.89925992374972	B5-03822-P01-CH0	3615352	OK	0.2438238	0.0175466	0.0579494	-0.9679277	97.12	-17.695	-229.061	B5-03822-P02-CH0	3615352	OK	0.6943946	0.4248667	-0.5807792	0	-73.409	-101.549	1.775	B5-03822-P02-CH1	3615352	OK	0.7230987	-0.1364088	-0.6771417	0	-72.125	-80.913	0.378	B5-03822-P03-CH0	3615352	OK	0.8318408	-0.1754295	-0.52656	0	-89.247	-61.523	8.816	B5-03822-P03-CH1	3615352	OK	0.8252796	-0.1496591	-0.5445326	0	-99.154	-31.794	8.194	B5-03822-P04-CH0	3615352	OK	0.7429949	-0.2747011	0.6103261	0	-119.613	-42.623	8.011	B5-03822-P04-CH1	3615352	OK	0.7423444	-0.6675598	0.057347	0	-108.008	-47.181	1.715	NA
0.909251700680272	B5-03822-P01-CH0	3615360	OK	0.2438694	0.0177451	0.0576795	-0.9679287	97.165	-17.681	-229.012	B5-03822-P02-CH0	3615360	OK	0.694002	0.4234759	-0.5822623	0	-73.578	-101.807	2.499	B5-03822-P02-CH1	3615360	OK	0.7220301	-0.1379737	-0.6779644	0	-72.383	-81.069	1.688	B5-03822-P03-CH0	3615360	OK	0.8314848	-0.1767164	-0.5266919	0	-89.472	-61.326	8.894	B5-03822-P03-CH1	3615360	OK	0.8252431	-0.1494198	-0.5446536	0	-99.105	-31.848	8.244	B5-03822-P04-CH0	3615360	OK	0.7427976	-0.2742331	0.6107765	0	-119.677	-42.685	8.23	B5-03822-P04-CH1	3615360	OK	0.7420607	-0.6678721	0.057383	0	-108.039	-47.238	1.923	NA
