Wav.Time	B5.03822.P01.CH0	Frame	State	Q0	Qx	Qy	Qz	Tx	Ty	Tz	B5.03822.P02.CH0	Frame.1	State.1	Q0.1	Qx.1	Qy.1	Qz.1	Tx.1	Ty.1	Tz.1	B5.03822.P02.CH1	Frame.2	State.2	Q0.2	Qx.2	Qy.2	Qz.2	Tx.2	Ty.2	Tz.2	B5.03822.P03.CH0	Frame.3	State.3	Q0.3	Qx.3	Qy.3	Qz.3	Tx.3	Ty.3	Tz.3	B5.03822.P03.CH1	Frame.4	State.4	Q0.4	Qx.4	Qy.4	Qz.4	Tx.4	Ty.4	Tz.4	B5.03822.P04.CH0	Frame.5	State.5	Q0.5	Qx.5	Qy.5	Qz.5	Tx.5	Ty.5	Tz.5	B5.03822.P04.CH1	Frame.6	State.6	Q0.6	Qx.6	Qy.6	Qz.6	Tx.6	Ty.6	Tz.6	X
0	B5-03822-P01-CH0	700544	OK	0.1984603	0.058724	0.1114631	-0.9719779	98.699	20.942	-263.3	B5-03822-P02-CH0	700544	OK	0.731367	0.2894294	-0.6175216	0	-87.754	-93.52	-3.011	B5-03822-P02-CH1	700544	OK	0.6546853	0.0100259	-0.755835	0	-82.016	-69.086	1.69	B5-03822-P03-CH0	700544	OK	0.7765415	-0.5744827	-0.2587528	0	-96.938	-50.302	3.213	B5-03822-P03-CH1	700544	OK	0.7591132	-0.6501851	0.0317242	0	-100.428	-18.195	-2.398	B5-03822-P04-CH0	700544	OK	0.6728166	-0.2340561	0.7018087	0	-127.544	-26.526	12.862	B5-03822-P04-CH1	700544	OK	0.785133	-0.6160161	-0.0639552	0	-112.067	-39.78	4.162	NA
0.0099921017095977	B5-03822-P01-CH0	700552	OK	0.1981625	0.0585603	0.1108573	-0.9721178	98.622	20.852	-263.35	B5-03822-P02-CH0	700552	OK	0.7320107	0.2909342	-0.61605	0	-87.699	-93.63	-3.239	B5-03822-P02-CH1	700552	OK	0.655704	0.013742	-0.754893	0	-81.16	-68.817	1.649	B5-03822-P03-CH0	700552	OK	0.7777143	-0.5718368	-0.2610807	0	-97.133	-50.046	2.953	B5-03822-P03-CH1	700552	OK	0.7556389	-0.653864	0.0383631	0	-100.57	-18.833	-2.188	B5-03822-P04-CH0	700552	OK	0.6722443	-0.234584	0.7021809	0	-127.871	-26.741	12.422	B5-03822-P04-CH1	700552	OK	0.7847383	-0.6164799	-0.0643295	0	-112.104	-39.785	4.073	NA
0.0199842034191954	B5-03822-P01-CH0	700560	OK	0.1980503	0.0586362	0.1109163	-0.9721293	98.642	20.827	-263.313	B5-03822-P02-CH0	700560	OK	0.7319796	0.2922564	-0.6154609	0	-87.877	-93.737	-3.271	B5-03822-P02-CH1	700560	OK	0.6562791	0.0085809	-0.7544694	0	-80.807	-68.79	0.67	B5-03822-P03-CH0	700560	OK	0.7792667	-0.568492	-0.2637426	0	-97.217	-50.273	3.405	B5-03822-P03-CH1	700560	OK	0.7542969	-0.6549628	0.0453866	0	-100.929	-18.937	-0.813	B5-03822-P04-CH0	700560	OK	0.6709767	-0.2367694	0.7026596	0	-127.214	-25.999	12.059	B5-03822-P04-CH1	700560	OK	0.7846891	-0.6165228	-0.0645192	0	-112.141	-39.836	4.057	NA
0.0299763051287931	B5-03822-P01-CH0	700568	OK	0.1980977	0.0590798	0.1109794	-0.9720856	98.778	20.886	-263.201	B5-03822-P02-CH0	700568	OK	0.7318866	0.2934596	-0.6149987	0	-88.135	-93.889	-3.336	B5-03822-P02-CH1	700568	OK	0.6559507	0.0101791	-0.7547351	0	-81.047	-68.774	0.727	B5-03822-P03-CH0	700568	OK	0.7815116	-0.5638	-0.2671502	0	-97.383	-50.348	3.755	B5-03822-P03-CH1	700568	OK	0.7529967	-0.6560184	0.0513408	0	-100.182	-18.238	-2.099	B5-03822-P04-CH0	700568	OK	0.6697377	-0.2373432	0.7036474	0	-126.42	-25.63	12.264	B5-03822-P04-CH1	700568	OK	0.7846906	-0.6165341	-0.0643929	0	-112.287	-39.796	3.927	NA
0.0399684068383908	B5-03822-P01-CH0	700576	OK	0.1980342	0.0588612	0.1112741	-0.9720781	98.65	20.969	-263.28	B5-03822-P02-CH0	700576	OK	0.731904	0.2947619	-0.6143549	0	-88.222	-93.865	-3.419	B5-03822-P02-CH1	700576	OK	0.6559932	0.0120799	-0.7546701	0	-81.063	-68.795	0.76	B5-03822-P03-CH0	700576	OK	0.7850974	-0.5593602	-0.2659665	0	-96.353	-51.137	4.453	B5-03822-P03-CH1	700576	OK	0.7531768	-0.6553476	0.0569581	0	-100.643	-17.416	-3.11	B5-03822-P04-CH0	700576	OK	0.6718744	-0.2312842	0.7036281	0	-127.152	-26.673	11.622	B5-03822-P04-CH1	700576	OK	0.7848565	-0.6163171	-0.0644476	0	-112.218	-39.68	3.866	NA
0.0499605085479885	B5-03822-P01-CH0	700584	OK	0.1980477	0.0588632	0.1114653	-0.9720533	98.679	20.953	-263.346	B5-03822-P02-CH0	700584	OK	0.7321087	0.295327	-0.6138394	0	-88.341	-94.243	-3.595	B5-03822-P02-CH1	700584	OK	0.655717	0.0136651	-0.7548831	0	-81.228	-69.028	0.913	B5-03822-P03-CH0	700584	OK	0.7898333	-0.5532056	-0.2648148	0	-96.746	-50.969	4.796	B5-03822-P03-CH1	700584	OK	0.7526666	-0.6554098	0.062698	0	-100.943	-17.92	-3.057	B5-03822-P04-CH0	700584	OK	0.6748974	-0.2248113	0.7028324	0	-127.451	-27.122	13.333	B5-03822-P04-CH1	700584	OK	0.7851308	-0.6159624	-0.0644979	0	-112.2	-39.686	4.135	NA
0.0599526102575862	B5-03822-P01-CH0	700592	OK	0.198118	0.0590095	0.1115528	-0.9720201	98.701	20.993	-263.229	B5-03822-P02-CH0	700592	OK	0.7322569	0.2952251	-0.6137116	0	-88.479	-94.478	-3.852	B5-03822-P02-CH1	700592	OK	0.6553882	0.0147403	-0.7551484	0	-81.426	-69.169	0.789	B5-03822-P03-CH0	700592	OK	0.7944391	-0.5482392	-0.2613432	0	-97.141	-51.096	5.221	B5-03822-P03-CH1	700592	OK	0.753753	-0.6538975	0.0653799	0	-101.31	-17.697	-0.88	B5-03822-P04-CH0	700592	OK	0.674509	-0.2196478	0.704835	0	-126.791	-27.185	14.114	B5-03822-P04-CH1	700592	OK	0.7853321	-0.6157359	-0.0642098	0	-112.091	-39.581	3.987	NA
0.0699447119671839	B5-03822-P01-CH0	700600	OK	0.1979812	0.0588377	0.1114479	-0.9720704	98.61	20.934	-263.176	B5-03822-P02-CH0	700600	OK	0.7326426	0.2943215	-0.6136853	0	-88.526	-94.88	-4.091	B5-03822-P02-CH1	700600	OK	0.6551526	0.0157564	-0.7553323	0	-81.608	-69.235	0.721	B5-03822-P03-CH0	700600	OK	0.8000005	-0.5422252	-0.2568873	0	-97.313	-50.836	5.866	B5-03822-P03-CH1	700600	OK	0.7539046	-0.6534685	0.0678731	0	-100.558	-17.54	-1.319	B5-03822-P04-CH0	700600	OK	0.6734992	-0.2190974	0.7059711	0	-126.367	-26.022	12.267	B5-03822-P04-CH1	700600	OK	0.78548	-0.6155349	-0.0643262	0	-111.973	-39.462	3.868	NA
0.0799368136767816	B5-03822-P01-CH0	700608	OK	0.1979744	0.0587428	0.1111783	-0.9721084	98.558	20.846	-263.184	B5-03822-P02-CH0	700608	OK	0.7327039	0.2924772	-0.6144933	0	-88.647	-95.22	-3.898	B5-03822-P02-CH1	700608	OK	0.655071	0.0166184	-0.7553845	0	-81.729	-69.478	0.627	B5-03822-P03-CH0	700608	OK	0.803768	-0.5392567	-0.251315	0	-97.869	-51.87	5.658	B5-03822-P03-CH1	700608	OK	0.754938	-0.652416	0.066498	0	-101.046	-16.263	-2.527	B5-03822-P04-CH0	700608	OK	0.6740302	-0.2126689	0.7074286	0	-126.673	-26.648	10.934	B5-03822-P04-CH1	700608	OK	0.7853916	-0.6156633	-0.0641775	0	-111.799	-39.529	3.84	NA
0.0899289153863793	B5-03822-P01-CH0	700616	OK	0.1979781	0.0590312	0.1109584	-0.9721153	98.688	20.838	-263.212	B5-03822-P02-CH0	700616	OK	0.730899	0.2736566	-0.6252189	0	-89.622	-96.144	-3.716	B5-03822-P02-CH1	700616	OK	0.6550006	0.0168985	-0.7554394	0	-81.951	-69.729	0.54	B5-03822-P03-CH0	700616	OK	0.8086942	-0.5347895	-0.2449773	0	-98.805	-52.532	6.414	B5-03822-P03-CH1	700616	OK	0.7528867	-0.6546371	0.0679107	0	-100.714	-17.383	-3.304	B5-03822-P04-CH0	700616	OK	0.6755004	-0.2065907	0.7078273	0	-126.911	-26.807	12.324	B5-03822-P04-CH1	700616	OK	0.7850541	-0.6160946	-0.064168	0	-112.009	-39.737	3.852	NA
0.099921017095977	B5-03822-P01-CH0	700624	OK	0.1979248	0.0588786	0.1110996	-0.9721193	98.641	20.861	-263.221	B5-03822-P02-CH0	700624	OK	0.7295097	0.2661678	-0.6300558	0	-90.401	-96.826	-3.126	B5-03822-P02-CH1	700624	OK	0.6555347	0.013636	-0.7550419	0	-83.745	-70.819	0.299	B5-03822-P03-CH0	700624	OK	0.8171569	-0.527192	-0.2330734	0	-98.951	-52.371	6.84	B5-03822-P03-CH1	700624	OK	0.7526013	-0.6551057	0.066541	0	-100.705	-17.386	-3.502	B5-03822-P04-CH0	700624	OK	0.6751279	-0.2044946	0.7087907	0	-126.308	-25.926	12.43	B5-03822-P04-CH1	700624	OK	0.7852293	-0.6158809	-0.0640758	0	-111.916	-39.709	3.908	NA
0.109913118805575	B5-03822-P01-CH0	700632	OK	0.1979701	0.0590057	0.1108987	-0.9721253	98.668	20.873	-263.147	B5-03822-P02-CH0	700632	OK	0.7280263	0.2585314	-0.6349324	0	-90.198	-96.256	-1.14	B5-03822-P02-CH1	700632	OK	0.6555173	0.0141463	-0.7550476	0	-84.646	-71.338	1.216	B5-03822-P03-CH0	700632	OK	0.8258529	-0.5190466	-0.2203578	0	-99.013	-52.866	7.149	B5-03822-P03-CH1	700632	OK	0.7527839	-0.6551134	0.0643652	0	-100.849	-17.567	-2.085	B5-03822-P04-CH0	700632	OK	0.6768701	-0.1983663	0.7088707	0	-127.075	-26.046	11.68	B5-03822-P04-CH1	700632	OK	0.7850896	-0.6160608	-0.0640573	0	-111.996	-39.739	3.986	NA
0.119905220515172	B5-03822-P01-CH0	700640	OK	0.1980213	0.0588906	0.1110102	-0.9721092	98.646	20.896	-263.173	B5-03822-P02-CH0	700640	OK	0.7289476	0.2482413	-0.6379747	0	-89.629	-97.984	-3.572	B5-03822-P02-CH1	700640	OK	0.6573863	0.014771	-0.753409	0	-84.509	-72.013	0.519	B5-03822-P03-CH0	700640	OK	0.8346638	-0.5096431	-0.2088068	0	-99.754	-53.601	8.137	B5-03822-P03-CH1	700640	OK	0.7533117	-0.6546142	0.0632601	0	-100.901	-17.279	-2.672	B5-03822-P04-CH0	700640	OK	0.6752191	-0.1923688	0.7120909	0	-126.347	-26.434	12.05	B5-03822-P04-CH1	700640	OK	0.7852233	-0.6159371	-0.0636076	0	-111.963	-39.755	3.938	NA
0.12989732222477	B5-03822-P01-CH0	700648	OK	0.1977348	0.0590005	0.1103688	-0.9722338	98.684	20.809	-263.206	B5-03822-P02-CH0	700648	OK	0.7278814	0.2396419	-0.6424643	0	-88.841	-97.285	-5.242	B5-03822-P02-CH1	700648	OK	0.6595533	0.0116969	-0.7515668	0	-83.717	-71.783	-0.389	B5-03822-P03-CH0	700648	OK	0.8433849	-0.500452	-0.1955751	0	-100.131	-54.155	8.577	B5-03822-P03-CH1	700648	OK	0.7528599	-0.6551285	0.0633132	0	-100.918	-17.448	-2.263	B5-03822-P04-CH0	700648	OK	0.6755918	-0.1877305	0.7129747	0	-126.5	-26.457	12.86	B5-03822-P04-CH1	700648	OK	0.7848612	-0.6163584	-0.0639938	0	-112.072	-39.797	4.069	NA
0.139889423934368	B5-03822-P01-CH0	700656	OK	0.1976188	0.059293	0.1099262	-0.9722898	98.827	20.727	-263.166	B5-03822-P02-CH0	700656	OK	0.7264865	0.2289093	-0.6479335	0	-88.436	-97.836	-4.324	B5-03822-P02-CH1	700656	OK	0.6568047	0.0068664	-0.7540295	0	-85.21	-71.705	1.937	B5-03822-P03-CH0	700656	OK	0.8519192	-0.4906996	-0.1828868	0	-100.599	-55.116	9.663	B5-03822-P03-CH1	700656	OK	0.7526018	-0.6554818	0.0627231	0	-100.935	-17.68	-1.926	B5-03822-P04-CH0	700656	OK	0.6770339	-0.185251	0.712255	0	-127.217	-26.322	12.763	B5-03822-P04-CH1	700656	OK	0.7845725	-0.6167325	-0.0639298	0	-112.249	-39.943	4.197	NA
0.149881525643965	B5-03822-P01-CH0	700664	OK	0.1976805	0.0591335	0.1100117	-0.9722772	98.747	20.691	-263.115	B5-03822-P02-CH0	700664	OK	0.7255256	0.2174616	-0.6529342	0	-88.529	-98.648	-4.225	B5-03822-P02-CH1	700664	OK	0.6572229	0.0017967	-0.7536941	0	-85.314	-72.855	1.086	B5-03822-P03-CH0	700664	OK	0.8617337	-0.4787931	-0.1678461	0	-100.89	-55.769	9.945	B5-03822-P03-CH1	700664	OK	0.7544562	-0.6545032	0.049207	0	-101.238	-17.448	-2.124	B5-03822-P04-CH0	700664	OK	0.6751802	-0.1858164	0.7138655	0	-126.654	-26.228	11.158	B5-03822-P04-CH1	700664	OK	0.7846584	-0.6166438	-0.0637314	0	-112.284	-39.955	4.06	NA
0.159873627353563	B5-03822-P01-CH0	700672	OK	0.197486	0.0591821	0.1099748	-0.972318	98.763	20.696	-263.171	B5-03822-P02-CH0	700672	OK	0.7236959	0.2088976	-0.6577432	0	-89.361	-98.59	-2.948	B5-03822-P02-CH1	700672	OK	0.6591692	-0.0026001	-0.7519902	0	-84.869	-73.397	1.109	B5-03822-P03-CH0	700672	OK	0.8725559	-0.4632255	-0.1551397	0	-102.153	-55.401	10.425	B5-03822-P03-CH1	700672	OK	0.7557617	-0.6531574	0.0470078	0	-100.943	-18.085	0.308	B5-03822-P04-CH0	700672	OK	0.6759376	-0.1869795	0.7128444	0	-126.648	-26.599	11.838	B5-03822-P04-CH1	700672	OK	0.7846353	-0.6166712	-0.0637502	0	-112.484	-39.951	4.225	NA
0.169865729063161	B5-03822-P01-CH0	700680	OK	0.1973997	0.0593084	0.1102416	-0.9722976	98.825	20.8	-263.195	B5-03822-P02-CH0	700680	OK	0.7272859	0.2013076	-0.6561482	0	-88.102	-99.743	-4.44	B5-03822-P02-CH1	700680	OK	0.660659	-0.0094357	-0.7506268	0	-84.644	-74.01	0.881	B5-03822-P03-CH0	700680	OK	0.8806018	-0.4529751	-0.139119	0	-101.963	-56.35	10.328	B5-03822-P03-CH1	700680	OK	0.756344	-0.6526358	0.0448364	0	-100.321	-18.536	-0.138	B5-03822-P04-CH0	700680	OK	0.6772591	-0.1904505	0.7106678	0	-127.006	-25.751	12.07	B5-03822-P04-CH1	700680	OK	0.7848021	-0.6164831	-0.0635161	0	-112.788	-39.85	4.241	NA
0.179857830772759	B5-03822-P01-CH0	700688	OK	0.197336	0.0596095	0.1101336	-0.9723044	98.928	20.839	-263.203	B5-03822-P02-CH0	700688	OK	0.7281001	0.1937016	-0.6575332	0	-87.845	-99.612	-3.985	B5-03822-P02-CH1	700688	OK	0.6619554	-0.0152408	-0.7493882	0	-85.138	-74.542	0.531	B5-03822-P03-CH0	700688	OK	0.8872983	-0.4421326	-0.1312265	0	-103.149	-56.779	10.491	B5-03822-P03-CH1	700688	OK	0.7591822	-0.6495281	0.0418992	0	-101.27	-17.415	-1.097	B5-03822-P04-CH0	700688	OK	0.6755791	-0.1966636	0.7105746	0	-126.974	-25.874	9.73	B5-03822-P04-CH1	700688	OK	0.7848025	-0.6165259	-0.0630941	0	-113.09	-39.859	4.419	NA
0.189849932482356	B5-03822-P01-CH0	700696	OK	0.1971865	0.0593818	0.1097836	-0.9723882	98.8	20.728	-263.106	B5-03822-P02-CH0	700696	OK	0.7293854	0.18478	-0.6586755	0	-87.766	-101.094	-3.914	B5-03822-P02-CH1	700696	OK	0.6637885	-0.0226643	-0.7475768	0	-85.723	-75.253	0.139	B5-03822-P03-CH0	700696	OK	0.8927118	-0.4325026	-0.1265193	0	-103.676	-56.877	11.443	B5-03822-P03-CH1	700696	OK	0.7604815	-0.6480958	0.0404939	0	-101.786	-17.98	-1.697	B5-03822-P04-CH0	700696	OK	0.6761926	-0.1922363	0.7112023	0	-127.07	-26.301	11.724	B5-03822-P04-CH1	700696	OK	0.7847134	-0.6167113	-0.0623871	0	-113.129	-39.876	4.184	NA
0.199842034191954	B5-03822-P01-CH0	700704	OK	0.1970855	0.0593511	0.10979	-0.9724099	98.789	20.731	-263.137	B5-03822-P02-CH0	700704	OK	0.7283729	0.1710489	-0.6634871	0	-87.945	-101.181	-3.078	B5-03822-P02-CH1	700704	OK	0.6659953	-0.0302117	-0.7453439	0	-86.202	-76.146	0.396	B5-03822-P03-CH0	700704	OK	0.8943061	-0.4294047	-0.1258101	0	-104.249	-57.721	11.458	B5-03822-P03-CH1	700704	OK	0.7638415	-0.6442989	0.037752	0	-101.988	-18.346	0.679	B5-03822-P04-CH0	700704	OK	0.6750849	-0.199158	0.7103495	0	-127.955	-28.018	12.795	B5-03822-P04-CH1	700704	OK	0.7847778	-0.6167525	-0.0611568	0	-113.321	-39.949	4.041	NA
0.209834135901552	B5-03822-P01-CH0	700712	OK	0.1969873	0.0595262	0.109944	-0.9724016	98.848	20.757	-263.126	B5-03822-P02-CH0	700712	OK	0.7281555	0.1566141	-0.6672792	0	-87.728	-101.659	-4.401	B5-03822-P02-CH1	700712	OK	0.6693979	-0.0406852	-0.7417892	0	-86.693	-76.3	0.283	B5-03822-P03-CH0	700712	OK	0.8925738	-0.4315131	-0.1307991	0	-103.962	-58.772	11.121	B5-03822-P03-CH1	700712	OK	0.76659	-0.6409964	0.0382539	0	-101.814	-19.543	0.829	B5-03822-P04-CH0	700712	OK	0.6755913	-0.2023587	0.7089622	0	-128.98	-29.408	13.389	B5-03822-P04-CH1	700712	OK	0.7848751	-0.616784	-0.0595696	0	-113.572	-40.084	3.919	NA
0.219826237611149	B5-03822-P01-CH0	700720	OK	0.1967437	0.0595714	0.1097086	-0.9724748	98.842	20.695	-263.096	B5-03822-P02-CH0	700720	OK	0.7261177	0.1407009	-0.6730203	0	-88.371	-100.942	-2.739	B5-03822-P02-CH1	700720	OK	0.6733166	-0.0507389	-0.7376112	0	-87.342	-76.363	0.779	B5-03822-P03-CH0	700720	OK	0.8888732	-0.4338022	-0.1473775	0	-104.037	-58.913	10.8	B5-03822-P03-CH1	700720	OK	0.7696701	-0.6371458	0.040659	0	-100.888	-20.041	-0.498	B5-03822-P04-CH0	700720	OK	0.6778559	-0.2065135	0.7055945	0	-130.101	-30.388	14.514	B5-03822-P04-CH1	700720	OK	0.7847522	-0.6170638	-0.0582774	0	-113.86	-40.265	3.895	NA
0.229818339320747	B5-03822-P01-CH0	700728	OK	0.1969712	0.0592035	0.1108449	-0.9723223	98.737	20.835	-263.085	B5-03822-P02-CH0	700728	OK	0.7268717	0.1249307	-0.6753147	0	-87.956	-101.522	-2.163	B5-03822-P02-CH1	700728	OK	0.6770734	-0.0566314	-0.7337333	0	-87.928	-76.652	1.319	B5-03822-P03-CH0	700728	OK	0.882857	-0.4366561	-0.1729015	0	-104.432	-59.255	10.242	B5-03822-P03-CH1	700728	OK	0.7761668	-0.6293625	0.0383128	0	-101.374	-19.402	2.173	B5-03822-P04-CH0	700728	OK	0.6783488	-0.2105105	0.7039377	0	-130.333	-30.937	15.086	B5-03822-P04-CH1	700728	OK	0.7864642	-0.6159334	-0.0458259	0	-115.39	-41.486	4.968	NA
0.239810441030345	B5-03822-P01-CH0	700736	OK	0.1970715	0.0590558	0.1113982	-0.9722477	98.69	20.854	-263.118	B5-03822-P02-CH0	700736	OK	0.7300735	0.1104893	-0.6743773	0	-86.36	-101.288	-4.776	B5-03822-P02-CH1	700736	OK	0.680327	-0.0608388	-0.7303793	0	-87.799	-76.505	1.231	B5-03822-P03-CH0	700736	OK	0.874787	-0.4376903	-0.2077856	0	-104.792	-58.913	10.671	B5-03822-P03-CH1	700736	OK	0.7757407	-0.6302235	0.0323222	0	-100.398	-21.433	2.725	B5-03822-P04-CH0	700736	OK	0.6789216	-0.2113732	0.7031265	0	-131.413	-31.179	13.368	B5-03822-P04-CH1	700736	OK	0.7871955	-0.6151364	-0.043937	0	-115.296	-41.225	4.163	NA
0.249802542739942	B5-03822-P01-CH0	700744	OK	0.1968874	0.0591333	0.110959	-0.9723305	98.671	20.82	-263.131	B5-03822-P02-CH0	700744	OK	0.7315374	0.0970203	-0.674863	0	-86.32	-100.898	-3.49	B5-03822-P02-CH1	700744	OK	0.6825867	-0.0619365	-0.7281753	0	-87.588	-76.692	0.436	B5-03822-P03-CH0	700744	OK	0.8632348	-0.441085	-0.2454989	0	-104.188	-59.613	9.769	B5-03822-P03-CH1	700744	OK	0.7764403	-0.6295916	0.0274748	0	-100.239	-21.028	1.965	B5-03822-P04-CH0	700744	OK	0.6795257	-0.2139324	0.7017676	0	-131.743	-31.422	13.887	B5-03822-P04-CH1	700744	OK	0.7866509	-0.6159222	-0.0426641	0	-115.396	-41.651	4.852	NA
0.25979464444954	B5-03822-P01-CH0	700752	OK	0.1970618	0.0591193	0.1115361	-0.97223	98.649	20.855	-263.119	B5-03822-P02-CH0	700752	OK	0.7330757	0.0860007	-0.674688	0	-86.729	-100.539	-1.75	B5-03822-P02-CH1	700752	OK	0.6839123	-0.060776	-0.7270284	0	-87.71	-76.281	1.009	B5-03822-P03-CH0	700752	OK	0.8535095	-0.4346721	-0.2873704	0	-103.9	-59.011	9.633	B5-03822-P03-CH1	700752	OK	0.7763442	-0.6299375	0.021643	0	-100.437	-21.132	2.377	B5-03822-P04-CH0	700752	OK	0.6809291	-0.2149208	0.7001033	0	-131.621	-31.703	15.436	B5-03822-P04-CH1	700752	OK	0.7870943	-0.6153856	-0.0422274	0	-115.377	-41.565	5.195	NA
0.269786746159138	B5-03822-P01-CH0	700760	OK	0.1969442	0.0592589	0.1111567	-0.9722888	98.646	20.74	-263.009	B5-03822-P02-CH0	700760	OK	0.7372344	0.0758305	-0.6713681	0	-86.185	-99.838	-3.484	B5-03822-P02-CH1	700760	OK	0.6848032	-0.0556639	-0.726599	0	-87.773	-74.918	1.112	B5-03822-P03-CH0	700760	OK	0.8400378	-0.4211329	-0.3420286	0	-104.111	-58.58	8.231	B5-03822-P03-CH1	700760	OK	0.7762224	-0.6301565	0.0195342	0	-99.771	-21.278	2.661	B5-03822-P04-CH0	700760	OK	0.682628	-0.2164027	0.6979891	0	-131.977	-31.677	14.643	B5-03822-P04-CH1	700760	OK	0.7862844	-0.6159694	-0.0483595	0	-114.892	-41.105	3.957	NA
0.279778847868736	B5-03822-P01-CH0	700768	OK	0.1967118	0.0591863	0.1110398	-0.9723536	98.53	20.694	-262.929	B5-03822-P02-CH0	700768	OK	0.7393577	0.0695683	-0.6697092	0	-86.748	-98.617	-3.113	B5-03822-P02-CH1	700768	OK	0.6849964	-0.0448239	-0.7271663	0	-87.572	-74.083	0.749	B5-03822-P03-CH0	700768	OK	0.8176876	-0.394193	-0.4195223	0	-102.976	-58.179	6.905	B5-03822-P03-CH1	700768	OK	0.775638	-0.6309126	0.0183033	0	-99.706	-21.374	2.096	B5-03822-P04-CH0	700768	OK	0.6821597	-0.2186343	0.6977515	0	-131.391	-31.217	14.508	B5-03822-P04-CH1	700768	OK	0.7861769	-0.6161901	-0.0472812	0	-114.975	-41.238	3.853	NA
0.289770949578333	B5-03822-P01-CH0	700776	OK	0.1964717	0.0595638	0.111228	-0.9723576	98.635	20.728	-262.899	B5-03822-P02-CH0	700776	OK	0.7422485	0.0668751	-0.6667795	0	-87.298	-97.858	-1.008	B5-03822-P02-CH1	700776	OK	0.6832643	-0.0277212	-0.7296447	0	-87.279	-74.185	1.171	B5-03822-P03-CH0	700776	OK	0.7836887	-0.3526236	-0.5113596	0	-101.245	-55.93	2.664	B5-03822-P03-CH1	700776	OK	0.775553	-0.6310958	0.0153468	0	-99.952	-20.93	1.971	B5-03822-P04-CH0	700776	OK	0.6842596	-0.2153707	0.6967096	0	-131.597	-31.679	15.799	B5-03822-P04-CH1	700776	OK	0.786292	-0.6160808	-0.0467905	0	-115.147	-41.352	4.334	NA
0.299763051287931	B5-03822-P01-CH0	700784	OK	0.1961962	0.0597151	0.1110085	-0.9724291	98.617	20.713	-262.89	B5-03822-P02-CH0	700784	OK	0.7456797	0.0680355	-0.662822	0	-87.758	-97.656	-2.276	B5-03822-P02-CH1	700784	OK	0.6788426	-0.0134805	-0.73416	0	-87.001	-73.359	0.954	B5-03822-P03-CH0	700784	OK	0.7466626	-0.2949582	-0.5962337	0	-98.659	-54.654	0.674	B5-03822-P03-CH1	700784	OK	0.7742373	-0.6327582	0.0131786	0	-99.454	-21.344	2.082	B5-03822-P04-CH0	700784	OK	0.6804487	-0.2156922	0.7003331	0	-130.738	-30.519	14.416	B5-03822-P04-CH1	700784	OK	0.7861928	-0.6162133	-0.0467131	0	-115.201	-41.368	4.68	NA
0.309755152997529	B5-03822-P01-CH0	700792	OK	0.196243	0.0596617	0.1116691	-0.9723473	98.579	20.776	-262.91	B5-03822-P02-CH0	700792	OK	0.7492497	0.0705506	-0.6585192	0	-87.444	-96.653	-3.449	B5-03822-P02-CH1	700792	OK	0.6750244	-0.0033791	-0.7377877	0	-85.564	-72.165	1.394	B5-03822-P03-CH0	700792	OK	0.723623	-0.2382221	-0.6477808	0	-95.381	-52.982	0.606	B5-03822-P03-CH1	700792	OK	0.7744203	-0.632548	0.0125003	0	-99.559	-20.761	1.886	B5-03822-P04-CH0	700792	OK	0.6815584	-0.2157587	0.6992327	0	-130.943	-30.894	14.737	B5-03822-P04-CH1	700792	OK	0.7867094	-0.6155392	-0.0469022	0	-115.175	-41.249	4.887	NA
0.319747254707126	B5-03822-P01-CH0	700800	OK	0.1962826	0.0597096	0.1119429	-0.9723048	98.547	20.76	-262.867	B5-03822-P02-CH0	700800	OK	0.7516719	0.0728101	-0.655506	0	-87.987	-95.573	-1.157	B5-03822-P02-CH1	700800	OK	0.6707195	0.0035654	-0.7417025	0	-85.085	-71.972	1.078	B5-03822-P03-CH0	700800	OK	0.715355	-0.2168029	-0.6642768	0	-96.448	-52.772	3.065	B5-03822-P03-CH1	700800	OK	0.7734575	-0.6337157	0.012956	0	-99.851	-21.289	2.277	B5-03822-P04-CH0	700800	OK	0.6853109	-0.2173485	0.6950601	0	-131.065	-29.086	12.063	B5-03822-P04-CH1	700800	OK	0.7868705	-0.6152903	-0.0474614	0	-115.002	-41.179	5.013	NA
0.329739356416724	B5-03822-P01-CH0	700808	OK	0.1961327	0.0596719	0.1119007	-0.9723423	98.456	20.738	-262.91	B5-03822-P02-CH0	700808	OK	0.754666	0.0763113	-0.6516562	0	-88.296	-95.623	-0.957	B5-03822-P02-CH1	700808	OK	0.6647458	0.0099894	-0.7470028	0	-85.025	-71.679	1.189	B5-03822-P03-CH0	700808	OK	0.7198927	-0.2318545	-0.6542156	0	-97.148	-51.689	1.889	B5-03822-P03-CH1	700808	OK	0.7753173	-0.6313363	0.0172495	0	-99.808	-21.139	2.743	B5-03822-P04-CH0	700808	OK	0.6847436	-0.2178718	0.6954553	0	-129.944	-28.799	12.862	B5-03822-P04-CH1	700808	OK	0.7867246	-0.6153897	-0.0485787	0	-114.757	-41.071	5.213	NA
0.339731458126322	B5-03822-P01-CH0	700816	OK	0.1958653	0.0597436	0.1115182	-0.9724357	98.41	20.717	-262.872	B5-03822-P02-CH0	700816	OK	0.757302	0.0849406	-0.6475174	0	-88.658	-94.353	-0.951	B5-03822-P02-CH1	700816	OK	0.6586296	0.0178451	-0.7522557	0	-84.21	-70.767	-0.01	B5-03822-P03-CH0	700816	OK	0.7265167	-0.255781	-0.6377693	0	-97.093	-50.956	1.428	B5-03822-P03-CH1	700816	OK	0.7745223	-0.6323591	0.0154017	0	-99.86	-21.103	2.726	B5-03822-P04-CH0	700816	OK	0.6840601	-0.2195022	0.6956153	0	-129.339	-29.193	12.199	B5-03822-P04-CH1	700816	OK	0.7862965	-0.6158142	-0.0501066	0	-114.546	-40.867	5.124	NA
0.349723559835919	B5-03822-P01-CH0	700824	OK	0.1956587	0.0599913	0.1116163	-0.9724508	98.455	20.742	-262.81	B5-03822-P02-CH0	700824	OK	0.7590968	0.0970232	-0.6437069	0	-89.611	-94.088	0.169	B5-03822-P02-CH1	700824	OK	0.6501741	0.0264301	-0.7593254	0	-84.03	-70.81	0.122	B5-03822-P03-CH0	700824	OK	0.7349628	-0.2915404	-0.6122367	0	-98.574	-50.951	2.406	B5-03822-P03-CH1	700824	OK	0.7713302	-0.6362818	0.0139678	0	-99.697	-20.89	1.594	B5-03822-P04-CH0	700824	OK	0.6822376	-0.2306551	0.693794	0	-128.155	-27.025	10.059	B5-03822-P04-CH1	700824	OK	0.786201	-0.6157787	-0.0520047	0	-114.403	-40.599	5.158	NA
0.359715661545517	B5-03822-P01-CH0	700832	OK	0.1955007	0.0599414	0.1116777	-0.9724786	98.411	20.675	-262.79	B5-03822-P02-CH0	700832	OK	0.7623955	0.1108263	-0.6375505	0	-89.45	-94.582	-0.598	B5-03822-P02-CH1	700832	OK	0.6395823	0.0378489	-0.7677903	0	-83.427	-71.141	1.047	B5-03822-P03-CH0	700832	OK	0.743513	-0.3325496	-0.5801716	0	-100.381	-50.553	0.681	B5-03822-P03-CH1	700832	OK	0.7717128	-0.6358208	0.0138313	0	-99.227	-20.2	0.311	B5-03822-P04-CH0	700832	OK	0.6849325	-0.2290364	0.6916718	0	-128.749	-27.961	12.087	B5-03822-P04-CH1	700832	OK	0.7860025	-0.615873	-0.0538556	0	-114.245	-40.437	4.951	NA
0.369707763255115	B5-03822-P01-CH0	700840	OK	0.1954406	0.0598825	0.1118692	-0.9724723	98.344	20.678	-262.814	B5-03822-P02-CH0	700840	OK	0.7636498	0.1257903	-0.6332581	0	-89.5	-93.795	-1.295	B5-03822-P02-CH1	700840	OK	0.627773	0.0453292	-0.7770755	0	-81.628	-69.479	1.324	B5-03822-P03-CH0	700840	OK	0.7566711	-0.3831973	-0.529725	0	-99.605	-51.441	2.431	B5-03822-P03-CH1	700840	OK	0.7731632	-0.634067	0.0133299	0	-99.636	-20.838	1.767	B5-03822-P04-CH0	700840	OK	0.6860771	-0.2344303	0.6887239	0	-128.514	-26.991	12.401	B5-03822-P04-CH1	700840	OK	0.7858574	-0.6159207	-0.055407	0	-114.054	-40.274	4.982	NA
0.379699864964712	B5-03822-P01-CH0	700848	OK	0.1953415	0.0596673	0.1122234	-0.9724646	98.244	20.738	-262.888	B5-03822-P02-CH0	700848	OK	0.7628818	0.1357027	-0.6321362	0	-90.718	-93.747	-0.148	B5-03822-P02-CH1	700848	OK	0.6173214	0.0551834	-0.7847733	0	-80.772	-69.095	0.658	B5-03822-P03-CH0	700848	OK	0.7725186	-0.4426882	-0.4552385	0	-100.746	-52.599	4.684	B5-03822-P03-CH1	700848	OK	0.772929	-0.634354	0.013261	0	-99.561	-20.739	1.669	B5-03822-P04-CH0	700848	OK	0.6853144	-0.2396068	0.6877011	0	-127.889	-26.682	12.172	B5-03822-P04-CH1	700848	OK	0.7859552	-0.615643	-0.05708	0	-113.915	-39.9	4.818	NA
0.38969196667431	B5-03822-P01-CH0	700856	OK	0.1954351	0.0595226	0.1128625	-0.9723807	98.141	20.8	-262.853	B5-03822-P02-CH0	700856	OK	0.7640792	0.1464748	-0.6282739	0	-90.982	-92.631	0.594	B5-03822-P02-CH1	700856	OK	0.608992	0.0693238	-0.7901411	0	-80.045	-69.03	-0.351	B5-03822-P03-CH0	700856	OK	0.7829504	-0.4964282	-0.3748969	0	-101.655	-53.632	3.81	B5-03822-P03-CH1	700856	OK	0.7729486	-0.6343217	0.0136542	0	-99.567	-20.591	1.219	B5-03822-P04-CH0	700856	OK	0.6866907	-0.2405078	0.6860116	0	-128.392	-26.715	11.802	B5-03822-P04-CH1	700856	OK	0.7861715	-0.615259	-0.0582306	0	-113.814	-39.56	4.371	NA
0.399684068383908	B5-03822-P01-CH0	700864	OK	0.1955427	0.0594917	0.1130402	-0.9723403	98.081	20.769	-262.793	B5-03822-P02-CH0	700864	OK	0.7665125	0.1542674	-0.6234261	0	-91.083	-93.433	-0.893	B5-03822-P02-CH1	700864	OK	0.5995473	0.0872938	-0.7955645	0	-79.599	-69.08	0.935	B5-03822-P03-CH0	700864	OK	0.7875947	-0.5404684	-0.2959537	0	-100.369	-54.678	4.921	B5-03822-P03-CH1	700864	OK	0.7728131	-0.6344734	0.0142647	0	-99.522	-20.53	0.979	B5-03822-P04-CH0	700864	OK	0.6860819	-0.2435997	0.6855296	0	-127.889	-26.346	12.844	B5-03822-P04-CH1	700864	OK	0.7860997	-0.6152245	-0.0595487	0	-113.745	-39.307	4.041	NA
0.409676170093506	B5-03822-P01-CH0	700872	OK	0.1955516	0.0593091	0.1131247	-0.9723399	97.969	20.681	-262.798	B5-03822-P02-CH0	700872	OK	0.7691777	0.1595365	-0.6188003	0	-91.329	-93.514	-0.076	B5-03822-P02-CH1	700872	OK	0.5916935	0.1054459	-0.7992371	0	-78.4	-69.108	0.972	B5-03822-P03-CH0	700872	OK	0.7878363	-0.5702922	-0.2325526	0	-99.348	-54.75	4.075	B5-03822-P03-CH1	700872	OK	0.7726179	-0.6346966	0.0148899	0	-99.317	-20.541	0.582	B5-03822-P04-CH0	700872	OK	0.6845672	-0.2463864	0.6860477	0	-127.093	-26.883	13.367	B5-03822-P04-CH1	700872	OK	0.786032	-0.6151965	-0.0607199	0	-113.524	-39.124	3.896	NA
0.419668271803103	B5-03822-P01-CH0	700880	OK	0.1954793	0.0595144	0.1131364	-0.9723405	97.998	20.736	-262.844	B5-03822-P02-CH0	700880	OK	0.7732048	0.1657967	-0.6120995	0	-91.415	-92.824	0.043	B5-03822-P02-CH1	700880	OK	0.5833011	0.1190774	-0.8034802	0	-78.482	-68.543	0.644	B5-03822-P03-CH0	700880	OK	0.7852211	-0.5903701	-0.1867913	0	-98.935	-54.836	4.328	B5-03822-P03-CH1	700880	OK	0.7723309	-0.6350344	0.01537	0	-99.227	-20.588	0.602	B5-03822-P04-CH0	700880	OK	0.684561	-0.2487448	0.6852023	0	-127.351	-26.516	12.809	B5-03822-P04-CH1	700880	OK	0.785876	-0.6152807	-0.0618751	0	-113.59	-38.91	3.976	NA
0.429660373512701	B5-03822-P01-CH0	700888	OK	0.1953158	0.0597947	0.1127267	-0.9724037	98.039	20.664	-262.767	B5-03822-P02-CH0	700888	OK	0.7786902	0.1696474	-0.6040376	0	-91.01	-92.459	-1.275	B5-03822-P02-CH1	700888	OK	0.576077	0.1239914	-0.8079365	0	-78.815	-66.632	0.934	B5-03822-P03-CH0	700888	OK	0.7839688	-0.6029406	-0.1478365	0	-98.387	-55.215	5.02	B5-03822-P03-CH1	700888	OK	0.7719675	-0.635467	0.0157436	0	-99.176	-20.626	0.393	B5-03822-P04-CH0	700888	OK	0.6842846	-0.2425649	0.6876895	0	-127.49	-26.255	11.527	B5-03822-P04-CH1	700888	OK	0.7855773	-0.6155306	-0.0631685	0	-113.681	-38.635	3.816	NA
0.439652475222299	B5-03822-P01-CH0	700896	OK	0.1955012	0.0596707	0.1134449	-0.9722906	97.962	20.724	-262.77	B5-03822-P02-CH0	700896	OK	0.7800912	0.1708432	-0.601889	0	-92.009	-91.918	0.315	B5-03822-P02-CH1	700896	OK	0.5831225	0.1231855	-0.8029903	0	-77.615	-68.842	1.253	B5-03822-P03-CH0	700896	OK	0.7861445	-0.6072231	-0.115139	0	-98.212	-54.529	4.362	B5-03822-P03-CH1	700896	OK	0.7724562	-0.6348561	0.016404	0	-99.045	-20.589	0.166	B5-03822-P04-CH0	700896	OK	0.6848028	-0.2442715	0.6865687	0	-127.534	-26.16	11.616	B5-03822-P04-CH1	700896	OK	0.7859817	-0.6149474	-0.0638155	0	-113.658	-38.417	3.713	NA
0.449644576931896	B5-03822-P01-CH0	700904	OK	0.1954711	0.0596291	0.1131865	-0.9723293	97.907	20.646	-262.812	B5-03822-P02-CH0	700904	OK	0.781754	0.1732072	-0.5990491	0	-92.621	-91.253	1.422	B5-03822-P02-CH1	700904	OK	0.5913645	0.1077932	-0.7991674	0	-77.33	-68.002	0.485	B5-03822-P03-CH0	700904	OK	0.7888652	-0.6079724	-0.0897845	0	-99.002	-54.25	5.373	B5-03822-P03-CH1	700904	OK	0.7724196	-0.634892	0.0167396	0	-98.921	-20.674	0.235	B5-03822-P04-CH0	700904	OK	0.6847681	-0.2461936	0.6859165	0	-127.442	-26.128	11.835	B5-03822-P04-CH1	700904	OK	0.7856568	-0.6153132	-0.0642881	0	-113.645	-38.402	3.54	NA
0.459636678641494	B5-03822-P01-CH0	700912	OK	0.1951315	0.0596392	0.1125402	-0.9724719	97.816	20.633	-262.76	B5-03822-P02-CH0	700912	OK	0.784385	0.1745736	-0.595201	0	-92.336	-90.953	2.244	B5-03822-P02-CH1	700912	OK	0.5971162	0.0977957	-0.796171	0	-77.475	-68.284	0.039	B5-03822-P03-CH0	700912	OK	0.7915331	-0.6068842	-0.0718819	0	-99.069	-53.6	5.319	B5-03822-P03-CH1	700912	OK	0.7721397	-0.6352338	0.0166825	0	-98.943	-20.591	0.113	B5-03822-P04-CH0	700912	OK	0.6842623	-0.2484749	0.6855985	0	-127.354	-25.923	11.442	B5-03822-P04-CH1	700912	OK	0.7852892	-0.6156893	-0.0651726	0	-113.593	-38.136	3.438	NA
0.469628780351092	B5-03822-P01-CH0	700920	OK	0.1950059	0.0597203	0.1122156	-0.9725296	97.787	20.606	-262.698	B5-03822-P02-CH0	700920	OK	0.784192	0.1755599	-0.5951652	0	-93.159	-91.102	2.713	B5-03822-P02-CH1	700920	OK	0.5991139	0.0862972	-0.7959996	0	-77.823	-67.75	1.218	B5-03822-P03-CH0	700920	OK	0.7924742	-0.6070046	-0.0594137	0	-98.595	-53.907	5.45	B5-03822-P03-CH1	700920	OK	0.7722219	-0.6351348	0.0166489	0	-98.959	-20.476	-0.094	B5-03822-P04-CH0	700920	OK	0.6841194	-0.2495402	0.6853541	0	-127.336	-25.96	11.49	B5-03822-P04-CH1	700920	OK	0.7851008	-0.6158628	-0.0658009	0	-113.658	-37.997	3.326	NA
0.479620882060689	B5-03822-P01-CH0	700928	OK	0.1951662	0.060148	0.1121006	-0.9724844	97.921	20.553	-262.668	B5-03822-P02-CH0	700928	OK	0.7845437	0.1768898	-0.5943074	0	-93.273	-90.99	3.349	B5-03822-P02-CH1	700928	OK	0.6018353	0.0762824	-0.7949687	0	-77.33	-67.062	0.567	B5-03822-P03-CH0	700928	OK	0.7934462	-0.6059879	-0.0567608	0	-99.438	-53.737	6.285	B5-03822-P03-CH1	700928	OK	0.7724318	-0.6348704	0.0169925	0	-99.052	-20.57	-0.033	B5-03822-P04-CH0	700928	OK	0.6839792	-0.2501148	0.6852847	0	-127.385	-26.161	11.354	B5-03822-P04-CH1	700928	OK	0.7849449	-0.6160437	-0.0659676	0	-113.706	-38.1	3.367	NA
0.489612983770287	B5-03822-P01-CH0	700936	OK	0.1951727	0.060223	0.1116487	-0.9725304	97.928	20.498	-262.684	B5-03822-P02-CH0	700936	OK	0.7857	0.180411	-0.5917156	0	-92.872	-90.322	3.05	B5-03822-P02-CH1	700936	OK	0.6010954	0.0731868	-0.7958191	0	-77.955	-67.385	1.15	B5-03822-P03-CH0	700936	OK	0.7917518	-0.6079446	-0.0594342	0	-98.757	-53.959	6.046	B5-03822-P03-CH1	700936	OK	0.7724654	-0.6348213	0.0172956	0	-99.08	-20.644	0.099	B5-03822-P04-CH0	700936	OK	0.6838209	-0.2505857	0.6852706	0	-127.313	-26.267	11.789	B5-03822-P04-CH1	700936	OK	0.7847811	-0.6162106	-0.0663555	0	-113.646	-38.075	3.543	NA
0.499605085479885	B5-03822-P01-CH0	700944	OK	0.1952736	0.0603075	0.1117467	-0.9724937	97.945	20.464	-262.647	B5-03822-P02-CH0	700944	OK	0.7850915	0.1815486	-0.5921751	0	-93.353	-90.443	4.623	B5-03822-P02-CH1	700944	OK	0.601801	0.0754524	-0.7950739	0	-77.102	-68.142	0.8	B5-03822-P03-CH0	700944	OK	0.7891477	-0.609829	-0.0731745	0	-98.958	-53.467	5.971	B5-03822-P03-CH1	700944	OK	0.7726736	-0.6345539	0.017801	0	-99.071	-20.864	0.077	B5-03822-P04-CH0	700944	OK	0.6837496	-0.2507628	0.6852769	0	-127.277	-26.396	11.68	B5-03822-P04-CH1	700944	OK	0.7849035	-0.6160329	-0.0665581	0	-113.639	-38.126	3.665	NA
0.509597187189483	B5-03822-P01-CH0	700952	OK	0.1953321	0.0606373	0.1115773	-0.9724809	98.044	20.468	-262.621	B5-03822-P02-CH0	700952	OK	0.7848167	0.1828109	-0.5921511	0	-94.18	-90.974	4.516	B5-03822-P02-CH1	700952	OK	0.5996325	0.079825	-0.7962844	0	-77.279	-68.532	1.161	B5-03822-P03-CH0	700952	OK	0.7846392	-0.6134408	-0.0896197	0	-98.604	-53.376	5.454	B5-03822-P03-CH1	700952	OK	0.7729854	-0.634166	0.0180846	0	-99.196	-20.879	0.429	B5-03822-P04-CH0	700952	OK	0.6839344	-0.2508378	0.685065	0	-127.389	-26.364	11.662	B5-03822-P04-CH1	700952	OK	0.7848356	-0.616105	-0.0666908	0	-113.682	-38.166	3.706	NA
0.51958928889908	B5-03822-P01-CH0	700960	OK	0.1954342	0.0605135	0.1117598	-0.9724471	97.972	20.464	-262.562	B5-03822-P02-CH0	700960	OK	0.7850197	0.1884038	-0.5901254	0	-94.544	-90.442	4.875	B5-03822-P02-CH1	700960	OK	0.5982167	0.0794557	-0.7973855	0	-76.762	-67.256	0.51	B5-03822-P03-CH0	700960	OK	0.7797899	-0.6160919	-0.1111692	0	-98.882	-52.811	4.373	B5-03822-P03-CH1	700960	OK	0.7735765	-0.6334346	0.0184394	0	-99.317	-20.789	0.459	B5-03822-P04-CH0	700960	OK	0.6839691	-0.2506748	0.68509	0	-127.288	-26.292	11.716	B5-03822-P04-CH1	700960	OK	0.7851787	-0.6156551	-0.0668072	0	-113.588	-37.993	3.508	NA
0.529581390608678	B5-03822-P01-CH0	700968	OK	0.1954193	0.0604453	0.1115469	-0.9724788	97.917	20.476	-262.573	B5-03822-P02-CH0	700968	OK	0.7871324	0.1946998	-0.5852475	0	-93.963	-90.178	3.94	B5-03822-P02-CH1	700968	OK	0.594703	0.0788838	-0.800066	0	-77.553	-66.678	0.651	B5-03822-P03-CH0	700968	OK	0.7732062	-0.6197218	-0.1345254	0	-98.615	-53.442	3.678	B5-03822-P03-CH1	700968	OK	0.7738013	-0.6331477	0.0188547	0	-99.298	-20.767	0.675	B5-03822-P04-CH0	700968	OK	0.6839211	-0.2504016	0.6852379	0	-127.233	-26.256	11.777	B5-03822-P04-CH1	700968	OK	0.785047	-0.6158019	-0.067001	0	-113.554	-38.039	3.509	NA
0.539573492318276	B5-03822-P01-CH0	700976	OK	0.1953638	0.0607592	0.1108413	-0.972551	97.996	20.376	-262.478	B5-03822-P02-CH0	700976	OK	0.7893848	0.1986077	-0.5808843	0	-93.38	-90.943	2.075	B5-03822-P02-CH1	700976	OK	0.5923395	0.0798352	-0.8017233	0	-77.86	-66.65	2.101	B5-03822-P03-CH0	700976	OK	0.7684921	-0.6192132	-0.1612293	0	-98.419	-52.706	4.526	B5-03822-P03-CH1	700976	OK	0.773753	-0.6332004	0.0190673	0	-99.505	-20.796	0.807	B5-03822-P04-CH0	700976	OK	0.6836846	-0.2501677	0.6855593	0	-127.152	-26.307	11.728	B5-03822-P04-CH1	700976	OK	0.7846643	-0.6162626	-0.0672478	0	-113.615	-38.15	3.645	NA
0.549565594027873	B5-03822-P01-CH0	700984	OK	0.1952391	0.0606495	0.1107493	-0.9725934	97.925	20.326	-262.368	B5-03822-P02-CH0	700984	OK	0.787888	0.2014921	-0.5819222	0	-93.713	-90.844	4.368	B5-03822-P02-CH1	700984	OK	0.5941057	0.0781218	-0.8005844	0	-77.4	-67.483	1.529	B5-03822-P03-CH0	700984	OK	0.7628664	-0.6184161	-0.1886701	0	-98.578	-52.507	3.785	B5-03822-P03-CH1	700984	OK	0.7738944	-0.6330181	0.0193774	0	-99.482	-20.807	0.764	B5-03822-P04-CH0	700984	OK	0.6836699	-0.2504771	0.6854609	0	-127.08	-26.146	11.471	B5-03822-P04-CH1	700984	OK	0.7847793	-0.616065	-0.0677153	0	-113.56	-38.046	3.559	NA
0.559557695737471	B5-03822-P01-CH0	700992	OK	0.1954693	0.0609711	0.1110898	-0.9724882	98.06	20.352	-262.322	B5-03822-P02-CH0	700992	OK	0.7874952	0.2029987	-0.5819303	0	-93.45	-90.128	3.998	B5-03822-P02-CH1	700992	OK	0.5960061	0.0729312	-0.7996611	0	-77.469	-66.974	1.573	B5-03822-P03-CH0	700992	OK	0.7566325	-0.6173691	-0.2153198	0	-98.403	-52.688	3.567	B5-03822-P03-CH1	700992	OK	0.7742635	-0.6325476	0.0199895	0	-99.601	-20.937	0.962	B5-03822-P04-CH0	700992	OK	0.6842154	-0.2495375	0.6852593	0	-127.165	-26.26	11.932	B5-03822-P04-CH1	700992	OK	0.7849829	-0.6158272	-0.0675182	0	-113.463	-38.185	3.786	NA
0.569549797447069	B5-03822-P01-CH0	701000	OK	0.1954754	0.0609251	0.1112184	-0.9724752	98.031	20.358	-262.275	B5-03822-P02-CH0	701000	OK	0.7872643	0.1977588	-0.5840431	0	-93.28	-91.296	4.137	B5-03822-P02-CH1	701000	OK	0.5996487	0.0712683	-0.7970836	0	-77.636	-67.838	1.135	B5-03822-P03-CH0	701000	OK	0.749988	-0.6156275	-0.2419108	0	-98.358	-52.227	1.506	B5-03822-P03-CH1	701000	OK	0.7745779	-0.6321517	0.0203323	0	-99.546	-20.899	1.049	B5-03822-P04-CH0	701000	OK	0.6843665	-0.2493335	0.6851826	0	-127.142	-26.177	11.932	B5-03822-P04-CH1	701000	OK	0.7851818	-0.6155484	-0.0677476	0	-113.396	-38.097	3.715	NA
0.579541899156666	B5-03822-P01-CH0	701008	OK	0.1954072	0.0609304	0.1112744	-0.9724821	98.042	20.389	-262.259	B5-03822-P02-CH0	701008	OK	0.7874612	0.1964953	-0.5842041	0	-92.799	-91.201	2.473	B5-03822-P02-CH1	701008	OK	0.6036265	0.0670772	-0.7944405	0	-77.131	-67.036	0.918	B5-03822-P03-CH0	701008	OK	0.7456634	-0.6119371	-0.2636646	0	-97.768	-51.566	1.853	B5-03822-P03-CH1	701008	OK	0.7747051	-0.6319927	0.0204275	0	-99.638	-20.867	1.067	B5-03822-P04-CH0	701008	OK	0.6846087	-0.2491891	0.6849933	0	-127.15	-26.037	12.112	B5-03822-P04-CH1	701008	OK	0.7854717	-0.6151343	-0.0681469	0	-113.391	-37.933	3.983	NA
0.589534000866264	B5-03822-P01-CH0	701016	OK	0.1957116	0.0610243	0.1115211	-0.9723868	98.093	20.425	-262.2	B5-03822-P02-CH0	701016	OK	0.7862243	0.1948133	-0.5864291	0	-92.884	-91.765	2.583	B5-03822-P02-CH1	701016	OK	0.605709	0.0633041	-0.793164	0	-77.219	-66.538	0.727	B5-03822-P03-CH0	701016	OK	0.7427151	-0.6095202	-0.2772351	0	-97.524	-51.681	2.555	B5-03822-P03-CH1	701016	OK	0.7748967	-0.6317387	0.0210092	0	-99.546	-20.919	1.053	B5-03822-P04-CH0	701016	OK	0.6847369	-0.248567	0.6850912	0	-127.187	-26.006	11.791	B5-03822-P04-CH1	701016	OK	0.7856173	-0.6149554	-0.0680831	0	-113.467	-37.964	3.844	NA
0.599526102575862	B5-03822-P01-CH0	701024	OK	0.1956328	0.0611415	0.1111104	-0.9724423	98.114	20.43	-262.122	B5-03822-P02-CH0	701024	OK	0.7837082	0.1941035	-0.5900214	0	-92.797	-90.738	4.151	B5-03822-P02-CH1	701024	OK	0.6063703	0.0611762	-0.7928257	0	-78.004	-66.42	2.257	B5-03822-P03-CH0	701024	OK	0.7408074	-0.6073116	-0.287014	0	-96.548	-51.6	1.555	B5-03822-P03-CH1	701024	OK	0.7748263	-0.6318305	0.0208439	0	-99.539	-20.728	0.984	B5-03822-P04-CH0	701024	OK	0.6847849	-0.248341	0.6851251	0	-127.17	-25.905	11.935	B5-03822-P04-CH1	701024	OK	0.7853827	-0.6152163	-0.0684324	0	-113.396	-37.935	3.907	NA
0.609518204285459	B5-03822-P01-CH0	701032	OK	0.1955891	0.0612863	0.1107548	-0.9724825	98.165	20.436	-262.049	B5-03822-P02-CH0	701032	OK	0.782427	0.1929859	-0.5920849	0	-92.242	-91.751	2.476	B5-03822-P02-CH1	701032	OK	0.6093028	0.0607016	-0.7906108	0	-78.236	-67.278	1.505	B5-03822-P03-CH0	701032	OK	0.7380319	-0.60459	-0.299633	0	-97.284	-51.234	1.057	B5-03822-P03-CH1	701032	OK	0.7746063	-0.6321021	0.0207851	0	-99.623	-20.724	0.831	B5-03822-P04-CH0	701032	OK	0.6848699	-0.2480852	0.6851328	0	-127.252	-25.89	11.841	B5-03822-P04-CH1	701032	OK	0.7852606	-0.6153123	-0.0689671	0	-113.525	-37.816	4	NA
0.619510305995057	B5-03822-P01-CH0	701040	OK	0.1957091	0.0615054	0.1104988	-0.9724737	98.278	20.423	-262.004	B5-03822-P02-CH0	701040	OK	0.7794915	0.1947485	-0.5953705	0	-91.64	-91.852	1.66	B5-03822-P02-CH1	701040	OK	0.611342	0.0564536	-0.7893503	0	-78.465	-67.327	0.85	B5-03822-P03-CH0	701040	OK	0.7361221	-0.6015352	-0.3102896	0	-97.5	-51.224	1.609	B5-03822-P03-CH1	701040	OK	0.7744908	-0.6322402	0.0208885	0	-99.627	-20.807	0.912	B5-03822-P04-CH0	701040	OK	0.6850985	-0.2477692	0.6850185	0	-127.328	-25.947	11.913	B5-03822-P04-CH1	701040	OK	0.7850472	-0.6155678	-0.0691175	0	-113.633	-37.935	4.102	NA
0.629502407704655	B5-03822-P01-CH0	701048	OK	0.1958625	0.0614197	0.1102617	-0.9724751	98.295	20.372	-261.985	B5-03822-P02-CH0	701048	OK	0.7765141	0.1972706	-0.598423	0	-90.871	-91.344	0.914	B5-03822-P02-CH1	701048	OK	0.6116904	0.0524811	-0.7893546	0	-79.266	-67.905	1.545	B5-03822-P03-CH0	701048	OK	0.7346054	-0.5994371	-0.3178524	0	-97.31	-51.419	1.241	B5-03822-P03-CH1	701048	OK	0.7744603	-0.63228	0.0208157	0	-99.586	-20.865	0.852	B5-03822-P04-CH0	701048	OK	0.6851556	-0.2475362	0.6850457	0	-127.314	-26.021	11.834	B5-03822-P04-CH1	701048	OK	0.7849255	-0.6157357	-0.069004	0	-113.454	-38.038	4.106	NA
0.639494509414253	B5-03822-P01-CH0	701056	OK	0.1960383	0.0614583	0.1104055	-0.9724209	98.33	20.463	-261.949	B5-03822-P02-CH0	701056	OK	0.7726262	0.1992132	-0.6027959	0	-90.901	-92.062	1.035	B5-03822-P02-CH1	701056	OK	0.6136215	0.0479103	-0.7881455	0	-78.782	-67.602	1.7	B5-03822-P03-CH0	701056	OK	0.7340876	-0.5977461	-0.3222034	0	-96.587	-51.425	1.278	B5-03822-P03-CH1	701056	OK	0.7745763	-0.6321383	0.0207995	0	-99.504	-20.881	0.932	B5-03822-P04-CH0	701056	OK	0.6856078	-0.2473341	0.6846662	0	-127.419	-25.938	11.997	B5-03822-P04-CH1	701056	OK	0.7850518	-0.6155664	-0.0690774	0	-113.455	-37.982	4.192	NA
0.64948661112385	B5-03822-P01-CH0	701064	OK	0.1965511	0.0616721	0.1108246	-0.9722562	98.465	20.584	-261.924	B5-03822-P02-CH0	701064	OK	0.7720353	0.2045021	-0.6017811	0	-89.51	-92.648	-2.03	B5-03822-P02-CH1	701064	OK	0.6150642	0.0431589	-0.7872949	0	-78.569	-67.459	0.979	B5-03822-P03-CH0	701064	OK	0.7326172	-0.5970555	-0.3267977	0	-97.324	-51.646	0.731	B5-03822-P03-CH1	701064	OK	0.7749943	-0.6316153	0.0211158	0	-99.562	-20.883	0.942	B5-03822-P04-CH0	701064	OK	0.6859642	-0.2469472	0.6844488	0	-127.537	-25.922	11.879	B5-03822-P04-CH1	701064	OK	0.7853349	-0.6152407	-0.0687606	0	-113.538	-38.01	4.272	NA
0.659478712833448	B5-03822-P01-CH0	701072	OK	0.1968357	0.0614173	0.110904	-0.9722057	98.437	20.671	-261.928	B5-03822-P02-CH0	701072	OK	0.7679881	0.2080685	-0.6057242	0	-89.76	-92.494	-0.102	B5-03822-P02-CH1	701072	OK	0.6161862	0.0408428	-0.7865408	0	-78.903	-67.701	0.797	B5-03822-P03-CH0	701072	OK	0.7320428	-0.5947434	-0.3322553	0	-97.622	-50.8	0.971	B5-03822-P03-CH1	701072	OK	0.7751895	-0.6313723	0.0212193	0	-99.509	-20.8	0.857	B5-03822-P04-CH0	701072	OK	0.6860563	-0.2467839	0.6844154	0	-127.555	-25.858	11.797	B5-03822-P04-CH1	701072	OK	0.785448	-0.6150806	-0.068901	0	-113.608	-37.906	4.124	NA
0.669470814543046	B5-03822-P01-CH0	701080	OK	0.1967066	0.0616365	0.1100099	-0.9723195	98.582	20.62	-261.968	B5-03822-P02-CH0	701080	OK	0.7649299	0.2104542	-0.6087621	0	-90.065	-92.733	-0.291	B5-03822-P02-CH1	701080	OK	0.6186672	0.0394948	-0.7846599	0	-78.583	-68.156	0.977	B5-03822-P03-CH0	701080	OK	0.7303005	-0.5940108	-0.3373608	0	-97.552	-50.966	0.911	B5-03822-P03-CH1	701080	OK	0.7745899	-0.6321166	0.0209551	0	-99.623	-20.978	1.003	B5-03822-P04-CH0	701080	OK	0.6859835	-0.2470362	0.6843973	0	-127.647	-25.862	11.875	B5-03822-P04-CH1	701080	OK	0.7848112	-0.6158668	-0.0691339	0	-113.588	-38.036	4.135	NA
0.679462916252643	B5-03822-P01-CH0	701088	OK	0.1969749	0.0613952	0.1099913	-0.9722826	98.556	20.59	-261.907	B5-03822-P02-CH0	701088	OK	0.7626369	0.2113899	-0.6113094	0	-89.565	-92.252	0.026	B5-03822-P02-CH1	701088	OK	0.6205789	0.0383861	-0.7832039	0	-78.525	-68.733	0.93	B5-03822-P03-CH0	701088	OK	0.7300241	-0.5930616	-0.3396215	0	-97.251	-50.759	0.856	B5-03822-P03-CH1	701088	OK	0.7747029	-0.6319723	0.0211302	0	-99.458	-21.012	0.866	B5-03822-P04-CH0	701088	OK	0.6856643	-0.2474059	0.6845836	0	-127.479	-25.771	11.631	B5-03822-P04-CH1	701088	OK	0.7848249	-0.6158783	-0.0688748	0	-113.485	-38.088	3.792	NA
0.689455017962241	B5-03822-P01-CH0	701096	OK	0.1969167	0.0613777	0.1094048	-0.9723616	98.616	20.563	-261.984	B5-03822-P02-CH0	701096	OK	0.7626001	0.210413	-0.6116923	0	-88.83	-93.042	-0.646	B5-03822-P02-CH1	701096	OK	0.6214434	0.0355912	-0.7826502	0	-78.479	-67.371	0.507	B5-03822-P03-CH0	701096	OK	0.7289579	-0.5939183	-0.3404136	0	-97.382	-50.797	0.705	B5-03822-P03-CH1	701096	OK	0.7743898	-0.632365	0.020857	0	-99.484	-21.03	0.695	B5-03822-P04-CH0	701096	OK	0.6852662	-0.2479635	0.6847805	0	-127.4	-25.778	11.709	B5-03822-P04-CH1	701096	OK	0.7844566	-0.6163281	-0.0690472	0	-113.439	-38.116	3.747	NA
0.699447119671839	B5-03822-P01-CH0	701104	OK	0.1970779	0.0612859	0.1093735	-0.9723383	98.663	20.572	-262.044	B5-03822-P02-CH0	701104	OK	0.7626195	0.2102131	-0.6117368	0	-88.264	-92.573	-1.237	B5-03822-P02-CH1	701104	OK	0.6214694	0.0354717	-0.782635	0	-78.953	-67.856	0.907	B5-03822-P03-CH0	701104	OK	0.7283809	-0.5952151	-0.3393822	0	-96.636	-51.411	1.703	B5-03822-P03-CH1	701104	OK	0.7744528	-0.6322835	0.0209856	0	-99.599	-21.136	0.87	B5-03822-P04-CH0	701104	OK	0.6851252	-0.2479823	0.6849147	0	-127.445	-25.883	11.585	B5-03822-P04-CH1	701104	OK	0.7844695	-0.6163082	-0.0690781	0	-113.512	-38.107	3.642	NA
0.709439221381436	B5-03822-P01-CH0	701112	OK	0.1970164	0.0608599	0.1089942	-0.9724201	98.541	20.513	-262.041	B5-03822-P02-CH0	701112	OK	0.76325	0.2073633	-0.6119231	0	-88.243	-93.497	-2.077	B5-03822-P02-CH1	701112	OK	0.6213936	0.0353531	-0.7827006	0	-79.23	-67.335	0.638	B5-03822-P03-CH0	701112	OK	0.7273479	-0.5957087	-0.3407288	0	-97.251	-51.272	0.746	B5-03822-P03-CH1	701112	OK	0.7742602	-0.6325208	0.0209407	0	-99.492	-21.137	0.589	B5-03822-P04-CH0	701112	OK	0.6846063	-0.2485736	0.6852193	0	-127.223	-25.781	11.523	B5-03822-P04-CH1	701112	OK	0.784228	-0.6166234	-0.0690073	0	-113.347	-38.156	3.516	NA
0.719431323091034	B5-03822-P01-CH0	701120	OK	0.1970891	0.060696	0.1088594	-0.9724307	98.537	20.538	-262.111	B5-03822-P02-CH0	701120	OK	0.761804	0.2069559	-0.6138599	0	-88.74	-92.879	-1.342	B5-03822-P02-CH1	701120	OK	0.6226517	0.034942	-0.7817186	0	-78.819	-67.643	0.934	B5-03822-P03-CH0	701120	OK	0.7276654	-0.594897	-0.3414682	0	-97.424	-50.795	0.601	B5-03822-P03-CH1	701120	OK	0.7741929	-0.6326002	0.0210314	0	-99.412	-21.187	0.66	B5-03822-P04-CH0	701120	OK	0.6844955	-0.2482222	0.6854573	0	-127.204	-25.877	11.708	B5-03822-P04-CH1	701120	OK	0.7840916	-0.6168305	-0.0687066	0	-113.269	-38.238	3.513	NA
0.729423424800632	B5-03822-P01-CH0	701128	OK	0.1974012	0.0607492	0.1094382	-0.9722991	98.645	20.649	-262.222	B5-03822-P02-CH0	701128	OK	0.7619654	0.2056411	-0.6141014	0	-88.53	-93.452	-1.961	B5-03822-P02-CH1	701128	OK	0.622877	0.0331622	-0.7816166	0	-78.423	-67.359	1.537	B5-03822-P03-CH0	701128	OK	0.7277057	-0.5961128	-0.3392551	0	-97.183	-51.292	1.011	B5-03822-P03-CH1	701128	OK	0.7744654	-0.632252	0.0214664	0	-99.535	-21.293	0.813	B5-03822-P04-CH0	701128	OK	0.6847823	-0.2476241	0.6853871	0	-127.336	-25.878	11.83	B5-03822-P04-CH1	701128	OK	0.7845646	-0.6162586	-0.0684384	0	-113.4	-38.159	3.585	NA
0.73941552651023	B5-03822-P01-CH0	701136	OK	0.1978033	0.0605645	0.1102305	-0.9721394	98.672	20.725	-262.302	B5-03822-P02-CH0	701136	OK	0.7613986	0.2058141	-0.6147461	0	-88.308	-93.599	-1.886	B5-03822-P02-CH1	701136	OK	0.6218591	0.0333089	-0.7824205	0	-79.105	-68.195	0.837	B5-03822-P03-CH0	701136	OK	0.7297415	-0.594892	-0.3370176	0	-97.158	-51.288	1.54	B5-03822-P03-CH1	701136	OK	0.7749256	-0.6316652	0.022122	0	-99.463	-21.309	0.61	B5-03822-P04-CH0	701136	OK	0.6849642	-0.2470092	0.6854273	0	-127.37	-25.912	11.812	B5-03822-P04-CH1	701136	OK	0.7850759	-0.6156786	-0.0677917	0	-113.435	-38.191	3.397	NA
0.749407628219827	B5-03822-P01-CH0	701144	OK	0.1978508	0.0604037	0.1105111	-0.9721079	98.678	20.808	-262.403	B5-03822-P02-CH0	701144	OK	0.760323	0.2081528	-0.6152896	0	-88.248	-92.879	-1.564	B5-03822-P02-CH1	701144	OK	0.6215471	0.0337849	-0.7826479	0	-78.877	-67.752	0.68	B5-03822-P03-CH0	701144	OK	0.7297338	-0.5944458	-0.3378206	0	-97.169	-51.085	1.496	B5-03822-P03-CH1	701144	OK	0.7749445	-0.6316379	0.0222385	0	-99.597	-21.363	0.664	B5-03822-P04-CH0	701144	OK	0.6850274	-0.2463575	0.6855986	0	-127.436	-25.926	11.942	B5-03822-P04-CH1	701144	OK	0.7851915	-0.6155852	-0.0672989	0	-113.31	-38.263	3.5	NA
0.759399729929425	B5-03822-P01-CH0	701152	OK	0.1976909	0.0607546	0.1099854	-0.9721782	98.831	20.813	-262.483	B5-03822-P02-CH0	701152	OK	0.7584337	0.2065164	-0.618166	0	-88.998	-93.824	-0.703	B5-03822-P02-CH1	701152	OK	0.6217726	0.0333795	-0.7824862	0	-79.088	-67.845	0.919	B5-03822-P03-CH0	701152	OK	0.7289041	-0.5950688	-0.3385143	0	-97.416	-51.197	1.411	B5-03822-P03-CH1	701152	OK	0.7745801	-0.6320869	0.022177	0	-99.688	-21.379	0.721	B5-03822-P04-CH0	701152	OK	0.684749	-0.2463148	0.685892	0	-127.463	-25.949	12.059	B5-03822-P04-CH1	701152	OK	0.7847112	-0.6162177	-0.0671127	0	-113.466	-38.404	3.65	NA
0.769391831639023	B5-03822-P01-CH0	701160	OK	0.1980201	0.0606517	0.1109148	-0.972012	98.872	20.909	-262.556	B5-03822-P02-CH0	701160	OK	0.7566127	0.2082219	-0.6198232	0	-89.108	-93.032	-0.043	B5-03822-P02-CH1	701160	OK	0.6217721	0.0317331	-0.7825551	0	-79.315	-67.772	0.97	B5-03822-P03-CH0	701160	OK	0.7294499	-0.5949416	-0.337561	0	-97.469	-51.16	1.232	B5-03822-P03-CH1	701160	OK	0.7752224	-0.6312876	0.0225001	0	-99.705	-21.347	0.759	B5-03822-P04-CH0	701160	OK	0.6849345	-0.2453799	0.6860419	0	-127.549	-26.091	12.038	B5-03822-P04-CH1	701160	OK	0.7853259	-0.6154703	-0.0667795	0	-113.634	-38.383	3.741	NA
0.77938393334862	B5-03822-P01-CH0	701168	OK	0.1978555	0.0608041	0.1105166	-0.9720813	98.935	20.958	-262.593	B5-03822-P02-CH0	701168	OK	0.756529	0.209053	-0.6196456	0	-88.962	-93.676	-0.471	B5-03822-P02-CH1	701168	OK	0.6222795	0.0313204	-0.7821683	0	-79.365	-67.698	0.963	B5-03822-P03-CH0	701168	OK	0.7293055	-0.5953925	-0.3370776	0	-97.598	-51.143	1.007	B5-03822-P03-CH1	701168	OK	0.7749827	-0.6315884	0.0223135	0	-99.713	-21.316	0.985	B5-03822-P04-CH0	701168	OK	0.6848493	-0.2450827	0.6862331	0	-127.64	-26.023	12.145	B5-03822-P04-CH1	701168	OK	0.7850496	-0.6158273	-0.0667377	0	-113.635	-38.389	4.027	NA
0.789376035058218	B5-03822-P01-CH0	701176	OK	0.19804	0.0606205	0.1109697	-0.9720036	98.898	21.046	-262.638	B5-03822-P02-CH0	701176	OK	0.7568707	0.2094375	-0.6190983	0	-88.388	-93.402	-2.448	B5-03822-P02-CH1	701176	OK	0.6227129	0.0301114	-0.7818708	0	-79.469	-67.691	0.902	B5-03822-P03-CH0	701176	OK	0.7331648	-0.595025	-0.3292637	0	-97.652	-51.425	0.079	B5-03822-P03-CH1	701176	OK	0.7753041	-0.6311817	0.0226548	0	-99.62	-21.287	1.22	B5-03822-P04-CH0	701176	OK	0.6849873	-0.2441521	0.6864271	0	-127.695	-25.963	12.196	B5-03822-P04-CH1	701176	OK	0.7853419	-0.615501	-0.0663065	0	-113.641	-38.38	4.044	NA
0.799368136767816	B5-03822-P01-CH0	701184	OK	0.1980963	0.0605654	0.111014	-0.9719905	98.93	21.058	-262.727	B5-03822-P02-CH0	701184	OK	0.7540531	0.2094321	-0.6225288	0	-89.565	-93.25	-0.558	B5-03822-P02-CH1	701184	OK	0.6260044	0.0244513	-0.7794361	0	-80.36	-68.393	1.641	B5-03822-P03-CH0	701184	OK	0.7353216	-0.5934493	-0.3272921	0	-98.83	-51.153	0.72	B5-03822-P03-CH1	701184	OK	0.7753158	-0.6311704	0.0225687	0	-99.535	-21.324	1.272	B5-03822-P04-CH0	701184	OK	0.685074	-0.2432166	0.6866726	0	-127.775	-25.994	12.318	B5-03822-P04-CH1	701184	OK	0.7853657	-0.6154955	-0.0660754	0	-113.659	-38.436	4.081	NA
0.809360238477413	B5-03822-P01-CH0	701192	OK	0.1983857	0.0607154	0.1111426	-0.9719074	99.024	21.135	-262.795	B5-03822-P02-CH0	701192	OK	0.7529908	0.2089383	-0.6239788	0	-89.793	-93.944	0.8	B5-03822-P02-CH1	701192	OK	0.6293457	0.0226579	-0.7767951	0	-79.47	-68.482	0.58	B5-03822-P03-CH0	701192	OK	0.7387506	-0.5921192	-0.3219353	0	-98.483	-51.406	2.106	B5-03822-P03-CH1	701192	OK	0.7754285	-0.6310274	0.0226948	0	-99.584	-21.334	1.517	B5-03822-P04-CH0	701192	OK	0.6853128	-0.2414593	0.6870544	0	-128.031	-26.119	12.253	B5-03822-P04-CH1	701192	OK	0.7854427	-0.6154583	-0.0655052	0	-113.73	-38.552	4.207	NA
0.819352340187011	B5-03822-P01-CH0	701200	OK	0.1984913	0.0606661	0.1112158	-0.9718806	99.056	21.17	-262.9	B5-03822-P02-CH0	701200	OK	0.7559418	0.2106036	-0.6198371	0	-88.094	-93.832	-1.602	B5-03822-P02-CH1	701200	OK	0.6300291	0.0231459	-0.7762265	0	-79.935	-68.962	1.637	B5-03822-P03-CH0	701200	OK	0.7413492	-0.5913946	-0.3172597	0	-99.057	-51.391	2.411	B5-03822-P03-CH1	701200	OK	0.7755131	-0.6309255	0.0226354	0	-99.591	-21.276	1.463	B5-03822-P04-CH0	701200	OK	0.6849861	-0.2402281	0.6878114	0	-128.039	-26.261	12.189	B5-03822-P04-CH1	701200	OK	0.7855231	-0.6153765	-0.065308	0	-113.865	-38.582	4.292	NA
0.829344441896609	B5-03822-P01-CH0	701208	OK	0.1984488	0.0606056	0.1112515	-0.971889	99.036	21.203	-262.83	B5-03822-P02-CH0	701208	OK	0.7533299	0.2114222	-0.6227316	0	-89.106	-93.715	0.446	B5-03822-P02-CH1	701208	OK	0.6322124	0.020003	-0.7745369	0	-79.379	-68.303	0.99	B5-03822-P03-CH0	701208	OK	0.7443987	-0.5903315	-0.3120566	0	-98.731	-51.23	2.253	B5-03822-P03-CH1	701208	OK	0.775575	-0.6308613	0.0223054	0	-99.489	-21.175	1.395	B5-03822-P04-CH0	701208	OK	0.6847689	-0.2392279	0.6883761	0	-128.003	-26.253	12.237	B5-03822-P04-CH1	701208	OK	0.7855023	-0.6154445	-0.0649169	0	-113.918	-38.608	4.111	NA
0.839336543606206	B5-03822-P01-CH0	701216	OK	0.198299	0.0607507	0.1106203	-0.9719825	99.132	21.169	-262.892	B5-03822-P02-CH0	701216	OK	0.7521036	0.2142623	-0.623243	0	-89.498	-93.256	1.008	B5-03822-P02-CH1	701216	OK	0.63128	0.019291	-0.7753151	0	-80.647	-68.048	1.544	B5-03822-P03-CH0	701216	OK	0.746073	-0.5897811	-0.3090847	0	-99.379	-51.096	2.871	B5-03822-P03-CH1	701216	OK	0.7752563	-0.6312726	0.0217407	0	-99.668	-21.173	1.579	B5-03822-P04-CH0	701216	OK	0.6843978	-0.2384522	0.689014	0	-128.066	-26.319	12.163	B5-03822-P04-CH1	701216	OK	0.7851223	-0.6159411	-0.0648046	0	-113.98	-38.706	4.286	NA
0.849328645315804	B5-03822-P01-CH0	701224	OK	0.1984731	0.0604423	0.1109067	-0.9719336	99.067	21.176	-262.963	B5-03822-P02-CH0	701224	OK	0.7513274	0.2154178	-0.6237807	0	-89.745	-93.41	0.263	B5-03822-P02-CH1	701224	OK	0.6311419	0.0169577	-0.775482	0	-80.957	-67.972	1.588	B5-03822-P03-CH0	701224	OK	0.7482125	-0.5895806	-0.3042577	0	-99.64	-51.233	3.827	B5-03822-P03-CH1	701224	OK	0.7756305	-0.6308168	0.021623	0	-99.537	-21.047	1.434	B5-03822-P04-CH0	701224	OK	0.6840324	-0.2374163	0.6897341	0	-127.959	-26.408	12.066	B5-03822-P04-CH1	701224	OK	0.7855139	-0.6154713	-0.0645205	0	-114.027	-38.636	4.22	NA
0.859320747025402	B5-03822-P01-CH0	701232	OK	0.198861	0.0601753	0.112034	-0.9717416	99.028	21.249	-262.942	B5-03822-P02-CH0	701232	OK	0.751585	0.2161897	-0.6232031	0	-89.112	-93.45	-0.103	B5-03822-P02-CH1	701232	OK	0.6298894	0.0144019	-0.7765513	0	-81.413	-67.653	2.449	B5-03822-P03-CH0	701232	OK	0.7518416	-0.5886597	-0.2970084	0	-99.003	-51.215	3.26	B5-03822-P03-CH1	701232	OK	0.776416	-0.6298435	0.0218036	0	-99.518	-21.083	1.706	B5-03822-P04-CH0	701232	OK	0.6842277	-0.2357576	0.6901092	0	-128	-26.502	11.939	B5-03822-P04-CH1	701232	OK	0.7863762	-0.6144285	-0.0639536	0	-114.101	-38.604	4.14	NA
0.869312848735	B5-03822-P01-CH0	701240	OK	0.1989202	0.0599933	0.1118322	-0.9717639	98.959	21.238	-262.951	B5-03822-P02-CH0	701240	OK	0.7521645	0.2158403	-0.6226248	0	-88.963	-94.541	-0.423	B5-03822-P02-CH1	701240	OK	0.6305399	0.0152465	-0.776007	0	-81.173	-67.951	1.145	B5-03822-P03-CH0	701240	OK	0.7555228	-0.5888551	-0.287115	0	-98.41	-51.35	4.671	B5-03822-P03-CH1	701240	OK	0.7762032	-0.6301083	0.0217284	0	-99.47	-21.107	1.566	B5-03822-P04-CH0	701240	OK	0.6840107	-0.2347683	0.6906615	0	-127.957	-26.479	11.962	B5-03822-P04-CH1	701240	OK	0.7863771	-0.6144703	-0.0635398	0	-114.02	-38.63	4.177	NA
0.879304950444597	B5-03822-P01-CH0	701248	OK	0.1990182	0.0596933	0.1119969	-0.9717433	98.892	21.249	-263.076	B5-03822-P02-CH0	701248	OK	0.7529903	0.2133252	-0.6224934	0	-88.92	-93.446	0.193	B5-03822-P02-CH1	701248	OK	0.6324281	0.0153756	-0.7744664	0	-80.114	-68.295	0.86	B5-03822-P03-CH0	701248	OK	0.7599516	-0.5865221	-0.2801167	0	-99.934	-50.699	5.358	B5-03822-P03-CH1	701248	OK	0.7763229	-0.6299635	0.0216517	0	-99.527	-21.082	1.537	B5-03822-P04-CH0	701248	OK	0.6839747	-0.2337176	0.6910534	0	-128.035	-26.54	11.909	B5-03822-P04-CH1	701248	OK	0.786515	-0.6143272	-0.0632162	0	-114.159	-38.682	4.168	NA
0.889297052154195	B5-03822-P01-CH0	701256	OK	0.198984	0.0596294	0.1120885	-0.9717437	98.884	21.208	-263.035	B5-03822-P02-CH0	701256	OK	0.7517557	0.2214749	-0.6211378	0	-88.646	-93.991	-2.207	B5-03822-P02-CH1	701256	OK	0.6313348	0.016901	-0.7753262	0	-80.203	-68.204	0.813	B5-03822-P03-CH0	701256	OK	0.7652737	-0.5852136	-0.2681067	0	-99.7	-50.599	5.449	B5-03822-P03-CH1	701256	OK	0.776401	-0.6298741	0.0214471	0	-99.527	-21.068	1.455	B5-03822-P04-CH0	701256	OK	0.6839127	-0.2329559	0.6913718	0	-128.103	-26.635	11.795	B5-03822-P04-CH1	701256	OK	0.7866566	-0.6141597	-0.0630805	0	-114.225	-38.725	4.226	NA
