Wav.Time	B5.03822.P01.CH0	Frame	State	Q0	Qx	Qy	Qz	Tx	Ty	Tz	B5.03822.P02.CH0	Frame.1	State.1	Q0.1	Qx.1	Qy.1	Qz.1	Tx.1	Ty.1	Tz.1	B5.03822.P02.CH1	Frame.2	State.2	Q0.2	Qx.2	Qy.2	Qz.2	Tx.2	Ty.2	Tz.2	B5.03822.P03.CH0	Frame.3	State.3	Q0.3	Qx.3	Qy.3	Qz.3	Tx.3	Ty.3	Tz.3	B5.03822.P03.CH1	Frame.4	State.4	Q0.4	Qx.4	Qy.4	Qz.4	Tx.4	Ty.4	Tz.4	B5.03822.P04.CH0	Frame.5	State.5	Q0.5	Qx.5	Qy.5	Qz.5	Tx.5	Ty.5	Tz.5	B5.03822.P04.CH1	Frame.6	State.6	Q0.6	Qx.6	Qy.6	Qz.6	Tx.6	Ty.6	Tz.6	X
0	B5-03822-P01-CH0	329992	OK	0.2159136	0.0694592	0.0713959	-0.9713184	95.866	31.497	-259.647	B5-03822-P02-CH0	329992	OK	0.7275187	0.3206436	-0.6065511	0	-92.507	-98.35	2.043	B5-03822-P02-CH1	329992	OK	0.7633364	0.0260275	-0.6454767	0	-87.853	-77.546	4.554	B5-03822-P03-CH0	329992	OK	0.7715139	-0.5408889	-0.3349709	0	-98.82	-57.219	6.006	B5-03822-P03-CH1	329992	OK	0.7576588	-0.6398882	0.1284378	0	-106.195	-25.387	2.844	B5-03822-P04-CH0	329992	OK	0.6755888	-0.1674111	0.7180204	0	-130.667	-29.06	11.488	B5-03822-P04-CH1	329992	OK	0.7667403	-0.6408533	0.0376338	0	-114.903	-43.956	4.221	NA
0.00999173002534347	B5-03822-P01-CH0	330000	OK	0.215841	0.0694747	0.0713939	-0.9713335	95.862	31.501	-259.589	B5-03822-P02-CH0	330000	OK	0.7278112	0.3190808	-0.6070241	0	-92.606	-98.61	1.893	B5-03822-P02-CH1	330000	OK	0.7650511	0.0269712	-0.6434045	0	-87.923	-77.591	4.823	B5-03822-P03-CH0	330000	OK	0.7797843	-0.5384576	-0.3193742	0	-98.66	-57.789	5.43	B5-03822-P03-CH1	330000	OK	0.7573232	-0.6404057	0.127836	0	-106.181	-25.347	3.04	B5-03822-P04-CH0	330000	OK	0.675547	-0.166189	0.7183436	0	-130.772	-29.2	11.325	B5-03822-P04-CH1	330000	OK	0.7666001	-0.640976	0.0383917	0	-115.014	-44.133	4.179	NA
0.0199834600506869	B5-03822-P01-CH0	330008	OK	0.2158451	0.0695084	0.0713302	-0.9713349	95.859	31.511	-259.659	B5-03822-P02-CH0	330008	OK	0.7284223	0.3168714	-0.6074482	0	-92.581	-99.113	1.878	B5-03822-P02-CH1	330008	OK	0.7669134	0.029177	-0.641087	0	-87.747	-78.295	5.39	B5-03822-P03-CH0	330008	OK	0.7893642	-0.534903	-0.3013021	0	-99.895	-58.273	7.264	B5-03822-P03-CH1	330008	OK	0.7541399	-0.6446775	0.1251555	0	-105.512	-24.989	4.437	B5-03822-P04-CH0	330008	OK	0.6756755	-0.1636531	0.7188047	0	-131.071	-29.457	11.164	B5-03822-P04-CH1	330008	OK	0.7666332	-0.6408692	0.0394983	0	-115.126	-44.207	4.197	NA
0.0299751900760304	B5-03822-P01-CH0	330016	OK	0.2157403	0.0696339	0.0711581	-0.9713618	95.914	31.456	-259.68	B5-03822-P02-CH0	330016	OK	0.7306996	0.3037912	-0.6113829	0	-92.457	-101.479	0.871	B5-03822-P02-CH1	330016	OK	0.7666132	0.034028	-0.6412069	0	-87.26	-79.417	4.171	B5-03822-P03-CH0	330016	OK	0.8001427	-0.5301375	-0.2805813	0	-101.085	-59.009	8.956	B5-03822-P03-CH1	330016	OK	0.7523564	-0.6473649	0.1219778	0	-105.884	-24.833	2.459	B5-03822-P04-CH0	330016	OK	0.6728292	-0.142342	0.725975	0	-131.944	-29.342	9.407	B5-03822-P04-CH1	330016	OK	0.7664488	-0.6410108	0.0407598	0	-115.366	-44.484	4.157	NA
0.0399669201013739	B5-03822-P01-CH0	330024	OK	0.2155875	0.0695222	0.0715137	-0.9713776	95.876	31.51	-259.745	B5-03822-P02-CH0	330024	OK	0.7278212	0.2981455	-0.6175642	0	-93.633	-102.646	1.303	B5-03822-P02-CH1	330024	OK	0.7590008	0.0403398	-0.6498389	0	-87.907	-80.331	3.694	B5-03822-P03-CH0	330024	OK	0.8138494	-0.5234966	-0.2521913	0	-100.319	-59.507	9.809	B5-03822-P03-CH1	330024	OK	0.7507378	-0.6497248	0.119375	0	-105.708	-24.962	1.166	B5-03822-P04-CH0	330024	OK	0.6720557	-0.1232949	0.730164	0	-132.555	-29.637	10.18	B5-03822-P04-CH1	330024	OK	0.7667486	-0.6405607	0.0421737	0	-115.532	-44.579	4.267	NA
0.0499586501267174	B5-03822-P01-CH0	330032	OK	0.2154609	0.0696504	0.0711045	-0.9714266	95.916	31.45	-259.79	B5-03822-P02-CH0	330032	OK	0.728226	0.2908334	-0.6205666	0	-91.895	-103.399	0.47	B5-03822-P02-CH1	330032	OK	0.752675	0.0497161	-0.6565125	0	-86.988	-80.888	3.035	B5-03822-P03-CH0	330032	OK	0.826794	-0.513474	-0.2296873	0	-101.575	-60.73	10.992	B5-03822-P03-CH1	330032	OK	0.751072	-0.650037	0.115511	0	-105.949	-24.313	2.976	B5-03822-P04-CH0	330032	OK	0.6702473	-0.1013409	0.7351861	0	-133.146	-30.087	10.393	B5-03822-P04-CH1	330032	OK	0.7664973	-0.640707	0.0444576	0	-115.677	-44.917	4.363	NA
0.0599503801520608	B5-03822-P01-CH0	330040	OK	0.2151194	0.0696517	0.070927	-0.9715151	95.899	31.44	-259.81	B5-03822-P02-CH0	330040	OK	0.7252522	0.2852851	-0.6265953	0	-91.294	-104.15	1.133	B5-03822-P02-CH1	330040	OK	0.7463846	0.0578641	-0.6629946	0	-86.752	-81.252	3.055	B5-03822-P03-CH0	330040	OK	0.8430402	-0.4980375	-0.2030809	0	-102.132	-61.272	12.492	B5-03822-P03-CH1	330040	OK	0.7478021	-0.6544096	0.1119829	0	-105.003	-24.939	1.524	B5-03822-P04-CH0	330040	OK	0.6685528	-0.0779124	0.739572	0	-133.936	-30.648	9.744	B5-03822-P04-CH1	330040	OK	0.7672054	-0.6387315	0.0584625	0	-117.636	-46.643	5.824	NA
0.0699421101774043	B5-03822-P01-CH0	330048	OK	0.215176	0.0695781	0.0715518	-0.9714621	95.847	31.511	-259.746	B5-03822-P02-CH0	330048	OK	0.7209836	0.28051	-0.6336377	0	-91.065	-105.28	-0.328	B5-03822-P02-CH1	330048	OK	0.7404131	0.062009	-0.6692857	0	-87.013	-82.016	3.03	B5-03822-P03-CH0	330048	OK	0.8594274	-0.4797216	-0.1767818	0	-103.137	-61.656	12.421	B5-03822-P03-CH1	330048	OK	0.7478115	-0.6555654	0.1049381	0	-105.928	-23.957	2.183	B5-03822-P04-CH0	330048	OK	0.6664576	-0.0597978	0.743141	0	-133.983	-30.14	9.297	B5-03822-P04-CH1	330048	OK	0.7681998	-0.6372692	0.0612946	0	-118.475	-46.713	5.888	NA
0.0799338402027478	B5-03822-P01-CH0	330056	OK	0.2151057	0.0697177	0.0712376	-0.9714907	95.888	31.419	-259.715	B5-03822-P02-CH0	330056	OK	0.7155797	0.2762855	-0.64157	0	-90.788	-105.538	0.215	B5-03822-P02-CH1	330056	OK	0.736491	0.0631658	-0.6734917	0	-85.813	-82.64	2.885	B5-03822-P03-CH0	330056	OK	0.8730496	-0.4632784	-0.152176	0	-104.396	-62.103	13.778	B5-03822-P03-CH1	330056	OK	0.7438946	-0.6609258	0.0989846	0	-105.616	-24.439	0.934	B5-03822-P04-CH0	330056	OK	0.665239	-0.0428054	0.7454025	0	-134.289	-30.223	10.608	B5-03822-P04-CH1	330056	OK	0.7679849	-0.6373076	0.0635478	0	-118.686	-47.21	5.876	NA
0.0899255702280912	B5-03822-P01-CH0	330064	OK	0.2152188	0.0697118	0.0718242	-0.9714229	95.9	31.417	-259.713	B5-03822-P02-CH0	330064	OK	0.7106238	0.2698967	-0.6497458	0	-89.742	-106.258	0.661	B5-03822-P02-CH1	330064	OK	0.7331469	0.0581235	-0.6775819	0	-84.755	-83.926	1.683	B5-03822-P03-CH0	330064	OK	0.8826374	-0.4517396	-0.1299326	0	-104.985	-63.559	13.877	B5-03822-P03-CH1	330064	OK	0.7416542	-0.664333	0.0927939	0	-105.413	-24.451	0.905	B5-03822-P04-CH0	330064	OK	0.6653048	-0.0268867	0.7460876	0	-135.051	-30.243	10.531	B5-03822-P04-CH1	330064	OK	0.7692142	-0.635794	0.0638399	0	-119.466	-46.874	5.606	NA
0.0999173002534347	B5-03822-P01-CH0	330072	OK	0.2149963	0.0696633	0.0713553	-0.9715102	95.907	31.271	-259.758	B5-03822-P02-CH0	330072	OK	0.7040888	0.2629323	-0.6596405	0	-89.383	-106.454	1.392	B5-03822-P02-CH1	330072	OK	0.7283139	0.0557042	-0.6829758	0	-84.571	-83.761	2.85	B5-03822-P03-CH0	330072	OK	0.890672	-0.4418528	-0.1070953	0	-103.85	-64.264	15.346	B5-03822-P03-CH1	330072	OK	0.7399479	-0.6671147	0.0862273	0	-104.893	-23.435	1.563	B5-03822-P04-CH0	330072	OK	0.6637544	-0.0153513	0.747793	0	-135.175	-30.444	10.739	B5-03822-P04-CH1	330072	OK	0.7694605	-0.6353769	0.065014	0	-119.382	-46.719	5.39	NA
0.109909030278778	B5-03822-P01-CH0	330080	OK	0.215174	0.0694842	0.0719513	-0.9714397	95.884	31.275	-259.804	B5-03822-P02-CH0	330080	OK	0.6967316	0.2577492	-0.6694254	0	-88.913	-106.33	2.233	B5-03822-P02-CH1	330080	OK	0.7263458	0.0532209	-0.6852659	0	-82.571	-84.185	1.48	B5-03822-P03-CH0	330080	OK	0.8945446	-0.4379896	-0.089191	0	-102.926	-66.148	14.969	B5-03822-P03-CH1	330080	OK	0.7382661	-0.6696199	0.0810701	0	-105.044	-22.575	0.617	B5-03822-P04-CH0	330080	OK	0.6611303	-0.0100174	0.7502042	0	-135.001	-30.152	10.127	B5-03822-P04-CH1	330080	OK	0.7696515	-0.6350113	0.0663113	0	-119.298	-46.803	4.598	NA
0.119900760304122	B5-03822-P01-CH0	330088	OK	0.2149958	0.0695233	0.071583	-0.9715036	95.907	31.156	-259.757	B5-03822-P02-CH0	330088	OK	0.6918299	0.2554652	-0.6753583	0	-87.92	-106.887	0.811	B5-03822-P02-CH1	330088	OK	0.7215833	0.0516139	-0.690401	0	-82.094	-85.248	1.386	B5-03822-P03-CH0	330088	OK	0.8992792	-0.4296411	-0.081887	0	-102.563	-66.004	15.304	B5-03822-P03-CH1	330088	OK	0.7350634	-0.6734201	0.0786587	0	-105.71	-22.835	-0.899	B5-03822-P04-CH0	330088	OK	0.6578631	-0.0112307	0.7530538	0	-134.563	-29.904	9.896	B5-03822-P04-CH1	330088	OK	0.7681853	-0.6373567	0.0605625	0	-118.405	-46.86	4.729	NA
0.129892490329465	B5-03822-P01-CH0	330096	OK	0.214855	0.0691778	0.0715725	-0.9715602	95.772	31.113	-259.678	B5-03822-P02-CH0	330096	OK	0.6879204	0.2552477	-0.6794219	0	-86.518	-106.989	0.4	B5-03822-P02-CH1	330096	OK	0.7178052	0.0474185	-0.6946274	0	-81.097	-86.07	1.119	B5-03822-P03-CH0	330096	OK	0.9027359	-0.4220498	-0.0833184	0	-102.936	-65.649	15.449	B5-03822-P03-CH1	330096	OK	0.7330373	-0.6756018	0.0788577	0	-106.138	-22.834	-1.54	B5-03822-P04-CH0	330096	OK	0.658025	-0.0134528	0.7528759	0	-135.414	-30.722	9.142	B5-03822-P04-CH1	330096	OK	0.7683576	-0.6369854	0.0622589	0	-118.619	-46.99	4.703	NA
0.139884220354809	B5-03822-P01-CH0	330104	OK	0.2148645	0.0691289	0.0717003	-0.9715521	95.796	31.125	-259.71	B5-03822-P02-CH0	330104	OK	0.6839446	0.2557527	-0.6832352	0	-85.204	-107.063	0.948	B5-03822-P02-CH1	330104	OK	0.7130736	0.0430922	-0.6997636	0	-80.969	-85.39	1.073	B5-03822-P03-CH0	330104	OK	0.9039023	-0.4198088	-0.081983	0	-102.189	-65.935	15.83	B5-03822-P03-CH1	330104	OK	0.7328851	-0.6754354	0.0816483	0	-106.327	-21.977	-2.098	B5-03822-P04-CH0	330104	OK	0.6559502	-0.0245355	0.7544053	0	-134.96	-29.925	9.796	B5-03822-P04-CH1	330104	OK	0.7686172	-0.6365434	0.0635613	0	-118.797	-47.089	4.903	NA
0.149875950380152	B5-03822-P01-CH0	330112	OK	0.2146985	0.0690551	0.071369	-0.9716184	95.784	31.03	-259.652	B5-03822-P02-CH0	330112	OK	0.67819	0.2583754	-0.6879684	0	-85.274	-106.813	1.313	B5-03822-P02-CH1	330112	OK	0.7106168	0.0389606	-0.7024997	0	-80.233	-85.632	0.752	B5-03822-P03-CH0	330112	OK	0.9048421	-0.4167968	-0.08684	0	-102.135	-66.022	15.883	B5-03822-P03-CH1	330112	OK	0.7319385	-0.6755591	0.0888024	0	-106.637	-22.395	-1.074	B5-03822-P04-CH0	330112	OK	0.6553971	-0.0368936	0.7543829	0	-134.69	-30.408	10.76	B5-03822-P04-CH1	330112	OK	0.7686594	-0.6364197	0.0642867	0	-118.884	-47.103	4.934	NA
0.159867680405496	B5-03822-P01-CH0	330120	OK	0.2149444	0.0691543	0.0717877	-0.9715262	95.873	31.09	-259.609	B5-03822-P02-CH0	330120	OK	0.6728293	0.257463	-0.6935514	0	-84.721	-106.306	1.478	B5-03822-P02-CH1	330120	OK	0.7081366	0.0338879	-0.7052618	0	-79.791	-86.067	0.943	B5-03822-P03-CH0	330120	OK	0.9053388	-0.414901	-0.090658	0	-101.062	-66.37	15.758	B5-03822-P03-CH1	330120	OK	0.7316478	-0.6747077	0.097268	0	-106.698	-22.795	-0.917	B5-03822-P04-CH0	330120	OK	0.6539969	-0.0552399	0.7544777	0	-134.511	-29.949	9.698	B5-03822-P04-CH1	330120	OK	0.7690861	-0.6358396	0.0649193	0	-118.998	-47.108	5.029	NA
0.169859410430839	B5-03822-P01-CH0	330128	OK	0.2148065	0.0691879	0.0714909	-0.9715762	95.966	31.028	-259.736	B5-03822-P02-CH0	330128	OK	0.6712194	0.2551804	-0.6959508	0	-83.838	-107.324	0.984	B5-03822-P02-CH1	330128	OK	0.7063973	0.0314173	-0.7071179	0	-79.229	-85.745	0.901	B5-03822-P03-CH0	330128	OK	0.9033884	-0.4160411	-0.1039194	0	-101.212	-66.436	15.59	B5-03822-P03-CH1	330128	OK	0.7327079	-0.6726228	0.1035264	0	-106.699	-21.889	-1.036	B5-03822-P04-CH0	330128	OK	0.6537692	-0.071949	0.7532657	0	-134.379	-30.51	11.145	B5-03822-P04-CH1	330128	OK	0.769044	-0.6359211	0.0646199	0	-119.082	-47.072	5.235	NA
0.179851140456182	B5-03822-P01-CH0	330136	OK	0.214932	0.0691262	0.0718205	-0.9715285	96.024	31.137	-259.833	B5-03822-P02-CH0	330136	OK	0.6677489	0.2517168	-0.7005356	0	-84.246	-105.921	0.676	B5-03822-P02-CH1	330136	OK	0.7027972	0.0314301	-0.7106956	0	-79.774	-84.631	0.225	B5-03822-P03-CH0	330136	OK	0.9000028	-0.4205522	-0.1145896	0	-100.265	-66.731	15.911	B5-03822-P03-CH1	330136	OK	0.7334125	-0.6711513	0.1079906	0	-107.561	-21.8	-0.746	B5-03822-P04-CH0	330136	OK	0.6512205	-0.0921417	0.753274	0	-133.223	-29.341	10.123	B5-03822-P04-CH1	330136	OK	0.7692416	-0.6357193	0.064252	0	-118.983	-46.946	5.341	NA
0.189842870481526	B5-03822-P01-CH0	330144	OK	0.2148244	0.0690659	0.0714931	-0.9715807	96.046	31.134	-259.878	B5-03822-P02-CH0	330144	OK	0.6680496	0.247614	-0.7017101	0	-84.589	-105.814	2.435	B5-03822-P02-CH1	330144	OK	0.700779	0.0335054	-0.7125912	0	-79.902	-84.687	1.488	B5-03822-P03-CH0	330144	OK	0.8984248	-0.4176486	-0.1356558	0	-100.532	-65.042	15.841	B5-03822-P03-CH1	330144	OK	0.733429	-0.6702665	0.1132464	0	-106.413	-22.401	0.809	B5-03822-P04-CH0	330144	OK	0.6525645	-0.1042446	0.7505282	0	-132.687	-29.304	12.005	B5-03822-P04-CH1	330144	OK	0.7689334	-0.636172	0.0634552	0	-118.75	-46.844	5.483	NA
0.199834600506869	B5-03822-P01-CH0	330152	OK	0.2150977	0.0689635	0.0724913	-0.9714536	96.08	31.276	-259.891	B5-03822-P02-CH0	330152	OK	0.67277	0.2355675	-0.7013477	0	-83.68	-106.152	1.402	B5-03822-P02-CH1	330152	OK	0.6996208	0.0339161	-0.7137089	0	-80.08	-84.243	1.747	B5-03822-P03-CH0	330152	OK	0.8935602	-0.4202124	-0.1580245	0	-101.063	-64.878	14.879	B5-03822-P03-CH1	330152	OK	0.7344678	-0.668708	0.1157003	0	-106.168	-22.346	-0.115	B5-03822-P04-CH0	330152	OK	0.6556247	-0.1130885	0.7465703	0	-132.948	-29.481	13.908	B5-03822-P04-CH1	330152	OK	0.7694482	-0.6356293	0.0626479	0	-118.576	-46.691	5.549	NA
0.209826330532213	B5-03822-P01-CH0	330160	OK	0.2150782	0.0691816	0.0722479	-0.9714605	96.188	31.313	-259.898	B5-03822-P02-CH0	330160	OK	0.6742991	0.2197232	-0.7050124	0	-84.983	-104.302	0.928	B5-03822-P02-CH1	330160	OK	0.7015043	0.0322562	-0.7119349	0	-80.031	-83.64	1.736	B5-03822-P03-CH0	330160	OK	0.8883867	-0.424034	-0.1759665	0	-100.549	-64.656	14.849	B5-03822-P03-CH1	330160	OK	0.7354917	-0.667323	0.1171836	0	-106.871	-22.062	-1.202	B5-03822-P04-CH0	330160	OK	0.6548745	-0.1211567	0.7459627	0	-132.68	-29.198	14.011	B5-03822-P04-CH1	330160	OK	0.769196	-0.6360611	0.0613501	0	-118.429	-46.512	5.776	NA
0.219818060557556	B5-03822-P01-CH0	330168	OK	0.2151614	0.0692952	0.0726209	-0.9714062	96.287	31.447	-259.862	B5-03822-P02-CH0	330168	OK	0.6823836	0.1992639	-0.7033111	0	-84.694	-105.043	0.721	B5-03822-P02-CH1	330168	OK	0.7061556	0.0275857	-0.7075191	0	-80.342	-83.484	0.83	B5-03822-P03-CH0	330168	OK	0.8846696	-0.4231725	-0.1956648	0	-100.151	-64.215	14.547	B5-03822-P03-CH1	330168	OK	0.735977	-0.6661723	0.1206333	0	-106.211	-22.302	-0.934	B5-03822-P04-CH0	330168	OK	0.6544311	-0.1268375	0.7454074	0	-132.631	-29.199	13.383	B5-03822-P04-CH1	330168	OK	0.7692709	-0.6361097	0.0598896	0	-118.306	-46.255	5.758	NA
0.2298097905829	B5-03822-P01-CH0	330176	OK	0.215268	0.0694569	0.0723164	-0.9713937	96.379	31.446	-259.842	B5-03822-P02-CH0	330176	OK	0.691168	0.1796982	-0.6999967	0	-84.571	-104.613	-0.299	B5-03822-P02-CH1	330176	OK	0.7132934	0.0228771	-0.7004921	0	-80.948	-82.44	0.972	B5-03822-P03-CH0	330176	OK	0.8791305	-0.4223164	-0.2208584	0	-101.09	-63.64	14.007	B5-03822-P03-CH1	330176	OK	0.7364814	-0.6651981	0.1229088	0	-106.861	-22.527	-0.81	B5-03822-P04-CH0	330176	OK	0.6537474	-0.1255608	0.7462231	0	-133.352	-30.014	11.961	B5-03822-P04-CH1	330176	OK	0.7690265	-0.6365695	0.0581157	0	-118.169	-45.996	5.667	NA
0.239801520608243	B5-03822-P01-CH0	330184	OK	0.2153168	0.069624	0.0719062	-0.9714014	96.432	31.46	-259.726	B5-03822-P02-CH0	330184	OK	0.6998016	0.164449	-0.6951505	0	-84.986	-103.928	-0.077	B5-03822-P02-CH1	330184	OK	0.7215728	0.0176139	-0.6921145	0	-82.386	-82.281	1.203	B5-03822-P03-CH0	330184	OK	0.8736696	-0.4230541	-0.2402638	0	-100.95	-62.587	14.033	B5-03822-P03-CH1	330184	OK	0.7361793	-0.6648382	0.12661	0	-106.931	-23.342	-1.164	B5-03822-P04-CH0	330184	OK	0.6518978	-0.117827	0.7490968	0	-133.303	-30.455	11.981	B5-03822-P04-CH1	330184	OK	0.7686363	-0.6371913	0.0564411	0	-118.085	-45.786	5.604	NA
0.249793250633587	B5-03822-P01-CH0	330192	OK	0.2155488	0.0695386	0.0724741	-0.9713139	96.469	31.618	-259.81	B5-03822-P02-CH0	330192	OK	0.7085815	0.1574856	-0.6878303	0	-85.754	-103.755	0.117	B5-03822-P02-CH1	330192	OK	0.7307504	0.0136851	-0.6825075	0	-83.202	-81.422	1.447	B5-03822-P03-CH0	330192	OK	0.8661857	-0.4261201	-0.2610441	0	-101.018	-62.559	13.404	B5-03822-P03-CH1	330192	OK	0.7386072	-0.6614304	0.1302658	0	-106.465	-23.536	0.31	B5-03822-P04-CH0	330192	OK	0.6532858	-0.1056761	0.7497001	0	-134.466	-30.683	11.637	B5-03822-P04-CH1	330192	OK	0.7689553	-0.6369334	0.0549873	0	-117.923	-45.435	5.561	NA
0.25978498065893	B5-03822-P01-CH0	330200	OK	0.2154947	0.0695614	0.0719669	-0.9713619	96.493	31.623	-259.846	B5-03822-P02-CH0	330200	OK	0.714479	0.1592439	-0.6812937	0	-86.803	-102.645	0.225	B5-03822-P02-CH1	330200	OK	0.7375419	0.012884	-0.6751785	0	-84.683	-81.44	2.673	B5-03822-P03-CH0	330200	OK	0.8563886	-0.4298477	-0.2860586	0	-101.069	-61.903	11.989	B5-03822-P03-CH1	330200	OK	0.7412199	-0.6578503	0.1335144	0	-105.759	-23.981	-0.027	B5-03822-P04-CH0	330200	OK	0.6551353	-0.0890843	0.7502411	0	-135.087	-32.113	12.43	B5-03822-P04-CH1	330200	OK	0.768356	-0.6377904	0.0534086	0	-117.812	-45.325	5.552	NA
0.269776710684274	B5-03822-P01-CH0	330208	OK	0.2158841	0.069451	0.0724682	-0.9712461	96.467	31.723	-259.735	B5-03822-P02-CH0	330208	OK	0.7197018	0.1655107	-0.6742666	0	-87.294	-101.756	-1.12	B5-03822-P02-CH1	330208	OK	0.744319	0.0113565	-0.6677277	0	-85.06	-80.583	2.862	B5-03822-P03-CH0	330208	OK	0.8466337	-0.4261712	-0.3187312	0	-102.363	-60.354	11.15	B5-03822-P03-CH1	330208	OK	0.7469214	-0.6509094	0.1357404	0	-106.068	-24.447	1.579	B5-03822-P04-CH0	330208	OK	0.6550017	-0.0813902	0.7512313	0	-134.589	-32.103	11.53	B5-03822-P04-CH1	330208	OK	0.768408	-0.6377945	0.0526058	0	-117.592	-45.246	5.347	NA
0.279768440709617	B5-03822-P01-CH0	330216	OK	0.2160109	0.0694467	0.0728965	-0.9711862	96.492	31.762	-259.722	B5-03822-P02-CH0	330216	OK	0.7249202	0.1684244	-0.6679251	0	-88.09	-102.082	-0.713	B5-03822-P02-CH1	330216	OK	0.7470545	0.0050195	-0.6647439	0	-86.107	-79.743	3.333	B5-03822-P03-CH0	330216	OK	0.8355071	-0.4289768	-0.3433757	0	-100.622	-59.958	13.171	B5-03822-P03-CH1	330216	OK	0.7505622	-0.6461956	0.1381576	0	-106.338	-25.507	2.155	B5-03822-P04-CH0	330216	OK	0.6585513	-0.0793629	0.7483393	0	-135.254	-33.579	12.389	B5-03822-P04-CH1	330216	OK	0.7685486	-0.6377053	0.0516236	0	-117.557	-45.127	5.217	NA
0.289760170734961	B5-03822-P01-CH0	330224	OK	0.2160503	0.0695937	0.072806	-0.9711737	96.512	31.849	-259.691	B5-03822-P02-CH0	330224	OK	0.7295911	0.168216	-0.6628727	0	-88.757	-101.609	-1.92	B5-03822-P02-CH1	330224	OK	0.7497891	0.0015658	-0.661675	0	-86.121	-79.735	1.982	B5-03822-P03-CH0	330224	OK	0.817563	-0.4301783	-0.382802	0	-101.137	-59.593	8.366	B5-03822-P03-CH1	330224	OK	0.7540357	-0.6405663	0.1452755	0	-105.93	-25.637	2.923	B5-03822-P04-CH0	330224	OK	0.6588595	-0.0898237	0.7468841	0	-134.78	-33.946	12.92	B5-03822-P04-CH1	330224	OK	0.768329	-0.638034	0.0508253	0	-117.503	-45.016	5.073	NA
0.299751900760304	B5-03822-P01-CH0	330232	OK	0.2159917	0.0695632	0.0725895	-0.9712051	96.413	31.905	-259.656	B5-03822-P02-CH0	330232	OK	0.7309497	0.1627602	-0.662738	0	-89.9	-100.44	0.329	B5-03822-P02-CH1	330232	OK	0.7491677	0.0002905	-0.6623803	0	-86.207	-78.561	1.487	B5-03822-P03-CH0	330232	OK	0.7983315	-0.4241582	-0.4275005	0	-99.068	-58.587	7.89	B5-03822-P03-CH1	330232	OK	0.7553906	-0.6401956	0.1397662	0	-106.333	-25.464	2.39	B5-03822-P04-CH0	330232	OK	0.6622943	-0.0837241	0.7445512	0	-135.641	-34.048	13.064	B5-03822-P04-CH1	330232	OK	0.7680956	-0.638389	0.0498863	0	-117.502	-44.892	4.881	NA
0.309743630785648	B5-03822-P01-CH0	330240	OK	0.2158369	0.0695195	0.0722634	-0.9712669	96.359	31.905	-259.705	B5-03822-P02-CH0	330240	OK	0.7358261	0.1582361	-0.6584233	0	-89.22	-99.867	-0.877	B5-03822-P02-CH1	330240	OK	0.7485723	0.0025862	-0.6630481	0	-86.266	-77.175	3.359	B5-03822-P03-CH0	330240	OK	0.7799479	-0.4091364	-0.4735912	0	-97.986	-57.777	6.526	B5-03822-P03-CH1	330240	OK	0.7550535	-0.6418909	0.1336797	0	-105.577	-25.891	2.896	B5-03822-P04-CH0	330240	OK	0.6620014	-0.0787281	0.7453563	0	-135.077	-33.267	12.913	B5-03822-P04-CH1	330240	OK	0.7677146	-0.6388785	0.0494821	0	-117.3	-44.933	4.819	NA
0.319735360810991	B5-03822-P01-CH0	330248	OK	0.2160059	0.0692707	0.0726991	-0.9712146	96.221	31.978	-259.705	B5-03822-P02-CH0	330248	OK	0.7385523	0.1540668	-0.6563565	0	-89.473	-99.484	-0.934	B5-03822-P02-CH1	330248	OK	0.7502926	0.0029288	-0.6610994	0	-85.998	-77.754	1.99	B5-03822-P03-CH0	330248	OK	0.7657985	-0.3888025	-0.5122355	0	-97.904	-58.269	4.414	B5-03822-P03-CH1	330248	OK	0.7554463	-0.6428565	0.1266349	0	-105.975	-25.701	2.128	B5-03822-P04-CH0	330248	OK	0.6636471	-0.0725777	0.7445166	0	-136.012	-34.224	10.934	B5-03822-P04-CH1	330248	OK	0.7680647	-0.6384854	0.0491214	0	-117.257	-44.839	4.777	NA
0.329727090836335	B5-03822-P01-CH0	330256	OK	0.2159461	0.0690278	0.0733061	-0.9711996	96.092	32.104	-259.775	B5-03822-P02-CH0	330256	OK	0.7412195	0.1512111	-0.6540098	0	-89.932	-98.661	-1.38	B5-03822-P02-CH1	330256	OK	0.7518991	0.0024632	-0.6592736	0	-86.471	-77.359	3.268	B5-03822-P03-CH0	330256	OK	0.7639427	-0.3757184	-0.524621	0	-96.782	-56.984	6.491	B5-03822-P03-CH1	330256	OK	0.7570986	-0.6419905	0.1210368	0	-106.123	-24.776	2.852	B5-03822-P04-CH0	330256	OK	0.6636604	-0.0730016	0.7444633	0	-135.337	-33.238	11.769	B5-03822-P04-CH1	330256	OK	0.7684883	-0.6379997	0.0488067	0	-117.142	-44.724	4.886	NA
0.339718820861678	B5-03822-P01-CH0	330264	OK	0.2156362	0.0689518	0.0732121	-0.9712809	96.005	32.117	-259.858	B5-03822-P02-CH0	330264	OK	0.7402536	0.1505556	-0.6552538	0	-91.678	-96.753	1.098	B5-03822-P02-CH1	330264	OK	0.7533303	0.002983	-0.6576356	0	-86.531	-77.113	3.449	B5-03822-P03-CH0	330264	OK	0.7615452	-0.3713661	-0.5311649	0	-98.341	-56.824	5.375	B5-03822-P03-CH1	330264	OK	0.7565469	-0.6430836	0.1186608	0	-105.6	-25.252	4.499	B5-03822-P04-CH0	330264	OK	0.6649082	-0.0709556	0.7435471	0	-135.441	-33.612	12.732	B5-03822-P04-CH1	330264	OK	0.7684333	-0.6381063	0.0482756	0	-117.011	-44.621	4.765	NA
0.349710550887021	B5-03822-P01-CH0	330272	OK	0.215283	0.0689767	0.0727533	-0.971392	95.933	32.089	-259.8	B5-03822-P02-CH0	330272	OK	0.7424668	0.1511537	-0.6526067	0	-91.863	-97.02	1.539	B5-03822-P02-CH1	330272	OK	0.7525275	0.0049407	-0.6585422	0	-87.007	-76.17	3.648	B5-03822-P03-CH0	330272	OK	0.7607642	-0.3691013	-0.5338558	0	-98.269	-56.96	4.485	B5-03822-P03-CH1	330272	OK	0.7561102	-0.6444132	0.1141443	0	-105.355	-24.837	3.093	B5-03822-P04-CH0	330272	OK	0.6650439	-0.0707998	0.7434407	0	-135.369	-33.117	12.706	B5-03822-P04-CH1	330272	OK	0.7679441	-0.6387314	0.0477918	0	-116.978	-44.741	4.847	NA
0.359702280912365	B5-03822-P01-CH0	330280	OK	0.2151317	0.0687105	0.0728988	-0.9714335	95.757	32.049	-259.733	B5-03822-P02-CH0	330280	OK	0.7468195	0.1514922	-0.6475421	0	-90.462	-97.69	-0.165	B5-03822-P02-CH1	330280	OK	0.7514976	0.0067841	-0.659701	0	-86.963	-76.471	3.302	B5-03822-P03-CH0	330280	OK	0.7611683	-0.3702333	-0.5324943	0	-97.766	-56.885	4.392	B5-03822-P03-CH1	330280	OK	0.7568827	-0.6439448	0.111641	0	-105.382	-24.637	3.341	B5-03822-P04-CH0	330280	OK	0.6640797	-0.0712664	0.7442575	0	-135.09	-33.689	11.187	B5-03822-P04-CH1	330280	OK	0.7682079	-0.6384338	0.0475281	0	-116.646	-44.62	4.744	NA
0.369694010937708	B5-03822-P01-CH0	330288	OK	0.2147272	0.0686869	0.0727908	-0.9715327	95.688	32.061	-259.754	B5-03822-P02-CH0	330288	OK	0.7481313	0.1533716	-0.6455825	0	-90.73	-98.256	-0.824	B5-03822-P02-CH1	330288	OK	0.7507359	0.0134829	-0.6604648	0	-86.153	-75.551	2.409	B5-03822-P03-CH0	330288	OK	0.7611188	-0.3744935	-0.5295779	0	-97.669	-56.03	5.732	B5-03822-P03-CH1	330288	OK	0.757058	-0.6440877	0.1096094	0	-105.77	-24.665	2.738	B5-03822-P04-CH0	330288	OK	0.6658094	-0.0715366	0.7426846	0	-135.707	-33.12	11.474	B5-03822-P04-CH1	330288	OK	0.7681889	-0.6385087	0.0468225	0	-116.553	-44.475	4.701	NA
0.379685740963052	B5-03822-P01-CH0	330296	OK	0.21437	0.0684038	0.0726442	-0.9716426	95.516	32.026	-259.813	B5-03822-P02-CH0	330296	OK	0.7490571	0.1585562	-0.6432522	0	-90.883	-97.187	-0.254	B5-03822-P02-CH1	330296	OK	0.7467408	0.0225857	-0.6647315	0	-86.316	-76.145	2.826	B5-03822-P03-CH0	330296	OK	0.7601838	-0.3894045	-0.5200814	0	-97.926	-56.339	5.519	B5-03822-P03-CH1	330296	OK	0.7574507	-0.6437451	0.1089064	0	-104.7	-24.525	3.403	B5-03822-P04-CH0	330296	OK	0.6654981	-0.0742002	0.7427023	0	-135.002	-33.152	11.831	B5-03822-P04-CH1	330296	OK	0.7682556	-0.6384822	0.0460855	0	-116.379	-44.313	4.756	NA
0.389677470988395	B5-03822-P01-CH0	330304	OK	0.2141689	0.0683352	0.0726643	-0.9716902	95.48	31.997	-259.872	B5-03822-P02-CH0	330304	OK	0.7512869	0.1616643	-0.6398693	0	-90.371	-97.811	0.049	B5-03822-P02-CH1	330304	OK	0.7445849	0.0351161	-0.6666034	0	-84.886	-76.487	2.024	B5-03822-P03-CH0	330304	OK	0.7605381	-0.413488	-0.5006091	0	-97.727	-57.19	4.561	B5-03822-P03-CH1	330304	OK	0.7579447	-0.6432884	0.1081658	0	-104.618	-24.626	3.707	B5-03822-P04-CH0	330304	OK	0.6641571	-0.0750264	0.7438188	0	-134.702	-33.206	12.875	B5-03822-P04-CH1	330304	OK	0.768281	-0.6384896	0.0455564	0	-116.4	-44.318	4.819	NA
0.399669201013739	B5-03822-P01-CH0	330312	OK	0.2139091	0.0683837	0.0723956	-0.9717641	95.477	31.931	-259.824	B5-03822-P02-CH0	330312	OK	0.7521948	0.1671329	-0.6373928	0	-90.402	-97.414	0.218	B5-03822-P02-CH1	330312	OK	0.7405893	0.050586	-0.6700512	0	-84.062	-77.072	0.575	B5-03822-P03-CH0	330312	OK	0.7647223	-0.4454951	-0.4655469	0	-97.74	-57.08	5.339	B5-03822-P03-CH1	330312	OK	0.7576404	-0.6436396	0.1082086	0	-104.738	-24.862	2.625	B5-03822-P04-CH0	330312	OK	0.6644298	-0.0763822	0.7434372	0	-134.581	-32.829	12.57	B5-03822-P04-CH1	330312	OK	0.7680602	-0.6387792	0.0452171	0	-116.188	-44.293	4.845	NA
0.409660931039082	B5-03822-P01-CH0	330320	OK	0.2135974	0.0684271	0.0720831	-0.9718528	95.414	31.921	-259.786	B5-03822-P02-CH0	330320	OK	0.7524968	0.1720895	-0.6357151	0	-91.124	-97.361	0.273	B5-03822-P02-CH1	330320	OK	0.7343425	0.067246	-0.6754399	0	-83.869	-76.51	1.865	B5-03822-P03-CH0	330320	OK	0.7710728	-0.4867597	-0.4105017	0	-97.864	-57.586	4.71	B5-03822-P03-CH1	330320	OK	0.7567551	-0.6441255	0.1114628	0	-104.875	-24.573	3.659	B5-03822-P04-CH0	330320	OK	0.6647426	-0.0785174	0.7429349	0	-134.317	-32.419	12.54	B5-03822-P04-CH1	330320	OK	0.7679358	-0.6389827	0.0444485	0	-116.153	-44.119	4.932	NA
0.419652661064426	B5-03822-P01-CH0	330328	OK	0.2133503	0.0683438	0.0720903	-0.9719124	95.346	31.863	-259.78	B5-03822-P02-CH0	330328	OK	0.7560125	0.1747501	-0.6307992	0	-90.181	-98.148	-0.807	B5-03822-P02-CH1	330328	OK	0.7284861	0.0818764	-0.6801502	0	-84.117	-76.837	2.223	B5-03822-P03-CH0	330328	OK	0.777734	-0.5190704	-0.3545361	0	-97.448	-58.113	6.192	B5-03822-P03-CH1	330328	OK	0.7569823	-0.644103	0.1100413	0	-104.712	-24.582	3.692	B5-03822-P04-CH0	330328	OK	0.6677044	-0.09217	0.7386985	0	-133.259	-31.768	12.057	B5-03822-P04-CH1	330328	OK	0.7677653	-0.6392117	0.0441	0	-116.042	-44.127	4.815	NA
0.429644391089769	B5-03822-P01-CH0	330336	OK	0.2131109	0.0684281	0.071711	-0.9719871	95.341	31.736	-259.783	B5-03822-P02-CH0	330336	OK	0.75759	0.178395	-0.6278795	0	-90.123	-98.39	-0.626	B5-03822-P02-CH1	330336	OK	0.7237627	0.0987508	-0.6829464	0	-83.656	-76.56	2	B5-03822-P03-CH0	330336	OK	0.7807856	-0.5388122	-0.3163153	0	-98.307	-58.785	6.453	B5-03822-P03-CH1	330336	OK	0.7569148	-0.6443516	0.1090458	0	-104.697	-24.687	3.265	B5-03822-P04-CH0	330336	OK	0.6696533	-0.0960448	0.7364373	0	-133.326	-31.141	12.858	B5-03822-P04-CH1	330336	OK	0.7674914	-0.6395593	0.0438269	0	-115.865	-44.14	4.861	NA
0.439636121115113	B5-03822-P01-CH0	330344	OK	0.2129802	0.0684109	0.0720825	-0.9719895	95.305	31.716	-259.758	B5-03822-P02-CH0	330344	OK	0.7567465	0.1826755	-0.6276658	0	-91.361	-98.265	0.29	B5-03822-P02-CH1	330344	OK	0.7208929	0.1162619	-0.6832251	0	-81.941	-77.289	0.087	B5-03822-P03-CH0	330344	OK	0.786804	-0.5492603	-0.2815182	0	-97.06	-58.466	7.387	B5-03822-P03-CH1	330344	OK	0.7572538	-0.6440541	0.1084486	0	-104.611	-24.777	2.973	B5-03822-P04-CH0	330344	OK	0.6707084	-0.0999896	0.7349506	0	-133.576	-31.428	11.836	B5-03822-P04-CH1	330344	OK	0.7676305	-0.6394152	0.0434917	0	-115.803	-44.119	4.867	NA
0.449627851140456	B5-03822-P01-CH0	330352	OK	0.2128291	0.0684272	0.0722286	-0.9720105	95.232	31.667	-259.692	B5-03822-P02-CH0	330352	OK	0.7583576	0.1859735	-0.624746	0	-91.675	-98.428	0.319	B5-03822-P02-CH1	330352	OK	0.7145487	0.1281999	-0.687739	0	-81.922	-76.925	2.023	B5-03822-P03-CH0	330352	OK	0.7910782	-0.5545215	-0.2582656	0	-96.885	-58.44	8.689	B5-03822-P03-CH1	330352	OK	0.7575868	-0.6436849	0.1083143	0	-104.646	-24.835	2.759	B5-03822-P04-CH0	330352	OK	0.6699199	-0.1061739	0.7348023	0	-132.871	-30.732	11.14	B5-03822-P04-CH1	330352	OK	0.7676706	-0.6393992	0.043018	0	-115.776	-44.015	4.693	NA
0.4596195811658	B5-03822-P01-CH0	330360	OK	0.2124526	0.0685368	0.0721381	-0.9720919	95.231	31.607	-259.724	B5-03822-P02-CH0	330360	OK	0.7586884	0.188911	-0.6234617	0	-92.312	-97.451	1.997	B5-03822-P02-CH1	330360	OK	0.7112463	0.1348391	-0.6898892	0	-81.534	-77.317	1.779	B5-03822-P03-CH0	330360	OK	0.7941439	-0.5581359	-0.2404573	0	-97.227	-59.048	8.546	B5-03822-P03-CH1	330360	OK	0.7576987	-0.6435517	0.1083235	0	-104.591	-24.902	2.787	B5-03822-P04-CH0	330360	OK	0.669622	-0.1108487	0.7343834	0	-132.61	-30.323	10.747	B5-03822-P04-CH1	330360	OK	0.7674805	-0.6396708	0.0423668	0	-115.837	-43.981	4.78	NA
0.469611311191143	B5-03822-P01-CH0	330368	OK	0.212215	0.0685604	0.0717807	-0.9721686	95.171	31.47	-259.675	B5-03822-P02-CH0	330368	OK	0.7599606	0.1902342	-0.6215069	0	-92.581	-97.337	1.735	B5-03822-P02-CH1	330368	OK	0.7103421	0.1373168	-0.6903319	0	-80.439	-77.644	0.443	B5-03822-P03-CH0	330368	OK	0.798257	-0.5594768	-0.2230952	0	-96.797	-59.438	8.333	B5-03822-P03-CH1	330368	OK	0.7575565	-0.6436425	0.108777	0	-104.524	-25.028	2.618	B5-03822-P04-CH0	330368	OK	0.6701818	-0.1106267	0.733906	0	-132.574	-30.668	12.451	B5-03822-P04-CH1	330368	OK	0.7672587	-0.6399636	0.0419612	0	-115.811	-43.927	4.696	NA
0.479603041216487	B5-03822-P01-CH0	330376	OK	0.2118006	0.0689741	0.0712098	-0.9722717	95.243	31.388	-259.622	B5-03822-P02-CH0	330376	OK	0.7615301	0.1892167	-0.6198943	0	-92.673	-97.45	1.664	B5-03822-P02-CH1	330376	OK	0.7076354	0.13949	-0.6926721	0	-80.771	-77.47	1.367	B5-03822-P03-CH0	330376	OK	0.8008129	-0.5608404	-0.210135	0	-97.428	-59.833	7.843	B5-03822-P03-CH1	330376	OK	0.7570359	-0.6442015	0.1090919	0	-104.708	-25.215	2.443	B5-03822-P04-CH0	330376	OK	0.6697903	-0.1136788	0.7337971	0	-132.341	-30.764	13.363	B5-03822-P04-CH1	330376	OK	0.7665068	-0.6408745	0.0417998	0	-115.899	-44.11	4.64	NA
0.48959477124183	B5-03822-P01-CH0	330384	OK	0.2115284	0.0690392	0.0714938	-0.9723055	95.2	31.336	-259.545	B5-03822-P02-CH0	330384	OK	0.7646435	0.1878034	-0.6164821	0	-92.163	-98.803	-0.78	B5-03822-P02-CH1	330384	OK	0.7048082	0.1410143	-0.6952412	0	-81.147	-76.912	1.789	B5-03822-P03-CH0	330384	OK	0.8045983	-0.5594714	-0.199031	0	-97.684	-59.603	8.989	B5-03822-P03-CH1	330384	OK	0.757365	-0.6437681	0.1093656	0	-104.861	-25.176	2.356	B5-03822-P04-CH0	330384	OK	0.6711675	-0.1142915	0.7324423	0	-132.81	-31.448	13.798	B5-03822-P04-CH1	330384	OK	0.7667094	-0.6406662	0.041273	0	-115.868	-43.936	4.576	NA
0.499586501267174	B5-03822-P01-CH0	330392	OK	0.2112231	0.0689589	0.0713479	-0.9723883	95.13	31.283	-259.632	B5-03822-P02-CH0	330392	OK	0.7626043	0.1874564	-0.6191081	0	-94.053	-98.496	1.891	B5-03822-P02-CH1	330392	OK	0.7068403	0.1384885	-0.6936842	0	-79.972	-77.562	0.778	B5-03822-P03-CH0	330392	OK	0.8064977	-0.5603102	-0.1887166	0	-97.796	-59.987	9.267	B5-03822-P03-CH1	330392	OK	0.7574206	-0.6436451	0.1097042	0	-104.892	-25.071	2.34	B5-03822-P04-CH0	330392	OK	0.669193	-0.1100434	0.7348954	0	-132.448	-30.367	12.203	B5-03822-P04-CH1	330392	OK	0.7666357	-0.6407814	0.0408532	0	-115.885	-43.85	4.665	NA
0.509578231292517	B5-03822-P01-CH0	330400	OK	0.2112046	0.0689331	0.0718965	-0.9723537	95.111	31.241	-259.628	B5-03822-P02-CH0	330400	OK	0.7655616	0.1879316	-0.6153025	0	-93.093	-98.126	1.43	B5-03822-P02-CH1	330400	OK	0.7080225	0.1353285	-0.693102	0	-79.647	-77.963	0.679	B5-03822-P03-CH0	330400	OK	0.8090678	-0.5589286	-0.1816811	0	-97.598	-59.584	8.854	B5-03822-P03-CH1	330400	OK	0.7578525	-0.6430455	0.1102369	0	-104.837	-24.983	2.096	B5-03822-P04-CH0	330400	OK	0.6694146	-0.1132806	0.7342014	0	-132.346	-30.343	12.012	B5-03822-P04-CH1	330400	OK	0.7667781	-0.6406168	0.04076	0	-115.922	-43.949	4.497	NA
0.51956996131786	B5-03822-P01-CH0	330408	OK	0.2112194	0.0690536	0.0721093	-0.9723262	95.157	31.241	-259.692	B5-03822-P02-CH0	330408	OK	0.7649133	0.189578	-0.6156036	0	-93.841	-96.925	2.366	B5-03822-P02-CH1	330408	OK	0.7077722	0.1328853	-0.69383	0	-80.048	-77.739	1.137	B5-03822-P03-CH0	330408	OK	0.8095535	-0.5580735	-0.1821461	0	-97.815	-59.26	9.075	B5-03822-P03-CH1	330408	OK	0.7579076	-0.6428475	0.1110098	0	-104.934	-25.06	2.119	B5-03822-P04-CH0	330408	OK	0.6697109	-0.1164147	0.7334405	0	-132.43	-30.229	11.901	B5-03822-P04-CH1	330408	OK	0.7669718	-0.6403822	0.0408024	0	-115.965	-43.914	4.539	NA
0.529561691343204	B5-03822-P01-CH0	330416	OK	0.2110432	0.0689671	0.0722714	-0.9723586	95.133	31.198	-259.71	B5-03822-P02-CH0	330416	OK	0.7677288	0.1914627	-0.6115019	0	-93.047	-97.348	1.572	B5-03822-P02-CH1	330416	OK	0.7078847	0.1281672	-0.6946023	0	-80.031	-77.294	0.426	B5-03822-P03-CH0	330416	OK	0.8087305	-0.5570201	-0.188901	0	-98.397	-58.698	9.794	B5-03822-P03-CH1	330416	OK	0.7579498	-0.6427064	0.1115373	0	-104.897	-25.042	2.27	B5-03822-P04-CH0	330416	OK	0.6696864	-0.1197655	0.7329232	0	-132.383	-30.085	11.721	B5-03822-P04-CH1	330416	OK	0.7670741	-0.6402869	0.0403731	0	-115.982	-43.846	4.516	NA
0.539553421368547	B5-03822-P01-CH0	330424	OK	0.2110976	0.068771	0.0723284	-0.9723564	95.073	31.161	-259.773	B5-03822-P02-CH0	330424	OK	0.7690876	0.1931941	-0.6092457	0	-93.108	-97.924	1.172	B5-03822-P02-CH1	330424	OK	0.7082735	0.1230427	-0.6951325	0	-79.992	-77.122	0.506	B5-03822-P03-CH0	330424	OK	0.8068111	-0.5598504	-0.1887413	0	-96.913	-59.189	9.718	B5-03822-P03-CH1	330424	OK	0.7580261	-0.6424866	0.1122827	0	-104.929	-25.001	2.283	B5-03822-P04-CH0	330424	OK	0.669644	-0.1220166	0.7325905	0	-132.32	-30.121	11.659	B5-03822-P04-CH1	330424	OK	0.7671192	-0.6402298	0.0404219	0	-115.923	-43.853	4.525	NA
0.549545151393891	B5-03822-P01-CH0	330432	OK	0.2112407	0.0686451	0.072847	-0.9722955	95.067	31.141	-259.782	B5-03822-P02-CH0	330432	OK	0.7688142	0.1937298	-0.6094207	0	-93.52	-98.565	2.119	B5-03822-P02-CH1	330432	OK	0.7072136	0.1149229	-0.697597	0	-80.555	-76.559	0.928	B5-03822-P03-CH0	330432	OK	0.8050525	-0.5589095	-0.1987728	0	-97.931	-58.518	9.169	B5-03822-P03-CH1	330432	OK	0.7582656	-0.6420817	0.1129798	0	-104.843	-25.039	2.374	B5-03822-P04-CH0	330432	OK	0.6698876	-0.1238121	0.7320664	0	-132.332	-30.179	11.831	B5-03822-P04-CH1	330432	OK	0.7674869	-0.6397808	0.0405509	0	-115.91	-43.88	4.534	NA
0.559536881419234	B5-03822-P01-CH0	330440	OK	0.2112796	0.068541	0.0728183	-0.9722965	95.019	31.146	-259.813	B5-03822-P02-CH0	330440	OK	0.7680973	0.1967339	-0.6093622	0	-93.795	-97.782	3.475	B5-03822-P02-CH1	330440	OK	0.7079021	0.106519	-0.6982322	0	-80.209	-77.054	0.89	B5-03822-P03-CH0	330440	OK	0.8023865	-0.559825	-0.2068135	0	-97.341	-58.524	9.127	B5-03822-P03-CH1	330440	OK	0.7580683	-0.6422132	0.1135546	0	-104.833	-25.067	2.196	B5-03822-P04-CH0	330440	OK	0.6697563	-0.1258889	0.7318322	0	-132.207	-30.103	11.939	B5-03822-P04-CH1	330440	OK	0.767482	-0.6397813	0.0406363	0	-115.914	-43.858	4.487	NA
0.569528611444578	B5-03822-P01-CH0	330448	OK	0.2112337	0.0686661	0.0729731	-0.9722861	95.095	31.142	-259.829	B5-03822-P02-CH0	330448	OK	0.7691219	0.2015053	-0.606504	0	-93.24	-97.085	1.504	B5-03822-P02-CH1	330448	OK	0.7084797	0.0991162	-0.6987363	0	-79.937	-77.355	-0.129	B5-03822-P03-CH0	330448	OK	0.7980506	-0.5609479	-0.2201196	0	-97.473	-58.75	8.402	B5-03822-P03-CH1	330448	OK	0.7582109	-0.6419768	0.1139389	0	-104.974	-25.101	2.461	B5-03822-P04-CH0	330448	OK	0.6699891	-0.127768	0.7312933	0	-132.229	-30.091	12.053	B5-03822-P04-CH1	330448	OK	0.7674422	-0.6398412	0.0404435	0	-115.971	-43.919	4.488	NA
0.579520341469921	B5-03822-P01-CH0	330456	OK	0.2114346	0.0684534	0.0731345	-0.9722453	95.033	31.106	-259.84	B5-03822-P02-CH0	330456	OK	0.76989	0.2040902	-0.6046624	0	-92.678	-97.759	0.769	B5-03822-P02-CH1	330456	OK	0.7072195	0.089131	-0.7013532	0	-80.53	-77.203	1.066	B5-03822-P03-CH0	330456	OK	0.795117	-0.5594978	-0.2339897	0	-97.445	-58.415	7.711	B5-03822-P03-CH1	330456	OK	0.7583763	-0.64166	0.1146203	0	-104.899	-25.159	2.477	B5-03822-P04-CH0	330456	OK	0.6698329	-0.1293467	0.7311589	0	-132.173	-30.074	11.558	B5-03822-P04-CH1	330456	OK	0.7676522	-0.6395939	0.0403711	0	-115.849	-43.85	4.536	NA
0.589512071495265	B5-03822-P01-CH0	330464	OK	0.2117067	0.0681844	0.0731621	-0.9722029	94.957	31.114	-259.898	B5-03822-P02-CH0	330464	OK	0.7694573	0.2048792	-0.6049463	0	-92.441	-98.235	0.586	B5-03822-P02-CH1	330464	OK	0.7081903	0.0764893	-0.701866	0	-80.267	-76.535	1.338	B5-03822-P03-CH0	330464	OK	0.7923545	-0.5581615	-0.2462318	0	-97.106	-58.146	7.834	B5-03822-P03-CH1	330464	OK	0.758397	-0.6415161	0.1152866	0	-104.781	-25.149	2.425	B5-03822-P04-CH0	330464	OK	0.6698668	-0.1305707	0.7309103	0	-132.056	-29.922	11.574	B5-03822-P04-CH1	330464	OK	0.7677836	-0.6394391	0.0403232	0	-115.809	-43.792	4.541	NA
0.599503801520608	B5-03822-P01-CH0	330472	OK	0.2118319	0.0681054	0.0733217	-0.9721691	94.947	31.098	-259.886	B5-03822-P02-CH0	330472	OK	0.7676327	0.2066288	-0.6066667	0	-92.358	-97.903	0.985	B5-03822-P02-CH1	330472	OK	0.7101087	0.0631546	-0.7012539	0	-80.056	-76.436	0.297	B5-03822-P03-CH0	330472	OK	0.7889293	-0.5578675	-0.2576324	0	-97.137	-58.284	7.955	B5-03822-P03-CH1	330472	OK	0.7584738	-0.6413454	0.1157311	0	-104.747	-25.205	2.393	B5-03822-P04-CH0	330472	OK	0.6699886	-0.1311471	0.7306954	0	-132.012	-30.062	11.528	B5-03822-P04-CH1	330472	OK	0.7677548	-0.6394723	0.0403455	0	-115.744	-43.871	4.495	NA
0.609495531545952	B5-03822-P01-CH0	330480	OK	0.212	0.0679981	0.0733347	-0.972139	94.926	31.055	-259.864	B5-03822-P02-CH0	330480	OK	0.7656871	0.2094392	-0.6081599	0	-92.218	-98.042	0.209	B5-03822-P02-CH1	330480	OK	0.7132206	0.0520474	-0.6990046	0	-79.787	-76.366	0.544	B5-03822-P03-CH0	330480	OK	0.7867146	-0.5575524	-0.264982	0	-96.461	-58.385	7.414	B5-03822-P03-CH1	330480	OK	0.7585256	-0.6412012	0.116189	0	-104.82	-25.315	2.454	B5-03822-P04-CH0	330480	OK	0.6702556	-0.1317979	0.7303333	0	-131.972	-30.014	11.586	B5-03822-P04-CH1	330480	OK	0.7678179	-0.6394085	0.0401551	0	-115.796	-43.85	4.425	NA
0.619487261571295	B5-03822-P01-CH0	330488	OK	0.2118351	0.0679288	0.072709	-0.9722268	94.889	30.961	-259.884	B5-03822-P02-CH0	330488	OK	0.7659145	0.2131791	-0.6065721	0	-90.69	-98.231	-1.497	B5-03822-P02-CH1	330488	OK	0.7151841	0.0424583	-0.6976453	0	-80.461	-76.009	0.566	B5-03822-P03-CH0	330488	OK	0.7837484	-0.5565775	-0.2756083	0	-97.007	-58.312	6.984	B5-03822-P03-CH1	330488	OK	0.7581254	-0.6416451	0.116351	0	-104.705	-25.36	2.272	B5-03822-P04-CH0	330488	OK	0.6700032	-0.1326503	0.7304106	0	-131.742	-29.971	11.624	B5-03822-P04-CH1	330488	OK	0.7673981	-0.6399399	0.0397124	0	-115.707	-43.847	4.439	NA
0.629478991596639	B5-03822-P01-CH0	330496	OK	0.2119042	0.0680775	0.0724425	-0.9722213	94.911	30.945	-259.85	B5-03822-P02-CH0	330496	OK	0.7608493	0.2180521	-0.6111969	0	-91.317	-97.656	0.253	B5-03822-P02-CH1	330496	OK	0.717885	0.0336003	-0.6953504	0	-80.849	-75.621	1.14	B5-03822-P03-CH0	330496	OK	0.7815189	-0.5539474	-0.2870027	0	-97.818	-57.852	6.864	B5-03822-P03-CH1	330496	OK	0.758094	-0.6416312	0.1166316	0	-104.678	-25.382	2.239	B5-03822-P04-CH0	330496	OK	0.6700386	-0.1327281	0.730364	0	-131.61	-29.994	11.661	B5-03822-P04-CH1	330496	OK	0.767196	-0.640182	0.0397155	0	-115.703	-43.879	4.448	NA
0.639470721621982	B5-03822-P01-CH0	330504	OK	0.2120789	0.0680611	0.0728828	-0.9721514	94.921	30.964	-259.842	B5-03822-P02-CH0	330504	OK	0.7577682	0.2208841	-0.6140012	0	-91.051	-98.203	-0.201	B5-03822-P02-CH1	330504	OK	0.7198439	0.0273593	-0.6935966	0	-81.418	-75.237	1.822	B5-03822-P03-CH0	330504	OK	0.7808728	-0.551861	-0.2927237	0	-98.038	-57.518	7.421	B5-03822-P03-CH1	330504	OK	0.7585669	-0.6410406	0.116804	0	-104.688	-25.369	2.227	B5-03822-P04-CH0	330504	OK	0.6700832	-0.1330702	0.7302608	0	-131.466	-29.982	11.651	B5-03822-P04-CH1	330504	OK	0.7674278	-0.6399064	0.0396792	0	-115.686	-43.912	4.481	NA
0.649462451647326	B5-03822-P01-CH0	330512	OK	0.2121045	0.0680804	0.072688	-0.972159	94.927	30.948	-259.886	B5-03822-P02-CH0	330512	OK	0.7545884	0.2225925	-0.6172916	0	-90.901	-97.721	0.406	B5-03822-P02-CH1	330512	OK	0.7227535	0.0213067	-0.6907774	0	-81.405	-75.557	2.391	B5-03822-P03-CH0	330512	OK	0.7796128	-0.5526267	-0.2946314	0	-97.368	-58.08	7.118	B5-03822-P03-CH1	330512	OK	0.7585391	-0.6410274	0.1170572	0	-104.673	-25.436	2.072	B5-03822-P04-CH0	330512	OK	0.6701475	-0.1335064	0.7301222	0	-131.404	-29.974	11.538	B5-03822-P04-CH1	330512	OK	0.7672236	-0.6401655	0.0394478	0	-115.671	-43.964	4.448	NA
0.659454181672669	B5-03822-P01-CH0	330520	OK	0.2123381	0.0682029	0.0731579	-0.9720642	94.983	31.039	-259.874	B5-03822-P02-CH0	330520	OK	0.7534351	0.2220764	-0.6188841	0	-89.76	-98.662	-0.089	B5-03822-P02-CH1	330520	OK	0.7253448	0.0178138	-0.6881552	0	-81.407	-75.883	2.663	B5-03822-P03-CH0	330520	OK	0.7794015	-0.5510827	-0.2980624	0	-97.55	-57.713	6.688	B5-03822-P03-CH1	330520	OK	0.7591509	-0.6402883	0.1171357	0	-104.755	-25.38	2.263	B5-03822-P04-CH0	330520	OK	0.6707095	-0.133777	0.7295564	0	-131.482	-29.892	11.607	B5-03822-P04-CH1	330520	OK	0.7675496	-0.6397793	0.0393697	0	-115.622	-43.867	4.346	NA
0.669445911698013	B5-03822-P01-CH0	330528	OK	0.2125022	0.068228	0.0731898	-0.9720242	94.987	31.083	-259.898	B5-03822-P02-CH0	330528	OK	0.749484	0.2240776	-0.622947	0	-89.72	-98.174	0.171	B5-03822-P02-CH1	330528	OK	0.7287421	0.0169968	-0.6845773	0	-80.843	-75.735	0.923	B5-03822-P03-CH0	330528	OK	0.7780919	-0.5508842	-0.3018269	0	-97.542	-57.83	6.737	B5-03822-P03-CH1	330528	OK	0.7594396	-0.6399485	0.1171211	0	-104.773	-25.36	2.443	B5-03822-P04-CH0	330528	OK	0.6709301	-0.1341481	0.7292853	0	-131.416	-29.802	11.695	B5-03822-P04-CH1	330528	OK	0.7677366	-0.639563	0.039239	0	-115.559	-43.78	4.534	NA
0.679437641723356	B5-03822-P01-CH0	330536	OK	0.2126542	0.0681121	0.0734143	-0.9719821	94.968	31.112	-259.872	B5-03822-P02-CH0	330536	OK	0.7453708	0.226363	-0.6270424	0	-89.77	-97.596	0.756	B5-03822-P02-CH1	330536	OK	0.7297252	0.016348	-0.6835451	0	-81.191	-75.093	1.53	B5-03822-P03-CH0	330536	OK	0.7769391	-0.549742	-0.3068377	0	-97.633	-57.639	6.446	B5-03822-P03-CH1	330536	OK	0.7598611	-0.6394292	0.1172237	0	-104.693	-25.29	2.411	B5-03822-P04-CH0	330536	OK	0.6713211	-0.1347503	0.7288143	0	-131.388	-29.685	11.728	B5-03822-P04-CH1	330536	OK	0.7679419	-0.6393186	0.0392041	0	-115.443	-43.737	4.423	NA
0.6894293717487	B5-03822-P01-CH0	330544	OK	0.2127258	0.0683637	0.0735135	-0.9719413	95.064	31.181	-259.828	B5-03822-P02-CH0	330544	OK	0.7450438	0.2277397	-0.6269325	0	-88.666	-98.913	-1.881	B5-03822-P02-CH1	330544	OK	0.7303021	0.0150815	-0.6829578	0	-81.608	-75.78	0.922	B5-03822-P03-CH0	330544	OK	0.7752078	-0.5493775	-0.3118289	0	-97.909	-57.386	6.348	B5-03822-P03-CH1	330544	OK	0.7601744	-0.6390745	0.1171265	0	-104.788	-25.32	2.616	B5-03822-P04-CH0	330544	OK	0.6717725	-0.1353735	0.7282827	0	-131.422	-29.693	11.813	B5-03822-P04-CH1	330544	OK	0.7678165	-0.6394704	0.039185	0	-115.452	-43.82	4.446	NA
0.699421101774043	B5-03822-P01-CH0	330552	OK	0.2128653	0.0687043	0.0733267	-0.9719009	95.225	31.209	-259.848	B5-03822-P02-CH0	330552	OK	0.7418989	0.2301255	-0.6297843	0	-89.014	-98.748	-0.908	B5-03822-P02-CH1	330552	OK	0.7307059	0.0119062	-0.6825886	0	-82.024	-76.405	0.805	B5-03822-P03-CH0	330552	OK	0.7733247	-0.5501822	-0.3150689	0	-97.697	-57.314	6.382	B5-03822-P03-CH1	330552	OK	0.7601737	-0.6390218	0.1174186	0	-104.852	-25.532	2.811	B5-03822-P04-CH0	330552	OK	0.672176	-0.1364308	0.7277129	0	-131.488	-29.566	11.786	B5-03822-P04-CH1	330552	OK	0.7678216	-0.6394861	0.0388252	0	-115.582	-43.78	4.537	NA
0.709412831799386	B5-03822-P01-CH0	330560	OK	0.2128207	0.0686316	0.0730062	-0.9719399	95.208	31.229	-259.863	B5-03822-P02-CH0	330560	OK	0.7412444	0.2327027	-0.6296079	0	-88.418	-98.601	-0.746	B5-03822-P02-CH1	330560	OK	0.7321804	0.0106385	-0.6810277	0	-81.745	-75.888	1.022	B5-03822-P03-CH0	330560	OK	0.7716633	-0.5501506	-0.3191708	0	-98.217	-56.774	6.323	B5-03822-P03-CH1	330560	OK	0.7601053	-0.6391299	0.1172728	0	-104.771	-25.543	2.608	B5-03822-P04-CH0	330560	OK	0.6722948	-0.1374846	0.7274048	0	-131.437	-29.486	11.638	B5-03822-P04-CH1	330560	OK	0.7676188	-0.6397468	0.0385411	0	-115.405	-43.741	4.604	NA
0.71940456182473	B5-03822-P01-CH0	330568	OK	0.2131268	0.0687093	0.073087	-0.9718613	95.245	31.28	-259.757	B5-03822-P02-CH0	330568	OK	0.7374015	0.2367428	-0.6326071	0	-89.343	-97.838	0.816	B5-03822-P02-CH1	330568	OK	0.7316914	0.0103404	-0.6815577	0	-82.451	-76.412	1.18	B5-03822-P03-CH0	330568	OK	0.7703202	-0.5504618	-0.3218674	0	-98	-56.715	6.448	B5-03822-P03-CH1	330568	OK	0.7604896	-0.638683	0.1172159	0	-104.792	-25.49	2.639	B5-03822-P04-CH0	330568	OK	0.6728431	-0.137927	0.7268138	0	-131.535	-29.488	11.485	B5-03822-P04-CH1	330568	OK	0.7676946	-0.639658	0.0385045	0	-115.33	-43.776	4.617	NA
0.729396291850073	B5-03822-P01-CH0	330576	OK	0.2135277	0.0685533	0.0736488	-0.9717418	95.249	31.444	-259.72	B5-03822-P02-CH0	330576	OK	0.7371536	0.2395701	-0.6318313	0	-88.5	-98.144	0.124	B5-03822-P02-CH1	330576	OK	0.7318314	0.0115814	-0.6813873	0	-82.79	-75.139	1.866	B5-03822-P03-CH0	330576	OK	0.7696766	-0.5515824	-0.3214884	0	-97.231	-57.041	6.195	B5-03822-P03-CH1	330576	OK	0.7610116	-0.6380144	0.1174692	0	-104.765	-25.46	2.549	B5-03822-P04-CH0	330576	OK	0.673334	-0.1386305	0.7262251	0	-131.575	-29.367	11.472	B5-03822-P04-CH1	330576	OK	0.7680441	-0.6392427	0.0384325	0	-115.316	-43.722	4.459	NA
0.739388021875417	B5-03822-P01-CH0	330584	OK	0.2133769	0.0686749	0.0725666	-0.9718478	95.284	31.394	-259.606	B5-03822-P02-CH0	330584	OK	0.7380769	0.24239	-0.6296742	0	-87.738	-98.757	-2.544	B5-03822-P02-CH1	330584	OK	0.7327034	0.0109076	-0.6804606	0	-82.837	-74.433	1.955	B5-03822-P03-CH0	330584	OK	0.7684588	-0.5505984	-0.326056	0	-97.748	-56.657	7.127	B5-03822-P03-CH1	330584	OK	0.7604307	-0.6387522	0.1172209	0	-104.691	-25.514	2.47	B5-03822-P04-CH0	330584	OK	0.6735016	-0.1397484	0.7258553	0	-131.587	-29.247	11.38	B5-03822-P04-CH1	330584	OK	0.7673373	-0.640115	0.0380302	0	-115.266	-43.753	4.453	NA
0.74937975190076	B5-03822-P01-CH0	330592	OK	0.2135435	0.0688677	0.072427	-0.971808	95.396	31.516	-259.623	B5-03822-P02-CH0	330592	OK	0.7374948	0.2431334	-0.6300695	0	-87.564	-98.913	-3.056	B5-03822-P02-CH1	330592	OK	0.7335093	0.0096046	-0.6796115	0	-83.041	-75.551	1.548	B5-03822-P03-CH0	330592	OK	0.7676986	-0.5497006	-0.3293451	0	-98.244	-56.165	6.812	B5-03822-P03-CH1	330592	OK	0.7605333	-0.6386599	0.1170579	0	-104.839	-25.46	2.565	B5-03822-P04-CH0	330592	OK	0.6738702	-0.140484	0.7253711	0	-131.674	-29.141	11.447	B5-03822-P04-CH1	330592	OK	0.7672964	-0.6401792	0.0377734	0	-115.316	-43.654	4.483	NA
0.759371481926104	B5-03822-P01-CH0	330600	OK	0.2135261	0.0690842	0.071643	-0.9718545	95.509	31.499	-259.606	B5-03822-P02-CH0	330600	OK	0.7351276	0.2441408	-0.6324419	0	-88.432	-99.031	-1.047	B5-03822-P02-CH1	330600	OK	0.7349831	0.0080777	-0.6780374	0	-82.69	-75.299	2.075	B5-03822-P03-CH0	330600	OK	0.7660467	-0.5519429	-0.3294412	0	-98.129	-56.785	5.63	B5-03822-P03-CH1	330600	OK	0.7600911	-0.6391932	0.1170195	0	-104.852	-25.51	2.509	B5-03822-P04-CH0	330600	OK	0.6738227	-0.141289	0.7252588	0	-131.63	-29.195	11.416	B5-03822-P04-CH1	330600	OK	0.766752	-0.6408494	0.0374622	0	-115.363	-43.741	4.629	NA
0.769363211951447	B5-03822-P01-CH0	330608	OK	0.2137005	0.0690813	0.0716295	-0.9718174	95.574	31.565	-259.643	B5-03822-P02-CH0	330608	OK	0.7326924	0.2467967	-0.6342344	0	-89.072	-98.404	-0.971	B5-03822-P02-CH1	330608	OK	0.7357318	0.0085854	-0.6772186	0	-82.564	-75.516	2.073	B5-03822-P03-CH0	330608	OK	0.7661032	-0.5506714	-0.3314316	0	-97.885	-56.301	6.443	B5-03822-P03-CH1	330608	OK	0.7600551	-0.6392232	0.1170895	0	-104.834	-25.485	2.186	B5-03822-P04-CH0	330608	OK	0.6739188	-0.1420473	0.7250214	0	-131.646	-29.206	11.23	B5-03822-P04-CH1	330608	OK	0.7666128	-0.6410156	0.0374688	0	-115.314	-43.824	4.59	NA
0.779354941976791	B5-03822-P01-CH0	330616	OK	0.2137858	0.0692267	0.0715694	-0.9717927	95.659	31.678	-259.686	B5-03822-P02-CH0	330616	OK	0.7304108	0.2497094	-0.6357242	0	-89.667	-97.986	0.79	B5-03822-P02-CH1	330616	OK	0.7356753	0.0091695	-0.6772723	0	-83	-75.234	1.616	B5-03822-P03-CH0	330616	OK	0.7646851	-0.5511553	-0.3338931	0	-97.91	-56.731	5.799	B5-03822-P03-CH1	330616	OK	0.760056	-0.6392423	0.1169795	0	-104.895	-25.419	2.309	B5-03822-P04-CH0	330616	OK	0.6738252	-0.1430795	0.7249054	0	-131.562	-29.123	11.266	B5-03822-P04-CH1	330616	OK	0.7666181	-0.6410352	0.0370205	0	-115.378	-43.722	4.701	NA
0.789346672002134	B5-03822-P01-CH0	330624	OK	0.2138251	0.0694264	0.0710761	-0.971806	95.763	31.7	-259.672	B5-03822-P02-CH0	330624	OK	0.7310418	0.2529234	-0.6337252	0	-89.271	-98.243	0.913	B5-03822-P02-CH1	330624	OK	0.7348635	0.0105456	-0.678133	0	-83.801	-75.601	2.217	B5-03822-P03-CH0	330624	OK	0.7635206	-0.5509009	-0.3369636	0	-98.576	-56.615	6.071	B5-03822-P03-CH1	330624	OK	0.7596803	-0.6396726	0.1170676	0	-104.964	-25.48	2.234	B5-03822-P04-CH0	330624	OK	0.6740167	-0.1437071	0.7246032	0	-131.647	-29.115	11.258	B5-03822-P04-CH1	330624	OK	0.7663562	-0.6413628	0.0367684	0	-115.429	-43.706	4.748	NA
0.799338402027478	B5-03822-P01-CH0	330632	OK	0.2139053	0.0694245	0.0707306	-0.9718137	95.751	31.782	-259.617	B5-03822-P02-CH0	330632	OK	0.7304601	0.2563644	-0.6330129	0	-89.162	-97.365	0.933	B5-03822-P02-CH1	330632	OK	0.7357377	0.0105285	-0.6771848	0	-83.595	-75.52	2.6	B5-03822-P03-CH0	330632	OK	0.763986	-0.5494928	-0.3382057	0	-98.377	-55.997	5.985	B5-03822-P03-CH1	330632	OK	0.7595501	-0.6398776	0.1167918	0	-104.978	-25.316	2.267	B5-03822-P04-CH0	330632	OK	0.6741321	-0.1442906	0.7243799	0	-131.666	-29.06	11.274	B5-03822-P04-CH1	330632	OK	0.7661407	-0.6416272	0.0366459	0	-115.396	-43.605	4.635	NA
0.809330132052821	B5-03822-P01-CH0	330640	OK	0.2142555	0.0695274	0.0706603	-0.9717343	95.811	31.806	-259.546	B5-03822-P02-CH0	330640	OK	0.7288382	0.258835	-0.6338764	0	-90.164	-97.533	1.542	B5-03822-P02-CH1	330640	OK	0.7365768	0.0120249	-0.676247	0	-83.456	-75.481	2.792	B5-03822-P03-CH0	330640	OK	0.7634046	-0.5504111	-0.3380251	0	-97.554	-56.576	6.208	B5-03822-P03-CH1	330640	OK	0.7594797	-0.639881	0.1172301	0	-104.976	-25.392	2.355	B5-03822-P04-CH0	330640	OK	0.6740402	-0.144444	0.7244348	0	-131.6	-29.169	11.23	B5-03822-P04-CH1	330640	OK	0.7661118	-0.6416511	0.0368311	0	-115.391	-43.644	4.55	NA
0.819321862078165	B5-03822-P01-CH0	330648	OK	0.214435	0.0698193	0.0709316	-0.9716541	95.965	31.975	-259.608	B5-03822-P02-CH0	330648	OK	0.7296302	0.2602065	-0.6324021	0	-89.987	-98.062	1.611	B5-03822-P02-CH1	330648	OK	0.7381438	0.0122087	-0.6745329	0	-83.119	-76.071	1.939	B5-03822-P03-CH0	330648	OK	0.7622924	-0.5503768	-0.3405815	0	-98.153	-56.621	5.386	B5-03822-P03-CH1	330648	OK	0.7596355	-0.6396959	0.1172313	0	-105.266	-25.357	2.521	B5-03822-P04-CH0	330648	OK	0.6742969	-0.1451402	0.7240566	0	-131.634	-29.056	11.563	B5-03822-P04-CH1	330648	OK	0.7662536	-0.6414891	0.0367036	0	-115.519	-43.561	4.658	NA
0.829313592103508	B5-03822-P01-CH0	330656	OK	0.2144973	0.0700894	0.0705303	-0.9716501	96.08	31.989	-259.655	B5-03822-P02-CH0	330656	OK	0.7297546	0.2624236	-0.6313415	0	-89.914	-97.766	1.806	B5-03822-P02-CH1	330656	OK	0.7379338	0.0124372	-0.6747584	0	-83.582	-76.773	2.321	B5-03822-P03-CH0	330656	OK	0.7640234	-0.5517454	-0.3344328	0	-98.312	-56.565	6.981	B5-03822-P03-CH1	330656	OK	0.7592489	-0.6401424	0.1172984	0	-105.453	-25.457	2.623	B5-03822-P04-CH0	330656	OK	0.6742366	-0.1454987	0.7240409	0	-131.6	-29.171	11.87	B5-03822-P04-CH1	330656	OK	0.7659429	-0.641862	0.0366688	0	-115.538	-43.603	4.735	NA
0.839305322128852	B5-03822-P01-CH0	330664	OK	0.2148071	0.0704232	0.0706332	-0.97155	96.27	32.033	-259.795	B5-03822-P02-CH0	330664	OK	0.7302828	0.2638769	-0.6301238	0	-89.584	-97.648	1.06	B5-03822-P02-CH1	330664	OK	0.7375479	0.0140027	-0.6751496	0	-83.943	-76.145	3.167	B5-03822-P03-CH0	330664	OK	0.7634675	-0.5518202	-0.3355768	0	-98.389	-56.671	7.013	B5-03822-P03-CH1	330664	OK	0.7593421	-0.6399662	0.1176558	0	-105.488	-25.481	2.886	B5-03822-P04-CH0	330664	OK	0.6745557	-0.1456703	0.723709	0	-131.729	-29.336	12.089	B5-03822-P04-CH1	330664	OK	0.7660414	-0.641745	0.0366605	0	-115.679	-43.635	4.964	NA
0.849297052154195	B5-03822-P01-CH0	330672	OK	0.2149831	0.0702751	0.0704514	-0.971535	96.215	31.933	-259.714	B5-03822-P02-CH0	330672	OK	0.7289485	0.2653807	-0.6310366	0	-90.392	-97.917	1.511	B5-03822-P02-CH1	330672	OK	0.7394019	0.0144311	-0.6731097	0	-83.257	-76.614	2.357	B5-03822-P03-CH0	330672	OK	0.7629744	-0.5519766	-0.3364401	0	-98.186	-56.839	6.802	B5-03822-P03-CH1	330672	OK	0.7592451	-0.6400197	0.1179903	0	-105.355	-25.526	2.915	B5-03822-P04-CH0	330672	OK	0.6743326	-0.1459411	0.7238624	0	-131.54	-29.507	12.034	B5-03822-P04-CH1	330672	OK	0.7659882	-0.6418111	0.0366146	0	-115.544	-43.677	4.869	NA
