Wav.Time	B5.03822.P01.CH0	Frame	State	Q0	Qx	Qy	Qz	Tx	Ty	Tz	B5.03822.P02.CH0	Frame.1	State.1	Q0.1	Qx.1	Qy.1	Qz.1	Tx.1	Ty.1	Tz.1	B5.03822.P02.CH1	Frame.2	State.2	Q0.2	Qx.2	Qy.2	Qz.2	Tx.2	Ty.2	Tz.2	B5.03822.P03.CH0	Frame.3	State.3	Q0.3	Qx.3	Qy.3	Qz.3	Tx.3	Ty.3	Tz.3	B5.03822.P03.CH1	Frame.4	State.4	Q0.4	Qx.4	Qy.4	Qz.4	Tx.4	Ty.4	Tz.4	B5.03822.P04.CH0	Frame.5	State.5	Q0.5	Qx.5	Qy.5	Qz.5	Tx.5	Ty.5	Tz.5	B5.03822.P04.CH1	Frame.6	State.6	Q0.6	Qx.6	Qy.6	Qz.6	Tx.6	Ty.6	Tz.6	X
0	B5-03822-P01-CH0	1396264	OK	0.1435689	0.1190109	0.1234351	-0.9746733	151.677	-18.081	-274.042	B5-03822-P02-CH0	1396264	OK	0.6501073	0.2601427	-0.7139232	0	-85.314	-91.663	0.282	B5-03822-P02-CH1	1396264	OK	0.7165101	0.1075654	-0.6892336	0	-82.094	-69.601	2.301	B5-03822-P03-CH0	1396264	OK	0.7287547	0.0005848	-0.6847746	0	-94.966	-50.817	8.185	B5-03822-P03-CH1	1396264	OK	0.7861986	-0.609153	-0.1040401	0	-99.314	-14.074	7.551	B5-03822-P04-CH0	1396264	OK	0.7910855	-0.2969595	0.5347885	0	-123.175	-21.954	14.3	B5-03822-P04-CH1	1396264	OK	0.7883301	-0.6150677	0.0150752	0	-109.568	-31.762	6.97	NA
0.00999170399867264	B5-03822-P01-CH0	1396272	OK	0.1435818	0.1189354	0.123822	-0.9746316	151.636	-18.106	-273.988	B5-03822-P02-CH0	1396272	OK	0.6490121	0.2589977	-0.7153345	0	-84.715	-91.89	-0.135	B5-03822-P02-CH1	1396272	OK	0.7139362	0.1143703	-0.6908072	0	-83.147	-71.716	1.822	B5-03822-P03-CH0	1396272	OK	0.7322173	-0.0066339	-0.6810388	0	-96.238	-51.747	8.942	B5-03822-P03-CH1	1396272	OK	0.7862689	-0.6090179	-0.1042998	0	-99.262	-13.983	7.467	B5-03822-P04-CH0	1396272	OK	0.7910498	-0.2954079	0.5356999	0	-123.253	-21.942	14.31	B5-03822-P04-CH1	1396272	OK	0.7886165	-0.6146986	0.0151541	0	-109.598	-31.879	7.136	NA
0.0199834079973453	B5-03822-P01-CH0	1396280	OK	0.1435061	0.1189742	0.1234694	-0.9746827	151.646	-18.188	-274.018	B5-03822-P02-CH0	1396280	OK	0.6495085	0.2587069	-0.7149891	0	-83.771	-92.312	-0.885	B5-03822-P02-CH1	1396280	OK	0.7121749	0.1203978	-0.6916005	0	-83.232	-72.75	1.803	B5-03822-P03-CH0	1396280	OK	0.7376385	-0.0167117	-0.6749891	0	-96.411	-52.749	8.611	B5-03822-P03-CH1	1396280	OK	0.7857398	-0.6096092	-0.1048314	0	-99.245	-13.997	7.433	B5-03822-P04-CH0	1396280	OK	0.7887618	-0.2839153	0.5452035	0	-122.643	-22.165	17.133	B5-03822-P04-CH1	1396280	OK	0.7882979	-0.6151067	0.0151698	0	-109.569	-32.091	7.275	NA
0.0299751119960179	B5-03822-P01-CH0	1396288	OK	0.1427084	0.1193791	0.1217309	-0.974969	151.725	-18.296	-274.08	B5-03822-P02-CH0	1396288	OK	0.6510005	0.2576664	-0.7140073	0	-82.893	-92.737	-0.998	B5-03822-P02-CH1	1396288	OK	0.7122073	0.1275108	-0.690291	0	-80.796	-71.895	0.441	B5-03822-P03-CH0	1396288	OK	0.7429374	-0.0295547	-0.6687081	0	-95.784	-53.259	8.611	B5-03822-P03-CH1	1396288	OK	0.7842377	-0.6112617	-0.106444	0	-99.202	-13.918	7.548	B5-03822-P04-CH0	1396288	OK	0.7868941	-0.2827458	0.5485002	0	-122.801	-22.271	15.499	B5-03822-P04-CH1	1396288	OK	0.7870597	-0.6167102	0.0143393	0	-109.558	-32.043	7.158	NA
0.0399668159946906	B5-03822-P01-CH0	1396296	OK	0.1424562	0.1194707	0.1209209	-0.9750955	151.702	-18.353	-274.08	B5-03822-P02-CH0	1396296	OK	0.6501161	0.2565427	-0.7152167	0	-83.735	-93.141	-0.484	B5-03822-P02-CH1	1396296	OK	0.7119995	0.1317337	-0.6897122	0	-80.107	-72.682	2.407	B5-03822-P03-CH0	1396296	OK	0.7471152	-0.0474562	-0.6629983	0	-95.815	-54.267	9.302	B5-03822-P03-CH1	1396296	OK	0.7835449	-0.6119923	-0.107344	0	-99.193	-13.77	7.709	B5-03822-P04-CH0	1396296	OK	0.7866226	-0.2792148	0.550694	0	-123.052	-23.035	17.291	B5-03822-P04-CH1	1396296	OK	0.7864947	-0.6174364	0.014082	0	-109.59	-32.053	7.049	NA
0.0499585199933632	B5-03822-P01-CH0	1396304	OK	0.1418914	0.1194693	0.1202718	-0.9752582	151.624	-18.352	-274.064	B5-03822-P02-CH0	1396304	OK	0.6525869	0.2566505	-0.7129241	0	-83.512	-93.427	-0.401	B5-03822-P02-CH1	1396304	OK	0.7132558	0.1392623	-0.6869296	0	-80.675	-73.549	2.376	B5-03822-P03-CH0	1396304	OK	0.7527393	-0.064186	-0.6551822	0	-95.839	-55.951	10.78	B5-03822-P03-CH1	1396304	OK	0.7824867	-0.6130939	-0.1087676	0	-99.229	-13.712	7.72	B5-03822-P04-CH0	1396304	OK	0.7864124	-0.2749134	0.5531529	0	-123.9	-22.22	15.424	B5-03822-P04-CH1	1396304	OK	0.7859325	-0.618163	0.0135891	0	-109.524	-31.964	6.755	NA
0.0599502239920358	B5-03822-P01-CH0	1396312	OK	0.1419713	0.1194161	0.1207283	-0.9751967	151.597	-18.312	-274.111	B5-03822-P02-CH0	1396312	OK	0.6547143	0.2592771	-0.7100172	0	-82.952	-93.792	-0.559	B5-03822-P02-CH1	1396312	OK	0.7176427	0.1414716	-0.6818906	0	-79.899	-75.309	3.818	B5-03822-P03-CH0	1396312	OK	0.7593346	-0.0839437	-0.645263	0	-95.841	-56.376	10.332	B5-03822-P03-CH1	1396312	OK	0.7823597	-0.6130991	-0.1096485	0	-99.232	-13.507	7.837	B5-03822-P04-CH0	1396312	OK	0.785651	-0.2670325	0.5580736	0	-123.659	-21.589	15.169	B5-03822-P04-CH1	1396312	OK	0.7863537	-0.6176256	0.0136584	0	-109.46	-31.848	6.633	NA
0.0699419279907085	B5-03822-P01-CH0	1396320	OK	0.1423311	0.1193507	0.121726	-0.9750282	151.558	-18.226	-274	B5-03822-P02-CH0	1396320	OK	0.6565041	0.2590299	-0.7084532	0	-82.138	-94.666	-1.704	B5-03822-P02-CH1	1396320	OK	0.721594	0.1427181	-0.6774464	0	-79.02	-75.641	0.724	B5-03822-P03-CH0	1396320	OK	0.764834	-0.1078123	-0.6351421	0	-96.485	-57.376	10.874	B5-03822-P03-CH1	1396320	OK	0.7823798	-0.6129489	-0.1103425	0	-99.386	-13.414	7.794	B5-03822-P04-CH0	1396320	OK	0.7837572	-0.2567972	0.5654908	0	-123.406	-21.506	14.424	B5-03822-P04-CH1	1396320	OK	0.7869067	-0.6168978	0.0146614	0	-109.553	-31.978	6.296	NA
0.0799336319893811	B5-03822-P01-CH0	1396328	OK	0.1419429	0.1196398	0.1211335	-0.9751232	151.663	-18.307	-274.089	B5-03822-P02-CH0	1396328	OK	0.6525624	0.2598551	-0.7117849	0	-83.809	-93.708	-0.405	B5-03822-P02-CH1	1396328	OK	0.7216918	0.1411892	-0.6776625	0	-79.982	-76.349	2.775	B5-03822-P03-CH0	1396328	OK	0.7706341	-0.1281443	-0.6242613	0	-96.44	-58.611	12.027	B5-03822-P03-CH1	1396328	OK	0.7816617	-0.6134597	-0.1125714	0	-99.349	-13.077	7.528	B5-03822-P04-CH0	1396328	OK	0.7825176	-0.2446136	0.5725647	0	-123.371	-22.153	16.648	B5-03822-P04-CH1	1396328	OK	0.7863897	-0.6175458	0.0151131	0	-109.657	-32.332	6.593	NA
0.0899253359880538	B5-03822-P01-CH0	1396336	OK	0.1417145	0.1199744	0.1209982	-0.9751321	151.73	-18.242	-274.03	B5-03822-P02-CH0	1396336	OK	0.6534462	0.2590413	-0.7112704	0	-83.524	-93.96	-0.794	B5-03822-P02-CH1	1396336	OK	0.7214171	0.1328603	-0.6796363	0	-81.229	-77.082	6.384	B5-03822-P03-CH0	1396336	OK	0.7760939	-0.1456578	-0.6135651	0	-96.245	-59.623	10.797	B5-03822-P03-CH1	1396336	OK	0.7812076	-0.6136494	-0.1146697	0	-99.229	-12.936	7.303	B5-03822-P04-CH0	1396336	OK	0.7810353	-0.2309029	0.5802308	0	-123.721	-22.602	15.826	B5-03822-P04-CH1	1396336	OK	0.7863828	-0.6175613	0.0148362	0	-109.744	-32.098	6.309	NA
0.0999170399867264	B5-03822-P01-CH0	1396344	OK	0.1412749	0.1198023	0.1208249	-0.9752385	151.582	-18.246	-274.02	B5-03822-P02-CH0	1396344	OK	0.6642819	0.2510977	-0.7040451	0	-81.659	-96.484	-0.013	B5-03822-P02-CH1	1396344	OK	0.7259821	0.1284396	-0.6756133	0	-79.587	-76.933	1.019	B5-03822-P03-CH0	1396344	OK	0.779111	-0.1610228	-0.6058529	0	-96.502	-60.94	12.189	B5-03822-P03-CH1	1396344	OK	0.7808647	-0.6136521	-0.1169675	0	-99.208	-13.023	7.566	B5-03822-P04-CH0	1396344	OK	0.7802826	-0.2193895	0.5856853	0	-123.403	-21.52	15.304	B5-03822-P04-CH1	1396344	OK	0.7861466	-0.6178584	0.0149878	0	-109.604	-32.078	5.883	NA
0.109908743985399	B5-03822-P01-CH0	1396352	OK	0.1407562	0.1198766	0.120346	-0.9753636	151.567	-18.28	-273.99	B5-03822-P02-CH0	1396352	OK	0.6712895	0.2458592	-0.6992308	0	-80.864	-97.09	-1.319	B5-03822-P02-CH1	1396352	OK	0.7266469	0.1240672	-0.6757156	0	-80.064	-76.926	-0.083	B5-03822-P03-CH0	1396352	OK	0.7814429	-0.1741056	-0.5991946	0	-96.492	-60.844	12.088	B5-03822-P03-CH1	1396352	OK	0.7821671	-0.6091297	-0.1310563	0	-100.257	-12.767	8.321	B5-03822-P04-CH0	1396352	OK	0.7817165	-0.208107	0.5878867	0	-124.122	-20.567	15.861	B5-03822-P04-CH1	1396352	OK	0.7856112	-0.6185268	0.0154781	0	-109.764	-32.406	6.095	NA
0.119900447984072	B5-03822-P01-CH0	1396360	OK	0.1406846	0.1195439	0.1207628	-0.9753633	151.411	-18.218	-274.002	B5-03822-P02-CH0	1396360	OK	0.6775065	0.2399401	-0.6952796	0	-81.135	-97.453	-1.26	B5-03822-P02-CH1	1396360	OK	0.7277951	0.1169859	-0.675743	0	-80.747	-76.705	3.194	B5-03822-P03-CH0	1396360	OK	0.7822241	-0.1878387	-0.5940051	0	-97.197	-60.54	11.933	B5-03822-P03-CH1	1396360	OK	0.7834633	-0.6069163	-0.1335584	0	-98.706	-11.719	6.025	B5-03822-P04-CH0	1396360	OK	0.7817956	-0.199532	0.5907475	0	-123.846	-21.084	15.306	B5-03822-P04-CH1	1396360	OK	0.7860153	-0.618006	0.0157641	0	-109.604	-32.077	5.311	NA
0.129892151982744	B5-03822-P01-CH0	1396368	OK	0.1409743	0.1189797	0.1220295	-0.9752327	151.175	-18.173	-273.894	B5-03822-P02-CH0	1396368	OK	0.6827899	0.2341521	-0.6920771	0	-81.762	-97.218	-1.725	B5-03822-P02-CH1	1396368	OK	0.7330152	0.1190742	-0.669709	0	-79.159	-76.568	2.73	B5-03822-P03-CH0	1396368	OK	0.786282	-0.1972414	-0.5855394	0	-96.019	-60.661	11.094	B5-03822-P03-CH1	1396368	OK	0.7856602	-0.6044803	-0.1316876	0	-99.545	-12.439	8.175	B5-03822-P04-CH0	1396368	OK	0.7840061	-0.1930583	0.5899686	0	-123.476	-21.231	14.612	B5-03822-P04-CH1	1396368	OK	0.7870061	-0.6167192	0.0166976	0	-109.594	-32.022	5.026	NA
0.139883855981417	B5-03822-P01-CH0	1396376	OK	0.1409608	0.1190239	0.1227164	-0.9751431	151.187	-18.154	-273.832	B5-03822-P02-CH0	1396376	OK	0.6891043	0.2341595	-0.6857876	0	-81.217	-96.5	-1.126	B5-03822-P02-CH1	1396376	OK	0.7340987	0.1294291	-0.6665938	0	-79.462	-76.231	1.724	B5-03822-P03-CH0	1396376	OK	0.7876869	-0.2033257	-0.5815566	0	-96.711	-60.625	10.76	B5-03822-P03-CH1	1396376	OK	0.7856923	-0.6048731	-0.1296768	0	-99.565	-13.432	9.172	B5-03822-P04-CH0	1396376	OK	0.7874164	-0.1874917	0.5872157	0	-123.894	-22.376	15.375	B5-03822-P04-CH1	1396376	OK	0.7876108	-0.6159199	0.0176613	0	-109.738	-32.088	5.045	NA
0.14987555998009	B5-03822-P01-CH0	1396384	OK	0.1409873	0.1190554	0.122882	-0.9751146	151.223	-18.249	-273.864	B5-03822-P02-CH0	1396384	OK	0.6923912	0.2341033	-0.6824882	0	-82.463	-95.902	-0.574	B5-03822-P02-CH1	1396384	OK	0.7344245	0.1385477	-0.6643984	0	-80.264	-77.707	1.231	B5-03822-P03-CH0	1396384	OK	0.7892821	-0.2037796	-0.5792302	0	-97.077	-60.358	10.698	B5-03822-P03-CH1	1396384	OK	0.78699	-0.6030725	-0.1301933	0	-99.079	-11.613	6.761	B5-03822-P04-CH0	1396384	OK	0.7886056	-0.1867659	0.5858496	0	-123.378	-22.226	15.261	B5-03822-P04-CH1	1396384	OK	0.7878659	-0.6155635	0.0186804	0	-109.75	-32.198	4.943	NA
0.159867263978762	B5-03822-P01-CH0	1396392	OK	0.1406665	0.1188526	0.1222432	-0.9752659	151.104	-18.391	-273.835	B5-03822-P02-CH0	1396392	OK	0.6964429	0.2359377	-0.6777173	0	-83.282	-95.947	-0.89	B5-03822-P02-CH1	1396392	OK	0.7349748	0.1519858	-0.6608422	0	-80.403	-76.285	2.4	B5-03822-P03-CH0	1396392	OK	0.7904346	-0.1967109	-0.5801016	0	-97.605	-59.751	11.254	B5-03822-P03-CH1	1396392	OK	0.7858793	-0.6050829	-0.1275479	0	-99.232	-12.369	7.046	B5-03822-P04-CH0	1396392	OK	0.7910562	-0.1870496	0.5824453	0	-123.81	-23.956	18.264	B5-03822-P04-CH1	1396392	OK	0.7874786	-0.616031	0.0195798	0	-109.95	-32.374	4.762	NA
0.169858967977435	B5-03822-P01-CH0	1396400	OK	0.1403822	0.1188345	0.1215975	-0.9753898	151.084	-18.452	-273.999	B5-03822-P02-CH0	1396400	OK	0.7015471	0.2366314	-0.6721884	0	-83.058	-95.506	-1.659	B5-03822-P02-CH1	1396400	OK	0.7352214	0.1592172	-0.6588622	0	-80.922	-75.909	3.073	B5-03822-P03-CH0	1396400	OK	0.7892757	-0.184253	-0.5857429	0	-97.198	-59.662	12.331	B5-03822-P03-CH1	1396400	OK	0.7848917	-0.6064899	-0.1269449	0	-100.162	-11.562	7.278	B5-03822-P04-CH0	1396400	OK	0.7916867	-0.1876608	0.581391	0	-123.658	-23.03	16.244	B5-03822-P04-CH1	1396400	OK	0.7872662	-0.6162825	0.0201946	0	-110.125	-32.474	5.205	NA
0.179850671976108	B5-03822-P01-CH0	1396408	OK	0.1404755	0.1184581	0.122671	-0.9752877	150.94	-18.309	-274.007	B5-03822-P02-CH0	1396408	OK	0.7027975	0.2335502	-0.6719599	0	-84.222	-94.339	0.014	B5-03822-P02-CH1	1396408	OK	0.7336053	0.15059	-0.6626809	0	-82.057	-74.946	1.86	B5-03822-P03-CH0	1396408	OK	0.7826503	-0.1673294	-0.5995494	0	-97.01	-57.777	12.089	B5-03822-P03-CH1	1396408	OK	0.7846873	-0.6062469	-0.1293469	0	-99.202	-12.378	7.506	B5-03822-P04-CH0	1396408	OK	0.7921441	-0.189437	0.5801908	0	-123.096	-22.509	14.198	B5-03822-P04-CH1	1396408	OK	0.7880168	-0.6152974	0.0209432	0	-110.243	-32.334	4.972	NA
0.18984237597478	B5-03822-P01-CH0	1396416	OK	0.1407673	0.1179613	0.1239421	-0.9751451	150.713	-18.117	-273.995	B5-03822-P02-CH0	1396416	OK	0.7050514	0.2219077	-0.6735425	0	-83.67	-91.232	-0.684	B5-03822-P02-CH1	1396416	OK	0.7356834	0.1288015	-0.6649662	0	-80.121	-72.652	1.122	B5-03822-P03-CH0	1396416	OK	0.7714839	-0.1458439	-0.6193078	0	-95.586	-53.071	9.789	B5-03822-P03-CH1	1396416	OK	0.784959	-0.6060644	-0.1285511	0	-99.51	-12.537	7.874	B5-03822-P04-CH0	1396416	OK	0.7937669	-0.1886731	0.5782184	0	-122.403	-22.121	15.418	B5-03822-P04-CH1	1396416	OK	0.7886307	-0.6144491	0.0226701	0	-110.413	-32.622	5.137	NA
0.199834079973453	B5-03822-P01-CH0	1396424	OK	0.14075	0.1182518	0.124287	-0.9750686	150.792	-18.101	-273.917	B5-03822-P02-CH0	1396424	OK	0.7069616	0.2017639	-0.6778618	0	-83.882	-89.868	-0.528	B5-03822-P02-CH1	1396424	OK	0.735062	0.0995971	-0.6706446	0	-79.974	-68.86	1.203	B5-03822-P03-CH0	1396424	OK	0.7567956	-0.1132572	-0.6437649	0	-95.861	-50.763	10.275	B5-03822-P03-CH1	1396424	OK	0.7800727	-0.613266	-0.124062	0	-98.751	-13.884	6.955	B5-03822-P04-CH0	1396424	OK	0.7946185	-0.1874468	0.5774471	0	-121.909	-21.528	15.355	B5-03822-P04-CH1	1396424	OK	0.7889908	-0.6139578	0.0234366	0	-110.752	-32.767	5.813	NA
0.209825783972125	B5-03822-P01-CH0	1396432	OK	0.140706	0.1180232	0.1245588	-0.9750679	150.63	-18.114	-273.963	B5-03822-P02-CH0	1396432	OK	0.7101576	0.1718694	-0.6827423	0	-83.595	-87.721	-0.537	B5-03822-P02-CH1	1396432	OK	0.7342648	0.0661575	-0.6756318	0	-82.131	-65.669	0.799	B5-03822-P03-CH0	1396432	OK	0.7440794	-0.0761223	-0.6637403	0	-98.344	-48.225	11.429	B5-03822-P03-CH1	1396432	OK	0.7843777	-0.6074673	-0.1254398	0	-98.305	-11.819	5.274	B5-03822-P04-CH0	1396432	OK	0.795958	-0.1861393	0.5760234	0	-122.126	-22.871	16.392	B5-03822-P04-CH1	1396432	OK	0.7892057	-0.613672	0.0236868	0	-110.582	-32.669	5.663	NA
0.219817487970798	B5-03822-P01-CH0	1396440	OK	0.1402623	0.1184576	0.1239879	-0.9751519	150.756	-18.211	-273.93	B5-03822-P02-CH0	1396440	OK	0.7130512	0.1439179	-0.686182	0	-84.459	-86.331	0.337	B5-03822-P02-CH1	1396440	OK	0.7416413	0.0402286	-0.6695893	0	-82.816	-64.851	2.802	B5-03822-P03-CH0	1396440	OK	0.728971	-0.0234571	-0.6841425	0	-97.693	-44.364	7.907	B5-03822-P03-CH1	1396440	OK	0.7858235	-0.6050199	-0.1281889	0	-98.145	-11.134	5.074	B5-03822-P04-CH0	1396440	OK	0.796537	-0.1889984	0.5742896	0	-121.959	-23.306	15.487	B5-03822-P04-CH1	1396440	OK	0.7885798	-0.6144574	0.0241651	0	-110.873	-33.117	6.201	NA
0.229809191969471	B5-03822-P01-CH0	1396448	OK	0.1393568	0.1189611	0.1222817	-0.9754359	150.768	-18.354	-273.788	B5-03822-P02-CH0	1396448	OK	0.7145822	0.1239625	-0.6884807	0	-85.617	-85.602	0.472	B5-03822-P02-CH1	1396448	OK	0.7482752	0.0273572	-0.6628241	0	-85.099	-63.558	1.617	B5-03822-P03-CH0	1396448	OK	0.7066141	0.0397298	-0.7064829	0	-97.775	-42.616	10.232	B5-03822-P03-CH1	1396448	OK	0.7832362	-0.6083266	-0.1283736	0	-99.422	-12.386	7.101	B5-03822-P04-CH0	1396448	OK	0.7979453	-0.1935627	0.5708036	0	-122.275	-22.661	15.597	B5-03822-P04-CH1	1396448	OK	0.787448	-0.6159228	0.0237646	0	-110.92	-33.058	6.336	NA
0.239800895968143	B5-03822-P01-CH0	1396456	OK	0.138943	0.1190237	0.1218562	-0.9755405	150.701	-18.398	-273.755	B5-03822-P02-CH0	1396456	OK	0.7139284	0.1142079	-0.6908421	0	-86.25	-84.999	1.258	B5-03822-P02-CH1	1396456	OK	0.7542702	0.0175667	-0.6563291	0	-87.758	-64.017	4.136	B5-03822-P03-CH0	1396456	OK	0.699535	0.0775083	-0.7103825	0	-96.382	-41.621	11.977	B5-03822-P03-CH1	1396456	OK	0.7828726	-0.6087359	-0.1286511	0	-99.235	-12.203	6.525	B5-03822-P04-CH0	1396456	OK	0.7991382	-0.198028	0.5675941	0	-123.45	-23.617	15.938	B5-03822-P04-CH1	1396456	OK	0.7871775	-0.6162735	0.0236349	0	-111.042	-33.105	6.766	NA
0.249792599966816	B5-03822-P01-CH0	1396464	OK	0.1390254	0.1188889	0.1223475	-0.9754837	150.553	-18.338	-273.677	B5-03822-P02-CH0	1396464	OK	0.7141618	0.1135285	-0.6907129	0	-85.04	-83.847	0.011	B5-03822-P02-CH1	1396464	OK	0.7589926	0.0171572	-0.6508732	0	-89.165	-63.525	4.702	B5-03822-P03-CH0	1396464	OK	0.7020094	0.0950311	-0.7057988	0	-97.058	-41.772	8.624	B5-03822-P03-CH1	1396464	OK	0.782999	-0.6086955	-0.128072	0	-99.219	-12.33	6.534	B5-03822-P04-CH0	1396464	OK	0.7986811	-0.2033464	0.5663557	0	-123.085	-22.573	14.63	B5-03822-P04-CH1	1396464	OK	0.7875104	-0.6158561	0.023424	0	-111.169	-33.002	6.886	NA
0.259784303965489	B5-03822-P01-CH0	1396472	OK	0.1390598	0.119083	0.1227582	-0.9754035	150.554	-18.29	-273.567	B5-03822-P02-CH0	1396472	OK	0.713579	0.1144126	-0.6911691	0	-84.221	-84.022	-0.453	B5-03822-P02-CH1	1396472	OK	0.7626957	0.0217953	-0.6463902	0	-89.264	-62.876	3.668	B5-03822-P03-CH0	1396472	OK	0.7037887	0.1049913	-0.7026082	0	-97.566	-40.848	8.23	B5-03822-P03-CH1	1396472	OK	0.7841244	-0.607675	-0.1260162	0	-98.394	-14.408	7.632	B5-03822-P04-CH0	1396472	OK	0.7987429	-0.2054161	0.5655211	0	-123.286	-23.053	14.459	B5-03822-P04-CH1	1396472	OK	0.787595	-0.6157428	0.0235551	0	-111.327	-33.122	7.193	NA
0.269776007964161	B5-03822-P01-CH0	1396480	OK	0.1392615	0.1189029	0.1237367	-0.9752731	150.437	-18.155	-273.475	B5-03822-P02-CH0	1396480	OK	0.7101052	0.1144697	-0.6947282	0	-84.796	-83.921	-0.649	B5-03822-P02-CH1	1396480	OK	0.7669535	0.0296627	-0.6410167	0	-87.513	-61.789	2.417	B5-03822-P03-CH0	1396480	OK	0.7029625	0.1068017	-0.7031622	0	-98.526	-41.913	9.003	B5-03822-P03-CH1	1396480	OK	0.7845021	-0.6076061	-0.1239807	0	-98.476	-14.763	7.363	B5-03822-P04-CH0	1396480	OK	0.7992343	-0.2073093	0.5641342	0	-123.297	-22.906	15.009	B5-03822-P04-CH1	1396480	OK	0.7879857	-0.6152498	0.0233701	0	-111.056	-32.768	6.317	NA
0.279767711962834	B5-03822-P01-CH0	1396488	OK	0.1390907	0.1191937	0.1228093	-0.9753792	150.492	-18.309	-273.453	B5-03822-P02-CH0	1396488	OK	0.7058751	0.1151149	-0.6989198	0	-85.753	-83.99	-0.609	B5-03822-P02-CH1	1396488	OK	0.7649773	0.0334951	-0.6431857	0	-88.565	-62.425	3.713	B5-03822-P03-CH0	1396488	OK	0.7016235	0.1012915	-0.7053117	0	-98.331	-42.075	8.492	B5-03822-P03-CH1	1396488	OK	0.7834485	-0.6092972	-0.1223329	0	-99.819	-15.498	9.097	B5-03822-P04-CH0	1396488	OK	0.7987608	-0.2112943	0.5633258	0	-123.072	-22.607	14.414	B5-03822-P04-CH1	1396488	OK	0.787125	-0.6163617	0.0230738	0	-110.935	-32.841	6.148	NA
0.289759415961507	B5-03822-P01-CH0	1396496	OK	0.1383615	0.1198239	0.1213144	-0.9755927	150.641	-18.459	-273.307	B5-03822-P02-CH0	1396496	OK	0.7005822	0.1197425	-0.7034532	0	-86.779	-84.291	0.108	B5-03822-P02-CH1	1396496	OK	0.7600598	0.0440498	-0.6483584	0	-89.454	-63.781	5.721	B5-03822-P03-CH0	1396496	OK	0.7002169	0.0919233	-0.7079876	0	-97.675	-42.147	9.361	B5-03822-P03-CH1	1396496	OK	0.7830614	-0.6087272	-0.1275382	0	-98.701	-12.895	6.181	B5-03822-P04-CH0	1396496	OK	0.7987736	-0.2145593	0.562072	0	-122.558	-22.16	16.535	B5-03822-P04-CH1	1396496	OK	0.7864075	-0.6173352	0.0214597	0	-111.14	-32.476	6.448	NA
0.299751119960179	B5-03822-P01-CH0	1396504	OK	0.1382897	0.1197375	0.1207748	-0.9756804	150.603	-18.463	-273.315	B5-03822-P02-CH0	1396504	OK	0.6987511	0.1260713	-0.7041683	0	-85.91	-84.665	-0.838	B5-03822-P02-CH1	1396504	OK	0.7587781	0.0554656	-0.6489834	0	-88.69	-64.069	5.04	B5-03822-P03-CH0	1396504	OK	0.7030662	0.079044	-0.7067178	0	-96.866	-43.032	8.546	B5-03822-P03-CH1	1396504	OK	0.7826573	-0.6094097	-0.1267572	0	-98.894	-13.46	6.912	B5-03822-P04-CH0	1396504	OK	0.7993068	-0.2155764	0.5609238	0	-124.054	-23.068	15.968	B5-03822-P04-CH1	1396504	OK	0.7859113	-0.6179615	0.0216102	0	-111.386	-32.654	6.768	NA
0.309742823958852	B5-03822-P01-CH0	1396512	OK	0.1383774	0.1195955	0.1209313	-0.9756661	150.554	-18.417	-273.251	B5-03822-P02-CH0	1396512	OK	0.6941881	0.1324481	-0.707503	0	-86.527	-84.868	0.077	B5-03822-P02-CH1	1396512	OK	0.7578669	0.0693525	-0.6487126	0	-88.747	-64.872	7.314	B5-03822-P03-CH0	1396512	OK	0.7048555	0.07557	-0.7053141	0	-96.583	-42.63	8.056	B5-03822-P03-CH1	1396512	OK	0.7826334	-0.6096156	-0.1259118	0	-99.061	-13.572	7.17	B5-03822-P04-CH0	1396512	OK	0.7989287	-0.2190759	0.5601059	0	-123.469	-22.979	16.504	B5-03822-P04-CH1	1396512	OK	0.7856694	-0.6182601	0.0218642	0	-111.464	-32.723	6.392	NA
0.319734527957524	B5-03822-P01-CH0	1396520	OK	0.1386527	0.1194076	0.1213795	-0.9755943	150.493	-18.323	-273.251	B5-03822-P02-CH0	1396520	OK	0.6900511	0.1351906	-0.7110225	0	-86.706	-85.096	0.927	B5-03822-P02-CH1	1396520	OK	0.7556491	0.0817954	-0.6498492	0	-90.76	-65.456	4.508	B5-03822-P03-CH0	1396520	OK	0.7049736	0.0844607	-0.7041864	0	-96.826	-43.806	9.255	B5-03822-P03-CH1	1396520	OK	0.7827424	-0.6097465	-0.1245937	0	-98.988	-13.74	7.413	B5-03822-P04-CH0	1396520	OK	0.7989481	-0.2226719	0.5586583	0	-123.147	-22.622	16.803	B5-03822-P04-CH1	1396520	OK	0.7862533	-0.6175372	0.0212963	0	-111.286	-32.292	6.462	NA
0.329726231956197	B5-03822-P01-CH0	1396528	OK	0.1397051	0.1191373	0.1231787	-0.9752516	150.543	-18.196	-273.379	B5-03822-P02-CH0	1396528	OK	0.6878375	0.1313954	-0.7138731	0	-86.817	-85.842	-0.736	B5-03822-P02-CH1	1396528	OK	0.7570052	0.0898268	-0.647205	0	-91.247	-66.027	5.341	B5-03822-P03-CH0	1396528	OK	0.7025687	0.107518	-0.7034466	0	-96.67	-44.238	7.281	B5-03822-P03-CH1	1396528	OK	0.7839709	-0.6085866	-0.1225236	0	-98.879	-13.809	7.653	B5-03822-P04-CH0	1396528	OK	0.8004729	-0.2242525	0.5558362	0	-124.516	-22.823	16.118	B5-03822-P04-CH1	1396528	OK	0.7875299	-0.6158995	0.0215507	0	-111.23	-32.198	6.394	NA
0.33971793595487	B5-03822-P01-CH0	1396536	OK	0.1397906	0.119406	0.1226696	-0.9752707	150.663	-18.208	-273.295	B5-03822-P02-CH0	1396536	OK	0.6869426	0.1275079	-0.715438	0	-87.246	-86.254	-1.294	B5-03822-P02-CH1	1396536	OK	0.7607346	0.0925782	-0.6424267	0	-90.537	-66.434	5.959	B5-03822-P03-CH0	1396536	OK	0.6990847	0.1335775	-0.7024511	0	-96.548	-45.484	7.425	B5-03822-P03-CH1	1396536	OK	0.7831941	-0.6098126	-0.1213903	0	-99.095	-14.222	8.397	B5-03822-P04-CH0	1396536	OK	0.7997832	-0.228355	0.5551584	0	-123.888	-22.923	17.033	B5-03822-P04-CH1	1396536	OK	0.7870806	-0.6164726	0.0215808	0	-111.481	-32.447	6.723	NA
0.349709639953542	B5-03822-P01-CH0	1396544	OK	0.139851	0.1195927	0.1221277	-0.9753072	150.727	-18.182	-273.084	B5-03822-P02-CH0	1396544	OK	0.689511	0.123677	-0.7136375	0	-86.515	-86.769	-1.602	B5-03822-P02-CH1	1396544	OK	0.7640662	0.0981335	-0.6376305	0	-89.796	-66.546	4.188	B5-03822-P03-CH0	1396544	OK	0.6945814	0.1598848	-0.7014225	0	-97.15	-45.689	8.67	B5-03822-P03-CH1	1396544	OK	0.7825001	-0.6108686	-0.1205534	0	-99.063	-14.207	8.326	B5-03822-P04-CH0	1396544	OK	0.8000688	-0.231337	0.5535098	0	-125.4	-23.978	15.56	B5-03822-P04-CH1	1396544	OK	0.7868899	-0.6167157	0.0215894	0	-111.417	-32.39	6.974	NA
0.359701343952215	B5-03822-P01-CH0	1396552	OK	0.1397605	0.1195659	0.1216793	-0.9753795	150.768	-18.22	-273.083	B5-03822-P02-CH0	1396552	OK	0.6916884	0.1215187	-0.7118992	0	-86.503	-86.808	-0.874	B5-03822-P02-CH1	1396552	OK	0.7668252	0.1012769	-0.6338155	0	-89.913	-66.662	3.566	B5-03822-P03-CH0	1396552	OK	0.6941935	0.1841941	-0.6958217	0	-94.972	-44.218	9.507	B5-03822-P03-CH1	1396552	OK	0.7819321	-0.6117297	-0.1198705	0	-99.137	-14.201	8.384	B5-03822-P04-CH0	1396552	OK	0.7979153	-0.2352435	0.5549699	0	-124.102	-23.432	15.263	B5-03822-P04-CH1	1396552	OK	0.7866265	-0.6170731	0.0209675	0	-111.132	-32.267	6.729	NA
0.369693047950888	B5-03822-P01-CH0	1396560	OK	0.1398563	0.1197255	0.1213132	-0.9753918	150.878	-18.3	-273.055	B5-03822-P02-CH0	1396560	OK	0.6932761	0.1174452	-0.7110379	0	-87.864	-87.485	0.318	B5-03822-P02-CH1	1396560	OK	0.7673139	0.0986822	-0.6336333	0	-92.102	-67.832	6.026	B5-03822-P03-CH0	1396560	OK	0.6927663	0.1993684	-0.6930564	0	-95.863	-46.934	9.44	B5-03822-P03-CH1	1396560	OK	0.7816967	-0.6121112	-0.1194576	0	-99.005	-14.019	8.099	B5-03822-P04-CH0	1396560	OK	0.797067	-0.2385636	0.5547717	0	-123.812	-22.347	13.944	B5-03822-P04-CH1	1396560	OK	0.7864195	-0.6173415	0.0208283	0	-111.17	-32.421	6.851	NA
0.37968475194956	B5-03822-P01-CH0	1396568	OK	0.1396101	0.1198469	0.1208521	-0.9754694	150.892	-18.24	-272.953	B5-03822-P02-CH0	1396568	OK	0.6961647	0.1170383	-0.7082773	0	-88.736	-87.005	-0.379	B5-03822-P02-CH1	1396568	OK	0.7706266	0.0991348	-0.6295292	0	-92.256	-67.111	8.734	B5-03822-P03-CH0	1396568	OK	0.6920439	0.2142803	-0.6893179	0	-97.442	-47.967	8.919	B5-03822-P03-CH1	1396568	OK	0.7813054	-0.6126339	-0.1193383	0	-99.016	-13.773	8.235	B5-03822-P04-CH0	1396568	OK	0.7968561	-0.2421916	0.5535012	0	-123.976	-22.333	14.054	B5-03822-P04-CH1	1396568	OK	0.7861185	-0.6177488	0.0201058	0	-111.001	-32.186	6.561	NA
0.389676455948233	B5-03822-P01-CH0	1396576	OK	0.139586	0.1199201	0.1199312	-0.9755775	150.929	-18.369	-272.915	B5-03822-P02-CH0	1396576	OK	0.6986926	0.1185337	-0.7055342	0	-89.078	-87.079	0.385	B5-03822-P02-CH1	1396576	OK	0.7745327	0.0969101	-0.625066	0	-92.466	-67.767	6.573	B5-03822-P03-CH0	1396576	OK	0.69175	0.2256292	-0.6859835	0	-99.503	-48.014	7.226	B5-03822-P03-CH1	1396576	OK	0.7804826	-0.6137947	-0.1187557	0	-99.091	-13.909	8.152	B5-03822-P04-CH0	1396576	OK	0.7976905	-0.2450556	0.5510333	0	-124.78	-23.368	15.44	B5-03822-P04-CH1	1396576	OK	0.7856383	-0.6183628	0.0199972	0	-110.841	-32.194	6.354	NA
0.399668159946906	B5-03822-P01-CH0	1396584	OK	0.1395613	0.1200995	0.1192291	-0.975645	150.999	-18.475	-272.852	B5-03822-P02-CH0	1396584	OK	0.7016047	0.1204542	-0.7023117	0	-89.181	-87.181	0.262	B5-03822-P02-CH1	1396584	OK	0.7740047	0.0884272	-0.6269748	0	-94.649	-68.747	8.476	B5-03822-P03-CH0	1396584	OK	0.6969702	0.2341505	-0.677795	0	-97.123	-45.459	8.064	B5-03822-P03-CH1	1396584	OK	0.7797531	-0.614842	-0.1181287	0	-99.165	-14.071	8.215	B5-03822-P04-CH0	1396584	OK	0.7963473	-0.2500559	0.5507295	0	-123.775	-22.88	14.996	B5-03822-P04-CH1	1396584	OK	0.7853304	-0.6187632	0.0197047	0	-110.654	-32.136	6.209	NA
0.409659863945578	B5-03822-P01-CH0	1396592	OK	0.1398773	0.1205332	0.119425	-0.9755223	151.156	-18.418	-272.779	B5-03822-P02-CH0	1396592	OK	0.7027926	0.1187967	-0.7014056	0	-90.072	-87.483	1.216	B5-03822-P02-CH1	1396592	OK	0.7781531	0.0827378	-0.6226012	0	-93.622	-68.611	7.3	B5-03822-P03-CH0	1396592	OK	0.7011942	0.2312244	-0.6744345	0	-97	-45.762	10.215	B5-03822-P03-CH1	1396592	OK	0.7794239	-0.6154349	-0.1172106	0	-99.323	-14.366	8.428	B5-03822-P04-CH0	1396592	OK	0.7960977	-0.2529187	0.5497823	0	-123.486	-22.738	14.789	B5-03822-P04-CH1	1396592	OK	0.7858	-0.6181755	0.0194272	0	-110.88	-32.029	6.702	NA
0.419651567944251	B5-03822-P01-CH0	1396600	OK	0.1394313	0.1208557	0.1184374	-0.9756666	151.206	-18.419	-272.584	B5-03822-P02-CH0	1396600	OK	0.7056302	0.1161506	-0.6989957	0	-90.072	-88.413	-0.063	B5-03822-P02-CH1	1396600	OK	0.7782877	0.0768652	-0.6231853	0	-94.582	-68.835	7.982	B5-03822-P03-CH0	1396600	OK	0.7073455	0.2171168	-0.672698	0	-98.471	-46.675	11.375	B5-03822-P03-CH1	1396600	OK	0.7785009	-0.6166019	-0.1172107	0	-99.497	-14.304	8.297	B5-03822-P04-CH0	1396600	OK	0.7975203	-0.2554744	0.5465292	0	-125.15	-23.298	14.861	B5-03822-P04-CH1	1396600	OK	0.7852254	-0.6189228	0.0188591	0	-111.061	-31.822	6.46	NA
0.429643271942924	B5-03822-P01-CH0	1396608	OK	0.1391064	0.1209624	0.1182069	-0.9757277	151.13	-18.271	-272.42	B5-03822-P02-CH0	1396608	OK	0.706238	0.108505	-0.6996103	0	-90.132	-89.514	0.474	B5-03822-P02-CH1	1396608	OK	0.7801813	0.0690911	-0.6217263	0	-93.918	-69.22	8.734	B5-03822-P03-CH0	1396608	OK	0.7167355	0.1873764	-0.6716995	0	-99.741	-48.275	9.65	B5-03822-P03-CH1	1396608	OK	0.7781646	-0.6170718	-0.1169712	0	-99.453	-13.969	7.979	B5-03822-P04-CH0	1396608	OK	0.797442	-0.2580919	0.5454126	0	-125.147	-24.097	15.493	B5-03822-P04-CH1	1396608	OK	0.7848595	-0.6193711	0.0193645	0	-111.351	-31.945	6.638	NA
0.439634975941596	B5-03822-P01-CH0	1396616	OK	0.1390404	0.1208722	0.1182362	-0.9757448	151.041	-18.292	-272.365	B5-03822-P02-CH0	1396616	OK	0.7058783	0.0962813	-0.701759	0	-88.694	-89.01	-0.021	B5-03822-P02-CH1	1396616	OK	0.7783824	0.0560475	-0.6252836	0	-95.1	-69.88	7.482	B5-03822-P03-CH0	1396616	OK	0.7239284	0.1550696	-0.672221	0	-101	-49.895	9.175	B5-03822-P03-CH1	1396616	OK	0.7781187	-0.6172323	-0.1164287	0	-99.31	-13.805	7.449	B5-03822-P04-CH0	1396616	OK	0.7967536	-0.2601672	0.5454326	0	-124.005	-23.275	15.35	B5-03822-P04-CH1	1396616	OK	0.7848518	-0.6193869	0.0191703	0	-111.01	-31.628	5.791	NA
0.449626679940269	B5-03822-P01-CH0	1396624	OK	0.1386937	0.1210346	0.1180046	-0.975802	151.088	-18.264	-272.476	B5-03822-P02-CH0	1396624	OK	0.704437	0.0798321	-0.7052626	0	-87.769	-88.947	1.422	B5-03822-P02-CH1	1396624	OK	0.7773675	0.0468881	-0.6272968	0	-95.29	-70.438	7.394	B5-03822-P03-CH0	1396624	OK	0.7299073	0.1282989	-0.6713975	0	-101.396	-48.937	8.371	B5-03822-P03-CH1	1396624	OK	0.7777952	-0.6177209	-0.1159979	0	-99.501	-13.808	7.576	B5-03822-P04-CH0	1396624	OK	0.7985776	-0.2578875	0.5438454	0	-126.023	-23.788	16.009	B5-03822-P04-CH1	1396624	OK	0.784669	-0.6196141	0.0193129	0	-111.204	-31.491	5.44	NA
0.459618383938941	B5-03822-P01-CH0	1396632	OK	0.1387345	0.1211822	0.1176468	-0.9758211	151.068	-18.244	-272.39	B5-03822-P02-CH0	1396632	OK	0.7022113	0.0713394	-0.7083855	0	-89.177	-90.658	0.847	B5-03822-P02-CH1	1396632	OK	0.7785746	0.0388721	-0.626347	0	-94.177	-70.325	9.168	B5-03822-P03-CH0	1396632	OK	0.7327447	0.1082267	-0.6718424	0	-102.557	-50.788	10.315	B5-03822-P03-CH1	1396632	OK	0.7773792	-0.6184133	-0.1150942	0	-99.478	-13.845	7.457	B5-03822-P04-CH0	1396632	OK	0.7984805	-0.2581737	0.5438523	0	-126.422	-23.647	15.265	B5-03822-P04-CH1	1396632	OK	0.7847298	-0.6194965	0.0205745	0	-111.79	-31.661	6.099	NA
0.469610087937614	B5-03822-P01-CH0	1396640	OK	0.138631	0.1212075	0.1176673	-0.9758302	151.047	-18.207	-272.398	B5-03822-P02-CH0	1396640	OK	0.7059877	0.0677144	-0.7049795	0	-88.182	-91.251	0.256	B5-03822-P02-CH1	1396640	OK	0.7795092	0.0274799	-0.6257877	0	-94.79	-72.218	7.997	B5-03822-P03-CH0	1396640	OK	0.7333797	0.095663	-0.6730548	0	-102.741	-51.27	9.613	B5-03822-P03-CH1	1396640	OK	0.7773084	-0.6186031	-0.1145507	0	-99.455	-13.663	7.518	B5-03822-P04-CH0	1396640	OK	0.7967296	-0.2567477	0.5470855	0	-124.478	-22.204	14.342	B5-03822-P04-CH1	1396640	OK	0.7849878	-0.6191359	0.0215619	0	-111.928	-31.674	6.54	NA
0.479601791936287	B5-03822-P01-CH0	1396648	OK	0.1391922	0.1210946	0.1183228	-0.9756851	150.989	-18.152	-272.355	B5-03822-P02-CH0	1396648	OK	0.7080028	0.0664314	-0.7030781	0	-88.963	-91.514	1.438	B5-03822-P02-CH1	1396648	OK	0.7818254	0.0240552	-0.6230332	0	-94.202	-71.833	6.913	B5-03822-P03-CH0	1396648	OK	0.733514	0.0850411	-0.6743332	0	-102.173	-51.239	11.156	B5-03822-P03-CH1	1396648	OK	0.7772181	-0.619031	-0.1128391	0	-99.375	-13.932	7.196	B5-03822-P04-CH0	1396648	OK	0.7969309	-0.2574381	0.5464676	0	-124.793	-22.443	14.24	B5-03822-P04-CH1	1396648	OK	0.7855294	-0.6183776	0.0235109	0	-112.261	-31.775	6.169	NA
0.489593495934959	B5-03822-P01-CH0	1396656	OK	0.1396447	0.1207512	0.1194136	-0.9755301	150.887	-18.011	-272.432	B5-03822-P02-CH0	1396656	OK	0.7127113	0.066811	-0.6982684	0	-88.547	-91.139	0.011	B5-03822-P02-CH1	1396656	OK	0.7793582	0.0232475	-0.6261472	0	-94.562	-71.319	6.79	B5-03822-P03-CH0	1396656	OK	0.7328423	0.075184	-0.6762319	0	-103.512	-52.042	10.752	B5-03822-P03-CH1	1396656	OK	0.7778439	-0.6184844	-0.1115164	0	-99.148	-13.88	7.15	B5-03822-P04-CH0	1396656	OK	0.7969529	-0.2579327	0.5462022	0	-124.928	-22.63	14.241	B5-03822-P04-CH1	1396656	OK	0.7863749	-0.6172249	0.025454	0	-112.455	-31.931	6.333	NA
0.499585199933632	B5-03822-P01-CH0	1396664	OK	0.1396935	0.1205003	0.1198778	-0.9754972	150.741	-17.952	-272.391	B5-03822-P02-CH0	1396664	OK	0.7158891	0.0680697	-0.694888	0	-88.929	-91.547	-0.841	B5-03822-P02-CH1	1396664	OK	0.7799678	0.0203817	-0.6254876	0	-94.023	-71.255	6.912	B5-03822-P03-CH0	1396664	OK	0.7349453	0.0722269	-0.674269	0	-102.295	-51.821	9.35	B5-03822-P03-CH1	1396664	OK	0.7783462	-0.6179652	-0.1108879	0	-98.827	-13.529	6.605	B5-03822-P04-CH0	1396664	OK	0.7968987	-0.259054	0.5457504	0	-125.105	-22.668	13.953	B5-03822-P04-CH1	1396664	OK	0.7869823	-0.6163994	0.0266579	0	-112.643	-31.83	6.347	NA
0.509576903932305	B5-03822-P01-CH0	1396672	OK	0.139913	0.1201469	0.1203944	-0.9754457	150.655	-17.864	-272.485	B5-03822-P02-CH0	1396672	OK	0.7197535	0.0698159	-0.6907103	0	-87.836	-91.401	-1.274	B5-03822-P02-CH1	1396672	OK	0.7813023	0.0209873	-0.6237998	0	-93.684	-71.68	5.338	B5-03822-P03-CH0	1396672	OK	0.7311407	0.0805373	-0.6774562	0	-102.002	-51.516	8.746	B5-03822-P03-CH1	1396672	OK	0.7789443	-0.6174423	-0.1095943	0	-98.754	-13.423	6.675	B5-03822-P04-CH0	1396672	OK	0.7970885	-0.2594893	0.5452661	0	-125.485	-23.035	14.179	B5-03822-P04-CH1	1396672	OK	0.787163	-0.6160755	0.0287298	0	-112.811	-32.226	6.34	NA
0.519568607930977	B5-03822-P01-CH0	1396680	OK	0.1401918	0.1202527	0.1203023	-0.975404	150.641	-17.887	-272.396	B5-03822-P02-CH0	1396680	OK	0.720358	0.0717644	-0.6898799	0	-88.37	-91.384	-0.158	B5-03822-P02-CH1	1396680	OK	0.7793882	0.0267585	-0.6259697	0	-93.958	-70.901	4.796	B5-03822-P03-CH0	1396680	OK	0.7231331	0.1046272	-0.6827384	0	-101.711	-50.886	8.219	B5-03822-P03-CH1	1396680	OK	0.7793085	-0.6171608	-0.1085858	0	-98.61	-13.123	6.249	B5-03822-P04-CH0	1396680	OK	0.7971381	-0.2603399	0.544788	0	-125.67	-23.189	14.103	B5-03822-P04-CH1	1396680	OK	0.7871126	-0.6160407	0.0307831	0	-113.07	-32.801	6.844	NA
0.52956031192965	B5-03822-P01-CH0	1396688	OK	0.1404675	0.1204238	0.1201813	-0.9753581	150.829	-18.002	-272.504	B5-03822-P02-CH0	1396688	OK	0.7204259	0.0789887	-0.6890191	0	-88.418	-90	0.027	B5-03822-P02-CH1	1396688	OK	0.7778618	0.0289945	-0.6277661	0	-93.771	-71.389	8.465	B5-03822-P03-CH0	1396688	OK	0.715402	0.1393668	-0.6846728	0	-99.93	-50.285	8.919	B5-03822-P03-CH1	1396688	OK	0.7795173	-0.6170752	-0.1075683	0	-98.769	-13.179	6.21	B5-03822-P04-CH0	1396688	OK	0.7972895	-0.2611548	0.5441761	0	-126.031	-23.429	14.278	B5-03822-P04-CH1	1396688	OK	0.7869802	-0.6161425	0.0321026	0	-113.313	-33.381	7.117	NA
0.539552015928323	B5-03822-P01-CH0	1396696	OK	0.1409792	0.1205418	0.1207228	-0.9752028	150.909	-17.848	-272.47	B5-03822-P02-CH0	1396696	OK	0.7197747	0.0921465	-0.6880649	0	-88.564	-90.239	-0.099	B5-03822-P02-CH1	1396696	OK	0.7731131	0.0360566	-0.6332425	0	-94.529	-71.215	7.537	B5-03822-P03-CH0	1396696	OK	0.7084948	0.1731826	-0.6841366	0	-98.794	-49.419	8.587	B5-03822-P03-CH1	1396696	OK	0.780075	-0.6165918	-0.1062897	0	-98.88	-13.139	6.489	B5-03822-P04-CH0	1396696	OK	0.7974586	-0.2622936	0.54338	0	-126.133	-23.348	14.326	B5-03822-P04-CH1	1396696	OK	0.7875833	-0.6153066	0.0333225	0	-113.638	-33.534	7.505	NA
0.549543719926995	B5-03822-P01-CH0	1396704	OK	0.1413103	0.120306	0.1211696	-0.9751286	150.846	-17.831	-272.514	B5-03822-P02-CH0	1396704	OK	0.7184621	0.1098147	-0.6868427	0	-88.615	-89.216	1.372	B5-03822-P02-CH1	1396704	OK	0.7705017	0.0504901	-0.6354351	0	-93.264	-69.452	3.667	B5-03822-P03-CH0	1396704	OK	0.7041164	0.2081691	-0.6788857	0	-97.878	-49.451	9.027	B5-03822-P03-CH1	1396704	OK	0.7803029	-0.6164834	-0.1052405	0	-98.689	-13.322	6.415	B5-03822-P04-CH0	1396704	OK	0.7973069	-0.2642516	0.5426535	0	-125.923	-23.227	14.212	B5-03822-P04-CH1	1396704	OK	0.7879604	-0.6147932	0.0338795	0	-113.577	-33.694	7.688	NA
0.559535423925668	B5-03822-P01-CH0	1396712	OK	0.1413725	0.120339	0.1213005	-0.9750992	150.863	-17.675	-272.536	B5-03822-P02-CH0	1396712	OK	0.7163453	0.1277332	-0.6859546	0	-89.312	-88.893	1.179	B5-03822-P02-CH1	1396712	OK	0.7677878	0.063349	-0.6375648	0	-91.756	-68.265	7.108	B5-03822-P03-CH0	1396712	OK	0.698437	0.2385931	-0.6747289	0	-98.535	-49.788	8.809	B5-03822-P03-CH1	1396712	OK	0.780508	-0.6163208	-0.1046705	0	-98.776	-13.136	6.445	B5-03822-P04-CH0	1396712	OK	0.7978693	-0.2783416	0.5347246	0	-125.654	-23.969	15.092	B5-03822-P04-CH1	1396712	OK	0.7879848	-0.6147707	0.0337189	0	-113.526	-33.592	7.645	NA
0.56952712792434	B5-03822-P01-CH0	1396720	OK	0.1414067	0.1202687	0.120692	-0.9751785	150.812	-17.659	-272.459	B5-03822-P02-CH0	1396720	OK	0.7162307	0.1467254	-0.6822648	0	-88.599	-88.895	0.534	B5-03822-P02-CH1	1396720	OK	0.7624847	0.0749499	-0.6426504	0	-92.452	-68.014	7.224	B5-03822-P03-CH0	1396720	OK	0.7018942	0.2397941	-0.6707036	0	-95.553	-47.068	9.693	B5-03822-P03-CH1	1396720	OK	0.7798603	-0.6172958	-0.1037487	0	-98.818	-13.611	6.667	B5-03822-P04-CH0	1396720	OK	0.7977649	-0.2820651	0.5329263	0	-125.457	-23.438	14.511	B5-03822-P04-CH1	1396720	OK	0.7877373	-0.6151224	0.0330826	0	-113.4	-33.363	7.474	NA
0.579518831923013	B5-03822-P01-CH0	1396728	OK	0.1411984	0.120372	0.1202424	-0.9752514	150.857	-17.684	-272.379	B5-03822-P02-CH0	1396728	OK	0.7146005	0.1675885	-0.6791614	0	-88.221	-87.71	0.646	B5-03822-P02-CH1	1396728	OK	0.7601095	0.0855393	-0.6441402	0	-91.405	-66.836	3.818	B5-03822-P03-CH0	1396728	OK	0.7064284	0.2161934	-0.6739579	0	-96.783	-47.245	6.835	B5-03822-P03-CH1	1396728	OK	0.7797831	-0.6173728	-0.1038709	0	-98.935	-13.45	6.538	B5-03822-P04-CH0	1396728	OK	0.797628	-0.2853516	0.5313794	0	-125.157	-23.237	14.781	B5-03822-P04-CH1	1396728	OK	0.7874462	-0.6155418	0.0321972	0	-113.519	-33.632	8.47	NA
0.589510535921686	B5-03822-P01-CH0	1396736	OK	0.1413664	0.120572	0.1200988	-0.9752201	150.987	-17.67	-272.432	B5-03822-P02-CH0	1396736	OK	0.7106245	0.1874865	-0.678131	0	-88.909	-87.092	1.739	B5-03822-P02-CH1	1396736	OK	0.7570316	0.0880994	-0.6474114	0	-90.857	-67.69	1.518	B5-03822-P03-CH0	1396736	OK	0.711693	0.1881043	-0.6768381	0	-96.701	-47.292	7.925	B5-03822-P03-CH1	1396736	OK	0.779913	-0.6172663	-0.103528	0	-99.027	-13.34	6.394	B5-03822-P04-CH0	1396736	OK	0.7973994	-0.2888411	0.5298348	0	-125.104	-22.516	13.581	B5-03822-P04-CH1	1396736	OK	0.7872981	-0.6157799	0.0312537	0	-113.531	-33.633	8.377	NA
0.599502239920358	B5-03822-P01-CH0	1396744	OK	0.1408611	0.1209407	0.1189558	-0.9753876	151.124	-17.699	-272.412	B5-03822-P02-CH0	1396744	OK	0.7076252	0.2036162	-0.6766143	0	-89.653	-87.318	1.356	B5-03822-P02-CH1	1396744	OK	0.7551679	0.0894266	-0.6494031	0	-89.893	-67.566	4.708	B5-03822-P03-CH0	1396744	OK	0.7184316	0.1529919	-0.6785643	0	-96.775	-45.882	8.731	B5-03822-P03-CH1	1396744	OK	0.7789631	-0.6184054	-0.1038808	0	-99.2	-13.558	6.642	B5-03822-P04-CH0	1396744	OK	0.7965924	-0.2915909	0.5295425	0	-125.029	-22.69	13.948	B5-03822-P04-CH1	1396744	OK	0.7861188	-0.6173606	0.0297181	0	-113.512	-33.73	8.325	NA
0.609493943919031	B5-03822-P01-CH0	1396752	OK	0.1410256	0.1212842	0.1183869	-0.9753904	151.268	-17.726	-272.351	B5-03822-P02-CH0	1396752	OK	0.7059418	0.2177375	-0.6739707	0	-89.172	-87.439	0.811	B5-03822-P02-CH1	1396752	OK	0.7535392	0.091622	-0.650987	0	-89.26	-66.182	3.056	B5-03822-P03-CH0	1396752	OK	0.725325	0.1122734	-0.6791894	0	-97.187	-44.838	9.163	B5-03822-P03-CH1	1396752	OK	0.7784503	-0.6190681	-0.1037775	0	-99.255	-13.752	6.52	B5-03822-P04-CH0	1396752	OK	0.7963615	-0.2926542	0.5293031	0	-124.656	-22.758	15.8	B5-03822-P04-CH1	1396752	OK	0.7856702	-0.6180044	0.0281583	0	-113.231	-33.506	7.873	NA
0.619485647917704	B5-03822-P01-CH0	1396760	OK	0.1410677	0.1209108	0.1184137	-0.9754274	151.246	-17.688	-272.583	B5-03822-P02-CH0	1396760	OK	0.7035768	0.2297312	-0.6724606	0	-88.512	-87.717	1.522	B5-03822-P02-CH1	1396760	OK	0.7545286	0.090141	-0.650047	0	-87.444	-65.741	3.081	B5-03822-P03-CH0	1396760	OK	0.7316625	0.0715053	-0.6779064	0	-97.532	-45.707	10.689	B5-03822-P03-CH1	1396760	OK	0.77808	-0.6196039	-0.1033563	0	-99.328	-14.298	6.985	B5-03822-P04-CH0	1396760	OK	0.7965313	-0.2857094	0.5328301	0	-124.867	-22.215	14.589	B5-03822-P04-CH1	1396760	OK	0.7855908	-0.6181743	0.0266004	0	-112.778	-33.152	7.42	NA
0.629477351916376	B5-03822-P01-CH0	1396768	OK	0.140953	0.120833	0.1183598	-0.9754602	151.171	-17.608	-272.48	B5-03822-P02-CH0	1396768	OK	0.6990252	0.2385464	-0.674136	0	-88.75	-86.503	1.831	B5-03822-P02-CH1	1396768	OK	0.7520116	0.0819596	-0.6540346	0	-88.81	-67.771	3.123	B5-03822-P03-CH0	1396768	OK	0.733138	0.0261774	-0.6795759	0	-97.837	-45.643	8.451	B5-03822-P03-CH1	1396768	OK	0.7777537	-0.6200076	-0.1033915	0	-99.293	-14.562	7.286	B5-03822-P04-CH0	1396768	OK	0.7963854	-0.288349	0.5316249	0	-124.721	-22.004	14.365	B5-03822-P04-CH1	1396768	OK	0.7856548	-0.6181662	0.0248411	0	-112.602	-32.684	7.224	NA
0.639469055915049	B5-03822-P01-CH0	1396776	OK	0.1407204	0.1205294	0.1180492	-0.975569	151.064	-17.649	-272.512	B5-03822-P02-CH0	1396776	OK	0.6962176	0.240697	-0.6762736	0	-89.756	-88.315	2.179	B5-03822-P02-CH1	1396776	OK	0.750006	0.0710803	-0.6576006	0	-90.837	-68.021	6.777	B5-03822-P03-CH0	1396776	OK	0.729174	-0.0123482	-0.6842169	0	-96.395	-44.141	7.62	B5-03822-P03-CH1	1396776	OK	0.7774841	-0.6202874	-0.1037402	0	-99.103	-14.611	7.061	B5-03822-P04-CH0	1396776	OK	0.7962013	-0.2905861	0.5306819	0	-124.628	-22.027	14.331	B5-03822-P04-CH1	1396776	OK	0.7854116	-0.6185305	0.0234233	0	-112.423	-32.615	7.573	NA
0.649460759913722	B5-03822-P01-CH0	1396784	OK	0.1407521	0.120492	0.1178648	-0.9755913	151.049	-17.618	-272.528	B5-03822-P02-CH0	1396784	OK	0.6965048	0.2390716	-0.6765544	0	-88.885	-87.921	1.146	B5-03822-P02-CH1	1396784	OK	0.7541986	0.0648445	-0.6534368	0	-89.303	-67.136	5.435	B5-03822-P03-CH0	1396784	OK	0.7239082	-0.0265371	-0.6893857	0	-96.906	-44.86	8.356	B5-03822-P03-CH1	1396784	OK	0.7772694	-0.6205723	-0.1036455	0	-99.056	-14.774	7.135	B5-03822-P04-CH0	1396784	OK	0.7961598	-0.2921563	0.5298814	0	-124.591	-22.071	14.308	B5-03822-P04-CH1	1396784	OK	0.7850318	-0.6190446	0.0225576	0	-112.24	-32.575	7.274	NA
0.659452463912394	B5-03822-P01-CH0	1396792	OK	0.1413921	0.1202527	0.1191445	-0.9753728	151.028	-17.526	-272.543	B5-03822-P02-CH0	1396792	OK	0.695279	0.2364477	-0.6787338	0	-88.761	-87.878	0.377	B5-03822-P02-CH1	1396792	OK	0.7555143	0.0625926	-0.6521352	0	-88.67	-67.16	6.109	B5-03822-P03-CH0	1396792	OK	0.7220097	-0.0265193	-0.6913745	0	-96.822	-43.803	6.982	B5-03822-P03-CH1	1396792	OK	0.7779139	-0.6199075	-0.1027844	0	-99.056	-15.109	7.329	B5-03822-P04-CH0	1396792	OK	0.7964181	-0.2924755	0.5293168	0	-124.458	-22.121	14.197	B5-03822-P04-CH1	1396792	OK	0.7858258	-0.6180768	0.0214214	0	-111.796	-32.277	6.789	NA
0.669444167911067	B5-03822-P01-CH0	1396800	OK	0.1414411	0.120218	0.119627	-0.9753109	151.043	-17.457	-272.616	B5-03822-P02-CH0	1396800	OK	0.6952946	0.2291707	-0.6812094	0	-87.835	-87.927	0.12	B5-03822-P02-CH1	1396800	OK	0.7579569	0.0620303	-0.6493486	0	-88.564	-66.079	2.239	B5-03822-P03-CH0	1396800	OK	0.7196511	-0.0188929	-0.6940788	0	-96.109	-43.379	6.573	B5-03822-P03-CH1	1396800	OK	0.7784825	-0.6191478	-0.1030579	0	-98.993	-14.796	7.259	B5-03822-P04-CH0	1396800	OK	0.796439	-0.2934679	0.5287358	0	-124.369	-22.12	14.148	B5-03822-P04-CH1	1396800	OK	0.785907	-0.6180067	0.0204428	0	-111.654	-32.33	6.905	NA
0.67943587190974	B5-03822-P01-CH0	1396808	OK	0.1417713	0.1202229	0.1202277	-0.9751885	151.103	-17.346	-272.667	B5-03822-P02-CH0	1396808	OK	0.6948338	0.2160317	-0.6859565	0	-87.323	-87.124	-0.326	B5-03822-P02-CH1	1396808	OK	0.7589667	0.0599653	-0.6483623	0	-89.886	-66.872	4.455	B5-03822-P03-CH0	1396808	OK	0.7125348	-0.0044566	-0.7016226	0	-96.268	-43.564	6.455	B5-03822-P03-CH1	1396808	OK	0.7788272	-0.6187731	-0.102704	0	-98.877	-14.928	7.388	B5-03822-P04-CH0	1396808	OK	0.7966849	-0.2935236	0.5283342	0	-124.391	-22.257	14.426	B5-03822-P04-CH1	1396808	OK	0.7862124	-0.6176372	0.0198588	0	-111.664	-32.362	7.289	NA
0.689427575908412	B5-03822-P01-CH0	1396816	OK	0.1416568	0.1202706	0.1199816	-0.9752296	151.135	-17.329	-272.693	B5-03822-P02-CH0	1396816	OK	0.6951581	0.2000034	-0.6904736	0	-87.42	-87.99	-0.733	B5-03822-P02-CH1	1396816	OK	0.7607428	0.062087	-0.6460771	0	-90.044	-66.619	4.089	B5-03822-P03-CH0	1396816	OK	0.702139	0.0163194	-0.7118529	0	-95.045	-43.525	7.064	B5-03822-P03-CH1	1396816	OK	0.7786348	-0.6189836	-0.1028938	0	-98.902	-14.996	7.533	B5-03822-P04-CH0	1396816	OK	0.796375	-0.2941966	0.5284271	0	-124.247	-22.329	14.474	B5-03822-P04-CH1	1396816	OK	0.7858963	-0.6180817	0.0184948	0	-111.349	-32.237	7.365	NA
0.699419279907085	B5-03822-P01-CH0	1396824	OK	0.1425148	0.1197419	0.1216077	-0.9749682	150.979	-17.174	-272.798	B5-03822-P02-CH0	1396824	OK	0.6959361	0.1804931	-0.6950505	0	-86.748	-88.397	-0.083	B5-03822-P02-CH1	1396824	OK	0.7628728	0.0625491	-0.6435158	0	-89.022	-65.835	3.451	B5-03822-P03-CH0	1396824	OK	0.6901449	0.033278	-0.7229056	0	-94.079	-44.429	8.005	B5-03822-P03-CH1	1396824	OK	0.7798376	-0.6176045	-0.1020679	0	-98.849	-14.929	7.409	B5-03822-P04-CH0	1396824	OK	0.796668	-0.2929356	0.5286859	0	-124.145	-22.433	14.231	B5-03822-P04-CH1	1396824	OK	0.7870761	-0.6165922	0.0180339	0	-110.872	-31.918	7.176	NA
0.709410983905758	B5-03822-P01-CH0	1396832	OK	0.1420841	0.1198787	0.1210538	-0.9750832	150.96	-17.194	-272.788	B5-03822-P02-CH0	1396832	OK	0.6959478	0.1613758	-0.6997246	0	-86.481	-87.353	-0.389	B5-03822-P02-CH1	1396832	OK	0.7623955	0.0566157	-0.64463	0	-89.348	-66.978	3.176	B5-03822-P03-CH0	1396832	OK	0.6803833	0.0449159	-0.7314787	0	-92.714	-43.969	7.16	B5-03822-P03-CH1	1396832	OK	0.779606	-0.6177956	-0.1026797	0	-98.891	-14.792	7.539	B5-03822-P04-CH0	1396832	OK	0.7964323	-0.2932228	0.5288819	0	-124.128	-22.417	14.104	B5-03822-P04-CH1	1396832	OK	0.786727	-0.6170722	0.0168087	0	-110.961	-31.906	7.759	NA
0.71940268790443	B5-03822-P01-CH0	1396840	OK	0.1420939	0.1201194	0.1208997	-0.9750712	151.002	-17.19	-272.692	B5-03822-P02-CH0	1396840	OK	0.6987869	0.1395322	-0.7015894	0	-84.982	-86.942	0.065	B5-03822-P02-CH1	1396840	OK	0.7614154	0.0449086	-0.6467069	0	-90.181	-67.75	4.944	B5-03822-P03-CH0	1396840	OK	0.6699654	0.0523127	-0.740547	0	-91.753	-43.086	7.629	B5-03822-P03-CH1	1396840	OK	0.7797323	-0.6175592	-0.103141	0	-98.747	-14.526	7.214	B5-03822-P04-CH0	1396840	OK	0.7964244	-0.2925011	0.5292932	0	-124.17	-22.617	14.353	B5-03822-P04-CH1	1396840	OK	0.7867705	-0.6170396	0.0159486	0	-110.957	-31.827	8.225	NA
0.729394391903103	B5-03822-P01-CH0	1396848	OK	0.1418138	0.1202213	0.1203098	-0.9751724	151.032	-17.182	-272.768	B5-03822-P02-CH0	1396848	OK	0.7028538	0.1184117	-0.7014095	0	-84.985	-88.229	-0.707	B5-03822-P02-CH1	1396848	OK	0.762056	0.0371069	-0.646447	0	-89.925	-67.814	6.246	B5-03822-P03-CH0	1396848	OK	0.658511	0.0595108	-0.7502144	0	-93.149	-43.154	7.546	B5-03822-P03-CH1	1396848	OK	0.77957	-0.6176324	-0.1039273	0	-98.612	-14.285	7.042	B5-03822-P04-CH0	1396848	OK	0.7960543	-0.2923613	0.5299268	0	-123.962	-22.509	14.528	B5-03822-P04-CH1	1396848	OK	0.7861675	-0.6178437	0.0144845	0	-110.483	-31.434	7.38	NA
0.739386095901775	B5-03822-P01-CH0	1396856	OK	0.1419716	0.1202496	0.1207297	-0.9750941	151.073	-17.087	-272.856	B5-03822-P02-CH0	1396856	OK	0.705216	0.1027129	-0.701513	0	-84.831	-86.956	0.05	B5-03822-P02-CH1	1396856	OK	0.762436	0.0339729	-0.6461711	0	-89.721	-66.863	3.944	B5-03822-P03-CH0	1396856	OK	0.6550308	0.0636206	-0.752919	0	-91.587	-42.657	7.345	B5-03822-P03-CH1	1396856	OK	0.7799145	-0.617197	-0.1039294	0	-98.644	-14.347	7.242	B5-03822-P04-CH0	1396856	OK	0.7960278	-0.2910544	0.5306854	0	-123.903	-22.467	14.632	B5-03822-P04-CH1	1396856	OK	0.7863449	-0.6176365	0.0136694	0	-110.265	-31.238	7.223	NA
0.749377799900448	B5-03822-P01-CH0	1396864	OK	0.1421559	0.1200863	0.121218	-0.9750268	151.042	-17.12	-272.882	B5-03822-P02-CH0	1396864	OK	0.7071652	0.0897433	-0.7013299	0	-84.646	-86.504	-0.29	B5-03822-P02-CH1	1396864	OK	0.7610042	0.0286848	-0.6481125	0	-90.708	-67.6	1.21	B5-03822-P03-CH0	1396864	OK	0.6535123	0.0628182	-0.7543047	0	-90.463	-43.093	7.326	B5-03822-P03-CH1	1396864	OK	0.7806178	-0.6162646	-0.104181	0	-98.441	-14.113	7.018	B5-03822-P04-CH0	1396864	OK	0.7957429	-0.2899409	0.5317212	0	-123.589	-22.397	14.503	B5-03822-P04-CH1	1396864	OK	0.7866376	-0.6172775	0.0130293	0	-110.135	-31.225	7.423	NA
0.759369503899121	B5-03822-P01-CH0	1396872	OK	0.1416928	0.1202416	0.1201961	-0.9752015	151.101	-17.319	-272.889	B5-03822-P02-CH0	1396872	OK	0.708204	0.0815594	-0.701281	0	-84.717	-86.821	-0.37	B5-03822-P02-CH1	1396872	OK	0.7614636	0.0283972	-0.6475854	0	-88.434	-67.309	3.931	B5-03822-P03-CH0	1396872	OK	0.6516491	0.0570457	-0.7563724	0	-90.898	-43.495	7.354	B5-03822-P03-CH1	1396872	OK	0.780129	-0.6167042	-0.1052363	0	-98.432	-14.082	6.916	B5-03822-P04-CH0	1396872	OK	0.7954752	-0.2894115	0.5324098	0	-123.578	-22.411	14.641	B5-03822-P04-CH1	1396872	OK	0.7856451	-0.6185533	0.0123899	0	-110.095	-31.532	7.483	NA
0.769361207897793	B5-03822-P01-CH0	1396880	OK	0.1424998	0.1202957	0.1211176	-0.9749632	151.221	-17.21	-272.993	B5-03822-P02-CH0	1396880	OK	0.7091369	0.075046	-0.7010655	0	-83.683	-86.108	-1.123	B5-03822-P02-CH1	1396880	OK	0.7549625	0.025171	-0.6552847	0	-89.137	-66.36	1.218	B5-03822-P03-CH0	1396880	OK	0.649431	0.0467386	-0.7589828	0	-91.638	-43.326	8.61	B5-03822-P03-CH1	1396880	OK	0.780833	-0.6159331	-0.1045291	0	-98.533	-14.09	6.972	B5-03822-P04-CH0	1396880	OK	0.795745	-0.2869567	0.5333345	0	-123.495	-22.374	14.729	B5-03822-P04-CH1	1396880	OK	0.7864561	-0.6175176	0.0126016	0	-110.288	-31.574	8.154	NA
0.779352911896466	B5-03822-P01-CH0	1396888	OK	0.1425194	0.1202157	0.1211688	-0.9749639	151.175	-17.211	-273.053	B5-03822-P02-CH0	1396888	OK	0.7092823	0.0705915	-0.7013811	0	-82.757	-85.597	-0.027	B5-03822-P02-CH1	1396888	OK	0.7495937	0.0175905	-0.6616644	0	-88.989	-66.23	3.1	B5-03822-P03-CH0	1396888	OK	0.6514925	0.0384933	-0.7576779	0	-90.256	-43.536	8.503	B5-03822-P03-CH1	1396888	OK	0.7809504	-0.6157533	-0.104711	0	-98.431	-13.998	6.979	B5-03822-P04-CH0	1396888	OK	0.7957753	-0.2853259	0.5341637	0	-123.335	-22.19	14.9	B5-03822-P04-CH1	1396888	OK	0.7866307	-0.6173167	0.0114993	0	-109.938	-31.024	7.433	NA
0.789344615895139	B5-03822-P01-CH0	1396896	OK	0.1427328	0.1201402	0.1216975	-0.9748761	151.146	-17.169	-272.95	B5-03822-P02-CH0	1396896	OK	0.707907	0.0657396	-0.7032396	0	-82.903	-86.082	-0.492	B5-03822-P02-CH1	1396896	OK	0.7471683	0.0126757	-0.664514	0	-87.067	-66.342	0.86	B5-03822-P03-CH0	1396896	OK	0.6520008	0.0309809	-0.757585	0	-90.76	-43.957	8.578	B5-03822-P03-CH1	1396896	OK	0.7814771	-0.6150852	-0.1047081	0	-98.333	-13.764	6.639	B5-03822-P04-CH0	1396896	OK	0.7962214	-0.2831517	0.5346555	0	-123.405	-22.097	15.12	B5-03822-P04-CH1	1396896	OK	0.7869381	-0.6169295	0.0112409	0	-109.713	-30.809	7.013	NA
0.799336319893811	B5-03822-P01-CH0	1396904	OK	0.1428624	0.1205778	0.1214238	-0.9748372	151.408	-17.228	-272.986	B5-03822-P02-CH0	1396904	OK	0.7054583	0.0640139	-0.7058546	0	-82.797	-85.855	-0.014	B5-03822-P02-CH1	1396904	OK	0.7422574	0.0065121	-0.6700832	0	-86.172	-66.386	1.975	B5-03822-P03-CH0	1396904	OK	0.6550409	0.0250246	-0.7551789	0	-90.648	-44.311	7.724	B5-03822-P03-CH1	1396904	OK	0.7814686	-0.6151231	-0.1045485	0	-98.566	-13.866	7.016	B5-03822-P04-CH0	1396904	OK	0.7964388	-0.2815925	0.535155	0	-123.512	-22.14	15.291	B5-03822-P04-CH1	1396904	OK	0.7868048	-0.6170977	0.0113436	0	-110.11	-31.142	7.847	NA
0.809328023892484	B5-03822-P01-CH0	1396912	OK	0.1430204	0.1203283	0.1218144	-0.9747961	151.37	-17.184	-273.033	B5-03822-P02-CH0	1396912	OK	0.704286	0.0634808	-0.7070724	0	-81.405	-85.99	-0.535	B5-03822-P02-CH1	1396912	OK	0.7348311	-0.0020499	-0.678247	0	-86.484	-66.93	1.316	B5-03822-P03-CH0	1396912	OK	0.6571412	0.0177306	-0.7535589	0	-91.336	-44.138	7.382	B5-03822-P03-CH1	1396912	OK	0.7819081	-0.6145536	-0.1046121	0	-98.298	-13.674	6.729	B5-03822-P04-CH0	1396912	OK	0.7965687	-0.2802817	0.5356496	0	-123.364	-21.861	15.191	B5-03822-P04-CH1	1396912	OK	0.7872987	-0.6164781	0.0107469	0	-109.943	-30.717	7.592	NA
0.819319727891156	B5-03822-P01-CH0	1396920	OK	0.1433177	0.1202628	0.122578	-0.9746648	151.418	-17.103	-272.974	B5-03822-P02-CH0	1396920	OK	0.6996095	0.0661777	-0.7114542	0	-81.474	-85.174	0.673	B5-03822-P02-CH1	1396920	OK	0.7263289	-0.00338	-0.687339	0	-86.037	-66.339	1.282	B5-03822-P03-CH0	1396920	OK	0.6619509	0.0110378	-0.7494659	0	-90.843	-44.263	6.388	B5-03822-P03-CH1	1396920	OK	0.7825429	-0.6137685	-0.1044744	0	-98.343	-13.562	6.756	B5-03822-P04-CH0	1396920	OK	0.7967125	-0.2788366	0.5361896	0	-123.247	-21.689	15.037	B5-03822-P04-CH1	1396920	OK	0.7873307	-0.6164379	0.0107053	0	-109.824	-30.713	6.782	NA
0.829311431889829	B5-03822-P01-CH0	1396928	OK	0.1437878	0.1202076	0.1229627	-0.9745539	151.456	-17.033	-272.993	B5-03822-P02-CH0	1396928	OK	0.6977156	0.0679371	-0.7131461	0	-80.887	-85.606	-0.797	B5-03822-P02-CH1	1396928	OK	0.7200895	0.000199	-0.6938812	0	-83.633	-64.654	-4.179	B5-03822-P03-CH0	1396928	OK	0.6659102	0.0084579	-0.7459839	0	-90.212	-45.562	7.546	B5-03822-P03-CH1	1396928	OK	0.7827541	-0.6136287	-0.1037106	0	-98.434	-13.751	6.979	B5-03822-P04-CH0	1396928	OK	0.7969617	-0.2774785	0.5365237	0	-123.335	-21.625	14.945	B5-03822-P04-CH1	1396928	OK	0.7875893	-0.6160954	0.0113845	0	-110.029	-31.003	7.496	NA
0.839303135888502	B5-03822-P01-CH0	1396936	OK	0.1438035	0.1203277	0.1223093	-0.974619	151.523	-17.099	-272.938	B5-03822-P02-CH0	1396936	OK	0.6951564	0.0711957	-0.7153243	0	-81.368	-86.142	-0.465	B5-03822-P02-CH1	1396936	OK	0.7109186	0.0026364	-0.7032694	0	-84.006	-65.595	-1.336	B5-03822-P03-CH0	1396936	OK	0.66786	0.0120408	-0.7441896	0	-89.609	-45.668	7.624	B5-03822-P03-CH1	1396936	OK	0.7824181	-0.6140123	-0.1039752	0	-98.45	-13.643	6.772	B5-03822-P04-CH0	1396936	OK	0.7966924	-0.2775966	0.5368625	0	-123.23	-21.439	14.756	B5-03822-P04-CH1	1396936	OK	0.7874529	-0.616271	0.0113158	0	-110.142	-30.892	7.718	NA
0.849294839887174	B5-03822-P01-CH0	1396944	OK	0.1441451	0.1203037	0.1226256	-0.9745318	151.594	-16.987	-272.885	B5-03822-P02-CH0	1396944	OK	0.6946647	0.0750602	-0.7154069	0	-80.657	-85.422	-0.038	B5-03822-P02-CH1	1396944	OK	0.703671	0.0004219	-0.7105258	0	-83.799	-66.43	1.788	B5-03822-P03-CH0	1396944	OK	0.6672607	0.0141467	-0.7446899	0	-89.967	-45.851	7.224	B5-03822-P03-CH1	1396944	OK	0.7828101	-0.6135443	-0.1037868	0	-98.588	-13.501	6.716	B5-03822-P04-CH0	1396944	OK	0.7968817	-0.2767612	0.5370128	0	-123.372	-21.44	14.988	B5-03822-P04-CH1	1396944	OK	0.7876262	-0.6160453	0.011534	0	-110.211	-30.919	7.627	NA
0.859286543885847	B5-03822-P01-CH0	1396952	OK	0.1441839	0.1202226	0.1224429	-0.974559	151.584	-16.916	-272.9	B5-03822-P02-CH0	1396952	OK	0.6937924	0.0779516	-0.7159439	0	-80.711	-85.41	-0.639	B5-03822-P02-CH1	1396952	OK	0.697708	-0.0010251	-0.7163815	0	-83.22	-65.274	0.376	B5-03822-P03-CH0	1396952	OK	0.6656818	0.016611	-0.7460508	0	-90.643	-45.65	6.735	B5-03822-P03-CH1	1396952	OK	0.7830739	-0.6131515	-0.1041178	0	-98.531	-13.162	6.495	B5-03822-P04-CH0	1396952	OK	0.7966434	-0.276898	0.5372958	0	-123.348	-21.283	15.051	B5-03822-P04-CH1	1396952	OK	0.7878056	-0.6158184	0.0114009	0	-110.337	-30.777	8.012	NA
0.86927824788452	B5-03822-P01-CH0	1396960	OK	0.1436181	0.1202325	0.1216491	-0.9747407	151.559	-16.944	-272.84	B5-03822-P02-CH0	1396960	OK	0.6939249	0.0816593	-0.715402	0	-81.055	-85.382	-0.675	B5-03822-P02-CH1	1396960	OK	0.6971613	5.85e-05	-0.7169143	0	-80.817	-65.143	-3.053	B5-03822-P03-CH0	1396960	OK	0.6673586	0.0198578	-0.7444718	0	-90.048	-45.628	6.083	B5-03822-P03-CH1	1396960	OK	0.7826238	-0.6135794	-0.1049778	0	-98.406	-13.253	6.556	B5-03822-P04-CH0	1396960	OK	0.7962868	-0.2780653	0.5372216	0	-123.393	-21.112	15.086	B5-03822-P04-CH1	1396960	OK	0.7871121	-0.6167174	0.0106872	0	-110.179	-30.498	7.087	NA
0.879269951883192	B5-03822-P01-CH0	1396968	OK	0.1434448	0.1203651	0.1210966	-0.9748187	151.659	-16.975	-272.825	B5-03822-P02-CH0	1396968	OK	0.6931312	0.0828864	-0.71603	0	-82.085	-85.338	0.069	B5-03822-P02-CH1	1396968	OK	0.6947799	-0.0032091	-0.7192153	0	-80.954	-65.278	-0.607	B5-03822-P03-CH0	1396968	OK	0.6697423	0.0201927	-0.742319	0	-89.786	-45.491	7.218	B5-03822-P03-CH1	1396968	OK	0.7825645	-0.6135428	-0.1056315	0	-98.628	-13.187	6.468	B5-03822-P04-CH0	1396968	OK	0.7958328	-0.2791072	0.5373541	0	-123.445	-21.078	14.903	B5-03822-P04-CH1	1396968	OK	0.7864591	-0.6175439	0.011033	0	-110.381	-30.898	7.282	NA
0.889261655881865	B5-03822-P01-CH0	1396976	OK	0.1434736	0.1203121	0.1207152	-0.9748683	151.692	-16.985	-272.88	B5-03822-P02-CH0	1396976	OK	0.6934855	0.0830892	-0.7156634	0	-81.673	-85.228	1.319	B5-03822-P02-CH1	1396976	OK	0.6909067	-0.0037226	-0.7229343	0	-82.822	-65.045	-0.532	B5-03822-P03-CH0	1396976	OK	0.6709399	0.0240878	-0.7411204	0	-90.621	-45.764	6.697	B5-03822-P03-CH1	1396976	OK	0.7824955	-0.6135645	-0.1060162	0	-98.722	-13.313	6.592	B5-03822-P04-CH0	1396976	OK	0.795276	-0.2801446	0.5376384	0	-123.346	-21.104	14.781	B5-03822-P04-CH1	1396976	OK	0.7866269	-0.6173324	0.0109001	0	-110.512	-30.717	7.582	NA
0.899253359880538	B5-03822-P01-CH0	1396984	OK	0.1434377	0.1203767	0.1207272	-0.9748641	151.724	-16.932	-272.829	B5-03822-P02-CH0	1396984	OK	0.6930665	0.0827639	-0.7161068	0	-81.599	-85.521	0.699	B5-03822-P02-CH1	1396984	OK	0.6922453	-0.0082942	-0.7216146	0	-81.469	-65.194	-0.884	B5-03822-P03-CH0	1396984	OK	0.6729827	0.0290704	-0.7390867	0	-90.504	-45.916	6.438	B5-03822-P03-CH1	1396984	OK	0.7825569	-0.6133847	-0.1066018	0	-98.818	-13.37	6.606	B5-03822-P04-CH0	1396984	OK	0.7951389	-0.2810372	0.5373753	0	-123.271	-20.841	15.018	B5-03822-P04-CH1	1396984	OK	0.786577	-0.617397	0.0108457	0	-110.576	-30.711	7.492	NA
0.90924506387921	B5-03822-P01-CH0	1396992	OK	0.1436137	0.1203272	0.1203473	-0.9748913	151.754	-17.008	-272.847	B5-03822-P02-CH0	1396992	OK	0.6924888	0.0838454	-0.7165398	0	-81.197	-85.536	0.181	B5-03822-P02-CH1	1396992	OK	0.6909951	-0.009989	-0.7227904	0	-80.936	-65.826	-1.271	B5-03822-P03-CH0	1396992	OK	0.6742165	0.0282806	-0.7379921	0	-91.388	-46.389	5.9	B5-03822-P03-CH1	1396992	OK	0.7824209	-0.6135176	-0.1068346	0	-99.008	-13.653	6.949	B5-03822-P04-CH0	1396992	OK	0.7947848	-0.2820365	0.5373757	0	-123.246	-20.952	15.109	B5-03822-P04-CH1	1396992	OK	0.7860651	-0.6180371	0.0114761	0	-110.425	-31.026	7.222	NA
0.919236767877883	B5-03822-P01-CH0	1397000	OK	0.1437709	0.1200322	0.120251	-0.9749164	151.733	-17.079	-272.936	B5-03822-P02-CH0	1397000	OK	0.694241	0.0804961	-0.7152271	0	-80.921	-85.454	0.796	B5-03822-P02-CH1	1397000	OK	0.6870721	-0.0130416	-0.7264722	0	-81.544	-64.368	-0.549	B5-03822-P03-CH0	1397000	OK	0.6756411	0.0257948	-0.7367793	0	-92.08	-45.638	6.952	B5-03822-P03-CH1	1397000	OK	0.7825249	-0.6133806	-0.1068593	0	-99.031	-13.911	7.076	B5-03822-P04-CH0	1397000	OK	0.7944786	-0.2830905	0.5372741	0	-123.209	-20.882	14.895	B5-03822-P04-CH1	1397000	OK	0.7863269	-0.6176995	0.0117227	0	-110.437	-31.01	7.553	NA
0.929228471876556	B5-03822-P01-CH0	1397008	OK	0.1436105	0.1201191	0.1200719	-0.9749514	151.888	-17.178	-273.059	B5-03822-P02-CH0	1397008	OK	0.6936218	0.0830667	-0.7155338	0	-80.945	-85.509	0.893	B5-03822-P02-CH1	1397008	OK	0.6861885	-0.0190504	-0.7271742	0	-81.013	-64.981	-1.301	B5-03822-P03-CH0	1397008	OK	0.680293	0.023015	-0.7325789	0	-91.191	-45.719	6.619	B5-03822-P03-CH1	1397008	OK	0.7827444	-0.612927	-0.1078504	0	-99.051	-13.826	7.038	B5-03822-P04-CH0	1397008	OK	0.7941748	-0.2846475	0.5369006	0	-123.143	-20.838	14.937	B5-03822-P04-CH1	1397008	OK	0.7863254	-0.6177071	0.0114163	0	-110.693	-30.974	7.475	NA
0.939220175875228	B5-03822-P01-CH0	1397016	OK	0.1435295	0.1201379	0.1198994	-0.9749822	151.911	-17.193	-273.018	B5-03822-P02-CH0	1397016	OK	0.6890795	0.0950825	-0.718421	0	-81.704	-85.883	0.164	B5-03822-P02-CH1	1397016	OK	0.6840765	-0.0220862	-0.7290758	0	-81.231	-66.295	0.788	B5-03822-P03-CH0	1397016	OK	0.6828341	0.0177492	-0.7303578	0	-91.105	-46.394	7.075	B5-03822-P03-CH1	1397016	OK	0.7827421	-0.6128334	-0.1083977	0	-98.958	-13.881	6.986	B5-03822-P04-CH0	1397016	OK	0.7938538	-0.2861279	0.5365882	0	-123.019	-20.659	14.785	B5-03822-P04-CH1	1397016	OK	0.785715	-0.6184755	0.011833	0	-110.593	-31.159	6.825	NA
0.949211879873901	B5-03822-P01-CH0	1397024	OK	0.1433556	0.1205177	0.1196179	-0.9749955	152.094	-17.103	-273.046	B5-03822-P02-CH0	1397024	OK	0.6872805	0.1006927	-0.7193793	0	-82.391	-86.014	1.64	B5-03822-P02-CH1	1397024	OK	0.6854589	-0.0207167	-0.7278165	0	-79.567	-64.174	-1.418	B5-03822-P03-CH0	1397024	OK	0.6831694	0.0117315	-0.7301657	0	-91.556	-45.778	6.041	B5-03822-P03-CH1	1397024	OK	0.7824165	-0.6131355	-0.1090384	0	-99.136	-13.959	7.159	B5-03822-P04-CH0	1397024	OK	0.793811	-0.2878011	0.5357561	0	-123.119	-20.333	14.601	B5-03822-P04-CH1	1397024	OK	0.7856445	-0.6185685	0.0116527	0	-110.701	-30.887	6.966	NA
0.959203583872573	B5-03822-P01-CH0	1397032	OK	0.1436123	0.1205593	0.1202405	-0.974876	152.202	-17.035	-273.09	B5-03822-P02-CH0	1397032	OK	0.6875679	0.1062821	-0.7182997	0	-81.899	-85.973	-0.277	B5-03822-P02-CH1	1397032	OK	0.6836263	-0.025167	-0.7293982	0	-80.941	-65.819	-1.908	B5-03822-P03-CH0	1397032	OK	0.6830392	0.0100968	-0.7303119	0	-91.436	-45.705	7.852	B5-03822-P03-CH1	1397032	OK	0.7826077	-0.6129199	-0.1088777	0	-99.218	-14.156	7.334	B5-03822-P04-CH0	1397032	OK	0.794171	-0.2880889	0.5350674	0	-123.342	-20.318	14.524	B5-03822-P04-CH1	1397032	OK	0.785831	-0.6183218	0.0121596	0	-110.729	-31.005	6.843	NA
0.969195287871246	B5-03822-P01-CH0	1397040	OK	0.1437639	0.1205086	0.1202318	-0.974861	152.25	-17.118	-273.07	B5-03822-P02-CH0	1397040	OK	0.6867809	0.1138373	-0.7178949	0	-81.46	-85.706	-0.424	B5-03822-P02-CH1	1397040	OK	0.6846852	-0.0272414	-0.7283296	0	-80.435	-65.192	1.139	B5-03822-P03-CH0	1397040	OK	0.687182	0.0064978	-0.7264562	0	-90.933	-45.6	6.119	B5-03822-P03-CH1	1397040	OK	0.7825086	-0.6130331	-0.1089528	0	-99.364	-14.216	7.276	B5-03822-P04-CH0	1397040	OK	0.794242	-0.2886303	0.5346702	0	-123.381	-20.317	14.437	B5-03822-P04-CH1	1397040	OK	0.7858494	-0.6182933	0.0124116	0	-110.692	-30.92	6.513	NA
0.979186991869919	B5-03822-P01-CH0	1397048	OK	0.1437065	0.1203289	0.1201785	-0.9748982	152.219	-17.182	-273.095	B5-03822-P02-CH0	1397048	OK	0.6846913	0.120886	-0.718738	0	-81.725	-85.358	-0.416	B5-03822-P02-CH1	1397048	OK	0.6855128	-0.0236636	-0.7276759	0	-80.677	-65.258	-0.413	B5-03822-P03-CH0	1397048	OK	0.6890112	0.0009522	-0.7247501	0	-92.13	-46.811	7.443	B5-03822-P03-CH1	1397048	OK	0.7823841	-0.6131254	-0.1093268	0	-99.242	-14.195	7.267	B5-03822-P04-CH0	1397048	OK	0.7942998	-0.2894265	0.5341536	0	-123.402	-20.229	14.362	B5-03822-P04-CH1	1397048	OK	0.7860821	-0.6179962	0.0124741	0	-110.626	-30.81	6.727	NA
0.989178695868591	B5-03822-P01-CH0	1397056	OK	0.1437324	0.1203628	0.1199962	-0.9749127	152.277	-17.191	-273.152	B5-03822-P02-CH0	1397056	OK	0.683601	0.1271604	-0.7186932	0	-81.367	-85.103	-0.867	B5-03822-P02-CH1	1397056	OK	0.6898658	-0.0206944	-0.7236415	0	-79.208	-66.075	-2.323	B5-03822-P03-CH0	1397056	OK	0.6902177	-0.0062849	-0.7235745	0	-92.529	-46.907	8.476	B5-03822-P03-CH1	1397056	OK	0.781891	-0.6137575	-0.1093075	0	-99.254	-14.445	7.465	B5-03822-P04-CH0	1397056	OK	0.7943737	-0.2900961	0.5336803	0	-123.513	-20.12	14.241	B5-03822-P04-CH1	1397056	OK	0.7856343	-0.6185501	0.0132129	0	-110.847	-31.212	6.937	NA
0.999170399867264	B5-03822-P01-CH0	1397064	OK	0.1434042	0.1203757	0.1193931	-0.9750334	152.329	-17.265	-273.201	B5-03822-P02-CH0	1397064	OK	0.6816856	0.1322144	-0.7196	0	-81.802	-86.22	-0.301	B5-03822-P02-CH1	1397064	OK	0.6896503	-0.0216019	-0.7238203	0	-80.375	-65.825	-0.037	B5-03822-P03-CH0	1397064	OK	0.6922664	-0.0115506	-0.7215496	0	-91.668	-46.068	6.159	B5-03822-P03-CH1	1397064	OK	0.7813154	-0.6143791	-0.1099297	0	-99.043	-14.368	7.28	B5-03822-P04-CH0	1397064	OK	0.7943054	-0.2910378	0.5332691	0	-123.729	-20.286	14.299	B5-03822-P04-CH1	1397064	OK	0.7849209	-0.6194582	0.0130656	0	-110.646	-31.111	6.052	NA
1.00916210386594	B5-03822-P01-CH0	1397072	OK	0.1433602	0.1206699	0.1196696	-0.9749696	152.524	-17.188	-273.213	B5-03822-P02-CH0	1397072	OK	0.6797284	0.1382572	-0.7203154	0	-81.891	-86.372	-0.234	B5-03822-P02-CH1	1397072	OK	0.6886115	-0.0208874	-0.7248296	0	-81.327	-65.588	-0.194	B5-03822-P03-CH0	1397072	OK	0.6901066	-0.0170483	-0.7235069	0	-92.789	-46.685	7.094	B5-03822-P03-CH1	1397072	OK	0.7811901	-0.6145035	-0.1101249	0	-99.163	-14.307	7.12	B5-03822-P04-CH0	1397072	OK	0.7944821	-0.2915473	0.5327274	0	-123.905	-20.239	14.253	B5-03822-P04-CH1	1397072	OK	0.7852672	-0.6190198	0.0130339	0	-111.159	-31.088	6.755	NA
1.01915380786461	B5-03822-P01-CH0	1397080	OK	0.1434277	0.1208296	0.11968	-0.9749387	152.664	-17.223	-273.433	B5-03822-P02-CH0	1397080	OK	0.6771263	0.1407587	-0.722279	0	-81.767	-85.985	1.719	B5-03822-P02-CH1	1397080	OK	0.6882161	-0.0233136	-0.7251311	0	-81.241	-65.222	0.164	B5-03822-P03-CH0	1397080	OK	0.690974	-0.020776	-0.722581	0	-92.426	-46.824	8.12	B5-03822-P03-CH1	1397080	OK	0.7810334	-0.6146649	-0.1103349	0	-99.128	-14.267	7.226	B5-03822-P04-CH0	1397080	OK	0.7945929	-0.292005	0.5323112	0	-123.919	-20.419	14.59	B5-03822-P04-CH1	1397080	OK	0.7853	-0.6189735	0.0132557	0	-111.339	-31.244	7.127	NA
1.02914551186328	B5-03822-P01-CH0	1397088	OK	0.1434124	0.1206549	0.1191373	-0.975029	152.576	-17.274	-273.432	B5-03822-P02-CH0	1397088	OK	0.6769534	0.145259	-0.7215497	0	-80.961	-86.217	0.027	B5-03822-P02-CH1	1397088	OK	0.6884254	-0.0248797	-0.7248803	0	-80.672	-65.91	0.042	B5-03822-P03-CH0	1397088	OK	0.6925872	-0.0224177	-0.7209857	0	-91.705	-45.963	7.536	B5-03822-P03-CH1	1397088	OK	0.7802774	-0.6156533	-0.1101732	0	-99.032	-14.505	7.257	B5-03822-P04-CH0	1397088	OK	0.7945015	-0.2924457	0.5322057	0	-123.993	-20.507	14.451	B5-03822-P04-CH1	1397088	OK	0.7847579	-0.6196428	0.0140655	0	-111.147	-31.441	6.979	NA
1.03913721586195	B5-03822-P01-CH0	1397096	OK	0.1439714	0.120287	0.1204487	-0.9748309	152.594	-17.212	-273.677	B5-03822-P02-CH0	1397096	OK	0.674407	0.1469881	-0.7235811	0	-80.917	-85.545	1.225	B5-03822-P02-CH1	1397096	OK	0.6884797	-0.0231441	-0.7248863	0	-80.475	-64.948	1	B5-03822-P03-CH0	1397096	OK	0.6934132	-0.0262439	-0.7200621	0	-91.703	-46.263	7.182	B5-03822-P03-CH1	1397096	OK	0.7809232	-0.6149484	-0.1095331	0	-99.065	-14.557	7.114	B5-03822-P04-CH0	1397096	OK	0.7952259	-0.2911342	0.5318427	0	-124.201	-20.782	14.876	B5-03822-P04-CH1	1397096	OK	0.7858443	-0.6182627	0.014141	0	-111.114	-31.307	7.044	NA
1.04912891986063	B5-03822-P01-CH0	1397104	OK	0.1439843	0.1200351	0.1201781	-0.9748935	152.514	-17.382	-273.754	B5-03822-P02-CH0	1397104	OK	0.6728903	0.1514214	-0.7240788	0	-81.211	-86.192	0.276	B5-03822-P02-CH1	1397104	OK	0.6883039	-0.0238481	-0.7250303	0	-80.401	-65.598	-0.251	B5-03822-P03-CH0	1397104	OK	0.6927071	-0.0279727	-0.7206764	0	-92.107	-46.092	7.476	B5-03822-P03-CH1	1397104	OK	0.7808625	-0.6149871	-0.109748	0	-98.862	-14.48	6.92	B5-03822-P04-CH0	1397104	OK	0.7950526	-0.2911798	0.5320768	0	-124.106	-21.083	14.912	B5-03822-P04-CH1	1397104	OK	0.7856472	-0.61851	0.014275	0	-111.151	-31.537	7.142	NA
1.0591206238593	B5-03822-P01-CH0	1397112	OK	0.1439878	0.1199538	0.1197087	-0.9749607	152.525	-17.456	-273.86	B5-03822-P02-CH0	1397112	OK	0.6712562	0.1556278	-0.7247035	0	-81.141	-86.471	1.264	B5-03822-P02-CH1	1397112	OK	0.688754	-0.0237023	-0.7246076	0	-80.483	-65.649	-0.07	B5-03822-P03-CH0	1397112	OK	0.6917913	-0.0294448	-0.7214969	0	-92.753	-45.807	6.911	B5-03822-P03-CH1	1397112	OK	0.78066	-0.6151832	-0.1100892	0	-98.801	-14.449	6.854	B5-03822-P04-CH0	1397112	OK	0.7948007	-0.2914248	0.532319	0	-123.988	-21.276	15.162	B5-03822-P04-CH1	1397112	OK	0.7854709	-0.6187267	0.014581	0	-111.423	-31.677	7.585	NA
1.06911232785797	B5-03822-P01-CH0	1397120	OK	0.1438716	0.1197167	0.1197651	-0.9750001	152.42	-17.41	-273.88	B5-03822-P02-CH0	1397120	OK	0.6695291	0.1584324	-0.7256928	0	-81.111	-85.867	0.496	B5-03822-P02-CH1	1397120	OK	0.689068	-0.0228275	-0.724337	0	-80.558	-65.438	-0.172	B5-03822-P03-CH0	1397120	OK	0.6919581	-0.0319291	-0.7212313	0	-93.209	-45.758	6.252	B5-03822-P03-CH1	1397120	OK	0.780916	-0.6147844	-0.1105009	0	-98.643	-14.196	6.741	B5-03822-P04-CH0	1397120	OK	0.7945707	-0.2917951	0.5324595	0	-123.83	-21.152	15.016	B5-03822-P04-CH1	1397120	OK	0.7855528	-0.6186177	0.0147982	0	-111.553	-31.861	8.226	NA
1.07910403185665	B5-03822-P01-CH0	1397128	OK	0.1440813	0.1194345	0.1204541	-0.9749189	152.298	-17.302	-273.821	B5-03822-P02-CH0	1397128	OK	0.6683812	0.1613598	-0.7261058	0	-80.892	-85.536	0.636	B5-03822-P02-CH1	1397128	OK	0.6894738	-0.0228151	-0.7239512	0	-80.435	-65.369	-0.018	B5-03822-P03-CH0	1397128	OK	0.6930201	-0.0354716	-0.7200451	0	-93.222	-45.677	6.248	B5-03822-P03-CH1	1397128	OK	0.7814812	-0.6140924	-0.1103524	0	-98.523	-14.001	6.449	B5-03822-P04-CH0	1397128	OK	0.7947061	-0.2913274	0.5325135	0	-123.781	-21.1	14.877	B5-03822-P04-CH1	1397128	OK	0.7858686	-0.6182108	0.0150327	0	-111.415	-31.649	7.37	NA
1.08909573585532	B5-03822-P01-CH0	1397136	OK	0.1440492	0.119363	0.1208552	-0.9748827	152.243	-17.297	-273.741	B5-03822-P02-CH0	1397136	OK	0.6678698	0.1655431	-0.7256345	0	-80.991	-86.364	0.039	B5-03822-P02-CH1	1397136	OK	0.689294	-0.0222479	-0.72414	0	-80.589	-65.212	0.031	B5-03822-P03-CH0	1397136	OK	0.6922752	-0.0273255	-0.7211161	0	-92.563	-46.278	7.038	B5-03822-P03-CH1	1397136	OK	0.7818476	-0.6135855	-0.110577	0	-98.487	-13.915	6.525	B5-03822-P04-CH0	1397136	OK	0.7948927	-0.2911703	0.5323209	0	-123.762	-21.123	14.928	B5-03822-P04-CH1	1397136	OK	0.7860579	-0.6179698	0.0150405	0	-111.33	-31.626	7.095	NA
1.09908743985399	B5-03822-P01-CH0	1397144	OK	0.1444018	0.1189347	0.121568	-0.9747943	152.065	-17.256	-273.796	B5-03822-P02-CH0	1397144	OK	0.6671258	0.1685946	-0.7256163	0	-80.915	-85.723	0.075	B5-03822-P02-CH1	1397144	OK	0.6898372	-0.0216222	-0.7236416	0	-80.27	-64.996	-0.199	B5-03822-P03-CH0	1397144	OK	0.6930024	-0.0294955	-0.7203317	0	-92.284	-46.104	7.003	B5-03822-P03-CH1	1397144	OK	0.7822694	-0.613137	-0.1100799	0	-98.519	-14.01	6.564	B5-03822-P04-CH0	1397144	OK	0.7950096	-0.2903846	0.5325753	0	-123.66	-21.228	14.808	B5-03822-P04-CH1	1397144	OK	0.7867261	-0.6171119	0.0153289	0	-111.002	-31.507	7.06	NA
1.10907914385266	B5-03822-P01-CH0	1397152	OK	0.144603	0.1185739	0.1220968	-0.9747423	151.939	-17.211	-273.893	B5-03822-P02-CH0	1397152	OK	0.6667647	0.1716799	-0.7252247	0	-80.801	-85.531	-0.629	B5-03822-P02-CH1	1397152	OK	0.6905148	-0.0207391	-0.7230209	0	-79.988	-64.937	-0.551	B5-03822-P03-CH0	1397152	OK	0.693505	-0.0307952	-0.7197934	0	-92.11	-45.972	7.008	B5-03822-P03-CH1	1397152	OK	0.7829469	-0.6122971	-0.1099382	0	-98.314	-13.709	6.394	B5-03822-P04-CH0	1397152	OK	0.7951068	-0.289875	0.5327078	0	-123.526	-21.18	14.851	B5-03822-P04-CH1	1397152	OK	0.7869149	-0.6168614	0.015718	0	-110.699	-31.448	6.428	NA
1.11907084785134	B5-03822-P01-CH0	1397160	OK	0.1446379	0.1183654	0.122167	-0.9747537	151.843	-17.226	-273.824	B5-03822-P02-CH0	1397160	OK	0.6671428	0.1749258	-0.7241004	0	-80.449	-86.196	-1.043	B5-03822-P02-CH1	1397160	OK	0.690935	-0.0114428	-0.7228263	0	-81.71	-65.371	0.202	B5-03822-P03-CH0	1397160	OK	0.6934557	-0.031617	-0.7198052	0	-92.164	-45.936	6.912	B5-03822-P03-CH1	1397160	OK	0.7831902	-0.6119874	-0.1099292	0	-98.403	-13.581	6.301	B5-03822-P04-CH0	1397160	OK	0.7950525	-0.2895558	0.5329624	0	-123.444	-21.147	14.717	B5-03822-P04-CH1	1397160	OK	0.7871424	-0.6165599	0.0161458	0	-110.729	-31.486	6.677	NA
1.12906255185001	B5-03822-P01-CH0	1397168	OK	0.144665	0.1184762	0.1223344	-0.9747152	151.863	-17.171	-273.78	B5-03822-P02-CH0	1397168	OK	0.6655243	0.1781133	-0.7248124	0	-81.115	-86.643	-0.115	B5-03822-P02-CH1	1397168	OK	0.6924273	-0.0116508	-0.7213936	0	-81.478	-65.1	1.114	B5-03822-P03-CH0	1397168	OK	0.693239	-0.0318611	-0.7200032	0	-92.224	-45.828	7.027	B5-03822-P03-CH1	1397168	OK	0.7834537	-0.6116293	-0.1100449	0	-98.553	-13.389	6.311	B5-03822-P04-CH0	1397168	OK	0.7951713	-0.2890134	0.5330796	0	-123.475	-21.315	14.969	B5-03822-P04-CH1	1397168	OK	0.7876458	-0.6159372	0.0153453	0	-110.682	-31.062	6.732	NA
1.13905425584868	B5-03822-P01-CH0	1397176	OK	0.1442091	0.1185297	0.1212359	-0.9749135	151.832	-17.295	-273.725	B5-03822-P02-CH0	1397176	OK	0.6642029	0.1798682	-0.7255908	0	-81.503	-85.758	0.236	B5-03822-P02-CH1	1397176	OK	0.6924543	-0.0083649	-0.7214133	0	-81.848	-64.848	0.678	B5-03822-P03-CH0	1397176	OK	0.6930358	-0.0314615	-0.7202163	0	-92.239	-45.822	7.005	B5-03822-P03-CH1	1397176	OK	0.7828913	-0.6122799	-0.1104293	0	-98.653	-13.423	6.649	B5-03822-P04-CH0	1397176	OK	0.7946354	-0.2898492	0.5334248	0	-123.364	-21.28	14.691	B5-03822-P04-CH1	1397176	OK	0.7870803	-0.6166662	0.0150807	0	-110.79	-31.129	6.977	NA
1.14904595984735	B5-03822-P01-CH0	1397184	OK	0.1437507	0.1186644	0.1204115	-0.9750669	151.907	-17.467	-273.812	B5-03822-P02-CH0	1397184	OK	0.6638417	0.1834632	-0.725021	0	-81.821	-86.331	0.039	B5-03822-P02-CH1	1397184	OK	0.6939051	-0.0041685	-0.7200544	0	-81.434	-66.293	2.066	B5-03822-P03-CH0	1397184	OK	0.6927119	-0.0307843	-0.7205571	0	-92.338	-45.964	7.133	B5-03822-P03-CH1	1397184	OK	0.7821843	-0.6131445	-0.110641	0	-98.742	-13.732	6.826	B5-03822-P04-CH0	1397184	OK	0.794608	-0.2901964	0.5332768	0	-123.465	-21.4	14.972	B5-03822-P04-CH1	1397184	OK	0.7865524	-0.6173472	0.0147581	0	-110.689	-31.176	6.772	NA
1.15903766384603	B5-03822-P01-CH0	1397192	OK	0.1434486	0.1186154	0.1202142	-0.9751418	151.842	-17.469	-273.773	B5-03822-P02-CH0	1397192	OK	0.6641996	0.1856257	-0.7241423	0	-81.351	-85.874	-0.16	B5-03822-P02-CH1	1397192	OK	0.6962895	-0.004058	-0.7177496	0	-80.653	-67.256	-0.46	B5-03822-P03-CH0	1397192	OK	0.6925812	-0.0300078	-0.7207155	0	-92.28	-45.952	7.387	B5-03822-P03-CH1	1397192	OK	0.782026	-0.6133123	-0.1108299	0	-98.797	-13.652	7.019	B5-03822-P04-CH0	1397192	OK	0.7946416	-0.2905443	0.5330372	0	-123.42	-21.264	14.963	B5-03822-P04-CH1	1397192	OK	0.7865957	-0.6173078	0.0140822	0	-110.321	-30.772	6.251	NA
1.1690293678447	B5-03822-P01-CH0	1397200	OK	0.1434344	0.118769	0.119618	-0.9751985	151.873	-17.567	-273.772	B5-03822-P02-CH0	1397200	OK	0.6664375	0.177715	-0.7240707	0	-80.693	-85.827	0.423	B5-03822-P02-CH1	1397200	OK	0.6966113	0.0006931	-0.7174484	0	-80.402	-65.703	0.089	B5-03822-P03-CH0	1397200	OK	0.6925647	-0.0292216	-0.7207637	0	-92.063	-46.063	7.55	B5-03822-P03-CH1	1397200	OK	0.781383	-0.6141792	-0.1105641	0	-98.883	-13.938	7.115	B5-03822-P04-CH0	1397200	OK	0.7947085	-0.2905559	0.5329312	0	-123.548	-21.445	15.054	B5-03822-P04-CH1	1397200	OK	0.7861744	-0.6178449	0.0140542	0	-110.245	-30.842	6.033	NA
1.17902107184337	B5-03822-P01-CH0	1397208	OK	0.143065	0.1191191	0.1184452	-0.9753532	152.047	-17.716	-273.905	B5-03822-P02-CH0	1397208	OK	0.666074	0.18088	-0.7236214	0	-80.914	-86.064	0.629	B5-03822-P02-CH1	1397208	OK	0.6943029	0.0045221	-0.7196687	0	-81.639	-65.138	2.352	B5-03822-P03-CH0	1397208	OK	0.6919847	-0.0278795	-0.7213736	0	-92.204	-46.199	7.783	B5-03822-P03-CH1	1397208	OK	0.7805027	-0.615276	-0.1106839	0	-99.033	-14.119	7.342	B5-03822-P04-CH0	1397208	OK	0.794343	-0.2915713	0.5329216	0	-123.526	-21.513	15.118	B5-03822-P04-CH1	1397208	OK	0.7854701	-0.6187375	0.0141613	0	-110.495	-31.298	7.138	NA
1.18901277584204	B5-03822-P01-CH0	1397216	OK	0.1430303	0.1191575	0.1179849	-0.9754093	152.13	-17.797	-273.953	B5-03822-P02-CH0	1397216	OK	0.6656679	0.1832474	-0.7233994	0	-81.128	-86.343	0.725	B5-03822-P02-CH1	1397216	OK	0.6943867	0.0056106	-0.7195802	0	-81.974	-65.446	0.332	B5-03822-P03-CH0	1397216	OK	0.6915415	-0.0266965	-0.7218433	0	-92.311	-46.19	7.824	B5-03822-P03-CH1	1397216	OK	0.7803131	-0.6155248	-0.1106373	0	-99.08	-13.995	7.06	B5-03822-P04-CH0	1397216	OK	0.7940015	-0.2920443	0.5331714	0	-123.379	-21.518	15.106	B5-03822-P04-CH1	1397216	OK	0.7852503	-0.6190238	0.0138341	0	-110.467	-31.306	7.149	NA
1.19900447984072	B5-03822-P01-CH0	1397224	OK	0.1430051	0.1192275	0.1180613	-0.9753952	152.199	-17.757	-274.022	B5-03822-P02-CH0	1397224	OK	0.6651573	0.1853656	-0.7233294	0	-81.296	-86.486	0.86	B5-03822-P02-CH1	1397224	OK	0.695626	0.0070603	-0.7183694	0	-81.383	-65.133	2.527	B5-03822-P03-CH0	1397224	OK	0.6912195	-0.0253198	-0.7222011	0	-92.354	-46.102	7.877	B5-03822-P03-CH1	1397224	OK	0.7806212	-0.6151074	-0.1107858	0	-99.019	-13.728	7.07	B5-03822-P04-CH0	1397224	OK	0.7938672	-0.2926461	0.5330414	0	-123.295	-21.363	14.911	B5-03822-P04-CH1	1397224	OK	0.785144	-0.6191613	0.0137168	0	-110.703	-31.487	7.447	NA
1.20899618383939	B5-03822-P01-CH0	1397232	OK	0.1431229	0.1193365	0.1177234	-0.9754055	152.28	-17.885	-273.995	B5-03822-P02-CH0	1397232	OK	0.6649765	0.1872336	-0.7230144	0	-81.351	-86.796	0.844	B5-03822-P02-CH1	1397232	OK	0.6981071	0.0095973	-0.715929	0	-80.293	-65.79	0.523	B5-03822-P03-CH0	1397232	OK	0.6910162	-0.0243647	-0.7224285	0	-92.398	-46.114	7.807	B5-03822-P03-CH1	1397232	OK	0.7803312	-0.6154788	-0.1107657	0	-99.034	-14.012	7.229	B5-03822-P04-CH0	1397232	OK	0.7938735	-0.2927114	0.5329962	0	-123.371	-21.566	15.004	B5-03822-P04-CH1	1397232	OK	0.7851751	-0.6191241	0.0136126	0	-110.83	-31.587	7.776	NA
1.21898788783806	B5-03822-P01-CH0	1397240	OK	0.1429737	0.1195193	0.1174759	-0.9754348	152.39	-17.867	-274.092	B5-03822-P02-CH0	1397240	OK	0.6646282	0.1892853	-0.7228004	0	-81.557	-86.881	1.075	B5-03822-P02-CH1	1397240	OK	0.6950514	0.0080483	-0.718915	0	-82.953	-67.421	1.555	B5-03822-P03-CH0	1397240	OK	0.69087	-0.0229812	-0.7226137	0	-92.512	-45.996	7.858	B5-03822-P03-CH1	1397240	OK	0.779906	-0.6159789	-0.11098	0	-99.027	-14.25	7.446	B5-03822-P04-CH0	1397240	OK	0.7938185	-0.29347	0.5326608	0	-123.442	-21.502	15.001	B5-03822-P04-CH1	1397240	OK	0.7849183	-0.6194599	0.0131417	0	-110.839	-31.594	7.729	NA
1.22897959183673	B5-03822-P01-CH0	1397248	OK	0.1432927	0.1191099	0.1185713	-0.9753055	152.283	-17.793	-274.121	B5-03822-P02-CH0	1397248	OK	0.6644551	0.1904508	-0.7226534	0	-81.513	-86.865	0.687	B5-03822-P02-CH1	1397248	OK	0.6992726	0.0089242	-0.7147994	0	-80.613	-66.798	1.205	B5-03822-P03-CH0	1397248	OK	0.6912897	-0.0220521	-0.7222412	0	-92.336	-45.9	7.697	B5-03822-P03-CH1	1397248	OK	0.7806377	-0.6151183	-0.1106085	0	-98.922	-14.179	7.204	B5-03822-P04-CH0	1397248	OK	0.7939944	-0.293364	0.5324571	0	-123.265	-21.219	14.76	B5-03822-P04-CH1	1397248	OK	0.7853023	-0.6189554	0.0139445	0	-110.778	-31.842	7.499	NA
