Wav.Time	B5.03822.P01.CH0	Frame	State	Q0	Qx	Qy	Qz	Tx	Ty	Tz	B5.03822.P02.CH0	Frame.1	State.1	Q0.1	Qx.1	Qy.1	Qz.1	Tx.1	Ty.1	Tz.1	B5.03822.P02.CH1	Frame.2	State.2	Q0.2	Qx.2	Qy.2	Qz.2	Tx.2	Ty.2	Tz.2	B5.03822.P03.CH0	Frame.3	State.3	Q0.3	Qx.3	Qy.3	Qz.3	Tx.3	Ty.3	Tz.3	B5.03822.P03.CH1	Frame.4	State.4	Q0.4	Qx.4	Qy.4	Qz.4	Tx.4	Ty.4	Tz.4	B5.03822.P04.CH0	Frame.5	State.5	Q0.5	Qx.5	Qy.5	Qz.5	Tx.5	Ty.5	Tz.5	B5.03822.P04.CH1	Frame.6	State.6	Q0.6	Qx.6	Qy.6	Qz.6	Tx.6	Ty.6	Tz.6	X
0	B5-03822-P01-CH0	263696	OK	0.1904429	0.1137046	0.1284618	-0.9665921	156.727	-7.124	-242.556	B5-03822-P02-CH0	263696	OK	0.6072547	0.5335959	-0.5886571	0	-84.983	-103.164	-2.453	B5-03822-P02-CH1	263696	OK	0.786918	-0.1383199	-0.6013548	0	-83.685	-79.209	-2.429	B5-03822-P03-CH0	263696	OK	0.7350884	-0.1540812	-0.6602303	0	-94.986	-58.486	-2.043	B5-03822-P03-CH1	263696	OK	0.7589102	-0.6453247	0.087243	0	-96.234	-12.065	-9.413	B5-03822-P04-CH0	263696	OK	0.7927982	-0.3036544	0.5284553	0	-124.679	-35.246	6.61	B5-03822-P04-CH1	263696	OK	0.8047442	-0.5892022	0.0723016	0	-109.227	-44.349	2.662	NA
0.00999198332531666	B5-03822-P01-CH0	263704	OK	0.1905323	0.1137502	0.128442	-0.9665718	156.776	-7.085	-242.528	B5-03822-P02-CH0	263704	OK	0.6085702	0.5220967	-0.5975428	0	-85.468	-103.374	-1.969	B5-03822-P02-CH1	263704	OK	0.7912518	-0.139609	-0.5953402	0	-84.388	-79.478	-2.888	B5-03822-P03-CH0	263704	OK	0.7392812	-0.1488129	-0.6567481	0	-94.826	-58.765	-2.097	B5-03822-P03-CH1	263704	OK	0.7590092	-0.6451969	0.0873269	0	-96.231	-11.978	-9.456	B5-03822-P04-CH0	263704	OK	0.7926519	-0.3028385	0.5291425	0	-124.8	-35.415	6.706	B5-03822-P04-CH1	263704	OK	0.8047574	-0.5891245	0.0727868	0	-109.309	-44.441	2.723	NA
0.0199839666506333	B5-03822-P01-CH0	263712	OK	0.1905555	0.1134611	0.1283666	-0.9666112	156.719	-7.068	-242.587	B5-03822-P02-CH0	263712	OK	0.6121883	0.5080939	-0.6058598	0	-84.789	-103.719	-2.168	B5-03822-P02-CH1	263712	OK	0.7971957	-0.1418371	-0.586823	0	-84.471	-79.673	-2.128	B5-03822-P03-CH0	263712	OK	0.742791	-0.1433722	-0.6539923	0	-95.38	-59.602	-1.787	B5-03822-P03-CH1	263712	OK	0.7590951	-0.6451291	0.087081	0	-96.01	-11.738	-9.769	B5-03822-P04-CH0	263712	OK	0.7923679	-0.301717	0.5302075	0	-124.92	-35.625	6.741	B5-03822-P04-CH1	263712	OK	0.804836	-0.5889715	0.0731543	0	-109.296	-44.472	2.836	NA
0.02997594997595	B5-03822-P01-CH0	263720	OK	0.1907232	0.1135072	0.1283059	-0.9665808	156.837	-7.004	-242.722	B5-03822-P02-CH0	263720	OK	0.6139286	0.4927928	-0.6166417	0	-84.656	-103.393	-2.133	B5-03822-P02-CH1	263720	OK	0.8024168	-0.144223	-0.5790743	0	-85.126	-80.025	-1.537	B5-03822-P03-CH0	263720	OK	0.7455072	-0.1363752	-0.6523962	0	-96.242	-60.11	-1.076	B5-03822-P03-CH1	263720	OK	0.7589564	-0.6452425	0.0874491	0	-95.982	-11.79	-9.826	B5-03822-P04-CH0	263720	OK	0.7907363	-0.2936594	0.5371223	0	-124.82	-35.809	7.547	B5-03822-P04-CH1	263720	OK	0.8047976	-0.5889253	0.0739449	0	-109.434	-44.675	3.054	NA
0.0399679333012666	B5-03822-P01-CH0	263728	OK	0.1903007	0.1137102	0.1269748	-0.9668159	156.87	-7.102	-242.641	B5-03822-P02-CH0	263728	OK	0.616766	0.4789497	-0.6246654	0	-85.015	-103.895	-2.068	B5-03822-P02-CH1	263728	OK	0.8072326	-0.1471075	-0.5716072	0	-85.783	-80.57	-1.361	B5-03822-P03-CH0	263728	OK	0.7488772	-0.1301521	-0.6498026	0	-96.546	-60.603	-0.365	B5-03822-P03-CH1	263728	OK	0.7584487	-0.6459264	0.0868024	0	-95.813	-11.447	-10.243	B5-03822-P04-CH0	263728	OK	0.7898429	-0.2905797	0.5401034	0	-125.707	-36.988	7.034	B5-03822-P04-CH1	263728	OK	0.8040033	-0.5899625	0.074316	0	-109.54	-44.784	3.048	NA
0.0499599166265833	B5-03822-P01-CH0	263736	OK	0.1902448	0.113709	0.1266508	-0.9668696	156.849	-7.093	-242.506	B5-03822-P02-CH0	263736	OK	0.6190215	0.4648176	-0.6330537	0	-85.015	-104.208	-2.709	B5-03822-P02-CH1	263736	OK	0.8124147	-0.1495095	-0.5635861	0	-86.123	-81.001	-1.562	B5-03822-P03-CH0	263736	OK	0.7518111	-0.1254352	-0.6473377	0	-97.359	-60.932	-1.874	B5-03822-P03-CH1	263736	OK	0.75828	-0.6460999	0.0869849	0	-95.693	-11.362	-10.545	B5-03822-P04-CH0	263736	OK	0.789404	-0.2872135	0.5425401	0	-125.396	-36.269	7.517	B5-03822-P04-CH1	263736	OK	0.8038532	-0.5900768	0.0750296	0	-109.581	-44.804	2.83	NA
0.0599518999519	B5-03822-P01-CH0	263744	OK	0.19	0.113473	0.1263104	-0.9669899	156.75	-7.103	-242.473	B5-03822-P02-CH0	263744	OK	0.6207587	0.449112	-0.6426173	0	-84.776	-103.658	-2.572	B5-03822-P02-CH1	263744	OK	0.8159332	-0.1529334	-0.5575522	0	-87.404	-81.395	-1.574	B5-03822-P03-CH0	263744	OK	0.7560947	-0.1187607	-0.6435967	0	-96.815	-61.191	-0.623	B5-03822-P03-CH1	263744	OK	0.7580184	-0.6463474	0.0874257	0	-95.616	-11.484	-10.406	B5-03822-P04-CH0	263744	OK	0.7888978	-0.2827713	0.5456011	0	-126.333	-37.526	7.152	B5-03822-P04-CH1	263744	OK	0.803586	-0.5903387	0.0758268	0	-109.585	-44.865	2.548	NA
0.0699438832772166	B5-03822-P01-CH0	263752	OK	0.1902633	0.1131625	0.126705	-0.9669229	156.669	-7.053	-242.465	B5-03822-P02-CH0	263752	OK	0.6235829	0.4315372	-0.6518589	0	-85.09	-104.198	-2.938	B5-03822-P02-CH1	263752	OK	0.8233751	-0.1579197	-0.5450825	0	-87.378	-81.538	-0.451	B5-03822-P03-CH0	263752	OK	0.7578548	-0.1118213	-0.6427691	0	-97.933	-61.837	-0.834	B5-03822-P03-CH1	263752	OK	0.7584699	-0.6457549	0.0878868	0	-95.479	-11.33	-10.634	B5-03822-P04-CH0	263752	OK	0.7885024	-0.2787651	0.5482281	0	-126.164	-37.243	6.735	B5-03822-P04-CH1	263752	OK	0.8039785	-0.5896278	0.0771849	0	-109.729	-44.967	2.52	NA
0.0799358666025333	B5-03822-P01-CH0	263760	OK	0.1905911	0.1132721	0.12705	-0.9668003	156.783	-6.991	-242.476	B5-03822-P02-CH0	263760	OK	0.6271838	0.4112667	-0.661438	0	-85.034	-104.435	-2.938	B5-03822-P02-CH1	263760	OK	0.830036	-0.1650613	-0.5327242	0	-88.235	-82.491	-0.34	B5-03822-P03-CH0	263760	OK	0.7597928	-0.105423	-0.6415613	0	-99.056	-62.835	0.412	B5-03822-P03-CH1	263760	OK	0.758897	-0.6452009	0.088268	0	-95.453	-11.254	-10.719	B5-03822-P04-CH0	263760	OK	0.7879796	-0.2739745	0.5513856	0	-126.678	-38.027	6.451	B5-03822-P04-CH1	263760	OK	0.8041537	-0.5891266	0.0791622	0	-109.988	-45.326	2.564	NA
0.0899278499278499	B5-03822-P01-CH0	263768	OK	0.1906715	0.1133236	0.1270203	-0.9667823	156.775	-6.928	-242.371	B5-03822-P02-CH0	263768	OK	0.6333027	0.3880982	-0.6695577	0	-83.891	-104.765	-3.801	B5-03822-P02-CH1	263768	OK	0.8351774	-0.1705408	-0.5228714	0	-89.295	-82.99	-0.687	B5-03822-P03-CH0	263768	OK	0.7604727	-0.0964093	-0.6421733	0	-99.439	-62.898	-0.557	B5-03822-P03-CH1	263768	OK	0.7588579	-0.6450926	0.0893884	0	-95.564	-11.52	-10.301	B5-03822-P04-CH0	263768	OK	0.7877171	-0.2689375	0.5542331	0	-127.045	-38.165	6.993	B5-03822-P04-CH1	263768	OK	0.804225	-0.5888029	0.0808289	0	-110.216	-45.436	2.386	NA
0.0999198332531666	B5-03822-P01-CH0	263776	OK	0.1911439	0.1130753	0.1277481	-0.9666222	156.726	-6.841	-242.317	B5-03822-P02-CH0	263776	OK	0.6382058	0.3640556	-0.6783486	0	-83.406	-104.924	-4.094	B5-03822-P02-CH1	263776	OK	0.8410609	-0.1752199	-0.5117759	0	-89.543	-83.347	-0.288	B5-03822-P03-CH0	263776	OK	0.7602777	-0.0888712	-0.6434902	0	-99.428	-63.339	-0.977	B5-03822-P03-CH1	263776	OK	0.7594863	-0.6442215	0.0903283	0	-95.53	-11.517	-10.343	B5-03822-P04-CH0	263776	OK	0.7870354	-0.2654405	0.5568812	0	-126.9	-37.465	6.065	B5-03822-P04-CH1	263776	OK	0.8047818	-0.5877537	0.0828965	0	-110.346	-45.6	2.168	NA
0.109911816578483	B5-03822-P01-CH0	263784	OK	0.1910987	0.1128862	0.1275814	-0.9666752	156.626	-6.825	-242.24	B5-03822-P02-CH0	263784	OK	0.6447068	0.3400215	-0.6846448	0	-82.939	-105.204	-4.667	B5-03822-P02-CH1	263784	OK	0.846263	-0.1749632	-0.5032164	0	-90.071	-83.131	0.798	B5-03822-P03-CH0	263784	OK	0.7617584	-0.0829343	-0.6425309	0	-98.98	-63.787	-1.705	B5-03822-P03-CH1	263784	OK	0.7596277	-0.644005	0.0906827	0	-95.359	-11.312	-10.663	B5-03822-P04-CH0	263784	OK	0.7865483	-0.2609513	0.559684	0	-127.12	-38.207	6.231	B5-03822-P04-CH1	263784	OK	0.8054575	-0.5853963	0.0924629	0	-111.469	-46.624	2.514	NA
0.1199037999038	B5-03822-P01-CH0	263792	OK	0.1909364	0.1129034	0.1274971	-0.9667164	156.565	-6.769	-242.13	B5-03822-P02-CH0	263792	OK	0.6501863	0.3160808	-0.6909057	0	-83.389	-104.906	-4.685	B5-03822-P02-CH1	263792	OK	0.8487492	-0.1761613	-0.49859	0	-90.857	-83.392	0.813	B5-03822-P03-CH0	263792	OK	0.7611018	-0.0789013	-0.6438157	0	-99.423	-63.777	-0.692	B5-03822-P03-CH1	263792	OK	0.7598267	-0.6436742	0.0913621	0	-95.367	-11.238	-10.514	B5-03822-P04-CH0	263792	OK	0.7874024	-0.2550791	0.5611882	0	-127.896	-38.901	6.856	B5-03822-P04-CH1	263792	OK	0.8052381	-0.5854913	0.0937634	0	-111.521	-46.92	2.083	NA
0.129895783229117	B5-03822-P01-CH0	263800	OK	0.1910664	0.1127667	0.1274918	-0.9667074	156.523	-6.763	-242.107	B5-03822-P02-CH0	263800	OK	0.6577783	0.2922007	-0.6942237	0	-83.478	-104.334	-4.859	B5-03822-P02-CH1	263800	OK	0.8495876	-0.1743258	-0.4978066	0	-91.533	-83.842	0.554	B5-03822-P03-CH0	263800	OK	0.7575355	-0.0748551	-0.648488	0	-99.545	-63.637	-0.573	B5-03822-P03-CH1	263800	OK	0.7600686	-0.643231	0.0924637	0	-95.335	-11.311	-10.39	B5-03822-P04-CH0	263800	OK	0.7873267	-0.2513585	0.5629703	0	-127.905	-38.79	6.368	B5-03822-P04-CH1	263800	OK	0.8048738	-0.5856497	0.0958776	0	-111.147	-47.329	1.731	NA
0.139887766554433	B5-03822-P01-CH0	263808	OK	0.1919929	0.1124736	0.1289927	-0.9663588	156.533	-6.614	-242.209	B5-03822-P02-CH0	263808	OK	0.6677325	0.2674258	-0.6947063	0	-83.002	-104.127	-5.388	B5-03822-P02-CH1	263808	OK	0.849435	-0.1700197	-0.4995532	0	-91.883	-83.935	0.01	B5-03822-P03-CH0	263808	OK	0.7516577	-0.0705867	-0.6557654	0	-99.04	-63.876	-1.288	B5-03822-P03-CH1	263808	OK	0.7611284	-0.6416899	0.0944336	0	-95.364	-11.583	-10.055	B5-03822-P04-CH0	263808	OK	0.7877529	-0.2477913	0.5639547	0	-127.495	-38.044	5.702	B5-03822-P04-CH1	263808	OK	0.8058791	-0.5851065	0.090605	0	-110.897	-46.366	1.685	NA
0.14987974987975	B5-03822-P01-CH0	263816	OK	0.1921711	0.1123765	0.1291335	-0.9663159	156.536	-6.692	-242.209	B5-03822-P02-CH0	263816	OK	0.6782917	0.2465148	-0.6922072	0	-83.592	-104.562	-5.184	B5-03822-P02-CH1	263816	OK	0.8474585	-0.1619496	-0.5055556	0	-92.189	-83.405	1.256	B5-03822-P03-CH0	263816	OK	0.742927	-0.0622587	-0.6664708	0	-98.842	-63.653	-1.58	B5-03822-P03-CH1	263816	OK	0.7613809	-0.6412071	0.0956691	0	-95.415	-11.785	-9.977	B5-03822-P04-CH0	263816	OK	0.7881692	-0.2440138	0.5650191	0	-127.588	-38.924	6.083	B5-03822-P04-CH1	263816	OK	0.8062101	-0.5843909	0.0922628	0	-111.098	-46.676	1.84	NA
0.159871733205067	B5-03822-P01-CH0	263824	OK	0.1921439	0.1126384	0.1290395	-0.9663033	156.68	-6.655	-242.289	B5-03822-P02-CH0	263824	OK	0.6901369	0.2275701	-0.6869665	0	-83.287	-103.758	-5.68	B5-03822-P02-CH1	263824	OK	0.8427218	-0.1547507	-0.5156279	0	-92.99	-83.191	0.66	B5-03822-P03-CH0	263824	OK	0.7337927	-0.0470209	-0.6777443	0	-98.309	-62.867	-1.333	B5-03822-P03-CH1	263824	OK	0.7613863	-0.6410547	0.0966427	0	-95.516	-11.959	-9.684	B5-03822-P04-CH0	263824	OK	0.7886875	-0.2409475	0.5656115	0	-127.703	-39.19	6.661	B5-03822-P04-CH1	263824	OK	0.8064168	-0.5839403	0.0933038	0	-111.476	-46.937	2.456	NA
0.169863716530383	B5-03822-P01-CH0	263832	OK	0.1919482	0.1127311	0.128882	-0.9663524	156.696	-6.715	-242.259	B5-03822-P02-CH0	263832	OK	0.7003171	0.2127319	-0.6813965	0	-84.072	-103.923	-4.832	B5-03822-P02-CH1	263832	OK	0.8383186	-0.1464092	-0.5251536	0	-93.252	-82.979	-0.133	B5-03822-P03-CH0	263832	OK	0.7231382	-0.0226107	-0.6903332	0	-98.047	-61.546	-1.668	B5-03822-P03-CH1	263832	OK	0.7613454	-0.64097	0.0975225	0	-95.496	-12.186	-9.535	B5-03822-P04-CH0	263832	OK	0.7885254	-0.2390258	0.5666518	0	-126.881	-38.237	6.664	B5-03822-P04-CH1	263832	OK	0.8063904	-0.5838687	0.093978	0	-111.54	-47.183	2.707	NA
0.1798556998557	B5-03822-P01-CH0	263840	OK	0.1910147	0.113063	0.1273694	-0.9666991	156.686	-6.8	-242.166	B5-03822-P02-CH0	263840	OK	0.7110094	0.2029072	-0.6732714	0	-83.654	-102.553	-4.828	B5-03822-P02-CH1	263840	OK	0.8347801	-0.1379749	-0.5330151	0	-92.965	-81.506	1.088	B5-03822-P03-CH0	263840	OK	0.7123293	0.0125969	-0.7017323	0	-97.556	-59.982	-1.399	B5-03822-P03-CH1	263840	OK	0.7600994	-0.6422466	0.0988344	0	-95.866	-12.861	-8.689	B5-03822-P04-CH0	263840	OK	0.7890018	-0.2365785	0.5670156	0	-126.827	-38.656	7.578	B5-03822-P04-CH1	263840	OK	0.8056309	-0.5850199	0.0933304	0	-111.632	-47.101	2.846	NA
0.189847683181017	B5-03822-P01-CH0	263848	OK	0.1911337	0.1130745	0.1279121	-0.9666026	156.677	-6.809	-242.119	B5-03822-P02-CH0	263848	OK	0.7182604	0.1931813	-0.6684183	0	-83.149	-101.463	-5.457	B5-03822-P02-CH1	263848	OK	0.8326537	-0.1312375	-0.5380191	0	-92.672	-80.112	0.39	B5-03822-P03-CH0	263848	OK	0.704342	0.0480789	-0.7082307	0	-96.947	-58.214	-1.018	B5-03822-P03-CH1	263848	OK	0.7608184	-0.6414113	0.0987263	0	-95.584	-12.548	-9.283	B5-03822-P04-CH0	263848	OK	0.7906107	-0.2315017	0.5668701	0	-127.098	-38.799	7.688	B5-03822-P04-CH1	263848	OK	0.8060823	-0.5843969	0.0933358	0	-111.629	-47.289	3.128	NA
0.199839666506333	B5-03822-P01-CH0	263856	OK	0.1904734	0.1134705	0.1268719	-0.9668236	156.708	-6.9	-242.056	B5-03822-P02-CH0	263856	OK	0.7222945	0.1822334	-0.6671444	0	-83.268	-100.909	-5.117	B5-03822-P02-CH1	263856	OK	0.8320327	-0.131296	-0.5389647	0	-92.943	-79.58	0.766	B5-03822-P03-CH0	263856	OK	0.7011148	0.0848204	-0.7079856	0	-96.601	-56.666	-1.178	B5-03822-P03-CH1	263856	OK	0.759998	-0.6423192	0.0991414	0	-95.738	-12.94	-8.978	B5-03822-P04-CH0	263856	OK	0.7906821	-0.2303808	0.567227	0	-126.219	-38.193	7.537	B5-03822-P04-CH1	263856	OK	0.8055199	-0.5852984	0.0925389	0	-111.599	-47.342	3.444	NA
0.20983164983165	B5-03822-P01-CH0	263864	OK	0.1904041	0.1136863	0.1272903	-0.9667569	156.781	-6.85	-242.066	B5-03822-P02-CH0	263864	OK	0.7245311	0.1748888	-0.6666847	0	-82.619	-99.019	-4.517	B5-03822-P02-CH1	263864	OK	0.830709	-0.1338877	-0.5403671	0	-93.848	-78.996	0.976	B5-03822-P03-CH0	263864	OK	0.7003361	0.118489	-0.7039103	0	-97.767	-57.261	0.97	B5-03822-P03-CH1	263864	OK	0.7601936	-0.642023	0.0995601	0	-95.968	-13.243	-8.559	B5-03822-P04-CH0	263864	OK	0.7917994	-0.2259118	0.567466	0	-126.635	-39.166	7.839	B5-03822-P04-CH1	263864	OK	0.8058741	-0.5849266	0.091803	0	-111.655	-47.372	3.763	NA
0.219823633156966	B5-03822-P01-CH0	263872	OK	0.1906047	0.113739	0.127975	-0.9666208	156.826	-6.809	-242.139	B5-03822-P02-CH0	263872	OK	0.7249357	0.174008	-0.6664754	0	-82.449	-98.711	-4.63	B5-03822-P02-CH1	263872	OK	0.831302	-0.1339058	-0.5394499	0	-93.416	-77.98	1.48	B5-03822-P03-CH0	263872	OK	0.7046703	0.1379748	-0.6959905	0	-96.775	-54.904	-0.061	B5-03822-P03-CH1	263872	OK	0.7604086	-0.6417331	0.0997864	0	-96.147	-13.648	-8.179	B5-03822-P04-CH0	263872	OK	0.7924472	-0.2241527	0.5672592	0	-126.039	-38.277	8.331	B5-03822-P04-CH1	263872	OK	0.8064202	-0.584283	0.0911036	0	-111.623	-47.387	4.1	NA
0.229815616482283	B5-03822-P01-CH0	263880	OK	0.1904249	0.1136262	0.1284446	-0.9666072	156.735	-6.806	-242.133	B5-03822-P02-CH0	263880	OK	0.7238825	0.1787584	-0.6663629	0	-82.176	-98.535	-4.074	B5-03822-P02-CH1	263880	OK	0.8308595	-0.1347375	-0.5399243	0	-93.35	-77.302	0.865	B5-03822-P03-CH0	263880	OK	0.7036638	0.1517792	-0.6941328	0	-97.694	-54.296	0.443	B5-03822-P03-CH1	263880	OK	0.7602153	-0.6419719	0.0997232	0	-96.47	-14.275	-7.39	B5-03822-P04-CH0	263880	OK	0.7922008	-0.2237238	0.5677724	0	-125.566	-37.456	7.387	B5-03822-P04-CH1	263880	OK	0.8067462	-0.5840294	0.0898348	0	-111.478	-47.271	4.202	NA
0.2398075998076	B5-03822-P01-CH0	263888	OK	0.1898855	0.1137457	0.1282846	-0.9667205	156.649	-6.809	-241.962	B5-03822-P02-CH0	263888	OK	0.7203251	0.1880414	-0.6676617	0	-82.404	-97.443	-3.971	B5-03822-P02-CH1	263888	OK	0.8300454	-0.1352196	-0.5410548	0	-93.095	-76.335	0.321	B5-03822-P03-CH0	263888	OK	0.704742	0.1519762	-0.6929949	0	-97.43	-53.703	-0.425	B5-03822-P03-CH1	263888	OK	0.7597533	-0.6447419	0.0841597	0	-96.684	-13.187	-8.926	B5-03822-P04-CH0	263888	OK	0.7915243	-0.2232568	0.5688986	0	-124.78	-36.507	6.548	B5-03822-P04-CH1	263888	OK	0.8066422	-0.5844442	0.0880527	0	-111.393	-46.998	4.176	NA
0.249799583132916	B5-03822-P01-CH0	263896	OK	0.1892438	0.1139062	0.12753	-0.9669272	156.592	-6.832	-241.911	B5-03822-P02-CH0	263896	OK	0.7152404	0.199913	-0.669676	0	-83.215	-97.171	-3.755	B5-03822-P02-CH1	263896	OK	0.8277018	-0.1420781	-0.5428845	0	-92.936	-76.517	1.009	B5-03822-P03-CH0	263896	OK	0.7066398	0.1415576	-0.6932688	0	-96.473	-52.252	-0.325	B5-03822-P03-CH1	263896	OK	0.7587973	-0.6468735	0.0760347	0	-95.853	-12.258	-9.871	B5-03822-P04-CH0	263896	OK	0.7918427	-0.2206779	0.5694615	0	-125.1	-36.727	7.444	B5-03822-P04-CH1	263896	OK	0.806077	-0.5854991	0.086201	0	-111.169	-46.783	4.267	NA
0.259791566458233	B5-03822-P01-CH0	263904	OK	0.1891946	0.1138964	0.1278542	-0.9668952	156.44	-6.785	-241.7	B5-03822-P02-CH0	263904	OK	0.7112695	0.2145337	-0.669381	0	-82.691	-97.229	-4.38	B5-03822-P02-CH1	263904	OK	0.8240915	-0.1494177	-0.5463951	0	-92.202	-75.84	0.41	B5-03822-P03-CH0	263904	OK	0.7057648	0.1193688	-0.6983174	0	-97.137	-52.154	-0.58	B5-03822-P03-CH1	263904	OK	0.7567776	-0.6493737	0.0748433	0	-97.03	-14.319	-7.009	B5-03822-P04-CH0	263904	OK	0.7918366	-0.2166135	0.5710283	0	-125.112	-36.547	7.036	B5-03822-P04-CH1	263904	OK	0.806135	-0.5856076	0.084912	0	-110.869	-46.531	3.958	NA
0.26978354978355	B5-03822-P01-CH0	263912	OK	0.1893355	0.1138804	0.1283292	-0.9668066	156.375	-6.707	-241.687	B5-03822-P02-CH0	263912	OK	0.7062229	0.2311659	-0.6691873	0	-82.17	-97.799	-5.194	B5-03822-P02-CH1	263912	OK	0.8160678	-0.1616778	-0.5548816	0	-91.376	-75.879	0.857	B5-03822-P03-CH0	263912	OK	0.7044969	0.0848215	-0.7046201	0	-97.247	-53.456	-2.269	B5-03822-P03-CH1	263912	OK	0.7555504	-0.6513185	0.0701984	0	-97.166	-14.807	-6.193	B5-03822-P04-CH0	263912	OK	0.7924073	-0.2129945	0.5715978	0	-125.006	-36.285	7.617	B5-03822-P04-CH1	263912	OK	0.8064471	-0.5853441	0.0837578	0	-110.685	-46.258	3.895	NA
0.279775533108866	B5-03822-P01-CH0	263920	OK	0.1900686	0.1135639	0.1302605	-0.9664416	156.341	-6.549	-241.751	B5-03822-P02-CH0	263920	OK	0.6977948	0.250349	-0.6711243	0	-82.064	-97.355	-5.799	B5-03822-P02-CH1	263920	OK	0.8050051	-0.1734248	-0.5673541	0	-88.237	-74.749	-1.507	B5-03822-P03-CH0	263920	OK	0.6997999	0.0322112	-0.7136123	0	-96.27	-53.277	-1.722	B5-03822-P03-CH1	263920	OK	0.7568404	-0.6504397	0.064194	0	-97.365	-14.324	-5.998	B5-03822-P04-CH0	263920	OK	0.7936962	-0.2063408	0.5722497	0	-125.034	-35.938	7.775	B5-03822-P04-CH1	263920	OK	0.8075322	-0.5839152	0.0832757	0	-110.468	-46.139	3.779	NA
0.289767516434183	B5-03822-P01-CH0	263928	OK	0.1900073	0.1133535	0.1305158	-0.9664439	156.248	-6.502	-241.875	B5-03822-P02-CH0	263928	OK	0.6856276	0.2742209	-0.6743276	0	-82.802	-96.703	-4.705	B5-03822-P02-CH1	263928	OK	0.7866306	-0.1810165	-0.5902926	0	-85.223	-73.649	-3.781	B5-03822-P03-CH0	263928	OK	0.7001463	-0.0499302	-0.7122515	0	-93.362	-50.905	-1.219	B5-03822-P03-CH1	263928	OK	0.7562676	-0.6515628	0.0593736	0	-97.907	-14.829	-4.784	B5-03822-P04-CH0	263928	OK	0.793714	-0.2020076	0.5737691	0	-125.377	-36.792	7.006	B5-03822-P04-CH1	263928	OK	0.8076162	-0.5839385	0.082291	0	-110.285	-45.915	3.769	NA
0.2997594997595	B5-03822-P01-CH0	263936	OK	0.1901282	0.1132635	0.1309941	-0.966366	156.244	-6.432	-242.004	B5-03822-P02-CH0	263936	OK	0.6751779	0.2962486	-0.6755528	0	-82.094	-96.668	-4.673	B5-03822-P02-CH1	263936	OK	0.7655791	-0.1854426	-0.6160355	0	-82.644	-73.745	-4.069	B5-03822-P03-CH0	263936	OK	0.7129498	-0.1354135	-0.6880158	0	-91.757	-53.88	-0.211	B5-03822-P03-CH1	263936	OK	0.7561167	-0.6524688	0.0507149	0	-97.166	-13.239	-7.29	B5-03822-P04-CH0	263936	OK	0.7934384	-0.1987044	0.5753017	0	-124.336	-36.086	7.839	B5-03822-P04-CH1	263936	OK	0.8078563	-0.5837285	0.0814201	0	-110.115	-45.732	3.837	NA
0.309751483084816	B5-03822-P01-CH0	263944	OK	0.1901884	0.1129894	0.1314565	-0.9663234	156.121	-6.485	-241.998	B5-03822-P02-CH0	263944	OK	0.6648269	0.315201	-0.6772397	0	-81.428	-96.603	-4.739	B5-03822-P02-CH1	263944	OK	0.7473197	-0.1850005	-0.6381913	0	-80.469	-73.955	-4.373	B5-03822-P03-CH0	263944	OK	0.723772	-0.1894114	-0.6635341	0	-94.503	-54.071	-2.933	B5-03822-P03-CH1	263944	OK	0.7573403	-0.6516033	0.0429982	0	-96.993	-11.294	-8.561	B5-03822-P04-CH0	263944	OK	0.7936636	-0.1962604	0.5758297	0	-124.419	-36.059	7.652	B5-03822-P04-CH1	263944	OK	0.8079404	-0.5836912	0.0808512	0	-109.886	-45.676	3.501	NA
0.319743466410133	B5-03822-P01-CH0	263952	OK	0.1897907	0.1130507	0.1309138	-0.9664681	156.103	-6.544	-242.016	B5-03822-P02-CH0	263952	OK	0.6550049	0.3323256	-0.6786223	0	-80.887	-97.25	-4.831	B5-03822-P02-CH1	263952	OK	0.7336978	-0.1829128	-0.6543932	0	-78.923	-74.018	-3.726	B5-03822-P03-CH0	263952	OK	0.7362476	-0.2237182	-0.6386624	0	-93.175	-56.274	-0.631	B5-03822-P03-CH1	263952	OK	0.7562167	-0.6531487	0.0391554	0	-98.156	-11.936	-6.639	B5-03822-P04-CH0	263952	OK	0.7926023	-0.1951344	0.5776713	0	-123.773	-35.153	7.615	B5-03822-P04-CH1	263952	OK	0.8074868	-0.5844292	0.0800479	0	-109.781	-45.555	3.421	NA
0.32973544973545	B5-03822-P01-CH0	263960	OK	0.1894236	0.1133701	0.1301559	-0.9666051	156.128	-6.57	-241.934	B5-03822-P02-CH0	263960	OK	0.642511	0.3495341	-0.6819132	0	-81.362	-98.213	-4.184	B5-03822-P02-CH1	263960	OK	0.7232946	-0.1864654	-0.6648877	0	-77.407	-74.168	-4.825	B5-03822-P03-CH0	263960	OK	0.7456951	-0.2508335	-0.6172692	0	-92.895	-57.87	-2.039	B5-03822-P03-CH1	263960	OK	0.753325	-0.6567654	0.0340678	0	-98.027	-13.191	-5.978	B5-03822-P04-CH0	263960	OK	0.7907102	-0.1951739	0.5802453	0	-123.73	-35.245	6.407	B5-03822-P04-CH1	263960	OK	0.8070189	-0.5851721	0.0793361	0	-109.883	-45.349	3.256	NA
0.339727433060766	B5-03822-P01-CH0	263968	OK	0.1896918	0.1130788	0.1308973	-0.9664865	156.077	-6.549	-242.054	B5-03822-P02-CH0	263968	OK	0.6303126	0.3657776	-0.684772	0	-80.788	-98.943	-4.489	B5-03822-P02-CH1	263968	OK	0.7176833	-0.1953288	-0.668414	0	-75.787	-74.438	-4.247	B5-03822-P03-CH0	263968	OK	0.7545322	-0.2657933	-0.6000292	0	-92.089	-58.861	-1.602	B5-03822-P03-CH1	263968	OK	0.7540518	-0.6562175	0.0280099	0	-98.067	-12.452	-6.655	B5-03822-P04-CH0	263968	OK	0.7909857	-0.1951881	0.5798648	0	-124.184	-35.578	7.162	B5-03822-P04-CH1	263968	OK	0.8073374	-0.5847098	0.0795036	0	-109.752	-45.397	3.219	NA
0.349719416386083	B5-03822-P01-CH0	263976	OK	0.1894234	0.113229	0.1307704	-0.9665387	156.127	-6.524	-242.147	B5-03822-P02-CH0	263976	OK	0.6177911	0.3837127	-0.6863663	0	-79.857	-98.328	-3.821	B5-03822-P02-CH1	263976	OK	0.7166632	-0.2073204	-0.665892	0	-74.882	-75.975	-3.512	B5-03822-P03-CH0	263976	OK	0.7622567	-0.2767892	-0.5851089	0	-92.36	-60.905	-0.306	B5-03822-P03-CH1	263976	OK	0.752986	-0.6575125	0.0262543	0	-99.079	-13.46	-4.803	B5-03822-P04-CH0	263976	OK	0.7914194	-0.1959053	0.5790306	0	-124.904	-36.183	7.961	B5-03822-P04-CH1	263976	OK	0.8070825	-0.5850881	0.0793081	0	-109.859	-45.32	3.02	NA
0.3597113997114	B5-03822-P01-CH0	263984	OK	0.1894124	0.1130912	0.1311015	-0.9665121	156.146	-6.496	-242.261	B5-03822-P02-CH0	263984	OK	0.6093574	0.4044254	-0.6819998	0	-79.002	-100.148	-4.387	B5-03822-P02-CH1	263984	OK	0.7204072	-0.2144407	-0.659567	0	-73.926	-76.567	-3.932	B5-03822-P03-CH0	263984	OK	0.7694303	-0.2833742	-0.57243	0	-93.167	-62.174	-0.315	B5-03822-P03-CH1	263984	OK	0.7545335	-0.6559827	0.0191271	0	-98.329	-11.814	-7.447	B5-03822-P04-CH0	263984	OK	0.7911351	-0.1966397	0.5791702	0	-124.83	-36.021	8.368	B5-03822-P04-CH1	263984	OK	0.8072484	-0.5848533	0.0793519	0	-109.943	-45.271	2.967	NA
0.369703383036716	B5-03822-P01-CH0	263992	OK	0.1891459	0.1131994	0.1310405	-0.9665599	156.213	-6.524	-242.269	B5-03822-P02-CH0	263992	OK	0.5992336	0.4216397	-0.6805432	0	-79.205	-100.864	-3.725	B5-03822-P02-CH1	263992	OK	0.7241143	-0.2170047	-0.6546506	0	-75.151	-77.343	-4.633	B5-03822-P03-CH0	263992	OK	0.7756173	-0.2838502	-0.563779	0	-93.469	-62.652	-0.322	B5-03822-P03-CH1	263992	OK	0.7543747	-0.656188	0.0183338	0	-99.255	-12.963	-4.51	B5-03822-P04-CH0	263992	OK	0.7900103	-0.1984436	0.5800895	0	-124.532	-35.032	7.027	B5-03822-P04-CH1	263992	OK	0.8071997	-0.5849287	0.0792908	0	-110.114	-45.26	3.035	NA
0.379695366362033	B5-03822-P01-CH0	264000	OK	0.188736	0.1132191	0.1303781	-0.9667273	156.197	-6.679	-242.293	B5-03822-P02-CH0	264000	OK	0.5893658	0.430192	-0.6838003	0	-79.788	-100.43	-3.03	B5-03822-P02-CH1	264000	OK	0.731097	-0.2243816	-0.6443214	0	-74.843	-78.43	-4.543	B5-03822-P03-CH0	264000	OK	0.7803765	-0.2827654	-0.5577242	0	-93.73	-63.983	-0.862	B5-03822-P03-CH1	264000	OK	0.7546623	-0.6559703	0.0136993	0	-98.958	-11.916	-5.706	B5-03822-P04-CH0	264000	OK	0.7886076	-0.1999031	0.5814953	0	-124.575	-34.987	6.47	B5-03822-P04-CH1	264000	OK	0.8067801	-0.5854707	0.0795613	0	-110.155	-45.271	2.934	NA
0.38968734968735	B5-03822-P01-CH0	264008	OK	0.188521	0.1132698	0.1301387	-0.9667956	156.212	-6.686	-242.291	B5-03822-P02-CH0	264008	OK	0.5868981	0.431959	-0.684808	0	-79.118	-101.725	-2.766	B5-03822-P02-CH1	264008	OK	0.7378633	-0.2310769	-0.6341618	0	-74.251	-78.784	-5.691	B5-03822-P03-CH0	264008	OK	0.7838581	-0.2742797	-0.5570791	0	-94.514	-64.871	-0.882	B5-03822-P03-CH1	264008	OK	0.7518367	-0.6591837	0.0147805	0	-98.942	-13.633	-4.817	B5-03822-P04-CH0	264008	OK	0.7877909	-0.2004064	0.5824284	0	-124.799	-35.238	6.883	B5-03822-P04-CH1	264008	OK	0.8065343	-0.5857477	0.0800128	0	-110.334	-45.234	2.687	NA
0.399679333012666	B5-03822-P01-CH0	264016	OK	0.1882502	0.1133167	0.1295916	-0.9669163	156.21	-6.758	-242.267	B5-03822-P02-CH0	264016	OK	0.5872092	0.4302369	-0.6856249	0	-78.107	-102.467	-3.169	B5-03822-P02-CH1	264016	OK	0.7432163	-0.2338955	-0.6268352	0	-74.678	-79.431	-5.539	B5-03822-P03-CH0	264016	OK	0.7876612	-0.2608102	-0.5581826	0	-95.118	-65.814	-0.29	B5-03822-P03-CH1	264016	OK	0.7511284	-0.6600317	0.0128138	0	-98.607	-12.561	-6.075	B5-03822-P04-CH0	264016	OK	0.7870658	-0.2011626	0.5831475	0	-125.409	-35.387	6.457	B5-03822-P04-CH1	264016	OK	0.8060856	-0.5862614	0.0807686	0	-110.515	-45.283	2.466	NA
0.409671316337983	B5-03822-P01-CH0	264024	OK	0.1882196	0.1133659	0.1295244	-0.9669255	156.232	-6.707	-242.265	B5-03822-P02-CH0	264024	OK	0.5854349	0.4262987	-0.6895907	0	-78.061	-102.308	-3.612	B5-03822-P02-CH1	264024	OK	0.7492906	-0.2344982	-0.6193337	0	-75.398	-80.076	-5.112	B5-03822-P03-CH0	264024	OK	0.7929476	-0.2430401	-0.5587178	0	-95.709	-66.455	1.124	B5-03822-P03-CH1	264024	OK	0.7513413	-0.6597933	0.0126152	0	-98.505	-11.382	-7.505	B5-03822-P04-CH0	264024	OK	0.7877408	-0.201292	0.5821907	0	-126.414	-35.801	7.304	B5-03822-P04-CH1	264024	OK	0.8059296	-0.586321	0.0818853	0	-110.746	-45.339	2.339	NA
0.4196632996633	B5-03822-P01-CH0	264032	OK	0.1885452	0.1130451	0.1302418	-0.9668033	156.143	-6.641	-242.23	B5-03822-P02-CH0	264032	OK	0.5860718	0.4235649	-0.6907334	0	-77.894	-103.504	-3.561	B5-03822-P02-CH1	264032	OK	0.7567551	-0.230228	-0.6118143	0	-75.784	-80.555	-4.141	B5-03822-P03-CH0	264032	OK	0.7984755	-0.2228478	-0.5592636	0	-96.166	-66.977	1.177	B5-03822-P03-CH1	264032	OK	0.7524694	-0.658435	0.0159089	0	-97.719	-11.06	-7.13	B5-03822-P04-CH0	264032	OK	0.7865013	-0.2019723	0.5836291	0	-126.58	-36.748	7.464	B5-03822-P04-CH1	264032	OK	0.8063974	-0.5854978	0.0831597	0	-110.869	-45.329	2.114	NA
0.429655282988616	B5-03822-P01-CH0	264040	OK	0.1883313	0.1131579	0.1295598	-0.9669234	156.229	-6.754	-242.281	B5-03822-P02-CH0	264040	OK	0.587542	0.4195246	-0.6919491	0	-78.084	-104.04	-3.743	B5-03822-P02-CH1	264040	OK	0.7632451	-0.2246324	-0.605803	0	-76.756	-81.781	-4.41	B5-03822-P03-CH0	264040	OK	0.8020515	-0.2037082	-0.5614413	0	-96.982	-67.371	1.093	B5-03822-P03-CH1	264040	OK	0.7527488	-0.6580777	0.0174071	0	-98.454	-11.997	-6.469	B5-03822-P04-CH0	264040	OK	0.7859317	-0.2041073	0.5836536	0	-127.582	-37.644	7.257	B5-03822-P04-CH1	264040	OK	0.8058817	-0.586055	0.0842277	0	-111.025	-45.506	2.079	NA
0.439647266313933	B5-03822-P01-CH0	264048	OK	0.1879365	0.1132942	0.1285539	-0.9671185	156.258	-6.854	-242.284	B5-03822-P02-CH0	264048	OK	0.5903671	0.4158296	-0.6917748	0	-78.046	-104.615	-4.057	B5-03822-P02-CH1	264048	OK	0.7685341	-0.2183469	-0.6013984	0	-77.793	-82.408	-3.891	B5-03822-P03-CH0	264048	OK	0.8025814	-0.1881619	-0.5660903	0	-97.741	-67.702	1.433	B5-03822-P03-CH1	264048	OK	0.7526306	-0.6575724	0.0338473	0	-98.07	-12.993	-6.154	B5-03822-P04-CH0	264048	OK	0.7855711	-0.2090769	0.5823787	0	-127.373	-37.22	8.418	B5-03822-P04-CH1	264048	OK	0.805274	-0.5867334	0.0853101	0	-111.341	-45.634	2.111	NA
0.44963924963925	B5-03822-P01-CH0	264056	OK	0.1882167	0.1131921	0.1285567	-0.9670756	156.234	-6.914	-242.254	B5-03822-P02-CH0	264056	OK	0.589503	0.4203911	-0.6897517	0	-79.45	-105.296	-3.922	B5-03822-P02-CH1	264056	OK	0.7718349	-0.2129879	-0.5990885	0	-78.61	-82.539	-3.788	B5-03822-P03-CH0	264056	OK	0.7997073	-0.1790247	-0.573078	0	-98.287	-67.965	1.919	B5-03822-P03-CH1	264056	OK	0.7549862	-0.6542545	0.0441238	0	-98.009	-13.393	-6.74	B5-03822-P04-CH0	264056	OK	0.7867415	-0.2127454	0.5794628	0	-128.519	-38.349	7.158	B5-03822-P04-CH1	264056	OK	0.8054105	-0.5862825	0.0871019	0	-111.541	-45.865	2.256	NA
0.459631232964566	B5-03822-P01-CH0	264064	OK	0.1879932	0.1132466	0.1278419	-0.9672074	156.2	-6.995	-242.219	B5-03822-P02-CH0	264064	OK	0.5933358	0.4240926	-0.684177	0	-78.999	-105.162	-4.14	B5-03822-P02-CH1	264064	OK	0.7742149	-0.2055419	-0.5986182	0	-78.218	-82.642	-3.113	B5-03822-P03-CH0	264064	OK	0.7957775	-0.1789407	-0.5785485	0	-97.769	-67.595	1.055	B5-03822-P03-CH1	264064	OK	0.7555904	-0.6528464	0.0536163	0	-97.092	-13.841	-8.569	B5-03822-P04-CH0	264064	OK	0.788011	-0.2204331	0.574846	0	-128.613	-38.672	6.236	B5-03822-P04-CH1	264064	OK	0.8049581	-0.586701	0.0884559	0	-111.681	-45.935	2.038	NA
0.469623216289883	B5-03822-P01-CH0	264072	OK	0.1878039	0.1134785	0.1269087	-0.9673399	156.258	-7.086	-242.219	B5-03822-P02-CH0	264072	OK	0.5975014	0.431646	-0.6757765	0	-79.172	-105.716	-3.712	B5-03822-P02-CH1	264072	OK	0.7748714	-0.1971803	-0.6005782	0	-78.212	-83.153	-3.166	B5-03822-P03-CH0	264072	OK	0.7909866	-0.1879241	-0.5822583	0	-97.116	-67.286	0.329	B5-03822-P03-CH1	264072	OK	0.7564264	-0.6509031	0.0643763	0	-97.526	-14.8	-7.291	B5-03822-P04-CH0	264072	OK	0.7912294	-0.223508	0.5692101	0	-129.348	-39.473	7.699	B5-03822-P04-CH1	264072	OK	0.8042045	-0.5875002	0.0899925	0	-111.87	-46.213	1.811	NA
0.4796151996152	B5-03822-P01-CH0	264080	OK	0.1878519	0.1134713	0.1269367	-0.9673277	156.258	-7.065	-242.275	B5-03822-P02-CH0	264080	OK	0.5979333	0.4442826	-0.6671497	0	-80.315	-105.334	-2.926	B5-03822-P02-CH1	264080	OK	0.7741704	-0.1891096	-0.6040677	0	-78.72	-83.721	-2.83	B5-03822-P03-CH0	264080	OK	0.7841046	-0.1984465	-0.5880467	0	-96.964	-66.749	-0.369	B5-03822-P03-CH1	264080	OK	0.7579789	-0.6482838	0.072084	0	-97.424	-14.629	-6.767	B5-03822-P04-CH0	264080	OK	0.7925779	-0.2288316	0.5652048	0	-129.239	-39.398	6.909	B5-03822-P04-CH1	264080	OK	0.804155	-0.5873396	0.0914709	0	-112.121	-46.411	1.781	NA
0.489607182940516	B5-03822-P01-CH0	264088	OK	0.1880156	0.1136427	0.1270363	-0.9672628	156.34	-7.059	-242.267	B5-03822-P02-CH0	264088	OK	0.5987068	0.4609262	-0.6550551	0	-81.304	-105.295	-2.783	B5-03822-P02-CH1	264088	OK	0.7740457	-0.17868	-0.6073934	0	-78.924	-83.294	-3.761	B5-03822-P03-CH0	264088	OK	0.7777258	-0.2110699	-0.5921081	0	-95.618	-66.267	0.04	B5-03822-P03-CH1	264088	OK	0.7589656	-0.6467087	0.0757567	0	-96.387	-13.546	-8.839	B5-03822-P04-CH0	264088	OK	0.7950711	-0.2302417	0.5611156	0	-130.047	-40.381	8.479	B5-03822-P04-CH1	264088	OK	0.8042498	-0.5869739	0.0929724	0	-112.313	-46.627	1.843	NA
0.499599166265833	B5-03822-P01-CH0	264096	OK	0.1884627	0.1133671	0.128202	-0.9670543	156.27	-6.909	-242.328	B5-03822-P02-CH0	264096	OK	0.5993207	0.4812131	-0.6397254	0	-82.092	-105.634	-2.909	B5-03822-P02-CH1	264096	OK	0.7743379	-0.1701194	-0.6094753	0	-78.817	-82.868	-3.672	B5-03822-P03-CH0	264096	OK	0.7697626	-0.221448	-0.5986872	0	-94.732	-65.148	-1.317	B5-03822-P03-CH1	264096	OK	0.7592916	-0.6455482	0.0821201	0	-96.447	-14.158	-8.894	B5-03822-P04-CH0	264096	OK	0.7960268	-0.2332684	0.5585044	0	-130.194	-40.626	7.503	B5-03822-P04-CH1	264096	OK	0.8049708	-0.5857449	0.0944722	0	-112.472	-46.812	1.993	NA
0.50959114959115	B5-03822-P01-CH0	264104	OK	0.1882606	0.1133374	0.1275618	-0.9671818	156.236	-7.015	-242.376	B5-03822-P02-CH0	264104	OK	0.599364	0.5018386	-0.6236351	0	-83.459	-105.088	-2.647	B5-03822-P02-CH1	264104	OK	0.7725483	-0.1636735	-0.6134982	0	-79.417	-82.858	-3.368	B5-03822-P03-CH0	264104	OK	0.7611584	-0.2301761	-0.6063472	0	-94.029	-64.469	-0.726	B5-03822-P03-CH1	264104	OK	0.7582368	-0.6462114	0.0865314	0	-96.606	-14.827	-9.44	B5-03822-P04-CH0	264104	OK	0.7970475	-0.2373944	0.555301	0	-130.22	-41.233	7.978	B5-03822-P04-CH1	264104	OK	0.8046344	-0.5860942	0.0951684	0	-112.534	-46.965	2.131	NA
0.519583132916466	B5-03822-P01-CH0	264112	OK	0.1881265	0.1137376	0.1270302	-0.9672308	156.344	-7.036	-242.383	B5-03822-P02-CH0	264112	OK	0.6029699	0.5187577	-0.6060674	0	-84.279	-105.466	-2.076	B5-03822-P02-CH1	264112	OK	0.772265	-0.1607815	-0.6146187	0	-78.916	-82.187	-2.196	B5-03822-P03-CH0	264112	OK	0.7538893	-0.2397157	-0.6117085	0	-94.231	-63.809	-0.752	B5-03822-P03-CH1	264112	OK	0.7573562	-0.6467673	0.0900204	0	-96.311	-15.517	-8.545	B5-03822-P04-CH0	264112	OK	0.7982991	-0.2401628	0.5523046	0	-130.067	-41.151	8.32	B5-03822-P04-CH1	264112	OK	0.8043535	-0.5863945	0.0956921	0	-112.813	-47.199	2.569	NA
0.529575116241783	B5-03822-P01-CH0	264120	OK	0.1882375	0.1137559	0.1272966	-0.9671721	156.31	-6.953	-242.367	B5-03822-P02-CH0	264120	OK	0.6058318	0.5298681	-0.5934708	0	-84.605	-104.371	-2.244	B5-03822-P02-CH1	264120	OK	0.7717275	-0.1604552	-0.6153786	0	-78.524	-81.359	-3.083	B5-03822-P03-CH0	264120	OK	0.7502414	-0.2455417	-0.6138787	0	-93.606	-62.981	-0.841	B5-03822-P03-CH1	264120	OK	0.7588607	-0.645307	0.087802	0	-94.626	-13.094	-11.724	B5-03822-P04-CH0	264120	OK	0.7985298	-0.2431068	0.5506808	0	-129.815	-40.82	7.151	B5-03822-P04-CH1	264120	OK	0.8045542	-0.5860333	0.0962161	0	-112.89	-47.273	2.759	NA
0.5395670995671	B5-03822-P01-CH0	264128	OK	0.1880676	0.1139268	0.1269666	-0.9672284	156.293	-6.88	-242.336	B5-03822-P02-CH0	264128	OK	0.6110792	0.5377739	-0.5808455	0	-84.452	-103.964	-1.963	B5-03822-P02-CH1	264128	OK	0.7688618	-0.1611464	-0.6187757	0	-79.115	-80.494	-3.122	B5-03822-P03-CH0	264128	OK	0.7482533	-0.2507379	-0.6142048	0	-92.738	-63.011	-0.535	B5-03822-P03-CH1	264128	OK	0.7580424	-0.6451519	0.0956593	0	-97.335	-15.425	-7.171	B5-03822-P04-CH0	264128	OK	0.7995911	-0.245379	0.548127	0	-129.854	-40.806	8.753	B5-03822-P04-CH1	264128	OK	0.8044128	-0.5862479	0.0960909	0	-112.912	-47.167	2.887	NA
0.549559082892416	B5-03822-P01-CH0	264136	OK	0.188096	0.1141772	0.1273095	-0.9671483	156.36	-6.834	-242.286	B5-03822-P02-CH0	264136	OK	0.6138905	0.5435527	-0.5724412	0	-84.816	-103.359	-1.757	B5-03822-P02-CH1	264136	OK	0.7675125	-0.1628394	-0.6200064	0	-78.862	-79.357	-3.382	B5-03822-P03-CH0	264136	OK	0.7459294	-0.2516387	-0.6166582	0	-92.519	-61.93	-0.359	B5-03822-P03-CH1	264136	OK	0.755944	-0.6466942	0.1016627	0	-97.868	-17.699	-5.51	B5-03822-P04-CH0	264136	OK	0.8001624	-0.2483673	0.5459431	0	-129.841	-40.257	8.404	B5-03822-P04-CH1	264136	OK	0.8046399	-0.5860004	0.0956987	0	-112.994	-47.144	2.94	NA
0.559551066217733	B5-03822-P01-CH0	264144	OK	0.1882807	0.1141776	0.1279685	-0.9670253	156.408	-6.784	-242.36	B5-03822-P02-CH0	264144	OK	0.6164201	0.5446131	-0.5687027	0	-85.102	-102.73	-1.382	B5-03822-P02-CH1	264144	OK	0.7674196	-0.1670073	-0.6190118	0	-78.93	-79.322	-2.565	B5-03822-P03-CH0	264144	OK	0.7441469	-0.2486685	-0.6200075	0	-91.86	-61.155	-0.966	B5-03822-P03-CH1	264144	OK	0.7602994	-0.6424217	0.0961212	0	-96.715	-13.409	-8.376	B5-03822-P04-CH0	264144	OK	0.8006218	-0.2513834	0.5438853	0	-129.46	-39.927	8.254	B5-03822-P04-CH1	264144	OK	0.8050163	-0.5855337	0.095389	0	-113.009	-47.26	3.168	NA
0.56954304954305	B5-03822-P01-CH0	264152	OK	0.1887386	0.1137718	0.1295167	-0.9667777	156.307	-6.625	-242.387	B5-03822-P02-CH0	264152	OK	0.6199066	0.5432239	-0.5662363	0	-84.796	-101.951	-2	B5-03822-P02-CH1	264152	OK	0.7673545	-0.1697728	-0.6183399	0	-79.331	-78.303	-2.88	B5-03822-P03-CH0	264152	OK	0.7429496	-0.2452901	-0.622783	0	-92.015	-60.516	-0.968	B5-03822-P03-CH1	264152	OK	0.7606123	-0.6419862	0.0965543	0	-96.001	-12.812	-9.486	B5-03822-P04-CH0	264152	OK	0.8012268	-0.2535102	0.5420038	0	-128.555	-39.708	9.245	B5-03822-P04-CH1	264152	OK	0.806067	-0.5841784	0.0948239	0	-112.93	-47.084	3.21	NA
0.579535032868366	B5-03822-P01-CH0	264160	OK	0.1884461	0.1138713	0.1291844	-0.9668675	156.284	-6.602	-242.325	B5-03822-P02-CH0	264160	OK	0.6234502	0.5439533	-0.5616268	0	-84.638	-101.413	-2.681	B5-03822-P02-CH1	264160	OK	0.7662319	-0.1734625	-0.6187079	0	-79.695	-77.46	-3.703	B5-03822-P03-CH0	264160	OK	0.7425581	-0.2408322	-0.6249858	0	-93.109	-59.654	-0.044	B5-03822-P03-CH1	264160	OK	0.7590983	-0.6435645	0.0979516	0	-95.603	-13.327	-9.717	B5-03822-P04-CH0	264160	OK	0.8009004	-0.2578153	0.5404534	0	-128.134	-39.359	8.76	B5-03822-P04-CH1	264160	OK	0.8057994	-0.5847482	0.093578	0	-112.841	-46.953	3.299	NA
0.589527016193683	B5-03822-P01-CH0	264168	OK	0.1879945	0.1138456	0.1285837	-0.9670385	156.213	-6.67	-242.304	B5-03822-P02-CH0	264168	OK	0.6242997	0.5464834	-0.5582166	0	-84.997	-100.732	-2.705	B5-03822-P02-CH1	264168	OK	0.7659451	-0.1769254	-0.6180822	0	-79.495	-76.682	-3.554	B5-03822-P03-CH0	264168	OK	0.7454379	-0.241463	-0.6213034	0	-93.125	-58.196	0.015	B5-03822-P03-CH1	264168	OK	0.7572928	-0.6449538	0.1026754	0	-96.906	-15.173	-7.976	B5-03822-P04-CH0	264168	OK	0.8008846	-0.2615235	0.5386921	0	-127.18	-37.626	8.158	B5-03822-P04-CH1	264168	OK	0.8054985	-0.5854393	0.091831	0	-112.71	-46.691	3.345	NA
0.599518999519	B5-03822-P01-CH0	264176	OK	0.1875854	0.1140109	0.1278954	-0.9671897	156.225	-6.815	-242.164	B5-03822-P02-CH0	264176	OK	0.624733	0.5479574	-0.5562835	0	-85.462	-99.932	-2.626	B5-03822-P02-CH1	264176	OK	0.7655269	-0.1809727	-0.6174281	0	-80.009	-75.812	-2.918	B5-03822-P03-CH0	264176	OK	0.7480472	-0.2435043	-0.6173581	0	-93.216	-57.627	-0.722	B5-03822-P03-CH1	264176	OK	0.7587646	-0.6445733	0.0938163	0	-96.114	-13.498	-9.994	B5-03822-P04-CH0	264176	OK	0.801972	-0.2635036	0.5361034	0	-127.295	-37.048	8.22	B5-03822-P04-CH1	264176	OK	0.8051152	-0.5862479	0.0900158	0	-112.637	-46.552	3.357	NA
0.609510982844316	B5-03822-P01-CH0	264184	OK	0.1875577	0.1140642	0.1281786	-0.9671513	156.267	-6.74	-242.213	B5-03822-P02-CH0	264184	OK	0.6262834	0.5480736	-0.5544226	0	-85.409	-98.988	-2.646	B5-03822-P02-CH1	264184	OK	0.7664767	-0.1859563	-0.6147632	0	-79.817	-75.204	-3.752	B5-03822-P03-CH0	264184	OK	0.7497577	-0.2385239	-0.6172275	0	-93.292	-56.684	-0.179	B5-03822-P03-CH1	264184	OK	0.758943	-0.6442178	0.0948103	0	-96.028	-13.244	-10.137	B5-03822-P04-CH0	264184	OK	0.8017432	-0.2669942	0.5347167	0	-127.178	-37.762	7.87	B5-03822-P04-CH1	264184	OK	0.8053389	-0.5862109	0.0882386	0	-112.52	-46.264	3.534	NA
0.619502966169633	B5-03822-P01-CH0	264192	OK	0.1875775	0.1139261	0.1282712	-0.9671515	156.269	-6.74	-242.3	B5-03822-P02-CH0	264192	OK	0.6276079	0.547863	-0.5531315	0	-85.808	-98.335	-1.856	B5-03822-P02-CH1	264192	OK	0.7676842	-0.1963824	-0.6099958	0	-80.478	-74.934	-3.236	B5-03822-P03-CH0	264192	OK	0.7514467	-0.2295337	-0.6185808	0	-93.632	-56.011	-0.177	B5-03822-P03-CH1	264192	OK	0.7586993	-0.6442734	0.0963696	0	-96.181	-13.483	-9.909	B5-03822-P04-CH0	264192	OK	0.8011399	-0.2703385	0.5339401	0	-125.907	-36.859	8.348	B5-03822-P04-CH1	264192	OK	0.8053003	-0.5865222	0.0865054	0	-112.255	-46.064	3.448	NA
0.629494949494949	B5-03822-P01-CH0	264200	OK	0.1879272	0.1134174	0.1289567	-0.9670522	156.182	-6.684	-242.513	B5-03822-P02-CH0	264200	OK	0.6310088	0.5412835	-0.5557337	0	-85.41	-98.154	-2.523	B5-03822-P02-CH1	264200	OK	0.7709281	-0.2036118	-0.6034999	0	-80.869	-73.781	-3.43	B5-03822-P03-CH0	264200	OK	0.7522757	-0.2163604	-0.6223098	0	-93.905	-54.967	-1.229	B5-03822-P03-CH1	264200	OK	0.7590939	-0.6436289	0.0975621	0	-96.046	-13.423	-9.828	B5-03822-P04-CH0	264200	OK	0.8011586	-0.2713677	0.5333896	0	-126.114	-36.532	7.226	B5-03822-P04-CH1	264200	OK	0.8056943	-0.5874959	0.0755339	0	-110.626	-44.405	2.921	NA
0.639486932820266	B5-03822-P01-CH0	264208	OK	0.1878624	0.1133851	0.1288987	-0.9670763	156.223	-6.792	-242.598	B5-03822-P02-CH0	264208	OK	0.6351344	0.5311461	-0.5607924	0	-84.989	-97.672	-2.471	B5-03822-P02-CH1	264208	OK	0.7741992	-0.2093729	-0.5973095	0	-81.277	-73.208	-3.185	B5-03822-P03-CH0	264208	OK	0.7534502	-0.2061132	-0.6243638	0	-92.998	-54.912	-0.22	B5-03822-P03-CH1	264208	OK	0.758967	-0.6437201	0.097947	0	-95.898	-13.395	-9.957	B5-03822-P04-CH0	264208	OK	0.8011497	-0.2727615	0.5326916	0	-125.909	-36.044	7.044	B5-03822-P04-CH1	264208	OK	0.8060901	-0.5873792	0.0721416	0	-110.033	-43.468	2.233	NA
0.649478916145583	B5-03822-P01-CH0	264216	OK	0.1876686	0.1131385	0.1286771	-0.9671724	156.123	-6.726	-242.652	B5-03822-P02-CH0	264216	OK	0.6410981	0.518979	-0.5653795	0	-84.436	-97.626	-2.706	B5-03822-P02-CH1	264216	OK	0.7782914	-0.2153716	-0.5898115	0	-82.101	-72.879	-2.726	B5-03822-P03-CH0	264216	OK	0.753514	-0.2060822	-0.624297	0	-93.364	-54.079	-0.568	B5-03822-P03-CH1	264216	OK	0.7586919	-0.6439775	0.0983848	0	-95.891	-13.221	-9.902	B5-03822-P04-CH0	264216	OK	0.8007836	-0.2744282	0.532386	0	-125.531	-35.799	7.88	B5-03822-P04-CH1	264216	OK	0.8056797	-0.5881015	0.0708303	0	-110.017	-43.378	2.962	NA
0.659470899470899	B5-03822-P01-CH0	264224	OK	0.1875128	0.112977	0.1283261	-0.9672681	156.085	-6.775	-242.76	B5-03822-P02-CH0	264224	OK	0.6449549	0.5064738	-0.5722915	0	-84.422	-96.713	-2.434	B5-03822-P02-CH1	264224	OK	0.7852548	-0.2236809	-0.5773575	0	-82.07	-72.562	-1.766	B5-03822-P03-CH0	264224	OK	0.7539511	-0.2099283	-0.6224852	0	-92.628	-53.214	-0.267	B5-03822-P03-CH1	264224	OK	0.7580396	-0.6446662	0.0989011	0	-95.699	-13.384	-9.948	B5-03822-P04-CH0	264224	OK	0.8002	-0.2768634	0.5320025	0	-125.57	-35.949	7.498	B5-03822-P04-CH1	264224	OK	0.8049325	-0.5893236	0.069147	0	-109.811	-43.687	3.45	NA
0.669462882796216	B5-03822-P01-CH0	264232	OK	0.1870239	0.1128756	0.1272556	-0.967516	156.016	-6.885	-242.824	B5-03822-P02-CH0	264232	OK	0.6503108	0.4908403	-0.5798032	0	-84.526	-96.306	-1.957	B5-03822-P02-CH1	264232	OK	0.7922018	-0.2309238	-0.564881	0	-83.123	-72.458	-2.067	B5-03822-P03-CH0	264232	OK	0.7547654	-0.2096006	-0.6216082	0	-91.904	-52.713	0.078	B5-03822-P03-CH1	264232	OK	0.757209	-0.6456247	0.0990113	0	-95.574	-13.372	-10.036	B5-03822-P04-CH0	264232	OK	0.7999442	-0.2723644	0.5347027	0	-125.619	-36.041	7.858	B5-03822-P04-CH1	264232	OK	0.8034515	-0.5915879	0.0670028	0	-108.932	-43.2	1.722	NA
0.679454866121533	B5-03822-P01-CH0	264240	OK	0.187445	0.1128981	0.1277117	-0.9673718	156.101	-6.867	-242.904	B5-03822-P02-CH0	264240	OK	0.6589201	0.4677643	-0.5890848	0	-83.155	-96.608	-2.789	B5-03822-P02-CH1	264240	OK	0.8006238	-0.2399799	-0.5490093	0	-83.902	-73.133	-1.723	B5-03822-P03-CH0	264240	OK	0.75423	-0.2064728	-0.6233026	0	-92.432	-53.632	0.272	B5-03822-P03-CH1	264240	OK	0.7573981	-0.6452695	0.0998768	0	-95.607	-13.48	-9.997	B5-03822-P04-CH0	264240	OK	0.8000554	-0.273204	0.5341076	0	-125.506	-35.931	7.78	B5-03822-P04-CH1	264240	OK	0.8050248	-0.5895854	0.0657574	0	-110.169	-43.046	4.315	NA
0.689446849446849	B5-03822-P01-CH0	264248	OK	0.1876111	0.112721	0.1280262	-0.9673186	156.097	-6.881	-242.976	B5-03822-P02-CH0	264248	OK	0.6685531	0.4370808	-0.601662	0	-81.727	-95.859	-3.493	B5-03822-P02-CH1	264248	OK	0.8101026	-0.2465726	-0.531917	0	-84.431	-73.202	-1.554	B5-03822-P03-CH0	264248	OK	0.7518976	-0.1957535	-0.629548	0	-92.211	-52.656	0.043	B5-03822-P03-CH1	264248	OK	0.7576963	-0.6448993	0.1000059	0	-95.542	-13.327	-10.129	B5-03822-P04-CH0	264248	OK	0.7999522	-0.2742385	0.5337319	0	-125.351	-35.748	7.58	B5-03822-P04-CH1	264248	OK	0.8056622	-0.5888929	0.0641372	0	-109.62	-42.034	3.201	NA
0.699438832772166	B5-03822-P01-CH0	264256	OK	0.1876802	0.1126274	0.1278881	-0.9673344	156.085	-6.9	-243.113	B5-03822-P02-CH0	264256	OK	0.6788055	0.4003649	-0.6155738	0	-81.956	-96.239	-3.455	B5-03822-P02-CH1	264256	OK	0.817878	-0.2483641	-0.5190288	0	-84.845	-72.919	-0.463	B5-03822-P03-CH0	264256	OK	0.7494569	-0.1866155	-0.6352078	0	-91.348	-52.598	1.584	B5-03822-P03-CH1	264256	OK	0.7575873	-0.6450362	0.0999484	0	-95.27	-13.194	-10.313	B5-03822-P04-CH0	264256	OK	0.7995149	-0.2753483	0.5338158	0	-125.002	-35.605	7.654	B5-03822-P04-CH1	264256	OK	0.8049465	-0.5891594	0.0703733	0	-109.926	-43.725	3.558	NA
0.709430816097483	B5-03822-P01-CH0	264264	OK	0.18793	0.112678	0.1283128	-0.9672238	156.135	-6.87	-243.148	B5-03822-P02-CH0	264264	OK	0.6892103	0.3624713	-0.6273785	0	-81.196	-95.999	-4.381	B5-03822-P02-CH1	264264	OK	0.8222183	-0.2508345	-0.5109199	0	-85.945	-73.014	-0.626	B5-03822-P03-CH0	264264	OK	0.7472164	-0.1802493	-0.6396701	0	-91.479	-52.449	1.638	B5-03822-P03-CH1	264264	OK	0.7578389	-0.6446179	0.1007373	0	-95.387	-13.357	-9.954	B5-03822-P04-CH0	264264	OK	0.7995908	-0.2754414	0.5336541	0	-124.977	-35.309	7.424	B5-03822-P04-CH1	264264	OK	0.8051325	-0.5890782	0.0689095	0	-109.76	-43.464	3.336	NA
0.719422799422799	B5-03822-P01-CH0	264272	OK	0.1875926	0.1125068	0.1281221	-0.9673345	156.062	-6.896	-243.211	B5-03822-P02-CH0	264272	OK	0.6983565	0.3301014	-0.6350836	0	-80.282	-95.192	-3.366	B5-03822-P02-CH1	264272	OK	0.824371	-0.2517024	-0.5070092	0	-86.65	-72.765	-0.705	B5-03822-P03-CH0	264272	OK	0.7441932	-0.1753375	-0.6445411	0	-92.245	-52.293	1.535	B5-03822-P03-CH1	264272	OK	0.7579515	-0.6445835	0.1001085	0	-95.176	-12.994	-10.102	B5-03822-P04-CH0	264272	OK	0.7992885	-0.2763432	0.5336406	0	-124.844	-35.008	7.317	B5-03822-P04-CH1	264272	OK	0.8048222	-0.5897091	0.0671155	0	-109.51	-43.167	3.218	NA
0.729414782748116	B5-03822-P01-CH0	264280	OK	0.1870776	0.1129084	0.1277405	-0.9674379	156.125	-6.916	-243.069	B5-03822-P02-CH0	264280	OK	0.7072582	0.3015353	-0.6394234	0	-79.157	-94.993	-4.365	B5-03822-P02-CH1	264280	OK	0.8268973	-0.2559799	-0.5007147	0	-86.282	-72.697	0.673	B5-03822-P03-CH0	264280	OK	0.7414668	-0.1716716	-0.648657	0	-92.236	-51.941	0.679	B5-03822-P03-CH1	264280	OK	0.75733	-0.6452601	0.100452	0	-95.464	-13.359	-9.651	B5-03822-P04-CH0	264280	OK	0.7990619	-0.2773256	0.5334703	0	-124.821	-34.661	7.231	B5-03822-P04-CH1	264280	OK	0.8044354	-0.5904526	0.0651878	0	-109.487	-42.808	3.079	NA
0.739406766073433	B5-03822-P01-CH0	264288	OK	0.1873004	0.1127751	0.1285072	-0.9673088	156.134	-6.775	-243.145	B5-03822-P02-CH0	264288	OK	0.7130251	0.2745919	-0.6451313	0	-78.566	-94.161	-4.304	B5-03822-P02-CH1	264288	OK	0.8268832	-0.2612885	-0.4979884	0	-87.082	-72.569	0.283	B5-03822-P03-CH0	264288	OK	0.7397563	-0.1666883	-0.6519015	0	-92.087	-51.513	1.16	B5-03822-P03-CH1	264288	OK	0.7580545	-0.6444373	0.1002693	0	-95.385	-13.001	-9.755	B5-03822-P04-CH0	264288	OK	0.7989637	-0.2770269	0.5337725	0	-124.773	-34.497	7.22	B5-03822-P04-CH1	264288	OK	0.8048558	-0.5899837	0.0642375	0	-109.432	-42.497	3.039	NA
0.749398749398749	B5-03822-P01-CH0	264296	OK	0.1872889	0.1126681	0.1284886	-0.9673259	156.104	-6.836	-243.167	B5-03822-P02-CH0	264296	OK	0.7168706	0.2512646	-0.6503557	0	-78.551	-94.189	-4.232	B5-03822-P02-CH1	264296	OK	0.826465	-0.2681168	-0.4950444	0	-86.902	-72.783	-1.005	B5-03822-P03-CH0	264296	OK	0.7385471	-0.160415	-0.6548398	0	-91.779	-51.369	1.425	B5-03822-P03-CH1	264296	OK	0.7580724	-0.6444782	0.0998704	0	-95.208	-12.909	-9.924	B5-03822-P04-CH0	264296	OK	0.7986731	-0.2770744	0.5341825	0	-124.691	-34.37	7.101	B5-03822-P04-CH1	264296	OK	0.8047379	-0.5902423	0.0633318	0	-109.243	-42.285	2.737	NA
0.759390732724066	B5-03822-P01-CH0	264304	OK	0.1874022	0.1129095	0.1283115	-0.9672993	156.194	-6.898	-243.096	B5-03822-P02-CH0	264304	OK	0.7206474	0.2337143	-0.6527212	0	-77.879	-94.051	-3.896	B5-03822-P02-CH1	264304	OK	0.825564	-0.270815	-0.4950792	0	-86.977	-73.05	-0.237	B5-03822-P03-CH0	264304	OK	0.7382658	-0.1570489	-0.655972	0	-91.961	-51.214	0.317	B5-03822-P03-CH1	264304	OK	0.7580177	-0.6445346	0.0999214	0	-95.311	-12.977	-9.898	B5-03822-P04-CH0	264304	OK	0.7984343	-0.276689	0.534739	0	-124.685	-34.352	7.065	B5-03822-P04-CH1	264304	OK	0.804511	-0.5906105	0.0627796	0	-109.451	-42.307	2.763	NA
0.769382716049383	B5-03822-P01-CH0	264312	OK	0.1879871	0.1128811	0.1290869	-0.967086	156.278	-6.832	-243.191	B5-03822-P02-CH0	264312	OK	0.7233895	0.2214577	-0.6539603	0	-77.182	-93.586	-4.17	B5-03822-P02-CH1	264312	OK	0.8255274	-0.270279	-0.4954329	0	-86.451	-72.936	0.652	B5-03822-P03-CH0	264312	OK	0.7408441	-0.1583237	-0.6527508	0	-91.785	-51.36	1.306	B5-03822-P03-CH1	264312	OK	0.758534	-0.6438739	0.1002627	0	-95.392	-13.048	-9.773	B5-03822-P04-CH0	264312	OK	0.7984986	-0.2751768	0.535423	0	-124.745	-34.506	7.201	B5-03822-P04-CH1	264312	OK	0.8050214	-0.5898971	0.0629439	0	-109.493	-42.23	2.74	NA
0.779374699374699	B5-03822-P01-CH0	264320	OK	0.1878233	0.1130195	0.1283907	-0.9671943	156.292	-6.866	-243.081	B5-03822-P02-CH0	264320	OK	0.7238558	0.2135239	-0.6560795	0	-77.678	-93.614	-3.802	B5-03822-P02-CH1	264320	OK	0.8231216	-0.2689116	-0.5001574	0	-86.934	-72.752	0.788	B5-03822-P03-CH0	264320	OK	0.7447879	-0.1620879	-0.6473164	0	-92.421	-51.272	1.306	B5-03822-P03-CH1	264320	OK	0.7582621	-0.6442821	0.0996951	0	-95.449	-12.858	-9.817	B5-03822-P04-CH0	264320	OK	0.7981494	-0.2752553	0.535903	0	-124.707	-34.199	7.062	B5-03822-P04-CH1	264320	OK	0.8043892	-0.5907722	0.0628185	0	-109.523	-42.177	2.514	NA
0.789366682700016	B5-03822-P01-CH0	264328	OK	0.1883013	0.1132202	0.1285838	-0.9670522	156.438	-6.783	-243.071	B5-03822-P02-CH0	264328	OK	0.7221499	0.212109	-0.6584142	0	-78.165	-93.382	-3.06	B5-03822-P02-CH1	264328	OK	0.8210289	-0.2702332	-0.5028773	0	-86.284	-72.711	0.228	B5-03822-P03-CH0	264328	OK	0.7500141	-0.1701458	-0.6391629	0	-93.408	-51.11	1.559	B5-03822-P03-CH1	264328	OK	0.7586158	-0.6439059	0.0994353	0	-95.48	-12.676	-9.783	B5-03822-P04-CH0	264328	OK	0.7980685	-0.2744244	0.5364493	0	-124.788	-34.12	6.956	B5-03822-P04-CH1	264328	OK	0.8044268	-0.5906714	0.0632836	0	-109.687	-42.263	2.654	NA
0.799358666025333	B5-03822-P01-CH0	264336	OK	0.188604	0.113251	0.1287371	-0.9669692	156.509	-6.741	-243.022	B5-03822-P02-CH0	264336	OK	0.7198408	0.2176872	-0.6591217	0	-78.091	-93.606	-3.49	B5-03822-P02-CH1	264336	OK	0.815907	-0.272597	-0.5098889	0	-86.594	-72.475	-0.546	B5-03822-P03-CH0	264336	OK	0.756793	-0.1821066	-0.6277751	0	-93.765	-51.883	1.581	B5-03822-P03-CH1	264336	OK	0.7588693	-0.6436233	0.0993301	0	-95.67	-12.626	-9.54	B5-03822-P04-CH0	264336	OK	0.7980377	-0.2740939	0.5366642	0	-124.902	-33.979	6.81	B5-03822-P04-CH1	264336	OK	0.804492	-0.5905221	0.0638453	0	-109.785	-42.303	2.715	NA
0.809350649350649	B5-03822-P01-CH0	264344	OK	0.188701	0.1132026	0.1284108	-0.9669994	156.558	-6.782	-243.012	B5-03822-P02-CH0	264344	OK	0.7181677	0.2259298	-0.6581724	0	-77.544	-94.194	-4.831	B5-03822-P02-CH1	264344	OK	0.8131419	-0.2754863	-0.5127451	0	-85.436	-72.316	-1.152	B5-03822-P03-CH0	264344	OK	0.7618493	-0.1908006	-0.6190159	0	-93.92	-52.431	1.023	B5-03822-P03-CH1	264344	OK	0.7586053	-0.644002	0.098891	0	-95.665	-12.637	-9.566	B5-03822-P04-CH0	264344	OK	0.7978633	-0.2742711	0.5368329	0	-124.932	-33.97	7.04	B5-03822-P04-CH1	264344	OK	0.8042601	-0.590798	0.0642135	0	-109.856	-42.409	2.849	NA
0.819342632675966	B5-03822-P01-CH0	264352	OK	0.1894999	0.1131878	0.1290452	-0.9667604	156.644	-6.702	-242.967	B5-03822-P02-CH0	264352	OK	0.7128154	0.2363005	-0.6603456	0	-78.402	-94.177	-3.596	B5-03822-P02-CH1	264352	OK	0.8107172	-0.277694	-0.5153869	0	-84.64	-72.501	-1.827	B5-03822-P03-CH0	264352	OK	0.7649954	-0.1970709	-0.6131436	0	-93.43	-52.57	1.015	B5-03822-P03-CH1	264352	OK	0.7589393	-0.6435496	0.0992725	0	-95.667	-12.681	-9.609	B5-03822-P04-CH0	264352	OK	0.7980007	-0.2739495	0.5367928	0	-124.945	-33.96	6.956	B5-03822-P04-CH1	264352	OK	0.8047701	-0.5899873	0.0652686	0	-109.913	-42.416	2.724	NA
0.829334616001283	B5-03822-P01-CH0	264360	OK	0.1896972	0.113364	0.1285698	-0.9667644	156.778	-6.762	-242.942	B5-03822-P02-CH0	264360	OK	0.7102447	0.2482465	-0.6587308	0	-78.136	-94.192	-3.677	B5-03822-P02-CH1	264360	OK	0.8089986	-0.2774633	-0.518204	0	-84.163	-73.095	-0.641	B5-03822-P03-CH0	264360	OK	0.7668412	-0.2064572	-0.6077253	0	-93.452	-52.836	1.298	B5-03822-P03-CH1	264360	OK	0.7587611	-0.6438442	0.098723	0	-95.683	-12.512	-9.843	B5-03822-P04-CH0	264360	OK	0.7980643	-0.2747562	0.5362858	0	-125.062	-34.074	7.157	B5-03822-P04-CH1	264360	OK	0.8044129	-0.59039	0.0660272	0	-110.08	-42.653	2.776	NA
0.839326599326599	B5-03822-P01-CH0	264368	OK	0.189928	0.1133547	0.1284753	-0.9667327	156.78	-6.802	-242.806	B5-03822-P02-CH0	264368	OK	0.7072856	0.259944	-0.657401	0	-78.085	-94.124	-3.994	B5-03822-P02-CH1	264368	OK	0.8075369	-0.2735852	-0.5225278	0	-84.114	-73.144	-0.216	B5-03822-P03-CH0	264368	OK	0.7675081	-0.2147277	-0.6040061	0	-94.534	-53.521	1.558	B5-03822-P03-CH1	264368	OK	0.7585926	-0.6440835	0.098457	0	-95.616	-12.491	-10.17	B5-03822-P04-CH0	264368	OK	0.7990047	-0.2845186	0.5297553	0	-125.035	-34.687	7.527	B5-03822-P04-CH1	264368	OK	0.8043071	-0.5904504	0.0667714	0	-110.091	-42.779	2.669	NA
0.849318582651916	B5-03822-P01-CH0	264376	OK	0.1905804	0.1133558	0.1293093	-0.966493	156.885	-6.725	-242.797	B5-03822-P02-CH0	264376	OK	0.7047704	0.271951	-0.6552414	0	-78.272	-95.144	-5.304	B5-03822-P02-CH1	264376	OK	0.8056281	-0.270024	-0.5273048	0	-84.181	-72.99	-2.295	B5-03822-P03-CH0	264376	OK	0.77122	-0.220093	-0.5973096	0	-94.184	-53.415	1.173	B5-03822-P03-CH1	264376	OK	0.7592217	-0.6433597	0.0983394	0	-95.617	-12.385	-10.222	B5-03822-P04-CH0	264376	OK	0.8001777	-0.2845174	0.5279824	0	-125.963	-35.271	7.53	B5-03822-P04-CH1	264376	OK	0.8048711	-0.5895863	0.0676047	0	-110.226	-42.902	2.694	NA
0.859310565977233	B5-03822-P01-CH0	264384	OK	0.1906242	0.1132478	0.1292086	-0.9665105	156.869	-6.625	-242.812	B5-03822-P02-CH0	264384	OK	0.7011051	0.283034	-0.6544794	0	-79.022	-94.895	-3.804	B5-03822-P02-CH1	264384	OK	0.8046705	-0.2659659	-0.5308178	0	-83.543	-73.518	-1.143	B5-03822-P03-CH0	264384	OK	0.7738959	-0.2263825	-0.5914695	0	-93.74	-53.593	0.495	B5-03822-P03-CH1	264384	OK	0.7592246	-0.6434406	0.0977865	0	-95.604	-12.175	-10.155	B5-03822-P04-CH0	264384	OK	0.7999793	-0.286609	0.5271513	0	-125.502	-34.917	7.838	B5-03822-P04-CH1	264384	OK	0.804923	-0.5894843	0.067876	0	-110.217	-42.732	2.68	NA
0.869302549302549	B5-03822-P01-CH0	264392	OK	0.1907711	0.1133577	0.1288288	-0.9665193	156.899	-6.707	-242.673	B5-03822-P02-CH0	264392	OK	0.6996888	0.2903531	-0.6527868	0	-78.993	-95.741	-3.7	B5-03822-P02-CH1	264392	OK	0.8021203	-0.2616467	-0.5367905	0	-83.953	-73.566	-1.854	B5-03822-P03-CH0	264392	OK	0.7733533	-0.2323051	-0.5898806	0	-94.352	-54.266	1.57	B5-03822-P03-CH1	264392	OK	0.7588454	-0.6438677	0.0979186	0	-95.695	-12.443	-9.951	B5-03822-P04-CH0	264392	OK	0.7991033	-0.2886104	0.5273879	0	-124.522	-33.853	7.168	B5-03822-P04-CH1	264392	OK	0.8048665	-0.5895419	0.0680463	0	-110.196	-42.681	2.477	NA
0.879294532627866	B5-03822-P01-CH0	264400	OK	0.1914257	0.1130299	0.1299347	-0.9662802	156.88	-6.599	-242.764	B5-03822-P02-CH0	264400	OK	0.6979431	0.2981196	-0.651153	0	-78.251	-95.151	-4.721	B5-03822-P02-CH1	264400	OK	0.8001493	-0.2593784	-0.5408178	0	-83.879	-73.858	-2.514	B5-03822-P03-CH0	264400	OK	0.7743961	-0.2352213	-0.5873513	0	-93.705	-54.247	0.858	B5-03822-P03-CH1	264400	OK	0.7596266	-0.6429411	0.09795	0	-95.689	-12.359	-9.963	B5-03822-P04-CH0	264400	OK	0.7997526	-0.2865623	0.5275205	0	-124.931	-34.957	7.887	B5-03822-P04-CH1	264400	OK	0.8057719	-0.5882566	0.0684527	0	-110.131	-42.606	2.545	NA
0.889286515953183	B5-03822-P01-CH0	264408	OK	0.1912842	0.113166	0.1295731	-0.9663408	156.909	-6.656	-242.699	B5-03822-P02-CH0	264408	OK	0.6954364	0.3049387	-0.650677	0	-78.527	-95.171	-4.915	B5-03822-P02-CH1	264408	OK	0.7969607	-0.2566073	-0.5468148	0	-83.632	-73.456	-2.788	B5-03822-P03-CH0	264408	OK	0.7740257	-0.2367268	-0.5872347	0	-93.487	-54.125	1.036	B5-03822-P03-CH1	264408	OK	0.7592466	-0.6434574	0.0975049	0	-95.648	-12.437	-10.079	B5-03822-P04-CH0	264408	OK	0.8002518	-0.2865673	0.5267602	0	-125.133	-35.27	8.326	B5-03822-P04-CH1	264408	OK	0.8054146	-0.5887543	0.0683789	0	-110.028	-42.661	2.307	NA
0.899278499278499	B5-03822-P01-CH0	264416	OK	0.1914077	0.1131395	0.129819	-0.9662865	156.924	-6.608	-242.728	B5-03822-P02-CH0	264416	OK	0.6927987	0.3114671	-0.6503985	0	-78.699	-95.717	-4.48	B5-03822-P02-CH1	264416	OK	0.7934977	-0.2558724	-0.5521691	0	-83.301	-73.281	-1.941	B5-03822-P03-CH0	264416	OK	0.7724714	-0.2390545	-0.5883374	0	-93.592	-54.002	0.64	B5-03822-P03-CH1	264416	OK	0.7591284	-0.643586	0.097576	0	-95.667	-12.559	-10.086	B5-03822-P04-CH0	264416	OK	0.7998619	-0.2834903	0.5290124	0	-125.051	-34.425	7.706	B5-03822-P04-CH1	264416	OK	0.8055877	-0.5885319	0.0682552	0	-110.007	-42.599	2.165	NA
0.909270482603816	B5-03822-P01-CH0	264424	OK	0.1914684	0.1131069	0.1297566	-0.9662867	156.908	-6.592	-242.694	B5-03822-P02-CH0	264424	OK	0.6909446	0.3185405	-0.6489433	0	-78.184	-95.911	-4.761	B5-03822-P02-CH1	264424	OK	0.7905748	-0.2558023	-0.5563781	0	-82.675	-72.734	-1.923	B5-03822-P03-CH0	264424	OK	0.7691977	-0.2404854	-0.5920318	0	-94.068	-54.24	0.355	B5-03822-P03-CH1	264424	OK	0.7588314	-0.6439008	0.0978093	0	-95.729	-12.652	-9.997	B5-03822-P04-CH0	264424	OK	0.7997971	-0.2851602	0.5282122	0	-124.945	-34.454	7.371	B5-03822-P04-CH1	264424	OK	0.805588	-0.5885291	0.0682757	0	-109.988	-42.61	2.246	NA
0.919262465929133	B5-03822-P01-CH0	264432	OK	0.1914402	0.1130376	0.1294199	-0.9663455	156.861	-6.66	-242.635	B5-03822-P02-CH0	264432	OK	0.6885838	0.3246585	-0.6484206	0	-78.56	-96.29	-4.855	B5-03822-P02-CH1	264432	OK	0.7876979	-0.2556911	-0.5604945	0	-81.908	-72.87	-2.457	B5-03822-P03-CH0	264432	OK	0.7682023	-0.2414752	-0.5929207	0	-92.973	-54.564	0.815	B5-03822-P03-CH1	264432	OK	0.7585842	-0.6442258	0.0975864	0	-95.739	-12.605	-10.04	B5-03822-P04-CH0	264432	OK	0.7998095	-0.2862307	0.5276142	0	-124.905	-34.57	7.404	B5-03822-P04-CH1	264432	OK	0.8054241	-0.5887503	0.0683012	0	-110.014	-42.716	2.351	NA
0.929254449254449	B5-03822-P01-CH0	264440	OK	0.1917716	0.1126061	0.1301591	-0.9662309	156.735	-6.628	-242.654	B5-03822-P02-CH0	264440	OK	0.6850828	0.3305668	-0.6491434	0	-78.527	-95.331	-4.48	B5-03822-P02-CH1	264440	OK	0.7847361	-0.2549787	-0.5649559	0	-82.135	-73.285	-3.037	B5-03822-P03-CH0	264440	OK	0.7665255	-0.2403927	-0.595525	0	-92.489	-54.277	0.162	B5-03822-P03-CH1	264440	OK	0.7591668	-0.6435797	0.0973185	0	-95.56	-12.306	-10.227	B5-03822-P04-CH0	264440	OK	0.8000522	-0.2862491	0.5272361	0	-124.871	-34.603	7.184	B5-03822-P04-CH1	264440	OK	0.8060209	-0.5879215	0.0684003	0	-109.898	-42.605	2.269	NA
0.939246432579766	B5-03822-P01-CH0	264448	OK	0.1914212	0.1129576	0.1293224	-0.9663717	156.845	-6.679	-242.642	B5-03822-P02-CH0	264448	OK	0.6834407	0.3361012	-0.6480315	0	-78.528	-95.822	-3.825	B5-03822-P02-CH1	264448	OK	0.7829858	-0.2538192	-0.5678988	0	-81.923	-73.387	-2.769	B5-03822-P03-CH0	264448	OK	0.761919	-0.2406454	-0.6013063	0	-93.944	-54.087	0.207	B5-03822-P03-CH1	264448	OK	0.758675	-0.6442951	0.0964166	0	-95.536	-12.114	-10.189	B5-03822-P04-CH0	264448	OK	0.8000289	-0.2871535	0.5267795	0	-125.074	-34.702	7.264	B5-03822-P04-CH1	264448	OK	0.8054538	-0.5887496	0.0679566	0	-109.983	-42.704	2.491	NA
0.949238415905083	B5-03822-P01-CH0	264456	OK	0.1911796	0.1129329	0.128666	-0.96651	156.832	-6.757	-242.672	B5-03822-P02-CH0	264456	OK	0.6817212	0.3417987	-0.6468616	0	-78.665	-96.416	-4.142	B5-03822-P02-CH1	264456	OK	0.7805369	-0.2521144	-0.5720144	0	-82.379	-73.349	-3.1	B5-03822-P03-CH0	264456	OK	0.7603342	-0.2393212	-0.6038355	0	-93.348	-53.785	0.238	B5-03822-P03-CH1	264456	OK	0.7579821	-0.6450464	0.0968415	0	-95.671	-12.471	-9.716	B5-03822-P04-CH0	264456	OK	0.7996405	-0.288108	0.5268481	0	-124.982	-34.783	7.186	B5-03822-P04-CH1	264456	OK	0.8050941	-0.589271	0.0676996	0	-109.862	-42.673	2.456	NA
0.959230399230399	B5-03822-P01-CH0	264464	OK	0.1910792	0.1130589	0.1283369	-0.9665589	156.886	-6.862	-242.616	B5-03822-P02-CH0	264464	OK	0.6786632	0.3473278	-0.6471319	0	-78.8	-95.947	-3.818	B5-03822-P02-CH1	264464	OK	0.7790661	-0.2491187	-0.5753224	0	-82.466	-72.958	-3.267	B5-03822-P03-CH0	264464	OK	0.7575719	-0.2383472	-0.6076804	0	-93.652	-53.904	-0.521	B5-03822-P03-CH1	264464	OK	0.7577804	-0.6453673	0.0962799	0	-95.557	-12.366	-10.022	B5-03822-P04-CH0	264464	OK	0.7996456	-0.2882686	0.5267525	0	-125.044	-34.947	7.396	B5-03822-P04-CH1	264464	OK	0.8048864	-0.5895655	0.0676053	0	-109.891	-42.786	2.401	NA
0.969222382555716	B5-03822-P01-CH0	264472	OK	0.1910799	0.1132228	0.1285787	-0.9665074	156.955	-6.812	-242.592	B5-03822-P02-CH0	264472	OK	0.6751465	0.3525941	-0.6479619	0	-79.064	-95.579	-3.32	B5-03822-P02-CH1	264472	OK	0.7786106	-0.2486046	-0.5761609	0	-82.19	-73.322	-3.015	B5-03822-P03-CH0	264472	OK	0.7569444	-0.2386375	-0.608348	0	-93.211	-54.093	-0.173	B5-03822-P03-CH1	264472	OK	0.757975	-0.6452314	0.0956572	0	-95.544	-12.121	-10.192	B5-03822-P04-CH0	264472	OK	0.7998219	-0.2882383	0.5265013	0	-125.233	-34.975	7.334	B5-03822-P04-CH1	264472	OK	0.8049714	-0.5894545	0.0675603	0	-109.893	-42.876	2.644	NA
0.979214365881033	B5-03822-P01-CH0	264480	OK	0.1906334	0.1133401	0.1275603	-0.9667168	156.967	-6.924	-242.592	B5-03822-P02-CH0	264480	OK	0.6726309	0.359395	-0.6468408	0	-79.181	-95.794	-3.284	B5-03822-P02-CH1	264480	OK	0.7772917	-0.2461592	-0.5789847	0	-82.2	-73.232	-3.408	B5-03822-P03-CH0	264480	OK	0.755347	-0.2383423	-0.6104456	0	-93.521	-53.812	-0.852	B5-03822-P03-CH1	264480	OK	0.757211	-0.6462797	0.0946259	0	-95.272	-11.924	-10.715	B5-03822-P04-CH0	264480	OK	0.7992491	-0.2895655	0.5266429	0	-125.149	-34.811	7.146	B5-03822-P04-CH1	264480	OK	0.8043189	-0.5903784	0.067264	0	-109.844	-42.905	2.653	NA
0.989206349206349	B5-03822-P01-CH0	264488	OK	0.1903659	0.1133559	0.1271797	-0.9668178	156.966	-6.985	-242.673	B5-03822-P02-CH0	264488	OK	0.6700955	0.3665633	-0.6454482	0	-79.404	-96.325	-3.366	B5-03822-P02-CH1	264488	OK	0.7765502	-0.2430915	-0.5812713	0	-81.813	-73.504	-2.791	B5-03822-P03-CH0	264488	OK	0.7555103	-0.2387263	-0.6100934	0	-92.814	-54.108	0.912	B5-03822-P03-CH1	264488	OK	0.7567841	-0.6467798	0.0946242	0	-95.384	-12.104	-10.276	B5-03822-P04-CH0	264488	OK	0.7988472	-0.290454	0.5267633	0	-125.128	-34.744	6.992	B5-03822-P04-CH1	264488	OK	0.8042205	-0.5905526	0.066911	0	-109.861	-42.881	2.933	NA
