Wav.Time	B5.03822.P01.CH0	Frame	State	Q0	Qx	Qy	Qz	Tx	Ty	Tz	B5.03822.P02.CH0	Frame.1	State.1	Q0.1	Qx.1	Qy.1	Qz.1	Tx.1	Ty.1	Tz.1	B5.03822.P02.CH1	Frame.2	State.2	Q0.2	Qx.2	Qy.2	Qz.2	Tx.2	Ty.2	Tz.2	B5.03822.P03.CH0	Frame.3	State.3	Q0.3	Qx.3	Qy.3	Qz.3	Tx.3	Ty.3	Tz.3	B5.03822.P03.CH1	Frame.4	State.4	Q0.4	Qx.4	Qy.4	Qz.4	Tx.4	Ty.4	Tz.4	B5.03822.P04.CH0	Frame.5	State.5	Q0.5	Qx.5	Qy.5	Qz.5	Tx.5	Ty.5	Tz.5	B5.03822.P04.CH1	Frame.6	State.6	Q0.6	Qx.6	Qy.6	Qz.6	Tx.6	Ty.6	Tz.6	X
0	B5-03822-P01-CH0	2538384	OK	0.1897152	0.1365342	0.092777	-0.9678631	163.951	-41.392	-248.286	B5-03822-P02-CH0	2538384	OK	0.7362118	0.4237752	-0.5276426	0	-93.126	-87.523	3.931	B5-03822-P02-CH1	2538384	OK	0.7189449	-0.1242956	-0.6838632	0	-90.144	-67.219	2.426	B5-03822-P03-CH0	2538384	OK	0.7856572	-0.2728225	-0.5552572	0	-102.927	-47.537	8.703	B5-03822-P03-CH1	2538384	OK	0.7533855	-0.6565752	-0.0363216	0	-102.227	-10.361	5.155	B5-03822-P04-CH0	2538384	OK	0.8033271	-0.4212709	0.420947	0	-128.986	-26.67	13.827	B5-03822-P04-CH1	2538384	OK	0.7947856	-0.6061005	0.0309537	0	-114.051	-32.132	2.859	NA
0.00999204360106616	B5-03822-P01-CH0	2538392	OK	0.1897544	0.1365351	0.0932225	-0.9678125	163.979	-41.377	-248.317	B5-03822-P02-CH0	2538392	OK	0.7357945	0.4228109	-0.5289966	0	-93.267	-87.89	4.35	B5-03822-P02-CH1	2538392	OK	0.7188897	-0.1237204	-0.6840255	0	-90.122	-67.255	2.325	B5-03822-P03-CH0	2538392	OK	0.7875782	-0.2750321	-0.5514326	0	-102.799	-48.931	10.108	B5-03822-P03-CH1	2538392	OK	0.7540418	-0.6558126	-0.0364809	0	-102.309	-9.988	5.034	B5-03822-P04-CH0	2538392	OK	0.8036058	-0.4210606	0.4206254	0	-128.942	-26.603	13.958	B5-03822-P04-CH1	2538392	OK	0.795053	-0.6057579	0.0307913	0	-114.021	-32.127	2.827	NA
0.0199840872021323	B5-03822-P01-CH0	2538400	OK	0.1895829	0.1366016	0.0929896	-0.9678591	163.93	-41.321	-248.225	B5-03822-P02-CH0	2538400	OK	0.7354983	0.4219774	-0.5300729	0	-93.373	-87.98	4.515	B5-03822-P02-CH1	2538400	OK	0.7185062	-0.1235225	-0.6844641	0	-90.221	-67.22	2.395	B5-03822-P03-CH0	2538400	OK	0.7905346	-0.2753655	-0.5470182	0	-102.23	-48.746	8.952	B5-03822-P03-CH1	2538400	OK	0.7536331	-0.6562951	-0.0362476	0	-102.283	-10.004	4.934	B5-03822-P04-CH0	2538400	OK	0.8035534	-0.4212099	0.420576	0	-128.961	-26.568	14.039	B5-03822-P04-CH1	2538400	OK	0.7951123	-0.6056979	0.0304388	0	-113.911	-31.752	2.498	NA
0.0299761308031985	B5-03822-P01-CH0	2538408	OK	0.1898378	0.136713	0.0933142	-0.9677622	164.052	-41.303	-248.321	B5-03822-P02-CH0	2538408	OK	0.7327369	0.4183742	-0.5367119	0	-92.982	-87.88	2.587	B5-03822-P02-CH1	2538408	OK	0.7182702	-0.1238586	-0.6846509	0	-90.282	-67.31	2.531	B5-03822-P03-CH0	2538408	OK	0.7915764	-0.2778238	-0.5442616	0	-103.042	-49.371	9.587	B5-03822-P03-CH1	2538408	OK	0.7533884	-0.656632	-0.0352181	0	-102.514	-10.403	5.117	B5-03822-P04-CH0	2538408	OK	0.8037635	-0.4210313	0.4203534	0	-129.043	-26.581	14.03	B5-03822-P04-CH1	2538408	OK	0.7955969	-0.6050554	0.0305543	0	-114.224	-31.671	2.737	NA
0.0399681744042646	B5-03822-P01-CH0	2538416	OK	0.1897123	0.1364786	0.0932202	-0.9678289	163.93	-41.3	-248.309	B5-03822-P02-CH0	2538416	OK	0.7314505	0.4193144	-0.5377319	0	-92.161	-86.856	1.988	B5-03822-P02-CH1	2538416	OK	0.7182818	-0.1235044	-0.6847028	0	-90.115	-67.28	2.553	B5-03822-P03-CH0	2538416	OK	0.7944334	-0.2809608	-0.5384577	0	-102.882	-48.954	9.533	B5-03822-P03-CH1	2538416	OK	0.7536916	-0.6562619	-0.0356261	0	-102.432	-9.855	4.656	B5-03822-P04-CH0	2538416	OK	0.803628	-0.4215408	0.4201017	0	-128.942	-26.399	13.799	B5-03822-P04-CH1	2538416	OK	0.7957099	-0.604918	0.0303306	0	-113.917	-31.408	2.458	NA
0.0499602180053308	B5-03822-P01-CH0	2538424	OK	0.1904318	0.1365241	0.094194	-0.9675869	164.094	-41.243	-248.447	B5-03822-P02-CH0	2538424	OK	0.7295811	0.4166968	-0.542287	0	-92.32	-88.416	2.397	B5-03822-P02-CH1	2538424	OK	0.7183298	-0.1243071	-0.6845071	0	-89.968	-67.452	2.641	B5-03822-P03-CH0	2538424	OK	0.798227	-0.2844513	-0.5309625	0	-102.709	-49.328	10.438	B5-03822-P03-CH1	2538424	OK	0.7540755	-0.6558814	-0.034492	0	-102.503	-10.179	4.963	B5-03822-P04-CH0	2538424	OK	0.8040984	-0.4210529	0.4196906	0	-128.939	-26.354	13.583	B5-03822-P04-CH1	2538424	OK	0.7965259	-0.6038277	0.0306384	0	-114.034	-31.316	2.316	NA
0.0599522616063969	B5-03822-P01-CH0	2538432	OK	0.1904627	0.1364072	0.0944897	-0.9675685	164.059	-41.19	-248.467	B5-03822-P02-CH0	2538432	OK	0.7275296	0.4173266	-0.5445542	0	-91.872	-88.399	1.826	B5-03822-P02-CH1	2538432	OK	0.7184243	-0.1242349	-0.6844211	0	-89.81	-67.424	2.533	B5-03822-P03-CH0	2538432	OK	0.8011478	-0.2846575	-0.5264337	0	-102.98	-49.355	10.886	B5-03822-P03-CH1	2538432	OK	0.7543893	-0.6555125	-0.0346437	0	-102.454	-9.861	4.714	B5-03822-P04-CH0	2538432	OK	0.8041942	-0.4214994	0.4190585	0	-128.831	-26.062	13.397	B5-03822-P04-CH1	2538432	OK	0.7963145	-0.6040902	0.0309558	0	-113.968	-31.551	2.151	NA
0.0699443052074631	B5-03822-P01-CH0	2538440	OK	0.1902489	0.1362318	0.0944749	-0.9676367	163.988	-41.212	-248.483	B5-03822-P02-CH0	2538440	OK	0.7250964	0.4191862	-0.5463682	0	-91.539	-87.608	1.998	B5-03822-P02-CH1	2538440	OK	0.7185848	-0.1239746	-0.6842998	0	-89.746	-67.386	2.273	B5-03822-P03-CH0	2538440	OK	0.8045168	-0.2858953	-0.5205926	0	-102.888	-50.2	10.55	B5-03822-P03-CH1	2538440	OK	0.7545633	-0.6552938	-0.0349904	0	-102.402	-9.569	4.624	B5-03822-P04-CH0	2538440	OK	0.8041629	-0.4220172	0.4185971	0	-128.698	-25.985	13.571	B5-03822-P04-CH1	2538440	OK	0.7960875	-0.6044027	0.030693	0	-113.744	-31.507	1.662	NA
0.0799363488085293	B5-03822-P01-CH0	2538448	OK	0.1905417	0.1358966	0.0952559	-0.9675496	163.972	-41.171	-248.636	B5-03822-P02-CH0	2538448	OK	0.7229934	0.4194821	-0.5489219	0	-91.722	-88.022	1.341	B5-03822-P02-CH1	2538448	OK	0.7189858	-0.1238236	-0.6839058	0	-89.697	-67.401	2.013	B5-03822-P03-CH0	2538448	OK	0.808374	-0.2849153	-0.515126	0	-102.927	-50.354	10.033	B5-03822-P03-CH1	2538448	OK	0.7551378	-0.6546417	-0.0348011	0	-102.307	-9.453	4.642	B5-03822-P04-CH0	2538448	OK	0.8042171	-0.4217235	0.4187889	0	-128.68	-26.235	13.555	B5-03822-P04-CH1	2538448	OK	0.7964132	-0.6039556	0.0310421	0	-113.574	-31.637	1.539	NA
0.0899283924095954	B5-03822-P01-CH0	2538456	OK	0.1903315	0.135755	0.0946207	-0.9676732	163.838	-41.171	-248.571	B5-03822-P02-CH0	2538456	OK	0.7219515	0.4212008	-0.5489771	0	-91.482	-88.119	-0.067	B5-03822-P02-CH1	2538456	OK	0.7224348	-0.1192586	-0.6810766	0	-89.968	-68.9	3.611	B5-03822-P03-CH0	2538456	OK	0.8123629	-0.2850973	-0.5087102	0	-102.768	-50.016	10.753	B5-03822-P03-CH1	2538456	OK	0.7543971	-0.6555117	-0.0344897	0	-102.266	-9.521	4.648	B5-03822-P04-CH0	2538456	OK	0.8037867	-0.4224984	0.4188342	0	-128.674	-26.057	13.29	B5-03822-P04-CH1	2538456	OK	0.796081	-0.6044013	0.030889	0	-113.407	-31.447	1.414	NA
0.0999204360106616	B5-03822-P01-CH0	2538464	OK	0.1905601	0.1357321	0.0947683	-0.967617	163.921	-41.193	-248.652	B5-03822-P02-CH0	2538464	OK	0.7195028	0.4247279	-0.5494742	0	-91.286	-88.424	1.219	B5-03822-P02-CH1	2538464	OK	0.7262743	-0.1145075	-0.6778006	0	-89.409	-68.918	3.121	B5-03822-P03-CH0	2538464	OK	0.8160241	-0.2911943	-0.4993101	0	-103.596	-50.961	11.742	B5-03822-P03-CH1	2538464	OK	0.7541241	-0.6558708	-0.0336198	0	-102.404	-9.742	4.755	B5-03822-P04-CH0	2538464	OK	0.8036464	-0.4224101	0.4191923	0	-128.786	-26.242	13.27	B5-03822-P04-CH1	2538464	OK	0.7964596	-0.603907	0.0307978	0	-113.419	-31.182	1.131	NA
0.109912479611728	B5-03822-P01-CH0	2538472	OK	0.1904019	0.1359601	0.0943191	-0.96766	163.962	-41.23	-248.57	B5-03822-P02-CH0	2538472	OK	0.7180449	0.4289271	-0.5481178	0	-90.935	-89.001	1.185	B5-03822-P02-CH1	2538472	OK	0.7276645	-0.1109636	-0.6768984	0	-89.556	-69.335	3.13	B5-03822-P03-CH0	2538472	OK	0.8208946	-0.297549	-0.4874389	0	-103.632	-52.023	12.419	B5-03822-P03-CH1	2538472	OK	0.7526673	-0.6575907	-0.0326576	0	-102.638	-10.34	4.929	B5-03822-P04-CH0	2538472	OK	0.8031388	-0.4228713	0.4196997	0	-129.071	-26.279	12.881	B5-03822-P04-CH1	2538472	OK	0.7962026	-0.6042427	0.0308575	0	-113.527	-31.268	1.362	NA
0.119904523212794	B5-03822-P01-CH0	2538480	OK	0.1907361	0.1357309	0.0951025	-0.9675497	163.995	-41.209	-248.725	B5-03822-P02-CH0	2538480	OK	0.7157023	0.4347654	-0.5465796	0	-90.446	-89.546	0.338	B5-03822-P02-CH1	2538480	OK	0.7308336	-0.1084605	-0.6738832	0	-89.292	-70.036	3.267	B5-03822-P03-CH0	2538480	OK	0.827653	-0.3021643	-0.4729558	0	-103.731	-52.227	12.895	B5-03822-P03-CH1	2538480	OK	0.7510422	-0.6594214	-0.0331531	0	-102.604	-8.48	4.807	B5-03822-P04-CH0	2538480	OK	0.8004228	-0.4191425	0.4285358	0	-130.029	-27.782	15.206	B5-03822-P04-CH1	2538480	OK	0.7966665	-0.6036111	0.0312436	0	-113.687	-31.457	1.538	NA
0.12989656681386	B5-03822-P01-CH0	2538488	OK	0.1904565	0.1354259	0.0945149	-0.9677051	163.807	-41.313	-248.643	B5-03822-P02-CH0	2538488	OK	0.7116782	0.4401015	-0.5475625	0	-90.7	-90.74	1.646	B5-03822-P02-CH1	2538488	OK	0.734882	-0.1095688	-0.6692856	0	-88.803	-70.908	3.5	B5-03822-P03-CH0	2538488	OK	0.8363142	-0.3064047	-0.4546369	0	-102.878	-53.561	13.78	B5-03822-P03-CH1	2538488	OK	0.7496278	-0.660762	-0.0381006	0	-100.926	-6.521	3.548	B5-03822-P04-CH0	2538488	OK	0.7973387	-0.4217371	0.4317277	0	-129.248	-25.047	11.451	B5-03822-P04-CH1	2538488	OK	0.7961739	-0.6042619	0.0312197	0	-113.305	-31.549	1.306	NA
0.139888610414926	B5-03822-P01-CH0	2538496	OK	0.1906068	0.1354638	0.0947298	-0.9676491	163.885	-41.286	-248.736	B5-03822-P02-CH0	2538496	OK	0.707102	0.4466999	-0.5481478	0	-90.071	-91.448	0.701	B5-03822-P02-CH1	2538496	OK	0.7386309	-0.1094717	-0.6651618	0	-88.29	-71.682	4.325	B5-03822-P03-CH0	2538496	OK	0.8445209	-0.3052438	-0.4400121	0	-104.21	-54.061	14.273	B5-03822-P03-CH1	2538496	OK	0.74347	-0.6679707	-0.0326742	0	-101.961	-9.763	6.007	B5-03822-P04-CH0	2538496	OK	0.7950423	-0.4150784	0.4422869	0	-130.152	-27.596	15.218	B5-03822-P04-CH1	2538496	OK	0.7963628	-0.604012	0.0312399	0	-113.367	-31.451	1.157	NA
0.149880654015992	B5-03822-P01-CH0	2538504	OK	0.1903987	0.1353814	0.0944836	-0.9677257	163.822	-41.229	-248.733	B5-03822-P02-CH0	2538504	OK	0.7027137	0.4543356	-0.547515	0	-88.874	-91.203	-0.497	B5-03822-P02-CH1	2538504	OK	0.7428577	-0.1095269	-0.6604289	0	-87.983	-72.191	5.149	B5-03822-P03-CH0	2538504	OK	0.8557019	-0.3021446	-0.4200988	0	-103.359	-55.131	14.856	B5-03822-P03-CH1	2538504	OK	0.740023	-0.6717644	-0.033145	0	-102.319	-9.681	5.08	B5-03822-P04-CH0	2538504	OK	0.7917989	-0.410275	0.4524698	0	-130.888	-28.057	14.618	B5-03822-P04-CH1	2538504	OK	0.7961899	-0.6042359	0.0313166	0	-113.288	-31.358	1.094	NA
0.159872697617059	B5-03822-P01-CH0	2538512	OK	0.1904208	0.1354957	0.0944897	-0.9677048	163.882	-41.328	-248.697	B5-03822-P02-CH0	2538512	OK	0.6975157	0.4594436	-0.549894	0	-88.966	-92.047	-1.591	B5-03822-P02-CH1	2538512	OK	0.7461806	-0.1122109	-0.6562189	0	-88.513	-73.265	4.494	B5-03822-P03-CH0	2538512	OK	0.8653922	-0.29705	-0.4035563	0	-103.747	-56.284	14.839	B5-03822-P03-CH1	2538512	OK	0.7379652	-0.6738959	-0.0356594	0	-102.546	-8.945	5.666	B5-03822-P04-CH0	2538512	OK	0.788217	-0.4021007	0.4658637	0	-132.057	-31.052	16.251	B5-03822-P04-CH1	2538512	OK	0.7964478	-0.6038724	0.0317633	0	-113.451	-31.4	1.114	NA
0.169864741218125	B5-03822-P01-CH0	2538520	OK	0.1904953	0.1351376	0.0946113	-0.9677283	163.727	-41.357	-248.668	B5-03822-P02-CH0	2538520	OK	0.6935053	0.4626284	-0.552291	0	-88.776	-93.974	-1.417	B5-03822-P02-CH1	2538520	OK	0.7509444	-0.1120791	-0.6507847	0	-87.945	-74.291	5.064	B5-03822-P03-CH0	2538520	OK	0.8737369	-0.2893312	-0.3909877	0	-105.235	-57.497	16.35	B5-03822-P03-CH1	2538520	OK	0.733144	-0.6790931	-0.0365025	0	-102.486	-9.904	5.477	B5-03822-P04-CH0	2538520	OK	0.7865635	-0.396305	0.4735613	0	-132.21	-28.98	15.187	B5-03822-P04-CH1	2538520	OK	0.796648	-0.603556	0.0327425	0	-113.535	-31.54	1.133	NA
0.179856784819191	B5-03822-P01-CH0	2538528	OK	0.190715	0.1352945	0.0947596	-0.9676486	163.782	-41.349	-248.609	B5-03822-P02-CH0	2538528	OK	0.6895586	0.468695	-0.5521176	0	-87.935	-94.778	-1.668	B5-03822-P02-CH1	2538528	OK	0.7535436	-0.1098275	-0.6481589	0	-88.083	-74.7	4.229	B5-03822-P03-CH0	2538528	OK	0.883234	-0.281984	-0.3746769	0	-104.584	-58.955	17.057	B5-03822-P03-CH1	2538528	OK	0.7339916	-0.6777383	-0.0438992	0	-103.256	-6.626	4.697	B5-03822-P04-CH0	2538528	OK	0.7840451	-0.3870366	0.4852587	0	-133.097	-30.421	14.7	B5-03822-P04-CH1	2538528	OK	0.7971534	-0.602852	0.0334067	0	-113.799	-31.339	0.924	NA
0.189848828420257	B5-03822-P01-CH0	2538536	OK	0.1905115	0.1354858	0.0943635	-0.9677006	163.789	-41.402	-248.545	B5-03822-P02-CH0	2538536	OK	0.6856473	0.4748402	-0.5517378	0	-87.277	-94.785	-1.293	B5-03822-P02-CH1	2538536	OK	0.7570091	-0.1083622	-0.6443562	0	-87.28	-76.052	4.823	B5-03822-P03-CH0	2538536	OK	0.8902221	-0.2715521	-0.3657378	0	-105.299	-59.466	17.566	B5-03822-P03-CH1	2538536	OK	0.7306807	-0.6810343	-0.0479365	0	-102.966	-7.241	7.104	B5-03822-P04-CH0	2538536	OK	0.781422	-0.3802131	0.4947905	0	-133.405	-30.326	13.322	B5-03822-P04-CH1	2538536	OK	0.796836	-0.6032126	0.034453	0	-113.96	-31.635	0.868	NA
0.199840872021323	B5-03822-P01-CH0	2538544	OK	0.1897863	0.1359085	0.0931688	-0.9678996	163.748	-41.426	-248.404	B5-03822-P02-CH0	2538544	OK	0.682432	0.4803488	-0.5509551	0	-87.635	-95.396	-1.331	B5-03822-P02-CH1	2538544	OK	0.7594675	-0.106409	-0.6417837	0	-87.286	-76.593	4.661	B5-03822-P03-CH0	2538544	OK	0.8967783	-0.2683747	-0.3518007	0	-104.969	-61.513	18.748	B5-03822-P03-CH1	2538544	OK	0.7308082	-0.6803406	-0.0552805	0	-102.368	-4.907	5.605	B5-03822-P04-CH0	2538544	OK	0.7807499	-0.3788872	0.4968643	0	-133.196	-27.622	12.099	B5-03822-P04-CH1	2538544	OK	0.7960651	-0.6042044	0.0348908	0	-114.033	-31.609	0.648	NA
0.209832915622389	B5-03822-P01-CH0	2538552	OK	0.1894853	0.1356102	0.0929254	-0.9680238	163.554	-41.45	-248.376	B5-03822-P02-CH0	2538552	OK	0.6809074	0.4836004	-0.5499961	0	-86.899	-96.102	-2.137	B5-03822-P02-CH1	2538552	OK	0.7620956	-0.1055937	-0.638796	0	-87.211	-77.447	5.023	B5-03822-P03-CH0	2538552	OK	0.9022072	-0.2606168	-0.3436583	0	-105.303	-61.929	19.584	B5-03822-P03-CH1	2538552	OK	0.7269357	-0.684693	-0.0525353	0	-103.173	-6.828	5.636	B5-03822-P04-CH0	2538552	OK	0.7801412	-0.3743958	0.501206	0	-133.791	-29.685	13.841	B5-03822-P04-CH1	2538552	OK	0.7961557	-0.6040385	0.0356878	0	-114.031	-31.577	0.662	NA
0.219824959223455	B5-03822-P01-CH0	2538560	OK	0.1895395	0.1358081	0.0929865	-0.9679796	163.527	-41.403	-248.213	B5-03822-P02-CH0	2538560	OK	0.6785237	0.4840893	-0.5525063	0	-87.196	-97.667	-2.775	B5-03822-P02-CH1	2538560	OK	0.7645106	-0.1088408	-0.635356	0	-86.31	-78.457	5.64	B5-03822-P03-CH0	2538560	OK	0.9057158	-0.256887	-0.3371765	0	-105.139	-62.243	19.633	B5-03822-P03-CH1	2538560	OK	0.7269196	-0.6844976	-0.0552355	0	-102.7	-6.538	5.509	B5-03822-P04-CH0	2538560	OK	0.7795275	-0.3798684	0.4980331	0	-131.697	-26.665	12.623	B5-03822-P04-CH1	2538560	OK	0.796252	-0.6038294	0.037052	0	-114.298	-31.789	0.746	NA
0.229817002824522	B5-03822-P01-CH0	2538568	OK	0.1892616	0.1360373	0.093007	-0.9679998	163.578	-41.397	-248.201	B5-03822-P02-CH0	2538568	OK	0.6739772	0.4835135	-0.5585423	0	-87.246	-97.898	-1.796	B5-03822-P02-CH1	2538568	OK	0.7636673	-0.1109918	-0.6359977	0	-86.526	-78.479	4.54	B5-03822-P03-CH0	2538568	OK	0.9086329	-0.2571652	-0.3290173	0	-104.662	-63.123	19.424	B5-03822-P03-CH1	2538568	OK	0.7262942	-0.6851101	-0.0558644	0	-103.073	-7.363	6.427	B5-03822-P04-CH0	2538568	OK	0.7807206	-0.3770388	0.4983142	0	-132.548	-28.05	13.501	B5-03822-P04-CH1	2538568	OK	0.7961608	-0.6038826	0.0381279	0	-114.544	-32.146	0.899	NA
0.239809046425588	B5-03822-P01-CH0	2538576	OK	0.1888203	0.1361028	0.0927639	-0.9681001	163.465	-41.447	-248.01	B5-03822-P02-CH0	2538576	OK	0.6711433	0.4833773	-0.5620614	0	-86.66	-97.725	-1.162	B5-03822-P02-CH1	2538576	OK	0.7636259	-0.1167127	-0.6350226	0	-85.933	-78.75	4.851	B5-03822-P03-CH0	2538576	OK	0.910118	-0.2573109	-0.3247711	0	-104.257	-63.355	19.229	B5-03822-P03-CH1	2538576	OK	0.7262124	-0.6850361	-0.0578025	0	-102.821	-7.625	6.572	B5-03822-P04-CH0	2538576	OK	0.781214	-0.3804528	0.4949347	0	-132.102	-27.025	12.267	B5-03822-P04-CH1	2538576	OK	0.7961271	-0.6038702	0.0390189	0	-114.843	-32.434	1.324	NA
0.249801090026654	B5-03822-P01-CH0	2538584	OK	0.1886884	0.1360924	0.0929668	-0.9681078	163.431	-41.486	-247.998	B5-03822-P02-CH0	2538584	OK	0.6694453	0.4824649	-0.5648634	0	-86.405	-97.549	-0.92	B5-03822-P02-CH1	2538584	OK	0.7621227	-0.1219005	-0.6358532	0	-86.135	-79.103	5.312	B5-03822-P03-CH0	2538584	OK	0.9107933	-0.2565422	-0.3234837	0	-103.539	-63.912	20.327	B5-03822-P03-CH1	2538584	OK	0.7289715	-0.6819707	-0.0593001	0	-102.557	-6.337	6.22	B5-03822-P04-CH0	2538584	OK	0.7821349	-0.3850303	0.489915	0	-131.798	-27.14	11.98	B5-03822-P04-CH1	2538584	OK	0.7963763	-0.6034705	0.040102	0	-115.059	-32.757	1.736	NA
0.25979313362772	B5-03822-P01-CH0	2538592	OK	0.1881591	0.136392	0.0924997	-0.9682134	163.436	-41.46	-247.874	B5-03822-P02-CH0	2538592	OK	0.670883	0.4821582	-0.5634176	0	-86.419	-97.396	-0.656	B5-03822-P02-CH1	2538592	OK	0.7616702	-0.1268626	-0.6354246	0	-85.609	-78.963	5.541	B5-03822-P03-CH0	2538592	OK	0.9089334	-0.2590314	-0.3267152	0	-103.972	-63.381	19.511	B5-03822-P03-CH1	2538592	OK	0.7258369	-0.6857173	-0.0543369	0	-103.055	-8.852	6.714	B5-03822-P04-CH0	2538592	OK	0.7849364	-0.3889479	0.4822804	0	-132.614	-28.167	13.363	B5-03822-P04-CH1	2538592	OK	0.7959875	-0.6039607	0.0404394	0	-115.192	-32.902	1.812	NA
0.269785177228786	B5-03822-P01-CH0	2538600	OK	0.1878962	0.1368025	0.0921663	-0.9682383	163.536	-41.397	-247.851	B5-03822-P02-CH0	2538600	OK	0.6753358	0.4830799	-0.557275	0	-85.256	-96.479	-1.545	B5-03822-P02-CH1	2538600	OK	0.7611559	-0.1288683	-0.6356373	0	-84.546	-78.503	4.913	B5-03822-P03-CH0	2538600	OK	0.9070352	-0.2671111	-0.3254825	0	-102.514	-64.224	19.542	B5-03822-P03-CH1	2538600	OK	0.7268801	-0.6845423	-0.0552018	0	-103.052	-7.026	6.063	B5-03822-P04-CH0	2538600	OK	0.7867855	-0.3978995	0.4718522	0	-131.474	-26.522	12.931	B5-03822-P04-CH1	2538600	OK	0.7958223	-0.6041549	0.0407879	0	-115.481	-32.999	2.143	NA
0.279777220829852	B5-03822-P01-CH0	2538608	OK	0.1876421	0.1363828	0.0925494	-0.9683103	163.358	-41.395	-247.863	B5-03822-P02-CH0	2538608	OK	0.680587	0.486673	-0.5476775	0	-85.114	-96.325	-1.185	B5-03822-P02-CH1	2538608	OK	0.7585089	-0.1284284	-0.6388822	0	-84.215	-77.79	3.664	B5-03822-P03-CH0	2538608	OK	0.9037587	-0.2732184	-0.3295026	0	-101.981	-63.905	18.906	B5-03822-P03-CH1	2538608	OK	0.7284055	-0.6827484	-0.0572716	0	-102.746	-6.047	5.831	B5-03822-P04-CH0	2538608	OK	0.7879766	-0.4025988	0.4658401	0	-131.594	-28.761	14.625	B5-03822-P04-CH1	2538608	OK	0.7957077	-0.6042585	0.0414829	0	-115.449	-33.632	2.882	NA
0.289769264430919	B5-03822-P01-CH0	2538616	OK	0.1876795	0.1362356	0.0928522	-0.9682948	163.341	-41.365	-247.898	B5-03822-P02-CH0	2538616	OK	0.6875229	0.4921952	-0.5339065	0	-85.823	-96.403	-1.633	B5-03822-P02-CH1	2538616	OK	0.753334	-0.1247358	-0.6457003	0	-84.345	-77.608	4.172	B5-03822-P03-CH0	2538616	OK	0.9003756	-0.2778168	-0.3348755	0	-101.246	-63.534	19.251	B5-03822-P03-CH1	2538616	OK	0.7295242	-0.6815188	-0.0576767	0	-102.681	-5.59	5.732	B5-03822-P04-CH0	2538616	OK	0.7897532	-0.4138544	0.4527852	0	-129.912	-25.985	12.964	B5-03822-P04-CH1	2538616	OK	0.7959063	-0.6040096	0.0412989	0	-115.475	-33.664	2.95	NA
0.299761308031985	B5-03822-P01-CH0	2538624	OK	0.1877722	0.1360811	0.0934526	-0.9682408	163.294	-41.303	-247.834	B5-03822-P02-CH0	2538624	OK	0.6949147	0.4991253	-0.5176559	0	-86.472	-95.948	-1.043	B5-03822-P02-CH1	2538624	OK	0.7496742	-0.1217829	-0.6505056	0	-82.987	-77.308	3.513	B5-03822-P03-CH0	2538624	OK	0.8959989	-0.2802854	-0.3444213	0	-101.577	-62.55	18.413	B5-03822-P03-CH1	2538624	OK	0.7309944	-0.6799355	-0.057748	0	-102.584	-5.115	5.456	B5-03822-P04-CH0	2538624	OK	0.7917517	-0.4221898	0.4414578	0	-128.033	-24.198	12.412	B5-03822-P04-CH1	2538624	OK	0.7963812	-0.6033939	0.0411439	0	-115.4	-33.678	3.216	NA
0.309753351633051	B5-03822-P01-CH0	2538632	OK	0.1877379	0.1362529	0.093795	-0.9681901	163.35	-41.265	-247.805	B5-03822-P02-CH0	2538632	OK	0.7045685	0.5055385	-0.4980101	0	-86.247	-95.042	-2.149	B5-03822-P02-CH1	2538632	OK	0.7433385	-0.1145957	-0.6590264	0	-83.23	-76.896	3.033	B5-03822-P03-CH0	2538632	OK	0.8922013	-0.2864854	-0.3491459	0	-101.091	-62.991	18.543	B5-03822-P03-CH1	2538632	OK	0.7312419	-0.680631	-0.0450195	0	-103.072	-8.769	6.693	B5-03822-P04-CH0	2538632	OK	0.7941136	-0.4199149	0.4393803	0	-129.215	-27.983	15.82	B5-03822-P04-CH1	2538632	OK	0.7965098	-0.6032483	0.0407884	0	-115.554	-33.774	3.441	NA
0.319745395234117	B5-03822-P01-CH0	2538640	OK	0.187367	0.1363508	0.0934817	-0.9682785	163.363	-41.262	-247.795	B5-03822-P02-CH0	2538640	OK	0.7138895	0.5128445	-0.4768148	0	-87.087	-94.45	-2.621	B5-03822-P02-CH1	2538640	OK	0.7365927	-0.1033259	-0.6683973	0	-83.506	-76.416	3.488	B5-03822-P03-CH0	2538640	OK	0.88822	-0.2902542	-0.3561148	0	-101.44	-62.252	18.705	B5-03822-P03-CH1	2538640	OK	0.7361704	-0.6753306	-0.0445164	0	-102.918	-7.374	7.198	B5-03822-P04-CH0	2538640	OK	0.7957951	-0.4207759	0.4354972	0	-129.018	-28.72	16.906	B5-03822-P04-CH1	2538640	OK	0.7960873	-0.6038537	0.0400707	0	-115.393	-33.866	3.658	NA
0.329737438835183	B5-03822-P01-CH0	2538648	OK	0.187335	0.1364477	0.0933394	-0.9682848	163.395	-41.276	-247.768	B5-03822-P02-CH0	2538648	OK	0.7227277	0.5205314	-0.4546556	0	-88.209	-93.495	-1.808	B5-03822-P02-CH1	2538648	OK	0.7306712	-0.0903712	-0.6767219	0	-83.668	-76.536	3.176	B5-03822-P03-CH0	2538648	OK	0.8851755	-0.2964209	-0.3586069	0	-100.196	-62.044	18.399	B5-03822-P03-CH1	2538648	OK	0.7397321	-0.6715227	-0.0430545	0	-102.599	-6.603	5.803	B5-03822-P04-CH0	2538648	OK	0.798233	-0.4213945	0.4304076	0	-128.524	-26.381	14.745	B5-03822-P04-CH1	2538648	OK	0.7961971	-0.603776	0.0390477	0	-115.237	-33.537	3.624	NA
0.339729482436249	B5-03822-P01-CH0	2538656	OK	0.1875327	0.1362285	0.0939708	-0.9682163	163.396	-41.216	-247.899	B5-03822-P02-CH0	2538656	OK	0.7322876	0.5223272	-0.4369544	0	-89.982	-94.599	0.759	B5-03822-P02-CH1	2538656	OK	0.726503	-0.0699536	-0.6835934	0	-83.36	-75.635	2.858	B5-03822-P03-CH0	2538656	OK	0.8812217	-0.2996701	-0.3655766	0	-99.578	-61.998	18.344	B5-03822-P03-CH1	2538656	OK	0.7435523	-0.6672543	-0.043608	0	-101.838	-5.6	4.056	B5-03822-P04-CH0	2538656	OK	0.7990631	-0.4173559	0.4327958	0	-128.269	-27.677	14.757	B5-03822-P04-CH1	2538656	OK	0.7966271	-0.6032609	0.0382313	0	-115.116	-33.322	3.63	NA
0.349721526037316	B5-03822-P01-CH0	2538664	OK	0.1870848	0.1364638	0.0934122	-0.9683238	163.419	-41.23	-247.833	B5-03822-P02-CH0	2538664	OK	0.7405145	0.5259081	-0.4184005	0	-90.724	-93.042	1.83	B5-03822-P02-CH1	2538664	OK	0.7230146	-0.0507507	-0.688966	0	-83.297	-74.898	2.716	B5-03822-P03-CH0	2538664	OK	0.8756976	-0.2961092	-0.3814093	0	-100.178	-59.855	16.649	B5-03822-P03-CH1	2538664	OK	0.7451467	-0.6654867	-0.043403	0	-101.561	-5.984	4.663	B5-03822-P04-CH0	2538664	OK	0.8001455	-0.4137801	0.4342272	0	-128.034	-26.172	12.825	B5-03822-P04-CH1	2538664	OK	0.7959321	-0.6042399	0.0372336	0	-115	-33.422	3.842	NA
0.359713569638382	B5-03822-P01-CH0	2538672	OK	0.1876997	0.1362724	0.0943762	-0.9681383	163.362	-41.059	-247.814	B5-03822-P02-CH0	2538672	OK	0.7485226	0.5240722	-0.4062785	0	-91.524	-92.252	3.379	B5-03822-P02-CH1	2538672	OK	0.7207625	-0.0318498	-0.69245	0	-83.641	-74.871	3.146	B5-03822-P03-CH0	2538672	OK	0.8683548	-0.2952678	-0.3984682	0	-99.964	-59.006	16.667	B5-03822-P03-CH1	2538672	OK	0.7473606	-0.663135	-0.0412817	0	-102.229	-6.659	5.73	B5-03822-P04-CH0	2538672	OK	0.8014499	-0.4071584	0.438064	0	-127.283	-24.259	11.957	B5-03822-P04-CH1	2538672	OK	0.7968001	-0.6031345	0.0365838	0	-114.727	-32.924	3.46	NA
0.369705613239448	B5-03822-P01-CH0	2538680	OK	0.1876606	0.1361322	0.0944403	-0.9681594	163.299	-41.108	-247.786	B5-03822-P02-CH0	2538680	OK	0.7546761	0.5141851	-0.4075263	0	-94.684	-93.487	10.401	B5-03822-P02-CH1	2538680	OK	0.7218142	-0.015454	-0.6919143	0	-83.726	-74.447	3.38	B5-03822-P03-CH0	2538680	OK	0.8592871	-0.2948255	-0.4179757	0	-99.721	-57.86	15.097	B5-03822-P03-CH1	2538680	OK	0.7480322	-0.6624436	-0.0402038	0	-102.657	-7.62	6.03	B5-03822-P04-CH0	2538680	OK	0.8018893	-0.3986654	0.4450162	0	-126.927	-24.587	13.274	B5-03822-P04-CH1	2538680	OK	0.7969282	-0.603032	0.0354661	0	-114.553	-32.695	3.402	NA
0.379697656840514	B5-03822-P01-CH0	2538688	OK	0.1874001	0.1364642	0.0940122	-0.9682047	163.345	-41.113	-247.69	B5-03822-P02-CH0	2538688	OK	0.7625513	0.5010543	-0.4092189	0	-96.858	-95.059	14.533	B5-03822-P02-CH1	2538688	OK	0.7215974	-0.0075634	-0.6922716	0	-85.329	-73.936	2.617	B5-03822-P03-CH0	2538688	OK	0.8489561	-0.2931305	-0.4397136	0	-99.119	-57.119	15.045	B5-03822-P03-CH1	2538688	OK	0.7474982	-0.663119	-0.0389827	0	-102.539	-9.01	5.957	B5-03822-P04-CH0	2538688	OK	0.802643	-0.3899022	0.4513761	0	-128.19	-25.104	12.659	B5-03822-P04-CH1	2538688	OK	0.7967969	-0.6032876	0.0340406	0	-114.459	-32.184	2.909	NA
0.38968970044158	B5-03822-P01-CH0	2538696	OK	0.1874857	0.1363835	0.094541	-0.9681481	163.315	-41.043	-247.756	B5-03822-P02-CH0	2538696	OK	0.7689601	0.4917631	-0.4084965	0	-97.728	-94.57	15.179	B5-03822-P02-CH1	2538696	OK	0.7245137	-0.0041168	-0.6892481	0	-85.136	-73.096	3.712	B5-03822-P03-CH0	2538696	OK	0.8392497	-0.2871557	-0.4617375	0	-98.769	-55.836	14.662	B5-03822-P03-CH1	2538696	OK	0.7500758	-0.6601901	-0.0391831	0	-102.234	-8.523	5.763	B5-03822-P04-CH0	2538696	OK	0.8033893	-0.3791611	0.4591323	0	-129.635	-26.633	13.154	B5-03822-P04-CH1	2538696	OK	0.7968683	-0.6031941	0.0340261	0	-114.389	-32.426	3.321	NA
0.399681744042646	B5-03822-P01-CH0	2538704	OK	0.1873698	0.1363078	0.0947958	-0.9681562	163.271	-41.063	-247.767	B5-03822-P02-CH0	2538704	OK	0.7743051	0.477513	-0.4152503	0	-99.085	-94.932	17.885	B5-03822-P02-CH1	2538704	OK	0.7284077	-0.0038251	-0.6851332	0	-85.479	-71.736	3.35	B5-03822-P03-CH0	2538704	OK	0.8322954	-0.2765499	-0.4804213	0	-98.695	-55.011	15.103	B5-03822-P03-CH1	2538704	OK	0.7522672	-0.6576133	-0.040483	0	-101.838	-7.771	5.192	B5-03822-P04-CH0	2538704	OK	0.8040079	-0.3724122	0.4635521	0	-129.332	-27.313	15.247	B5-03822-P04-CH1	2538704	OK	0.7968049	-0.6032918	0.0337769	0	-114.481	-32.692	3.759	NA
0.409673787643712	B5-03822-P01-CH0	2538712	OK	0.1870758	0.1363705	0.0945144	-0.9682318	163.306	-41.1	-247.882	B5-03822-P02-CH0	2538712	OK	0.7807272	0.4672619	-0.4148872	0	-98.414	-93.352	16.983	B5-03822-P02-CH1	2538712	OK	0.732478	-0.0129532	-0.6806674	0	-86.617	-71.436	4.341	B5-03822-P03-CH0	2538712	OK	0.8266435	-0.2609459	-0.4985658	0	-98.76	-53.524	14.776	B5-03822-P03-CH1	2538712	OK	0.7557682	-0.6535048	-0.0417843	0	-101.842	-5.886	4.488	B5-03822-P04-CH0	2538712	OK	0.8044699	-0.3672736	0.4668385	0	-129.636	-26.947	13.787	B5-03822-P04-CH1	2538712	OK	0.7966253	-0.6035758	0.0329301	0	-114.288	-32.643	3.925	NA
0.419665831244779	B5-03822-P01-CH0	2538720	OK	0.186856	0.136486	0.094427	-0.9682665	163.304	-41.145	-247.877	B5-03822-P02-CH0	2538720	OK	0.7858992	0.4473664	-0.4268791	0	-99.647	-94.843	18.821	B5-03822-P02-CH1	2538720	OK	0.7400185	-0.0261905	-0.6720764	0	-87.024	-70.853	3.584	B5-03822-P03-CH0	2538720	OK	0.8197278	-0.2395591	-0.5202478	0	-99.013	-51.415	13.334	B5-03822-P03-CH1	2538720	OK	0.7551799	-0.6542607	-0.0405747	0	-101.107	-7.365	3.641	B5-03822-P04-CH0	2538720	OK	0.8050466	-0.3603434	0.4712246	0	-129.816	-28.753	15.613	B5-03822-P04-CH1	2538720	OK	0.796655	-0.6035834	0.0320606	0	-114.185	-32.486	3.782	NA
0.429657874845845	B5-03822-P01-CH0	2538728	OK	0.1865272	0.1367015	0.0945313	-0.9682893	163.26	-41.036	-247.777	B5-03822-P02-CH0	2538728	OK	0.7890109	0.4380267	-0.4308066	0	-98.99	-92.457	17.661	B5-03822-P02-CH1	2538728	OK	0.7488446	-0.0449607	-0.6612188	0	-87.922	-70.098	4.35	B5-03822-P03-CH0	2538728	OK	0.8154545	-0.2202746	-0.5352691	0	-98.224	-50.684	13.272	B5-03822-P03-CH1	2538728	OK	0.757478	-0.6516708	-0.0393976	0	-101.441	-7.559	3.655	B5-03822-P04-CH0	2538728	OK	0.8072924	-0.3551593	0.4713183	0	-129.683	-27.931	16.47	B5-03822-P04-CH1	2538728	OK	0.7970522	-0.6031288	0.0307155	0	-114.344	-31.954	3.685	NA
0.439649918446911	B5-03822-P01-CH0	2538736	OK	0.18628	0.1371098	0.0935588	-0.9683736	163.283	-41.116	-247.67	B5-03822-P02-CH0	2538736	OK	0.792229	0.4172699	-0.445263	0	-99.945	-92.913	17.458	B5-03822-P02-CH1	2538736	OK	0.7577988	-0.0648944	-0.6492532	0	-89.261	-68.92	4.337	B5-03822-P03-CH0	2538736	OK	0.8095072	-0.2001571	-0.5519378	0	-99.402	-50.347	13.686	B5-03822-P03-CH1	2538736	OK	0.7587871	-0.6502253	-0.0380685	0	-102.092	-8.189	4.227	B5-03822-P04-CH0	2538736	OK	0.8089798	-0.3502393	0.472106	0	-130.847	-28.199	15.086	B5-03822-P04-CH1	2538736	OK	0.7963367	-0.6040885	0.0304128	0	-114.328	-32.151	3.767	NA
0.449641962047977	B5-03822-P01-CH0	2538744	OK	0.1861383	0.1370511	0.0935824	-0.9684069	163.222	-41.116	-247.663	B5-03822-P02-CH0	2538744	OK	0.7952452	0.3970406	-0.4581963	0	-100.026	-92.914	17.015	B5-03822-P02-CH1	2538744	OK	0.7649076	-0.0849173	-0.6385181	0	-90.815	-68.708	5.774	B5-03822-P03-CH0	2538744	OK	0.8043422	-0.1772008	-0.5671274	0	-99.444	-49.638	13.53	B5-03822-P03-CH1	2538744	OK	0.7609426	-0.6476946	-0.0381838	0	-101.204	-8.102	4.103	B5-03822-P04-CH0	2538744	OK	0.8100636	-0.3481643	0.4717824	0	-128.832	-26.083	15.22	B5-03822-P04-CH1	2538744	OK	0.7965376	-0.60387	0.029478	0	-114.321	-32.022	3.904	NA
0.459634005649043	B5-03822-P01-CH0	2538752	OK	0.1855418	0.1368795	0.0931909	-0.9685833	163.079	-41.215	-247.68	B5-03822-P02-CH0	2538752	OK	0.8003198	0.3870304	-0.4579255	0	-97.556	-90.021	13.439	B5-03822-P02-CH1	2538752	OK	0.7681503	-0.1083976	-0.631027	0	-92.888	-68.128	4.75	B5-03822-P03-CH0	2538752	OK	0.7987884	-0.1545281	-0.5814277	0	-99.659	-50.513	14.366	B5-03822-P03-CH1	2538752	OK	0.760407	-0.648418	-0.0365417	0	-101.455	-9.869	5.67	B5-03822-P04-CH0	2538752	OK	0.8119515	-0.3424865	0.4726921	0	-129.532	-26.779	16.257	B5-03822-P04-CH1	2538752	OK	0.7963942	-0.6041206	0.028188	0	-114.195	-31.996	4.356	NA
0.469626049250109	B5-03822-P01-CH0	2538760	OK	0.1852804	0.1369778	0.0931585	-0.9686226	163.095	-41.247	-247.681	B5-03822-P02-CH0	2538760	OK	0.8034993	0.3736932	-0.463403	0	-96.534	-88.205	13.341	B5-03822-P02-CH1	2538760	OK	0.7701731	-0.1324378	-0.6239339	0	-92.331	-67.375	4.531	B5-03822-P03-CH0	2538760	OK	0.7902961	-0.128566	-0.5990851	0	-101.273	-48.576	12.262	B5-03822-P03-CH1	2538760	OK	0.7628278	-0.645322	-0.0406603	0	-100.6	-8.08	4.32	B5-03822-P04-CH0	2538760	OK	0.8138433	-0.3357125	0.4742954	0	-130.711	-28.448	17.617	B5-03822-P04-CH1	2538760	OK	0.7962806	-0.6043147	0.0272197	0	-114.128	-32.21	4.808	NA
0.479618092851176	B5-03822-P01-CH0	2538768	OK	0.1852627	0.1371242	0.0930383	-0.9686168	163.169	-41.211	-247.737	B5-03822-P02-CH0	2538768	OK	0.8061033	0.3567992	-0.4721143	0	-97.16	-89.135	13.469	B5-03822-P02-CH1	2538768	OK	0.7707668	-0.15665	-0.6175591	0	-92.15	-66.821	5.371	B5-03822-P03-CH0	2538768	OK	0.7850665	-0.1106567	-0.609447	0	-100.88	-48.037	12.966	B5-03822-P03-CH1	2538768	OK	0.7625507	-0.6456571	-0.0405377	0	-101.067	-8.76	4.558	B5-03822-P04-CH0	2538768	OK	0.8143903	-0.3333638	0.4750126	0	-130.287	-28.717	17.252	B5-03822-P04-CH1	2538768	OK	0.7963019	-0.6043173	0.0265317	0	-114.092	-32.311	5.26	NA
0.489610136452242	B5-03822-P01-CH0	2538776	OK	0.1851168	0.1372756	0.0928916	-0.9686373	163.172	-41.172	-247.645	B5-03822-P02-CH0	2538776	OK	0.8079358	0.3502445	-0.4738866	0	-96.853	-88.414	12.731	B5-03822-P02-CH1	2538776	OK	0.7721107	-0.1746622	-0.6110141	0	-91.892	-66.076	5.814	B5-03822-P03-CH0	2538776	OK	0.781869	-0.0995077	-0.6154503	0	-101.397	-47.665	12.355	B5-03822-P03-CH1	2538776	OK	0.7619809	-0.646291	-0.0411477	0	-101.592	-9.585	5.362	B5-03822-P04-CH0	2538776	OK	0.8154937	-0.3335786	0.4729644	0	-128.69	-25.907	16.73	B5-03822-P04-CH1	2538776	OK	0.796786	-0.603759	0.0246405	0	-114.107	-31.593	4.969	NA
0.499602180053308	B5-03822-P01-CH0	2538784	OK	0.185181	0.1374926	0.092531	-0.9686288	163.259	-41.206	-247.619	B5-03822-P02-CH0	2538784	OK	0.8086084	0.3480208	-0.4743775	0	-95.962	-87.142	12.433	B5-03822-P02-CH1	2538784	OK	0.7700694	-0.1921121	-0.608347	0	-94.123	-66.091	5.68	B5-03822-P03-CH0	2538784	OK	0.7804815	-0.0907306	-0.6185601	0	-102.05	-48.572	13.453	B5-03822-P03-CH1	2538784	OK	0.7640922	-0.6434776	-0.0458219	0	-100.638	-7.664	3.827	B5-03822-P04-CH0	2538784	OK	0.8168137	-0.329022	0.4738776	0	-130.024	-27.884	17.96	B5-03822-P04-CH1	2538784	OK	0.7967742	-0.6038222	0.0234439	0	-113.887	-31.376	4.821	NA
0.509594223654374	B5-03822-P01-CH0	2538792	OK	0.1854889	0.1374247	0.0926278	-0.9685703	163.213	-41.126	-247.54	B5-03822-P02-CH0	2538792	OK	0.8080784	0.3385308	-0.4820853	0	-96.151	-88.036	12.917	B5-03822-P02-CH1	2538792	OK	0.7730629	-0.2069747	-0.5996125	0	-93.328	-65.739	5.421	B5-03822-P03-CH0	2538792	OK	0.7822136	-0.0813842	-0.6176718	0	-101.593	-47.799	12.885	B5-03822-P03-CH1	2538792	OK	0.7629383	-0.6449802	-0.0438833	0	-100.993	-9.308	4.385	B5-03822-P04-CH0	2538792	OK	0.8171997	-0.3272025	0.4744715	0	-130.013	-27.914	17.477	B5-03822-P04-CH1	2538792	OK	0.7972138	-0.6032762	0.0225395	0	-113.901	-30.956	4.628	NA
0.51958626725544	B5-03822-P01-CH0	2538800	OK	0.1857545	0.1372455	0.0929526	-0.9685137	163.209	-41.1	-247.58	B5-03822-P02-CH0	2538800	OK	0.8068014	0.3291647	-0.4906343	0	-95.959	-87.391	13.377	B5-03822-P02-CH1	2538800	OK	0.7725241	-0.2176389	-0.5965231	0	-94.044	-65.781	5.57	B5-03822-P03-CH0	2538800	OK	0.7831728	-0.0795929	-0.616689	0	-101.84	-48.394	13.095	B5-03822-P03-CH1	2538800	OK	0.7637148	-0.6440038	-0.0447079	0	-100.941	-9.054	3.771	B5-03822-P04-CH0	2538800	OK	0.8171224	-0.3272406	0.4745783	0	-129.594	-27.06	16.935	B5-03822-P04-CH1	2538800	OK	0.797651	-0.6027098	0.0222196	0	-113.959	-30.889	4.857	NA
0.529578310856506	B5-03822-P01-CH0	2538808	OK	0.1860123	0.1369628	0.0931668	-0.9684836	163.179	-41.091	-247.608	B5-03822-P02-CH0	2538808	OK	0.8047342	0.3147619	-0.5033168	0	-96.662	-88.008	13.082	B5-03822-P02-CH1	2538808	OK	0.7721637	-0.2259517	-0.5938931	0	-94.346	-66.475	6.376	B5-03822-P03-CH0	2538808	OK	0.7845981	-0.0816917	-0.6145992	0	-102.25	-48.488	13.711	B5-03822-P03-CH1	2538808	OK	0.7624903	-0.6454589	-0.0446244	0	-101.153	-10.055	4.134	B5-03822-P04-CH0	2538808	OK	0.8166526	-0.3267434	0.4757282	0	-129.742	-27.961	17.665	B5-03822-P04-CH1	2538808	OK	0.7976426	-0.602702	0.0227288	0	-113.963	-31.214	5.136	NA
0.539570354457573	B5-03822-P01-CH0	2538816	OK	0.1863341	0.1367526	0.0939068	-0.96838	163.122	-40.964	-247.587	B5-03822-P02-CH0	2538816	OK	0.8032514	0.3091842	-0.5091093	0	-95.544	-87.301	12.545	B5-03822-P02-CH1	2538816	OK	0.7732152	-0.2312144	-0.5904898	0	-93.576	-66.409	5.368	B5-03822-P03-CH0	2538816	OK	0.7879383	-0.0889558	-0.6092948	0	-102.088	-47.899	13.812	B5-03822-P03-CH1	2538816	OK	0.7621412	-0.6458131	-0.0454556	0	-101.693	-10.131	4.858	B5-03822-P04-CH0	2538816	OK	0.8167419	-0.3248101	0.4768974	0	-131.372	-28.681	15.826	B5-03822-P04-CH1	2538816	OK	0.7986109	-0.6014347	0.0222928	0	-114.044	-30.534	4.573	NA
0.549562398058639	B5-03822-P01-CH0	2538824	OK	0.1865525	0.1364803	0.0939898	-0.9683683	163.008	-40.938	-247.555	B5-03822-P02-CH0	2538824	OK	0.8015301	0.3059217	-0.5137717	0	-94.185	-86.59	10.832	B5-03822-P02-CH1	2538824	OK	0.7719566	-0.2330495	-0.5914144	0	-93.697	-65.519	3.993	B5-03822-P03-CH0	2538824	OK	0.7920779	-0.1026963	-0.6017192	0	-102.26	-47.856	14.34	B5-03822-P03-CH1	2538824	OK	0.7627929	-0.6452976	-0.0416892	0	-101.062	-9.604	4.72	B5-03822-P04-CH0	2538824	OK	0.8165041	-0.3242119	0.4777109	0	-132.145	-29.586	16.484	B5-03822-P04-CH1	2538824	OK	0.7988152	-0.6011352	0.0230401	0	-113.998	-30.377	4.188	NA
0.559554441659705	B5-03822-P01-CH0	2538832	OK	0.1870235	0.1364576	0.0942373	-0.9682566	163.04	-40.89	-247.564	B5-03822-P02-CH0	2538832	OK	0.7956661	0.3071967	-0.5220591	0	-94.427	-86.746	9.341	B5-03822-P02-CH1	2538832	OK	0.7692473	-0.2356838	-0.5938953	0	-93.743	-66.459	4.27	B5-03822-P03-CH0	2538832	OK	0.7963928	-0.1211451	-0.592522	0	-103.355	-47.765	13.508	B5-03822-P03-CH1	2538832	OK	0.7626794	-0.6454372	-0.0416048	0	-101.18	-9.845	4.801	B5-03822-P04-CH0	2538832	OK	0.8163797	-0.3265897	0.4763018	0	-130.634	-28.616	16.99	B5-03822-P04-CH1	2538832	OK	0.7990894	-0.6007249	0.0242043	0	-114.206	-30.263	3.742	NA
0.569546485260771	B5-03822-P01-CH0	2538840	OK	0.1872281	0.136509	0.0938865	-0.9682439	163.026	-40.914	-247.523	B5-03822-P02-CH0	2538840	OK	0.7908279	0.3161342	-0.524071	0	-93.087	-85.97	8.75	B5-03822-P02-CH1	2538840	OK	0.76824	-0.2360415	-0.5950561	0	-92.99	-66.979	5.332	B5-03822-P03-CH0	2538840	OK	0.8019854	-0.1377579	-0.5812419	0	-102.981	-49.121	14.772	B5-03822-P03-CH1	2538840	OK	0.7621089	-0.6461176	-0.0414986	0	-101.25	-10.05	4.899	B5-03822-P04-CH0	2538840	OK	0.8161859	-0.3273995	0.476078	0	-130.458	-28.098	16.381	B5-03822-P04-CH1	2538840	OK	0.7988311	-0.6010009	0.0258213	0	-114.326	-30.308	3.226	NA
0.579538528861837	B5-03822-P01-CH0	2538848	OK	0.1874976	0.1364439	0.0945532	-0.968136	162.998	-40.844	-247.491	B5-03822-P02-CH0	2538848	OK	0.7857334	0.3247818	-0.5264407	0	-92.94	-86.188	7.227	B5-03822-P02-CH1	2538848	OK	0.7682361	-0.2352837	-0.5953612	0	-93.192	-66.93	4.709	B5-03822-P03-CH0	2538848	OK	0.8061969	-0.1433524	-0.574018	0	-102.689	-48.734	14.495	B5-03822-P03-CH1	2538848	OK	0.7604607	-0.6481857	-0.0394306	0	-101.182	-9.283	4.23	B5-03822-P04-CH0	2538848	OK	0.8154533	-0.3328175	0.4735698	0	-132.332	-29.737	17.311	B5-03822-P04-CH1	2538848	OK	0.7992297	-0.6003995	0.027429	0	-114.482	-30.347	3.121	NA
0.589530572462903	B5-03822-P01-CH0	2538856	OK	0.1874878	0.1364637	0.0945106	-0.9681393	162.959	-40.864	-247.469	B5-03822-P02-CH0	2538856	OK	0.7802847	0.3315259	-0.5303266	0	-94.289	-87.597	7.699	B5-03822-P02-CH1	2538856	OK	0.769324	-0.2304678	-0.5958399	0	-93.257	-66.842	3.438	B5-03822-P03-CH0	2538856	OK	0.8099681	-0.1476751	-0.5675771	0	-103.089	-49.49	14.571	B5-03822-P03-CH1	2538856	OK	0.7607581	-0.6479115	-0.038182	0	-101.448	-8.641	4.337	B5-03822-P04-CH0	2538856	OK	0.8148012	-0.335947	0.4724814	0	-132.973	-28.93	14.459	B5-03822-P04-CH1	2538856	OK	0.7988497	-0.60037	0.0373497	0	-115.579	-31.295	2.801	NA
0.59952261606397	B5-03822-P01-CH0	2538864	OK	0.1878048	0.1364249	0.0953064	-0.9680053	162.965	-40.812	-247.512	B5-03822-P02-CH0	2538864	OK	0.7754151	0.3427248	-0.53035	0	-94.705	-87.555	8.128	B5-03822-P02-CH1	2538864	OK	0.7695068	-0.2256001	-0.5974645	0	-94.011	-67.257	4.865	B5-03822-P03-CH0	2538864	OK	0.8128705	-0.1507924	-0.5625863	0	-103.965	-50.346	14.204	B5-03822-P03-CH1	2538864	OK	0.7610309	-0.6476652	-0.0369007	0	-101.106	-8.379	4.567	B5-03822-P04-CH0	2538864	OK	0.8146123	-0.3381998	0.4711982	0	-132.626	-29.993	16.626	B5-03822-P04-CH1	2538864	OK	0.7983251	-0.6008467	0.0407466	0	-116.021	-32.529	3.049	NA
0.609514659665036	B5-03822-P01-CH0	2538872	OK	0.1878198	0.1361362	0.0955763	-0.9680164	162.908	-40.869	-247.635	B5-03822-P02-CH0	2538872	OK	0.7715044	0.3493012	-0.5317608	0	-94.883	-88.534	8.027	B5-03822-P02-CH1	2538872	OK	0.7683229	-0.2221786	-0.6002637	0	-94.658	-68.078	5.148	B5-03822-P03-CH0	2538872	OK	0.8131265	-0.1555057	-0.5609308	0	-104.849	-50.016	13.621	B5-03822-P03-CH1	2538872	OK	0.760291	-0.6485945	-0.0358162	0	-100.773	-8.43	4.422	B5-03822-P04-CH0	2538872	OK	0.8143985	-0.341004	0.4695437	0	-132.878	-29.849	16.398	B5-03822-P04-CH1	2538872	OK	0.7993423	-0.5999393	0.0335378	0	-115.091	-31.192	2.667	NA
0.619506703266102	B5-03822-P01-CH0	2538880	OK	0.1875197	0.1363972	0.0948475	-0.9681096	162.911	-40.911	-247.528	B5-03822-P02-CH0	2538880	OK	0.7679115	0.352863	-0.5346023	0	-94.926	-89.17	7.502	B5-03822-P02-CH1	2538880	OK	0.769461	-0.2188045	-0.6000453	0	-94.016	-69.117	5.684	B5-03822-P03-CH0	2538880	OK	0.8116677	-0.170639	-0.5586392	0	-104.458	-51.71	15.002	B5-03822-P03-CH1	2538880	OK	0.754797	-0.6553114	-0.0291275	0	-101.762	-12.145	6.661	B5-03822-P04-CH0	2538880	OK	0.8136275	-0.3468751	0.4665705	0	-132.654	-28.549	15.057	B5-03822-P04-CH1	2538880	OK	0.7987027	-0.6007008	0.0351084	0	-115.477	-31.478	2.803	NA
0.629498746867168	B5-03822-P01-CH0	2538888	OK	0.1878943	0.1366415	0.0947747	-0.9680096	163.069	-40.962	-247.569	B5-03822-P02-CH0	2538888	OK	0.7648494	0.3533896	-0.538629	0	-94.105	-89.243	5.678	B5-03822-P02-CH1	2538888	OK	0.770461	-0.21725	-0.5993266	0	-94.002	-69.338	5.041	B5-03822-P03-CH0	2538888	OK	0.8123977	-0.1854873	-0.552815	0	-102.919	-52.403	14.338	B5-03822-P03-CH1	2538888	OK	0.7564016	-0.653292	-0.0326531	0	-101.577	-9.799	5.151	B5-03822-P04-CH0	2538888	OK	0.8122653	-0.3542298	0.4634073	0	-132.247	-27.884	13.566	B5-03822-P04-CH1	2538888	OK	0.7985678	-0.6007568	0.037157	0	-115.77	-31.827	2.681	NA
0.639490790468234	B5-03822-P01-CH0	2538896	OK	0.1878854	0.1368814	0.0943972	-0.9680143	163.156	-40.977	-247.517	B5-03822-P02-CH0	2538896	OK	0.7601487	0.3506622	-0.5470009	0	-93.782	-88.772	4.979	B5-03822-P02-CH1	2538896	OK	0.7708501	-0.2156731	-0.5993958	0	-94.369	-69.5	4.854	B5-03822-P03-CH0	2538896	OK	0.8129673	-0.1891055	-0.5507479	0	-103.916	-51.845	13.419	B5-03822-P03-CH1	2538896	OK	0.7568944	-0.6526058	-0.0348786	0	-101.144	-8.527	4.547	B5-03822-P04-CH0	2538896	OK	0.8112493	-0.3592654	0.4613057	0	-133.201	-30.081	15.235	B5-03822-P04-CH1	2538896	OK	0.7979954	-0.6013927	0.0391161	0	-115.841	-32.432	3.146	NA
0.6494828340693	B5-03822-P01-CH0	2538904	OK	0.1881245	0.1369806	0.0945446	-0.9679395	163.288	-40.967	-247.639	B5-03822-P02-CH0	2538904	OK	0.7545218	0.3416728	-0.5603182	0	-94.045	-89.134	5.003	B5-03822-P02-CH1	2538904	OK	0.7733295	-0.2152385	-0.5963504	0	-93.774	-70.965	6.15	B5-03822-P03-CH0	2538904	OK	0.8140995	-0.1892696	-0.5490164	0	-104.979	-53.549	14.845	B5-03822-P03-CH1	2538904	OK	0.7530895	-0.6572585	-0.0294541	0	-101.771	-12.059	7.243	B5-03822-P04-CH0	2538904	OK	0.8104674	-0.3663065	0.4571238	0	-131.966	-28.614	16.157	B5-03822-P04-CH1	2538904	OK	0.7980123	-0.6012772	0.0405231	0	-115.972	-32.678	3.295	NA
0.659474877670366	B5-03822-P01-CH0	2538912	OK	0.1884501	0.1371189	0.094814	-0.9678302	163.406	-40.895	-247.645	B5-03822-P02-CH0	2538912	OK	0.7511073	0.3313235	-0.5710189	0	-93.26	-88.475	4.954	B5-03822-P02-CH1	2538912	OK	0.774045	-0.2116321	-0.5967128	0	-95.588	-70.885	4.922	B5-03822-P03-CH0	2538912	OK	0.8157662	-0.1842984	-0.5482332	0	-105.841	-53.952	14.468	B5-03822-P03-CH1	2538912	OK	0.7541913	-0.6558826	-0.0318359	0	-101.03	-10.946	6.463	B5-03822-P04-CH0	2538912	OK	0.8093324	-0.3745521	0.4524287	0	-131.929	-27.966	14.291	B5-03822-P04-CH1	2538912	OK	0.7979585	-0.6012445	0.042039	0	-116.1	-33.022	3.391	NA
0.669466921271433	B5-03822-P01-CH0	2538920	OK	0.1887062	0.1371342	0.0951359	-0.9677465	163.477	-40.748	-247.651	B5-03822-P02-CH0	2538920	OK	0.750298	0.3174267	-0.5799079	0	-92.672	-89.21	3.333	B5-03822-P02-CH1	2538920	OK	0.777747	-0.2095849	-0.5926076	0	-95.333	-71.661	5.011	B5-03822-P03-CH0	2538920	OK	0.8174001	-0.176867	-0.5482473	0	-105.235	-54.2	15.357	B5-03822-P03-CH1	2538920	OK	0.7572574	-0.6520603	-0.0371293	0	-100.456	-7.882	4.554	B5-03822-P04-CH0	2538920	OK	0.8080414	-0.3812228	0.4491528	0	-131.343	-28.613	14.971	B5-03822-P04-CH1	2538920	OK	0.798435	-0.6005785	0.0425091	0	-116.351	-32.754	3.33	NA
0.679458964872499	B5-03822-P01-CH0	2538928	OK	0.1885893	0.137199	0.0943338	-0.9678386	163.499	-40.794	-247.547	B5-03822-P02-CH0	2538928	OK	0.7490554	0.304276	-0.5884999	0	-92.546	-89.169	3.546	B5-03822-P02-CH1	2538928	OK	0.7800814	-0.2037106	-0.5915868	0	-95.745	-72.087	6.326	B5-03822-P03-CH0	2538928	OK	0.8167973	-0.1693976	-0.5514948	0	-105.485	-54.04	14.43	B5-03822-P03-CH1	2538928	OK	0.755869	-0.6539147	-0.0325209	0	-101.678	-10.261	5.67	B5-03822-P04-CH0	2538928	OK	0.8076153	-0.3844597	0.4471557	0	-131.724	-28.563	14.525	B5-03822-P04-CH1	2538928	OK	0.7980116	-0.6011147	0.04288	0	-116.533	-32.742	3.189	NA
0.689451008473565	B5-03822-P01-CH0	2538936	OK	0.1891348	0.136946	0.0949097	-0.9677117	163.573	-40.72	-247.619	B5-03822-P02-CH0	2538936	OK	0.7465443	0.2904487	-0.598591	0	-93.356	-89.946	3.953	B5-03822-P02-CH1	2538936	OK	0.7842127	-0.1973992	-0.5882551	0	-96.586	-72.579	6.075	B5-03822-P03-CH0	2538936	OK	0.8172526	-0.1610975	-0.5533044	0	-106.033	-54.427	13.803	B5-03822-P03-CH1	2538936	OK	0.7557553	-0.6540656	-0.0321268	0	-101.612	-10.299	5.553	B5-03822-P04-CH0	2538936	OK	0.8079562	-0.3862415	0.4449993	0	-131.943	-28.735	14.899	B5-03822-P04-CH1	2538936	OK	0.7982678	-0.6006849	0.0441145	0	-116.623	-33.116	3.506	NA
0.699443052074631	B5-03822-P01-CH0	2538944	OK	0.1894554	0.1369026	0.094869	-0.9676591	163.64	-40.687	-247.618	B5-03822-P02-CH0	2538944	OK	0.7457141	0.2793832	-0.6048598	0	-92.915	-90.461	3.989	B5-03822-P02-CH1	2538944	OK	0.7892838	-0.1883683	-0.5844215	0	-97.465	-73.094	6.288	B5-03822-P03-CH0	2538944	OK	0.8178889	-0.153496	-0.5545239	0	-107.002	-55.549	14.608	B5-03822-P03-CH1	2538944	OK	0.7549254	-0.6550535	-0.0315037	0	-101.672	-10.707	5.748	B5-03822-P04-CH0	2538944	OK	0.8072104	-0.3874941	0.4452636	0	-132.103	-29.96	15.64	B5-03822-P04-CH1	2538944	OK	0.7983458	-0.6005466	0.0445833	0	-116.637	-33.09	3.3	NA
0.709435095675697	B5-03822-P01-CH0	2538952	OK	0.1897236	0.1370818	0.0947011	-0.9675977	163.715	-40.637	-247.486	B5-03822-P02-CH0	2538952	OK	0.7441906	0.2690849	-0.6113703	0	-92.79	-91.608	3.768	B5-03822-P02-CH1	2538952	OK	0.7918521	-0.1805307	-0.58342	0	-99.143	-73.923	7.556	B5-03822-P03-CH0	2538952	OK	0.8178823	-0.1442948	-0.5569987	0	-107.94	-55.266	14.844	B5-03822-P03-CH1	2538952	OK	0.754813	-0.6551576	-0.0320289	0	-101.696	-10.402	5.494	B5-03822-P04-CH0	2538952	OK	0.8067329	-0.3908696	0.4431738	0	-131.323	-28.42	15.037	B5-03822-P04-CH1	2538952	OK	0.7980869	-0.6008349	0.0453287	0	-116.744	-33.393	3.52	NA
0.719427139276763	B5-03822-P01-CH0	2538960	OK	0.1903719	0.1368266	0.095606	-0.9674174	163.739	-40.498	-247.56	B5-03822-P02-CH0	2538960	OK	0.7403268	0.260118	-0.619883	0	-93.068	-91.813	3.307	B5-03822-P02-CH1	2538960	OK	0.7968061	-0.1727263	-0.5790213	0	-98.905	-74.154	8.172	B5-03822-P03-CH0	2538960	OK	0.8192054	-0.1359493	-0.5571538	0	-107.661	-55.258	15.885	B5-03822-P03-CH1	2538960	OK	0.7560106	-0.6537155	-0.0332254	0	-101.487	-9.645	5.125	B5-03822-P04-CH0	2538960	OK	0.8063513	-0.3917258	0.4431122	0	-132.118	-28.615	13.383	B5-03822-P04-CH1	2538960	OK	0.7987539	-0.5998944	0.0460322	0	-116.755	-33.424	3.506	NA
0.729419182877829	B5-03822-P01-CH0	2538968	OK	0.1910317	0.1366486	0.0965113	-0.9672226	163.763	-40.363	-247.605	B5-03822-P02-CH0	2538968	OK	0.7382495	0.2486054	-0.627043	0	-92.477	-91.599	2.848	B5-03822-P02-CH1	2538968	OK	0.8006394	-0.1691176	-0.5747833	0	-99.195	-74.897	8.085	B5-03822-P03-CH0	2538968	OK	0.8204539	-0.1317482	-0.5563252	0	-107.292	-55.482	15.208	B5-03822-P03-CH1	2538968	OK	0.7565257	-0.653116	-0.0332902	0	-101.42	-9.642	5.219	B5-03822-P04-CH0	2538968	OK	0.8058391	-0.3918265	0.4439543	0	-131.475	-29.037	14.422	B5-03822-P04-CH1	2538968	OK	0.7991932	-0.5992651	0.0466002	0	-116.605	-33.712	3.808	NA
0.739411226478896	B5-03822-P01-CH0	2538976	OK	0.1912814	0.1364304	0.0969602	-0.9671592	163.769	-40.349	-247.715	B5-03822-P02-CH0	2538976	OK	0.7376978	0.235905	-0.6325747	0	-91.807	-91.742	2.553	B5-03822-P02-CH1	2538976	OK	0.8044174	-0.1630349	-0.5712549	0	-99.316	-75.211	8.469	B5-03822-P03-CH0	2538976	OK	0.8197718	-0.1251922	-0.558839	0	-107.83	-55.305	14.631	B5-03822-P03-CH1	2538976	OK	0.7569924	-0.652532	-0.0341239	0	-101.299	-9.409	5.016	B5-03822-P04-CH0	2538976	OK	0.8055763	-0.3912198	0.4449651	0	-131.033	-29.533	15.79	B5-03822-P04-CH1	2538976	OK	0.7994714	-0.5988823	0.0467492	0	-116.655	-33.919	3.991	NA
0.749403270079962	B5-03822-P01-CH0	2538984	OK	0.1915441	0.1364982	0.0970685	-0.9670868	163.765	-40.294	-247.588	B5-03822-P02-CH0	2538984	OK	0.73703	0.2252237	-0.6372292	0	-91.826	-91.875	2.242	B5-03822-P02-CH1	2538984	OK	0.8078526	-0.1563346	-0.5682726	0	-100.359	-75.764	9.186	B5-03822-P03-CH0	2538984	OK	0.8185551	-0.1176703	-0.5622466	0	-108.329	-55.56	15.318	B5-03822-P03-CH1	2538984	OK	0.7573387	-0.6520919	-0.034847	0	-101.373	-9.112	4.775	B5-03822-P04-CH0	2538984	OK	0.8073533	-0.3885018	0.444125	0	-130.905	-27.044	13.113	B5-03822-P04-CH1	2538984	OK	0.7994003	-0.5989446	0.0471646	0	-116.62	-34.259	4.358	NA
0.759395313681028	B5-03822-P01-CH0	2538992	OK	0.1910652	0.136625	0.096025	-0.9672677	163.729	-40.381	-247.516	B5-03822-P02-CH0	2538992	OK	0.7355167	0.2177941	-0.6415457	0	-92.411	-91.959	2.97	B5-03822-P02-CH1	2538992	OK	0.8125175	-0.1460591	-0.5643421	0	-100.84	-75.454	9.885	B5-03822-P03-CH0	2538992	OK	0.8183661	-0.1119323	-0.5636915	0	-108.629	-55.308	15.574	B5-03822-P03-CH1	2538992	OK	0.7570344	-0.6523461	-0.0366535	0	-101.304	-8.642	4.295	B5-03822-P04-CH0	2538992	OK	0.8065094	-0.3911508	0.4433325	0	-130.991	-27.335	13.344	B5-03822-P04-CH1	2538992	OK	0.7985898	-0.6000393	0.0469802	0	-116.628	-34.609	4.76	NA
0.769387357282094	B5-03822-P01-CH0	2539000	OK	0.1909785	0.1366926	0.0957591	-0.9673017	163.74	-40.414	-247.446	B5-03822-P02-CH0	2539000	OK	0.7332559	0.2129907	-0.6457327	0	-93.504	-92.894	2.899	B5-03822-P02-CH1	2539000	OK	0.816152	-0.1355658	-0.5617097	0	-101.129	-75.396	9.658	B5-03822-P03-CH0	2539000	OK	0.8198491	-0.109715	-0.5619699	0	-108.225	-54.489	14.734	B5-03822-P03-CH1	2539000	OK	0.7562289	-0.6533048	-0.0362032	0	-101.503	-9.295	4.515	B5-03822-P04-CH0	2539000	OK	0.8061121	-0.3932111	0.4422311	0	-130.932	-27.267	13.312	B5-03822-P04-CH1	2539000	OK	0.7983957	-0.6003005	0.046944	0	-116.604	-34.819	5.024	NA
0.77937940088316	B5-03822-P01-CH0	2539008	OK	0.1914393	0.136668	0.0964779	-0.9671426	163.776	-40.351	-247.506	B5-03822-P02-CH0	2539008	OK	0.7339095	0.2165023	-0.6438196	0	-91.979	-92.005	2.39	B5-03822-P02-CH1	2539008	OK	0.8183774	-0.1277986	-0.5602909	0	-101.411	-75.97	9.524	B5-03822-P03-CH0	2539008	OK	0.8181565	-0.1164514	-0.56308	0	-109.178	-54.714	15.107	B5-03822-P03-CH1	2539008	OK	0.7569644	-0.6524411	-0.0364073	0	-101.499	-9.208	4.421	B5-03822-P04-CH0	2539008	OK	0.8060193	-0.3945797	0.44118	0	-130.668	-27.18	13.272	B5-03822-P04-CH1	2539008	OK	0.798823	-0.5997104	0.0472162	0	-116.47	-35.066	5.358	NA
0.789371444484226	B5-03822-P01-CH0	2539016	OK	0.1909336	0.1371701	0.0951214	-0.9673059	163.817	-40.379	-247.389	B5-03822-P02-CH0	2539016	OK	0.7328158	0.2199857	-0.6438845	0	-92.203	-92.68	2.219	B5-03822-P02-CH1	2539016	OK	0.8197944	-0.1195723	-0.5600354	0	-101.525	-75.97	10.061	B5-03822-P03-CH0	2539016	OK	0.8193416	-0.1261504	-0.5592544	0	-108.606	-54.755	15.252	B5-03822-P03-CH1	2539016	OK	0.756404	-0.6530362	-0.0373735	0	-101.513	-9.02	4.298	B5-03822-P04-CH0	2539016	OK	0.8052696	-0.3970323	0.4403479	0	-130.686	-27.182	13.429	B5-03822-P04-CH1	2539016	OK	0.7978994	-0.6009938	0.0465091	0	-116.496	-35.168	5.544	NA
0.799363488085293	B5-03822-P01-CH0	2539024	OK	0.1907441	0.1371333	0.0948761	-0.9673726	163.729	-40.273	-247.327	B5-03822-P02-CH0	2539024	OK	0.731161	0.2225996	-0.6448666	0	-92.744	-93.143	2.357	B5-03822-P02-CH1	2539024	OK	0.8203411	-0.112284	-0.5607431	0	-101.703	-75.328	10.097	B5-03822-P03-CH0	2539024	OK	0.8222202	-0.1359299	-0.5526997	0	-107.361	-54.657	15.415	B5-03822-P03-CH1	2539024	OK	0.7568812	-0.6524334	-0.03823	0	-101.477	-8.494	3.889	B5-03822-P04-CH0	2539024	OK	0.8050025	-0.3985987	0.4394201	0	-130.612	-27.056	13.542	B5-03822-P04-CH1	2539024	OK	0.7979838	-0.6009535	0.0455706	0	-116.359	-34.792	5.434	NA
0.809355531686359	B5-03822-P01-CH0	2539032	OK	0.1903826	0.1376312	0.0939887	-0.9674597	163.771	-40.257	-247.146	B5-03822-P02-CH0	2539032	OK	0.7299926	0.2277501	-0.6443918	0	-92.795	-92.64	2.25	B5-03822-P02-CH1	2539032	OK	0.8192233	-0.1092516	-0.5629719	0	-102.03	-75.414	10.379	B5-03822-P03-CH0	2539032	OK	0.82242	-0.1434898	-0.5504871	0	-107.458	-53.49	15.21	B5-03822-P03-CH1	2539032	OK	0.7564209	-0.6529415	-0.0386636	0	-101.535	-8.484	3.753	B5-03822-P04-CH0	2539032	OK	0.8047082	-0.3998909	0.4387845	0	-130.77	-27.437	14.089	B5-03822-P04-CH1	2539032	OK	0.797762	-0.6013205	0.0446024	0	-116.384	-34.534	5.64	NA
0.819347575287425	B5-03822-P01-CH0	2539040	OK	0.1899904	0.1379593	0.0926591	-0.9676183	163.759	-40.337	-247.012	B5-03822-P02-CH0	2539040	OK	0.7299323	0.2323811	-0.6428047	0	-92.352	-92.277	3.791	B5-03822-P02-CH1	2539040	OK	0.8188119	-0.1039352	-0.5645746	0	-101.109	-75.181	10.98	B5-03822-P03-CH0	2539040	OK	0.8208965	-0.1538279	-0.5499691	0	-107.792	-53.058	14.96	B5-03822-P03-CH1	2539040	OK	0.7556315	-0.6538569	-0.0386302	0	-101.612	-8.649	3.692	B5-03822-P04-CH0	2539040	OK	0.80417	-0.4018326	0.4379967	0	-130.675	-27.493	14.329	B5-03822-P04-CH1	2539040	OK	0.7969209	-0.6024892	0.0438612	0	-116.142	-34.486	5.469	NA
0.829339618888491	B5-03822-P01-CH0	2539048	OK	0.1895368	0.1379838	0.0920683	-0.9677601	163.684	-40.356	-246.948	B5-03822-P02-CH0	2539048	OK	0.7305165	0.237366	-0.6403148	0	-92.254	-92.325	4.209	B5-03822-P02-CH1	2539048	OK	0.8159166	-0.0993939	-0.5695621	0	-101.316	-74.673	9.95	B5-03822-P03-CH0	2539048	OK	0.8181976	-0.1631952	-0.5512894	0	-107.476	-52.784	15.063	B5-03822-P03-CH1	2539048	OK	0.7552208	-0.6543234	-0.0387612	0	-101.667	-8.742	3.505	B5-03822-P04-CH0	2539048	OK	0.8037898	-0.4041462	0.4365635	0	-130.441	-27.129	14.059	B5-03822-P04-CH1	2539048	OK	0.7965782	-0.6029949	0.0431305	0	-115.989	-34.357	5.317	NA
0.839331662489557	B5-03822-P01-CH0	2539056	OK	0.1895702	0.138139	0.0921133	-0.9677272	163.728	-40.252	-246.929	B5-03822-P02-CH0	2539056	OK	0.7300544	0.2432068	-0.6386478	0	-92.481	-91.826	3.043	B5-03822-P02-CH1	2539056	OK	0.8143297	-0.1008268	-0.5715778	0	-100.699	-74.773	11.555	B5-03822-P03-CH0	2539056	OK	0.8149132	-0.1667999	-0.5550624	0	-106.641	-51.776	13.884	B5-03822-P03-CH1	2539056	OK	0.7552845	-0.6542791	-0.0382643	0	-101.882	-8.894	3.663	B5-03822-P04-CH0	2539056	OK	0.8039271	-0.405126	0.4354011	0	-130.529	-26.957	14.067	B5-03822-P04-CH1	2539056	OK	0.7966848	-0.602894	0.0425694	0	-115.949	-34.232	5.414	NA
0.849323706090623	B5-03822-P01-CH0	2539064	OK	0.1894047	0.1381287	0.0917682	-0.9677938	163.681	-40.302	-246.881	B5-03822-P02-CH0	2539064	OK	0.7293776	0.2478841	-0.637622	0	-92.52	-91.565	3.017	B5-03822-P02-CH1	2539064	OK	0.8120638	-0.1023236	-0.5745279	0	-101.072	-73.7	10.235	B5-03822-P03-CH0	2539064	OK	0.8119396	-0.1688613	-0.5587844	0	-105.884	-50.898	13.657	B5-03822-P03-CH1	2539064	OK	0.7551718	-0.6544207	-0.0380663	0	-101.885	-8.998	3.69	B5-03822-P04-CH0	2539064	OK	0.8037287	-0.4062441	0.4347251	0	-130.417	-26.994	14.277	B5-03822-P04-CH1	2539064	OK	0.7965531	-0.6031294	0.0416893	0	-115.91	-34.056	5.04	NA
0.85931574969169	B5-03822-P01-CH0	2539072	OK	0.189558	0.1380728	0.0920247	-0.9677474	163.688	-40.259	-246.946	B5-03822-P02-CH0	2539072	OK	0.7284888	0.2509471	-0.63744	0	-92.988	-92.162	3.126	B5-03822-P02-CH1	2539072	OK	0.8124405	-0.1051582	-0.5734826	0	-100.211	-73.401	10.356	B5-03822-P03-CH0	2539072	OK	0.8078867	-0.1705297	-0.5641265	0	-106.153	-50.571	14.501	B5-03822-P03-CH1	2539072	OK	0.7549281	-0.6547679	-0.0369118	0	-102.036	-9.543	4.166	B5-03822-P04-CH0	2539072	OK	0.8036775	-0.4068805	0.4342244	0	-130.298	-26.999	14.357	B5-03822-P04-CH1	2539072	OK	0.7968472	-0.6027835	0.0410677	0	-115.687	-33.889	4.876	NA
0.869307793292756	B5-03822-P01-CH0	2539080	OK	0.1896985	0.1379549	0.0923861	-0.9677023	163.653	-40.209	-247.006	B5-03822-P02-CH0	2539080	OK	0.7286267	0.256021	-0.6352609	0	-92.573	-91.904	2.884	B5-03822-P02-CH1	2539080	OK	0.8122823	-0.1081746	-0.5731455	0	-99.977	-73.337	10.546	B5-03822-P03-CH0	2539080	OK	0.8077594	-0.1704244	-0.5643406	0	-104.613	-50.55	14.482	B5-03822-P03-CH1	2539080	OK	0.7553173	-0.6543146	-0.0369886	0	-102.001	-9.438	4.163	B5-03822-P04-CH0	2539080	OK	0.8036317	-0.4072401	0.4339718	0	-130.195	-27.117	14.615	B5-03822-P04-CH1	2539080	OK	0.797098	-0.6024857	0.0405695	0	-115.545	-33.921	5.098	NA
0.879299836893822	B5-03822-P01-CH0	2539088	OK	0.1897075	0.1377791	0.0922275	-0.9677407	163.602	-40.254	-247.028	B5-03822-P02-CH0	2539088	OK	0.7289276	0.2629124	-0.632093	0	-92.091	-91.288	4.139	B5-03822-P02-CH1	2539088	OK	0.8126431	-0.1049941	-0.5732255	0	-99.565	-72.449	9.934	B5-03822-P03-CH0	2539088	OK	0.8027344	-0.1676422	-0.572288	0	-105.951	-49.737	13.289	B5-03822-P03-CH1	2539088	OK	0.7550435	-0.6546477	-0.0366827	0	-102.064	-9.632	4.325	B5-03822-P04-CH0	2539088	OK	0.8033897	-0.4076967	0.4339912	0	-130.235	-27.287	14.832	B5-03822-P04-CH1	2539088	OK	0.7970674	-0.602576	0.0398204	0	-115.346	-33.809	4.831	NA
0.889291880494888	B5-03822-P01-CH0	2539096	OK	0.1899718	0.1376935	0.0926911	-0.9676567	163.653	-40.33	-247.125	B5-03822-P02-CH0	2539096	OK	0.7291501	0.2687188	-0.6293889	0	-91.921	-91.162	2.215	B5-03822-P02-CH1	2539096	OK	0.8108071	-0.1032929	-0.5761271	0	-99.923	-72.796	9.5	B5-03822-P03-CH0	2539096	OK	0.800964	-0.165278	-0.5754476	0	-105.731	-49.635	13.555	B5-03822-P03-CH1	2539096	OK	0.755162	-0.6545374	-0.0362098	0	-102.162	-9.912	4.587	B5-03822-P04-CH0	2539096	OK	0.803315	-0.4085313	0.4333442	0	-129.933	-27.106	14.866	B5-03822-P04-CH1	2539096	OK	0.7973401	-0.6022434	0.0393908	0	-115.109	-33.876	4.714	NA
0.899283924095954	B5-03822-P01-CH0	2539104	OK	0.1898996	0.1376738	0.0923299	-0.9677082	163.651	-40.438	-247.136	B5-03822-P02-CH0	2539104	OK	0.7280718	0.2744633	-0.628157	0	-92.21	-91.333	2.637	B5-03822-P02-CH1	2539104	OK	0.809492	-0.1013105	-0.5783242	0	-99.102	-72.693	9.381	B5-03822-P03-CH0	2539104	OK	0.799594	-0.1637461	-0.5777859	0	-104.99	-50.013	13.948	B5-03822-P03-CH1	2539104	OK	0.7547017	-0.6550684	-0.0362041	0	-102.087	-10.131	4.731	B5-03822-P04-CH0	2539104	OK	0.8030031	-0.4096955	0.432823	0	-129.794	-26.843	14.811	B5-03822-P04-CH1	2539104	OK	0.7972205	-0.6024443	0.0387338	0	-114.988	-33.966	5.022	NA
0.90927596769702	B5-03822-P01-CH0	2539112	OK	0.1902137	0.1373716	0.0929941	-0.9676259	163.685	-40.482	-247.335	B5-03822-P02-CH0	2539112	OK	0.7273397	0.2804154	-0.6263738	0	-92.372	-91.667	4.128	B5-03822-P02-CH1	2539112	OK	0.8062132	-0.0998524	-0.5831378	0	-99.441	-72.751	10.75	B5-03822-P03-CH0	2539112	OK	0.7970473	-0.1632616	-0.5814304	0	-105.144	-49.902	13.128	B5-03822-P03-CH1	2539112	OK	0.7550494	-0.6546827	-0.0359308	0	-102.067	-10.355	4.973	B5-03822-P04-CH0	2539112	OK	0.8028391	-0.4104706	0.4323926	0	-129.47	-26.609	14.757	B5-03822-P04-CH1	2539112	OK	0.7973951	-0.6022251	0.038549	0	-114.801	-34.379	5.548	NA
0.919268011298087	B5-03822-P01-CH0	2539120	OK	0.1905314	0.1371744	0.0938261	-0.9675111	163.721	-40.446	-247.465	B5-03822-P02-CH0	2539120	OK	0.7272743	0.2856536	-0.6240786	0	-92.531	-91.885	4.436	B5-03822-P02-CH1	2539120	OK	0.805859	-0.1000897	-0.5835866	0	-98.971	-72.737	10.491	B5-03822-P03-CH0	2539120	OK	0.7948116	-0.160472	-0.5852548	0	-105.219	-49.026	13.232	B5-03822-P03-CH1	2539120	OK	0.75547	-0.6542063	-0.0357649	0	-102.079	-10.494	5.034	B5-03822-P04-CH0	2539120	OK	0.8029003	-0.4105348	0.4322179	0	-129.392	-26.573	14.836	B5-03822-P04-CH1	2539120	OK	0.7980874	-0.6013616	0.037692	0	-114.585	-34.169	5.501	NA
0.929260054899153	B5-03822-P01-CH0	2539128	OK	0.1906943	0.1371095	0.0938236	-0.9674884	163.704	-40.454	-247.415	B5-03822-P02-CH0	2539128	OK	0.7286656	0.2919016	-0.6195481	0	-92.005	-91.201	3.082	B5-03822-P02-CH1	2539128	OK	0.8035264	-0.1017126	-0.586515	0	-99.309	-72.526	9.746	B5-03822-P03-CH0	2539128	OK	0.7944455	-0.1627817	-0.5851141	0	-104.579	-49.971	13.679	B5-03822-P03-CH1	2539128	OK	0.7559884	-0.6535666	-0.0365007	0	-101.94	-10.034	4.778	B5-03822-P04-CH0	2539128	OK	0.8027675	-0.41065	0.432355	0	-129.351	-26.555	15.014	B5-03822-P04-CH1	2539128	OK	0.798241	-0.6011956	0.0370828	0	-114.664	-34.095	5.742	NA
0.939252098500219	B5-03822-P01-CH0	2539136	OK	0.1901693	0.1371551	0.0925813	-0.9677049	163.654	-40.653	-247.359	B5-03822-P02-CH0	2539136	OK	0.7298423	0.2974512	-0.6155103	0	-91.612	-90.731	3.015	B5-03822-P02-CH1	2539136	OK	0.8015489	-0.1037339	-0.5888621	0	-98.9	-72.128	8.828	B5-03822-P03-CH0	2539136	OK	0.7950677	-0.1633272	-0.5841161	0	-103.968	-49.447	12.926	B5-03822-P03-CH1	2539136	OK	0.7554035	-0.6541842	-0.0375312	0	-101.789	-9.854	4.559	B5-03822-P04-CH0	2539136	OK	0.8019421	-0.4120342	0.4325699	0	-129.146	-26.668	15.237	B5-03822-P04-CH1	2539136	OK	0.7972102	-0.6026049	0.0363768	0	-114.538	-34.333	5.839	NA
0.949244142101285	B5-03822-P01-CH0	2539144	OK	0.1903009	0.1373106	0.0927018	-0.9676455	163.775	-40.602	-247.437	B5-03822-P02-CH0	2539144	OK	0.7294944	0.3008029	-0.6142928	0	-92.105	-90.653	2.529	B5-03822-P02-CH1	2539144	OK	0.7991026	-0.1057269	-0.591825	0	-98.595	-72.16	8.972	B5-03822-P03-CH0	2539144	OK	0.7935181	-0.1656102	-0.5855786	0	-104.486	-49.435	13.028	B5-03822-P03-CH1	2539144	OK	0.7555673	-0.6539766	-0.0378499	0	-101.807	-9.823	4.63	B5-03822-P04-CH0	2539144	OK	0.8020179	-0.412296	0.4321796	0	-129.164	-26.571	15.329	B5-03822-P04-CH1	2539144	OK	0.7976537	-0.6020768	0.0353845	0	-114.478	-33.863	5.689	NA
0.959236185702351	B5-03822-P01-CH0	2539152	OK	0.1905912	0.1372151	0.0927852	-0.9675939	163.792	-40.63	-247.421	B5-03822-P02-CH0	2539152	OK	0.7289426	0.3029086	-0.6139129	0	-92.622	-91.363	3.799	B5-03822-P02-CH1	2539152	OK	0.7972365	-0.1070263	-0.5941038	0	-98.108	-72.038	8.794	B5-03822-P03-CH0	2539152	OK	0.7929076	-0.1662952	-0.5862111	0	-104.319	-49.275	13.043	B5-03822-P03-CH1	2539152	OK	0.7558554	-0.6536533	-0.0376831	0	-101.836	-9.845	4.56	B5-03822-P04-CH0	2539152	OK	0.802119	-0.4123019	0.4319864	0	-129.13	-26.578	15.283	B5-03822-P04-CH1	2539152	OK	0.7979297	-0.6017471	0.0347641	0	-114.396	-33.563	5.433	NA
0.969228229303417	B5-03822-P01-CH0	2539160	OK	0.1903778	0.1374884	0.0920455	-0.9676678	163.883	-40.739	-247.362	B5-03822-P02-CH0	2539160	OK	0.7292573	0.3088082	-0.6105909	0	-92.524	-90.647	2.567	B5-03822-P02-CH1	2539160	OK	0.7949238	-0.1095218	-0.5967422	0	-98.145	-72.196	9.265	B5-03822-P03-CH0	2539160	OK	0.7916007	-0.1680847	-0.5874656	0	-104.625	-49.276	12.982	B5-03822-P03-CH1	2539160	OK	0.7558103	-0.653656	-0.0385303	0	-101.759	-9.603	4.343	B5-03822-P04-CH0	2539160	OK	0.8020597	-0.4129201	0.4315057	0	-129.211	-26.536	15.273	B5-03822-P04-CH1	2539160	OK	0.7974074	-0.602474	0.0341546	0	-114.369	-33.521	5.304	NA
0.979220272904483	B5-03822-P01-CH0	2539168	OK	0.1903024	0.1378125	0.091558	-0.9676827	164.002	-40.746	-247.324	B5-03822-P02-CH0	2539168	OK	0.7278984	0.3099446	-0.6116357	0	-93.794	-91.768	5.247	B5-03822-P02-CH1	2539168	OK	0.7933179	-0.1105296	-0.5986901	0	-97.666	-71.837	7.603	B5-03822-P03-CH0	2539168	OK	0.7901177	-0.1707752	-0.5886849	0	-105.368	-49.897	13.719	B5-03822-P03-CH1	2539168	OK	0.7557443	-0.653719	-0.0387574	0	-101.83	-9.549	4.287	B5-03822-P04-CH0	2539168	OK	0.8020836	-0.4131388	0.431252	0	-129.347	-26.563	15.147	B5-03822-P04-CH1	2539168	OK	0.7970156	-0.6030114	0.0338154	0	-114.432	-33.55	5.361	NA
0.98921231650555	B5-03822-P01-CH0	2539176	OK	0.1902492	0.1375614	0.0916546	-0.9677198	163.925	-40.711	-247.334	B5-03822-P02-CH0	2539176	OK	0.7288483	0.3155586	-0.6076207	0	-93.323	-91.441	4.189	B5-03822-P02-CH1	2539176	OK	0.7911259	-0.1116667	-0.6013737	0	-97.699	-71.583	8.188	B5-03822-P03-CH0	2539176	OK	0.7914428	-0.1706059	-0.5869513	0	-105.014	-48.517	12.583	B5-03822-P03-CH1	2539176	OK	0.7557174	-0.6537562	-0.0386527	0	-101.784	-9.731	4.261	B5-03822-P04-CH0	2539176	OK	0.8021765	-0.4130387	0.431175	0	-129.346	-26.532	14.903	B5-03822-P04-CH1	2539176	OK	0.7972197	-0.6027567	0.0335428	0	-114.435	-33.429	5.751	NA
0.999204360106616	B5-03822-P01-CH0	2539184	OK	0.1899052	0.1377157	0.0913045	-0.9677985	163.94	-40.681	-247.265	B5-03822-P02-CH0	2539184	OK	0.7284087	0.3227768	-0.6043475	0	-93.188	-90.595	4.974	B5-03822-P02-CH1	2539184	OK	0.7884392	-0.1122809	-0.6047781	0	-97.653	-71.203	7.606	B5-03822-P03-CH0	2539184	OK	0.7926854	-0.1740245	-0.5842649	0	-104.275	-49.005	13.079	B5-03822-P03-CH1	2539184	OK	0.755717	-0.653714	-0.0393683	0	-101.819	-9.497	4.156	B5-03822-P04-CH0	2539184	OK	0.8021124	-0.4132873	0.431056	0	-129.437	-26.495	14.722	B5-03822-P04-CH1	2539184	OK	0.79665	-0.603526	0.0332437	0	-114.497	-33.512	5.775	NA
1.00919640370768	B5-03822-P01-CH0	2539192	OK	0.1904082	0.1374179	0.0922745	-0.96765	163.894	-40.555	-247.33	B5-03822-P02-CH0	2539192	OK	0.7282107	0.3260818	-0.6028099	0	-93.595	-91.244	4.784	B5-03822-P02-CH1	2539192	OK	0.7867575	-0.1130939	-0.6068133	0	-97.178	-71.328	7.921	B5-03822-P03-CH0	2539192	OK	0.7925931	-0.174989	-0.5841019	0	-104.019	-49.641	14.018	B5-03822-P03-CH1	2539192	OK	0.7564349	-0.6529168	-0.0388063	0	-101.844	-9.538	4.211	B5-03822-P04-CH0	2539192	OK	0.8026866	-0.4117967	0.4314136	0	-129.496	-26.693	14.789	B5-03822-P04-CH1	2539192	OK	0.7971137	-0.6028842	0.0337681	0	-114.477	-33.467	5.282	NA
1.01918844730875	B5-03822-P01-CH0	2539200	OK	0.1902695	0.1374878	0.0924116	-0.9676542	163.929	-40.541	-247.296	B5-03822-P02-CH0	2539200	OK	0.7292081	0.3315378	-0.5986137	0	-93.317	-90.799	3.902	B5-03822-P02-CH1	2539200	OK	0.7847589	-0.1137878	-0.6092666	0	-97.169	-71.313	8.007	B5-03822-P03-CH0	2539200	OK	0.7912944	-0.1747163	-0.5859414	0	-104.848	-49.186	13.218	B5-03822-P03-CH1	2539200	OK	0.7568085	-0.6524424	-0.0394941	0	-101.808	-9.282	4.159	B5-03822-P04-CH0	2539200	OK	0.8031184	-0.4115478	0.4308471	0	-129.535	-26.421	14.802	B5-03822-P04-CH1	2539200	OK	0.7971587	-0.6028329	0.0336228	0	-114.558	-33.309	5.041	NA
1.02918049090981	B5-03822-P01-CH0	2539208	OK	0.189671	0.1377817	0.0913899	-0.9678269	163.983	-40.647	-247.281	B5-03822-P02-CH0	2539208	OK	0.7297454	0.3348248	-0.5961241	0	-93.9	-91.46	3.533	B5-03822-P02-CH1	2539208	OK	0.7832614	-0.113113	-0.6113158	0	-96.779	-71.581	8.037	B5-03822-P03-CH0	2539208	OK	0.7917504	-0.170831	-0.5864709	0	-104.729	-49.436	13.481	B5-03822-P03-CH1	2539208	OK	0.7557986	-0.6535926	-0.0398137	0	-101.89	-9.574	4.324	B5-03822-P04-CH0	2539208	OK	0.8028367	-0.4121961	0.4307523	0	-129.706	-26.547	14.815	B5-03822-P04-CH1	2539208	OK	0.7964591	-0.6037925	0.032977	0	-114.552	-33.186	4.89	NA
1.03917253451088	B5-03822-P01-CH0	2539216	OK	0.1901976	0.1375419	0.0923726	-0.9676644	163.957	-40.544	-247.351	B5-03822-P02-CH0	2539216	OK	0.7304847	0.3404228	-0.5920341	0	-92.957	-90.309	2.342	B5-03822-P02-CH1	2539216	OK	0.7818816	-0.1130929	-0.6130834	0	-96.499	-71.735	8.509	B5-03822-P03-CH0	2539216	OK	0.7918023	-0.1718446	-0.5861045	0	-104.64	-49.491	13.421	B5-03822-P03-CH1	2539216	OK	0.7565554	-0.6527415	-0.0394011	0	-101.78	-9.541	4.238	B5-03822-P04-CH0	2539216	OK	0.8033896	-0.4115842	0.4303064	0	-129.623	-26.21	14.399	B5-03822-P04-CH1	2539216	OK	0.7971622	-0.6028519	0.0331958	0	-114.279	-32.808	4.167	NA
1.04916457811195	B5-03822-P01-CH0	2539224	OK	0.1898993	0.137489	0.092162	-0.9677506	163.938	-40.612	-247.418	B5-03822-P02-CH0	2539224	OK	0.7302242	0.3425642	-0.5911196	0	-92.905	-90.432	3.862	B5-03822-P02-CH1	2539224	OK	0.7798835	-0.1121225	-0.6158005	0	-96.768	-71.534	7.615	B5-03822-P03-CH0	2539224	OK	0.7915635	-0.1721801	-0.5863286	0	-104.69	-49.353	13.305	B5-03822-P03-CH1	2539224	OK	0.7562487	-0.6530742	-0.0397744	0	-101.653	-9.599	4.094	B5-03822-P04-CH0	2539224	OK	0.8032025	-0.4116447	0.4305978	0	-129.644	-26.503	14.566	B5-03822-P04-CH1	2539224	OK	0.7967748	-0.6033738	0.0330154	0	-114.083	-32.833	3.935	NA
1.05915662171301	B5-03822-P01-CH0	2539232	OK	0.1896661	0.1376274	0.0923286	-0.9677608	163.954	-40.606	-247.433	B5-03822-P02-CH0	2539232	OK	0.7294345	0.3463101	-0.5899107	0	-92.916	-90.046	3.596	B5-03822-P02-CH1	2539232	OK	0.7777851	-0.1097047	-0.6188823	0	-96.869	-70.643	6.674	B5-03822-P03-CH0	2539232	OK	0.7913127	-0.1725162	-0.5865682	0	-104.829	-49.252	13.208	B5-03822-P03-CH1	2539232	OK	0.7561487	-0.6531759	-0.0400056	0	-101.647	-9.634	4.088	B5-03822-P04-CH0	2539232	OK	0.8033778	-0.411651	0.4302644	0	-129.615	-26.384	14.671	B5-03822-P04-CH1	2539232	OK	0.7966949	-0.6034922	0.0327778	0	-114.196	-32.887	4.083	NA
1.06914866531408	B5-03822-P01-CH0	2539240	OK	0.1904926	0.1372065	0.0942345	-0.9674744	163.928	-40.355	-247.674	B5-03822-P02-CH0	2539240	OK	0.7285399	0.3476832	-0.5902085	0	-93.444	-91.097	3.541	B5-03822-P02-CH1	2539240	OK	0.7767713	-0.112214	-0.6197051	0	-96.418	-71.173	7.093	B5-03822-P03-CH0	2539240	OK	0.7918602	-0.1728727	-0.5857239	0	-104.718	-49.259	13.18	B5-03822-P03-CH1	2539240	OK	0.7570555	-0.6522029	-0.0387082	0	-101.674	-9.854	4.303	B5-03822-P04-CH0	2539240	OK	0.8040931	-0.4097735	0.4307203	0	-129.655	-26.592	14.889	B5-03822-P04-CH1	2539240	OK	0.7975558	-0.6022876	0.0339759	0	-114.079	-33.199	4.341	NA
1.07914070891515	B5-03822-P01-CH0	2539248	OK	0.1904633	0.1369925	0.0946479	-0.9674702	163.811	-40.279	-247.72	B5-03822-P02-CH0	2539248	OK	0.7289655	0.3530823	-0.5864658	0	-93.19	-90.858	2.633	B5-03822-P02-CH1	2539248	OK	0.7756578	-0.1149351	-0.6206005	0	-96.102	-71.479	7.276	B5-03822-P03-CH0	2539248	OK	0.7921247	-0.1728942	-0.5853597	0	-104.619	-49.122	12.927	B5-03822-P03-CH1	2539248	OK	0.7572328	-0.6519925	-0.0387852	0	-101.58	-9.748	4.353	B5-03822-P04-CH0	2539248	OK	0.8041849	-0.4091608	0.4311312	0	-129.641	-26.757	15.289	B5-03822-P04-CH1	2539248	OK	0.797954	-0.6017744	0.033719	0	-114.02	-32.757	3.898	NA
1.08913275251621	B5-03822-P01-CH0	2539256	OK	0.1904501	0.1374124	0.0945203	-0.9674257	163.916	-40.298	-247.608	B5-03822-P02-CH0	2539256	OK	0.7288467	0.3592886	-0.5828329	0	-92.997	-90.466	2.597	B5-03822-P02-CH1	2539256	OK	0.7732817	-0.1144267	-0.6236521	0	-96.28	-71.139	7.335	B5-03822-P03-CH0	2539256	OK	0.7919185	-0.1734033	-0.5854882	0	-104.701	-49.274	12.9	B5-03822-P03-CH1	2539256	OK	0.7573803	-0.6518095	-0.0389812	0	-101.664	-9.458	4.318	B5-03822-P04-CH0	2539256	OK	0.8042578	-0.4087888	0.4313481	0	-129.776	-27.038	15.691	B5-03822-P04-CH1	2539256	OK	0.7976934	-0.6021249	0.0336276	0	-114.034	-32.772	3.686	NA
1.09912479611728	B5-03822-P01-CH0	2539264	OK	0.1910042	0.1373855	0.0953994	-0.967234	164.008	-40.293	-247.717	B5-03822-P02-CH0	2539264	OK	0.7280065	0.3647546	-0.5804831	0	-92.928	-90.23	2.786	B5-03822-P02-CH1	2539264	OK	0.7719618	-0.1145499	-0.6252625	0	-95.985	-71.191	6.775	B5-03822-P03-CH0	2539264	OK	0.7917657	-0.1739667	-0.5855277	0	-104.899	-49.535	12.822	B5-03822-P03-CH1	2539264	OK	0.7579541	-0.6511816	-0.0383172	0	-101.628	-9.586	4.504	B5-03822-P04-CH0	2539264	OK	0.8046965	-0.4079852	0.4312907	0	-129.748	-27.162	15.822	B5-03822-P04-CH1	2539264	OK	0.79849	-0.6010507	0.0339373	0	-114.054	-32.667	3.716	NA
1.10911683971834	B5-03822-P01-CH0	2539272	OK	0.1905216	0.1376443	0.0946109	-0.9673698	164.079	-40.44	-247.715	B5-03822-P02-CH0	2539272	OK	0.727551	0.3709386	-0.5771257	0	-92.858	-89.915	3.52	B5-03822-P02-CH1	2539272	OK	0.7700052	-0.1137494	-0.6278161	0	-96	-71.504	6.2	B5-03822-P03-CH0	2539272	OK	0.791546	-0.1740584	-0.5857974	0	-104.994	-49.61	12.805	B5-03822-P03-CH1	2539272	OK	0.7574614	-0.6517161	-0.0389658	0	-101.548	-9.508	4.462	B5-03822-P04-CH0	2539272	OK	0.8043668	-0.4090639	0.4308837	0	-129.717	-27.103	15.887	B5-03822-P04-CH1	2539272	OK	0.7979807	-0.6017631	0.0332858	0	-114.076	-32.657	3.845	NA
1.11910888331941	B5-03822-P01-CH0	2539280	OK	0.1906352	0.1378081	0.0944509	-0.9673397	164.154	-40.506	-247.709	B5-03822-P02-CH0	2539280	OK	0.7269818	0.3740136	-0.575857	0	-93.327	-90.656	3.024	B5-03822-P02-CH1	2539280	OK	0.7699971	-0.1123607	-0.6280761	0	-94.962	-71.308	6.847	B5-03822-P03-CH0	2539280	OK	0.7917398	-0.174452	-0.5854184	0	-104.853	-49.834	12.883	B5-03822-P03-CH1	2539280	OK	0.7572033	-0.6520395	-0.0385701	0	-101.587	-9.683	4.527	B5-03822-P04-CH0	2539280	OK	0.8041892	-0.4094856	0.4308147	0	-129.711	-27.179	15.628	B5-03822-P04-CH1	2539280	OK	0.7977316	-0.6020818	0.0334932	0	-114.189	-32.99	4.174	NA
1.12910092692048	B5-03822-P01-CH0	2539288	OK	0.1910172	0.1377531	0.0949153	-0.9672267	164.14	-40.421	-247.679	B5-03822-P02-CH0	2539288	OK	0.7263346	0.3767939	-0.5748604	0	-93.15	-90.464	3.603	B5-03822-P02-CH1	2539288	OK	0.7680387	-0.112237	-0.6304914	0	-95.13	-71.546	7.399	B5-03822-P03-CH0	2539288	OK	0.791653	-0.1748118	-0.5854284	0	-104.907	-49.872	12.7	B5-03822-P03-CH1	2539288	OK	0.7574056	-0.651848	-0.0378279	0	-101.66	-9.778	4.6	B5-03822-P04-CH0	2539288	OK	0.8044215	-0.4097062	0.4301707	0	-129.553	-26.691	15.155	B5-03822-P04-CH1	2539288	OK	0.7977803	-0.6019754	0.0342372	0	-114.136	-33.265	4.367	NA
1.13909297052154	B5-03822-P01-CH0	2539296	OK	0.1909319	0.1378213	0.0949628	-0.9672292	164.218	-40.443	-247.728	B5-03822-P02-CH0	2539296	OK	0.7263132	0.3801925	-0.5726455	0	-93.169	-90.465	2.841	B5-03822-P02-CH1	2539296	OK	0.7680889	-0.1129251	-0.6303074	0	-94.355	-71.811	6.592	B5-03822-P03-CH0	2539296	OK	0.7914471	-0.1749242	-0.5856731	0	-105.012	-49.871	12.703	B5-03822-P03-CH1	2539296	OK	0.7575072	-0.6517174	-0.0380421	0	-101.749	-9.673	4.618	B5-03822-P04-CH0	2539296	OK	0.8044186	-0.4099815	0.4299138	0	-129.571	-26.86	15.334	B5-03822-P04-CH1	2539296	OK	0.797892	-0.6018445	0.0339345	0	-114.337	-33.245	4.563	NA
