Wav.Time	B5.03822.P01.CH0	Frame	State	Q0	Qx	Qy	Qz	Tx	Ty	Tz	B5.03822.P02.CH0	Frame.1	State.1	Q0.1	Qx.1	Qy.1	Qz.1	Tx.1	Ty.1	Tz.1	B5.03822.P02.CH1	Frame.2	State.2	Q0.2	Qx.2	Qy.2	Qz.2	Tx.2	Ty.2	Tz.2	B5.03822.P03.CH0	Frame.3	State.3	Q0.3	Qx.3	Qy.3	Qz.3	Tx.3	Ty.3	Tz.3	B5.03822.P03.CH1	Frame.4	State.4	Q0.4	Qx.4	Qy.4	Qz.4	Tx.4	Ty.4	Tz.4	B5.03822.P04.CH0	Frame.5	State.5	Q0.5	Qx.5	Qy.5	Qz.5	Tx.5	Ty.5	Tz.5	B5.03822.P04.CH1	Frame.6	State.6	Q0.6	Qx.6	Qy.6	Qz.6	Tx.6	Ty.6	Tz.6	X
0	B5-03822-P01-CH0	1577120	OK	0.1422592	0.117996	0.1247143	-0.9748259	152.947	-14.426	-274.751	B5-03822-P02-CH0	1577120	OK	0.6502955	0.2641322	-0.712285	0	-86.658	-89.39	0.105	B5-03822-P02-CH1	1577120	OK	0.7264099	0.0985219	-0.6801633	0	-87.394	-69.589	3.925	B5-03822-P03-CH0	1577120	OK	0.7029262	0.0379858	-0.7102477	0	-96.959	-48.099	8.011	B5-03822-P03-CH1	1577120	OK	0.7928685	-0.5921146	-0.1440828	0	-99.417	-12.662	7.862	B5-03822-P04-CH0	1577120	OK	0.7983637	-0.2914788	0.5269302	0	-121.18	-20.118	15.81	B5-03822-P04-CH1	1577120	OK	0.787355	-0.6162621	0.0171221	0	-111.277	-31.319	5.776	NA
0.0099921017095977	B5-03822-P01-CH0	1577128	OK	0.1423307	0.117996	0.1244909	-0.9748441	152.912	-14.503	-274.629	B5-03822-P02-CH0	1577128	OK	0.6496032	0.2481563	-0.7186335	0	-86.784	-89.425	-0.247	B5-03822-P02-CH1	1577128	OK	0.7260765	0.1039501	-0.6797112	0	-86.853	-68.774	2.148	B5-03822-P03-CH0	1577128	OK	0.7062675	0.0285933	-0.7073674	0	-97.005	-47.598	7.68	B5-03822-P03-CH1	1577128	OK	0.7938319	-0.5907301	-0.1444606	0	-100.509	-13.175	9.605	B5-03822-P04-CH0	1577128	OK	0.7988932	-0.2902023	0.5268323	0	-121.757	-19.871	15.761	B5-03822-P04-CH1	1577128	OK	0.787369	-0.6162424	0.0171886	0	-111.316	-31.431	5.949	NA
0.0199842034191954	B5-03822-P01-CH0	1577136	OK	0.142105	0.1178487	0.1245877	-0.9748824	152.844	-14.466	-274.658	B5-03822-P02-CH0	1577136	OK	0.6498958	0.2408876	-0.7208388	0	-85.817	-88.596	0.336	B5-03822-P02-CH1	1577136	OK	0.7255413	0.1086215	-0.6795522	0	-85.716	-69.372	3.394	B5-03822-P03-CH0	1577136	OK	0.7120345	0.0166026	-0.7019482	0	-96.506	-48.192	7.447	B5-03822-P03-CH1	1577136	OK	0.7939099	-0.5904839	-0.1450369	0	-99.107	-14.355	8.82	B5-03822-P04-CH0	1577136	OK	0.7990777	-0.2869662	0.528323	0	-122.151	-20.208	16.69	B5-03822-P04-CH1	1577136	OK	0.7874989	-0.616086	0.0168389	0	-111.208	-31.231	5.828	NA
0.0299763051287931	B5-03822-P01-CH0	1577144	OK	0.142311	0.1181087	0.1251244	-0.9747522	152.964	-14.378	-274.493	B5-03822-P02-CH0	1577144	OK	0.6493315	0.2314484	-0.7244309	0	-86.097	-90.012	-0.132	B5-03822-P02-CH1	1577144	OK	0.72298	0.1102149	-0.6820209	0	-86.119	-70.506	0.737	B5-03822-P03-CH0	1577144	OK	0.7162817	0.0043525	-0.6977977	0	-97.113	-49.157	7.781	B5-03822-P03-CH1	1577144	OK	0.7968596	-0.5859555	-0.1472108	0	-99.193	-12.556	7.724	B5-03822-P04-CH0	1577144	OK	0.7988974	-0.2829666	0.5307475	0	-122.651	-20.938	16.797	B5-03822-P04-CH1	1577144	OK	0.787551	-0.6160017	0.0174725	0	-111.351	-31.636	6.112	NA
0.0399684068383908	B5-03822-P01-CH0	1577152	OK	0.1426445	0.1178793	0.1258738	-0.9746347	152.938	-14.283	-274.549	B5-03822-P02-CH0	1577152	OK	0.6489003	0.2214264	-0.7279415	0	-85.904	-91.123	-0.209	B5-03822-P02-CH1	1577152	OK	0.7205146	0.1101754	-0.6846313	0	-85.314	-69.723	-0.428	B5-03822-P03-CH0	1577152	OK	0.7200612	-0.0091297	-0.6938505	0	-98.099	-49.725	8.339	B5-03822-P03-CH1	1577152	OK	0.7969078	-0.5855737	-0.1484634	0	-99.656	-13.384	8.061	B5-03822-P04-CH0	1577152	OK	0.7993796	-0.2884455	0.5270593	0	-122.867	-21.516	16.507	B5-03822-P04-CH1	1577152	OK	0.7880566	-0.6153504	0.017628	0	-111.205	-31.526	5.883	NA
0.0499605085479885	B5-03822-P01-CH0	1577160	OK	0.1423637	0.1180657	0.1253177	-0.9747249	152.997	-14.187	-274.561	B5-03822-P02-CH0	1577160	OK	0.6488074	0.2125957	-0.7306517	0	-84.673	-89.811	-0.771	B5-03822-P02-CH1	1577160	OK	0.7160326	0.1097009	-0.6893932	0	-85.965	-70.077	2.155	B5-03822-P03-CH0	1577160	OK	0.7259451	-0.0189	-0.6874929	0	-97.846	-50.47	9.088	B5-03822-P03-CH1	1577160	OK	0.7972175	-0.584575	-0.1507196	0	-98.931	-12.258	7.375	B5-03822-P04-CH0	1577160	OK	0.7981084	-0.2739946	0.5366097	0	-122.488	-20.919	17.006	B5-03822-P04-CH1	1577160	OK	0.7873509	-0.6162439	0.0179464	0	-111.489	-31.847	6.274	NA
0.0599526102575862	B5-03822-P01-CH0	1577168	OK	0.1420355	0.1177982	0.1248022	-0.9748712	152.815	-14.293	-274.404	B5-03822-P02-CH0	1577168	OK	0.6478692	0.20814	-0.7327641	0	-85.024	-91.112	-1.179	B5-03822-P02-CH1	1577168	OK	0.7155078	0.1108329	-0.689757	0	-84.166	-69.998	0.091	B5-03822-P03-CH0	1577168	OK	0.7327632	-0.0290609	-0.6798629	0	-97.693	-51.379	7.834	B5-03822-P03-CH1	1577168	OK	0.7949912	-0.5876656	-0.1504595	0	-99.747	-13.346	8.898	B5-03822-P04-CH0	1577168	OK	0.7957298	-0.2717389	0.5412689	0	-121.764	-20.437	14.582	B5-03822-P04-CH1	1577168	OK	0.7871919	-0.6164639	0.0173545	0	-111.15	-31.451	5.63	NA
0.0699447119671839	B5-03822-P01-CH0	1577176	OK	0.1419883	0.1178934	0.1253888	-0.9747913	152.827	-14.163	-274.3	B5-03822-P02-CH0	1577176	OK	0.6491791	0.2033937	-0.7329375	0	-83.944	-91.462	-1.312	B5-03822-P02-CH1	1577176	OK	0.7128628	0.1129828	-0.6921427	0	-83.534	-70.231	0.932	B5-03822-P03-CH0	1577176	OK	0.7384914	-0.0414878	-0.6729853	0	-97.771	-52.287	8.191	B5-03822-P03-CH1	1577176	OK	0.7916666	-0.5921036	-0.1505901	0	-100.359	-14.793	10.154	B5-03822-P04-CH0	1577176	OK	0.7945698	-0.2669376	0.5453468	0	-121.828	-20.785	15.187	B5-03822-P04-CH1	1577176	OK	0.7874364	-0.6161588	0.0170936	0	-111.036	-31.104	4.784	NA
0.0799368136767816	B5-03822-P01-CH0	1577184	OK	0.1423883	0.1176083	0.1262504	-0.9746562	152.771	-14.037	-274.343	B5-03822-P02-CH0	1577184	OK	0.6487877	0.2000836	-0.7341942	0	-84.463	-91.511	-1.293	B5-03822-P02-CH1	1577184	OK	0.7134926	0.1122947	-0.6916055	0	-82.058	-70.51	1.021	B5-03822-P03-CH0	1577184	OK	0.7423055	-0.0594385	-0.6674201	0	-98.597	-53.355	7.883	B5-03822-P03-CH1	1577184	OK	0.7890891	-0.5955352	-0.1505864	0	-99.078	-13.434	7.104	B5-03822-P04-CH0	1577184	OK	0.7941145	-0.2595922	0.5495398	0	-123.087	-21.092	15.329	B5-03822-P04-CH1	1577184	OK	0.7877588	-0.6157219	0.0179635	0	-110.823	-31.145	4.433	NA
0.0899289153863793	B5-03822-P01-CH0	1577192	OK	0.1421563	0.1175758	0.1253939	-0.9748045	152.735	-14.061	-274.39	B5-03822-P02-CH0	1577192	OK	0.6510334	0.1957452	-0.7333753	0	-85.208	-92.294	-0.465	B5-03822-P02-CH1	1577192	OK	0.7114981	0.1082272	-0.6943035	0	-83.323	-71.855	-1.297	B5-03822-P03-CH0	1577192	OK	0.7469227	-0.0798203	-0.6601024	0	-98.488	-54.23	8.403	B5-03822-P03-CH1	1577192	OK	0.7857303	-0.5996374	-0.1518649	0	-99.453	-12.059	7.505	B5-03822-P04-CH0	1577192	OK	0.7922261	-0.2521496	0.5556962	0	-123.976	-21.355	14.535	B5-03822-P04-CH1	1577192	OK	0.7871948	-0.6164374	0.0181442	0	-110.496	-30.939	3.914	NA
0.099921017095977	B5-03822-P01-CH0	1577200	OK	0.141761	0.1177105	0.1241577	-0.9750041	152.727	-14.269	-274.323	B5-03822-P02-CH0	1577200	OK	0.6564581	0.1939749	-0.7289969	0	-85.247	-92.896	-0.9	B5-03822-P02-CH1	1577200	OK	0.7111946	0.1032032	-0.6953785	0	-82.931	-72.418	0.167	B5-03822-P03-CH0	1577200	OK	0.7491828	-0.1050476	-0.6539803	0	-98.77	-55.45	7.608	B5-03822-P03-CH1	1577200	OK	0.7803699	-0.6064022	-0.1526404	0	-98.767	-12.665	5.875	B5-03822-P04-CH0	1577200	OK	0.7904272	-0.2431362	0.5622363	0	-124.191	-21.021	14.779	B5-03822-P04-CH1	1577200	OK	0.7865061	-0.6173047	0.0185231	0	-110.387	-30.838	3.214	NA
0.109913118805575	B5-03822-P01-CH0	1577208	OK	0.1415841	0.1176272	0.1237807	-0.9750877	152.749	-14.354	-274.414	B5-03822-P02-CH0	1577208	OK	0.6615715	0.1947137	-0.7241614	0	-85.494	-94.014	-1.808	B5-03822-P02-CH1	1577208	OK	0.7100925	0.0949608	-0.6976755	0	-83.294	-73.115	1.39	B5-03822-P03-CH0	1577208	OK	0.7520321	-0.1279531	-0.6465878	0	-98.589	-56.905	9.316	B5-03822-P03-CH1	1577208	OK	0.7780023	-0.6096069	-0.1519599	0	-99.775	-12.214	8.36	B5-03822-P04-CH0	1577208	OK	0.7886349	-0.2364174	0.567593	0	-125.051	-21.963	14.82	B5-03822-P04-CH1	1577208	OK	0.7860428	-0.6178504	0.0199384	0	-110.644	-31.243	3.256	NA
0.119905220515172	B5-03822-P01-CH0	1577216	OK	0.1417315	0.1174603	0.123773	-0.9750874	152.751	-14.474	-274.52	B5-03822-P02-CH0	1577216	OK	0.6664754	0.1918078	-0.7204307	0	-85.181	-94.049	-1.142	B5-03822-P02-CH1	1577216	OK	0.708367	0.0879573	-0.7003425	0	-83.689	-75.132	0.769	B5-03822-P03-CH0	1577216	OK	0.7540001	-0.1509814	-0.6392874	0	-99.111	-58.116	9.04	B5-03822-P03-CH1	1577216	OK	0.7752808	-0.6149701	-0.1440535	0	-99.756	-13.766	8.858	B5-03822-P04-CH0	1577216	OK	0.7881094	-0.2304536	0.5707668	0	-126.162	-24.064	16.07	B5-03822-P04-CH1	1577216	OK	0.7864131	-0.6173299	0.0214044	0	-110.742	-31.287	3.185	NA
0.12989732222477	B5-03822-P01-CH0	1577224	OK	0.141453	0.1173974	0.1234567	-0.9751755	152.743	-14.423	-274.654	B5-03822-P02-CH0	1577224	OK	0.6746438	0.1872088	-0.7140089	0	-84.569	-93.741	-1.109	B5-03822-P02-CH1	1577224	OK	0.7091533	0.082067	-0.7002618	0	-80.924	-73.043	-0.126	B5-03822-P03-CH0	1577224	OK	0.7566868	-0.1741829	-0.6301471	0	-98.055	-58.628	9.525	B5-03822-P03-CH1	1577224	OK	0.7753235	-0.6157918	-0.1402634	0	-99.23	-11.672	6.963	B5-03822-P04-CH0	1577224	OK	0.787706	-0.2232764	0.5741663	0	-126.627	-23.143	16.312	B5-03822-P04-CH1	1577224	OK	0.7862752	-0.6174517	0.022906	0	-111.038	-31.36	3.184	NA
0.139889423934368	B5-03822-P01-CH0	1577232	OK	0.141141	0.1172683	0.1230859	-0.9752832	152.663	-14.598	-274.592	B5-03822-P02-CH0	1577232	OK	0.6812315	0.1841167	-0.708537	0	-84.862	-93.825	-1.745	B5-03822-P02-CH1	1577232	OK	0.7082693	0.0773427	-0.7016928	0	-80.265	-71.854	0.183	B5-03822-P03-CH0	1577232	OK	0.7581393	-0.1935988	-0.6226912	0	-97.466	-59.133	9.59	B5-03822-P03-CH1	1577232	OK	0.7731975	-0.6187187	-0.139114	0	-100.335	-11.932	7.954	B5-03822-P04-CH0	1577232	OK	0.7862835	-0.2153897	0.5791076	0	-127.069	-24.265	16.289	B5-03822-P04-CH1	1577232	OK	0.7835673	-0.6201739	0.0375048	0	-112.795	-35.301	1.556	NA
0.149881525643965	B5-03822-P01-CH0	1577240	OK	0.1413946	0.1170099	0.123431	-0.9752338	152.541	-14.74	-274.483	B5-03822-P02-CH0	1577240	OK	0.6859399	0.1870682	-0.7032012	0	-84.737	-94.767	-1.203	B5-03822-P02-CH1	1577240	OK	0.7072817	0.0802445	-0.7023628	0	-79.491	-71.805	-0.612	B5-03822-P03-CH0	1577240	OK	0.7587739	-0.2057783	-0.6179947	0	-96.72	-59.352	9.636	B5-03822-P03-CH1	1577240	OK	0.7704496	-0.6224532	-0.1376935	0	-100.153	-13.309	8.634	B5-03822-P04-CH0	1577240	OK	0.7865872	-0.2052267	0.5823767	0	-127.98	-24.833	16.673	B5-03822-P04-CH1	1577240	OK	0.7853749	-0.6178803	0.0375536	0	-113.101	-34.331	1.254	NA
0.159873627353563	B5-03822-P01-CH0	1577248	OK	0.1412171	0.1170905	0.1231994	-0.9752792	152.531	-14.735	-274.502	B5-03822-P02-CH0	1577248	OK	0.6888594	0.1962679	-0.6978192	0	-84.934	-94.125	-1.369	B5-03822-P02-CH1	1577248	OK	0.7063532	0.0898342	-0.702136	0	-78.542	-71.765	-1.323	B5-03822-P03-CH0	1577248	OK	0.7572721	-0.2153149	-0.6165862	0	-97.481	-59.124	8.608	B5-03822-P03-CH1	1577248	OK	0.7694817	-0.6230455	-0.1404003	0	-99.311	-11.763	7.587	B5-03822-P04-CH0	1577248	OK	0.7861669	-0.1984403	0.5852888	0	-127.944	-25.035	17.019	B5-03822-P04-CH1	1577248	OK	0.7853607	-0.6177442	0.0400082	0	-114.261	-36.718	8.17	NA
0.169865729063161	B5-03822-P01-CH0	1577256	OK	0.1408776	0.1170756	0.1223134	-0.9754416	152.466	-14.729	-274.541	B5-03822-P02-CH0	1577256	OK	0.6910847	0.2078183	-0.6922524	0	-85.882	-93.703	-0.766	B5-03822-P02-CH1	1577256	OK	0.706288	0.1020863	-0.7005253	0	-77.286	-72.12	0.751	B5-03822-P03-CH0	1577256	OK	0.7581867	-0.2197346	-0.613897	0	-96.299	-58.806	8.511	B5-03822-P03-CH1	1577256	OK	0.7664552	-0.6262409	-0.1427192	0	-98.195	-11.769	6.393	B5-03822-P04-CH0	1577256	OK	0.7859768	-0.1949476	0.5867161	0	-128.263	-25.505	17.77	B5-03822-P04-CH1	1577256	OK	0.7850542	-0.6186287	0.0314399	0	-111.907	-33.157	2.784	NA
0.179857830772759	B5-03822-P01-CH0	1577264	OK	0.1408522	0.1169348	0.1221959	-0.9754769	152.402	-14.777	-274.563	B5-03822-P02-CH0	1577264	OK	0.6930101	0.2238325	-0.6853	0	-85.848	-92.902	0.089	B5-03822-P02-CH1	1577264	OK	0.704134	0.1221426	-0.6994831	0	-78.932	-74.972	-0.128	B5-03822-P03-CH0	1577264	OK	0.7583364	-0.2171898	-0.6146173	0	-94.641	-59.085	9.052	B5-03822-P03-CH1	1577264	OK	0.7640675	-0.6291419	-0.1427632	0	-98.881	-12.801	7.559	B5-03822-P04-CH0	1577264	OK	0.7850365	-0.1940334	0.588276	0	-127.8	-24.369	16.534	B5-03822-P04-CH1	1577264	OK	0.785274	-0.6182666	0.0330323	0	-112.136	-33.363	3.212	NA
0.189849932482356	B5-03822-P01-CH0	1577272	OK	0.1408607	0.1170664	0.1228378	-0.9753792	152.417	-14.724	-274.486	B5-03822-P02-CH0	1577272	OK	0.6941301	0.2403505	-0.6785389	0	-86.67	-93.54	-0.408	B5-03822-P02-CH1	1577272	OK	0.7060202	0.1507222	-0.6919669	0	-78.062	-73.374	-0.894	B5-03822-P03-CH0	1577272	OK	0.7556063	-0.2091649	-0.6207328	0	-94.344	-58.945	8.542	B5-03822-P03-CH1	1577272	OK	0.7633669	-0.6301407	-0.1421044	0	-99.207	-13.501	8.329	B5-03822-P04-CH0	1577272	OK	0.7860414	-0.1955655	0.5864239	0	-127.768	-24.624	17.024	B5-03822-P04-CH1	1577272	OK	0.7856681	-0.6176701	0.0347747	0	-112.696	-33.877	3.854	NA
0.199842034191954	B5-03822-P01-CH0	1577280	OK	0.1409933	0.1171584	0.1236565	-0.9752455	152.384	-14.596	-274.378	B5-03822-P02-CH0	1577280	OK	0.6967449	0.2561832	-0.6700125	0	-86.102	-92.025	-1.139	B5-03822-P02-CH1	1577280	OK	0.7035134	0.1733993	-0.6892035	0	-79.21	-72.816	1.224	B5-03822-P03-CH0	1577280	OK	0.7520948	-0.1918255	-0.6305207	0	-93.543	-57.477	7.127	B5-03822-P03-CH1	1577280	OK	0.7651246	-0.628306	-0.140769	0	-98.724	-12.529	8.193	B5-03822-P04-CH0	1577280	OK	0.7873954	-0.1972261	0.5840465	0	-127.407	-24.593	17.769	B5-03822-P04-CH1	1577280	OK	0.7862651	-0.616864	0.0355794	0	-113.078	-33.951	3.983	NA
0.209834135901552	B5-03822-P01-CH0	1577288	OK	0.1409869	0.1171063	0.1240163	-0.975207	152.328	-14.495	-274.491	B5-03822-P02-CH0	1577288	OK	0.6968649	0.2686968	-0.6649672	0	-87.541	-91.279	1.36	B5-03822-P02-CH1	1577288	OK	0.7025151	0.1907927	-0.685617	0	-79.464	-72.666	0.063	B5-03822-P03-CH0	1577288	OK	0.7445154	-0.16563	-0.646733	0	-93.874	-56.272	7.845	B5-03822-P03-CH1	1577288	OK	0.7649054	-0.6289155	-0.1392301	0	-99.507	-13.16	8.166	B5-03822-P04-CH0	1577288	OK	0.7876421	-0.2034068	0.5815888	0	-126.181	-22.731	16.05	B5-03822-P04-CH1	1577288	OK	0.7867022	-0.6162859	0.0359361	0	-113.039	-33.795	4.141	NA
0.219826237611149	B5-03822-P01-CH0	1577296	OK	0.1411943	0.1172317	0.1248908	-0.9750503	152.274	-14.266	-274.248	B5-03822-P02-CH0	1577296	OK	0.6984639	0.2755554	-0.6604676	0	-88.459	-90.168	-0.35	B5-03822-P02-CH1	1577296	OK	0.6990557	0.1940561	-0.6882321	0	-81.152	-72.832	0.866	B5-03822-P03-CH0	1577296	OK	0.7365022	-0.135588	-0.6627069	0	-92.351	-54.661	5.247	B5-03822-P03-CH1	1577296	OK	0.7668583	-0.6267957	-0.1380415	0	-99.249	-12.388	6.722	B5-03822-P04-CH0	1577296	OK	0.7908086	-0.2076784	0.575753	0	-126.893	-24.288	17.118	B5-03822-P04-CH1	1577296	OK	0.7872761	-0.615521	0.036473	0	-113.144	-33.713	4.274	NA
0.229818339320747	B5-03822-P01-CH0	1577304	OK	0.1410283	0.1171654	0.1245074	-0.9751314	152.074	-14.368	-273.998	B5-03822-P02-CH0	1577304	OK	0.70093	0.2768943	-0.6572874	0	-88.441	-88.565	-0.019	B5-03822-P02-CH1	1577304	OK	0.7014987	0.1717704	-0.6916607	0	-78.384	-70.082	-3.086	B5-03822-P03-CH0	1577304	OK	0.7258163	-0.0997252	-0.6806215	0	-90.883	-54.297	6.982	B5-03822-P03-CH1	1577304	OK	0.7686914	-0.6248323	-0.1367411	0	-98.859	-11.744	7.092	B5-03822-P04-CH0	1577304	OK	0.7921295	-0.2139836	0.5716133	0	-125.535	-23.065	16.409	B5-03822-P04-CH1	1577304	OK	0.7870067	-0.6158862	0.0361196	0	-113.024	-33.639	3.86	NA
0.239810441030345	B5-03822-P01-CH0	1577312	OK	0.1407698	0.117443	0.1243554	-0.9751547	152.058	-14.201	-273.918	B5-03822-P02-CH0	1577312	OK	0.7025799	0.2725661	-0.6573349	0	-88.968	-87.893	1.385	B5-03822-P02-CH1	1577312	OK	0.7000676	0.1412048	-0.6999762	0	-76.807	-66.893	-0.761	B5-03822-P03-CH0	1577312	OK	0.7129173	-0.0524354	-0.699285	0	-92.219	-51.87	6.238	B5-03822-P03-CH1	1577312	OK	0.7673089	-0.6258043	-0.1400218	0	-99.138	-11.723	7.274	B5-03822-P04-CH0	1577312	OK	0.7930984	-0.2182434	0.5686517	0	-124.795	-22.678	15.438	B5-03822-P04-CH1	1577312	OK	0.7868518	-0.6161011	0.035829	0	-113.011	-33.635	4.519	NA
0.249802542739942	B5-03822-P01-CH0	1577320	OK	0.1402783	0.1177331	0.1239104	-0.9752472	152.117	-14.119	-274.025	B5-03822-P02-CH0	1577320	OK	0.7052513	0.2679514	-0.6563709	0	-87.776	-85.812	0.421	B5-03822-P02-CH1	1577320	OK	0.694714	0.1125578	-0.7104247	0	-77.917	-66.235	0.523	B5-03822-P03-CH0	1577320	OK	0.7074736	-0.0079385	-0.7066952	0	-89.76	-48.209	6.398	B5-03822-P03-CH1	1577320	OK	0.7673786	-0.625576	-0.1406583	0	-98.902	-11.234	6.901	B5-03822-P04-CH0	1577320	OK	0.794787	-0.2220045	0.5648253	0	-124.471	-22.437	16.139	B5-03822-P04-CH1	1577320	OK	0.7869608	-0.6160417	0.0344284	0	-112.892	-32.958	4.416	NA
0.25979464444954	B5-03822-P01-CH0	1577328	OK	0.1404644	0.1177126	0.1248561	-0.9751023	152.13	-14.017	-274.107	B5-03822-P02-CH0	1577328	OK	0.704701	0.2673879	-0.6571912	0	-88.147	-84.671	1.636	B5-03822-P02-CH1	1577328	OK	0.6899095	0.0762562	-0.719868	0	-78.472	-66.153	0.584	B5-03822-P03-CH0	1577328	OK	0.7024215	0.0261599	-0.7112803	0	-90.651	-47.267	7.765	B5-03822-P03-CH1	1577328	OK	0.771262	-0.622333	-0.1336283	0	-100.329	-14.209	10.351	B5-03822-P04-CH0	1577328	OK	0.7981335	-0.2233615	0.5595467	0	-125.659	-23.298	16.807	B5-03822-P04-CH1	1577328	OK	0.7876586	-0.6151725	0.0340103	0	-112.778	-32.669	4.241	NA
0.269786746159138	B5-03822-P01-CH0	1577336	OK	0.1409497	0.1174753	0.1259549	-0.9749195	152.039	-14.021	-274.129	B5-03822-P02-CH0	1577336	OK	0.7058257	0.2714573	-0.6543096	0	-88.027	-83.455	1.262	B5-03822-P02-CH1	1577336	OK	0.6887963	0.0352789	-0.7240961	0	-77.589	-63.969	-0.442	B5-03822-P03-CH0	1577336	OK	0.7064358	0.043887	-0.7064151	0	-91.066	-46.101	9.787	B5-03822-P03-CH1	1577336	OK	0.7737509	-0.6194504	-0.1326304	0	-98.605	-15.026	9.205	B5-03822-P04-CH0	1577336	OK	0.8001438	-0.2264449	0.5554212	0	-125.717	-24.131	17.539	B5-03822-P04-CH1	1577336	OK	0.7886027	-0.6139601	0.0340401	0	-112.862	-32.641	4.363	NA
0.279778847868736	B5-03822-P01-CH0	1577344	OK	0.1404615	0.1178733	0.1255015	-0.9750004	152.08	-14.033	-274.024	B5-03822-P02-CH0	1577344	OK	0.7085794	0.2795867	-0.6478785	0	-88.556	-83.417	1.979	B5-03822-P02-CH1	1577344	OK	0.6858117	-0.0055804	-0.7277576	0	-79.053	-63.327	-0.668	B5-03822-P03-CH0	1577344	OK	0.7170093	0.0367028	-0.6960966	0	-92.834	-46.655	6.528	B5-03822-P03-CH1	1577344	OK	0.7766957	-0.6156503	-0.1331108	0	-98.128	-13.084	6.38	B5-03822-P04-CH0	1577344	OK	0.8012566	-0.2330772	0.5510561	0	-125.56	-23.904	17.352	B5-03822-P04-CH1	1577344	OK	0.7882924	-0.614392	0.0334307	0	-112.965	-32.539	4.413	NA
0.289770949578333	B5-03822-P01-CH0	1577352	OK	0.140382	0.1176337	0.1255627	-0.9750329	151.926	-13.97	-274.127	B5-03822-P02-CH0	1577352	OK	0.7112018	0.2918525	-0.6395421	0	-88.695	-82.339	2.64	B5-03822-P02-CH1	1577352	OK	0.6868452	-0.0345339	-0.7259828	0	-77.227	-62.665	0.464	B5-03822-P03-CH0	1577352	OK	0.7221781	0.0307345	-0.691024	0	-96.712	-47.251	6.09	B5-03822-P03-CH1	1577352	OK	0.7788306	-0.6134117	-0.1309543	0	-99.152	-12.913	8.471	B5-03822-P04-CH0	1577352	OK	0.801696	-0.2390808	0.5478357	0	-125.602	-23.736	16.649	B5-03822-P04-CH1	1577352	OK	0.7882457	-0.6144559	0.0333571	0	-112.829	-32.682	4.934	NA
0.299763051287931	B5-03822-P01-CH0	1577360	OK	0.1406688	0.1176376	0.1262154	-0.9749068	151.956	-13.889	-274.237	B5-03822-P02-CH0	1577360	OK	0.7137583	0.3023092	-0.6317896	0	-88.971	-82.069	1.514	B5-03822-P02-CH1	1577360	OK	0.6852868	-0.0516089	-0.7264423	0	-77.364	-62.038	-1.423	B5-03822-P03-CH0	1577360	OK	0.7297468	0.028513	-0.6831227	0	-97.092	-45.745	8.488	B5-03822-P03-CH1	1577360	OK	0.7807004	-0.6114748	-0.1288622	0	-98.509	-12.803	7.989	B5-03822-P04-CH0	1577360	OK	0.8030408	-0.2423064	0.5444383	0	-125.832	-24.326	18.623	B5-03822-P04-CH1	1577360	OK	0.7885192	-0.6141025	0.0334002	0	-112.553	-32.724	4.872	NA
0.309755152997529	B5-03822-P01-CH0	1577368	OK	0.1403225	0.1177814	0.1257813	-0.9749955	151.866	-13.865	-274.012	B5-03822-P02-CH0	1577368	OK	0.7156955	0.3128907	-0.6244032	0	-89.284	-82.63	2.317	B5-03822-P02-CH1	1577368	OK	0.6832778	-0.0619155	-0.7275287	0	-76.589	-61.511	-0.939	B5-03822-P03-CH0	1577368	OK	0.7375146	0.0217001	-0.6749825	0	-96.448	-42.984	10.314	B5-03822-P03-CH1	1577368	OK	0.7804568	-0.6122288	-0.1267398	0	-97.792	-13.408	6.728	B5-03822-P04-CH0	1577368	OK	0.8038163	-0.2459406	0.5416573	0	-126.282	-24.308	18.025	B5-03822-P04-CH1	1577368	OK	0.7881406	-0.6146022	0.0331441	0	-112.578	-32.667	4.69	NA
0.319747254707126	B5-03822-P01-CH0	1577376	OK	0.1394854	0.1183202	0.1235728	-0.9753327	151.928	-14.04	-273.958	B5-03822-P02-CH0	1577376	OK	0.7173702	0.3262474	-0.6155832	0	-89.189	-82.621	1.427	B5-03822-P02-CH1	1577376	OK	0.6767741	-0.0681348	-0.733031	0	-77.011	-59.705	-2.53	B5-03822-P03-CH0	1577376	OK	0.7434907	0.0021972	-0.6687427	0	-97.374	-42.094	9.202	B5-03822-P03-CH1	1577376	OK	0.7784882	-0.6149009	-0.125909	0	-98.251	-14.706	8.943	B5-03822-P04-CH0	1577376	OK	0.8031975	-0.2515313	0.5400054	0	-126.398	-23.498	17.091	B5-03822-P04-CH1	1577376	OK	0.7867626	-0.6164124	0.0322553	0	-112.796	-32.701	4.913	NA
0.329739356416724	B5-03822-P01-CH0	1577384	OK	0.1395179	0.1184048	0.1237749	-0.9752922	151.932	-13.962	-273.93	B5-03822-P02-CH0	1577384	OK	0.7154616	0.3418409	-0.6093106	0	-88.33	-81.168	3.011	B5-03822-P02-CH1	1577384	OK	0.6683229	-0.0719167	-0.7403867	0	-76.56	-59.614	-2.55	B5-03822-P03-CH0	1577384	OK	0.749717	-0.0346037	-0.6608532	0	-97.812	-42.453	8.819	B5-03822-P03-CH1	1577384	OK	0.7782227	-0.6155435	-0.1244007	0	-98.013	-14.602	7.686	B5-03822-P04-CH0	1577384	OK	0.8018969	-0.2548488	0.5403827	0	-125.376	-23.382	16.995	B5-03822-P04-CH1	1577384	OK	0.7872416	-0.6158148	0.0319831	0	-112.89	-32.447	5.175	NA
0.339731458126322	B5-03822-P01-CH0	1577392	OK	0.13951	0.1186041	0.1234095	-0.9753154	151.969	-14.074	-273.837	B5-03822-P02-CH0	1577392	OK	0.7129779	0.3544976	-0.6049744	0	-88.068	-82.223	2.772	B5-03822-P02-CH1	1577392	OK	0.6619926	-0.0714533	-0.7460967	0	-76.595	-61.988	0.644	B5-03822-P03-CH0	1577392	OK	0.7536424	-0.0709569	-0.6534433	0	-97.637	-43.028	9.544	B5-03822-P03-CH1	1577392	OK	0.7775331	-0.6163514	-0.1247129	0	-97.095	-13.997	6.093	B5-03822-P04-CH0	1577392	OK	0.8017355	-0.2579454	0.5391515	0	-124.821	-22.393	15.668	B5-03822-P04-CH1	1577392	OK	0.7871282	-0.6159627	0.0319237	0	-113.1	-32.624	5.536	NA
0.349723559835919	B5-03822-P01-CH0	1577400	OK	0.1395718	0.1181877	0.1232055	-0.9753829	151.751	-14.117	-273.725	B5-03822-P02-CH0	1577400	OK	0.7102596	0.3664702	-0.6010249	0	-87.266	-82.142	2.713	B5-03822-P02-CH1	1577400	OK	0.663144	-0.0703229	-0.745181	0	-76.258	-61.629	0.675	B5-03822-P03-CH0	1577400	OK	0.7550916	-0.0972835	-0.6483614	0	-97.404	-43.696	10.255	B5-03822-P03-CH1	1577400	OK	0.7761426	-0.6182204	-0.1241216	0	-97.985	-15.033	9.488	B5-03822-P04-CH0	1577400	OK	0.8041537	-0.2543061	0.5372757	0	-127.364	-24.373	16.906	B5-03822-P04-CH1	1577400	OK	0.787028	-0.6160859	0.0320173	0	-113.057	-32.723	5.661	NA
0.359715661545517	B5-03822-P01-CH0	1577408	OK	0.1392924	0.1184684	0.1226193	-0.9754627	151.722	-14.097	-273.44	B5-03822-P02-CH0	1577408	OK	0.7074489	0.3786591	-0.5967691	0	-87.427	-82.596	1.511	B5-03822-P02-CH1	1577408	OK	0.6638609	-0.0705077	-0.7445249	0	-76.509	-61.335	1.326	B5-03822-P03-CH0	1577408	OK	0.7536612	-0.1142499	-0.6472571	0	-97.325	-42.621	9.316	B5-03822-P03-CH1	1577408	OK	0.7770469	-0.6161986	-0.1284422	0	-97.84	-13.131	6.626	B5-03822-P04-CH0	1577408	OK	0.8031963	-0.2561248	0.5378436	0	-126.702	-23.974	15.77	B5-03822-P04-CH1	1577408	OK	0.7865574	-0.6167021	0.0317171	0	-113.262	-32.912	6.052	NA
0.369707763255115	B5-03822-P01-CH0	1577416	OK	0.1389081	0.1189197	0.1214263	-0.9756117	151.8	-14.137	-273.229	B5-03822-P02-CH0	1577416	OK	0.7025037	0.3897129	-0.5954935	0	-87.184	-81.762	2.493	B5-03822-P02-CH1	1577416	OK	0.6636951	-0.0657329	-0.7451094	0	-77.845	-60.564	2.137	B5-03822-P03-CH0	1577416	OK	0.7537188	-0.133465	-0.6435022	0	-96.272	-42.351	8.99	B5-03822-P03-CH1	1577416	OK	0.7760867	-0.6176135	-0.1274481	0	-98.183	-13.365	6.815	B5-03822-P04-CH0	1577416	OK	0.8026847	-0.2581781	0.5376257	0	-124.758	-21.213	16.769	B5-03822-P04-CH1	1577416	OK	0.7859081	-0.6175584	0.0311451	0	-113.366	-33.002	6.671	NA
0.379699864964712	B5-03822-P01-CH0	1577424	OK	0.1395712	0.1186729	0.1223365	-0.9754334	151.732	-13.953	-273.245	B5-03822-P02-CH0	1577424	OK	0.6966996	0.3998233	-0.5956098	0	-86.998	-81.24	2.618	B5-03822-P02-CH1	1577424	OK	0.6699648	-0.0627847	-0.7397333	0	-75.512	-59.958	1.166	B5-03822-P03-CH0	1577424	OK	0.7538006	-0.1595152	-0.6374477	0	-97.121	-42.897	9.311	B5-03822-P03-CH1	1577424	OK	0.7766513	-0.6173282	-0.1253742	0	-98.139	-13.477	7.196	B5-03822-P04-CH0	1577424	OK	0.8022715	-0.2541395	0.5401607	0	-125.216	-22.391	16.332	B5-03822-P04-CH1	1577424	OK	0.7864922	-0.6168045	0.0313391	0	-113.321	-33.039	6.79	NA
0.38969196667431	B5-03822-P01-CH0	1577432	OK	0.1394256	0.1192793	0.121422	-0.9754946	151.943	-14.049	-273.042	B5-03822-P02-CH0	1577432	OK	0.6939346	0.4106415	-0.5914629	0	-86.063	-81.919	2.154	B5-03822-P02-CH1	1577432	OK	0.6709192	-0.0576451	-0.7392864	0	-76.494	-60.783	1.767	B5-03822-P03-CH0	1577432	OK	0.7559554	-0.1800042	-0.6293886	0	-97.627	-42.707	9.714	B5-03822-P03-CH1	1577432	OK	0.7757873	-0.6186028	-0.1244371	0	-98.356	-13.649	7.187	B5-03822-P04-CH0	1577432	OK	0.8023853	-0.2561344	0.5390483	0	-125.456	-22.633	16.389	B5-03822-P04-CH1	1577432	OK	0.7859337	-0.6175712	0.0302325	0	-113.319	-32.796	6.228	NA
0.399684068383908	B5-03822-P01-CH0	1577440	OK	0.139132	0.1192595	0.1204009	-0.9756655	151.901	-14.005	-273.009	B5-03822-P02-CH0	1577440	OK	0.6919176	0.4232359	-0.5849114	0	-84.529	-82.444	0.478	B5-03822-P02-CH1	1577440	OK	0.6731684	-0.0548966	-0.7374488	0	-77.405	-61.398	1.158	B5-03822-P03-CH0	1577440	OK	0.7586903	-0.1906516	-0.6229294	0	-97.195	-41.716	8.815	B5-03822-P03-CH1	1577440	OK	0.7749201	-0.6198453	-0.1236555	0	-98.357	-13.582	7.218	B5-03822-P04-CH0	1577440	OK	0.8018583	-0.2588983	0.5385119	0	-125.277	-22.265	16.004	B5-03822-P04-CH1	1577440	OK	0.7855875	-0.6180587	0.029252	0	-113.204	-32.405	6.404	NA
0.409676170093506	B5-03822-P01-CH0	1577448	OK	0.1392927	0.1193446	0.1204368	-0.9756277	151.947	-13.977	-272.936	B5-03822-P02-CH0	1577448	OK	0.6860837	0.4357162	-0.5826153	0	-84.767	-83.561	0.808	B5-03822-P02-CH1	1577448	OK	0.6766023	-0.0527912	-0.7344538	0	-77.24	-60.392	-0.138	B5-03822-P03-CH0	1577448	OK	0.7593588	-0.1940763	-0.6210545	0	-96.814	-42.999	10.603	B5-03822-P03-CH1	1577448	OK	0.7748283	-0.6201509	-0.1226946	0	-98.501	-13.394	6.987	B5-03822-P04-CH0	1577448	OK	0.8018506	-0.2603189	0.537838	0	-125.27	-22.241	15.84	B5-03822-P04-CH1	1577448	OK	0.7857297	-0.6179169	0.028416	0	-112.989	-32.196	6.497	NA
0.419668271803103	B5-03822-P01-CH0	1577456	OK	0.1393147	0.1190719	0.1207666	-0.9756171	151.845	-13.978	-272.91	B5-03822-P02-CH0	1577456	OK	0.6772367	0.4476621	-0.5839085	0	-85.103	-83.444	2.428	B5-03822-P02-CH1	1577456	OK	0.6777202	-0.0529532	-0.7334107	0	-77.931	-60.067	0.438	B5-03822-P03-CH0	1577456	OK	0.7578706	-0.1866199	-0.6251441	0	-97.24	-42.894	10.294	B5-03822-P03-CH1	1577456	OK	0.7749401	-0.6201562	-0.1219594	0	-98.348	-13.26	6.682	B5-03822-P04-CH0	1577456	OK	0.8018558	-0.2619749	0.5370255	0	-125.051	-22.103	15.764	B5-03822-P04-CH1	1577456	OK	0.7859029	-0.6177403	0.0274509	0	-112.727	-32.031	6.141	NA
0.429660373512701	B5-03822-P01-CH0	1577464	OK	0.1391591	0.1193486	0.1201997	-0.9756755	151.915	-14.001	-272.845	B5-03822-P02-CH0	1577464	OK	0.6710273	0.4555045	-0.5850111	0	-84.217	-84.505	2.243	B5-03822-P02-CH1	1577464	OK	0.6810463	-0.0533507	-0.7302942	0	-77.084	-59.437	0.373	B5-03822-P03-CH0	1577464	OK	0.7543599	-0.1707356	-0.6338695	0	-97.643	-42.949	9.641	B5-03822-P03-CH1	1577464	OK	0.7744308	-0.6208694	-0.1215652	0	-98.467	-13.184	6.682	B5-03822-P04-CH0	1577464	OK	0.8017887	-0.2639554	0.5361553	0	-125.098	-22.001	15.547	B5-03822-P04-CH1	1577464	OK	0.7854399	-0.61836	0.0267414	0	-112.744	-32.099	6.309	NA
0.439652475222299	B5-03822-P01-CH0	1577472	OK	0.1390837	0.1193688	0.1199359	-0.9757162	151.85	-13.969	-272.786	B5-03822-P02-CH0	1577472	OK	0.6627225	0.4597368	-0.5911353	0	-83.446	-84.401	1.871	B5-03822-P02-CH1	1577472	OK	0.6816942	-0.0521383	-0.7297771	0	-77.769	-59.845	-0.221	B5-03822-P03-CH0	1577472	OK	0.7503227	-0.1508451	-0.6436316	0	-97.162	-41.28	9.559	B5-03822-P03-CH1	1577472	OK	0.7744593	-0.62094	-0.1210218	0	-98.378	-12.826	6.25	B5-03822-P04-CH0	1577472	OK	0.8015598	-0.2660976	0.5354381	0	-124.82	-21.782	15.629	B5-03822-P04-CH1	1577472	OK	0.7857553	-0.618011	0.0255159	0	-112.663	-31.527	6.311	NA
0.449644576931896	B5-03822-P01-CH0	1577480	OK	0.1391304	0.1196664	0.1199111	-0.9756762	151.925	-13.986	-272.749	B5-03822-P02-CH0	1577480	OK	0.6521274	0.4594186	-0.6030459	0	-82.513	-82.522	2.201	B5-03822-P02-CH1	1577480	OK	0.6816644	-0.0539271	-0.729675	0	-78.269	-59.188	0.28	B5-03822-P03-CH0	1577480	OK	0.7446676	-0.1325663	-0.6541379	0	-96.522	-41.867	9.167	B5-03822-P03-CH1	1577480	OK	0.7744664	-0.6211671	-0.119805	0	-98.441	-12.839	6.004	B5-03822-P04-CH0	1577480	OK	0.8004707	-0.2786691	0.5306508	0	-124.136	-21.843	16.022	B5-03822-P04-CH1	1577480	OK	0.7858705	-0.6178978	0.0246965	0	-112.701	-31.453	6.617	NA
0.459636678641494	B5-03822-P01-CH0	1577488	OK	0.1388699	0.1198393	0.1190771	-0.9757942	151.877	-14.026	-272.675	B5-03822-P02-CH0	1577488	OK	0.645728	0.4547736	-0.6133648	0	-83.163	-84.527	2.021	B5-03822-P02-CH1	1577488	OK	0.6834656	-0.0529688	-0.7280584	0	-77.698	-59.496	1.684	B5-03822-P03-CH0	1577488	OK	0.7352555	-0.1062044	-0.6694177	0	-97.208	-40.89	8.924	B5-03822-P03-CH1	1577488	OK	0.7740159	-0.6218715	-0.1190603	0	-98.459	-12.93	6.049	B5-03822-P04-CH0	1577488	OK	0.7999746	-0.2814788	0.5299153	0	-123.905	-21.605	15.831	B5-03822-P04-CH1	1577488	OK	0.7854801	-0.6184468	0.0233342	0	-112.579	-31.162	6.65	NA
0.469628780351092	B5-03822-P01-CH0	1577496	OK	0.1387091	0.1195764	0.1190203	-0.9758563	151.759	-14.142	-272.78	B5-03822-P02-CH0	1577496	OK	0.6393885	0.4456217	-0.6265809	0	-81.955	-83.909	1.97	B5-03822-P02-CH1	1577496	OK	0.684673	-0.0534554	-0.7268875	0	-77.505	-60.572	0.29	B5-03822-P03-CH0	1577496	OK	0.7312971	-0.1092325	-0.6732554	0	-97.122	-41.256	7.231	B5-03822-P03-CH1	1577496	OK	0.7742896	-0.6216563	-0.1184022	0	-98.332	-12.956	5.949	B5-03822-P04-CH0	1577496	OK	0.8001856	-0.2816589	0.5295009	0	-123.627	-20.694	15.535	B5-03822-P04-CH1	1577496	OK	0.785611	-0.6183171	0.0223451	0	-112.552	-31.151	7.136	NA
0.479620882060689	B5-03822-P01-CH0	1577504	OK	0.1382956	0.1197488	0.1183291	-0.9759779	151.757	-14.344	-272.716	B5-03822-P02-CH0	1577504	OK	0.6353425	0.4372469	-0.6365179	0	-81.313	-84.638	1.766	B5-03822-P02-CH1	1577504	OK	0.6837116	-0.0532864	-0.7278042	0	-78.496	-61.301	-0.018	B5-03822-P03-CH0	1577504	OK	0.7255855	-0.1095411	-0.6793574	0	-95.962	-41.12	8.989	B5-03822-P03-CH1	1577504	OK	0.7741385	-0.6219286	-0.1179594	0	-98.306	-13.018	5.726	B5-03822-P04-CH0	1577504	OK	0.8000841	-0.2767846	0.5322177	0	-123.7	-21.206	15.253	B5-03822-P04-CH1	1577504	OK	0.7854097	-0.6186305	0.020687	0	-112.373	-31.06	7.505	NA
0.489612983770287	B5-03822-P01-CH0	1577512	OK	0.137736	0.1195326	0.1182748	-0.9760901	151.551	-14.344	-272.714	B5-03822-P02-CH0	1577512	OK	0.6339056	0.4283007	-0.6439893	0	-79.952	-85.449	1.538	B5-03822-P02-CH1	1577512	OK	0.685509	-0.0556368	-0.7259353	0	-77.277	-60.329	1.421	B5-03822-P03-CH0	1577512	OK	0.7179147	-0.1031175	-0.6884514	0	-94.405	-40.446	8.14	B5-03822-P03-CH1	1577512	OK	0.7742886	-0.6217576	-0.1178757	0	-98.232	-12.859	5.463	B5-03822-P04-CH0	1577512	OK	0.7998248	-0.2794468	0.5312154	0	-123.492	-20.867	15.012	B5-03822-P04-CH1	1577512	OK	0.7853047	-0.6188014	0.0195281	0	-112.549	-31.241	8.57	NA
0.499605085479885	B5-03822-P01-CH0	1577520	OK	0.1376528	0.1194564	0.1185852	-0.9760735	151.483	-14.502	-272.775	B5-03822-P02-CH0	1577520	OK	0.6315205	0.4165387	-0.6539705	0	-79.481	-85.096	0.659	B5-03822-P02-CH1	1577520	OK	0.6850228	-0.0578935	-0.7262176	0	-77.521	-60.753	1.123	B5-03822-P03-CH0	1577520	OK	0.7095195	-0.1018991	-0.6972795	0	-93.158	-40.542	8.509	B5-03822-P03-CH1	1577520	OK	0.7746282	-0.6214248	-0.1173986	0	-98.125	-13.163	5.588	B5-03822-P04-CH0	1577520	OK	0.7996062	-0.2812004	0.5306187	0	-123.242	-20.964	15.01	B5-03822-P04-CH1	1577520	OK	0.7854577	-0.6186395	0.0184786	0	-112.236	-31.414	8.86	NA
0.509597187189483	B5-03822-P01-CH0	1577528	OK	0.1370974	0.1195286	0.1178182	-0.9762357	151.362	-14.694	-272.657	B5-03822-P02-CH0	1577528	OK	0.6282823	0.4039741	-0.6648807	0	-80.372	-85.081	1.515	B5-03822-P02-CH1	1577528	OK	0.6830333	-0.0536774	-0.7284121	0	-77.533	-60.433	0.225	B5-03822-P03-CH0	1577528	OK	0.7006073	-0.1039104	-0.7059405	0	-93.354	-40.638	9.851	B5-03822-P03-CH1	1577528	OK	0.7743418	-0.6218011	-0.1172951	0	-97.952	-13.36	5.493	B5-03822-P04-CH0	1577528	OK	0.7989978	-0.2835934	0.5302616	0	-122.89	-20.965	15.131	B5-03822-P04-CH1	1577528	OK	0.7848479	-0.6194505	0.0171694	0	-112.028	-31.397	8.538	NA
0.51958928889908	B5-03822-P01-CH0	1577536	OK	0.1370586	0.1196965	0.117905	-0.9762101	151.395	-14.727	-272.694	B5-03822-P02-CH0	1577536	OK	0.6275148	0.388384	-0.6748208	0	-79.48	-84.832	2.414	B5-03822-P02-CH1	1577536	OK	0.6828701	-0.0560553	-0.7283861	0	-77.842	-60.695	0.6	B5-03822-P03-CH0	1577536	OK	0.6938506	-0.1066614	-0.712176	0	-94.073	-40.664	9.926	B5-03822-P03-CH1	1577536	OK	0.7747704	-0.6213276	-0.1169734	0	-98.003	-13.362	5.612	B5-03822-P04-CH0	1577536	OK	0.7986934	-0.2846898	0.5301326	0	-122.852	-21.038	15.048	B5-03822-P04-CH1	1577536	OK	0.7849758	-0.6193203	0.0159786	0	-111.709	-31.29	8.801	NA
0.529581390608678	B5-03822-P01-CH0	1577544	OK	0.1370184	0.1196384	0.1184007	-0.9761628	151.315	-14.794	-272.707	B5-03822-P02-CH0	1577544	OK	0.6261426	0.3707159	-0.6859411	0	-79.545	-85.116	2.542	B5-03822-P02-CH1	1577544	OK	0.6826867	-0.0825189	-0.7260368	0	-77.145	-60.257	0.829	B5-03822-P03-CH0	1577544	OK	0.6904418	-0.1061919	-0.7155511	0	-93.223	-41.344	10.448	B5-03822-P03-CH1	1577544	OK	0.7756796	-0.6202796	-0.1165096	0	-98.048	-13.267	5.628	B5-03822-P04-CH0	1577544	OK	0.7986795	-0.2850719	0.5299482	0	-122.814	-21.098	15.134	B5-03822-P04-CH1	1577544	OK	0.7851978	-0.6190699	0.0147265	0	-111.304	-31.203	8.528	NA
0.539573492318276	B5-03822-P01-CH0	1577552	OK	0.1371258	0.1195815	0.1188585	-0.9760991	151.271	-14.835	-272.76	B5-03822-P02-CH0	1577552	OK	0.6256895	0.3471055	-0.6985918	0	-78.967	-84.305	2.621	B5-03822-P02-CH1	1577552	OK	0.6809023	-0.0984519	-0.7257267	0	-77.487	-60.903	3.524	B5-03822-P03-CH0	1577552	OK	0.6883121	-0.1007735	-0.7183809	0	-92.371	-41.148	7.924	B5-03822-P03-CH1	1577552	OK	0.7764993	-0.6193362	-0.1160664	0	-98.147	-13.381	6.051	B5-03822-P04-CH0	1577552	OK	0.7985019	-0.2850655	0.5302192	0	-122.715	-21.218	15.17	B5-03822-P04-CH1	1577552	OK	0.7852672	-0.6190016	0.0138718	0	-111.061	-31.403	8.678	NA
0.549565594027873	B5-03822-P01-CH0	1577560	OK	0.1367298	0.1196127	0.1191066	-0.9761206	151.218	-14.826	-272.749	B5-03822-P02-CH0	1577560	OK	0.6267761	0.3206019	-0.7101874	0	-79.032	-83.978	2.763	B5-03822-P02-CH1	1577560	OK	0.6830772	-0.111679	-0.7217571	0	-76.761	-60.248	1.646	B5-03822-P03-CH0	1577560	OK	0.6860326	-0.0910302	-0.7218537	0	-91.802	-40.806	8.609	B5-03822-P03-CH1	1577560	OK	0.7770307	-0.6185701	-0.1165945	0	-98.288	-13.228	6.152	B5-03822-P04-CH0	1577560	OK	0.7984071	-0.2851283	0.5303282	0	-122.686	-21.031	15.167	B5-03822-P04-CH1	1577560	OK	0.7852295	-0.619076	0.0126263	0	-110.877	-31.395	8.841	NA
0.559557695737471	B5-03822-P01-CH0	1577568	OK	0.1370113	0.1195931	0.1198148	-0.9759968	151.235	-14.936	-272.784	B5-03822-P02-CH0	1577568	OK	0.6295347	0.2884522	-0.7214439	0	-78.377	-83.371	2.231	B5-03822-P02-CH1	1577568	OK	0.6885079	-0.1102309	-0.7168026	0	-77.085	-61.013	-0.671	B5-03822-P03-CH0	1577568	OK	0.6838931	-0.0811499	-0.7250552	0	-92.057	-41.027	9.082	B5-03822-P03-CH1	1577568	OK	0.7779677	-0.6174754	-0.1161483	0	-98.279	-13.406	6.411	B5-03822-P04-CH0	1577568	OK	0.7985121	-0.283973	0.5307898	0	-122.694	-21.116	15.16	B5-03822-P04-CH1	1577568	OK	0.7859095	-0.6182268	0.0119107	0	-110.581	-31.324	8.864	NA
0.569549797447069	B5-03822-P01-CH0	1577576	OK	0.1367458	0.1196817	0.1196365	-0.9760451	151.196	-14.958	-272.758	B5-03822-P02-CH0	1577576	OK	0.6337571	0.2611222	-0.7281258	0	-78.334	-83.799	2.024	B5-03822-P02-CH1	1577576	OK	0.6962904	-0.1039591	-0.7101916	0	-77.868	-60.216	-0.047	B5-03822-P03-CH0	1577576	OK	0.6815993	-0.0642053	-0.7289033	0	-92.544	-41.085	9.66	B5-03822-P03-CH1	1577576	OK	0.7782175	-0.6170877	-0.1165343	0	-98.191	-13.422	6.457	B5-03822-P04-CH0	1577576	OK	0.7980242	-0.2838015	0.5316146	0	-122.587	-21.074	15.024	B5-03822-P04-CH1	1577576	OK	0.7858284	-0.6183584	0.0103238	0	-110.158	-30.732	7.808	NA
0.579541899156666	B5-03822-P01-CH0	1577584	OK	0.1366115	0.1196666	0.1196979	-0.9760582	151.093	-15.001	-272.733	B5-03822-P02-CH0	1577584	OK	0.6397728	0.2328833	-0.7324316	0	-77.37	-83.484	1.079	B5-03822-P02-CH1	1577584	OK	0.7025551	-0.1017446	-0.7043183	0	-79.109	-60.431	1.925	B5-03822-P03-CH0	1577584	OK	0.6816457	-0.046788	-0.730185	0	-91.87	-40.918	8.375	B5-03822-P03-CH1	1577584	OK	0.7784012	-0.6168554	-0.1165372	0	-98.384	-13.683	6.926	B5-03822-P04-CH0	1577584	OK	0.7979071	-0.282905	0.5322679	0	-122.512	-20.968	15.064	B5-03822-P04-CH1	1577584	OK	0.7857381	-0.618487	0.0094612	0	-109.894	-30.638	7.534	NA
0.589534000866264	B5-03822-P01-CH0	1577592	OK	0.1370186	0.1198266	0.1198623	-0.9759613	151.118	-15.034	-272.671	B5-03822-P02-CH0	1577592	OK	0.6428628	0.2087363	-0.7369916	0	-78.195	-83.462	0.299	B5-03822-P02-CH1	1577592	OK	0.7078592	-0.0981834	-0.6994965	0	-80.741	-61.429	2.159	B5-03822-P03-CH0	1577592	OK	0.67987	-0.0331282	-0.732584	0	-92.401	-41.463	7.8	B5-03822-P03-CH1	1577592	OK	0.7787232	-0.6165135	-0.1161953	0	-98.406	-13.903	7.06	B5-03822-P04-CH0	1577592	OK	0.7978656	-0.2812468	0.533208	0	-122.542	-21.221	15.29	B5-03822-P04-CH1	1577592	OK	0.7859175	-0.6182679	0.0088618	0	-109.297	-30.241	6.454	NA
0.599526102575862	B5-03822-P01-CH0	1577600	OK	0.1372849	0.1198934	0.1203081	-0.9758608	151.088	-15.017	-272.57	B5-03822-P02-CH0	1577600	OK	0.6460441	0.1899426	-0.7392894	0	-78.525	-83.618	1.396	B5-03822-P02-CH1	1577600	OK	0.7120924	-0.0911976	-0.6961375	0	-82.407	-59.917	0.967	B5-03822-P03-CH0	1577600	OK	0.676781	-0.0195244	-0.7359254	0	-93.377	-41.433	8.381	B5-03822-P03-CH1	1577600	OK	0.7792485	-0.6159047	-0.1159017	0	-98.502	-14.009	7.282	B5-03822-P04-CH0	1577600	OK	0.7980111	-0.2797016	0.5338026	0	-122.529	-21.126	15.297	B5-03822-P04-CH1	1577600	OK	0.7863187	-0.6177593	0.0087369	0	-109.56	-30.165	6.5	NA
0.609518204285459	B5-03822-P01-CH0	1577608	OK	0.137332	0.120245	0.1205016	-0.9757871	151.254	-15.022	-272.66	B5-03822-P02-CH0	1577608	OK	0.6502987	0.1746787	-0.7393233	0	-78.13	-84.118	1.496	B5-03822-P02-CH1	1577608	OK	0.7175975	-0.0868922	-0.6910163	0	-82.617	-60.611	1.459	B5-03822-P03-CH0	1577608	OK	0.6761718	-0.0095122	-0.7366826	0	-93.201	-41.735	8.947	B5-03822-P03-CH1	1577608	OK	0.7795083	-0.6155377	-0.1161038	0	-98.733	-14.098	7.824	B5-03822-P04-CH0	1577608	OK	0.7982966	-0.2784005	0.5340558	0	-122.712	-21.117	15.538	B5-03822-P04-CH1	1577608	OK	0.7864409	-0.6176098	0.0083008	0	-109.858	-30.313	7.087	NA
0.619510305995057	B5-03822-P01-CH0	1577616	OK	0.1374963	0.1202424	0.1206142	-0.9757504	151.218	-15.09	-272.571	B5-03822-P02-CH0	1577616	OK	0.652485	0.1620694	-0.7402681	0	-78.54	-83.488	1.512	B5-03822-P02-CH1	1577616	OK	0.7209789	-0.08686	-0.6874916	0	-83.805	-62.335	0.423	B5-03822-P03-CH0	1577616	OK	0.6744287	-0.0009595	-0.7383394	0	-93.53	-41.84	10.452	B5-03822-P03-CH1	1577616	OK	0.7797477	-0.6153056	-0.1157261	0	-98.757	-14.073	7.723	B5-03822-P04-CH0	1577616	OK	0.7984156	-0.2771023	0.5345529	0	-122.704	-21.292	15.703	B5-03822-P04-CH1	1577616	OK	0.7866685	-0.6173196	0.0083116	0	-109.985	-30.244	7.037	NA
0.629502407704655	B5-03822-P01-CH0	1577624	OK	0.1376852	0.1203315	0.1208489	-0.9756837	151.23	-15.075	-272.531	B5-03822-P02-CH0	1577624	OK	0.6561648	0.1506755	-0.7394218	0	-79.013	-84.06	-0.107	B5-03822-P02-CH1	1577624	OK	0.7241245	-0.0852533	-0.6843798	0	-84.696	-63.59	3.118	B5-03822-P03-CH0	1577624	OK	0.6754514	0.0076745	-0.7373646	0	-92.892	-41.397	8.765	B5-03822-P03-CH1	1577624	OK	0.7797071	-0.6154131	-0.1154282	0	-98.63	-14.225	7.625	B5-03822-P04-CH0	1577624	OK	0.7985735	-0.2760363	0.5348686	0	-122.57	-21.136	15.927	B5-03822-P04-CH1	1577624	OK	0.786825	-0.6171169	0.0085587	0	-110.285	-30.371	7.38	NA
0.639494509414253	B5-03822-P01-CH0	1577632	OK	0.1376762	0.1203477	0.120796	-0.9756895	151.192	-15.158	-272.395	B5-03822-P02-CH0	1577632	OK	0.6580385	0.142945	-0.7392916	0	-80.344	-84.637	0.763	B5-03822-P02-CH1	1577632	OK	0.7271418	-0.0789772	-0.6819292	0	-84.824	-62.885	0.864	B5-03822-P03-CH0	1577632	OK	0.6746528	0.0135802	-0.7380103	0	-94.026	-41.746	8.741	B5-03822-P03-CH1	1577632	OK	0.779642	-0.6155305	-0.1152412	0	-98.413	-14.136	7.068	B5-03822-P04-CH0	1577632	OK	0.7987135	-0.2754538	0.5349599	0	-122.545	-20.989	15.762	B5-03822-P04-CH1	1577632	OK	0.7870189	-0.6168721	0.0083674	0	-110.12	-30.123	7.012	NA
0.64948661112385	B5-03822-P01-CH0	1577640	OK	0.1376935	0.120807	0.1201518	-0.9757099	151.382	-15.228	-272.372	B5-03822-P02-CH0	1577640	OK	0.6611459	0.136139	-0.7378023	0	-80.429	-84.447	0.606	B5-03822-P02-CH1	1577640	OK	0.7296166	-0.0715646	-0.6801015	0	-84.093	-62.296	1.141	B5-03822-P03-CH0	1577640	OK	0.6781918	0.0194014	-0.7346288	0	-92.965	-41.098	8.867	B5-03822-P03-CH1	1577640	OK	0.7793063	-0.6159808	-0.1151058	0	-98.524	-14.138	7.21	B5-03822-P04-CH0	1577640	OK	0.7987844	-0.2752584	0.5349544	0	-122.696	-21.158	15.894	B5-03822-P04-CH1	1577640	OK	0.7864015	-0.6176581	0.0084322	0	-110.06	-30.069	6.219	NA
0.659478712833448	B5-03822-P01-CH0	1577648	OK	0.1376845	0.1208027	0.1201981	-0.975706	151.425	-15.162	-272.519	B5-03822-P02-CH0	1577648	OK	0.6657789	0.1297595	-0.7347795	0	-79.155	-83.627	0.541	B5-03822-P02-CH1	1577648	OK	0.7315666	-0.0630782	-0.6788457	0	-83.463	-62.009	3.383	B5-03822-P03-CH0	1577648	OK	0.6797189	0.020468	-0.7331871	0	-93.714	-42.016	8.998	B5-03822-P03-CH1	1577648	OK	0.7794025	-0.6158411	-0.1152021	0	-98.413	-13.885	7.004	B5-03822-P04-CH0	1577648	OK	0.7989533	-0.2749051	0.5348839	0	-122.685	-21.087	16.259	B5-03822-P04-CH1	1577648	OK	0.7862181	-0.6178889	0.0086295	0	-110.159	-30.17	6.319	NA
0.669470814543046	B5-03822-P01-CH0	1577656	OK	0.1380258	0.1206824	0.1203888	-0.9756491	151.42	-15.252	-272.563	B5-03822-P02-CH0	1577656	OK	0.6677631	0.1255425	-0.7337108	0	-79.756	-84.634	0	B5-03822-P02-CH1	1577656	OK	0.7346407	-0.0652619	-0.6753102	0	-82.369	-63.385	1.7	B5-03822-P03-CH0	1577656	OK	0.682556	0.0204559	-0.730547	0	-93.278	-42.304	8.004	B5-03822-P03-CH1	1577656	OK	0.7795169	-0.6158327	-0.1144704	0	-98.419	-14.143	7.335	B5-03822-P04-CH0	1577656	OK	0.7992785	-0.2744148	0.5346497	0	-122.662	-21.147	16.451	B5-03822-P04-CH1	1577656	OK	0.7862885	-0.6177846	0.0096262	0	-110.189	-30.575	6.751	NA
0.679462916252643	B5-03822-P01-CH0	1577664	OK	0.1381278	0.12098	0.1201808	-0.9756234	151.531	-15.246	-272.485	B5-03822-P02-CH0	1577664	OK	0.6692031	0.123431	-0.7327565	0	-79.309	-83.717	0.665	B5-03822-P02-CH1	1577664	OK	0.7304506	-0.0632555	-0.68003	0	-85.167	-63.318	0.907	B5-03822-P03-CH0	1577664	OK	0.6825412	0.016437	-0.7306622	0	-93.817	-42.164	7.941	B5-03822-P03-CH1	1577664	OK	0.7793919	-0.6160064	-0.1143872	0	-98.445	-14.086	7.098	B5-03822-P04-CH0	1577664	OK	0.7993212	-0.2747838	0.5343965	0	-122.636	-21.074	16.373	B5-03822-P04-CH1	1577664	OK	0.7860766	-0.6180473	0.0100604	0	-110.356	-30.647	6.592	NA
0.689455017962241	B5-03822-P01-CH0	1577672	OK	0.1379742	0.120918	0.1198726	-0.9756908	151.458	-15.259	-272.381	B5-03822-P02-CH0	1577672	OK	0.6695558	0.1228966	-0.732524	0	-79.687	-84.878	0.62	B5-03822-P02-CH1	1577672	OK	0.7323628	-0.0618981	-0.6780954	0	-84.072	-62.072	0.594	B5-03822-P03-CH0	1577672	OK	0.6828727	0.010896	-0.7304562	0	-94.324	-42.177	8.321	B5-03822-P03-CH1	1577672	OK	0.7792838	-0.6161435	-0.1143853	0	-98.403	-13.969	6.957	B5-03822-P04-CH0	1577672	OK	0.7993908	-0.2754039	0.5339729	0	-122.587	-20.798	16.203	B5-03822-P04-CH1	1577672	OK	0.7861377	-0.6179691	0.010091	0	-110.335	-30.309	6.283	NA
0.699447119671839	B5-03822-P01-CH0	1577680	OK	0.1378675	0.1210799	0.119197	-0.9757686	151.516	-15.281	-272.297	B5-03822-P02-CH0	1577680	OK	0.6680348	0.1253552	-0.7334955	0	-81.007	-85.634	-0.243	B5-03822-P02-CH1	1577680	OK	0.7322157	-0.0610418	-0.6783318	0	-83.894	-62.791	0.06	B5-03822-P03-CH0	1577680	OK	0.6859977	0.003052	-0.7275973	0	-93.968	-41.92	7.758	B5-03822-P03-CH1	1577680	OK	0.7788986	-0.6166296	-0.1143891	0	-98.402	-13.861	6.758	B5-03822-P04-CH0	1577680	OK	0.799301	-0.2760609	0.5337681	0	-122.596	-20.782	16.299	B5-03822-P04-CH1	1577680	OK	0.7854928	-0.6187903	0.0099792	0	-110.223	-30.278	5.818	NA
0.709439221381436	B5-03822-P01-CH0	1577688	OK	0.1381795	0.1208023	0.1192089	-0.9757574	151.385	-15.295	-272.223	B5-03822-P02-CH0	1577688	OK	0.6690712	0.1266659	-0.7323247	0	-79.906	-84.532	-0.249	B5-03822-P02-CH1	1577688	OK	0.7319969	-0.0559272	-0.6790086	0	-83.281	-61.45	0.857	B5-03822-P03-CH0	1577688	OK	0.6879078	-0.0037834	-0.7257882	0	-94.271	-41.964	7.78	B5-03822-P03-CH1	1577688	OK	0.7790159	-0.6165771	-0.1138723	0	-98.291	-13.756	6.302	B5-03822-P04-CH0	1577688	OK	0.7993	-0.2760768	0.5337613	0	-122.52	-20.8	16.158	B5-03822-P04-CH1	1577688	OK	0.785538	-0.6187255	0.0104294	0	-109.844	-30.008	4.835	NA
0.719431323091034	B5-03822-P01-CH0	1577696	OK	0.1384633	0.1206742	0.1193012	-0.9757217	151.405	-15.292	-272.345	B5-03822-P02-CH0	1577696	OK	0.6696023	0.1277193	-0.731656	0	-79.953	-84.194	-0.472	B5-03822-P02-CH1	1577696	OK	0.7329664	-0.0557898	-0.6779733	0	-82.016	-61.583	0.43	B5-03822-P03-CH0	1577696	OK	0.6919656	-0.0089976	-0.7218744	0	-93.098	-42.431	8.703	B5-03822-P03-CH1	1577696	OK	0.7791571	-0.6164432	-0.1136308	0	-98.292	-13.823	6.507	B5-03822-P04-CH0	1577696	OK	0.7993779	-0.2762771	0.5335409	0	-122.455	-20.713	16.263	B5-03822-P04-CH1	1577696	OK	0.785422	-0.618861	0.0111083	0	-109.779	-30.209	4.655	NA
0.729423424800632	B5-03822-P01-CH0	1577704	OK	0.1383495	0.1207273	0.1185895	-0.975818	151.442	-15.333	-272.367	B5-03822-P02-CH0	1577704	OK	0.6702035	0.1284993	-0.7309687	0	-80.115	-84.28	0.643	B5-03822-P02-CH1	1577704	OK	0.7298357	-0.0519864	-0.681643	0	-83.481	-61.74	-2.538	B5-03822-P03-CH0	1577704	OK	0.6917791	-0.013183	-0.7219889	0	-94.626	-42.668	7.494	B5-03822-P03-CH1	1577704	OK	0.7787072	-0.6169999	-0.1136933	0	-98.322	-13.945	6.665	B5-03822-P04-CH0	1577704	OK	0.7992475	-0.2772043	0.5332553	0	-122.556	-20.629	16.077	B5-03822-P04-CH1	1577704	OK	0.7853307	-0.6189854	0.0106167	0	-109.414	-29.705	4.267	NA
0.73941552651023	B5-03822-P01-CH0	1577712	OK	0.13864	0.1209486	0.1188048	-0.9757232	151.604	-15.259	-272.392	B5-03822-P02-CH0	1577712	OK	0.6692673	0.126362	-0.732198	0	-79.629	-84.315	-0.225	B5-03822-P02-CH1	1577712	OK	0.7318943	-0.0598364	-0.6787859	0	-83.214	-62.453	1.477	B5-03822-P03-CH0	1577712	OK	0.6966446	-0.0200842	-0.7171352	0	-92.816	-42.492	7.056	B5-03822-P03-CH1	1577712	OK	0.7788208	-0.6168996	-0.1134594	0	-98.478	-14.071	6.939	B5-03822-P04-CH0	1577712	OK	0.7993013	-0.2777765	0.5328768	0	-122.576	-20.556	16.039	B5-03822-P04-CH1	1577712	OK	0.7850956	-0.6192719	0.0112774	0	-109.717	-30.078	4.477	NA
0.749407628219827	B5-03822-P01-CH0	1577720	OK	0.1393093	0.1202831	0.1198403	-0.9755835	151.372	-15.112	-272.396	B5-03822-P02-CH0	1577720	OK	0.670304	0.1259106	-0.7313269	0	-79.314	-84.188	-0.385	B5-03822-P02-CH1	1577720	OK	0.726077	-0.04983	-0.6858055	0	-84.414	-63.476	2.58	B5-03822-P03-CH0	1577720	OK	0.6979079	-0.028431	-0.715623	0	-93.087	-42.902	7.919	B5-03822-P03-CH1	1577720	OK	0.7795975	-0.616047	-0.1127559	0	-98.292	-14.034	6.679	B5-03822-P04-CH0	1577720	OK	0.7995007	-0.2775365	0.5327026	0	-122.476	-20.396	15.998	B5-03822-P04-CH1	1577720	OK	0.7860983	-0.6179864	0.0119316	0	-109.613	-29.888	4.708	NA
0.759399729929425	B5-03822-P01-CH0	1577728	OK	0.1393378	0.1205561	0.1193363	-0.9756075	151.451	-15.157	-272.212	B5-03822-P02-CH0	1577728	OK	0.67047	0.1274173	-0.7309137	0	-79.457	-84.198	-0.172	B5-03822-P02-CH1	1577728	OK	0.7245547	-0.0472253	-0.6875974	0	-84.201	-63.477	2.006	B5-03822-P03-CH0	1577728	OK	0.6984217	-0.0364762	-0.7147563	0	-93.836	-42.018	8.294	B5-03822-P03-CH1	1577728	OK	0.7792392	-0.6165033	-0.112739	0	-98.509	-14.203	6.795	B5-03822-P04-CH0	1577728	OK	0.799271	-0.2790242	0.53227	0	-122.452	-20.301	15.631	B5-03822-P04-CH1	1577728	OK	0.7858233	-0.618333	0.0120872	0	-109.8	-29.918	4.787	NA
0.769391831639023	B5-03822-P01-CH0	1577736	OK	0.1392356	0.1208974	0.1189019	-0.9756329	151.597	-15.192	-272.119	B5-03822-P02-CH0	1577736	OK	0.670042	0.1411413	-0.7287818	0	-80.07	-84.274	-0.045	B5-03822-P02-CH1	1577736	OK	0.7236816	-0.0431934	-0.688781	0	-82.955	-63.305	1.146	B5-03822-P03-CH0	1577736	OK	0.6995987	-0.0444832	-0.71315	0	-94.376	-42.537	8.244	B5-03822-P03-CH1	1577736	OK	0.7790639	-0.6166749	-0.1130112	0	-98.596	-14.142	6.634	B5-03822-P04-CH0	1577736	OK	0.799119	-0.2804794	0.5317332	0	-122.591	-20.334	15.277	B5-03822-P04-CH1	1577736	OK	0.7855174	-0.6187257	0.0118707	0	-109.719	-29.861	4.767	NA
0.77938393334862	B5-03822-P01-CH0	1577744	OK	0.1395645	0.1203542	0.1194478	-0.9755864	151.405	-15.081	-272.114	B5-03822-P02-CH0	1577744	OK	0.6719818	0.1421511	-0.7267968	0	-79.042	-83.974	-0.078	B5-03822-P02-CH1	1577744	OK	0.7208778	-0.0419325	-0.6917925	0	-83.566	-62.736	0.698	B5-03822-P03-CH0	1577744	OK	0.7030173	-0.0489533	-0.7094859	0	-93.403	-43.342	8.119	B5-03822-P03-CH1	1577744	OK	0.7795928	-0.6160934	-0.1125343	0	-98.354	-14.059	6.517	B5-03822-P04-CH0	1577744	OK	0.7989441	-0.2810837	0.5316768	0	-122.414	-20.25	15.09	B5-03822-P04-CH1	1577744	OK	0.7858771	-0.6182609	0.0122773	0	-109.542	-29.651	4.463	NA
0.789376035058218	B5-03822-P01-CH0	1577752	OK	0.1395114	0.1206125	0.1190405	-0.9756119	151.614	-15.19	-272.243	B5-03822-P02-CH0	1577752	OK	0.671238	0.143492	-0.7272204	0	-80.479	-84.285	0.327	B5-03822-P02-CH1	1577752	OK	0.7218739	-0.0412317	-0.6907952	0	-82.804	-61.807	-0.792	B5-03822-P03-CH0	1577752	OK	0.705306	-0.0485975	-0.7072353	0	-92.539	-43.322	8.123	B5-03822-P03-CH1	1577752	OK	0.779276	-0.6164927	-0.1125423	0	-98.469	-14.447	7.022	B5-03822-P04-CH0	1577752	OK	0.7988789	-0.2822364	0.5311639	0	-122.499	-20.36	15.394	B5-03822-P04-CH1	1577752	OK	0.7854311	-0.6188241	0.0124389	0	-109.899	-30.101	5.178	NA
0.799368136767816	B5-03822-P01-CH0	1577760	OK	0.1397794	0.1209626	0.1194274	-0.9754829	151.798	-15.143	-272.173	B5-03822-P02-CH0	1577760	OK	0.6716444	0.1461297	-0.7263195	0	-80.957	-83.69	0.469	B5-03822-P02-CH1	1577760	OK	0.7226304	-0.0395209	-0.6901039	0	-82.242	-63.058	0.445	B5-03822-P03-CH0	1577760	OK	0.7042863	-0.0490272	-0.7082211	0	-93.533	-43.255	7.359	B5-03822-P03-CH1	1577760	OK	0.7794915	-0.6162596	-0.1123258	0	-98.69	-14.554	7.037	B5-03822-P04-CH0	1577760	OK	0.7991952	-0.2829344	0.5303161	0	-122.697	-20.273	15.235	B5-03822-P04-CH1	1577760	OK	0.7857657	-0.6183932	0.0127287	0	-110.099	-30.09	5.404	NA
0.809360238477413	B5-03822-P01-CH0	1577768	OK	0.140118	0.1209413	0.1199372	-0.9753744	151.932	-15.073	-272.32	B5-03822-P02-CH0	1577768	OK	0.675549	0.1482716	-0.7222528	0	-80.072	-84.818	-1.256	B5-03822-P02-CH1	1577768	OK	0.7195211	-0.0390706	-0.6933706	0	-84.069	-63.462	2.19	B5-03822-P03-CH0	1577768	OK	0.7040249	-0.0496161	-0.7084399	0	-94.001	-43.087	8.932	B5-03822-P03-CH1	1577768	OK	0.7798544	-0.615854	-0.1120309	0	-98.698	-14.705	7.151	B5-03822-P04-CH0	1577768	OK	0.7992777	-0.2835504	0.5298625	0	-122.821	-20.349	15.311	B5-03822-P04-CH1	1577768	OK	0.786222	-0.6178049	0.0131171	0	-110.309	-30.227	6.224	NA
0.819352340187011	B5-03822-P01-CH0	1577776	OK	0.1403297	0.1209518	0.1205651	-0.9752652	151.971	-14.983	-272.266	B5-03822-P02-CH0	1577776	OK	0.6749692	0.1516829	-0.7220865	0	-80.812	-84.277	-0.025	B5-03822-P02-CH1	1577776	OK	0.721048	-0.0336095	-0.6920695	0	-82.549	-62.782	1.928	B5-03822-P03-CH0	1577776	OK	0.7053804	-0.0511863	-0.7069784	0	-93.955	-43.297	7.602	B5-03822-P03-CH1	1577776	OK	0.7802494	-0.6153825	-0.1118719	0	-98.668	-14.844	7.199	B5-03822-P04-CH0	1577776	OK	0.7992539	-0.2844961	0.5293913	0	-122.804	-20.127	14.876	B5-03822-P04-CH1	1577776	OK	0.7864808	-0.6174667	0.0135241	0	-110.585	-30.502	6.964	NA
0.829344441896609	B5-03822-P01-CH0	1577784	OK	0.1405915	0.1210237	0.1204684	-0.9752306	152.029	-15.006	-272.22	B5-03822-P02-CH0	1577784	OK	0.6743597	0.1566904	-0.7215866	0	-81.432	-83.852	0.305	B5-03822-P02-CH1	1577784	OK	0.7198067	-0.0320804	-0.6934329	0	-83.112	-62.76	1.237	B5-03822-P03-CH0	1577784	OK	0.7066401	-0.0562775	-0.7053316	0	-94.384	-43.996	6.378	B5-03822-P03-CH1	1577784	OK	0.7804174	-0.6152084	-0.1116572	0	-98.746	-14.915	7.378	B5-03822-P04-CH0	1577784	OK	0.7991049	-0.2853561	0.5291534	0	-122.832	-20.318	14.949	B5-03822-P04-CH1	1577784	OK	0.7861229	-0.6179041	0.0143284	0	-110.781	-30.872	7.015	NA
0.839336543606206	B5-03822-P01-CH0	1577792	OK	0.140262	0.120979	0.119674	-0.9753813	151.991	-14.992	-272.335	B5-03822-P02-CH0	1577792	OK	0.6735831	0.1615705	-0.7212356	0	-82.064	-84.438	1.344	B5-03822-P02-CH1	1577792	OK	0.7210532	-0.0277078	-0.6923254	0	-82.8	-62.097	-0.957	B5-03822-P03-CH0	1577792	OK	0.7063899	-0.0564367	-0.7055694	0	-94.956	-43.326	7.79	B5-03822-P03-CH1	1577792	OK	0.7800457	-0.6156007	-0.1120912	0	-98.888	-14.822	7.519	B5-03822-P04-CH0	1577792	OK	0.7988841	-0.2868344	0.5286873	0	-122.9	-20.245	15.201	B5-03822-P04-CH1	1577792	OK	0.7855395	-0.6186573	0.0138158	0	-110.693	-30.624	6.782	NA
0.849328645315804	B5-03822-P01-CH0	1577800	OK	0.1397732	0.1212057	0.1189089	-0.9755169	152.095	-15.092	-272.39	B5-03822-P02-CH0	1577800	OK	0.6733269	0.1672308	-0.7201839	0	-82.136	-85.135	0.919	B5-03822-P02-CH1	1577800	OK	0.7219768	-0.0357964	-0.6909906	0	-82.89	-62.857	1.131	B5-03822-P03-CH0	1577800	OK	0.7040315	-0.0511916	-0.7083213	0	-94.493	-43.2	7.518	B5-03822-P03-CH1	1577800	OK	0.7797206	-0.6158874	-0.1127766	0	-98.865	-14.747	7.573	B5-03822-P04-CH0	1577800	OK	0.7983916	-0.2888467	0.5283355	0	-122.797	-20.142	15.043	B5-03822-P04-CH1	1577800	OK	0.7849213	-0.6194514	0.0133601	0	-110.813	-30.768	7.163	NA
0.859320747025402	B5-03822-P01-CH0	1577808	OK	0.1400968	0.1209178	0.1196156	-0.9754198	152.117	-15.011	-272.615	B5-03822-P02-CH0	1577808	OK	0.6715126	0.1716376	-0.7208407	0	-82.412	-85.403	0.939	B5-03822-P02-CH1	1577808	OK	0.7220562	-0.0335697	-0.6910195	0	-82.773	-62.797	0.744	B5-03822-P03-CH0	1577808	OK	0.7052616	-0.0530054	-0.7069629	0	-94.432	-43.321	7.491	B5-03822-P03-CH1	1577808	OK	0.7804268	-0.6150487	-0.1124678	0	-98.784	-14.598	7.544	B5-03822-P04-CH0	1577808	OK	0.7986302	-0.2888598	0.5279676	0	-122.943	-20.247	15.404	B5-03822-P04-CH1	1577808	OK	0.7850646	-0.6192582	0.0138892	0	-110.611	-30.927	6.935	NA
0.869312848735	B5-03822-P01-CH0	1577816	OK	0.1403705	0.1209056	0.1202646	-0.9753022	152.175	-14.897	-272.723	B5-03822-P02-CH0	1577816	OK	0.6703198	0.173674	-0.7214629	0	-81.974	-85.115	0.4	B5-03822-P02-CH1	1577816	OK	0.7212043	-0.0188252	-0.6924666	0	-84.628	-63.869	1.136	B5-03822-P03-CH0	1577816	OK	0.7061739	-0.0541316	-0.7059662	0	-94.441	-43.311	7.388	B5-03822-P03-CH1	1577816	OK	0.7810915	-0.6142057	-0.1124609	0	-98.779	-14.255	7.165	B5-03822-P04-CH0	1577816	OK	0.7987573	-0.2890732	0.5276585	0	-123.013	-20.267	15.571	B5-03822-P04-CH1	1577816	OK	0.7855213	-0.6186771	0.0139633	0	-110.947	-30.787	6.866	NA
0.879304950444597	B5-03822-P01-CH0	1577824	OK	0.1404075	0.120994	0.1205228	-0.975254	152.319	-14.984	-272.912	B5-03822-P02-CH0	1577824	OK	0.6677042	0.1754497	-0.7234559	0	-82.632	-85.497	0.999	B5-03822-P02-CH1	1577824	OK	0.7226427	-0.0153598	-0.6910511	0	-84.144	-63.899	1.831	B5-03822-P03-CH0	1577824	OK	0.70668	-0.0548495	-0.7054041	0	-94.666	-43.452	7.304	B5-03822-P03-CH1	1577824	OK	0.7813288	-0.613856	-0.1127214	0	-98.957	-14.344	7.423	B5-03822-P04-CH0	1577824	OK	0.798924	-0.2897922	0.5270113	0	-123.07	-20.235	15.894	B5-03822-P04-CH1	1577824	OK	0.7854394	-0.6187734	0.0142977	0	-110.99	-31.157	7.148	NA
0.889297052154195	B5-03822-P01-CH0	1577832	OK	0.1407711	0.1206163	0.121412	-0.9751381	152.199	-14.904	-272.952	B5-03822-P02-CH0	1577832	OK	0.6663958	0.1789262	-0.7238108	0	-82.432	-85.532	-0.079	B5-03822-P02-CH1	1577832	OK	0.7238928	-0.0144748	-0.6897606	0	-83.553	-63.713	2.008	B5-03822-P03-CH0	1577832	OK	0.7075362	-0.0560105	-0.7044539	0	-94.665	-43.375	7.344	B5-03822-P03-CH1	1577832	OK	0.7820644	-0.6129716	-0.1124327	0	-98.886	-14.179	7.235	B5-03822-P04-CH0	1577832	OK	0.7989489	-0.290151	0.526776	0	-123.011	-20.075	15.554	B5-03822-P04-CH1	1577832	OK	0.7859733	-0.6180889	0.0145658	0	-110.782	-31.062	6.974	NA
