Wav.Time	B5.03822.P01.CH0	Frame	State	Q0	Qx	Qy	Qz	Tx	Ty	Tz	B5.03822.P02.CH0	Frame.1	State.1	Q0.1	Qx.1	Qy.1	Qz.1	Tx.1	Ty.1	Tz.1	B5.03822.P02.CH1	Frame.2	State.2	Q0.2	Qx.2	Qy.2	Qz.2	Tx.2	Ty.2	Tz.2	B5.03822.P03.CH0	Frame.3	State.3	Q0.3	Qx.3	Qy.3	Qz.3	Tx.3	Ty.3	Tz.3	B5.03822.P03.CH1	Frame.4	State.4	Q0.4	Qx.4	Qy.4	Qz.4	Tx.4	Ty.4	Tz.4	B5.03822.P04.CH0	Frame.5	State.5	Q0.5	Qx.5	Qy.5	Qz.5	Tx.5	Ty.5	Tz.5	B5.03822.P04.CH1	Frame.6	State.6	Q0.6	Qx.6	Qy.6	Qz.6	Tx.6	Ty.6	Tz.6	X
0	B5-03822-P01-CH0	1276136	OK	0.2042221	0.0556856	0.0799904	-0.9740606	103.368	-37.364	-294.099	B5-03822-P02-CH0	1276136	OK	0.7366094	0.0197462	-0.6760301	0	-80.038	-98.016	0.092	B5-03822-P02-CH1	1276136	OK	0.7679748	-0.1300691	-0.6271338	0	-79.698	-81.042	6.516	B5-03822-P03-CH0	1276136	OK	0.7860719	-0.2290617	-0.5741269	0	-95.428	-61.609	8.657	B5-03822-P03-CH1	1276136	OK	0.791118	-0.5464523	0.274813	0	-99.687	-34.964	8.675	B5-03822-P04-CH0	1276136	OK	0.7993487	-0.3227042	0.5068567	0	-119.846	-39.7	13.058	B5-03822-P04-CH1	1276136	OK	0.8230731	-0.5675551	0.0207825	0	-108.364	-53.813	10.593	NA
0.0099921231650555	B5-03822-P01-CH0	1276144	OK	0.2041226	0.0556116	0.079744	-0.9741058	103.364	-37.403	-294.162	B5-03822-P02-CH0	1276144	OK	0.7368818	0.0181983	-0.6757766	0	-80.133	-98.214	0.493	B5-03822-P02-CH1	1276144	OK	0.7686967	-0.125656	-0.6271491	0	-79.741	-80.487	0.069	B5-03822-P03-CH0	1276144	OK	0.7905403	-0.2303502	-0.5674371	0	-95.292	-62.321	8.724	B5-03822-P03-CH1	1276144	OK	0.7933251	-0.5433362	0.2746291	0	-99.692	-31.007	8.257	B5-03822-P04-CH0	1276144	OK	0.8005593	-0.3266151	0.5024215	0	-119.353	-39.513	13.486	B5-03822-P04-CH1	1276144	OK	0.8227641	-0.5679837	0.0213011	0	-108.382	-54.094	10.75	NA
0.019984246330111	B5-03822-P01-CH0	1276152	OK	0.2039739	0.0556304	0.0796586	-0.9741429	103.353	-37.372	-294.196	B5-03822-P02-CH0	1276152	OK	0.7368195	0.0163364	-0.6758922	0	-80.288	-98.506	0.729	B5-03822-P02-CH1	1276152	OK	0.7637625	-0.1260841	-0.6330636	0	-82.565	-82.372	1.496	B5-03822-P03-CH0	1276152	OK	0.7936213	-0.2246913	-0.5654016	0	-96.569	-62.146	10.584	B5-03822-P03-CH1	1276152	OK	0.7938032	-0.5408672	0.2780991	0	-99.967	-28.894	6.6	B5-03822-P04-CH0	1276152	OK	0.8010625	-0.3253988	0.5024088	0	-118.558	-40.814	15.405	B5-03822-P04-CH1	1276152	OK	0.8227142	-0.5680428	0.0216495	0	-108.294	-54.121	10.859	NA
0.0299763694951665	B5-03822-P01-CH0	1276160	OK	0.2038679	0.055908	0.079448	-0.9741664	103.403	-37.357	-294.055	B5-03822-P02-CH0	1276160	OK	0.7367046	0.0139752	-0.6760702	0	-80.364	-98.887	0.72	B5-03822-P02-CH1	1276160	OK	0.7637804	-0.1200979	-0.634205	0	-82.328	-80.347	2.906	B5-03822-P03-CH0	1276160	OK	0.7991363	-0.2182646	-0.5601265	0	-97.591	-61.081	9.783	B5-03822-P03-CH1	1276160	OK	0.7893288	-0.5434574	0.2856817	0	-100.817	-32.933	5.796	B5-03822-P04-CH0	1276160	OK	0.8022731	-0.322381	0.5024225	0	-118.894	-40.37	13.779	B5-03822-P04-CH1	1276160	OK	0.8224557	-0.5684033	0.0220072	0	-108.396	-54.249	10.704	NA
0.039968492660222	B5-03822-P01-CH0	1276168	OK	0.2035204	0.056184	0.0788609	-0.9742709	103.449	-37.506	-293.914	B5-03822-P02-CH0	1276168	OK	0.7348738	-7.01e-05	-0.6782038	0	-79.77	-99.704	-1.456	B5-03822-P02-CH1	1276168	OK	0.7624077	-0.1165142	-0.6365209	0	-82.039	-79.592	2.45	B5-03822-P03-CH0	1276168	OK	0.8083102	-0.2181577	-0.5468472	0	-96.55	-62.684	9.866	B5-03822-P03-CH1	1276168	OK	0.7875716	-0.5447855	0.2879925	0	-99.129	-34.425	10.83	B5-03822-P04-CH0	1276168	OK	0.8045344	-0.317406	0.5019739	0	-118.823	-38.819	14.755	B5-03822-P04-CH1	1276168	OK	0.8220233	-0.5690255	0.0220814	0	-108.552	-54.453	10.565	NA
0.0499606158252775	B5-03822-P01-CH0	1276176	OK	0.2031963	0.0561504	0.0785595	-0.9743648	103.309	-37.575	-293.846	B5-03822-P02-CH0	1276176	OK	0.7324009	-0.0059117	-0.6808479	0	-80.205	-99.332	1.155	B5-03822-P02-CH1	1276176	OK	0.759156	-0.1162812	-0.640438	0	-81.513	-82.072	2.317	B5-03822-P03-CH0	1276176	OK	0.8170743	-0.218164	-0.5336609	0	-96.762	-63.939	11.717	B5-03822-P03-CH1	1276176	OK	0.7890455	-0.5466546	0.2803139	0	-100.658	-29.804	3.327	B5-03822-P04-CH0	1276176	OK	0.80479	-0.3108925	0.5056272	0	-118.826	-39.777	14.691	B5-03822-P04-CH1	1276176	OK	0.8219905	-0.5690763	0.0219932	0	-108.583	-54.393	10.57	NA
0.059952738990333	B5-03822-P01-CH0	1276184	OK	0.2030079	0.0560122	0.0783459	-0.9744293	103.199	-37.687	-293.832	B5-03822-P02-CH0	1276184	OK	0.7320788	-0.0137197	-0.6810818	0	-79.789	-100.158	-0.874	B5-03822-P02-CH1	1276184	OK	0.7569342	-0.1079452	-0.6445142	0	-79.419	-81.639	4.584	B5-03822-P03-CH0	1276184	OK	0.8299833	-0.2168622	-0.5139052	0	-96.582	-64.143	12.431	B5-03822-P03-CH1	1276184	OK	0.7897507	-0.5439318	0.2836054	0	-101.577	-30.277	6.314	B5-03822-P04-CH0	1276184	OK	0.8052147	-0.3043216	0.5089378	0	-118.923	-39.972	15.077	B5-03822-P04-CH1	1276184	OK	0.8219406	-0.5691354	0.0223285	0	-108.492	-54.445	10.497	NA
0.0699448621553885	B5-03822-P01-CH0	1276192	OK	0.2026181	0.0561924	0.0781236	-0.9745178	103.144	-37.677	-293.744	B5-03822-P02-CH0	1276192	OK	0.7318217	-0.0193306	-0.6812219	0	-79.362	-100.164	-0.094	B5-03822-P02-CH1	1276192	OK	0.7506955	-0.1030047	-0.652569	0	-78.529	-82.212	3.929	B5-03822-P03-CH0	1276192	OK	0.8435473	-0.2182878	-0.4906917	0	-96.871	-64.703	13.576	B5-03822-P03-CH1	1276192	OK	0.7884271	-0.5483779	0.2786833	0	-100.285	-28.179	2.555	B5-03822-P04-CH0	1276192	OK	0.8057918	-0.296375	0.5127002	0	-119.625	-41.22	16.586	B5-03822-P04-CH1	1276192	OK	0.8220646	-0.5689617	0.0221887	0	-108.704	-54.331	10.831	NA
0.079936985320444	B5-03822-P01-CH0	1276200	OK	0.2022611	0.0564607	0.0773036	-0.9746419	103.151	-37.755	-293.695	B5-03822-P02-CH0	1276200	OK	0.7316373	-0.0272833	-0.6811479	0	-78.946	-100.734	-0.58	B5-03822-P02-CH1	1276200	OK	0.7439928	-0.0986479	-0.6608656	0	-76.681	-83.32	0.378	B5-03822-P03-CH0	1276200	OK	0.8565777	-0.2200046	-0.4667682	0	-97.983	-65.927	15.952	B5-03822-P03-CH1	1276200	OK	0.7915819	-0.5481633	0.270028	0	-101.297	-23.822	0.197	B5-03822-P04-CH0	1276200	OK	0.805996	-0.2905528	0.5157029	0	-119.29	-39.043	15.262	B5-03822-P04-CH1	1276200	OK	0.8217206	-0.5694526	0.0223367	0	-108.891	-54.335	10.888	NA
0.0899291084854995	B5-03822-P01-CH0	1276208	OK	0.2019686	0.05627	0.0775397	-0.9746948	103.049	-37.778	-293.742	B5-03822-P02-CH0	1276208	OK	0.7308562	-0.0329766	-0.6817344	0	-78.946	-101.327	-1.872	B5-03822-P02-CH1	1276208	OK	0.7345818	-0.09653	-0.6716186	0	-76.65	-82.172	-1.302	B5-03822-P03-CH0	1276208	OK	0.8705091	-0.2163481	-0.4420491	0	-98.103	-66.634	16.834	B5-03822-P03-CH1	1276208	OK	0.7878407	-0.5514316	0.2742814	0	-101.374	-29.469	4.201	B5-03822-P04-CH0	1276208	OK	0.8064032	-0.2802228	0.5207581	0	-120.088	-41.917	18.899	B5-03822-P04-CH1	1276208	OK	0.8219228	-0.5691434	0.0227734	0	-108.851	-54.506	11.201	NA
0.099921231650555	B5-03822-P01-CH0	1276216	OK	0.2017192	0.056582	0.076836	-0.9747841	103.164	-37.941	-293.775	B5-03822-P02-CH0	1276216	OK	0.7304919	-0.0355839	-0.6819936	0	-78.857	-101.558	-1.417	B5-03822-P02-CH1	1276216	OK	0.7256369	-0.0968632	-0.6812258	0	-77.455	-82.142	0.808	B5-03822-P03-CH0	1276216	OK	0.8820905	-0.217912	-0.417649	0	-97.509	-68.277	17.906	B5-03822-P03-CH1	1276216	OK	0.7888362	-0.5479793	0.2783096	0	-100.653	-30.733	6.926	B5-03822-P04-CH0	1276216	OK	0.8030298	-0.2763157	0.5280083	0	-118.688	-39.142	13.947	B5-03822-P04-CH1	1276216	OK	0.821672	-0.5694775	0.0234632	0	-108.943	-54.693	11.419	NA
0.10991335481561	B5-03822-P01-CH0	1276224	OK	0.2013501	0.0564418	0.07705	-0.9748517	103.036	-37.936	-293.631	B5-03822-P02-CH0	1276224	OK	0.7311405	-0.0353592	-0.68131	0	-78.958	-102.882	-1.542	B5-03822-P02-CH1	1276224	OK	0.7200282	-0.0910722	-0.6879428	0	-78.345	-83.143	-0.291	B5-03822-P03-CH0	1276224	OK	0.8913497	-0.2161274	-0.398478	0	-98.127	-68.528	18.708	B5-03822-P03-CH1	1276224	OK	0.7912218	-0.550208	0.2669069	0	-100.295	-32.565	13.146	B5-03822-P04-CH0	1276224	OK	0.8017368	-0.2677449	0.5343508	0	-119.457	-38.14	11.01	B5-03822-P04-CH1	1276224	OK	0.8219642	-0.569037	0.0239102	0	-109.107	-54.612	11.322	NA
0.119905477980666	B5-03822-P01-CH0	1276232	OK	0.2011697	0.0564689	0.0769496	-0.9748953	102.949	-38	-293.459	B5-03822-P02-CH0	1276232	OK	0.7326619	-0.0315955	-0.679859	0	-79.084	-102.664	-2.4	B5-03822-P02-CH1	1276232	OK	0.724907	-0.0802383	-0.6841576	0	-75.163	-82.28	-2.507	B5-03822-P03-CH0	1276232	OK	0.9003287	-0.2186629	-0.3762907	0	-96.624	-69.412	18.356	B5-03822-P03-CH1	1276232	OK	0.7924911	-0.5515179	0.2603572	0	-99.743	-32.43	8.897	B5-03822-P04-CH0	1276232	OK	0.8014863	-0.2550841	0.5408806	0	-120.713	-40.768	13.717	B5-03822-P04-CH1	1276232	OK	0.8219979	-0.5689498	0.024811	0	-109.357	-54.653	11.128	NA
0.129897601145721	B5-03822-P01-CH0	1276240	OK	0.2010438	0.0562904	0.0771053	-0.9749193	102.84	-38.038	-293.385	B5-03822-P02-CH0	1276240	OK	0.7332368	-0.0282524	-0.6793862	0	-79.805	-102.889	-0.592	B5-03822-P02-CH1	1276240	OK	0.724937	-0.0747816	-0.6847437	0	-75.414	-82.989	2.123	B5-03822-P03-CH0	1276240	OK	0.9045259	-0.2210408	-0.3646558	0	-96.27	-69.867	18.134	B5-03822-P03-CH1	1276240	OK	0.7945393	-0.5480981	0.2613345	0	-100.187	-35.796	11.981	B5-03822-P04-CH0	1276240	OK	0.7992577	-0.2436864	0.5493669	0	-122.142	-41.685	12.413	B5-03822-P04-CH1	1276240	OK	0.8221324	-0.5686985	0.0260834	0	-109.631	-54.712	10.753	NA
0.139889724310777	B5-03822-P01-CH0	1276248	OK	0.201129	0.0565026	0.07737	-0.9748684	102.907	-38.013	-293.371	B5-03822-P02-CH0	1276248	OK	0.7340945	-0.0256496	-0.6785627	0	-80.569	-102.389	-1.177	B5-03822-P02-CH1	1276248	OK	0.7230535	-0.0684261	-0.6873948	0	-76.044	-83.909	-0.819	B5-03822-P03-CH0	1276248	OK	0.9053611	-0.2304854	-0.356648	0	-95.458	-71.574	18.283	B5-03822-P03-CH1	1276248	OK	0.8000332	-0.5428734	0.2554121	0	-101.038	-32.367	9.057	B5-03822-P04-CH0	1276248	OK	0.7968993	-0.2377132	0.5553773	0	-122.636	-41.791	11.679	B5-03822-P04-CH1	1276248	OK	0.8224046	-0.5682393	0.0274738	0	-109.895	-54.843	10.884	NA
0.149881847475832	B5-03822-P01-CH0	1276256	OK	0.2012219	0.0564528	0.0777416	-0.9748226	102.88	-37.958	-293.414	B5-03822-P02-CH0	1276256	OK	0.7351357	-0.0257872	-0.6774293	0	-80.846	-102.218	0.025	B5-03822-P02-CH1	1276256	OK	0.7228461	-0.0632974	-0.6881038	0	-74.342	-85.229	-2.658	B5-03822-P03-CH0	1276256	OK	0.9022922	-0.2346482	-0.3616753	0	-95.531	-71.185	19.446	B5-03822-P03-CH1	1276256	OK	0.8017696	-0.5394616	0.25719	0	-101.031	-31.401	7.557	B5-03822-P04-CH0	1276256	OK	0.7956686	-0.2337859	0.5587984	0	-122.185	-40.392	12.968	B5-03822-P04-CH1	1276256	OK	0.8226497	-0.5678029	0.0291072	0	-110.091	-54.999	10.988	NA
0.159873970640888	B5-03822-P01-CH0	1276264	OK	0.2008483	0.0569244	0.0774086	-0.9748987	103.033	-38.015	-293.417	B5-03822-P02-CH0	1276264	OK	0.7356026	-0.024348	-0.6769756	0	-81.257	-102.542	-1.883	B5-03822-P02-CH1	1276264	OK	0.7217559	-0.0556499	-0.6899069	0	-73.51	-84.121	-2.702	B5-03822-P03-CH0	1276264	OK	0.8945049	-0.2441308	-0.3745146	0	-95.083	-70.7	18.584	B5-03822-P03-CH1	1276264	OK	0.797418	-0.5430314	0.2631377	0	-100.813	-37.448	12.46	B5-03822-P04-CH0	1276264	OK	0.7941114	-0.2289869	0.562985	0	-123.431	-40.81	10.611	B5-03822-P04-CH1	1276264	OK	0.8224774	-0.5680129	0.0298713	0	-110.603	-55.19	11.276	NA
0.169866093805943	B5-03822-P01-CH0	1276272	OK	0.2007285	0.0566446	0.0780454	-0.9748889	102.962	-38.003	-293.553	B5-03822-P02-CH0	1276272	OK	0.7346588	-0.0175895	-0.6782087	0	-81.54	-103.227	-1.928	B5-03822-P02-CH1	1276272	OK	0.7166936	-0.0385821	-0.6963201	0	-74.897	-83.777	0.496	B5-03822-P03-CH0	1276272	OK	0.8771569	-0.2569723	-0.4056612	0	-95.447	-70.395	17.125	B5-03822-P03-CH1	1276272	OK	0.7960416	-0.5452321	0.262754	0	-99.24	-38.902	15.145	B5-03822-P04-CH0	1276272	OK	0.7937518	-0.2225664	0.5660585	0	-124.619	-43.607	13.424	B5-03822-P04-CH1	1276272	OK	0.8229008	-0.5673219	0.0313074	0	-110.665	-55.223	11.138	NA
0.179858216970999	B5-03822-P01-CH0	1276280	OK	0.200545	0.0563903	0.0781907	-0.9749298	102.802	-38.045	-293.552	B5-03822-P02-CH0	1276280	OK	0.7335741	-0.0061129	-0.6795819	0	-81.376	-101.514	-0.964	B5-03822-P02-CH1	1276280	OK	0.7170846	-0.0167228	-0.6967854	0	-73.841	-85.321	-1.473	B5-03822-P03-CH0	1276280	OK	0.8546967	-0.2718505	-0.4422566	0	-93.442	-70.172	15.539	B5-03822-P03-CH1	1276280	OK	0.8009039	-0.5407172	0.2572505	0	-100.247	-36.007	17.308	B5-03822-P04-CH0	1276280	OK	0.7920635	-0.2216994	0.5687572	0	-124.115	-42.281	13.048	B5-03822-P04-CH1	1276280	OK	0.8230254	-0.5670838	0.0323277	0	-110.712	-55.28	11.084	NA
0.189850340136054	B5-03822-P01-CH0	1276288	OK	0.2002468	0.0568826	0.077765	-0.9749965	102.847	-38.016	-293.416	B5-03822-P02-CH0	1276288	OK	0.7309569	0.0030005	-0.682417	0	-81.881	-101.479	1.081	B5-03822-P02-CH1	1276288	OK	0.7149616	0.006953	-0.6991292	0	-75.197	-84.278	0.34	B5-03822-P03-CH0	1276288	OK	0.82532	-0.281744	-0.4893539	0	-92.598	-67.946	11.252	B5-03822-P03-CH1	1276288	OK	0.7972009	-0.5449108	0.2598901	0	-99.497	-37.22	11.512	B5-03822-P04-CH0	1276288	OK	0.7912449	-0.2231502	0.569329	0	-123.885	-42.118	13.579	B5-03822-P04-CH1	1276288	OK	0.822912	-0.5672336	0.0325852	0	-111.049	-55.175	11.396	NA
0.19984246330111	B5-03822-P01-CH0	1276296	OK	0.1998922	0.0562343	0.0781543	-0.9750758	102.428	-37.986	-293.283	B5-03822-P02-CH0	1276296	OK	0.7292146	0.0109574	-0.6841973	0	-82.424	-100.449	-1.487	B5-03822-P02-CH1	1276296	OK	0.716621	0.0300436	-0.6968154	0	-76.004	-84.643	-1.239	B5-03822-P03-CH0	1276296	OK	0.7944672	-0.2896699	-0.5337726	0	-90.188	-66.389	7.358	B5-03822-P03-CH1	1276296	OK	0.8000093	-0.5429904	0.2552382	0	-99.14	-34.99	12.7	B5-03822-P04-CH0	1276296	OK	0.7887261	-0.227269	0.5711917	0	-122.493	-41.704	10.699	B5-03822-P04-CH1	1276296	OK	0.8231711	-0.5668471	0.0327684	0	-110.951	-54.927	11.084	NA
0.209834586466165	B5-03822-P01-CH0	1276304	OK	0.1997873	0.0558926	0.0789123	-0.9750559	102.198	-37.955	-293.301	B5-03822-P02-CH0	1276304	OK	0.7284496	0.0156895	-0.6849197	0	-82.137	-100.534	0.503	B5-03822-P02-CH1	1276304	OK	0.7216909	0.0417493	-0.6909553	0	-74.765	-81.981	-1.945	B5-03822-P03-CH0	1276304	OK	0.7593583	-0.2906462	-0.5821509	0	-88.493	-62.183	0.913	B5-03822-P03-CH1	1276304	OK	0.8028202	-0.540378	0.2519353	0	-98.785	-31.204	8.997	B5-03822-P04-CH0	1276304	OK	0.7902224	-0.2296975	0.568144	0	-123.013	-42.072	11.032	B5-03822-P04-CH1	1276304	OK	0.8235506	-0.5662837	0.0329737	0	-110.784	-54.81	10.88	NA
0.219826709631221	B5-03822-P01-CH0	1276312	OK	0.1993196	0.0559205	0.0784483	-0.9751874	102.112	-38.041	-293.285	B5-03822-P02-CH0	1276312	OK	0.7279928	0.0176794	-0.6853567	0	-82.273	-98.139	-0.938	B5-03822-P02-CH1	1276312	OK	0.7231434	0.0415647	-0.6894461	0	-76.179	-81.248	-1.779	B5-03822-P03-CH0	1276312	OK	0.7227873	-0.2774929	-0.6329109	0	-84.122	-61.962	-0.176	B5-03822-P03-CH1	1276312	OK	0.7994512	-0.5430733	0.2568058	0	-99.157	-34.849	12.019	B5-03822-P04-CH0	1276312	OK	0.7917754	-0.2336854	0.5643429	0	-122.895	-41.034	11.878	B5-03822-P04-CH1	1276312	OK	0.8231485	-0.5669056	0.0323186	0	-110.669	-54.816	10.988	NA
0.229818832796276	B5-03822-P01-CH0	1276320	OK	0.1989821	0.056279	0.0782283	-0.9752534	102.176	-38.095	-293.303	B5-03822-P02-CH0	1276320	OK	0.7270232	0.0163678	-0.6864177	0	-82.519	-96.988	-1.135	B5-03822-P02-CH1	1276320	OK	0.7243131	0.0304458	-0.6887987	0	-77.82	-81.434	-0.814	B5-03822-P03-CH0	1276320	OK	0.6926864	-0.2491716	-0.6768302	0	-81.38	-57.945	-0.216	B5-03822-P03-CH1	1276320	OK	0.7997923	-0.5428	0.2563209	0	-99.113	-35.062	12.633	B5-03822-P04-CH0	1276320	OK	0.7941149	-0.2336884	0.5610447	0	-123.612	-42.604	15.068	B5-03822-P04-CH1	1276320	OK	0.8229571	-0.5672491	0.0311473	0	-110.666	-54.819	11.41	NA
0.239810955961332	B5-03822-P01-CH0	1276328	OK	0.1986833	0.0559627	0.0790355	-0.9752674	101.969	-37.997	-293.3	B5-03822-P02-CH0	1276328	OK	0.7269862	0.0101806	-0.6865766	0	-82.403	-96.345	0.784	B5-03822-P02-CH1	1276328	OK	0.7305143	0.003391	-0.6828889	0	-76.612	-81.353	1.805	B5-03822-P03-CH0	1276328	OK	0.6822862	-0.2293399	-0.6941821	0	-78.97	-59.359	2.984	B5-03822-P03-CH1	1276328	OK	0.8001922	-0.5422368	0.2562648	0	-99.05	-35.677	13.571	B5-03822-P04-CH0	1276328	OK	0.7922054	-0.2314147	0.564675	0	-122.862	-40.701	11.416	B5-03822-P04-CH1	1276328	OK	0.8234567	-0.5666007	0.0297101	0	-110.475	-54.412	11.441	NA
0.249803079126387	B5-03822-P01-CH0	1276336	OK	0.1982445	0.0561262	0.0788858	-0.9753594	101.909	-38.012	-293.24	B5-03822-P02-CH0	1276336	OK	0.7275312	0.0046854	-0.6860586	0	-82.347	-95.183	1.866	B5-03822-P02-CH1	1276336	OK	0.7332492	-0.0254783	-0.6794825	0	-76.906	-78.669	5.908	B5-03822-P03-CH0	1276336	OK	0.681295	-0.2100711	-0.7012184	0	-83.339	-61.14	2.446	B5-03822-P03-CH1	1276336	OK	0.8002396	-0.5427363	0.2550567	0	-98.686	-35.463	13.186	B5-03822-P04-CH0	1276336	OK	0.7915584	-0.233763	0.5646151	0	-122.383	-40.236	11.205	B5-03822-P04-CH1	1276336	OK	0.8232772	-0.5669387	0.0282002	0	-110.172	-54.103	11.295	NA
0.259795202291443	B5-03822-P01-CH0	1276344	OK	0.1978863	0.0558838	0.0783781	-0.975487	101.672	-38.078	-293.079	B5-03822-P02-CH0	1276344	OK	0.728716	0.0032115	-0.6848085	0	-82.026	-94.678	1.358	B5-03822-P02-CH1	1276344	OK	0.7366939	-0.0473604	-0.6745658	0	-76.371	-77.298	2.544	B5-03822-P03-CH0	1276344	OK	0.6898151	-0.194097	-0.6974823	0	-84.774	-59.501	0.705	B5-03822-P03-CH1	1276344	OK	0.8003973	-0.5431484	0.253681	0	-98.377	-34.61	11.587	B5-03822-P04-CH0	1276344	OK	0.7911001	-0.2482034	0.5590668	0	-120.71	-39.51	11.163	B5-03822-P04-CH1	1276344	OK	0.8228367	-0.5676514	0.0266774	0	-109.734	-53.795	11.062	NA
0.269787325456498	B5-03822-P01-CH0	1276352	OK	0.1976121	0.0562349	0.0781438	-0.9755412	101.669	-38.067	-292.878	B5-03822-P02-CH0	1276352	OK	0.7291386	0.0028099	-0.6843603	0	-82.217	-95.229	0.857	B5-03822-P02-CH1	1276352	OK	0.73957	-0.0658407	-0.6698516	0	-75.915	-76.827	-1.523	B5-03822-P03-CH0	1276352	OK	0.6944776	-0.1798394	-0.6966768	0	-86.262	-57.504	-0.091	B5-03822-P03-CH1	1276352	OK	0.8008792	-0.5429129	0.252662	0	-98.568	-34.216	11.294	B5-03822-P04-CH0	1276352	OK	0.7934676	-0.2463669	0.5565183	0	-121.798	-40.114	14.36	B5-03822-P04-CH1	1276352	OK	0.822521	-0.5681979	0.0247059	0	-109.589	-53.556	11.176	NA
0.279779448621554	B5-03822-P01-CH0	1276360	OK	0.1975286	0.0562326	0.078608	-0.975521	101.614	-37.99	-292.778	B5-03822-P02-CH0	1276360	OK	0.7287112	0.0046843	-0.6848051	0	-82.542	-94.246	2.805	B5-03822-P02-CH1	1276360	OK	0.7387969	-0.0833112	-0.6687589	0	-77.225	-76.841	-2.204	B5-03822-P03-CH0	1276360	OK	0.6954175	-0.170562	-0.698071	0	-86.772	-57.379	0.387	B5-03822-P03-CH1	1276360	OK	0.801091	-0.542679	0.2524929	0	-98.39	-34.357	11.298	B5-03822-P04-CH0	1276360	OK	0.7940493	-0.2475563	0.555159	0	-121.617	-38.876	14.054	B5-03822-P04-CH1	1276360	OK	0.8226018	-0.5681599	0.0228145	0	-109.335	-53.191	11.089	NA
0.289771571786609	B5-03822-P01-CH0	1276368	OK	0.1976337	0.0559618	0.0790881	-0.9754764	101.518	-37.967	-292.803	B5-03822-P02-CH0	1276368	OK	0.7287487	0.0048084	-0.6847643	0	-82.834	-94.482	2.024	B5-03822-P02-CH1	1276368	OK	0.7362709	-0.0983843	-0.6694966	0	-79.447	-76.905	-1.476	B5-03822-P03-CH0	1276368	OK	0.6984689	-0.1671595	-0.695844	0	-86.117	-57.363	-0.981	B5-03822-P03-CH1	1276368	OK	0.8018594	-0.5415637	0.2524486	0	-98.312	-34.221	11.632	B5-03822-P04-CH0	1276368	OK	0.7921249	-0.2433942	0.5597297	0	-121.35	-39.014	11.647	B5-03822-P04-CH1	1276368	OK	0.8225323	-0.5683075	0.0216145	0	-108.956	-53.02	10.659	NA
0.299763694951665	B5-03822-P01-CH0	1276376	OK	0.1976308	0.056301	0.0792725	-0.9754425	101.672	-37.981	-292.851	B5-03822-P02-CH0	1276376	OK	0.7307616	0.0051476	-0.6826134	0	-81.977	-94.774	1.025	B5-03822-P02-CH1	1276376	OK	0.7372649	-0.1096745	-0.6666423	0	-79.35	-77.348	-1.894	B5-03822-P03-CH0	1276376	OK	0.7038867	-0.1775983	-0.6877516	0	-86.619	-57.529	0.527	B5-03822-P03-CH1	1276376	OK	0.8023081	-0.5408122	0.2526341	0	-98.456	-34.627	12.612	B5-03822-P04-CH0	1276376	OK	0.7927653	-0.2455582	0.5578748	0	-121.461	-39.161	12.098	B5-03822-P04-CH1	1276376	OK	0.8224957	-0.56842	0.0199895	0	-108.802	-52.905	10.96	NA
0.30975581811672	B5-03822-P01-CH0	1276384	OK	0.1974462	0.0567039	0.0785733	-0.9755131	101.77	-38.057	-292.656	B5-03822-P02-CH0	1276384	OK	0.7276958	0.00794	-0.685854	0	-82.87	-95.316	0.697	B5-03822-P02-CH1	1276384	OK	0.7392015	-0.1226906	-0.6622146	0	-78.418	-78.118	1.279	B5-03822-P03-CH0	1276384	OK	0.7130386	-0.2017643	-0.6714664	0	-89.209	-58.441	0.865	B5-03822-P03-CH1	1276384	OK	0.8019069	-0.5412946	0.2528743	0	-98.448	-34.694	11.862	B5-03822-P04-CH0	1276384	OK	0.7931348	-0.2481133	0.5562166	0	-121.65	-38.919	11.979	B5-03822-P04-CH1	1276384	OK	0.8219133	-0.5693118	0.0185112	0	-108.717	-52.726	10.859	NA
0.319747941281776	B5-03822-P01-CH0	1276392	OK	0.1976111	0.0568268	0.0794809	-0.9753991	101.894	-37.957	-292.82	B5-03822-P02-CH0	1276392	OK	0.7283313	0.0074435	-0.6851847	0	-82.708	-95.024	0.688	B5-03822-P02-CH1	1276392	OK	0.7399462	-0.1348055	-0.6590198	0	-78.423	-76.129	3.574	B5-03822-P03-CH0	1276392	OK	0.7315076	-0.2209407	-0.645044	0	-89.054	-60.121	6.175	B5-03822-P03-CH1	1276392	OK	0.802857	-0.5399999	0.2526277	0	-98.382	-34.249	11.483	B5-03822-P04-CH0	1276392	OK	0.793427	-0.2500821	0.5549167	0	-121.675	-38.684	11.76	B5-03822-P04-CH1	1276392	OK	0.8222884	-0.5688058	0.0173712	0	-108.841	-52.562	11.043	NA
0.329740064446831	B5-03822-P01-CH0	1276400	OK	0.1977607	0.0566507	0.0800246	-0.9753345	101.854	-37.897	-292.882	B5-03822-P02-CH0	1276400	OK	0.7293917	0.0074717	-0.6840555	0	-82.359	-94.529	0.668	B5-03822-P02-CH1	1276400	OK	0.7415189	-0.1539374	-0.6530337	0	-77.971	-76.03	-2.023	B5-03822-P03-CH0	1276400	OK	0.7477849	-0.238158	-0.6197568	0	-91.994	-58.408	5.894	B5-03822-P03-CH1	1276400	OK	0.8036477	-0.5389334	0.252391	0	-98.471	-33.446	10.374	B5-03822-P04-CH0	1276400	OK	0.793616	-0.2514533	0.554026	0	-121.867	-38.634	11.373	B5-03822-P04-CH1	1276400	OK	0.822479	-0.5685423	0.0169692	0	-108.715	-52.389	11.039	NA
0.339732187611887	B5-03822-P01-CH0	1276408	OK	0.1977892	0.0566359	0.0799684	-0.9753342	101.835	-37.938	-292.846	B5-03822-P02-CH0	1276408	OK	0.7301724	0.0082935	-0.6832126	0	-82.172	-94.342	0.588	B5-03822-P02-CH1	1276408	OK	0.7417411	-0.1766572	-0.6470025	0	-78.187	-76.058	-2.458	B5-03822-P03-CH0	1276408	OK	0.7597165	-0.2549919	-0.5981723	0	-93.205	-58.045	7.681	B5-03822-P03-CH1	1276408	OK	0.8039673	-0.5380183	0.2533238	0	-98.383	-33.278	10.565	B5-03822-P04-CH0	1276408	OK	0.7937869	-0.2524722	0.5533174	0	-122.13	-38.795	11.331	B5-03822-P04-CH1	1276408	OK	0.8222766	-0.5688372	0.0168945	0	-108.752	-52.302	10.665	NA
0.349724310776942	B5-03822-P01-CH0	1276416	OK	0.1980638	0.0568162	0.0801093	-0.9752564	101.903	-37.878	-292.822	B5-03822-P02-CH0	1276416	OK	0.7307516	0.0089301	-0.6825851	0	-82.096	-94.376	0.597	B5-03822-P02-CH1	1276416	OK	0.7390203	-0.1953532	-0.6447373	0	-79.803	-75.453	0.346	B5-03822-P03-CH0	1276416	OK	0.7696894	-0.2751287	-0.5760924	0	-92.909	-57.247	4.56	B5-03822-P03-CH1	1276416	OK	0.8040482	-0.5370449	0.2551259	0	-98.378	-33.763	11.386	B5-03822-P04-CH0	1276416	OK	0.7944877	-0.2521289	0.5524675	0	-122.703	-39.28	11.991	B5-03822-P04-CH1	1276416	OK	0.8221535	-0.5690035	0.0172833	0	-109.09	-52.422	10.819	NA
0.359716433941998	B5-03822-P01-CH0	1276424	OK	0.1982488	0.0573715	0.0803806	-0.975164	102.178	-37.767	-292.885	B5-03822-P02-CH0	1276424	OK	0.7323113	0.0143034	-0.6808198	0	-82.753	-95.53	2.496	B5-03822-P02-CH1	1276424	OK	0.7381737	-0.2090515	-0.6414025	0	-80.151	-76.269	0.662	B5-03822-P03-CH0	1276424	OK	0.7737651	-0.2923013	-0.5620031	0	-94.347	-58.083	6.508	B5-03822-P03-CH1	1276424	OK	0.8045039	-0.5358531	0.2561931	0	-98.379	-34.021	12.563	B5-03822-P04-CH0	1276424	OK	0.7952191	-0.2512161	0.5518306	0	-123.332	-39.915	12.87	B5-03822-P04-CH1	1276424	OK	0.8221733	-0.5689553	0.0179133	0	-109.602	-52.478	10.692	NA
0.369708557107053	B5-03822-P01-CH0	1276432	OK	0.1987038	0.0570796	0.0807502	-0.975058	102.127	-37.818	-293.021	B5-03822-P02-CH0	1276432	OK	0.731744	0.0104744	-0.6814991	0	-82.019	-94.51	1.17	B5-03822-P02-CH1	1276432	OK	0.7401665	-0.2184374	-0.6359549	0	-77.987	-77.505	0.562	B5-03822-P03-CH0	1276432	OK	0.7782774	-0.3052785	-0.5487161	0	-94.599	-58.053	7.268	B5-03822-P03-CH1	1276432	OK	0.804936	-0.5345673	0.2575185	0	-98.299	-34.203	12.292	B5-03822-P04-CH0	1276432	OK	0.7952991	-0.2507939	0.5519073	0	-123.52	-40.243	12.619	B5-03822-P04-CH1	1276432	OK	0.8223782	-0.5686074	0.0194854	0	-109.643	-52.624	10.378	NA
0.379700680272109	B5-03822-P01-CH0	1276440	OK	0.1987682	0.0568957	0.0808978	-0.9750434	102.098	-37.849	-293.095	B5-03822-P02-CH0	1276440	OK	0.732641	0.011656	-0.6805154	0	-81.697	-94.588	1.206	B5-03822-P02-CH1	1276440	OK	0.7400113	-0.2241622	-0.6341408	0	-77.024	-77.436	2.518	B5-03822-P03-CH0	1276440	OK	0.7840659	-0.3180695	-0.5329846	0	-94.314	-58.976	7.183	B5-03822-P03-CH1	1276440	OK	0.8050507	-0.5338446	0.2586567	0	-98.15	-34.394	11.909	B5-03822-P04-CH0	1276440	OK	0.7953856	-0.2505547	0.5518913	0	-123.624	-40.733	13.031	B5-03822-P04-CH1	1276440	OK	0.8226185	-0.5682146	0.0207615	0	-109.839	-52.691	10.328	NA
0.389692803437164	B5-03822-P01-CH0	1276448	OK	0.1988964	0.0573616	0.0800125	-0.975063	102.309	-38.022	-293.084	B5-03822-P02-CH0	1276448	OK	0.733309	0.0126318	-0.6797782	0	-81.369	-94.899	1.576	B5-03822-P02-CH1	1276448	OK	0.7376732	-0.2238239	-0.6369781	0	-76.788	-75.969	-0.102	B5-03822-P03-CH0	1276448	OK	0.7889783	-0.3264291	-0.5205355	0	-95.403	-58.842	8.1	B5-03822-P03-CH1	1276448	OK	0.8053034	-0.5336098	0.2583544	0	-98.252	-33.709	10.619	B5-03822-P04-CH0	1276448	OK	0.7953082	-0.2506343	0.5519667	0	-123.932	-41.394	13.103	B5-03822-P04-CH1	1276448	OK	0.8221412	-0.568851	0.0221889	0	-110.256	-53.07	10.341	NA
0.39968492660222	B5-03822-P01-CH0	1276456	OK	0.1989784	0.0575365	0.0797345	-0.9750588	102.402	-38.059	-293.063	B5-03822-P02-CH0	1276456	OK	0.7338278	0.0140196	-0.6791908	0	-81.086	-94.92	1.69	B5-03822-P02-CH1	1276456	OK	0.7335735	-0.2258887	-0.6409713	0	-77.241	-76.382	-2.909	B5-03822-P03-CH0	1276456	OK	0.7928589	-0.3346698	-0.5092847	0	-95.867	-58.814	8.942	B5-03822-P03-CH1	1276456	OK	0.8055182	-0.5328747	0.2592008	0	-98.485	-33.988	10.95	B5-03822-P04-CH0	1276456	OK	0.7955064	-0.2502329	0.5518632	0	-124.195	-41.571	13.223	B5-03822-P04-CH1	1276456	OK	0.8218885	-0.5691568	0.0236627	0	-110.676	-53.376	10.231	NA
0.409677049767275	B5-03822-P01-CH0	1276464	OK	0.1989921	0.057579	0.0794777	-0.9750744	102.487	-38.067	-293.224	B5-03822-P02-CH0	1276464	OK	0.7346473	0.0152803	-0.6782771	0	-80.67	-94.873	1.73	B5-03822-P02-CH1	1276464	OK	0.7293064	-0.2280994	-0.6450448	0	-77.986	-76.852	-2.473	B5-03822-P03-CH0	1276464	OK	0.794005	-0.3417152	-0.5027791	0	-95.474	-60.158	8.811	B5-03822-P03-CH1	1276464	OK	0.8056965	-0.5321898	0.2600523	0	-98.608	-34.518	12.178	B5-03822-P04-CH0	1276464	OK	0.7956126	-0.249615	0.5519899	0	-124.383	-42.135	13.855	B5-03822-P04-CH1	1276464	OK	0.8218305	-0.569188	0.0248922	0	-110.941	-53.603	10.467	NA
0.419669172932331	B5-03822-P01-CH0	1276472	OK	0.1991347	0.057854	0.0788105	-0.9750832	102.555	-38.115	-293.024	B5-03822-P02-CH0	1276472	OK	0.735047	0.0156992	-0.6778344	0	-80.352	-94.981	1.827	B5-03822-P02-CH1	1276472	OK	0.7254261	-0.2260426	-0.6501243	0	-79.535	-76.062	0.33	B5-03822-P03-CH0	1276472	OK	0.7956338	-0.3452953	-0.4977328	0	-94.646	-60.851	9.209	B5-03822-P03-CH1	1276472	OK	0.8055242	-0.5320589	0.2608527	0	-98.736	-35.096	12.776	B5-03822-P04-CH0	1276472	OK	0.7958872	-0.2489424	0.5518979	0	-124.623	-42.511	14.175	B5-03822-P04-CH1	1276472	OK	0.8216037	-0.5694412	0.0265347	0	-111.047	-53.779	10.373	NA
0.429661296097386	B5-03822-P01-CH0	1276480	OK	0.1992439	0.0579726	0.0782496	-0.975099	102.573	-38.093	-292.86	B5-03822-P02-CH0	1276480	OK	0.7349312	0.0160116	-0.6779527	0	-80.233	-95.124	2.304	B5-03822-P02-CH1	1276480	OK	0.7276728	-0.2271379	-0.6472254	0	-77.361	-75.877	-0.766	B5-03822-P03-CH0	1276480	OK	0.7932947	-0.3456643	-0.5011982	0	-95.654	-59.958	8.223	B5-03822-P03-CH1	1276480	OK	0.8052968	-0.5320627	0.2615461	0	-98.642	-35.583	13.322	B5-03822-P04-CH0	1276480	OK	0.7959592	-0.2486706	0.5519166	0	-124.622	-42.774	14.557	B5-03822-P04-CH1	1276480	OK	0.8215578	-0.5694591	0.0275514	0	-111.12	-53.76	10.44	NA
0.439653419262442	B5-03822-P01-CH0	1276488	OK	0.1996749	0.0580955	0.0787647	-0.974962	102.691	-37.936	-292.851	B5-03822-P02-CH0	1276488	OK	0.7347869	0.0163001	-0.6781021	0	-79.99	-95.176	2.554	B5-03822-P02-CH1	1276488	OK	0.7244058	-0.2310328	-0.6495075	0	-77.697	-76.911	-1.48	B5-03822-P03-CH0	1276488	OK	0.7933748	-0.3423532	-0.5033396	0	-95.446	-58.914	8.097	B5-03822-P03-CH1	1276488	OK	0.8056638	-0.5314488	0.2616639	0	-98.779	-36.004	13.49	B5-03822-P04-CH0	1276488	OK	0.7963565	-0.2484624	0.5514371	0	-124.704	-42.707	14.469	B5-03822-P04-CH1	1276488	OK	0.8219295	-0.5688592	0.0288292	0	-111.223	-53.994	10.776	NA
0.449645542427497	B5-03822-P01-CH0	1276496	OK	0.1995586	0.058037	0.0781676	-0.9750374	102.689	-37.968	-292.829	B5-03822-P02-CH0	1276496	OK	0.7308227	0.0211879	-0.6822384	0	-79.257	-95.491	0.861	B5-03822-P02-CH1	1276496	OK	0.721149	-0.2319521	-0.6527958	0	-77.235	-76.85	1.33	B5-03822-P03-CH0	1276496	OK	0.7920113	-0.3440171	-0.5043513	0	-95.246	-58.892	6.979	B5-03822-P03-CH1	1276496	OK	0.8055147	-0.5318859	0.2612346	0	-98.792	-35.973	13.12	B5-03822-P04-CH0	1276496	OK	0.7960932	-0.2503046	0.5509838	0	-124.476	-42.369	13.922	B5-03822-P04-CH1	1276496	OK	0.8218231	-0.5689943	0.0291925	0	-111.22	-53.96	10.692	NA
0.459637665592553	B5-03822-P01-CH0	1276504	OK	0.1997493	0.0578192	0.0779752	-0.9750267	102.627	-38.024	-292.77	B5-03822-P02-CH0	1276504	OK	0.7298721	0.0216471	-0.6832409	0	-78.038	-94.726	-0.889	B5-03822-P02-CH1	1276504	OK	0.7197932	-0.2343907	-0.6534208	0	-75.145	-76.509	-2.307	B5-03822-P03-CH0	1276504	OK	0.7909421	-0.3482303	-0.5031364	0	-94.607	-59.43	7.347	B5-03822-P03-CH1	1276504	OK	0.8057587	-0.5318595	0.2605347	0	-98.891	-35.643	12.232	B5-03822-P04-CH0	1276504	OK	0.7958854	-0.2529025	0.550097	0	-124.111	-41.595	12.755	B5-03822-P04-CH1	1276504	OK	0.8218992	-0.5688609	0.0296474	0	-110.959	-54.104	10.898	NA
0.469629788757608	B5-03822-P01-CH0	1276512	OK	0.1995363	0.0582276	0.0772476	-0.9751039	102.821	-37.955	-292.736	B5-03822-P02-CH0	1276512	OK	0.726888	0.0229902	-0.6863711	0	-77.062	-93.675	-0.391	B5-03822-P02-CH1	1276512	OK	0.7160921	-0.2404276	-0.6552913	0	-73.449	-76.424	-1.661	B5-03822-P03-CH0	1276512	OK	0.7871289	-0.3526065	-0.5060601	0	-95.91	-59.46	7.214	B5-03822-P03-CH1	1276512	OK	0.8053128	-0.5326698	0.2602579	0	-99.119	-35.888	12.6	B5-03822-P04-CH0	1276512	OK	0.7959053	-0.269858	0.5419514	0	-123.401	-41.046	10.508	B5-03822-P04-CH1	1276512	OK	0.8215561	-0.5693795	0.0291972	0	-111.04	-54.076	11.139	NA
0.479621911922664	B5-03822-P01-CH0	1276520	OK	0.1994867	0.0586513	0.0761818	-0.9751725	103.005	-38.009	-292.723	B5-03822-P02-CH0	1276520	OK	0.7215209	0.0221662	-0.6920378	0	-76.553	-94.131	-0.072	B5-03822-P02-CH1	1276520	OK	0.7095172	-0.2499698	-0.658863	0	-73.481	-74.735	-3.578	B5-03822-P03-CH0	1276520	OK	0.7864341	-0.3543245	-0.5059404	0	-94.652	-59.735	7.713	B5-03822-P03-CH1	1276520	OK	0.8049812	-0.5333207	0.2599507	0	-99.285	-36.152	13.678	B5-03822-P04-CH0	1276520	OK	0.797159	-0.2750217	0.5374947	0	-123.963	-42.343	12.434	B5-03822-P04-CH1	1276520	OK	0.8208167	-0.5704566	0.0289692	0	-111.114	-54.323	11.224	NA
0.489614035087719	B5-03822-P01-CH0	1276528	OK	0.1992204	0.0585682	0.0758036	-0.9752614	102.956	-37.881	-292.667	B5-03822-P02-CH0	1276528	OK	0.7160172	0.0201449	-0.6977919	0	-75.189	-93.552	-2.517	B5-03822-P02-CH1	1276528	OK	0.7002478	-0.257724	-0.6657562	0	-75.228	-74.465	-2.258	B5-03822-P03-CH0	1276528	OK	0.7869906	-0.3574047	-0.5028993	0	-93.093	-59.999	7.547	B5-03822-P03-CH1	1276528	OK	0.8044413	-0.5342378	0.2597387	0	-99.192	-36.475	14.484	B5-03822-P04-CH0	1276528	OK	0.7966315	-0.2838862	0.5336543	0	-122.61	-39.34	10.296	B5-03822-P04-CH1	1276528	OK	0.8206036	-0.5707904	0.0284272	0	-110.969	-54.206	11.441	NA
0.499606158252775	B5-03822-P01-CH0	1276536	OK	0.1992827	0.058473	0.075625	-0.9752683	102.934	-37.75	-292.748	B5-03822-P02-CH0	1276536	OK	0.7088957	0.0149289	-0.7051553	0	-73.715	-93.401	-2.322	B5-03822-P02-CH1	1276536	OK	0.6944835	-0.2625078	-0.6699122	0	-75.394	-75.587	-0.532	B5-03822-P03-CH0	1276536	OK	0.7845337	-0.354102	-0.509037	0	-93.864	-59.024	6.803	B5-03822-P03-CH1	1276536	OK	0.8038365	-0.5353281	0.259366	0	-99.052	-36.499	14.144	B5-03822-P04-CH0	1276536	OK	0.7975058	-0.2863065	0.5310491	0	-123.066	-41.408	12.786	B5-03822-P04-CH1	1276536	OK	0.8206421	-0.5707478	0.0281709	0	-110.772	-54.083	11.622	NA
0.50959828141783	B5-03822-P01-CH0	1276544	OK	0.1996353	0.0580278	0.0762815	-0.9751716	102.807	-37.603	-292.761	B5-03822-P02-CH0	1276544	OK	0.6995303	0.005523	-0.7145816	0	-72.175	-93.868	-0.313	B5-03822-P02-CH1	1276544	OK	0.6938669	-0.2664351	-0.669	0	-72.937	-74.818	0.685	B5-03822-P03-CH0	1276544	OK	0.7841982	-0.3531969	-0.5101815	0	-93.048	-58.411	4.808	B5-03822-P03-CH1	1276544	OK	0.803741	-0.5357338	0.2588236	0	-98.616	-36.173	13.28	B5-03822-P04-CH0	1276544	OK	0.7977652	-0.2895475	0.5288979	0	-123.189	-41.953	12.93	B5-03822-P04-CH1	1276544	OK	0.8209919	-0.5702314	0.0284323	0	-110.576	-54.092	11.546	NA
0.519590404582886	B5-03822-P01-CH0	1276552	OK	0.199507	0.0579317	0.0761185	-0.9752163	102.812	-37.6	-292.774	B5-03822-P02-CH0	1276552	OK	0.6887162	-0.0053871	-0.725011	0	-70.213	-92.18	-3.217	B5-03822-P02-CH1	1276552	OK	0.688742	-0.2706362	-0.6725998	0	-72.333	-73.547	-2.463	B5-03822-P03-CH0	1276552	OK	0.7826687	-0.3561091	-0.5105057	0	-92.573	-59.454	7.008	B5-03822-P03-CH1	1276552	OK	0.8037269	-0.5364469	0.2573865	0	-98.863	-35.459	11.999	B5-03822-P04-CH0	1276552	OK	0.7965187	-0.2999481	0.5249659	0	-121.508	-38.339	9.032	B5-03822-P04-CH1	1276552	OK	0.8206985	-0.5706829	0.027838	0	-110.557	-54.194	11.327	NA
0.529582527747941	B5-03822-P01-CH0	1276560	OK	0.1996083	0.0578781	0.0758333	-0.975221	102.867	-37.694	-292.931	B5-03822-P02-CH0	1276560	OK	0.6787268	-0.0153762	-0.7342299	0	-69.277	-92.129	-2.535	B5-03822-P02-CH1	1276560	OK	0.6867279	-0.2730705	-0.6736745	0	-69.853	-72.551	-5.438	B5-03822-P03-CH0	1276560	OK	0.7788332	-0.3599751	-0.5136505	0	-94.338	-59.261	7.695	B5-03822-P03-CH1	1276560	OK	0.8035369	-0.5368335	0.2571735	0	-99.14	-35.668	12.349	B5-03822-P04-CH0	1276560	OK	0.7979107	-0.2991801	0.5232874	0	-122.667	-42.032	13.786	B5-03822-P04-CH1	1276560	OK	0.8202612	-0.5713237	0.0275823	0	-110.492	-54.512	11.229	NA
0.539574650912997	B5-03822-P01-CH0	1276568	OK	0.1994929	0.0575939	0.0750165	-0.9753246	102.779	-37.744	-293.091	B5-03822-P02-CH0	1276568	OK	0.6737246	-0.0250224	-0.7385587	0	-68.544	-92.295	-3.106	B5-03822-P02-CH1	1276568	OK	0.6829692	-0.2651608	-0.6806194	0	-72.44	-71.839	-5.021	B5-03822-P03-CH0	1276568	OK	0.7769119	-0.3625688	-0.5147346	0	-93.88	-59.261	7.023	B5-03822-P03-CH1	1276568	OK	0.8025787	-0.5382381	0.2572297	0	-98.806	-35.844	12.763	B5-03822-P04-CH0	1276568	OK	0.7963639	-0.3059441	0.5217306	0	-121.54	-38.868	9.267	B5-03822-P04-CH1	1276568	OK	0.8197804	-0.5720532	0.0267436	0	-110.393	-54.445	11.241	NA
0.549566774078052	B5-03822-P01-CH0	1276576	OK	0.1998098	0.0575187	0.0757334	-0.9752087	102.808	-37.622	-293.095	B5-03822-P02-CH0	1276576	OK	0.6712815	-0.0345141	-0.7403985	0	-67.527	-91.494	-2.904	B5-03822-P02-CH1	1276576	OK	0.6827766	-0.2585825	-0.6833383	0	-73.261	-72.27	-1.723	B5-03822-P03-CH0	1276576	OK	0.7778756	-0.3604117	-0.514794	0	-92.637	-57.84	5.316	B5-03822-P03-CH1	1276576	OK	0.802996	-0.5379864	0.2564529	0	-98.694	-35.444	12.689	B5-03822-P04-CH0	1276576	OK	0.7970865	-0.3035497	0.5220256	0	-122.2	-42.204	12.687	B5-03822-P04-CH1	1276576	OK	0.8202289	-0.5714327	0.0262531	0	-110.308	-54.294	11.169	NA
0.559558897243108	B5-03822-P01-CH0	1276584	OK	0.1999863	0.0571334	0.0765387	-0.9751323	102.747	-37.464	-293.15	B5-03822-P02-CH0	1276584	OK	0.6663236	-0.0456512	-0.744264	0	-67.771	-90.717	-0.581	B5-03822-P02-CH1	1276584	OK	0.6831542	-0.249099	-0.6864766	0	-72.904	-73.009	-1.766	B5-03822-P03-CH0	1276584	OK	0.7786279	-0.3610111	-0.5132345	0	-93.024	-57.25	5.491	B5-03822-P03-CH1	1276584	OK	0.8028727	-0.5381184	0.2565619	0	-98.73	-35.836	13.029	B5-03822-P04-CH0	1276584	OK	0.7970723	-0.3028775	0.5224375	0	-121.648	-41.643	13.326	B5-03822-P04-CH1	1276584	OK	0.8205544	-0.5709826	0.0258735	0	-110.27	-54.178	11.001	NA
0.569551020408163	B5-03822-P01-CH0	1276592	OK	0.2002606	0.0569897	0.0767758	-0.9750658	102.741	-37.422	-293.236	B5-03822-P02-CH0	1276592	OK	0.6618298	-0.0545144	-0.7476694	0	-67.623	-90.695	-1.76	B5-03822-P02-CH1	1276592	OK	0.6857934	-0.2427689	-0.6861127	0	-70.943	-71.725	-1.928	B5-03822-P03-CH0	1276592	OK	0.7799648	-0.3614564	-0.5108857	0	-94.59	-57.067	6.313	B5-03822-P03-CH1	1276592	OK	0.802516	-0.5385238	0.2568272	0	-98.509	-36.215	13.321	B5-03822-P04-CH0	1276592	OK	0.797174	-0.3021864	0.5226825	0	-121.954	-41.042	11.994	B5-03822-P04-CH1	1276592	OK	0.820683	-0.5708125	0.0255431	0	-110.252	-54.279	11.443	NA
0.579543143573219	B5-03822-P01-CH0	1276600	OK	0.2005659	0.0565901	0.0775164	-0.9749677	102.635	-37.257	-293.191	B5-03822-P02-CH0	1276600	OK	0.6601568	-0.0605284	-0.748685	0	-66.276	-90.169	-2.688	B5-03822-P02-CH1	1276600	OK	0.685363	-0.2425805	-0.6866092	0	-71.178	-72.54	0.102	B5-03822-P03-CH0	1276600	OK	0.7839814	-0.362407	-0.5040182	0	-94.531	-57.166	6.239	B5-03822-P03-CH1	1276600	OK	0.8027454	-0.5384226	0.2563217	0	-98.381	-35.658	12.057	B5-03822-P04-CH0	1276600	OK	0.7968301	-0.2987353	0.5251847	0	-121.308	-39.482	11.272	B5-03822-P04-CH1	1276600	OK	0.8211024	-0.5702176	0.0253542	0	-110.136	-54.071	11.243	NA
0.589535266738274	B5-03822-P01-CH0	1276608	OK	0.201163	0.0563891	0.0781019	-0.9748096	102.68	-37.264	-293.326	B5-03822-P02-CH0	1276608	OK	0.6594305	-0.0621051	-0.7491958	0	-66.052	-89.423	-2.09	B5-03822-P02-CH1	1276608	OK	0.6864614	-0.2448471	-0.6847048	0	-70.414	-73.08	-1.608	B5-03822-P03-CH0	1276608	OK	0.786663	-0.3615249	-0.5004608	0	-94.183	-57.261	5.745	B5-03822-P03-CH1	1276608	OK	0.8032115	-0.5377275	0.256321	0	-98.702	-35.649	11.721	B5-03822-P04-CH0	1276608	OK	0.7972444	-0.2995285	0.524103	0	-121.325	-39.973	11.767	B5-03822-P04-CH1	1276608	OK	0.8216305	-0.5694658	0.0251402	0	-110.156	-53.997	11.347	NA
0.59952738990333	B5-03822-P01-CH0	1276616	OK	0.2014084	0.0564434	0.078211	-0.9747471	102.733	-37.209	-293.265	B5-03822-P02-CH0	1276616	OK	0.658337	-0.0600534	-0.7503239	0	-67.927	-90.611	-1.192	B5-03822-P02-CH1	1276616	OK	0.6883583	-0.2513411	-0.6804341	0	-69.465	-71.185	-4.625	B5-03822-P03-CH0	1276616	OK	0.7870734	-0.3590591	-0.5015895	0	-95.514	-56.722	6.367	B5-03822-P03-CH1	1276616	OK	0.8030952	-0.5377305	0.2566788	0	-98.829	-35.934	11.911	B5-03822-P04-CH0	1276616	OK	0.7974193	-0.3012749	0.5228345	0	-121.27	-39.686	11.358	B5-03822-P04-CH1	1276616	OK	0.8216252	-0.5694771	0.0250559	0	-110.18	-53.888	11.053	NA
0.609519513068385	B5-03822-P01-CH0	1276624	OK	0.2013552	0.0565162	0.07768	-0.9747963	102.828	-37.199	-293.38	B5-03822-P02-CH0	1276624	OK	0.6629229	-0.0594278	-0.7463253	0	-67.692	-90.617	-2.959	B5-03822-P02-CH1	1276624	OK	0.6832728	-0.2604905	-0.6821166	0	-72.972	-70.709	-2.613	B5-03822-P03-CH0	1276624	OK	0.7904768	-0.3567877	-0.4978442	0	-93.639	-57.777	8.22	B5-03822-P03-CH1	1276624	OK	0.8028536	-0.5381917	0.2564679	0	-99.061	-36.051	12.38	B5-03822-P04-CH0	1276624	OK	0.7974813	-0.3022438	0.5221803	0	-121.407	-40.042	11.911	B5-03822-P04-CH1	1276624	OK	0.8214086	-0.5698158	0.0244531	0	-110.193	-53.65	11.126	NA
0.619511636233441	B5-03822-P01-CH0	1276632	OK	0.2017113	0.0563008	0.0774243	-0.9747555	102.85	-37.191	-293.544	B5-03822-P02-CH0	1276632	OK	0.6681847	-0.0611303	-0.7414798	0	-67.499	-90.396	-1.808	B5-03822-P02-CH1	1276632	OK	0.6845619	-0.269115	-0.67746	0	-73.108	-71.738	-1.924	B5-03822-P03-CH0	1276632	OK	0.7908559	-0.3546563	-0.4987643	0	-93.986	-57.938	7.504	B5-03822-P03-CH1	1276632	OK	0.8025997	-0.5385021	0.2566111	0	-98.685	-36.036	12.675	B5-03822-P04-CH0	1276632	OK	0.797399	-0.3023738	0.5222307	0	-121.393	-40.576	12.445	B5-03822-P04-CH1	1276632	OK	0.8214954	-0.5696933	0.0243915	0	-110.126	-53.525	11.482	NA
0.629503759398496	B5-03822-P01-CH0	1276640	OK	0.20181	0.0564307	0.0772075	-0.9747447	102.915	-37.124	-293.446	B5-03822-P02-CH0	1276640	OK	0.6734844	-0.0616866	-0.736623	0	-68.059	-90.763	-1.728	B5-03822-P02-CH1	1276640	OK	0.691381	-0.2733758	-0.6687735	0	-71.432	-72.596	-1.207	B5-03822-P03-CH0	1276640	OK	0.7886859	-0.3530623	-0.5033106	0	-95.968	-57.887	7.958	B5-03822-P03-CH1	1276640	OK	0.8022774	-0.5390545	0.2564588	0	-98.707	-36.008	12.278	B5-03822-P04-CH0	1276640	OK	0.7975297	-0.3026841	0.5218513	0	-121.462	-40.52	12.393	B5-03822-P04-CH1	1276640	OK	0.8214713	-0.5697443	0.0240069	0	-110.279	-53.33	11.476	NA
0.639495882563552	B5-03822-P01-CH0	1276648	OK	0.20199	0.0567733	0.0772444	-0.9746846	103.18	-37.196	-293.441	B5-03822-P02-CH0	1276648	OK	0.6782803	-0.064894	-0.7319321	0	-69.436	-91.219	-2.358	B5-03822-P02-CH1	1276648	OK	0.6982397	-0.2661162	-0.6645627	0	-72.329	-71.978	-0.219	B5-03822-P03-CH0	1276648	OK	0.7889074	-0.3515965	-0.503989	0	-95.43	-58.362	6.946	B5-03822-P03-CH1	1276648	OK	0.8022323	-0.5394233	0.2558239	0	-98.554	-35.772	11.435	B5-03822-P04-CH0	1276648	OK	0.7978561	-0.3026315	0.5213826	0	-121.654	-40.708	12.56	B5-03822-P04-CH1	1276648	OK	0.8215168	-0.5696716	0.0241758	0	-110.274	-53.483	11.632	NA
0.649488005728607	B5-03822-P01-CH0	1276656	OK	0.2020293	0.0571063	0.0762673	-0.974734	103.388	-37.295	-293.505	B5-03822-P02-CH0	1276656	OK	0.6838968	-0.0673883	-0.7264599	0	-70.173	-90.538	-2.107	B5-03822-P02-CH1	1276656	OK	0.7032441	-0.2573215	-0.6627469	0	-73.693	-72.772	-1.636	B5-03822-P03-CH0	1276656	OK	0.7899432	-0.3493388	-0.5039367	0	-94.742	-58.384	8.386	B5-03822-P03-CH1	1276656	OK	0.8018139	-0.5402232	0.2554475	0	-98.898	-35.545	10.784	B5-03822-P04-CH0	1276656	OK	0.7978387	-0.3027773	0.5213246	0	-121.861	-40.871	12.84	B5-03822-P04-CH1	1276656	OK	0.8207435	-0.5707752	0.0244097	0	-110.407	-53.817	11.853	NA
0.659480128893663	B5-03822-P01-CH0	1276664	OK	0.2022352	0.0574398	0.0756384	-0.9747207	103.577	-37.412	-293.52	B5-03822-P02-CH0	1276664	OK	0.6870268	-0.0696554	-0.7232857	0	-71.007	-91.641	-2.166	B5-03822-P02-CH1	1276664	OK	0.7073296	-0.2519368	-0.660464	0	-74.212	-73.439	-2.835	B5-03822-P03-CH0	1276664	OK	0.7883986	-0.3467827	-0.5081037	0	-95.757	-57.306	7.315	B5-03822-P03-CH1	1276664	OK	0.801762	-0.5402661	0.2555195	0	-99.172	-35.658	11.418	B5-03822-P04-CH0	1276664	OK	0.7977981	-0.302881	0.5213265	0	-121.901	-40.924	12.871	B5-03822-P04-CH1	1276664	OK	0.8203901	-0.5712867	0.024322	0	-110.531	-53.936	11.796	NA
0.669472252058718	B5-03822-P01-CH0	1276672	OK	0.2024817	0.056889	0.0759724	-0.9746758	103.436	-37.416	-293.639	B5-03822-P02-CH0	1276672	OK	0.6889575	-0.071741	-0.7212425	0	-71.253	-91.539	-0.343	B5-03822-P02-CH1	1276672	OK	0.7085039	-0.2475582	-0.6608609	0	-75.357	-73.074	-0.614	B5-03822-P03-CH0	1276672	OK	0.7886911	-0.3436776	-0.5097569	0	-94.096	-57.745	7.944	B5-03822-P03-CH1	1276672	OK	0.8018812	-0.5400605	0.25558	0	-99.089	-35.441	11.324	B5-03822-P04-CH0	1276672	OK	0.7978797	-0.3024931	0.5214268	0	-121.889	-40.899	12.78	B5-03822-P04-CH1	1276672	OK	0.8206222	-0.5709413	0.0245997	0	-110.324	-53.871	11.548	NA
0.679464375223774	B5-03822-P01-CH0	1276680	OK	0.2024993	0.0569688	0.0758447	-0.9746775	103.554	-37.467	-293.752	B5-03822-P02-CH0	1276680	OK	0.6903416	-0.0742637	-0.719662	0	-71.45	-92.252	-1.807	B5-03822-P02-CH1	1276680	OK	0.7096621	-0.2432274	-0.6612262	0	-75.141	-73.535	-0.628	B5-03822-P03-CH0	1276680	OK	0.7858361	-0.3443782	-0.5136781	0	-94.46	-58.754	7.904	B5-03822-P03-CH1	1276680	OK	0.8017368	-0.5404308	0.25525	0	-99.12	-35.4	11.535	B5-03822-P04-CH0	1276680	OK	0.7979121	-0.3021578	0.5215716	0	-122.117	-41.17	12.901	B5-03822-P04-CH1	1276680	OK	0.8205106	-0.5710998	0.0246439	0	-110.288	-54.017	11.852	NA
0.689456498388829	B5-03822-P01-CH0	1276688	OK	0.2024438	0.0567117	0.0763866	-0.9746617	103.511	-37.406	-293.824	B5-03822-P02-CH0	1276688	OK	0.691311	-0.0749675	-0.7186577	0	-71.426	-92.076	-1.963	B5-03822-P02-CH1	1276688	OK	0.7124362	-0.2395639	-0.6595785	0	-74.007	-73.615	-0.892	B5-03822-P03-CH0	1276688	OK	0.7844558	-0.3395116	-0.5189999	0	-93.81	-59.115	7.883	B5-03822-P03-CH1	1276688	OK	0.8014887	-0.5408214	0.2552019	0	-99.035	-35.575	11.508	B5-03822-P04-CH0	1276688	OK	0.797904	-0.3016688	0.5218669	0	-122.116	-41.076	12.872	B5-03822-P04-CH1	1276688	OK	0.8206995	-0.5708342	0.024507	0	-110.303	-53.948	11.498	NA
0.699448621553885	B5-03822-P01-CH0	1276696	OK	0.2026704	0.0563817	0.0769354	-0.9745906	103.482	-37.447	-293.938	B5-03822-P02-CH0	1276696	OK	0.6904067	-0.0753559	-0.7194859	0	-71.754	-92.427	-1.728	B5-03822-P02-CH1	1276696	OK	0.7140062	-0.2392666	-0.6579868	0	-73.712	-73.625	0.028	B5-03822-P03-CH0	1276696	OK	0.7827209	-0.3332326	-0.5256463	0	-94.401	-57.649	5.726	B5-03822-P03-CH1	1276696	OK	0.8015537	-0.5407423	0.2551655	0	-98.873	-35.648	11.563	B5-03822-P04-CH0	1276696	OK	0.7978874	-0.3006337	0.5224892	0	-122.201	-41.325	12.889	B5-03822-P04-CH1	1276696	OK	0.8210079	-0.5703917	0.0244818	0	-110.229	-53.935	11.271	NA
0.70944074471894	B5-03822-P01-CH0	1276704	OK	0.2027389	0.0565994	0.0769169	-0.9745651	103.579	-37.541	-293.823	B5-03822-P02-CH0	1276704	OK	0.6886291	-0.0714914	-0.7215808	0	-71.821	-93.086	-2.321	B5-03822-P02-CH1	1276704	OK	0.7116342	-0.2336286	-0.6625666	0	-75.921	-73.784	-2.617	B5-03822-P03-CH0	1276704	OK	0.7800995	-0.3282182	-0.5326515	0	-94.372	-57.379	6.2	B5-03822-P03-CH1	1276704	OK	0.8018102	-0.5409383	0.2539412	0	-98.953	-34.696	10.085	B5-03822-P04-CH0	1276704	OK	0.7977039	-0.3000082	0.5231287	0	-122.247	-41.444	12.767	B5-03822-P04-CH1	1276704	OK	0.8211197	-0.5702458	0.0241273	0	-110.283	-53.924	11.298	NA
0.719432867883996	B5-03822-P01-CH0	1276712	OK	0.2028201	0.0565146	0.0776397	-0.9744959	103.535	-37.48	-293.766	B5-03822-P02-CH0	1276712	OK	0.6870325	-0.0680686	-0.7234314	0	-71.539	-93.074	-2.159	B5-03822-P02-CH1	1276712	OK	0.7135784	-0.2335326	-0.6605061	0	-75.699	-74.543	-2.848	B5-03822-P03-CH0	1276712	OK	0.7765392	-0.3242447	-0.5402336	0	-94.674	-57.575	6.564	B5-03822-P03-CH1	1276712	OK	0.801854	-0.5407206	0.2542665	0	-99.37	-35.065	10.353	B5-03822-P04-CH0	1276712	OK	0.7978481	-0.2989152	0.5235343	0	-122.313	-41.134	12.619	B5-03822-P04-CH1	1276712	OK	0.8214952	-0.5697101	0.0240023	0	-110.283	-53.797	10.956	NA
0.729424991049051	B5-03822-P01-CH0	1276720	OK	0.2029845	0.0560922	0.0783312	-0.9744307	103.401	-37.416	-293.912	B5-03822-P02-CH0	1276720	OK	0.6870977	-0.0656311	-0.7235947	0	-70.344	-92.831	-2.642	B5-03822-P02-CH1	1276720	OK	0.7155974	-0.2323613	-0.6587326	0	-75.811	-73.632	-0.602	B5-03822-P03-CH0	1276720	OK	0.7751743	-0.3205777	-0.5443664	0	-94.378	-57.535	7.049	B5-03822-P03-CH1	1276720	OK	0.8016529	-0.5408237	0.2546807	0	-99.216	-35.456	10.912	B5-03822-P04-CH0	1276720	OK	0.7973999	-0.2986301	0.5243791	0	-122.102	-40.533	11.857	B5-03822-P04-CH1	1276720	OK	0.8217863	-0.5692787	0.0242699	0	-110.011	-53.875	11.099	NA
0.739417114214107	B5-03822-P01-CH0	1276728	OK	0.2031003	0.055923	0.0782673	-0.9744214	103.262	-37.415	-293.987	B5-03822-P02-CH0	1276728	OK	0.6865001	-0.0637685	-0.7243281	0	-69.591	-93.167	-2.869	B5-03822-P02-CH1	1276728	OK	0.7181875	-0.2291009	-0.6570537	0	-75.587	-72.946	1.366	B5-03822-P03-CH0	1276728	OK	0.7745922	-0.3200973	-0.5454765	0	-93.881	-58.22	5.549	B5-03822-P03-CH1	1276728	OK	0.8015155	-0.5409756	0.2547909	0	-99.275	-35.454	11.374	B5-03822-P04-CH0	1276728	OK	0.7970419	-0.297581	0.5255186	0	-121.998	-40.441	12.004	B5-03822-P04-CH1	1276728	OK	0.8215154	-0.5696631	0.0244224	0	-109.812	-54.011	11.091	NA
0.749409237379162	B5-03822-P01-CH0	1276736	OK	0.203391	0.0555818	0.0791217	-0.9743113	103.119	-37.366	-294.134	B5-03822-P02-CH0	1276736	OK	0.6839826	-0.0616318	-0.7268902	0	-69.811	-92.312	-2.392	B5-03822-P02-CH1	1276736	OK	0.7196784	-0.2278525	-0.6558553	0	-75.509	-73.914	-0.064	B5-03822-P03-CH0	1276736	OK	0.7731662	-0.3169649	-0.5493152	0	-95.011	-57.504	5.275	B5-03822-P03-CH1	1276736	OK	0.8016005	-0.5409042	0.2546749	0	-99.108	-35.469	11.162	B5-03822-P04-CH0	1276736	OK	0.7967744	-0.2970297	0.5262355	0	-121.744	-39.815	11.359	B5-03822-P04-CH1	1276736	OK	0.8221505	-0.5687504	0.0243217	0	-109.548	-53.813	11.122	NA
0.759401360544218	B5-03822-P01-CH0	1276744	OK	0.2034295	0.0552084	0.0800548	-0.9742483	102.985	-37.294	-294.188	B5-03822-P02-CH0	1276744	OK	0.6819258	-0.0614851	-0.7288324	0	-69.941	-92.355	-2.332	B5-03822-P02-CH1	1276744	OK	0.7229257	-0.2267355	-0.6526633	0	-73.927	-73.668	0.205	B5-03822-P03-CH0	1276744	OK	0.7749229	-0.3157581	-0.547532	0	-93.186	-58.081	5.093	B5-03822-P03-CH1	1276744	OK	0.8014702	-0.5411581	0.2545453	0	-98.67	-35.333	10.227	B5-03822-P04-CH0	1276744	OK	0.7966274	-0.2963305	0.526852	0	-121.64	-39.582	11.171	B5-03822-P04-CH1	1276744	OK	0.822615	-0.5680776	0.024339	0	-109.439	-53.771	11.079	NA
0.769393483709273	B5-03822-P01-CH0	1276752	OK	0.2034051	0.055653	0.0799005	-0.9742408	103.121	-37.333	-294.039	B5-03822-P02-CH0	1276752	OK	0.6800752	-0.0609425	-0.730605	0	-69.76	-91.899	-1.766	B5-03822-P02-CH1	1276752	OK	0.7215151	-0.2232666	-0.6554144	0	-75.08	-74.149	0.66	B5-03822-P03-CH0	1276752	OK	0.7739027	-0.3170922	-0.5482036	0	-92.863	-59.418	5.374	B5-03822-P03-CH1	1276752	OK	0.801602	-0.5414162	0.25358	0	-98.702	-34.833	9.628	B5-03822-P04-CH0	1276752	OK	0.7963145	-0.2961351	0.5274346	0	-121.63	-39.453	11.065	B5-03822-P04-CH1	1276752	OK	0.8223769	-0.568434	0.0240618	0	-109.548	-53.892	11.07	NA
0.779385606874329	B5-03822-P01-CH0	1276760	OK	0.2034388	0.0556962	0.0796858	-0.9742488	103.112	-37.424	-294.003	B5-03822-P02-CH0	1276760	OK	0.6772473	-0.0594112	-0.7333528	0	-70.366	-92.175	-1.771	B5-03822-P02-CH1	1276760	OK	0.7249681	-0.2210238	-0.652357	0	-73.296	-75.039	-3.355	B5-03822-P03-CH0	1276760	OK	0.7714441	-0.314166	-0.5533296	0	-94.563	-58.449	6.487	B5-03822-P03-CH1	1276760	OK	0.8016192	-0.5416623	0.2529991	0	-98.786	-34.483	9.127	B5-03822-P04-CH0	1276760	OK	0.7959542	-0.295984	0.5280629	0	-121.502	-39.291	10.935	B5-03822-P04-CH1	1276760	OK	0.8224304	-0.5683609	0.0239603	0	-109.395	-53.737	10.876	NA
0.789377730039384	B5-03822-P01-CH0	1276768	OK	0.2035163	0.0558439	0.079319	-0.9742541	103.099	-37.447	-293.877	B5-03822-P02-CH0	1276768	OK	0.676132	-0.0580304	-0.7344917	0	-70.346	-92.823	-0.779	B5-03822-P02-CH1	1276768	OK	0.7237711	-0.2211667	-0.6536365	0	-75.162	-75.446	-2.835	B5-03822-P03-CH0	1276768	OK	0.7719078	-0.3094058	-0.5553615	0	-94.42	-57.276	6.334	B5-03822-P03-CH1	1276768	OK	0.8012147	-0.5421299	0.2532789	0	-98.725	-34.554	9.022	B5-03822-P04-CH0	1276768	OK	0.7956252	-0.2957557	0.5286862	0	-121.456	-39.225	10.778	B5-03822-P04-CH1	1276768	OK	0.822276	-0.5685847	0.0239507	0	-109.292	-53.698	10.918	NA
0.79936985320444	B5-03822-P01-CH0	1276776	OK	0.2033515	0.0563214	0.078754	-0.9743069	103.272	-37.509	-293.886	B5-03822-P02-CH0	1276776	OK	0.6768056	-0.0547409	-0.7341237	0	-69.494	-93.609	-2.119	B5-03822-P02-CH1	1276776	OK	0.7255402	-0.2199717	-0.6520766	0	-75.585	-74.984	-0.999	B5-03822-P03-CH0	1276776	OK	0.772583	-0.3084887	-0.5549326	0	-93.914	-58.256	6.693	B5-03822-P03-CH1	1276776	OK	0.8008196	-0.5428527	0.2529801	0	-98.679	-34.655	9.433	B5-03822-P04-CH0	1276776	OK	0.7955755	-0.2954951	0.5289066	0	-121.556	-39.419	11.47	B5-03822-P04-CH1	1276776	OK	0.8219883	-0.5690091	0.0237445	0	-109.246	-53.756	11.158	NA
0.809361976369495	B5-03822-P01-CH0	1276784	OK	0.2035591	0.0561606	0.0791568	-0.9742402	103.224	-37.438	-293.992	B5-03822-P02-CH0	1276784	OK	0.6761871	-0.0521175	-0.7348842	0	-70.114	-93.987	-2.374	B5-03822-P02-CH1	1276784	OK	0.7296159	-0.2178452	-0.6482316	0	-74.69	-75.347	-0.872	B5-03822-P03-CH0	1276784	OK	0.7738751	-0.3151841	-0.5493417	0	-93.871	-58.239	6.033	B5-03822-P03-CH1	1276784	OK	0.8006699	-0.5428068	0.2535517	0	-98.445	-35.211	10.442	B5-03822-P04-CH0	1276784	OK	0.7955456	-0.294879	0.5292953	0	-121.452	-39.492	11.839	B5-03822-P04-CH1	1276784	OK	0.8221345	-0.5687955	0.023802	0	-109.284	-53.806	11.117	NA
0.819354099534551	B5-03822-P01-CH0	1276792	OK	0.2037531	0.0561138	0.0798138	-0.9741487	103.26	-37.351	-294.167	B5-03822-P02-CH0	1276792	OK	0.6752887	-0.0480036	-0.7359897	0	-71.059	-94.197	-1.512	B5-03822-P02-CH1	1276792	OK	0.7314094	-0.2161749	-0.6467679	0	-75.23	-76.066	-0.208	B5-03822-P03-CH0	1276792	OK	0.7740716	-0.3131385	-0.550234	0	-94.015	-58.068	5.847	B5-03822-P03-CH1	1276792	OK	0.8010481	-0.5422753	0.2534944	0	-98.412	-35.452	11.128	B5-03822-P04-CH0	1276792	OK	0.7956878	-0.2942036	0.5294575	0	-121.428	-39.671	12.326	B5-03822-P04-CH1	1276792	OK	0.8224185	-0.5683829	0.0238473	0	-109.201	-53.871	11.223	NA
0.829346222699606	B5-03822-P01-CH0	1276800	OK	0.2037937	0.0561941	0.0798941	-0.974129	103.314	-37.355	-294.219	B5-03822-P02-CH0	1276800	OK	0.6769318	-0.0440483	-0.7347265	0	-70.723	-93.375	-1.726	B5-03822-P02-CH1	1276800	OK	0.7320293	-0.2111322	-0.6477316	0	-76.15	-76.333	1.117	B5-03822-P03-CH0	1276800	OK	0.7780169	-0.3033839	-0.5501344	0	-93.826	-57.94	5.75	B5-03822-P03-CH1	1276800	OK	0.8012195	-0.5421867	0.2531422	0	-98.169	-35.147	10.778	B5-03822-P04-CH0	1276800	OK	0.795808	-0.2937061	0.5295529	0	-121.453	-39.92	12.779	B5-03822-P04-CH1	1276800	OK	0.8226388	-0.5680847	0.023349	0	-109.283	-53.706	11.245	NA
0.839338345864662	B5-03822-P01-CH0	1276808	OK	0.2037123	0.0561767	0.079892	-0.9741472	103.3	-37.297	-294.062	B5-03822-P02-CH0	1276808	OK	0.67813	-0.0534746	-0.7329939	0	-70.163	-92.814	-1.884	B5-03822-P02-CH1	1276808	OK	0.7339056	-0.2049434	-0.6475961	0	-76.912	-75.657	-1.835	B5-03822-P03-CH0	1276808	OK	0.7769669	-0.3049455	-0.5507546	0	-95.373	-58.523	6.659	B5-03822-P03-CH1	1276808	OK	0.8019342	-0.5417062	0.2519045	0	-98.446	-34.308	10.233	B5-03822-P04-CH0	1276808	OK	0.7957224	-0.2937131	0.5296777	0	-121.417	-40.166	12.997	B5-03822-P04-CH1	1276808	OK	0.8226767	-0.5680487	0.0228856	0	-109.469	-53.504	10.881	NA
0.849330469029717	B5-03822-P01-CH0	1276816	OK	0.2033035	0.0561236	0.0795502	-0.9742636	103.299	-37.353	-293.961	B5-03822-P02-CH0	1276816	OK	0.6793773	-0.0385407	-0.7327763	0	-71.207	-93.552	-2.35	B5-03822-P02-CH1	1276816	OK	0.73741	-0.2038912	-0.643937	0	-76.12	-74.971	-1.589	B5-03822-P03-CH0	1276816	OK	0.7805089	-0.304138	-0.5461739	0	-93.885	-58.902	7.651	B5-03822-P03-CH1	1276816	OK	0.8016642	-0.5419883	0.2521571	0	-98.67	-34.96	11.447	B5-03822-P04-CH0	1276816	OK	0.795736	-0.2937051	0.5296618	0	-121.482	-40.62	13.838	B5-03822-P04-CH1	1276816	OK	0.8224032	-0.5684605	0.0224883	0	-109.363	-53.543	10.753	NA
0.859322592194773	B5-03822-P01-CH0	1276824	OK	0.2033414	0.0562884	0.0789983	-0.9742911	103.409	-37.411	-293.931	B5-03822-P02-CH0	1276824	OK	0.6808454	-0.0355767	-0.7315626	0	-71.553	-93.736	-1.851	B5-03822-P02-CH1	1276824	OK	0.7368471	-0.2032358	-0.644788	0	-77.943	-74.346	-1.801	B5-03822-P03-CH0	1276824	OK	0.7791653	-0.3038488	-0.5482493	0	-95.292	-58.499	5.742	B5-03822-P03-CH1	1276824	OK	0.8013094	-0.5424221	0.2523519	0	-98.812	-35.439	12.236	B5-03822-P04-CH0	1276824	OK	0.7955142	-0.2943162	0.5296557	0	-121.423	-40.488	13.672	B5-03822-P04-CH1	1276824	OK	0.8221931	-0.5687729	0.0222682	0	-109.387	-53.622	10.848	NA
0.869314715359828	B5-03822-P01-CH0	1276832	OK	0.2032832	0.0561636	0.0790222	-0.9743085	103.378	-37.372	-293.874	B5-03822-P02-CH0	1276832	OK	0.6839725	-0.0348525	-0.7286748	0	-70.794	-93.932	-1.952	B5-03822-P02-CH1	1276832	OK	0.7394886	-0.2015241	-0.6422963	0	-77.542	-75.119	-0.382	B5-03822-P03-CH0	1276832	OK	0.7805453	-0.3024204	-0.5470749	0	-94.151	-58.807	6.06	B5-03822-P03-CH1	1276832	OK	0.8009575	-0.5428105	0.2526339	0	-98.605	-35.717	12.489	B5-03822-P04-CH0	1276832	OK	0.7953735	-0.2947535	0.5296238	0	-121.3	-40.318	13.399	B5-03822-P04-CH1	1276832	OK	0.8221407	-0.5688511	0.0222058	0	-109.265	-53.659	10.805	NA
0.879306838524884	B5-03822-P01-CH0	1276840	OK	0.203369	0.0568154	0.0785024	-0.9742948	103.625	-37.281	-293.765	B5-03822-P02-CH0	1276840	OK	0.6828306	-0.0349359	-0.7297409	0	-72.626	-94.995	-1.571	B5-03822-P02-CH1	1276840	OK	0.7402998	-0.2011856	-0.6414675	0	-77.797	-77.236	1.348	B5-03822-P03-CH0	1276840	OK	0.7805697	-0.299326	-0.5487394	0	-93.628	-58.888	6.122	B5-03822-P03-CH1	1276840	OK	0.800822	-0.5428524	0.2529731	0	-99.07	-36.008	12.945	B5-03822-P04-CH0	1276840	OK	0.7953593	-0.2950655	0.5294713	0	-121.386	-40.265	13.424	B5-03822-P04-CH1	1276840	OK	0.8217019	-0.569499	0.021835	0	-109.587	-53.843	11.081	NA
0.889298961689939	B5-03822-P01-CH0	1276848	OK	0.2033257	0.0570111	0.0778706	-0.9743432	103.784	-37.353	-293.836	B5-03822-P02-CH0	1276848	OK	0.6849135	-0.0330948	-0.7278724	0	-72.223	-94.744	-2.048	B5-03822-P02-CH1	1276848	OK	0.7413713	-0.1979053	-0.6412504	0	-77.678	-77.697	5.156	B5-03822-P03-CH0	1276848	OK	0.7798595	-0.2985512	-0.5501694	0	-93.766	-59.322	6.233	B5-03822-P03-CH1	1276848	OK	0.80026	-0.5435465	0.2532612	0	-98.924	-36.358	13.348	B5-03822-P04-CH0	1276848	OK	0.795138	-0.295735	0.5294302	0	-121.506	-40.355	13.394	B5-03822-P04-CH1	1276848	OK	0.8213601	-0.5699988	0.0216555	0	-109.666	-54.005	11.406	NA
0.899291084854995	B5-03822-P01-CH0	1276856	OK	0.2035369	0.0568041	0.0785599	-0.9742558	103.757	-37.185	-293.851	B5-03822-P02-CH0	1276856	OK	0.6869272	-0.0313894	-0.726048	0	-71.711	-94.403	-2.296	B5-03822-P02-CH1	1276856	OK	0.7432134	-0.1923735	-0.6408013	0	-76.913	-77.07	1.92	B5-03822-P03-CH0	1276856	OK	0.7782039	-0.3025868	-0.5503089	0	-94.738	-58.515	5.938	B5-03822-P03-CH1	1276856	OK	0.8010882	-0.5427138	0.2524272	0	-99.039	-35.248	11.855	B5-03822-P04-CH0	1276856	OK	0.7950559	-0.2959026	0.5294599	0	-121.306	-40.003	13.049	B5-03822-P04-CH1	1276856	OK	0.8217615	-0.569428	0.0214412	0	-109.693	-53.922	11.452	NA
0.90928320802005	B5-03822-P01-CH0	1276864	OK	0.2039117	0.0567929	0.0786654	-0.9741696	103.773	-37.123	-293.719	B5-03822-P02-CH0	1276864	OK	0.6877351	-0.030782	-0.7253088	0	-71.899	-94.695	-3.651	B5-03822-P02-CH1	1276864	OK	0.7437966	-0.1925778	-0.6400629	0	-77.013	-76.731	-0.298	B5-03822-P03-CH0	1276864	OK	0.7785647	-0.3008992	-0.5507238	0	-94.666	-58.329	5.959	B5-03822-P03-CH1	1276864	OK	0.8010448	-0.5422712	0.2535137	0	-99.5	-35.743	12.267	B5-03822-P04-CH0	1276864	OK	0.7951392	-0.2960127	0.5292732	0	-121.389	-39.614	12.365	B5-03822-P04-CH1	1276864	OK	0.8218314	-0.5693204	0.021621	0	-109.587	-53.98	11.464	NA
0.919275331185106	B5-03822-P01-CH0	1276872	OK	0.2038443	0.0569785	0.0778976	-0.9742345	103.812	-37.125	-293.576	B5-03822-P02-CH0	1276872	OK	0.6884413	-0.0293362	-0.7246985	0	-72.131	-94.677	-1.759	B5-03822-P02-CH1	1276872	OK	0.7431512	-0.1923218	-0.6408889	0	-78.019	-75.993	-1.697	B5-03822-P03-CH0	1276872	OK	0.774483	-0.2896555	-0.562384	0	-95.245	-57.605	6.071	B5-03822-P03-CH1	1276872	OK	0.80036	-0.5432607	0.2535581	0	-99.491	-35.533	11.593	B5-03822-P04-CH0	1276872	OK	0.7947677	-0.2968	0.5293902	0	-121.304	-39.379	12.108	B5-03822-P04-CH1	1276872	OK	0.821332	-0.5700503	0.0213647	0	-109.676	-54.021	11.42	NA
0.929267454350161	B5-03822-P01-CH0	1276880	OK	0.2041807	0.0567229	0.0789329	-0.9740957	103.801	-36.992	-293.671	B5-03822-P02-CH0	1276880	OK	0.6886043	-0.0296933	-0.7245291	0	-72.726	-94.834	-1.857	B5-03822-P02-CH1	1276880	OK	0.7406623	-0.191707	-0.643947	0	-79.857	-76.85	-0.499	B5-03822-P03-CH0	1276880	OK	0.7744256	-0.2887222	-0.5629427	0	-94.315	-59.022	7.141	B5-03822-P03-CH1	1276880	OK	0.8006294	-0.5426179	0.2540835	0	-99.514	-35.735	12.104	B5-03822-P04-CH0	1276880	OK	0.7951452	-0.296	0.5292714	0	-121.342	-39.508	12.57	B5-03822-P04-CH1	1276880	OK	0.8218025	-0.5693613	0.0216429	0	-109.573	-54.166	11.446	NA
0.939259577515217	B5-03822-P01-CH0	1276888	OK	0.2042968	0.0566957	0.0794334	-0.9740322	103.867	-36.996	-293.661	B5-03822-P02-CH0	1276888	OK	0.6898296	-0.0289113	-0.7233943	0	-72.571	-95.901	-1.753	B5-03822-P02-CH1	1276888	OK	0.7431151	-0.1921068	-0.6409953	0	-78.88	-77.043	-0.089	B5-03822-P03-CH0	1276888	OK	0.7743863	-0.286654	-0.5640527	0	-94.088	-58.371	6.021	B5-03822-P03-CH1	1276888	OK	0.8003997	-0.5429228	0.2541557	0	-99.609	-35.846	11.213	B5-03822-P04-CH0	1276888	OK	0.7953366	-0.2961228	0.528915	0	-121.318	-39.192	12.407	B5-03822-P04-CH1	1276888	OK	0.8221525	-0.5688606	0.0215142	0	-109.408	-54.204	11.546	NA
0.949251700680272	B5-03822-P01-CH0	1276896	OK	0.2046323	0.0567888	0.0794063	-0.9739586	103.958	-37.048	-293.622	B5-03822-P02-CH0	1276896	OK	0.6907888	-0.0267651	-0.722561	0	-72.724	-95.097	-2.262	B5-03822-P02-CH1	1276896	OK	0.7448766	-0.1907203	-0.6393627	0	-78.649	-76.752	2.993	B5-03822-P03-CH0	1276896	OK	0.7732574	-0.286916	-0.5654663	0	-93.655	-59.198	6.311	B5-03822-P03-CH1	1276896	OK	0.8000948	-0.5430895	0.254759	0	-99.478	-35.967	10.909	B5-03822-P04-CH0	1276896	OK	0.795243	-0.2959914	0.5291292	0	-121.345	-39.408	12.221	B5-03822-P04-CH1	1276896	OK	0.8221202	-0.5689054	0.0215641	0	-109.415	-54.335	11.5	NA
