Wav.Time	B5.03822.P01.CH0	Frame	State	Q0	Qx	Qy	Qz	Tx	Ty	Tz	B5.03822.P02.CH0	Frame.1	State.1	Q0.1	Qx.1	Qy.1	Qz.1	Tx.1	Ty.1	Tz.1	B5.03822.P02.CH1	Frame.2	State.2	Q0.2	Qx.2	Qy.2	Qz.2	Tx.2	Ty.2	Tz.2	B5.03822.P03.CH0	Frame.3	State.3	Q0.3	Qx.3	Qy.3	Qz.3	Tx.3	Ty.3	Tz.3	B5.03822.P03.CH1	Frame.4	State.4	Q0.4	Qx.4	Qy.4	Qz.4	Tx.4	Ty.4	Tz.4	B5.03822.P04.CH0	Frame.5	State.5	Q0.5	Qx.5	Qy.5	Qz.5	Tx.5	Ty.5	Tz.5	B5.03822.P04.CH1	Frame.6	State.6	Q0.6	Qx.6	Qy.6	Qz.6	Tx.6	Ty.6	Tz.6	X
0	B5-03822-P01-CH0	230520	OK	0.2387976	0.0194325	0.0663018	-0.9686084	110.619	-12.702	-255.668	B5-03822-P02-CH0	230520	OK	0.6589789	0.4751093	-0.5831106	0	-73.806	-103.964	-2.912	B5-03822-P02-CH1	230520	OK	0.6944023	0.2011809	-0.6908919	0	-73.456	-84.757	-4.683	B5-03822-P03-CH0	230520	OK	0.8274591	-0.2287583	-0.5128168	0	-93.029	-66.15	0.92	B5-03822-P03-CH1	230520	OK	0.7347027	-0.6105682	0.295666	0	-98.678	-28.376	-13.682	B5-03822-P04-CH0	230520	OK	0.7801595	-0.4009081	0.4802331	0	-118.366	-48.37	0.849	B5-03822-P04-CH1	230520	OK	0.7055338	-0.6531587	0.2749651	0	-105.432	-48.123	-15.327	NA
0.0099921329075848	B5-03822-P01-CH0	230528	OK	0.2389718	0.0192827	0.0667047	-0.9685407	110.583	-12.668	-255.674	B5-03822-P02-CH0	230528	OK	0.656931	0.4697314	-0.5897407	0	-74.221	-103.589	-2.034	B5-03822-P02-CH1	230528	OK	0.6972596	0.1993113	-0.6885522	0	-73.119	-84.915	-4.372	B5-03822-P03-CH0	230528	OK	0.8279524	-0.2234297	-0.5143676	0	-93.008	-66.004	0.641	B5-03822-P03-CH1	230528	OK	0.7330599	-0.6149759	0.2905646	0	-97.838	-26.886	-16.233	B5-03822-P04-CH0	230528	OK	0.7809862	-0.3931068	0.4853118	0	-118.34	-48.43	1.372	B5-03822-P04-CH1	230528	OK	0.7058265	-0.6525468	0.2756658	0	-105.633	-48.245	-15.021	NA
0.0199842658151696	B5-03822-P01-CH0	230536	OK	0.2389423	0.0191217	0.0664281	-0.9685702	110.526	-12.669	-255.712	B5-03822-P02-CH0	230536	OK	0.6566379	0.4644412	-0.5942399	0	-74.106	-103.182	-1.73	B5-03822-P02-CH1	230536	OK	0.6992742	0.1984962	-0.6867421	0	-73.689	-85.122	-3.872	B5-03822-P03-CH0	230536	OK	0.8301584	-0.2216289	-0.5115836	0	-92.122	-65.564	0.974	B5-03822-P03-CH1	230536	OK	0.7313277	-0.61975	0.2847274	0	-97.433	-25.849	-18.212	B5-03822-P04-CH0	230536	OK	0.7813455	-0.3874008	0.4893054	0	-118.315	-48.009	0.823	B5-03822-P04-CH1	230536	OK	0.7055182	-0.6528476	0.2757429	0	-105.515	-48.185	-15.176	NA
0.0299763987227544	B5-03822-P01-CH0	230544	OK	0.2390721	0.0194915	0.0662178	-0.9685452	110.673	-12.617	-255.722	B5-03822-P02-CH0	230544	OK	0.6562701	0.4588086	-0.5990027	0	-73.952	-102.541	-2.089	B5-03822-P02-CH1	230544	OK	0.7011411	0.1975371	-0.6851134	0	-74.458	-85.556	-4.118	B5-03822-P03-CH0	230544	OK	0.8297732	-0.2225025	-0.5118291	0	-92.358	-65.599	1.49	B5-03822-P03-CH1	230544	OK	0.7308541	-0.6223894	0.2801494	0	-97.798	-25.127	-18.251	B5-03822-P04-CH0	230544	OK	0.7819467	-0.3817471	0.4927764	0	-118.755	-48.144	0.615	B5-03822-P04-CH1	230544	OK	0.7050592	-0.6527623	0.2771153	0	-105.692	-48.627	-14.602	NA
0.0399685316303392	B5-03822-P01-CH0	230552	OK	0.2388187	0.0193286	0.0660698	-0.9686211	110.59	-12.577	-255.678	B5-03822-P02-CH0	230552	OK	0.6574701	0.4534435	-0.6017658	0	-73.994	-103.286	-2.814	B5-03822-P02-CH1	230552	OK	0.7020984	0.1956373	-0.6846779	0	-75.64	-85.801	-3.444	B5-03822-P03-CH0	230552	OK	0.8300683	-0.2224179	-0.5113873	0	-92.687	-65.754	1.53	B5-03822-P03-CH1	230552	OK	0.7308002	-0.624334	0.2759314	0	-98.409	-24.863	-18.658	B5-03822-P04-CH0	230552	OK	0.7830244	-0.37508	0.4961731	0	-118.75	-47.984	1.935	B5-03822-P04-CH1	230552	OK	0.7051306	-0.6527786	0.276895	0	-105.677	-48.366	-14.746	NA
0.049960664537924	B5-03822-P01-CH0	230560	OK	0.2389802	0.0193187	0.0661875	-0.9685734	110.58	-12.513	-255.679	B5-03822-P02-CH0	230560	OK	0.6562061	0.4473171	-0.6077013	0	-74.721	-103.253	-1.899	B5-03822-P02-CH1	230560	OK	0.7053217	0.1944221	-0.6817048	0	-75.12	-85.442	-3.512	B5-03822-P03-CH0	230560	OK	0.8323499	-0.2240383	-0.5069521	0	-93.079	-65.535	1.635	B5-03822-P03-CH1	230560	OK	0.7318626	-0.6252245	0.2710562	0	-98.113	-24.606	-19.174	B5-03822-P04-CH0	230560	OK	0.783486	-0.3689724	0.5000091	0	-118.631	-47.641	1.152	B5-03822-P04-CH1	230560	OK	0.7052817	-0.6525569	0.2770327	0	-105.701	-48.251	-14.841	NA
0.0599527974455088	B5-03822-P01-CH0	230568	OK	0.2391875	0.0189254	0.0665264	-0.9685068	110.468	-12.556	-255.668	B5-03822-P02-CH0	230568	OK	0.6569425	0.4387229	-0.6131467	0	-74.467	-103.183	-2.323	B5-03822-P02-CH1	230568	OK	0.7103138	0.1913346	-0.6773812	0	-73.668	-84.534	-5.172	B5-03822-P03-CH0	230568	OK	0.837594	-0.2309674	-0.495066	0	-92.816	-65.783	1.857	B5-03822-P03-CH1	230568	OK	0.7339245	-0.6229382	0.2707448	0	-98.539	-25.972	-15.358	B5-03822-P04-CH0	230568	OK	0.7834611	-0.3637799	0.5038382	0	-118.949	-48.572	1.105	B5-03822-P04-CH1	230568	OK	0.7057032	-0.6521388	0.276944	0	-105.54	-48.035	-15.606	NA
0.0699449303530936	B5-03822-P01-CH0	230576	OK	0.2390272	0.0192121	0.0656858	-0.9685981	110.534	-12.601	-255.598	B5-03822-P02-CH0	230576	OK	0.6571996	0.4315187	-0.6179647	0	-74.657	-102.232	-1.986	B5-03822-P02-CH1	230576	OK	0.7132756	0.1882584	-0.6751271	0	-74.801	-84.959	-4.532	B5-03822-P03-CH0	230576	OK	0.8416317	-0.2434072	-0.4820882	0	-93.714	-66.638	2.804	B5-03822-P03-CH1	230576	OK	0.7356571	-0.6193953	0.27415	0	-99.052	-27.965	-12.518	B5-03822-P04-CH0	230576	OK	0.7832678	-0.3609617	0.5061602	0	-119.442	-49.612	1.76	B5-03822-P04-CH1	230576	OK	0.7050829	-0.6520897	0.2786342	0	-105.764	-48.518	-14.654	NA
0.0799370632606784	B5-03822-P01-CH0	230584	OK	0.2391164	0.01922	0.065716	-0.9685739	110.569	-12.64	-255.629	B5-03822-P02-CH0	230584	OK	0.6613184	0.4253374	-0.617856	0	-74.266	-103.391	-1.712	B5-03822-P02-CH1	230584	OK	0.7170432	0.1868605	-0.6715148	0	-75.586	-85.535	-4.375	B5-03822-P03-CH0	230584	OK	0.8458273	-0.2538339	-0.4691956	0	-93.96	-67.036	3.406	B5-03822-P03-CH1	230584	OK	0.7397229	-0.6127657	0.2780796	0	-98.812	-29.247	-13.871	B5-03822-P04-CH0	230584	OK	0.7839663	-0.3586696	0.506708	0	-120.422	-50.272	1.556	B5-03822-P04-CH1	230584	OK	0.7052791	-0.6516992	0.2790513	0	-105.848	-48.514	-15.127	NA
0.0899291961682632	B5-03822-P01-CH0	230592	OK	0.2393037	0.0193805	0.0656202	-0.9685309	110.628	-12.582	-255.594	B5-03822-P02-CH0	230592	OK	0.6634815	0.4195965	-0.6194604	0	-74.689	-103.031	-1.474	B5-03822-P02-CH1	230592	OK	0.7208251	0.1850979	-0.6679445	0	-75.364	-85.559	-5.759	B5-03822-P03-CH0	230592	OK	0.8473473	-0.2650229	-0.4601798	0	-94.283	-67.243	2.805	B5-03822-P03-CH1	230592	OK	0.7469104	-0.6007413	0.2850171	0	-99.663	-30.989	-11.645	B5-03822-P04-CH0	230592	OK	0.7844387	-0.3587485	0.5059205	0	-121.18	-51.472	2.302	B5-03822-P04-CH1	230592	OK	0.7051093	-0.6510909	0.280894	0	-106.038	-48.894	-14.645	NA
0.099921329075848	B5-03822-P01-CH0	230600	OK	0.239343	0.0193524	0.0655804	-0.9685245	110.606	-12.629	-255.513	B5-03822-P02-CH0	230600	OK	0.6683376	0.4119608	-0.6193651	0	-74.442	-103.079	-2.636	B5-03822-P02-CH1	230600	OK	0.7225414	0.1803668	-0.6673843	0	-76.233	-85.154	-3.561	B5-03822-P03-CH0	230600	OK	0.8468686	-0.2767359	-0.4541264	0	-94.515	-67.335	3.553	B5-03822-P03-CH1	230600	OK	0.7524472	-0.5893676	0.2940562	0	-100.685	-33.333	-6.625	B5-03822-P04-CH0	230600	OK	0.7833645	-0.3633609	0.5042905	0	-121.482	-52.363	3.253	B5-03822-P04-CH1	230600	OK	0.7051226	-0.6505241	0.2821712	0	-106.062	-49.066	-14.943	NA
0.109913461983433	B5-03822-P01-CH0	230608	OK	0.2392703	0.019438	0.0652752	-0.9685613	110.596	-12.642	-255.455	B5-03822-P02-CH0	230608	OK	0.6738631	0.4039638	-0.6186451	0	-74.469	-103.743	-2.842	B5-03822-P02-CH1	230608	OK	0.7239451	0.1729026	-0.6678384	0	-77.257	-85.253	-3.093	B5-03822-P03-CH0	230608	OK	0.8427075	-0.2886477	-0.454452	0	-95.031	-67.505	2.168	B5-03822-P03-CH1	230608	OK	0.7528997	-0.5839596	0.3035347	0	-99.52	-33.971	-7.999	B5-03822-P04-CH0	230608	OK	0.7816689	-0.3717325	0.500808	0	-123.156	-54.797	3.431	B5-03822-P04-CH1	230608	OK	0.7052828	-0.649745	0.2835624	0	-106.303	-49.1	-15.155	NA
0.119905594891018	B5-03822-P01-CH0	230616	OK	0.2393642	0.0196296	0.0651664	-0.9685416	110.666	-12.719	-255.384	B5-03822-P02-CH0	230616	OK	0.6761914	0.3947525	-0.6220416	0	-74.731	-102.692	-2.639	B5-03822-P02-CH1	230616	OK	0.7280893	0.1625981	-0.6659187	0	-76.618	-85.628	-4.23	B5-03822-P03-CH0	230616	OK	0.8384362	-0.2967815	-0.4571056	0	-94.186	-67.27	1.512	B5-03822-P03-CH1	230616	OK	0.7538801	-0.5799827	0.3086825	0	-98.895	-33.682	-8.451	B5-03822-P04-CH0	230616	OK	0.7818692	-0.3782075	0.4956205	0	-123.889	-54.609	3.864	B5-03822-P04-CH1	230616	OK	0.705545	-0.6485946	0.2855369	0	-106.68	-49.427	-15.117	NA
0.129897727798602	B5-03822-P01-CH0	230624	OK	0.2393569	0.0195958	0.0650372	-0.9685527	110.639	-12.756	-255.376	B5-03822-P02-CH0	230624	OK	0.6815806	0.386166	-0.6215494	0	-74.441	-102.697	-2.588	B5-03822-P02-CH1	230624	OK	0.7327651	0.1538848	-0.6628535	0	-76.479	-85.561	-4.628	B5-03822-P03-CH0	230624	OK	0.8329005	-0.3054784	-0.4614755	0	-94.496	-67.886	0.999	B5-03822-P03-CH1	230624	OK	0.7542954	-0.5763259	0.3144628	0	-98.789	-34.22	-6.594	B5-03822-P04-CH0	230624	OK	0.7798949	-0.3845291	0.4938636	0	-124.067	-55.753	3.696	B5-03822-P04-CH1	230624	OK	0.705812	-0.647425	0.2875246	0	-107.008	-49.662	-15.068	NA
0.139889860706187	B5-03822-P01-CH0	230632	OK	0.2394328	0.0198837	0.064772	-0.9685459	110.723	-12.802	-255.358	B5-03822-P02-CH0	230632	OK	0.6869139	0.3789895	-0.6200937	0	-74.559	-103.269	-2.624	B5-03822-P02-CH1	230632	OK	0.736673	0.1474034	-0.6599887	0	-77.315	-84.706	-4.193	B5-03822-P03-CH0	230632	OK	0.8286273	-0.3083434	-0.467227	0	-94.514	-67.857	1.336	B5-03822-P03-CH1	230632	OK	0.7542903	-0.5737643	0.3191248	0	-99.684	-35.333	-4.614	B5-03822-P04-CH0	230632	OK	0.7780152	-0.3903805	0.4922351	0	-123.828	-55.421	2.076	B5-03822-P04-CH1	230632	OK	0.7060366	-0.6462671	0.2895706	0	-107.325	-49.949	-14.929	NA
0.149881993613772	B5-03822-P01-CH0	230640	OK	0.23931	0.0198299	0.0648331	-0.9685733	110.659	-12.796	-255.296	B5-03822-P02-CH0	230640	OK	0.6899525	0.374233	-0.619609	0	-75.01	-102.678	-2.509	B5-03822-P02-CH1	230640	OK	0.7417321	0.1434807	-0.6551693	0	-77.739	-84.338	-3.571	B5-03822-P03-CH0	230640	OK	0.8245931	-0.3036413	-0.4773346	0	-94.079	-67.29	0.847	B5-03822-P03-CH1	230640	OK	0.7542438	-0.5745801	0.3177642	0	-99.37	-34.385	-7.245	B5-03822-P04-CH0	230640	OK	0.7764479	-0.3930724	0.4925675	0	-123.737	-55.703	1.817	B5-03822-P04-CH1	230640	OK	0.7061872	-0.6450222	0.2919693	0	-107.619	-50.345	-14.521	NA
0.159874126521357	B5-03822-P01-CH0	230648	OK	0.2390928	0.0200792	0.0645494	-0.9686407	110.711	-12.824	-255.285	B5-03822-P02-CH0	230648	OK	0.6931357	0.3728601	-0.6168778	0	-75.588	-102.113	-2.025	B5-03822-P02-CH1	230648	OK	0.7456553	0.1394533	-0.6515758	0	-78.987	-84.265	-2.932	B5-03822-P03-CH0	230648	OK	0.8197702	-0.2911593	-0.4931563	0	-94.344	-66.859	0.938	B5-03822-P03-CH1	230648	OK	0.7532924	-0.5755556	0.318255	0	-99.784	-35.432	-5.743	B5-03822-P04-CH0	230648	OK	0.7748851	-0.3952216	0.4933082	0	-123.926	-55.339	0.954	B5-03822-P04-CH1	230648	OK	0.7061569	-0.6440985	0.294074	0	-107.964	-50.847	-13.539	NA
0.169866259428942	B5-03822-P01-CH0	230656	OK	0.2390168	0.0198374	0.0645538	-0.9686642	110.609	-12.911	-255.293	B5-03822-P02-CH0	230656	OK	0.699505	0.3731103	-0.6094927	0	-75.239	-102.627	-2.664	B5-03822-P02-CH1	230656	OK	0.7499181	0.1380177	-0.6469729	0	-79.68	-84.443	-2.436	B5-03822-P03-CH0	230656	OK	0.8141876	-0.2674105	-0.5153544	0	-94.112	-65.927	-0.853	B5-03822-P03-CH1	230656	OK	0.7524604	-0.5785137	0.3148415	0	-99.073	-34.204	-7.557	B5-03822-P04-CH0	230656	OK	0.7737316	-0.3953006	0.4950524	0	-123.2	-54.43	1.497	B5-03822-P04-CH1	230656	OK	0.7062124	-0.643459	0.295338	0	-107.987	-51.088	-13.722	NA
0.179858392336526	B5-03822-P01-CH0	230664	OK	0.2388941	0.0198033	0.064776	-0.9686803	110.544	-12.916	-255.2	B5-03822-P02-CH0	230664	OK	0.7025522	0.3761031	-0.6041249	0	-75.42	-101.885	-3.455	B5-03822-P02-CH1	230664	OK	0.7541666	0.138033	-0.6420122	0	-79.785	-84.766	-2.962	B5-03822-P03-CH0	230664	OK	0.8055458	-0.2367088	-0.5431988	0	-93.827	-65.628	-1.573	B5-03822-P03-CH1	230664	OK	0.7510042	-0.5823815	0.3111664	0	-98.701	-33.072	-8.418	B5-03822-P04-CH0	230664	OK	0.7735041	-0.3949793	0.4956639	0	-123.442	-53.797	2.095	B5-03822-P04-CH1	230664	OK	0.7063806	-0.642637	0.2967223	0	-108.161	-51.469	-12.976	NA
0.189850525244111	B5-03822-P01-CH0	230672	OK	0.2388913	0.0196061	0.0655756	-0.9686312	110.461	-12.911	-255.174	B5-03822-P02-CH0	230672	OK	0.7034617	0.3798412	-0.6007181	0	-75.998	-101.81	-4.198	B5-03822-P02-CH1	230672	OK	0.7548469	0.141925	-0.640362	0	-80.035	-84.27	-2.565	B5-03822-P03-CH0	230672	OK	0.7971758	-0.1969931	-0.5707052	0	-92.957	-64.922	-2.645	B5-03822-P03-CH1	230672	OK	0.748224	-0.5868291	0.3095037	0	-99.025	-33.772	-7.69	B5-03822-P04-CH0	230672	OK	0.7727716	-0.3956619	0.4962618	0	-123.561	-54.117	2.539	B5-03822-P04-CH1	230672	OK	0.707085	-0.6417442	0.2969769	0	-108.17	-51.499	-12.891	NA
0.199842658151696	B5-03822-P01-CH0	230680	OK	0.2389115	0.019484	0.0664305	-0.9685704	110.374	-12.837	-255.125	B5-03822-P02-CH0	230680	OK	0.7038958	0.3834019	-0.5979412	0	-75.927	-102.103	-3.801	B5-03822-P02-CH1	230680	OK	0.7533882	0.1477421	-0.6407639	0	-80.09	-83.568	-2.696	B5-03822-P03-CH0	230680	OK	0.7917282	-0.1612997	-0.5891934	0	-92.225	-64.85	-2.804	B5-03822-P03-CH1	230680	OK	0.7458024	-0.5928399	0.3038416	0	-98.664	-32.331	-10.491	B5-03822-P04-CH0	230680	OK	0.7724221	-0.3973958	0.4954197	0	-122.564	-52.548	1.927	B5-03822-P04-CH1	230680	OK	0.7078276	-0.6408115	0.2972217	0	-108.31	-51.527	-12.397	NA
0.209834791059281	B5-03822-P01-CH0	230688	OK	0.2386247	0.0194707	0.0660995	-0.968664	110.306	-12.872	-255.055	B5-03822-P02-CH0	230688	OK	0.7003076	0.3875535	-0.5994761	0	-76.531	-101.299	-3.026	B5-03822-P02-CH1	230688	OK	0.7507904	0.1514841	-0.6429357	0	-80.194	-83.284	-2.077	B5-03822-P03-CH0	230688	OK	0.7951693	-0.1407471	-0.5898272	0	-91.287	-62.961	-0.919	B5-03822-P03-CH1	230688	OK	0.7430806	-0.5988392	0.2987019	0	-99.078	-31.95	-8.657	B5-03822-P04-CH0	230688	OK	0.7724216	-0.3987666	0.4943177	0	-121.989	-52.528	1.727	B5-03822-P04-CH1	230688	OK	0.7076131	-0.6415367	0.296166	0	-108.165	-51.374	-12.474	NA
0.219826923966866	B5-03822-P01-CH0	230696	OK	0.2382185	0.0195178	0.0656454	-0.9687939	110.238	-12.897	-255.006	B5-03822-P02-CH0	230696	OK	0.6968491	0.387547	-0.6034971	0	-77.025	-101.296	-2.18	B5-03822-P02-CH1	230696	OK	0.7500186	0.1519878	-0.6437172	0	-79.446	-83.428	-2.232	B5-03822-P03-CH0	230696	OK	0.8018516	-0.1369499	-0.5816174	0	-91.594	-62.929	-2.025	B5-03822-P03-CH1	230696	OK	0.7414623	-0.6052972	0.2895671	0	-98.641	-29.824	-11.561	B5-03822-P04-CH0	230696	OK	0.7741746	-0.3994937	0.490977	0	-120.576	-49.955	1.254	B5-03822-P04-CH1	230696	OK	0.7071166	-0.6425365	0.2951829	0	-107.909	-51.353	-12.155	NA
0.22981905687445	B5-03822-P01-CH0	230704	OK	0.2380842	0.0194369	0.0659436	-0.9688083	110.166	-12.836	-254.964	B5-03822-P02-CH0	230704	OK	0.6955047	0.3859816	-0.6060457	0	-76.067	-101.142	-3.533	B5-03822-P02-CH1	230704	OK	0.7478996	0.1492208	-0.6468225	0	-79.062	-83.367	-2.372	B5-03822-P03-CH0	230704	OK	0.8049368	-0.1354006	-0.5777053	0	-92.441	-64.277	0.334	B5-03822-P03-CH1	230704	OK	0.7398822	-0.6108334	0.281881	0	-98.264	-28.471	-14.74	B5-03822-P04-CH0	230704	OK	0.7750836	-0.4002327	0.4889369	0	-119.716	-48.728	0.801	B5-03822-P04-CH1	230704	OK	0.7072638	-0.6433338	0.2930862	0	-107.617	-50.96	-12.584	NA
0.239811189782035	B5-03822-P01-CH0	230712	OK	0.2376767	0.0196162	0.0652514	-0.9689516	110.157	-12.951	-254.85	B5-03822-P02-CH0	230712	OK	0.69255	0.3861562	-0.6093094	0	-76.138	-101.069	-3.395	B5-03822-P02-CH1	230712	OK	0.7447778	0.1486694	-0.6505409	0	-78.781	-83.744	-4.357	B5-03822-P03-CH0	230712	OK	0.8051219	-0.134732	-0.5776037	0	-93.47	-64.398	-1.277	B5-03822-P03-CH1	230712	OK	0.73666	-0.6157078	0.2797069	0	-98.468	-29.045	-13.535	B5-03822-P04-CH0	230712	OK	0.7745603	-0.4027409	0.4877049	0	-119.109	-47.724	0.393	B5-03822-P04-CH1	230712	OK	0.7064842	-0.6449049	0.2915093	0	-107.399	-50.999	-12.344	NA
0.24980332268962	B5-03822-P01-CH0	230720	OK	0.2377339	0.0193546	0.0658517	-0.9689022	110.08	-12.951	-254.861	B5-03822-P02-CH0	230720	OK	0.6884159	0.386242	-0.6139223	0	-76.389	-100.882	-3.16	B5-03822-P02-CH1	230720	OK	0.7406649	0.1498106	-0.6549597	0	-78.078	-83.059	-4.617	B5-03822-P03-CH0	230720	OK	0.8083532	-0.1370655	-0.5725192	0	-92.812	-62.578	-2.846	B5-03822-P03-CH1	230720	OK	0.7348633	-0.6182353	0.2788565	0	-98.767	-29.476	-12.945	B5-03822-P04-CH0	230720	OK	0.7737229	-0.3994484	0.4917254	0	-121.444	-51.191	1.06	B5-03822-P04-CH1	230720	OK	0.7067732	-0.6455432	0.2893882	0	-107.029	-50.713	-12.751	NA
0.259795455597205	B5-03822-P01-CH0	230728	OK	0.2374712	0.0193335	0.0653405	-0.9690017	110.036	-12.945	-254.925	B5-03822-P02-CH0	230728	OK	0.6879798	0.3854431	-0.6149126	0	-75.645	-101.364	-3.842	B5-03822-P02-CH1	230728	OK	0.7361194	0.1529486	-0.6593444	0	-78.172	-82.99	-3.988	B5-03822-P03-CH0	230728	OK	0.8134057	-0.1522896	-0.5614081	0	-92.469	-63.028	-1.131	B5-03822-P03-CH1	230728	OK	0.7339579	-0.6205469	0.276093	0	-98.294	-28.13	-13.661	B5-03822-P04-CH0	230728	OK	0.7731088	-0.4008168	0.4915776	0	-121.004	-50.451	1.092	B5-03822-P04-CH1	230728	OK	0.7062272	-0.646926	0.2876282	0	-106.834	-50.485	-12.859	NA
0.26978758850479	B5-03822-P01-CH0	230736	OK	0.2376296	0.0193838	0.0661137	-0.9689094	110.068	-12.876	-254.919	B5-03822-P02-CH0	230736	OK	0.6870724	0.3843741	-0.6165939	0	-75.646	-102.502	-3.56	B5-03822-P02-CH1	230736	OK	0.7327701	0.156863	-0.6621496	0	-78.186	-84.37	-4.738	B5-03822-P03-CH0	230736	OK	0.8212749	-0.1716727	-0.544092	0	-93.072	-63.398	-0.519	B5-03822-P03-CH1	230736	OK	0.7356776	-0.6188	0.2754361	0	-99.488	-27.706	-13.544	B5-03822-P04-CH0	230736	OK	0.7708112	-0.4040334	0.4925516	0	-119.257	-48.131	0.397	B5-03822-P04-CH1	230736	OK	0.7068731	-0.6471788	0.2854645	0	-106.712	-50.034	-13.318	NA
0.279779721412375	B5-03822-P01-CH0	230744	OK	0.2375547	0.019529	0.0658756	-0.9689411	110.087	-12.857	-254.881	B5-03822-P02-CH0	230744	OK	0.6843605	0.3852064	-0.6190854	0	-76.122	-102.607	-3.531	B5-03822-P02-CH1	230744	OK	0.7302099	0.160717	-0.6640509	0	-77.969	-84.327	-3.422	B5-03822-P03-CH0	230744	OK	0.8297459	-0.1904357	-0.5246484	0	-93.575	-64.481	0.711	B5-03822-P03-CH1	230744	OK	0.7355651	-0.6179618	0.2776098	0	-98.969	-28.716	-13.008	B5-03822-P04-CH0	230744	OK	0.7690437	-0.4053939	0.4941939	0	-119.051	-47.313	-1.913	B5-03822-P04-CH1	230744	OK	0.7067098	-0.6481381	0.2836869	0	-106.552	-49.682	-13.764	NA
0.289771854319959	B5-03822-P01-CH0	230752	OK	0.2372697	0.0198778	0.0650491	-0.9690596	110.131	-12.885	-254.833	B5-03822-P02-CH0	230752	OK	0.6817994	0.3889629	-0.6195623	0	-76.579	-102.561	-3.852	B5-03822-P02-CH1	230752	OK	0.7280627	0.164548	-0.6654688	0	-78.009	-84.149	-3.35	B5-03822-P03-CH0	230752	OK	0.8357307	-0.2032108	-0.5101563	0	-93.881	-65.281	1.566	B5-03822-P03-CH1	230752	OK	0.7374155	-0.613467	0.2826246	0	-99.116	-30.07	-11.163	B5-03822-P04-CH0	230752	OK	0.7692665	-0.4057522	0.4935526	0	-119.918	-47.344	-0.947	B5-03822-P04-CH1	230752	OK	0.7061484	-0.6492142	0.2826223	0	-106.516	-49.591	-13.642	NA
0.299763987227544	B5-03822-P01-CH0	230760	OK	0.2372563	0.0200129	0.0645242	-0.9690952	110.178	-12.945	-254.905	B5-03822-P02-CH0	230760	OK	0.6812608	0.3929249	-0.6176518	0	-76.712	-103.224	-3.077	B5-03822-P02-CH1	230760	OK	0.7262715	0.1678376	-0.6666035	0	-78.096	-84.539	-4.203	B5-03822-P03-CH0	230760	OK	0.8362625	-0.2117511	-0.5057929	0	-94.241	-65.665	1.25	B5-03822-P03-CH1	230760	OK	0.7426533	-0.6051736	0.2867596	0	-98.8	-30.449	-12.509	B5-03822-P04-CH0	230760	OK	0.7688406	-0.4082028	0.4921938	0	-120.749	-49.223	-0.674	B5-03822-P04-CH1	230760	OK	0.70579	-0.6499603	0.2818016	0	-106.412	-49.561	-13.739	NA
0.309756120135129	B5-03822-P01-CH0	230768	OK	0.2371699	0.0199737	0.0641827	-0.9691399	110.141	-12.996	-254.88	B5-03822-P02-CH0	230768	OK	0.6821466	0.3971002	-0.613993	0	-76.072	-102.938	-4.02	B5-03822-P02-CH1	230768	OK	0.7257797	0.1695268	-0.6667117	0	-77.606	-84.841	-4.456	B5-03822-P03-CH0	230768	OK	0.8326208	-0.2173474	-0.5094141	0	-94.143	-65.637	0.655	B5-03822-P03-CH1	230768	OK	0.749902	-0.5922975	0.2946705	0	-100.106	-32.736	-7.803	B5-03822-P04-CH0	230768	OK	0.7697576	-0.4087302	0.4903191	0	-120.526	-49.921	0.711	B5-03822-P04-CH1	230768	OK	0.705495	-0.6505058	0.281281	0	-106.157	-49.5	-13.938	NA
0.319748253042714	B5-03822-P01-CH0	230776	OK	0.2372008	0.0200849	0.064297	-0.9691224	110.152	-12.95	-254.835	B5-03822-P02-CH0	230776	OK	0.682104	0.4033635	-0.6099442	0	-76.535	-103.172	-3.424	B5-03822-P02-CH1	230776	OK	0.7250866	0.1710605	-0.667074	0	-77.23	-84.686	-4.863	B5-03822-P03-CH0	230776	OK	0.8245223	-0.2208462	-0.520951	0	-94.221	-65.198	-0.829	B5-03822-P03-CH1	230776	OK	0.75456	-0.5819418	0.3032867	0	-99.867	-33.82	-6.05	B5-03822-P04-CH0	230776	OK	0.7720744	-0.4079433	0.4873226	0	-121.527	-51.358	1.002	B5-03822-P04-CH1	230776	OK	0.7057771	-0.6505673	0.2804297	0	-106.19	-49.19	-14.651	NA
0.329740385950299	B5-03822-P01-CH0	230784	OK	0.2370808	0.0198957	0.0642902	-0.9691561	110.062	-12.978	-254.833	B5-03822-P02-CH0	230784	OK	0.6813584	0.4097914	-0.606483	0	-77.22	-102.969	-2.633	B5-03822-P02-CH1	230784	OK	0.7234411	0.1730554	-0.6683448	0	-77.226	-84.728	-4.161	B5-03822-P03-CH0	230784	OK	0.8156979	-0.2228694	-0.5338222	0	-92.45	-65.001	-0.982	B5-03822-P03-CH1	230784	OK	0.7565717	-0.5744197	0.3124761	0	-99.96	-35.275	-3.911	B5-03822-P04-CH0	230784	OK	0.7741202	-0.4079651	0.484048	0	-121.588	-52.134	2.053	B5-03822-P04-CH1	230784	OK	0.7059621	-0.6503302	0.280514	0	-106.267	-49.196	-14.269	NA
0.339732518857883	B5-03822-P01-CH0	230792	OK	0.2374553	0.0195993	0.0652304	-0.9690077	109.991	-12.855	-254.875	B5-03822-P02-CH0	230792	OK	0.6820554	0.4160414	-0.6014233	0	-76.675	-102.33	-3.752	B5-03822-P02-CH1	230792	OK	0.7212253	0.1776389	-0.669536	0	-76.895	-84.459	-4.908	B5-03822-P03-CH0	230792	OK	0.8029038	-0.2257278	-0.5517178	0	-91.453	-65.462	-1.55	B5-03822-P03-CH1	230792	OK	0.7566798	-0.5717286	0.3171153	0	-98.91	-35.197	-6.196	B5-03822-P04-CH0	230792	OK	0.7757229	-0.4073727	0.4819766	0	-121.312	-51.958	0.994	B5-03822-P04-CH1	230792	OK	0.7068451	-0.6495868	0.2800125	0	-106.156	-48.853	-14.877	NA
0.349724651765468	B5-03822-P01-CH0	230800	OK	0.2373037	0.0197576	0.0646902	-0.9690778	110.004	-12.845	-254.87	B5-03822-P02-CH0	230800	OK	0.683889	0.4238984	-0.5938064	0	-76.064	-102.217	-4.053	B5-03822-P02-CH1	230800	OK	0.7182086	0.1830441	-0.6713206	0	-77.182	-84.676	-3.238	B5-03822-P03-CH0	230800	OK	0.7876903	-0.2208814	-0.5751133	0	-91.008	-65.411	-2.481	B5-03822-P03-CH1	230800	OK	0.7581097	-0.568768	0.3190182	0	-99.66	-35.114	-3.589	B5-03822-P04-CH0	230800	OK	0.7774014	-0.4053587	0.4809692	0	-121.984	-52.986	2.845	B5-03822-P04-CH1	230800	OK	0.7064944	-0.6498624	0.280258	0	-106.249	-49.002	-14.587	NA
0.359716784673053	B5-03822-P01-CH0	230808	OK	0.2372986	0.0199637	0.0645565	-0.9690837	110.051	-12.877	-254.745	B5-03822-P02-CH0	230808	OK	0.6830466	0.4333766	-0.5879048	0	-76.671	-102.355	-3.026	B5-03822-P02-CH1	230808	OK	0.7182185	0.1889502	-0.6696715	0	-76.081	-85.219	-3.577	B5-03822-P03-CH0	230808	OK	0.7743748	-0.2143243	-0.5953224	0	-89.619	-65.022	-3.594	B5-03822-P03-CH1	230808	OK	0.7570291	-0.5695877	0.32012	0	-98.968	-34.842	-5.555	B5-03822-P04-CH0	230808	OK	0.7784034	-0.4052303	0.4794545	0	-122.222	-53.146	3.191	B5-03822-P04-CH1	230808	OK	0.7064361	-0.649825	0.2804914	0	-106.244	-49.249	-14.318	NA
0.369708917580638	B5-03822-P01-CH0	230816	OK	0.2370431	0.0200201	0.0637931	-0.9691957	110.006	-12.891	-254.638	B5-03822-P02-CH0	230816	OK	0.6826944	0.4439081	-0.5804084	0	-76.643	-102.161	-3.397	B5-03822-P02-CH1	230816	OK	0.715302	0.1946341	-0.6711636	0	-75.766	-84.652	-4.665	B5-03822-P03-CH0	230816	OK	0.7612912	-0.2113815	-0.6129874	0	-87.978	-64.623	-3.946	B5-03822-P03-CH1	230816	OK	0.7566039	-0.5702932	0.319869	0	-98.776	-34.074	-6.174	B5-03822-P04-CH0	230816	OK	0.7767089	-0.4088387	0.4791389	0	-120.947	-52.026	0.657	B5-03822-P04-CH1	230816	OK	0.7059958	-0.650239	0.2806405	0	-106.156	-49.372	-13.823	NA
0.379701050488223	B5-03822-P01-CH0	230824	OK	0.2370183	0.0199792	0.0634423	-0.9692256	109.951	-12.867	-254.605	B5-03822-P02-CH0	230824	OK	0.6822868	0.4558808	-0.5715395	0	-76.521	-102.631	-2.927	B5-03822-P02-CH1	230824	OK	0.7086795	0.1996696	-0.6766871	0	-76.316	-84.429	-3.43	B5-03822-P03-CH0	230824	OK	0.7485814	-0.2116481	-0.6283558	0	-86	-63.355	-6.151	B5-03822-P03-CH1	230824	OK	0.7570595	-0.5700963	0.3191412	0	-98.821	-32.937	-7.29	B5-03822-P04-CH0	230824	OK	0.7768184	-0.408346	0.4793816	0	-120.657	-51.528	0.29	B5-03822-P04-CH1	230824	OK	0.7058138	-0.6506633	0.2801144	0	-105.835	-49.275	-13.989	NA
0.389693183395807	B5-03822-P01-CH0	230832	OK	0.2370541	0.0197422	0.0635878	-0.9692121	109.885	-12.834	-254.597	B5-03822-P02-CH0	230832	OK	0.680186	0.4683545	-0.563907	0	-76.167	-102.164	-2.866	B5-03822-P02-CH1	230832	OK	0.7040854	0.2043082	-0.6800897	0	-75.679	-84.207	-2.937	B5-03822-P03-CH0	230832	OK	0.7355969	-0.2091155	-0.6443352	0	-84.694	-62.681	-5.426	B5-03822-P03-CH1	230832	OK	0.7565356	-0.5700708	0.3204265	0	-98.942	-34.031	-6.296	B5-03822-P04-CH0	230832	OK	0.777524	-0.4057419	0.4804476	0	-120.765	-51.121	0.584	B5-03822-P04-CH1	230832	OK	0.7061186	-0.650633	0.2794158	0	-105.808	-49.181	-14.021	NA
0.399685316303392	B5-03822-P01-CH0	230840	OK	0.2368145	0.0198425	0.0628613	-0.9693161	109.888	-12.782	-254.534	B5-03822-P02-CH0	230840	OK	0.6767916	0.4817645	-0.5566473	0	-76.352	-101.263	-2.102	B5-03822-P02-CH1	230840	OK	0.6998198	0.2105351	-0.6825886	0	-75.092	-83.758	-2.714	B5-03822-P03-CH0	230840	OK	0.7240469	-0.2013477	-0.6597085	0	-83.973	-62.934	-5.079	B5-03822-P03-CH1	230840	OK	0.7570362	-0.5698457	0.3196438	0	-99.031	-34.384	-4.907	B5-03822-P04-CH0	230840	OK	0.7779125	-0.4029534	0.4821625	0	-121.107	-51.608	3.34	B5-03822-P04-CH1	230840	OK	0.7059478	-0.6513917	0.2780764	0	-105.753	-48.946	-13.82	NA
0.409677449210977	B5-03822-P01-CH0	230848	OK	0.2367956	0.01999	0.0627316	-0.969326	109.942	-12.767	-254.512	B5-03822-P02-CH0	230848	OK	0.6742723	0.4936117	-0.5492762	0	-76.203	-101.161	-2.001	B5-03822-P02-CH1	230848	OK	0.6969285	0.2141948	-0.6844058	0	-73.339	-83.133	-3.912	B5-03822-P03-CH0	230848	OK	0.7160101	-0.1892439	-0.6719496	0	-82.575	-63.016	-4.917	B5-03822-P03-CH1	230848	OK	0.7583942	-0.5693955	0.3172176	0	-99.007	-34.026	-5.23	B5-03822-P04-CH0	230848	OK	0.7775565	-0.401284	0.4841251	0	-120.869	-51.294	2.385	B5-03822-P04-CH1	230848	OK	0.706126	-0.6516737	0.2769612	0	-105.75	-48.888	-13.583	NA
0.419669582118562	B5-03822-P01-CH0	230856	OK	0.2366704	0.0197051	0.0624464	-0.9693809	109.821	-12.808	-254.479	B5-03822-P02-CH0	230856	OK	0.6730482	0.5038137	-0.541459	0	-75.517	-100.632	-2.17	B5-03822-P02-CH1	230856	OK	0.694004	0.2155555	-0.6869456	0	-72.767	-82.529	-3.52	B5-03822-P03-CH0	230856	OK	0.708964	-0.1814088	-0.6815137	0	-82.232	-63.808	-4.454	B5-03822-P03-CH1	230856	OK	0.7568544	-0.5710374	0.3179428	0	-98.958	-34.034	-5.757	B5-03822-P04-CH0	230856	OK	0.7764426	-0.4058131	0.4821334	0	-121.113	-51.726	1.779	B5-03822-P04-CH1	230856	OK	0.7061183	-0.6520617	0.2760662	0	-105.647	-48.908	-12.947	NA
0.429661715026147	B5-03822-P01-CH0	230864	OK	0.2368281	0.0197469	0.0625031	-0.9693378	109.845	-12.804	-254.411	B5-03822-P02-CH0	230864	OK	0.6733238	0.5103709	-0.534936	0	-74.973	-101.152	-2.422	B5-03822-P02-CH1	230864	OK	0.6927102	0.2150379	-0.6884121	0	-72.679	-83.113	-3.599	B5-03822-P03-CH0	230864	OK	0.7038199	-0.1787392	-0.6875244	0	-82.634	-63.937	-4.656	B5-03822-P03-CH1	230864	OK	0.7573736	-0.5702347	0.3181473	0	-98.923	-34.052	-5.369	B5-03822-P04-CH0	230864	OK	0.7767766	-0.4042081	0.482943	0	-121.051	-51.575	1.376	B5-03822-P04-CH1	230864	OK	0.7063861	-0.6522068	0.2750364	0	-105.556	-48.839	-12.973	NA
0.439653847933731	B5-03822-P01-CH0	230872	OK	0.236481	0.0197163	0.0620751	-0.9694507	109.775	-12.816	-254.32	B5-03822-P02-CH0	230872	OK	0.6717505	0.5154117	-0.5320734	0	-75.378	-100.937	-2.37	B5-03822-P02-CH1	230872	OK	0.6915522	0.214675	-0.6896885	0	-72.766	-83.657	-3.572	B5-03822-P03-CH0	230872	OK	0.7026198	-0.1840752	-0.687344	0	-82.117	-63.233	-5.34	B5-03822-P03-CH1	230872	OK	0.7596964	-0.5695549	0.3137971	0	-99.142	-34.09	-4.988	B5-03822-P04-CH0	230872	OK	0.777502	-0.3911529	0.4924327	0	-120.7	-49.993	0.927	B5-03822-P04-CH1	230872	OK	0.7060907	-0.652904	0.274139	0	-105.51	-48.899	-12.592	NA
0.449645980841316	B5-03822-P01-CH0	230880	OK	0.2363564	0.0199275	0.0617382	-0.9694983	109.831	-12.893	-254.26	B5-03822-P02-CH0	230880	OK	0.6711332	0.5174287	-0.5308934	0	-75.575	-101.079	-2.996	B5-03822-P02-CH1	230880	OK	0.6903679	0.2124166	-0.6915717	0	-72.426	-83.063	-3.715	B5-03822-P03-CH0	230880	OK	0.703253	-0.1964162	-0.6832686	0	-81.678	-63.007	-5.918	B5-03822-P03-CH1	230880	OK	0.7592959	-0.5700215	0.3139192	0	-99.31	-34.511	-4.989	B5-03822-P04-CH0	230880	OK	0.7768926	-0.3868169	0.4968002	0	-120.826	-50.87	1.661	B5-03822-P04-CH1	230880	OK	0.7062042	-0.6533857	0.2726953	0	-105.455	-48.743	-12.704	NA
0.459638113748901	B5-03822-P01-CH0	230888	OK	0.2361891	0.0199911	0.0614116	-0.9695585	109.801	-12.894	-254.295	B5-03822-P02-CH0	230888	OK	0.6701954	0.5146623	-0.5347531	0	-75.347	-100.816	-2.004	B5-03822-P02-CH1	230888	OK	0.6905284	0.2059446	-0.6933667	0	-72.249	-82.585	-2.65	B5-03822-P03-CH0	230888	OK	0.7069803	-0.2069926	-0.6762639	0	-81.892	-62.724	-6.162	B5-03822-P03-CH1	230888	OK	0.7600093	-0.5700299	0.3121728	0	-98.59	-32.943	-7.308	B5-03822-P04-CH0	230888	OK	0.7760789	-0.3856915	0.4989425	0	-120.439	-50.115	0.953	B5-03822-P04-CH1	230888	OK	0.7064196	-0.6538843	0.2709367	0	-105.448	-48.321	-12.8	NA
0.469630246656486	B5-03822-P01-CH0	230896	OK	0.2358025	0.0201566	0.0612005	-0.9696625	109.832	-12.927	-254.354	B5-03822-P02-CH0	230896	OK	0.669472	0.507913	-0.5420625	0	-75.606	-101.455	-1.617	B5-03822-P02-CH1	230896	OK	0.6922016	0.1996398	-0.6935423	0	-72.132	-82.946	-2.818	B5-03822-P03-CH0	230896	OK	0.7126226	-0.2177164	-0.6669097	0	-82.636	-63.233	-5.694	B5-03822-P03-CH1	230896	OK	0.7600866	-0.5696333	0.3127079	0	-98.594	-33.637	-5.949	B5-03822-P04-CH0	230896	OK	0.7745612	-0.386939	0.5003331	0	-120.023	-49.665	-0.008	B5-03822-P04-CH1	230896	OK	0.7065172	-0.6543998	0.2694332	0	-105.577	-48.133	-12.655	NA
0.479622379564071	B5-03822-P01-CH0	230904	OK	0.2354211	0.0203204	0.0608491	-0.9697739	109.841	-13.049	-254.363	B5-03822-P02-CH0	230904	OK	0.6672608	0.5003847	-0.5517048	0	-76.138	-101.249	-1.121	B5-03822-P02-CH1	230904	OK	0.6926235	0.194074	-0.6946999	0	-72.094	-83.075	-3.099	B5-03822-P03-CH0	230904	OK	0.7173669	-0.2256428	-0.6591434	0	-82.844	-63.608	-5.111	B5-03822-P03-CH1	230904	OK	0.7586572	-0.5706567	0.3143091	0	-98.865	-33.955	-5.204	B5-03822-P04-CH0	230904	OK	0.7741336	-0.3871386	0.5008401	0	-120.159	-49.291	0.682	B5-03822-P04-CH1	230904	OK	0.7065479	-0.6547467	0.2685086	0	-105.797	-48.101	-12.271	NA
0.489614512471655	B5-03822-P01-CH0	230912	OK	0.2351323	0.0203626	0.0605409	-0.9698623	109.779	-13.145	-254.327	B5-03822-P02-CH0	230912	OK	0.6676092	0.490984	-0.559672	0	-75.201	-100.962	-1.514	B5-03822-P02-CH1	230912	OK	0.6927852	0.1866389	-0.6965735	0	-71.857	-83.083	-3.387	B5-03822-P03-CH0	230912	OK	0.7209058	-0.2311704	-0.6533414	0	-82.667	-63.738	-5.184	B5-03822-P03-CH1	230912	OK	0.7590044	-0.5705237	0.3137116	0	-98.815	-33.878	-5.418	B5-03822-P04-CH0	230912	OK	0.7729994	-0.3871897	0.5025496	0	-120.438	-50.188	0.718	B5-03822-P04-CH1	230912	OK	0.7064243	-0.6552137	0.2676933	0	-105.716	-47.982	-12.352	NA
0.49960664537924	B5-03822-P01-CH0	230920	OK	0.2350354	0.0201965	0.0611452	-0.9698514	109.679	-13.218	-254.347	B5-03822-P02-CH0	230920	OK	0.6690807	0.4819256	-0.565755	0	-74.163	-101.548	-1.712	B5-03822-P02-CH1	230920	OK	0.6924986	0.1814404	-0.6982299	0	-72.241	-83.567	-3.135	B5-03822-P03-CH0	230920	OK	0.7249761	-0.2382837	-0.6462434	0	-82.407	-63.823	-4.882	B5-03822-P03-CH1	230920	OK	0.7597151	-0.5696437	0.3135907	0	-98.74	-33.863	-5.545	B5-03822-P04-CH0	230920	OK	0.7733107	-0.3876721	0.501698	0	-120.506	-49.714	1.186	B5-03822-P04-CH1	230920	OK	0.7065757	-0.6549588	0.2679173	0	-105.698	-48.196	-12.128	NA
0.509598778286825	B5-03822-P01-CH0	230928	OK	0.2347645	0.0202814	0.0609272	-0.9699289	109.606	-13.31	-254.293	B5-03822-P02-CH0	230928	OK	0.666454	0.476592	-0.5733229	0	-74.393	-100.253	-1.03	B5-03822-P02-CH1	230928	OK	0.6934278	0.1797869	-0.6977353	0	-71.836	-83.564	-3.762	B5-03822-P03-CH0	230928	OK	0.7284486	-0.2473832	-0.6388772	0	-82.614	-63.825	-5.195	B5-03822-P03-CH1	230928	OK	0.7597225	-0.5695306	0.3137779	0	-98.646	-33.898	-5.696	B5-03822-P04-CH0	230928	OK	0.7731222	-0.3884755	0.501367	0	-120.253	-49.33	2.007	B5-03822-P04-CH1	230928	OK	0.7062743	-0.6552843	0.2679163	0	-105.739	-48.274	-12.141	NA
0.51959091119441	B5-03822-P01-CH0	230936	OK	0.2345629	0.0204946	0.0608334	-0.9699791	109.602	-13.306	-254.341	B5-03822-P02-CH0	230936	OK	0.6676916	0.4745522	-0.5735749	0	-74.303	-101.232	-1.267	B5-03822-P02-CH1	230936	OK	0.6943675	0.1794521	-0.6968865	0	-71.431	-83.614	-3.682	B5-03822-P03-CH0	230936	OK	0.733274	-0.259257	-0.6285658	0	-82.173	-64.141	-5.643	B5-03822-P03-CH1	230936	OK	0.7598026	-0.5691816	0.314217	0	-98.726	-33.959	-5.554	B5-03822-P04-CH0	230936	OK	0.7728128	-0.3892134	0.5012717	0	-120.871	-50.461	2.071	B5-03822-P04-CH1	230936	OK	0.7062191	-0.6554981	0.2675384	0	-105.678	-48.026	-12.45	NA
0.529583044101995	B5-03822-P01-CH0	230944	OK	0.2342962	0.0206577	0.0607287	-0.9700467	109.562	-13.306	-254.389	B5-03822-P02-CH0	230944	OK	0.6675088	0.4756902	-0.5728446	0	-74.266	-101.231	-1.13	B5-03822-P02-CH1	230944	OK	0.6938679	0.1798332	-0.6972856	0	-71.829	-84.068	-3.107	B5-03822-P03-CH0	230944	OK	0.7363519	-0.2689729	-0.6208377	0	-83.186	-63.968	-5.793	B5-03822-P03-CH1	230944	OK	0.7598936	-0.5686994	0.3148694	0	-98.694	-33.944	-5.697	B5-03822-P04-CH0	230944	OK	0.7735031	-0.3910767	0.4987504	0	-121.117	-49.789	1.552	B5-03822-P04-CH1	230944	OK	0.7059705	-0.6557517	0.267573	0	-105.689	-47.971	-12.314	NA
0.539575177009579	B5-03822-P01-CH0	230952	OK	0.2341068	0.0209049	0.060865	-0.9700786	109.568	-13.365	-254.426	B5-03822-P02-CH0	230952	OK	0.6665372	0.4772804	-0.5726531	0	-74.323	-101.215	-1.164	B5-03822-P02-CH1	230952	OK	0.6925223	0.1805242	-0.6984439	0	-72.364	-84.039	-2.985	B5-03822-P03-CH0	230952	OK	0.7411445	-0.2749478	-0.6124611	0	-83.442	-63.994	-5.662	B5-03822-P03-CH1	230952	OK	0.7603307	-0.5677936	0.3154483	0	-98.693	-33.963	-5.87	B5-03822-P04-CH0	230952	OK	0.7728172	-0.392189	0.4989403	0	-120.89	-50.279	1.226	B5-03822-P04-CH1	230952	OK	0.7062305	-0.6555147	0.2674675	0	-105.805	-47.786	-12.553	NA
0.549567309917164	B5-03822-P01-CH0	230960	OK	0.2340479	0.0208943	0.0615749	-0.9700482	109.479	-13.321	-254.417	B5-03822-P02-CH0	230960	OK	0.6638529	0.479717	-0.5737342	0	-75.001	-100.933	-0.847	B5-03822-P02-CH1	230960	OK	0.693225	0.1800909	-0.6978584	0	-71.856	-84.096	-3.822	B5-03822-P03-CH0	230960	OK	0.745122	-0.2791416	-0.6057006	0	-83.775	-64.189	-4.853	B5-03822-P03-CH1	230960	OK	0.7611654	-0.566092	0.3164917	0	-98.789	-34.067	-5.529	B5-03822-P04-CH0	230960	OK	0.7740075	-0.3895154	0.4991895	0	-120.503	-49.669	1.109	B5-03822-P04-CH1	230960	OK	0.7067264	-0.6547494	0.268032	0	-105.986	-47.639	-12.588	NA
0.559559442824749	B5-03822-P01-CH0	230968	OK	0.2339082	0.0209384	0.062035	-0.9700516	109.398	-13.309	-254.365	B5-03822-P02-CH0	230968	OK	0.6633012	0.4807431	-0.5735134	0	-74.541	-101.084	-0.835	B5-03822-P02-CH1	230968	OK	0.6922982	0.1843537	-0.6976654	0	-72.118	-83.918	-3.335	B5-03822-P03-CH0	230968	OK	0.749189	-0.2823385	-0.5991667	0	-84.513	-63.774	-4.695	B5-03822-P03-CH1	230968	OK	0.7642517	-0.5583629	0.3227231	0	-99.948	-35.137	-3.587	B5-03822-P04-CH0	230968	OK	0.7739179	-0.3900238	0.4989314	0	-120.575	-49.659	1.074	B5-03822-P04-CH1	230968	OK	0.7067215	-0.6544311	0.268821	0	-105.959	-47.693	-12.838	NA
0.569551575732334	B5-03822-P01-CH0	230976	OK	0.2340178	0.021057	0.0621771	-0.9700136	109.348	-13.365	-254.287	B5-03822-P02-CH0	230976	OK	0.66312	0.4808135	-0.5736639	0	-74.366	-101.488	-1.49	B5-03822-P02-CH1	230976	OK	0.6925439	0.1828354	-0.697821	0	-71.927	-83.753	-3.674	B5-03822-P03-CH0	230976	OK	0.7566163	-0.287169	-0.5874229	0	-84.396	-64.311	-3.667	B5-03822-P03-CH1	230976	OK	0.763928	-0.5583908	0.3234406	0	-99.661	-35.277	-3.618	B5-03822-P04-CH0	230976	OK	0.7737833	-0.3904431	0.4988121	0	-120.692	-49.855	1.038	B5-03822-P04-CH1	230976	OK	0.7064615	-0.6541314	0.2702299	0	-105.915	-47.936	-13.055	NA
0.579543708639919	B5-03822-P01-CH0	230984	OK	0.2340056	0.0211057	0.0626711	-0.9699837	109.295	-13.295	-254.249	B5-03822-P02-CH0	230984	OK	0.6625581	0.4789906	-0.575834	0	-74.482	-101.166	-1.21	B5-03822-P02-CH1	230984	OK	0.6954284	0.1907402	-0.6928185	0	-72.519	-83.776	-3.849	B5-03822-P03-CH0	230984	OK	0.7642295	-0.2925606	-0.5747709	0	-86.064	-64.501	-3.374	B5-03822-P03-CH1	230984	OK	0.7630268	-0.5598042	0.3231243	0	-99.596	-35.233	-3.194	B5-03822-P04-CH0	230984	OK	0.7739276	-0.3907358	0.498359	0	-120.893	-49.929	1.219	B5-03822-P04-CH1	230984	OK	0.7064515	-0.6535847	0.2715756	0	-106.019	-48.121	-13.215	NA
0.589535841547503	B5-03822-P01-CH0	230992	OK	0.2341044	0.0212003	0.063235	-0.9699211	109.302	-13.28	-254.263	B5-03822-P02-CH0	230992	OK	0.6648142	0.4782077	-0.5738811	0	-74.334	-101.482	-1.588	B5-03822-P02-CH1	230992	OK	0.6978739	0.2008074	-0.6874943	0	-73.318	-84.495	-3.132	B5-03822-P03-CH0	230992	OK	0.7743376	-0.2980091	-0.5582041	0	-86.714	-64.753	-3.308	B5-03822-P03-CH1	230992	OK	0.7622178	-0.5612014	0.3226098	0	-99.95	-35.052	-3.779	B5-03822-P04-CH0	230992	OK	0.7740191	-0.3914248	0.4976757	0	-120.967	-49.888	1.03	B5-03822-P04-CH1	230992	OK	0.7068162	-0.6529083	0.2722528	0	-106.09	-48.008	-13.774	NA
0.599527974455088	B5-03822-P01-CH0	231000	OK	0.2342227	0.0210694	0.0635945	-0.9698719	109.212	-13.323	-254.218	B5-03822-P02-CH0	231000	OK	0.6667801	0.4701833	-0.5782144	0	-74.661	-101.849	-1.983	B5-03822-P02-CH1	231000	OK	0.7001974	0.2068633	-0.6833236	0	-73.514	-84.527	-2.899	B5-03822-P03-CH0	231000	OK	0.7814339	-0.2991394	-0.54761	0	-87.866	-64.692	-2.83	B5-03822-P03-CH1	231000	OK	0.7599932	-0.5636888	0.32352	0	-99.678	-35.445	-4.275	B5-03822-P04-CH0	231000	OK	0.773876	-0.3917752	0.4976225	0	-121.045	-50.19	1.015	B5-03822-P04-CH1	231000	OK	0.7071518	-0.6522003	0.2730771	0	-106.13	-47.84	-14.502	NA
0.609520107362673	B5-03822-P01-CH0	231008	OK	0.234233	0.0209699	0.0641417	-0.9698356	109.165	-13.273	-254.31	B5-03822-P02-CH0	231008	OK	0.6691478	0.4630293	-0.5812444	0	-74.826	-102.107	-2.549	B5-03822-P02-CH1	231008	OK	0.7020695	0.20907	-0.6807262	0	-73.937	-84.539	-3.157	B5-03822-P03-CH0	231008	OK	0.787148	-0.2968752	-0.5406137	0	-88.452	-65.016	-2.571	B5-03822-P03-CH1	231008	OK	0.7586585	-0.5663693	0.3219676	0	-99.593	-34.948	-4.186	B5-03822-P04-CH0	231008	OK	0.7738271	-0.3924821	0.4971413	0	-121.129	-50.229	1.008	B5-03822-P04-CH1	231008	OK	0.7074362	-0.6513062	0.2744709	0	-106.338	-47.974	-14.244	NA
0.619512240270258	B5-03822-P01-CH0	231016	OK	0.2342821	0.0212136	0.0644278	-0.9697994	109.26	-13.309	-254.312	B5-03822-P02-CH0	231016	OK	0.6689636	0.4553473	-0.5874918	0	-75.634	-102.217	-1.897	B5-03822-P02-CH1	231016	OK	0.7040239	0.2091347	-0.6786847	0	-74.638	-85.437	-4.512	B5-03822-P03-CH0	231016	OK	0.7931866	-0.2922327	-0.5342799	0	-88.391	-65.443	-2.4	B5-03822-P03-CH1	231016	OK	0.7571188	-0.5704118	0.318436	0	-100.06	-34.527	-3.503	B5-03822-P04-CH0	231016	OK	0.7737813	-0.3933882	0.496496	0	-121.236	-50.241	0.75	B5-03822-P04-CH1	231016	OK	0.7074648	-0.6506361	0.2759822	0	-106.648	-48.352	-14.036	NA
0.629504373177843	B5-03822-P01-CH0	231024	OK	0.2343054	0.0210889	0.0646763	-0.96978	109.205	-13.386	-254.278	B5-03822-P02-CH0	231024	OK	0.6702303	0.447327	-0.5921907	0	-75.484	-102.606	-2.218	B5-03822-P02-CH1	231024	OK	0.7079571	0.2078408	-0.6749807	0	-74.109	-84.98	-3.761	B5-03822-P03-CH0	231024	OK	0.7986557	-0.2838609	-0.5306336	0	-88.896	-65.733	-1.537	B5-03822-P03-CH1	231024	OK	0.7530889	-0.5767906	0.3164959	0	-99.328	-34.208	-5.538	B5-03822-P04-CH0	231024	OK	0.7736255	-0.3943106	0.4960069	0	-121.162	-50.304	0.803	B5-03822-P04-CH1	231024	OK	0.7073417	-0.6503872	0.2768829	0	-106.519	-48.498	-14.504	NA
0.639496506085427	B5-03822-P01-CH0	231032	OK	0.2344945	0.0209041	0.0648563	-0.9697262	109.175	-13.395	-254.305	B5-03822-P02-CH0	231032	OK	0.6712789	0.43948	-0.5968601	0	-74.92	-102.785	-2.57	B5-03822-P02-CH1	231032	OK	0.7100946	0.2068754	-0.6730292	0	-74.928	-85.619	-3.744	B5-03822-P03-CH0	231032	OK	0.8030567	-0.2725195	-0.5299369	0	-89.67	-66.269	-0.95	B5-03822-P03-CH1	231032	OK	0.750298	-0.5821423	0.3133102	0	-99.159	-33.22	-6.928	B5-03822-P04-CH0	231032	OK	0.773441	-0.3954734	0.4953683	0	-120.977	-50.24	0.873	B5-03822-P04-CH1	231032	OK	0.7070529	-0.649965	0.2786068	0	-106.508	-48.923	-14.038	NA
0.649488638993012	B5-03822-P01-CH0	231040	OK	0.2343843	0.0209116	0.0644477	-0.96978	109.172	-13.468	-254.222	B5-03822-P02-CH0	231040	OK	0.6716157	0.4319891	-0.6019283	0	-74.919	-103.543	-3.165	B5-03822-P02-CH1	231040	OK	0.7121526	0.2081706	-0.6704504	0	-75.325	-86.39	-3.285	B5-03822-P03-CH0	231040	OK	0.8071291	-0.2561509	-0.531911	0	-89.14	-66.372	-0.578	B5-03822-P03-CH1	231040	OK	0.7459725	-0.5891149	0.3105941	0	-98.481	-32.983	-8.691	B5-03822-P04-CH0	231040	OK	0.7741084	-0.4048119	0.4867068	0	-119.91	-49.191	0.968	B5-03822-P04-CH1	231040	OK	0.7067121	-0.6501911	0.2789437	0	-106.507	-48.952	-14.355	NA
0.659480771900597	B5-03822-P01-CH0	231048	OK	0.2346882	0.0207912	0.0648996	-0.9696789	109.162	-13.414	-254.273	B5-03822-P02-CH0	231048	OK	0.6695648	0.4249992	-0.6091458	0	-74.96	-102.924	-2.99	B5-03822-P02-CH1	231048	OK	0.7144793	0.2084452	-0.6678847	0	-74.788	-86.22	-4.378	B5-03822-P03-CH0	231048	OK	0.807606	-0.2391453	-0.5390567	0	-89.631	-66.295	-0.194	B5-03822-P03-CH1	231048	OK	0.7450882	-0.5920995	0.3070207	0	-99.342	-32.228	-7.386	B5-03822-P04-CH0	231048	OK	0.7759917	-0.4066893	0.482121	0	-119.701	-49.041	0.261	B5-03822-P04-CH1	231048	OK	0.7069713	-0.6496476	0.2795526	0	-106.564	-48.98	-14.234	NA
0.669472904808182	B5-03822-P01-CH0	231056	OK	0.2346545	0.0206672	0.064615	-0.9697087	109.117	-13.434	-254.321	B5-03822-P02-CH0	231056	OK	0.6704972	0.4184495	-0.6126447	0	-74.46	-102.863	-3.163	B5-03822-P02-CH1	231056	OK	0.7169109	0.2093276	-0.6649968	0	-74.593	-86.349	-4.81	B5-03822-P03-CH0	231056	OK	0.8070993	-0.2267645	-0.5451317	0	-90.176	-66.22	-0.877	B5-03822-P03-CH1	231056	OK	0.7423618	-0.5970124	0.3040973	0	-99.353	-32.224	-8.501	B5-03822-P04-CH0	231056	OK	0.7770443	-0.4078344	0.479451	0	-119.318	-49.234	0.71	B5-03822-P04-CH1	231056	OK	0.7069391	-0.6498677	0.2791219	0	-106.55	-48.718	-14.613	NA
0.679465037715767	B5-03822-P01-CH0	231064	OK	0.2348141	0.0207238	0.064851	-0.9696532	109.165	-13.444	-254.322	B5-03822-P02-CH0	231064	OK	0.6711653	0.4142053	-0.6147935	0	-75.023	-103.504	-3.08	B5-03822-P02-CH1	231064	OK	0.7181364	0.2105227	-0.6632951	0	-75.296	-87.178	-5.143	B5-03822-P03-CH0	231064	OK	0.8081794	-0.2187288	-0.5468124	0	-90.117	-66.315	-0.462	B5-03822-P03-CH1	231064	OK	0.7415027	-0.5990885	0.3021037	0	-99.369	-31.727	-8.144	B5-03822-P04-CH0	231064	OK	0.777533	-0.4097998	0.4769765	0	-118.801	-48.39	-0.831	B5-03822-P04-CH1	231064	OK	0.7071057	-0.6497319	0.2790161	0	-106.497	-48.633	-14.527	NA
0.689457170623351	B5-03822-P01-CH0	231072	OK	0.2346358	0.020832	0.0642015	-0.9697372	109.161	-13.487	-254.22	B5-03822-P02-CH0	231072	OK	0.6723301	0.4111431	-0.6155758	0	-75.41	-104.596	-3.806	B5-03822-P02-CH1	231072	OK	0.7195191	0.2110181	-0.661637	0	-75.783	-87.768	-5.245	B5-03822-P03-CH0	231072	OK	0.8103645	-0.2140152	-0.545442	0	-89.628	-66.856	0.004	B5-03822-P03-CH1	231072	OK	0.7406091	-0.6026261	0.2972203	0	-98.779	-30.067	-11.255	B5-03822-P04-CH0	231072	OK	0.7776619	-0.4129144	0.4740713	0	-118.51	-47.67	0.742	B5-03822-P04-CH1	231072	OK	0.7065102	-0.6505249	0.2786768	0	-106.345	-48.546	-14.858	NA
0.699449303530936	B5-03822-P01-CH0	231080	OK	0.234629	0.0208616	0.0638315	-0.9697626	109.201	-13.536	-254.245	B5-03822-P02-CH0	231080	OK	0.6717984	0.4087613	-0.6177386	0	-74.955	-104.259	-3.697	B5-03822-P02-CH1	231080	OK	0.7201643	0.2106387	-0.6610558	0	-75.693	-87.809	-4.999	B5-03822-P03-CH0	231080	OK	0.8110186	-0.2098503	-0.5460876	0	-90.318	-67.26	0.072	B5-03822-P03-CH1	231080	OK	0.7396671	-0.6063014	0.2920464	0	-97.958	-28.543	-13.217	B5-03822-P04-CH0	231080	OK	0.7764409	-0.415178	0.4740957	0	-118.492	-47.746	0.261	B5-03822-P04-CH1	231080	OK	0.7061852	-0.6511144	0.2781232	0	-106.239	-48.495	-15.001	NA
0.709441436438521	B5-03822-P01-CH0	231088	OK	0.2346962	0.0211399	0.063128	-0.9697864	109.301	-13.61	-254.174	B5-03822-P02-CH0	231088	OK	0.6697791	0.4080457	-0.6203987	0	-74.822	-103.636	-3.843	B5-03822-P02-CH1	231088	OK	0.7184894	0.2078318	-0.6637612	0	-76.192	-87.748	-4.213	B5-03822-P03-CH0	231088	OK	0.8112437	-0.2062607	-0.5471199	0	-90.441	-67.205	-0.423	B5-03822-P03-CH1	231088	OK	0.737858	-0.607851	0.2933986	0	-98.182	-29.286	-11.175	B5-03822-P04-CH0	231088	OK	0.7752128	-0.4163859	0.4750451	0	-118.679	-47.984	-0.584	B5-03822-P04-CH1	231088	OK	0.7055633	-0.6520502	0.2775085	0	-106.065	-48.467	-15.254	NA
0.719433569346106	B5-03822-P01-CH0	231096	OK	0.2347999	0.0210335	0.0628288	-0.969783	109.263	-13.6	-254.225	B5-03822-P02-CH0	231096	OK	0.6680588	0.4086805	-0.6218342	0	-75.001	-103.665	-4.046	B5-03822-P02-CH1	231096	OK	0.7169627	0.2065296	-0.6658153	0	-76.292	-87.369	-4.29	B5-03822-P03-CH0	231096	OK	0.8109261	-0.2030427	-0.5487919	0	-90.259	-66.917	-0.455	B5-03822-P03-CH1	231096	OK	0.7363567	-0.6089417	0.2949049	0	-98.66	-30.239	-10.276	B5-03822-P04-CH0	231096	OK	0.7754474	-0.4158089	0.4751677	0	-118.186	-47.195	1.169	B5-03822-P04-CH1	231096	OK	0.7053388	-0.6525753	0.276844	0	-105.783	-48.282	-15.124	NA
0.729425702253691	B5-03822-P01-CH0	231104	OK	0.2348209	0.0212202	0.0626114	-0.9697879	109.325	-13.59	-254.187	B5-03822-P02-CH0	231104	OK	0.6649723	0.4095156	-0.6245869	0	-76.125	-103.579	-2.727	B5-03822-P02-CH1	231104	OK	0.7176674	0.2046178	-0.6656463	0	-75.644	-87.368	-5.118	B5-03822-P03-CH0	231104	OK	0.8102197	-0.2047223	-0.5492111	0	-90.165	-66.632	-0.37	B5-03822-P03-CH1	231104	OK	0.7364442	-0.6101552	0.2921654	0	-98.154	-29.069	-14.618	B5-03822-P04-CH0	231104	OK	0.7750023	-0.4166716	0.4751381	0	-118.542	-48	1.377	B5-03822-P04-CH1	231104	OK	0.7053895	-0.6526899	0.2764444	0	-105.918	-48.265	-14.532	NA
0.739417835161275	B5-03822-P01-CH0	231112	OK	0.2349927	0.0212543	0.0625242	-0.9697512	109.354	-13.572	-254.223	B5-03822-P02-CH0	231112	OK	0.664933	0.4075505	-0.6259127	0	-75.562	-103.28	-2.388	B5-03822-P02-CH1	231112	OK	0.7184196	0.201774	-0.665703	0	-75.378	-87.442	-5.596	B5-03822-P03-CH0	231112	OK	0.8099088	-0.20646	-0.5490192	0	-89.858	-66.395	0.144	B5-03822-P03-CH1	231112	OK	0.7383376	-0.6066707	0.2946324	0	-98.642	-30.03	-12.143	B5-03822-P04-CH0	231112	OK	0.7757227	-0.4132847	0.4769171	0	-118.711	-48.163	1.126	B5-03822-P04-CH1	231112	OK	0.7055714	-0.6528479	0.2756059	0	-105.921	-47.961	-14.916	NA
0.74940996806886	B5-03822-P01-CH0	231120	OK	0.2351929	0.0213446	0.0623203	-0.9697138	109.415	-13.575	-254.328	B5-03822-P02-CH0	231120	OK	0.6655364	0.4072742	-0.6254511	0	-75.038	-103.465	-3.383	B5-03822-P02-CH1	231120	OK	0.7186801	0.1978336	-0.6666039	0	-75.376	-87.487	-5.853	B5-03822-P03-CH0	231120	OK	0.8075756	-0.2097528	-0.5512036	0	-90.42	-66.716	0.315	B5-03822-P03-CH1	231120	OK	0.7407341	-0.6023906	0.2973861	0	-98.258	-31.209	-10.905	B5-03822-P04-CH0	231120	OK	0.7758441	-0.4147575	0.4754389	0	-118.57	-48.049	1.149	B5-03822-P04-CH1	231120	OK	0.7052916	-0.6530385	0.2758703	0	-105.874	-48.181	-14.293	NA
0.759402100976445	B5-03822-P01-CH0	231128	OK	0.2353464	0.0213633	0.0624198	-0.9696698	109.48	-13.627	-254.324	B5-03822-P02-CH0	231128	OK	0.6654933	0.4064207	-0.6260518	0	-74.436	-103.431	-3.973	B5-03822-P02-CH1	231128	OK	0.7177255	0.1942048	-0.6686962	0	-75.773	-87.492	-4.562	B5-03822-P03-CH0	231128	OK	0.808671	-0.2109059	-0.5491539	0	-89.453	-66.354	-0.264	B5-03822-P03-CH1	231128	OK	0.7453671	-0.5951237	0.3004259	0	-98.623	-32.281	-8.924	B5-03822-P04-CH0	231128	OK	0.7759274	-0.416183	0.4740552	0	-118.482	-48.013	0.999	B5-03822-P04-CH1	231128	OK	0.705104	-0.6533108	0.2757052	0	-105.652	-48.29	-14.619	NA
0.76939423388403	B5-03822-P01-CH0	231136	OK	0.2354779	0.0213081	0.0624928	-0.9696343	109.485	-13.598	-254.304	B5-03822-P02-CH0	231136	OK	0.6630728	0.4073115	-0.628038	0	-75.11	-103.376	-3.045	B5-03822-P02-CH1	231136	OK	0.717316	0.1920891	-0.6697459	0	-75.315	-86.8	-4.124	B5-03822-P03-CH0	231136	OK	0.8071361	-0.2129071	-0.5506377	0	-90.068	-66.333	-0.256	B5-03822-P03-CH1	231136	OK	0.7484181	-0.5911223	0.3007403	0	-98.099	-32.028	-9.559	B5-03822-P04-CH0	231136	OK	0.7763439	-0.4249841	0.4654876	0	-118.184	-47.59	-0.208	B5-03822-P04-CH1	231136	OK	0.70494	-0.6532884	0.2761773	0	-105.536	-48.484	-14.154	NA
0.779386366791615	B5-03822-P01-CH0	231144	OK	0.2355172	0.0212428	0.0621967	-0.9696453	109.482	-13.609	-254.319	B5-03822-P02-CH0	231144	OK	0.6619721	0.4072268	-0.629253	0	-74.947	-103.326	-2.801	B5-03822-P02-CH1	231144	OK	0.7165853	0.1910019	-0.6708382	0	-75.095	-87.247	-4.268	B5-03822-P03-CH0	231144	OK	0.8066798	-0.2134515	-0.5510954	0	-89.96	-66.144	-0.721	B5-03822-P03-CH1	231144	OK	0.7498456	-0.5877441	0.3037902	0	-98.291	-33.204	-7.348	B5-03822-P04-CH0	231144	OK	0.7757364	-0.4263412	0.4652593	0	-117.834	-48.022	1.122	B5-03822-P04-CH1	231144	OK	0.704837	-0.653419	0.2761312	0	-105.591	-48.526	-13.929	NA
0.789378499699199	B5-03822-P01-CH0	231152	OK	0.2357011	0.0211842	0.0623575	-0.9695915	109.523	-13.623	-254.406	B5-03822-P02-CH0	231152	OK	0.6622476	0.4050371	-0.6303754	0	-74.014	-103.322	-3.35	B5-03822-P02-CH1	231152	OK	0.7142101	0.1903036	-0.673564	0	-75.576	-86.884	-4.422	B5-03822-P03-CH0	231152	OK	0.8076526	-0.2157612	-0.5487663	0	-88.85	-66.382	-0.511	B5-03822-P03-CH1	231152	OK	0.7514005	-0.5850515	0.3051426	0	-98.984	-33.862	-5.9	B5-03822-P04-CH0	231152	OK	0.7755234	-0.4280708	0.4640246	0	-118.022	-47.269	-0.899	B5-03822-P04-CH1	231152	OK	0.7050794	-0.6531936	0.2760455	0	-105.642	-48.559	-13.673	NA
0.799370632606784	B5-03822-P01-CH0	231160	OK	0.2356925	0.0213046	0.0625433	-0.969579	109.55	-13.57	-254.325	B5-03822-P02-CH0	231160	OK	0.662283	0.4037965	-0.6311336	0	-73.665	-103.522	-3.196	B5-03822-P02-CH1	231160	OK	0.7139028	0.1910049	-0.6736913	0	-75.105	-86.297	-4.069	B5-03822-P03-CH0	231160	OK	0.8063752	-0.2169967	-0.5501558	0	-89.427	-66.287	0.35	B5-03822-P03-CH1	231160	OK	0.7522649	-0.5841841	0.3046744	0	-99.015	-33.394	-6.934	B5-03822-P04-CH0	231160	OK	0.7750564	-0.4282834	0.4646083	0	-118.046	-47.649	0.725	B5-03822-P04-CH1	231160	OK	0.7052156	-0.6530822	0.2759612	0	-105.662	-48.544	-13.6	NA
0.809362765514369	B5-03822-P01-CH0	231168	OK	0.2359707	0.0212336	0.0632138	-0.9694694	109.568	-13.512	-254.327	B5-03822-P02-CH0	231168	OK	0.6623767	0.4028143	-0.6316626	0	-73.507	-103.677	-3.713	B5-03822-P02-CH1	231168	OK	0.7130566	0.1926572	-0.6741168	0	-75.115	-86.056	-4.792	B5-03822-P03-CH0	231168	OK	0.8057286	-0.2193478	-0.5501708	0	-89.89	-66.105	0.43	B5-03822-P03-CH1	231168	OK	0.753556	-0.5824034	0.3048929	0	-98.827	-33.052	-7.317	B5-03822-P04-CH0	231168	OK	0.7752975	-0.4277134	0.4647312	0	-118.58	-47.929	0.954	B5-03822-P04-CH1	231168	OK	0.705803	-0.6524851	0.2758721	0	-105.656	-48.427	-13.887	NA
0.819354898421954	B5-03822-P01-CH0	231176	OK	0.2358467	0.0212252	0.0627954	-0.969527	109.574	-13.608	-254.288	B5-03822-P02-CH0	231176	OK	0.6622693	0.4015609	-0.6325726	0	-73.651	-103.082	-3.416	B5-03822-P02-CH1	231176	OK	0.7130187	0.19514	-0.6734424	0	-75.339	-86.424	-3.708	B5-03822-P03-CH0	231176	OK	0.806286	-0.2211422	-0.5486337	0	-89.558	-65.831	-0.289	B5-03822-P03-CH1	231176	OK	0.7533322	-0.5820989	0.3060251	0	-98.534	-33.442	-7.886	B5-03822-P04-CH0	231176	OK	0.7755674	-0.4243995	0.4673118	0	-118.162	-47.692	0.647	B5-03822-P04-CH1	231176	OK	0.7053531	-0.6527684	0.276352	0	-105.626	-48.725	-13.625	NA
0.829347031329539	B5-03822-P01-CH0	231184	OK	0.2359781	0.0212996	0.0625163	-0.9695114	109.65	-13.66	-254.296	B5-03822-P02-CH0	231184	OK	0.6624291	0.4004808	-0.6330899	0	-74.364	-103.14	-2.098	B5-03822-P02-CH1	231184	OK	0.715123	0.1974705	-0.6705255	0	-74.283	-86.298	-4.269	B5-03822-P03-CH0	231184	OK	0.804944	-0.2222554	-0.5501524	0	-90.019	-66.062	-0.709	B5-03822-P03-CH1	231184	OK	0.7538983	-0.581149	0.3064363	0	-98.109	-33.139	-8.962	B5-03822-P04-CH0	231184	OK	0.775276	-0.4260134	0.4663257	0	-118.152	-47.654	0.348	B5-03822-P04-CH1	231184	OK	0.7051356	-0.6530964	0.2761319	0	-105.532	-48.685	-14.287	NA
0.839339164237124	B5-03822-P01-CH0	231192	OK	0.2361152	0.0212761	0.0627844	-0.9694612	109.709	-13.705	-254.336	B5-03822-P02-CH0	231192	OK	0.6637081	0.3988095	-0.6328052	0	-74.006	-103.051	-2.806	B5-03822-P02-CH1	231192	OK	0.7128433	0.1987247	-0.6725793	0	-75.547	-86.346	-3.146	B5-03822-P03-CH0	231192	OK	0.8059744	-0.2229357	-0.5483656	0	-89.515	-66.04	0.194	B5-03822-P03-CH1	231192	OK	0.7550694	-0.5789834	0.3076499	0	-98.059	-33.264	-8.754	B5-03822-P04-CH0	231192	OK	0.7750338	-0.4270687	0.4657628	0	-118.156	-47.919	0.353	B5-03822-P04-CH1	231192	OK	0.7051746	-0.6528921	0.2765151	0	-105.531	-48.981	-13.78	NA
0.849331297144708	B5-03822-P01-CH0	231200	OK	0.2362383	0.0213569	0.0627573	-0.9694312	109.769	-13.709	-254.29	B5-03822-P02-CH0	231200	OK	0.663103	0.4022718	-0.6312463	0	-74.165	-103.742	-3.263	B5-03822-P02-CH1	231200	OK	0.7129632	0.1974647	-0.6728233	0	-75.57	-86.138	-3.82	B5-03822-P03-CH0	231200	OK	0.8058296	-0.223822	-0.5482174	0	-89.508	-65.569	-0.419	B5-03822-P03-CH1	231200	OK	0.7557857	-0.5773003	0.3090506	0	-98.792	-34.476	-7.019	B5-03822-P04-CH0	231200	OK	0.7724723	-0.4306199	0.4667473	0	-118.188	-48.759	1.441	B5-03822-P04-CH1	231200	OK	0.7052161	-0.6530666	0.2759969	0	-105.372	-48.818	-14.091	NA
0.859323430052293	B5-03822-P01-CH0	231208	OK	0.2362991	0.021432	0.0624756	-0.9694329	109.817	-13.729	-254.277	B5-03822-P02-CH0	231208	OK	0.6633949	0.401145	-0.6316565	0	-74.018	-103.718	-3.28	B5-03822-P02-CH1	231208	OK	0.7141766	0.1935661	-0.6726693	0	-75.313	-86.816	-3.917	B5-03822-P03-CH0	231208	OK	0.8045338	-0.2246463	-0.5497813	0	-90.062	-65.002	-0.267	B5-03822-P03-CH1	231208	OK	0.7561631	-0.5761704	0.3102338	0	-98.572	-34.283	-7.581	B5-03822-P04-CH0	231208	OK	0.7723481	-0.4303428	0.4672081	0	-118.949	-49.194	1.129	B5-03822-P04-CH1	231208	OK	0.7053315	-0.6530586	0.2757208	0	-105.429	-48.667	-13.938	NA
0.869315562959878	B5-03822-P01-CH0	231216	OK	0.2364689	0.0217074	0.0623321	-0.9693946	109.933	-13.74	-254.233	B5-03822-P02-CH0	231216	OK	0.6659456	0.3939834	-0.6334773	0	-73.071	-102.623	-3.475	B5-03822-P02-CH1	231216	OK	0.7142138	0.1936516	-0.6726052	0	-75.212	-86.718	-4.254	B5-03822-P03-CH0	231216	OK	0.8034086	-0.2253235	-0.5511478	0	-90.259	-64.83	-0.272	B5-03822-P03-CH1	231216	OK	0.757815	-0.5730748	0.3119321	0	-99.204	-34.647	-5.222	B5-03822-P04-CH0	231216	OK	0.7737168	-0.4291969	0.4659962	0	-118.541	-48.319	0.007	B5-03822-P04-CH1	231216	OK	0.70539	-0.6531916	0.2752557	0	-105.505	-48.499	-14.473	NA
0.879307695867463	B5-03822-P01-CH0	231224	OK	0.236613	0.0219052	0.0620806	-0.9693712	110.045	-13.818	-254.265	B5-03822-P02-CH0	231224	OK	0.6656614	0.3929081	-0.6344432	0	-73.222	-102.418	-3.401	B5-03822-P02-CH1	231224	OK	0.7143585	0.1936671	-0.672447	0	-75.154	-86.542	-4.273	B5-03822-P03-CH0	231224	OK	0.8022153	-0.2277082	-0.5519054	0	-90.155	-65.27	-0.504	B5-03822-P03-CH1	231224	OK	0.7588078	-0.571453	0.3124934	0	-99.242	-34.889	-5.232	B5-03822-P04-CH0	231224	OK	0.7733489	-0.4292387	0.4665678	0	-118.747	-48.565	0.097	B5-03822-P04-CH1	231224	OK	0.7051058	-0.6535916	0.2750341	0	-105.305	-48.506	-14.786	NA
0.889299828775048	B5-03822-P01-CH0	231232	OK	0.2369676	0.0218247	0.0625504	-0.9692562	110.087	-13.788	-254.33	B5-03822-P02-CH0	231232	OK	0.6655411	0.3919164	-0.6351823	0	-73.337	-102.477	-3.01	B5-03822-P02-CH1	231232	OK	0.7149353	0.1934946	-0.6718834	0	-74.888	-86.42	-4.621	B5-03822-P03-CH0	231232	OK	0.8022772	-0.229926	-0.550895	0	-89.769	-65.75	-0.629	B5-03822-P03-CH1	231232	OK	0.7592157	-0.5698875	0.314356	0	-99.274	-35.607	-5.467	B5-03822-P04-CH0	231232	OK	0.7731495	-0.4286775	0.4674136	0	-118.845	-48.761	0.104	B5-03822-P04-CH1	231232	OK	0.7052155	-0.6531444	0.2758143	0	-105.295	-48.802	-14.187	NA
0.899291961682632	B5-03822-P01-CH0	231240	OK	0.2372947	0.0219088	0.0626773	-0.969166	110.201	-13.835	-254.393	B5-03822-P02-CH0	231240	OK	0.6649431	0.3913527	-0.6361555	0	-73.543	-102.183	-2.687	B5-03822-P02-CH1	231240	OK	0.7181822	0.1903371	-0.6693177	0	-74.891	-86.278	-3.843	B5-03822-P03-CH0	231240	OK	0.8019239	-0.2294152	-0.5516219	0	-90.052	-65.328	-0.389	B5-03822-P03-CH1	231240	OK	0.759561	-0.5684768	0.3160716	0	-99.537	-36.365	-3.438	B5-03822-P04-CH0	231240	OK	0.7728638	-0.4280422	0.4684672	0	-119.031	-49.086	0.137	B5-03822-P04-CH1	231240	OK	0.7052016	-0.6529655	0.276273	0	-105.302	-49.045	-13.675	NA
0.909284094590217	B5-03822-P01-CH0	231248	OK	0.2375124	0.0217987	0.0629256	-0.9690991	110.206	-13.847	-254.405	B5-03822-P02-CH0	231248	OK	0.6644316	0.3942348	-0.6349091	0	-73.593	-103.065	-3.234	B5-03822-P02-CH1	231248	OK	0.7197519	0.1905534	-0.6675677	0	-74.432	-85.991	-4.789	B5-03822-P03-CH0	231248	OK	0.8013532	-0.2316116	-0.5515335	0	-90.219	-65.154	-0.847	B5-03822-P03-CH1	231248	OK	0.7601666	-0.5681413	0.3152177	0	-99.333	-35.74	-4.889	B5-03822-P04-CH0	231248	OK	0.7725379	-0.4274168	0.4695742	0	-119.021	-49.261	0.211	B5-03822-P04-CH1	231248	OK	0.7055243	-0.6526312	0.276239	0	-105.299	-48.946	-13.555	NA
0.919276227497802	B5-03822-P01-CH0	231256	OK	0.2383127	0.0215221	0.0647842	-0.9687863	110.197	-13.615	-254.459	B5-03822-P02-CH0	231256	OK	0.6642239	0.3928673	-0.6359733	0	-73.351	-102.89	-3.592	B5-03822-P02-CH1	231256	OK	0.7184083	0.1888729	-0.6694898	0	-75.279	-85.584	-3.723	B5-03822-P03-CH0	231256	OK	0.8016022	-0.2346957	-0.5498652	0	-89.972	-64.926	-1.938	B5-03822-P03-CH1	231256	OK	0.7614804	-0.5660956	0.3157267	0	-98.711	-35.597	-4.419	B5-03822-P04-CH0	231256	OK	0.7732054	-0.4252256	0.4704643	0	-119.302	-49.456	0.151	B5-03822-P04-CH1	231256	OK	0.7070104	-0.6511388	0.2759612	0	-105.351	-48.481	-14.368	NA
0.929268360405387	B5-03822-P01-CH0	231264	OK	0.2385053	0.0212944	0.065328	-0.9687074	110.135	-13.562	-254.484	B5-03822-P02-CH0	231264	OK	0.664628	0.3922845	-0.6359108	0	-73.014	-102.704	-3.766	B5-03822-P02-CH1	231264	OK	0.7183393	0.1879226	-0.6698312	0	-75.034	-84.783	-3.796	B5-03822-P03-CH0	231264	OK	0.8021979	-0.2393472	-0.546984	0	-89.589	-65.214	-0.304	B5-03822-P03-CH1	231264	OK	0.762235	-0.5643123	0.3170954	0	-99.158	-35.918	-3.428	B5-03822-P04-CH0	231264	OK	0.7731987	-0.4242604	0.4713459	0	-119.416	-49.556	0.187	B5-03822-P04-CH1	231264	OK	0.7073011	-0.6509824	0.2755848	0	-105.161	-48.26	-14.686	NA
0.939260493312971	B5-03822-P01-CH0	231272	OK	0.2385878	0.0213031	0.0654772	-0.9686768	110.118	-13.509	-254.448	B5-03822-P02-CH0	231272	OK	0.6646314	0.3919387	-0.6361204	0	-72.997	-102.557	-3.649	B5-03822-P02-CH1	231272	OK	0.7190295	0.1871943	-0.6692943	0	-74.397	-85.052	-4.868	B5-03822-P03-CH0	231272	OK	0.8013993	-0.2419057	-0.547029	0	-90.053	-64.755	-0.98	B5-03822-P03-CH1	231272	OK	0.7619648	-0.5643485	0.3176797	0	-98.982	-35.669	-4.062	B5-03822-P04-CH0	231272	OK	0.773089	-0.4236448	0.4720788	0	-119.582	-49.596	0.17	B5-03822-P04-CH1	231272	OK	0.7072824	-0.650884	0.2758652	0	-105.153	-48.305	-14.466	NA
0.949252626220556	B5-03822-P01-CH0	231280	OK	0.2384615	0.0212124	0.06563	-0.9686996	110.081	-13.464	-254.468	B5-03822-P02-CH0	231280	OK	0.6648282	0.3919224	-0.6359248	0	-72.895	-102.369	-3.625	B5-03822-P02-CH1	231280	OK	0.7182765	0.1855345	-0.6705638	0	-74.695	-85.051	-4.658	B5-03822-P03-CH0	231280	OK	0.8017274	-0.244847	-0.5452368	0	-89.598	-64.518	-2.241	B5-03822-P03-CH1	231280	OK	0.7613921	-0.5664533	0.3152979	0	-98.92	-35.131	-5.299	B5-03822-P04-CH0	231280	OK	0.7728418	-0.4234059	0.4726976	0	-119.705	-49.655	0.129	B5-03822-P04-CH1	231280	OK	0.7071865	-0.6509131	0.2760422	0	-105.23	-48.378	-14.211	NA
0.959244759128141	B5-03822-P01-CH0	231288	OK	0.238439	0.0212147	0.0656359	-0.9687047	110.098	-13.497	-254.477	B5-03822-P02-CH0	231288	OK	0.6649599	0.3919584	-0.6357649	0	-72.793	-102.301	-3.644	B5-03822-P02-CH1	231288	OK	0.7181409	0.1878897	-0.670053	0	-74.539	-85.509	-4.946	B5-03822-P03-CH0	231288	OK	0.8012656	-0.2486125	-0.5442107	0	-89.642	-65.07	-0.918	B5-03822-P03-CH1	231288	OK	0.76179	-0.5656717	0.3157395	0	-98.928	-35.135	-5.373	B5-03822-P04-CH0	231288	OK	0.7725597	-0.4233085	0.4732457	0	-119.803	-49.685	-0.093	B5-03822-P04-CH1	231288	OK	0.7071862	-0.6507948	0.2763218	0	-105.34	-48.472	-13.894	NA
0.969236892035726	B5-03822-P01-CH0	231296	OK	0.238468	0.0209575	0.0659992	-0.9686784	110.066	-13.477	-254.584	B5-03822-P02-CH0	231296	OK	0.664957	0.3920808	-0.6356924	0	-72.732	-102.195	-3.56	B5-03822-P02-CH1	231296	OK	0.7184932	0.187178	-0.6698745	0	-74.446	-85.355	-4.719	B5-03822-P03-CH0	231296	OK	0.8009076	-0.2514063	-0.5434536	0	-89.956	-65.045	-1.431	B5-03822-P03-CH1	231296	OK	0.7622556	-0.5647705	0.3162289	0	-98.893	-35.102	-5.361	B5-03822-P04-CH0	231296	OK	0.7722219	-0.4230979	0.4739847	0	-119.749	-49.663	-0.168	B5-03822-P04-CH1	231296	OK	0.707363	-0.6507762	0.275913	0	-105.323	-48.353	-14.123	NA
0.979229024943311	B5-03822-P01-CH0	231304	OK	0.238753	0.020565	0.0670255	-0.9685462	109.96	-13.353	-254.569	B5-03822-P02-CH0	231304	OK	0.664618	0.3922174	-0.6359626	0	-72.699	-102.084	-3.724	B5-03822-P02-CH1	231304	OK	0.7183907	0.1862424	-0.6702451	0	-74.413	-85.193	-4.771	B5-03822-P03-CH0	231304	OK	0.802158	-0.2535203	-0.54062	0	-89.47	-64.631	-1.089	B5-03822-P03-CH1	231304	OK	0.7629376	-0.563497	0.3168555	0	-98.857	-35.048	-5.358	B5-03822-P04-CH0	231304	OK	0.7721803	-0.4224131	0.4746628	0	-119.745	-49.661	-0.276	B5-03822-P04-CH1	231304	OK	0.7081678	-0.6499615	0.2757687	0	-105.321	-48	-14.528	NA
