Wav.Time	B5.03822.P01.CH0	Frame	State	Q0	Qx	Qy	Qz	Tx	Ty	Tz	B5.03822.P02.CH0	Frame.1	State.1	Q0.1	Qx.1	Qy.1	Qz.1	Tx.1	Ty.1	Tz.1	B5.03822.P02.CH1	Frame.2	State.2	Q0.2	Qx.2	Qy.2	Qz.2	Tx.2	Ty.2	Tz.2	B5.03822.P03.CH0	Frame.3	State.3	Q0.3	Qx.3	Qy.3	Qz.3	Tx.3	Ty.3	Tz.3	B5.03822.P03.CH1	Frame.4	State.4	Q0.4	Qx.4	Qy.4	Qz.4	Tx.4	Ty.4	Tz.4	B5.03822.P04.CH0	Frame.5	State.5	Q0.5	Qx.5	Qy.5	Qz.5	Tx.5	Ty.5	Tz.5	B5.03822.P04.CH1	Frame.6	State.6	Q0.6	Qx.6	Qy.6	Qz.6	Tx.6	Ty.6	Tz.6	X
0	B5-03822-P01-CH0	980072	OK	0.2028658	0.0536321	0.0763684	-0.9747497	108.705	-29.768	-291.358	B5-03822-P02-CH0	980072	OK	0.7462362	0.1030683	-0.6576538	0	-81.562	-98.411	1.19	B5-03822-P02-CH1	980072	OK	0.760898	-0.1883364	-0.6209377	0	-81.131	-79.139	-1.409	B5-03822-P03-CH0	980072	OK	0.8087768	-0.2598769	-0.5275832	0	-96.895	-60.475	9.135	B5-03822-P03-CH1	980072	OK	0.8071281	-0.5153265	0.2880674	0	-99.357	-32.562	11.209	B5-03822-P04-CH0	980072	OK	0.795096	-0.3016405	0.5261515	0	-120.753	-38.879	13.782	B5-03822-P04-CH1	980072	OK	0.8208723	-0.5707346	0.0207512	0	-108.767	-53.694	11.103	NA
0.00999182186535817	B5-03822-P01-CH0	980080	OK	0.2026362	0.05329	0.0764769	-0.9748077	108.54	-29.783	-291.512	B5-03822-P02-CH0	980080	OK	0.7468114	0.1010339	-0.6573164	0	-81.444	-98.538	1.147	B5-03822-P02-CH1	980080	OK	0.7609086	-0.1882179	-0.6209607	0	-81.375	-81.033	0.701	B5-03822-P03-CH0	980080	OK	0.8140391	-0.2558949	-0.5214001	0	-96.145	-60.982	9.617	B5-03822-P03-CH1	980080	OK	0.8055976	-0.5120657	0.2979954	0	-101.683	-36.406	17.606	B5-03822-P04-CH0	980080	OK	0.7945596	-0.3104326	0.5218301	0	-121.13	-40.699	14.709	B5-03822-P04-CH1	980080	OK	0.8209572	-0.5706106	0.0208058	0	-108.634	-53.688	11.167	NA
0.0199836437307163	B5-03822-P01-CH0	980088	OK	0.202634	0.0530737	0.0764346	-0.9748233	108.475	-29.878	-291.659	B5-03822-P02-CH0	980088	OK	0.7471309	0.0980787	-0.6574009	0	-81.482	-98.886	1.229	B5-03822-P02-CH1	980088	OK	0.7634722	-0.1843484	-0.6189716	0	-80.059	-80.758	4.351	B5-03822-P03-CH0	980088	OK	0.8153241	-0.2515662	-0.5214989	0	-97.23	-61.024	8.294	B5-03822-P03-CH1	980088	OK	0.8016266	-0.5121105	0.3084439	0	-99.648	-34.964	10.147	B5-03822-P04-CH0	980088	OK	0.7937483	-0.3204084	0.5170127	0	-120.753	-41.204	15.039	B5-03822-P04-CH1	980088	OK	0.8210812	-0.5704276	0.0209289	0	-108.495	-53.832	11.559	NA
0.0299754655960745	B5-03822-P01-CH0	980096	OK	0.2027472	0.0532119	0.0764287	-0.9747926	108.525	-29.894	-291.591	B5-03822-P02-CH0	980096	OK	0.7501979	0.0799512	-0.6563619	0	-81.098	-99.407	0.36	B5-03822-P02-CH1	980096	OK	0.7633193	-0.1799846	-0.6204428	0	-80.285	-79.942	-1.604	B5-03822-P03-CH0	980096	OK	0.818201	-0.2503845	-0.5175468	0	-96.612	-61.935	10.871	B5-03822-P03-CH1	980096	OK	0.8041055	-0.5046088	0.3142997	0	-101.412	-34.669	14.814	B5-03822-P04-CH0	980096	OK	0.7928415	-0.3294014	0.5127348	0	-119.954	-40.446	12.978	B5-03822-P04-CH1	980096	OK	0.8212637	-0.570166	0.0208973	0	-108.639	-53.87	11.825	NA
0.0399672874614327	B5-03822-P01-CH0	980104	OK	0.202605	0.0533159	0.0760457	-0.9748465	108.533	-29.968	-291.532	B5-03822-P02-CH0	980104	OK	0.7502828	0.0747192	-0.656881	0	-81.792	-99.462	0.185	B5-03822-P02-CH1	980104	OK	0.7600625	-0.1796261	-0.6245314	0	-81.494	-82.099	1.701	B5-03822-P03-CH0	980104	OK	0.819674	-0.246798	-0.5169383	0	-97.634	-61.392	11.073	B5-03822-P03-CH1	980104	OK	0.80349	-0.499588	0.3237524	0	-102.234	-36.048	16.716	B5-03822-P04-CH0	980104	OK	0.7922211	-0.3391683	0.5072974	0	-118.551	-39.031	12.165	B5-03822-P04-CH1	980104	OK	0.8209863	-0.5705788	0.0205254	0	-108.718	-53.978	11.802	NA
0.0499591093267908	B5-03822-P01-CH0	980112	OK	0.2022975	0.0531494	0.0758334	-0.974936	108.417	-29.94	-291.528	B5-03822-P02-CH0	980112	OK	0.7515071	0.068114	-0.6561994	0	-81.395	-99.316	1.249	B5-03822-P02-CH1	980112	OK	0.7607867	-0.175677	-0.6247729	0	-80.109	-82.227	3.422	B5-03822-P03-CH0	980112	OK	0.8221818	-0.2438752	-0.5143364	0	-98.047	-61.225	10.58	B5-03822-P03-CH1	980112	OK	0.8026882	-0.4967595	0.3300329	0	-101.575	-35.243	14.041	B5-03822-P04-CH0	980112	OK	0.7942567	-0.3447629	0.5002948	0	-119.672	-39.694	14.028	B5-03822-P04-CH1	980112	OK	0.8208436	-0.5707999	0.020083	0	-108.514	-53.903	11.816	NA
0.059950931192149	B5-03822-P01-CH0	980120	OK	0.2022817	0.0528915	0.0761897	-0.9749255	108.34	-29.937	-291.593	B5-03822-P02-CH0	980120	OK	0.7523227	0.0620617	-0.655865	0	-81.016	-99.752	1.634	B5-03822-P02-CH1	980120	OK	0.7601027	-0.1677329	-0.6277814	0	-79.823	-81.392	1.298	B5-03822-P03-CH0	980120	OK	0.828402	-0.2466693	-0.502896	0	-97.507	-62.107	10.893	B5-03822-P03-CH1	980120	OK	0.8028928	-0.4933475	0.3346212	0	-101.239	-34.871	13.342	B5-03822-P04-CH0	980120	OK	0.7942034	-0.3490887	0.4973711	0	-119.97	-41.227	15.377	B5-03822-P04-CH1	980120	OK	0.8211573	-0.57037	0.0194613	0	-108.548	-53.883	11.918	NA
0.0699427530575072	B5-03822-P01-CH0	980128	OK	0.2023301	0.053067	0.0764343	-0.9748868	108.373	-29.812	-291.591	B5-03822-P02-CH0	980128	OK	0.7527985	0.0560314	-0.655862	0	-80.581	-100.115	1.544	B5-03822-P02-CH1	980128	OK	0.7584386	-0.1641109	-0.6307443	0	-79.513	-81.076	0.835	B5-03822-P03-CH0	980128	OK	0.8350541	-0.2523125	-0.4888999	0	-97.697	-62.603	11.8	B5-03822-P03-CH1	980128	OK	0.8014899	-0.4936826	0.337478	0	-99.698	-34.672	10.705	B5-03822-P04-CH0	980128	OK	0.7944735	-0.3498514	0.4964028	0	-119.805	-41.463	16.243	B5-03822-P04-CH1	980128	OK	0.8213896	-0.5700599	0.0187305	0	-108.588	-53.775	12.187	NA
0.0799345749228653	B5-03822-P01-CH0	980136	OK	0.2022248	0.0532955	0.0764272	-0.9748967	108.467	-29.793	-291.623	B5-03822-P02-CH0	980136	OK	0.7533708	0.0523208	-0.6555112	0	-79.552	-100.054	1.055	B5-03822-P02-CH1	980136	OK	0.7554784	-0.1603868	-0.6352389	0	-78.763	-81.798	2.396	B5-03822-P03-CH0	980136	OK	0.8417956	-0.2616433	-0.4721472	0	-97.716	-62.895	12.118	B5-03822-P03-CH1	980136	OK	0.8054102	-0.4889559	0.3350174	0	-102.983	-36.94	16.189	B5-03822-P04-CH0	980136	OK	0.7932154	-0.3520521	0.4968588	0	-117.645	-38.108	12.285	B5-03822-P04-CH1	980136	OK	0.8215345	-0.5698898	0.017514	0	-108.752	-53.666	12.587	NA
0.0899263967882235	B5-03822-P01-CH0	980144	OK	0.2020881	0.0534834	0.0759632	-0.974951	108.488	-29.774	-291.593	B5-03822-P02-CH0	980144	OK	0.74997	0.0482839	-0.6597073	0	-80.496	-100.16	1.422	B5-03822-P02-CH1	980144	OK	0.7506562	-0.1547476	-0.6423149	0	-77.834	-82.357	1.603	B5-03822-P03-CH0	980144	OK	0.8489208	-0.2693956	-0.4547082	0	-96.687	-63.181	12.481	B5-03822-P03-CH1	980144	OK	0.8052239	-0.4911523	0.3322408	0	-102.024	-37.076	14.981	B5-03822-P04-CH0	980144	OK	0.793398	-0.3464354	0.5005018	0	-117.781	-39.393	12.796	B5-03822-P04-CH1	980144	OK	0.8212985	-0.5702579	0.0165724	0	-108.712	-53.576	12.64	NA
0.0999182186535817	B5-03822-P01-CH0	980152	OK	0.2021746	0.053239	0.0764643	-0.9749073	108.369	-29.753	-291.571	B5-03822-P02-CH0	980152	OK	0.7469757	0.0463698	-0.6632324	0	-80.764	-100.564	2.136	B5-03822-P02-CH1	980152	OK	0.7435868	-0.1452505	-0.6526721	0	-77.677	-81.755	-1.628	B5-03822-P03-CH0	980152	OK	0.854796	-0.2771522	-0.4387601	0	-95.992	-64.549	14.71	B5-03822-P03-CH1	980152	OK	0.8084854	-0.4918514	0.3231618	0	-100.406	-33.434	12.463	B5-03822-P04-CH0	980152	OK	0.7954068	-0.3343896	0.5054816	0	-118.72	-40.824	14.259	B5-03822-P04-CH1	980152	OK	0.8217405	-0.5696485	0.0155916	0	-108.739	-53.398	12.614	NA
0.10991004051894	B5-03822-P01-CH0	980160	OK	0.2022556	0.0532209	0.0771842	-0.9748348	108.299	-29.573	-291.436	B5-03822-P02-CH0	980160	OK	0.7459222	0.0489098	-0.6642348	0	-80.405	-101.37	1.938	B5-03822-P02-CH1	980160	OK	0.7383506	-0.1375982	-0.6602311	0	-76.141	-83.41	0.233	B5-03822-P03-CH0	980160	OK	0.8617215	-0.2816543	-0.4220272	0	-95.029	-64.781	14.067	B5-03822-P03-CH1	980160	OK	0.8121304	-0.4904187	0.316123	0	-103.529	-37.302	19.666	B5-03822-P04-CH0	980160	OK	0.7976189	-0.320354	0.5110553	0	-118.509	-41.096	17.986	B5-03822-P04-CH1	980160	OK	0.8222948	-0.5688663	0.0149144	0	-108.68	-53.104	12.477	NA
0.119901862384298	B5-03822-P01-CH0	980168	OK	0.2017606	0.0534963	0.0762797	-0.9749934	108.253	-29.538	-291.229	B5-03822-P02-CH0	980168	OK	0.7454562	0.0566072	-0.6641466	0	-80.07	-101.246	0.688	B5-03822-P02-CH1	980168	OK	0.7340252	-0.1251118	-0.6674984	0	-75.513	-83.12	0.674	B5-03822-P03-CH0	980168	OK	0.8654752	-0.285012	-0.411972	0	-95.334	-65.95	14.007	B5-03822-P03-CH1	980168	OK	0.8103888	-0.4973219	0.3097431	0	-101.069	-35.339	11.89	B5-03822-P04-CH0	980168	OK	0.797352	-0.3092854	0.5182397	0	-119.343	-41.683	16.217	B5-03822-P04-CH1	980168	OK	0.8217844	-0.5696355	0.0136314	0	-108.774	-52.887	12.414	NA
0.129893684249656	B5-03822-P01-CH0	980176	OK	0.2014	0.053181	0.0762581	-0.9750869	108.124	-29.53	-291.3	B5-03822-P02-CH0	980176	OK	0.7438326	0.0636519	-0.6653281	0	-81.07	-102.267	-1.176	B5-03822-P02-CH1	980176	OK	0.7307489	-0.109892	-0.6737432	0	-76.017	-82.326	-2.094	B5-03822-P03-CH0	980176	OK	0.8700417	-0.2828706	-0.403747	0	-95.291	-67.108	15.327	B5-03822-P03-CH1	980176	OK	0.812405	-0.4993542	0.3010705	0	-99.892	-35.018	15.489	B5-03822-P04-CH0	980176	OK	0.7974147	-0.2931365	0.5274474	0	-120.544	-42.496	16.453	B5-03822-P04-CH1	980176	OK	0.8217822	-0.5696564	0.0128675	0	-108.685	-52.775	12.364	NA
0.139885506115014	B5-03822-P01-CH0	980184	OK	0.2015333	0.0531119	0.0765528	-0.9750401	108.079	-29.433	-291.365	B5-03822-P02-CH0	980184	OK	0.7428812	0.0714566	-0.6655985	0	-81.564	-102.805	-0.464	B5-03822-P02-CH1	980184	OK	0.7307239	-0.0989279	-0.6754671	0	-75.777	-84.477	-0.709	B5-03822-P03-CH0	980184	OK	0.8757032	-0.2798599	-0.3934746	0	-93.8	-67.81	16.196	B5-03822-P03-CH1	980184	OK	0.8133084	-0.5035763	0.2914454	0	-101.312	-36.388	17.425	B5-03822-P04-CH0	980184	OK	0.7957184	-0.27606	0.5390947	0	-120.365	-41.461	16.521	B5-03822-P04-CH1	980184	OK	0.8221241	-0.5691661	0.0127216	0	-108.699	-52.6	12.366	NA
0.149877327980372	B5-03822-P01-CH0	980192	OK	0.2016392	0.0533893	0.0765268	-0.9750051	108.152	-29.372	-291.369	B5-03822-P02-CH0	980192	OK	0.743129	0.0788303	-0.6644885	0	-81.604	-102.525	-0.215	B5-03822-P02-CH1	980192	OK	0.7319449	-0.0877248	-0.6756929	0	-75.608	-86.021	2.369	B5-03822-P03-CH0	980192	OK	0.8775343	-0.275754	-0.3922923	0	-93.848	-67.317	15.659	B5-03822-P03-CH1	980192	OK	0.8121732	-0.509852	0.2835942	0	-100.796	-35.87	13.191	B5-03822-P04-CH0	980192	OK	0.7932784	-0.2621635	0.5495268	0	-121.09	-40.543	13.388	B5-03822-P04-CH1	980192	OK	0.8221909	-0.5690691	0.0127465	0	-108.837	-52.642	12.547	NA
0.159869149845731	B5-03822-P01-CH0	980200	OK	0.2013493	0.0532452	0.0765743	-0.9750691	108.033	-29.369	-291.198	B5-03822-P02-CH0	980200	OK	0.7429806	0.0863226	-0.663723	0	-82.212	-102.942	-0.093	B5-03822-P02-CH1	980200	OK	0.7324724	-0.071224	-0.6770608	0	-75.141	-85.083	-1.066	B5-03822-P03-CH0	980200	OK	0.8760268	-0.2794807	-0.3930235	0	-92.809	-68.196	15.566	B5-03822-P03-CH1	980200	OK	0.8129897	-0.5108923	0.2793507	0	-99.894	-35.613	14.848	B5-03822-P04-CH0	980200	OK	0.7911868	-0.2505703	0.5578871	0	-121.734	-40.421	11.839	B5-03822-P04-CH1	980200	OK	0.8221725	-0.5690969	0.0126958	0	-108.827	-52.635	12.261	NA
0.169860971711089	B5-03822-P01-CH0	980208	OK	0.2008164	0.0532177	0.0757607	-0.9752441	107.968	-29.446	-291.148	B5-03822-P02-CH0	980208	OK	0.743823	0.0902976	-0.662249	0	-82.428	-102.554	0.34	B5-03822-P02-CH1	980208	OK	0.7326949	-0.0614943	-0.6777733	0	-74.45	-85.157	-2.198	B5-03822-P03-CH0	980208	OK	0.8723319	-0.2833094	-0.3984631	0	-92.555	-68.381	16.12	B5-03822-P03-CH1	980208	OK	0.8146102	-0.509812	0.27659	0	-102.059	-37.44	19.059	B5-03822-P04-CH0	980208	OK	0.7896314	-0.238265	0.5654309	0	-121.915	-41.388	13.545	B5-03822-P04-CH1	980208	OK	0.821698	-0.5697783	0.0128489	0	-108.688	-52.646	12.055	NA
0.179852793576447	B5-03822-P01-CH0	980216	OK	0.2008226	0.0530973	0.0766069	-0.9751832	107.884	-29.298	-291.019	B5-03822-P02-CH0	980216	OK	0.744164	0.091927	-0.6616414	0	-82.837	-101.957	1.169	B5-03822-P02-CH1	980216	OK	0.7300333	-0.0535424	-0.6813109	0	-75.03	-85.197	1.635	B5-03822-P03-CH0	980216	OK	0.8661403	-0.2860458	-0.4098521	0	-92.555	-67.622	14.567	B5-03822-P03-CH1	980216	OK	0.8135323	-0.5125801	0.2746395	0	-100.546	-36.002	11.851	B5-03822-P04-CH0	980216	OK	0.7902823	-0.2283024	0.5686228	0	-123.038	-41.957	14.565	B5-03822-P04-CH1	980216	OK	0.8222947	-0.5689053	0.0133467	0	-108.625	-52.536	11.807	NA
0.189844615441805	B5-03822-P01-CH0	980224	OK	0.2008292	0.0531648	0.0772048	-0.975131	107.881	-29.167	-290.896	B5-03822-P02-CH0	980224	OK	0.7469838	0.0918937	-0.6584609	0	-82.032	-103	0.072	B5-03822-P02-CH1	980224	OK	0.7292429	-0.0473073	-0.6826176	0	-74.921	-83.631	-1.007	B5-03822-P03-CH0	980224	OK	0.8552234	-0.2917078	-0.4283685	0	-93.381	-67.489	12.457	B5-03822-P03-CH1	980224	OK	0.8155912	-0.5115029	0.2705102	0	-99.362	-35.55	15.159	B5-03822-P04-CH0	980224	OK	0.7894494	-0.2248052	0.5711674	0	-123.025	-41.878	13.861	B5-03822-P04-CH1	980224	OK	0.8226279	-0.5684119	0.0138297	0	-108.744	-52.594	11.794	NA
0.199836437307163	B5-03822-P01-CH0	980232	OK	0.2004523	0.0536955	0.0763073	-0.9752502	108.066	-29.232	-290.834	B5-03822-P02-CH0	980232	OK	0.7484044	0.0950343	-0.6563987	0	-81.674	-101.614	0.492	B5-03822-P02-CH1	980232	OK	0.7278535	-0.0478817	-0.684059	0	-75.829	-84.926	-0.756	B5-03822-P03-CH0	980232	OK	0.8414156	-0.2975148	-0.451115	0	-92.474	-67.881	10.961	B5-03822-P03-CH1	980232	OK	0.813981	-0.515149	0.2684333	0	-99.87	-37.108	15.378	B5-03822-P04-CH0	980232	OK	0.7884697	-0.2231908	0.5731504	0	-122.572	-41.353	13.629	B5-03822-P04-CH1	980232	OK	0.8221258	-0.5691339	0.0139962	0	-108.91	-52.782	12.059	NA
0.209828259172521	B5-03822-P01-CH0	980240	OK	0.2004	0.053965	0.0760258	-0.975268	108.142	-29.216	-290.879	B5-03822-P02-CH0	980240	OK	0.7471064	0.0968492	-0.6576111	0	-82.958	-101.154	-0.666	B5-03822-P02-CH1	980240	OK	0.7309344	-0.0498613	-0.6806238	0	-74.697	-83.988	2.231	B5-03822-P03-CH0	980240	OK	0.820594	-0.2953827	-0.4892593	0	-92.865	-66.379	9.758	B5-03822-P03-CH1	980240	OK	0.8131625	-0.5170804	0.2671977	0	-100.041	-36.378	11.299	B5-03822-P04-CH0	980240	OK	0.7887196	-0.2208075	0.5737295	0	-122.666	-42.462	15.139	B5-03822-P04-CH1	980240	OK	0.8219818	-0.5693308	0.0144327	0	-108.875	-52.895	12.25	NA
0.21982008103788	B5-03822-P01-CH0	980248	OK	0.2006644	0.0538396	0.0769762	-0.975146	108.104	-29.062	-290.909	B5-03822-P02-CH0	980248	OK	0.7478321	0.0958462	-0.6569328	0	-83.199	-101.118	0.561	B5-03822-P02-CH1	980248	OK	0.7333356	-0.0587778	-0.6773213	0	-75.026	-84.085	-1.351	B5-03822-P03-CH0	980248	OK	0.8015562	-0.2883571	-0.5237919	0	-90.592	-64.752	7.202	B5-03822-P03-CH1	980248	OK	0.817477	-0.5120868	0.2636255	0	-101.513	-35.206	15.957	B5-03822-P04-CH0	980248	OK	0.7897986	-0.2187746	0.5730235	0	-123.125	-42.317	14.978	B5-03822-P04-CH1	980248	OK	0.8225437	-0.5685064	0.0149081	0	-108.896	-52.936	12.333	NA
0.229811902903238	B5-03822-P01-CH0	980256	OK	0.2004607	0.0541853	0.0759192	-0.9752516	108.138	-29.146	-290.819	B5-03822-P02-CH0	980256	OK	0.7487054	0.0884129	-0.6569805	0	-84.185	-101.072	1.645	B5-03822-P02-CH1	980256	OK	0.7401404	-0.0801302	-0.6676611	0	-74.307	-82.864	-1.244	B5-03822-P03-CH0	980256	OK	0.7835087	-0.2790999	-0.5551733	0	-88.831	-63.116	4.095	B5-03822-P03-CH1	980256	OK	0.8131977	-0.5182428	0.2648281	0	-98.442	-34.018	9.807	B5-03822-P04-CH0	980256	OK	0.7895087	-0.2219755	0.5721913	0	-121.883	-40.178	13.945	B5-03822-P04-CH1	980256	OK	0.8219272	-0.5693978	0.0148915	0	-108.91	-53.081	12.505	NA
0.239803724768596	B5-03822-P01-CH0	980264	OK	0.2000549	0.0544233	0.0752838	-0.975371	108.193	-29.18	-290.773	B5-03822-P02-CH0	980264	OK	0.7526891	0.0819979	-0.6532499	0	-83.931	-98.832	2.707	B5-03822-P02-CH1	980264	OK	0.7452675	-0.0995534	-0.6592917	0	-76.261	-82.171	2.095	B5-03822-P03-CH0	980264	OK	0.7709298	-0.2671712	-0.5781753	0	-88.816	-62.148	5.041	B5-03822-P03-CH1	980264	OK	0.8133457	-0.5182166	0.2644246	0	-99.496	-36.726	16.298	B5-03822-P04-CH0	980264	OK	0.7893035	-0.2233697	0.5719319	0	-121.779	-40.107	11.903	B5-03822-P04-CH1	980264	OK	0.8214903	-0.5700369	0.0145473	0	-108.913	-53.189	12.724	NA
0.249795546633954	B5-03822-P01-CH0	980272	OK	0.1996613	0.0543263	0.0753596	-0.9754512	108.066	-29.081	-290.661	B5-03822-P02-CH0	980272	OK	0.7582399	0.0695216	-0.6482585	0	-83.202	-97.729	2.759	B5-03822-P02-CH1	980272	OK	0.7521909	-0.1221902	-0.6475171	0	-76.861	-81.284	-1.056	B5-03822-P03-CH0	980272	OK	0.7605363	-0.2592121	-0.5953097	0	-91.008	-60.593	3.461	B5-03822-P03-CH1	980272	OK	0.8139321	-0.5157525	0.2674206	0	-100.278	-35.808	15.172	B5-03822-P04-CH0	980272	OK	0.7906696	-0.224953	0.5694188	0	-123.348	-42.547	15.446	B5-03822-P04-CH1	980272	OK	0.8216213	-0.5698603	0.0140594	0	-108.803	-52.934	12.621	NA
0.259787368499312	B5-03822-P01-CH0	980280	OK	0.19957	0.0545833	0.0752068	-0.9754673	108.084	-28.991	-290.601	B5-03822-P02-CH0	980280	OK	0.7614068	0.0556372	-0.6458825	0	-83.331	-96.773	2.907	B5-03822-P02-CH1	980280	OK	0.7574171	-0.1419107	-0.637323	0	-78.022	-79.412	1.608	B5-03822-P03-CH0	980280	OK	0.7517639	-0.252201	-0.6092993	0	-89.051	-59.029	3.041	B5-03822-P03-CH1	980280	OK	0.8140797	-0.5165642	0.2653972	0	-100.221	-35.519	15.087	B5-03822-P04-CH0	980280	OK	0.7904052	-0.2235403	0.5703414	0	-122.997	-41.86	15.094	B5-03822-P04-CH1	980280	OK	0.8215628	-0.5699511	0.0137945	0	-108.645	-52.822	12.725	NA
0.26977919036467	B5-03822-P01-CH0	980288	OK	0.1996635	0.054363	0.0758293	-0.9754123	107.971	-28.923	-290.665	B5-03822-P02-CH0	980288	OK	0.7632175	0.0417472	-0.6447917	0	-83.787	-96.262	3.7	B5-03822-P02-CH1	980288	OK	0.7607932	-0.1650464	-0.627657	0	-79.801	-79.744	2.337	B5-03822-P03-CH0	980288	OK	0.7427114	-0.233687	-0.627511	0	-88.311	-58.03	3.375	B5-03822-P03-CH1	980288	OK	0.8142537	-0.5170405	0.2639319	0	-99.957	-35.514	15.024	B5-03822-P04-CH0	980288	OK	0.7903227	-0.2225515	0.5708422	0	-122.519	-41.42	15.094	B5-03822-P04-CH1	980288	OK	0.8219736	-0.5693692	0.0133428	0	-108.591	-52.709	12.812	NA
0.279771012230029	B5-03822-P01-CH0	980296	OK	0.1991967	0.0548692	0.074203	-0.9756044	108.02	-29.062	-290.553	B5-03822-P02-CH0	980296	OK	0.765772	0.0270214	-0.6425443	0	-84	-96.723	5.183	B5-03822-P02-CH1	980296	OK	0.7697046	-0.1788003	-0.6128502	0	-78.627	-78.458	1.49	B5-03822-P03-CH0	980296	OK	0.7400915	-0.2101838	-0.6388172	0	-88.794	-58.917	6.457	B5-03822-P03-CH1	980296	OK	0.8133606	-0.5194516	0.2619438	0	-100.043	-35.296	14.414	B5-03822-P04-CH0	980296	OK	0.7900394	-0.2232132	0.570976	0	-122.3	-41.183	15.124	B5-03822-P04-CH1	980296	OK	0.8206805	-0.5712466	0.0126823	0	-108.61	-52.915	12.833	NA
0.289762834095387	B5-03822-P01-CH0	980304	OK	0.1988994	0.0549455	0.0737479	-0.9756953	107.99	-29.115	-290.604	B5-03822-P02-CH0	980304	OK	0.7683952	0.0157777	-0.6397811	0	-83.471	-96.34	5.225	B5-03822-P02-CH1	980304	OK	0.7777133	-0.1891646	-0.5994821	0	-78.609	-77.059	2.892	B5-03822-P03-CH0	980304	OK	0.7443472	-0.1924242	-0.6394686	0	-89.378	-59.266	6.856	B5-03822-P03-CH1	980304	OK	0.8128692	-0.5209337	0.260522	0	-99.857	-35.2	14.227	B5-03822-P04-CH0	980304	OK	0.7896956	-0.2240103	0.5711394	0	-121.903	-40.921	14.852	B5-03822-P04-CH1	980304	OK	0.8204075	-0.5716542	0.0119567	0	-108.509	-52.798	12.844	NA
0.299754655960745	B5-03822-P01-CH0	980312	OK	0.1986804	0.0547886	0.0736812	-0.9757538	107.782	-28.993	-290.587	B5-03822-P02-CH0	980312	OK	0.7713842	0.0062315	-0.6363392	0	-82.442	-95.982	3.773	B5-03822-P02-CH1	980312	OK	0.7819161	-0.199576	-0.5905732	0	-79.681	-78.375	4.545	B5-03822-P03-CH0	980312	OK	0.7478024	-0.1914974	-0.6357046	0	-91.036	-58.836	6.619	B5-03822-P03-CH1	980312	OK	0.8127801	-0.5217331	0.259197	0	-99.816	-35.028	14.751	B5-03822-P04-CH0	980312	OK	0.7895816	-0.2248569	0.5709643	0	-121.572	-40.25	14.2	B5-03822-P04-CH1	980312	OK	0.820285	-0.5718392	0.0115076	0	-108.25	-52.567	12.759	NA
0.309746477826103	B5-03822-P01-CH0	980320	OK	0.1984211	0.0547118	0.0735355	-0.9758218	107.689	-28.951	-290.468	B5-03822-P02-CH0	980320	OK	0.7717544	-0.0010795	-0.6359198	0	-82.66	-96.002	2.208	B5-03822-P02-CH1	980320	OK	0.7848057	-0.2050223	-0.5848469	0	-80.245	-78.035	5.148	B5-03822-P03-CH0	980320	OK	0.754769	-0.1997311	-0.624845	0	-90.682	-58.423	5.93	B5-03822-P03-CH1	980320	OK	0.8123419	-0.5231898	0.2576298	0	-99.413	-34.419	13.693	B5-03822-P04-CH0	980320	OK	0.789358	-0.2259493	0.5708423	0	-121.212	-39.609	13.505	B5-03822-P04-CH1	980320	OK	0.8201791	-0.5720028	0.0109066	0	-108.251	-52.412	12.745	NA
0.319738299691461	B5-03822-P01-CH0	980328	OK	0.198277	0.0547981	0.07311	-0.9758782	107.665	-28.985	-290.496	B5-03822-P02-CH0	980328	OK	0.7710865	-0.0064366	-0.6366979	0	-82.336	-96.367	4.123	B5-03822-P02-CH1	980328	OK	0.7863031	-0.2063153	-0.5823756	0	-81.193	-76.858	2.575	B5-03822-P03-CH0	980328	OK	0.7595626	-0.2055569	-0.6170989	0	-91.43	-58.67	6.792	B5-03822-P03-CH1	980328	OK	0.8117528	-0.5244837	0.2568546	0	-99.093	-34.879	15.032	B5-03822-P04-CH0	980328	OK	0.7892798	-0.2266152	0.5706863	0	-121.103	-39.444	13.138	B5-03822-P04-CH1	980328	OK	0.8199743	-0.5723013	0.0106492	0	-108.137	-52.278	12.719	NA
0.329730121556819	B5-03822-P01-CH0	980336	OK	0.1983139	0.0547924	0.0733661	-0.9758518	107.599	-28.842	-290.429	B5-03822-P02-CH0	980336	OK	0.7681153	-0.0085011	-0.6402551	0	-83.032	-95.497	3.237	B5-03822-P02-CH1	980336	OK	0.7888897	-0.2115026	-0.576992	0	-81.006	-78.698	2.359	B5-03822-P03-CH0	980336	OK	0.7663292	-0.2055156	-0.6086895	0	-91.077	-58.463	7.198	B5-03822-P03-CH1	980336	OK	0.8117649	-0.5251192	0.2555142	0	-99.39	-34.734	14.632	B5-03822-P04-CH0	980336	OK	0.7892904	-0.2271305	0.5704669	0	-120.929	-39.131	12.917	B5-03822-P04-CH1	980336	OK	0.820122	-0.5720921	0.010514	0	-108.177	-52.068	12.583	NA
0.339721943422178	B5-03822-P01-CH0	980344	OK	0.198411	0.0545808	0.0737709	-0.9758134	107.479	-28.787	-290.412	B5-03822-P02-CH0	980344	OK	0.7690583	-0.0093828	-0.6391098	0	-81.701	-95.501	4.579	B5-03822-P02-CH1	980344	OK	0.7937739	-0.2118412	-0.5701284	0	-81.076	-79.154	6.844	B5-03822-P03-CH0	980344	OK	0.7708698	-0.1986894	-0.6052125	0	-92.498	-58.64	6.84	B5-03822-P03-CH1	980344	OK	0.8118917	-0.525479	0.2543693	0	-98.971	-34.328	14.192	B5-03822-P04-CH0	980344	OK	0.7892046	-0.2278809	0.5702863	0	-120.677	-38.818	12.687	B5-03822-P04-CH1	980344	OK	0.8203467	-0.5717711	0.0104409	0	-108.124	-51.976	12.436	NA
0.349713765287536	B5-03822-P01-CH0	980352	OK	0.1983072	0.0549532	0.0731256	-0.9758622	107.61	-28.965	-290.367	B5-03822-P02-CH0	980352	OK	0.7693036	-0.0101589	-0.6388027	0	-81.623	-96.558	3.562	B5-03822-P02-CH1	980352	OK	0.8002415	-0.2086531	-0.5622077	0	-81.294	-78.112	5.707	B5-03822-P03-CH0	980352	OK	0.7770832	-0.1875797	-0.6007958	0	-92.887	-59.387	9.015	B5-03822-P03-CH1	980352	OK	0.8114691	-0.5264068	0.2537986	0	-99.058	-35.018	15.307	B5-03822-P04-CH0	980352	OK	0.7892115	-0.2292038	0.5697463	0	-120.706	-38.78	12.551	B5-03822-P04-CH1	980352	OK	0.8198336	-0.5725125	0.0101172	0	-108.276	-52.183	12.405	NA
0.359705587152894	B5-03822-P01-CH0	980360	OK	0.1980932	0.0545156	0.07267	-0.9759642	107.388	-29.049	-290.364	B5-03822-P02-CH0	980360	OK	0.7679846	-0.0102416	-0.6403865	0	-82.4	-96.782	4.328	B5-03822-P02-CH1	980360	OK	0.8037711	-0.2043843	-0.5587299	0	-82.894	-79.411	5.878	B5-03822-P03-CH0	980360	OK	0.7832213	-0.1707336	-0.5978415	0	-93.594	-60.102	8.769	B5-03822-P03-CH1	980360	OK	0.8109118	-0.527679	0.2529367	0	-98.717	-34.751	14.244	B5-03822-P04-CH0	980360	OK	0.7888532	-0.2310168	0.5695102	0	-120.394	-38.691	12.661	B5-03822-P04-CH1	980360	OK	0.8196432	-0.5727872	0.0099942	0	-108.234	-52.046	12.123	NA
0.369697409018252	B5-03822-P01-CH0	980368	OK	0.1981426	0.0547299	0.0721987	-0.9759772	107.434	-29.03	-290.262	B5-03822-P02-CH0	980368	OK	0.7690714	-0.0105879	-0.6390752	0	-81.744	-97.34	2.594	B5-03822-P02-CH1	980368	OK	0.8081675	-0.2002876	-0.5538504	0	-83.396	-79.876	8.782	B5-03822-P03-CH0	980368	OK	0.7848891	-0.1477576	-0.6017614	0	-95.059	-59.808	8.748	B5-03822-P03-CH1	980368	OK	0.8106582	-0.528366	0.2523147	0	-98.525	-34.647	14.219	B5-03822-P04-CH0	980368	OK	0.7886421	-0.2332994	0.5688717	0	-120.299	-38.38	11.986	B5-03822-P04-CH1	980368	OK	0.8195527	-0.5729189	0.0098667	0	-108.375	-51.894	12.146	NA
0.37968923088361	B5-03822-P01-CH0	980376	OK	0.1982956	0.0541737	0.0729722	-0.9759196	107.234	-28.943	-290.358	B5-03822-P02-CH0	980376	OK	0.7672034	-0.0141728	-0.6412472	0	-82.298	-98.842	3.803	B5-03822-P02-CH1	980376	OK	0.8082197	-0.1993062	-0.5541281	0	-85.339	-79.384	5.058	B5-03822-P03-CH0	980376	OK	0.7868111	-0.1235861	-0.6046939	0	-95.054	-59.648	9.294	B5-03822-P03-CH1	980376	OK	0.8112279	-0.5276817	0.2519153	0	-98.593	-34.901	15.543	B5-03822-P04-CH0	980376	OK	0.7884365	-0.2357558	0.5681435	0	-119.891	-37.948	11.35	B5-03822-P04-CH1	980376	OK	0.820279	-0.5718721	0.0102332	0	-108.261	-51.68	12.104	NA
0.389681052748968	B5-03822-P01-CH0	980384	OK	0.1984072	0.0538639	0.0729127	-0.9759185	107.108	-28.927	-290.311	B5-03822-P02-CH0	980384	OK	0.7666782	-0.0168901	-0.6418093	0	-81.443	-98.171	1.758	B5-03822-P02-CH1	980384	OK	0.8093848	-0.2058353	-0.5500255	0	-84.954	-80.325	5.545	B5-03822-P03-CH0	980384	OK	0.7895903	-0.1039281	-0.6047694	0	-94.855	-59.74	9.144	B5-03822-P03-CH1	980384	OK	0.8112111	-0.5280107	0.2512791	0	-98.415	-34.432	14.656	B5-03822-P04-CH0	980384	OK	0.7899521	-0.2517117	0.5591216	0	-120.26	-37.815	11.281	B5-03822-P04-CH1	980384	OK	0.8203053	-0.5718262	0.0106755	0	-108.151	-51.692	12.122	NA
0.399672874614327	B5-03822-P01-CH0	980392	OK	0.1986624	0.0540181	0.0728345	-0.9758639	107.19	-28.949	-290.344	B5-03822-P02-CH0	980392	OK	0.7626814	-0.0225638	-0.6463807	0	-81.125	-97.565	3.221	B5-03822-P02-CH1	980392	OK	0.8150742	-0.2075257	-0.5409133	0	-82.15	-80.145	10.341	B5-03822-P03-CH0	980392	OK	0.7902305	-0.0869863	-0.6066046	0	-95.982	-60.528	10.852	B5-03822-P03-CH1	980392	OK	0.8110161	-0.5282921	0.2513173	0	-98.43	-34.853	14.603	B5-03822-P04-CH0	980392	OK	0.790057	-0.2547148	0.5576113	0	-120.498	-38.503	11.904	B5-03822-P04-CH1	980392	OK	0.8202864	-0.5718429	0.0112225	0	-108.291	-51.866	12.238	NA
0.409664696479685	B5-03822-P01-CH0	980400	OK	0.1987908	0.0540126	0.072719	-0.9758467	107.207	-28.974	-290.412	B5-03822-P02-CH0	980400	OK	0.7597333	-0.0300032	-0.6495423	0	-79.511	-98.279	3.161	B5-03822-P02-CH1	980400	OK	0.8117801	-0.2146577	-0.5430794	0	-84.388	-80.612	7.622	B5-03822-P03-CH0	980400	OK	0.7953163	-0.073415	-0.6017326	0	-96.504	-60.177	10.526	B5-03822-P03-CH1	980400	OK	0.8113194	-0.5279601	0.2510357	0	-98.661	-34.884	14.977	B5-03822-P04-CH0	980400	OK	0.789797	-0.2573692	0.5567601	0	-120.672	-39.408	12.584	B5-03822-P04-CH1	980400	OK	0.8203125	-0.5717968	0.0116561	0	-108.409	-51.956	12.22	NA
0.419656518345043	B5-03822-P01-CH0	980408	OK	0.1989606	0.0540074	0.0732252	-0.9757745	107.223	-28.879	-290.399	B5-03822-P02-CH0	980408	OK	0.7547816	-0.0406539	-0.6547152	0	-79.037	-99.015	0.64	B5-03822-P02-CH1	980408	OK	0.8169794	-0.220094	-0.5330135	0	-83.143	-80.063	7.989	B5-03822-P03-CH0	980408	OK	0.8037033	-0.0647313	-0.5914989	0	-97.007	-59.504	11.461	B5-03822-P03-CH1	980408	OK	0.8115558	-0.5277302	0.2507548	0	-98.492	-34.598	14.02	B5-03822-P04-CH0	980408	OK	0.789843	-0.2597887	0.5555699	0	-120.96	-39.444	11.738	B5-03822-P04-CH1	980408	OK	0.8207644	-0.5711359	0.0122284	0	-108.535	-51.982	12.326	NA
0.429648340210401	B5-03822-P01-CH0	980416	OK	0.1989784	0.053952	0.0737973	-0.9757309	107.222	-28.842	-290.442	B5-03822-P02-CH0	980416	OK	0.7513202	-0.0497222	-0.658062	0	-78.539	-99.247	-0.137	B5-03822-P02-CH1	980416	OK	0.8209923	-0.2162258	-0.5284109	0	-84.44	-79.982	8.747	B5-03822-P03-CH0	980416	OK	0.8125414	-0.0645398	-0.5793196	0	-98.103	-59.162	12.577	B5-03822-P03-CH1	980416	OK	0.8120907	-0.5269604	0.2506422	0	-98.55	-34.717	14.362	B5-03822-P04-CH0	980416	OK	0.7884056	-0.2635708	0.5558301	0	-119.707	-38.819	11.372	B5-03822-P04-CH1	980416	OK	0.8211936	-0.5705112	0.0125705	0	-108.553	-52.046	12.467	NA
0.439640162075759	B5-03822-P01-CH0	980424	OK	0.1989076	0.0540019	0.0733379	-0.9757772	107.188	-28.885	-290.323	B5-03822-P02-CH0	980424	OK	0.7497033	-0.0625618	-0.6588103	0	-77.595	-98.73	1.235	B5-03822-P02-CH1	980424	OK	0.8276416	-0.2154839	-0.5182432	0	-84.889	-82.131	9.807	B5-03822-P03-CH0	980424	OK	0.8216514	-0.0734054	-0.5652439	0	-99.351	-59.645	13.917	B5-03822-P03-CH1	980424	OK	0.8119423	-0.5272239	0.2505686	0	-98.556	-34.556	13.594	B5-03822-P04-CH0	980424	OK	0.78945	-0.2649594	0.5536832	0	-120.653	-40.1	12.895	B5-03822-P04-CH1	980424	OK	0.8210682	-0.570683	0.0129584	0	-108.624	-52.035	12.354	NA
0.449631983941117	B5-03822-P01-CH0	980432	OK	0.1990735	0.053753	0.0741008	-0.9756995	107.062	-28.699	-290.217	B5-03822-P02-CH0	980432	OK	0.7476229	-0.0750251	-0.6598721	0	-77.637	-100.534	0.422	B5-03822-P02-CH1	980432	OK	0.8384666	-0.2008462	-0.5065911	0	-84.788	-81.424	10.183	B5-03822-P03-CH0	980432	OK	0.8354664	-0.0907603	-0.5419949	0	-99.099	-60.355	16.074	B5-03822-P03-CH1	980432	OK	0.8126121	-0.526149	0.2506566	0	-98.431	-34.166	13.17	B5-03822-P04-CH0	980432	OK	0.7893446	-0.2685497	0.5521016	0	-120.005	-38.424	10.701	B5-03822-P04-CH1	980432	OK	0.8216586	-0.5698174	0.0136115	0	-108.684	-51.901	12.253	NA
0.459623805806476	B5-03822-P01-CH0	980440	OK	0.1993734	0.054277	0.0748041	-0.9755555	107.311	-28.506	-290.293	B5-03822-P02-CH0	980440	OK	0.7444728	-0.0730099	-0.6636488	0	-77.262	-100.744	-1.596	B5-03822-P02-CH1	980440	OK	0.8422903	-0.1851336	-0.5062338	0	-86.415	-81.377	10.473	B5-03822-P03-CH0	980440	OK	0.8356191	-0.1035949	-0.5394524	0	-104.19	-57.722	10.325	B5-03822-P03-CH1	980440	OK	0.813256	-0.5250171	0.2509416	0	-98.892	-34.446	13.791	B5-03822-P04-CH0	980440	OK	0.7901181	-0.2667495	0.5518678	0	-120.393	-40.346	14.307	B5-03822-P04-CH1	980440	OK	0.8221226	-0.5691326	0.0142279	0	-108.932	-51.987	12.543	NA
0.469615627671834	B5-03822-P01-CH0	980448	OK	0.1996637	0.054203	0.0753397	-0.9754591	107.349	-28.528	-290.373	B5-03822-P02-CH0	980448	OK	0.7379664	-0.0685528	-0.6713465	0	-77.374	-102.348	-0.574	B5-03822-P02-CH1	980448	OK	0.8436731	-0.1767821	-0.5069159	0	-86.552	-83.263	10.163	B5-03822-P03-CH0	980448	OK	0.8308312	-0.1009651	-0.5472892	0	-102.238	-58.266	13.545	B5-03822-P03-CH1	980448	OK	0.8134509	-0.5244086	0.2515816	0	-98.885	-34.587	13.206	B5-03822-P04-CH0	980448	OK	0.7898068	-0.261171	0.5549728	0	-119.99	-37.836	10.808	B5-03822-P04-CH1	980448	OK	0.8223751	-0.5687369	0.0154093	0	-108.986	-52.303	12.456	NA
0.479607449537192	B5-03822-P01-CH0	980456	OK	0.1997676	0.0545331	0.0747721	-0.9754631	107.413	-28.548	-290.313	B5-03822-P02-CH0	980456	OK	0.7334755	-0.0684887	-0.6762566	0	-77.194	-103.852	-0.174	B5-03822-P02-CH1	980456	OK	0.843715	-0.1629147	-0.5114721	0	-87.655	-82.639	10.036	B5-03822-P03-CH0	980456	OK	0.8239919	-0.0947926	-0.5586158	0	-102.328	-58.166	13.921	B5-03822-P03-CH1	980456	OK	0.8132231	-0.5243988	0.252337	0	-98.537	-34.532	13.011	B5-03822-P04-CH0	980456	OK	0.7899867	-0.262344	0.554163	0	-120.301	-38.363	11.48	B5-03822-P04-CH1	980456	OK	0.822062	-0.5691687	0.0161561	0	-109.054	-52.481	12.581	NA
0.48959927140255	B5-03822-P01-CH0	980464	OK	0.1996323	0.0547884	0.0743838	-0.9755061	107.501	-28.625	-290.356	B5-03822-P02-CH0	980464	OK	0.7310352	-0.0702113	-0.6787178	0	-76.772	-103.937	-1.01	B5-03822-P02-CH1	980464	OK	0.8426993	-0.16377	-0.5128715	0	-88.065	-84.644	11.285	B5-03822-P03-CH0	980464	OK	0.8193935	-0.0853225	-0.5668459	0	-100.943	-58.467	13.611	B5-03822-P03-CH1	980464	OK	0.8133077	-0.5240365	0.2528168	0	-98.844	-34.96	13.801	B5-03822-P04-CH0	980464	OK	0.7901448	-0.2632771	0.5534947	0	-120.69	-39.056	11.964	B5-03822-P04-CH1	980464	OK	0.8219296	-0.5693437	0.0167175	0	-109.273	-52.571	12.453	NA
0.499591093267908	B5-03822-P01-CH0	980472	OK	0.1994833	0.0547917	0.074365	-0.9755379	107.534	-28.574	-290.38	B5-03822-P02-CH0	980472	OK	0.7305873	-0.0726623	-0.6789422	0	-76.687	-104.211	-1.692	B5-03822-P02-CH1	980472	OK	0.8429196	-0.1604728	-0.5135514	0	-89.419	-84.577	13.807	B5-03822-P03-CH0	980472	OK	0.8103589	-0.0720812	-0.5814832	0	-101.584	-57.735	11.455	B5-03822-P03-CH1	980472	OK	0.8133983	-0.523745	0.2531292	0	-98.545	-34.634	13.668	B5-03822-P04-CH0	980472	OK	0.790154	-0.26379	0.5532373	0	-120.95	-39.458	12.245	B5-03822-P04-CH1	980472	OK	0.8218707	-0.5694101	0.0173404	0	-109.501	-52.65	12.295	NA
0.509582915133266	B5-03822-P01-CH0	980480	OK	0.1994822	0.0552077	0.0736087	-0.975572	107.652	-28.657	-290.341	B5-03822-P02-CH0	980480	OK	0.7307914	-0.0734308	-0.6786397	0	-77.636	-105.124	-3.297	B5-03822-P02-CH1	980480	OK	0.8442164	-0.1563455	-0.5126936	0	-90.536	-83.733	11.698	B5-03822-P03-CH0	980480	OK	0.8020651	-0.0640492	-0.5937923	0	-101.28	-57.504	11.722	B5-03822-P03-CH1	980480	OK	0.8131896	-0.5237198	0.2538509	0	-98.63	-35.09	14.554	B5-03822-P04-CH0	980480	OK	0.7903419	-0.2634015	0.553154	0	-121.359	-40.196	12.945	B5-03822-P04-CH1	980480	OK	0.8214514	-0.56999	0.0181399	0	-109.721	-52.852	12.292	NA
0.519574736998625	B5-03822-P01-CH0	980488	OK	0.1994707	0.0551177	0.0733573	-0.9755984	107.641	-28.721	-290.419	B5-03822-P02-CH0	980488	OK	0.7326333	-0.0717433	-0.6768318	0	-77.632	-105.661	-1.368	B5-03822-P02-CH1	980488	OK	0.8467249	-0.1617917	-0.5068337	0	-88.37	-84.622	13.909	B5-03822-P03-CH0	980488	OK	0.7946028	-0.0614163	-0.6040153	0	-101.356	-56.292	8.985	B5-03822-P03-CH1	980488	OK	0.8132627	-0.5233361	0.2544075	0	-98.905	-35.197	14.472	B5-03822-P04-CH0	980488	OK	0.7901961	-0.2629057	0.553598	0	-121.478	-40.525	12.971	B5-03822-P04-CH1	980488	OK	0.8211911	-0.5703343	0.0190796	0	-109.674	-53.117	12.269	NA
0.529566558863983	B5-03822-P01-CH0	980496	OK	0.199641	0.0552366	0.0729615	-0.9755865	107.69	-28.744	-290.348	B5-03822-P02-CH0	980496	OK	0.7336374	-0.0648465	-0.67644	0	-77.618	-106.105	-2.705	B5-03822-P02-CH1	980496	OK	0.8443761	-0.158397	-0.5118001	0	-89.613	-84.7	12.482	B5-03822-P03-CH0	980496	OK	0.788911	-0.0699274	-0.6105159	0	-101.629	-56.027	8.13	B5-03822-P03-CH1	980496	OK	0.8128961	-0.523359	0.2555293	0	-98.592	-35.337	14.299	B5-03822-P04-CH0	980496	OK	0.7904653	-0.2612678	0.5539889	0	-121.921	-41.107	13.346	B5-03822-P04-CH1	980496	OK	0.8211294	-0.5703838	0.0202187	0	-109.762	-53.145	12.021	NA
0.539558380729341	B5-03822-P01-CH0	980504	OK	0.1999367	0.0553638	0.0732268	-0.9754988	107.784	-28.701	-290.368	B5-03822-P02-CH0	980504	OK	0.7324955	-0.0483871	-0.6790501	0	-77.758	-106.026	-1.687	B5-03822-P02-CH1	980504	OK	0.8417731	-0.1526546	-0.5177979	0	-90.372	-83.925	10.657	B5-03822-P03-CH0	980504	OK	0.7884193	-0.0919215	-0.6082315	0	-101.004	-56.668	10.181	B5-03822-P03-CH1	980504	OK	0.8133545	-0.5223155	0.256205	0	-98.812	-35.612	15.255	B5-03822-P04-CH0	980504	OK	0.7905864	-0.2595305	0.5546324	0	-122.233	-41.293	12.902	B5-03822-P04-CH1	980504	OK	0.8212559	-0.5701464	0.0217199	0	-109.79	-53.387	12.022	NA
0.549550202594699	B5-03822-P01-CH0	980512	OK	0.2000068	0.0552885	0.0730048	-0.9755054	107.782	-28.739	-290.428	B5-03822-P02-CH0	980512	OK	0.7305942	-0.0292187	-0.6821864	0	-78.673	-105.688	-0.761	B5-03822-P02-CH1	980512	OK	0.8375424	-0.1503717	-0.5252724	0	-90.538	-84.042	11.696	B5-03822-P03-CH0	980512	OK	0.7905141	-0.1194465	-0.600683	0	-100.908	-57.132	9.699	B5-03822-P03-CH1	980512	OK	0.8132739	-0.5222224	0.2566503	0	-98.677	-35.309	14.701	B5-03822-P04-CH0	980512	OK	0.7906386	-0.2574856	0.5555103	0	-122.621	-41.715	13.039	B5-03822-P04-CH1	980512	OK	0.8212558	-0.570104	0.0228133	0	-109.828	-53.471	11.958	NA
0.559542024460057	B5-03822-P01-CH0	980520	OK	0.2002542	0.0549263	0.0731494	-0.9754643	107.709	-28.771	-290.392	B5-03822-P02-CH0	980520	OK	0.7312383	-0.010344	-0.6820436	0	-78.503	-105.668	-0.299	B5-03822-P02-CH1	980520	OK	0.8352746	-0.1475327	-0.5296702	0	-88.607	-84.953	11.869	B5-03822-P03-CH0	980520	OK	0.7950616	-0.1505138	-0.5875565	0	-100.812	-57.932	8.878	B5-03822-P03-CH1	980520	OK	0.8133251	-0.5216053	0.2577407	0	-98.465	-35.318	14.444	B5-03822-P04-CH0	980520	OK	0.7905834	-0.2555364	0.5564881	0	-122.857	-41.708	12.347	B5-03822-P04-CH1	980520	OK	0.8213556	-0.569894	0.0244085	0	-109.793	-53.711	11.925	NA
0.569533846325415	B5-03822-P01-CH0	980528	OK	0.2001963	0.0551877	0.0721162	-0.9755383	107.716	-28.676	-290.184	B5-03822-P02-CH0	980528	OK	0.731804	0.0102497	-0.6814381	0	-79.116	-105.516	0.076	B5-03822-P02-CH1	980528	OK	0.8259794	-0.1429766	-0.5452667	0	-89.757	-85.366	9.856	B5-03822-P03-CH0	980528	OK	0.7995376	-0.1776148	-0.573753	0	-101.579	-58.854	9.683	B5-03822-P03-CH1	980528	OK	0.8128916	-0.521976	0.2583571	0	-98.678	-35.26	14.604	B5-03822-P04-CH0	980528	OK	0.7904392	-0.253694	0.557535	0	-123.195	-41.848	12.449	B5-03822-P04-CH1	980528	OK	0.8207364	-0.5707448	0.0253415	0	-110.033	-53.737	11.88	NA
0.579525668190774	B5-03822-P01-CH0	980536	OK	0.2002226	0.0552084	0.0718902	-0.9755484	107.749	-28.669	-290.115	B5-03822-P02-CH0	980536	OK	0.7322829	0.0293578	-0.6803674	0	-80.32	-106.268	-0.714	B5-03822-P02-CH1	980536	OK	0.823437	-0.1404247	-0.5497567	0	-87.215	-84.882	9.001	B5-03822-P03-CH0	980536	OK	0.8050112	-0.1989406	-0.5589093	0	-101.471	-60.454	10.047	B5-03822-P03-CH1	980536	OK	0.8127284	-0.5218346	0.2591546	0	-98.643	-35.148	14.202	B5-03822-P04-CH0	980536	OK	0.7902656	-0.2522874	0.5584186	0	-123.359	-41.674	11.829	B5-03822-P04-CH1	980536	OK	0.8205723	-0.5709252	0.0265603	0	-110.271	-53.905	11.738	NA
0.589517490056132	B5-03822-P01-CH0	980544	OK	0.2004702	0.0552614	0.0715054	-0.9755229	107.783	-28.586	-290.017	B5-03822-P02-CH0	980544	OK	0.7341421	0.0433936	-0.6776078	0	-80.899	-106.322	0.182	B5-03822-P02-CH1	980544	OK	0.8144881	-0.1388063	-0.5633311	0	-87.946	-85.657	10.432	B5-03822-P03-CH0	980544	OK	0.8101467	-0.2151245	-0.5453291	0	-102.11	-60.679	8.846	B5-03822-P03-CH1	980544	OK	0.8124884	-0.5215398	0.2604973	0	-98.717	-35.235	14.047	B5-03822-P04-CH0	980544	OK	0.7900228	-0.2505938	0.5595236	0	-123.528	-41.736	11.651	B5-03822-P04-CH1	980544	OK	0.8204182	-0.5710828	0.027898	0	-110.509	-53.961	11.751	NA
0.59950931192149	B5-03822-P01-CH0	980552	OK	0.2005933	0.0554928	0.070926	-0.9755267	107.923	-28.617	-290.026	B5-03822-P02-CH0	980552	OK	0.7352814	0.0562937	-0.6754201	0	-81.831	-106.007	1.554	B5-03822-P02-CH1	980552	OK	0.8067014	-0.1367654	-0.5749157	0	-87.568	-85.65	7.855	B5-03822-P03-CH0	980552	OK	0.8157055	-0.2291937	-0.531126	0	-102.656	-61.264	10.531	B5-03822-P03-CH1	980552	OK	0.8122479	-0.5213974	0.2615302	0	-99.036	-35.373	13.882	B5-03822-P04-CH0	980552	OK	0.7899662	-0.2492485	0.560204	0	-123.835	-41.793	11.562	B5-03822-P04-CH1	980552	OK	0.8201782	-0.5713711	0.029029	0	-110.781	-54.13	11.954	NA
0.609501133786848	B5-03822-P01-CH0	980560	OK	0.2005628	0.0554129	0.0706141	-0.9755602	107.91	-28.598	-289.925	B5-03822-P02-CH0	980560	OK	0.7367677	0.0702022	-0.6724916	0	-82.655	-105.246	1.696	B5-03822-P02-CH1	980560	OK	0.8021253	-0.1308795	-0.5826367	0	-86.516	-83.415	5.538	B5-03822-P03-CH0	980560	OK	0.8236684	-0.2424529	-0.5126275	0	-101.977	-62.071	12.627	B5-03822-P03-CH1	980560	OK	0.8121342	-0.521029	0.2626152	0	-98.941	-35.31	13.971	B5-03822-P04-CH0	980560	OK	0.7895448	-0.2490456	0.5608879	0	-123.816	-41.401	10.958	B5-03822-P04-CH1	980560	OK	0.8200412	-0.5715128	0.0300931	0	-110.949	-54.203	12.042	NA
0.619492955652206	B5-03822-P01-CH0	980568	OK	0.2007786	0.0551282	0.0710008	-0.9755038	107.866	-28.509	-289.938	B5-03822-P02-CH0	980568	OK	0.7409123	0.083309	-0.6664147	0	-82.062	-104.617	0.088	B5-03822-P02-CH1	980568	OK	0.7941916	-0.1328762	-0.5929618	0	-87.13	-84.89	7.877	B5-03822-P03-CH0	980568	OK	0.8310497	-0.2497347	-0.4969798	0	-101.467	-62.575	11.823	B5-03822-P03-CH1	980568	OK	0.8124107	-0.520079	0.2636412	0	-99.046	-35.436	14.412	B5-03822-P04-CH0	980568	OK	0.7896869	-0.2480511	0.5611285	0	-124.022	-41.438	11.203	B5-03822-P04-CH1	980568	OK	0.8202186	-0.5711788	0.0315632	0	-111.035	-54.268	11.801	NA
0.629484777517564	B5-03822-P01-CH0	980576	OK	0.2010121	0.0547294	0.0713951	-0.9754494	107.796	-28.487	-290.018	B5-03822-P02-CH0	980576	OK	0.7436287	0.0951149	-0.6617926	0	-82.429	-105.096	-0.366	B5-03822-P02-CH1	980576	OK	0.7913995	-0.1412753	-0.5947505	0	-85.223	-86.275	6.881	B5-03822-P03-CH0	980576	OK	0.8350358	-0.2520557	-0.4890636	0	-101.309	-63.595	11.881	B5-03822-P03-CH1	980576	OK	0.8127221	-0.5192029	0.2644069	0	-99.08	-35.18	14.153	B5-03822-P04-CH0	980576	OK	0.7894076	-0.2479083	0.5615844	0	-123.999	-41.354	10.866	B5-03822-P04-CH1	980576	OK	0.820339	-0.570947	0.0326099	0	-111.184	-54.474	11.885	NA
0.639476599382923	B5-03822-P01-CH0	980584	OK	0.2006709	0.0545575	0.070714	-0.9755789	107.709	-28.475	-289.954	B5-03822-P02-CH0	980584	OK	0.7460427	0.1036244	-0.6577858	0	-82.747	-104.268	1.664	B5-03822-P02-CH1	980584	OK	0.7879494	-0.1489169	-0.5974609	0	-85.125	-85.174	3.412	B5-03822-P03-CH0	980584	OK	0.8388709	-0.2515985	-0.4826944	0	-100.866	-64.323	12.112	B5-03822-P03-CH1	980584	OK	0.812179	-0.5196153	0.2652646	0	-98.899	-35.133	14.236	B5-03822-P04-CH0	980584	OK	0.7890642	-0.2486797	0.5617259	0	-124.064	-41.367	11.152	B5-03822-P04-CH1	980584	OK	0.8199148	-0.5715382	0.0329214	0	-111.357	-54.456	12.071	NA
0.649468421248281	B5-03822-P01-CH0	980592	OK	0.201003	0.0546455	0.0707899	-0.9755001	107.808	-28.41	-290.096	B5-03822-P02-CH0	980592	OK	0.7490844	0.1127469	-0.6528098	0	-82.414	-103.56	0.498	B5-03822-P02-CH1	980592	OK	0.7846724	-0.1574764	-0.5995752	0	-84.706	-85.962	5.011	B5-03822-P03-CH0	980592	OK	0.8414162	-0.2469067	-0.4806827	0	-100.848	-64.246	13.457	B5-03822-P03-CH1	980592	OK	0.8122232	-0.5190344	0.2662643	0	-99.359	-35.524	14.837	B5-03822-P04-CH0	980592	OK	0.7891446	-0.2489038	0.5615138	0	-124.189	-41.426	11.329	B5-03822-P04-CH1	980592	OK	0.8199567	-0.5714347	0.0336666	0	-111.504	-54.533	12.404	NA
0.659460243113639	B5-03822-P01-CH0	980600	OK	0.2009808	0.0546078	0.0703039	-0.9755419	107.763	-28.48	-290.096	B5-03822-P02-CH0	980600	OK	0.7497992	0.1212759	-0.6504562	0	-82.973	-103.487	0.795	B5-03822-P02-CH1	980600	OK	0.7830439	-0.1638377	-0.5999996	0	-83.506	-84.723	5.695	B5-03822-P03-CH0	980600	OK	0.8419381	-0.2407092	-0.4829072	0	-101.509	-63.231	13.414	B5-03822-P03-CH1	980600	OK	0.8116485	-0.5195563	0.266998	0	-99.159	-35.479	14.504	B5-03822-P04-CH0	980600	OK	0.7887904	-0.2502583	0.5614093	0	-124.04	-41.375	11.31	B5-03822-P04-CH1	980600	OK	0.8196429	-0.5718757	0.0338195	0	-111.575	-54.52	12.296	NA
0.669452064978997	B5-03822-P01-CH0	980608	OK	0.201107	0.0542653	0.0710031	-0.9754844	107.702	-28.424	-290.253	B5-03822-P02-CH0	980608	OK	0.7483482	0.1313441	-0.650172	0	-84.131	-102.641	2.631	B5-03822-P02-CH1	980608	OK	0.7794363	-0.1659627	-0.6040989	0	-84.029	-82.719	2.747	B5-03822-P03-CH0	980608	OK	0.8423738	-0.2384788	-0.4832539	0	-100.687	-63.279	14.034	B5-03822-P03-CH1	980608	OK	0.8121012	-0.5185179	0.2676392	0	-99.087	-35.577	15.598	B5-03822-P04-CH0	980608	OK	0.7886469	-0.2518599	0.5608946	0	-123.885	-41.246	11.031	B5-03822-P04-CH1	980608	OK	0.819963	-0.571395	0.0341826	0	-111.563	-54.572	12.472	NA
0.679443886844355	B5-03822-P01-CH0	980616	OK	0.2012576	0.0539361	0.0724038	-0.9753686	107.729	-28.333	-290.408	B5-03822-P02-CH0	980616	OK	0.7509624	0.1426594	-0.644751	0	-83.438	-102.02	0.087	B5-03822-P02-CH1	980616	OK	0.7753587	-0.1739502	-0.6070917	0	-83.734	-84.016	2.295	B5-03822-P03-CH0	980616	OK	0.8389658	-0.2410311	-0.4878938	0	-100.538	-63.729	13.153	B5-03822-P03-CH1	980616	OK	0.8127199	-0.517576	0.2675845	0	-99.379	-35.539	15.499	B5-03822-P04-CH0	980616	OK	0.7891244	-0.2526326	0.5598745	0	-123.953	-41.552	11.73	B5-03822-P04-CH1	980616	OK	0.8208374	-0.5701494	0.0339941	0	-111.576	-54.417	12.496	NA
0.689435708709713	B5-03822-P01-CH0	980624	OK	0.2013622	0.0538036	0.0733081	-0.9752868	107.757	-28.321	-290.504	B5-03822-P02-CH0	980624	OK	0.7505372	0.1512878	-0.6432775	0	-84.217	-101.652	3.523	B5-03822-P02-CH1	980624	OK	0.7726624	-0.1812076	-0.608405	0	-83.099	-83.578	4.269	B5-03822-P03-CH0	980624	OK	0.8344749	-0.2437782	-0.4941901	0	-100.17	-63.787	12.23	B5-03822-P03-CH1	980624	OK	0.8128742	-0.5172915	0.2676658	0	-99.117	-35.42	15.381	B5-03822-P04-CH0	980624	OK	0.7892579	-0.2546362	0.5587775	0	-123.71	-41.239	11.56	B5-03822-P04-CH1	980624	OK	0.8212061	-0.5696355	0.0337056	0	-111.547	-54.495	12.605	NA
0.699427530575072	B5-03822-P01-CH0	980632	OK	0.2013279	0.0535795	0.0737447	-0.9752733	107.622	-28.316	-290.441	B5-03822-P02-CH0	980632	OK	0.7515943	0.1600464	-0.639915	0	-84.61	-100.397	3.372	B5-03822-P02-CH1	980632	OK	0.7740549	-0.1847273	-0.6055699	0	-81.482	-80.985	1.677	B5-03822-P03-CH0	980632	OK	0.8287945	-0.2474831	-0.5018484	0	-100.286	-63.545	12.207	B5-03822-P03-CH1	980632	OK	0.813128	-0.5168936	0.2676639	0	-99.239	-35.559	16.298	B5-03822-P04-CH0	980632	OK	0.7896165	-0.2565447	0.5573962	0	-123.618	-41.158	11.842	B5-03822-P04-CH1	980632	OK	0.8214656	-0.5692992	0.0330555	0	-111.352	-54.288	12.534	NA
0.70941935244043	B5-03822-P01-CH0	980640	OK	0.2015997	0.0533098	0.0748263	-0.9751496	107.572	-28.234	-290.591	B5-03822-P02-CH0	980640	OK	0.7535163	0.1632098	-0.6368482	0	-84.531	-100.422	2.466	B5-03822-P02-CH1	980640	OK	0.7717802	-0.19453	-0.6054035	0	-82.394	-81.386	3.101	B5-03822-P03-CH0	980640	OK	0.8232868	-0.2491007	-0.5100468	0	-99.87	-62.613	10.833	B5-03822-P03-CH1	980640	OK	0.8133771	-0.5166341	0.2674076	0	-99.245	-35.305	15.648	B5-03822-P04-CH0	980640	OK	0.7900831	-0.2581401	0.5559968	0	-123.501	-41.022	11.917	B5-03822-P04-CH1	980640	OK	0.8220075	-0.5685574	0.032346	0	-111.246	-54.162	12.46	NA
0.719411174305788	B5-03822-P01-CH0	980648	OK	0.2013971	0.0535058	0.0744427	-0.97521	107.557	-28.362	-290.389	B5-03822-P02-CH0	980648	OK	0.755545	0.1608991	-0.6350301	0	-84.902	-99.772	3.213	B5-03822-P02-CH1	980648	OK	0.7728567	-0.2079061	-0.5995561	0	-81.058	-80.742	1.327	B5-03822-P03-CH0	980648	OK	0.817683	-0.2489451	-0.5190577	0	-99.156	-61.331	9.977	B5-03822-P03-CH1	980648	OK	0.8126072	-0.5178939	0.2673117	0	-99.03	-35.411	15.115	B5-03822-P04-CH0	980648	OK	0.7899811	-0.2608928	0.5548556	0	-123.223	-40.848	11.576	B5-03822-P04-CH1	980648	OK	0.8217602	-0.5689939	0.0309219	0	-111.216	-54.052	12.477	NA
0.729402996171146	B5-03822-P01-CH0	980656	OK	0.2012606	0.0539758	0.0738299	-0.9752589	107.726	-28.434	-290.429	B5-03822-P02-CH0	980656	OK	0.7598402	0.1559178	-0.6311359	0	-84.554	-100.025	2.061	B5-03822-P02-CH1	980656	OK	0.7686077	-0.214154	-0.6028103	0	-82.281	-80.412	-0.297	B5-03822-P03-CH0	980656	OK	0.8128986	-0.2524176	-0.5248631	0	-98.046	-60.541	10.133	B5-03822-P03-CH1	980656	OK	0.8123314	-0.5185922	0.2667955	0	-99.391	-35.455	15.475	B5-03822-P04-CH0	980656	OK	0.7902096	-0.2636966	0.5532024	0	-123.196	-40.619	11.653	B5-03822-P04-CH1	980656	OK	0.8213535	-0.5696463	0.0296903	0	-111.117	-54.003	12.832	NA
0.739394818036504	B5-03822-P01-CH0	980664	OK	0.2016733	0.0542172	0.0741177	-0.9751384	107.87	-28.547	-290.546	B5-03822-P02-CH0	980664	OK	0.7610323	0.150445	-0.6310279	0	-85.201	-98.995	4.277	B5-03822-P02-CH1	980664	OK	0.7675583	-0.2270326	-0.599425	0	-80.903	-80.212	0.684	B5-03822-P03-CH0	980664	OK	0.8058025	-0.2543771	-0.5347659	0	-97.616	-60.648	9.463	B5-03822-P03-CH1	980664	OK	0.8121066	-0.5188941	0.2668928	0	-99.448	-35.731	15.32	B5-03822-P04-CH0	980664	OK	0.7906147	-0.2652725	0.5518685	0	-123.091	-40.737	11.87	B5-03822-P04-CH1	980664	OK	0.821594	-0.5693557	0.0285896	0	-110.968	-54.032	13.164	NA
0.749386639901862	B5-03822-P01-CH0	980672	OK	0.2013639	0.0544394	0.0737215	-0.97522	107.883	-28.654	-290.535	B5-03822-P02-CH0	980672	OK	0.7624796	0.1442541	-0.6307262	0	-85.319	-98.003	6.318	B5-03822-P02-CH1	980672	OK	0.7633905	-0.2346087	-0.6018253	0	-81.23	-79.962	2.718	B5-03822-P03-CH0	980672	OK	0.7985724	-0.2524512	-0.5463977	0	-96.312	-60.736	10.122	B5-03822-P03-CH1	980672	OK	0.8116132	-0.5198929	0.2664494	0	-99.347	-35.803	15.399	B5-03822-P04-CH0	980672	OK	0.7906548	-0.2680715	0.5504568	0	-122.836	-40.534	12.071	B5-03822-P04-CH1	980672	OK	0.8212399	-0.5699509	0.0268511	0	-110.855	-53.897	13.104	NA
0.759378461767221	B5-03822-P01-CH0	980680	OK	0.2011907	0.0545339	0.0735508	-0.9752634	107.863	-28.675	-290.579	B5-03822-P02-CH0	980680	OK	0.7634974	0.1393053	-0.6306075	0	-84.702	-97.407	5.081	B5-03822-P02-CH1	980680	OK	0.75853	-0.2449224	-0.6038586	0	-80.467	-79	2.289	B5-03822-P03-CH0	980680	OK	0.7898968	-0.2453748	-0.5620091	0	-96.916	-59.5	8.308	B5-03822-P03-CH1	980680	OK	0.8113	-0.52061	0.266003	0	-99.398	-35.776	15.442	B5-03822-P04-CH0	980680	OK	0.7907792	-0.2704381	0.5491189	0	-122.652	-40.44	12.36	B5-03822-P04-CH1	980680	OK	0.8211958	-0.5700919	0.0251514	0	-110.652	-53.676	13.486	NA
0.769370283632579	B5-03822-P01-CH0	980688	OK	0.2008815	0.0547296	0.0731354	-0.9753474	107.892	-28.893	-290.426	B5-03822-P02-CH0	980688	OK	0.7627928	0.1337022	-0.6326697	0	-83.999	-96.558	5.252	B5-03822-P02-CH1	980688	OK	0.7549945	-0.2529988	-0.6049586	0	-80.018	-76.633	-1.394	B5-03822-P03-CH0	980688	OK	0.783052	-0.2393199	-0.5740692	0	-95.313	-60.207	8.36	B5-03822-P03-CH1	980688	OK	0.8107674	-0.5217613	0.2653703	0	-99.395	-35.805	15.054	B5-03822-P04-CH0	980688	OK	0.7909133	-0.2727838	0.5477639	0	-122.448	-40.339	12.501	B5-03822-P04-CH1	980688	OK	0.8210237	-0.5704278	0.0230698	0	-110.446	-53.431	13.299	NA
0.779362105497937	B5-03822-P01-CH0	980696	OK	0.2006665	0.0548581	0.0723367	-0.975444	107.795	-29.022	-290.307	B5-03822-P02-CH0	980696	OK	0.7620308	0.1192366	-0.6364681	0	-83.254	-96.556	4.56	B5-03822-P02-CH1	980696	OK	0.7517494	-0.2640847	-0.6042617	0	-80.813	-77.288	0.025	B5-03822-P03-CH0	980696	OK	0.7716988	-0.2313804	-0.5924053	0	-93.97	-57.672	5.16	B5-03822-P03-CH1	980696	OK	0.810186	-0.5229016	0.2649011	0	-99.431	-35.905	15.328	B5-03822-P04-CH0	980696	OK	0.7907459	-0.2755109	0.5466395	0	-122.165	-39.819	11.99	B5-03822-P04-CH1	980696	OK	0.8204819	-0.5712749	0.0213163	0	-110.083	-53.275	13.29	NA
0.789353927363295	B5-03822-P01-CH0	980704	OK	0.2005153	0.0547969	0.0721656	-0.9754912	107.708	-29.151	-290.224	B5-03822-P02-CH0	980704	OK	0.7599709	0.1048675	-0.6414414	0	-82.677	-96.385	3.505	B5-03822-P02-CH1	980704	OK	0.7510262	-0.2724291	-0.6014499	0	-81.045	-77.598	0.69	B5-03822-P03-CH0	980704	OK	0.7603833	-0.2255523	-0.6090512	0	-91.851	-56.49	6.205	B5-03822-P03-CH1	980704	OK	0.8097026	-0.5239193	0.2643677	0	-99.394	-35.946	14.839	B5-03822-P04-CH0	980704	OK	0.7910416	-0.2770087	0.5454534	0	-122.045	-39.706	12.33	B5-03822-P04-CH1	980704	OK	0.8203352	-0.5715496	0.0195236	0	-109.702	-53.093	13.212	NA
0.799345749228653	B5-03822-P01-CH0	980712	OK	0.200555	0.0549866	0.0719428	-0.9754888	107.76	-29.298	-290.088	B5-03822-P02-CH0	980712	OK	0.7562096	0.0923889	-0.6477742	0	-82.642	-95.303	3.348	B5-03822-P02-CH1	980712	OK	0.7540357	-0.2759689	-0.5960465	0	-79.923	-76.263	-0.704	B5-03822-P03-CH0	980712	OK	0.7506339	-0.2215726	-0.6224583	0	-92.611	-56.357	5.421	B5-03822-P03-CH1	980712	OK	0.8095466	-0.524538	0.2636173	0	-99.294	-35.709	14.369	B5-03822-P04-CH0	980712	OK	0.7909951	-0.2784903	0.5447659	0	-121.741	-39.708	12.456	B5-03822-P04-CH1	980712	OK	0.8201395	-0.5718867	0.0178012	0	-109.475	-53.029	13.187	NA
0.809337571094011	B5-03822-P01-CH0	980720	OK	0.2003892	0.05531	0.0711638	-0.9755617	107.793	-29.405	-290.069	B5-03822-P02-CH0	980720	OK	0.7542791	0.0754074	-0.6522091	0	-81.477	-95.377	2.85	B5-03822-P02-CH1	980720	OK	0.7521399	-0.2804646	-0.5963431	0	-81.51	-77.672	2.244	B5-03822-P03-CH0	980720	OK	0.7477442	-0.2150513	-0.6281971	0	-91.418	-56.484	5.744	B5-03822-P03-CH1	980720	OK	0.8090073	-0.5257178	0.2629221	0	-99.365	-35.75	14.457	B5-03822-P04-CH0	980720	OK	0.7907784	-0.2801506	0.544229	0	-121.543	-39.746	12.617	B5-03822-P04-CH1	980720	OK	0.8195973	-0.5727176	0.015964	0	-109.256	-52.821	13.229	NA
0.81932939295937	B5-03822-P01-CH0	980728	OK	0.2002283	0.0556738	0.0701382	-0.9756483	107.864	-29.528	-290.094	B5-03822-P02-CH0	980728	OK	0.7493416	0.0586859	-0.659578	0	-81.319	-95.642	1.558	B5-03822-P02-CH1	980728	OK	0.7531489	-0.2837981	-0.5934858	0	-80.688	-76.655	2.039	B5-03822-P03-CH0	980728	OK	0.7425011	-0.2045912	-0.6378358	0	-91.502	-57.18	4.719	B5-03822-P03-CH1	980728	OK	0.8083627	-0.5270191	0.2622987	0	-99.202	-35.415	14.125	B5-03822-P04-CH0	980728	OK	0.7906908	-0.2814264	0.5436977	0	-121.459	-39.696	12.926	B5-03822-P04-CH1	980728	OK	0.8189288	-0.573721	0.0141332	0	-109.109	-52.602	13.149	NA
0.829321214824728	B5-03822-P01-CH0	980736	OK	0.2001106	0.0556291	0.070125	-0.975676	107.748	-29.621	-289.989	B5-03822-P02-CH0	980736	OK	0.7455091	0.0447219	-0.6649933	0	-79.799	-94.804	0.8	B5-03822-P02-CH1	980736	OK	0.7511694	-0.2857936	-0.5950349	0	-80.439	-75.005	-0.924	B5-03822-P03-CH0	980736	OK	0.7361228	-0.1943633	-0.6483411	0	-91.827	-57.387	3.665	B5-03822-P03-CH1	980736	OK	0.8079177	-0.5278319	0.2620351	0	-98.795	-35.652	14.58	B5-03822-P04-CH0	980736	OK	0.7908732	-0.28162	0.5433321	0	-121.332	-39.723	13.165	B5-03822-P04-CH1	980736	OK	0.8187645	-0.5739956	0.0123976	0	-108.879	-52.355	12.839	NA
0.839313036690086	B5-03822-P01-CH0	980744	OK	0.1999119	0.055719	0.0701569	-0.9757093	107.734	-29.663	-289.995	B5-03822-P02-CH0	980744	OK	0.7404736	0.0312998	-0.6713562	0	-78.445	-94.86	-0.458	B5-03822-P02-CH1	980744	OK	0.7437145	-0.2925028	-0.601108	0	-81.543	-76.642	-1.835	B5-03822-P03-CH0	980744	OK	0.7304262	-0.1867596	-0.6569615	0	-91.477	-56.603	3.699	B5-03822-P03-CH1	980744	OK	0.8081128	-0.528221	0.2606461	0	-99.027	-35.25	14.213	B5-03822-P04-CH0	980744	OK	0.7908555	-0.2820187	0.543151	0	-121.042	-39.352	13.161	B5-03822-P04-CH1	980744	OK	0.8185471	-0.5743392	0.010729	0	-108.782	-52.088	12.433	NA
0.849304858555444	B5-03822-P01-CH0	980752	OK	0.1999976	0.0560582	0.0702312	-0.975667	107.852	-29.712	-289.966	B5-03822-P02-CH0	980752	OK	0.7328582	0.0216648	-0.6800364	0	-78.99	-95.147	1.369	B5-03822-P02-CH1	980752	OK	0.7383789	-0.2977839	-0.6050796	0	-81.582	-77.417	-0.288	B5-03822-P03-CH0	980752	OK	0.7274838	-0.1833555	-0.6611717	0	-90.519	-56.663	3.085	B5-03822-P03-CH1	980752	OK	0.807883	-0.5289273	0.2599247	0	-98.828	-35.135	13.979	B5-03822-P04-CH0	980752	OK	0.7911183	-0.2811214	0.5432334	0	-121.109	-39.373	13.241	B5-03822-P04-CH1	980752	OK	0.8183734	-0.5746054	0.0096783	0	-108.704	-52.095	12.576	NA
0.859296680420802	B5-03822-P01-CH0	980760	OK	0.2002961	0.0562852	0.0711504	-0.975526	107.963	-29.654	-289.945	B5-03822-P02-CH0	980760	OK	0.7295589	0.0144467	-0.6837654	0	-77.906	-94.547	-1.562	B5-03822-P02-CH1	980760	OK	0.7381543	-0.2974988	-0.6054938	0	-79.578	-76.524	-0.676	B5-03822-P03-CH0	980760	OK	0.7266161	-0.1839425	-0.6619624	0	-89.933	-57.343	3.087	B5-03822-P03-CH1	980760	OK	0.8084707	-0.528492	0.2589811	0	-98.968	-35.165	14.709	B5-03822-P04-CH0	980760	OK	0.7916646	-0.2794481	0.543301	0	-121.224	-39.289	13.306	B5-03822-P04-CH1	980760	OK	0.8187471	-0.574085	0.0089257	0	-108.7	-51.847	12.107	NA
0.86928850228616	B5-03822-P01-CH0	980768	OK	0.2002502	0.05642	0.0711871	-0.975525	107.958	-29.703	-289.984	B5-03822-P02-CH0	980768	OK	0.7253718	0.0087113	-0.6883022	0	-77.671	-95.213	-0.141	B5-03822-P02-CH1	980768	OK	0.7332494	-0.3022658	-0.6090819	0	-80.046	-77.9	0.102	B5-03822-P03-CH0	980768	OK	0.7263553	-0.1858907	-0.6617043	0	-89.855	-57.684	4	B5-03822-P03-CH1	980768	OK	0.8082707	-0.5292655	0.2580242	0	-98.874	-34.867	13.932	B5-03822-P04-CH0	980768	OK	0.7918122	-0.2781523	0.5437507	0	-121.247	-39.124	13.474	B5-03822-P04-CH1	980768	OK	0.8184866	-0.5744636	0.008442	0	-108.517	-51.809	12.022	NA
0.879280324151519	B5-03822-P01-CH0	980776	OK	0.2002372	0.0570037	0.0708505	-0.9755182	108.15	-29.762	-290.039	B5-03822-P02-CH0	980776	OK	0.7232868	0.0050006	-0.6905297	0	-77.002	-94.242	0.743	B5-03822-P02-CH1	980776	OK	0.7319317	-0.3016495	-0.6109693	0	-78.881	-76.942	-0.065	B5-03822-P03-CH0	980776	OK	0.7256923	-0.186577	-0.6622384	0	-91.148	-57.655	2.201	B5-03822-P03-CH1	980776	OK	0.8077029	-0.5303167	0.2576435	0	-98.688	-34.892	13.494	B5-03822-P04-CH0	980776	OK	0.7916058	-0.2772337	0.5445197	0	-121.227	-39.076	13.477	B5-03822-P04-CH1	980776	OK	0.8180446	-0.5751007	0.0078929	0	-108.606	-51.812	12.082	NA
0.889272146016877	B5-03822-P01-CH0	980784	OK	0.200296	0.0575252	0.0705966	-0.975494	108.318	-29.779	-290.139	B5-03822-P02-CH0	980784	OK	0.7213278	0.0022336	-0.6925903	0	-76.994	-94.888	-1.627	B5-03822-P02-CH1	980784	OK	0.7309565	-0.2981471	-0.6138492	0	-78.417	-75.177	-3.073	B5-03822-P03-CH0	980784	OK	0.7276671	-0.1851868	-0.6604592	0	-91.205	-57.202	1.9	B5-03822-P03-CH1	980784	OK	0.8078819	-0.5302937	0.2571292	0	-99.126	-35.123	14.766	B5-03822-P04-CH0	980784	OK	0.7914272	-0.2760819	0.5453638	0	-121.274	-39.107	13.642	B5-03822-P04-CH1	980784	OK	0.8178096	-0.5754394	0.0075488	0	-108.836	-51.671	12.006	NA
0.899263967882235	B5-03822-P01-CH0	980792	OK	0.2002794	0.0574467	0.0712421	-0.9754551	108.313	-29.756	-290.437	B5-03822-P02-CH0	980792	OK	0.7205788	-0.0022606	-0.6933694	0	-76.602	-94.693	-1.471	B5-03822-P02-CH1	980792	OK	0.7272923	-0.3014155	-0.6165992	0	-79.448	-77.423	-0.781	B5-03822-P03-CH0	980792	OK	0.7309609	-0.1818819	-0.6577348	0	-91.542	-57.618	3.657	B5-03822-P03-CH1	980792	OK	0.8078896	-0.5305525	0.2565705	0	-98.923	-34.98	14.51	B5-03822-P04-CH0	980792	OK	0.791345	-0.2750201	0.5460193	0	-121.226	-38.639	13.345	B5-03822-P04-CH1	980792	OK	0.8180404	-0.5751107	0.0075849	0	-108.811	-51.548	12.002	NA
0.909255789747593	B5-03822-P01-CH0	980800	OK	0.2003953	0.057554	0.0719781	-0.9753709	108.306	-29.717	-290.425	B5-03822-P02-CH0	980800	OK	0.7195255	-0.0061074	-0.6944392	0	-76.848	-95.123	-0.857	B5-03822-P02-CH1	980800	OK	0.7267713	-0.2994075	-0.6181898	0	-79.968	-77.804	1.278	B5-03822-P03-CH0	980800	OK	0.7348799	-0.1764469	-0.654842	0	-92.339	-57.453	4.962	B5-03822-P03-CH1	980800	OK	0.808094	-0.5302287	0.2565963	0	-99.027	-35.149	14.397	B5-03822-P04-CH0	980800	OK	0.7912914	-0.2741776	0.5465204	0	-121.101	-37.989	12.628	B5-03822-P04-CH1	980800	OK	0.8184224	-0.5745642	0.007798	0	-108.785	-51.396	11.88	NA
0.919247611612951	B5-03822-P01-CH0	980808	OK	0.2005749	0.0574631	0.0730225	-0.9752617	108.318	-29.723	-290.582	B5-03822-P02-CH0	980808	OK	0.7204835	-0.0062538	-0.6934439	0	-76.532	-94.703	-0.218	B5-03822-P02-CH1	980808	OK	0.7294575	-0.2945525	-0.6173577	0	-79.561	-77.768	-2.041	B5-03822-P03-CH0	980808	OK	0.7401673	-0.1728725	-0.6498211	0	-92.001	-57.142	4.202	B5-03822-P03-CH1	980808	OK	0.8088474	-0.529328	0.2560817	0	-99.257	-35.075	14.459	B5-03822-P04-CH0	980808	OK	0.7913739	-0.2731432	0.5469188	0	-121.028	-37.75	12.645	B5-03822-P04-CH1	980808	OK	0.8189528	-0.573801	0.0082884	0	-108.822	-51.45	12.08	NA
0.929239433478309	B5-03822-P01-CH0	980816	OK	0.2004885	0.0573841	0.0733256	-0.9752614	108.26	-29.715	-290.661	B5-03822-P02-CH0	980816	OK	0.722175	-0.0035849	-0.6917012	0	-76.709	-94.742	-1.075	B5-03822-P02-CH1	980816	OK	0.7342179	-0.2904519	-0.6136463	0	-78.768	-77.888	-0.296	B5-03822-P03-CH0	980816	OK	0.7402005	-0.1711584	-0.6502369	0	-93.569	-58.119	4.501	B5-03822-P03-CH1	980816	OK	0.8091832	-0.5291285	0.2554322	0	-99.252	-34.659	14.19	B5-03822-P04-CH0	980816	OK	0.7910395	-0.2729036	0.5475218	0	-120.871	-37.523	12.578	B5-03822-P04-CH1	980816	OK	0.8190195	-0.5736983	0.008799	0	-108.783	-51.433	12.1	NA
0.939231255343667	B5-03822-P01-CH0	980824	OK	0.2007813	0.0574208	0.0743362	-0.9751225	108.307	-29.649	-290.677	B5-03822-P02-CH0	980824	OK	0.7240577	-0.0007523	-0.689739	0	-77.385	-95.642	-0.547	B5-03822-P02-CH1	980824	OK	0.7383345	-0.2833429	-0.6120285	0	-79.763	-77.834	-0.357	B5-03822-P03-CH0	980824	OK	0.7443755	-0.1675302	-0.6464044	0	-92.927	-58.068	5.539	B5-03822-P03-CH1	980824	OK	0.8096221	-0.5283867	0.2555771	0	-99.361	-34.889	14.311	B5-03822-P04-CH0	980824	OK	0.7914398	-0.2719399	0.5474228	0	-121.021	-37.506	12.743	B5-03822-P04-CH1	980824	OK	0.8197169	-0.5726908	0.0094629	0	-108.854	-51.321	12.019	NA
0.949223077209026	B5-03822-P01-CH0	980832	OK	0.2010709	0.0570656	0.0750628	-0.975028	108.232	-29.727	-290.739	B5-03822-P02-CH0	980832	OK	0.7255141	0.0052172	-0.6881876	0	-78.699	-95.648	1.131	B5-03822-P02-CH1	980832	OK	0.7433028	-0.2725013	-0.6109369	0	-80.277	-78.615	0.417	B5-03822-P03-CH0	980832	OK	0.7469428	-0.1643953	-0.6442442	0	-93.531	-58.222	5.458	B5-03822-P03-CH1	980832	OK	0.8101728	-0.5274439	0.2557791	0	-99.388	-34.787	13.834	B5-03822-P04-CH0	980832	OK	0.791461	-0.2719746	0.5473749	0	-120.809	-37.309	12.755	B5-03822-P04-CH1	980832	OK	0.8202521	-0.5719137	0.0100598	0	-108.82	-51.308	11.881	NA
0.959214899074384	B5-03822-P01-CH0	980840	OK	0.2008434	0.0569302	0.0750076	-0.975087	108.198	-29.823	-290.662	B5-03822-P02-CH0	980840	OK	0.7292319	0.0107703	-0.6841818	0	-79.347	-95.135	-0.407	B5-03822-P02-CH1	980840	OK	0.7505912	-0.2642714	-0.6056183	0	-78.958	-78.168	-0.338	B5-03822-P03-CH0	980840	OK	0.7516805	-0.1630122	-0.6390645	0	-93.089	-57.647	6.4	B5-03822-P03-CH1	980840	OK	0.8103853	-0.5272302	0.2555465	0	-99.196	-34.558	13.661	B5-03822-P04-CH0	980840	OK	0.7913264	-0.272907	0.5471053	0	-120.687	-37.18	12.767	B5-03822-P04-CH1	980840	OK	0.8203089	-0.5718309	0.0101377	0	-108.847	-51.225	11.708	NA
0.969206720939742	B5-03822-P01-CH0	980848	OK	0.2010899	0.0569298	0.0748786	-0.9750462	108.287	-29.944	-290.662	B5-03822-P02-CH0	980848	OK	0.7323571	0.0142125	-0.6807724	0	-79.393	-96.119	0.579	B5-03822-P02-CH1	980848	OK	0.7505487	-0.2607922	-0.6071771	0	-81.393	-78.603	1.937	B5-03822-P03-CH0	980848	OK	0.7546188	-0.1698076	-0.6338106	0	-94.462	-58.254	6.432	B5-03822-P03-CH1	980848	OK	0.8106517	-0.5267183	0.2557571	0	-99.485	-34.947	14.332	B5-03822-P04-CH0	980848	OK	0.7911816	-0.2737163	0.5469105	0	-120.6	-37.345	12.738	B5-03822-P04-CH1	980848	OK	0.8202957	-0.5718431	0.0105078	0	-108.991	-51.398	11.832	NA
0.9791985428051	B5-03822-P01-CH0	980856	OK	0.201332	0.0566138	0.0753184	-0.9749807	108.272	-30.005	-290.617	B5-03822-P02-CH0	980856	OK	0.7352793	0.0172006	-0.6775459	0	-78.771	-96.276	1.013	B5-03822-P02-CH1	980856	OK	0.7519288	-0.2598453	-0.6058741	0	-80.514	-78.588	0.525	B5-03822-P03-CH0	980856	OK	0.7616202	-0.1792156	-0.6227491	0	-93.716	-58.55	5.593	B5-03822-P03-CH1	980856	OK	0.8110698	-0.5260394	0.2558288	0	-99.434	-34.82	13.831	B5-03822-P04-CH0	980856	OK	0.7915531	-0.2739469	0.5462571	0	-120.733	-37.453	12.821	B5-03822-P04-CH1	980856	OK	0.8206046	-0.5713906	0.0109954	0	-109.053	-51.491	11.721	NA
0.989190364670458	B5-03822-P01-CH0	980864	OK	0.2016852	0.0563623	0.0759259	-0.9748752	108.239	-29.922	-290.61	B5-03822-P02-CH0	980864	OK	0.7355071	0.0193454	-0.6772407	0	-79.047	-96.775	1.041	B5-03822-P02-CH1	980864	OK	0.7525362	-0.2566192	-0.6064948	0	-79.686	-77.158	0.274	B5-03822-P03-CH0	980864	OK	0.7659304	-0.191895	-0.6136179	0	-93.203	-59.081	6.409	B5-03822-P03-CH1	980864	OK	0.8114656	-0.5253582	0.2559734	0	-98.999	-34.628	13.625	B5-03822-P04-CH0	980864	OK	0.7916386	-0.274929	0.5456393	0	-120.564	-37.146	12.331	B5-03822-P04-CH1	980864	OK	0.8210325	-0.5707654	0.0115118	0	-108.918	-51.51	11.853	NA
0.999182186535816	B5-03822-P01-CH0	980872	OK	0.2020727	0.0561716	0.0762749	-0.9747787	108.219	-29.89	-290.405	B5-03822-P02-CH0	980872	OK	0.73562	0.0235418	-0.6769852	0	-78.902	-96.206	1.218	B5-03822-P02-CH1	980872	OK	0.7483437	-0.2561262	-0.6118669	0	-81.064	-78.738	0.549	B5-03822-P03-CH0	980872	OK	0.7674612	-0.2031797	-0.6080471	0	-93.288	-58.715	7.586	B5-03822-P03-CH1	980872	OK	0.8119244	-0.5245205	0.2562362	0	-99.263	-34.884	13.617	B5-03822-P04-CH0	980872	OK	0.7918389	-0.2755355	0.5450424	0	-120.451	-37.277	12.311	B5-03822-P04-CH1	980872	OK	0.8212175	-0.5704837	0.0122548	0	-108.831	-51.65	11.681	NA
1.00917400840117	B5-03822-P01-CH0	980880	OK	0.2022309	0.0557362	0.0759874	-0.9747933	108.179	-30.032	-290.429	B5-03822-P02-CH0	980880	OK	0.7362605	0.0291608	-0.6760696	0	-78.492	-94.913	1.342	B5-03822-P02-CH1	980880	OK	0.7495166	-0.2563777	-0.610324	0	-78.86	-79.479	-0.05	B5-03822-P03-CH0	980880	OK	0.7687853	-0.211326	-0.6035813	0	-92.992	-59.138	5.806	B5-03822-P03-CH1	980880	OK	0.8118791	-0.5245503	0.2563187	0	-98.811	-34.711	13.206	B5-03822-P04-CH0	980880	OK	0.791923	-0.2763666	0.5444993	0	-120.446	-37.776	12.793	B5-03822-P04-CH1	980880	OK	0.8211882	-0.5705191	0.0125649	0	-108.779	-51.844	11.915	NA
1.01916583026653	B5-03822-P01-CH0	980888	OK	0.2022604	0.0560409	0.0751695	-0.9748332	108.356	-30.064	-290.352	B5-03822-P02-CH0	980888	OK	0.7348261	0.0335475	-0.6774254	0	-79.729	-96.362	1.99	B5-03822-P02-CH1	980888	OK	0.7505768	-0.2526783	-0.6105638	0	-77.685	-78.735	-0.71	B5-03822-P03-CH0	980888	OK	0.7689735	-0.2202305	-0.6001485	0	-92.977	-59.808	6.619	B5-03822-P03-CH1	980888	OK	0.8117108	-0.5247302	0.2564834	0	-98.792	-35.159	14.413	B5-03822-P04-CH0	980888	OK	0.7919821	-0.2780965	0.5435317	0	-120.563	-37.819	12.673	B5-03822-P04-CH1	980888	OK	0.8206422	-0.5713017	0.0126754	0	-108.86	-52.006	11.874	NA
1.02915765213189	B5-03822-P01-CH0	980896	OK	0.2024696	0.0562595	0.0744424	-0.9748329	108.511	-30.183	-290.263	B5-03822-P02-CH0	980896	OK	0.7365504	0.0383177	-0.6752964	0	-78.955	-96.092	0.806	B5-03822-P02-CH1	980896	OK	0.7466039	-0.248973	-0.6169239	0	-79.94	-78.977	0.553	B5-03822-P03-CH0	980896	OK	0.7676295	-0.2231369	-0.6007952	0	-94.192	-59.312	6.182	B5-03822-P03-CH1	980896	OK	0.8115089	-0.5249927	0.2565851	0	-98.918	-35.217	13.693	B5-03822-P04-CH0	980896	OK	0.7920341	-0.2799121	0.542523	0	-120.498	-37.859	12.632	B5-03822-P04-CH1	980896	OK	0.8203017	-0.5717915	0.0126382	0	-108.973	-52.15	11.765	NA
1.03914947399725	B5-03822-P01-CH0	980904	OK	0.20204	0.0561947	0.0726508	-0.975061	108.481	-30.405	-290.234	B5-03822-P02-CH0	980904	OK	0.7379335	0.0443015	-0.6734178	0	-78.092	-96.784	0.153	B5-03822-P02-CH1	980904	OK	0.748204	-0.2478365	-0.6154412	0	-78.432	-79.195	0.425	B5-03822-P03-CH0	980904	OK	0.7692259	-0.2246831	-0.5981713	0	-93.384	-58.873	5.898	B5-03822-P03-CH1	980904	OK	0.8106186	-0.5263861	0.2565448	0	-98.324	-35.083	13.491	B5-03822-P04-CH0	980904	OK	0.7913605	-0.2828875	0.5419623	0	-120.294	-37.9	12.519	B5-03822-P04-CH1	980904	OK	0.8193005	-0.5732353	0.0121617	0	-108.918	-52.253	11.896	NA
1.04914129586261	B5-03822-P01-CH0	980912	OK	0.202095	0.0560999	0.0726156	-0.9750576	108.5	-30.395	-290.206	B5-03822-P02-CH0	980912	OK	0.7386875	0.0480583	-0.6723327	0	-77.445	-96.241	-0.178	B5-03822-P02-CH1	980912	OK	0.7495945	-0.2434793	-0.6154884	0	-78.642	-78.254	-1.212	B5-03822-P03-CH0	980912	OK	0.7697572	-0.2283393	-0.5960999	0	-93.499	-59.478	6.533	B5-03822-P03-CH1	980912	OK	0.8111249	-0.5256948	0.2563618	0	-98.446	-35.294	14.584	B5-03822-P04-CH0	980912	OK	0.7914307	-0.2844037	0.5410656	0	-120.295	-38.091	12.528	B5-03822-P04-CH1	980912	OK	0.819379	-0.5731231	0.012169	0	-108.797	-52.224	11.827	NA
1.05913311772797	B5-03822-P01-CH0	980920	OK	0.2021639	0.0561341	0.0721664	-0.9750747	108.566	-30.438	-290.302	B5-03822-P02-CH0	980920	OK	0.7381204	0.0511474	-0.6727275	0	-77.708	-96.827	-0.859	B5-03822-P02-CH1	980920	OK	0.7461727	-0.2425003	-0.6200161	0	-81.078	-78.991	0.548	B5-03822-P03-CH0	980920	OK	0.7720072	-0.2295782	-0.5927045	0	-93.13	-59.547	7.045	B5-03822-P03-CH1	980920	OK	0.811098	-0.5258018	0.2562273	0	-98.622	-35.384	14.475	B5-03822-P04-CH0	980920	OK	0.791429	-0.2859169	0.54027	0	-120.319	-38.261	12.628	B5-03822-P04-CH1	980920	OK	0.8190901	-0.5735318	0.0123567	0	-108.679	-52.431	12.16	NA
1.06912493959332	B5-03822-P01-CH0	980928	OK	0.2020956	0.0560744	0.0723183	-0.9750811	108.56	-30.396	-290.331	B5-03822-P02-CH0	980928	OK	0.7364573	0.0537946	-0.6743417	0	-77.983	-97.102	0.374	B5-03822-P02-CH1	980928	OK	0.7494318	-0.2496571	-0.6132073	0	-79.185	-78.79	1.025	B5-03822-P03-CH0	980928	OK	0.7730692	-0.2337234	-0.5896926	0	-93.532	-59.951	6.008	B5-03822-P03-CH1	980928	OK	0.81126	-0.5256547	0.2560161	0	-98.307	-35.323	14.355	B5-03822-P04-CH0	980928	OK	0.7917104	-0.2872763	0.5391353	0	-120.327	-38.173	12.671	B5-03822-P04-CH1	980928	OK	0.819139	-0.5734664	0.0121523	0	-108.639	-52.431	12.078	NA
1.07911676145868	B5-03822-P01-CH0	980936	OK	0.2022008	0.0561709	0.072367	-0.9750501	108.657	-30.411	-290.45	B5-03822-P02-CH0	980936	OK	0.7350641	0.0565595	-0.6756343	0	-77.935	-97.436	0.366	B5-03822-P02-CH1	980936	OK	0.748587	-0.2474294	-0.6151392	0	-79.344	-78.85	0.897	B5-03822-P03-CH0	980936	OK	0.7737599	-0.237972	-0.5870817	0	-93.768	-59.785	6.065	B5-03822-P03-CH1	980936	OK	0.8118414	-0.5248511	0.2558219	0	-98.678	-35.752	15.657	B5-03822-P04-CH0	980936	OK	0.7919648	-0.2880589	0.5383436	0	-120.309	-38.515	13.278	B5-03822-P04-CH1	980936	OK	0.8192863	-0.5732556	0.0121622	0	-108.536	-52.44	12.281	NA
1.08910858332404	B5-03822-P01-CH0	980944	OK	0.2023825	0.0556804	0.0728765	-0.9750026	108.469	-30.358	-290.488	B5-03822-P02-CH0	980944	OK	0.734059	0.0582159	-0.6765857	0	-77.815	-97.092	-0.303	B5-03822-P02-CH1	980944	OK	0.7487425	-0.2455939	-0.6156852	0	-79	-78.972	0.806	B5-03822-P03-CH0	980944	OK	0.7737581	-0.2392375	-0.5865695	0	-94.347	-59.626	6.981	B5-03822-P03-CH1	980944	OK	0.8120844	-0.5244375	0.2558989	0	-98.529	-35.591	14.937	B5-03822-P04-CH0	980944	OK	0.7921246	-0.2885734	0.5378327	0	-120.182	-38.609	13.328	B5-03822-P04-CH1	980944	OK	0.8196344	-0.5727542	0.0123301	0	-108.403	-52.386	12.177	NA
1.0991004051894	B5-03822-P01-CH0	980952	OK	0.2023787	0.0557024	0.0730397	-0.9749899	108.443	-30.293	-290.532	B5-03822-P02-CH0	980952	OK	0.7342335	0.0570658	-0.6764944	0	-77.447	-98.218	0.952	B5-03822-P02-CH1	980952	OK	0.748959	-0.2430573	-0.616428	0	-78.833	-78.581	0.256	B5-03822-P03-CH0	980952	OK	0.7757362	-0.2393397	-0.5839091	0	-93.479	-59.606	6.507	B5-03822-P03-CH1	980952	OK	0.8120822	-0.5244988	0.2557801	0	-98.351	-35.566	14.711	B5-03822-P04-CH0	980952	OK	0.7922985	-0.2893888	0.537138	0	-120.252	-38.72	13.32	B5-03822-P04-CH1	980952	OK	0.8198974	-0.5723885	0.011819	0	-108.476	-52.196	12.368	NA
1.10909222705476	B5-03822-P01-CH0	980960	OK	0.2024784	0.0558373	0.0731912	-0.9749501	108.512	-30.318	-290.51	B5-03822-P02-CH0	980960	OK	0.7346504	0.0569987	-0.6760472	0	-77.072	-97.569	1.03	B5-03822-P02-CH1	980960	OK	0.7485628	-0.2409659	-0.617729	0	-79.035	-78.707	0.156	B5-03822-P03-CH0	980960	OK	0.7751444	-0.2378502	-0.5853019	0	-94.051	-59.405	6.811	B5-03822-P03-CH1	980960	OK	0.81244	-0.5240004	0.2556654	0	-98.658	-35.733	14.881	B5-03822-P04-CH0	980960	OK	0.7926052	-0.2896252	0.5365578	0	-120.273	-38.824	13.646	B5-03822-P04-CH1	980960	OK	0.8200364	-0.5721914	0.0117169	0	-108.454	-52.235	12.363	NA
1.11908404892011	B5-03822-P01-CH0	980968	OK	0.2026651	0.055815	0.0733117	-0.9749035	108.495	-30.324	-290.44	B5-03822-P02-CH0	980968	OK	0.734381	0.0579107	-0.6762624	0	-77.465	-97.621	0.24	B5-03822-P02-CH1	980968	OK	0.7488009	-0.2391481	-0.6181467	0	-78.921	-78.692	-0.194	B5-03822-P03-CH0	980968	OK	0.77638	-0.2384459	-0.5834189	0	-93.479	-60.166	6.03	B5-03822-P03-CH1	980968	OK	0.8125813	-0.5237054	0.2558209	0	-98.609	-35.617	14.449	B5-03822-P04-CH0	980968	OK	0.7926591	-0.2898204	0.5363727	0	-120.213	-39.022	13.658	B5-03822-P04-CH1	980968	OK	0.8201379	-0.5720467	0.0116795	0	-108.387	-52.245	12.446	NA
1.12907587078547	B5-03822-P01-CH0	980976	OK	0.202805	0.0556341	0.0741334	-0.9748227	108.452	-30.199	-290.416	B5-03822-P02-CH0	980976	OK	0.7359402	0.0552468	-0.6747887	0	-77.272	-96.93	0.199	B5-03822-P02-CH1	980976	OK	0.7494111	-0.2371497	-0.6181772	0	-78.82	-78.657	-0.487	B5-03822-P03-CH0	980976	OK	0.7740402	-0.2356162	-0.5876622	0	-93.912	-59.418	5.438	B5-03822-P03-CH1	980976	OK	0.8130909	-0.5229644	0.2557173	0	-98.861	-35.867	14.917	B5-03822-P04-CH0	980976	OK	0.7929768	-0.2893858	0.5361378	0	-120.292	-39.098	13.679	B5-03822-P04-CH1	980976	OK	0.8206475	-0.5713122	0.0118308	0	-108.305	-52.143	12.409	NA
1.13906769265083	B5-03822-P01-CH0	980984	OK	0.203307	0.0556281	0.0753984	-0.9746214	108.493	-29.919	-290.448	B5-03822-P02-CH0	980984	OK	0.7352623	0.0566402	-0.6754119	0	-77.362	-96.78	0.022	B5-03822-P02-CH1	980984	OK	0.7496914	-0.2357822	-0.6183603	0	-78.81	-78.858	-0.223	B5-03822-P03-CH0	980984	OK	0.7750037	-0.2368723	-0.5858846	0	-94.072	-59.247	5.49	B5-03822-P03-CH1	980984	OK	0.8138045	-0.5217695	0.2558884	0	-99.113	-35.726	14.642	B5-03822-P04-CH0	980984	OK	0.7934576	-0.2887001	0.5357959	0	-120.34	-38.817	13.399	B5-03822-P04-CH1	980984	OK	0.8212933	-0.5703697	0.0124771	0	-108.195	-52.107	12.424	NA
1.14905951451619	B5-03822-P01-CH0	980992	OK	0.2032197	0.0554445	0.0752825	-0.974659	108.399	-29.874	-290.435	B5-03822-P02-CH0	980992	OK	0.7350465	0.0584502	-0.6754926	0	-77.301	-96.799	0.088	B5-03822-P02-CH1	980992	OK	0.7500177	-0.233628	-0.6187822	0	-78.655	-78.61	0.09	B5-03822-P03-CH0	980992	OK	0.7758978	-0.2382935	-0.5841223	0	-93.999	-59.318	5.48	B5-03822-P03-CH1	980992	OK	0.8133702	-0.5224453	0.2558904	0	-98.832	-35.672	14.206	B5-03822-P04-CH0	980992	OK	0.7932814	-0.2889454	0.5359246	0	-120.232	-38.557	13.049	B5-03822-P04-CH1	980992	OK	0.8211777	-0.5705381	0.0123872	0	-108.181	-52.072	12.469	NA
1.15905133638155	B5-03822-P01-CH0	981000	OK	0.2036276	0.0554873	0.0762956	-0.9744927	108.494	-29.693	-290.487	B5-03822-P02-CH0	981000	OK	0.7345675	0.0599535	-0.6758817	0	-77.307	-96.818	0.1	B5-03822-P02-CH1	981000	OK	0.7500594	-0.2320138	-0.6193387	0	-78.591	-78.781	0.24	B5-03822-P03-CH0	981000	OK	0.7763895	-0.2394015	-0.5830148	0	-94.25	-59.222	5.912	B5-03822-P03-CH1	981000	OK	0.8138539	-0.5217027	0.2558675	0	-98.902	-35.572	13.93	B5-03822-P04-CH0	981000	OK	0.7935139	-0.288293	0.5359317	0	-120.206	-38.453	12.826	B5-03822-P04-CH1	981000	OK	0.8217416	-0.5697242	0.0124518	0	-108.435	-52.079	12.49	NA
1.16904315824691	B5-03822-P01-CH0	981008	OK	0.2039438	0.0553626	0.076624	-0.9744079	108.506	-29.586	-290.59	B5-03822-P02-CH0	981008	OK	0.7342922	0.0612632	-0.6760634	0	-77.287	-96.785	0.147	B5-03822-P02-CH1	981008	OK	0.7503337	-0.2306412	-0.6195192	0	-78.18	-78.903	0.363	B5-03822-P03-CH0	981008	OK	0.77701	-0.2406272	-0.5816821	0	-94.202	-59.258	6.297	B5-03822-P03-CH1	981008	OK	0.8139391	-0.5213988	0.2562156	0	-98.954	-35.494	13.693	B5-03822-P04-CH0	981008	OK	0.7934292	-0.2878041	0.5363198	0	-120.098	-38.493	12.865	B5-03822-P04-CH1	981008	OK	0.8221303	-0.5691545	0.0128434	0	-108.257	-51.933	12.635	NA
1.17903498011226	B5-03822-P01-CH0	981016	OK	0.2040598	0.0554046	0.0766343	-0.9743804	108.558	-29.483	-290.54	B5-03822-P02-CH0	981016	OK	0.734417	0.0627932	-0.6757875	0	-77.18	-96.749	-0.141	B5-03822-P02-CH1	981016	OK	0.7497554	-0.229425	-0.6206698	0	-78.316	-78.944	0.623	B5-03822-P03-CH0	981016	OK	0.777515	-0.2417127	-0.5805561	0	-94.116	-59.215	6.441	B5-03822-P03-CH1	981016	OK	0.8138813	-0.5214609	0.2562727	0	-98.933	-35.369	13.624	B5-03822-P04-CH0	981016	OK	0.7933081	-0.2878486	0.536475	0	-120.065	-38.221	12.431	B5-03822-P04-CH1	981016	OK	0.8219094	-0.5694744	0.0127984	0	-108.383	-52.012	12.395	NA
1.18902680197762	B5-03822-P01-CH0	981024	OK	0.2039907	0.0557795	0.0760981	-0.9744155	108.777	-29.559	-290.555	B5-03822-P02-CH0	981024	OK	0.7342671	0.0644438	-0.6757949	0	-77.315	-96.918	0.063	B5-03822-P02-CH1	981024	OK	0.7429127	-0.2226289	-0.6312821	0	-79.254	-78.63	-2.378	B5-03822-P03-CH0	981024	OK	0.7772921	-0.2427906	-0.5804048	0	-94.308	-59.335	6.657	B5-03822-P03-CH1	981024	OK	0.8137011	-0.5219715	0.2558051	0	-99.163	-35.279	13.366	B5-03822-P04-CH0	981024	OK	0.7931088	-0.2881254	0.5366211	0	-120.142	-38.299	12.207	B5-03822-P04-CH1	981024	OK	0.8215702	-0.5699639	0.0127881	0	-108.405	-52.111	12.469	NA
1.19901862384298	B5-03822-P01-CH0	981032	OK	0.2043862	0.0557421	0.0767053	-0.9742871	108.918	-29.448	-290.68	B5-03822-P02-CH0	981032	OK	0.7340444	0.0662463	-0.6758626	0	-77.447	-96.764	-0.235	B5-03822-P02-CH1	981032	OK	0.7432824	-0.2190799	-0.632088	0	-78.364	-78.78	0.691	B5-03822-P03-CH0	981032	OK	0.777402	-0.2441845	-0.5796724	0	-94.534	-59.369	6.637	B5-03822-P03-CH1	981032	OK	0.814193	-0.5211333	0.255949	0	-99.035	-34.983	13.371	B5-03822-P04-CH0	981032	OK	0.7933861	-0.2870548	0.5367848	0	-120.279	-38.532	12.479	B5-03822-P04-CH1	981032	OK	0.8216935	-0.5697751	0.0132723	0	-108.441	-52.361	12.483	NA
1.20901044570834	B5-03822-P01-CH0	981040	OK	0.2044635	0.0557222	0.0770381	-0.9742458	108.951	-29.311	-290.706	B5-03822-P02-CH0	981040	OK	0.733764	0.0683313	-0.6759595	0	-77.557	-96.745	-0.1	B5-03822-P02-CH1	981040	OK	0.744053	-0.2155456	-0.6323964	0	-77.397	-77.941	-1.281	B5-03822-P03-CH0	981040	OK	0.7777821	-0.2452414	-0.5787155	0	-94.434	-59.233	6.795	B5-03822-P03-CH1	981040	OK	0.8145864	-0.5206601	0.2556602	0	-99.142	-35.04	14.444	B5-03822-P04-CH0	981040	OK	0.7932119	-0.2870349	0.5370529	0	-120.194	-38.345	12.008	B5-03822-P04-CH1	981040	OK	0.8217269	-0.5697235	0.0134178	0	-108.469	-52.395	12.411	NA
1.2190022675737	B5-03822-P01-CH0	981048	OK	0.2046806	0.0552567	0.0781721	-0.9741364	108.925	-29.185	-290.785	B5-03822-P02-CH0	981048	OK	0.7335769	0.0708165	-0.6759067	0	-77.6	-96.544	-0.309	B5-03822-P02-CH1	981048	OK	0.7413779	-0.2165137	-0.6352012	0	-79.087	-79.682	1.43	B5-03822-P03-CH0	981048	OK	0.7781382	-0.2461161	-0.5778649	0	-94.509	-59.06	6.781	B5-03822-P03-CH1	981048	OK	0.8152912	-0.5198479	0.2550654	0	-99.34	-34.789	14.122	B5-03822-P04-CH0	981048	OK	0.7934453	-0.2861259	0.5371932	0	-120.216	-38.296	11.979	B5-03822-P04-CH1	981048	OK	0.8223224	-0.5688571	0.0136911	0	-108.381	-52.404	12.157	NA
