Wav.Time	B5.03822.P01.CH0	Frame	State	Q0	Qx	Qy	Qz	Tx	Ty	Tz	B5.03822.P02.CH0	Frame.1	State.1	Q0.1	Qx.1	Qy.1	Qz.1	Tx.1	Ty.1	Tz.1	B5.03822.P02.CH1	Frame.2	State.2	Q0.2	Qx.2	Qy.2	Qz.2	Tx.2	Ty.2	Tz.2	B5.03822.P03.CH0	Frame.3	State.3	Q0.3	Qx.3	Qy.3	Qz.3	Tx.3	Ty.3	Tz.3	B5.03822.P03.CH1	Frame.4	State.4	Q0.4	Qx.4	Qy.4	Qz.4	Tx.4	Ty.4	Tz.4	B5.03822.P04.CH0	Frame.5	State.5	Q0.5	Qx.5	Qy.5	Qz.5	Tx.5	Ty.5	Tz.5	B5.03822.P04.CH1	Frame.6	State.6	Q0.6	Qx.6	Qy.6	Qz.6	Tx.6	Ty.6	Tz.6	X
0	B5-03822-P01-CH0	2203032	OK	0.2489864	0.0624666	0.0632016	-0.9644217	113.833	-27.572	-230.019	B5-03822-P02-CH0	2203032	OK	0.7711974	0.2476009	-0.5864712	0	-80.714	-100.623	0.671	B5-03822-P02-CH1	2203032	OK	0.8113149	0.0264382	-0.5840112	0	-80.682	-79.817	1.126	B5-03822-P03-CH0	2203032	OK	0.8225607	-0.3469466	-0.4505796	0	-92.785	-61.532	4.542	B5-03822-P03-CH1	2203032	OK	0.7528621	-0.6557537	-0.0564419	0	-97.105	-24.454	-5.664	B5-03822-P04-CH0	2203032	OK	0.7959629	-0.4122264	0.4432972	0	-116.758	-37.428	1.849	B5-03822-P04-CH1	2203032	OK	0.7815896	-0.6232766	0.0253764	0	-107.311	-46.911	-2.542	NA
0.00999208985919949	B5-03822-P01-CH0	2203040	OK	0.2488162	0.0624642	0.0631075	-0.964472	113.812	-27.608	-229.984	B5-03822-P02-CH0	2203040	OK	0.770649	0.2411068	-0.5898879	0	-80.872	-100.988	0.443	B5-03822-P02-CH1	2203040	OK	0.8121556	0.0284918	-0.5827447	0	-80.747	-79.52	1.476	B5-03822-P03-CH0	2203040	OK	0.8267386	-0.3450028	-0.4443832	0	-92.772	-61.583	4.591	B5-03822-P03-CH1	2203040	OK	0.7530182	-0.6555943	-0.0562114	0	-97.087	-24.391	-5.804	B5-03822-P04-CH0	2203040	OK	0.7968614	-0.411145	0.4426869	0	-116.851	-37.776	2.611	B5-03822-P04-CH1	2203040	OK	0.7815207	-0.6233619	0.0254028	0	-107.234	-46.945	-2.525	NA
0.019984179718399	B5-03822-P01-CH0	2203048	OK	0.2488962	0.0621135	0.06366	-0.9644377	113.72	-27.577	-230.019	B5-03822-P02-CH0	2203048	OK	0.7704105	0.2341715	-0.5929851	0	-80.716	-100.924	-0.174	B5-03822-P02-CH1	2203048	OK	0.8132686	0.0300828	-0.5811103	0	-80.69	-79.52	2.298	B5-03822-P03-CH0	2203048	OK	0.8307858	-0.3410955	-0.4398283	0	-93.063	-61.531	4.529	B5-03822-P03-CH1	2203048	OK	0.7536072	-0.6549674	-0.0556225	0	-96.971	-24.281	-5.944	B5-03822-P04-CH0	2203048	OK	0.796841	-0.4126397	0.4413308	0	-115.965	-38.051	3.004	B5-03822-P04-CH1	2203048	OK	0.7819465	-0.6228197	0.0255995	0	-107.169	-46.897	-2.574	NA
0.0299762695775985	B5-03822-P01-CH0	2203056	OK	0.2487924	0.0620661	0.0635986	-0.9644715	113.706	-27.599	-230.002	B5-03822-P02-CH0	2203056	OK	0.7716739	0.2262758	-0.5944061	0	-79.96	-100.663	-1.383	B5-03822-P02-CH1	2203056	OK	0.8142648	0.0303248	-0.5797009	0	-81.112	-80.234	1.131	B5-03822-P03-CH0	2203056	OK	0.8359053	-0.3380961	-0.432381	0	-93.166	-61.754	4.343	B5-03822-P03-CH1	2203056	OK	0.7536467	-0.6549615	-0.0551544	0	-96.894	-24.381	-5.852	B5-03822-P04-CH0	2203056	OK	0.797427	-0.4160024	0.4370951	0	-115.498	-37.058	1.756	B5-03822-P04-CH1	2203056	OK	0.781983	-0.6227775	0.0255123	0	-107.234	-46.9	-2.627	NA
0.039968359436798	B5-03822-P01-CH0	2203064	OK	0.2486936	0.0621958	0.0634576	-0.964498	113.747	-27.579	-230.025	B5-03822-P02-CH0	2203064	OK	0.771501	0.2173557	-0.5979488	0	-79.745	-101.113	-1.308	B5-03822-P02-CH1	2203064	OK	0.8166396	0.0329876	-0.5762044	0	-81.062	-80.051	1.634	B5-03822-P03-CH0	2203064	OK	0.8411464	-0.3349773	-0.4245738	0	-93.283	-62.245	4.8	B5-03822-P03-CH1	2203064	OK	0.7535716	-0.6550799	-0.0547729	0	-96.934	-24.458	-5.729	B5-03822-P04-CH0	2203064	OK	0.7977964	-0.4166181	0.4358328	0	-115.458	-37.842	2.734	B5-03822-P04-CH1	2203064	OK	0.7818412	-0.6229515	0.0256095	0	-107.299	-47.043	-2.327	NA
0.0499604492959975	B5-03822-P01-CH0	2203072	OK	0.248641	0.0622354	0.0633503	-0.964516	113.787	-27.591	-230.021	B5-03822-P02-CH0	2203072	OK	0.770745	0.2084641	-0.6020754	0	-79.924	-101.674	-0.838	B5-03822-P02-CH1	2203072	OK	0.8179588	0.0340533	-0.574268	0	-81.427	-80.35	1.672	B5-03822-P03-CH0	2203072	OK	0.8466183	-0.3302858	-0.4173114	0	-93.66	-62.525	5.406	B5-03822-P03-CH1	2203072	OK	0.7534926	-0.6551893	-0.054551	0	-96.918	-24.566	-5.636	B5-03822-P04-CH0	2203072	OK	0.7980251	-0.4171499	0.4349043	0	-115.336	-37.877	2.906	B5-03822-P04-CH1	2203072	OK	0.7818534	-0.6229347	0.0256429	0	-107.366	-47.097	-2.103	NA
0.059952539155197	B5-03822-P01-CH0	2203080	OK	0.2485582	0.0621802	0.0633371	-0.9645418	113.811	-27.589	-230.068	B5-03822-P02-CH0	2203080	OK	0.7701745	0.2018189	-0.6050623	0	-79.958	-101.675	-1.553	B5-03822-P02-CH1	2203080	OK	0.8203908	0.0362084	-0.5706556	0	-81.33	-80.359	3.076	B5-03822-P03-CH0	2203080	OK	0.8534013	-0.3257363	-0.4069424	0	-93.754	-63.006	5.931	B5-03822-P03-CH1	2203080	OK	0.7535605	-0.6551111	-0.0545525	0	-96.934	-24.619	-5.353	B5-03822-P04-CH0	2203080	OK	0.7988046	-0.4156054	0.4349521	0	-115.079	-37.65	3.709	B5-03822-P04-CH1	2203080	OK	0.7819175	-0.6228567	0.0255825	0	-107.394	-47.121	-1.926	NA
0.0699446290143965	B5-03822-P01-CH0	2203088	OK	0.2485894	0.0621705	0.0633544	-0.9645332	113.851	-27.579	-230.061	B5-03822-P02-CH0	2203088	OK	0.768497	0.1930045	-0.6100505	0	-80.225	-101.919	-1.134	B5-03822-P02-CH1	2203088	OK	0.8212904	0.0351264	-0.569428	0	-82.082	-81.116	2.934	B5-03822-P03-CH0	2203088	OK	0.8605118	-0.3193208	-0.3969304	0	-94.59	-63.294	6.46	B5-03822-P03-CH1	2203088	OK	0.7535585	-0.6551234	-0.0544331	0	-96.869	-24.736	-5.35	B5-03822-P04-CH0	2203088	OK	0.7985521	-0.4139435	0.4369958	0	-115.077	-37.5	2.88	B5-03822-P04-CH1	2203088	OK	0.7819403	-0.6228185	0.0258188	0	-107.409	-47.179	-1.92	NA
0.0799367188735959	B5-03822-P01-CH0	2203096	OK	0.2485738	0.0622737	0.0632636	-0.9645366	113.905	-27.536	-230.026	B5-03822-P02-CH0	2203096	OK	0.7677118	0.1855052	-0.6133566	0	-79.834	-102.448	-1.674	B5-03822-P02-CH1	2203096	OK	0.8235801	0.0371395	-0.5659828	0	-81.957	-81.614	3.131	B5-03822-P03-CH0	2203096	OK	0.8683672	-0.3138433	-0.3839802	0	-95.186	-63.633	6.801	B5-03822-P03-CH1	2203096	OK	0.7535949	-0.6550694	-0.0545782	0	-96.905	-24.77	-5.187	B5-03822-P04-CH0	2203096	OK	0.7987179	-0.4097325	0.440646	0	-115.283	-38.098	4.065	B5-03822-P04-CH1	2203096	OK	0.7819051	-0.6228576	0.0259375	0	-107.518	-47.139	-2.108	NA
0.0899288087327954	B5-03822-P01-CH0	2203104	OK	0.2485879	0.0623005	0.0630469	-0.9645454	113.935	-27.524	-230.016	B5-03822-P02-CH0	2203104	OK	0.766127	0.1782079	-0.6174879	0	-79.748	-102.819	-0.97	B5-03822-P02-CH1	2203104	OK	0.8238621	0.036843	-0.5655916	0	-82.289	-81.9	3.085	B5-03822-P03-CH0	2203104	OK	0.8752635	-0.3098644	-0.3713461	0	-95.301	-64.25	6.714	B5-03822-P03-CH1	2203104	OK	0.7536595	-0.6549768	-0.0547969	0	-96.928	-24.673	-5.296	B5-03822-P04-CH0	2203104	OK	0.7986873	-0.4054386	0.4446552	0	-115.554	-37.023	1.732	B5-03822-P04-CH1	2203104	OK	0.7817481	-0.6230432	0.026212	0	-107.621	-47.19	-2.209	NA
0.0999208985919949	B5-03822-P01-CH0	2203112	OK	0.2486653	0.0626277	0.0624393	-0.9645438	114.034	-27.533	-229.928	B5-03822-P02-CH0	2203112	OK	0.7657063	0.1748527	-0.6189672	0	-79.653	-103.015	-1.366	B5-03822-P02-CH1	2203112	OK	0.8227221	0.0373682	-0.5672143	0	-82.85	-82.738	3.25	B5-03822-P03-CH0	2203112	OK	0.8806664	-0.305245	-0.3622875	0	-95.455	-64.626	7.108	B5-03822-P03-CH1	2203112	OK	0.7535027	-0.6551423	-0.0549755	0	-96.988	-24.653	-5.301	B5-03822-P04-CH0	2203112	OK	0.7981885	-0.3983981	0.4518563	0	-115.996	-38.344	3.29	B5-03822-P04-CH1	2203112	OK	0.7813587	-0.6235094	0.0267316	0	-107.875	-47.335	-2.136	NA
0.109912988451194	B5-03822-P01-CH0	2203120	OK	0.2489154	0.0624868	0.0627156	-0.9644705	114.048	-27.487	-229.947	B5-03822-P02-CH0	2203120	OK	0.7662633	0.1733692	-0.6186952	0	-79.621	-103.413	-1.847	B5-03822-P02-CH1	2203120	OK	0.8220675	0.0392854	-0.5680332	0	-82.982	-82.993	3.152	B5-03822-P03-CH0	2203120	OK	0.8849083	-0.3022084	-0.3544114	0	-95.829	-65.25	6.945	B5-03822-P03-CH1	2203120	OK	0.7539739	-0.6546151	-0.054794	0	-96.945	-24.648	-5.274	B5-03822-P04-CH0	2203120	OK	0.7980159	-0.3908566	0.4586958	0	-116.609	-38.905	4.326	B5-03822-P04-CH1	2203120	OK	0.7815626	-0.623213	0.0276677	0	-108.032	-47.425	-2.225	NA
0.119905078310394	B5-03822-P01-CH0	2203128	OK	0.2489477	0.0627011	0.0624619	-0.9644647	114.177	-27.491	-229.97	B5-03822-P02-CH0	2203128	OK	0.7685341	0.1741914	-0.61564	0	-79.288	-103.991	-2.878	B5-03822-P02-CH1	2203128	OK	0.8206382	0.038233	-0.5701677	0	-83.272	-83.738	3.343	B5-03822-P03-CH0	2203128	OK	0.8875751	-0.3004473	-0.3492019	0	-96.817	-65.932	7.444	B5-03822-P03-CH1	2203128	OK	0.7541937	-0.6543333	-0.055135	0	-97.019	-24.624	-5.299	B5-03822-P04-CH0	2203128	OK	0.7960511	-0.3834861	0.4682318	0	-116.738	-39.224	3.586	B5-03822-P04-CH1	2203128	OK	0.7813789	-0.6234046	0.028526	0	-108.307	-47.534	-2.445	NA
0.129897168169593	B5-03822-P01-CH0	2203136	OK	0.2492123	0.0627503	0.0627419	-0.964375	114.229	-27.429	-229.987	B5-03822-P02-CH0	2203136	OK	0.7688568	0.1736848	-0.6153803	0	-79.945	-104.89	-1.566	B5-03822-P02-CH1	2203136	OK	0.8194328	0.0341613	-0.5721563	0	-83.231	-84.199	3.066	B5-03822-P03-CH0	2203136	OK	0.8895055	-0.2991406	-0.3453909	0	-97.149	-66.377	7.673	B5-03822-P03-CH1	2203136	OK	0.7547201	-0.6537006	-0.0554359	0	-97.093	-24.592	-5.293	B5-03822-P04-CH0	2203136	OK	0.7955242	-0.3711414	0.4789522	0	-117.721	-39.321	3.023	B5-03822-P04-CH1	2203136	OK	0.7815171	-0.6231565	0.0301171	0	-108.468	-47.702	-2.506	NA
0.139889258028793	B5-03822-P01-CH0	2203144	OK	0.2492459	0.0627586	0.0627285	-0.9643666	114.267	-27.413	-229.993	B5-03822-P02-CH0	2203144	OK	0.7702026	0.1730513	-0.613874	0	-80.377	-105.386	-0.601	B5-03822-P02-CH1	2203144	OK	0.8179303	0.0270032	-0.5746833	0	-83.445	-84.851	2.74	B5-03822-P03-CH0	2203144	OK	0.8906563	-0.2996178	-0.341995	0	-96.715	-66.961	7.772	B5-03822-P03-CH1	2203144	OK	0.7551091	-0.6531954	-0.0560893	0	-97.12	-24.565	-5.312	B5-03822-P04-CH0	2203144	OK	0.7945598	-0.3566975	0.4913672	0	-119.036	-39.955	3.249	B5-03822-P04-CH1	2203144	OK	0.7817919	-0.6222836	0.0395545	0	-110.042	-48.543	-2.3	NA
0.149881347887992	B5-03822-P01-CH0	2203152	OK	0.2492098	0.0626782	0.0627025	-0.9643829	114.247	-27.422	-229.992	B5-03822-P02-CH0	2203152	OK	0.7729662	0.1740583	-0.6101041	0	-80.171	-105.064	-0.287	B5-03822-P02-CH1	2203152	OK	0.8174134	0.0232584	-0.5755817	0	-83.361	-84.362	2.681	B5-03822-P03-CH0	2203152	OK	0.8875894	-0.2979322	-0.3513139	0	-97.858	-66.781	8.007	B5-03822-P03-CH1	2203152	OK	0.7565688	-0.6510581	-0.0610495	0	-97.331	-25.252	-5.132	B5-03822-P04-CH0	2203152	OK	0.7932762	-0.3420421	0.5037064	0	-120.246	-41.342	3.538	B5-03822-P04-CH1	2203152	OK	0.7815522	-0.6223699	0.0428002	0	-110.177	-48.863	-2.674	NA
0.159873437747192	B5-03822-P01-CH0	2203160	OK	0.2492653	0.0626133	0.0627005	-0.9643729	114.202	-27.41	-229.966	B5-03822-P02-CH0	2203160	OK	0.7751193	0.1729379	-0.6076863	0	-80.508	-105.368	-0.603	B5-03822-P02-CH1	2203160	OK	0.8174196	0.019228	-0.5757217	0	-83.542	-84.143	2.502	B5-03822-P03-CH0	2203160	OK	0.8825331	-0.2994585	-0.362574	0	-97.536	-67.083	7.873	B5-03822-P03-CH1	2203160	OK	0.7563026	-0.6511955	-0.0628556	0	-97.135	-25.421	-5.238	B5-03822-P04-CH0	2203160	OK	0.7936179	-0.3313937	0.5102438	0	-121.402	-40.906	3.409	B5-03822-P04-CH1	2203160	OK	0.7812998	-0.6225302	0.0450197	0	-110.341	-49.303	-2.476	NA
0.169865527606391	B5-03822-P01-CH0	2203168	OK	0.2493564	0.0625252	0.0630317	-0.9643334	114.183	-27.367	-230.018	B5-03822-P02-CH0	2203168	OK	0.7765074	0.1693806	-0.6069156	0	-80.761	-105.237	0.225	B5-03822-P02-CH1	2203168	OK	0.8183998	0.0135097	-0.5744904	0	-83.604	-84.741	3.086	B5-03822-P03-CH0	2203168	OK	0.8745384	-0.298978	-0.3818308	0	-97.964	-67.11	7.725	B5-03822-P03-CH1	2203168	OK	0.7565971	-0.6507743	-0.0636683	0	-97.855	-25.201	-4.706	B5-03822-P04-CH0	2203168	OK	0.7939857	-0.3216334	0.5158863	0	-122.082	-41.424	4.14	B5-03822-P04-CH1	2203168	OK	0.7816903	-0.6218375	0.0477315	0	-110.497	-49.679	-1.356	NA
0.179857617465591	B5-03822-P01-CH0	2203176	OK	0.2496382	0.0623433	0.0637676	-0.9642239	114.141	-27.301	-230.099	B5-03822-P02-CH0	2203176	OK	0.7774186	0.162066	-0.6077458	0	-81.073	-105.782	0.277	B5-03822-P02-CH1	2203176	OK	0.8193989	0.0076871	-0.5731722	0	-83.697	-84.449	3.332	B5-03822-P03-CH0	2203176	OK	0.8661925	-0.3002288	-0.3994661	0	-97.312	-67.692	6.986	B5-03822-P03-CH1	2203176	OK	0.7559577	-0.6515279	-0.0635557	0	-96.966	-25.5	-5.577	B5-03822-P04-CH0	2203176	OK	0.7945055	-0.3134119	0.5201288	0	-122.527	-41.216	4.379	B5-03822-P04-CH1	2203176	OK	0.7819128	-0.6214056	0.049673	0	-111.06	-49.881	-2.14	NA
0.18984970732479	B5-03822-P01-CH0	2203184	OK	0.2497581	0.0622778	0.0643862	-0.964156	114.132	-27.229	-230.168	B5-03822-P02-CH0	2203184	OK	0.7777391	0.1563201	-0.6088398	0	-81.299	-105.257	0.362	B5-03822-P02-CH1	2203184	OK	0.8202152	-0.0006189	-0.5720547	0	-83.954	-84.591	2.871	B5-03822-P03-CH0	2203184	OK	0.8563964	-0.2941121	-0.4243622	0	-97.277	-67.583	6.66	B5-03822-P03-CH1	2203184	OK	0.7556378	-0.6519473	-0.063057	0	-96.598	-25.915	-4.13	B5-03822-P04-CH0	2203184	OK	0.7945402	-0.3062477	0.5243264	0	-123.352	-42.813	5.798	B5-03822-P04-CH1	2203184	OK	0.7825569	-0.6205319	0.0504461	0	-111.597	-49.948	-1.727	NA
0.19984179718399	B5-03822-P01-CH0	2203192	OK	0.2497445	0.0621728	0.0648248	-0.9641369	114.129	-27.225	-230.291	B5-03822-P02-CH0	2203192	OK	0.7782057	0.150993	-0.6095875	0	-81.543	-104.655	0.931	B5-03822-P02-CH1	2203192	OK	0.8199171	-0.0056658	-0.5724542	0	-84.393	-84.666	2.622	B5-03822-P03-CH0	2203192	OK	0.8466742	-0.2842004	-0.4498588	0	-96.549	-67.196	6.462	B5-03822-P03-CH1	2203192	OK	0.7569653	-0.650649	-0.0604934	0	-96.995	-25.28	-4.684	B5-03822-P04-CH0	2203192	OK	0.7944284	-0.3043863	0.5255783	0	-123.747	-42.05	4.507	B5-03822-P04-CH1	2203192	OK	0.7826859	-0.6202827	0.051499	0	-111.296	-49.963	-1.72	NA
0.209833887043189	B5-03822-P01-CH0	2203200	OK	0.2494313	0.0623437	0.0647388	-0.9642127	114.161	-27.251	-230.255	B5-03822-P02-CH0	2203200	OK	0.7801363	0.1466184	-0.6081862	0	-81.801	-104.348	0.292	B5-03822-P02-CH1	2203200	OK	0.8189481	-0.0070786	-0.5738239	0	-84.458	-84.282	3.459	B5-03822-P03-CH0	2203200	OK	0.8329785	-0.2700255	-0.4829421	0	-96.302	-67.113	6.066	B5-03822-P03-CH1	2203200	OK	0.7563531	-0.6512393	-0.0617842	0	-97.056	-25.574	-4.429	B5-03822-P04-CH0	2203200	OK	0.7938732	-0.3061466	0.5253947	0	-123.297	-40.315	3.346	B5-03822-P04-CH1	2203200	OK	0.7828872	-0.6200934	0.0507127	0	-111.322	-49.702	-1.386	NA
0.219825976902389	B5-03822-P01-CH0	2203208	OK	0.2494323	0.0622681	0.0652251	-0.9641846	114.12	-27.235	-230.263	B5-03822-P02-CH0	2203208	OK	0.7828936	0.1440183	-0.6052572	0	-81.969	-104.202	0.276	B5-03822-P02-CH1	2203208	OK	0.8175093	-0.0059484	-0.5758847	0	-84.053	-84.299	3.318	B5-03822-P03-CH0	2203208	OK	0.8171601	-0.245206	-0.5216544	0	-95.822	-66.618	4.84	B5-03822-P03-CH1	2203208	OK	0.7560917	-0.6514673	-0.0625758	0	-97.044	-25.788	-4.228	B5-03822-P04-CH0	2203208	OK	0.7938663	-0.3056133	0.5257155	0	-123.27	-40.98	3.587	B5-03822-P04-CH1	2203208	OK	0.7830618	-0.6201789	0.0468225	0	-110.876	-49.258	-2.263	NA
0.229818066761588	B5-03822-P01-CH0	2203216	OK	0.2491889	0.0622372	0.0652424	-0.9642483	114.088	-27.252	-230.299	B5-03822-P02-CH0	2203216	OK	0.7852811	0.1452449	-0.6018617	0	-82.586	-103.852	0.831	B5-03822-P02-CH1	2203216	OK	0.8155623	-0.0005215	-0.578669	0	-83.779	-83.814	3.622	B5-03822-P03-CH0	2203216	OK	0.7997554	-0.2088365	-0.562831	0	-95.111	-65.856	3.178	B5-03822-P03-CH1	2203216	OK	0.7533808	-0.6543065	-0.0655775	0	-97.468	-25.516	-4.228	B5-03822-P04-CH0	2203216	OK	0.7932966	-0.3066781	0.5259554	0	-122.959	-41.65	4.719	B5-03822-P04-CH1	2203216	OK	0.783095	-0.6200772	0.0476079	0	-111.083	-49.361	-2.014	NA
0.239810156620788	B5-03822-P01-CH0	2203224	OK	0.249001	0.0622253	0.0651246	-0.9643056	114.007	-27.272	-230.229	B5-03822-P02-CH0	2203224	OK	0.7869173	0.1504436	-0.5984378	0	-83.09	-103.175	0.827	B5-03822-P02-CH1	2203224	OK	0.8126922	0.0101922	-0.5826041	0	-83.43	-82.792	2.625	B5-03822-P03-CH0	2203224	OK	0.7828368	-0.1650025	-0.5999506	0	-93.475	-65.282	2.577	B5-03822-P03-CH1	2203224	OK	0.7526867	-0.6551708	-0.0649147	0	-97.184	-25.631	-4.171	B5-03822-P04-CH0	2203224	OK	0.7934006	-0.3109844	0.523263	0	-122.772	-40.359	3.275	B5-03822-P04-CH1	2203224	OK	0.7829521	-0.6202174	0.0481293	0	-111.121	-49.479	-1.823	NA
0.249802246479987	B5-03822-P01-CH0	2203232	OK	0.2490599	0.0622298	0.0653498	-0.9642749	113.984	-27.231	-230.274	B5-03822-P02-CH0	2203232	OK	0.7872341	0.1567923	-0.5963879	0	-83.395	-102.286	0.922	B5-03822-P02-CH1	2203232	OK	0.80879	0.0193784	-0.5877783	0	-83.324	-81.936	1.118	B5-03822-P03-CH0	2203232	OK	0.7653459	-0.1200348	-0.6323269	0	-92.037	-64.7	2.395	B5-03822-P03-CH1	2203232	OK	0.7520514	-0.6560173	-0.0637189	0	-97.005	-25.627	-4.867	B5-03822-P04-CH0	2203232	OK	0.7937594	-0.3145576	0.5205761	0	-122.545	-40.9	4.006	B5-03822-P04-CH1	2203232	OK	0.7830771	-0.6200344	0.0484518	0	-111.165	-49.51	-1.623	NA
0.259794336339187	B5-03822-P01-CH0	2203240	OK	0.2488366	0.0625281	0.0651133	-0.9643292	114.035	-27.241	-230.226	B5-03822-P02-CH0	2203240	OK	0.7875002	0.1596831	-0.5952687	0	-83.653	-101.302	1.627	B5-03822-P02-CH1	2203240	OK	0.805652	0.0265344	-0.5917946	0	-82.876	-81.274	1.079	B5-03822-P03-CH0	2203240	OK	0.7511275	-0.0797348	-0.6553243	0	-90.058	-62.814	1.373	B5-03822-P03-CH1	2203240	OK	0.7520715	-0.6560395	-0.0632506	0	-97.507	-24.766	-5.555	B5-03822-P04-CH0	2203240	OK	0.7941845	-0.3199516	0.5166255	0	-122.232	-39.263	2.855	B5-03822-P04-CH1	2203240	OK	0.7828771	-0.6203148	0.0480935	0	-111.245	-49.531	-1.389	NA
0.269786426198386	B5-03822-P01-CH0	2203248	OK	0.2487143	0.0624698	0.0650784	-0.9643669	113.98	-27.271	-230.226	B5-03822-P02-CH0	2203248	OK	0.7886829	0.160175	-0.5935683	0	-83.368	-99.843	1.623	B5-03822-P02-CH1	2203248	OK	0.8024402	0.0295636	-0.5959997	0	-82.59	-80.335	0.517	B5-03822-P03-CH0	2203248	OK	0.7382608	-0.0588127	-0.6719465	0	-89.298	-62.263	0.425	B5-03822-P03-CH1	2203248	OK	0.7506247	-0.6578928	-0.0611522	0	-97.174	-25.645	-5.357	B5-03822-P04-CH0	2203248	OK	0.7942918	-0.3211959	0.5156876	0	-122.102	-41.011	5.571	B5-03822-P04-CH1	2203248	OK	0.7829208	-0.6203221	0.0472809	0	-111.14	-49.351	-1.422	NA
0.279778516057586	B5-03822-P01-CH0	2203256	OK	0.2482245	0.0625896	0.0645744	-0.9645192	113.958	-27.358	-230.172	B5-03822-P02-CH0	2203256	OK	0.7898582	0.1585199	-0.5924487	0	-83.559	-98.83	0.956	B5-03822-P02-CH1	2203256	OK	0.7997407	0.0289954	-0.599645	0	-82.164	-79.07	0.841	B5-03822-P03-CH0	2203256	OK	0.7317528	-0.0554769	-0.6793086	0	-88.15	-61.296	2.143	B5-03822-P03-CH1	2203256	OK	0.7498246	-0.6588055	-0.0611427	0	-96.959	-25.749	-5.183	B5-03822-P04-CH0	2203256	OK	0.7942862	-0.3270855	0.5119811	0	-121.575	-39.328	5.042	B5-03822-P04-CH1	2203256	OK	0.782562	-0.6208926	0.0457063	0	-111.071	-49.19	-1.37	NA
0.289770605916785	B5-03822-P01-CH0	2203264	OK	0.2480073	0.0626116	0.064358	-0.9645881	113.895	-27.408	-230.105	B5-03822-P02-CH0	2203264	OK	0.7911131	0.1571561	-0.5911362	0	-83.838	-97.952	2.032	B5-03822-P02-CH1	2203264	OK	0.7981081	0.0239953	-0.6020363	0	-81.589	-78.367	0.894	B5-03822-P03-CH0	2203264	OK	0.7307574	-0.0652045	-0.679516	0	-88.267	-60.223	0.694	B5-03822-P03-CH1	2203264	OK	0.7497187	-0.6588972	-0.0614522	0	-96.45	-25.412	-5.71	B5-03822-P04-CH0	2203264	OK	0.7938568	-0.3321877	0.5093551	0	-121.466	-38.173	3.418	B5-03822-P04-CH1	2203264	OK	0.7824045	-0.6211927	0.0443031	0	-110.872	-48.966	-1.453	NA
0.299762695775985	B5-03822-P01-CH0	2203272	OK	0.2479276	0.0627325	0.0642941	-0.964605	113.879	-27.441	-230.062	B5-03822-P02-CH0	2203272	OK	0.7946711	0.1600618	-0.585558	0	-83.551	-97.432	1.362	B5-03822-P02-CH1	2203272	OK	0.7958633	0.019145	-0.6051736	0	-81.23	-77.848	0.206	B5-03822-P03-CH0	2203272	OK	0.7311848	-0.0803164	-0.6774349	0	-88.55	-59.947	0.933	B5-03822-P03-CH1	2203272	OK	0.7492562	-0.6595832	-0.0597083	0	-96.679	-26	-4.47	B5-03822-P04-CH0	2203272	OK	0.7932192	-0.3355029	0.5081743	0	-121.276	-37.781	2.621	B5-03822-P04-CH1	2203272	OK	0.7823698	-0.6213476	0.0427153	0	-110.763	-48.793	-1.336	NA
0.309754785635184	B5-03822-P01-CH0	2203280	OK	0.2478797	0.062729	0.0645764	-0.9645987	113.799	-27.387	-230.074	B5-03822-P02-CH0	2203280	OK	0.7978439	0.1678525	-0.5790256	0	-83.137	-97.04	2.213	B5-03822-P02-CH1	2203280	OK	0.7926269	0.0129238	-0.6095699	0	-80.807	-76.964	0.099	B5-03822-P03-CH0	2203280	OK	0.7334869	-0.1029116	-0.6718676	0	-88.815	-59.881	0.933	B5-03822-P03-CH1	2203280	OK	0.7498694	-0.6588972	-0.0595846	0	-97.456	-25.291	-4.819	B5-03822-P04-CH0	2203280	OK	0.793419	-0.3365136	0.5071932	0	-121.505	-38.151	3.573	B5-03822-P04-CH1	2203280	OK	0.7824889	-0.6213029	0.0411569	0	-110.589	-48.476	-1.477	NA
0.319746875494384	B5-03822-P01-CH0	2203288	OK	0.2476204	0.0629077	0.0640926	-0.9646859	113.727	-27.42	-230.009	B5-03822-P02-CH0	2203288	OK	0.8005301	0.1773366	-0.5724538	0	-83.123	-96.697	2.669	B5-03822-P02-CH1	2203288	OK	0.7901438	0.0033561	-0.6129124	0	-80.114	-76.431	-0.144	B5-03822-P03-CH0	2203288	OK	0.7376017	-0.1307723	-0.6624518	0	-89.132	-59.835	1.481	B5-03822-P03-CH1	2203288	OK	0.7500527	-0.6583993	-0.0627009	0	-96.981	-25.404	-4.873	B5-03822-P04-CH0	2203288	OK	0.7928958	-0.3389233	0.5064062	0	-121.66	-38.149	3.539	B5-03822-P04-CH1	2203288	OK	0.7821943	-0.6218019	0.0391716	0	-110.401	-48.135	-1.505	NA
0.329738965353583	B5-03822-P01-CH0	2203296	OK	0.2475521	0.0630765	0.0641799	-0.9646866	113.706	-27.43	-230.014	B5-03822-P02-CH0	2203296	OK	0.8023891	0.1870253	-0.5667392	0	-83.251	-96.897	3.209	B5-03822-P02-CH1	2203296	OK	0.7868979	-0.0072372	-0.6170408	0	-79.955	-76.564	-0.714	B5-03822-P03-CH0	2203296	OK	0.7444791	-0.1628865	-0.6474711	0	-89.555	-59.46	0.615	B5-03822-P03-CH1	2203296	OK	0.7497492	-0.6588202	-0.0619029	0	-96.939	-25.387	-4.943	B5-03822-P04-CH0	2203296	OK	0.7925763	-0.340308	0.5059775	0	-122.038	-37.732	2.603	B5-03822-P04-CH1	2203296	OK	0.7822159	-0.6218908	0.0372843	0	-110.231	-47.817	-1.568	NA
0.339731055212783	B5-03822-P01-CH0	2203304	OK	0.2474161	0.0633177	0.0640755	-0.9647126	113.73	-27.483	-230.056	B5-03822-P02-CH0	2203304	OK	0.8044538	0.1992861	-0.5595884	0	-83.274	-96.552	3.225	B5-03822-P02-CH1	2203304	OK	0.783962	-0.0151855	-0.620623	0	-79.664	-76.169	-1.256	B5-03822-P03-CH0	2203304	OK	0.7543547	-0.2023676	-0.6244969	0	-89.844	-59.05	0.763	B5-03822-P03-CH1	2203304	OK	0.7495166	-0.6591331	-0.0613868	0	-96.958	-25.216	-5.228	B5-03822-P04-CH0	2203304	OK	0.7921948	-0.3409453	0.5061459	0	-121.764	-36.624	2.422	B5-03822-P04-CH1	2203304	OK	0.7821912	-0.6220302	0.0354317	0	-110.096	-47.53	-1.546	NA
0.349723145071982	B5-03822-P01-CH0	2203312	OK	0.2470077	0.0636558	0.0633939	-0.9648401	113.705	-27.571	-229.967	B5-03822-P02-CH0	2203312	OK	0.8055621	0.2102049	-0.5539708	0	-83.413	-96.924	3.896	B5-03822-P02-CH1	2203312	OK	0.7799413	-0.0248669	-0.6253584	0	-79.407	-76.491	-1.68	B5-03822-P03-CH0	2203312	OK	0.7660263	-0.2440728	-0.5946698	0	-90.962	-58.001	1.063	B5-03822-P03-CH1	2203312	OK	0.7487988	-0.6599622	-0.0612384	0	-96.91	-25.135	-5.419	B5-03822-P04-CH0	2203312	OK	0.7904447	-0.3391962	0.5100423	0	-121.904	-38.945	4.481	B5-03822-P04-CH1	2203312	OK	0.781721	-0.6227335	0.0333957	0	-110.025	-47.252	-1.634	NA
0.359715234931182	B5-03822-P01-CH0	2203320	OK	0.2469388	0.0636842	0.0635291	-0.9648469	113.684	-27.647	-230.041	B5-03822-P02-CH0	2203320	OK	0.8067604	0.2241079	-0.5467296	0	-82.683	-96.711	3.432	B5-03822-P02-CH1	2203320	OK	0.7754843	-0.0337279	-0.6304653	0	-78.917	-76.337	-1.658	B5-03822-P03-CH0	2203320	OK	0.7820371	-0.2897906	-0.5517602	0	-91.609	-58.19	2.294	B5-03822-P03-CH1	2203320	OK	0.7485176	-0.6603397	-0.0606035	0	-96.761	-25.333	-5.295	B5-03822-P04-CH0	2203320	OK	0.7898518	-0.3407126	0.5099501	0	-121.614	-37.101	2.222	B5-03822-P04-CH1	2203320	OK	0.7819166	-0.6225671	0.0318839	0	-109.997	-46.993	-1.66	NA
0.369707324790381	B5-03822-P01-CH0	2203328	OK	0.2465939	0.0638783	0.0631908	-0.9649445	113.693	-27.746	-230.08	B5-03822-P02-CH0	2203328	OK	0.8045039	0.2316739	-0.546901	0	-82.967	-97.862	5.203	B5-03822-P02-CH1	2203328	OK	0.7708844	-0.0411527	-0.6356443	0	-78.414	-76.165	-2.203	B5-03822-P03-CH0	2203328	OK	0.798458	-0.3333123	-0.5013659	0	-92.572	-58.94	3.715	B5-03822-P03-CH1	2203328	OK	0.7480799	-0.6608351	-0.0606096	0	-96.764	-25.354	-5.209	B5-03822-P04-CH0	2203328	OK	0.7896182	-0.3384436	0.5118193	0	-121.828	-37.956	3.945	B5-03822-P04-CH1	2203328	OK	0.7816027	-0.6230337	0.0304339	0	-109.978	-46.923	-1.502	NA
0.379699414649581	B5-03822-P01-CH0	2203336	OK	0.2465136	0.0639706	0.063063	-0.9649673	113.665	-27.785	-230.125	B5-03822-P02-CH0	2203336	OK	0.8009607	0.2455033	-0.5460679	0	-82.595	-97.434	4.723	B5-03822-P02-CH1	2203336	OK	0.7657782	-0.0469247	-0.6413905	0	-77.984	-75.807	-2.478	B5-03822-P03-CH0	2203336	OK	0.8119803	-0.3717525	-0.4499868	0	-93.066	-59.305	4.776	B5-03822-P03-CH1	2203336	OK	0.7478529	-0.6611145	-0.0603635	0	-96.766	-25.309	-5.155	B5-03822-P04-CH0	2203336	OK	0.7892307	-0.338101	0.5126427	0	-121.705	-38.153	4.68	B5-03822-P04-CH1	2203336	OK	0.7816463	-0.6230298	0.0293748	0	-109.903	-46.688	-1.408	NA
0.38969150450878	B5-03822-P01-CH0	2203344	OK	0.2463307	0.0640174	0.0630845	-0.9650095	113.644	-27.857	-230.156	B5-03822-P02-CH0	2203344	OK	0.7964925	0.2599427	-0.5459208	0	-81.733	-97.036	3.931	B5-03822-P02-CH1	2203344	OK	0.7591958	-0.0540835	-0.6486114	0	-78.184	-76.057	-2.326	B5-03822-P03-CH0	2203344	OK	0.81742	-0.404563	-0.4100651	0	-94.369	-58.803	4.11	B5-03822-P03-CH1	2203344	OK	0.7477586	-0.6612288	-0.0602786	0	-96.913	-25.234	-5.267	B5-03822-P04-CH0	2203344	OK	0.7890527	-0.3397046	0.5118561	0	-122.228	-38.133	2.853	B5-03822-P04-CH1	2203344	OK	0.7817773	-0.6229193	0.0282093	0	-109.945	-46.533	-1.207	NA
0.39968359436798	B5-03822-P01-CH0	2203352	OK	0.2461628	0.0637852	0.0634108	-0.9650463	113.515	-27.891	-230.189	B5-03822-P02-CH0	2203352	OK	0.7905322	0.2701969	-0.5495931	0	-81.153	-96.902	3.348	B5-03822-P02-CH1	2203352	OK	0.7543361	-0.0601436	-0.6537276	0	-77.626	-75.232	-2.287	B5-03822-P03-CH0	2203352	OK	0.820477	-0.4338748	-0.3722502	0	-93.013	-59.238	3.956	B5-03822-P03-CH1	2203352	OK	0.7479848	-0.6609687	-0.0603251	0	-96.847	-25.039	-5.393	B5-03822-P04-CH0	2203352	OK	0.7893875	-0.3420969	0.5097421	0	-121.767	-36.586	2.554	B5-03822-P04-CH1	2203352	OK	0.7821066	-0.6225424	0.0273907	0	-109.849	-46.24	-1.471	NA
0.409675684227179	B5-03822-P01-CH0	2203360	OK	0.2458956	0.0637664	0.0631585	-0.9651322	113.465	-27.992	-230.194	B5-03822-P02-CH0	2203360	OK	0.7847049	0.2772909	-0.5543897	0	-80.532	-96.979	2.026	B5-03822-P02-CH1	2203360	OK	0.7501632	-0.0672558	-0.6578236	0	-77.049	-75.114	-2.48	B5-03822-P03-CH0	2203360	OK	0.8244944	-0.4528836	-0.3392718	0	-92.566	-59.967	3.959	B5-03822-P03-CH1	2203360	OK	0.7477261	-0.6612444	-0.0605108	0	-96.761	-25	-5.583	B5-03822-P04-CH0	2203360	OK	0.7900801	-0.3419005	0.5088	0	-121.668	-37.156	2.354	B5-03822-P04-CH1	2203360	OK	0.7820549	-0.6226434	0.026558	0	-109.835	-46.144	-1.312	NA
0.419667774086379	B5-03822-P01-CH0	2203368	OK	0.2456836	0.0638129	0.0630698	-0.9651889	113.448	-28.025	-230.224	B5-03822-P02-CH0	2203368	OK	0.7789246	0.2834694	-0.5593939	0	-79.496	-97.047	1.047	B5-03822-P02-CH1	2203368	OK	0.7455601	-0.0743345	-0.6622798	0	-76.076	-74.483	-3.425	B5-03822-P03-CH0	2203368	OK	0.8303041	-0.4619828	-0.3117162	0	-93.75	-59.798	3.859	B5-03822-P03-CH1	2203368	OK	0.7473514	-0.6616584	-0.0606138	0	-96.819	-25.114	-5.415	B5-03822-P04-CH0	2203368	OK	0.7897531	-0.3416491	0.5094762	0	-121.712	-37.367	2.752	B5-03822-P04-CH1	2203368	OK	0.7820458	-0.6226829	0.0258908	0	-109.883	-45.952	-1.55	NA
0.429659863945578	B5-03822-P01-CH0	2203376	OK	0.2454697	0.0635952	0.0632187	-0.965248	113.353	-28.072	-230.185	B5-03822-P02-CH0	2203376	OK	0.771647	0.2899739	-0.566106	0	-78.386	-96.935	1.297	B5-03822-P02-CH1	2203376	OK	0.7379496	-0.0837262	-0.6696419	0	-75.541	-73.878	-4.119	B5-03822-P03-CH0	2203376	OK	0.8356739	-0.4690465	-0.2857349	0	-94.348	-60.012	4.474	B5-03822-P03-CH1	2203376	OK	0.7473461	-0.661651	-0.0607605	0	-96.812	-25.05	-5.536	B5-03822-P04-CH0	2203376	OK	0.7894494	-0.3417549	0.5098757	0	-121.622	-37.281	2.752	B5-03822-P04-CH1	2203376	OK	0.7822321	-0.6224662	0.0254721	0	-109.855	-45.838	-1.627	NA
0.439651953804778	B5-03822-P01-CH0	2203384	OK	0.2454708	0.0634446	0.0635859	-0.9652335	113.301	-28.075	-230.182	B5-03822-P02-CH0	2203384	OK	0.7644103	0.295344	-0.5731046	0	-77.351	-97.283	0.682	B5-03822-P02-CH1	2203384	OK	0.7316699	-0.0942889	-0.6751064	0	-74.547	-72.945	-3.81	B5-03822-P03-CH0	2203384	OK	0.8402068	-0.4736531	-0.2640177	0	-94.099	-60.078	5.066	B5-03822-P03-CH1	2203384	OK	0.7474697	-0.661525	-0.0606114	0	-96.829	-25.059	-5.545	B5-03822-P04-CH0	2203384	OK	0.7893481	-0.3416824	0.510081	0	-121.551	-37.249	2.772	B5-03822-P04-CH1	2203384	OK	0.7824305	-0.6222171	0.0254629	0	-109.826	-45.815	-1.666	NA
0.449644043663977	B5-03822-P01-CH0	2203392	OK	0.2457051	0.0633633	0.0641366	-0.9651428	113.314	-28.108	-230.249	B5-03822-P02-CH0	2203392	OK	0.7570571	0.3021264	-0.5792963	0	-75.594	-96.795	-1.416	B5-03822-P02-CH1	2203392	OK	0.7244361	-0.1054289	-0.681232	0	-74.289	-72.482	-3.964	B5-03822-P03-CH0	2203392	OK	0.843233	-0.476257	-0.2492737	0	-94.139	-59.794	4.496	B5-03822-P03-CH1	2203392	OK	0.7477935	-0.6612095	-0.0600574	0	-96.921	-25.16	-5.399	B5-03822-P04-CH0	2203392	OK	0.7895416	-0.3413169	0.5100264	0	-121.565	-37.263	2.7	B5-03822-P04-CH1	2203392	OK	0.7828199	-0.6217142	0.0257776	0	-109.796	-45.876	-1.668	NA
0.459636133523177	B5-03822-P01-CH0	2203400	OK	0.2456231	0.0632706	0.0642663	-0.9651611	113.259	-28.111	-230.258	B5-03822-P02-CH0	2203400	OK	0.7478782	0.30701	-0.5885772	0	-74.158	-96.678	-2.062	B5-03822-P02-CH1	2203400	OK	0.7188033	-0.1162282	-0.685429	0	-73.821	-71.653	-4.779	B5-03822-P03-CH0	2203400	OK	0.8447008	-0.4789675	-0.2388948	0	-93.628	-60.287	4.462	B5-03822-P03-CH1	2203400	OK	0.7480252	-0.6609535	-0.0599902	0	-96.943	-25.015	-5.492	B5-03822-P04-CH0	2203400	OK	0.7895665	-0.3414126	0.5099237	0	-121.523	-37.299	2.908	B5-03822-P04-CH1	2203400	OK	0.7828445	-0.6216845	0.0257465	0	-109.726	-45.869	-1.684	NA
0.469628223382376	B5-03822-P01-CH0	2203408	OK	0.2455345	0.0632852	0.0643106	-0.9651798	113.221	-28.105	-230.226	B5-03822-P02-CH0	2203408	OK	0.7387252	0.3115738	-0.5976678	0	-72.255	-95.785	-4.095	B5-03822-P02-CH1	2203408	OK	0.7174585	-0.1301214	-0.6843404	0	-73.062	-70.974	-4.209	B5-03822-P03-CH0	2203408	OK	0.8458448	-0.4779987	-0.2367781	0	-94.366	-59.848	4.723	B5-03822-P03-CH1	2203408	OK	0.7481213	-0.6608472	-0.0599627	0	-96.981	-24.902	-5.631	B5-03822-P04-CH0	2203408	OK	0.7895576	-0.3422022	0.5094079	0	-121.438	-37.068	2.665	B5-03822-P04-CH1	2203408	OK	0.7829258	-0.6215878	0.0256087	0	-109.766	-45.733	-1.871	NA
0.479620313241576	B5-03822-P01-CH0	2203416	OK	0.2453053	0.063238	0.0642498	-0.9652452	113.171	-28.118	-230.2	B5-03822-P02-CH0	2203416	OK	0.7297966	0.3112595	-0.608699	0	-71.252	-95.625	-5.289	B5-03822-P02-CH1	2203416	OK	0.7179744	-0.1452384	-0.6807485	0	-73.463	-71.163	-4.202	B5-03822-P03-CH0	2203416	OK	0.8476071	-0.4774408	-0.2315436	0	-94.257	-59.983	5.289	B5-03822-P03-CH1	2203416	OK	0.7480923	-0.6608805	-0.059958	0	-96.916	-24.919	-5.625	B5-03822-P04-CH0	2203416	OK	0.7895853	-0.342834	0.50894	0	-121.37	-36.97	2.654	B5-03822-P04-CH1	2203416	OK	0.7827775	-0.62178	0.025476	0	-109.714	-45.718	-1.945	NA
0.489612403100775	B5-03822-P01-CH0	2203424	OK	0.2451881	0.0634065	0.0641194	-0.9652726	113.2	-28.128	-230.214	B5-03822-P02-CH0	2203424	OK	0.7224663	0.306889	-0.6195657	0	-70.554	-95.487	-5.036	B5-03822-P02-CH1	2203424	OK	0.7200951	-0.1537577	-0.6766252	0	-73.339	-70.7	-4.378	B5-03822-P03-CH0	2203424	OK	0.8486603	-0.4760737	-0.2304983	0	-94.246	-59.649	5.361	B5-03822-P03-CH1	2203424	OK	0.7479337	-0.6610655	-0.0598961	0	-96.964	-25.027	-5.392	B5-03822-P04-CH0	2203424	OK	0.7896526	-0.3433515	0.5084865	0	-121.336	-36.888	2.72	B5-03822-P04-CH1	2203424	OK	0.7825955	-0.6220089	0.0254809	0	-109.685	-45.753	-1.961	NA
0.499604492959975	B5-03822-P01-CH0	2203432	OK	0.2451263	0.0635971	0.0637298	-0.9653015	113.238	-28.179	-230.193	B5-03822-P02-CH0	2203432	OK	0.7176555	0.2995324	-0.6286898	0	-70.182	-95.563	-4.842	B5-03822-P02-CH1	2203432	OK	0.7223318	-0.1581664	-0.6732163	0	-73.21	-70.17	-3.758	B5-03822-P03-CH0	2203432	OK	0.8473896	-0.4766366	-0.2339839	0	-94.103	-59.385	4.779	B5-03822-P03-CH1	2203432	OK	0.7474634	-0.6616194	-0.059651	0	-96.923	-25.312	-5.16	B5-03822-P04-CH0	2203432	OK	0.7896777	-0.3435722	0.5082984	0	-121.392	-37.139	2.895	B5-03822-P04-CH1	2203432	OK	0.7822246	-0.6224736	0.0255199	0	-109.708	-45.88	-1.838	NA
0.509596582819174	B5-03822-P01-CH0	2203440	OK	0.2451003	0.0636271	0.0637717	-0.9653034	113.261	-28.213	-230.235	B5-03822-P02-CH0	2203440	OK	0.714631	0.2907134	-0.6362298	0	-70.027	-96.058	-4.236	B5-03822-P02-CH1	2203440	OK	0.7234205	-0.1586545	-0.6719312	0	-73.57	-69.794	-4.249	B5-03822-P03-CH0	2203440	OK	0.8449749	-0.4787925	-0.2382755	0	-93.921	-59.478	3.801	B5-03822-P03-CH1	2203440	OK	0.7475313	-0.6615551	-0.059514	0	-97.001	-25.375	-4.961	B5-03822-P04-CH0	2203440	OK	0.7897797	-0.3439887	0.507858	0	-121.344	-37.199	3.015	B5-03822-P04-CH1	2203440	OK	0.7821922	-0.6225157	0.0254868	0	-109.715	-45.863	-1.978	NA
0.519588672678374	B5-03822-P01-CH0	2203448	OK	0.2451925	0.0635442	0.0641409	-0.9652609	113.261	-28.226	-230.237	B5-03822-P02-CH0	2203448	OK	0.7126238	0.2827045	-0.6420635	0	-69.805	-95.624	-4.833	B5-03822-P02-CH1	2203448	OK	0.7249752	-0.1563373	-0.6707978	0	-73.543	-69.721	-4.363	B5-03822-P03-CH0	2203448	OK	0.8435352	-0.4780853	-0.2447097	0	-93.806	-59.345	4.484	B5-03822-P03-CH1	2203448	OK	0.748034	-0.6609854	-0.0595274	0	-96.946	-25.215	-5.236	B5-03822-P04-CH0	2203448	OK	0.7899313	-0.3447284	0.5071202	0	-121.217	-36.975	2.743	B5-03822-P04-CH1	2203448	OK	0.782365	-0.6222901	0.0256906	0	-109.669	-45.958	-1.804	NA
0.529580762537573	B5-03822-P01-CH0	2203456	OK	0.2452286	0.0635875	0.0639873	-0.9652591	113.295	-28.254	-230.262	B5-03822-P02-CH0	2203456	OK	0.7131731	0.2757536	-0.644472	0	-69.553	-94.796	-4.462	B5-03822-P02-CH1	2203456	OK	0.7262331	-0.1518978	-0.670457	0	-73.665	-69.341	-4.442	B5-03822-P03-CH0	2203456	OK	0.8413676	-0.4766817	-0.2547059	0	-94.326	-59.088	4.655	B5-03822-P03-CH1	2203456	OK	0.7479838	-0.6610395	-0.0595562	0	-96.919	-25.274	-5.349	B5-03822-P04-CH0	2203456	OK	0.7899829	-0.3453929	0.5065874	0	-121.172	-36.973	2.762	B5-03822-P04-CH1	2203456	OK	0.7821297	-0.6225783	0.0258721	0	-109.61	-46.058	-1.803	NA
0.539572852396773	B5-03822-P01-CH0	2203464	OK	0.2451317	0.0636504	0.0639594	-0.9652814	113.321	-28.274	-230.25	B5-03822-P02-CH0	2203464	OK	0.7165031	0.2696131	-0.6433756	0	-69.812	-94.759	-3.884	B5-03822-P02-CH1	2203464	OK	0.7279322	-0.1471662	-0.6696692	0	-74.119	-68.796	-4.556	B5-03822-P03-CH0	2203464	OK	0.8392263	-0.4752437	-0.2642774	0	-93.527	-59.239	4.344	B5-03822-P03-CH1	2203464	OK	0.7480454	-0.6609512	-0.0597628	0	-96.878	-25.315	-5.32	B5-03822-P04-CH0	2203464	OK	0.7900578	-0.3457762	0.5062089	0	-121.175	-37.132	2.91	B5-03822-P04-CH1	2203464	OK	0.7821091	-0.6226135	0.0256471	0	-109.633	-45.992	-1.973	NA
0.549564942255972	B5-03822-P01-CH0	2203472	OK	0.2450579	0.0634849	0.0641034	-0.9653015	113.29	-28.263	-230.265	B5-03822-P02-CH0	2203472	OK	0.7214001	0.2634771	-0.6404387	0	-70.802	-94.848	-3.592	B5-03822-P02-CH1	2203472	OK	0.7325687	-0.1447212	-0.6651307	0	-74.031	-69.246	-3.585	B5-03822-P03-CH0	2203472	OK	0.8370283	-0.4709103	-0.2786164	0	-92.833	-58.802	4.343	B5-03822-P03-CH1	2203472	OK	0.7482593	-0.6606684	-0.0602103	0	-96.848	-25.265	-5.366	B5-03822-P04-CH0	2203472	OK	0.790104	-0.3464737	0.5056596	0	-121.07	-36.957	2.762	B5-03822-P04-CH1	2203472	OK	0.7821954	-0.622515	0.0254063	0	-109.528	-45.979	-1.742	NA
0.559557032115172	B5-03822-P01-CH0	2203480	OK	0.2452284	0.0636723	0.0639541	-0.9652558	113.384	-28.271	-230.224	B5-03822-P02-CH0	2203480	OK	0.7300114	0.255405	-0.6339177	0	-71.273	-94.633	-3.24	B5-03822-P02-CH1	2203480	OK	0.736767	-0.1416528	-0.6611421	0	-74.826	-70.017	-3.199	B5-03822-P03-CH0	2203480	OK	0.833002	-0.4664064	-0.2976117	0	-93.133	-58.332	4.249	B5-03822-P03-CH1	2203480	OK	0.7482163	-0.6606907	-0.0604988	0	-96.947	-25.302	-5.45	B5-03822-P04-CH0	2203480	OK	0.7902095	-0.3469243	0.5051856	0	-121.128	-36.952	2.648	B5-03822-P04-CH1	2203480	OK	0.782119	-0.6226136	0.0253421	0	-109.513	-45.998	-1.694	NA
0.569549121974371	B5-03822-P01-CH0	2203488	OK	0.2454851	0.0636778	0.0642556	-0.9651702	113.451	-28.248	-230.221	B5-03822-P02-CH0	2203488	OK	0.7414108	0.246579	-0.6241064	0	-71.829	-94.18	-4.297	B5-03822-P02-CH1	2203488	OK	0.7437921	-0.1334083	-0.6549623	0	-74.97	-69.63	-2.993	B5-03822-P03-CH0	2203488	OK	0.8285409	-0.4625448	-0.3155507	0	-93.146	-58.169	4.38	B5-03822-P03-CH1	2203488	OK	0.7485005	-0.6603498	-0.0607049	0	-97.006	-25.416	-5.292	B5-03822-P04-CH0	2203488	OK	0.7903703	-0.3470556	0.5048437	0	-121.132	-36.989	2.561	B5-03822-P04-CH1	2203488	OK	0.7822163	-0.622488	0.0254237	0	-109.46	-46.15	-1.481	NA
0.579541211833571	B5-03822-P01-CH0	2203496	OK	0.2459572	0.0635398	0.0647305	-0.9650273	113.47	-28.206	-230.232	B5-03822-P02-CH0	2203496	OK	0.7519088	0.2349794	-0.615969	0	-73.15	-94.342	-3.573	B5-03822-P02-CH1	2203496	OK	0.7517491	-0.1223455	-0.6480007	0	-75.263	-70.344	-2.571	B5-03822-P03-CH0	2203496	OK	0.8235288	-0.4585023	-0.3340299	0	-92.829	-58.197	3.858	B5-03822-P03-CH1	2203496	OK	0.7490418	-0.6597336	-0.0607281	0	-97.047	-25.387	-5.398	B5-03822-P04-CH0	2203496	OK	0.7904799	-0.3468966	0.5047813	0	-121.055	-37.05	2.475	B5-03822-P04-CH1	2203496	OK	0.7825974	-0.6219955	0.0257471	0	-109.378	-46.187	-1.401	NA
0.58953330169277	B5-03822-P01-CH0	2203504	OK	0.246244	0.0634567	0.0646207	-0.964967	113.487	-28.224	-230.159	B5-03822-P02-CH0	2203504	OK	0.7606038	0.2244696	-0.6091759	0	-74.692	-94.957	-2.281	B5-03822-P02-CH1	2203504	OK	0.7598833	-0.1110316	-0.6405071	0	-75.961	-70.901	-2.692	B5-03822-P03-CH0	2203504	OK	0.8185069	-0.4532239	-0.3530361	0	-92.827	-57.87	3.028	B5-03822-P03-CH1	2203504	OK	0.7491118	-0.6596313	-0.060976	0	-96.956	-25.489	-5.416	B5-03822-P04-CH0	2203504	OK	0.7904058	-0.3470201	0.5048125	0	-120.991	-37.183	2.538	B5-03822-P04-CH1	2203504	OK	0.7825363	-0.6220684	0.0258451	0	-109.265	-46.239	-1.527	NA
0.59952539155197	B5-03822-P01-CH0	2203512	OK	0.2461663	0.0635178	0.0641726	-0.9650127	113.546	-28.217	-230.135	B5-03822-P02-CH0	2203512	OK	0.7670756	0.222365	-0.6017881	0	-75.635	-94.738	-1.936	B5-03822-P02-CH1	2203512	OK	0.765894	-0.1011157	-0.6349661	0	-76.507	-71.491	-1.819	B5-03822-P03-CH0	2203512	OK	0.8137672	-0.4481581	-0.3700503	0	-92.567	-57.746	2.432	B5-03822-P03-CH1	2203512	OK	0.7490468	-0.6596196	-0.0618938	0	-97.066	-25.362	-5.591	B5-03822-P04-CH0	2203512	OK	0.7901535	-0.3481088	0.5044578	0	-120.878	-36.939	2.48	B5-03822-P04-CH1	2203512	OK	0.7822502	-0.6224432	0.0254779	0	-109.216	-46.244	-1.544	NA
0.609517481411169	B5-03822-P01-CH0	2203520	OK	0.2466086	0.0634811	0.0642472	-0.9648972	113.603	-28.176	-230.144	B5-03822-P02-CH0	2203520	OK	0.7698606	0.2222201	-0.5982749	0	-76.578	-94.912	-0.678	B5-03822-P02-CH1	2203520	OK	0.7687069	-0.0914944	-0.6330233	0	-76.741	-72.33	-1.588	B5-03822-P03-CH0	2203520	OK	0.8096771	-0.4437573	-0.3840605	0	-92.646	-57.751	3.333	B5-03822-P03-CH1	2203520	OK	0.7492522	-0.6593757	-0.0620066	0	-97.067	-25.418	-5.634	B5-03822-P04-CH0	2203520	OK	0.7901407	-0.347816	0.5046799	0	-120.865	-37.164	2.62	B5-03822-P04-CH1	2203520	OK	0.7823338	-0.6223296	0.0256857	0	-109.089	-46.339	-1.524	NA
0.619509571270369	B5-03822-P01-CH0	2203528	OK	0.2468674	0.0634515	0.064122	-0.9648413	113.64	-28.141	-230.153	B5-03822-P02-CH0	2203528	OK	0.7725972	0.2238531	-0.594124	0	-76.606	-95.193	-0.688	B5-03822-P02-CH1	2203528	OK	0.7683923	-0.0835224	-0.6345056	0	-77.381	-72.693	-1.091	B5-03822-P03-CH0	2203528	OK	0.8063807	-0.4411608	-0.393862	0	-92.511	-57.553	2.804	B5-03822-P03-CH1	2203528	OK	0.7492458	-0.6593719	-0.0621254	0	-97.077	-25.592	-5.343	B5-03822-P04-CH0	2203528	OK	0.7899766	-0.3480485	0.5047764	0	-120.764	-37.206	2.693	B5-03822-P04-CH1	2203528	OK	0.7822962	-0.6223819	0.025563	0	-109.02	-46.377	-1.481	NA
0.629501661129568	B5-03822-P01-CH0	2203536	OK	0.2468845	0.0635583	0.0637447	-0.9648549	113.697	-28.129	-230.113	B5-03822-P02-CH0	2203536	OK	0.7724587	0.2255932	-0.5936457	0	-77.184	-95.429	-0.374	B5-03822-P02-CH1	2203536	OK	0.770222	-0.077424	-0.6330589	0	-76.404	-72.526	-1.077	B5-03822-P03-CH0	2203536	OK	0.8020585	-0.4389389	-0.4050122	0	-92.866	-57.229	2.374	B5-03822-P03-CH1	2203536	OK	0.7491987	-0.6593639	-0.0627747	0	-97.161	-25.571	-5.18	B5-03822-P04-CH0	2203536	OK	0.7896773	-0.3486172	0.5048523	0	-120.693	-37.26	2.755	B5-03822-P04-CH1	2203536	OK	0.782118	-0.6226234	0.0251302	0	-108.971	-46.34	-1.587	NA
0.639493750988768	B5-03822-P01-CH0	2203544	OK	0.2472279	0.0635961	0.0634477	-0.9647841	113.718	-28.09	-230.049	B5-03822-P02-CH0	2203544	OK	0.7717789	0.2255859	-0.594532	0	-77.285	-95.597	-0.109	B5-03822-P02-CH1	2203544	OK	0.7700663	-0.0758358	-0.6334404	0	-76.147	-72.772	-1.151	B5-03822-P03-CH0	2203544	OK	0.7985725	-0.4387576	-0.412036	0	-92.378	-57.536	2.927	B5-03822-P03-CH1	2203544	OK	0.7492041	-0.6593308	-0.063056	0	-97.124	-25.537	-5.276	B5-03822-P04-CH0	2203544	OK	0.7895301	-0.3489154	0.5048765	0	-120.556	-37.215	2.874	B5-03822-P04-CH1	2203544	OK	0.7819905	-0.622782	0.0251676	0	-108.873	-46.398	-1.564	NA
0.649485840847967	B5-03822-P01-CH0	2203552	OK	0.2475115	0.0638323	0.0633007	-0.9647054	113.813	-28.028	-229.971	B5-03822-P02-CH0	2203552	OK	0.7712255	0.2269733	-0.5947221	0	-76.844	-95.248	-0.674	B5-03822-P02-CH1	2203552	OK	0.7679821	-0.0740941	-0.636171	0	-76.586	-72.676	-1.712	B5-03822-P03-CH0	2203552	OK	0.795473	-0.436604	-0.4202375	0	-92.924	-56.872	2.113	B5-03822-P03-CH1	2203552	OK	0.7491425	-0.6593896	-0.063173	0	-97.134	-25.641	-5.212	B5-03822-P04-CH0	2203552	OK	0.7894773	-0.3493845	0.5046346	0	-120.471	-37.123	2.98	B5-03822-P04-CH1	2203552	OK	0.7819215	-0.6228744	0.0250272	0	-108.953	-46.415	-1.668	NA
0.659477930707167	B5-03822-P01-CH0	2203560	OK	0.2477053	0.063703	0.0631705	-0.9646728	113.773	-27.992	-229.94	B5-03822-P02-CH0	2203560	OK	0.7700122	0.2259033	-0.5966983	0	-76.692	-95.734	-0.47	B5-03822-P02-CH1	2203560	OK	0.7669899	-0.0724287	-0.6375584	0	-76.722	-72.897	-1.46	B5-03822-P03-CH0	2203560	OK	0.7943774	-0.4346061	-0.4243608	0	-91.826	-56.979	1.723	B5-03822-P03-CH1	2203560	OK	0.7491866	-0.6593361	-0.0632094	0	-97.097	-25.684	-5.067	B5-03822-P04-CH0	2203560	OK	0.7892406	-0.3498029	0.5047149	0	-120.282	-37.171	3.073	B5-03822-P04-CH1	2203560	OK	0.781869	-0.6229428	0.024963	0	-108.757	-46.433	-1.71	NA
0.669470020566366	B5-03822-P01-CH0	2203568	OK	0.2479103	0.0636541	0.0628826	-0.9646421	113.75	-27.939	-229.952	B5-03822-P02-CH0	2203568	OK	0.7688797	0.2261076	-0.5980798	0	-76.143	-95.618	-1.57	B5-03822-P02-CH1	2203568	OK	0.7679347	-0.0707992	-0.6366033	0	-76.177	-72.651	-0.827	B5-03822-P03-CH0	2203568	OK	0.7922681	-0.4318459	-0.4310688	0	-91.578	-57.013	1.663	B5-03822-P03-CH1	2203568	OK	0.749317	-0.6591735	-0.0633587	0	-97.053	-25.445	-5.317	B5-03822-P04-CH0	2203568	OK	0.7890659	-0.350279	0.5046579	0	-120.151	-37.166	3.257	B5-03822-P04-CH1	2203568	OK	0.7817822	-0.6230576	0.0248148	0	-108.623	-46.392	-1.688	NA
0.679462110425566	B5-03822-P01-CH0	2203576	OK	0.2480714	0.0637357	0.0630277	-0.9645859	113.81	-27.89	-229.955	B5-03822-P02-CH0	2203576	OK	0.7654837	0.227264	-0.6019849	0	-76.315	-95.521	-1.974	B5-03822-P02-CH1	2203576	OK	0.7678568	-0.0690776	-0.6368864	0	-76.427	-73.002	-0.826	B5-03822-P03-CH0	2203576	OK	0.7899239	-0.4279877	-0.4391432	0	-92.119	-56.969	2.353	B5-03822-P03-CH1	2203576	OK	0.7496081	-0.6588221	-0.0635694	0	-97.097	-25.306	-5.415	B5-03822-P04-CH0	2203576	OK	0.7891821	-0.3506233	0.5042369	0	-120.118	-37.184	3.395	B5-03822-P04-CH1	2203576	OK	0.7819145	-0.6229073	0.0244184	0	-108.611	-46.378	-1.723	NA
0.689454200284765	B5-03822-P01-CH0	2203584	OK	0.2482515	0.0637674	0.0631161	-0.9645316	113.831	-27.822	-229.981	B5-03822-P02-CH0	2203584	OK	0.7619776	0.2290594	-0.6057407	0	-76.418	-95.894	-1.091	B5-03822-P02-CH1	2203584	OK	0.7686897	-0.0675153	-0.6360486	0	-76.407	-73.09	-1.562	B5-03822-P03-CH0	2203584	OK	0.7882384	-0.4239985	-0.4459883	0	-92.201	-56.886	1.996	B5-03822-P03-CH1	2203584	OK	0.7499086	-0.6584879	-0.0634875	0	-97.065	-25.189	-5.481	B5-03822-P04-CH0	2203584	OK	0.7892616	-0.3512123	0.5037024	0	-120.051	-37.058	3.373	B5-03822-P04-CH1	2203584	OK	0.7819881	-0.6228228	0.0242133	0	-108.555	-46.36	-1.708	NA
0.699446290143965	B5-03822-P01-CH0	2203592	OK	0.2485632	0.0639211	0.0630588	-0.9644449	113.889	-27.838	-229.952	B5-03822-P02-CH0	2203592	OK	0.7594593	0.2345027	-0.6068196	0	-76.048	-95.858	-1.021	B5-03822-P02-CH1	2203592	OK	0.7692779	-0.0672087	-0.6353696	0	-76.276	-73.507	-1.351	B5-03822-P03-CH0	2203592	OK	0.7868302	-0.4216756	-0.4506527	0	-92.14	-56.941	1.903	B5-03822-P03-CH1	2203592	OK	0.7501011	-0.6582942	-0.0632229	0	-97.058	-25.226	-5.527	B5-03822-P04-CH0	2203592	OK	0.7893277	-0.3514269	0.5034491	0	-120.003	-37.177	3.404	B5-03822-P04-CH1	2203592	OK	0.782011	-0.6227976	0.0241235	0	-108.501	-46.415	-1.65	NA
0.709438380003164	B5-03822-P01-CH0	2203600	OK	0.2484528	0.0640652	0.0626249	-0.9644921	113.863	-27.833	-229.809	B5-03822-P02-CH0	2203600	OK	0.7576942	0.2391688	-0.6072049	0	-75.901	-96.122	-1.596	B5-03822-P02-CH1	2203600	OK	0.7688998	-0.0671772	-0.6358304	0	-76.555	-73.72	-0.26	B5-03822-P03-CH0	2203600	OK	0.7860334	-0.4197138	-0.4538631	0	-91.671	-56.926	2.075	B5-03822-P03-CH1	2203600	OK	0.7499844	-0.6583916	-0.063592	0	-97.003	-25.159	-5.693	B5-03822-P04-CH0	2203600	OK	0.78924	-0.3523358	0.5029509	0	-119.96	-37.042	3.296	B5-03822-P04-CH1	2203600	OK	0.7817097	-0.6231914	0.023714	0	-108.411	-46.387	-1.741	NA
0.719430469862364	B5-03822-P01-CH0	2203608	OK	0.2483866	0.0640863	0.0625905	-0.96451	113.868	-27.825	-229.788	B5-03822-P02-CH0	2203608	OK	0.7564377	0.2448804	-0.6064945	0	-75.385	-95.678	-2.317	B5-03822-P02-CH1	2203608	OK	0.7685909	-0.0665582	-0.6362688	0	-76.747	-74.104	-0.864	B5-03822-P03-CH0	2203608	OK	0.7851206	-0.418648	-0.4564203	0	-91.695	-56.767	1.526	B5-03822-P03-CH1	2203608	OK	0.7500212	-0.658327	-0.0638263	0	-97.013	-25.206	-5.693	B5-03822-P04-CH0	2203608	OK	0.7892847	-0.3527029	0.5026234	0	-119.978	-37.179	3.443	B5-03822-P04-CH1	2203608	OK	0.7817393	-0.6231717	0.0232531	0	-108.374	-46.291	-1.921	NA
0.729422559721563	B5-03822-P01-CH0	2203616	OK	0.2483191	0.0640316	0.0624812	-0.9645381	113.799	-27.825	-229.671	B5-03822-P02-CH0	2203616	OK	0.7557476	0.2481895	-0.6060096	0	-74.936	-95.813	-3.349	B5-03822-P02-CH1	2203616	OK	0.7687925	-0.0649389	-0.6361926	0	-76.638	-73.751	-1.904	B5-03822-P03-CH0	2203616	OK	0.7840516	-0.4186147	-0.4582846	0	-91.667	-56.886	1.737	B5-03822-P03-CH1	2203616	OK	0.7500895	-0.6582365	-0.0639563	0	-96.949	-25.185	-5.789	B5-03822-P04-CH0	2203616	OK	0.7892497	-0.3536535	0.50201	0	-119.873	-36.926	3.092	B5-03822-P04-CH1	2203616	OK	0.7816766	-0.6232622	0.0229332	0	-108.245	-46.287	-1.825	NA
0.739414649580763	B5-03822-P01-CH0	2203624	OK	0.2481701	0.0639681	0.0624209	-0.9645845	113.754	-27.804	-229.656	B5-03822-P02-CH0	2203624	OK	0.7543834	0.2491902	-0.6072972	0	-75.138	-96.018	-2.558	B5-03822-P02-CH1	2203624	OK	0.7691347	-0.0629774	-0.6359761	0	-76.588	-73.397	-1.757	B5-03822-P03-CH0	2203624	OK	0.7834835	-0.4173802	-0.4603775	0	-91.821	-56.625	1.941	B5-03822-P03-CH1	2203624	OK	0.7501365	-0.6581618	-0.0641736	0	-96.962	-25.201	-5.628	B5-03822-P04-CH0	2203624	OK	0.7891518	-0.3544799	0.5015809	0	-119.805	-36.86	2.993	B5-03822-P04-CH1	2203624	OK	0.7816383	-0.623325	0.0225277	0	-108.13	-46.226	-1.705	NA
0.749406739439962	B5-03822-P01-CH0	2203632	OK	0.248065	0.0637207	0.0624848	-0.9646238	113.686	-27.766	-229.766	B5-03822-P02-CH0	2203632	OK	0.7543066	0.2509357	-0.6066736	0	-75.143	-95.555	-2.71	B5-03822-P02-CH1	2203632	OK	0.7695259	-0.0616913	-0.6356289	0	-76.757	-73.428	-1.431	B5-03822-P03-CH0	2203632	OK	0.7830738	-0.4156977	-0.4625915	0	-91.869	-56.518	1.681	B5-03822-P03-CH1	2203632	OK	0.7503959	-0.6578337	-0.0645036	0	-96.918	-25.033	-5.703	B5-03822-P04-CH0	2203632	OK	0.7891006	-0.3551383	0.5011956	0	-119.733	-36.786	2.994	B5-03822-P04-CH1	2203632	OK	0.7816482	-0.6233204	0.0223095	0	-107.968	-46.144	-1.811	NA
0.759398829299161	B5-03822-P01-CH0	2203640	OK	0.2481755	0.0635835	0.0630249	-0.9645693	113.661	-27.689	-229.767	B5-03822-P02-CH0	2203640	OK	0.7544833	0.2522815	-0.6058952	0	-75.4	-95.599	-2.5	B5-03822-P02-CH1	2203640	OK	0.7711884	-0.0597641	-0.6337955	0	-76.45	-73.539	-0.297	B5-03822-P03-CH0	2203640	OK	0.7828523	-0.4148682	-0.4637097	0	-92.011	-56.391	1.587	B5-03822-P03-CH1	2203640	OK	0.7508297	-0.6573346	-0.064545	0	-96.974	-24.966	-5.774	B5-03822-P04-CH0	2203640	OK	0.7892897	-0.3554571	0.5006715	0	-119.693	-36.68	2.905	B5-03822-P04-CH1	2203640	OK	0.7819201	-0.6229872	0.0220889	0	-108.001	-46.091	-1.886	NA
0.769390919158361	B5-03822-P01-CH0	2203648	OK	0.2480644	0.0637197	0.062716	-0.964609	113.706	-27.736	-229.694	B5-03822-P02-CH0	2203648	OK	0.7555325	0.253287	-0.6041659	0	-75.546	-95.863	-3.473	B5-03822-P02-CH1	2203648	OK	0.7716252	-0.0581087	-0.6334177	0	-76.904	-73.736	-1.099	B5-03822-P03-CH0	2203648	OK	0.7836017	-0.413844	-0.4633589	0	-91.455	-56.391	1.276	B5-03822-P03-CH1	2203648	OK	0.7504777	-0.6577171	-0.0647414	0	-97.015	-25.18	-5.695	B5-03822-P04-CH0	2203648	OK	0.7890814	-0.3564026	0.5003277	0	-119.604	-36.694	2.79	B5-03822-P04-CH1	2203648	OK	0.7816732	-0.6233034	0.0219037	0	-107.956	-46.105	-2.035	NA
0.779383009017561	B5-03822-P01-CH0	2203656	OK	0.2479715	0.0636671	0.0626909	-0.964638	113.727	-27.749	-229.726	B5-03822-P02-CH0	2203656	OK	0.7556492	0.2540045	-0.6037185	0	-76.035	-96.293	-2.103	B5-03822-P02-CH1	2203656	OK	0.77293	-0.0566101	-0.6319609	0	-76.857	-74.103	-1.589	B5-03822-P03-CH0	2203656	OK	0.7828905	-0.4121683	-0.4660469	0	-91.79	-56.612	1.28	B5-03822-P03-CH1	2203656	OK	0.7503441	-0.657854	-0.0648988	0	-96.99	-25.352	-5.529	B5-03822-P04-CH0	2203656	OK	0.7889956	-0.3571288	0.4999449	0	-119.524	-36.663	2.795	B5-03822-P04-CH1	2203656	OK	0.7816464	-0.6233422	0.02176	0	-107.931	-46.091	-2.041	NA
0.78937509887676	B5-03822-P01-CH0	2203664	OK	0.247845	0.0635201	0.0628247	-0.9646715	113.706	-27.736	-229.734	B5-03822-P02-CH0	2203664	OK	0.7565047	0.2577263	-0.6010639	0	-75.92	-95.905	-3.011	B5-03822-P02-CH1	2203664	OK	0.7745945	-0.0531458	-0.6302213	0	-76.629	-73.764	-1.563	B5-03822-P03-CH0	2203664	OK	0.7838428	-0.4102483	-0.4661403	0	-91.363	-56.396	1.53	B5-03822-P03-CH1	2203664	OK	0.7502783	-0.6578985	-0.065208	0	-96.941	-25.446	-5.471	B5-03822-P04-CH0	2203664	OK	0.7889126	-0.35783	0.4995745	0	-119.43	-36.569	2.678	B5-03822-P04-CH1	2203664	OK	0.7817097	-0.6232756	0.0213913	0	-107.938	-46.031	-2.073	NA
0.799367188735959	B5-03822-P01-CH0	2203672	OK	0.2476502	0.0633034	0.0630528	-0.9647209	113.672	-27.691	-229.721	B5-03822-P02-CH0	2203672	OK	0.7559282	0.2593601	-0.6010865	0	-76.7	-96.585	-1.368	B5-03822-P02-CH1	2203672	OK	0.7750247	-0.0493222	-0.6300032	0	-76.937	-73.591	-1.781	B5-03822-P03-CH0	2203672	OK	0.7829351	-0.4098281	-0.4680316	0	-91.584	-56.607	1.297	B5-03822-P03-CH1	2203672	OK	0.7503416	-0.6577697	-0.0657755	0	-96.902	-25.404	-5.518	B5-03822-P04-CH0	2203672	OK	0.7888847	-0.3585769	0.4990828	0	-119.395	-36.449	2.507	B5-03822-P04-CH1	2203672	OK	0.7817857	-0.6231922	0.0210378	0	-107.879	-45.95	-2.174	NA
0.809359278595159	B5-03822-P01-CH0	2203680	OK	0.2476245	0.0633889	0.0626501	-0.9647481	113.73	-27.713	-229.718	B5-03822-P02-CH0	2203680	OK	0.7570417	0.2634672	-0.5978904	0	-76.63	-96.068	-1.439	B5-03822-P02-CH1	2203680	OK	0.7763295	-0.0456759	-0.6286702	0	-76.806	-73.339	-1.259	B5-03822-P03-CH0	2203680	OK	0.7818225	-0.4092121	-0.4704244	0	-91.636	-56.847	1.375	B5-03822-P03-CH1	2203680	OK	0.7498949	-0.6582671	-0.0658944	0	-96.95	-25.562	-5.35	B5-03822-P04-CH0	2203680	OK	0.7886284	-0.3594203	0.498881	0	-119.307	-36.514	2.569	B5-03822-P04-CH1	2203680	OK	0.7815434	-0.6235038	0.0208094	0	-107.849	-45.978	-1.96	NA
0.819351368454359	B5-03822-P01-CH0	2203688	OK	0.2478726	0.0632926	0.0627463	-0.9646845	113.742	-27.676	-229.72	B5-03822-P02-CH0	2203688	OK	0.7581961	0.2662458	-0.5951906	0	-76.897	-96.257	-1.658	B5-03822-P02-CH1	2203688	OK	0.7778023	-0.0422717	-0.6270859	0	-76.882	-73.385	-1.424	B5-03822-P03-CH0	2203688	OK	0.7813089	-0.4077466	-0.4725453	0	-91.824	-56.479	1.271	B5-03822-P03-CH1	2203688	OK	0.7500783	-0.6580507	-0.0659686	0	-96.941	-25.424	-5.498	B5-03822-P04-CH0	2203688	OK	0.7886111	-0.3598831	0.4985746	0	-119.206	-36.338	2.402	B5-03822-P04-CH1	2203688	OK	0.7815369	-0.6235094	0.0208829	0	-107.79	-45.995	-2.034	NA
0.829343458313558	B5-03822-P01-CH0	2203696	OK	0.2483322	0.0634545	0.0628883	-0.9645464	113.88	-27.591	-229.814	B5-03822-P02-CH0	2203696	OK	0.7591387	0.2676695	-0.5933477	0	-77.17	-96.412	-0.155	B5-03822-P02-CH1	2203696	OK	0.7791628	-0.0411437	-0.6254698	0	-77.27	-73.94	-1.12	B5-03822-P03-CH0	2203696	OK	0.7821318	-0.4064285	-0.4723195	0	-91.075	-56.451	1.45	B5-03822-P03-CH1	2203696	OK	0.7500345	-0.6581254	-0.0657204	0	-96.991	-25.539	-5.397	B5-03822-P04-CH0	2203696	OK	0.7887408	-0.3595313	0.4986232	0	-119.294	-36.587	2.728	B5-03822-P04-CH1	2203696	OK	0.781676	-0.6233311	0.0210019	0	-107.917	-45.928	-2.125	NA
0.839335548172757	B5-03822-P01-CH0	2203704	OK	0.2486098	0.0633027	0.0631691	-0.9644665	113.91	-27.552	-229.837	B5-03822-P02-CH0	2203704	OK	0.7617202	0.2713104	-0.5883646	0	-76.822	-95.984	-1.883	B5-03822-P02-CH1	2203704	OK	0.7812871	-0.0387711	-0.6229666	0	-77.499	-74.6	-0.332	B5-03822-P03-CH0	2203704	OK	0.780186	-0.4046063	-0.4770782	0	-91.778	-56.457	1.449	B5-03822-P03-CH1	2203704	OK	0.750224	-0.6579172	-0.0656423	0	-97.078	-25.515	-5.411	B5-03822-P04-CH0	2203704	OK	0.7887977	-0.3598547	0.4982999	0	-119.203	-36.482	2.7	B5-03822-P04-CH1	2203704	OK	0.7817867	-0.6231901	0.0210623	0	-107.932	-45.948	-2.301	NA
0.849327638031957	B5-03822-P01-CH0	2203712	OK	0.2486197	0.0634227	0.0623805	-0.9645074	113.946	-27.628	-229.72	B5-03822-P02-CH0	2203712	OK	0.7626538	0.2718376	-0.5869102	0	-77.443	-96.051	-0.927	B5-03822-P02-CH1	2203712	OK	0.7843437	-0.0353911	-0.6193161	0	-77.348	-74.794	0.406	B5-03822-P03-CH0	2203712	OK	0.7798728	-0.4031917	-0.4787848	0	-91.308	-56.515	1.763	B5-03822-P03-CH1	2203712	OK	0.7496009	-0.6586127	-0.0657853	0	-97.074	-25.692	-5.322	B5-03822-P04-CH0	2203712	OK	0.7884053	-0.3605559	0.498414	0	-119.127	-36.664	2.796	B5-03822-P04-CH1	2203712	OK	0.7812731	-0.6238469	0.0206724	0	-107.953	-45.976	-2.367	NA
0.859319727891157	B5-03822-P01-CH0	2203720	OK	0.2486795	0.0634551	0.0622814	-0.9644962	114.031	-27.622	-229.809	B5-03822-P02-CH0	2203720	OK	0.7638517	0.272567	-0.585011	0	-77.805	-96.206	-0.208	B5-03822-P02-CH1	2203720	OK	0.7859018	-0.0315238	-0.6175472	0	-77.778	-74.657	0.351	B5-03822-P03-CH0	2203720	OK	0.7789781	-0.4020227	-0.4812182	0	-91.624	-56.313	1.498	B5-03822-P03-CH1	2203720	OK	0.7495407	-0.6586568	-0.0660301	0	-97.023	-25.712	-5.254	B5-03822-P04-CH0	2203720	OK	0.7883005	-0.3611383	0.498158	0	-119.062	-36.626	2.841	B5-03822-P04-CH1	2203720	OK	0.7812322	-0.6238998	0.0206233	0	-107.895	-45.961	-2.398	NA
