Wav.Time	B5.03822.P01.CH0	Frame	State	Q0	Qx	Qy	Qz	Tx	Ty	Tz	B5.03822.P02.CH0	Frame.1	State.1	Q0.1	Qx.1	Qy.1	Qz.1	Tx.1	Ty.1	Tz.1	B5.03822.P02.CH1	Frame.2	State.2	Q0.2	Qx.2	Qy.2	Qz.2	Tx.2	Ty.2	Tz.2	B5.03822.P03.CH0	Frame.3	State.3	Q0.3	Qx.3	Qy.3	Qz.3	Tx.3	Ty.3	Tz.3	B5.03822.P03.CH1	Frame.4	State.4	Q0.4	Qx.4	Qy.4	Qz.4	Tx.4	Ty.4	Tz.4	B5.03822.P04.CH0	Frame.5	State.5	Q0.5	Qx.5	Qy.5	Qz.5	Tx.5	Ty.5	Tz.5	B5.03822.P04.CH1	Frame.6	State.6	Q0.6	Qx.6	Qy.6	Qz.6	Tx.6	Ty.6	Tz.6	X
0	B5-03822-P01-CH0	2097856	OK	0.238954	0.0211914	0.0531164	-0.9693454	104.725	5.775	-242.806	B5-03822-P02-CH0	2097856	OK	0.7081918	0.4802106	-0.517554	0	-76.557	-101.209	4.189	B5-03822-P02-CH1	2097856	OK	0.6929184	0.0497926	-0.7192946	0	-75.474	-78.592	2.305	B5-03822-P03-CH0	2097856	OK	0.837582	-0.2844895	-0.4663927	0	-93.395	-60.025	9.51	B5-03822-P03-CH1	2097856	OK	0.8128029	-0.2756005	-0.5132211	0	-99.482	-31.33	6.831	B5-03822-P04-CH0	2097856	OK	0.7147329	-0.2553444	0.6511191	0	-120.212	-41.173	6.517	B5-03822-P04-CH1	2097856	OK	0.737144	-0.6725825	0.0652033	0	-109.292	-49.112	4.729	NA
0.00999185434691676	B5-03822-P01-CH0	2097864	OK	0.2390735	0.0211258	0.0535735	-0.9692922	104.691	5.858	-242.798	B5-03822-P02-CH0	2097864	OK	0.7049717	0.4724502	-0.5289666	0	-77.21	-100.993	4.627	B5-03822-P02-CH1	2097864	OK	0.6947689	0.0549761	-0.7171289	0	-74.982	-78.231	0.91	B5-03822-P03-CH0	2097864	OK	0.8416788	-0.2771668	-0.4634171	0	-93.573	-59.907	9.704	B5-03822-P03-CH1	2097864	OK	0.8129406	-0.27489	-0.513384	0	-99.542	-31.211	6.801	B5-03822-P04-CH0	2097864	OK	0.7132514	-0.2576345	0.6518412	0	-120.663	-41.719	8.21	B5-03822-P04-CH1	2097864	OK	0.7374093	-0.6722801	0.0653218	0	-109.299	-49.071	4.392	NA
0.0199837086938335	B5-03822-P01-CH0	2097872	OK	0.239017	0.0211253	0.0532314	-0.969325	104.696	5.762	-242.792	B5-03822-P02-CH0	2097872	OK	0.7045717	0.4656951	-0.5354501	0	-77.027	-101.295	4.411	B5-03822-P02-CH1	2097872	OK	0.6954732	0.0655825	-0.7155529	0	-74.754	-79.314	0.151	B5-03822-P03-CH0	2097872	OK	0.8448802	-0.2695587	-0.4620773	0	-94.058	-60.305	9.439	B5-03822-P03-CH1	2097872	OK	0.8130078	-0.2742524	-0.5136184	0	-99.595	-31.142	6.674	B5-03822-P04-CH0	2097872	OK	0.7116658	-0.2604594	0.6524513	0	-120.83	-41.602	8.161	B5-03822-P04-CH1	2097872	OK	0.7372302	-0.6724855	0.0652291	0	-109.282	-49.144	4.229	NA
0.0299755630407503	B5-03822-P01-CH0	2097880	OK	0.2386661	0.0212368	0.0523563	-0.9694567	104.703	5.683	-242.785	B5-03822-P02-CH0	2097880	OK	0.7046665	0.4578095	-0.5420845	0	-76.488	-101.647	4.091	B5-03822-P02-CH1	2097880	OK	0.6942608	0.0815821	-0.7150849	0	-75.297	-80.064	0.204	B5-03822-P03-CH0	2097880	OK	0.8497537	-0.2612394	-0.4579001	0	-93.965	-60.431	10.113	B5-03822-P03-CH1	2097880	OK	0.8129712	-0.2737754	-0.5139307	0	-99.652	-31.066	6.595	B5-03822-P04-CH0	2097880	OK	0.7091855	-0.260613	0.6550853	0	-120.407	-41.204	7.73	B5-03822-P04-CH1	2097880	OK	0.7365948	-0.6731958	0.0650808	0	-109.166	-49.238	4.234	NA
0.039967417387667	B5-03822-P01-CH0	2097888	OK	0.2385842	0.0214256	0.0520686	-0.9694882	104.77	5.7	-242.805	B5-03822-P02-CH0	2097888	OK	0.7019216	0.4487789	-0.5530855	0	-76.491	-101.416	3.904	B5-03822-P02-CH1	2097888	OK	0.6914861	0.0920981	-0.7164949	0	-76.89	-80.93	1.96	B5-03822-P03-CH0	2097888	OK	0.8541804	-0.2537247	-0.4538717	0	-94.442	-61.119	11.027	B5-03822-P03-CH1	2097888	OK	0.8129034	-0.2731604	-0.5143652	0	-99.883	-30.93	6.587	B5-03822-P04-CH0	2097888	OK	0.7073103	-0.2567883	0.6586136	0	-120.32	-41.12	8.051	B5-03822-P04-CH1	2097888	OK	0.7363288	-0.6734719	0.0652344	0	-109.176	-49.361	4.324	NA
0.0499592717345838	B5-03822-P01-CH0	2097896	OK	0.2385071	0.0216531	0.051923	-0.9695099	104.848	5.733	-242.827	B5-03822-P02-CH0	2097896	OK	0.699369	0.4370519	-0.5655693	0	-76.668	-102.413	4.664	B5-03822-P02-CH1	2097896	OK	0.6923356	0.0990771	-0.7147413	0	-76.111	-79.867	1.194	B5-03822-P03-CH0	2097896	OK	0.8585475	-0.2460701	-0.4498286	0	-95.35	-61.947	10.729	B5-03822-P03-CH1	2097896	OK	0.8144545	-0.2700893	-0.5135325	0	-100.641	-30.336	6.749	B5-03822-P04-CH0	2097896	OK	0.7048469	-0.2559599	0.6615704	0	-120.097	-40.585	7.246	B5-03822-P04-CH1	2097896	OK	0.736144	-0.6736676	0.0652993	0	-109.245	-49.467	4.291	NA
0.0599511260815006	B5-03822-P01-CH0	2097904	OK	0.2385429	0.021522	0.0521344	-0.9694927	104.792	5.773	-242.834	B5-03822-P02-CH0	2097904	OK	0.6947161	0.4237091	-0.5812402	0	-76.504	-102.282	4.459	B5-03822-P02-CH1	2097904	OK	0.6919724	0.1040864	-0.714381	0	-76.696	-80.649	1.581	B5-03822-P03-CH0	2097904	OK	0.8654716	-0.2334821	-0.4432212	0	-95.463	-61.814	10.88	B5-03822-P03-CH1	2097904	OK	0.8153529	-0.2690731	-0.5126396	0	-100.451	-30.291	6.922	B5-03822-P04-CH0	2097904	OK	0.7039195	-0.2514057	0.6642985	0	-120.4	-40.541	7.679	B5-03822-P04-CH1	2097904	OK	0.7362581	-0.6735485	0.0652413	0	-109.128	-49.439	3.978	NA
0.0699429804284173	B5-03822-P01-CH0	2097912	OK	0.2384876	0.0215831	0.0522214	-0.9695003	104.804	5.846	-242.874	B5-03822-P02-CH0	2097912	OK	0.689808	0.4080812	-0.5980256	0	-76.12	-102.346	4.212	B5-03822-P02-CH1	2097912	OK	0.6931178	0.1068811	-0.7128563	0	-76.658	-81.535	1.904	B5-03822-P03-CH0	2097912	OK	0.8709079	-0.222643	-0.4381205	0	-96.342	-62.282	10.91	B5-03822-P03-CH1	2097912	OK	0.8156363	-0.2671139	-0.5132129	0	-100.457	-29.962	6.821	B5-03822-P04-CH0	2097912	OK	0.7033667	-0.247119	0.6664889	0	-120.816	-40.754	8.063	B5-03822-P04-CH1	2097912	OK	0.7362412	-0.6735841	0.0650637	0	-109.163	-49.402	3.755	NA
0.0799348347753341	B5-03822-P01-CH0	2097920	OK	0.2387097	0.0215974	0.0529426	-0.9694062	104.846	5.867	-242.853	B5-03822-P02-CH0	2097920	OK	0.6827618	0.3925994	-0.6161997	0	-76.342	-102.379	4.363	B5-03822-P02-CH1	2097920	OK	0.6920228	0.1050787	-0.7141869	0	-77.412	-82.36	1.873	B5-03822-P03-CH0	2097920	OK	0.8789435	-0.2143869	-0.4260242	0	-96.376	-63.074	11.323	B5-03822-P03-CH1	2097920	OK	0.8147678	-0.2653012	-0.5155276	0	-101.104	-29.869	6.255	B5-03822-P04-CH0	2097920	OK	0.7022414	-0.2436147	0.668961	0	-120.754	-40.666	7.917	B5-03822-P04-CH1	2097920	OK	0.736771	-0.6729415	0.065714	0	-109.158	-49.544	3.888	NA
0.0899266891222509	B5-03822-P01-CH0	2097928	OK	0.2385805	0.0216127	0.0526061	-0.9694559	104.827	5.849	-242.802	B5-03822-P02-CH0	2097928	OK	0.6765493	0.3759485	-0.6332012	0	-75.721	-102.007	3.635	B5-03822-P02-CH1	2097928	OK	0.6916559	0.1018161	-0.7150144	0	-77.547	-81.973	1.61	B5-03822-P03-CH0	2097928	OK	0.888626	-0.2038264	-0.4108511	0	-96.998	-63.745	12.115	B5-03822-P03-CH1	2097928	OK	0.8143622	-0.2691222	-0.5141862	0	-100.49	-30.266	6.366	B5-03822-P04-CH0	2097928	OK	0.7021378	-0.2398818	0.6704172	0	-121.675	-41.706	7.825	B5-03822-P04-CH1	2097928	OK	0.7366499	-0.6730637	0.0658198	0	-109.264	-49.524	3.959	NA
0.0999185434691676	B5-03822-P01-CH0	2097936	OK	0.2383093	0.0216661	0.0521638	-0.9695454	104.818	5.766	-242.759	B5-03822-P02-CH0	2097936	OK	0.6708849	0.3615788	-0.6474367	0	-75.013	-102.715	3.084	B5-03822-P02-CH1	2097936	OK	0.6907381	0.0951375	-0.7168192	0	-77.536	-81.186	1.507	B5-03822-P03-CH0	2097936	OK	0.8982659	-0.1911936	-0.395681	0	-98.418	-64.545	12.359	B5-03822-P03-CH1	2097936	OK	0.8143067	-0.268545	-0.5145757	0	-100.619	-30.175	6.393	B5-03822-P04-CH0	2097936	OK	0.7014882	-0.2372928	0.6720167	0	-122.168	-41.863	8.467	B5-03822-P04-CH1	2097936	OK	0.7362351	-0.6734903	0.0660956	0	-109.323	-49.589	3.531	NA
0.109910397816084	B5-03822-P01-CH0	2097944	OK	0.2381514	0.0219501	0.0514724	-0.9696147	104.913	5.662	-242.74	B5-03822-P02-CH0	2097944	OK	0.6637564	0.3502327	-0.6608816	0	-74.475	-102.391	3.333	B5-03822-P02-CH1	2097944	OK	0.6898904	0.0863369	-0.7187469	0	-78.374	-82.385	2.215	B5-03822-P03-CH0	2097944	OK	0.9040095	-0.1848282	-0.3854936	0	-99.395	-65.629	12.522	B5-03822-P03-CH1	2097944	OK	0.8139861	-0.2688061	-0.5149464	0	-100.745	-30.296	6.531	B5-03822-P04-CH0	2097944	OK	0.6997909	-0.2340969	0.6749009	0	-122.714	-42.595	6.785	B5-03822-P04-CH1	2097944	OK	0.7357532	-0.6739314	0.0669603	0	-109.517	-49.757	3.579	NA
0.119902252163001	B5-03822-P01-CH0	2097952	OK	0.2379538	0.0219216	0.0512848	-0.9696738	104.906	5.668	-242.8	B5-03822-P02-CH0	2097952	OK	0.6588472	0.3458068	-0.6680853	0	-74.677	-102.676	4.035	B5-03822-P02-CH1	2097952	OK	0.6916655	0.0723369	-0.7185862	0	-78.346	-82.971	2.409	B5-03822-P03-CH0	2097952	OK	0.9063414	-0.1809375	-0.3818466	0	-99.716	-66.483	12.983	B5-03822-P03-CH1	2097952	OK	0.8119717	-0.2736313	-0.5155849	0	-100.869	-30.597	6.557	B5-03822-P04-CH0	2097952	OK	0.7008321	-0.2287449	0.6756554	0	-123.69	-43.964	7.134	B5-03822-P04-CH1	2097952	OK	0.7368283	-0.6715815	0.0778607	0	-111.142	-50.279	6.194	NA
0.129894106509918	B5-03822-P01-CH0	2097960	OK	0.2381203	0.0217487	0.0516821	-0.9696157	104.861	5.73	-242.829	B5-03822-P02-CH0	2097960	OK	0.6568054	0.3393739	-0.6733736	0	-74.497	-102.648	3.662	B5-03822-P02-CH1	2097960	OK	0.6951456	0.057276	-0.7165836	0	-77.879	-84.785	0.249	B5-03822-P03-CH0	2097960	OK	0.9063195	-0.1759073	-0.3842416	0	-100.157	-66.916	12.869	B5-03822-P03-CH1	2097960	OK	0.8118712	-0.278737	-0.5130018	0	-100.521	-30.802	6.912	B5-03822-P04-CH0	2097960	OK	0.7045325	-0.2262566	0.672638	0	-124.676	-43.729	6.336	B5-03822-P04-CH1	2097960	OK	0.7350627	-0.6727246	0.0844062	0	-110.013	-51.67	3.838	NA
0.139885960856835	B5-03822-P01-CH0	2097968	OK	0.2381862	0.0216501	0.0519669	-0.9695865	104.855	5.756	-242.916	B5-03822-P02-CH0	2097968	OK	0.6579906	0.3330464	-0.6753729	0	-74.1	-103.077	3.814	B5-03822-P02-CH1	2097968	OK	0.6962825	0.0494814	-0.7160602	0	-79.112	-85.777	1.431	B5-03822-P03-CH0	2097968	OK	0.9064843	-0.1728804	-0.3852255	0	-99.687	-67.173	13.342	B5-03822-P03-CH1	2097968	OK	0.8128637	-0.2807853	-0.510306	0	-99.643	-31.117	6.632	B5-03822-P04-CH0	2097968	OK	0.7071295	-0.2225655	0.6711426	0	-125.43	-44.819	8.067	B5-03822-P04-CH1	2097968	OK	0.7352755	-0.6720834	0.0876005	0	-110.344	-51.794	3.522	NA
0.149877815203751	B5-03822-P01-CH0	2097976	OK	0.2382218	0.0214787	0.0524213	-0.9695571	104.808	5.736	-242.895	B5-03822-P02-CH0	2097976	OK	0.6584946	0.3321359	-0.67533	0	-74.305	-103.267	4.191	B5-03822-P02-CH1	2097976	OK	0.6965298	0.0410755	-0.7163512	0	-78.374	-83.309	2.061	B5-03822-P03-CH0	2097976	OK	0.9026652	-0.1764559	-0.3925032	0	-100.277	-67.938	12.641	B5-03822-P03-CH1	2097976	OK	0.8126548	-0.2782729	-0.512012	0	-100.299	-31.41	7.007	B5-03822-P04-CH0	2097976	OK	0.7100528	-0.2217099	0.6683335	0	-126.15	-46.233	6.024	B5-03822-P04-CH1	2097976	OK	0.736407	-0.6705728	0.0896483	0	-111.406	-51.424	3.969	NA
0.159869669550668	B5-03822-P01-CH0	2097984	OK	0.2383181	0.0213656	0.0528799	-0.9695111	104.807	5.722	-242.977	B5-03822-P02-CH0	2097984	OK	0.6600637	0.3293104	-0.6751819	0	-73.877	-102.468	4.397	B5-03822-P02-CH1	2097984	OK	0.695739	0.0289218	-0.7177122	0	-78.221	-83.216	3	B5-03822-P03-CH0	2097984	OK	0.8987836	-0.1823311	-0.398677	0	-99.935	-67.951	13.242	B5-03822-P03-CH1	2097984	OK	0.8138359	-0.2790255	-0.5097214	0	-99.764	-31.593	6.7	B5-03822-P04-CH0	2097984	OK	0.7147391	-0.2198125	0.6639506	0	-126.49	-47.029	7.81	B5-03822-P04-CH1	2097984	OK	0.7361997	-0.6699675	0.0956743	0	-111.507	-52.411	6.328	NA
0.169861523897585	B5-03822-P01-CH0	2097992	OK	0.2381201	0.0213385	0.0528156	-0.9695638	104.796	5.667	-242.97	B5-03822-P02-CH0	2097992	OK	0.6649024	0.3274699	-0.6713183	0	-73.173	-102.806	4.412	B5-03822-P02-CH1	2097992	OK	0.6985097	0.0236435	-0.7152099	0	-77.781	-83.516	2.038	B5-03822-P03-CH0	2097992	OK	0.8962087	-0.1855459	-0.4029674	0	-99.439	-67.639	12.91	B5-03822-P03-CH1	2097992	OK	0.8129075	-0.2832067	-0.5088962	0	-100.035	-31.675	6.57	B5-03822-P04-CH0	2097992	OK	0.7169643	-0.2232392	0.6603987	0	-126.822	-47.188	6.193	B5-03822-P04-CH1	2097992	OK	0.7355771	-0.670506	0.096685	0	-111.926	-52.648	5.061	NA
0.179853378244502	B5-03822-P01-CH0	2098000	OK	0.2379521	0.0212884	0.0526439	-0.9696155	104.763	5.631	-243.011	B5-03822-P02-CH0	2098000	OK	0.6691122	0.3324377	-0.6646609	0	-73.245	-103.373	4.231	B5-03822-P02-CH1	2098000	OK	0.7009906	0.0177279	-0.7129501	0	-77.389	-82.825	1.366	B5-03822-P03-CH0	2098000	OK	0.8920342	-0.1930592	-0.4086603	0	-100.025	-68.211	12.541	B5-03822-P03-CH1	2098000	OK	0.813281	-0.287093	-0.5061143	0	-99.489	-31.899	6.815	B5-03822-P04-CH0	2098000	OK	0.7183657	-0.2233552	0.6588347	0	-127.017	-48.162	6.494	B5-03822-P04-CH1	2098000	OK	0.7359602	-0.6702292	0.0956839	0	-112.446	-52.292	3.973	NA
0.189845232591418	B5-03822-P01-CH0	2098008	OK	0.2378634	0.0214598	0.0527016	-0.9696303	104.824	5.595	-243.061	B5-03822-P02-CH0	2098008	OK	0.6715024	0.342026	-0.6573452	0	-74.348	-103.517	4.493	B5-03822-P02-CH1	2098008	OK	0.7004776	0.0161774	-0.713491	0	-78.154	-84.055	0.936	B5-03822-P03-CH0	2098008	OK	0.8907911	-0.2016768	-0.4072072	0	-99.657	-68.081	13.188	B5-03822-P03-CH1	2098008	OK	0.8128389	-0.2916771	-0.5041998	0	-99.324	-32.489	7.133	B5-03822-P04-CH0	2098008	OK	0.7188079	-0.2250497	0.6577749	0	-126.857	-48.343	6.958	B5-03822-P04-CH1	2098008	OK	0.7359415	-0.6700098	0.0973501	0	-112.244	-52.842	4.964	NA
0.199837086938335	B5-03822-P01-CH0	2098016	OK	0.2379603	0.0212027	0.0532108	-0.9695844	104.754	5.565	-243.083	B5-03822-P02-CH0	2098016	OK	0.6759856	0.352252	-0.6472727	0	-74.657	-103.588	3.685	B5-03822-P02-CH1	2098016	OK	0.700704	0.0128374	-0.7133366	0	-77.871	-83.723	2.487	B5-03822-P03-CH0	2098016	OK	0.8881559	-0.2158724	-0.4056823	0	-99.566	-68.287	12.481	B5-03822-P03-CH1	2098016	OK	0.8126857	-0.2940084	-0.5030915	0	-99.487	-32.47	7.553	B5-03822-P04-CH0	2098016	OK	0.7202331	-0.2243505	0.6564534	0	-127.326	-49.15	7.92	B5-03822-P04-CH1	2098016	OK	0.7362397	-0.6694366	0.0990239	0	-111.89	-52.839	4.883	NA
0.209828941285252	B5-03822-P01-CH0	2098024	OK	0.2378841	0.0210373	0.0536648	-0.9695817	104.697	5.559	-243.111	B5-03822-P02-CH0	2098024	OK	0.681437	0.3684613	-0.6323606	0	-75.518	-104.089	4.937	B5-03822-P02-CH1	2098024	OK	0.7004296	0.0111553	-0.7136343	0	-77.209	-82.478	1.665	B5-03822-P03-CH0	2098024	OK	0.8842995	-0.2302586	-0.4061961	0	-98.988	-67.862	12.012	B5-03822-P03-CH1	2098024	OK	0.8131865	-0.2955951	-0.5013495	0	-99.312	-31.999	7.035	B5-03822-P04-CH0	2098024	OK	0.7191263	-0.2279882	0.6564136	0	-126.653	-47.762	5.743	B5-03822-P04-CH1	2098024	OK	0.7373594	-0.6685816	0.096435	0	-112.848	-52.224	4.378	NA
0.219820795632169	B5-03822-P01-CH0	2098032	OK	0.2379387	0.0208622	0.0540711	-0.9695495	104.642	5.497	-243.082	B5-03822-P02-CH0	2098032	OK	0.6860586	0.3861857	-0.6165908	0	-76.126	-103.859	4.574	B5-03822-P02-CH1	2098032	OK	0.6996791	0.0101249	-0.7143855	0	-76.521	-82.202	0.917	B5-03822-P03-CH0	2098032	OK	0.8796896	-0.245255	-0.4074262	0	-97.96	-67.294	11.977	B5-03822-P03-CH1	2098032	OK	0.8133158	-0.2961307	-0.5008233	0	-98.921	-32.065	6.685	B5-03822-P04-CH0	2098032	OK	0.7202217	-0.2240123	0.6565815	0	-127.07	-48.689	7.753	B5-03822-P04-CH1	2098032	OK	0.7368093	-0.6695135	0.0941478	0	-111.724	-52.435	4.102	NA
0.229812649979085	B5-03822-P01-CH0	2098040	OK	0.2377372	0.0210653	0.0537941	-0.96961	104.706	5.427	-243.081	B5-03822-P02-CH0	2098040	OK	0.6897289	0.407893	-0.5982452	0	-76.962	-103.628	4.525	B5-03822-P02-CH1	2098040	OK	0.6948469	0.0114705	-0.7190662	0	-76.701	-82.833	0.439	B5-03822-P03-CH0	2098040	OK	0.8732067	-0.2605711	-0.4118408	0	-97.408	-67.09	12.01	B5-03822-P03-CH1	2098040	OK	0.8130411	-0.2982509	-0.5000105	0	-98.752	-32.367	6.73	B5-03822-P04-CH0	2098040	OK	0.7201513	-0.2232205	0.6569282	0	-127.309	-48.349	7.42	B5-03822-P04-CH1	2098040	OK	0.7365931	-0.6696547	0.0948322	0	-111.923	-52.531	4.257	NA
0.239804504326002	B5-03822-P01-CH0	2098048	OK	0.2376398	0.0210764	0.0537337	-0.9696369	104.706	5.357	-243.045	B5-03822-P02-CH0	2098048	OK	0.6939049	0.4304926	-0.5772106	0	-77.182	-103.043	4.961	B5-03822-P02-CH1	2098048	OK	0.6889398	0.0087938	-0.7247652	0	-76.352	-81.217	2.444	B5-03822-P03-CH0	2098048	OK	0.8680191	-0.2743253	-0.4138701	0	-96.12	-66.382	11.418	B5-03822-P03-CH1	2098048	OK	0.8120516	-0.300565	-0.5002328	0	-98.984	-32.529	6.378	B5-03822-P04-CH0	2098048	OK	0.7187163	-0.2243585	0.6581111	0	-126.638	-47.565	6.435	B5-03822-P04-CH1	2098048	OK	0.7367005	-0.6694921	0.0951454	0	-112.048	-52.562	4.569	NA
0.249796358672919	B5-03822-P01-CH0	2098056	OK	0.2375928	0.02116	0.0534302	-0.9696634	104.734	5.368	-243.091	B5-03822-P02-CH0	2098056	OK	0.6993484	0.4503643	-0.555053	0	-77.023	-102.616	4.881	B5-03822-P02-CH1	2098056	OK	0.6827645	0.0102916	-0.730566	0	-75.984	-81.723	2.068	B5-03822-P03-CH0	2098056	OK	0.8616344	-0.2891842	-0.4170835	0	-95.296	-65.621	11.381	B5-03822-P03-CH1	2098056	OK	0.8123841	-0.2997476	-0.5001834	0	-98.907	-31.99	6.432	B5-03822-P04-CH0	2098056	OK	0.7189802	-0.2240941	0.6579128	0	-126.727	-48.158	7.667	B5-03822-P04-CH1	2098056	OK	0.7364983	-0.6697335	0.0950121	0	-112.022	-52.579	4.848	NA
0.259788213019836	B5-03822-P01-CH0	2098064	OK	0.2376586	0.0212105	0.0536242	-0.9696355	104.771	5.448	-243.097	B5-03822-P02-CH0	2098064	OK	0.7047163	0.4682493	-0.5330267	0	-76.911	-102.48	4.909	B5-03822-P02-CH1	2098064	OK	0.6758489	0.0049684	-0.7370235	0	-74.495	-80.11	1.402	B5-03822-P03-CH0	2098064	OK	0.8540033	-0.3015806	-0.4239429	0	-94.503	-64.542	9.736	B5-03822-P03-CH1	2098064	OK	0.8126937	-0.3004032	-0.4992863	0	-98.882	-32.215	6.999	B5-03822-P04-CH0	2098064	OK	0.7195762	-0.2240821	0.657265	0	-126.72	-48.104	7.873	B5-03822-P04-CH1	2098064	OK	0.7366009	-0.6697713	0.0939439	0	-112.038	-52.444	4.783	NA
0.269780067366753	B5-03822-P01-CH0	2098072	OK	0.237733	0.0212705	0.0533083	-0.9696333	104.8	5.438	-243.083	B5-03822-P02-CH0	2098072	OK	0.7079511	0.4845614	-0.5138147	0	-76.903	-101.706	5.231	B5-03822-P02-CH1	2098072	OK	0.6678617	-0.0030889	-0.744279	0	-73.442	-77.91	1.047	B5-03822-P03-CH0	2098072	OK	0.8473314	-0.3156201	-0.4270989	0	-93.231	-63.868	10.16	B5-03822-P03-CH1	2098072	OK	0.8136289	-0.2996702	-0.4982025	0	-98.649	-31.982	6.762	B5-03822-P04-CH0	2098072	OK	0.7197383	-0.2246585	0.6568906	0	-126.533	-47.852	7.833	B5-03822-P04-CH1	2098072	OK	0.735684	-0.6723207	0.0821818	0	-111.043	-51.572	3.962	NA
0.279771921713669	B5-03822-P01-CH0	2098080	OK	0.237781	0.0211551	0.0533375	-0.9696225	104.774	5.483	-243.112	B5-03822-P02-CH0	2098080	OK	0.7091295	0.498052	-0.4990788	0	-76.368	-100.55	4.755	B5-03822-P02-CH1	2098080	OK	0.660745	-0.0147729	-0.750465	0	-73.119	-79.023	2.431	B5-03822-P03-CH0	2098080	OK	0.8452669	-0.3309403	-0.4195263	0	-92.921	-62.282	9.076	B5-03822-P03-CH1	2098080	OK	0.8127358	-0.2983933	-0.5004218	0	-99.1	-32.306	6.916	B5-03822-P04-CH0	2098080	OK	0.7195162	-0.2309432	0.6549517	0	-124.173	-44.768	6.959	B5-03822-P04-CH1	2098080	OK	0.736405	-0.6719247	0.0788975	0	-110.427	-50.979	5.059	NA
0.289763776060586	B5-03822-P01-CH0	2098088	OK	0.2376878	0.0210288	0.0530806	-0.9696622	104.713	5.498	-243.036	B5-03822-P02-CH0	2098088	OK	0.7095391	0.5099976	-0.4862682	0	-75.486	-99.751	4.386	B5-03822-P02-CH1	2098088	OK	0.6477495	-0.0367517	-0.7609664	0	-71.209	-76.798	1.742	B5-03822-P03-CH0	2098088	OK	0.847989	-0.34996	-0.3980486	0	-92.885	-61.791	10.848	B5-03822-P03-CH1	2098088	OK	0.8129847	-0.2992928	-0.4994794	0	-98.93	-32.204	6.702	B5-03822-P04-CH0	2098088	OK	0.7179338	-0.2366887	0.6546369	0	-123.206	-43.693	6.096	B5-03822-P04-CH1	2098088	OK	0.7349055	-0.6740124	0.0749752	0	-108.862	-50.78	2.541	NA
0.299755630407503	B5-03822-P01-CH0	2098096	OK	0.2378917	0.0211284	0.0532895	-0.9695986	104.764	5.617	-243.019	B5-03822-P02-CH0	2098096	OK	0.7076978	0.5214254	-0.4767383	0	-74.374	-98.578	3.649	B5-03822-P02-CH1	2098096	OK	0.6272847	-0.0537141	-0.7769354	0	-70.07	-75.047	2.084	B5-03822-P03-CH0	2098096	OK	0.8510767	-0.36439	-0.3780059	0	-92.547	-61.176	10.567	B5-03822-P03-CH1	2098096	OK	0.8132492	-0.2999926	-0.4986283	0	-98.873	-32.125	6.606	B5-03822-P04-CH0	2098096	OK	0.7178149	-0.2384834	0.6541158	0	-123.105	-43.84	6.789	B5-03822-P04-CH1	2098096	OK	0.7351488	-0.6741687	0.0710833	0	-108.842	-50.396	2.104	NA
0.30974748475442	B5-03822-P01-CH0	2098104	OK	0.2379246	0.0210689	0.0529072	-0.9696127	104.765	5.666	-243.033	B5-03822-P02-CH0	2098104	OK	0.7049136	0.5330065	-0.4679752	0	-73.471	-98.103	4.046	B5-03822-P02-CH1	2098104	OK	0.6188119	-0.077351	-0.7817216	0	-68.784	-72.221	4.954	B5-03822-P03-CH0	2098104	OK	0.8517358	-0.3734873	-0.3674962	0	-92.061	-60.254	10.358	B5-03822-P03-CH1	2098104	OK	0.8135061	-0.3003161	-0.4980141	0	-98.803	-32.018	6.561	B5-03822-P04-CH0	2098104	OK	0.7165855	-0.2406253	0.6546791	0	-122.697	-43.093	6.622	B5-03822-P04-CH1	2098104	OK	0.7355735	-0.674033	0.067905	0	-109.183	-49.738	3.184	NA
0.319739339101336	B5-03822-P01-CH0	2098112	OK	0.2378778	0.0210492	0.0525374	-0.9696447	104.767	5.741	-243.032	B5-03822-P02-CH0	2098112	OK	0.699534	0.5438772	-0.4635189	0	-72.352	-98.207	3.995	B5-03822-P02-CH1	2098112	OK	0.6322479	-0.1029308	-0.7678984	0	-68.898	-73.323	1.571	B5-03822-P03-CH0	2098112	OK	0.8501104	-0.3812969	-0.3632149	0	-91.719	-59.921	9.805	B5-03822-P03-CH1	2098112	OK	0.8137915	-0.3003272	-0.497541	0	-98.762	-31.869	6.578	B5-03822-P04-CH0	2098112	OK	0.7151972	-0.2421997	0.6556159	0	-122.473	-42.073	6.734	B5-03822-P04-CH1	2098112	OK	0.7357594	-0.6740346	0.0658438	0	-109.222	-49.38	5.37	NA
0.329731193448253	B5-03822-P01-CH0	2098120	OK	0.2382517	0.0207879	0.0535216	-0.9695047	104.738	5.876	-243.094	B5-03822-P02-CH0	2098120	OK	0.6859506	0.5566611	-0.4686151	0	-71.946	-96.477	4.527	B5-03822-P02-CH1	2098120	OK	0.6456622	-0.1335981	-0.7518456	0	-68.662	-73.544	0.63	B5-03822-P03-CH0	2098120	OK	0.8501283	-0.3857475	-0.358442	0	-92.188	-59.694	9.152	B5-03822-P03-CH1	2098120	OK	0.8145174	-0.2996151	-0.4967818	0	-98.653	-31.734	6.553	B5-03822-P04-CH0	2098120	OK	0.7144757	-0.241825	0.6565403	0	-122.366	-41.399	6.037	B5-03822-P04-CH1	2098120	OK	0.7359564	-0.6741397	0.0624812	0	-108.817	-48.915	2.97	NA
0.33972304779517	B5-03822-P01-CH0	2098128	OK	0.2383077	0.0207818	0.0536142	-0.969486	104.735	5.983	-243.067	B5-03822-P02-CH0	2098128	OK	0.677602	0.5605493	-0.4760672	0	-70.587	-96.566	3.946	B5-03822-P02-CH1	2098128	OK	0.6544295	-0.1516072	-0.740768	0	-68.121	-72.756	-0.042	B5-03822-P03-CH0	2098128	OK	0.8536373	-0.3932037	-0.3416053	0	-91.444	-59.834	9.625	B5-03822-P03-CH1	2098128	OK	0.8149191	-0.2989526	-0.496522	0	-98.591	-31.611	6.581	B5-03822-P04-CH0	2098128	OK	0.7133982	-0.2411617	0.6579545	0	-122.059	-41.048	5.985	B5-03822-P04-CH1	2098128	OK	0.7370724	-0.6729891	0.0617247	0	-108.94	-48.225	4.427	NA
0.349714902142087	B5-03822-P01-CH0	2098136	OK	0.238259	0.0208574	0.0533785	-0.9695093	104.763	5.99	-242.988	B5-03822-P02-CH0	2098136	OK	0.6721744	0.5584799	-0.4860882	0	-69.882	-96.644	4.079	B5-03822-P02-CH1	2098136	OK	0.6589498	-0.1613255	-0.7346831	0	-68.952	-72.873	0.809	B5-03822-P03-CH0	2098136	OK	0.8591269	-0.397715	-0.3220615	0	-91.631	-59.908	10.875	B5-03822-P03-CH1	2098136	OK	0.8152188	-0.2982828	-0.4964329	0	-98.452	-31.621	6.511	B5-03822-P04-CH0	2098136	OK	0.711717	-0.2392411	0.6604716	0	-121.92	-40.859	5.89	B5-03822-P04-CH1	2098136	OK	0.7361872	-0.6739584	0.0617131	0	-108.519	-48.597	4.218	NA
0.359706756489003	B5-03822-P01-CH0	2098144	OK	0.2382965	0.0208704	0.0531586	-0.9695119	104.753	5.989	-242.933	B5-03822-P02-CH0	2098144	OK	0.6681708	0.5537252	-0.4969268	0	-69.831	-96.709	4.039	B5-03822-P02-CH1	2098144	OK	0.6639493	-0.1699354	-0.7282124	0	-69.263	-73.252	0.802	B5-03822-P03-CH0	2098144	OK	0.8669143	-0.3996043	-0.2979529	0	-91.327	-59.996	11.651	B5-03822-P03-CH1	2098144	OK	0.8152302	-0.2973837	-0.4969533	0	-98.447	-31.59	6.557	B5-03822-P04-CH0	2098144	OK	0.7100417	-0.2371307	0.6630308	0	-121.667	-40.097	6.119	B5-03822-P04-CH1	2098144	OK	0.735807	-0.6744306	0.0610863	0	-109.039	-48.896	5.603	NA
0.36969861083592	B5-03822-P01-CH0	2098152	OK	0.2383345	0.0207382	0.0534155	-0.9694913	104.718	6.069	-242.943	B5-03822-P02-CH0	2098152	OK	0.6640739	0.5497945	-0.5066872	0	-70.594	-96.441	4.5	B5-03822-P02-CH1	2098152	OK	0.6694126	-0.1767711	-0.7215531	0	-68.973	-73.257	0.124	B5-03822-P03-CH0	2098152	OK	0.8753584	-0.396498	-0.2766532	0	-92.03	-60.161	12.467	B5-03822-P03-CH1	2098152	OK	0.8135183	-0.2892603	-0.5044962	0	-99.087	-31.29	6.438	B5-03822-P04-CH0	2098152	OK	0.7092525	-0.2322656	0.6655926	0	-121.909	-40.731	6.739	B5-03822-P04-CH1	2098152	OK	0.7366469	-0.6738564	0.057175	0	-109.524	-47.709	3.155	NA
0.379690465182837	B5-03822-P01-CH0	2098160	OK	0.2383155	0.0209061	0.0533854	-0.969494	104.765	6.094	-242.914	B5-03822-P02-CH0	2098160	OK	0.6637112	0.545918	-0.5113326	0	-70.958	-96.49	4.661	B5-03822-P02-CH1	2098160	OK	0.6744613	-0.1852729	-0.7146859	0	-68.45	-72.206	-0.071	B5-03822-P03-CH0	2098160	OK	0.883291	-0.3913494	-0.2581524	0	-92.521	-61.085	12.701	B5-03822-P03-CH1	2098160	OK	0.8139293	-0.2878131	-0.504661	0	-98.82	-31.108	6.296	B5-03822-P04-CH0	2098160	OK	0.7083311	-0.2325387	0.6664779	0	-121.767	-39.921	4.96	B5-03822-P04-CH1	2098160	OK	0.7362078	-0.6737572	0.0636341	0	-109.192	-48.796	4.159	NA
0.389682319529754	B5-03822-P01-CH0	2098168	OK	0.2384109	0.0208074	0.0535629	-0.9694629	104.723	6.136	-242.92	B5-03822-P02-CH0	2098168	OK	0.6685238	0.5401139	-0.5112269	0	-70.849	-97.377	4.464	B5-03822-P02-CH1	2098168	OK	0.6789738	-0.1911317	-0.7088464	0	-68.06	-72.571	-0.788	B5-03822-P03-CH0	2098168	OK	0.890664	-0.3834212	-0.2443476	0	-92.795	-61.843	12.436	B5-03822-P03-CH1	2098168	OK	0.8144559	-0.2865312	-0.5045408	0	-98.665	-31.206	7.392	B5-03822-P04-CH0	2098168	OK	0.7076437	-0.2316845	0.6675048	0	-121.666	-40.282	5.904	B5-03822-P04-CH1	2098168	OK	0.7365254	-0.6735478	0.062158	0	-109.174	-48.476	4.16	NA
0.39967417387667	B5-03822-P01-CH0	2098176	OK	0.2383837	0.0208917	0.053563	-0.9694678	104.726	6.191	-242.893	B5-03822-P02-CH0	2098176	OK	0.671854	0.5354422	-0.5117752	0	-71.652	-97.14	4.455	B5-03822-P02-CH1	2098176	OK	0.6804435	-0.1968689	-0.7058607	0	-69.6	-74.134	0.617	B5-03822-P03-CH0	2098176	OK	0.8971479	-0.3754373	-0.2327498	0	-92.949	-62.535	12.816	B5-03822-P03-CH1	2098176	OK	0.8141917	-0.2845539	-0.506084	0	-98.979	-31.086	6.471	B5-03822-P04-CH0	2098176	OK	0.7078301	-0.2310309	0.6675338	0	-122.238	-40.342	6.969	B5-03822-P04-CH1	2098176	OK	0.7367723	-0.6733943	0.0608826	0	-109.257	-48.159	4.334	NA
0.409666028223587	B5-03822-P01-CH0	2098184	OK	0.2387194	0.0206374	0.0546789	-0.9693283	104.643	6.317	-242.897	B5-03822-P02-CH0	2098184	OK	0.6779065	0.5282607	-0.5112566	0	-72.226	-97.599	4.318	B5-03822-P02-CH1	2098184	OK	0.6816439	-0.19639	-0.7048351	0	-69.063	-73.24	-1.35	B5-03822-P03-CH0	2098184	OK	0.9031916	-0.3672112	-0.2222629	0	-93.103	-62.992	13.016	B5-03822-P03-CH1	2098184	OK	0.8152958	-0.2828368	-0.5052683	0	-98.678	-31.197	6.341	B5-03822-P04-CH0	2098184	OK	0.7068378	-0.2320724	0.6682236	0	-122.049	-40.097	6.379	B5-03822-P04-CH1	2098184	OK	0.7376222	-0.672484	0.0606523	0	-109.174	-47.99	4.227	NA
0.419657882570504	B5-03822-P01-CH0	2098192	OK	0.2385569	0.0208037	0.0543226	-0.9693848	104.649	6.239	-242.82	B5-03822-P02-CH0	2098192	OK	0.685928	0.5188244	-0.5102195	0	-72.847	-98.008	4.346	B5-03822-P02-CH1	2098192	OK	0.6770258	-0.1877719	-0.7116023	0	-69.23	-73.486	-0.835	B5-03822-P03-CH0	2098192	OK	0.9075669	-0.361888	-0.2129774	0	-92.903	-63.781	13.197	B5-03822-P03-CH1	2098192	OK	0.8152156	-0.2822322	-0.5057356	0	-98.818	-31.034	6.331	B5-03822-P04-CH0	2098192	OK	0.7058737	-0.2299076	0.6699886	0	-122.005	-40.645	6.812	B5-03822-P04-CH1	2098192	OK	0.7373365	-0.6728651	0.0598954	0	-109.282	-47.961	3.865	NA
0.429649736917421	B5-03822-P01-CH0	2098200	OK	0.2385582	0.020929	0.0542034	-0.9693884	104.638	6.289	-242.79	B5-03822-P02-CH0	2098200	OK	0.6938268	0.5088673	-0.5095669	0	-73.34	-97.997	4.102	B5-03822-P02-CH1	2098200	OK	0.6711899	-0.1666965	-0.7222994	0	-69.246	-73.772	-1.716	B5-03822-P03-CH0	2098200	OK	0.9108253	-0.3563887	-0.208289	0	-93.206	-64.246	13.382	B5-03822-P03-CH1	2098200	OK	0.814649	-0.282242	-0.5066423	0	-98.909	-31.177	5.94	B5-03822-P04-CH0	2098200	OK	0.7043457	-0.2320151	0.6708696	0	-121.471	-39.638	4.882	B5-03822-P04-CH1	2098200	OK	0.7373505	-0.6728552	0.0598338	0	-109.394	-47.886	4.002	NA
0.439641591264337	B5-03822-P01-CH0	2098208	OK	0.2384395	0.0208225	0.0538857	-0.9694377	104.558	6.259	-242.812	B5-03822-P02-CH0	2098208	OK	0.7001265	0.5013405	-0.5084099	0	-74.634	-98.632	4.315	B5-03822-P02-CH1	2098208	OK	0.664741	-0.1351125	-0.7347544	0	-68.984	-74.225	0.8	B5-03822-P03-CH0	2098208	OK	0.9145866	-0.3496757	-0.2031213	0	-92.833	-64.83	13.655	B5-03822-P03-CH1	2098208	OK	0.8148587	-0.2856204	-0.5044069	0	-98.584	-31.022	6.372	B5-03822-P04-CH0	2098208	OK	0.7044592	-0.230631	0.6712277	0	-121.617	-39.747	5.044	B5-03822-P04-CH1	2098208	OK	0.7371209	-0.6730992	0.0599191	0	-109.449	-47.937	4.087	NA
0.449633445611254	B5-03822-P01-CH0	2098216	OK	0.2384929	0.0207461	0.0542734	-0.9694045	104.521	6.286	-242.803	B5-03822-P02-CH0	2098216	OK	0.7046493	0.4955066	-0.5078805	0	-75.263	-99.552	4.159	B5-03822-P02-CH1	2098216	OK	0.6597037	-0.1073258	-0.7438227	0	-68.518	-74.913	0.629	B5-03822-P03-CH0	2098216	OK	0.9171601	-0.3428359	-0.203177	0	-92.987	-65.481	13.524	B5-03822-P03-CH1	2098216	OK	0.8147963	-0.2842971	-0.5052545	0	-98.676	-30.997	6.399	B5-03822-P04-CH0	2098216	OK	0.7059963	-0.2272811	0.6707552	0	-122.299	-40.596	6.793	B5-03822-P04-CH1	2098216	OK	0.7375197	-0.672644	0.0601227	0	-109.524	-47.857	3.8	NA
0.459625299958171	B5-03822-P01-CH0	2098224	OK	0.2381975	0.0208327	0.054089	-0.9694856	104.498	6.308	-242.746	B5-03822-P02-CH0	2098224	OK	0.7071522	0.49238	-0.5074423	0	-75.327	-100.068	4.082	B5-03822-P02-CH1	2098224	OK	0.6536952	-0.0840466	-0.7520763	0	-68.5	-75.963	0.898	B5-03822-P03-CH0	2098224	OK	0.9186485	-0.337964	-0.2046101	0	-93.412	-66.07	13.726	B5-03822-P03-CH1	2098224	OK	0.8146532	-0.2832564	-0.5060692	0	-98.733	-30.922	6.274	B5-03822-P04-CH0	2098224	OK	0.706107	-0.22775	0.6704796	0	-122.202	-40.189	6.424	B5-03822-P04-CH1	2098224	OK	0.7375176	-0.6726599	0.0599702	0	-109.652	-47.733	3.594	NA
0.469617154305088	B5-03822-P01-CH0	2098232	OK	0.2379678	0.0208802	0.0538559	-0.969554	104.46	6.311	-242.649	B5-03822-P02-CH0	2098232	OK	0.7054408	0.4918787	-0.5103025	0	-76.541	-99.998	3.924	B5-03822-P02-CH1	2098232	OK	0.6458089	-0.0640624	-0.7608067	0	-68.617	-76.373	0.64	B5-03822-P03-CH0	2098232	OK	0.9208833	-0.3327781	-0.2030585	0	-93.209	-66.767	13.711	B5-03822-P03-CH1	2098232	OK	0.8145701	-0.2825943	-0.5065728	0	-98.763	-30.874	6.131	B5-03822-P04-CH0	2098232	OK	0.7063519	-0.2305708	0.6692563	0	-121.98	-40.006	5.671	B5-03822-P04-CH1	2098232	OK	0.7373193	-0.6728088	0.0607335	0	-109.65	-47.847	3.503	NA
0.479609008652005	B5-03822-P01-CH0	2098240	OK	0.2379557	0.0208398	0.0534878	-0.9695782	104.416	6.355	-242.629	B5-03822-P02-CH0	2098240	OK	0.7057543	0.4887685	-0.5128511	0	-76.655	-100.516	3.89	B5-03822-P02-CH1	2098240	OK	0.6375518	-0.0420158	-0.7692609	0	-69.269	-77.717	1.73	B5-03822-P03-CH0	2098240	OK	0.9231292	-0.3256687	-0.2043827	0	-92.879	-66.962	13.669	B5-03822-P03-CH1	2098240	OK	0.8145745	-0.2823096	-0.5067246	0	-98.758	-30.834	6.074	B5-03822-P04-CH0	2098240	OK	0.7063577	-0.2293638	0.6696649	0	-122.18	-40.22	5.957	B5-03822-P04-CH1	2098240	OK	0.7370731	-0.672954	0.0620981	0	-109.578	-47.981	3.457	NA
0.489600862998921	B5-03822-P01-CH0	2098248	OK	0.2382357	0.0207296	0.0540444	-0.9694809	104.404	6.437	-242.642	B5-03822-P02-CH0	2098248	OK	0.7057298	0.4863823	-0.5151482	0	-76.667	-100.821	4.275	B5-03822-P02-CH1	2098248	OK	0.6322542	-0.0242305	-0.774382	0	-68.581	-77.343	1.641	B5-03822-P03-CH0	2098248	OK	0.924557	-0.3156582	-0.2134346	0	-93.305	-66.907	13.669	B5-03822-P03-CH1	2098248	OK	0.8147495	-0.2821113	-0.5065535	0	-98.756	-30.861	6.062	B5-03822-P04-CH0	2098248	OK	0.7066784	-0.227509	0.6699592	0	-122.392	-40.507	6.127	B5-03822-P04-CH1	2098248	OK	0.737373	-0.6724844	0.0636065	0	-109.695	-48.242	3.368	NA
0.499592717345838	B5-03822-P01-CH0	2098256	OK	0.2383209	0.0207035	0.0539773	-0.9694643	104.401	6.437	-242.63	B5-03822-P02-CH0	2098256	OK	0.7048625	0.4845181	-0.5180841	0	-77.112	-100.852	4.37	B5-03822-P02-CH1	2098256	OK	0.6307443	-0.0098164	-0.7759287	0	-68.531	-78.149	1.991	B5-03822-P03-CH0	2098256	OK	0.9253683	-0.3060231	-0.2237037	0	-93.072	-67.174	13.926	B5-03822-P03-CH1	2098256	OK	0.8146768	-0.2823901	-0.5065151	0	-98.766	-30.937	6.118	B5-03822-P04-CH0	2098256	OK	0.7068443	-0.2256231	0.6704218	0	-122.569	-40.908	6.253	B5-03822-P04-CH1	2098256	OK	0.7370854	-0.6726401	0.065272	0	-109.727	-48.593	3.093	NA
0.509584571692755	B5-03822-P01-CH0	2098264	OK	0.2381548	0.0211018	0.0533111	-0.9695334	104.509	6.43	-242.583	B5-03822-P02-CH0	2098264	OK	0.7053094	0.4822521	-0.5195879	0	-77.492	-100.992	4.574	B5-03822-P02-CH1	2098264	OK	0.6329443	0.0013987	-0.7741961	0	-68.621	-77.942	1.003	B5-03822-P03-CH0	2098264	OK	0.9233468	-0.2961619	-0.2443744	0	-93.73	-67.396	13.694	B5-03822-P03-CH1	2098264	OK	0.8141793	-0.2828887	-0.5070365	0	-98.92	-30.952	6.227	B5-03822-P04-CH0	2098264	OK	0.7070624	-0.2245249	0.6705605	0	-122.801	-41.059	6.361	B5-03822-P04-CH1	2098264	OK	0.7365935	-0.6730838	0.0662438	0	-109.96	-48.778	3.012	NA
0.519576426039672	B5-03822-P01-CH0	2098272	OK	0.2382922	0.0211311	0.0533113	-0.969499	104.512	6.555	-242.588	B5-03822-P02-CH0	2098272	OK	0.7069113	0.4797831	-0.5196967	0	-78.046	-101.801	4.689	B5-03822-P02-CH1	2098272	OK	0.6330151	0.0158768	-0.7739766	0	-69.822	-78.818	1.999	B5-03822-P03-CH0	2098272	OK	0.9207473	-0.2833575	-0.2682032	0	-93.333	-66.95	13.565	B5-03822-P03-CH1	2098272	OK	0.8140929	-0.2836455	-0.5067524	0	-98.93	-30.943	6.194	B5-03822-P04-CH0	2098272	OK	0.7074579	-0.2227472	0.6707362	0	-123.023	-41.218	6.537	B5-03822-P04-CH1	2098272	OK	0.7366267	-0.6728855	0.0678684	0	-109.995	-48.923	3.227	NA
0.529568280386588	B5-03822-P01-CH0	2098280	OK	0.2380877	0.0211941	0.0528883	-0.969571	104.514	6.557	-242.533	B5-03822-P02-CH0	2098280	OK	0.7085721	0.4775429	-0.5194981	0	-78.341	-102.051	4.197	B5-03822-P02-CH1	2098280	OK	0.6369392	0.0256518	-0.7704872	0	-68.899	-78.857	1.078	B5-03822-P03-CH0	2098280	OK	0.9155181	-0.2720953	-0.2962949	0	-93.379	-66.559	13.411	B5-03822-P03-CH1	2098280	OK	0.8138926	-0.2842485	-0.5067363	0	-98.961	-30.921	6.236	B5-03822-P04-CH0	2098280	OK	0.7078371	-0.2214365	0.6707701	0	-123.256	-41.419	6.68	B5-03822-P04-CH1	2098280	OK	0.7364654	-0.6729583	0.0688899	0	-110.032	-48.978	3.209	NA
0.539560134733505	B5-03822-P01-CH0	2098288	OK	0.2381116	0.0213784	0.052637	-0.9695747	104.593	6.58	-242.496	B5-03822-P02-CH0	2098288	OK	0.7099128	0.4748445	-0.5201409	0	-78.578	-101.988	4.657	B5-03822-P02-CH1	2098288	OK	0.6375831	0.036271	-0.7695272	0	-70.557	-79.834	1.624	B5-03822-P03-CH0	2098288	OK	0.9098399	-0.2630726	-0.3209114	0	-93.102	-65.94	13.674	B5-03822-P03-CH1	2098288	OK	0.8137196	-0.2852576	-0.506447	0	-99.001	-30.976	6.172	B5-03822-P04-CH0	2098288	OK	0.7083441	-0.2196719	0.6708151	0	-123.498	-41.714	7.017	B5-03822-P04-CH1	2098288	OK	0.7363879	-0.6729389	0.0699009	0	-110.151	-49.102	3.162	NA
0.549551989080422	B5-03822-P01-CH0	2098296	OK	0.2382685	0.0214222	0.052684	-0.9695327	104.633	6.645	-242.527	B5-03822-P02-CH0	2098296	OK	0.7113927	0.4708058	-0.5217877	0	-79.005	-101.912	4.505	B5-03822-P02-CH1	2098296	OK	0.6430446	0.0448954	-0.7645116	0	-71.347	-80.075	1.99	B5-03822-P03-CH0	2098296	OK	0.9017306	-0.2592285	-0.3459517	0	-93.297	-65.721	13.284	B5-03822-P03-CH1	2098296	OK	0.8136786	-0.2863645	-0.5058879	0	-99.04	-30.996	6.207	B5-03822-P04-CH0	2098296	OK	0.7088575	-0.2178838	0.670856	0	-123.689	-42.016	7.134	B5-03822-P04-CH1	2098296	OK	0.7363652	-0.6728207	0.0712643	0	-110.26	-49.346	3.266	NA
0.559543843427339	B5-03822-P01-CH0	2098304	OK	0.2383586	0.0212992	0.0526387	-0.9695157	104.584	6.646	-242.478	B5-03822-P02-CH0	2098304	OK	0.7151677	0.4642271	-0.5225212	0	-78.685	-101.752	4.37	B5-03822-P02-CH1	2098304	OK	0.6506204	0.0479864	-0.7578855	0	-72.561	-80.301	2.437	B5-03822-P03-CH0	2098304	OK	0.8936417	-0.2580596	-0.3671646	0	-93.357	-64.902	12.812	B5-03822-P03-CH1	2098304	OK	0.8137372	-0.2875377	-0.5051276	0	-98.969	-31.076	6.157	B5-03822-P04-CH0	2098304	OK	0.7092884	-0.2161911	0.6709481	0	-123.772	-42.303	7.2	B5-03822-P04-CH1	2098304	OK	0.7362703	-0.6727893	0.0725301	0	-110.136	-49.573	3.239	NA
0.569535697774255	B5-03822-P01-CH0	2098312	OK	0.2384632	0.0213659	0.0523809	-0.9695025	104.626	6.638	-242.485	B5-03822-P02-CH0	2098312	OK	0.7197243	0.4565259	-0.5230497	0	-78.954	-101.748	4.816	B5-03822-P02-CH1	2098312	OK	0.6617597	0.0497094	-0.7480662	0	-72.563	-79.805	1.269	B5-03822-P03-CH0	2098312	OK	0.8851856	-0.2602256	-0.3856541	0	-92.986	-64.262	12.733	B5-03822-P03-CH1	2098312	OK	0.8136484	-0.2886872	-0.5046146	0	-98.964	-31.193	6.254	B5-03822-P04-CH0	2098312	OK	0.7115349	-0.2126017	0.6697154	0	-123.556	-41.88	6.615	B5-03822-P04-CH1	2098312	OK	0.736127	-0.6728537	0.073383	0	-110.167	-49.738	3.551	NA
0.579527552121172	B5-03822-P01-CH0	2098320	OK	0.238329	0.0212477	0.0524273	-0.9695356	104.571	6.641	-242.489	B5-03822-P02-CH0	2098320	OK	0.7246506	0.4461121	-0.525229	0	-79.226	-101.695	4.666	B5-03822-P02-CH1	2098320	OK	0.6715844	0.056174	-0.7387955	0	-73.182	-80.121	1.074	B5-03822-P03-CH0	2098320	OK	0.8760943	-0.2606624	-0.4056032	0	-92.568	-63.413	12.035	B5-03822-P03-CH1	2098320	OK	0.8136287	-0.289468	-0.504199	0	-98.951	-31.242	6.281	B5-03822-P04-CH0	2098320	OK	0.712952	-0.2123244	0.6682947	0	-123.78	-42.158	6.729	B5-03822-P04-CH1	2098320	OK	0.7362851	-0.6726984	0.0732198	0	-110.227	-49.685	3.668	NA
0.589519406468089	B5-03822-P01-CH0	2098328	OK	0.2379237	0.021526	0.0515176	-0.9696777	104.619	6.582	-242.494	B5-03822-P02-CH0	2098328	OK	0.7304414	0.4325386	-0.5285506	0	-79.104	-101.748	4.404	B5-03822-P02-CH1	2098328	OK	0.678467	0.0559582	-0.7324966	0	-73.871	-79.794	0.673	B5-03822-P03-CH0	2098328	OK	0.8663032	-0.2641996	-0.4239307	0	-92.228	-62.253	12.111	B5-03822-P03-CH1	2098328	OK	0.8133164	-0.2903739	-0.504182	0	-98.979	-31.318	6.339	B5-03822-P04-CH0	2098328	OK	0.7137974	-0.2132067	0.6671103	0	-123.674	-42.058	6.739	B5-03822-P04-CH1	2098328	OK	0.7358103	-0.6732692	0.0727443	0	-110.292	-49.614	4.029	NA
0.599511260815006	B5-03822-P01-CH0	2098336	OK	0.2377115	0.0214753	0.0512573	-0.9697447	104.571	6.591	-242.521	B5-03822-P02-CH0	2098336	OK	0.734899	0.4169994	-0.5348224	0	-78.321	-100.989	3.901	B5-03822-P02-CH1	2098336	OK	0.683258	0.0523283	-0.7282996	0	-74.427	-79.034	1.383	B5-03822-P03-CH0	2098336	OK	0.8569044	-0.2708389	-0.4385899	0	-92.112	-61.378	11.432	B5-03822-P03-CH1	2098336	OK	0.8133753	-0.2908607	-0.5038061	0	-98.934	-31.306	6.312	B5-03822-P04-CH0	2098336	OK	0.7144559	-0.2131846	0.6664121	0	-123.768	-41.496	6.682	B5-03822-P04-CH1	2098336	OK	0.7358568	-0.6732776	0.0721954	0	-110.279	-49.482	4.466	NA
0.609503115161922	B5-03822-P01-CH0	2098344	OK	0.2375516	0.0211923	0.0513718	-0.969784	104.43	6.571	-242.498	B5-03822-P02-CH0	2098344	OK	0.7370812	0.4012907	-0.5437619	0	-78.043	-100.185	4.003	B5-03822-P02-CH1	2098344	OK	0.6865171	0.0564142	-0.7249219	0	-74.832	-79.15	0.492	B5-03822-P03-CH0	2098344	OK	0.8490109	-0.2750638	-0.4511324	0	-92.098	-60.252	10.833	B5-03822-P03-CH1	2098344	OK	0.8136637	-0.2911619	-0.503166	0	-98.796	-31.319	6.153	B5-03822-P04-CH0	2098344	OK	0.7134614	-0.2147889	0.6669622	0	-123.017	-41.695	6.033	B5-03822-P04-CH1	2098344	OK	0.7360048	-0.6732114	0.0712978	0	-110.145	-49.356	4.567	NA
0.619494969508839	B5-03822-P01-CH0	2098352	OK	0.237594	0.0211071	0.0523102	-0.9697253	104.407	6.659	-242.555	B5-03822-P02-CH0	2098352	OK	0.7389558	0.3845089	-0.5532605	0	-77.311	-99.041	3.744	B5-03822-P02-CH1	2098352	OK	0.6874242	0.0644885	-0.7233873	0	-75.33	-77.976	0.069	B5-03822-P03-CH0	2098352	OK	0.8436984	-0.2760869	-0.4603793	0	-91.183	-59.57	10.489	B5-03822-P03-CH1	2098352	OK	0.8140076	-0.2908619	-0.5027832	0	-98.82	-31.286	6.234	B5-03822-P04-CH0	2098352	OK	0.713656	-0.2164846	0.6662054	0	-122.532	-41.502	6.465	B5-03822-P04-CH1	2098352	OK	0.7366953	-0.6725602	0.0703054	0	-110.124	-49.184	4.691	NA
0.629486823855756	B5-03822-P01-CH0	2098360	OK	0.2376415	0.021139	0.052755	-0.9696889	104.401	6.676	-242.556	B5-03822-P02-CH0	2098360	OK	0.7420391	0.3663286	-0.5614101	0	-76.492	-98.861	2.904	B5-03822-P02-CH1	2098360	OK	0.6881311	0.0740275	-0.7218001	0	-75.22	-76.932	0.41	B5-03822-P03-CH0	2098360	OK	0.8376627	-0.2747122	-0.4720746	0	-91.357	-58.957	8.854	B5-03822-P03-CH1	2098360	OK	0.814253	-0.2908262	-0.5024064	0	-98.81	-31.334	6.269	B5-03822-P04-CH0	2098360	OK	0.7149844	-0.2175976	0.6644159	0	-122.754	-41.635	7.024	B5-03822-P04-CH1	2098360	OK	0.7369161	-0.6724271	0.0692558	0	-110.038	-49.145	4.879	NA
0.639478678202673	B5-03822-P01-CH0	2098368	OK	0.2374296	0.0212607	0.0525054	-0.9697517	104.367	6.627	-242.511	B5-03822-P02-CH0	2098368	OK	0.7429266	0.3514087	-0.5697122	0	-76.036	-98.313	2.14	B5-03822-P02-CH1	2098368	OK	0.6859099	0.0813565	-0.7231243	0	-75.503	-76.338	1.066	B5-03822-P03-CH0	2098368	OK	0.8313698	-0.2715373	-0.4848627	0	-91.313	-57.951	8.5	B5-03822-P03-CH1	2098368	OK	0.8143333	-0.290774	-0.5023065	0	-98.756	-31.415	6.363	B5-03822-P04-CH0	2098368	OK	0.714995	-0.2211631	0.6632262	0	-122.259	-40.662	6.257	B5-03822-P04-CH1	2098368	OK	0.7366833	-0.672828	0.0678253	0	-109.87	-49.062	5.059	NA
0.649470532549589	B5-03822-P01-CH0	2098376	OK	0.2370396	0.021254	0.0518665	-0.9698816	104.267	6.559	-242.473	B5-03822-P02-CH0	2098376	OK	0.740497	0.3405402	-0.5793933	0	-75.73	-97.263	2.306	B5-03822-P02-CH1	2098376	OK	0.6854164	0.0840825	-0.7232804	0	-75.172	-75.857	1.587	B5-03822-P03-CH0	2098376	OK	0.8238304	-0.2670378	-0.4999943	0	-91.343	-56.885	7.815	B5-03822-P03-CH1	2098376	OK	0.8143929	-0.2904422	-0.5024017	0	-98.649	-31.381	6.346	B5-03822-P04-CH0	2098376	OK	0.7141023	-0.2234715	0.6634142	0	-121.826	-40.215	5.241	B5-03822-P04-CH1	2098376	OK	0.7364247	-0.6733307	0.0656089	0	-109.649	-48.704	5.198	NA
0.659462386896506	B5-03822-P01-CH0	2098384	OK	0.2369492	0.0214749	0.0518671	-0.9698988	104.311	6.55	-242.495	B5-03822-P02-CH0	2098384	OK	0.7359461	0.3310212	-0.5905999	0	-74.861	-96.335	2.202	B5-03822-P02-CH1	2098384	OK	0.6834854	0.0873561	-0.7247183	0	-75.82	-76.461	1.547	B5-03822-P03-CH0	2098384	OK	0.819991	-0.2653206	-0.5071683	0	-90.718	-56.593	8.339	B5-03822-P03-CH1	2098384	OK	0.8144297	-0.2899503	-0.5026263	0	-98.649	-31.384	6.43	B5-03822-P04-CH0	2098384	OK	0.715953	-0.2230482	0.6615593	0	-122.456	-40.228	5.875	B5-03822-P04-CH1	2098384	OK	0.7365152	-0.6734236	0.0636083	0	-109.628	-48.473	5.5	NA
0.669454241243423	B5-03822-P01-CH0	2098392	OK	0.236904	0.0215453	0.0525081	-0.9698738	104.285	6.631	-242.486	B5-03822-P02-CH0	2098392	OK	0.7317132	0.3207935	-0.6014044	0	-73.406	-96.31	1.642	B5-03822-P02-CH1	2098392	OK	0.6800979	0.0808179	-0.7286531	0	-75.496	-75.628	0.686	B5-03822-P03-CH0	2098392	OK	0.818511	-0.2641223	-0.5101757	0	-90.553	-56.317	8.074	B5-03822-P03-CH1	2098392	OK	0.8146374	-0.2889911	-0.502842	0	-98.681	-31.242	6.488	B5-03822-P04-CH0	2098392	OK	0.7163914	-0.221	0.6617721	0	-122.125	-40.167	6.762	B5-03822-P04-CH1	2098392	OK	0.7363782	-0.6745186	0.0526481	0	-108.611	-47.27	4.093	NA
0.67944609559034	B5-03822-P01-CH0	2098400	OK	0.2368399	0.0218652	0.051997	-0.9699098	104.356	6.576	-242.435	B5-03822-P02-CH0	2098400	OK	0.7268123	0.312106	-0.6118282	0	-72.476	-95.476	1.697	B5-03822-P02-CH1	2098400	OK	0.6744507	0.069485	-0.7350429	0	-75.816	-75.072	1.571	B5-03822-P03-CH0	2098400	OK	0.8174627	-0.2646461	-0.511583	0	-90.65	-56.689	7.917	B5-03822-P03-CH1	2098400	OK	0.8144837	-0.2885418	-0.5033487	0	-98.709	-31.265	6.502	B5-03822-P04-CH0	2098400	OK	0.715784	-0.2206237	0.6625545	0	-121.653	-40.259	6.901	B5-03822-P04-CH1	2098400	OK	0.7363005	-0.6745599	0.0532035	0	-108.735	-47.465	5.885	NA
0.689437949937256	B5-03822-P01-CH0	2098408	OK	0.2370776	0.0216743	0.0527513	-0.9698153	104.313	6.61	-242.446	B5-03822-P02-CH0	2098408	OK	0.7239824	0.3051724	-0.6186431	0	-71.74	-95.702	2.176	B5-03822-P02-CH1	2098408	OK	0.6702516	0.0518943	-0.7403173	0	-74.961	-74.936	1.643	B5-03822-P03-CH0	2098408	OK	0.817369	-0.2668769	-0.5105729	0	-90.588	-56.662	7.651	B5-03822-P03-CH1	2098408	OK	0.8147016	-0.287631	-0.5035173	0	-98.735	-31.221	6.433	B5-03822-P04-CH0	2098408	OK	0.7157311	-0.2190142	0.6631454	0	-122.28	-40.718	7.21	B5-03822-P04-CH1	2098408	OK	0.7372814	-0.6736208	0.0514892	0	-108.964	-46.792	5.3	NA
0.699429804284173	B5-03822-P01-CH0	2098416	OK	0.237079	0.021853	0.0531066	-0.9697916	104.408	6.603	-242.504	B5-03822-P02-CH0	2098416	OK	0.719685	0.3023536	-0.6250086	0	-71.559	-95.053	1.816	B5-03822-P02-CH1	2098416	OK	0.6653584	0.0282573	-0.7459891	0	-73.716	-74.7	0.46	B5-03822-P03-CH0	2098416	OK	0.8170628	-0.272537	-0.5080668	0	-90.434	-56.485	7.833	B5-03822-P03-CH1	2098416	OK	0.8146169	-0.2869012	-0.5040704	0	-98.872	-31.25	6.528	B5-03822-P04-CH0	2098416	OK	0.7161776	-0.2194324	0.6625247	0	-122.162	-40.618	7.341	B5-03822-P04-CH1	2098416	OK	0.7371345	-0.6733731	0.056581	0	-109.173	-47.748	5.351	NA
0.70942165863109	B5-03822-P01-CH0	2098424	OK	0.2371154	0.0220558	0.0531014	-0.9697784	104.486	6.652	-242.547	B5-03822-P02-CH0	2098424	OK	0.7134587	0.3020064	-0.6322727	0	-72.745	-95.066	2.624	B5-03822-P02-CH1	2098424	OK	0.6586652	0.0029855	-0.7524302	0	-73.203	-74.457	0.918	B5-03822-P03-CH0	2098424	OK	0.8152772	-0.2799769	-0.5068886	0	-90.611	-56.76	8.003	B5-03822-P03-CH1	2098424	OK	0.8145745	-0.2863313	-0.5044629	0	-98.945	-31.205	6.664	B5-03822-P04-CH0	2098424	OK	0.7166814	-0.2195427	0.6619431	0	-122.176	-40.46	7.545	B5-03822-P04-CH1	2098424	OK	0.7372809	-0.6733371	0.0550814	0	-109.1	-47.484	5.528	NA
0.719413512978007	B5-03822-P01-CH0	2098432	OK	0.2371882	0.0222088	0.0526148	-0.9697836	104.529	6.571	-242.532	B5-03822-P02-CH0	2098432	OK	0.7103269	0.3011131	-0.6362127	0	-72.307	-94.824	2.711	B5-03822-P02-CH1	2098432	OK	0.6499624	-0.0189566	-0.7597299	0	-73.563	-74.306	1.419	B5-03822-P03-CH0	2098432	OK	0.814899	-0.2881668	-0.5028912	0	-89.51	-57.125	8.122	B5-03822-P03-CH1	2098432	OK	0.814429	-0.2862357	-0.5047519	0	-98.933	-31.288	6.76	B5-03822-P04-CH0	2098432	OK	0.7168204	-0.2196273	0.6617645	0	-122.08	-40.433	7.599	B5-03822-P04-CH1	2098432	OK	0.7369421	-0.6737729	0.0542815	0	-108.921	-47.477	5.524	NA
0.729405367324924	B5-03822-P01-CH0	2098440	OK	0.2370985	0.0219906	0.0524227	-0.9698209	104.448	6.518	-242.49	B5-03822-P02-CH0	2098440	OK	0.7083372	0.3027974	-0.6376301	0	-71.388	-94.793	2.553	B5-03822-P02-CH1	2098440	OK	0.6425217	-0.0388504	-0.765282	0	-72.965	-74.688	1.354	B5-03822-P03-CH0	2098440	OK	0.8130519	-0.2946838	-0.5021037	0	-89.154	-57.39	7.752	B5-03822-P03-CH1	2098440	OK	0.8145226	-0.2854999	-0.5050175	0	-98.844	-31.167	6.591	B5-03822-P04-CH0	2098440	OK	0.7167407	-0.219841	0.66178	0	-121.895	-40.255	7.44	B5-03822-P04-CH1	2098440	OK	0.7367712	-0.6740457	0.0532031	0	-108.745	-47.33	5.096	NA
0.73939722167184	B5-03822-P01-CH0	2098448	OK	0.2372197	0.0218944	0.0526892	-0.969779	104.451	6.53	-242.537	B5-03822-P02-CH0	2098448	OK	0.7066503	0.304728	-0.6385814	0	-70.942	-94.623	2.292	B5-03822-P02-CH1	2098448	OK	0.6341305	-0.0569168	-0.7711284	0	-71.838	-73.543	0.793	B5-03822-P03-CH0	2098448	OK	0.811	-0.2980502	-0.5034332	0	-89.033	-57.175	7.986	B5-03822-P03-CH1	2098448	OK	0.8144854	-0.2847871	-0.5054799	0	-98.923	-31.054	6.55	B5-03822-P04-CH0	2098448	OK	0.7169586	-0.2195805	0.6616304	0	-121.846	-40.227	7.545	B5-03822-P04-CH1	2098448	OK	0.7370193	-0.6738363	0.0524145	0	-108.756	-47.205	4.998	NA
0.749389076018757	B5-03822-P01-CH0	2098456	OK	0.2374768	0.0219104	0.0536335	-0.9696639	104.511	6.647	-242.541	B5-03822-P02-CH0	2098456	OK	0.7046081	0.3052939	-0.6405647	0	-71.609	-94.791	2.916	B5-03822-P02-CH1	2098456	OK	0.6234503	-0.0660271	-0.77907	0	-71.857	-73.777	0.48	B5-03822-P03-CH0	2098456	OK	0.8077233	-0.2981335	-0.5086251	0	-89.13	-57.462	6.857	B5-03822-P03-CH1	2098456	OK	0.814665	-0.2841424	-0.5055533	0	-99.017	-30.989	6.574	B5-03822-P04-CH0	2098456	OK	0.7175532	-0.2189053	0.6612094	0	-121.92	-40.228	7.677	B5-03822-P04-CH1	2098456	OK	0.7375988	-0.6732187	0.0521974	0	-108.814	-47.163	4.901	NA
0.759380930365674	B5-03822-P01-CH0	2098464	OK	0.2376483	0.0216993	0.0537075	-0.9696226	104.473	6.624	-242.622	B5-03822-P02-CH0	2098464	OK	0.7045496	0.3036975	-0.6413873	0	-71.127	-94.753	2.55	B5-03822-P02-CH1	2098464	OK	0.6176476	-0.0714361	-0.7832039	0	-71.085	-73.762	1.121	B5-03822-P03-CH0	2098464	OK	0.8063805	-0.2951161	-0.5125008	0	-88.101	-57.345	7.257	B5-03822-P03-CH1	2098464	OK	0.8149113	-0.2838966	-0.5052942	0	-98.954	-31.008	6.506	B5-03822-P04-CH0	2098464	OK	0.7175151	-0.2188432	0.6612713	0	-121.807	-40.191	7.628	B5-03822-P04-CH1	2098464	OK	0.737799	-0.6730011	0.0521754	0	-108.731	-47.073	4.793	NA
0.769372784712591	B5-03822-P01-CH0	2098472	OK	0.2375932	0.0218822	0.0529293	-0.9696748	104.56	6.542	-242.651	B5-03822-P02-CH0	2098472	OK	0.7035146	0.3058857	-0.6414836	0	-71.365	-94.3	2.409	B5-03822-P02-CH1	2098472	OK	0.614739	-0.073654	-0.785284	0	-70.841	-73.603	0.961	B5-03822-P03-CH0	2098472	OK	0.8030931	-0.2898794	-0.5205875	0	-88.904	-57.659	6.476	B5-03822-P03-CH1	2098472	OK	0.8147816	-0.2839741	-0.5054599	0	-98.978	-31.081	6.484	B5-03822-P04-CH0	2098472	OK	0.7174558	-0.2193006	0.6611841	0	-121.822	-40.178	7.713	B5-03822-P04-CH1	2098472	OK	0.7373887	-0.6734547	0.0521213	0	-108.743	-47.058	4.742	NA
0.779364639059507	B5-03822-P01-CH0	2098480	OK	0.2376403	0.021734	0.0534569	-0.9696376	104.536	6.585	-242.703	B5-03822-P02-CH0	2098480	OK	0.7027823	0.3113635	-0.6396482	0	-72.077	-94.61	3.151	B5-03822-P02-CH1	2098480	OK	0.6112391	-0.0763298	-0.7877567	0	-71.146	-74.106	1.079	B5-03822-P03-CH0	2098480	OK	0.8025738	-0.2876684	-0.522611	0	-88.295	-58.173	6.937	B5-03822-P03-CH1	2098480	OK	0.8149817	-0.2834708	-0.5054197	0	-99.002	-31.044	6.495	B5-03822-P04-CH0	2098480	OK	0.7177894	-0.2194171	0.6607833	0	-121.861	-39.999	7.679	B5-03822-P04-CH1	2098480	OK	0.7377712	-0.6730348	0.0521325	0	-108.742	-46.972	4.46	NA
0.789356493406424	B5-03822-P01-CH0	2098488	OK	0.2377589	0.021879	0.0533115	-0.9696133	104.58	6.563	-242.66	B5-03822-P02-CH0	2098488	OK	0.7033336	0.3174165	-0.6360571	0	-72.312	-94.802	3.213	B5-03822-P02-CH1	2098488	OK	0.6078153	-0.0756374	-0.7904679	0	-71.352	-74.761	0.892	B5-03822-P03-CH0	2098488	OK	0.8012545	-0.2864281	-0.5253096	0	-88.494	-58.032	7.325	B5-03822-P03-CH1	2098488	OK	0.8150706	-0.2834102	-0.5053104	0	-98.966	-31.093	6.494	B5-03822-P04-CH0	2098488	OK	0.7179841	-0.2196106	0.6605074	0	-121.924	-40.005	7.501	B5-03822-P04-CH1	2098488	OK	0.7375599	-0.6732281	0.0526239	0	-108.692	-47.11	4.326	NA
0.799348347753341	B5-03822-P01-CH0	2098496	OK	0.2377217	0.0220778	0.0526066	-0.9696564	104.602	6.542	-242.574	B5-03822-P02-CH0	2098496	OK	0.7046131	0.3236056	-0.631506	0	-72.226	-94.791	3.732	B5-03822-P02-CH1	2098496	OK	0.6049967	-0.0736421	-0.7928151	0	-71.49	-74.208	1.941	B5-03822-P03-CH0	2098496	OK	0.8004073	-0.2856092	-0.5270442	0	-88.655	-58.084	7.107	B5-03822-P03-CH1	2098496	OK	0.8150059	-0.2835586	-0.5053316	0	-98.914	-31.114	6.505	B5-03822-P04-CH0	2098496	OK	0.7180695	-0.2199475	0.6603024	0	-121.981	-39.984	7.632	B5-03822-P04-CH1	2098496	OK	0.7371353	-0.673659	0.0530571	0	-108.722	-47.185	4.623	NA
0.809340202100258	B5-03822-P01-CH0	2098504	OK	0.2376075	0.0220061	0.0520831	-0.9697143	104.584	6.398	-242.523	B5-03822-P02-CH0	2098504	OK	0.7060793	0.3282063	-0.6274812	0	-72.173	-95.206	3.665	B5-03822-P02-CH1	2098504	OK	0.6052563	-0.0719625	-0.7927712	0	-71.052	-74.157	1.428	B5-03822-P03-CH0	2098504	OK	0.8008198	-0.2827532	-0.5279567	0	-88.951	-58.073	6.384	B5-03822-P03-CH1	2098504	OK	0.8149335	-0.2833676	-0.5055552	0	-98.861	-31.207	6.45	B5-03822-P04-CH0	2098504	OK	0.7178245	-0.2209572	0.6602317	0	-121.847	-39.927	7.401	B5-03822-P04-CH1	2098504	OK	0.7367908	-0.6740159	0.0533091	0	-108.738	-47.283	4.493	NA
0.819332056447174	B5-03822-P01-CH0	2098512	OK	0.2376575	0.0219788	0.0524716	-0.9696817	104.611	6.435	-242.512	B5-03822-P02-CH0	2098512	OK	0.7061901	0.3307962	-0.6259947	0	-72.44	-94.99	3.603	B5-03822-P02-CH1	2098512	OK	0.6049372	-0.0736698	-0.792858	0	-71.052	-73.631	2.088	B5-03822-P03-CH0	2098512	OK	0.8025267	-0.2801554	-0.5267484	0	-88.612	-57.864	6.802	B5-03822-P03-CH1	2098512	OK	0.8150405	-0.2828419	-0.5056772	0	-98.927	-31.141	6.396	B5-03822-P04-CH0	2098512	OK	0.7183259	-0.2212437	0.6595901	0	-121.981	-39.871	7.451	B5-03822-P04-CH1	2098512	OK	0.7371504	-0.6736176	0.0533724	0	-108.977	-47.168	4.348	NA
0.829323910794091	B5-03822-P01-CH0	2098520	OK	0.2376667	0.0220891	0.0518169	-0.9697121	104.665	6.374	-242.583	B5-03822-P02-CH0	2098520	OK	0.7083139	0.3322704	-0.6228064	0	-72.089	-95.562	3.284	B5-03822-P02-CH1	2098520	OK	0.6055671	-0.0743647	-0.7923121	0	-71.143	-73.526	1.508	B5-03822-P03-CH0	2098520	OK	0.8028451	-0.2795327	-0.5265941	0	-88.624	-58.28	6.941	B5-03822-P03-CH1	2098520	OK	0.8149332	-0.2830064	-0.5057581	0	-98.93	-31.28	6.629	B5-03822-P04-CH0	2098520	OK	0.7183283	-0.2218309	0.6593902	0	-122.035	-39.963	7.447	B5-03822-P04-CH1	2098520	OK	0.7366641	-0.6741341	0.0535655	0	-109.129	-47.265	4.52	NA
0.839315765141008	B5-03822-P01-CH0	2098528	OK	0.2376316	0.022052	0.0515451	-0.9697361	104.642	6.324	-242.517	B5-03822-P02-CH0	2098528	OK	0.7087427	0.3343473	-0.621205	0	-71.986	-95.211	3.459	B5-03822-P02-CH1	2098528	OK	0.607258	-0.070296	-0.7913888	0	-71.5	-74.543	1.816	B5-03822-P03-CH0	2098528	OK	0.8032537	-0.2801702	-0.5256312	0	-89.036	-58.074	7.17	B5-03822-P03-CH1	2098528	OK	0.8150601	-0.2827835	-0.5056784	0	-98.833	-31.317	6.673	B5-03822-P04-CH0	2098528	OK	0.7183831	-0.2225471	0.6590892	0	-121.999	-39.852	7.317	B5-03822-P04-CH1	2098528	OK	0.7365341	-0.6742541	0.053841	0	-109.23	-47.239	4.584	NA
0.849307619487925	B5-03822-P01-CH0	2098536	OK	0.2377095	0.0220975	0.0512707	-0.9697305	104.655	6.231	-242.437	B5-03822-P02-CH0	2098536	OK	0.7094898	0.3367723	-0.6190384	0	-71.979	-95.481	3.014	B5-03822-P02-CH1	2098536	OK	0.611728	-0.0674305	-0.788189	0	-70.815	-74.533	0.524	B5-03822-P03-CH0	2098536	OK	0.8043497	-0.2844624	-0.5216347	0	-89.244	-57.706	6.738	B5-03822-P03-CH1	2098536	OK	0.8150078	-0.2825259	-0.5059064	0	-98.818	-31.333	6.584	B5-03822-P04-CH0	2098536	OK	0.7185142	-0.2228368	0.6588484	0	-122.035	-39.926	7.156	B5-03822-P04-CH1	2098536	OK	0.7363524	-0.6744057	0.0544258	0	-109.322	-47.319	4.58	NA
0.859299473834841	B5-03822-P01-CH0	2098544	OK	0.2377311	0.0222214	0.0513475	-0.9697183	104.698	6.251	-242.41	B5-03822-P02-CH0	2098544	OK	0.7099169	0.34006	-0.6167472	0	-72.034	-95.595	2.898	B5-03822-P02-CH1	2098544	OK	0.6144789	-0.0631133	-0.7864047	0	-71.193	-74.682	1.447	B5-03822-P03-CH0	2098544	OK	0.8053099	-0.2938202	-0.514923	0	-90.076	-57.981	6.624	B5-03822-P03-CH1	2098544	OK	0.8149165	-0.2819835	-0.5063561	0	-98.876	-31.289	6.623	B5-03822-P04-CH0	2098544	OK	0.7185359	-0.2236881	0.6585361	0	-122.03	-39.759	6.894	B5-03822-P04-CH1	2098544	OK	0.7361397	-0.6746079	0.0547946	0	-109.493	-47.43	4.495	NA
0.869291328181758	B5-03822-P01-CH0	2098552	OK	0.2378907	0.0221264	0.0518666	-0.9696537	104.704	6.266	-242.447	B5-03822-P02-CH0	2098552	OK	0.7102075	0.3446861	-0.6138378	0	-72.254	-96.018	2.653	B5-03822-P02-CH1	2098552	OK	0.6183676	-0.0582159	-0.7837298	0	-70.868	-74.759	1.174	B5-03822-P03-CH0	2098552	OK	0.8092609	-0.3047589	-0.5022139	0	-89.946	-57.813	7.658	B5-03822-P03-CH1	2098552	OK	0.815007	-0.2814322	-0.5065171	0	-98.889	-31.322	6.616	B5-03822-P04-CH0	2098552	OK	0.7186432	-0.2241278	0.6582695	0	-122.087	-39.717	6.66	B5-03822-P04-CH1	2098552	OK	0.7364281	-0.6742526	0.0552913	0	-109.654	-47.499	4.794	NA
0.879283182528675	B5-03822-P01-CH0	2098560	OK	0.238159	0.0222873	0.0522208	-0.9695651	104.788	6.286	-242.44	B5-03822-P02-CH0	2098560	OK	0.709001	0.35076	-0.6117884	0	-72.576	-95.805	3.313	B5-03822-P02-CH1	2098560	OK	0.6194932	-0.0558646	-0.7830117	0	-71.591	-74.479	1.78	B5-03822-P03-CH0	2098560	OK	0.8114311	-0.3175019	-0.4906854	0	-89.95	-57.949	7.162	B5-03822-P03-CH1	2098560	OK	0.8151558	-0.28111	-0.5064566	0	-98.878	-31.352	6.681	B5-03822-P04-CH0	2098560	OK	0.7186541	-0.2247448	0.6580471	0	-122.159	-39.741	6.418	B5-03822-P04-CH1	2098560	OK	0.7366404	-0.6739621	0.0560008	0	-109.831	-47.556	5.014	NA
0.889275036875592	B5-03822-P01-CH0	2098568	OK	0.238034	0.0222158	0.0519351	-0.9696128	104.764	6.272	-242.493	B5-03822-P02-CH0	2098568	OK	0.7090192	0.3587205	-0.6071338	0	-72.504	-96.439	3.822	B5-03822-P02-CH1	2098568	OK	0.6228141	-0.05165	-0.7806631	0	-71.31	-73.808	1.113	B5-03822-P03-CH0	2098568	OK	0.813787	-0.3320322	-0.4769753	0	-89.889	-58.165	7.315	B5-03822-P03-CH1	2098568	OK	0.8149974	-0.2807819	-0.5068932	0	-98.929	-31.332	6.752	B5-03822-P04-CH0	2098568	OK	0.7169476	-0.2293853	0.6583073	0	-122.798	-40.027	6.369	B5-03822-P04-CH1	2098568	OK	0.7363375	-0.6742848	0.0560995	0	-109.856	-47.498	4.928	NA
0.899266891222508	B5-03822-P01-CH0	2098576	OK	0.2379462	0.0220684	0.0518608	-0.9696417	104.72	6.217	-242.515	B5-03822-P02-CH0	2098576	OK	0.7078481	0.3672364	-0.6033975	0	-72.103	-96.417	3.65	B5-03822-P02-CH1	2098576	OK	0.6255656	-0.0451897	-0.7788617	0	-71.527	-74.422	1.787	B5-03822-P03-CH0	2098576	OK	0.8168535	-0.3462648	-0.4613578	0	-90.311	-58.125	7.934	B5-03822-P03-CH1	2098576	OK	0.8148627	-0.2801695	-0.5074484	0	-98.974	-31.293	6.731	B5-03822-P04-CH0	2098576	OK	0.7158009	-0.2307872	0.6590647	0	-122.462	-39.627	6.22	B5-03822-P04-CH1	2098576	OK	0.7363242	-0.6743047	0.0560346	0	-109.923	-47.361	4.709	NA
0.909258745569425	B5-03822-P01-CH0	2098584	OK	0.2383056	0.0223175	0.0525846	-0.9695088	104.83	6.314	-242.56	B5-03822-P02-CH0	2098584	OK	0.7054498	0.3757723	-0.6009457	0	-72.467	-96.631	3.994	B5-03822-P02-CH1	2098584	OK	0.6270951	-0.041114	-0.7778569	0	-71.708	-74.584	1.79	B5-03822-P03-CH0	2098584	OK	0.8192939	-0.3582413	-0.4476838	0	-91.313	-58.125	7.906	B5-03822-P03-CH1	2098584	OK	0.8147611	-0.2798746	-0.5077741	0	-99.146	-31.277	6.785	B5-03822-P04-CH0	2098584	OK	0.7163568	-0.2298983	0.6587714	0	-123.04	-40.094	6.779	B5-03822-P04-CH1	2098584	OK	0.7366018	-0.6739268	0.0569242	0	-110.037	-47.487	4.843	NA
0.919250599916342	B5-03822-P01-CH0	2098592	OK	0.2381915	0.0223417	0.0521433	-0.9695601	104.838	6.232	-242.588	B5-03822-P02-CH0	2098592	OK	0.7033767	0.3842486	-0.5980085	0	-72.753	-96.91	3.703	B5-03822-P02-CH1	2098592	OK	0.6272634	-0.0375522	-0.7779013	0	-72.045	-74.74	1.859	B5-03822-P03-CH0	2098592	OK	0.8215926	-0.3656698	-0.4373457	0	-91.266	-57.932	7.919	B5-03822-P03-CH1	2098592	OK	0.8147011	-0.2795355	-0.5080571	0	-99.107	-31.286	6.791	B5-03822-P04-CH0	2098592	OK	0.7149633	-0.2320878	0.659517	0	-122.624	-40.008	6.458	B5-03822-P04-CH1	2098592	OK	0.7361455	-0.6744093	0.0571128	0	-109.953	-47.6	4.945	NA
0.929242454263259	B5-03822-P01-CH0	2098600	OK	0.2384321	0.0223364	0.0528623	-0.9694621	104.84	6.324	-242.607	B5-03822-P02-CH0	2098600	OK	0.7015953	0.3909445	-0.595757	0	-72.386	-97.152	3.733	B5-03822-P02-CH1	2098600	OK	0.6266178	-0.0361266	-0.778489	0	-72.119	-74.527	1.33	B5-03822-P03-CH0	2098600	OK	0.8223769	-0.370912	-0.4314169	0	-91.161	-58.303	7.931	B5-03822-P03-CH1	2098600	OK	0.8147976	-0.2790403	-0.5081746	0	-99.147	-31.21	6.743	B5-03822-P04-CH0	2098600	OK	0.7152688	-0.2327396	0.6589559	0	-122.872	-40.175	6.344	B5-03822-P04-CH1	2098600	OK	0.7366857	-0.6737752	0.05763	0	-109.995	-47.515	5.031	NA
0.939234308610176	B5-03822-P01-CH0	2098608	OK	0.2386396	0.0224162	0.0533959	-0.96938	104.922	6.374	-242.67	B5-03822-P02-CH0	2098608	OK	0.6982263	0.3974983	-0.5953781	0	-72.76	-96.598	4.567	B5-03822-P02-CH1	2098608	OK	0.6262883	-0.0386962	-0.7786306	0	-71.843	-74.306	1.597	B5-03822-P03-CH0	2098608	OK	0.8226465	-0.3713612	-0.4305155	0	-90.806	-58.356	8.658	B5-03822-P03-CH1	2098608	OK	0.8146988	-0.2785972	-0.5085759	0	-99.294	-31.21	6.688	B5-03822-P04-CH0	2098608	OK	0.7148629	-0.2335511	0.6591091	0	-122.59	-39.878	6.506	B5-03822-P04-CH1	2098608	OK	0.7369038	-0.673506	0.0579857	0	-110.002	-47.579	5.012	NA
0.949226162957092	B5-03822-P01-CH0	2098616	OK	0.2389018	0.0223352	0.0537597	-0.9692971	104.913	6.378	-242.709	B5-03822-P02-CH0	2098616	OK	0.6966008	0.4014993	-0.5945971	0	-72.256	-96.344	3.881	B5-03822-P02-CH1	2098616	OK	0.6274421	-0.0408635	-0.7775902	0	-71.212	-73.634	1.575	B5-03822-P03-CH0	2098616	OK	0.8216137	-0.3686913	-0.4347617	0	-91.38	-58.019	7.837	B5-03822-P03-CH1	2098616	OK	0.8147732	-0.2781002	-0.5087288	0	-99.307	-31.221	6.725	B5-03822-P04-CH0	2098616	OK	0.7150253	-0.2325863	0.6592742	0	-122.497	-40.398	7.435	B5-03822-P04-CH1	2098616	OK	0.7370378	-0.6733174	0.0584722	0	-109.926	-47.638	4.92	NA
0.959218017304009	B5-03822-P01-CH0	2098624	OK	0.239102	0.0223147	0.0542903	-0.9692187	104.937	6.394	-242.699	B5-03822-P02-CH0	2098624	OK	0.6953767	0.4050574	-0.5936159	0	-72.038	-96.571	3.866	B5-03822-P02-CH1	2098624	OK	0.62677	-0.0376757	-0.778293	0	-71.698	-74.922	2.2	B5-03822-P03-CH0	2098624	OK	0.822249	-0.3655095	-0.4362447	0	-90.978	-57.996	7.899	B5-03822-P03-CH1	2098624	OK	0.8148857	-0.2775878	-0.5088284	0	-99.335	-31.238	6.731	B5-03822-P04-CH0	2098624	OK	0.7161776	-0.2309064	0.6586136	0	-122.592	-39.819	6.035	B5-03822-P04-CH1	2098624	OK	0.7374377	-0.6728407	0.0589159	0	-109.842	-47.659	5.145	NA
0.969209871650926	B5-03822-P01-CH0	2098632	OK	0.2390392	0.0223428	0.0537694	-0.9692626	104.911	6.332	-242.642	B5-03822-P02-CH0	2098632	OK	0.6947916	0.4085311	-0.5919181	0	-72.174	-96.743	4.108	B5-03822-P02-CH1	2098632	OK	0.6287423	-0.0362029	-0.7767706	0	-70.991	-74.531	0.992	B5-03822-P03-CH0	2098632	OK	0.822329	-0.3612109	-0.439661	0	-90.95	-58.043	8.134	B5-03822-P03-CH1	2098632	OK	0.8148631	-0.2772772	-0.5090339	0	-99.288	-31.216	6.676	B5-03822-P04-CH0	2098632	OK	0.715707	-0.2315381	0.6589033	0	-122.549	-39.886	6.179	B5-03822-P04-CH1	2098632	OK	0.7369367	-0.6733853	0.0589623	0	-109.728	-47.715	4.872	NA
0.979201725997842	B5-03822-P01-CH0	2098640	OK	0.2389207	0.022387	0.0534884	-0.9693063	104.958	6.253	-242.691	B5-03822-P02-CH0	2098640	OK	0.6941335	0.411865	-0.5903778	0	-72.507	-97.043	4.187	B5-03822-P02-CH1	2098640	OK	0.6287037	-0.0327012	-0.776957	0	-71.598	-75.205	1.878	B5-03822-P03-CH0	2098640	OK	0.822769	-0.3555166	-0.4434626	0	-90.971	-57.962	8.435	B5-03822-P03-CH1	2098640	OK	0.8148329	-0.2766279	-0.5094354	0	-99.331	-31.184	6.635	B5-03822-P04-CH0	2098640	OK	0.7155952	-0.2315783	0.6590106	0	-122.638	-40.179	6.617	B5-03822-P04-CH1	2098640	OK	0.7366167	-0.6737674	0.0585942	0	-109.677	-47.813	4.717	NA
0.989193580344759	B5-03822-P01-CH0	2098648	OK	0.2391499	0.0223685	0.0541963	-0.9692109	104.977	6.281	-242.649	B5-03822-P02-CH0	2098648	OK	0.6922667	0.4151205	-0.5902896	0	-72.817	-97.024	4.645	B5-03822-P02-CH1	2098648	OK	0.628829	-0.0328217	-0.7768506	0	-71.777	-74.952	1.3	B5-03822-P03-CH0	2098648	OK	0.8229688	-0.3504323	-0.4471236	0	-90.887	-58.05	8.511	B5-03822-P03-CH1	2098648	OK	0.8150349	-0.2759045	-0.5095045	0	-99.36	-31.167	6.534	B5-03822-P04-CH0	2098648	OK	0.7155608	-0.2315474	0.6590588	0	-122.564	-40.236	6.614	B5-03822-P04-CH1	2098648	OK	0.7370813	-0.673244	0.0587678	0	-109.699	-47.859	4.665	NA
0.999185434691676	B5-03822-P01-CH0	2098656	OK	0.2394835	0.0222087	0.0549168	-0.9690916	104.961	6.288	-242.634	B5-03822-P02-CH0	2098656	OK	0.6921317	0.4168323	-0.5892406	0	-71.775	-96.963	3.265	B5-03822-P02-CH1	2098656	OK	0.6280898	-0.0384227	-0.7771917	0	-71.457	-74.551	1.191	B5-03822-P03-CH0	2098656	OK	0.8222692	-0.347558	-0.4506404	0	-90.888	-58.412	7.864	B5-03822-P03-CH1	2098656	OK	0.8155481	-0.2752986	-0.5090107	0	-99.252	-31.192	6.496	B5-03822-P04-CH0	2098656	OK	0.7156805	-0.2313816	0.6589871	0	-122.51	-40.333	6.557	B5-03822-P04-CH1	2098656	OK	0.7374594	-0.6727598	0.0595636	0	-109.615	-48.053	4.863	NA
1.00917728903859	B5-03822-P01-CH0	2098664	OK	0.2394782	0.0221136	0.0549436	-0.9690936	104.937	6.247	-242.614	B5-03822-P02-CH0	2098664	OK	0.6907652	0.4199037	-0.5886632	0	-71.77	-96.782	3.593	B5-03822-P02-CH1	2098664	OK	0.6311154	-0.0354589	-0.7748781	0	-71.573	-74.493	1.342	B5-03822-P03-CH0	2098664	OK	0.8216566	-0.3450635	-0.4536646	0	-91.229	-58.109	7.826	B5-03822-P03-CH1	2098664	OK	0.8158076	-0.2748223	-0.5088524	0	-99.194	-31.22	6.42	B5-03822-P04-CH0	2098664	OK	0.7156199	-0.2316446	0.6589605	0	-122.433	-40.315	6.531	B5-03822-P04-CH1	2098664	OK	0.7375323	-0.6726875	0.0594775	0	-109.569	-48.031	4.84	NA
1.01916914338551	B5-03822-P01-CH0	2098672	OK	0.2397662	0.0220874	0.0554941	-0.9689916	104.926	6.283	-242.565	B5-03822-P02-CH0	2098672	OK	0.6891867	0.4231135	-0.5882148	0	-72.065	-96.724	3.77	B5-03822-P02-CH1	2098672	OK	0.6324274	-0.0341026	-0.7738686	0	-71.637	-75.114	0.591	B5-03822-P03-CH0	2098672	OK	0.8219729	-0.3439555	-0.453933	0	-91.486	-57.899	7.819	B5-03822-P03-CH1	2098672	OK	0.8160875	-0.2744545	-0.508602	0	-99.167	-31.262	6.336	B5-03822-P04-CH0	2098672	OK	0.7159003	-0.2311946	0.6588139	0	-122.429	-40.404	6.532	B5-03822-P04-CH1	2098672	OK	0.7379168	-0.6722492	0.0596641	0	-109.571	-47.999	4.651	NA
1.02916099773243	B5-03822-P01-CH0	2098680	OK	0.2397808	0.0222784	0.0555001	-0.9689833	105.017	6.228	-242.52	B5-03822-P02-CH0	2098680	OK	0.6902621	0.4249481	-0.5856256	0	-71.62	-97.351	3.672	B5-03822-P02-CH1	2098680	OK	0.635094	-0.0338789	-0.7716915	0	-71.147	-75.36	0.28	B5-03822-P03-CH0	2098680	OK	0.8232158	-0.3440252	-0.4516219	0	-90.988	-58.179	7.825	B5-03822-P03-CH1	2098680	OK	0.8160924	-0.2740191	-0.5088287	0	-99.257	-31.312	6.3	B5-03822-P04-CH0	2098680	OK	0.7158508	-0.2312795	0.658838	0	-122.362	-40.517	6.537	B5-03822-P04-CH1	2098680	OK	0.7377582	-0.6724089	0.0598258	0	-109.459	-48.16	4.529	NA
