Wav.Time	B5.03822.P01.CH0	Frame	State	Q0	Qx	Qy	Qz	Tx	Ty	Tz	B5.03822.P02.CH0	Frame.1	State.1	Q0.1	Qx.1	Qy.1	Qz.1	Tx.1	Ty.1	Tz.1	B5.03822.P02.CH1	Frame.2	State.2	Q0.2	Qx.2	Qy.2	Qz.2	Tx.2	Ty.2	Tz.2	B5.03822.P03.CH0	Frame.3	State.3	Q0.3	Qx.3	Qy.3	Qz.3	Tx.3	Ty.3	Tz.3	B5.03822.P03.CH1	Frame.4	State.4	Q0.4	Qx.4	Qy.4	Qz.4	Tx.4	Ty.4	Tz.4	B5.03822.P04.CH0	Frame.5	State.5	Q0.5	Qx.5	Qy.5	Qz.5	Tx.5	Ty.5	Tz.5	B5.03822.P04.CH1	Frame.6	State.6	Q0.6	Qx.6	Qy.6	Qz.6	Tx.6	Ty.6	Tz.6	X
0	B5-03822-P01-CH0	1005816	OK	0.1803309	0.1389003	0.066646	-0.9714658	176.43	-27.198	-241.095	B5-03822-P02-CH0	1005816	OK	0.7300395	0.3741567	-0.571882	0	-87.305	-86.34	-1.16	B5-03822-P02-CH1	1005816	OK	0.7255548	-0.1926366	-0.6606523	0	-87.442	-66.077	0.891	B5-03822-P03-CH0	1005816	OK	0.7606277	-0.2440393	-0.6015732	0	-102.053	-47.091	8.247	B5-03822-P03-CH1	1005816	OK	0.7629947	-0.646112	-0.0194523	0	-102.239	-12.233	1.798	B5-03822-P04-CH0	1005816	OK	0.8342006	-0.2943277	0.4663481	0	-126.356	-29.997	13.58	B5-03822-P04-CH1	1005816	OK	0.7891282	-0.6132496	0.0346653	0	-113.357	-36.937	5.139	NA
0.0099921231650555	B5-03822-P01-CH0	1005824	OK	0.1798945	0.1388757	0.0659584	-0.9715971	176.344	-27.198	-241.065	B5-03822-P02-CH0	1005824	OK	0.7304985	0.3751774	-0.5706258	0	-87.388	-86.268	-1.182	B5-03822-P02-CH1	1005824	OK	0.728327	-0.1815116	-0.6607521	0	-87.74	-66.897	2.115	B5-03822-P03-CH0	1005824	OK	0.7648983	-0.2489275	-0.5941091	0	-102.699	-47.315	7.837	B5-03822-P03-CH1	1005824	OK	0.7612459	-0.6482244	-0.0176004	0	-101.677	-11.21	1.003	B5-03822-P04-CH0	1005824	OK	0.8328889	-0.3029258	0.4631761	0	-127.109	-30.773	12.47	B5-03822-P04-CH1	1005824	OK	0.7885686	-0.6139818	0.0344366	0	-113.316	-36.93	5.133	NA
0.019984246330111	B5-03822-P01-CH0	1005832	OK	0.1799133	0.1388998	0.0662786	-0.9715684	176.337	-27.157	-241.024	B5-03822-P02-CH0	1005832	OK	0.7306269	0.3762679	-0.5697427	0	-87.44	-86.275	-1.384	B5-03822-P02-CH1	1005832	OK	0.7280564	-0.1783114	-0.6619206	0	-88.671	-67.357	2.011	B5-03822-P03-CH0	1005832	OK	0.7711838	-0.2532361	-0.584078	0	-102.977	-47.846	8.893	B5-03822-P03-CH1	1005832	OK	0.7608476	-0.6487787	-0.0140372	0	-100.391	-9.276	-0.426	B5-03822-P04-CH0	1005832	OK	0.8320554	-0.3085017	0.4609886	0	-125.911	-28.85	11.936	B5-03822-P04-CH1	1005832	OK	0.7888341	-0.6136444	0.0343697	0	-113.414	-36.847	5.069	NA
0.0299763694951665	B5-03822-P01-CH0	1005840	OK	0.1794799	0.1392722	0.0656606	-0.9716372	176.378	-27.161	-240.907	B5-03822-P02-CH0	1005840	OK	0.7311446	0.3776615	-0.5681543	0	-87.529	-86.207	-1.36	B5-03822-P02-CH1	1005840	OK	0.7287422	-0.1740258	-0.6623064	0	-88.378	-67.045	1.967	B5-03822-P03-CH0	1005840	OK	0.7776128	-0.2562518	-0.5741544	0	-103.119	-48.26	8.889	B5-03822-P03-CH1	1005840	OK	0.7581129	-0.6521042	-0.0050009	0	-102.078	-10.105	1.438	B5-03822-P04-CH0	1005840	OK	0.8305574	-0.3136378	0.4602236	0	-125.765	-29.853	12.025	B5-03822-P04-CH1	1005840	OK	0.7884464	-0.6141698	0.0338783	0	-113.389	-36.776	5.211	NA
0.039968492660222	B5-03822-P01-CH0	1005848	OK	0.1798489	0.1392651	0.0663198	-0.9715252	176.482	-27.177	-241.01	B5-03822-P02-CH0	1005848	OK	0.7336282	0.3822367	-0.5618583	0	-88.276	-87.591	-1.51	B5-03822-P02-CH1	1005848	OK	0.7284088	-0.1729858	-0.6629453	0	-88.325	-67.226	1.647	B5-03822-P03-CH0	1005848	OK	0.7833184	-0.2574969	-0.5657806	0	-104.042	-48.488	8.812	B5-03822-P03-CH1	1005848	OK	0.7595363	-0.6504648	-0.0003044	0	-101.655	-8.467	0.333	B5-03822-P04-CH0	1005848	OK	0.8306757	-0.3134157	0.4601614	0	-125.223	-29.084	11.604	B5-03822-P04-CH1	1005848	OK	0.7889892	-0.6134666	0.0339808	0	-113.42	-36.814	5.251	NA
0.0499606158252775	B5-03822-P01-CH0	1005856	OK	0.1803078	0.139162	0.0672144	-0.9713935	176.425	-27.066	-240.915	B5-03822-P02-CH0	1005856	OK	0.7332939	0.3820389	-0.5624289	0	-88.692	-88.627	-1.482	B5-03822-P02-CH1	1005856	OK	0.7278827	-0.1726423	-0.6636124	0	-88.403	-67.427	1.577	B5-03822-P03-CH0	1005856	OK	0.7900313	-0.2561546	-0.5569877	0	-104.408	-48.799	9.584	B5-03822-P03-CH1	1005856	OK	0.75763	-0.6525859	0.0113325	0	-102.211	-10.062	0.393	B5-03822-P04-CH0	1005856	OK	0.8311754	-0.3117752	0.4603735	0	-125.579	-29.989	11.563	B5-03822-P04-CH1	1005856	OK	0.7896722	-0.6125718	0.0342569	0	-113.498	-36.763	5.236	NA
0.059952738990333	B5-03822-P01-CH0	1005864	OK	0.1802601	0.1388891	0.0674592	-0.9714244	176.351	-27.111	-240.989	B5-03822-P02-CH0	1005864	OK	0.7327557	0.3839179	-0.5618506	0	-88.053	-87.929	-1.988	B5-03822-P02-CH1	1005864	OK	0.7280735	-0.1710711	-0.66381	0	-88.142	-67.887	1.491	B5-03822-P03-CH0	1005864	OK	0.7986703	-0.256317	-0.5444514	0	-103.597	-49.634	10.321	B5-03822-P03-CH1	1005864	OK	0.7583968	-0.65155	0.0177997	0	-102.757	-9.306	0.759	B5-03822-P04-CH0	1005864	OK	0.8311955	-0.3090179	0.4621926	0	-124.941	-29.766	11.62	B5-03822-P04-CH1	1005864	OK	0.789877	-0.6123168	0.0340935	0	-113.307	-36.723	5.09	NA
0.0699448621553885	B5-03822-P01-CH0	1005872	OK	0.1802102	0.1389845	0.0674848	-0.9714182	176.334	-27.035	-240.947	B5-03822-P02-CH0	1005872	OK	0.7286704	0.3847187	-0.566596	0	-89.339	-87.773	-0.284	B5-03822-P02-CH1	1005872	OK	0.7273632	-0.1693077	-0.6650396	0	-88.201	-68.27	0.898	B5-03822-P03-CH0	1005872	OK	0.8027349	-0.2550151	-0.5390585	0	-105.504	-50.045	10.09	B5-03822-P03-CH1	1005872	OK	0.7581767	-0.6516955	0.0214724	0	-101.784	-8.806	0.2	B5-03822-P04-CH0	1005872	OK	0.8323684	-0.3032671	0.4638878	0	-124.799	-29.488	12.482	B5-03822-P04-CH1	1005872	OK	0.7898328	-0.6123745	0.034082	0	-113.296	-36.646	4.825	NA
0.079936985320444	B5-03822-P01-CH0	1005880	OK	0.180309	0.1391434	0.0675348	-0.9713737	176.409	-27.018	-241.007	B5-03822-P02-CH0	1005880	OK	0.7264304	0.3849315	-0.5693213	0	-89.169	-88.276	-0.238	B5-03822-P02-CH1	1005880	OK	0.7267996	-0.1694491	-0.6656196	0	-88.256	-68.656	1.906	B5-03822-P03-CH0	1005880	OK	0.8088882	-0.2513473	-0.5315303	0	-105.719	-50.659	10.953	B5-03822-P03-CH1	1005880	OK	0.7601513	-0.6492964	0.0241696	0	-101.698	-7.413	0.834	B5-03822-P04-CH0	1005880	OK	0.8340774	-0.2983208	0.4640253	0	-125.25	-29.818	12.87	B5-03822-P04-CH1	1005880	OK	0.7898365	-0.6123702	0.0340748	0	-113.378	-36.745	4.926	NA
0.0899291084854995	B5-03822-P01-CH0	1005888	OK	0.1804673	0.1393098	0.0675781	-0.9713174	176.463	-26.995	-240.994	B5-03822-P02-CH0	1005888	OK	0.7229094	0.3843281	-0.5741898	0	-89.922	-89.274	-0.856	B5-03822-P02-CH1	1005888	OK	0.7277369	-0.1743574	-0.6633238	0	-88.233	-67.576	1.558	B5-03822-P03-CH0	1005888	OK	0.8157659	-0.2493489	-0.5218727	0	-105.529	-51.914	11.926	B5-03822-P03-CH1	1005888	OK	0.7586547	-0.6508845	0.0281492	0	-102.389	-8.941	2.055	B5-03822-P04-CH0	1005888	OK	0.835266	-0.2934707	0.4649792	0	-124.342	-29.068	13.717	B5-03822-P04-CH1	1005888	OK	0.7900403	-0.6121058	0.0340982	0	-113.453	-36.72	5.175	NA
0.099921231650555	B5-03822-P01-CH0	1005896	OK	0.1804046	0.1391973	0.0680268	-0.9713139	176.39	-26.853	-241.03	B5-03822-P02-CH0	1005896	OK	0.7205727	0.3834923	-0.5776752	0	-89.054	-89.26	-1.954	B5-03822-P02-CH1	1005896	OK	0.7276616	-0.1731205	-0.6637303	0	-88.272	-67.779	1.613	B5-03822-P03-CH0	1005896	OK	0.8229381	-0.2456744	-0.5122666	0	-105.656	-52.217	11.364	B5-03822-P03-CH1	1005896	OK	0.7600469	-0.649484	0.0223453	0	-101.615	-7.11	-0.697	B5-03822-P04-CH0	1005896	OK	0.8371475	-0.2873537	0.4654158	0	-123.83	-28.164	14.82	B5-03822-P04-CH1	1005896	OK	0.7904727	-0.6115573	0.0339205	0	-113.504	-36.508	5.333	NA
0.10991335481561	B5-03822-P01-CH0	1005904	OK	0.1808955	0.1391268	0.0691812	-0.9711511	176.416	-26.815	-241.079	B5-03822-P02-CH0	1005904	OK	0.7154598	0.3830728	-0.5842709	0	-89.317	-89.845	-1.418	B5-03822-P02-CH1	1005904	OK	0.7274277	-0.1729416	-0.6640332	0	-88.383	-68.12	1.461	B5-03822-P03-CH0	1005904	OK	0.8317033	-0.2427297	-0.4993515	0	-105.852	-53.51	12.612	B5-03822-P03-CH1	1005904	OK	0.7592163	-0.6504708	0.0218718	0	-102.876	-9.289	2.763	B5-03822-P04-CH0	1005904	OK	0.8386735	-0.2810744	0.4665017	0	-124.537	-28.758	13.12	B5-03822-P04-CH1	1005904	OK	0.791312	-0.6104509	0.0342783	0	-113.573	-36.639	5.709	NA
0.119905477980666	B5-03822-P01-CH0	1005912	OK	0.1809171	0.1391041	0.0691852	-0.9711501	176.395	-26.826	-241.069	B5-03822-P02-CH0	1005912	OK	0.7110116	0.3817212	-0.5905519	0	-88.552	-89.86	-1.687	B5-03822-P02-CH1	1005912	OK	0.7270623	-0.1738307	-0.6642013	0	-88.484	-68.49	1.239	B5-03822-P03-CH0	1005912	OK	0.8396418	-0.236234	-0.4890759	0	-107.624	-53.569	12.977	B5-03822-P03-CH1	1005912	OK	0.7597378	-0.650035	0.0159017	0	-102.754	-8.625	2.299	B5-03822-P04-CH0	1005912	OK	0.8404566	-0.2742485	0.4673547	0	-123.892	-28.211	14.764	B5-03822-P04-CH1	1005912	OK	0.7915024	-0.6102055	0.034251	0	-113.465	-36.542	5.691	NA
0.129897601145721	B5-03822-P01-CH0	1005920	OK	0.1808492	0.1388719	0.0691267	-0.9712001	176.32	-26.898	-241.114	B5-03822-P02-CH0	1005920	OK	0.7066452	0.378643	-0.5977308	0	-87.915	-90.726	-2.242	B5-03822-P02-CH1	1005920	OK	0.7271956	-0.1896139	-0.659722	0	-88.446	-70.182	0.996	B5-03822-P03-CH0	1005920	OK	0.8495193	-0.2324126	-0.4736046	0	-107.917	-54.425	13.56	B5-03822-P03-CH1	1005920	OK	0.7592898	-0.6506635	0.0107725	0	-102.736	-8.768	1.505	B5-03822-P04-CH0	1005920	OK	0.8412738	-0.269557	0.4686122	0	-124.155	-29.243	13.603	B5-03822-P04-CH1	1005920	OK	0.7915464	-0.6101352	0.0344869	0	-113.522	-36.608	5.752	NA
0.139889724310777	B5-03822-P01-CH0	1005928	OK	0.1803085	0.1390402	0.0680681	-0.9713513	176.326	-27.034	-241.135	B5-03822-P02-CH0	1005928	OK	0.7022123	0.3761067	-0.6045177	0	-87.815	-91.577	-2.285	B5-03822-P02-CH1	1005928	OK	0.7290528	-0.1972191	-0.6554286	0	-87.566	-70.254	1.107	B5-03822-P03-CH0	1005928	OK	0.8596963	-0.2325735	-0.4547876	0	-107.933	-55.393	13.887	B5-03822-P03-CH1	1005928	OK	0.7580866	-0.652116	0.0070299	0	-102.888	-9.524	2.266	B5-03822-P04-CH0	1005928	OK	0.842669	-0.2641451	0.4691868	0	-124.41	-29.8	14.437	B5-03822-P04-CH1	1005928	OK	0.790781	-0.6111231	0.034554	0	-113.615	-36.774	5.862	NA
0.149881847475832	B5-03822-P01-CH0	1005936	OK	0.1798197	0.139147	0.0672568	-0.9714831	176.29	-27.115	-241.068	B5-03822-P02-CH0	1005936	OK	0.6966441	0.3754653	-0.6113205	0	-87.216	-91.012	-2.467	B5-03822-P02-CH1	1005936	OK	0.7307954	-0.2068876	-0.6504888	0	-87.689	-70.951	0.961	B5-03822-P03-CH0	1005936	OK	0.869557	-0.2365319	-0.4335012	0	-107.465	-57.06	15.241	B5-03822-P03-CH1	1005936	OK	0.7582661	-0.6519389	0.0028581	0	-102.607	-9.192	2.169	B5-03822-P04-CH0	1005936	OK	0.8438007	-0.2558194	0.4717592	0	-123.692	-28.313	14.426	B5-03822-P04-CH1	1005936	OK	0.7902182	-0.6118445	0.0346631	0	-113.502	-36.72	5.47	NA
0.159873970640888	B5-03822-P01-CH0	1005944	OK	0.1796931	0.1391012	0.0670551	-0.9715271	176.242	-27.103	-241.058	B5-03822-P02-CH0	1005944	OK	0.6913494	0.3742868	-0.6180172	0	-86.261	-91.128	-3.012	B5-03822-P02-CH1	1005944	OK	0.7336466	-0.2183035	-0.6435109	0	-87.788	-71.517	0.648	B5-03822-P03-CH0	1005944	OK	0.8772758	-0.237078	-0.4173501	0	-108.805	-58.151	15.979	B5-03822-P03-CH1	1005944	OK	0.7578344	-0.6524462	-0.0009244	0	-102.562	-9.397	1.929	B5-03822-P04-CH0	1005944	OK	0.8447029	-0.2484206	0.4740931	0	-124.355	-29.954	15.724	B5-03822-P04-CH1	1005944	OK	0.7900538	-0.6120187	0.0353276	0	-113.534	-36.776	5.295	NA
0.169866093805943	B5-03822-P01-CH0	1005952	OK	0.179619	0.1392618	0.0664604	-0.9715586	176.338	-27.293	-241.096	B5-03822-P02-CH0	1005952	OK	0.6850847	0.3724619	-0.626044	0	-85.671	-91.451	-2.422	B5-03822-P02-CH1	1005952	OK	0.7367569	-0.229811	-0.6359057	0	-87.083	-72.328	0.206	B5-03822-P03-CH0	1005952	OK	0.8858866	-0.2435181	-0.3948466	0	-108.534	-60.178	16.598	B5-03822-P03-CH1	1005952	OK	0.7573109	-0.652997	-0.0086677	0	-102.385	-9.229	1.803	B5-03822-P04-CH0	1005952	OK	0.8434519	-0.2406301	0.4802979	0	-124.946	-30.521	13.871	B5-03822-P04-CH1	1005952	OK	0.7898206	-0.6122571	0.0363961	0	-113.586	-36.971	5.271	NA
0.179858216970999	B5-03822-P01-CH0	1005960	OK	0.1796235	0.1389016	0.0668695	-0.9715813	176.237	-27.309	-241.06	B5-03822-P02-CH0	1005960	OK	0.6790562	0.3699561	-0.6340467	0	-85.764	-92.694	-2.305	B5-03822-P02-CH1	1005960	OK	0.7385862	-0.2402176	-0.6299095	0	-87.286	-72.945	1.096	B5-03822-P03-CH0	1005960	OK	0.8946073	-0.2497151	-0.3705674	0	-107.921	-61.932	17.131	B5-03822-P03-CH1	1005960	OK	0.7573928	-0.6525837	-0.0221511	0	-101.962	-7.95	1.062	B5-03822-P04-CH0	1005960	OK	0.8430279	-0.2264184	0.4878921	0	-125.872	-30.641	14.365	B5-03822-P04-CH1	1005960	OK	0.7901381	-0.6117635	0.0377767	0	-113.689	-37.042	5.007	NA
0.189850340136054	B5-03822-P01-CH0	1005968	OK	0.1799453	0.1387351	0.0674995	-0.971502	176.271	-27.258	-241.141	B5-03822-P02-CH0	1005968	OK	0.6753519	0.366078	-0.6402239	0	-84.466	-92.99	-2.705	B5-03822-P02-CH1	1005968	OK	0.7426542	-0.2493776	-0.6215107	0	-87.643	-74.065	1.478	B5-03822-P03-CH0	1005968	OK	0.9001847	-0.2546802	-0.3532784	0	-108.526	-62.728	16.811	B5-03822-P03-CH1	1005968	OK	0.754011	-0.6559595	-0.0344163	0	-102.558	-9.283	2.143	B5-03822-P04-CH0	1005968	OK	0.8415959	-0.2068551	0.4989262	0	-126.152	-30.511	14.515	B5-03822-P04-CH1	1005968	OK	0.7906331	-0.6110006	0.0397176	0	-113.868	-37.19	4.92	NA
0.19984246330111	B5-03822-P01-CH0	1005976	OK	0.1799326	0.1385994	0.0672395	-0.9715417	176.291	-27.37	-241.191	B5-03822-P02-CH0	1005976	OK	0.6709049	0.3623115	-0.6470062	0	-84.533	-93.516	-2.332	B5-03822-P02-CH1	1005976	OK	0.7494749	-0.253966	-0.6113825	0	-87.309	-74.844	1.858	B5-03822-P03-CH0	1005976	OK	0.9032673	-0.263479	-0.3386548	0	-109.044	-64.047	16.682	B5-03822-P03-CH1	1005976	OK	0.7507846	-0.6589226	-0.0462981	0	-103.592	-10.652	5.223	B5-03822-P04-CH0	1005976	OK	0.8406118	-0.1865859	0.5084854	0	-127.072	-31.118	15.703	B5-03822-P04-CH1	1005976	OK	0.7909567	-0.6094718	0.0541443	0	-116.072	-39.144	6.689	NA
0.209834586466165	B5-03822-P01-CH0	1005984	OK	0.1793846	0.1386875	0.0657485	-0.9717325	176.296	-27.497	-241.208	B5-03822-P02-CH0	1005984	OK	0.6682054	0.3603767	-0.6508688	0	-85.056	-94.555	-1.646	B5-03822-P02-CH1	1005984	OK	0.7542284	-0.2561878	-0.6045721	0	-87.933	-75.521	2.618	B5-03822-P03-CH0	1005984	OK	0.9090691	-0.2741826	-0.3137152	0	-107.45	-65.808	18.497	B5-03822-P03-CH1	1005984	OK	0.7505141	-0.65778	-0.0636708	0	-102.196	-8.192	3.27	B5-03822-P04-CH0	1005984	OK	0.837723	-0.1693304	0.5191795	0	-126.563	-30.379	15.613	B5-03822-P04-CH1	1005984	OK	0.7904766	-0.6098346	0.056996	0	-116.391	-39.369	7.15	NA
0.219826709631221	B5-03822-P01-CH0	1005992	OK	0.1797444	0.1386343	0.0662133	-0.9716421	176.359	-27.477	-241.239	B5-03822-P02-CH0	1005992	OK	0.6660806	0.3575696	-0.6545843	0	-84.469	-95.301	-2.093	B5-03822-P02-CH1	1005992	OK	0.7604637	-0.2586934	-0.595628	0	-86.961	-76.267	2.591	B5-03822-P03-CH0	1005992	OK	0.9136144	-0.2805381	-0.294291	0	-107.818	-66.563	18.304	B5-03822-P03-CH1	1005992	OK	0.7512053	-0.6555488	-0.0771124	0	-101.875	-6.044	2.189	B5-03822-P04-CH0	1005992	OK	0.8359457	-0.1590327	0.525265	0	-127.172	-30.704	14.681	B5-03822-P04-CH1	1005992	OK	0.7905007	-0.609664	0.058467	0	-116.462	-39.735	6.339	NA
0.229818832796276	B5-03822-P01-CH0	1006000	OK	0.1799201	0.1386975	0.0666209	-0.9715727	176.442	-27.427	-241.244	B5-03822-P02-CH0	1006000	OK	0.6626347	0.3553609	-0.6592677	0	-83.863	-95.444	-1.717	B5-03822-P02-CH1	1006000	OK	0.7632854	-0.264994	-0.5892144	0	-86.681	-76.123	2.64	B5-03822-P03-CH0	1006000	OK	0.9163578	-0.2898681	-0.2761609	0	-108.206	-67.085	17.572	B5-03822-P03-CH1	1006000	OK	0.7475938	-0.6592982	-0.0801835	0	-103.302	-8.476	4.646	B5-03822-P04-CH0	1006000	OK	0.8372702	-0.1566314	0.5238751	0	-129.246	-31.814	15.471	B5-03822-P04-CH1	1006000	OK	0.7895968	-0.6107665	0.0591709	0	-116.395	-40.18	4.529	NA
0.239810955961332	B5-03822-P01-CH0	1006008	OK	0.1800009	0.1386815	0.0672428	-0.9715171	176.441	-27.358	-241.183	B5-03822-P02-CH0	1006008	OK	0.6595057	0.3483006	-0.6661374	0	-83.21	-95.465	-2.196	B5-03822-P02-CH1	1006008	OK	0.7649326	-0.2735147	-0.5831534	0	-86.021	-75.94	1.893	B5-03822-P03-CH0	1006008	OK	0.9182252	-0.3016493	-0.2566519	0	-108.164	-67.826	18.559	B5-03822-P03-CH1	1006008	OK	0.7501314	-0.6551321	-0.0900268	0	-102.989	-5.99	3.436	B5-03822-P04-CH0	1006008	OK	0.8360245	-0.152	0.5272183	0	-128.29	-31.431	15.273	B5-03822-P04-CH1	1006008	OK	0.7908657	-0.6091889	0.0584838	0	-117.486	-40.49	8.181	NA
0.249803079126387	B5-03822-P01-CH0	1006016	OK	0.180459	0.1384277	0.0681103	-0.9714079	176.437	-27.363	-241.222	B5-03822-P02-CH0	1006016	OK	0.6582073	0.3387962	-0.6722948	0	-81.735	-94.912	-2.555	B5-03822-P02-CH1	1006016	OK	0.7665951	-0.2799131	-0.5779105	0	-85.662	-76.333	1.951	B5-03822-P03-CH0	1006016	OK	0.919872	-0.3106398	-0.2394545	0	-107.906	-68.187	18.889	B5-03822-P03-CH1	1006016	OK	0.7473673	-0.6579674	-0.0923093	0	-103.489	-8.236	5.246	B5-03822-P04-CH0	1006016	OK	0.8362305	-0.1448355	0.5289058	0	-129.016	-31.997	14.66	B5-03822-P04-CH1	1006016	OK	0.7920359	-0.6076645	0.0585052	0	-117.089	-40.182	8.103	NA
0.259795202291443	B5-03822-P01-CH0	1006024	OK	0.1808721	0.138554	0.0687394	-0.9712687	176.543	-27.281	-241.204	B5-03822-P02-CH0	1006024	OK	0.6562295	0.3318568	-0.677668	0	-81.239	-94.502	-2.852	B5-03822-P02-CH1	1006024	OK	0.7671284	-0.2837954	-0.5753035	0	-85.689	-76.427	2.789	B5-03822-P03-CH0	1006024	OK	0.9196499	-0.3201185	-0.2275262	0	-107.778	-68.886	17.973	B5-03822-P03-CH1	1006024	OK	0.7448331	-0.6606021	-0.0939601	0	-103.703	-9.951	5.69	B5-03822-P04-CH0	1006024	OK	0.8358659	-0.1375373	0.5314242	0	-128.429	-31.514	15.647	B5-03822-P04-CH1	1006024	OK	0.7921256	-0.6078209	0.0555946	0	-116.426	-39.393	6.383	NA
0.269787325456498	B5-03822-P01-CH0	1006032	OK	0.1805894	0.1387043	0.0686257	-0.9713079	176.524	-27.178	-241.066	B5-03822-P02-CH0	1006032	OK	0.654902	0.3302492	-0.6797344	0	-81.444	-94.53	-2.115	B5-03822-P02-CH1	1006032	OK	0.7661108	-0.2859418	-0.5755967	0	-85.91	-76.342	2.115	B5-03822-P03-CH0	1006032	OK	0.9202585	-0.320521	-0.2244785	0	-108.282	-67.895	17.911	B5-03822-P03-CH1	1006032	OK	0.7430529	-0.6623795	-0.0955287	0	-103.691	-11.126	6.147	B5-03822-P04-CH0	1006032	OK	0.8360282	-0.132834	0.5323645	0	-128.672	-31.368	15.783	B5-03822-P04-CH1	1006032	OK	0.7920646	-0.6077932	0.056755	0	-116.834	-39.523	6.535	NA
0.279779448621554	B5-03822-P01-CH0	1006040	OK	0.180493	0.1390439	0.0683744	-0.971295	176.643	-27.181	-241.074	B5-03822-P02-CH0	1006040	OK	0.6552656	0.331452	-0.6787979	0	-81.505	-94.867	-2.188	B5-03822-P02-CH1	1006040	OK	0.7647185	-0.2879505	-0.5764461	0	-86.049	-76.863	2.136	B5-03822-P03-CH0	1006040	OK	0.9196783	-0.3270658	-0.2173013	0	-107.569	-68.734	18.03	B5-03822-P03-CH1	1006040	OK	0.7460736	-0.658703	-0.0973886	0	-103.534	-9.358	4.4	B5-03822-P04-CH0	1006040	OK	0.8358936	-0.1283809	0.5336668	0	-128.409	-31.354	15.497	B5-03822-P04-CH1	1006040	OK	0.791919	-0.6078713	0.0579379	0	-116.993	-39.802	6.914	NA
0.289771571786609	B5-03822-P01-CH0	1006048	OK	0.1801508	0.1391485	0.0677908	-0.9713845	176.608	-27.239	-240.964	B5-03822-P02-CH0	1006048	OK	0.6577237	0.3342048	-0.6750605	0	-81.616	-95.493	-2.342	B5-03822-P02-CH1	1006048	OK	0.7640974	-0.2876958	-0.5773961	0	-85.534	-77.343	2.503	B5-03822-P03-CH0	1006048	OK	0.9188976	-0.3311198	-0.2144457	0	-107.195	-69.041	18.186	B5-03822-P03-CH1	1006048	OK	0.7461208	-0.6589532	-0.0953123	0	-103.608	-10.705	5.448	B5-03822-P04-CH0	1006048	OK	0.8367474	-0.1264674	0.532785	0	-128.518	-30.971	15.578	B5-03822-P04-CH1	1006048	OK	0.7914969	-0.6083582	0.0585917	0	-117.093	-40.033	7.082	NA
0.299763694951665	B5-03822-P01-CH0	1006056	OK	0.1804145	0.1391251	0.068575	-0.9712838	176.605	-27.084	-240.944	B5-03822-P02-CH0	1006056	OK	0.661247	0.3366215	-0.6704016	0	-81.733	-95.326	-2.188	B5-03822-P02-CH1	1006056	OK	0.7631294	-0.2854702	-0.5797761	0	-85.287	-77.176	2.083	B5-03822-P03-CH0	1006056	OK	0.9184736	-0.332488	-0.2141447	0	-107.364	-68.971	17.852	B5-03822-P03-CH1	1006056	OK	0.7519238	-0.6524129	-0.0946997	0	-103.001	-8.651	4.937	B5-03822-P04-CH0	1006056	OK	0.8371631	-0.1252164	0.5324272	0	-127.611	-30.812	16.704	B5-03822-P04-CH1	1006056	OK	0.7920377	-0.6076087	0.0590587	0	-117.265	-40.13	7.308	NA
0.30975581811672	B5-03822-P01-CH0	1006064	OK	0.1803628	0.1392922	0.0689465	-0.9712432	176.615	-27.008	-240.79	B5-03822-P02-CH0	1006064	OK	0.6689958	0.340135	-0.6608727	0	-81.04	-95.634	-3.014	B5-03822-P02-CH1	1006064	OK	0.7615567	-0.2815689	-0.5837383	0	-85.398	-77.182	2.522	B5-03822-P03-CH0	1006064	OK	0.9184459	-0.3347038	-0.2107852	0	-107.119	-68.902	17.306	B5-03822-P03-CH1	1006064	OK	0.7550249	-0.6494516	-0.0902781	0	-102.88	-8.761	3.164	B5-03822-P04-CH0	1006064	OK	0.8393012	-0.1280663	0.5283679	0	-128.402	-31.669	15.734	B5-03822-P04-CH1	1006064	OK	0.7921776	-0.6074288	0.0590325	0	-117.48	-40.243	7.33	NA
0.319747941281776	B5-03822-P01-CH0	1006072	OK	0.180335	0.1392633	0.0691916	-0.9712351	176.565	-26.924	-240.749	B5-03822-P02-CH0	1006072	OK	0.6738461	0.3462691	-0.6527091	0	-82.212	-94.874	-2.32	B5-03822-P02-CH1	1006072	OK	0.7611451	-0.274922	-0.5874317	0	-85.241	-76.141	1.317	B5-03822-P03-CH0	1006072	OK	0.9182998	-0.3345171	-0.2117162	0	-107.377	-68.143	17.721	B5-03822-P03-CH1	1006072	OK	0.7564075	-0.6487464	-0.0835209	0	-103.345	-10.537	4.152	B5-03822-P04-CH0	1006072	OK	0.8415969	-0.132893	0.5235018	0	-128.901	-32.566	16.388	B5-03822-P04-CH1	1006072	OK	0.7923379	-0.6072303	0.0589232	0	-117.388	-40.205	7.353	NA
0.329740064446831	B5-03822-P01-CH0	1006080	OK	0.1806328	0.1391418	0.0698068	-0.9711531	176.507	-26.805	-240.684	B5-03822-P02-CH0	1006080	OK	0.6820433	0.3533792	-0.6402656	0	-82.277	-94.595	-2.871	B5-03822-P02-CH1	1006080	OK	0.7605559	-0.2657154	-0.5924104	0	-84.889	-75.746	2.223	B5-03822-P03-CH0	1006080	OK	0.9181638	-0.335494	-0.2107581	0	-106.839	-67.529	17.693	B5-03822-P03-CH1	1006080	OK	0.7602819	-0.6447991	-0.0787754	0	-102.725	-10.233	3.843	B5-03822-P04-CH0	1006080	OK	0.8423226	-0.1336233	0.522147	0	-127.47	-31.395	17.038	B5-03822-P04-CH1	1006080	OK	0.7929638	-0.6064127	0.0589245	0	-117.395	-40.069	7.438	NA
0.339732187611887	B5-03822-P01-CH0	1006088	OK	0.180521	0.1391318	0.0696378	-0.9711875	176.419	-26.674	-240.568	B5-03822-P02-CH0	1006088	OK	0.6908612	0.3640527	-0.624641	0	-83.299	-95.315	-2.8	B5-03822-P02-CH1	1006088	OK	0.7580846	-0.2530831	-0.6010463	0	-84.533	-75.404	1.909	B5-03822-P03-CH0	1006088	OK	0.9170124	-0.3397597	-0.2089297	0	-105.708	-67.462	17.694	B5-03822-P03-CH1	1006088	OK	0.7618271	-0.643238	-0.076579	0	-103.142	-10.804	4.466	B5-03822-P04-CH0	1006088	OK	0.8430965	-0.1374394	0.5199026	0	-127.652	-31.477	15.941	B5-03822-P04-CH1	1006088	OK	0.7929216	-0.6064884	0.0587129	0	-117.311	-39.852	7.127	NA
0.349724310776942	B5-03822-P01-CH0	1006096	OK	0.1802304	0.1394453	0.0688194	-0.9712548	176.512	-26.7	-240.538	B5-03822-P02-CH0	1006096	OK	0.6985849	0.3794293	-0.6066404	0	-84.103	-94.238	-2.054	B5-03822-P02-CH1	1006096	OK	0.753065	-0.2345225	-0.6147294	0	-84.896	-75.063	1.119	B5-03822-P03-CH0	1006096	OK	0.9145775	-0.3436059	-0.2132675	0	-105.583	-67.263	17.254	B5-03822-P03-CH1	1006096	OK	0.7592714	-0.6464675	-0.0747447	0	-103.802	-14.053	6.099	B5-03822-P04-CH0	1006096	OK	0.8431513	-0.1407061	0.5189391	0	-127.292	-30.671	15.889	B5-03822-P04-CH1	1006096	OK	0.7924368	-0.6071681	0.0582307	0	-117.345	-39.818	7.078	NA
0.359716433941998	B5-03822-P01-CH0	1006104	OK	0.1798537	0.1395969	0.0682311	-0.9713444	176.45	-26.651	-240.404	B5-03822-P02-CH0	1006104	OK	0.7075588	0.3953279	-0.5857272	0	-85.344	-95.143	-1.979	B5-03822-P02-CH1	1006104	OK	0.7486257	-0.2106385	-0.6286422	0	-84.432	-74.898	1.025	B5-03822-P03-CH0	1006104	OK	0.912218	-0.347198	-0.217513	0	-104.645	-67.21	17.613	B5-03822-P03-CH1	1006104	OK	0.7608346	-0.6443957	-0.0767128	0	-103.499	-13.641	5.999	B5-03822-P04-CH0	1006104	OK	0.8432732	-0.1460197	0.5172703	0	-127.467	-31.281	16.81	B5-03822-P04-CH1	1006104	OK	0.7921996	-0.6075521	0.0574482	0	-117.316	-39.525	6.7	NA
0.369708557107053	B5-03822-P01-CH0	1006112	OK	0.1799766	0.1392598	0.0685835	-0.9713452	176.341	-26.577	-240.47	B5-03822-P02-CH0	1006112	OK	0.7152669	0.4119407	-0.5645336	0	-85.813	-94.183	-2.962	B5-03822-P02-CH1	1006112	OK	0.743587	-0.1845254	-0.6426731	0	-84.45	-75.331	1.254	B5-03822-P03-CH0	1006112	OK	0.9117865	-0.3436088	-0.2248964	0	-103.527	-65.758	18.044	B5-03822-P03-CH1	1006112	OK	0.7633404	-0.641466	-0.076373	0	-103.526	-13.184	6.265	B5-03822-P04-CH0	1006112	OK	0.8431377	-0.1512645	0.5159825	0	-127.358	-31.332	16.511	B5-03822-P04-CH1	1006112	OK	0.792412	-0.6072993	0.0571902	0	-117.14	-39.478	6.622	NA
0.379700680272109	B5-03822-P01-CH0	1006120	OK	0.1800706	0.1390781	0.0687537	-0.9713417	176.225	-26.496	-240.392	B5-03822-P02-CH0	1006120	OK	0.7248901	0.4274651	-0.5401925	0	-86.142	-93.882	-2.968	B5-03822-P02-CH1	1006120	OK	0.7402953	-0.1556106	-0.6540246	0	-83.542	-74.717	0.768	B5-03822-P03-CH0	1006120	OK	0.9101531	-0.3420396	-0.233731	0	-103.095	-64.883	17.958	B5-03822-P03-CH1	1006120	OK	0.7649066	-0.6398702	-0.0740539	0	-102.29	-13.186	4.491	B5-03822-P04-CH0	1006120	OK	0.8444732	-0.1582121	0.5116971	0	-128.688	-31.602	15.389	B5-03822-P04-CH1	1006120	OK	0.7927766	-0.606893	0.0564456	0	-117.135	-39.198	6.601	NA
0.389692803437164	B5-03822-P01-CH0	1006128	OK	0.1801088	0.1390185	0.0687183	-0.9713457	176.169	-26.464	-240.352	B5-03822-P02-CH0	1006128	OK	0.7355446	0.442191	-0.5132653	0	-85.836	-92.77	-4.412	B5-03822-P02-CH1	1006128	OK	0.7348447	-0.1258969	-0.6664482	0	-83.523	-74.593	1.541	B5-03822-P03-CH0	1006128	OK	0.9075205	-0.3427553	-0.2427455	0	-102.137	-64.447	17.743	B5-03822-P03-CH1	1006128	OK	0.7670496	-0.6379129	-0.0685722	0	-102.651	-13.133	3.944	B5-03822-P04-CH0	1006128	OK	0.8446144	-0.1660316	0.5089794	0	-127.663	-30.258	16.453	B5-03822-P04-CH1	1006128	OK	0.792755	-0.6069739	0.055877	0	-117.012	-39.067	6.281	NA
0.39968492660222	B5-03822-P01-CH0	1006136	OK	0.1796627	0.1392358	0.0675023	-0.9714824	176.13	-26.537	-240.237	B5-03822-P02-CH0	1006136	OK	0.7442727	0.4502392	-0.4932979	0	-88.318	-93.598	-1.45	B5-03822-P02-CH1	1006136	OK	0.7289091	-0.0981623	-0.6775365	0	-82.732	-74.204	0.662	B5-03822-P03-CH0	1006136	OK	0.9022889	-0.3457782	-0.2575117	0	-101.52	-63.994	17.767	B5-03822-P03-CH1	1006136	OK	0.7680306	-0.6373633	-0.0624267	0	-102.271	-13.26	5.198	B5-03822-P04-CH0	1006136	OK	0.8443364	-0.1794547	0.5048683	0	-127.551	-30.921	16.217	B5-03822-P04-CH1	1006136	OK	0.7920807	-0.6079579	0.0547288	0	-116.835	-38.829	6.085	NA
0.409677049767275	B5-03822-P01-CH0	1006144	OK	0.1797094	0.1391847	0.0673892	-0.971489	176.136	-26.528	-240.28	B5-03822-P02-CH0	1006144	OK	0.7526316	0.456357	-0.4746409	0	-90.002	-93.28	0.225	B5-03822-P02-CH1	1006144	OK	0.7240792	-0.0714114	-0.68601	0	-81.971	-74.257	0.053	B5-03822-P03-CH0	1006144	OK	0.8970898	-0.3487514	-0.2712977	0	-100.463	-63.069	17.087	B5-03822-P03-CH1	1006144	OK	0.7696182	-0.6360186	-0.0562867	0	-100.856	-12.613	2.196	B5-03822-P04-CH0	1006144	OK	0.844844	-0.1888928	0.5005577	0	-127.774	-30.93	15.982	B5-03822-P04-CH1	1006144	OK	0.7921257	-0.6079696	0.0539422	0	-116.696	-38.711	6.271	NA
0.419669172932331	B5-03822-P01-CH0	1006152	OK	0.1797209	0.1393588	0.067099	-0.971482	176.198	-26.461	-240.257	B5-03822-P02-CH0	1006152	OK	0.7608906	0.4628091	-0.4548113	0	-90.208	-91.612	-0.526	B5-03822-P02-CH1	1006152	OK	0.7192895	-0.0460623	-0.6931817	0	-82.744	-73.775	1.282	B5-03822-P03-CH0	1006152	OK	0.8920066	-0.3523947	-0.2830941	0	-99.362	-62.841	16.902	B5-03822-P03-CH1	1006152	OK	0.7699543	-0.6360592	-0.0509823	0	-101.696	-12.867	3.402	B5-03822-P04-CH0	1006152	OK	0.8458259	-0.1990817	0.4949192	0	-128.448	-31.655	17.074	B5-03822-P04-CH1	1006152	OK	0.7918914	-0.6083225	0.0534022	0	-116.762	-38.742	6.524	NA
0.429661296097386	B5-03822-P01-CH0	1006160	OK	0.1796523	0.1391914	0.066439	-0.971564	176.095	-26.521	-240.228	B5-03822-P02-CH0	1006160	OK	0.7673468	0.4652962	-0.4412237	0	-91.723	-91.196	1.713	B5-03822-P02-CH1	1006160	OK	0.7181457	-0.0266621	-0.6953818	0	-82.869	-73.264	1.503	B5-03822-P03-CH0	1006160	OK	0.8881978	-0.3475973	-0.3004675	0	-99.898	-61.115	16.625	B5-03822-P03-CH1	1006160	OK	0.7699398	-0.636354	-0.0473944	0	-101.427	-12.691	2.756	B5-03822-P04-CH0	1006160	OK	0.8444532	-0.2093785	0.4930105	0	-127.955	-31.145	15.171	B5-03822-P04-CH1	1006160	OK	0.7915469	-0.6088197	0.0528399	0	-116.532	-38.596	6.309	NA
0.439653419262442	B5-03822-P01-CH0	1006168	OK	0.1800729	0.139248	0.0667315	-0.971458	176.144	-26.496	-240.205	B5-03822-P02-CH0	1006168	OK	0.7732151	0.4697667	-0.4259786	0	-91.429	-89.46	0.017	B5-03822-P02-CH1	1006168	OK	0.7180389	-0.010813	-0.695919	0	-83.244	-73.373	0.535	B5-03822-P03-CH0	1006168	OK	0.8843021	-0.344385	-0.3152915	0	-99.93	-60.42	16.036	B5-03822-P03-CH1	1006168	OK	0.7695556	-0.6372336	-0.041444	0	-101.877	-13.59	3.782	B5-03822-P04-CH0	1006168	OK	0.8451265	-0.2157665	0.489087	0	-128.961	-32.048	15.898	B5-03822-P04-CH1	1006168	OK	0.7917484	-0.60857	0.052698	0	-116.543	-38.697	6.634	NA
0.449645542427497	B5-03822-P01-CH0	1006176	OK	0.179902	0.1392904	0.0663946	-0.9715067	176.099	-26.345	-240.144	B5-03822-P02-CH0	1006176	OK	0.7778512	0.4695364	-0.4177116	0	-92.538	-88.824	0.785	B5-03822-P02-CH1	1006176	OK	0.7189853	0.0011245	-0.6950244	0	-83.549	-72.555	1.103	B5-03822-P03-CH0	1006176	OK	0.8790616	-0.3413137	-0.3327996	0	-100.015	-59.542	15.795	B5-03822-P03-CH1	1006176	OK	0.7686054	-0.6386021	-0.0378567	0	-101.843	-14.117	5.15	B5-03822-P04-CH0	1006176	OK	0.8447428	-0.2210214	0.4874004	0	-128.581	-30.882	16.335	B5-03822-P04-CH1	1006176	OK	0.7915072	-0.6089389	0.0520557	0	-116.528	-38.521	6.874	NA
0.459637665592553	B5-03822-P01-CH0	1006184	OK	0.1803465	0.1388852	0.0671562	-0.9714299	175.995	-26.269	-240.195	B5-03822-P02-CH0	1006184	OK	0.7804386	0.4659261	-0.4169275	0	-94.259	-88.752	4.392	B5-03822-P02-CH1	1006184	OK	0.7208283	0.0083768	-0.693063	0	-83.957	-72.115	1.032	B5-03822-P03-CH0	1006184	OK	0.8734933	-0.336731	-0.3515987	0	-100.223	-58.674	15.967	B5-03822-P03-CH1	1006184	OK	0.7706451	-0.6363072	-0.0349172	0	-101.615	-12.926	3.78	B5-03822-P04-CH0	1006184	OK	0.8446633	-0.2254466	0.4855078	0	-128.965	-31.583	16.637	B5-03822-P04-CH1	1006184	OK	0.7917886	-0.6085751	0.0520312	0	-116.243	-38.578	6.756	NA
0.469629788757608	B5-03822-P01-CH0	1006192	OK	0.1806779	0.1389886	0.0672747	-0.9713453	176.03	-26.242	-240.143	B5-03822-P02-CH0	1006192	OK	0.7853615	0.463028	-0.4108679	0	-93.944	-88.252	2.864	B5-03822-P02-CH1	1006192	OK	0.723469	0.0077669	-0.6903132	0	-84.023	-72.464	0.371	B5-03822-P03-CH0	1006192	OK	0.8659792	-0.3331779	-0.3729242	0	-99.956	-57.67	15.391	B5-03822-P03-CH1	1006192	OK	0.7715731	-0.6352658	-0.033351	0	-101.829	-12.466	3.832	B5-03822-P04-CH0	1006192	OK	0.8434974	-0.2297345	0.4855246	0	-128.219	-30.183	15.668	B5-03822-P04-CH1	1006192	OK	0.7919274	-0.6084216	0.0517122	0	-116.097	-38.502	6.774	NA
0.479621911922664	B5-03822-P01-CH0	1006200	OK	0.1801278	0.1392509	0.0658242	-0.9715093	176.025	-26.313	-240.041	B5-03822-P02-CH0	1006200	OK	0.7880646	0.4595868	-0.4095537	0	-95.076	-87.913	3.206	B5-03822-P02-CH1	1006200	OK	0.7243913	0.0050265	-0.6893707	0	-84.742	-71.476	1.306	B5-03822-P03-CH0	1006200	OK	0.8536456	-0.3301709	-0.4028353	0	-100.147	-56.314	13.88	B5-03822-P03-CH1	1006200	OK	0.7695279	-0.6377788	-0.0326335	0	-101.835	-13.485	3.902	B5-03822-P04-CH0	1006200	OK	0.8426303	-0.2360993	0.4839745	0	-128.802	-31.28	15.88	B5-03822-P04-CH1	1006200	OK	0.790849	-0.6098858	0.0509627	0	-116.054	-38.46	6.639	NA
0.489614035087719	B5-03822-P01-CH0	1006208	OK	0.1800643	0.1392269	0.065442	-0.9715503	175.944	-26.285	-239.999	B5-03822-P02-CH0	1006208	OK	0.7893595	0.4564724	-0.4105417	0	-95.846	-88.025	5.333	B5-03822-P02-CH1	1006208	OK	0.7259253	-0.0023197	-0.6877696	0	-85.146	-70.657	1.005	B5-03822-P03-CH0	1006208	OK	0.8392999	-0.325754	-0.4352701	0	-100.145	-55.084	13.09	B5-03822-P03-CH1	1006208	OK	0.7696264	-0.6377276	-0.0312846	0	-102.004	-13.671	4.468	B5-03822-P04-CH0	1006208	OK	0.8416825	-0.2398324	0.4837881	0	-128.4	-31.156	16.4	B5-03822-P04-CH1	1006208	OK	0.7906627	-0.610165	0.0505084	0	-116.034	-38.379	6.851	NA
0.499606158252775	B5-03822-P01-CH0	1006216	OK	0.1804266	0.1393532	0.0660146	-0.9714263	176.012	-26.288	-239.957	B5-03822-P02-CH0	1006216	OK	0.7879192	0.45377	-0.4162644	0	-97.375	-88.249	8.355	B5-03822-P02-CH1	1006216	OK	0.7273204	-0.0161006	-0.6861092	0	-85.656	-70.45	1.392	B5-03822-P03-CH0	1006216	OK	0.8270672	-0.3227472	-0.4602109	0	-99.014	-54.929	12.79	B5-03822-P03-CH1	1006216	OK	0.7685939	-0.6391083	-0.0283544	0	-102.11	-14.789	4.388	B5-03822-P04-CH0	1006216	OK	0.8418274	-0.2428726	0.4820161	0	-130.106	-32.928	15.244	B5-03822-P04-CH1	1006216	OK	0.7908797	-0.6098691	0.050685	0	-116.189	-38.671	7.237	NA
0.50959828141783	B5-03822-P01-CH0	1006224	OK	0.1805249	0.1393604	0.0663845	-0.9713818	175.971	-26.197	-239.934	B5-03822-P02-CH0	1006224	OK	0.7881385	0.4472329	-0.4228717	0	-97.794	-88.646	7.799	B5-03822-P02-CH1	1006224	OK	0.7300084	-0.0333185	-0.6826255	0	-86.131	-70.13	2.074	B5-03822-P03-CH0	1006224	OK	0.8157572	-0.3079859	-0.4895763	0	-100.902	-53.226	11.801	B5-03822-P03-CH1	1006224	OK	0.7697666	-0.6377857	-0.0262449	0	-102.491	-14.2	5.278	B5-03822-P04-CH0	1006224	OK	0.841105	-0.2430099	0.4832065	0	-128.594	-30.669	15.646	B5-03822-P04-CH1	1006224	OK	0.7911183	-0.6095876	0.050347	0	-116.114	-38.463	6.965	NA
0.519590404582886	B5-03822-P01-CH0	1006232	OK	0.1805197	0.139243	0.0664797	-0.9713931	175.825	-26.166	-239.878	B5-03822-P02-CH0	1006232	OK	0.7884319	0.4373829	-0.4325175	0	-97.304	-87.782	6.169	B5-03822-P02-CH1	1006232	OK	0.7341286	-0.0559733	-0.6766995	0	-86.933	-69.755	1.428	B5-03822-P03-CH0	1006232	OK	0.8124955	-0.2965887	-0.5018826	0	-99.293	-52.629	11.715	B5-03822-P03-CH1	1006232	OK	0.7706385	-0.6363896	-0.0335343	0	-101.735	-12.707	3.286	B5-03822-P04-CH0	1006232	OK	0.8405967	-0.2451517	0.4830091	0	-129.342	-31.032	13.748	B5-03822-P04-CH1	1006232	OK	0.7912278	-0.6094941	0.0497542	0	-115.993	-38.241	6.873	NA
0.529582527747941	B5-03822-P01-CH0	1006240	OK	0.1801132	0.1397211	0.0659711	-0.9714345	175.915	-26.199	-239.866	B5-03822-P02-CH0	1006240	OK	0.7888703	0.4233434	-0.4454929	0	-97.289	-87.152	6.118	B5-03822-P02-CH1	1006240	OK	0.7383229	-0.0787776	-0.6698308	0	-87.28	-69.052	1.762	B5-03822-P03-CH0	1006240	OK	0.8037739	-0.2881693	-0.5204862	0	-102.345	-50.756	9.901	B5-03822-P03-CH1	1006240	OK	0.7699757	-0.6372805	-0.0317954	0	-101.921	-13.13	3.665	B5-03822-P04-CH0	1006240	OK	0.841703	-0.243941	0.4816937	0	-128.912	-30.647	16.912	B5-03822-P04-CH1	1006240	OK	0.7907561	-0.6101826	0.0488058	0	-115.999	-38.166	6.812	NA
0.539574650912997	B5-03822-P01-CH0	1006248	OK	0.1797501	0.1397114	0.0657949	-0.9715151	175.832	-26.278	-239.884	B5-03822-P02-CH0	1006248	OK	0.7912131	0.4048888	-0.4583087	0	-96.895	-86.89	6.45	B5-03822-P02-CH1	1006248	OK	0.7405278	-0.104383	-0.6638696	0	-88.556	-67.947	1.495	B5-03822-P03-CH0	1006248	OK	0.7965055	-0.2861657	-0.5326238	0	-101.794	-50.579	10.101	B5-03822-P03-CH1	1006248	OK	0.7700979	-0.6371743	-0.0309536	0	-101.746	-13.02	3.481	B5-03822-P04-CH0	1006248	OK	0.8418261	-0.2444939	0.481198	0	-129.563	-31.838	16.852	B5-03822-P04-CH1	1006248	OK	0.7904687	-0.6106198	0.0479872	0	-115.891	-38.135	6.674	NA
0.549566774078052	B5-03822-P01-CH0	1006256	OK	0.1798031	0.1398362	0.0663694	-0.9714483	175.786	-26.3	-239.825	B5-03822-P02-CH0	1006256	OK	0.7926892	0.3875257	-0.4706034	0	-97.056	-86.525	5.24	B5-03822-P02-CH1	1006256	OK	0.7472873	-0.1251748	-0.6526048	0	-89.005	-67.264	2.898	B5-03822-P03-CH0	1006256	OK	0.7894031	-0.2821558	-0.5451887	0	-101.312	-49.308	10.343	B5-03822-P03-CH1	1006256	OK	0.7702107	-0.637103	-0.0295848	0	-101.828	-13.364	3.58	B5-03822-P04-CH0	1006256	OK	0.8414232	-0.2438793	0.4822136	0	-128.761	-30.776	15.441	B5-03822-P04-CH1	1006256	OK	0.7906806	-0.6103887	0.0474329	0	-115.803	-38.123	6.574	NA
0.559558897243108	B5-03822-P01-CH0	1006264	OK	0.1790158	0.1403352	0.0651284	-0.9716057	175.815	-26.475	-239.754	B5-03822-P02-CH0	1006264	OK	0.7951043	0.3692069	-0.4811397	0	-96.886	-86.048	6.087	B5-03822-P02-CH1	1006264	OK	0.7560674	-0.145604	-0.6380921	0	-90.417	-67.105	3.106	B5-03822-P03-CH0	1006264	OK	0.7832994	-0.2734651	-0.5582641	0	-101.311	-48.23	10.047	B5-03822-P03-CH1	1006264	OK	0.7690367	-0.6385328	-0.0292991	0	-101.937	-13.704	3.662	B5-03822-P04-CH0	1006264	OK	0.8414624	-0.2435876	0.4822925	0	-128.477	-30.428	15.483	B5-03822-P04-CH1	1006264	OK	0.7897432	-0.6117083	0.0460287	0	-115.868	-38.102	6.794	NA
0.569551020408163	B5-03822-P01-CH0	1006272	OK	0.1785008	0.1405245	0.0647741	-0.9716968	175.811	-26.557	-239.8	B5-03822-P02-CH0	1006272	OK	0.796809	0.3489995	-0.4932492	0	-96.749	-85.721	7.116	B5-03822-P02-CH1	1006272	OK	0.7635812	-0.1610825	-0.6252969	0	-92.254	-66.549	2.548	B5-03822-P03-CH0	1006272	OK	0.7760782	-0.2586164	-0.5751698	0	-101.65	-47.47	9.347	B5-03822-P03-CH1	1006272	OK	0.7687137	-0.638931	-0.0290924	0	-101.921	-13.773	3.693	B5-03822-P04-CH0	1006272	OK	0.8412793	-0.2456689	0.4815558	0	-128.572	-30.55	15.713	B5-03822-P04-CH1	1006272	OK	0.7893527	-0.612296	0.0448989	0	-115.87	-38.059	7.063	NA
0.579543143573219	B5-03822-P01-CH0	1006280	OK	0.1786479	0.1405161	0.0657619	-0.9716046	175.731	-26.499	-239.796	B5-03822-P02-CH0	1006280	OK	0.7984028	0.3294885	-0.5039744	0	-96.379	-86.048	5.459	B5-03822-P02-CH1	1006280	OK	0.7706536	-0.1713575	-0.613783	0	-92.551	-65.196	2.045	B5-03822-P03-CH0	1006280	OK	0.7698731	-0.2444563	-0.5895222	0	-101.343	-46.028	8.701	B5-03822-P03-CH1	1006280	OK	0.7691667	-0.6384352	-0.0279848	0	-101.99	-13.914	3.776	B5-03822-P04-CH0	1006280	OK	0.8414239	-0.2462109	0.4810259	0	-128.537	-30.568	15.69	B5-03822-P04-CH1	1006280	OK	0.7898463	-0.6117105	0.0441942	0	-115.723	-37.942	7.126	NA
0.589535266738274	B5-03822-P01-CH0	1006288	OK	0.1784319	0.1407482	0.0662612	-0.9715768	175.782	-26.493	-239.862	B5-03822-P02-CH0	1006288	OK	0.7986079	0.3144201	-0.5131914	0	-95.829	-84.752	6.285	B5-03822-P02-CH1	1006288	OK	0.775751	-0.1814955	-0.6043755	0	-93.521	-65.399	3.874	B5-03822-P03-CH0	1006288	OK	0.7639821	-0.229997	-0.6028538	0	-101.551	-45.919	8.631	B5-03822-P03-CH1	1006288	OK	0.7695844	-0.6379392	-0.0278105	0	-102.024	-13.715	3.769	B5-03822-P04-CH0	1006288	OK	0.8416453	-0.246995	0.480236	0	-128.567	-30.527	15.924	B5-03822-P04-CH1	1006288	OK	0.789856	-0.6117774	0.0430814	0	-115.602	-37.825	7.008	NA
0.59952738990333	B5-03822-P01-CH0	1006296	OK	0.1780406	0.1406138	0.0663457	-0.9716623	175.633	-26.465	-239.908	B5-03822-P02-CH0	1006296	OK	0.7992972	0.2954893	-0.5232687	0	-95.615	-84.855	6.28	B5-03822-P02-CH1	1006296	OK	0.7830656	-0.1915466	-0.5917078	0	-93.344	-64.976	3.132	B5-03822-P03-CH0	1006296	OK	0.7611915	-0.2154094	-0.6117077	0	-101.162	-45.469	8.084	B5-03822-P03-CH1	1006296	OK	0.7693962	-0.6381809	-0.0274718	0	-101.998	-13.793	3.896	B5-03822-P04-CH0	1006296	OK	0.8415048	-0.2479277	0.4800015	0	-128.349	-30.222	15.891	B5-03822-P04-CH1	1006296	OK	0.7898096	-0.61194	0.0415951	0	-115.251	-37.401	6.764	NA
0.609519513068385	B5-03822-P01-CH0	1006304	OK	0.1777135	0.1408955	0.0659932	-0.9717053	175.645	-26.565	-239.876	B5-03822-P02-CH0	1006304	OK	0.8001467	0.2816561	-0.5295613	0	-94.918	-85.038	5.165	B5-03822-P02-CH1	1006304	OK	0.7875767	-0.2001953	-0.5827906	0	-93.68	-64.894	3.484	B5-03822-P03-CH0	1006304	OK	0.7583714	-0.2054146	-0.6186094	0	-101.799	-45.549	8.14	B5-03822-P03-CH1	1006304	OK	0.7688796	-0.638806	-0.027404	0	-101.954	-14	3.885	B5-03822-P04-CH0	1006304	OK	0.8415556	-0.2489226	0.4793972	0	-128.264	-30.122	15.985	B5-03822-P04-CH1	1006304	OK	0.7894304	-0.6125154	0.0403051	0	-115.153	-37.271	6.797	NA
0.619511636233441	B5-03822-P01-CH0	1006312	OK	0.1772665	0.1409803	0.0653068	-0.971821	175.618	-26.783	-239.861	B5-03822-P02-CH0	1006312	OK	0.7994702	0.2711433	-0.5360306	0	-94.328	-84.625	4.722	B5-03822-P02-CH1	1006312	OK	0.7906972	-0.2099062	-0.5750977	0	-94.1	-65.19	4.08	B5-03822-P03-CH0	1006312	OK	0.7569661	-0.195898	-0.623399	0	-101.978	-45.783	8.292	B5-03822-P03-CH1	1006312	OK	0.7684913	-0.639255	-0.0278239	0	-101.769	-13.902	3.615	B5-03822-P04-CH0	1006312	OK	0.8412033	-0.2502802	0.4793087	0	-128.15	-30.238	15.789	B5-03822-P04-CH1	1006312	OK	0.7889789	-0.6131896	0.0388695	0	-115.083	-37.11	6.73	NA
0.629503759398496	B5-03822-P01-CH0	1006320	OK	0.1776262	0.1408517	0.0662021	-0.9717134	175.596	-26.728	-239.877	B5-03822-P02-CH0	1006320	OK	0.7984317	0.2611869	-0.5424834	0	-93.525	-84.827	3.469	B5-03822-P02-CH1	1006320	OK	0.793093	-0.2179104	-0.5687869	0	-94.452	-64.89	4.002	B5-03822-P03-CH0	1006320	OK	0.7565402	-0.1915472	-0.6252652	0	-102.149	-45.825	8.681	B5-03822-P03-CH1	1006320	OK	0.7691333	-0.6385021	-0.0273687	0	-101.699	-13.737	3.539	B5-03822-P04-CH0	1006320	OK	0.8413746	-0.2502129	0.4790431	0	-128.038	-30.115	15.696	B5-03822-P04-CH1	1006320	OK	0.789542	-0.6125084	0.0381701	0	-115.101	-37.004	7.002	NA
0.639495882563552	B5-03822-P01-CH0	1006328	OK	0.177182	0.1409586	0.0656283	-0.971818	175.568	-26.755	-239.819	B5-03822-P02-CH0	1006328	OK	0.7973621	0.2522105	-0.5482733	0	-92.786	-84.285	4.811	B5-03822-P02-CH1	1006328	OK	0.7954565	-0.2251888	-0.5626179	0	-94.138	-64.782	4.297	B5-03822-P03-CH0	1006328	OK	0.756663	-0.190706	-0.6253737	0	-101.822	-45.204	8.729	B5-03822-P03-CH1	1006328	OK	0.7684117	-0.6393733	-0.0272984	0	-101.738	-13.81	3.638	B5-03822-P04-CH0	1006328	OK	0.8410502	-0.2518107	0.4787755	0	-127.833	-29.775	15.566	B5-03822-P04-CH1	1006328	OK	0.789112	-0.6131533	0.0366778	0	-114.985	-36.709	7.095	NA
0.649488005728607	B5-03822-P01-CH0	1006336	OK	0.1769891	0.1408618	0.0655477	-0.9718726	175.532	-26.808	-239.81	B5-03822-P02-CH0	1006336	OK	0.7949798	0.2437999	-0.5554896	0	-92.955	-84.587	4.771	B5-03822-P02-CH1	1006336	OK	0.7952408	-0.23171	-0.5602701	0	-95.024	-64.959	4.393	B5-03822-P03-CH0	1006336	OK	0.7565494	-0.1932931	-0.6247166	0	-101.402	-45.637	9.452	B5-03822-P03-CH1	1006336	OK	0.7682536	-0.6395667	-0.0272175	0	-101.682	-13.759	3.652	B5-03822-P04-CH0	1006336	OK	0.8408606	-0.2530956	0.4784308	0	-127.624	-29.569	15.616	B5-03822-P04-CH1	1006336	OK	0.7889364	-0.6134484	0.0355018	0	-114.78	-36.53	6.967	NA
0.659480128893663	B5-03822-P01-CH0	1006344	OK	0.1773266	0.1408066	0.0660283	-0.9717865	175.561	-26.78	-239.81	B5-03822-P02-CH0	1006344	OK	0.7919668	0.2388334	-0.5619139	0	-92.818	-84.168	4.295	B5-03822-P02-CH1	1006344	OK	0.7965824	-0.2384231	-0.5555276	0	-94.634	-65.062	4.31	B5-03822-P03-CH0	1006344	OK	0.7546171	-0.1970609	-0.6258754	0	-102.139	-45.383	8.956	B5-03822-P03-CH1	1006344	OK	0.768733	-0.6390136	-0.0266682	0	-101.597	-13.548	3.55	B5-03822-P04-CH0	1006344	OK	0.8408931	-0.253719	0.4780434	0	-127.559	-29.496	15.525	B5-03822-P04-CH1	1006344	OK	0.789302	-0.6130154	0.0348501	0	-114.632	-36.28	6.852	NA
0.669472252058718	B5-03822-P01-CH0	1006352	OK	0.1774931	0.1408065	0.0661875	-0.9717453	175.555	-26.788	-239.729	B5-03822-P02-CH0	1006352	OK	0.7896075	0.2346809	-0.5669611	0	-91.868	-83.993	2.942	B5-03822-P02-CH1	1006352	OK	0.7968295	-0.2444087	-0.5525642	0	-94.75	-64.885	4.688	B5-03822-P03-CH0	1006352	OK	0.7536505	-0.2008784	-0.6258265	0	-102.268	-44.503	7.659	B5-03822-P03-CH1	1006352	OK	0.7688363	-0.6389019	-0.0263633	0	-101.504	-13.383	3.227	B5-03822-P04-CH0	1006352	OK	0.8409574	-0.2547428	0.4773853	0	-127.493	-29.35	15.324	B5-03822-P04-CH1	1006352	OK	0.789376	-0.6129624	0.0340961	0	-114.645	-36.115	6.675	NA
0.679464375223774	B5-03822-P01-CH0	1006360	OK	0.1778181	0.1409243	0.0666904	-0.9716344	175.704	-26.79	-239.757	B5-03822-P02-CH0	1006360	OK	0.7883345	0.2329026	-0.5694604	0	-90.028	-83.488	1.909	B5-03822-P02-CH1	1006360	OK	0.7988566	-0.2511063	-0.5466021	0	-93.549	-64.329	3.918	B5-03822-P03-CH0	1006360	OK	0.7537105	-0.2031926	-0.6250066	0	-101.404	-44.086	7.616	B5-03822-P03-CH1	1006360	OK	0.7692276	-0.6384441	-0.0260388	0	-101.463	-13.259	3.121	B5-03822-P04-CH0	1006360	OK	0.8411821	-0.2553251	0.476678	0	-127.556	-29.36	15.309	B5-03822-P04-CH1	1006360	OK	0.7896541	-0.6126366	0.0335095	0	-114.816	-36.19	7.06	NA
0.689456498388829	B5-03822-P01-CH0	1006368	OK	0.1776634	0.1409997	0.0657449	-0.9717162	175.738	-26.927	-239.731	B5-03822-P02-CH0	1006368	OK	0.7854263	0.2286142	-0.5751879	0	-90.753	-84.619	2.95	B5-03822-P02-CH1	1006368	OK	0.7994176	-0.2579478	-0.5425813	0	-93.083	-64.572	3.964	B5-03822-P03-CH0	1006368	OK	0.751084	-0.2074147	-0.6267791	0	-102.309	-44.658	7.374	B5-03822-P03-CH1	1006368	OK	0.7685854	-0.6392168	-0.0260441	0	-101.366	-13.263	2.948	B5-03822-P04-CH0	1006368	OK	0.840871	-0.2571272	0.4762578	0	-127.484	-29.268	15.288	B5-03822-P04-CH1	1006368	OK	0.7890554	-0.6134532	0.0326612	0	-114.866	-36.219	7.394	NA
0.699448621553885	B5-03822-P01-CH0	1006376	OK	0.1779686	0.1412407	0.0657537	-0.9716248	175.89	-26.951	-239.683	B5-03822-P02-CH0	1006376	OK	0.7848453	0.2285949	-0.5759881	0	-89.98	-83.891	1.75	B5-03822-P02-CH1	1006376	OK	0.7994028	-0.2627198	-0.5403087	0	-93.55	-65.232	4.375	B5-03822-P03-CH0	1006376	OK	0.7498626	-0.2101129	-0.6273426	0	-102.44	-44.575	7.375	B5-03822-P03-CH1	1006376	OK	0.7686603	-0.6391403	-0.0257094	0	-101.441	-13.214	2.969	B5-03822-P04-CH0	1006376	OK	0.8409842	-0.2581123	0.4755247	0	-127.685	-29.408	15.242	B5-03822-P04-CH1	1006376	OK	0.7891107	-0.6134007	0.0323101	0	-114.93	-36.237	7.618	NA
0.70944074471894	B5-03822-P01-CH0	1006384	OK	0.1783696	0.1410847	0.0661098	-0.9715497	175.943	-26.911	-239.753	B5-03822-P02-CH0	1006384	OK	0.7841557	0.2274224	-0.5773897	0	-89.689	-84.121	1.118	B5-03822-P02-CH1	1006384	OK	0.8001632	-0.2615031	-0.5397731	0	-93.649	-64.659	4.031	B5-03822-P03-CH0	1006384	OK	0.7505335	-0.2112345	-0.6261624	0	-101.642	-44.588	8.223	B5-03822-P03-CH1	1006384	OK	0.7690022	-0.6387417	-0.0253887	0	-101.356	-13.103	2.942	B5-03822-P04-CH0	1006384	OK	0.8410425	-0.2586238	0.4751434	0	-127.677	-29.326	15.387	B5-03822-P04-CH1	1006384	OK	0.7892842	-0.6131821	0.0322199	0	-114.997	-36.328	7.92	NA
0.719432867883996	B5-03822-P01-CH0	1006392	OK	0.1785324	0.1412718	0.0663295	-0.9714777	176.033	-26.806	-239.682	B5-03822-P02-CH0	1006392	OK	0.782661	0.2294381	-0.5786189	0	-89.497	-83.943	1.273	B5-03822-P02-CH1	1006392	OK	0.798394	-0.2606501	-0.542797	0	-94.175	-64.271	3.443	B5-03822-P03-CH0	1006392	OK	0.7506005	-0.2132876	-0.6253856	0	-101.549	-44.262	7.764	B5-03822-P03-CH1	1006392	OK	0.7690165	-0.6387316	-0.0252087	0	-101.498	-13.087	3.072	B5-03822-P04-CH0	1006392	OK	0.8412876	-0.2594938	0.4742342	0	-127.856	-29.269	15.54	B5-03822-P04-CH1	1006392	OK	0.7891285	-0.6133941	0.0319991	0	-115.047	-36.445	8.057	NA
0.729424991049051	B5-03822-P01-CH0	1006400	OK	0.1781353	0.1415473	0.0654274	-0.9715716	176.103	-26.844	-239.615	B5-03822-P02-CH0	1006400	OK	0.7800819	0.2313361	-0.5813396	0	-89.762	-83.917	2.629	B5-03822-P02-CH1	1006400	OK	0.7964704	-0.2618946	-0.5450193	0	-93.483	-64.905	4.451	B5-03822-P03-CH0	1006400	OK	0.7512203	-0.2178868	-0.6230517	0	-101.118	-44.058	7.579	B5-03822-P03-CH1	1006400	OK	0.7684077	-0.6394408	-0.0257903	0	-101.537	-12.967	2.974	B5-03822-P04-CH0	1006400	OK	0.8410271	-0.261488	0.4736005	0	-127.914	-29.148	15.473	B5-03822-P04-CH1	1006400	OK	0.7885673	-0.6141663	0.0310051	0	-114.96	-36.233	7.959	NA
0.739417114214107	B5-03822-P01-CH0	1006408	OK	0.1783047	0.1414424	0.0653271	-0.9715626	176.144	-26.839	-239.744	B5-03822-P02-CH0	1006408	OK	0.7776131	0.2326662	-0.5841098	0	-89.925	-84.516	2.211	B5-03822-P02-CH1	1006408	OK	0.7952336	-0.2634402	-0.5460795	0	-92.685	-64.704	3.65	B5-03822-P03-CH0	1006408	OK	0.7516786	-0.2242679	-0.6202283	0	-101.089	-44.418	8.206	B5-03822-P03-CH1	1006408	OK	0.7684235	-0.6394285	-0.0256213	0	-101.562	-12.985	3.09	B5-03822-P04-CH0	1006408	OK	0.8410114	-0.2622574	0.4732028	0	-127.85	-29.004	15.638	B5-03822-P04-CH1	1006408	OK	0.788382	-0.6144065	0.0309595	0	-114.926	-36.37	8.101	NA
0.749409237379162	B5-03822-P01-CH0	1006416	OK	0.1782138	0.1415549	0.0645893	-0.9716122	176.206	-26.836	-239.796	B5-03822-P02-CH0	1006416	OK	0.7754793	0.2348856	-0.5860551	0	-89.574	-84.192	1.903	B5-03822-P02-CH1	1006416	OK	0.7933347	-0.2640553	-0.5485388	0	-93.011	-64.708	4.113	B5-03822-P03-CH0	1006416	OK	0.7511718	-0.228949	-0.619131	0	-101.689	-44.541	8.139	B5-03822-P03-CH1	1006416	OK	0.7678713	-0.6400857	-0.0257695	0	-101.519	-13.073	3.136	B5-03822-P04-CH0	1006416	OK	0.8408502	-0.2635817	0.4727532	0	-127.973	-29.007	15.73	B5-03822-P04-CH1	1006416	OK	0.7880319	-0.6148804	0.0304597	0	-114.99	-36.234	8.152	NA
0.759401360544218	B5-03822-P01-CH0	1006424	OK	0.1786512	0.1413906	0.0651143	-0.9715207	176.224	-26.772	-239.831	B5-03822-P02-CH0	1006424	OK	0.774689	0.2381436	-0.5857854	0	-88.214	-83.863	0.418	B5-03822-P02-CH1	1006424	OK	0.7922789	-0.2640581	-0.5500613	0	-93.274	-64.432	3.984	B5-03822-P03-CH0	1006424	OK	0.7523257	-0.2321267	-0.6165413	0	-101.352	-45.137	9.024	B5-03822-P03-CH1	1006424	OK	0.7682224	-0.6396693	-0.0256407	0	-101.539	-13.136	3.083	B5-03822-P04-CH0	1006424	OK	0.840956	-0.2635575	0.4725786	0	-128.048	-29.064	15.598	B5-03822-P04-CH1	1006424	OK	0.7884847	-0.6142968	0.030519	0	-114.853	-36.132	7.901	NA
0.769393483709273	B5-03822-P01-CH0	1006432	OK	0.1789721	0.141457	0.0653637	-0.9714353	176.301	-26.711	-239.844	B5-03822-P02-CH0	1006432	OK	0.7718344	0.2413784	-0.5882246	0	-88.162	-83.873	1.225	B5-03822-P02-CH1	1006432	OK	0.7910471	-0.2632101	-0.5522363	0	-93.128	-64.613	3.53	B5-03822-P03-CH0	1006432	OK	0.7533795	-0.2328967	-0.6149622	0	-101.234	-44.526	7.914	B5-03822-P03-CH1	1006432	OK	0.7683122	-0.639573	-0.0253521	0	-101.723	-13.398	3.524	B5-03822-P04-CH0	1006432	OK	0.8410083	-0.2636367	0.4724412	0	-128.217	-29.198	15.581	B5-03822-P04-CH1	1006432	OK	0.7887693	-0.6139301	0.0305409	0	-114.843	-36.091	7.969	NA
0.779385606874329	B5-03822-P01-CH0	1006440	OK	0.17905	0.141383	0.0650205	-0.9714547	176.294	-26.742	-239.846	B5-03822-P02-CH0	1006440	OK	0.7694943	0.2466749	-0.5890926	0	-87.552	-83.956	1.014	B5-03822-P02-CH1	1006440	OK	0.7892545	-0.2604438	-0.5560992	0	-92.978	-64.889	3.61	B5-03822-P03-CH0	1006440	OK	0.7528664	-0.2348638	-0.6148424	0	-101.789	-44.533	7.704	B5-03822-P03-CH1	1006440	OK	0.767751	-0.6402601	-0.0250103	0	-101.86	-13.869	3.911	B5-03822-P04-CH0	1006440	OK	0.8407091	-0.2642012	0.4726584	0	-128.13	-29.139	15.475	B5-03822-P04-CH1	1006440	OK	0.7886705	-0.6140538	0.0306068	0	-114.699	-35.982	7.632	NA
0.789377730039384	B5-03822-P01-CH0	1006448	OK	0.1794938	0.1414141	0.0660052	-0.9713019	176.344	-26.546	-239.779	B5-03822-P02-CH0	1006448	OK	0.7658601	0.2527414	-0.591253	0	-87.726	-83.849	1.054	B5-03822-P02-CH1	1006448	OK	0.788246	-0.2574846	-0.5589006	0	-92.285	-65.206	4.766	B5-03822-P03-CH0	1006448	OK	0.7530869	-0.2397119	-0.6126975	0	-101.543	-44.721	8.082	B5-03822-P03-CH1	1006448	OK	0.7682795	-0.6396351	-0.0247688	0	-101.939	-13.892	3.86	B5-03822-P04-CH0	1006448	OK	0.8409942	-0.2637502	0.4724031	0	-128.317	-29.206	15.349	B5-03822-P04-CH1	1006448	OK	0.7894382	-0.6130579	0.0307773	0	-114.765	-35.769	7.269	NA
0.79936985320444	B5-03822-P01-CH0	1006456	OK	0.1793655	0.1414709	0.0657755	-0.9713329	176.357	-26.524	-239.744	B5-03822-P02-CH0	1006456	OK	0.7637736	0.2583859	-0.5915121	0	-87.434	-83.499	0.439	B5-03822-P02-CH1	1006456	OK	0.7865803	-0.2549163	-0.5624136	0	-92.282	-64.846	4.374	B5-03822-P03-CH0	1006456	OK	0.7516798	-0.2431038	-0.6130889	0	-102.119	-44.487	7.973	B5-03822-P03-CH1	1006456	OK	0.768357	-0.6395167	-0.025414	0	-101.901	-13.641	3.704	B5-03822-P04-CH0	1006456	OK	0.8409012	-0.2642502	0.472289	0	-128.275	-29.039	15.328	B5-03822-P04-CH1	1006456	OK	0.7892052	-0.6133604	0.0307274	0	-114.88	-35.83	7.206	NA
0.809361976369495	B5-03822-P01-CH0	1006464	OK	0.179533	0.1415037	0.065734	-0.9713	176.367	-26.48	-239.698	B5-03822-P02-CH0	1006464	OK	0.7610562	0.2624384	-0.593228	0	-88.262	-83.881	0.427	B5-03822-P02-CH1	1006464	OK	0.7855285	-0.2539418	-0.5643213	0	-92.43	-64.395	3.515	B5-03822-P03-CH0	1006464	OK	0.7517191	-0.2456462	-0.6120264	0	-101.909	-44.377	8.335	B5-03822-P03-CH1	1006464	OK	0.7683627	-0.6395162	-0.0252544	0	-102.005	-13.631	3.655	B5-03822-P04-CH0	1006464	OK	0.8407972	-0.2648114	0.4721599	0	-128.381	-29.385	15.261	B5-03822-P04-CH1	1006464	OK	0.7891974	-0.6133589	0.0309564	0	-114.806	-35.803	6.948	NA
0.819354099534551	B5-03822-P01-CH0	1006472	OK	0.1797074	0.1413955	0.0658373	-0.9712765	176.418	-26.455	-239.845	B5-03822-P02-CH0	1006472	OK	0.7594713	0.2645425	-0.5943237	0	-88.346	-84.073	1.876	B5-03822-P02-CH1	1006472	OK	0.7844023	-0.254968	-0.565424	0	-92.166	-64.832	3.532	B5-03822-P03-CH0	1006472	OK	0.7516291	-0.2487557	-0.61088	0	-101.864	-44.189	8.735	B5-03822-P03-CH1	1006472	OK	0.7685988	-0.6392298	-0.0253204	0	-101.852	-13.528	3.563	B5-03822-P04-CH0	1006472	OK	0.8407479	-0.2649528	0.4721685	0	-128.245	-29.342	15.433	B5-03822-P04-CH1	1006472	OK	0.7895854	-0.6128643	0.0308589	0	-114.735	-35.576	6.771	NA
0.829346222699606	B5-03822-P01-CH0	1006480	OK	0.1800668	0.1411761	0.0659577	-0.9712337	176.343	-26.439	-239.8	B5-03822-P02-CH0	1006480	OK	0.7582974	0.2666332	-0.594888	0	-88.081	-84.564	0.146	B5-03822-P02-CH1	1006480	OK	0.7828538	-0.2556026	-0.5672806	0	-91.222	-64.738	3.503	B5-03822-P03-CH0	1006480	OK	0.7530427	-0.2545882	-0.606722	0	-101.498	-44.232	8.438	B5-03822-P03-CH1	1006480	OK	0.7685917	-0.6392601	-0.024766	0	-101.827	-13.723	3.555	B5-03822-P04-CH0	1006480	OK	0.8406872	-0.2649792	0.4722617	0	-128.136	-29.396	15.265	B5-03822-P04-CH1	1006480	OK	0.7896809	-0.6127097	0.0314771	0	-114.632	-35.713	6.781	NA
0.839338345864662	B5-03822-P01-CH0	1006488	OK	0.1803709	0.141139	0.066166	-0.9711685	176.373	-26.398	-239.75	B5-03822-P02-CH0	1006488	OK	0.7567053	0.2708334	-0.5950179	0	-87.585	-83.786	0.286	B5-03822-P02-CH1	1006488	OK	0.7795639	-0.2578382	-0.5707886	0	-91.016	-64.533	2.965	B5-03822-P03-CH0	1006488	OK	0.7540153	-0.2614815	-0.6025681	0	-101.262	-44.238	8.229	B5-03822-P03-CH1	1006488	OK	0.7688933	-0.6388937	-0.0248564	0	-101.74	-13.522	3.174	B5-03822-P04-CH0	1006488	OK	0.8407731	-0.2651229	0.4720281	0	-128.319	-29.603	14.944	B5-03822-P04-CH1	1006488	OK	0.7900383	-0.6122471	0.0315112	0	-114.588	-35.487	6.338	NA
0.849330469029717	B5-03822-P01-CH0	1006496	OK	0.18082	0.1411097	0.0670303	-0.9710299	176.426	-26.31	-239.73	B5-03822-P02-CH0	1006496	OK	0.7555697	0.2748179	-0.5946339	0	-87.099	-83.86	-0.194	B5-03822-P02-CH1	1006496	OK	0.7750478	-0.260806	-0.5755703	0	-91.438	-64.438	2.782	B5-03822-P03-CH0	1006496	OK	0.7541462	-0.2685956	-0.5992661	0	-101.301	-44.298	7.988	B5-03822-P03-CH1	1006496	OK	0.7696397	-0.6380027	-0.0246435	0	-101.853	-13.338	3.121	B5-03822-P04-CH0	1006496	OK	0.8411052	-0.2646839	0.4716826	0	-128.37	-29.677	14.783	B5-03822-P04-CH1	1006496	OK	0.7905522	-0.611565	0.0318668	0	-114.552	-35.496	6.171	NA
0.859322592194773	B5-03822-P01-CH0	1006504	OK	0.1806055	0.141039	0.0666036	-0.9711095	176.365	-26.353	-239.745	B5-03822-P02-CH0	1006504	OK	0.7545098	0.2797237	-0.5936915	0	-86.803	-83.893	-1.259	B5-03822-P02-CH1	1006504	OK	0.771905	-0.2641518	-0.5782616	0	-90.814	-64.432	2.772	B5-03822-P03-CH0	1006504	OK	0.7534943	-0.2717583	-0.59866	0	-101.64	-43.989	7.826	B5-03822-P03-CH1	1006504	OK	0.7689466	-0.6388435	-0.0244982	0	-101.819	-13.692	3.47	B5-03822-P04-CH0	1006504	OK	0.840966	-0.2654858	0.47148	0	-128.164	-29.485	14.789	B5-03822-P04-CH1	1006504	OK	0.7903508	-0.6118406	0.0315715	0	-114.58	-35.442	6.291	NA
0.869314715359828	B5-03822-P01-CH0	1006512	OK	0.1801696	0.1410232	0.0659317	-0.9712386	176.359	-26.343	-239.817	B5-03822-P02-CH0	1006512	OK	0.7526297	0.2837121	-0.5941851	0	-87.092	-84.099	-0.348	B5-03822-P02-CH1	1006512	OK	0.7692118	-0.268799	-0.579707	0	-90.331	-64.457	2.474	B5-03822-P03-CH0	1006512	OK	0.7537521	-0.2746589	-0.5970095	0	-101.148	-44.886	8.361	B5-03822-P03-CH1	1006512	OK	0.7684294	-0.6394428	-0.0250829	0	-101.676	-13.48	3.236	B5-03822-P04-CH0	1006512	OK	0.8407081	-0.2665745	0.4713257	0	-128.037	-29.291	14.866	B5-03822-P04-CH1	1006512	OK	0.7897301	-0.6126564	0.0312819	0	-114.403	-35.358	5.977	NA
0.879306838524884	B5-03822-P01-CH0	1006520	OK	0.1803049	0.141028	0.0662928	-0.9711882	176.385	-26.197	-239.875	B5-03822-P02-CH0	1006520	OK	0.7503544	0.2879994	-0.5949997	0	-86.807	-83.31	-0.127	B5-03822-P02-CH1	1006520	OK	0.7664784	-0.2716011	-0.582017	0	-90.449	-64.226	1.674	B5-03822-P03-CH0	1006520	OK	0.753546	-0.276895	-0.5962362	0	-101.496	-44.766	7.62	B5-03822-P03-CH1	1006520	OK	0.768797	-0.638988	-0.0254052	0	-101.676	-13.065	2.985	B5-03822-P04-CH0	1006520	OK	0.840946	-0.2666137	0.470879	0	-128.246	-29.411	14.837	B5-03822-P04-CH1	1006520	OK	0.7898646	-0.6124809	0.0313223	0	-114.334	-35.281	5.896	NA
0.889298961689939	B5-03822-P01-CH0	1006528	OK	0.180145	0.1408498	0.0657528	-0.9712804	176.314	-26.189	-239.96	B5-03822-P02-CH0	1006528	OK	0.7499896	0.2904124	-0.5942864	0	-86.755	-83.988	-1.023	B5-03822-P02-CH1	1006528	OK	0.7642896	-0.2730602	-0.5842084	0	-90.111	-63.906	1.56	B5-03822-P03-CH0	1006528	OK	0.7546924	-0.2776561	-0.5944296	0	-100.956	-44.075	8.04	B5-03822-P03-CH1	1006528	OK	0.7682633	-0.6396283	-0.0254397	0	-101.63	-13.113	3.169	B5-03822-P04-CH0	1006528	OK	0.8406565	-0.2674124	0.4709429	0	-128.01	-29.109	14.759	B5-03822-P04-CH1	1006528	OK	0.7894025	-0.6130786	0.0312769	0	-114.092	-35.268	5.909	NA
0.899291084854995	B5-03822-P01-CH0	1006536	OK	0.1803111	0.140634	0.0659568	-0.971267	176.28	-26.15	-240.063	B5-03822-P02-CH0	1006536	OK	0.7491828	0.2945455	-0.593269	0	-86.542	-83.969	-1.085	B5-03822-P02-CH1	1006536	OK	0.7623797	-0.2735751	-0.5864587	0	-89.35	-64.204	2.705	B5-03822-P03-CH0	1006536	OK	0.7554294	-0.2803968	-0.5922027	0	-101.106	-43.635	7.506	B5-03822-P03-CH1	1006536	OK	0.7681324	-0.6398006	-0.0250562	0	-101.559	-13.268	3.285	B5-03822-P04-CH0	1006536	OK	0.8407018	-0.267429	0.4708527	0	-127.935	-29.118	14.98	B5-03822-P04-CH1	1006536	OK	0.7895216	-0.6129234	0.031314	0	-113.944	-35.13	5.573	NA
0.90928320802005	B5-03822-P01-CH0	1006544	OK	0.1804942	0.1403702	0.0667247	-0.9712188	176.259	-26.08	-240.17	B5-03822-P02-CH0	1006544	OK	0.7484872	0.2972163	-0.5928148	0	-86.384	-84.32	-0.694	B5-03822-P02-CH1	1006544	OK	0.7584888	-0.2727472	-0.5918646	0	-89.24	-64.471	2.703	B5-03822-P03-CH0	1006544	OK	0.7567431	-0.2821652	-0.5896802	0	-100.66	-44.353	7.757	B5-03822-P03-CH1	1006544	OK	0.7685651	-0.6392819	-0.0250251	0	-101.523	-13.213	3.346	B5-03822-P04-CH0	1006544	OK	0.8409555	-0.2671255	0.4705717	0	-127.881	-28.921	14.99	B5-03822-P04-CH1	1006544	OK	0.7901528	-0.6121117	0.0312697	0	-113.982	-34.973	5.643	NA
0.919275331185106	B5-03822-P01-CH0	1006552	OK	0.180365	0.1403169	0.0666435	-0.971256	176.209	-26.057	-240.115	B5-03822-P02-CH0	1006552	OK	0.7471509	0.3019682	-0.5920986	0	-86.386	-84.06	-0.042	B5-03822-P02-CH1	1006552	OK	0.7543612	-0.2722222	-0.5973561	0	-89.153	-64.381	1.923	B5-03822-P03-CH0	1006552	OK	0.757626	-0.2862635	-0.5865629	0	-100.4	-45.044	7.458	B5-03822-P03-CH1	1006552	OK	0.7681853	-0.6397428	-0.0249077	0	-101.671	-13.368	3.495	B5-03822-P04-CH0	1006552	OK	0.8410548	-0.2674367	0.4702175	0	-127.96	-28.733	14.918	B5-03822-P04-CH1	1006552	OK	0.7898898	-0.6124482	0.0313256	0	-113.95	-34.999	5.475	NA
0.929267454350161	B5-03822-P01-CH0	1006560	OK	0.1800928	0.1404221	0.0664941	-0.9713016	176.302	-26.047	-240.245	B5-03822-P02-CH0	1006560	OK	0.74631	0.3050627	-0.5915726	0	-86.361	-84.082	-0.825	B5-03822-P02-CH1	1006560	OK	0.7500239	-0.2697273	-0.6039134	0	-89.573	-63.672	1.996	B5-03822-P03-CH0	1006560	OK	0.756167	-0.2873752	-0.5879004	0	-101.64	-44.875	8.344	B5-03822-P03-CH1	1006560	OK	0.7678955	-0.6400794	-0.0251956	0	-101.69	-13.373	3.7	B5-03822-P04-CH0	1006560	OK	0.8411517	-0.2679477	0.4697529	0	-128.122	-28.697	15.193	B5-03822-P04-CH1	1006560	OK	0.7896496	-0.6127712	0.031064	0	-113.941	-34.911	5.268	NA
0.939259577515217	B5-03822-P01-CH0	1006568	OK	0.1803562	0.1406096	0.0669193	-0.9711964	176.354	-25.916	-240.206	B5-03822-P02-CH0	1006568	OK	0.7449832	0.3074777	-0.5919945	0	-86.528	-83.661	-0.467	B5-03822-P02-CH1	1006568	OK	0.748376	-0.2682769	-0.6065978	0	-88.461	-63.237	1.267	B5-03822-P03-CH0	1006568	OK	0.7581879	-0.2878448	-0.5850612	0	-100.896	-44.475	7.752	B5-03822-P03-CH1	1006568	OK	0.7677103	-0.6403332	-0.0243768	0	-101.914	-13.677	4.144	B5-03822-P04-CH0	1006568	OK	0.8413894	-0.2677071	0.4694644	0	-128.266	-28.747	15.336	B5-03822-P04-CH1	1006568	OK	0.7899118	-0.6124144	0.0314302	0	-114.071	-34.831	5.218	NA
0.949251700680272	B5-03822-P01-CH0	1006576	OK	0.1804155	0.1402866	0.066962	-0.9712291	176.263	-25.935	-240.298	B5-03822-P02-CH0	1006576	OK	0.7454973	0.3089972	-0.5905543	0	-86.399	-84.371	-0.777	B5-03822-P02-CH1	1006576	OK	0.7464606	-0.2682098	-0.6089828	0	-88.436	-63.833	2.539	B5-03822-P03-CH0	1006576	OK	0.7587717	-0.2876092	-0.5844197	0	-101.101	-44.48	7.971	B5-03822-P03-CH1	1006576	OK	0.7677606	-0.6402777	-0.0242521	0	-101.764	-13.593	3.937	B5-03822-P04-CH0	1006576	OK	0.8412732	-0.2678269	0.4696043	0	-128.118	-28.568	15.39	B5-03822-P04-CH1	1006576	OK	0.7898667	-0.6124564	0.0317443	0	-114.054	-34.906	5.215	NA
