Wav.Time	B5.03822.P01.CH0	Frame	State	Q0	Qx	Qy	Qz	Tx	Ty	Tz	B5.03822.P02.CH0	Frame.1	State.1	Q0.1	Qx.1	Qy.1	Qz.1	Tx.1	Ty.1	Tz.1	B5.03822.P02.CH1	Frame.2	State.2	Q0.2	Qx.2	Qy.2	Qz.2	Tx.2	Ty.2	Tz.2	B5.03822.P03.CH0	Frame.3	State.3	Q0.3	Qx.3	Qy.3	Qz.3	Tx.3	Ty.3	Tz.3	B5.03822.P03.CH1	Frame.4	State.4	Q0.4	Qx.4	Qy.4	Qz.4	Tx.4	Ty.4	Tz.4	B5.03822.P04.CH0	Frame.5	State.5	Q0.5	Qx.5	Qy.5	Qz.5	Tx.5	Ty.5	Tz.5	B5.03822.P04.CH1	Frame.6	State.6	Q0.6	Qx.6	Qy.6	Qz.6	Tx.6	Ty.6	Tz.6	X
0	B5-03822-P01-CH0	1963256	OK	0.2415815	0.0209753	0.057137	-0.9684698	105.092	7.306	-243.433	B5-03822-P02-CH0	1963256	OK	0.7068333	0.4442578	-0.5504741	0	-74.061	-99.657	4.433	B5-03822-P02-CH1	1963256	OK	0.6522524	0.0110998	-0.7579206	0	-72.88	-78.345	1.467	B5-03822-P03-CH0	1963256	OK	0.8358709	-0.2892063	-0.4665614	0	-91.926	-60.062	10.02	B5-03822-P03-CH1	1963256	OK	0.8133009	-0.2983285	-0.4995415	0	-99.319	-31.517	6.425	B5-03822-P04-CH0	1963256	OK	0.7148226	-0.2335464	0.6591546	0	-121.367	-40.285	6.367	B5-03822-P04-CH1	1963256	OK	0.7355032	-0.6748712	0.0598658	0	-107.774	-48.447	2.68	NA
0.0099921329075848	B5-03822-P01-CH0	1963264	OK	0.2415732	0.0208891	0.057315	-0.9684632	105.055	7.267	-243.395	B5-03822-P02-CH0	1963264	OK	0.7065704	0.4447547	-0.5504103	0	-74.068	-99.728	4.358	B5-03822-P02-CH1	1963264	OK	0.652729	0.0131041	-0.7574782	0	-73.258	-79.028	1.377	B5-03822-P03-CH0	1963264	OK	0.8354872	-0.2886569	-0.4675879	0	-92.091	-60.324	9.677	B5-03822-P03-CH1	1963264	OK	0.8134537	-0.2981384	-0.4994063	0	-99.268	-31.478	6.4	B5-03822-P04-CH0	1963264	OK	0.714765	-0.2334019	0.6592682	0	-121.361	-40.311	6.108	B5-03822-P04-CH1	1963264	OK	0.7355796	-0.6747665	0.0601061	0	-107.685	-48.528	2.66	NA
0.0199842658151696	B5-03822-P01-CH0	1963272	OK	0.2416912	0.0207279	0.0575006	-0.9684263	105	7.261	-243.4	B5-03822-P02-CH0	1963272	OK	0.7062458	0.4451667	-0.5504939	0	-74.153	-99.79	4.331	B5-03822-P02-CH1	1963272	OK	0.6550723	0.0118145	-0.7554738	0	-72.2	-78.158	1.292	B5-03822-P03-CH0	1963272	OK	0.8360642	-0.2881838	-0.4668477	0	-91.844	-60.311	9.554	B5-03822-P03-CH1	1963272	OK	0.813593	-0.2982727	-0.4990991	0	-99.205	-31.505	6.303	B5-03822-P04-CH0	1963272	OK	0.7146403	-0.2330882	0.6595144	0	-121.283	-40.299	6.016	B5-03822-P04-CH1	1963272	OK	0.7357632	-0.6745441	0.0603553	0	-107.65	-48.551	2.718	NA
0.0299763987227544	B5-03822-P01-CH0	1963280	OK	0.2414922	0.0207409	0.0571295	-0.9684976	104.988	7.151	-243.375	B5-03822-P02-CH0	1963280	OK	0.7064526	0.4456042	-0.5498743	0	-74.136	-99.958	4.283	B5-03822-P02-CH1	1963280	OK	0.6541409	0.0160282	-0.7562029	0	-72.916	-78.936	1.166	B5-03822-P03-CH0	1963280	OK	0.8363674	-0.2893263	-0.4655963	0	-91.8	-60.476	9.372	B5-03822-P03-CH1	1963280	OK	0.8136763	-0.2982328	-0.498987	0	-99.103	-31.51	6.39	B5-03822-P04-CH0	1963280	OK	0.7143074	-0.2332243	0.6598267	0	-121.184	-40.324	5.931	B5-03822-P04-CH1	1963280	OK	0.7354516	-0.6748946	0.0602344	0	-107.561	-48.671	2.726	NA
0.0399685316303392	B5-03822-P01-CH0	1963288	OK	0.24159	0.0207909	0.0572242	-0.9684665	105.036	7.173	-243.42	B5-03822-P02-CH0	1963288	OK	0.7063386	0.4457505	-0.549902	0	-74.19	-100.127	4.261	B5-03822-P02-CH1	1963288	OK	0.6549193	0.0165898	-0.7555167	0	-72.67	-78.228	1.222	B5-03822-P03-CH0	1963288	OK	0.8363902	-0.2888439	-0.4658548	0	-92.129	-60.403	9.608	B5-03822-P03-CH1	1963288	OK	0.8137457	-0.29837	-0.4987918	0	-99.087	-31.572	6.465	B5-03822-P04-CH0	1963288	OK	0.7143494	-0.2325605	0.6600155	0	-121.292	-40.396	5.961	B5-03822-P04-CH1	1963288	OK	0.735581	-0.6747335	0.0604589	0	-107.646	-48.688	2.843	NA
0.049960664537924	B5-03822-P01-CH0	1963296	OK	0.2415636	0.0209283	0.0568057	-0.9684948	105.031	7.134	-243.335	B5-03822-P02-CH0	1963296	OK	0.7037521	0.448774	-0.5507584	0	-74.596	-100.709	3.903	B5-03822-P02-CH1	1963296	OK	0.6536514	0.0197543	-0.7565379	0	-73.424	-78.784	1.81	B5-03822-P03-CH0	1963296	OK	0.8376772	-0.2886546	-0.4636545	0	-91.707	-60.359	9.915	B5-03822-P03-CH1	1963296	OK	0.8135109	-0.2983616	-0.4991797	0	-99.09	-31.552	6.527	B5-03822-P04-CH0	1963296	OK	0.7141461	-0.2325287	0.6602467	0	-121.32	-40.343	5.667	B5-03822-P04-CH1	1963296	OK	0.7352639	-0.6750659	0.0606053	0	-107.722	-48.75	2.818	NA
0.0599527974455088	B5-03822-P01-CH0	1963304	OK	0.2415613	0.0211161	0.0568027	-0.9684915	105.085	7.122	-243.261	B5-03822-P02-CH0	1963304	OK	0.7028476	0.4489468	-0.5517718	0	-74.397	-100.667	4.135	B5-03822-P02-CH1	1963304	OK	0.6524241	0.0226752	-0.7575148	0	-73.816	-78.074	1.913	B5-03822-P03-CH0	1963304	OK	0.8383381	-0.2885346	-0.4625332	0	-91.713	-60.677	9.997	B5-03822-P03-CH1	1963304	OK	0.8132499	-0.2981249	-0.4997461	0	-99.209	-31.514	6.601	B5-03822-P04-CH0	1963304	OK	0.7141598	-0.2325487	0.6602248	0	-121.406	-40.283	5.68	B5-03822-P04-CH1	1963304	OK	0.7354472	-0.6748592	0.0606831	0	-107.938	-48.701	2.785	NA
0.0699449303530936	B5-03822-P01-CH0	1963312	OK	0.2416863	0.021259	0.0570668	-0.9684416	105.125	7.146	-243.218	B5-03822-P02-CH0	1963312	OK	0.7008003	0.4500458	-0.5534779	0	-75.203	-100.908	5.109	B5-03822-P02-CH1	1963312	OK	0.6523828	0.0273396	-0.7573964	0	-73.745	-78.248	1.16	B5-03822-P03-CH0	1963312	OK	0.838982	-0.2867257	-0.4624906	0	-92.17	-60.928	9.596	B5-03822-P03-CH1	1963312	OK	0.8129963	-0.297979	-0.5002454	0	-99.35	-31.491	6.63	B5-03822-P04-CH0	1963312	OK	0.7140631	-0.2331915	0.6601028	0	-121.273	-40.126	5.922	B5-03822-P04-CH1	1963312	OK	0.735791	-0.6744599	0.0609545	0	-108.092	-48.687	2.752	NA
0.0799370632606784	B5-03822-P01-CH0	1963320	OK	0.2416342	0.0214173	0.0569718	-0.9684567	105.146	7.187	-243.228	B5-03822-P02-CH0	1963320	OK	0.7000044	0.4503587	-0.55423	0	-75.415	-101.396	4.713	B5-03822-P02-CH1	1963320	OK	0.6522262	0.0355119	-0.7571921	0	-73.508	-78.741	1.14	B5-03822-P03-CH0	1963320	OK	0.8415742	-0.2852686	-0.4586663	0	-92.035	-61.196	9.957	B5-03822-P03-CH1	1963320	OK	0.8127447	-0.2980941	-0.5005857	0	-99.43	-31.441	6.633	B5-03822-P04-CH0	1963320	OK	0.7139146	-0.2451252	0.6559265	0	-120.453	-39.709	6.571	B5-03822-P04-CH1	1963320	OK	0.7357646	-0.6744688	0.0611741	0	-108.099	-48.682	2.937	NA
0.0899291961682632	B5-03822-P01-CH0	1963328	OK	0.2415026	0.0211346	0.0573184	-0.9684753	105.046	7.161	-243.241	B5-03822-P02-CH0	1963328	OK	0.698621	0.4510592	-0.5554046	0	-75.162	-101.454	3.904	B5-03822-P02-CH1	1963328	OK	0.6512045	0.0465748	-0.7574718	0	-73.236	-79.016	1.511	B5-03822-P03-CH0	1963328	OK	0.8446383	-0.2821888	-0.4549237	0	-92.226	-61.205	9.931	B5-03822-P03-CH1	1963328	OK	0.8127305	-0.2979291	-0.5007068	0	-99.448	-31.331	6.658	B5-03822-P04-CH0	1963328	OK	0.7162355	-0.2530112	0.6503783	0	-120.292	-40.186	6.817	B5-03822-P04-CH1	1963328	OK	0.7361426	-0.6740271	0.0614938	0	-108.054	-48.726	3.272	NA
0.099921329075848	B5-03822-P01-CH0	1963336	OK	0.2413856	0.0211462	0.0573139	-0.9685045	105.035	7.165	-243.213	B5-03822-P02-CH0	1963336	OK	0.6961723	0.4513491	-0.5582367	0	-75.466	-101.283	4.419	B5-03822-P02-CH1	1963336	OK	0.6474026	0.0624954	-0.7595816	0	-74.168	-80.428	2.028	B5-03822-P03-CH0	1963336	OK	0.8477154	-0.2812978	-0.4497222	0	-92.266	-61.661	10.206	B5-03822-P03-CH1	1963336	OK	0.8122871	-0.2985907	-0.5010322	0	-99.686	-31.248	6.714	B5-03822-P04-CH0	1963336	OK	0.7185393	-0.2584077	0.6456986	0	-119.629	-39.971	7.826	B5-03822-P04-CH1	1963336	OK	0.7362392	-0.6738995	0.0617354	0	-108.249	-48.789	3.459	NA
0.109913461983433	B5-03822-P01-CH0	1963344	OK	0.2413246	0.0212194	0.0569634	-0.9685388	105.041	7.137	-243.274	B5-03822-P02-CH0	1963344	OK	0.6939905	0.4501956	-0.5618728	0	-75.539	-101.468	4.857	B5-03822-P02-CH1	1963344	OK	0.6444003	0.0733049	-0.7611667	0	-73.775	-79.497	2.04	B5-03822-P03-CH0	1963344	OK	0.8502028	-0.2782255	-0.4469292	0	-92.391	-61.943	9.731	B5-03822-P03-CH1	1963344	OK	0.8110397	-0.3080383	-0.4973198	0	-100.598	-30.8	6.852	B5-03822-P04-CH0	1963344	OK	0.7217589	-0.2613203	0.6409179	0	-119.302	-40.266	8.639	B5-03822-P04-CH1	1963344	OK	0.7361214	-0.6740048	0.0619895	0	-108.325	-48.858	3.69	NA
0.119905594891018	B5-03822-P01-CH0	1963352	OK	0.2412385	0.0211374	0.0569258	-0.9685642	105.003	7.089	-243.281	B5-03822-P02-CH0	1963352	OK	0.6910211	0.4486329	-0.5667614	0	-75.564	-101.287	4.415	B5-03822-P02-CH1	1963352	OK	0.640857	0.0834851	-0.7631072	0	-73.96	-79.95	1.122	B5-03822-P03-CH0	1963352	OK	0.8517213	-0.2735777	-0.4469072	0	-92.937	-62.172	10.753	B5-03822-P03-CH1	1963352	OK	0.8116062	-0.3117106	-0.494097	0	-100.32	-30.52	7.322	B5-03822-P04-CH0	1963352	OK	0.7247261	-0.2614013	0.6375276	0	-118.714	-39.795	8.013	B5-03822-P04-CH1	1963352	OK	0.7362371	-0.6738491	0.0623082	0	-108.367	-48.867	3.505	NA
0.129897727798602	B5-03822-P01-CH0	1963360	OK	0.2414186	0.0212228	0.0574817	-0.9684846	105.047	7.141	-243.289	B5-03822-P02-CH0	1963360	OK	0.6881345	0.4470923	-0.5714712	0	-75.619	-101.759	3.93	B5-03822-P02-CH1	1963360	OK	0.6365549	0.0895277	-0.7660174	0	-74.056	-80.123	1.492	B5-03822-P03-CH0	1963360	OK	0.8526039	-0.2677925	-0.4487246	0	-93.705	-62.337	10.535	B5-03822-P03-CH1	1963360	OK	0.8110937	-0.3120777	-0.4947064	0	-100.662	-30.445	7.931	B5-03822-P04-CH0	1963360	OK	0.7272886	-0.2562527	0.6366992	0	-118.529	-39.712	8.224	B5-03822-P04-CH1	1963360	OK	0.736827	-0.6731648	0.06273	0	-108.567	-48.853	3.399	NA
0.139889860706187	B5-03822-P01-CH0	1963368	OK	0.2412336	0.0213252	0.0573897	-0.9685339	105.054	7.058	-243.232	B5-03822-P02-CH0	1963368	OK	0.6860729	0.4450528	-0.5755276	0	-75.057	-102.072	4.064	B5-03822-P02-CH1	1963368	OK	0.6310775	0.0960684	-0.769748	0	-74.311	-80.715	1.404	B5-03822-P03-CH0	1963368	OK	0.8549949	-0.2630086	-0.4470014	0	-93.716	-62.586	10.597	B5-03822-P03-CH1	1963368	OK	0.8111611	-0.3130178	-0.4940016	0	-100.434	-30.528	7.93	B5-03822-P04-CH0	1963368	OK	0.7286638	-0.2522647	0.6367193	0	-117.996	-38.826	7.16	B5-03822-P04-CH1	1963368	OK	0.7368811	-0.6730935	0.0628596	0	-108.683	-48.948	3.354	NA
0.149881993613772	B5-03822-P01-CH0	1963376	OK	0.2411282	0.021227	0.0574713	-0.9685575	105.024	7.017	-243.256	B5-03822-P02-CH0	1963376	OK	0.6830637	0.4421139	-0.5813426	0	-74.46	-101.761	3.815	B5-03822-P02-CH1	1963376	OK	0.6242419	0.1028604	-0.77443	0	-75.32	-81.307	2.717	B5-03822-P03-CH0	1963376	OK	0.8582019	-0.2613964	-0.4417707	0	-93.655	-62.934	10.783	B5-03822-P03-CH1	1963376	OK	0.8107379	-0.3120765	-0.4952901	0	-100.755	-30.279	7.969	B5-03822-P04-CH0	1963376	OK	0.7302035	-0.2451968	0.6377157	0	-117.909	-39.751	9.109	B5-03822-P04-CH1	1963376	OK	0.7369468	-0.6729861	0.0632385	0	-108.706	-49.043	3.256	NA
0.159874126521357	B5-03822-P01-CH0	1963384	OK	0.2407814	0.0212462	0.0567444	-0.9686862	104.975	6.907	-243.224	B5-03822-P02-CH0	1963384	OK	0.6790702	0.4399514	-0.5876278	0	-74.862	-101.648	3.737	B5-03822-P02-CH1	1963384	OK	0.6194807	0.1063665	-0.7777724	0	-75.003	-80.81	2.88	B5-03822-P03-CH0	1963384	OK	0.862355	-0.2589955	-0.4350463	0	-93.723	-63.085	11.179	B5-03822-P03-CH1	1963384	OK	0.8106346	-0.3112723	-0.4959648	0	-100.893	-30.037	8.206	B5-03822-P04-CH0	1963384	OK	0.7313136	-0.2395464	0.6385905	0	-118.218	-40.032	9.776	B5-03822-P04-CH1	1963384	OK	0.7363942	-0.6735971	0.0631708	0	-108.656	-49.15	3.005	NA
0.169866259428942	B5-03822-P01-CH0	1963392	OK	0.2407487	0.0209634	0.0572357	-0.9686716	104.887	6.862	-243.268	B5-03822-P02-CH0	1963392	OK	0.6755411	0.4360647	-0.5945518	0	-74.473	-101.45	3.971	B5-03822-P02-CH1	1963392	OK	0.6177349	0.1047002	-0.7793853	0	-73.158	-79.965	1.671	B5-03822-P03-CH0	1963392	OK	0.8668197	-0.25393	-0.4291191	0	-94.674	-63.506	11.64	B5-03822-P03-CH1	1963392	OK	0.8108908	-0.3103705	-0.4961111	0	-100.902	-30.136	8.214	B5-03822-P04-CH0	1963392	OK	0.7315267	-0.2353784	0.639895	0	-118.157	-39.251	8.738	B5-03822-P04-CH1	1963392	OK	0.7368018	-0.6730981	0.0637342	0	-108.571	-49.237	2.933	NA
0.179858392336526	B5-03822-P01-CH0	1963400	OK	0.2405809	0.0207881	0.0571616	-0.9687215	104.793	6.782	-243.222	B5-03822-P02-CH0	1963400	OK	0.6729879	0.4324168	-0.6000858	0	-74.01	-101.574	3.892	B5-03822-P02-CH1	1963400	OK	0.6143349	0.1064047	-0.781838	0	-73.783	-80.858	2.052	B5-03822-P03-CH0	1963400	OK	0.8725867	-0.2506278	-0.4192591	0	-94.58	-64.125	11.27	B5-03822-P03-CH1	1963400	OK	0.8099336	-0.3107317	-0.4974469	0	-101.596	-30.195	8.126	B5-03822-P04-CH0	1963400	OK	0.731285	-0.2295381	0.6422884	0	-118.793	-39.402	8.369	B5-03822-P04-CH1	1963400	OK	0.7368575	-0.6729833	0.0643002	0	-108.555	-49.284	2.811	NA
0.189850525244111	B5-03822-P01-CH0	1963408	OK	0.2406744	0.0207152	0.0575279	-0.9686781	104.766	6.755	-243.18	B5-03822-P02-CH0	1963408	OK	0.6692597	0.4273583	-0.6078293	0	-73.978	-101.737	3.835	B5-03822-P02-CH1	1963408	OK	0.6116553	0.0976762	-0.7850715	0	-74.574	-79.633	2.283	B5-03822-P03-CH0	1963408	OK	0.8777501	-0.247533	-0.4102222	0	-95.144	-64.676	11.943	B5-03822-P03-CH1	1963408	OK	0.8107761	-0.3102476	-0.4963753	0	-100.757	-30.387	7.663	B5-03822-P04-CH0	1963408	OK	0.729584	-0.2228989	0.6465472	0	-119.524	-40.611	7.87	B5-03822-P04-CH1	1963408	OK	0.7371205	-0.672607	0.0652167	0	-108.643	-49.388	2.488	NA
0.199842658151696	B5-03822-P01-CH0	1963416	OK	0.2407479	0.0205185	0.058024	-0.9686344	104.706	6.712	-243.219	B5-03822-P02-CH0	1963416	OK	0.6638912	0.422965	-0.6167245	0	-74.693	-101.806	3.987	B5-03822-P02-CH1	1963416	OK	0.614119	0.0910936	-0.7839386	0	-74.399	-79.923	1.911	B5-03822-P03-CH0	1963416	OK	0.8846673	-0.2440478	-0.3972459	0	-95.496	-65.026	12.02	B5-03822-P03-CH1	1963416	OK	0.8107763	-0.3109782	-0.4959177	0	-100.756	-30.33	7.81	B5-03822-P04-CH0	1963416	OK	0.7274239	-0.2147427	0.6517209	0	-120.427	-41.639	8.243	B5-03822-P04-CH1	1963416	OK	0.7376944	-0.6718771	0.0662435	0	-108.794	-49.382	2.352	NA
0.209834791059281	B5-03822-P01-CH0	1963424	OK	0.2406088	0.0206586	0.0580533	-0.9686642	104.717	6.666	-243.092	B5-03822-P02-CH0	1963424	OK	0.6604258	0.4185894	-0.6233945	0	-74.328	-102.132	4.371	B5-03822-P02-CH1	1963424	OK	0.6160741	0.0859051	-0.7829898	0	-74.819	-80.591	1.887	B5-03822-P03-CH0	1963424	OK	0.8923966	-0.2399619	-0.3821605	0	-95.252	-65.597	12.076	B5-03822-P03-CH1	1963424	OK	0.8105017	-0.3117528	-0.4958803	0	-100.739	-30.312	7.951	B5-03822-P04-CH0	1963424	OK	0.7252345	-0.205171	0.6572212	0	-121.359	-42.135	8.152	B5-03822-P04-CH1	1963424	OK	0.7377367	-0.6717094	0.0674614	0	-109.028	-49.525	2.219	NA
0.219826923966866	B5-03822-P01-CH0	1963432	OK	0.2405544	0.0207038	0.0581706	-0.9686698	104.714	6.586	-243.072	B5-03822-P02-CH0	1963432	OK	0.6562265	0.4139026	-0.6309132	0	-73.746	-102.179	3.314	B5-03822-P02-CH1	1963432	OK	0.6193305	0.0751301	-0.7815275	0	-74.61	-80.733	1.783	B5-03822-P03-CH0	1963432	OK	0.8981872	-0.2345933	-0.3717872	0	-95.624	-66.451	12.232	B5-03822-P03-CH1	1963432	OK	0.8079805	-0.3176172	-0.4962729	0	-100.517	-30.489	8.597	B5-03822-P04-CH0	1963432	OK	0.7219924	-0.1971866	0.6632076	0	-121.431	-41.721	8.031	B5-03822-P04-CH1	1963432	OK	0.7371468	-0.6710424	0.0794775	0	-110.232	-51.227	2.627	NA
0.22981905687445	B5-03822-P01-CH0	1963440	OK	0.2402619	0.0205576	0.0578826	-0.9687627	104.615	6.486	-243.026	B5-03822-P02-CH0	1963440	OK	0.6511037	0.4091442	-0.6392692	0	-74.017	-101.964	3.339	B5-03822-P02-CH1	1963440	OK	0.622688	0.0675042	-0.779553	0	-74.875	-81.726	1.809	B5-03822-P03-CH0	1963440	OK	0.9028469	-0.2271645	-0.365053	0	-96.097	-67.158	12.106	B5-03822-P03-CH1	1963440	OK	0.805712	-0.3146339	-0.5018303	0	-100.508	-30.016	7.257	B5-03822-P04-CH0	1963440	OK	0.7186149	-0.184841	0.6703927	0	-122.595	-43.95	8.888	B5-03822-P04-CH1	1963440	OK	0.7383261	-0.6694977	0.0815316	0	-111.009	-50.76	3.241	NA
0.239811189782035	B5-03822-P01-CH0	1963448	OK	0.2401986	0.0204166	0.0581376	-0.9687661	104.531	6.483	-243.016	B5-03822-P02-CH0	1963448	OK	0.6473704	0.403676	-0.6464961	0	-73.749	-102.496	3.129	B5-03822-P02-CH1	1963448	OK	0.6240578	0.0507507	-0.7797283	0	-74.272	-80.092	1.768	B5-03822-P03-CH0	1963448	OK	0.9060778	-0.2205483	-0.3610838	0	-96.365	-67.65	12.143	B5-03822-P03-CH1	1963448	OK	0.8054243	-0.3087322	-0.5059408	0	-100.099	-29.818	7.425	B5-03822-P04-CH0	1963448	OK	0.714637	-0.1749071	0.677275	0	-123.081	-43.376	7.569	B5-03822-P04-CH1	1963448	OK	0.7400274	-0.6673058	0.0840384	0	-111.836	-50.25	4.402	NA
0.24980332268962	B5-03822-P01-CH0	1963456	OK	0.2399863	0.0204845	0.0578426	-0.968835	104.517	6.405	-243.02	B5-03822-P02-CH0	1963456	OK	0.6447126	0.3985659	-0.6522966	0	-72.986	-102.744	2.999	B5-03822-P02-CH1	1963456	OK	0.6231016	0.0421618	-0.7810037	0	-74.499	-80.633	1.153	B5-03822-P03-CH0	1963456	OK	0.9075629	-0.2170138	-0.3594923	0	-96.431	-68.174	12.414	B5-03822-P03-CH1	1963456	OK	0.8052906	-0.3035811	-0.5092598	0	-100.279	-29.339	7.455	B5-03822-P04-CH0	1963456	OK	0.7129404	-0.1640996	0.6817531	0	-124.113	-44.144	8.632	B5-03822-P04-CH1	1963456	OK	0.7392315	-0.667931	0.0860514	0	-111.73	-50.633	3.896	NA
0.259795455597205	B5-03822-P01-CH0	1963464	OK	0.2400656	0.0203933	0.0582881	-0.9687906	104.474	6.416	-243.062	B5-03822-P02-CH0	1963464	OK	0.6417875	0.3904987	-0.6600148	0	-71.598	-102.177	2.439	B5-03822-P02-CH1	1963464	OK	0.6238981	0.0332543	-0.7807978	0	-73.391	-80.53	0.44	B5-03822-P03-CH0	1963464	OK	0.9086141	-0.2160665	-0.3574012	0	-95.829	-68.327	12.278	B5-03822-P03-CH1	1963464	OK	0.8054978	-0.3022655	-0.5097145	0	-100.087	-29.564	7.033	B5-03822-P04-CH0	1963464	OK	0.710967	-0.1598217	0.6848232	0	-124.26	-44.285	8.173	B5-03822-P04-CH1	1963464	OK	0.7401714	-0.6667597	0.0870506	0	-111.967	-50.654	4.221	NA
0.26978758850479	B5-03822-P01-CH0	1963472	OK	0.2398842	0.0203844	0.0582538	-0.9688377	104.424	6.354	-243.036	B5-03822-P02-CH0	1963472	OK	0.6395271	0.3856361	-0.6650488	0	-70.837	-101.865	2.607	B5-03822-P02-CH1	1963472	OK	0.6225655	0.0306936	-0.7819656	0	-73.95	-81.692	0.786	B5-03822-P03-CH0	1963472	OK	0.907441	-0.2162448	-0.3602624	0	-95.973	-68.445	11.787	B5-03822-P03-CH1	1963472	OK	0.8049295	-0.3002312	-0.5118103	0	-100.343	-29.593	6.951	B5-03822-P04-CH0	1963472	OK	0.7101966	-0.1560873	0.686482	0	-124.482	-43.849	8.192	B5-03822-P04-CH1	1963472	OK	0.7382758	-0.6684586	0.0900656	0	-110.274	-51.472	1.534	NA
0.279779721412375	B5-03822-P01-CH0	1963480	OK	0.2396545	0.0205685	0.0580136	-0.9689051	104.472	6.237	-243.08	B5-03822-P02-CH0	1963480	OK	0.6357414	0.3850868	-0.6689851	0	-71.171	-101.622	3.283	B5-03822-P02-CH1	1963480	OK	0.6221483	0.0263584	-0.7824556	0	-73.753	-81.564	0.8	B5-03822-P03-CH0	1963480	OK	0.9053935	-0.2154132	-0.3658686	0	-96.025	-68.163	12.205	B5-03822-P03-CH1	1963480	OK	0.8052032	-0.2984677	-0.5124109	0	-100.333	-29.551	6.626	B5-03822-P04-CH0	1963480	OK	0.7105274	-0.1543348	0.6865359	0	-124.827	-44.376	8.576	B5-03822-P04-CH1	1963480	OK	0.7372509	-0.6695773	0.0901515	0	-110.436	-52.114	1.697	NA
0.289771854319959	B5-03822-P01-CH0	1963488	OK	0.239556	0.0207589	0.0583015	-0.9689081	104.508	6.257	-243.09	B5-03822-P02-CH0	1963488	OK	0.6333329	0.3857175	-0.6709034	0	-70.839	-101.873	3.21	B5-03822-P02-CH1	1963488	OK	0.621449	0.0181488	-0.7832444	0	-73.328	-81.309	1.268	B5-03822-P03-CH0	1963488	OK	0.9020406	-0.2155696	-0.3739687	0	-95.567	-67.685	12.389	B5-03822-P03-CH1	1963488	OK	0.8058829	-0.2967856	-0.5123193	0	-100.118	-29.677	6.783	B5-03822-P04-CH0	1963488	OK	0.7096782	-0.1554338	0.687166	0	-124.459	-44.264	7.965	B5-03822-P04-CH1	1963488	OK	0.7390856	-0.6678886	0.0876202	0	-110.729	-51.093	2.748	NA
0.299763987227544	B5-03822-P01-CH0	1963496	OK	0.2392042	0.0208459	0.0577869	-0.969024	104.485	6.135	-243.069	B5-03822-P02-CH0	1963496	OK	0.6293883	0.3873032	-0.6736962	0	-70.667	-101.343	3.542	B5-03822-P02-CH1	1963496	OK	0.6196858	0.0115551	-0.7847649	0	-72.788	-80.91	0.992	B5-03822-P03-CH0	1963496	OK	0.8959327	-0.2154198	-0.388457	0	-95.117	-67.827	12.307	B5-03822-P03-CH1	1963496	OK	0.8062983	-0.2954039	-0.5124643	0	-100.048	-29.898	6.897	B5-03822-P04-CH0	1963496	OK	0.7096384	-0.1571508	0.6868165	0	-124.129	-44.499	8.338	B5-03822-P04-CH1	1963496	OK	0.738349	-0.6691364	0.0842453	0	-110.838	-51.006	2.762	NA
0.309756120135129	B5-03822-P01-CH0	1963504	OK	0.2388177	0.0209925	0.0572282	-0.9691493	104.469	6.032	-243.036	B5-03822-P02-CH0	1963504	OK	0.624786	0.3896985	-0.6765927	0	-70.637	-101.16	3.225	B5-03822-P02-CH1	1963504	OK	0.6126012	0.0113319	-0.7903109	0	-73.037	-81.209	1.157	B5-03822-P03-CH0	1963504	OK	0.8891838	-0.2088628	-0.4070976	0	-94.714	-67.242	11.695	B5-03822-P03-CH1	1963504	OK	0.8072083	-0.2941931	-0.5117276	0	-99.7	-30.143	7.017	B5-03822-P04-CH0	1963504	OK	0.7097723	-0.1621644	0.6855115	0	-123.849	-43.592	7.799	B5-03822-P04-CH1	1963504	OK	0.7381041	-0.6693663	0.0845643	0	-110.805	-50.956	2.739	NA
0.319748253042714	B5-03822-P01-CH0	1963512	OK	0.2386531	0.0209475	0.0573629	-0.9691828	104.442	6.008	-243.003	B5-03822-P02-CH0	1963512	OK	0.6202686	0.3930874	-0.678785	0	-70.374	-100.841	3.239	B5-03822-P02-CH1	1963512	OK	0.6054088	0.0069138	-0.7958846	0	-71.924	-80.466	1.382	B5-03822-P03-CH0	1963512	OK	0.8809414	-0.2024596	-0.4277293	0	-93.868	-66.698	11.466	B5-03822-P03-CH1	1963512	OK	0.8083145	-0.2908008	-0.5119205	0	-99.573	-29.898	6.611	B5-03822-P04-CH0	1963512	OK	0.7108351	-0.1643192	0.6838952	0	-123.546	-43.47	8.285	B5-03822-P04-CH1	1963512	OK	0.7382564	-0.6692002	0.0845498	0	-110.673	-50.891	2.731	NA
0.329740385950299	B5-03822-P01-CH0	1963520	OK	0.2382631	0.0211096	0.0564156	-0.9693309	104.44	5.917	-242.982	B5-03822-P02-CH0	1963520	OK	0.6172485	0.394753	-0.6805691	0	-70.097	-100.336	3.2	B5-03822-P02-CH1	1963520	OK	0.5978402	0.0096384	-0.8015574	0	-72.111	-81.222	1.6	B5-03822-P03-CH0	1963520	OK	0.8695812	-0.1984338	-0.4521644	0	-93.26	-66.639	11.012	B5-03822-P03-CH1	1963520	OK	0.8072585	-0.2881626	-0.5150689	0	-100.435	-29.58	6.029	B5-03822-P04-CH0	1963520	OK	0.7116048	-0.1682805	0.6821292	0	-122.894	-42.807	8.55	B5-03822-P04-CH1	1963520	OK	0.7375457	-0.6700934	0.0836731	0	-110.47	-50.875	3.055	NA
0.339732518857883	B5-03822-P01-CH0	1963528	OK	0.2381608	0.0212145	0.056186	-0.9693671	104.466	5.846	-242.967	B5-03822-P02-CH0	1963528	OK	0.618471	0.3958771	-0.6788041	0	-69.323	-100.631	2.801	B5-03822-P02-CH1	1963528	OK	0.5892004	0.0117104	-0.8079021	0	-72.435	-80.408	1.803	B5-03822-P03-CH0	1963528	OK	0.8562306	-0.1937313	-0.4788918	0	-92.22	-66.283	10.411	B5-03822-P03-CH1	1963528	OK	0.8085708	-0.2883907	-0.5128782	0	-99.801	-29.762	6.244	B5-03822-P04-CH0	1963528	OK	0.7134097	-0.1714343	0.6794534	0	-122.954	-42.795	8.383	B5-03822-P04-CH1	1963528	OK	0.7371785	-0.6706161	0.0827159	0	-110.163	-50.947	3.169	NA
0.349724651765468	B5-03822-P01-CH0	1963536	OK	0.238198	0.0211759	0.0567881	-0.9693237	104.451	5.914	-242.908	B5-03822-P02-CH0	1963536	OK	0.6215124	0.4002416	-0.6734456	0	-69.29	-101.154	2.667	B5-03822-P02-CH1	1963536	OK	0.5812527	0.0204517	-0.813466	0	-72.404	-79.902	1.782	B5-03822-P03-CH0	1963536	OK	0.8407086	-0.1850875	-0.508873	0	-91.217	-65.217	9.73	B5-03822-P03-CH1	1963536	OK	0.8084045	-0.2868434	-0.5140069	0	-100.23	-29.5	6.417	B5-03822-P04-CH0	1963536	OK	0.7136766	-0.1777499	0.6775475	0	-122.038	-41.315	8.033	B5-03822-P04-CH1	1963536	OK	0.7356059	-0.6736934	0.0708601	0	-108.245	-50.555	2.139	NA
0.359716784673053	B5-03822-P01-CH0	1963544	OK	0.2381994	0.0214078	0.056727	-0.9693218	104.54	5.949	-242.899	B5-03822-P02-CH0	1963544	OK	0.6253314	0.4001571	-0.6699515	0	-69.013	-100.096	3.131	B5-03822-P02-CH1	1963544	OK	0.5804299	0.0334008	-0.813625	0	-70.893	-78.584	1.674	B5-03822-P03-CH0	1963544	OK	0.8250972	-0.170842	-0.5385421	0	-89.366	-64.265	8.856	B5-03822-P03-CH1	1963544	OK	0.8092687	-0.287231	-0.5124281	0	-99.838	-29.619	6.76	B5-03822-P04-CH0	1963544	OK	0.7140637	-0.1826085	0.6758455	0	-121.951	-40.665	6.537	B5-03822-P04-CH1	1963544	OK	0.7363579	-0.673297	0.0666949	0	-108.77	-49.819	3.289	NA
0.369708917580638	B5-03822-P01-CH0	1963552	OK	0.2379002	0.0216269	0.0556948	-0.9694503	104.585	5.92	-242.866	B5-03822-P02-CH0	1963552	OK	0.6318512	0.3975162	-0.6653908	0	-68.763	-99.483	2.802	B5-03822-P02-CH1	1963552	OK	0.5834888	0.0530713	-0.8103852	0	-71.291	-79.073	2.192	B5-03822-P03-CH0	1963552	OK	0.8101994	-0.1487664	-0.5669616	0	-88.035	-62.639	7.002	B5-03822-P03-CH1	1963552	OK	0.8100307	-0.2888092	-0.5103328	0	-99.339	-29.924	6.665	B5-03822-P04-CH0	1963552	OK	0.71289	-0.1852259	0.6763721	0	-121.288	-40.674	7.754	B5-03822-P04-CH1	1963552	OK	0.7361854	-0.6737602	0.0638617	0	-109.02	-49.088	3.879	NA
0.379701050488223	B5-03822-P01-CH0	1963560	OK	0.2381188	0.0214317	0.056093	-0.969378	104.544	5.992	-242.863	B5-03822-P02-CH0	1963560	OK	0.6400346	0.3899142	-0.6620594	0	-68.209	-98.894	2.662	B5-03822-P02-CH1	1963560	OK	0.592774	0.0684216	-0.8024571	0	-71.675	-79.547	2.425	B5-03822-P03-CH0	1963560	OK	0.8021478	-0.1335245	-0.5820052	0	-86.704	-61.293	7.788	B5-03822-P03-CH1	1963560	OK	0.8105267	-0.2900974	-0.5088122	0	-99.428	-30.004	6.673	B5-03822-P04-CH0	1963560	OK	0.7125866	-0.1882851	0.6758469	0	-120.969	-41.102	6.975	B5-03822-P04-CH1	1963560	OK	0.7371852	-0.672979	0.0604754	0	-109.162	-47.971	3.078	NA
0.389693183395807	B5-03822-P01-CH0	1963568	OK	0.238135	0.0212743	0.0560108	-0.9693822	104.521	5.998	-242.86	B5-03822-P02-CH0	1963568	OK	0.6474761	0.3799782	-0.6605992	0	-68.155	-97.943	3.062	B5-03822-P02-CH1	1963568	OK	0.6031834	0.0725905	-0.7942924	0	-71.195	-78.477	1.347	B5-03822-P03-CH0	1963568	OK	0.8018955	-0.1388335	-0.5811101	0	-86.823	-60.726	7.24	B5-03822-P03-CH1	1963568	OK	0.8114947	-0.2925829	-0.5058375	0	-98.957	-30.063	6.451	B5-03822-P04-CH0	1963568	OK	0.7122395	-0.1941893	0.6745409	0	-120.373	-39.798	6.187	B5-03822-P04-CH1	1963568	OK	0.7370758	-0.6732886	0.0583249	0	-108.892	-47.74	3.416	NA
0.399685316303392	B5-03822-P01-CH0	1963576	OK	0.2384883	0.0212601	0.0570008	-0.969238	104.57	6.19	-242.823	B5-03822-P02-CH0	1963576	OK	0.6576513	0.3669379	-0.6579144	0	-67.188	-97.974	2.312	B5-03822-P02-CH1	1963576	OK	0.6077443	0.0790696	-0.7901866	0	-72.408	-78.457	1.287	B5-03822-P03-CH0	1963576	OK	0.8084201	-0.1685568	-0.5639552	0	-87.452	-59.816	7.171	B5-03822-P03-CH1	1963576	OK	0.8094324	-0.2901782	-0.5105055	0	-99.847	-29.648	6.079	B5-03822-P04-CH0	1963576	OK	0.7136524	-0.1961491	0.6724773	0	-120.959	-40.169	7.037	B5-03822-P04-CH1	1963576	OK	0.7374258	-0.6729002	0.058382	0	-108.52	-48.059	5.353	NA
0.409677449210977	B5-03822-P01-CH0	1963584	OK	0.2386084	0.0210018	0.0571698	-0.9692041	104.535	6.268	-242.896	B5-03822-P02-CH0	1963584	OK	0.6600302	0.3546303	-0.662267	0	-67.961	-95.957	2.275	B5-03822-P02-CH1	1963584	OK	0.6120879	0.0806507	-0.7866663	0	-73.153	-77.543	2.074	B5-03822-P03-CH0	1963584	OK	0.8148587	-0.1958047	-0.5455876	0	-88.706	-59.454	7.161	B5-03822-P03-CH1	1963584	OK	0.8098609	-0.2905355	-0.5096219	0	-99.821	-29.678	6.172	B5-03822-P04-CH0	1963584	OK	0.7150723	-0.1986604	0.6702281	0	-121.496	-40.321	7.358	B5-03822-P04-CH1	1963584	OK	0.7373083	-0.6731806	0.0566069	0	-108.61	-47.769	4.118	NA
0.419669582118562	B5-03822-P01-CH0	1963592	OK	0.2386711	0.0211207	0.0571468	-0.9691874	104.586	6.373	-242.91	B5-03822-P02-CH0	1963592	OK	0.6636854	0.3424034	-0.6650426	0	-67.963	-95.25	2.343	B5-03822-P02-CH1	1963592	OK	0.6184	0.0800447	-0.7817764	0	-72.89	-77.29	1.823	B5-03822-P03-CH0	1963592	OK	0.8197162	-0.2110626	-0.532464	0	-88.994	-58.986	7.985	B5-03822-P03-CH1	1963592	OK	0.8100623	-0.2912999	-0.5088649	0	-99.833	-29.705	6.338	B5-03822-P04-CH0	1963592	OK	0.714649	-0.201689	0.6697749	0	-121.141	-40.066	7.606	B5-03822-P04-CH1	1963592	OK	0.7369083	-0.6736354	0.0564053	0	-107.724	-47.688	4.284	NA
0.429661715026147	B5-03822-P01-CH0	1963600	OK	0.2390183	0.0209831	0.0578763	-0.9690616	104.601	6.442	-242.973	B5-03822-P02-CH0	1963600	OK	0.6664441	0.332423	-0.6673433	0	-68.255	-95.06	2.206	B5-03822-P02-CH1	1963600	OK	0.6228988	0.0785116	-0.7783528	0	-72.9	-77.124	1.495	B5-03822-P03-CH0	1963600	OK	0.8212425	-0.2213537	-0.5258928	0	-89.262	-58.909	7.332	B5-03822-P03-CH1	1963600	OK	0.8106875	-0.2922414	-0.5073271	0	-99.673	-29.864	6.496	B5-03822-P04-CH0	1963600	OK	0.7149043	-0.2025561	0.6692405	0	-121.188	-40.067	7.223	B5-03822-P04-CH1	1963600	OK	0.7370199	-0.6736264	0.0550376	0	-107.399	-47.5	2.379	NA
0.439653847933731	B5-03822-P01-CH0	1963608	OK	0.2391187	0.0207662	0.0579523	-0.9690369	104.544	6.503	-243.05	B5-03822-P02-CH0	1963608	OK	0.6702404	0.3246154	-0.667385	0	-68.088	-94.816	2.539	B5-03822-P02-CH1	1963608	OK	0.6269259	0.080022	-0.7749583	0	-73.212	-77.949	1.692	B5-03822-P03-CH0	1963608	OK	0.8224398	-0.228009	-0.521157	0	-89.18	-58.737	8.673	B5-03822-P03-CH1	1963608	OK	0.8110379	-0.2933261	-0.5061396	0	-99.542	-29.953	6.634	B5-03822-P04-CH0	1963608	OK	0.715002	-0.204018	0.6686918	0	-121.128	-40.225	7.155	B5-03822-P04-CH1	1963608	OK	0.7371768	-0.6735663	0.0536543	0	-107.548	-46.968	0.627	NA
0.449645980841316	B5-03822-P01-CH0	1963616	OK	0.2389703	0.0208757	0.0570023	-0.9691275	104.566	6.399	-243.031	B5-03822-P02-CH0	1963616	OK	0.67366	0.3203551	-0.6659991	0	-67.895	-94.898	2.525	B5-03822-P02-CH1	1963616	OK	0.6299257	0.0765877	-0.77287	0	-73.171	-77.719	2.231	B5-03822-P03-CH0	1963616	OK	0.822238	-0.2330447	-0.5192444	0	-89.386	-58.824	8.284	B5-03822-P03-CH1	1963616	OK	0.8110107	-0.2949001	-0.5052679	0	-99.387	-30.142	6.724	B5-03822-P04-CH0	1963616	OK	0.7152002	-0.2045295	0.6683236	0	-121.399	-40.381	7.945	B5-03822-P04-CH1	1963616	OK	0.7363592	-0.6745634	0.0523392	0	-107.793	-47.033	1.557	NA
0.459638113748901	B5-03822-P01-CH0	1963624	OK	0.2386232	0.0208395	0.0564933	-0.9692436	104.523	6.355	-243.007	B5-03822-P02-CH0	1963624	OK	0.6768501	0.3186151	-0.663595	0	-67.848	-95.143	2.709	B5-03822-P02-CH1	1963624	OK	0.6310729	0.0723783	-0.7723396	0	-73.613	-77.279	1.69	B5-03822-P03-CH0	1963624	OK	0.8219956	-0.235396	-0.5185672	0	-89.765	-58.621	8.684	B5-03822-P03-CH1	1963624	OK	0.8109582	-0.2961233	-0.5046363	0	-99.268	-30.218	6.77	B5-03822-P04-CH0	1963624	OK	0.7160577	-0.2050898	0.6672327	0	-121.863	-40.803	9.032	B5-03822-P04-CH1	1963624	OK	0.7366007	-0.6739437	0.0567381	0	-108.214	-47.678	3.631	NA
0.469630246656486	B5-03822-P01-CH0	1963632	OK	0.2388243	0.0207458	0.0571662	-0.9691566	104.518	6.394	-243.039	B5-03822-P02-CH0	1963632	OK	0.6789452	0.3173891	-0.6620404	0	-68.296	-95.293	2.56	B5-03822-P02-CH1	1963632	OK	0.6335349	0.0693446	-0.7706003	0	-73.882	-77.568	3.148	B5-03822-P03-CH0	1963632	OK	0.822801	-0.2379988	-0.5160959	0	-89.72	-58.544	8.694	B5-03822-P03-CH1	1963632	OK	0.8111132	-0.2972599	-0.5037181	0	-99.193	-30.327	6.902	B5-03822-P04-CH0	1963632	OK	0.7163008	-0.2066274	0.666497	0	-121.895	-40.495	8.379	B5-03822-P04-CH1	1963632	OK	0.7369163	-0.673671	0.0558729	0	-108.055	-47.592	3.523	NA
0.479622379564071	B5-03822-P01-CH0	1963640	OK	0.238789	0.0208838	0.0571383	-0.969164	104.539	6.425	-242.986	B5-03822-P02-CH0	1963640	OK	0.6827053	0.3189833	-0.6573912	0	-68.461	-95.708	1.95	B5-03822-P02-CH1	1963640	OK	0.6380156	0.0590855	-0.7677532	0	-72.84	-76.537	2.238	B5-03822-P03-CH0	1963640	OK	0.8242519	-0.2405533	-0.5125846	0	-89.415	-58.274	8.411	B5-03822-P03-CH1	1963640	OK	0.8109857	-0.2984919	-0.5031946	0	-99.15	-30.36	6.848	B5-03822-P04-CH0	1963640	OK	0.7169012	-0.2060407	0.666033	0	-122.447	-41.124	8.411	B5-03822-P04-CH1	1963640	OK	0.7366572	-0.6740183	0.0550955	0	-108.12	-47.547	3.366	NA
0.489614512471655	B5-03822-P01-CH0	1963648	OK	0.2386543	0.020954	0.0567678	-0.9692174	104.51	6.419	-242.972	B5-03822-P02-CH0	1963648	OK	0.685546	0.3227757	-0.6525661	0	-68.473	-95.483	1.741	B5-03822-P02-CH1	1963648	OK	0.6383235	0.0498166	-0.7681546	0	-73.556	-76.647	2.48	B5-03822-P03-CH0	1963648	OK	0.823324	-0.2457016	-0.511633	0	-89.938	-58.407	8.16	B5-03822-P03-CH1	1963648	OK	0.8109293	-0.2994634	-0.502708	0	-99.051	-30.347	6.84	B5-03822-P04-CH0	1963648	OK	0.7150833	-0.2051893	0.6682463	0	-121.425	-39.928	7.531	B5-03822-P04-CH1	1963648	OK	0.7362766	-0.6744768	0.0545694	0	-108.161	-47.45	3.2	NA
0.49960664537924	B5-03822-P01-CH0	1963656	OK	0.2384017	0.020867	0.0560079	-0.9693257	104.426	6.296	-243.003	B5-03822-P02-CH0	1963656	OK	0.6880812	0.3302451	-0.6461287	0	-68.745	-96.174	2.343	B5-03822-P02-CH1	1963656	OK	0.6388319	0.0411149	-0.7682469	0	-73.517	-77.024	2.17	B5-03822-P03-CH0	1963656	OK	0.8233952	-0.2523754	-0.5082587	0	-89.612	-58.409	8.2	B5-03822-P03-CH1	1963656	OK	0.8109247	-0.3004717	-0.5021135	0	-98.807	-30.487	6.903	B5-03822-P04-CH0	1963656	OK	0.7150214	-0.2068499	0.6678006	0	-121.458	-40.071	7.564	B5-03822-P04-CH1	1963656	OK	0.7357689	-0.6750836	0.0539096	0	-108.112	-47.349	3.113	NA
0.509598778286825	B5-03822-P01-CH0	1963664	OK	0.2383747	0.0209636	0.0561611	-0.9693214	104.41	6.308	-242.981	B5-03822-P02-CH0	1963664	OK	0.6881699	0.3369384	-0.6425688	0	-68.926	-95.343	2.45	B5-03822-P02-CH1	1963664	OK	0.6404569	0.0281981	-0.7674763	0	-72.471	-76.791	1.613	B5-03822-P03-CH0	1963664	OK	0.823259	-0.2575482	-0.5058791	0	-89.531	-58.216	8.963	B5-03822-P03-CH1	1963664	OK	0.8110209	-0.3012241	-0.5015069	0	-98.671	-30.544	6.933	B5-03822-P04-CH0	1963664	OK	0.7153263	-0.2078357	0.6671676	0	-121.575	-40.2	7.634	B5-03822-P04-CH1	1963664	OK	0.7358427	-0.6750209	0.0536868	0	-108.123	-47.223	2.827	NA
0.51959091119441	B5-03822-P01-CH0	1963672	OK	0.2385742	0.0209602	0.0566211	-0.9692456	104.373	6.325	-242.91	B5-03822-P02-CH0	1963672	OK	0.6891629	0.34388	-0.6378096	0	-69.231	-94.873	2.333	B5-03822-P02-CH1	1963672	OK	0.6388016	0.0190177	-0.7691364	0	-73.203	-77.336	1.653	B5-03822-P03-CH0	1963672	OK	0.8227602	-0.2608487	-0.5049985	0	-89.393	-58.394	8.867	B5-03822-P03-CH1	1963672	OK	0.8109793	-0.3021366	-0.501025	0	-98.642	-30.616	6.875	B5-03822-P04-CH0	1963672	OK	0.7157741	-0.208788	0.6663895	0	-121.685	-40.3	7.576	B5-03822-P04-CH1	1963672	OK	0.7360171	-0.6747958	0.0541251	0	-108.144	-47.263	2.407	NA
0.529583044101995	B5-03822-P01-CH0	1963680	OK	0.2385721	0.0208825	0.0570505	-0.9692226	104.29	6.346	-242.837	B5-03822-P02-CH0	1963680	OK	0.6939337	0.3518709	-0.628206	0	-69.155	-96.114	2.478	B5-03822-P02-CH1	1963680	OK	0.637847	0.0139453	-0.7700368	0	-73.256	-77.179	2.478	B5-03822-P03-CH0	1963680	OK	0.8213772	-0.2620167	-0.5066425	0	-89.478	-58.625	8.406	B5-03822-P03-CH1	1963680	OK	0.810872	-0.3028025	-0.5007965	0	-98.632	-30.607	6.783	B5-03822-P04-CH0	1963680	OK	0.7161329	-0.2103732	0.6655049	0	-121.735	-40.247	7.387	B5-03822-P04-CH1	1963680	OK	0.7362637	-0.6744961	0.0545054	0	-108.161	-47.251	2.447	NA
0.539575177009579	B5-03822-P01-CH0	1963688	OK	0.2384363	0.0209705	0.0572912	-0.96924	104.271	6.321	-242.782	B5-03822-P02-CH0	1963688	OK	0.6962339	0.3603445	-0.6208141	0	-69.677	-96.245	2.131	B5-03822-P02-CH1	1963688	OK	0.6370856	0.0091335	-0.770739	0	-73.298	-76.814	2.715	B5-03822-P03-CH0	1963688	OK	0.8207721	-0.2617581	-0.5077558	0	-89.342	-58.448	8.143	B5-03822-P03-CH1	1963688	OK	0.810752	-0.3033151	-0.5006806	0	-98.61	-30.636	6.72	B5-03822-P04-CH0	1963688	OK	0.7188533	-0.2190278	0.6597551	0	-122.67	-40.967	7.658	B5-03822-P04-CH1	1963688	OK	0.7363737	-0.6743345	0.0550161	0	-108.211	-47.282	2.325	NA
0.549567309917164	B5-03822-P01-CH0	1963696	OK	0.2382197	0.0210893	0.0574539	-0.969281	104.247	6.371	-242.782	B5-03822-P02-CH0	1963696	OK	0.6990046	0.3694901	-0.612266	0	-70.346	-96.974	2.414	B5-03822-P02-CH1	1963696	OK	0.6373623	0.0021536	-0.7705613	0	-72.781	-76.127	1.474	B5-03822-P03-CH0	1963696	OK	0.8203204	-0.2617763	-0.5084758	0	-89.902	-58.52	8.843	B5-03822-P03-CH1	1963696	OK	0.8106589	-0.3036927	-0.5006025	0	-98.626	-30.638	6.691	B5-03822-P04-CH0	1963696	OK	0.7201702	-0.219262	0.6582393	0	-123.225	-41.222	7.68	B5-03822-P04-CH1	1963696	OK	0.7363707	-0.6742856	0.0556518	0	-108.305	-47.313	2.43	NA
0.559559442824749	B5-03822-P01-CH0	1963704	OK	0.2381392	0.0210319	0.0576679	-0.9692893	104.167	6.358	-242.735	B5-03822-P02-CH0	1963704	OK	0.7003243	0.377365	-0.6059221	0	-70.761	-96.567	2.787	B5-03822-P02-CH1	1963704	OK	0.6373227	0.001322	-0.7705959	0	-72.907	-76.783	1.543	B5-03822-P03-CH0	1963704	OK	0.822008	-0.2669072	-0.503054	0	-89.948	-59.014	8.397	B5-03822-P03-CH1	1963704	OK	0.8107486	-0.3038441	-0.5003654	0	-98.554	-30.658	6.632	B5-03822-P04-CH0	1963704	OK	0.7208876	-0.2205907	0.657009	0	-123.231	-40.918	7.389	B5-03822-P04-CH1	1963704	OK	0.7366592	-0.6739383	0.0560387	0	-108.334	-47.175	2.272	NA
0.569551575732334	B5-03822-P01-CH0	1963712	OK	0.2380135	0.0210266	0.0576637	-0.9693206	104.103	6.366	-242.707	B5-03822-P02-CH0	1963712	OK	0.7012768	0.3856031	-0.5996008	0	-71.56	-96.483	2.456	B5-03822-P02-CH1	1963712	OK	0.6394273	-0.0004602	-0.7688514	0	-72.052	-77.029	1.301	B5-03822-P03-CH0	1963712	OK	0.8246711	-0.2736116	-0.4950295	0	-90.299	-59.104	8.224	B5-03822-P03-CH1	1963712	OK	0.8106594	-0.3041993	-0.5002941	0	-98.578	-30.678	6.469	B5-03822-P04-CH0	1963712	OK	0.721219	-0.2207606	0.6565881	0	-123.228	-41.455	7.837	B5-03822-P04-CH1	1963712	OK	0.7367358	-0.6738009	0.0566809	0	-108.4	-47.106	2.122	NA
0.579543708639919	B5-03822-P01-CH0	1963720	OK	0.2376901	0.0209887	0.0573381	-0.9694201	104.012	6.263	-242.665	B5-03822-P02-CH0	1963720	OK	0.7045984	0.3951917	-0.5893764	0	-71.786	-97.443	2.975	B5-03822-P02-CH1	1963720	OK	0.6384173	-0.0033296	-0.7696832	0	-72.072	-76.776	1.333	B5-03822-P03-CH0	1963720	OK	0.8286462	-0.2811241	-0.4840607	0	-90.291	-58.908	8.904	B5-03822-P03-CH1	1963720	OK	0.8106868	-0.3042917	-0.5001935	0	-98.465	-30.76	6.412	B5-03822-P04-CH0	1963720	OK	0.7213242	-0.2221571	0.6560013	0	-122.89	-41.371	8.389	B5-03822-P04-CH1	1963720	OK	0.7364711	-0.6740359	0.0573222	0	-108.206	-47.253	2.347	NA
0.589535841547503	B5-03822-P01-CH0	1963728	OK	0.2374187	0.0211515	0.0570552	-0.9694997	103.996	6.198	-242.635	B5-03822-P02-CH0	1963728	OK	0.7086299	0.4053654	-0.577514	0	-71.646	-98.592	2.526	B5-03822-P02-CH1	1963728	OK	0.6370322	-0.0016257	-0.7708355	0	-73.402	-77.491	2.269	B5-03822-P03-CH0	1963728	OK	0.831916	-0.2925669	-0.4715085	0	-90.754	-59.4	8.518	B5-03822-P03-CH1	1963728	OK	0.8104976	-0.3043903	-0.50044	0	-98.477	-30.848	6.435	B5-03822-P04-CH0	1963728	OK	0.7208979	-0.2257964	0.6552268	0	-122.54	-40.419	6.68	B5-03822-P04-CH1	1963728	OK	0.7362345	-0.6742456	0.0578933	0	-108.135	-47.366	2.419	NA
0.599527974455088	B5-03822-P01-CH0	1963736	OK	0.2370338	0.0214979	0.0565929	-0.9696134	104.039	6.206	-242.58	B5-03822-P02-CH0	1963736	OK	0.7088003	0.415439	-0.5700988	0	-72.759	-98.016	2.608	B5-03822-P02-CH1	1963736	OK	0.6422087	0.0029381	-0.7665242	0	-73.175	-77.333	2.277	B5-03822-P03-CH0	1963736	OK	0.8370432	-0.3034671	-0.4552652	0	-90.7	-59.672	8.976	B5-03822-P03-CH1	1963736	OK	0.8101904	-0.3042584	-0.5010173	0	-98.605	-30.808	6.521	B5-03822-P04-CH0	1963736	OK	0.7218024	-0.2265521	0.653969	0	-122.988	-41.247	7.487	B5-03822-P04-CH1	1963736	OK	0.7357542	-0.6747461	0.0581672	0	-108.22	-47.456	2.346	NA
0.609520107362673	B5-03822-P01-CH0	1963744	OK	0.2367582	0.0215769	0.0564647	-0.9696864	104.033	6.123	-242.562	B5-03822-P02-CH0	1963744	OK	0.7108597	0.4224963	-0.5622947	0	-73.518	-98.908	2.482	B5-03822-P02-CH1	1963744	OK	0.6503821	0.0087717	-0.7595566	0	-72.243	-77.441	1.665	B5-03822-P03-CH0	1963744	OK	0.8418097	-0.3138652	-0.4391412	0	-90.953	-59.717	9.461	B5-03822-P03-CH1	1963744	OK	0.8099408	-0.3038368	-0.5016762	0	-98.73	-30.82	6.523	B5-03822-P04-CH0	1963744	OK	0.7209422	-0.2310791	0.6533337	0	-122.289	-39.927	5.466	B5-03822-P04-CH1	1963744	OK	0.7356965	-0.6747765	0.0585438	0	-108.308	-47.596	2.617	NA
0.619512240270258	B5-03822-P01-CH0	1963752	OK	0.2363821	0.0215261	0.0558461	-0.9698151	103.954	6.035	-242.608	B5-03822-P02-CH0	1963752	OK	0.7130422	0.4274766	-0.5557289	0	-73.468	-99.13	3.088	B5-03822-P02-CH1	1963752	OK	0.6528221	0.0112606	-0.7574275	0	-73.474	-78.426	1.673	B5-03822-P03-CH0	1963752	OK	0.8453918	-0.319247	-0.4282453	0	-90.845	-59.899	9.741	B5-03822-P03-CH1	1963752	OK	0.809862	-0.3036059	-0.5019432	0	-98.654	-30.916	6.575	B5-03822-P04-CH0	1963752	OK	0.7213776	-0.2313444	0.6527588	0	-122.448	-40.628	7.105	B5-03822-P04-CH1	1963752	OK	0.735426	-0.6750731	0.0585233	0	-108.431	-47.612	3.019	NA
0.629504373177843	B5-03822-P01-CH0	1963760	OK	0.2360621	0.0217573	0.0552474	-0.9699222	103.973	5.993	-242.581	B5-03822-P02-CH0	1963760	OK	0.7151513	0.4305301	-0.5506382	0	-73.589	-99.389	3.483	B5-03822-P02-CH1	1963760	OK	0.6560172	0.0091568	-0.7546904	0	-73.187	-77.017	2.029	B5-03822-P03-CH0	1963760	OK	0.8466245	-0.315876	-0.4283097	0	-91.967	-59.904	10.556	B5-03822-P03-CH1	1963760	OK	0.8097974	-0.303281	-0.5022438	0	-98.627	-30.948	6.7	B5-03822-P04-CH0	1963760	OK	0.721729	-0.2325231	0.6519511	0	-122.729	-40.639	7.686	B5-03822-P04-CH1	1963760	OK	0.7350659	-0.6754668	0.058504	0	-108.624	-47.635	3.316	NA
0.639496506085427	B5-03822-P01-CH0	1963768	OK	0.2358869	0.0219797	0.0548422	-0.9699828	104.034	5.961	-242.577	B5-03822-P02-CH0	1963768	OK	0.7168154	0.4313877	-0.5477959	0	-73.71	-99.074	3.746	B5-03822-P02-CH1	1963768	OK	0.6595206	0.0125651	-0.7515815	0	-73.199	-77.182	1.854	B5-03822-P03-CH0	1963768	OK	0.8481833	-0.3100762	-0.4294624	0	-92.361	-59.989	10.566	B5-03822-P03-CH1	1963768	OK	0.8097042	-0.3029048	-0.5026209	0	-98.69	-30.965	6.788	B5-03822-P04-CH0	1963768	OK	0.7209077	-0.23463	0.6521049	0	-122.581	-40.772	7.71	B5-03822-P04-CH1	1963768	OK	0.7349173	-0.6756347	0.0584324	0	-108.743	-47.652	3.765	NA
0.649488638993012	B5-03822-P01-CH0	1963776	OK	0.2359429	0.0217375	0.054958	-0.9699681	103.958	5.937	-242.629	B5-03822-P02-CH0	1963776	OK	0.7165114	0.4308173	-0.5486419	0	-74.491	-98.965	3.533	B5-03822-P02-CH1	1963776	OK	0.6637494	0.0164835	-0.7477734	0	-73.158	-77.91	0.694	B5-03822-P03-CH0	1963776	OK	0.8487064	-0.3006142	-0.435119	0	-92.526	-60.066	10.099	B5-03822-P03-CH1	1963776	OK	0.8098568	-0.3025083	-0.5026138	0	-98.651	-30.99	6.771	B5-03822-P04-CH0	1963776	OK	0.7204149	-0.2314535	0.6537826	0	-122.31	-40.304	7.193	B5-03822-P04-CH1	1963776	OK	0.7350726	-0.6754454	0.0586674	0	-108.676	-47.665	3.853	NA
0.659480771900597	B5-03822-P01-CH0	1963784	OK	0.2356334	0.0218506	0.0540901	-0.9700895	103.962	5.881	-242.653	B5-03822-P02-CH0	1963784	OK	0.7168934	0.428636	-0.54985	0	-74.62	-98.93	3.768	B5-03822-P02-CH1	1963784	OK	0.6672349	0.0214148	-0.7445395	0	-73.592	-78.102	1.899	B5-03822-P03-CH0	1963784	OK	0.8477171	-0.2869056	-0.4461624	0	-92.622	-59.95	10.494	B5-03822-P03-CH1	1963784	OK	0.8097469	-0.3022908	-0.5029217	0	-98.62	-31.01	6.798	B5-03822-P04-CH0	1963784	OK	0.7201545	-0.2336285	0.6532957	0	-122.22	-40.223	7.146	B5-03822-P04-CH1	1963784	OK	0.7345279	-0.6760737	0.0582505	0	-108.652	-47.643	4.168	NA
0.669472904808182	B5-03822-P01-CH0	1963792	OK	0.2355665	0.0218172	0.0540282	-0.97011	103.951	5.809	-242.628	B5-03822-P02-CH0	1963792	OK	0.7174942	0.4249446	-0.5519277	0	-74.432	-99.385	3.787	B5-03822-P02-CH1	1963792	OK	0.6717227	0.0252636	-0.7403718	0	-72.893	-78.081	1.113	B5-03822-P03-CH0	1963792	OK	0.8462627	-0.2748248	-0.4564108	0	-92.445	-60.157	10.24	B5-03822-P03-CH1	1963792	OK	0.8099578	-0.3016864	-0.502945	0	-98.517	-31.037	6.925	B5-03822-P04-CH0	1963792	OK	0.7199946	-0.2355438	0.652784	0	-122.06	-40.17	6.942	B5-03822-P04-CH1	1963792	OK	0.7343967	-0.6762409	0.0579632	0	-108.644	-47.76	4.228	NA
0.679465037715767	B5-03822-P01-CH0	1963800	OK	0.235668	0.021839	0.0541427	-0.9700785	103.969	5.877	-242.653	B5-03822-P02-CH0	1963800	OK	0.7166607	0.4218445	-0.5553779	0	-75.182	-99.295	3.691	B5-03822-P02-CH1	1963800	OK	0.672253	0.0330061	-0.7395854	0	-74.223	-78.985	0.981	B5-03822-P03-CH0	1963800	OK	0.8453045	-0.2619446	-0.4656664	0	-91.946	-59.844	10.657	B5-03822-P03-CH1	1963800	OK	0.8099484	-0.3012582	-0.5032167	0	-98.598	-30.995	7.034	B5-03822-P04-CH0	1963800	OK	0.719815	-0.2374542	0.6522897	0	-121.915	-39.916	6.722	B5-03822-P04-CH1	1963800	OK	0.7344061	-0.6762344	0.0579199	0	-108.61	-47.754	4.15	NA
0.689457170623351	B5-03822-P01-CH0	1963808	OK	0.2357602	0.0217323	0.0542667	-0.9700515	103.966	5.834	-242.664	B5-03822-P02-CH0	1963808	OK	0.7196911	0.4172965	-0.5548949	0	-74.427	-99.628	2.931	B5-03822-P02-CH1	1963808	OK	0.6745112	0.0396952	-0.7371967	0	-74.793	-78.691	2.604	B5-03822-P03-CH0	1963808	OK	0.8429679	-0.2470776	-0.477868	0	-91.748	-59.53	9.97	B5-03822-P03-CH1	1963808	OK	0.8100708	-0.3008828	-0.5032444	0	-98.566	-31.058	6.997	B5-03822-P04-CH0	1963808	OK	0.7198084	-0.2385598	0.6518935	0	-121.9	-39.993	6.734	B5-03822-P04-CH1	1963808	OK	0.7344546	-0.6762058	0.0576378	0	-108.559	-47.798	4.003	NA
0.699449303530936	B5-03822-P01-CH0	1963816	OK	0.2360745	0.0215894	0.0547867	-0.969949	103.948	5.832	-242.672	B5-03822-P02-CH0	1963816	OK	0.7199462	0.4152159	-0.5561234	0	-74.719	-98.941	3.219	B5-03822-P02-CH1	1963816	OK	0.678355	0.046019	-0.7332917	0	-74.762	-78.696	1.236	B5-03822-P03-CH0	1963816	OK	0.8391666	-0.2315472	-0.4921233	0	-92.318	-59.428	10.628	B5-03822-P03-CH1	1963816	OK	0.8102767	-0.3005537	-0.5031095	0	-98.574	-31.066	6.923	B5-03822-P04-CH0	1963816	OK	0.7196118	-0.2394959	0.6517672	0	-121.722	-39.977	6.568	B5-03822-P04-CH1	1963816	OK	0.7347271	-0.6759021	0.0577268	0	-108.408	-47.872	3.78	NA
0.709441436438521	B5-03822-P01-CH0	1963824	OK	0.2361797	0.0215365	0.0545647	-0.9699371	103.94	5.795	-242.647	B5-03822-P02-CH0	1963824	OK	0.721917	0.4131927	-0.5550744	0	-74.732	-99.352	3.18	B5-03822-P02-CH1	1963824	OK	0.6815688	0.0516312	-0.7299302	0	-74.671	-78.396	1.428	B5-03822-P03-CH0	1963824	OK	0.8360791	-0.2200941	-0.5025239	0	-92.369	-59.34	10.129	B5-03822-P03-CH1	1963824	OK	0.8104208	-0.3004358	-0.5029477	0	-98.501	-31.164	6.831	B5-03822-P04-CH0	1963824	OK	0.7193872	-0.2403701	0.6516933	0	-121.68	-40.038	6.64	B5-03822-P04-CH1	1963824	OK	0.7345823	-0.6760803	0.0574829	0	-108.268	-47.886	3.804	NA
0.719433569346106	B5-03822-P01-CH0	1963832	OK	0.2361078	0.021439	0.0545903	-0.9699553	103.919	5.772	-242.631	B5-03822-P02-CH0	1963832	OK	0.7226587	0.4122801	-0.5547878	0	-74.909	-99.175	3.46	B5-03822-P02-CH1	1963832	OK	0.6844211	0.0559617	-0.726936	0	-74.524	-78.396	2.339	B5-03822-P03-CH0	1963832	OK	0.8345494	-0.2139782	-0.5076817	0	-91.711	-59.004	10.002	B5-03822-P03-CH1	1963832	OK	0.8106989	-0.299743	-0.5029129	0	-98.468	-31.092	6.8	B5-03822-P04-CH0	1963832	OK	0.7191815	-0.241527	0.6514927	0	-121.598	-39.962	6.604	B5-03822-P04-CH1	1963832	OK	0.7344719	-0.676228	0.0571551	0	-108.1	-47.89	3.559	NA
0.729425702253691	B5-03822-P01-CH0	1963840	OK	0.2360472	0.0214052	0.0543096	-0.9699866	103.942	5.72	-242.64	B5-03822-P02-CH0	1963840	OK	0.7253446	0.4104105	-0.5526648	0	-74.384	-99.232	3.12	B5-03822-P02-CH1	1963840	OK	0.6870388	0.060089	-0.7241319	0	-74.562	-79.307	1.639	B5-03822-P03-CH0	1963840	OK	0.8320701	-0.2123517	-0.512412	0	-92.249	-59.142	9.609	B5-03822-P03-CH1	1963840	OK	0.8108487	-0.2992899	-0.5029413	0	-98.458	-31.088	6.658	B5-03822-P04-CH0	1963840	OK	0.7188778	-0.2426608	0.6514065	0	-121.482	-39.906	6.599	B5-03822-P04-CH1	1963840	OK	0.7342003	-0.6765512	0.056818	0	-107.99	-47.969	3.496	NA
0.739417835161275	B5-03822-P01-CH0	1963848	OK	0.2361751	0.0212698	0.054217	-0.9699636	103.918	5.67	-242.593	B5-03822-P02-CH0	1963848	OK	0.7262164	0.40935	-0.5523064	0	-74.766	-99.128	3.126	B5-03822-P02-CH1	1963848	OK	0.6904262	0.0619485	-0.7207455	0	-74.485	-78.635	2.069	B5-03822-P03-CH0	1963848	OK	0.8319758	-0.2082142	-0.5142598	0	-91.983	-59.196	8.766	B5-03822-P03-CH1	1963848	OK	0.8109571	-0.2990756	-0.502894	0	-98.426	-31.167	6.529	B5-03822-P04-CH0	1963848	OK	0.7187938	-0.24312	0.6513279	0	-121.394	-39.947	6.529	B5-03822-P04-CH1	1963848	OK	0.7340666	-0.6767079	0.05668	0	-107.923	-48.069	3.464	NA
0.74940996806886	B5-03822-P01-CH0	1963856	OK	0.2364587	0.0214146	0.0547607	-0.9698608	104.031	5.713	-242.556	B5-03822-P02-CH0	1963856	OK	0.7268372	0.4087766	-0.5519142	0	-75.445	-99.458	2.847	B5-03822-P02-CH1	1963856	OK	0.6950775	0.0616017	-0.7162908	0	-73.935	-77.889	0.509	B5-03822-P03-CH0	1963856	OK	0.832498	-0.2010901	-0.5162459	0	-92.11	-58.743	8.36	B5-03822-P03-CH1	1963856	OK	0.8110984	-0.2986269	-0.5029328	0	-98.535	-31.171	6.467	B5-03822-P04-CH0	1963856	OK	0.7191043	-0.2430104	0.6510261	0	-121.433	-39.981	6.574	B5-03822-P04-CH1	1963856	OK	0.7345012	-0.6762379	0.0566584	0	-108.051	-48.095	3.525	NA
0.759402100976445	B5-03822-P01-CH0	1963864	OK	0.2370323	0.0213021	0.0555919	-0.9696759	104.087	5.722	-242.523	B5-03822-P02-CH0	1963864	OK	0.7279214	0.4083021	-0.5508356	0	-75.255	-99.344	2.442	B5-03822-P02-CH1	1963864	OK	0.6973285	0.0595801	-0.7142711	0	-74.676	-78.421	0.198	B5-03822-P03-CH0	1963864	OK	0.8338446	-0.1949346	-0.5164337	0	-92.039	-58.633	9.057	B5-03822-P03-CH1	1963864	OK	0.8113951	-0.298231	-0.502689	0	-98.613	-31.212	6.406	B5-03822-P04-CH0	1963864	OK	0.7195418	-0.242236	0.6508313	0	-121.441	-40.093	6.727	B5-03822-P04-CH1	1963864	OK	0.7351921	-0.6754505	0.0570896	0	-108.187	-48.183	3.47	NA
0.76939423388403	B5-03822-P01-CH0	1963872	OK	0.2371048	0.0213071	0.0553637	-0.9696712	104.127	5.753	-242.523	B5-03822-P02-CH0	1963872	OK	0.7306348	0.4075861	-0.5477649	0	-74.731	-99.763	1.997	B5-03822-P02-CH1	1963872	OK	0.6998069	0.056179	-0.7121195	0	-74.598	-78.735	0.389	B5-03822-P03-CH0	1963872	OK	0.8354109	-0.1956442	-0.5136263	0	-92.229	-58.534	9.077	B5-03822-P03-CH1	1963872	OK	0.8114464	-0.2979641	-0.5027645	0	-98.663	-31.228	6.372	B5-03822-P04-CH0	1963872	OK	0.7196891	-0.2421291	0.6507081	0	-121.519	-40.078	6.796	B5-03822-P04-CH1	1963872	OK	0.7352214	-0.675407	0.0572263	0	-108.267	-48.098	3.613	NA
0.779386366791615	B5-03822-P01-CH0	1963880	OK	0.2373454	0.0214263	0.0553754	-0.969609	104.222	5.763	-242.522	B5-03822-P02-CH0	1963880	OK	0.7297412	0.4088614	-0.5480056	0	-75.359	-99.493	2.53	B5-03822-P02-CH1	1963880	OK	0.6987947	0.0523347	-0.7134053	0	-75.152	-79.256	0.833	B5-03822-P03-CH0	1963880	OK	0.8377176	-0.2053746	-0.5060143	0	-92.618	-59.099	9.137	B5-03822-P03-CH1	1963880	OK	0.8115712	-0.2976036	-0.5027765	0	-98.697	-31.266	6.327	B5-03822-P04-CH0	1963880	OK	0.7199294	-0.2417536	0.6505819	0	-121.59	-40.189	6.923	B5-03822-P04-CH1	1963880	OK	0.7355472	-0.6750489	0.0572648	0	-108.472	-47.981	3.75	NA
0.789378499699199	B5-03822-P01-CH0	1963888	OK	0.2376179	0.0215966	0.0554472	-0.9695344	104.324	5.809	-242.463	B5-03822-P02-CH0	1963888	OK	0.7282871	0.4106965	-0.5485675	0	-76.159	-99.818	2.948	B5-03822-P02-CH1	1963888	OK	0.6956518	0.0473476	-0.7168171	0	-75.353	-79.172	0.892	B5-03822-P03-CH0	1963888	OK	0.8416492	-0.2216597	-0.4924364	0	-92.598	-59.188	10.206	B5-03822-P03-CH1	1963888	OK	0.8116281	-0.2973199	-0.5028526	0	-98.761	-31.303	6.316	B5-03822-P04-CH0	1963888	OK	0.7202061	-0.2417402	0.6502806	0	-121.632	-40.157	6.896	B5-03822-P04-CH1	1963888	OK	0.7358293	-0.6747354	0.057336	0	-108.649	-47.926	4.112	NA
0.799370632606784	B5-03822-P01-CH0	1963896	OK	0.2378182	0.021677	0.0553569	-0.9694886	104.405	5.841	-242.419	B5-03822-P02-CH0	1963896	OK	0.7277672	0.4115819	-0.5485939	0	-75.272	-100.265	3.282	B5-03822-P02-CH1	1963896	OK	0.6914191	0.0364537	-0.7215336	0	-74.556	-77.866	0.258	B5-03822-P03-CH0	1963896	OK	0.8429831	-0.2402811	-0.4812946	0	-93.039	-59.561	9.766	B5-03822-P03-CH1	1963896	OK	0.8116416	-0.2971442	-0.5029346	0	-98.797	-31.377	6.365	B5-03822-P04-CH0	1963896	OK	0.7204028	-0.2417231	0.650069	0	-121.671	-40.132	6.873	B5-03822-P04-CH1	1963896	OK	0.7360261	-0.6745053	0.0575173	0	-108.722	-47.84	4.41	NA
0.809362765514369	B5-03822-P01-CH0	1963904	OK	0.2381351	0.0215667	0.0555984	-0.9693995	104.422	5.927	-242.45	B5-03822-P02-CH0	1963904	OK	0.7237357	0.4131391	-0.5527411	0	-74.615	-99.529	3.029	B5-03822-P02-CH1	1963904	OK	0.684946	0.0259572	-0.7281313	0	-74.764	-78.912	0.663	B5-03822-P03-CH0	1963904	OK	0.8447861	-0.2585627	-0.4684889	0	-92.087	-59.883	9.955	B5-03822-P03-CH1	1963904	OK	0.8118164	-0.2968724	-0.502813	0	-98.795	-31.328	6.399	B5-03822-P04-CH0	1963904	OK	0.7206261	-0.2413966	0.6499429	0	-121.685	-40.063	6.895	B5-03822-P04-CH1	1963904	OK	0.7362255	-0.6742443	0.0580228	0	-108.771	-47.813	4.33	NA
0.819354898421954	B5-03822-P01-CH0	1963912	OK	0.2384633	0.0216276	0.0558782	-0.9693014	104.525	5.996	-242.473	B5-03822-P02-CH0	1963912	OK	0.7181841	0.4151957	-0.5584121	0	-75.167	-99.151	3.164	B5-03822-P02-CH1	1963912	OK	0.6798108	0.0163048	-0.7332062	0	-74.042	-78.615	0.26	B5-03822-P03-CH0	1963912	OK	0.8443076	-0.2726008	-0.4613388	0	-92.337	-59.895	9.955	B5-03822-P03-CH1	1963912	OK	0.8118202	-0.2966957	-0.5029112	0	-98.878	-31.335	6.416	B5-03822-P04-CH0	1963912	OK	0.7208281	-0.2409581	0.6498815	0	-121.711	-40.115	6.95	B5-03822-P04-CH1	1963912	OK	0.7366723	-0.6737327	0.0582941	0	-108.852	-47.733	4.566	NA
0.829347031329539	B5-03822-P01-CH0	1963920	OK	0.2388413	0.021596	0.0562403	-0.969188	104.596	6.036	-242.517	B5-03822-P02-CH0	1963920	OK	0.7156466	0.4158995	-0.5611395	0	-74.717	-99.572	2.535	B5-03822-P02-CH1	1963920	OK	0.676692	0.0080006	-0.7362228	0	-72.782	-78.883	-0.27	B5-03822-P03-CH0	1963920	OK	0.8444241	-0.2842695	-0.4540251	0	-92.035	-60.228	9.856	B5-03822-P03-CH1	1963920	OK	0.8117492	-0.2964468	-0.5031725	0	-98.988	-31.383	6.512	B5-03822-P04-CH0	1963920	OK	0.7210295	-0.2401752	0.6499479	0	-121.744	-40.314	7.089	B5-03822-P04-CH1	1963920	OK	0.7370757	-0.6732581	0.0586762	0	-108.811	-47.683	4.356	NA
0.839339164237124	B5-03822-P01-CH0	1963928	OK	0.2391352	0.0216843	0.0566766	-0.9690882	104.671	6.162	-242.542	B5-03822-P02-CH0	1963928	OK	0.7133603	0.4168491	-0.5633418	0	-74.065	-99.384	2.013	B5-03822-P02-CH1	1963928	OK	0.6719357	0.0036442	-0.7406005	0	-73.003	-79.271	0.136	B5-03822-P03-CH0	1963928	OK	0.8424873	-0.2913241	-0.4531505	0	-92.857	-60.314	9.466	B5-03822-P03-CH1	1963928	OK	0.8118579	-0.295979	-0.5032725	0	-99.07	-31.307	6.569	B5-03822-P04-CH0	1963928	OK	0.7213279	-0.2394225	0.6498946	0	-121.851	-40.333	7.244	B5-03822-P04-CH1	1963928	OK	0.7373986	-0.6728561	0.0592282	0	-108.804	-47.657	4.304	NA
0.849331297144708	B5-03822-P01-CH0	1963936	OK	0.2394263	0.0215658	0.0567639	-0.9690138	104.675	6.179	-242.571	B5-03822-P02-CH0	1963936	OK	0.7115015	0.4168664	-0.5656748	0	-73.523	-99.348	2.324	B5-03822-P02-CH1	1963936	OK	0.6671369	-0.0027598	-0.74493	0	-73.536	-78.052	1.518	B5-03822-P03-CH0	1963936	OK	0.8427814	-0.2959398	-0.4495988	0	-91.993	-60.392	9.867	B5-03822-P03-CH1	1963936	OK	0.8120917	-0.2955897	-0.5031241	0	-98.974	-31.377	6.719	B5-03822-P04-CH0	1963936	OK	0.7213467	-0.2388646	0.650079	0	-121.859	-40.436	7.229	B5-03822-P04-CH1	1963936	OK	0.7374951	-0.6727249	0.0595167	0	-108.689	-47.672	4.193	NA
0.859323430052293	B5-03822-P01-CH0	1963944	OK	0.2394022	0.0215654	0.0563777	-0.9690423	104.691	6.18	-242.588	B5-03822-P02-CH0	1963944	OK	0.7103489	0.416469	-0.5674134	0	-73.031	-99.289	2.833	B5-03822-P02-CH1	1963944	OK	0.6659576	-0.0072441	-0.7459545	0	-72.785	-77.468	0.766	B5-03822-P03-CH0	1963944	OK	0.8413467	-0.3001695	-0.449482	0	-91.843	-60.533	9.792	B5-03822-P03-CH1	1963944	OK	0.8121402	-0.2951314	-0.5033148	0	-98.945	-31.366	6.75	B5-03822-P04-CH0	1963944	OK	0.7210167	-0.2390951	0.6503603	0	-121.788	-40.347	7.126	B5-03822-P04-CH1	1963944	OK	0.7371556	-0.6730893	0.0596029	0	-108.553	-47.709	3.984	NA
0.869315562959878	B5-03822-P01-CH0	1963952	OK	0.2396461	0.0216627	0.0564133	-0.9689778	104.76	6.162	-242.535	B5-03822-P02-CH0	1963952	OK	0.7083357	0.4157147	-0.570475	0	-73.274	-99.133	3.065	B5-03822-P02-CH1	1963952	OK	0.6645644	-0.006434	-0.7472033	0	-73.042	-78.535	0.928	B5-03822-P03-CH0	1963952	OK	0.8402061	-0.3011413	-0.450963	0	-91.546	-60.552	9.448	B5-03822-P03-CH1	1963952	OK	0.8121678	-0.2947649	-0.5034849	0	-98.979	-31.416	6.668	B5-03822-P04-CH0	1963952	OK	0.7209658	-0.2388304	0.6505139	0	-121.802	-40.374	6.971	B5-03822-P04-CH1	1963952	OK	0.7371898	-0.6730311	0.0598348	0	-108.422	-47.814	3.942	NA
0.879307695867463	B5-03822-P01-CH0	1963960	OK	0.2397689	0.0214684	0.0565037	-0.9689465	104.754	6.142	-242.546	B5-03822-P02-CH0	1963960	OK	0.7063556	0.4156358	-0.5729822	0	-73.72	-99.398	3.678	B5-03822-P02-CH1	1963960	OK	0.6640237	-0.0066283	-0.7476822	0	-72.975	-78.59	1.159	B5-03822-P03-CH0	1963960	OK	0.8391285	-0.3018839	-0.4524704	0	-91.228	-60.788	9.583	B5-03822-P03-CH1	1963960	OK	0.8123426	-0.2942672	-0.5034941	0	-98.954	-31.451	6.663	B5-03822-P04-CH0	1963960	OK	0.7208019	-0.2382956	0.6508915	0	-121.791	-40.514	6.945	B5-03822-P04-CH1	1963960	OK	0.737173	-0.6730501	0.0598292	0	-108.256	-47.88	3.718	NA
0.889299828775048	B5-03822-P01-CH0	1963968	OK	0.2399395	0.0212179	0.0567274	-0.9688967	104.725	6.176	-242.603	B5-03822-P02-CH0	1963968	OK	0.7051067	0.4167047	-0.5737437	0	-73.473	-99.503	3.563	B5-03822-P02-CH1	1963968	OK	0.6652087	-0.0111324	-0.7465745	0	-71.557	-77.621	0.883	B5-03822-P03-CH0	1963968	OK	0.8380585	-0.3007756	-0.4551836	0	-91.286	-60.61	9.155	B5-03822-P03-CH1	1963968	OK	0.812597	-0.2936752	-0.5034293	0	-98.93	-31.423	6.707	B5-03822-P04-CH0	1963968	OK	0.7204132	-0.2379724	0.6514399	0	-121.643	-40.49	6.889	B5-03822-P04-CH1	1963968	OK	0.7372968	-0.6728797	0.060219	0	-108.048	-47.893	3.574	NA
0.899291961682632	B5-03822-P01-CH0	1963976	OK	0.2400917	0.0210849	0.0568709	-0.9688535	104.738	6.21	-242.692	B5-03822-P02-CH0	1963976	OK	0.7035678	0.4178765	-0.5747796	0	-73.333	-99.613	2.982	B5-03822-P02-CH1	1963976	OK	0.6609564	-0.0095909	-0.750363	0	-73.1	-78.346	1.318	B5-03822-P03-CH0	1963976	OK	0.8370833	-0.3011549	-0.4567245	0	-91.393	-60.586	9.423	B5-03822-P03-CH1	1963976	OK	0.812758	-0.2930748	-0.5035192	0	-98.952	-31.406	6.728	B5-03822-P04-CH0	1963976	OK	0.7203493	-0.2373858	0.6517245	0	-121.66	-40.493	7.048	B5-03822-P04-CH1	1963976	OK	0.7371435	-0.673008	0.0606612	0	-108.005	-48.103	3.54	NA
0.909284094590217	B5-03822-P01-CH0	1963984	OK	0.240248	0.0211026	0.0570759	-0.9688023	104.791	6.221	-242.66	B5-03822-P02-CH0	1963984	OK	0.7018149	0.4188317	-0.5762255	0	-72.947	-99.026	3.157	B5-03822-P02-CH1	1963984	OK	0.6600381	-0.0095257	-0.7511717	0	-73.094	-77.844	1.925	B5-03822-P03-CH0	1963984	OK	0.8366836	-0.3010761	-0.4575081	0	-91.24	-60.296	9.496	B5-03822-P03-CH1	1963984	OK	0.8128516	-0.2923581	-0.5037846	0	-99.005	-31.408	6.688	B5-03822-P04-CH0	1963984	OK	0.7203199	-0.2368996	0.6519339	0	-121.669	-40.571	7.093	B5-03822-P04-CH1	1963984	OK	0.7371341	-0.6730084	0.0607703	0	-108.006	-48.222	3.464	NA
0.919276227497802	B5-03822-P01-CH0	1963992	OK	0.2401182	0.0211823	0.0561254	-0.9688883	104.818	6.115	-242.613	B5-03822-P02-CH0	1963992	OK	0.7026269	0.4186905	-0.5753379	0	-72.36	-99.418	2.938	B5-03822-P02-CH1	1963992	OK	0.6608923	-0.0091131	-0.7504254	0	-72.447	-77.276	1.483	B5-03822-P03-CH0	1963992	OK	0.8354761	-0.3007421	-0.4599282	0	-91.179	-60.285	9.307	B5-03822-P03-CH1	1963992	OK	0.8128651	-0.2920647	-0.5039331	0	-98.906	-31.482	6.549	B5-03822-P04-CH0	1963992	OK	0.7199077	-0.2368149	0.6524198	0	-121.661	-40.687	7.172	B5-03822-P04-CH1	1963992	OK	0.7363919	-0.6738514	0.0604261	0	-108.046	-48.295	3.423	NA
0.929268360405387	B5-03822-P01-CH0	1964000	OK	0.2403335	0.0212605	0.0563726	-0.9688188	104.883	6.168	-242.59	B5-03822-P02-CH0	1964000	OK	0.7005873	0.4197969	-0.5770165	0	-73.03	-99.168	3.684	B5-03822-P02-CH1	1964000	OK	0.660844	-0.0082022	-0.7504785	0	-72.299	-77.463	0.658	B5-03822-P03-CH0	1964000	OK	0.8346311	-0.3009401	-0.4613306	0	-91.155	-60.327	8.952	B5-03822-P03-CH1	1964000	OK	0.8130664	-0.2915957	-0.5038799	0	-98.902	-31.519	6.56	B5-03822-P04-CH0	1964000	OK	0.7200308	-0.2363067	0.6524682	0	-121.749	-40.681	7.177	B5-03822-P04-CH1	1964000	OK	0.7365074	-0.6737075	0.0606225	0	-108.225	-48.328	3.518	NA
0.939260493312971	B5-03822-P01-CH0	1964008	OK	0.2402865	0.0210707	0.0561973	-0.9688448	104.867	6.153	-242.674	B5-03822-P02-CH0	1964008	OK	0.699582	0.4207091	-0.5775715	0	-73.079	-98.799	3.385	B5-03822-P02-CH1	1964008	OK	0.662379	-0.0054995	-0.7491488	0	-71.838	-77.864	0.84	B5-03822-P03-CH0	1964008	OK	0.8339375	-0.3017594	-0.4620494	0	-91.179	-60.437	8.905	B5-03822-P03-CH1	1964008	OK	0.8131376	-0.2910636	-0.5040726	0	-98.907	-31.507	6.543	B5-03822-P04-CH0	1964008	OK	0.7197102	-0.2364895	0.6527556	0	-121.695	-40.657	7.164	B5-03822-P04-CH1	1964008	OK	0.7365042	-0.6737366	0.0603365	0	-108.265	-48.196	3.457	NA
0.949252626220556	B5-03822-P01-CH0	1964016	OK	0.2402486	0.0211442	0.0558734	-0.9688713	104.909	6.147	-242.674	B5-03822-P02-CH0	1964016	OK	0.700814	0.4205989	-0.5761565	0	-72.288	-99.536	2.654	B5-03822-P02-CH1	1964016	OK	0.6625464	-0.0046931	-0.7490062	0	-72.193	-77.842	1.007	B5-03822-P03-CH0	1964016	OK	0.8334608	-0.3022164	-0.4626103	0	-91.422	-60.245	8.666	B5-03822-P03-CH1	1964016	OK	0.8130859	-0.2908132	-0.5043006	0	-98.948	-31.484	6.47	B5-03822-P04-CH0	1964016	OK	0.7194412	-0.2365299	0.6530375	0	-121.688	-40.623	7.125	B5-03822-P04-CH1	1964016	OK	0.7361614	-0.6741113	0.0603364	0	-108.17	-48.237	3.386	NA
0.959244759128141	B5-03822-P01-CH0	1964024	OK	0.2406336	0.0209318	0.0569754	-0.9687162	104.894	6.246	-242.716	B5-03822-P02-CH0	1964024	OK	0.697375	0.4234591	-0.5782305	0	-72.968	-99.047	3.296	B5-03822-P02-CH1	1964024	OK	0.6614049	-0.0035995	-0.7500204	0	-73.372	-78.39	0.95	B5-03822-P03-CH0	1964024	OK	0.8341943	-0.3025126	-0.4610922	0	-91.095	-60.12	8.96	B5-03822-P03-CH1	1964024	OK	0.8133423	-0.2904078	-0.5041206	0	-98.961	-31.502	6.404	B5-03822-P04-CH0	1964024	OK	0.7195913	-0.2357469	0.6531553	0	-121.676	-40.686	7.02	B5-03822-P04-CH1	1964024	OK	0.7366962	-0.6734758	0.0609022	0	-108.11	-48.344	3.261	NA
0.969236892035726	B5-03822-P01-CH0	1964032	OK	0.2405597	0.0209393	0.0566608	-0.9687529	104.905	6.213	-242.787	B5-03822-P02-CH0	1964032	OK	0.6965623	0.4260374	-0.5773154	0	-73.22	-99.529	3.271	B5-03822-P02-CH1	1964032	OK	0.6623155	-0.0074418	-0.7491881	0	-72.556	-77.972	1.267	B5-03822-P03-CH0	1964032	OK	0.8337454	-0.3037966	-0.4610599	0	-91.191	-60.427	9.097	B5-03822-P03-CH1	1964032	OK	0.8132957	-0.2900086	-0.5044256	0	-98.946	-31.468	6.469	B5-03822-P04-CH0	1964032	OK	0.7193556	-0.2357254	0.6534226	0	-121.623	-40.715	7.189	B5-03822-P04-CH1	1964032	OK	0.7363473	-0.6738571	0.0609033	0	-108.065	-48.383	3.315	NA
0.979229024943311	B5-03822-P01-CH0	1964040	OK	0.2404915	0.0211995	0.0566407	-0.9687653	104.991	6.266	-242.796	B5-03822-P02-CH0	1964040	OK	0.6963232	0.4276554	-0.5764068	0	-72.911	-99.519	3.078	B5-03822-P02-CH1	1964040	OK	0.6621094	-0.006831	-0.7493761	0	-72.645	-77.921	1.234	B5-03822-P03-CH0	1964040	OK	0.8342998	-0.3034178	-0.4603058	0	-91.22	-60.451	9.437	B5-03822-P03-CH1	1964040	OK	0.8131652	-0.2898036	-0.5047535	0	-99.026	-31.444	6.525	B5-03822-P04-CH0	1964040	OK	0.7194361	-0.2357547	0.6533233	0	-121.715	-40.622	7.199	B5-03822-P04-CH1	1964040	OK	0.7361987	-0.6740188	0.0609104	0	-108.092	-48.357	3.176	NA
