Wav.Time	B5.03822.P01.CH0	Frame	State	Q0	Qx	Qy	Qz	Tx	Ty	Tz	B5.03822.P02.CH0	Frame.1	State.1	Q0.1	Qx.1	Qy.1	Qz.1	Tx.1	Ty.1	Tz.1	B5.03822.P02.CH1	Frame.2	State.2	Q0.2	Qx.2	Qy.2	Qz.2	Tx.2	Ty.2	Tz.2	B5.03822.P03.CH0	Frame.3	State.3	Q0.3	Qx.3	Qy.3	Qz.3	Tx.3	Ty.3	Tz.3	B5.03822.P03.CH1	Frame.4	State.4	Q0.4	Qx.4	Qy.4	Qz.4	Tx.4	Ty.4	Tz.4	B5.03822.P04.CH0	Frame.5	State.5	Q0.5	Qx.5	Qy.5	Qz.5	Tx.5	Ty.5	Tz.5	B5.03822.P04.CH1	Frame.6	State.6	Q0.6	Qx.6	Qy.6	Qz.6	Tx.6	Ty.6	Tz.6	X
0	B5-03822-P01-CH0	1722640	OK	0.2489274	0.0340059	0.0649304	-0.9657447	135.974	-42.383	-266.116	B5-03822-P02-CH0	1722640	OK	0.6104127	0.4563814	-0.6473889	0	-73.739	-103.587	-2.308	B5-03822-P02-CH1	1722640	OK	0.6834883	0.0291675	-0.7293785	0	-73.165	-83.764	-4.359	B5-03822-P03-CH0	1722640	OK	0.8368148	-0.3550498	-0.41675	0	-93.72	-65.574	-0.03	B5-03822-P03-CH1	1722640	OK	0.7318809	-0.61315	0.297317	0	-98.892	-20.506	-11.897	B5-03822-P04-CH0	1722640	OK	0.7384039	-0.3848729	0.5537441	0	-124.252	-49.583	4.511	B5-03822-P04-CH1	1722640	OK	0.7307685	-0.6366595	0.2462563	0	-106.476	-36.103	-16.04	NA
0.00999175427746856	B5-03822-P01-CH0	1722648	OK	0.2488872	0.0339706	0.0648422	-0.9657622	135.974	-42.383	-266.211	B5-03822-P02-CH0	1722648	OK	0.6101591	0.4575822	-0.6467801	0	-73.84	-103.541	-2.124	B5-03822-P02-CH1	1722648	OK	0.6739264	0.0402296	-0.7377023	0	-71.656	-82.436	-5.497	B5-03822-P03-CH0	1722648	OK	0.8379964	-0.3626358	-0.4077465	0	-93.17	-66.845	0.684	B5-03822-P03-CH1	1722648	OK	0.7326662	-0.6159112	0.2895749	0	-97.987	-16.944	-14.445	B5-03822-P04-CH0	1722648	OK	0.7405058	-0.3734708	0.5587224	0	-124.165	-45.964	0.763	B5-03822-P04-CH1	1722648	OK	0.7304074	-0.6368697	0.2467834	0	-106.45	-36.308	-15.795	NA
0.0199835085549371	B5-03822-P01-CH0	1722656	OK	0.2488845	0.0337171	0.0649179	-0.9657667	135.902	-42.379	-266.292	B5-03822-P02-CH0	1722656	OK	0.6101518	0.4754289	-0.633784	0	-74.693	-104.682	-1.804	B5-03822-P02-CH1	1722656	OK	0.6615963	0.0516121	-0.7480819	0	-71.546	-82.732	-4.913	B5-03822-P03-CH0	1722656	OK	0.8390463	-0.3740663	-0.3950641	0	-92.285	-67.817	0.596	B5-03822-P03-CH1	1722656	OK	0.7327444	-0.6174143	0.2861558	0	-98.047	-15.396	-14.739	B5-03822-P04-CH0	1722656	OK	0.7409613	-0.362699	0.5651777	0	-124.837	-47.86	1.803	B5-03822-P04-CH1	1722656	OK	0.7302653	-0.6369175	0.2470805	0	-106.318	-36.302	-15.854	NA
0.0299752628324057	B5-03822-P01-CH0	1722664	OK	0.248884	0.033557	0.0655319	-0.9657309	135.844	-42.287	-266.309	B5-03822-P02-CH0	1722664	OK	0.6130547	0.4828856	-0.6252882	0	-74.259	-104.723	-2.786	B5-03822-P02-CH1	1722664	OK	0.6522145	0.0620314	-0.7554921	0	-70.422	-82.419	-3.797	B5-03822-P03-CH0	1722664	OK	0.841414	-0.3848519	-0.3793568	0	-90.976	-68.15	0.358	B5-03822-P03-CH1	1722664	OK	0.7286406	-0.6188449	0.2934517	0	-99.375	-18.984	-12.339	B5-03822-P04-CH0	1722664	OK	0.740648	-0.3594933	0.5676312	0	-123.227	-45.844	1.31	B5-03822-P04-CH1	1722664	OK	0.7311494	-0.6362895	0.2460819	0	-106.264	-35.493	-16.739	NA
0.0399670171098743	B5-03822-P01-CH0	1722672	OK	0.2489832	0.0332501	0.065919	-0.9656896	135.743	-42.248	-266.421	B5-03822-P02-CH0	1722672	OK	0.6149638	0.4909919	-0.6170466	0	-74.182	-104.781	-2.973	B5-03822-P02-CH1	1722672	OK	0.6448315	0.0704291	-0.761073	0	-69.355	-82.388	-3.781	B5-03822-P03-CH0	1722672	OK	0.8438981	-0.3935389	-0.364641	0	-90.479	-68.438	0.921	B5-03822-P03-CH1	1722672	OK	0.7239139	-0.6206433	0.3012484	0	-100.452	-23.474	-7.676	B5-03822-P04-CH0	1722672	OK	0.7412473	-0.3504709	0.5724705	0	-123.463	-46.386	0.716	B5-03822-P04-CH1	1722672	OK	0.7309749	-0.6361967	0.2468389	0	-106.18	-35.641	-16.864	NA
0.0499587713873428	B5-03822-P01-CH0	1722680	OK	0.2488631	0.0332043	0.06535	-0.9657608	135.731	-42.31	-266.565	B5-03822-P02-CH0	1722680	OK	0.6194227	0.4984572	-0.6065113	0	-73.546	-105.512	-3.045	B5-03822-P02-CH1	1722680	OK	0.6383399	0.0800645	-0.7655795	0	-69.135	-83.326	-3.938	B5-03822-P03-CH0	1722680	OK	0.8457157	-0.4044557	-0.3481099	0	-90.123	-69.305	1.424	B5-03822-P03-CH1	1722680	OK	0.7250863	-0.6222914	0.2949631	0	-99.68	-20.948	-10.572	B5-03822-P04-CH0	1722680	OK	0.740518	-0.3424467	0.5782416	0	-122.426	-46.673	1.283	B5-03822-P04-CH1	1722680	OK	0.7310322	-0.6365385	0.2457858	0	-106.063	-35.087	-17.586	NA
0.0599505256648114	B5-03822-P01-CH0	1722688	OK	0.2487471	0.0331815	0.0649845	-0.9658162	135.68	-42.355	-266.522	B5-03822-P02-CH0	1722688	OK	0.6211986	0.5070203	-0.5975305	0	-73.829	-105.329	-3.048	B5-03822-P02-CH1	1722688	OK	0.6340705	0.0877044	-0.7682855	0	-67.986	-83.001	-3.725	B5-03822-P03-CH0	1722688	OK	0.8481391	-0.4170784	-0.3266584	0	-90.247	-69.687	0.788	B5-03822-P03-CH1	1722688	OK	0.7287247	-0.6228785	0.2845747	0	-98.009	-16.744	-12.245	B5-03822-P04-CH0	1722688	OK	0.7418567	-0.3375241	0.5794188	0	-122.397	-44.827	-0.534	B5-03822-P04-CH1	1722688	OK	0.7301942	-0.637155	0.2466777	0	-105.954	-35.567	-17.542	NA
0.0699422799422799	B5-03822-P01-CH0	1722696	OK	0.2487213	0.0329555	0.0650789	-0.9658242	135.61	-42.418	-266.509	B5-03822-P02-CH0	1722696	OK	0.6235166	0.5180514	-0.5855338	0	-73.72	-105.362	-2.978	B5-03822-P02-CH1	1722696	OK	0.6273739	0.0996669	-0.7723137	0	-68.275	-83.577	-3.642	B5-03822-P03-CH0	1722696	OK	0.8525628	-0.4305709	-0.2962185	0	-88.843	-71.282	1.701	B5-03822-P03-CH1	1722696	OK	0.7301882	-0.6238734	0.2785806	0	-97.879	-15.503	-14.075	B5-03822-P04-CH0	1722696	OK	0.7415525	-0.3245625	0.5871618	0	-123.657	-48.281	0.167	B5-03822-P04-CH1	1722696	OK	0.7311208	-0.6371007	0.2440594	0	-105.333	-34.096	-19.371	NA
0.0799340342197485	B5-03822-P01-CH0	1722704	OK	0.2485191	0.0328511	0.0650294	-0.9658832	135.543	-42.379	-266.562	B5-03822-P02-CH0	1722704	OK	0.626325	0.5316925	-0.5701054	0	-74.237	-105.64	-2.915	B5-03822-P02-CH1	1722704	OK	0.6242741	0.1088494	-0.7735849	0	-67.495	-82.899	-2.978	B5-03822-P03-CH0	1722704	OK	0.8575946	-0.4385692	-0.2686793	0	-87.947	-71.764	2.641	B5-03822-P03-CH1	1722704	OK	0.7297301	-0.6237007	0.2801631	0	-98.535	-17.989	-11.103	B5-03822-P04-CH0	1722704	OK	0.7422222	-0.3186867	0.5895295	0	-123.88	-47.766	1.408	B5-03822-P04-CH1	1722704	OK	0.7309848	-0.6373008	0.2439444	0	-105.351	-34.033	-19.547	NA
0.0899257884972171	B5-03822-P01-CH0	1722712	OK	0.2483303	0.0330409	0.0644034	-0.9659672	135.568	-42.362	-266.578	B5-03822-P02-CH0	1722712	OK	0.6323069	0.5425759	-0.5529913	0	-74.643	-106.28	-2.901	B5-03822-P02-CH1	1722712	OK	0.6250028	0.1236058	-0.7707744	0	-67.179	-84.298	-2.426	B5-03822-P03-CH0	1722712	OK	0.8630365	-0.442417	-0.2437935	0	-87.305	-72.185	3.418	B5-03822-P03-CH1	1722712	OK	0.7294979	-0.6241779	0.2797048	0	-99.072	-19.207	-12.295	B5-03822-P04-CH0	1722712	OK	0.7423823	-0.3140758	0.5917981	0	-124.651	-48.091	0.813	B5-03822-P04-CH1	1722712	OK	0.7310099	-0.6375242	0.2432847	0	-105.344	-33.493	-20.084	NA
0.0999175427746856	B5-03822-P01-CH0	1722720	OK	0.2486082	0.0329617	0.0651465	-0.9658485	135.615	-42.38	-266.527	B5-03822-P02-CH0	1722720	OK	0.6366228	0.5514645	-0.5390717	0	-75.027	-105.075	-3.8	B5-03822-P02-CH1	1722720	OK	0.626874	0.1282862	-0.7684866	0	-67.539	-83.512	-1.269	B5-03822-P03-CH0	1722720	OK	0.8680599	-0.4418476	-0.2263688	0	-88.606	-72.451	3.143	B5-03822-P03-CH1	1722720	OK	0.7311484	-0.6214656	0.2814293	0	-99.422	-21.13	-10.168	B5-03822-P04-CH0	1722720	OK	0.7425378	-0.309709	0.5939007	0	-125.28	-49.077	1.706	B5-03822-P04-CH1	1722720	OK	0.7312952	-0.6369628	0.2438967	0	-105.317	-33.652	-20.297	NA
0.109909297052154	B5-03822-P01-CH0	1722728	OK	0.2483356	0.0329692	0.0649822	-0.9659295	135.652	-42.45	-266.542	B5-03822-P02-CH0	1722728	OK	0.6428319	0.5589326	-0.5237954	0	-75.881	-105.192	-4.402	B5-03822-P02-CH1	1722728	OK	0.635412	0.1350879	-0.760265	0	-66.463	-84.036	-4.613	B5-03822-P03-CH0	1722728	OK	0.8725345	-0.443581	-0.2047424	0	-88.36	-73.951	3.343	B5-03822-P03-CH1	1722728	OK	0.7388642	-0.6188829	0.2665777	0	-97.445	-15.876	-14.581	B5-03822-P04-CH0	1722728	OK	0.7427829	-0.3105617	0.5931483	0	-125.152	-48.053	0.757	B5-03822-P04-CH1	1722728	OK	0.7310167	-0.636825	0.2450887	0	-105.59	-34.106	-19.713	NA
0.119901051329623	B5-03822-P01-CH0	1722736	OK	0.2481894	0.0329204	0.0645876	-0.9659952	135.632	-42.518	-266.573	B5-03822-P02-CH0	1722736	OK	0.6508429	0.5611972	-0.5113327	0	-76.657	-106.271	-3.777	B5-03822-P02-CH1	1722736	OK	0.6379545	0.1423619	-0.7568006	0	-66.513	-84.064	-4.238	B5-03822-P03-CH0	1722736	OK	0.8772409	-0.4417798	-0.187827	0	-89.555	-74.176	3.704	B5-03822-P03-CH1	1722736	OK	0.7467899	-0.6142641	0.2549206	0	-95.19	-10.874	-17.815	B5-03822-P04-CH0	1722736	OK	0.7430675	-0.3120289	0.5920209	0	-124.916	-47.053	0.101	B5-03822-P04-CH1	1722736	OK	0.7297728	-0.6371616	0.2479048	0	-105.833	-35.122	-19.642	NA
0.129892805607091	B5-03822-P01-CH0	1722744	OK	0.2481228	0.0331124	0.0636505	-0.9660679	135.721	-42.649	-266.654	B5-03822-P02-CH0	1722744	OK	0.6600472	0.559216	-0.5016126	0	-77.071	-106.913	-2.991	B5-03822-P02-CH1	1722744	OK	0.6378588	0.1523486	-0.7549345	0	-67.776	-85.344	-1.932	B5-03822-P03-CH0	1722744	OK	0.881253	-0.4416597	-0.1683146	0	-89.203	-74.921	4.836	B5-03822-P03-CH1	1722744	OK	0.7482969	-0.611446	0.2572654	0	-95.026	-11.715	-19.014	B5-03822-P04-CH0	1722744	OK	0.7410373	-0.3068699	0.5972392	0	-125.851	-51.765	3.088	B5-03822-P04-CH1	1722744	OK	0.7283539	-0.6375552	0.2510458	0	-106.134	-36.311	-18.875	NA
0.13988455988456	B5-03822-P01-CH0	1722752	OK	0.2481366	0.0333011	0.0640199	-0.9660335	135.873	-42.608	-266.694	B5-03822-P02-CH0	1722752	OK	0.6680517	0.5583602	-0.4918749	0	-77.152	-106.083	-4.199	B5-03822-P02-CH1	1722752	OK	0.6401482	0.1527393	-0.752915	0	-68.029	-84.986	-2.966	B5-03822-P03-CH0	1722752	OK	0.8845288	-0.4404148	-0.1537648	0	-89.696	-75.359	6.434	B5-03822-P03-CH1	1722752	OK	0.7496052	-0.6068527	0.2642383	0	-96.463	-14.028	-17.554	B5-03822-P04-CH0	1722752	OK	0.7416792	-0.3070522	0.596348	0	-127.066	-53.714	3.172	B5-03822-P04-CH1	1722752	OK	0.728613	-0.6367249	0.2523973	0	-106.497	-36.502	-18.916	NA
0.149876314162028	B5-03822-P01-CH0	1722760	OK	0.2481585	0.0334347	0.0644918	-0.9659919	136.01	-42.613	-266.68	B5-03822-P02-CH0	1722760	OK	0.6743231	0.5585187	-0.4830581	0	-77.041	-104.902	-4.623	B5-03822-P02-CH1	1722760	OK	0.6431252	0.1474388	-0.7514332	0	-68.079	-84.62	-2.872	B5-03822-P03-CH0	1722760	OK	0.8870834	-0.4388094	-0.1432805	0	-90.107	-75.44	5.459	B5-03822-P03-CH1	1722760	OK	0.7489844	-0.6043909	0.2715401	0	-96.984	-16.832	-16.012	B5-03822-P04-CH0	1722760	OK	0.7426722	-0.3132877	0.591852	0	-125.782	-50.011	1.752	B5-03822-P04-CH1	1722760	OK	0.7278633	-0.6361288	0.2560376	0	-106.773	-37.712	-18.316	NA
0.159868068439497	B5-03822-P01-CH0	1722768	OK	0.2481348	0.0334861	0.0649188	-0.9659676	136.073	-42.503	-266.693	B5-03822-P02-CH0	1722768	OK	0.6814274	0.5599853	-0.4712464	0	-76.757	-104.928	-5.91	B5-03822-P02-CH1	1722768	OK	0.6468343	0.1407833	-0.7495235	0	-68.297	-83.728	-3.896	B5-03822-P03-CH0	1722768	OK	0.889144	-0.4368882	-0.1362045	0	-89.973	-75.578	5.219	B5-03822-P03-CH1	1722768	OK	0.751614	-0.6012991	0.2711379	0	-96.562	-15.221	-16.454	B5-03822-P04-CH0	1722768	OK	0.7429749	-0.3134118	0.5914062	0	-125.86	-49.527	1.422	B5-03822-P04-CH1	1722768	OK	0.7285741	-0.6347518	0.2574294	0	-107.029	-37.411	-18.455	NA
0.169859822716966	B5-03822-P01-CH0	1722776	OK	0.2478905	0.0335368	0.0645445	-0.9660536	136.077	-42.512	-266.679	B5-03822-P02-CH0	1722776	OK	0.6860928	0.5646221	-0.4587795	0	-77.846	-104.458	-6.506	B5-03822-P02-CH1	1722776	OK	0.65135	0.1359723	-0.746495	0	-68.345	-83.411	-3.373	B5-03822-P03-CH0	1722776	OK	0.8887977	-0.4360063	-0.1411989	0	-90.17	-75.462	4.953	B5-03822-P03-CH1	1722776	OK	0.7546098	-0.5994798	0.266811	0	-94.677	-11.282	-21.957	B5-03822-P04-CH0	1722776	OK	0.7430666	-0.314723	0.5905942	0	-125.876	-49.172	1.477	B5-03822-P04-CH1	1722776	OK	0.7260693	-0.6295385	0.2765947	0	-108.79	-41.103	-17.686	NA
0.179851576994434	B5-03822-P01-CH0	1722784	OK	0.2476908	0.0336824	0.064009	-0.9661354	136.148	-42.655	-266.591	B5-03822-P02-CH0	1722784	OK	0.6892636	0.5694274	-0.4479599	0	-79.307	-104.125	-4.393	B5-03822-P02-CH1	1722784	OK	0.6537002	0.1332796	-0.7449246	0	-69.311	-83.599	-2.328	B5-03822-P03-CH0	1722784	OK	0.8867817	-0.4341672	-0.1584835	0	-91.546	-74.461	5.096	B5-03822-P03-CH1	1722784	OK	0.752633	-0.5976417	0.2763474	0	-95.861	-15.809	-18.11	B5-03822-P04-CH0	1722784	OK	0.7440671	-0.3216451	0.585584	0	-126.807	-53.051	3.821	B5-03822-P04-CH1	1722784	OK	0.7216584	-0.6299217	0.2870677	0	-110.135	-46.352	-13.553	NA
0.189843331271903	B5-03822-P01-CH0	1722792	OK	0.2476207	0.0332873	0.064834	-0.966112	136.052	-42.64	-266.61	B5-03822-P02-CH0	1722792	OK	0.6959651	0.5742089	-0.4311807	0	-78.426	-104.33	-8.683	B5-03822-P02-CH1	1722792	OK	0.6581602	0.1250266	-0.7424241	0	-69.016	-82.708	-2.209	B5-03822-P03-CH0	1722792	OK	0.8836647	-0.434482	-0.1742473	0	-90.497	-73.911	5.087	B5-03822-P03-CH1	1722792	OK	0.7538637	-0.5948346	0.2790366	0	-96.477	-16.633	-17.836	B5-03822-P04-CH0	1722792	OK	0.7446855	-0.3241744	0.5833991	0	-127.112	-52.478	1.79	B5-03822-P04-CH1	1722792	OK	0.726142	-0.6280731	0.2797175	0	-109.679	-41.772	-19.938	NA
0.199835085549371	B5-03822-P01-CH0	1722800	OK	0.2471476	0.033164	0.0641068	-0.9662859	135.9	-42.673	-266.546	B5-03822-P02-CH0	1722800	OK	0.6996282	0.5807394	-0.4162477	0	-78.542	-103.455	-7.53	B5-03822-P02-CH1	1722800	OK	0.6623853	0.1168937	-0.7399876	0	-69.229	-83.672	-2.915	B5-03822-P03-CH0	1722800	OK	0.8774635	-0.4369193	-0.1978873	0	-91.206	-72.728	4.158	B5-03822-P03-CH1	1722800	OK	0.756201	-0.5947982	0.272718	0	-95.04	-12.86	-21.756	B5-03822-P04-CH0	1722800	OK	0.7455278	-0.3249369	0.5818971	0	-127.406	-53.084	2.786	B5-03822-P04-CH1	1722800	OK	0.7261499	-0.6322645	0.2700887	0	-108.399	-40.196	-18.316	NA
0.20982683982684	B5-03822-P01-CH0	1722808	OK	0.2471113	0.0328155	0.0645992	-0.9662743	135.732	-42.57	-266.54	B5-03822-P02-CH0	1722808	OK	0.7019583	0.5900621	-0.39885	0	-78.877	-102.093	-9.102	B5-03822-P02-CH1	1722808	OK	0.6663051	0.1016101	-0.7387239	0	-68.42	-81.659	-4.185	B5-03822-P03-CH0	1722808	OK	0.8705786	-0.4411235	-0.2179518	0	-90.943	-72.275	4.394	B5-03822-P03-CH1	1722808	OK	0.7553459	-0.5940057	0.2767847	0	-95.71	-14.619	-18.74	B5-03822-P04-CH0	1722808	OK	0.7465906	-0.3307221	0.5772567	0	-126.522	-51.033	1.132	B5-03822-P04-CH1	1722808	OK	0.7266604	-0.631319	0.2709262	0	-108.349	-39.757	-19.368	NA
0.219818594104308	B5-03822-P01-CH0	1722816	OK	0.2467158	0.0327623	0.0641992	-0.9664039	135.622	-42.565	-266.466	B5-03822-P02-CH0	1722816	OK	0.7063962	0.5981695	-0.3784148	0	-78.509	-101.42	-11.157	B5-03822-P02-CH1	1722816	OK	0.667657	0.0881966	-0.7392263	0	-69.014	-81.154	-3.682	B5-03822-P03-CH0	1722816	OK	0.8615061	-0.4473881	-0.2401064	0	-90.98	-71.722	3.487	B5-03822-P03-CH1	1722816	OK	0.7544009	-0.5958072	0.2754869	0	-95.458	-13.809	-19.858	B5-03822-P04-CH0	1722816	OK	0.7489736	-0.3395554	0.5689822	0	-126.029	-48.902	-0.087	B5-03822-P04-CH1	1722816	OK	0.7269285	-0.6311652	0.2705649	0	-108.211	-39.17	-19.739	NA
0.229810348381777	B5-03822-P01-CH0	1722824	OK	0.2465112	0.0326881	0.0643393	-0.9664492	135.589	-42.585	-266.398	B5-03822-P02-CH0	1722824	OK	0.7079249	0.6082225	-0.3590372	0	-79.016	-100.067	-10.686	B5-03822-P02-CH1	1722824	OK	0.6688907	0.0758676	-0.7394791	0	-68.855	-81.694	-4.096	B5-03822-P03-CH0	1722824	OK	0.8531816	-0.4493915	-0.2648178	0	-91.406	-69.903	2.855	B5-03822-P03-CH1	1722824	OK	0.7557506	-0.5970537	0.2690129	0	-93.742	-10.714	-21.471	B5-03822-P04-CH0	1722824	OK	0.7505435	-0.3426625	0.5650371	0	-126.17	-52.546	3.363	B5-03822-P04-CH1	1722824	OK	0.7276933	-0.6308778	0.2691758	0	-108.026	-38.272	-20.865	NA
0.239802102659246	B5-03822-P01-CH0	1722832	OK	0.246246	0.0329055	0.0630779	-0.9665926	135.548	-42.697	-266.277	B5-03822-P02-CH0	1722832	OK	0.7132457	0.6137608	-0.338494	0	-77.84	-99.513	-11.878	B5-03822-P02-CH1	1722832	OK	0.6681632	0.0627777	-0.7413615	0	-68.236	-80.446	-3.981	B5-03822-P03-CH0	1722832	OK	0.8426082	-0.4532453	-0.2908265	0	-90.572	-69.47	2.571	B5-03822-P03-CH1	1722832	OK	0.7513162	-0.6000853	0.27463	0	-95.235	-14.542	-18.339	B5-03822-P04-CH0	1722832	OK	0.7530714	-0.3605042	0.5503818	0	-124.103	-49.063	1.513	B5-03822-P04-CH1	1722832	OK	0.7265006	-0.6315687	0.2707725	0	-108.105	-39.014	-20.091	NA
0.249793856936714	B5-03822-P01-CH0	1722840	OK	0.246028	0.0326859	0.0625673	-0.9666888	135.366	-42.766	-266.16	B5-03822-P02-CH0	1722840	OK	0.7179065	0.6161477	-0.3239941	0	-77.297	-99.131	-12.579	B5-03822-P02-CH1	1722840	OK	0.6671525	0.0482342	-0.7433579	0	-67.81	-79.671	-3.555	B5-03822-P03-CH0	1722840	OK	0.8329244	-0.4520502	-0.3191983	0	-90.866	-67.112	0.148	B5-03822-P03-CH1	1722840	OK	0.7539406	-0.601355	0.2644724	0	-94.105	-9.491	-22.267	B5-03822-P04-CH0	1722840	OK	0.7553486	-0.3711998	0.5400549	0	-122.781	-49.223	3.343	B5-03822-P04-CH1	1722840	OK	0.7264572	-0.6321034	0.2696391	0	-107.898	-38.642	-20.455	NA
0.259785611214183	B5-03822-P01-CH0	1722848	OK	0.2459217	0.0327869	0.0621053	-0.9667422	135.353	-42.766	-266.12	B5-03822-P02-CH0	1722848	OK	0.7213305	0.615151	-0.3182321	0	-77.323	-98.819	-13.714	B5-03822-P02-CH1	1722848	OK	0.665477	0.0360622	-0.7455467	0	-68.351	-79.21	-3.852	B5-03822-P03-CH0	1722848	OK	0.8245605	-0.4513588	-0.341138	0	-90.894	-66.084	0.688	B5-03822-P03-CH1	1722848	OK	0.7510499	-0.6054966	0.2632449	0	-93.97	-11.087	-20.959	B5-03822-P04-CH0	1722848	OK	0.7555062	-0.3790843	0.5343271	0	-121.959	-49.694	4.072	B5-03822-P04-CH1	1722848	OK	0.7260708	-0.6327658	0.2691256	0	-107.979	-38.747	-20.324	NA
0.269777365491651	B5-03822-P01-CH0	1722856	OK	0.2457594	0.0329974	0.0615488	-0.9668119	135.406	-42.854	-266.043	B5-03822-P02-CH0	1722856	OK	0.7207898	0.6138995	-0.3218533	0	-77.889	-98.026	-12.484	B5-03822-P02-CH1	1722856	OK	0.6647899	0.0267917	-0.7465498	0	-68.316	-78.455	-3.16	B5-03822-P03-CH0	1722856	OK	0.8180921	-0.4471428	-0.361647	0	-90.576	-64.216	-0.672	B5-03822-P03-CH1	1722856	OK	0.7476606	-0.6091832	0.2643849	0	-95.308	-14.544	-18.389	B5-03822-P04-CH0	1722856	OK	0.756327	-0.3836169	0.5299127	0	-121.669	-49.336	3.913	B5-03822-P04-CH1	1722856	OK	0.7265066	-0.6332544	0.2667903	0	-107.911	-38.097	-20.545	NA
0.27976911976912	B5-03822-P01-CH0	1722864	OK	0.2459243	0.0328274	0.0617528	-0.9667627	135.304	-42.777	-266.013	B5-03822-P02-CH0	1722864	OK	0.7193769	0.6108464	-0.3307017	0	-77.457	-97.209	-12.442	B5-03822-P02-CH1	1722864	OK	0.6642096	0.019243	-0.7472987	0	-68.883	-78.463	-3.543	B5-03822-P03-CH0	1722864	OK	0.8119682	-0.4455149	-0.3771261	0	-90.09	-64.217	-1.608	B5-03822-P03-CH1	1722864	OK	0.7477171	-0.609975	0.262392	0	-96.375	-14.974	-17.268	B5-03822-P04-CH0	1722864	OK	0.7574192	-0.3855597	0.5269345	0	-121.508	-47.259	0.662	B5-03822-P04-CH1	1722864	OK	0.7262816	-0.6338518	0.2659827	0	-107.716	-38.279	-20.148	NA
0.289760874046588	B5-03822-P01-CH0	1722872	OK	0.2462678	0.032672	0.062334	-0.9666433	135.238	-42.692	-265.926	B5-03822-P02-CH0	1722872	OK	0.7184739	0.6062175	-0.3410214	0	-77.031	-97.027	-13.35	B5-03822-P02-CH1	1722872	OK	0.6668389	0.0117997	-0.7451085	0	-68.244	-77.681	-4.686	B5-03822-P03-CH0	1722872	OK	0.8094017	-0.441694	-0.3870082	0	-89.626	-63.296	-1.985	B5-03822-P03-CH1	1722872	OK	0.7476603	-0.6120554	0.257667	0	-95.343	-14.339	-18.222	B5-03822-P04-CH0	1722872	OK	0.7590275	-0.3816659	0.5274547	0	-121.791	-47.114	1.844	B5-03822-P04-CH1	1722872	OK	0.7273587	-0.6342569	0.2620449	0	-106.937	-36.958	-20.979	NA
0.299752628324057	B5-03822-P01-CH0	1722880	OK	0.2464849	0.0326685	0.0622714	-0.9665921	135.259	-42.658	-265.916	B5-03822-P02-CH0	1722880	OK	0.718723	0.5969829	-0.3564389	0	-77.236	-98.624	-11.314	B5-03822-P02-CH1	1722880	OK	0.6682571	0.005858	-0.7439073	0	-68.528	-77.407	-2.839	B5-03822-P03-CH0	1722880	OK	0.8081953	-0.4384029	-0.3932216	0	-90.649	-62.552	-1.781	B5-03822-P03-CH1	1722880	OK	0.7472862	-0.6130733	0.2563287	0	-95.269	-15.124	-16.678	B5-03822-P04-CH0	1722880	OK	0.7595788	-0.3865875	0.5230585	0	-119.58	-41.284	-2.409	B5-03822-P04-CH1	1722880	OK	0.7268481	-0.6350925	0.261437	0	-106.666	-37.52	-19.428	NA
0.309744382601525	B5-03822-P01-CH0	1722888	OK	0.2468531	0.0329296	0.0621734	-0.9664956	135.41	-42.727	-265.903	B5-03822-P02-CH0	1722888	OK	0.7154453	0.5925239	-0.3702072	0	-77.164	-97.824	-12.282	B5-03822-P02-CH1	1722888	OK	0.6699555	0.0019067	-0.7423988	0	-68.625	-77.541	-3.478	B5-03822-P03-CH0	1722888	OK	0.8110912	-0.4367141	-0.3891168	0	-90.899	-62.444	-2.535	B5-03822-P03-CH1	1722888	OK	0.7504524	-0.611051	0.2518687	0	-94.343	-12.252	-20.461	B5-03822-P04-CH0	1722888	OK	0.7599497	-0.3817332	0.5260762	0	-120.74	-43.402	-1.957	B5-03822-P04-CH1	1722888	OK	0.7260125	-0.635652	0.2623973	0	-106.837	-38.554	-18.353	NA
0.319736136878994	B5-03822-P01-CH0	1722896	OK	0.2470663	0.03296	0.062095	-0.9664451	135.422	-42.744	-265.854	B5-03822-P02-CH0	1722896	OK	0.7130076	0.5846979	-0.3869735	0	-77.15	-99.266	-8.766	B5-03822-P02-CH1	1722896	OK	0.6721638	0.0002895	-0.7404024	0	-68.505	-77.777	-3.933	B5-03822-P03-CH0	1722896	OK	0.8158634	-0.4357182	-0.3801534	0	-91.372	-63.621	-0.747	B5-03822-P03-CH1	1722896	OK	0.7461863	-0.6095848	0.2676051	0	-97.199	-20.11	-13.931	B5-03822-P04-CH0	1722896	OK	0.7590812	-0.3732873	0.5333407	0	-121.535	-48.409	3.502	B5-03822-P04-CH1	1722896	OK	0.7254205	-0.6361442	0.2628416	0	-106.98	-39.268	-17.63	NA
0.329727891156463	B5-03822-P01-CH0	1722904	OK	0.2472678	0.0326685	0.0626717	-0.9663662	135.282	-42.636	-265.743	B5-03822-P02-CH0	1722904	OK	0.7089621	0.5770704	-0.4054164	0	-77.115	-99.869	-8.256	B5-03822-P02-CH1	1722904	OK	0.6736187	0.0004769	-0.7390789	0	-69.338	-78.084	-3.991	B5-03822-P03-CH0	1722904	OK	0.8219149	-0.4342126	-0.3686669	0	-91.777	-64.391	-1.202	B5-03822-P03-CH1	1722904	OK	0.7489243	-0.6043009	0.2719059	0	-96.517	-19.724	-14.764	B5-03822-P04-CH0	1722904	OK	0.7591143	-0.3686828	0.5364871	0	-122.398	-50.089	3.42	B5-03822-P04-CH1	1722904	OK	0.7248547	-0.6359877	0.2647739	0	-107.169	-40.392	-16.054	NA
0.339719645433931	B5-03822-P01-CH0	1722912	OK	0.247452	0.032613	0.0629916	-0.9663002	135.284	-42.561	-265.766	B5-03822-P02-CH0	1722912	OK	0.704176	0.5723542	-0.4201747	0	-77.21	-100.072	-8.062	B5-03822-P02-CH1	1722912	OK	0.6743219	0.0043658	-0.7384246	0	-70.108	-78.828	-3.215	B5-03822-P03-CH0	1722912	OK	0.8296156	-0.4364434	-0.348217	0	-90.235	-65.855	-0.838	B5-03822-P03-CH1	1722912	OK	0.7550015	-0.5981759	0.2686232	0	-95.045	-14.901	-21.052	B5-03822-P04-CH0	1722912	OK	0.7586005	-0.3761891	0.531984	0	-121.585	-47.978	2.376	B5-03822-P04-CH1	1722912	OK	0.7259095	-0.6360412	0.2617385	0	-106.776	-39.04	-17.527	NA
0.3497113997114	B5-03822-P01-CH0	1722920	OK	0.2474405	0.0329588	0.0626581	-0.966313	135.389	-42.534	-265.694	B5-03822-P02-CH0	1722920	OK	0.7004817	0.5670801	-0.4332962	0	-77.189	-101.206	-7.269	B5-03822-P02-CH1	1722920	OK	0.6761151	0.011909	-0.7366998	0	-69.455	-79.438	-4.099	B5-03822-P03-CH0	1722920	OK	0.8347325	-0.4391681	-0.3321942	0	-91.561	-66.437	0.128	B5-03822-P03-CH1	1722920	OK	0.761371	-0.5911341	0.2662231	0	-92.911	-10.623	-24.396	B5-03822-P04-CH0	1722920	OK	0.7590741	-0.3747163	0.5323479	0	-122.076	-48.423	2.182	B5-03822-P04-CH1	1722920	OK	0.7254185	-0.636266	0.2625521	0	-107.027	-39.42	-17.376	NA
0.359703153988868	B5-03822-P01-CH0	1722928	OK	0.2476687	0.0325745	0.0631342	-0.9662366	135.296	-42.575	-265.713	B5-03822-P02-CH0	1722928	OK	0.6970145	0.5637178	-0.4431626	0	-76.879	-101.777	-6.896	B5-03822-P02-CH1	1722928	OK	0.6755041	0.0228563	-0.7370019	0	-69.411	-80.095	-4.668	B5-03822-P03-CH0	1722928	OK	0.8414917	-0.4425442	-0.3099133	0	-90.777	-68.477	1.373	B5-03822-P03-CH1	1722928	OK	0.763617	-0.5846737	0.2739448	0	-93.846	-13.398	-21.379	B5-03822-P04-CH0	1722928	OK	0.7604052	-0.3581057	0.5417972	0	-124.541	-51.659	1.52	B5-03822-P04-CH1	1722928	OK	0.7257289	-0.6359431	0.2624764	0	-106.646	-39.312	-17.408	NA
0.369694908266337	B5-03822-P01-CH0	1722936	OK	0.2475801	0.0324197	0.0627853	-0.9662873	135.205	-42.648	-265.633	B5-03822-P02-CH0	1722936	OK	0.6941491	0.5624823	-0.4491889	0	-76.321	-101.456	-7.932	B5-03822-P02-CH1	1722936	OK	0.6722316	0.0392132	-0.7393017	0	-69.242	-80.254	-4.148	B5-03822-P03-CH0	1722936	OK	0.8476378	-0.4407839	-0.2953299	0	-91.303	-68.617	0.906	B5-03822-P03-CH1	1722936	OK	0.7631004	-0.5819529	0.2810845	0	-94.338	-16.521	-19.76	B5-03822-P04-CH0	1722936	OK	0.7588775	-0.362003	0.5413491	0	-122.599	-44.737	-4.085	B5-03822-P04-CH1	1722936	OK	0.7252651	-0.63633	0.2628206	0	-106.391	-39.382	-17.72	NA
0.379686662543805	B5-03822-P01-CH0	1722944	OK	0.247748	0.0325335	0.0629637	-0.9662288	135.314	-42.692	-265.604	B5-03822-P02-CH0	1722944	OK	0.6911249	0.5615409	-0.4549925	0	-75.873	-102.357	-9.025	B5-03822-P02-CH1	1722944	OK	0.6654807	0.0611565	-0.7439055	0	-69.225	-81.784	-4.573	B5-03822-P03-CH0	1722944	OK	0.8523901	-0.4404328	-0.2818688	0	-90.569	-70.05	1.636	B5-03822-P03-CH1	1722944	OK	0.7647062	-0.579164	0.2824774	0	-94.171	-16.747	-18.443	B5-03822-P04-CH0	1722944	OK	0.7581517	-0.35754	0.5453175	0	-124.228	-48.89	-0.508	B5-03822-P04-CH1	1722944	OK	0.7259681	-0.6358448	0.2620529	0	-106.304	-38.75	-18.705	NA
0.389678416821274	B5-03822-P01-CH0	1722952	OK	0.2476178	0.0327606	0.0619822	-0.9663179	135.374	-42.814	-265.611	B5-03822-P02-CH0	1722952	OK	0.6854153	0.5646609	-0.4597433	0	-77.601	-103.729	-5.989	B5-03822-P02-CH1	1722952	OK	0.6568393	0.0818023	-0.7495802	0	-68.91	-82.803	-4.872	B5-03822-P03-CH0	1722952	OK	0.8565121	-0.4422138	-0.2661465	0	-90.138	-70.822	2.608	B5-03822-P03-CH1	1722952	OK	0.7639349	-0.5801223	0.2825979	0	-92.928	-16.046	-21.951	B5-03822-P04-CH0	1722952	OK	0.7568208	-0.360158	0.5454434	0	-123.928	-47.327	-1.74	B5-03822-P04-CH1	1722952	OK	0.724999	-0.6360126	0.2643187	0	-106.593	-39.595	-17.769	NA
0.399670171098743	B5-03822-P01-CH0	1722960	OK	0.2477541	0.0331328	0.0621273	-0.966261	135.504	-42.811	-265.558	B5-03822-P02-CH0	1722960	OK	0.6819	0.5691371	-0.4594512	0	-77.657	-104.217	-4.764	B5-03822-P02-CH1	1722960	OK	0.6489902	0.1001311	-0.7541787	0	-68.52	-82.495	-4.118	B5-03822-P03-CH0	1722960	OK	0.8604901	-0.443417	-0.2508745	0	-89.509	-71.665	3.041	B5-03822-P03-CH1	1722960	OK	0.7651956	-0.5781274	0.2832744	0	-92.992	-14.832	-22.966	B5-03822-P04-CH0	1722960	OK	0.7551446	-0.3595283	0.5481752	0	-124.28	-48.098	-1.657	B5-03822-P04-CH1	1722960	OK	0.725274	-0.6355372	0.2647075	0	-106.762	-39.378	-18.656	NA
0.409661925376211	B5-03822-P01-CH0	1722968	OK	0.2471856	0.0331392	0.0613609	-0.9664553	135.433	-42.888	-265.498	B5-03822-P02-CH0	1722968	OK	0.6816402	0.5754384	-0.4519262	0	-77.338	-104.702	-5.499	B5-03822-P02-CH1	1722968	OK	0.6459335	0.1230089	-0.753418	0	-68.177	-84.141	-3.92	B5-03822-P03-CH0	1722968	OK	0.8632906	-0.4445946	-0.2388826	0	-88.874	-72.636	3.368	B5-03822-P03-CH1	1722968	OK	0.7642692	-0.5787143	0.2845739	0	-93.193	-15.358	-22.253	B5-03822-P04-CH0	1722968	OK	0.7528883	-0.3585343	0.551917	0	-125.385	-49.378	-3.341	B5-03822-P04-CH1	1722968	OK	0.7250809	-0.6359717	0.2641924	0	-106.736	-39.102	-18.861	NA
0.41965367965368	B5-03822-P01-CH0	1722976	OK	0.2473617	0.033379	0.061542	-0.9663905	135.492	-42.853	-265.383	B5-03822-P02-CH0	1722976	OK	0.6775639	0.5838966	-0.4471823	0	-78.071	-104.86	-4.796	B5-03822-P02-CH1	1722976	OK	0.6423545	0.1474713	-0.7520857	0	-68.313	-84.295	-4.226	B5-03822-P03-CH0	1722976	OK	0.865395	-0.4435155	-0.233207	0	-88.973	-72.549	3.334	B5-03822-P03-CH1	1722976	OK	0.7629808	-0.5785339	0.2883727	0	-94.22	-17.387	-20.01	B5-03822-P04-CH0	1722976	OK	0.7514024	-0.3554392	0.5559294	0	-125.387	-51.161	1.941	B5-03822-P04-CH1	1722976	OK	0.725549	-0.6357885	0.2633469	0	-106.471	-38.605	-19.336	NA
0.429645433931148	B5-03822-P01-CH0	1722984	OK	0.2469688	0.0339981	0.0602995	-0.9665477	135.65	-42.984	-265.345	B5-03822-P02-CH0	1722984	OK	0.6767302	0.5897789	-0.4406779	0	-78.115	-105.555	-4.801	B5-03822-P02-CH1	1722984	OK	0.6421259	0.173521	-0.7467026	0	-67.542	-83.795	-3.83	B5-03822-P03-CH0	1722984	OK	0.8657763	-0.4433368	-0.232129	0	-88.378	-72.829	3.802	B5-03822-P03-CH1	1722984	OK	0.7631961	-0.5795051	0.285842	0	-93.504	-15.785	-22.303	B5-03822-P04-CH0	1722984	OK	0.7494459	-0.3530887	0.5600529	0	-125.808	-53.017	4.98	B5-03822-P04-CH1	1722984	OK	0.7248004	-0.6364991	0.2636918	0	-106.671	-38.871	-19.103	NA
0.439637188208617	B5-03822-P01-CH0	1722992	OK	0.2468589	0.0339881	0.060101	-0.9665885	135.588	-43.049	-265.32	B5-03822-P02-CH0	1722992	OK	0.6761343	0.5940203	-0.4358695	0	-78.116	-105.296	-4.911	B5-03822-P02-CH1	1722992	OK	0.6424749	0.204726	-0.7384533	0	-68.177	-85.772	-4.112	B5-03822-P03-CH0	1722992	OK	0.866117	-0.4428941	-0.2317027	0	-86.959	-73.888	4.313	B5-03822-P03-CH1	1722992	OK	0.7597298	-0.5791495	0.295629	0	-96.076	-21.657	-17.145	B5-03822-P04-CH0	1722992	OK	0.7477463	-0.3564796	0.5601765	0	-125.658	-52.108	3.52	B5-03822-P04-CH1	1722992	OK	0.7241231	-0.636685	0.2650998	0	-106.821	-39.588	-18.546	NA
0.449628942486085	B5-03822-P01-CH0	1723000	OK	0.247029	0.0338545	0.0604228	-0.9665297	135.504	-42.972	-265.356	B5-03822-P02-CH0	1723000	OK	0.6765061	0.5953081	-0.4335294	0	-78.347	-106.264	-5.853	B5-03822-P02-CH1	1723000	OK	0.645181	0.2338131	-0.727374	0	-67.653	-85.814	-4.178	B5-03822-P03-CH0	1723000	OK	0.8671656	-0.435218	-0.2420932	0	-87.596	-73.096	4.665	B5-03822-P03-CH1	1723000	OK	0.7645555	-0.5802574	0.2806353	0	-92.81	-13.929	-23.098	B5-03822-P04-CH0	1723000	OK	0.7460907	-0.3657337	0.5564058	0	-124.66	-48.296	-2.413	B5-03822-P04-CH1	1723000	OK	0.7243395	-0.6366214	0.2646611	0	-106.567	-39.419	-18.436	NA
0.459620696763554	B5-03822-P01-CH0	1723008	OK	0.2465799	0.0342731	0.0596382	-0.9666783	135.545	-43.01	-265.268	B5-03822-P02-CH0	1723008	OK	0.6767496	0.5949434	-0.4336499	0	-78.438	-107.125	-5.233	B5-03822-P02-CH1	1723008	OK	0.6464484	0.2660679	-0.7150611	0	-69.162	-87.601	-3.094	B5-03822-P03-CH0	1723008	OK	0.8669416	-0.4283751	-0.2547686	0	-85.994	-73.039	4.093	B5-03822-P03-CH1	1723008	OK	0.7639356	-0.5802496	0.2823344	0	-93.042	-14.609	-22.747	B5-03822-P04-CH0	1723008	OK	0.7441156	-0.3659587	0.5588973	0	-124.971	-51.646	1.928	B5-03822-P04-CH1	1723008	OK	0.7237284	-0.6375573	0.2640793	0	-106.565	-39.497	-18.224	NA
0.469612451041023	B5-03822-P01-CH0	1723016	OK	0.2471303	0.0342885	0.0609652	-0.9664544	135.595	-42.822	-265.439	B5-03822-P02-CH0	1723016	OK	0.6750735	0.5936169	-0.438058	0	-78.435	-107.323	-5.097	B5-03822-P02-CH1	1723016	OK	0.6481429	0.2947128	-0.7021788	0	-69.585	-88.844	-3.043	B5-03822-P03-CH0	1723016	OK	0.864751	-0.4181619	-0.2781122	0	-86.889	-72.82	4.006	B5-03822-P03-CH1	1723016	OK	0.7643475	-0.5785608	0.2846757	0	-93.42	-15.473	-21.855	B5-03822-P04-CH0	1723016	OK	0.7442669	-0.3753296	0.5524441	0	-123.86	-48.192	-0.447	B5-03822-P04-CH1	1723016	OK	0.7251508	-0.6366159	0.2624432	0	-106.394	-38.736	-18.596	NA
0.479604205318491	B5-03822-P01-CH0	1723024	OK	0.2470127	0.0344148	0.060997	-0.966478	135.544	-42.701	-265.394	B5-03822-P02-CH0	1723024	OK	0.671739	0.5912451	-0.4463139	0	-79.037	-106.583	-5.66	B5-03822-P02-CH1	1723024	OK	0.650129	0.3174845	-0.6903158	0	-69.404	-89.648	-3.987	B5-03822-P03-CH0	1723024	OK	0.8626441	-0.4099356	-0.2963073	0	-86.266	-72.868	4.634	B5-03822-P03-CH1	1723024	OK	0.7645614	-0.5781002	0.285037	0	-93.397	-15.17	-22.281	B5-03822-P04-CH0	1723024	OK	0.7430679	-0.3832227	0.5486259	0	-123.443	-48.025	-0.135	B5-03822-P04-CH1	1723024	OK	0.7251615	-0.6371434	0.2611303	0	-106.177	-38.38	-18.916	NA
0.48959595959596	B5-03822-P01-CH0	1723032	OK	0.2467664	0.034289	0.0612984	-0.9665263	135.444	-42.627	-265.338	B5-03822-P02-CH0	1723032	OK	0.6688343	0.5871297	-0.4560038	0	-79.365	-106.198	-5.759	B5-03822-P02-CH1	1723032	OK	0.6496419	0.3344346	-0.682729	0	-69.971	-89.615	-4.333	B5-03822-P03-CH0	1723032	OK	0.8593425	-0.4014453	-0.3168157	0	-86.089	-72.43	3.82	B5-03822-P03-CH1	1723032	OK	0.7643439	-0.5776875	0.2864533	0	-93.673	-15.901	-21.405	B5-03822-P04-CH0	1723032	OK	0.7427829	-0.3897498	0.5443975	0	-123.201	-47.826	0.61	B5-03822-P04-CH1	1723032	OK	0.7253054	-0.6373443	0.2602388	0	-106.095	-38.324	-18.539	NA
0.499587713873428	B5-03822-P01-CH0	1723040	OK	0.246783	0.0340214	0.0617807	-0.9665008	135.404	-42.626	-265.479	B5-03822-P02-CH0	1723040	OK	0.6682153	0.5795023	-0.4665463	0	-79.485	-107.378	-4.748	B5-03822-P02-CH1	1723040	OK	0.6487778	0.3409857	-0.6803059	0	-70.455	-89.642	-3.59	B5-03822-P03-CH0	1723040	OK	0.8549268	-0.3915526	-0.3402745	0	-85.719	-72.051	3.548	B5-03822-P03-CH1	1723040	OK	0.7641934	-0.577051	0.2881329	0	-93.983	-16.713	-20.652	B5-03822-P04-CH0	1723040	OK	0.7422234	-0.3920266	0.5435251	0	-123.76	-49.022	-0.647	B5-03822-P04-CH1	1723040	OK	0.7256715	-0.6373889	0.2591065	0	-105.781	-38.205	-18.321	NA
0.509579468150897	B5-03822-P01-CH0	1723048	OK	0.2468884	0.0342161	0.0617605	-0.9664683	135.418	-42.556	-265.378	B5-03822-P02-CH0	1723048	OK	0.6681631	0.5691913	-0.4791445	0	-79.141	-107.5	-5.438	B5-03822-P02-CH1	1723048	OK	0.6486962	0.3406643	-0.6805447	0	-70.831	-89.383	-4.298	B5-03822-P03-CH0	1723048	OK	0.8479825	-0.3800966	-0.3693944	0	-85.657	-71.935	3.185	B5-03822-P03-CH1	1723048	OK	0.764294	-0.5765323	0.2889034	0	-94.1	-16.845	-20.504	B5-03822-P04-CH0	1723048	OK	0.7409966	-0.3898296	0.5467695	0	-123.884	-51.952	4.559	B5-03822-P04-CH1	1723048	OK	0.7259241	-0.638129	0.2565652	0	-105.305	-37.346	-19.79	NA
0.519571222428365	B5-03822-P01-CH0	1723056	OK	0.2464174	0.0342329	0.061151	-0.9666267	135.347	-42.623	-265.279	B5-03822-P02-CH0	1723056	OK	0.6687531	0.5561824	-0.4933867	0	-78.605	-107.04	-5.602	B5-03822-P02-CH1	1723056	OK	0.6497034	0.3310434	-0.6843213	0	-70.805	-89.568	-4.131	B5-03822-P03-CH0	1723056	OK	0.8385706	-0.3629382	-0.4062946	0	-85.663	-71.087	2.268	B5-03822-P03-CH1	1723056	OK	0.7636335	-0.5770054	0.2897046	0	-94.088	-17.291	-20.392	B5-03822-P04-CH0	1723056	OK	0.7395603	-0.3915802	0.5474628	0	-123.748	-53.112	5.015	B5-03822-P04-CH1	1723056	OK	0.7249154	-0.6387363	0.2579022	0	-105.64	-38.338	-18.507	NA
0.529562976705834	B5-03822-P01-CH0	1723064	OK	0.246803	0.0339116	0.061821	-0.966497	135.233	-42.516	-265.269	B5-03822-P02-CH0	1723064	OK	0.6704779	0.5365528	-0.5124163	0	-78.733	-108.304	-5.29	B5-03822-P02-CH1	1723064	OK	0.6513429	0.30331	-0.6955253	0	-71.04	-89.777	-3.456	B5-03822-P03-CH0	1723064	OK	0.8276997	-0.3371179	-0.4486254	0	-84.929	-69.133	0.476	B5-03822-P03-CH1	1723064	OK	0.764519	-0.5758621	0.2896439	0	-93.737	-16.695	-20.79	B5-03822-P04-CH0	1723064	OK	0.7407515	-0.3983346	0.5409406	0	-122.665	-48.734	0.198	B5-03822-P04-CH1	1723064	OK	0.7253911	-0.6388184	0.2563567	0	-105.152	-37.843	-19.224	NA
0.539554730983302	B5-03822-P01-CH0	1723072	OK	0.2468013	0.0340321	0.0621971	-0.9664691	135.268	-42.366	-265.138	B5-03822-P02-CH0	1723072	OK	0.670319	0.5102071	-0.5388516	0	-79.026	-107.43	-4.133	B5-03822-P02-CH1	1723072	OK	0.6552394	0.2609582	-0.7089162	0	-72.005	-89.275	-4.019	B5-03822-P03-CH0	1723072	OK	0.81457	-0.3065034	-0.4924748	0	-85.776	-68.34	0.553	B5-03822-P03-CH1	1723072	OK	0.7647609	-0.5752172	0.2902862	0	-93.897	-16.903	-20.617	B5-03822-P04-CH0	1723072	OK	0.7415633	-0.3923778	0.5441724	0	-123.743	-50.964	3.327	B5-03822-P04-CH1	1723072	OK	0.7257282	-0.638981	0.2549938	0	-104.952	-37.517	-19.24	NA
0.549546485260771	B5-03822-P01-CH0	1723080	OK	0.2466634	0.0342065	0.061734	-0.9665278	135.294	-42.334	-264.97	B5-03822-P02-CH0	1723080	OK	0.6736801	0.4731244	-0.5677221	0	-78.545	-107.501	-5.334	B5-03822-P02-CH1	1723080	OK	0.6654943	0.2035908	-0.7181004	0	-72.249	-87.615	-4.728	B5-03822-P03-CH0	1723080	OK	0.8027661	-0.2705676	-0.5313753	0	-87.126	-67.234	0.008	B5-03822-P03-CH1	1723080	OK	0.7644045	-0.5752547	0.291149	0	-93.983	-17.281	-20.474	B5-03822-P04-CH0	1723080	OK	0.7422263	-0.402154	0.5360711	0	-121.455	-44.216	-2.613	B5-03822-P04-CH1	1723080	OK	0.7253286	-0.6396763	0.2543868	0	-104.874	-37.578	-19.228	NA
0.55953823953824	B5-03822-P01-CH0	1723088	OK	0.2469408	0.0340614	0.0620756	-0.9664402	135.31	-42.281	-264.974	B5-03822-P02-CH0	1723088	OK	0.6755441	0.4230828	-0.6038552	0	-77.58	-107.03	-5.173	B5-03822-P02-CH1	1723088	OK	0.6802778	0.1431976	-0.71883	0	-72.95	-87.808	-4.15	B5-03822-P03-CH0	1723088	OK	0.7958621	-0.2320489	-0.5592467	0	-87.457	-65.506	-0.482	B5-03822-P03-CH1	1723088	OK	0.7645447	-0.5744648	0.2923382	0	-94.111	-17.655	-20.26	B5-03822-P04-CH0	1723088	OK	0.7421549	-0.3938471	0.5423011	0	-122.77	-47.421	-0.413	B5-03822-P04-CH1	1723088	OK	0.7256168	-0.6394729	0.2540759	0	-104.83	-37.582	-19.177	NA
0.569529993815708	B5-03822-P01-CH0	1723096	OK	0.2467501	0.0342585	0.0611393	-0.9665416	135.343	-42.281	-264.83	B5-03822-P02-CH0	1723096	OK	0.6771431	0.3619007	-0.6407068	0	-75.157	-105.147	-6.906	B5-03822-P02-CH1	1723096	OK	0.6925855	0.0882105	-0.715922	0	-73.411	-83.156	-5.894	B5-03822-P03-CH0	1723096	OK	0.7899448	-0.1945365	-0.5815004	0	-88.979	-63.786	-1.936	B5-03822-P03-CH1	1723096	OK	0.7640195	-0.5750262	0.2926074	0	-94.011	-17.69	-20.461	B5-03822-P04-CH0	1723096	OK	0.7414795	-0.3949461	0.5424258	0	-122.791	-47.949	0.064	B5-03822-P04-CH1	1723096	OK	0.7246563	-0.6406125	0.2539464	0	-104.706	-37.822	-19.27	NA
0.579521748093177	B5-03822-P01-CH0	1723104	OK	0.2469767	0.0341539	0.0610622	-0.9664923	135.33	-42.239	-264.795	B5-03822-P02-CH0	1723104	OK	0.6762183	0.296582	-0.6743649	0	-73.63	-104.181	-6.02	B5-03822-P02-CH1	1723104	OK	0.7054267	0.0433944	-0.7074532	0	-75.538	-83.802	-7.474	B5-03822-P03-CH0	1723104	OK	0.7892544	-0.1606987	-0.5926664	0	-89.098	-62.803	-1.495	B5-03822-P03-CH1	1723104	OK	0.7637894	-0.5746254	0.2939922	0	-94.141	-18.15	-20.154	B5-03822-P04-CH0	1723104	OK	0.7412858	-0.394089	0.5433132	0	-122.922	-48.743	0.647	B5-03822-P04-CH1	1723104	OK	0.7245151	-0.6405353	0.2545433	0	-104.727	-38.155	-18.734	NA
0.589513502370645	B5-03822-P01-CH0	1723112	OK	0.2472238	0.0343187	0.0607937	-0.9664402	135.408	-42.162	-264.768	B5-03822-P02-CH0	1723112	OK	0.673115	0.2387137	-0.6999514	0	-72.629	-103.629	-5.273	B5-03822-P02-CH1	1723112	OK	0.7173173	0.0071486	-0.69671	0	-76.974	-83.923	-4.962	B5-03822-P03-CH0	1723112	OK	0.7910494	-0.1454349	-0.5942134	0	-91.86	-62.751	-0.908	B5-03822-P03-CH1	1723112	OK	0.7637104	-0.5743982	0.2946406	0	-94.163	-18.193	-20.304	B5-03822-P04-CH0	1723112	OK	0.7411464	-0.3928091	0.5444291	0	-123.102	-49.395	0.964	B5-03822-P04-CH1	1723112	OK	0.7244329	-0.6407138	0.2543282	0	-104.627	-38.051	-18.973	NA
0.599505256648114	B5-03822-P01-CH0	1723120	OK	0.2474219	0.0345535	0.0605658	-0.9663955	135.463	-42.052	-264.548	B5-03822-P02-CH0	1723120	OK	0.6691159	0.1922747	-0.717854	0	-71.269	-102.548	-6.313	B5-03822-P02-CH1	1723120	OK	0.7244703	-0.0159907	-0.6891205	0	-77.441	-82.97	-6.699	B5-03822-P03-CH0	1723120	OK	0.797269	-0.1535544	-0.5837664	0	-93.523	-61.744	-2.128	B5-03822-P03-CH1	1723120	OK	0.763901	-0.574249	0.2944372	0	-93.987	-17.862	-20.64	B5-03822-P04-CH0	1723120	OK	0.7411573	-0.3903546	0.5461769	0	-123.442	-50.287	1.737	B5-03822-P04-CH1	1723120	OK	0.7243706	-0.6408399	0.2541879	0	-104.579	-37.984	-19.021	NA
0.609497010925582	B5-03822-P01-CH0	1723128	OK	0.2480805	0.0341455	0.0614713	-0.966184	135.431	-41.933	-264.596	B5-03822-P02-CH0	1723128	OK	0.6628985	0.1572237	-0.7320152	0	-70.321	-102.229	-6.189	B5-03822-P02-CH1	1723128	OK	0.7240763	-0.0338429	-0.688889	0	-79.222	-84.261	-5.66	B5-03822-P03-CH0	1723128	OK	0.8033817	-0.1592906	-0.5737634	0	-92.426	-61.302	-1.232	B5-03822-P03-CH1	1723128	OK	0.7644469	-0.5731845	0.295094	0	-93.861	-17.976	-20.502	B5-03822-P04-CH0	1723128	OK	0.7415298	-0.3880627	0.5473033	0	-123.47	-50.485	1.568	B5-03822-P04-CH1	1723128	OK	0.7249745	-0.6395156	0.2557964	0	-104.658	-38.338	-18.309	NA
0.619488765203051	B5-03822-P01-CH0	1723136	OK	0.2486566	0.0343565	0.0617086	-0.9660132	135.601	-41.786	-264.623	B5-03822-P02-CH0	1723136	OK	0.6556737	0.13703	-0.7425058	0	-69.829	-102.401	-5.546	B5-03822-P02-CH1	1723136	OK	0.7245836	-0.0453293	-0.6876946	0	-78.668	-83.341	-6.126	B5-03822-P03-CH0	1723136	OK	0.8041587	-0.1639966	-0.5713439	0	-93.704	-60.649	-1.745	B5-03822-P03-CH1	1723136	OK	0.7645243	-0.5723956	0.2964216	0	-94.326	-18.565	-19.948	B5-03822-P04-CH0	1723136	OK	0.7418721	-0.3863531	0.5480485	0	-123.572	-50.299	1.19	B5-03822-P04-CH1	1723136	OK	0.7256572	-0.6389578	0.255254	0	-104.571	-37.733	-19.351	NA
0.62948051948052	B5-03822-P01-CH0	1723144	OK	0.248424	0.0345472	0.0607911	-0.9661245	135.63	-41.807	-264.607	B5-03822-P02-CH0	1723144	OK	0.6500139	0.1313055	-0.7484924	0	-68.593	-101.095	-6.775	B5-03822-P02-CH1	1723144	OK	0.721885	-0.0555227	-0.689782	0	-77.868	-83.479	-6.402	B5-03822-P03-CH0	1723144	OK	0.8043365	-0.1753024	-0.5677251	0	-95.175	-61.313	-0.709	B5-03822-P03-CH1	1723144	OK	0.764035	-0.5730838	0.2963535	0	-94.287	-18.684	-19.717	B5-03822-P04-CH0	1723144	OK	0.741427	-0.3846164	0.5498692	0	-123.685	-50.85	1.65	B5-03822-P04-CH1	1723144	OK	0.7254944	-0.6394325	0.2545268	0	-104.546	-37.31	-19.827	NA
0.639472273757988	B5-03822-P01-CH0	1723152	OK	0.2484656	0.0344012	0.0606044	-0.9661307	135.611	-41.828	-264.597	B5-03822-P02-CH0	1723152	OK	0.6406187	0.1486846	-0.7533263	0	-69.809	-102.139	-5.575	B5-03822-P02-CH1	1723152	OK	0.7156708	-0.0654232	-0.6953669	0	-76.864	-82.905	-6.492	B5-03822-P03-CH0	1723152	OK	0.8079825	-0.1935588	-0.5565062	0	-94.855	-60.674	-1.345	B5-03822-P03-CH1	1723152	OK	0.7640929	-0.5731836	0.2960112	0	-94.094	-18.46	-20.154	B5-03822-P04-CH0	1723152	OK	0.7415196	-0.3838835	0.5502564	0	-123.553	-50.362	0.961	B5-03822-P04-CH1	1723152	OK	0.7246336	-0.6393628	0.2571407	0	-104.706	-38.455	-18.595	NA
0.649464028035457	B5-03822-P01-CH0	1723160	OK	0.2488084	0.0346495	0.0609387	-0.9660126	135.748	-41.722	-264.67	B5-03822-P02-CH0	1723160	OK	0.6336241	0.1764492	-0.7532504	0	-68.979	-101.749	-6.547	B5-03822-P02-CH1	1723160	OK	0.7049662	-0.0737973	-0.7053911	0	-75.989	-82.298	-6.01	B5-03822-P03-CH0	1723160	OK	0.8104148	-0.2257567	-0.5406124	0	-95.123	-60.391	-1.106	B5-03822-P03-CH1	1723160	OK	0.7646066	-0.5725923	0.295829	0	-94.211	-18.283	-20.364	B5-03822-P04-CH0	1723160	OK	0.7418683	-0.380835	0.5519023	0	-123.877	-51.006	1.487	B5-03822-P04-CH1	1723160	OK	0.7257296	-0.6384693	0.2562684	0	-104.752	-37.701	-19.394	NA
0.659455782312925	B5-03822-P01-CH0	1723168	OK	0.2489655	0.0347563	0.060893	-0.9659711	135.781	-41.623	-264.686	B5-03822-P02-CH0	1723168	OK	0.6251247	0.2158596	-0.7500825	0	-69.397	-102.561	-4.96	B5-03822-P02-CH1	1723168	OK	0.6909969	-0.0769811	-0.718747	0	-75.093	-82.139	-6.277	B5-03822-P03-CH0	1723168	OK	0.8133579	-0.2720563	-0.5142317	0	-94.648	-61.206	-1.555	B5-03822-P03-CH1	1723168	OK	0.764603	-0.5725106	0.2959963	0	-94.191	-18.359	-20.277	B5-03822-P04-CH0	1723168	OK	0.7420836	-0.379509	0.5525259	0	-123.956	-50.671	1.187	B5-03822-P04-CH1	1723168	OK	0.7257202	-0.6383912	0.2564895	0	-104.725	-37.603	-19.828	NA
0.669447536590394	B5-03822-P01-CH0	1723176	OK	0.2491169	0.0348999	0.0611604	-0.96591	135.802	-41.557	-264.628	B5-03822-P02-CH0	1723176	OK	0.6162834	0.2609227	-0.7430438	0	-69.607	-101.791	-3.931	B5-03822-P02-CH1	1723176	OK	0.6773509	-0.0815091	-0.7311307	0	-72.49	-80.69	-5.893	B5-03822-P03-CH0	1723176	OK	0.8150932	-0.3147592	-0.4863638	0	-93.785	-62.685	-1.517	B5-03822-P03-CH1	1723176	OK	0.7648746	-0.5718747	0.2965234	0	-94.449	-18.614	-20.048	B5-03822-P04-CH0	1723176	OK	0.7423368	-0.3762081	0.5544398	0	-124.313	-51.636	2	B5-03822-P04-CH1	1723176	OK	0.7254873	-0.6379465	0.2582487	0	-105.015	-38.268	-19.257	NA
0.679439290867862	B5-03822-P01-CH0	1723184	OK	0.2489769	0.0352309	0.0607293	-0.9659613	135.834	-41.524	-264.472	B5-03822-P02-CH0	1723184	OK	0.6087613	0.3125722	-0.7291833	0	-70.553	-102.247	-3.743	B5-03822-P02-CH1	1723184	OK	0.6586984	-0.084465	-0.747651	0	-72.282	-80.157	-4.675	B5-03822-P03-CH0	1723184	OK	0.8141504	-0.3496357	-0.4635881	0	-92.948	-63.125	-1.97	B5-03822-P03-CH1	1723184	OK	0.7649705	-0.5720581	0.2959216	0	-94.394	-18.372	-20.242	B5-03822-P04-CH0	1723184	OK	0.7423443	-0.375328	0.555026	0	-124.365	-51.574	2.043	B5-03822-P04-CH1	1723184	OK	0.725068	-0.6377836	0.259824	0	-105.411	-38.803	-18.453	NA
0.689431045145331	B5-03822-P01-CH0	1723192	OK	0.2489668	0.0353782	0.060835	-0.9659519	135.901	-41.553	-264.468	B5-03822-P02-CH0	1723192	OK	0.6060931	0.3638983	-0.7072688	0	-70.646	-101.285	-3.149	B5-03822-P02-CH1	1723192	OK	0.6409304	-0.0862028	-0.7627433	0	-71.316	-79.384	-4.402	B5-03822-P03-CH0	1723192	OK	0.8079875	-0.3798162	-0.4504397	0	-93.899	-62.307	-2.159	B5-03822-P03-CH1	1723192	OK	0.7648899	-0.5718309	0.2965685	0	-94.639	-18.951	-19.82	B5-03822-P04-CH0	1723192	OK	0.7424822	-0.3753697	0.5548132	0	-124.258	-51.245	1.536	B5-03822-P04-CH1	1723192	OK	0.725308	-0.6374498	0.2599732	0	-105.606	-38.694	-19.19	NA
0.6994227994228	B5-03822-P01-CH0	1723200	OK	0.2485526	0.0354315	0.0598031	-0.966121	135.798	-41.659	-264.437	B5-03822-P02-CH0	1723200	OK	0.6105453	0.4170608	-0.6732716	0	-71.849	-102.584	-2.215	B5-03822-P02-CH1	1723200	OK	0.6243077	-0.0865269	-0.7763717	0	-69.794	-78.595	-3.145	B5-03822-P03-CH0	1723200	OK	0.801316	-0.4079967	-0.4375288	0	-92.277	-62.417	-2.962	B5-03822-P03-CH1	1723200	OK	0.7646248	-0.5726797	0.2956127	0	-94.323	-18.405	-20.377	B5-03822-P04-CH0	1723200	OK	0.7421067	-0.3772056	0.55407	0	-123.852	-50.463	0.82	B5-03822-P04-CH1	1723200	OK	0.7246866	-0.6379638	0.260445	0	-105.815	-38.799	-19.285	NA
0.709414553700268	B5-03822-P01-CH0	1723208	OK	0.2478929	0.0359849	0.0582268	-0.9663663	135.888	-41.786	-264.476	B5-03822-P02-CH0	1723208	OK	0.6184185	0.4569161	-0.6393639	0	-72.829	-103.351	-2.063	B5-03822-P02-CH1	1723208	OK	0.6114902	-0.0818696	-0.7870052	0	-68.725	-78.359	-2.029	B5-03822-P03-CH0	1723208	OK	0.7918588	-0.4274335	-0.4361883	0	-92.643	-61.547	-3.968	B5-03822-P03-CH1	1723208	OK	0.7636589	-0.57408	0.2953932	0	-94.374	-18.445	-20.615	B5-03822-P04-CH0	1723208	OK	0.7418435	-0.379245	0.5530293	0	-123.806	-49.901	0.439	B5-03822-P04-CH1	1723208	OK	0.7238406	-0.6391903	0.2597896	0	-105.964	-38.73	-19.368	NA
0.719406307977737	B5-03822-P01-CH0	1723216	OK	0.247866	0.0360576	0.0584293	-0.9663583	135.922	-41.81	-264.574	B5-03822-P02-CH0	1723216	OK	0.6233767	0.4839733	-0.6141428	0	-72.745	-102.116	-2.85	B5-03822-P02-CH1	1723216	OK	0.602979	-0.0795242	-0.7937835	0	-68.015	-77.151	-2.022	B5-03822-P03-CH0	1723216	OK	0.7856692	-0.4379231	-0.4369752	0	-90.348	-62.202	-3.147	B5-03822-P03-CH1	1723216	OK	0.7639482	-0.5738767	0.2950401	0	-94.227	-18.173	-20.752	B5-03822-P04-CH0	1723216	OK	0.7422541	-0.3789231	0.552699	0	-124.009	-50.147	0.4	B5-03822-P04-CH1	1723216	OK	0.7240575	-0.6393254	0.2588509	0	-105.729	-38.503	-19.406	NA
0.729398062255205	B5-03822-P01-CH0	1723224	OK	0.2480776	0.035686	0.059615	-0.9662453	135.803	-41.686	-264.623	B5-03822-P02-CH0	1723224	OK	0.6267051	0.5057961	-0.5927993	0	-72.848	-102.038	-2.592	B5-03822-P02-CH1	1723224	OK	0.5965868	-0.0786118	-0.7986892	0	-67.83	-76.949	-2.141	B5-03822-P03-CH0	1723224	OK	0.7817058	-0.4399051	-0.4420628	0	-88.25	-61.539	-5.299	B5-03822-P03-CH1	1723224	OK	0.764266	-0.5730278	0.295866	0	-94.333	-18.385	-20.644	B5-03822-P04-CH0	1723224	OK	0.7430791	-0.3798274	0.550967	0	-123.883	-49.263	-0.402	B5-03822-P04-CH1	1723224	OK	0.7248408	-0.6385925	0.2584675	0	-105.42	-38.166	-19.842	NA
0.739389816532674	B5-03822-P01-CH0	1723232	OK	0.2479836	0.0359814	0.0595913	-0.96626	135.88	-41.668	-264.642	B5-03822-P02-CH0	1723232	OK	0.6294741	0.523409	-0.5742868	0	-73.457	-102.408	-2.189	B5-03822-P02-CH1	1723232	OK	0.595187	-0.0754705	-0.8000354	0	-67.243	-77.209	-2.431	B5-03822-P03-CH0	1723232	OK	0.775047	-0.4391991	-0.4543195	0	-88.982	-62.118	-3.75	B5-03822-P03-CH1	1723232	OK	0.7641134	-0.5731755	0.2959738	0	-94.408	-18.423	-20.421	B5-03822-P04-CH0	1723232	OK	0.7431999	-0.3807559	0.5501626	0	-123.952	-49.121	-0.572	B5-03822-P04-CH1	1723232	OK	0.7253099	-0.6385629	0.2572217	0	-105.505	-37.609	-20.538	NA
0.749381570810142	B5-03822-P01-CH0	1723240	OK	0.2479691	0.0360445	0.0597655	-0.9662506	135.926	-41.708	-264.704	B5-03822-P02-CH0	1723240	OK	0.6301692	0.5343986	-0.5632982	0	-73.406	-101.707	-2.208	B5-03822-P02-CH1	1723240	OK	0.596854	-0.0756795	-0.7987728	0	-66.699	-76.893	-2.129	B5-03822-P03-CH0	1723240	OK	0.7723691	-0.4366152	-0.4613168	0	-88.058	-61.877	-4.14	B5-03822-P03-CH1	1723240	OK	0.7638503	-0.5731836	0.2966367	0	-94.597	-18.77	-20.028	B5-03822-P04-CH0	1723240	OK	0.7433608	-0.3817994	0.5492212	0	-123.896	-49.07	-0.604	B5-03822-P04-CH1	1723240	OK	0.7255068	-0.6381592	0.2576679	0	-105.847	-37.766	-20.165	NA
0.759373325087611	B5-03822-P01-CH0	1723248	OK	0.2480083	0.0360892	0.0598387	-0.9662343	135.921	-41.747	-264.696	B5-03822-P02-CH0	1723248	OK	0.6327963	0.5402585	-0.5546977	0	-72.729	-102.404	-3.835	B5-03822-P02-CH1	1723248	OK	0.5993568	-0.0725952	-0.7971834	0	-66.72	-77.413	-1.844	B5-03822-P03-CH0	1723248	OK	0.7706954	-0.4351573	-0.4654748	0	-88.204	-62.221	-4.592	B5-03822-P03-CH1	1723248	OK	0.763373	-0.5733489	0.2975446	0	-94.86	-19.232	-19.693	B5-03822-P04-CH0	1723248	OK	0.7432413	-0.3842432	0.5476765	0	-123.561	-48.518	-1.44	B5-03822-P04-CH1	1723248	OK	0.7259549	-0.6380793	0.2566014	0	-105.82	-37.312	-20.657	NA
0.769365079365079	B5-03822-P01-CH0	1723256	OK	0.2477184	0.0361222	0.0592594	-0.9663432	135.945	-41.87	-264.783	B5-03822-P02-CH0	1723256	OK	0.629391	0.5419355	-0.5569317	0	-72.862	-101.154	-2.572	B5-03822-P02-CH1	1723256	OK	0.6013852	-0.0704823	-0.7958443	0	-67.39	-78.221	-1.451	B5-03822-P03-CH0	1723256	OK	0.7717864	-0.4330711	-0.4656127	0	-88.351	-62.568	-3.93	B5-03822-P03-CH1	1723256	OK	0.7625462	-0.5743115	0.2978081	0	-94.855	-19.374	-19.721	B5-03822-P04-CH0	1723256	OK	0.7431248	-0.3873854	0.5456172	0	-123.402	-47.819	-1.994	B5-03822-P04-CH1	1723256	OK	0.7261708	-0.6382763	0.2554982	0	-105.859	-36.905	-20.549	NA
0.779356833642548	B5-03822-P01-CH0	1723264	OK	0.2476793	0.0359199	0.059453	-0.9663488	135.91	-41.958	-264.929	B5-03822-P02-CH0	1723264	OK	0.6263969	0.5400934	-0.562073	0	-73.16	-102.17	-1.996	B5-03822-P02-CH1	1723264	OK	0.6035626	-0.0734816	-0.7939223	0	-67.672	-77.801	-2.323	B5-03822-P03-CH0	1723264	OK	0.7743711	-0.4303521	-0.4638388	0	-88.583	-63.133	-2.772	B5-03822-P03-CH1	1723264	OK	0.7622638	-0.574664	0.297851	0	-94.834	-19.296	-19.98	B5-03822-P04-CH0	1723264	OK	0.7433335	-0.3887942	0.5443293	0	-123.487	-47.696	-2.267	B5-03822-P04-CH1	1723264	OK	0.726517	-0.6385272	0.2538821	0	-105.471	-36.281	-21.474	NA
0.789348587920017	B5-03822-P01-CH0	1723272	OK	0.2479532	0.0360946	0.0598325	-0.9662487	135.975	-41.883	-265.026	B5-03822-P02-CH0	1723272	OK	0.6221472	0.533583	-0.5729067	0	-72.398	-102.11	-2.457	B5-03822-P02-CH1	1723272	OK	0.6075266	-0.0773055	-0.7905285	0	-66.821	-77.198	-2.15	B5-03822-P03-CH0	1723272	OK	0.7780026	-0.4260668	-0.4617132	0	-88.644	-62.689	-3.403	B5-03822-P03-CH1	1723272	OK	0.7625762	-0.5746074	0.2971596	0	-94.751	-18.574	-20.565	B5-03822-P04-CH0	1723272	OK	0.7435643	-0.3906204	0.5427041	0	-123.365	-47.153	-2.473	B5-03822-P04-CH1	1723272	OK	0.7262294	-0.6382307	0.2554456	0	-105.718	-37.096	-20.088	NA
0.799340342197485	B5-03822-P01-CH0	1723280	OK	0.2479242	0.036247	0.0602297	-0.9662257	136.052	-41.898	-265.061	B5-03822-P02-CH0	1723280	OK	0.6187775	0.5233711	-0.5858303	0	-70.788	-102.618	-3.218	B5-03822-P02-CH1	1723280	OK	0.6083892	-0.077287	-0.7898666	0	-67.657	-78.342	-2.025	B5-03822-P03-CH0	1723280	OK	0.7810517	-0.4209434	-0.4612644	0	-88.205	-63.714	-3.075	B5-03822-P03-CH1	1723280	OK	0.7625933	-0.5747961	0.2967506	0	-94.69	-18.3	-20.959	B5-03822-P04-CH0	1723280	OK	0.7438132	-0.391568	0.5416793	0	-123.493	-47.273	-1.984	B5-03822-P04-CH1	1723280	OK	0.7267252	-0.6380318	0.2545309	0	-105.713	-36.861	-19.858	NA
0.809332096474954	B5-03822-P01-CH0	1723288	OK	0.2481225	0.0361167	0.0612348	-0.9661165	136.017	-41.848	-265.047	B5-03822-P02-CH0	1723288	OK	0.6093176	0.511027	-0.6062866	0	-71.174	-102.003	-3.072	B5-03822-P02-CH1	1723288	OK	0.6116806	-0.0784093	-0.7872095	0	-67.559	-78.438	-2.447	B5-03822-P03-CH0	1723288	OK	0.7846108	-0.4128198	-0.4625642	0	-88.677	-63.537	-3.244	B5-03822-P03-CH1	1723288	OK	0.7631848	-0.5740945	0.2965881	0	-94.838	-18.082	-20.723	B5-03822-P04-CH0	1723288	OK	0.7441283	-0.3919915	0.5409397	0	-123.517	-47.616	-1.578	B5-03822-P04-CH1	1723288	OK	0.7273903	-0.6372599	0.2545648	0	-105.815	-36.83	-19.66	NA
0.819323850752422	B5-03822-P01-CH0	1723296	OK	0.2476907	0.0361131	0.0610143	-0.9662414	135.971	-41.91	-265.094	B5-03822-P02-CH0	1723296	OK	0.602868	0.4976582	-0.6236077	0	-70.761	-101.791	-2.46	B5-03822-P02-CH1	1723296	OK	0.6143067	-0.0776237	-0.78524	0	-68.107	-78.826	-2.668	B5-03822-P03-CH0	1723296	OK	0.7895768	-0.4042756	-0.4616598	0	-88.1	-63.631	-3.445	B5-03822-P03-CH1	1723296	OK	0.7628871	-0.5748513	0.2958872	0	-94.779	-17.807	-20.893	B5-03822-P04-CH0	1723296	OK	0.7439204	-0.394092	0.539698	0	-123.432	-47.496	-1.317	B5-03822-P04-CH1	1723296	OK	0.7272457	-0.6375109	0.2543492	0	-105.997	-36.892	-19.162	NA
0.829315605029891	B5-03822-P01-CH0	1723304	OK	0.2475944	0.0364978	0.060742	-0.9662688	136.111	-42.023	-265.116	B5-03822-P02-CH0	1723304	OK	0.5968834	0.4872464	-0.6374333	0	-70.72	-102.415	-2.026	B5-03822-P02-CH1	1723304	OK	0.6175953	-0.0742694	-0.7829815	0	-68.161	-78.933	-2.973	B5-03822-P03-CH0	1723304	OK	0.7924518	-0.3978575	-0.4623088	0	-89.054	-64.373	-2.323	B5-03822-P03-CH1	1723304	OK	0.7625462	-0.5754111	0.2956778	0	-94.843	-17.895	-20.74	B5-03822-P04-CH0	1723304	OK	0.7437835	-0.396674	0.5379924	0	-123.27	-47.018	-1.642	B5-03822-P04-CH1	1723304	OK	0.727338	-0.6376663	0.2536948	0	-106.142	-36.803	-18.963	NA
0.839307359307359	B5-03822-P01-CH0	1723312	OK	0.2477245	0.0365344	0.0607276	-0.9662349	136.109	-42.096	-265.126	B5-03822-P02-CH0	1723312	OK	0.5906152	0.4780487	-0.6501101	0	-70.734	-102.201	-2.109	B5-03822-P02-CH1	1723312	OK	0.6200662	-0.0697641	-0.7814415	0	-68.244	-79.084	-3.407	B5-03822-P03-CH0	1723312	OK	0.794362	-0.3911474	-0.4647502	0	-90.045	-64.621	-2.191	B5-03822-P03-CH1	1723312	OK	0.7624889	-0.575642	0.2953758	0	-94.795	-17.603	-21.151	B5-03822-P04-CH0	1723312	OK	0.7436784	-0.39847	0.5368091	0	-123.224	-46.92	-1.871	B5-03822-P04-CH1	1723312	OK	0.7273316	-0.6375055	0.2541172	0	-106.379	-36.946	-18.951	NA
0.849299113584828	B5-03822-P01-CH0	1723320	OK	0.2473058	0.0366746	0.0600817	-0.9663773	136.11	-42.289	-265.126	B5-03822-P02-CH0	1723320	OK	0.587533	0.4698384	-0.6588299	0	-70.18	-101.669	-2.191	B5-03822-P02-CH1	1723320	OK	0.6217307	-0.0622807	-0.780751	0	-68.743	-79.796	-3.075	B5-03822-P03-CH0	1723320	OK	0.7957251	-0.3865781	-0.4662391	0	-89.88	-65.532	-1.448	B5-03822-P03-CH1	1723320	OK	0.7619358	-0.5767685	0.2946047	0	-94.622	-17.436	-21.371	B5-03822-P04-CH0	1723320	OK	0.7431205	-0.401118	0.5356083	0	-123.052	-46.791	-1.772	B5-03822-P04-CH1	1723320	OK	0.7269012	-0.6383556	0.2532129	0	-106.363	-36.855	-19.108	NA
0.859290867862296	B5-03822-P01-CH0	1723328	OK	0.2472094	0.0366295	0.0600524	-0.9664055	136.07	-42.356	-265.153	B5-03822-P02-CH0	1723328	OK	0.5865159	0.4664191	-0.6621573	0	-70.173	-102.431	-2.301	B5-03822-P02-CH1	1723328	OK	0.6251494	-0.0558451	-0.7785047	0	-67.912	-80.264	-2.458	B5-03822-P03-CH0	1723328	OK	0.7970336	-0.3822953	-0.4675337	0	-89.481	-64.848	-2.744	B5-03822-P03-CH1	1723328	OK	0.761734	-0.5772405	0.294202	0	-94.484	-17.214	-21.514	B5-03822-P04-CH0	1723328	OK	0.7430807	-0.4031912	0.5341047	0	-122.958	-46.352	-1.885	B5-03822-P04-CH1	1723328	OK	0.7258631	-0.6384483	0.2559426	0	-106.777	-38.264	-17.325	NA
0.869282622139765	B5-03822-P01-CH0	1723336	OK	0.2475872	0.0364804	0.0612257	-0.9662407	136.071	-42.284	-265.214	B5-03822-P02-CH0	1723336	OK	0.5859989	0.4618672	-0.6657957	0	-70.126	-102.894	-2.013	B5-03822-P02-CH1	1723336	OK	0.6257882	-0.0508559	-0.7783334	0	-68.395	-80.088	-3.545	B5-03822-P03-CH0	1723336	OK	0.7963191	-0.3799632	-0.4706419	0	-90.256	-64.388	-2.545	B5-03822-P03-CH1	1723336	OK	0.7624367	-0.5765735	0.2936891	0	-94.495	-16.941	-21.436	B5-03822-P04-CH0	1723336	OK	0.7434591	-0.4037925	0.533123	0	-122.992	-46.26	-2.059	B5-03822-P04-CH1	1723336	OK	0.7269983	-0.6376856	0.2546183	0	-106.56	-37.607	-17.9	NA
0.879274376417234	B5-03822-P01-CH0	1723344	OK	0.2478779	0.0365758	0.0617769	-0.9661275	136.181	-42.329	-265.241	B5-03822-P02-CH0	1723344	OK	0.5853822	0.4572059	-0.669545	0	-70.171	-102.244	-1.731	B5-03822-P02-CH1	1723344	OK	0.6243208	-0.048067	-0.7796878	0	-69.734	-80.353	-3.131	B5-03822-P03-CH0	1723344	OK	0.7962891	-0.3801368	-0.4705525	0	-89.692	-64.935	-1.894	B5-03822-P03-CH1	1723344	OK	0.7626164	-0.5763562	0.293649	0	-94.637	-17.104	-21.169	B5-03822-P04-CH0	1723344	OK	0.7434404	-0.4044964	0.5326153	0	-122.957	-46.582	-1.598	B5-03822-P04-CH1	1723344	OK	0.7279136	-0.6368109	0.2541921	0	-106.748	-37.405	-17.602	NA
0.889266130694702	B5-03822-P01-CH0	1723352	OK	0.2478047	0.0364714	0.0617668	-0.9661509	136.145	-42.424	-265.17	B5-03822-P02-CH0	1723352	OK	0.5858763	0.4544237	-0.6710053	0	-70.097	-101.99	-2.273	B5-03822-P02-CH1	1723352	OK	0.6262165	-0.0456241	-0.7783131	0	-69.415	-80.069	-3.231	B5-03822-P03-CH0	1723352	OK	0.7963455	-0.3795856	-0.4709018	0	-89.027	-65.207	-1.917	B5-03822-P03-CH1	1723352	OK	0.762705	-0.5767492	0.2926456	0	-94.414	-16.772	-21.27	B5-03822-P04-CH0	1723352	OK	0.7432977	-0.4045565	0.5327687	0	-123.138	-47.29	-0.772	B5-03822-P04-CH1	1723352	OK	0.7284723	-0.6367847	0.2526526	0	-106.748	-36.751	-18.309	NA
0.899257884972171	B5-03822-P01-CH0	1723360	OK	0.248158	0.0362429	0.0624055	-0.9660277	136.16	-42.378	-265.294	B5-03822-P02-CH0	1723360	OK	0.5864647	0.4532682	-0.6712727	0	-70.253	-102.62	-2.114	B5-03822-P02-CH1	1723360	OK	0.6282114	-0.0434197	-0.7768302	0	-69.179	-80.313	-2.84	B5-03822-P03-CH0	1723360	OK	0.7961995	-0.3771897	-0.473069	0	-89.522	-64.72	-1.215	B5-03822-P03-CH1	1723360	OK	0.7630306	-0.5763607	0.2925621	0	-94.565	-16.836	-20.939	B5-03822-P04-CH0	1723360	OK	0.7435048	-0.4060114	0.5313712	0	-122.918	-46.627	-1.367	B5-03822-P04-CH1	1723360	OK	0.7287822	-0.6361047	0.2534706	0	-107.024	-37.059	-17.906	NA
0.909249639249639	B5-03822-P01-CH0	1723368	OK	0.2485737	0.0361746	0.0629281	-0.9658895	136.252	-42.364	-265.342	B5-03822-P02-CH0	1723368	OK	0.5860687	0.4517458	-0.6726434	0	-70.682	-102.777	-1.941	B5-03822-P02-CH1	1723368	OK	0.6311035	-0.0418322	-0.7745698	0	-68.645	-80.123	-4.241	B5-03822-P03-CH0	1723368	OK	0.7964199	-0.3765896	-0.4731761	0	-89.673	-64.917	-1.499	B5-03822-P03-CH1	1723368	OK	0.7633941	-0.5762738	0.2917843	0	-94.375	-16.551	-21.415	B5-03822-P04-CH0	1723368	OK	0.7436735	-0.407154	0.5302597	0	-122.75	-46.101	-1.783	B5-03822-P04-CH1	1723368	OK	0.7292203	-0.6356721	0.2532957	0	-107.038	-37.015	-17.933	NA
0.919241393527108	B5-03822-P01-CH0	1723376	OK	0.2487819	0.0359453	0.0633962	-0.9658139	136.212	-42.282	-265.293	B5-03822-P02-CH0	1723376	OK	0.5859632	0.4487993	-0.6747047	0	-70.363	-102.082	-2.176	B5-03822-P02-CH1	1723376	OK	0.6315631	-0.0393827	-0.7743236	0	-69.428	-80.451	-3.843	B5-03822-P03-CH0	1723376	OK	0.7973755	-0.3747367	-0.4730377	0	-89.597	-64.345	-2.54	B5-03822-P03-CH1	1723376	OK	0.763798	-0.5762072	0.290857	0	-94.255	-16.197	-21.663	B5-03822-P04-CH0	1723376	OK	0.7437707	-0.4072809	0.5300258	0	-122.739	-46.011	-1.808	B5-03822-P04-CH1	1723376	OK	0.7292844	-0.6352507	0.2541667	0	-107.182	-37.413	-17.481	NA
0.929233147804576	B5-03822-P01-CH0	1723384	OK	0.2487077	0.0358466	0.0627946	-0.9658759	136.177	-42.379	-265.25	B5-03822-P02-CH0	1723384	OK	0.5885108	0.4485234	-0.6726677	0	-69.735	-102.635	-2.198	B5-03822-P02-CH1	1723384	OK	0.6320789	-0.0356206	-0.7740849	0	-69.91	-81.168	-3.187	B5-03822-P03-CH0	1723384	OK	0.7975844	-0.3793817	-0.4689656	0	-89.45	-64.752	-2.473	B5-03822-P03-CH1	1723384	OK	0.7639372	-0.5768663	0.2891803	0	-93.904	-15.379	-22.647	B5-03822-P04-CH0	1723384	OK	0.7433394	-0.4068426	0.5309667	0	-122.918	-46.79	-1.016	B5-03822-P04-CH1	1723384	OK	0.7289852	-0.6356813	0.2539485	0	-107.117	-37.422	-17.498	NA
0.939224902082045	B5-03822-P01-CH0	1723392	OK	0.2487416	0.0356516	0.0631121	-0.9658537	136.116	-42.288	-265.201	B5-03822-P02-CH0	1723392	OK	0.5868585	0.4545423	-0.6700659	0	-70.108	-102.917	-2.724	B5-03822-P02-CH1	1723392	OK	0.6345843	-0.0340583	-0.7721028	0	-69.077	-79.955	-3.765	B5-03822-P03-CH0	1723392	OK	0.7979515	-0.3777447	-0.4696619	0	-89.527	-64.618	-2.455	B5-03822-P03-CH1	1723392	OK	0.7643005	-0.5767636	0.2884241	0	-93.87	-15.1	-22.727	B5-03822-P04-CH0	1723392	OK	0.7433837	-0.4061813	0.5314108	0	-122.947	-47.187	-0.323	B5-03822-P04-CH1	1723392	OK	0.7293022	-0.6354568	0.2536	0	-107.07	-37.319	-17.13	NA
0.949216656359514	B5-03822-P01-CH0	1723400	OK	0.2490638	0.0353527	0.0631826	-0.9657771	136.069	-42.215	-265.26	B5-03822-P02-CH0	1723400	OK	0.5869387	0.4521181	-0.671634	0	-70.216	-102.816	-2.76	B5-03822-P02-CH1	1723400	OK	0.6369508	-0.0333747	-0.7701817	0	-68.61	-79.168	-4.139	B5-03822-P03-CH0	1723400	OK	0.7981556	-0.3767429	-0.4701195	0	-89.733	-64.396	-2.473	B5-03822-P03-CH1	1723400	OK	0.7643939	-0.5765983	0.2885073	0	-93.968	-15.204	-22.473	B5-03822-P04-CH0	1723400	OK	0.7436053	-0.4064471	0.5308973	0	-122.919	-46.767	-0.919	B5-03822-P04-CH1	1723400	OK	0.7294101	-0.6352188	0.2538858	0	-106.937	-37.321	-17.024	NA
0.959208410636982	B5-03822-P01-CH0	1723408	OK	0.2496411	0.0351525	0.064116	-0.9655738	136.137	-42.135	-265.363	B5-03822-P02-CH0	1723408	OK	0.5868107	0.4494347	-0.6735441	0	-70.291	-102.736	-2.794	B5-03822-P02-CH1	1723408	OK	0.6364225	-0.0317166	-0.7706883	0	-70.211	-81.113	-3.689	B5-03822-P03-CH0	1723408	OK	0.8005112	-0.3721411	-0.4697795	0	-91.144	-63.562	-2.273	B5-03822-P03-CH1	1723408	OK	0.76512	-0.5757133	0.2883498	0	-94.067	-15.221	-22.421	B5-03822-P04-CH0	1723408	OK	0.7439806	-0.4043555	0.5319675	0	-123.095	-47.664	0.022	B5-03822-P04-CH1	1723408	OK	0.7306321	-0.6342969	0.2526741	0	-106.752	-36.625	-17.776	NA
0.969200164914451	B5-03822-P01-CH0	1723416	OK	0.2495992	0.0349098	0.0637655	-0.9656166	136.061	-42.133	-265.344	B5-03822-P02-CH0	1723416	OK	0.5878387	0.4479996	-0.6736037	0	-70.224	-102.647	-2.776	B5-03822-P02-CH1	1723416	OK	0.6406824	-0.0302497	-0.7672099	0	-69.219	-80.479	-4.113	B5-03822-P03-CH0	1723416	OK	0.8033398	-0.372318	-0.4647843	0	-89.14	-64.904	-1.214	B5-03822-P03-CH1	1723416	OK	0.7649402	-0.5761029	0.2880485	0	-94.008	-15.185	-22.506	B5-03822-P04-CH0	1723416	OK	0.7438892	-0.4041964	0.5322163	0	-123.039	-47.723	0.409	B5-03822-P04-CH1	1723416	OK	0.7304887	-0.6342602	0.2531802	0	-106.855	-36.837	-17.379	NA
0.979191919191919	B5-03822-P01-CH0	1723424	OK	0.249636	0.034638	0.0641466	-0.9655917	136.05	-42.05	-265.51	B5-03822-P02-CH0	1723424	OK	0.5885786	0.4468912	-0.6736939	0	-70.266	-102.76	-2.759	B5-03822-P02-CH1	1723424	OK	0.6416907	-0.0282995	-0.7664412	0	-69.682	-81.359	-4.026	B5-03822-P03-CH0	1723424	OK	0.8026501	-0.3704553	-0.4674566	0	-90.327	-64.898	-0.817	B5-03822-P03-CH1	1723424	OK	0.7653929	-0.5759074	0.2872356	0	-93.796	-14.833	-22.524	B5-03822-P04-CH0	1723424	OK	0.7441537	-0.4032082	0.532596	0	-123.228	-47.977	0.714	B5-03822-P04-CH1	1723424	OK	0.7305886	-0.6343492	0.2526687	0	-106.619	-36.735	-17.658	NA
0.989183673469388	B5-03822-P01-CH0	1723432	OK	0.2495257	0.0344441	0.0638172	-0.9656489	135.971	-42.027	-265.546	B5-03822-P02-CH0	1723432	OK	0.5895269	0.4460289	-0.6734362	0	-70.326	-102.789	-2.781	B5-03822-P02-CH1	1723432	OK	0.6423921	-0.0277635	-0.7658731	0	-70.119	-81.125	-3.89	B5-03822-P03-CH0	1723432	OK	0.8046554	-0.3691319	-0.4650498	0	-89.512	-64.652	-1.627	B5-03822-P03-CH1	1723432	OK	0.7649601	-0.5761997	0.2878019	0	-94.014	-15.301	-22.16	B5-03822-P04-CH0	1723432	OK	0.7439294	-0.4020777	0.5337627	0	-123.341	-48.555	1.477	B5-03822-P04-CH1	1723432	OK	0.7306398	-0.6345487	0.2520185	0	-106.394	-36.472	-17.856	NA
0.999175427746856	B5-03822-P01-CH0	1723440	OK	0.2491888	0.034497	0.0628353	-0.9657984	135.94	-42.118	-265.508	B5-03822-P02-CH0	1723440	OK	0.5908838	0.4454337	-0.6726404	0	-70.32	-102.906	-2.742	B5-03822-P02-CH1	1723440	OK	0.6450278	-0.0264807	-0.7637001	0	-69.356	-80.564	-4.368	B5-03822-P03-CH0	1723440	OK	0.8043234	-0.3686669	-0.4659921	0	-90.046	-65.463	-0.737	B5-03822-P03-CH1	1723440	OK	0.7643755	-0.576987	0.2877779	0	-93.975	-15.442	-22.016	B5-03822-P04-CH0	1723440	OK	0.7434197	-0.4009847	0.5352928	0	-123.609	-49.516	2.349	B5-03822-P04-CH1	1723440	OK	0.7298141	-0.6354632	0.2521069	0	-106.229	-36.647	-18.018	NA
1.00916718202432	B5-03822-P01-CH0	1723448	OK	0.2488483	0.0346441	0.0622723	-0.9659174	135.936	-42.107	-265.58	B5-03822-P02-CH0	1723448	OK	0.5955821	0.439912	-0.6721305	0	-70.341	-103.634	-2.927	B5-03822-P02-CH1	1723448	OK	0.6449129	-0.0244447	-0.763865	0	-69.769	-80.946	-4.554	B5-03822-P03-CH0	1723448	OK	0.8050076	-0.3663438	-0.4666422	0	-90.126	-64.685	-1.377	B5-03822-P03-CH1	1723448	OK	0.7641136	-0.5774848	0.2874748	0	-93.989	-15.335	-22.058	B5-03822-P04-CH0	1723448	OK	0.7433112	-0.4010588	0.535388	0	-123.716	-49.534	2.388	B5-03822-P04-CH1	1723448	OK	0.7300433	-0.6357057	0.2508288	0	-106.014	-36.102	-18.072	NA
1.01915893630179	B5-03822-P01-CH0	1723456	OK	0.2492066	0.0347127	0.062492	-0.9658084	135.98	-42.092	-265.56	B5-03822-P02-CH0	1723456	OK	0.5939332	0.4375419	-0.6751299	0	-70.739	-103.287	-2.641	B5-03822-P02-CH1	1723456	OK	0.6449436	-0.0240749	-0.7638509	0	-70.071	-81.347	-4.508	B5-03822-P03-CH0	1723456	OK	0.8059095	-0.3649794	-0.4661543	0	-90.555	-64.203	-1.834	B5-03822-P03-CH1	1723456	OK	0.7641338	-0.5772089	0.2879747	0	-93.998	-15.471	-22.129	B5-03822-P04-CH0	1723456	OK	0.7436206	-0.4006473	0.5352663	0	-123.667	-49.456	2.337	B5-03822-P04-CH1	1723456	OK	0.7302509	-0.6354099	0.250974	0	-105.869	-35.996	-18.519	NA
1.02915069057926	B5-03822-P01-CH0	1723464	OK	0.2494887	0.0345971	0.0632428	-0.9656908	136.047	-41.985	-265.65	B5-03822-P02-CH0	1723464	OK	0.5925164	0.4421004	-0.673403	0	-70.664	-103.415	-2.93	B5-03822-P02-CH1	1723464	OK	0.6457656	-0.0212073	-0.7632411	0	-70.373	-82.224	-4.002	B5-03822-P03-CH0	1723464	OK	0.8060243	-0.3650467	-0.4659031	0	-91.267	-64.316	-2.651	B5-03822-P03-CH1	1723464	OK	0.764163	-0.5765031	0.2893081	0	-94.442	-16.249	-21.22	B5-03822-P04-CH0	1723464	OK	0.74389	-0.3996254	0.5356558	0	-123.759	-49.807	2.441	B5-03822-P04-CH1	1723464	OK	0.7301554	-0.6347249	0.2529772	0	-106.354	-36.92	-17.427	NA
1.03914244485673	B5-03822-P01-CH0	1723472	OK	0.2497173	0.0346399	0.0630507	-0.9656428	136.114	-42.047	-265.704	B5-03822-P02-CH0	1723472	OK	0.5928825	0.4405641	-0.6740872	0	-70.791	-103.533	-2.892	B5-03822-P02-CH1	1723472	OK	0.647367	-0.0212555	-0.761882	0	-70.396	-82.353	-4.076	B5-03822-P03-CH0	1723472	OK	0.8065133	-0.3658486	-0.4644255	0	-91.464	-65.316	-1.268	B5-03822-P03-CH1	1723472	OK	0.7636661	-0.5767373	0.290152	0	-94.492	-16.816	-20.87	B5-03822-P04-CH0	1723472	OK	0.7439831	-0.3993617	0.5357232	0	-123.774	-49.766	2.251	B5-03822-P04-CH1	1723472	OK	0.7299417	-0.6349084	0.2531332	0	-106.14	-37.057	-17.574	NA
1.0491341991342	B5-03822-P01-CH0	1723480	OK	0.249624	0.0346587	0.0629738	-0.9656712	136.092	-42.057	-265.592	B5-03822-P02-CH0	1723480	OK	0.5933508	0.4396297	-0.6742852	0	-70.821	-103.43	-3.052	B5-03822-P02-CH1	1723480	OK	0.6480772	-0.0174355	-0.761375	0	-70.414	-82.617	-3.343	B5-03822-P03-CH0	1723480	OK	0.8082253	-0.3633306	-0.463425	0	-90.775	-65.029	-1.787	B5-03822-P03-CH1	1723480	OK	0.7635847	-0.5770708	0.2897028	0	-94.236	-16.476	-21.526	B5-03822-P04-CH0	1723480	OK	0.7440016	-0.3987227	0.5361733	0	-123.897	-50.022	2.621	B5-03822-P04-CH1	1723480	OK	0.7294942	-0.6353488	0.2533182	0	-105.898	-37.371	-17.277	NA
1.05912595341167	B5-03822-P01-CH0	1723488	OK	0.2493074	0.0346073	0.0625106	-0.965785	135.971	-42.019	-265.501	B5-03822-P02-CH0	1723488	OK	0.5940093	0.4391701	-0.6740049	0	-70.896	-103.349	-3.034	B5-03822-P02-CH1	1723488	OK	0.6479228	-0.0146602	-0.7615649	0	-70.94	-82.65	-4.638	B5-03822-P03-CH0	1723488	OK	0.8098774	-0.3592832	-0.4636962	0	-90.352	-64.477	-2.177	B5-03822-P03-CH1	1723488	OK	0.7634757	-0.5776801	0.2887743	0	-93.996	-15.95	-21.802	B5-03822-P04-CH0	1723488	OK	0.7439607	-0.3988798	0.5361133	0	-123.959	-49.781	2.539	B5-03822-P04-CH1	1723488	OK	0.7284993	-0.6360598	0.2543949	0	-105.784	-37.929	-16.825	NA
1.06911770768914	B5-03822-P01-CH0	1723496	OK	0.2491431	0.0348055	0.0619246	-0.965858	136.023	-42.123	-265.452	B5-03822-P02-CH0	1723496	OK	0.5944055	0.4388941	-0.6738353	0	-71.133	-103.518	-2.975	B5-03822-P02-CH1	1723496	OK	0.6497476	-0.0132532	-0.7600345	0	-70.31	-81.837	-5.156	B5-03822-P03-CH0	1723496	OK	0.8112033	-0.3576793	-0.4626173	0	-89.985	-64.626	-2.498	B5-03822-P03-CH1	1723496	OK	0.7628302	-0.5784	0.2890389	0	-93.985	-16.245	-21.818	B5-03822-P04-CH0	1723496	OK	0.7437127	-0.3994173	0.5360571	0	-123.965	-49.642	2.104	B5-03822-P04-CH1	1723496	OK	0.7278246	-0.6367834	0.2545156	0	-105.754	-38.19	-17.004	NA
1.0791094619666	B5-03822-P01-CH0	1723504	OK	0.2491042	0.034973	0.061566	-0.9658849	136.039	-42.099	-265.364	B5-03822-P02-CH0	1723504	OK	0.5947673	0.4385536	-0.6737378	0	-71.291	-103.492	-2.903	B5-03822-P02-CH1	1723504	OK	0.650612	-0.0121808	-0.7593127	0	-70.277	-81.274	-4.254	B5-03822-P03-CH0	1723504	OK	0.8095762	-0.3560743	-0.4666877	0	-91.369	-65.089	-0.974	B5-03822-P03-CH1	1723504	OK	0.7624517	-0.5786188	0.2895992	0	-94.231	-16.483	-21.568	B5-03822-P04-CH0	1723504	OK	0.7435141	-0.39959	0.5362038	0	-123.927	-49.568	2.014	B5-03822-P04-CH1	1723504	OK	0.7267099	-0.6370621	0.2569914	0	-106.267	-39.435	-15.58	NA
1.08910121624407	B5-03822-P01-CH0	1723512	OK	0.2490406	0.0347712	0.0611415	-0.9659355	135.981	-42.152	-265.412	B5-03822-P02-CH0	1723512	OK	0.5954391	0.4383968	-0.6732462	0	-71.313	-103.478	-2.842	B5-03822-P02-CH1	1723512	OK	0.6495791	-0.0096195	-0.7602332	0	-71.613	-82.349	-4.154	B5-03822-P03-CH0	1723512	OK	0.8098027	-0.3551307	-0.4670136	0	-91.071	-65.067	-1.061	B5-03822-P03-CH1	1723512	OK	0.7621128	-0.5792815	0.2891659	0	-93.824	-16.141	-21.923	B5-03822-P04-CH0	1723512	OK	0.7432725	-0.400353	0.5359697	0	-123.882	-49.121	1.291	B5-03822-P04-CH1	1723512	OK	0.7262256	-0.6378016	0.2565258	0	-105.94	-39.35	-15.765	NA
1.09909297052154	B5-03822-P01-CH0	1723520	OK	0.2491174	0.0348571	0.0610624	-0.9659177	135.972	-42.072	-265.319	B5-03822-P02-CH0	1723520	OK	0.5997762	0.4441724	-0.665567	0	-71.854	-104.678	-3.399	B5-03822-P02-CH1	1723520	OK	0.6512276	-0.0092448	-0.7588262	0	-71.055	-81.701	-4.421	B5-03822-P03-CH0	1723520	OK	0.809476	-0.353994	-0.4684408	0	-90.904	-65.186	-0.625	B5-03822-P03-CH1	1723520	OK	0.7617366	-0.579548	0.2896231	0	-93.916	-16.383	-21.693	B5-03822-P04-CH0	1723520	OK	0.7431927	-0.4006638	0.5358481	0	-123.803	-48.775	1.158	B5-03822-P04-CH1	1723520	OK	0.7258529	-0.6380291	0.2570146	0	-105.952	-39.637	-15.371	NA
