Wav.Time	B5.03822.P01.CH0	Frame	State	Q0	Qx	Qy	Qz	Tx	Ty	Tz	B5.03822.P02.CH0	Frame.1	State.1	Q0.1	Qx.1	Qy.1	Qz.1	Tx.1	Ty.1	Tz.1	B5.03822.P02.CH1	Frame.2	State.2	Q0.2	Qx.2	Qy.2	Qz.2	Tx.2	Ty.2	Tz.2	B5.03822.P03.CH0	Frame.3	State.3	Q0.3	Qx.3	Qy.3	Qz.3	Tx.3	Ty.3	Tz.3	B5.03822.P03.CH1	Frame.4	State.4	Q0.4	Qx.4	Qy.4	Qz.4	Tx.4	Ty.4	Tz.4	B5.03822.P04.CH0	Frame.5	State.5	Q0.5	Qx.5	Qy.5	Qz.5	Tx.5	Ty.5	Tz.5	B5.03822.P04.CH1	Frame.6	State.6	Q0.6	Qx.6	Qy.6	Qz.6	Tx.6	Ty.6	Tz.6	X
0	B5-03822-P01-CH0	2646112	OK	0.2123233	0.1100145	0.1345237	-0.9616231	152.283	-15.748	-253.129	B5-03822-P02-CH0	2646112	OK	0.5988342	0.4927353	-0.6313553	0	-83.623	-104.424	0.292	B5-03822-P02-CH1	2646112	OK	0.7132531	0.0505963	-0.699078	0	-78.423	-79.079	-3.179	B5-03822-P03-CH0	2646112	OK	0.7731464	-0.1657739	-0.6121794	0	-96.612	-58.802	0.225	B5-03822-P03-CH1	2646112	OK	0.7417199	-0.6648434	0.0885151	0	-98.068	-9.371	-5.309	B5-03822-P04-CH0	2646112	OK	0.7700547	-0.505117	0.3897083	0	-121.14	-32.383	6.181	B5-03822-P04-CH1	2646112	OK	0.8048574	-0.5879738	0.0805693	0	-108.314	-44.843	0.093	NA
0.00999206349206349	B5-03822-P01-CH0	2646120	OK	0.2120063	0.1099788	0.1342182	-0.9617398	152.279	-15.826	-253.221	B5-03822-P02-CH0	2646120	OK	0.5994914	0.4901887	-0.6327125	0	-83.387	-104.896	0.647	B5-03822-P02-CH1	2646120	OK	0.7066521	0.058182	-0.705165	0	-78.219	-79.093	-3.107	B5-03822-P03-CH0	2646120	OK	0.7748562	-0.15909	-0.611791	0	-94.714	-59.347	0.774	B5-03822-P03-CH1	2646120	OK	0.7362865	-0.6693151	0.099496	0	-100.235	-14.092	-0.731	B5-03822-P04-CH0	2646120	OK	0.77029	-0.5066712	0.3872177	0	-121.335	-31.903	4.754	B5-03822-P04-CH1	2646120	OK	0.8046069	-0.5883945	0.0799984	0	-108.301	-44.931	0.281	NA
0.019984126984127	B5-03822-P01-CH0	2646128	OK	0.2119046	0.1097035	0.1345131	-0.9617525	152.226	-15.881	-253.286	B5-03822-P02-CH0	2646128	OK	0.598467	0.4852959	-0.6374363	0	-83.114	-104.643	0.535	B5-03822-P02-CH1	2646128	OK	0.6993496	0.0646332	-0.7118516	0	-77.407	-79.256	-3.351	B5-03822-P03-CH0	2646128	OK	0.7718051	-0.1576548	-0.6160048	0	-95.883	-59.913	-0.254	B5-03822-P03-CH1	2646128	OK	0.7366251	-0.6692819	0.0971864	0	-100.278	-13.063	-0.926	B5-03822-P04-CH0	2646128	OK	0.7702828	-0.5027176	0.3923511	0	-121.634	-34.96	8.723	B5-03822-P04-CH1	2646128	OK	0.8047786	-0.5882125	0.0796086	0	-108.249	-44.801	0.006	NA
0.0299761904761905	B5-03822-P01-CH0	2646136	OK	0.2120147	0.1095268	0.1349836	-0.9616824	152.168	-15.833	-253.314	B5-03822-P02-CH0	2646136	OK	0.5978922	0.4796406	-0.6422381	0	-82.946	-104.979	0.438	B5-03822-P02-CH1	2646136	OK	0.6907088	0.0696697	-0.719769	0	-76.841	-79.881	-2.882	B5-03822-P03-CH0	2646136	OK	0.7706269	-0.1559225	-0.6179178	0	-95.786	-60.212	1.025	B5-03822-P03-CH1	2646136	OK	0.7369999	-0.6696967	0.0913098	0	-99.119	-11.426	-2.664	B5-03822-P04-CH0	2646136	OK	0.7715066	-0.5001795	0.3931895	0	-121.662	-34.182	7.85	B5-03822-P04-CH1	2646136	OK	0.8052322	-0.5876722	0.0790093	0	-108.166	-44.528	-0.071	NA
0.039968253968254	B5-03822-P01-CH0	2646144	OK	0.2118449	0.1093804	0.1351266	-0.9617164	152.106	-15.798	-253.387	B5-03822-P02-CH0	2646144	OK	0.5986119	0.4715784	-0.6475165	0	-82.228	-104.718	0.776	B5-03822-P02-CH1	2646144	OK	0.6822181	0.0761189	-0.7271756	0	-76.131	-79.718	-2.548	B5-03822-P03-CH0	2646144	OK	0.7706334	-0.1613498	-0.6165148	0	-95.237	-60.296	0.47	B5-03822-P03-CH1	2646144	OK	0.7358953	-0.6714635	0.0871482	0	-98.741	-11.71	-2.086	B5-03822-P04-CH0	2646144	OK	0.7719607	-0.498453	0.3944887	0	-120.767	-32.472	5.396	B5-03822-P04-CH1	2646144	OK	0.8053837	-0.5875225	0.0785773	0	-108.169	-44.421	0.052	NA
0.0499603174603175	B5-03822-P01-CH0	2646152	OK	0.211592	0.109226	0.1351559	-0.9617855	151.998	-15.797	-253.378	B5-03822-P02-CH0	2646152	OK	0.597932	0.468624	-0.6502837	0	-82.998	-105.336	1.373	B5-03822-P02-CH1	2646152	OK	0.6742175	0.085617	-0.7335533	0	-75.098	-79.355	-3.756	B5-03822-P03-CH0	2646152	OK	0.7725647	-0.1718583	-0.6112352	0	-94.07	-61.417	1.999	B5-03822-P03-CH1	2646152	OK	0.7390308	-0.6689796	0.0793711	0	-99.234	-9.336	-2.078	B5-03822-P04-CH0	2646152	OK	0.7728931	-0.4888821	0.4045127	0	-121.637	-34.249	7.785	B5-03822-P04-CH1	2646152	OK	0.8053617	-0.587615	0.0781102	0	-108.157	-44.297	-0.013	NA
0.059952380952381	B5-03822-P01-CH0	2646160	OK	0.2117541	0.1093294	0.1354889	-0.9616912	152.085	-15.799	-253.428	B5-03822-P02-CH0	2646160	OK	0.6004175	0.4617883	-0.6528786	0	-81.629	-105.646	-0.063	B5-03822-P02-CH1	2646160	OK	0.6655929	0.0973092	-0.7399439	0	-73.928	-79.909	-4.291	B5-03822-P03-CH0	2646160	OK	0.7741136	-0.1837646	-0.6057877	0	-94.085	-61.959	1.355	B5-03822-P03-CH1	2646160	OK	0.7380091	-0.6705789	0.0752767	0	-99.146	-10.063	-2.18	B5-03822-P04-CH0	2646160	OK	0.7740071	-0.4764213	0.4170561	0	-122.564	-35.606	9.897	B5-03822-P04-CH1	2646160	OK	0.8055543	-0.5873633	0.0780173	0	-108.132	-44.275	-0.16	NA
0.0699444444444444	B5-03822-P01-CH0	2646168	OK	0.2118246	0.1089863	0.1363291	-0.9615959	152.047	-15.731	-253.602	B5-03822-P02-CH0	2646168	OK	0.5993436	0.4545017	-0.6589502	0	-81.592	-105.093	-0.994	B5-03822-P02-CH1	2646168	OK	0.6553738	0.109997	-0.7472522	0	-73.798	-80.459	-3.836	B5-03822-P03-CH0	2646168	OK	0.777782	-0.1986509	-0.5963162	0	-93.378	-62.022	-1.201	B5-03822-P03-CH1	2646168	OK	0.7373627	-0.6715539	0.0728803	0	-99.457	-11.08	-1.387	B5-03822-P04-CH0	2646168	OK	0.7743424	-0.4641174	0.4301034	0	-122.879	-36.099	10.647	B5-03822-P04-CH1	2646168	OK	0.806075	-0.5866566	0.0779558	0	-108.144	-44.307	0.073	NA
0.0799365079365079	B5-03822-P01-CH0	2646176	OK	0.2112003	0.1093711	0.1353111	-0.9618333	152.097	-15.798	-253.522	B5-03822-P02-CH0	2646176	OK	0.596762	0.4531593	-0.6622097	0	-83.315	-105.968	0.474	B5-03822-P02-CH1	2646176	OK	0.6467129	0.1257149	-0.7523019	0	-73.154	-80.374	-3.482	B5-03822-P03-CH0	2646176	OK	0.7827198	-0.2137607	-0.5845136	0	-92.28	-63.679	1.486	B5-03822-P03-CH1	2646176	OK	0.7361095	-0.6733215	0.0691438	0	-100.458	-11.77	-0.309	B5-03822-P04-CH0	2646176	OK	0.7724225	-0.4485175	0.4496615	0	-124.309	-40.248	13.672	B5-03822-P04-CH1	2646176	OK	0.8053816	-0.5876702	0.0774872	0	-108.346	-44.319	0.087	NA
0.0899285714285714	B5-03822-P01-CH0	2646184	OK	0.2109616	0.1095034	0.1355198	-0.9618412	152.123	-15.713	-253.441	B5-03822-P02-CH0	2646184	OK	0.5961921	0.4519868	-0.6635231	0	-83.337	-106.413	0.144	B5-03822-P02-CH1	2646184	OK	0.6389837	0.1401941	-0.7563368	0	-73.094	-81.449	-3.635	B5-03822-P03-CH0	2646184	OK	0.7887583	-0.2270577	-0.5712313	0	-93.135	-64.898	0.871	B5-03822-P03-CH1	2646184	OK	0.7375354	-0.6727207	0.0590618	0	-100.036	-9.959	-1.26	B5-03822-P04-CH0	2646184	OK	0.7714615	-0.4395768	0.460021	0	-123.954	-36.994	9.747	B5-03822-P04-CH1	2646184	OK	0.8055315	-0.5875059	0.0771736	0	-108.475	-44.173	0.04	NA
0.0999206349206349	B5-03822-P01-CH0	2646192	OK	0.2107952	0.1094358	0.1356313	-0.9618697	152.062	-15.695	-253.385	B5-03822-P02-CH0	2646192	OK	0.5980638	0.4493873	-0.6636044	0	-82.261	-106.881	-1.077	B5-03822-P02-CH1	2646192	OK	0.6348822	0.1557069	-0.7567562	0	-72.697	-82.26	-3.792	B5-03822-P03-CH0	2646192	OK	0.7961901	-0.2369362	-0.5567248	0	-92.991	-65.179	0.148	B5-03822-P03-CH1	2646192	OK	0.7371787	-0.6735304	0.0540772	0	-100.161	-10.447	-0.345	B5-03822-P04-CH0	2646192	OK	0.7693501	-0.4230986	0.4786313	0	-124.577	-38.449	10.764	B5-03822-P04-CH1	2646192	OK	0.8057165	-0.5872441	0.0772354	0	-108.438	-43.879	-0.381	NA
0.109912698412698	B5-03822-P01-CH0	2646200	OK	0.210848	0.1092268	0.136353	-0.9617799	151.954	-15.56	-253.303	B5-03822-P02-CH0	2646200	OK	0.5955415	0.4496995	-0.6656581	0	-82.95	-106.834	0.071	B5-03822-P02-CH1	2646200	OK	0.6337508	0.1683402	-0.7549977	0	-72.592	-82.956	-4.63	B5-03822-P03-CH0	2646200	OK	0.8021032	-0.2442981	-0.5449303	0	-93.263	-65.575	0.844	B5-03822-P03-CH1	2646200	OK	0.7376393	-0.6735862	0.046581	0	-99.776	-10.502	-1.682	B5-03822-P04-CH0	2646200	OK	0.7688442	-0.4083122	0.4920972	0	-125.368	-37.836	10.113	B5-03822-P04-CH1	2646200	OK	0.8062257	-0.5864543	0.0779198	0	-108.605	-43.725	-0.57	NA
0.119904761904762	B5-03822-P01-CH0	2646208	OK	0.2103462	0.1093409	0.1355061	-0.9619964	151.934	-15.615	-253.275	B5-03822-P02-CH0	2646208	OK	0.597068	0.4501731	-0.6639684	0	-82.723	-107.83	0.186	B5-03822-P02-CH1	2646208	OK	0.6345195	0.1779956	-0.7521321	0	-72.243	-82.774	-4.173	B5-03822-P03-CH0	2646208	OK	0.8084394	-0.2531635	-0.5313512	0	-93.002	-66.104	0.549	B5-03822-P03-CH1	2646208	OK	0.7362583	-0.675274	0.0439183	0	-99.887	-12.657	-1.502	B5-03822-P04-CH0	2646208	OK	0.767773	-0.3929102	0.5061089	0	-126.263	-40.004	12.193	B5-03822-P04-CH1	2646208	OK	0.8056748	-0.5871527	0.0783566	0	-108.67	-43.781	-0.574	NA
0.129896825396825	B5-03822-P01-CH0	2646216	OK	0.210287	0.1095178	0.1354821	-0.9619926	152.002	-15.592	-253.305	B5-03822-P02-CH0	2646216	OK	0.5981928	0.4471887	-0.6649719	0	-82.14	-107.653	-0.921	B5-03822-P02-CH1	2646216	OK	0.6353197	0.186749	-0.7493288	0	-72.935	-83.432	-3.607	B5-03822-P03-CH0	2646216	OK	0.8156606	-0.2655157	-0.5140031	0	-93.059	-66.897	0.234	B5-03822-P03-CH1	2646216	OK	0.738453	-0.6729671	0.0424539	0	-100.81	-13.837	1.091	B5-03822-P04-CH0	2646216	OK	0.7677581	-0.3863902	0.5111263	0	-126.261	-37.479	9.706	B5-03822-P04-CH1	2646216	OK	0.8056283	-0.5870564	0.0795478	0	-108.853	-43.953	-0.53	NA
0.139888888888889	B5-03822-P01-CH0	2646224	OK	0.2102485	0.1093546	0.1356806	-0.9619916	152.015	-15.674	-253.391	B5-03822-P02-CH0	2646224	OK	0.5976397	0.4434106	-0.6679924	0	-83.159	-107.403	-0.29	B5-03822-P02-CH1	2646224	OK	0.6429756	0.1896548	-0.7420333	0	-72.076	-83.42	-5.016	B5-03822-P03-CH0	2646224	OK	0.8241546	-0.2765859	-0.4942363	0	-93.094	-67.693	1.632	B5-03822-P03-CH1	2646224	OK	0.7430268	-0.6683396	0.0351179	0	-99.763	-11.545	-1.773	B5-03822-P04-CH0	2646224	OK	0.767752	-0.3762808	0.5186228	0	-127.596	-38.842	9.976	B5-03822-P04-CH1	2646224	OK	0.8058622	-0.5866012	0.0805306	0	-109.134	-44.081	-0.553	NA
0.149880952380952	B5-03822-P01-CH0	2646232	OK	0.2103409	0.1093719	0.1361132	-0.9619084	152.053	-15.611	-253.424	B5-03822-P02-CH0	2646232	OK	0.6025367	0.4361898	-0.6683472	0	-82.691	-107.866	-0.891	B5-03822-P02-CH1	2646232	OK	0.6491644	0.1900528	-0.7365226	0	-72.707	-83.347	-3.896	B5-03822-P03-CH0	2646232	OK	0.8330571	-0.2880227	-0.4722911	0	-92.753	-67.985	2.879	B5-03822-P03-CH1	2646232	OK	0.7443128	-0.6666659	0.0394342	0	-99.936	-13.41	-1.269	B5-03822-P04-CH0	2646232	OK	0.7674	-0.3674754	0.5254132	0	-128.19	-40.973	11.452	B5-03822-P04-CH1	2646232	OK	0.8062135	-0.5859236	0.0819347	0	-109.351	-44.181	-0.511	NA
0.159873015873016	B5-03822-P01-CH0	2646240	OK	0.2101653	0.1093224	0.1358159	-0.9619944	151.982	-15.613	-253.39	B5-03822-P02-CH0	2646240	OK	0.6065967	0.4298773	-0.6687645	0	-82.303	-107.629	-0.839	B5-03822-P02-CH1	2646240	OK	0.6548639	0.1925539	-0.7308052	0	-72.801	-83.289	-4.575	B5-03822-P03-CH0	2646240	OK	0.8413378	-0.3000347	-0.4495887	0	-92.073	-68.267	2.765	B5-03822-P03-CH1	2646240	OK	0.7476143	-0.6627197	0.043306	0	-100.873	-14.201	0.364	B5-03822-P04-CH0	2646240	OK	0.7668423	-0.3637093	0.5288369	0	-127.221	-39.765	11.463	B5-03822-P04-CH1	2646240	OK	0.8059891	-0.5860425	0.0832813	0	-109.435	-44.186	-0.919	NA
0.169865079365079	B5-03822-P01-CH0	2646248	OK	0.2096177	0.1096777	0.1345441	-0.9622521	151.986	-15.684	-253.31	B5-03822-P02-CH0	2646248	OK	0.6078925	0.4276117	-0.6690403	0	-82.949	-107.2	-0.101	B5-03822-P02-CH1	2646248	OK	0.6593517	0.1919265	-0.7269248	0	-72.779	-83.707	-4.254	B5-03822-P03-CH0	2646248	OK	0.846858	-0.3100256	-0.432106	0	-92.892	-68.928	3.113	B5-03822-P03-CH1	2646248	OK	0.7502715	-0.6598916	0.0404452	0	-99.143	-12.679	-1.935	B5-03822-P04-CH0	2646248	OK	0.7663699	-0.3611785	0.5312506	0	-127.218	-39.421	10.848	B5-03822-P04-CH1	2646248	OK	0.8052411	-0.5868894	0.0845437	0	-109.673	-44.214	-1.074	NA
0.179857142857143	B5-03822-P01-CH0	2646256	OK	0.2099212	0.1095478	0.1353444	-0.9620885	152.005	-15.622	-253.399	B5-03822-P02-CH0	2646256	OK	0.6104573	0.4280609	-0.6664126	0	-83.525	-108.77	0.277	B5-03822-P02-CH1	2646256	OK	0.6622168	0.1853664	-0.7260221	0	-72.923	-83.706	-4.148	B5-03822-P03-CH0	2646256	OK	0.8536491	-0.3158187	-0.414176	0	-93.583	-69.19	3.757	B5-03822-P03-CH1	2646256	OK	0.7512343	-0.6585833	0.0437602	0	-98.118	-13.417	-3.481	B5-03822-P04-CH0	2646256	OK	0.7674153	-0.3520747	0.5358332	0	-128.345	-41.759	12.308	B5-03822-P04-CH1	2646256	OK	0.805788	-0.5858444	0.0865562	0	-109.788	-44.385	-1.014	NA
0.189849206349206	B5-03822-P01-CH0	2646264	OK	0.2100492	0.109267	0.1359905	-0.9620014	151.958	-15.631	-253.516	B5-03822-P02-CH0	2646264	OK	0.6134532	0.4273303	-0.6641265	0	-82.824	-108.601	-1.475	B5-03822-P02-CH1	2646264	OK	0.6647797	0.1772261	-0.7257127	0	-73.206	-83.378	-4.943	B5-03822-P03-CH0	2646264	OK	0.8614559	-0.3225186	-0.3922697	0	-92.906	-69.873	4.301	B5-03822-P03-CH1	2646264	OK	0.7574069	-0.6513839	0.0450976	0	-98.912	-10.542	-4.577	B5-03822-P04-CH0	2646264	OK	0.7680091	-0.3458724	0.5390123	0	-129.155	-42.842	12.438	B5-03822-P04-CH1	2646264	OK	0.8061916	-0.5850017	0.0884766	0	-109.993	-44.618	-0.999	NA
0.19984126984127	B5-03822-P01-CH0	2646272	OK	0.2098387	0.1093878	0.1353143	-0.9621289	151.959	-15.743	-253.51	B5-03822-P02-CH0	2646272	OK	0.6138364	0.4279285	-0.6633869	0	-82.964	-107.7	-1.26	B5-03822-P02-CH1	2646272	OK	0.6682212	0.169929	-0.7242959	0	-73.323	-83.938	-4.984	B5-03822-P03-CH0	2646272	OK	0.8673316	-0.3248753	-0.3770834	0	-93.059	-69.812	4.963	B5-03822-P03-CH1	2646272	OK	0.7577992	-0.6504241	0.0518548	0	-99.36	-11.434	-4.534	B5-03822-P04-CH0	2646272	OK	0.7688686	-0.3448268	0.5384566	0	-129.186	-41.963	12.44	B5-03822-P04-CH1	2646272	OK	0.805752	-0.5853112	0.0904132	0	-110.225	-45.044	-0.766	NA
0.209833333333333	B5-03822-P01-CH0	2646280	OK	0.2098036	0.1093757	0.1353487	-0.9621331	151.958	-15.813	-253.596	B5-03822-P02-CH0	2646280	OK	0.6152218	0.4280491	-0.6620242	0	-83.348	-108.429	-1.593	B5-03822-P02-CH1	2646280	OK	0.6712509	0.1620606	-0.723297	0	-72.793	-83.837	-4.216	B5-03822-P03-CH0	2646280	OK	0.8719496	-0.3264794	-0.3648493	0	-94.047	-69.914	5.465	B5-03822-P03-CH1	2646280	OK	0.7579954	-0.6497827	0.0567926	0	-98.386	-12.127	-5.411	B5-03822-P04-CH0	2646280	OK	0.7694504	-0.3420474	0.5393974	0	-129.911	-43.006	11.95	B5-03822-P04-CH1	2646280	OK	0.8056786	-0.585113	0.09233	0	-110.406	-45.416	-0.764	NA
0.219825396825397	B5-03822-P01-CH0	2646288	OK	0.2096558	0.1094037	0.1352122	-0.9621813	151.934	-15.883	-253.575	B5-03822-P02-CH0	2646288	OK	0.6160868	0.4263249	-0.6623323	0	-82.921	-108.101	-2.187	B5-03822-P02-CH1	2646288	OK	0.6726171	0.1590938	-0.7226863	0	-72.625	-83.763	-4.893	B5-03822-P03-CH0	2646288	OK	0.87742	-0.3297605	-0.3484139	0	-93.199	-70.736	5.7	B5-03822-P03-CH1	2646288	OK	0.758029	-0.6493006	0.0616504	0	-97.606	-13.181	-5.723	B5-03822-P04-CH0	2646288	OK	0.769756	-0.344928	0.5371223	0	-129.341	-41.588	11.022	B5-03822-P04-CH1	2646288	OK	0.8056475	-0.5848591	0.0941911	0	-110.735	-45.79	-0.464	NA
0.22981746031746	B5-03822-P01-CH0	2646296	OK	0.2096648	0.1092611	0.1353792	-0.9621721	151.875	-15.962	-253.564	B5-03822-P02-CH0	2646296	OK	0.6155126	0.4240366	-0.6643321	0	-83.021	-107.75	-0.793	B5-03822-P02-CH1	2646296	OK	0.6719515	0.162873	-0.7224635	0	-72.682	-83.76	-4.679	B5-03822-P03-CH0	2646296	OK	0.8807932	-0.328533	-0.3409832	0	-93.674	-70.888	5.328	B5-03822-P03-CH1	2646296	OK	0.7575502	-0.6490768	0.0694049	0	-98.364	-15.762	-3.268	B5-03822-P04-CH0	2646296	OK	0.7703097	-0.3435585	0.5372062	0	-129.85	-43.36	12.047	B5-03822-P04-CH1	2646296	OK	0.8057466	-0.5844003	0.0961701	0	-111.009	-46.145	-0.433	NA
0.239809523809524	B5-03822-P01-CH0	2646304	OK	0.2097532	0.1092471	0.1355598	-0.962129	151.843	-15.902	-253.569	B5-03822-P02-CH0	2646304	OK	0.6151087	0.4207426	-0.666796	0	-82.614	-106.744	-0.467	B5-03822-P02-CH1	2646304	OK	0.6715158	0.1610464	-0.7232777	0	-72.768	-83.477	-4.14	B5-03822-P03-CH0	2646304	OK	0.8831803	-0.3270648	-0.3361862	0	-94.222	-71.126	5.38	B5-03822-P03-CH1	2646304	OK	0.7597737	-0.6464454	0.0696575	0	-98.236	-14.378	-4.331	B5-03822-P04-CH0	2646304	OK	0.7689233	-0.3480432	0.5363049	0	-129.115	-43.041	12.906	B5-03822-P04-CH1	2646304	OK	0.8058602	-0.5839199	0.0981168	0	-111.183	-46.379	-0.371	NA
0.249801587301587	B5-03822-P01-CH0	2646312	OK	0.2095433	0.109381	0.1349194	-0.9622495	151.839	-16.019	-253.58	B5-03822-P02-CH0	2646312	OK	0.6168833	0.4182716	-0.6667112	0	-82.632	-107.349	-0.798	B5-03822-P02-CH1	2646312	OK	0.6720096	0.1526132	-0.7246463	0	-73.061	-83.652	-4.405	B5-03822-P03-CH0	2646312	OK	0.8875108	-0.3254354	-0.3262153	0	-92.622	-71.854	6.471	B5-03822-P03-CH1	2646312	OK	0.7625583	-0.6434187	0.0672107	0	-97.739	-11.88	-5.299	B5-03822-P04-CH0	2646312	OK	0.768971	-0.348158	0.5361619	0	-128.945	-42.546	12.475	B5-03822-P04-CH1	2646312	OK	0.8055544	-0.5840723	0.0997076	0	-111.507	-46.688	-0.296	NA
0.259793650793651	B5-03822-P01-CH0	2646320	OK	0.2094645	0.1092701	0.1356584	-0.9621754	151.827	-15.946	-253.66	B5-03822-P02-CH0	2646320	OK	0.6140638	0.4156018	-0.6709701	0	-83.615	-106.472	-0.169	B5-03822-P02-CH1	2646320	OK	0.6733111	0.1400541	-0.7259731	0	-72.691	-82.845	-4.4	B5-03822-P03-CH0	2646320	OK	0.8901849	-0.321485	-0.3228283	0	-93.756	-71.431	7.313	B5-03822-P03-CH1	2646320	OK	0.763077	-0.6429288	0.0660012	0	-97.037	-11.159	-6.785	B5-03822-P04-CH0	2646320	OK	0.7698276	-0.3478577	0.5351266	0	-129.038	-42.161	12.287	B5-03822-P04-CH1	2646320	OK	0.8061948	-0.5829843	0.1008923	0	-111.871	-46.782	-0.051	NA
0.269785714285714	B5-03822-P01-CH0	2646328	OK	0.2097417	0.1092279	0.1365669	-0.9619912	151.833	-15.886	-253.623	B5-03822-P02-CH0	2646328	OK	0.6143413	0.4163964	-0.670223	0	-83.329	-107.323	0.167	B5-03822-P02-CH1	2646328	OK	0.6743882	0.1237942	-0.7279255	0	-72.337	-82.182	-4.671	B5-03822-P03-CH0	2646328	OK	0.8930992	-0.318164	-0.3180337	0	-94.281	-71.125	6.78	B5-03822-P03-CH1	2646328	OK	0.7654559	-0.6401025	0.0659246	0	-97.138	-10.094	-7.171	B5-03822-P04-CH0	2646328	OK	0.7705539	-0.3472686	0.5344635	0	-129.177	-42.157	11.99	B5-03822-P04-CH1	2646328	OK	0.8068443	-0.5818285	0.1023611	0	-112.132	-47.026	0.057	NA
0.279777777777778	B5-03822-P01-CH0	2646336	OK	0.2095239	0.1092887	0.13624	-0.9620781	151.824	-15.926	-253.654	B5-03822-P02-CH0	2646336	OK	0.6147652	0.4196448	-0.6678039	0	-82.429	-107.552	-0.716	B5-03822-P02-CH1	2646336	OK	0.6742636	0.1031346	-0.7312536	0	-73.188	-81.92	-4.728	B5-03822-P03-CH0	2646336	OK	0.8950514	-0.3161417	-0.3145431	0	-94.551	-71.689	7.136	B5-03822-P03-CH1	2646336	OK	0.763041	-0.6424271	0.0711043	0	-97.767	-13.035	-5.395	B5-03822-P04-CH0	2646336	OK	0.770711	-0.3489259	0.5331559	0	-129.074	-41.701	11.613	B5-03822-P04-CH1	2646336	OK	0.806803	-0.5817331	0.1032258	0	-112.358	-47.115	0.096	NA
0.289769841269841	B5-03822-P01-CH0	2646344	OK	0.209247	0.1095993	0.1353314	-0.9622313	151.799	-15.979	-253.481	B5-03822-P02-CH0	2646344	OK	0.6126197	0.4228926	-0.6677267	0	-81.603	-107.672	-1.384	B5-03822-P02-CH1	2646344	OK	0.6764769	0.0823682	-0.7318432	0	-73.223	-82.414	-4.523	B5-03822-P03-CH0	2646344	OK	0.8961837	-0.3105921	-0.3168397	0	-95.889	-71.337	6.993	B5-03822-P03-CH1	2646344	OK	0.7620894	-0.6434529	0.072028	0	-98.246	-13.507	-5.827	B5-03822-P04-CH0	2646344	OK	0.7706524	-0.3511496	0.531779	0	-128.979	-41.291	11.274	B5-03822-P04-CH1	2646344	OK	0.8063225	-0.5822316	0.1041646	0	-112.615	-47.313	0.184	NA
0.299761904761905	B5-03822-P01-CH0	2646352	OK	0.2090065	0.1096954	0.1350527	-0.9623118	151.775	-15.968	-253.481	B5-03822-P02-CH0	2646352	OK	0.6054839	0.4297495	-0.6698541	0	-81.876	-107.113	-0.915	B5-03822-P02-CH1	2646352	OK	0.6778623	0.0589624	-0.7328206	0	-73.601	-82.282	-3.541	B5-03822-P03-CH0	2646352	OK	0.8992098	-0.3029756	-0.3156384	0	-95.645	-71.546	8.066	B5-03822-P03-CH1	2646352	OK	0.7626838	-0.6435818	0.0641561	0	-97.35	-11.012	-6.784	B5-03822-P04-CH0	2646352	OK	0.7708773	-0.3530093	0.5302193	0	-128.969	-41.108	11.277	B5-03822-P04-CH1	2646352	OK	0.8061765	-0.5823211	0.1047928	0	-112.842	-47.505	0.438	NA
0.309753968253968	B5-03822-P01-CH0	2646360	OK	0.2088155	0.1099504	0.1347317	-0.9623691	151.786	-15.959	-253.416	B5-03822-P02-CH0	2646360	OK	0.5974821	0.4379354	-0.6717348	0	-82.312	-107.736	0.086	B5-03822-P02-CH1	2646360	OK	0.6812104	0.0378427	-0.731109	0	-73.315	-82.18	-3.486	B5-03822-P03-CH0	2646360	OK	0.9020429	-0.2939069	-0.3161287	0	-95.402	-71.256	7.679	B5-03822-P03-CH1	2646360	OK	0.7621859	-0.6439128	0.0666999	0	-97.714	-11.952	-5.942	B5-03822-P04-CH0	2646360	OK	0.7710747	-0.355114	0.5285242	0	-128.881	-40.883	11.303	B5-03822-P04-CH1	2646360	OK	0.8062864	-0.5821212	0.1050573	0	-113.068	-47.451	0.693	NA
0.319746031746032	B5-03822-P01-CH0	2646368	OK	0.2090658	0.1097501	0.1353357	-0.9622529	151.682	-15.897	-253.357	B5-03822-P02-CH0	2646368	OK	0.5918007	0.4402187	-0.6752625	0	-79.923	-106.928	-1.07	B5-03822-P02-CH1	2646368	OK	0.685516	0.0171569	-0.7278554	0	-72.619	-81.881	-4.635	B5-03822-P03-CH0	2646368	OK	0.9033229	-0.287997	-0.3179081	0	-95.904	-71.561	7.385	B5-03822-P03-CH1	2646368	OK	0.7627969	-0.6430752	0.0677881	0	-97.695	-12.041	-5.937	B5-03822-P04-CH0	2646368	OK	0.7715428	-0.3566441	0.526808	0	-128.742	-40.69	11.175	B5-03822-P04-CH1	2646368	OK	0.8068414	-0.5812602	0.1055624	0	-113.164	-47.391	0.593	NA
0.329738095238095	B5-03822-P01-CH0	2646376	OK	0.2093767	0.1097416	0.1358511	-0.9621136	151.667	-15.787	-253.369	B5-03822-P02-CH0	2646376	OK	0.5834067	0.4459892	-0.6787711	0	-79.814	-107.412	-0.803	B5-03822-P02-CH1	2646376	OK	0.6886909	-0.0011254	-0.7250542	0	-72.623	-81.831	-4.075	B5-03822-P03-CH0	2646376	OK	0.9056004	-0.2772143	-0.3209987	0	-95.509	-71.009	7.943	B5-03822-P03-CH1	2646376	OK	0.7633504	-0.6423416	0.0685083	0	-97.741	-12.01	-5.884	B5-03822-P04-CH0	2646376	OK	0.7720493	-0.358325	0.5249219	0	-128.627	-40.35	11.062	B5-03822-P04-CH1	2646376	OK	0.8072526	-0.5806044	0.1060275	0	-113.249	-47.41	0.652	NA
0.339730158730159	B5-03822-P01-CH0	2646384	OK	0.2091351	0.1096146	0.1356966	-0.9622025	151.559	-15.892	-253.26	B5-03822-P02-CH0	2646384	OK	0.5770713	0.4514064	-0.6806034	0	-80.05	-108.397	-0.725	B5-03822-P02-CH1	2646384	OK	0.6912671	-0.0131761	-0.7224792	0	-73.091	-81.871	-4.695	B5-03822-P03-CH0	2646384	OK	0.9041068	-0.2699877	-0.3312061	0	-97.029	-71.161	7.364	B5-03822-P03-CH1	2646384	OK	0.763085	-0.6426073	0.0689723	0	-97.756	-12.288	-5.757	B5-03822-P04-CH0	2646384	OK	0.7721089	-0.3605647	0.5232981	0	-128.48	-40.249	10.905	B5-03822-P04-CH1	2646384	OK	0.8071385	-0.5807765	0.1059534	0	-113.136	-47.401	0.443	NA
0.349722222222222	B5-03822-P01-CH0	2646392	OK	0.2093042	0.1096538	0.1358178	-0.9621441	151.534	-15.887	-253.191	B5-03822-P02-CH0	2646392	OK	0.5726197	0.452368	-0.6837177	0	-79.601	-108.767	-1.042	B5-03822-P02-CH1	2646392	OK	0.6943992	-0.0214043	-0.7192716	0	-73.167	-81.88	-5.121	B5-03822-P03-CH0	2646392	OK	0.904369	-0.2655722	-0.3340481	0	-97.127	-71.871	7.054	B5-03822-P03-CH1	2646392	OK	0.7631065	-0.6425043	0.0696893	0	-97.895	-12.469	-5.683	B5-03822-P04-CH0	2646392	OK	0.774416	-0.3667342	0.5155443	0	-129.156	-41.424	12.689	B5-03822-P04-CH1	2646392	OK	0.8072844	-0.5805346	0.1061675	0	-113.173	-47.514	0.711	NA
0.359714285714286	B5-03822-P01-CH0	2646400	OK	0.2095216	0.1096939	0.1359128	-0.9620788	151.501	-15.945	-253.071	B5-03822-P02-CH0	2646400	OK	0.5667109	0.4554381	-0.6865966	0	-79.874	-108.491	0.405	B5-03822-P02-CH1	2646400	OK	0.6970532	-0.028541	-0.7164512	0	-73.63	-82.449	-5.187	B5-03822-P03-CH0	2646400	OK	0.9054226	-0.2572637	-0.3376764	0	-97.249	-71.49	6.699	B5-03822-P03-CH1	2646400	OK	0.76271	-0.6428025	0.0712634	0	-98.104	-13.162	-5.25	B5-03822-P04-CH0	2646400	OK	0.7747857	-0.3713047	0.5117029	0	-128.905	-40.382	10.95	B5-03822-P04-CH1	2646400	OK	0.8074445	-0.5802543	0.106482	0	-113.2	-47.608	0.816	NA
0.369706349206349	B5-03822-P01-CH0	2646408	OK	0.209346	0.1097287	0.1356494	-0.9621502	151.486	-16.075	-253.029	B5-03822-P02-CH0	2646408	OK	0.5703585	0.4563096	-0.6829881	0	-78.32	-110.471	-1.768	B5-03822-P02-CH1	2646408	OK	0.699968	-0.0352273	-0.7133049	0	-73.88	-83.236	-5.551	B5-03822-P03-CH0	2646408	OK	0.9050357	-0.2499255	-0.3441622	0	-97.281	-71.235	6.78	B5-03822-P03-CH1	2646408	OK	0.7623983	-0.6431634	0.0713413	0	-98.022	-13.278	-5.217	B5-03822-P04-CH0	2646408	OK	0.7748265	-0.3793125	0.505733	0	-127.349	-38.42	9.721	B5-03822-P04-CH1	2646408	OK	0.8073638	-0.5804099	0.1062449	0	-113.207	-47.673	0.944	NA
0.379698412698413	B5-03822-P01-CH0	2646416	OK	0.2093529	0.1095257	0.1357884	-0.9621523	151.294	-16.077	-252.939	B5-03822-P02-CH0	2646416	OK	0.5707316	0.4494734	-0.6871965	0	-76.742	-109.554	-3.116	B5-03822-P02-CH1	2646416	OK	0.7033143	-0.0442228	-0.7095021	0	-73.792	-83.584	-4.324	B5-03822-P03-CH0	2646416	OK	0.9027171	-0.2443918	-0.3540825	0	-98.136	-71.22	7.075	B5-03822-P03-CH1	2646416	OK	0.7624964	-0.6430481	0.0713326	0	-97.939	-13.042	-5.29	B5-03822-P04-CH0	2646416	OK	0.7757329	-0.379627	0.504105	0	-127.418	-40.163	12.119	B5-03822-P04-CH1	2646416	OK	0.8074576	-0.5802993	0.106137	0	-113.11	-47.544	0.844	NA
0.389690476190476	B5-03822-P01-CH0	2646424	OK	0.2091073	0.1092807	0.1354978	-0.9622745	151.209	-16.225	-253.04	B5-03822-P02-CH0	2646424	OK	0.5696604	0.4474097	-0.6894284	0	-77.587	-110.47	-1.297	B5-03822-P02-CH1	2646424	OK	0.7079389	-0.0526668	-0.7043072	0	-73.415	-83.3	-4.84	B5-03822-P03-CH0	2646424	OK	0.8991636	-0.233711	-0.3699783	0	-98.811	-70.667	6.848	B5-03822-P03-CH1	2646424	OK	0.7620665	-0.6435483	0.0714155	0	-97.796	-13.151	-5.128	B5-03822-P04-CH0	2646424	OK	0.7762584	-0.3849843	0.4992094	0	-127.557	-39.837	10.569	B5-03822-P04-CH1	2646424	OK	0.8073088	-0.5806026	0.1056088	0	-112.958	-47.455	0.721	NA
0.39968253968254	B5-03822-P01-CH0	2646432	OK	0.2090976	0.1094958	0.135475	-0.9622554	151.204	-16.278	-252.924	B5-03822-P02-CH0	2646432	OK	0.5698856	0.4420626	-0.692684	0	-77.403	-110.699	-1.374	B5-03822-P02-CH1	2646432	OK	0.7103073	-0.0613545	-0.7012126	0	-74.144	-82.885	-4.876	B5-03822-P03-CH0	2646432	OK	0.893617	-0.2232942	-0.3893435	0	-98.984	-70.091	6.139	B5-03822-P03-CH1	2646432	OK	0.7617298	-0.6438796	0.0720199	0	-97.852	-13.186	-5.316	B5-03822-P04-CH0	2646432	OK	0.7771867	-0.390712	0.4932798	0	-126.842	-38.898	10.239	B5-03822-P04-CH1	2646432	OK	0.8073355	-0.5806098	0.1053645	0	-112.914	-47.436	0.831	NA
0.409674603174603	B5-03822-P01-CH0	2646440	OK	0.2090287	0.1096046	0.135631	-0.962236	151.199	-16.31	-252.896	B5-03822-P02-CH0	2646440	OK	0.569504	0.4387061	-0.6951275	0	-77.466	-110.035	-1.504	B5-03822-P02-CH1	2646440	OK	0.7128407	-0.0661613	-0.6981982	0	-74.087	-83.357	-5.181	B5-03822-P03-CH0	2646440	OK	0.8891659	-0.2139313	-0.4044964	0	-98.232	-69.926	6.592	B5-03822-P03-CH1	2646440	OK	0.7623762	-0.6431915	0.0713243	0	-97.708	-12.233	-6.028	B5-03822-P04-CH0	2646440	OK	0.7780827	-0.3945964	0.4887546	0	-126.701	-39.132	10.507	B5-03822-P04-CH1	2646440	OK	0.807273	-0.5807307	0.1051768	0	-112.868	-47.59	1.026	NA
0.419666666666667	B5-03822-P01-CH0	2646448	OK	0.2087463	0.1099545	0.1349374	-0.9623549	151.222	-16.436	-252.887	B5-03822-P02-CH0	2646448	OK	0.5694524	0.4355578	-0.6971466	0	-77.337	-109.838	-1.491	B5-03822-P02-CH1	2646448	OK	0.7136246	-0.0683656	-0.6971843	0	-74.263	-83.691	-4.28	B5-03822-P03-CH0	2646448	OK	0.8822808	-0.2062643	-0.4231261	0	-98.97	-69.233	6.114	B5-03822-P03-CH1	2646448	OK	0.7619831	-0.6436399	0.0714801	0	-97.606	-11.951	-6.156	B5-03822-P04-CH0	2646448	OK	0.7792151	-0.3993479	0.4830581	0	-126.391	-38.877	11.753	B5-03822-P04-CH1	2646448	OK	0.8067027	-0.5815793	0.1048633	0	-112.83	-47.67	1.007	NA
0.42965873015873	B5-03822-P01-CH0	2646456	OK	0.2082659	0.1102012	0.1344713	-0.962496	151.187	-16.575	-252.786	B5-03822-P02-CH0	2646456	OK	0.571321	0.4340019	-0.6965879	0	-76.863	-110.723	-1.69	B5-03822-P02-CH1	2646456	OK	0.7140125	-0.0677053	-0.6968516	0	-74.669	-82.917	-4.927	B5-03822-P03-CH0	2646456	OK	0.8750394	-0.1977288	-0.441825	0	-99.133	-69.029	7.118	B5-03822-P03-CH1	2646456	OK	0.7613022	-0.6443301	0.0725101	0	-97.735	-12.227	-5.893	B5-03822-P04-CH0	2646456	OK	0.7786839	-0.4025086	0.4812881	0	-126.365	-40.249	11.476	B5-03822-P04-CH1	2646456	OK	0.8063593	-0.5821866	0.1041322	0	-112.769	-47.595	0.897	NA
0.439650793650794	B5-03822-P01-CH0	2646464	OK	0.2080156	0.1106602	0.1344561	-0.9624996	151.238	-16.585	-252.708	B5-03822-P02-CH0	2646464	OK	0.5711796	0.4292176	-0.6996614	0	-76.673	-110.227	-2.154	B5-03822-P02-CH1	2646464	OK	0.71398	-0.0662766	-0.6970222	0	-75.219	-82.567	-4.339	B5-03822-P03-CH0	2646464	OK	0.8670034	-0.1905841	-0.4604159	0	-99.01	-68.199	6.439	B5-03822-P03-CH1	2646464	OK	0.7616531	-0.6439146	0.0725161	0	-97.614	-11.657	-6.344	B5-03822-P04-CH0	2646464	OK	0.7802352	-0.4038292	0.4776558	0	-126.853	-39.993	11.856	B5-03822-P04-CH1	2646464	OK	0.8064452	-0.5821913	0.1034383	0	-112.939	-47.48	1.053	NA
0.449642857142857	B5-03822-P01-CH0	2646472	OK	0.2078832	0.1106495	0.1346454	-0.9625029	151.187	-16.612	-252.757	B5-03822-P02-CH0	2646472	OK	0.5691266	0.4224654	-0.7054204	0	-76.982	-109.057	-2.218	B5-03822-P02-CH1	2646472	OK	0.7157327	-0.0635528	-0.6954767	0	-75.238	-82.179	-4.988	B5-03822-P03-CH0	2646472	OK	0.8576332	-0.1866826	-0.4791815	0	-99.192	-67.494	6.405	B5-03822-P03-CH1	2646472	OK	0.7623522	-0.6430902	0.0724857	0	-97.33	-11.036	-6.848	B5-03822-P04-CH0	2646472	OK	0.7809389	-0.4069998	0.4737991	0	-126.752	-38.57	9.882	B5-03822-P04-CH1	2646472	OK	0.8065522	-0.582127	0.1029647	0	-112.886	-47.332	0.927	NA
0.459634920634921	B5-03822-P01-CH0	2646480	OK	0.2074009	0.11106	0.1336411	-0.9626996	151.25	-16.794	-252.759	B5-03822-P02-CH0	2646480	OK	0.5692451	0.4191706	-0.7072878	0	-77.612	-109.39	-1.357	B5-03822-P02-CH1	2646480	OK	0.7165978	-0.059659	-0.6949305	0	-75.774	-82.346	-3.331	B5-03822-P03-CH0	2646480	OK	0.847936	-0.186343	-0.4962668	0	-99.68	-66.705	6.14	B5-03822-P03-CH1	2646480	OK	0.7621573	-0.6432965	0.0727045	0	-97.28	-10.794	-7.135	B5-03822-P04-CH0	2646480	OK	0.7806499	-0.4110928	0.4707318	0	-126.178	-37.326	8.838	B5-03822-P04-CH1	2646480	OK	0.8059172	-0.5831233	0.1022971	0	-112.855	-47.407	1.096	NA
0.469626984126984	B5-03822-P01-CH0	2646488	OK	0.2071058	0.1110933	0.133314	-0.9628047	151.162	-16.858	-252.826	B5-03822-P02-CH0	2646488	OK	0.5717497	0.4143836	-0.7080879	0	-77.728	-109.664	-0.815	B5-03822-P02-CH1	2646488	OK	0.7196461	-0.0554527	-0.6921232	0	-75.859	-82.038	-5.072	B5-03822-P03-CH0	2646488	OK	0.8437456	-0.1865555	-0.5032796	0	-98.393	-65.782	6.006	B5-03822-P03-CH1	2646488	OK	0.7622242	-0.6431075	0.0736682	0	-97.229	-10.711	-7.34	B5-03822-P04-CH0	2646488	OK	0.7803021	-0.4101173	0.4721573	0	-126.696	-39.442	10.343	B5-03822-P04-CH1	2646488	OK	0.8057552	-0.5834517	0.1016989	0	-112.839	-47.357	1.366	NA
0.479619047619048	B5-03822-P01-CH0	2646496	OK	0.2067212	0.111341	0.1327137	-0.9629416	151.219	-17.016	-252.798	B5-03822-P02-CH0	2646496	OK	0.5721912	0.4062777	-0.7124153	0	-78.265	-108.021	-0.424	B5-03822-P02-CH1	2646496	OK	0.7205503	-0.0496529	-0.6916226	0	-77.486	-81.472	-3.659	B5-03822-P03-CH0	2646496	OK	0.8387897	-0.188178	-0.510902	0	-98.891	-65.082	5.733	B5-03822-P03-CH1	2646496	OK	0.7626785	-0.6411391	0.0852184	0	-98.526	-13.546	-5.126	B5-03822-P04-CH0	2646496	OK	0.7807796	-0.4126498	0.4691517	0	-126.396	-38.225	9.936	B5-03822-P04-CH1	2646496	OK	0.805381	-0.5840712	0.1011055	0	-112.877	-47.483	1.589	NA
0.489611111111111	B5-03822-P01-CH0	2646504	OK	0.2066454	0.1116236	0.1330428	-0.9628798	151.264	-16.99	-252.783	B5-03822-P02-CH0	2646504	OK	0.5750976	0.4039517	-0.7113971	0	-79.04	-108.128	-0.081	B5-03822-P02-CH1	2646504	OK	0.7241835	-0.0454017	-0.6881112	0	-77.825	-81.266	-3.717	B5-03822-P03-CH0	2646504	OK	0.8347949	-0.1875605	-0.5176278	0	-99.409	-64.374	5.18	B5-03822-P03-CH1	2646504	OK	0.7627607	-0.6407495	0.0873854	0	-98.671	-13.758	-4.96	B5-03822-P04-CH0	2646504	OK	0.782162	-0.4133042	0.4662642	0	-126.708	-38.124	10.181	B5-03822-P04-CH1	2646504	OK	0.8056013	-0.5838315	0.1007339	0	-112.951	-47.48	1.85	NA
0.499603174603175	B5-03822-P01-CH0	2646512	OK	0.2067727	0.1116822	0.1334935	-0.9627833	151.327	-16.989	-252.907	B5-03822-P02-CH0	2646512	OK	0.5797414	0.4023447	-0.7085327	0	-78.725	-107.504	-0.893	B5-03822-P02-CH1	2646512	OK	0.7278585	-0.0401705	-0.6845497	0	-77.842	-81.176	-3.77	B5-03822-P03-CH0	2646512	OK	0.8334269	-0.1860467	-0.5203712	0	-98.451	-63.84	4.937	B5-03822-P03-CH1	2646512	OK	0.7630954	-0.6402343	0.0882351	0	-98.55	-13.712	-4.299	B5-03822-P04-CH0	2646512	OK	0.7825933	-0.4134613	0.4654002	0	-127.217	-39.557	11.353	B5-03822-P04-CH1	2646512	OK	0.8059885	-0.5833643	0.1003431	0	-113.001	-47.441	2.07	NA
0.509595238095238	B5-03822-P01-CH0	2646520	OK	0.2071327	0.1115418	0.1340424	-0.9626459	151.344	-16.992	-252.955	B5-03822-P02-CH0	2646520	OK	0.5852169	0.404071	-0.7030276	0	-78.076	-107.653	-2.185	B5-03822-P02-CH1	2646520	OK	0.7299273	-0.0339661	-0.6826803	0	-78.167	-81.259	-2.744	B5-03822-P03-CH0	2646520	OK	0.8301834	-0.1865649	-0.5253466	0	-98.525	-63.891	4.615	B5-03822-P03-CH1	2646520	OK	0.7631607	-0.6400055	0.0893233	0	-98.289	-14.157	-4.493	B5-03822-P04-CH0	2646520	OK	0.7825359	-0.4167866	0.4625219	0	-126.53	-39.075	10.998	B5-03822-P04-CH1	2646520	OK	0.8064878	-0.5827301	0.1000151	0	-112.982	-47.282	1.977	NA
0.519587301587302	B5-03822-P01-CH0	2646528	OK	0.2072219	0.1116788	0.1344541	-0.9625534	151.414	-17.005	-252.903	B5-03822-P02-CH0	2646528	OK	0.5819734	0.4099328	-0.7023261	0	-80.091	-106.922	-0.031	B5-03822-P02-CH1	2646528	OK	0.7302237	-0.0284662	-0.6826148	0	-78.861	-81.392	-2.74	B5-03822-P03-CH0	2646528	OK	0.8256931	-0.1849401	-0.5329428	0	-98.851	-63.8	4.548	B5-03822-P03-CH1	2646528	OK	0.7645435	-0.6394456	0.0811326	0	-97.592	-11.558	-6.873	B5-03822-P04-CH0	2646528	OK	0.7834854	-0.4179766	0.4598328	0	-126.871	-39.413	11.657	B5-03822-P04-CH1	2646528	OK	0.8068166	-0.5823885	0.0993511	0	-113.007	-47.242	2.203	NA
0.529579365079365	B5-03822-P01-CH0	2646536	OK	0.2072127	0.1117129	0.1343004	-0.9625729	151.406	-17.005	-252.85	B5-03822-P02-CH0	2646536	OK	0.5847093	0.4111984	-0.6993075	0	-79.809	-107.38	-0.551	B5-03822-P02-CH1	2646536	OK	0.7314464	-0.0252641	-0.6814307	0	-79.034	-80.889	-2.17	B5-03822-P03-CH0	2646536	OK	0.8218529	-0.1847083	-0.5389255	0	-98.625	-63.441	4.751	B5-03822-P03-CH1	2646536	OK	0.7650432	-0.6387555	0.0818554	0	-97.448	-11.298	-7.294	B5-03822-P04-CH0	2646536	OK	0.7834676	-0.4225133	0.4556983	0	-125.88	-37.603	10.869	B5-03822-P04-CH1	2646536	OK	0.8067817	-0.5825184	0.098872	0	-112.98	-47.179	2.454	NA
0.539571428571429	B5-03822-P01-CH0	2646544	OK	0.2075881	0.1116378	0.1342956	-0.9625014	151.422	-17.015	-252.932	B5-03822-P02-CH0	2646544	OK	0.5882449	0.4095317	-0.6973175	0	-78.933	-107.66	-1.052	B5-03822-P02-CH1	2646544	OK	0.73197	-0.0223489	-0.6809702	0	-79.374	-80.449	-1.456	B5-03822-P03-CH0	2646544	OK	0.8194656	-0.1847847	-0.5425225	0	-97.695	-63.052	4.666	B5-03822-P03-CH1	2646544	OK	0.7654334	-0.6380483	0.083703	0	-97.612	-11.512	-7.129	B5-03822-P04-CH0	2646544	OK	0.7832899	-0.4215856	0.4568616	0	-126.512	-39.175	12.502	B5-03822-P04-CH1	2646544	OK	0.8067735	-0.5825409	0.0988063	0	-112.845	-47.282	2.737	NA
0.549563492063492	B5-03822-P01-CH0	2646552	OK	0.2072806	0.1117334	0.1336359	-0.9626484	151.413	-17.093	-252.84	B5-03822-P02-CH0	2646552	OK	0.5853398	0.4111046	-0.698835	0	-80.445	-106.2	0.055	B5-03822-P02-CH1	2646552	OK	0.7342776	-0.0200082	-0.6785544	0	-78.838	-80.791	-2.618	B5-03822-P03-CH0	2646552	OK	0.8172836	-0.183994	-0.5460712	0	-96.943	-62.713	4.37	B5-03822-P03-CH1	2646552	OK	0.7649206	-0.6385048	0.0849003	0	-97.656	-11.851	-7.021	B5-03822-P04-CH0	2646552	OK	0.7834795	-0.4229822	0.4552427	0	-126.5	-37.312	11.27	B5-03822-P04-CH1	2646552	OK	0.8063318	-0.5832984	0.0979389	0	-112.792	-47.219	2.831	NA
0.559555555555556	B5-03822-P01-CH0	2646560	OK	0.2073428	0.1114996	0.1338347	-0.9626344	151.334	-16.992	-252.865	B5-03822-P02-CH0	2646560	OK	0.5865443	0.4124382	-0.697037	0	-80.347	-105.934	-0.18	B5-03822-P02-CH1	2646560	OK	0.734935	-0.017605	-0.677909	0	-79.004	-80.932	-2.393	B5-03822-P03-CH0	2646560	OK	0.8129847	-0.182485	-0.5529513	0	-97.507	-62.631	4.863	B5-03822-P03-CH1	2646560	OK	0.7649735	-0.6382548	0.086292	0	-97.574	-12.016	-6.783	B5-03822-P04-CH0	2646560	OK	0.7825998	-0.419049	0.4603646	0	-126.193	-37.598	10.236	B5-03822-P04-CH1	2646560	OK	0.8064532	-0.5832381	0.0972962	0	-112.619	-47.003	2.924	NA
0.569547619047619	B5-03822-P01-CH0	2646568	OK	0.2076303	0.1116134	0.1337809	-0.9625668	151.408	-16.994	-252.831	B5-03822-P02-CH0	2646568	OK	0.5885032	0.4124215	-0.6953938	0	-79.681	-105.584	-1.023	B5-03822-P02-CH1	2646568	OK	0.7351613	-0.0159224	-0.6777052	0	-79.129	-80.495	-2.141	B5-03822-P03-CH0	2646568	OK	0.8091687	-0.1820281	-0.5586697	0	-97.876	-61.89	3.213	B5-03822-P03-CH1	2646568	OK	0.7654706	-0.6375592	0.0870227	0	-97.582	-11.789	-6.882	B5-03822-P04-CH0	2646568	OK	0.7827775	-0.4198928	0.4592923	0	-126.278	-37.468	10.252	B5-03822-P04-CH1	2646568	OK	0.806401	-0.5833563	0.0970205	0	-112.531	-47.032	3.038	NA
0.579539682539683	B5-03822-P01-CH0	2646576	OK	0.2078284	0.111676	0.1338328	-0.9625095	151.407	-16.914	-252.742	B5-03822-P02-CH0	2646576	OK	0.5858683	0.417255	-0.6947349	0	-81.127	-105.456	0.672	B5-03822-P02-CH1	2646576	OK	0.7349286	-0.0150242	-0.6779781	0	-79.513	-80.957	-1.837	B5-03822-P03-CH0	2646576	OK	0.8069205	-0.1816586	-0.5620316	0	-97.269	-61.802	3.318	B5-03822-P03-CH1	2646576	OK	0.7656518	-0.6372101	0.0879806	0	-97.535	-11.702	-7.011	B5-03822-P04-CH0	2646576	OK	0.7827194	-0.4207961	0.458564	0	-126.336	-37.336	10.183	B5-03822-P04-CH1	2646576	OK	0.8064515	-0.5833823	0.0964419	0	-112.433	-46.867	3.114	NA
0.589531746031746	B5-03822-P01-CH0	2646584	OK	0.2083904	0.1115536	0.1342018	-0.9623508	151.387	-16.906	-252.72	B5-03822-P02-CH0	2646584	OK	0.5898845	0.4210437	-0.6890272	0	-80.038	-106.507	-0.686	B5-03822-P02-CH1	2646584	OK	0.7348771	-0.01332	-0.6780695	0	-79.655	-81.782	-3.169	B5-03822-P03-CH0	2646584	OK	0.8044786	-0.1816465	-0.5655252	0	-97.416	-61.673	2.196	B5-03822-P03-CH1	2646584	OK	0.7664134	-0.6361885	0.0887392	0	-97.445	-11.464	-7.166	B5-03822-P04-CH0	2646584	OK	0.7827829	-0.4205814	0.4586526	0	-126.385	-37.604	10.511	B5-03822-P04-CH1	2646584	OK	0.806819	-0.5829291	0.0961083	0	-112.241	-46.721	3.04	NA
0.59952380952381	B5-03822-P01-CH0	2646592	OK	0.2083858	0.1114378	0.1337808	-0.9624238	151.331	-16.976	-252.673	B5-03822-P02-CH0	2646592	OK	0.5911711	0.4252747	-0.6853161	0	-79.556	-106.054	-1.518	B5-03822-P02-CH1	2646592	OK	0.7358528	-0.0096745	-0.6770724	0	-79.092	-81.479	-2.117	B5-03822-P03-CH0	2646592	OK	0.8036288	-0.1818272	-0.5666742	0	-96.89	-61.542	2.334	B5-03822-P03-CH1	2646592	OK	0.7662915	-0.6362211	0.0895546	0	-97.406	-11.523	-7.283	B5-03822-P04-CH0	2646592	OK	0.782434	-0.4219087	0.4580284	0	-126.294	-37.292	10.365	B5-03822-P04-CH1	2646592	OK	0.8065143	-0.5834592	0.0954463	0	-112.086	-46.662	2.921	NA
0.609515873015873	B5-03822-P01-CH0	2646600	OK	0.2084113	0.1115612	0.1337716	-0.9624053	151.348	-16.982	-252.599	B5-03822-P02-CH0	2646600	OK	0.5894763	0.4315086	-0.6828748	0	-80.854	-106.803	0.227	B5-03822-P02-CH1	2646600	OK	0.7359142	-0.0086327	-0.6770198	0	-79.263	-81.481	-2.543	B5-03822-P03-CH0	2646600	OK	0.8020937	-0.1833846	-0.5683448	0	-96.997	-61.813	2.604	B5-03822-P03-CH1	2646600	OK	0.7665165	-0.6358983	0.0899208	0	-97.296	-11.378	-7.515	B5-03822-P04-CH0	2646600	OK	0.7823614	-0.4221422	0.4579374	0	-126.518	-37.269	10.444	B5-03822-P04-CH1	2646600	OK	0.8064166	-0.5836871	0.0948768	0	-111.972	-46.569	2.714	NA
0.619507936507937	B5-03822-P01-CH0	2646608	OK	0.2086292	0.111275	0.1339904	-0.9623608	151.296	-16.963	-252.727	B5-03822-P02-CH0	2646608	OK	0.5899576	0.4331366	-0.681427	0	-80.562	-106.837	-1.178	B5-03822-P02-CH1	2646608	OK	0.7350627	-0.0075656	-0.6779569	0	-79.645	-81.781	-1.911	B5-03822-P03-CH0	2646608	OK	0.8010542	-0.187298	-0.5685347	0	-96.822	-62.275	2.703	B5-03822-P03-CH1	2646608	OK	0.7668222	-0.6353756	0.0910024	0	-97.344	-11.447	-7.354	B5-03822-P04-CH0	2646608	OK	0.7819743	-0.4223529	0.458404	0	-126.529	-37.314	10.411	B5-03822-P04-CH1	2646608	OK	0.8065768	-0.5835399	0.0944196	0	-111.71	-46.435	2.574	NA
0.6295	B5-03822-P01-CH0	2646616	OK	0.2086304	0.1112654	0.1336945	-0.9624028	151.283	-17.012	-252.757	B5-03822-P02-CH0	2646616	OK	0.5891396	0.4370334	-0.6796443	0	-81.126	-107.029	-0.056	B5-03822-P02-CH1	2646616	OK	0.7359218	-0.0063946	-0.6770364	0	-79.101	-81.076	-1.979	B5-03822-P03-CH0	2646616	OK	0.8003949	-0.187261	-0.5694746	0	-96.493	-61.28	1.78	B5-03822-P03-CH1	2646616	OK	0.7668426	-0.6352536	0.09168	0	-97.352	-11.427	-7.238	B5-03822-P04-CH0	2646616	OK	0.781564	-0.4222547	0.4591935	0	-126.756	-37.588	10.636	B5-03822-P04-CH1	2646616	OK	0.8064164	-0.5838718	0.0937351	0	-111.592	-46.299	2.375	NA
0.639492063492064	B5-03822-P01-CH0	2646624	OK	0.2081499	0.1115263	0.1330194	-0.9625702	151.352	-17.076	-252.772	B5-03822-P02-CH0	2646624	OK	0.5882454	0.439351	-0.6789242	0	-81.356	-106.312	0.017	B5-03822-P02-CH1	2646624	OK	0.7360327	-0.007621	-0.6769031	0	-79.685	-81.502	-2.401	B5-03822-P03-CH0	2646624	OK	0.7990251	-0.1903257	-0.5703814	0	-96.757	-61.403	2.313	B5-03822-P03-CH1	2646624	OK	0.7660333	-0.6361363	0.0923232	0	-97.42	-11.873	-6.869	B5-03822-P04-CH0	2646624	OK	0.7808549	-0.4239667	0.4588222	0	-126.733	-37.238	10.446	B5-03822-P04-CH1	2646624	OK	0.806065	-0.5845587	0.0924677	0	-111.636	-46.077	2.322	NA
0.649484126984127	B5-03822-P01-CH0	2646632	OK	0.2084011	0.1114804	0.1335622	-0.962446	151.388	-17.025	-252.866	B5-03822-P02-CH0	2646632	OK	0.5892744	0.4436151	-0.6752491	0	-81.198	-107.577	-0.009	B5-03822-P02-CH1	2646632	OK	0.7365629	-0.0082186	-0.6763191	0	-79.751	-81.232	-1.802	B5-03822-P03-CH0	2646632	OK	0.7991056	-0.1914997	-0.5698755	0	-96.554	-61.543	2.615	B5-03822-P03-CH1	2646632	OK	0.7661804	-0.6357311	0.0938803	0	-97.649	-12.273	-6.441	B5-03822-P04-CH0	2646632	OK	0.7806744	-0.424091	0.4590144	0	-126.776	-37.395	10.646	B5-03822-P04-CH1	2646632	OK	0.8063424	-0.5842334	0.0921041	0	-111.518	-46.095	2.408	NA
0.659476190476191	B5-03822-P01-CH0	2646640	OK	0.2084863	0.1117223	0.1334039	-0.9624214	151.417	-17.076	-252.753	B5-03822-P02-CH0	2646640	OK	0.5895282	0.4487572	-0.67162	0	-81.222	-108.234	0.154	B5-03822-P02-CH1	2646640	OK	0.736375	-0.01	-0.6764997	0	-79.173	-81.239	-2.602	B5-03822-P03-CH0	2646640	OK	0.7990708	-0.1920448	-0.5697408	0	-96.449	-61.698	3.404	B5-03822-P03-CH1	2646640	OK	0.7662384	-0.6355781	0.0944417	0	-97.738	-12.233	-6.492	B5-03822-P04-CH0	2646640	OK	0.7802867	-0.4251559	0.4586885	0	-126.769	-37.379	10.579	B5-03822-P04-CH1	2646640	OK	0.8062537	-0.5844322	0.0916187	0	-111.45	-46.029	2.275	NA
0.669468253968254	B5-03822-P01-CH0	2646648	OK	0.2084437	0.1116588	0.1336499	-0.9624039	151.378	-17.055	-252.777	B5-03822-P02-CH0	2646648	OK	0.5873159	0.451173	-0.6719396	0	-80.758	-106.53	-0.41	B5-03822-P02-CH1	2646648	OK	0.7366333	-0.0091983	-0.6762298	0	-79.239	-81.326	-2.556	B5-03822-P03-CH0	2646648	OK	0.7983977	-0.1917005	-0.5707995	0	-96.674	-61.319	2.417	B5-03822-P03-CH1	2646648	OK	0.7659065	-0.6357563	0.0959232	0	-97.903	-12.783	-5.928	B5-03822-P04-CH0	2646648	OK	0.7800773	-0.4264792	0.4578154	0	-126.695	-37.237	10.632	B5-03822-P04-CH1	2646648	OK	0.8064419	-0.5843021	0.0907881	0	-111.216	-45.72	2.031	NA
0.679460317460318	B5-03822-P01-CH0	2646656	OK	0.2086532	0.1116926	0.1341285	-0.962288	151.491	-17.089	-252.937	B5-03822-P02-CH0	2646656	OK	0.5837238	0.4590555	-0.6697273	0	-81.499	-106.651	1.146	B5-03822-P02-CH1	2646656	OK	0.7369996	-0.0085559	-0.675839	0	-79.195	-81.431	-2.5	B5-03822-P03-CH0	2646656	OK	0.7975659	-0.1910457	-0.5721802	0	-96.882	-61.429	2.817	B5-03822-P03-CH1	2646656	OK	0.7662274	-0.6352906	0.0964439	0	-97.922	-12.85	-5.767	B5-03822-P04-CH0	2646656	OK	0.7800785	-0.4274169	0.4569379	0	-126.771	-37.283	10.613	B5-03822-P04-CH1	2646656	OK	0.8067333	-0.5839838	0.0902463	0	-111.088	-45.682	1.932	NA
0.689452380952381	B5-03822-P01-CH0	2646664	OK	0.2084516	0.1116244	0.1340868	-0.9623454	151.461	-17.069	-252.926	B5-03822-P02-CH0	2646664	OK	0.585025	0.4660241	-0.6637524	0	-81.36	-107.558	0.178	B5-03822-P02-CH1	2646664	OK	0.7373113	-0.0078615	-0.6755074	0	-79.254	-81.399	-2.503	B5-03822-P03-CH0	2646664	OK	0.7969427	-0.1919582	-0.5727428	0	-96.855	-61.659	3.423	B5-03822-P03-CH1	2646664	OK	0.7662182	-0.6353476	0.0961412	0	-97.689	-12.563	-6.037	B5-03822-P04-CH0	2646664	OK	0.7795554	-0.4293377	0.4560291	0	-126.732	-37.138	10.306	B5-03822-P04-CH1	2646664	OK	0.8064455	-0.5844977	0.0894873	0	-110.895	-45.573	1.699	NA
0.699444444444445	B5-03822-P01-CH0	2646672	OK	0.2087537	0.1116103	0.1347411	-0.9621902	151.511	-17.049	-252.971	B5-03822-P02-CH0	2646672	OK	0.5826822	0.4688672	-0.663811	0	-81.412	-106.583	-0.099	B5-03822-P02-CH1	2646672	OK	0.7376001	-0.0077617	-0.6751932	0	-79.226	-81.412	-2.564	B5-03822-P03-CH0	2646672	OK	0.7981497	-0.1915731	-0.571189	0	-95.874	-61.189	2.162	B5-03822-P03-CH1	2646672	OK	0.7666575	-0.6346937	0.0969548	0	-97.815	-12.633	-5.845	B5-03822-P04-CH0	2646672	OK	0.7793573	-0.4296966	0.4560295	0	-126.806	-37.633	10.408	B5-03822-P04-CH1	2646672	OK	0.8066688	-0.5842324	0.0892075	0	-110.762	-45.613	1.584	NA
0.709436507936508	B5-03822-P01-CH0	2646680	OK	0.2086487	0.1114319	0.1348656	-0.9622162	151.426	-17.086	-252.932	B5-03822-P02-CH0	2646680	OK	0.5815938	0.4735494	-0.6614375	0	-81.674	-106.757	0.42	B5-03822-P02-CH1	2646680	OK	0.7379742	-0.0073087	-0.6747894	0	-79.195	-81.341	-2.775	B5-03822-P03-CH0	2646680	OK	0.7982021	-0.1934205	-0.5704928	0	-95.814	-61.611	2.276	B5-03822-P03-CH1	2646680	OK	0.7665087	-0.6348222	0.0972888	0	-97.808	-12.683	-5.935	B5-03822-P04-CH0	2646680	OK	0.7790175	-0.4312737	0.4551205	0	-126.656	-37.503	10.093	B5-03822-P04-CH1	2646680	OK	0.8065622	-0.5844673	0.0886303	0	-110.531	-45.518	1.349	NA
0.719428571428572	B5-03822-P01-CH0	2646688	OK	0.208458	0.1117811	0.1344364	-0.962277	151.524	-17.108	-252.898	B5-03822-P02-CH0	2646688	OK	0.5818212	0.4776491	-0.6582822	0	-81.797	-107.189	-0.092	B5-03822-P02-CH1	2646688	OK	0.7383143	-0.0066827	-0.6744237	0	-79.235	-81.252	-3.025	B5-03822-P03-CH0	2646688	OK	0.7981446	-0.1916214	-0.5711799	0	-96.53	-61.641	2.888	B5-03822-P03-CH1	2646688	OK	0.7658663	-0.6355678	0.0974798	0	-97.767	-12.928	-5.673	B5-03822-P04-CH0	2646688	OK	0.7786165	-0.4329251	0.454238	0	-126.655	-37.569	10.287	B5-03822-P04-CH1	2646688	OK	0.8061218	-0.585156	0.088091	0	-110.491	-45.518	1.441	NA
0.729420634920635	B5-03822-P01-CH0	2646696	OK	0.2083744	0.1118648	0.1343976	-0.9622908	151.553	-17.158	-252.861	B5-03822-P02-CH0	2646696	OK	0.5819604	0.4832318	-0.6540712	0	-81.659	-107.425	-0.897	B5-03822-P02-CH1	2646696	OK	0.7387294	-0.0058875	-0.6739764	0	-79.2	-81.267	-2.965	B5-03822-P03-CH0	2646696	OK	0.7981325	-0.1918678	-0.571114	0	-96.421	-61.52	2.811	B5-03822-P03-CH1	2646696	OK	0.7655908	-0.6358593	0.0977428	0	-97.788	-13.05	-5.72	B5-03822-P04-CH0	2646696	OK	0.7783062	-0.4348105	0.4529672	0	-126.446	-37.366	10.112	B5-03822-P04-CH1	2646696	OK	0.8060001	-0.5854087	0.0875246	0	-110.42	-45.448	1.383	NA
0.739412698412699	B5-03822-P01-CH0	2646704	OK	0.2083617	0.1117971	0.1346062	-0.9622723	151.481	-17.153	-252.73	B5-03822-P02-CH0	2646704	OK	0.5772345	0.4924523	-0.6513763	0	-82.301	-105.863	-0.361	B5-03822-P02-CH1	2646704	OK	0.7391361	-0.0048842	-0.6735383	0	-79.108	-81.137	-3.027	B5-03822-P03-CH0	2646704	OK	0.7980004	-0.1918415	-0.5713075	0	-96.35	-61.323	2.704	B5-03822-P03-CH1	2646704	OK	0.7659184	-0.635564	0.097095	0	-97.65	-12.555	-6.236	B5-03822-P04-CH0	2646704	OK	0.7781405	-0.4357535	0.4523452	0	-126.409	-37.449	9.937	B5-03822-P04-CH1	2646704	OK	0.8060077	-0.5854854	0.0869389	0	-110.131	-45.229	1.112	NA
0.749404761904762	B5-03822-P01-CH0	2646712	OK	0.2085621	0.1119584	0.1345731	-0.9622148	151.537	-17.199	-252.688	B5-03822-P02-CH0	2646712	OK	0.5767585	0.5043125	-0.6426652	0	-82.361	-107.284	0.258	B5-03822-P02-CH1	2646712	OK	0.7392707	-0.0036348	-0.6733985	0	-79.015	-81.15	-2.912	B5-03822-P03-CH0	2646712	OK	0.7974229	-0.1924305	-0.5719154	0	-96.316	-61.423	2.849	B5-03822-P03-CH1	2646712	OK	0.7660812	-0.6354101	0.0968173	0	-97.504	-12.304	-6.515	B5-03822-P04-CH0	2646712	OK	0.7779536	-0.4368738	0.4515856	0	-126.224	-37.533	10.032	B5-03822-P04-CH1	2646712	OK	0.8057269	-0.5859125	0.0866639	0	-109.932	-45.21	0.695	NA
0.759396825396826	B5-03822-P01-CH0	2646720	OK	0.2087952	0.1117112	0.1351308	-0.9621148	151.501	-17.127	-252.793	B5-03822-P02-CH0	2646720	OK	0.5754562	0.5137923	-0.6362922	0	-81.84	-107.32	0.413	B5-03822-P02-CH1	2646720	OK	0.7389745	-0.0021908	-0.6737298	0	-79.129	-81.034	-2.795	B5-03822-P03-CH0	2646720	OK	0.7925485	-0.1944011	-0.5779923	0	-96.6	-60.576	2.168	B5-03822-P03-CH1	2646720	OK	0.7663301	-0.6350719	0.0970662	0	-97.466	-12.268	-6.537	B5-03822-P04-CH0	2646720	OK	0.7779499	-0.4367391	0.4517221	0	-126.169	-38.048	10.675	B5-03822-P04-CH1	2646720	OK	0.8058459	-0.585785	0.0864192	0	-109.787	-45.172	0.587	NA
0.769388888888889	B5-03822-P01-CH0	2646728	OK	0.2087738	0.1118859	0.1347943	-0.9621463	151.545	-17.156	-252.726	B5-03822-P02-CH0	2646728	OK	0.5719203	0.522813	-0.6321184	0	-82.144	-105.645	-0.077	B5-03822-P02-CH1	2646728	OK	0.7388871	-0.0002972	-0.6738292	0	-79.102	-80.945	-2.946	B5-03822-P03-CH0	2646728	OK	0.7906771	-0.193481	-0.580857	0	-96.168	-60.062	1.409	B5-03822-P03-CH1	2646728	OK	0.766382	-0.6351154	0.0963692	0	-97.364	-11.875	-6.931	B5-03822-P04-CH0	2646728	OK	0.7776264	-0.4379702	0.4510868	0	-126.083	-38.053	10.515	B5-03822-P04-CH1	2646728	OK	0.805345	-0.5865278	0.0860495	0	-109.668	-45.158	0.235	NA
0.779380952380953	B5-03822-P01-CH0	2646736	OK	0.2087412	0.1119358	0.1345229	-0.9621856	151.516	-17.183	-252.651	B5-03822-P02-CH0	2646736	OK	0.5736227	0.5292071	-0.6252174	0	-81.755	-106.405	-1.066	B5-03822-P02-CH1	2646736	OK	0.736201	0.0108763	-0.6766755	0	-79.861	-81.104	-2.523	B5-03822-P03-CH0	2646736	OK	0.7880475	-0.1933818	-0.5844524	0	-96.398	-59.828	1.406	B5-03822-P03-CH1	2646736	OK	0.7662493	-0.6352639	0.0964456	0	-97.425	-11.886	-6.917	B5-03822-P04-CH0	2646736	OK	0.7773274	-0.4391368	0.4504676	0	-125.939	-38.052	10.382	B5-03822-P04-CH1	2646736	OK	0.8049132	-0.5871775	0.0856575	0	-109.546	-45.132	0.033	NA
0.789373015873016	B5-03822-P01-CH0	2646744	OK	0.2090979	0.1119829	0.1350111	-0.9620342	151.522	-17.099	-252.605	B5-03822-P02-CH0	2646744	OK	0.5702908	0.536349	-0.622172	0	-83.367	-106.186	0.994	B5-03822-P02-CH1	2646744	OK	0.7359901	0.0139689	-0.6768482	0	-79.756	-80.15	-2.742	B5-03822-P03-CH0	2646744	OK	0.7867361	-0.1912896	-0.5869025	0	-96.023	-59.388	1.367	B5-03822-P03-CH1	2646744	OK	0.7666415	-0.6347256	0.0968718	0	-97.547	-11.849	-6.846	B5-03822-P04-CH0	2646744	OK	0.7775903	-0.439564	0.4495963	0	-125.793	-37.922	10.371	B5-03822-P04-CH1	2646744	OK	0.8051513	-0.586886	0.0854175	0	-109.499	-44.949	-0.146	NA
0.799365079365079	B5-03822-P01-CH0	2646752	OK	0.2087092	0.1119809	0.1341295	-0.9622422	151.448	-17.176	-252.573	B5-03822-P02-CH0	2646752	OK	0.571313	0.5397864	-0.6182493	0	-83.086	-105.821	0.725	B5-03822-P02-CH1	2646752	OK	0.7369967	0.0175726	-0.6756678	0	-79.314	-80.195	-3.955	B5-03822-P03-CH0	2646752	OK	0.7855762	-0.1891988	-0.5891297	0	-95.746	-59.094	1.216	B5-03822-P03-CH1	2646752	OK	0.7660086	-0.6355808	0.0962699	0	-97.362	-11.783	-7.056	B5-03822-P04-CH0	2646752	OK	0.7772336	-0.4411873	0.4486221	0	-125.663	-37.759	10.474	B5-03822-P04-CH1	2646752	OK	0.8045958	-0.5877834	0.0844767	0	-109.388	-44.667	-0.362	NA
