Wav.Time	B5.03822.P01.CH0	Frame	State	Q0	Qx	Qy	Qz	Tx	Ty	Tz	B5.03822.P02.CH0	Frame.1	State.1	Q0.1	Qx.1	Qy.1	Qz.1	Tx.1	Ty.1	Tz.1	B5.03822.P02.CH1	Frame.2	State.2	Q0.2	Qx.2	Qy.2	Qz.2	Tx.2	Ty.2	Tz.2	B5.03822.P03.CH0	Frame.3	State.3	Q0.3	Qx.3	Qy.3	Qz.3	Tx.3	Ty.3	Tz.3	B5.03822.P03.CH1	Frame.4	State.4	Q0.4	Qx.4	Qy.4	Qz.4	Tx.4	Ty.4	Tz.4	B5.03822.P04.CH0	Frame.5	State.5	Q0.5	Qx.5	Qy.5	Qz.5	Tx.5	Ty.5	Tz.5	B5.03822.P04.CH1	Frame.6	State.6	Q0.6	Qx.6	Qy.6	Qz.6	Tx.6	Ty.6	Tz.6	X
0	B5-03822-P01-CH0	310856	OK	0.2286612	0.0221995	0.0561919	-0.9716294	102.43	-22.405	-237.519	B5-03822-P02-CH0	310856	OK	0.8463163	0.1646277	-0.5066029	0	-79.122	-100.57	9.695	B5-03822-P02-CH1	310856	OK	0.7813214	-0.0376933	-0.6229896	0	-73.982	-80.897	3.362	B5-03822-P03-CH0	310856	OK	0.8296559	-0.3738895	-0.4145813	0	-88.82	-61.812	9.444	B5-03822-P03-CH1	310856	OK	0.772309	-0.5564025	-0.3065209	0	-95.602	-29.926	2.016	B5-03822-P04-CH0	310856	OK	0.7242892	-0.375419	0.5783301	0	-117.606	-37.624	9.808	B5-03822-P04-CH1	310856	OK	0.7379624	-0.6726081	0.0548629	0	-107.413	-45.636	1.554	NA
0.00999203284917571	B5-03822-P01-CH0	310864	OK	0.2286204	0.0221839	0.0564079	-0.9716268	102.388	-22.373	-237.483	B5-03822-P02-CH0	310864	OK	0.8487754	0.1602796	-0.5038758	0	-78.917	-100.109	9.215	B5-03822-P02-CH1	310864	OK	0.7774355	-0.0317137	-0.6281626	0	-73.409	-80.733	3.572	B5-03822-P03-CH0	310864	OK	0.8322445	-0.384593	-0.3993211	0	-88.416	-61.93	9.272	B5-03822-P03-CH1	310864	OK	0.7724484	-0.5540449	-0.3104155	0	-95.786	-29.174	1.494	B5-03822-P04-CH0	310864	OK	0.7242449	-0.3709153	0.581284	0	-118.041	-37.312	9.477	B5-03822-P04-CH1	310864	OK	0.7382499	-0.6723262	0.0544481	0	-107.349	-45.492	1.335	NA
0.0199840656983514	B5-03822-P01-CH0	310872	OK	0.2284042	0.0222928	0.0563261	-0.97168	102.34	-22.369	-237.387	B5-03822-P02-CH0	310872	OK	0.8518018	0.1544665	-0.5005734	0	-79.078	-99.854	9.524	B5-03822-P02-CH1	310872	OK	0.7732365	-0.0240567	-0.6336612	0	-72.66	-80.721	2.103	B5-03822-P03-CH0	310872	OK	0.8350157	-0.3970587	-0.3809109	0	-88.177	-62.287	9.588	B5-03822-P03-CH1	310872	OK	0.772267	-0.5519254	-0.3146141	0	-96.155	-28.953	2.283	B5-03822-P04-CH0	310872	OK	0.7243697	-0.3647268	0.5850323	0	-118.212	-37.283	10.307	B5-03822-P04-CH1	310872	OK	0.7383028	-0.6722922	0.0541491	0	-107.299	-45.497	1.636	NA
0.0299760985475271	B5-03822-P01-CH0	310880	OK	0.2285701	0.0223506	0.0568475	-0.9716092	102.344	-22.372	-237.335	B5-03822-P02-CH0	310880	OK	0.8557806	0.1481951	-0.495659	0	-79.015	-100.405	9.256	B5-03822-P02-CH1	310880	OK	0.7692054	-0.0152278	-0.6388201	0	-71.574	-80.286	1.883	B5-03822-P03-CH0	310880	OK	0.8389447	-0.4094962	-0.3584476	0	-87.908	-62.825	9.129	B5-03822-P03-CH1	310880	OK	0.7724041	-0.5504806	-0.3168012	0	-95.842	-29.449	2.372	B5-03822-P04-CH0	310880	OK	0.7233344	-0.3556008	0.5918914	0	-118.135	-38.491	11.259	B5-03822-P04-CH1	310880	OK	0.7389662	-0.6715666	0.0541039	0	-107.39	-45.412	1.578	NA
0.0399681313967028	B5-03822-P01-CH0	310888	OK	0.2284026	0.0223367	0.0566462	-0.9716607	102.276	-22.414	-237.247	B5-03822-P02-CH0	310888	OK	0.8591001	0.1429651	-0.4914347	0	-79.289	-100.631	9.784	B5-03822-P02-CH1	310888	OK	0.7648284	-0.0052535	-0.6442127	0	-71.023	-80.342	1.404	B5-03822-P03-CH0	310888	OK	0.844223	-0.4228009	-0.3294343	0	-87.097	-63.836	10.012	B5-03822-P03-CH1	310888	OK	0.7727244	-0.5490433	-0.3185099	0	-95.292	-29.55	2.473	B5-03822-P04-CH0	310888	OK	0.7224872	-0.3515647	0.5953273	0	-117.837	-37.126	9.296	B5-03822-P04-CH1	310888	OK	0.7388316	-0.671739	0.0538008	0	-107.335	-45.408	1.197	NA
0.0499601642458785	B5-03822-P01-CH0	310896	OK	0.2282758	0.0223599	0.0564573	-0.971701	102.226	-22.437	-237.15	B5-03822-P02-CH0	310896	OK	0.8631395	0.1398405	-0.4852163	0	-79.407	-100.675	9.765	B5-03822-P02-CH1	310896	OK	0.7630569	0.0066768	-0.6462969	0	-70.678	-80.875	1.677	B5-03822-P03-CH0	310896	OK	0.8508562	-0.4326606	-0.2980747	0	-86.812	-64.588	10.513	B5-03822-P03-CH1	310896	OK	0.7726057	-0.5472085	-0.3219367	0	-96.379	-28.733	2.05	B5-03822-P04-CH0	310896	OK	0.7229522	-0.3447636	0.5987304	0	-117.901	-36.477	8.842	B5-03822-P04-CH1	310896	OK	0.7388102	-0.6717742	0.053655	0	-107.353	-45.369	0.941	NA
0.0599521970950542	B5-03822-P01-CH0	310904	OK	0.227977	0.0225989	0.0559132	-0.971797	102.242	-22.499	-237.044	B5-03822-P02-CH0	310904	OK	0.8675255	0.1384901	-0.4777238	0	-79.557	-100.635	9.822	B5-03822-P02-CH1	310904	OK	0.763661	0.0211136	-0.6452721	0	-70.557	-81.04	1.876	B5-03822-P03-CH0	310904	OK	0.8573268	-0.4381072	-0.2702828	0	-87.203	-65.102	11.076	B5-03822-P03-CH1	310904	OK	0.7726246	-0.5477186	-0.3210228	0	-95.765	-29.531	3.043	B5-03822-P04-CH0	310904	OK	0.7235434	-0.3359162	0.6030301	0	-118.625	-37.107	8.992	B5-03822-P04-CH1	310904	OK	0.7384968	-0.6721312	0.053498	0	-107.451	-45.422	1.013	NA
0.0699442299442299	B5-03822-P01-CH0	310912	OK	0.2279085	0.0224676	0.0562425	-0.9717972	102.204	-22.479	-237.02	B5-03822-P02-CH0	310912	OK	0.8707799	0.1380649	-0.4718903	0	-80.03	-100.789	9.905	B5-03822-P02-CH1	310912	OK	0.7653252	0.0349309	-0.6426952	0	-70.355	-81.46	1.594	B5-03822-P03-CH0	310912	OK	0.862992	-0.4417165	-0.245217	0	-86.85	-65.892	11.314	B5-03822-P03-CH1	310912	OK	0.7737098	-0.547381	-0.3189782	0	-96.099	-28.723	1.962	B5-03822-P04-CH0	310912	OK	0.7236716	-0.3271817	0.6076607	0	-118.892	-37.652	9.65	B5-03822-P04-CH1	310912	OK	0.7388062	-0.6717767	0.0536795	0	-107.451	-45.377	0.953	NA
0.0799362627934057	B5-03822-P01-CH0	310920	OK	0.2279475	0.022352	0.0565647	-0.971772	102.174	-22.472	-237.05	B5-03822-P02-CH0	310920	OK	0.8732751	0.1363638	-0.4677558	0	-80.574	-101.444	10.303	B5-03822-P02-CH1	310920	OK	0.7677875	0.047923	-0.6389098	0	-70.393	-81.824	2.009	B5-03822-P03-CH0	310920	OK	0.8664536	-0.4436851	-0.2289142	0	-86.778	-66.444	11.545	B5-03822-P03-CH1	310920	OK	0.7743278	-0.5486563	-0.315266	0	-96.115	-28.956	1.94	B5-03822-P04-CH0	310920	OK	0.7240043	-0.3195889	0.6112943	0	-119.539	-37.028	9.275	B5-03822-P04-CH1	310920	OK	0.7391295	-0.6713947	0.0540079	0	-107.577	-45.333	0.77	NA
0.0899282956425814	B5-03822-P01-CH0	310928	OK	0.2278216	0.0222704	0.0567761	-0.971791	102.148	-22.511	-236.942	B5-03822-P02-CH0	310928	OK	0.876001	0.1365846	-0.4625655	0	-80.899	-101.385	10.112	B5-03822-P02-CH1	310928	OK	0.7716399	0.0612476	-0.6331039	0	-70	-81.637	0.984	B5-03822-P03-CH0	310928	OK	0.8683203	-0.4448587	-0.2193639	0	-86.347	-66.997	11.259	B5-03822-P03-CH1	310928	OK	0.773477	-0.5493979	-0.3160621	0	-95.777	-28.992	1.713	B5-03822-P04-CH0	310928	OK	0.7228846	-0.3085564	0.6182482	0	-120.076	-38.292	9.138	B5-03822-P04-CH1	310928	OK	0.7393324	-0.6711141	0.0547127	0	-107.529	-45.412	0.851	NA
0.0999203284917571	B5-03822-P01-CH0	310936	OK	0.2277213	0.0221448	0.056986	-0.9718051	102.095	-22.529	-236.914	B5-03822-P02-CH0	310936	OK	0.8787685	0.1358672	-0.4574997	0	-81.254	-101.287	10.114	B5-03822-P02-CH1	310936	OK	0.7752802	0.0702879	-0.6276944	0	-70.164	-82.066	2.315	B5-03822-P03-CH0	310936	OK	0.8684398	-0.4456925	-0.2171877	0	-85.867	-67.357	11.112	B5-03822-P03-CH1	310936	OK	0.7739226	-0.5485765	-0.3163979	0	-95.803	-28.925	1.724	B5-03822-P04-CH0	310936	OK	0.7212823	-0.3014191	0.6236172	0	-119.793	-37.279	8.017	B5-03822-P04-CH1	310936	OK	0.7396214	-0.6707568	0.0551858	0	-107.591	-45.37	1.005	NA
0.109912361340933	B5-03822-P01-CH0	310944	OK	0.2274391	0.0222772	0.056645	-0.9718881	102.099	-22.587	-236.863	B5-03822-P02-CH0	310944	OK	0.8820737	0.1328966	-0.4519784	0	-81.64	-101.455	10.753	B5-03822-P02-CH1	310944	OK	0.778244	0.0771968	-0.6231989	0	-70.936	-82.335	2.676	B5-03822-P03-CH0	310944	OK	0.8652898	-0.4459511	-0.2289133	0	-86.094	-67.186	11.336	B5-03822-P03-CH1	310944	OK	0.7749378	-0.548801	-0.3135106	0	-96.535	-29.13	2.611	B5-03822-P04-CH0	310944	OK	0.7213434	-0.2865978	0.6304961	0	-120.863	-38.532	9.467	B5-03822-P04-CH1	310944	OK	0.7391998	-0.6711794	0.0556943	0	-107.681	-45.539	0.957	NA
0.119904394190108	B5-03822-P01-CH0	310952	OK	0.2272548	0.0223615	0.0564126	-0.9719428	102.126	-22.629	-236.808	B5-03822-P02-CH0	310952	OK	0.88602	0.1281537	-0.4455841	0	-82.129	-101.391	10.26	B5-03822-P02-CH1	310952	OK	0.7820171	0.0837455	-0.617605	0	-71.051	-82.124	2.594	B5-03822-P03-CH0	310952	OK	0.8563599	-0.4466113	-0.2592027	0	-86.33	-66.787	10.624	B5-03822-P03-CH1	310952	OK	0.7752585	-0.5517454	-0.3074918	0	-95.436	-29.607	2.443	B5-03822-P04-CH0	310952	OK	0.7208539	-0.2783143	0.6347525	0	-121.798	-39.421	9.288	B5-03822-P04-CH1	310952	OK	0.7389484	-0.6714154	0.0561842	0	-107.771	-45.633	0.902	NA
0.129896427039284	B5-03822-P01-CH0	310960	OK	0.22676	0.022429	0.0556204	-0.9721025	102.125	-22.719	-236.813	B5-03822-P02-CH0	310960	OK	0.8903106	0.1213491	-0.4388866	0	-82.418	-100.855	10.841	B5-03822-P02-CH1	310960	OK	0.785312	0.0869973	-0.6129571	0	-71.211	-81.71	3	B5-03822-P03-CH0	310960	OK	0.8412995	-0.4437622	-0.3086911	0	-85.681	-65.986	10.053	B5-03822-P03-CH1	310960	OK	0.7748749	-0.5560633	-0.3006036	0	-96.35	-28.996	1.564	B5-03822-P04-CH0	310960	OK	0.7196584	-0.2827186	0.6341624	0	-120.985	-38.241	8.117	B5-03822-P04-CH1	310960	OK	0.7383243	-0.6720734	0.0565204	0	-107.795	-45.698	0.987	NA
0.13988845988846	B5-03822-P01-CH0	310968	OK	0.2266408	0.0223262	0.0558934	-0.972117	102.126	-22.727	-236.895	B5-03822-P02-CH0	310968	OK	0.8944843	0.114993	-0.4320584	0	-82.539	-99.886	10.478	B5-03822-P02-CH1	310968	OK	0.7873622	0.0836647	-0.6107872	0	-72.231	-81.513	3.047	B5-03822-P03-CH0	310968	OK	0.8216266	-0.4318556	-0.3720623	0	-85	-64.707	8.199	B5-03822-P03-CH1	310968	OK	0.7745711	-0.5600412	-0.2939276	0	-95.478	-29.591	1.45	B5-03822-P04-CH0	310968	OK	0.7201899	-0.2764416	0.6363226	0	-121.375	-39.783	9.389	B5-03822-P04-CH1	310968	OK	0.7384641	-0.6718573	0.0572596	0	-107.792	-45.751	1.163	NA
0.149880492737636	B5-03822-P01-CH0	310976	OK	0.226549	0.0221802	0.0564786	-0.9721079	102.104	-22.758	-236.944	B5-03822-P02-CH0	310976	OK	0.8985485	0.1071371	-0.4255963	0	-82.648	-99.047	10.103	B5-03822-P02-CH1	310976	OK	0.7914516	0.0772146	-0.6063351	0	-72.377	-80.546	3.179	B5-03822-P03-CH0	310976	OK	0.801612	-0.4089923	-0.4360545	0	-84.046	-63.254	6.775	B5-03822-P03-CH1	310976	OK	0.7736335	-0.5615164	-0.2935822	0	-95.877	-29.592	1.548	B5-03822-P04-CH0	310976	OK	0.7210411	-0.2707149	0.637819	0	-121.611	-39.357	8.832	B5-03822-P04-CH1	310976	OK	0.7387895	-0.6714445	0.0578994	0	-107.825	-45.815	1.255	NA
0.159872525586811	B5-03822-P01-CH0	310984	OK	0.2265571	0.0220215	0.0570709	-0.972075	102.048	-22.712	-236.971	B5-03822-P02-CH0	310984	OK	0.9026904	0.1008877	-0.4182962	0	-82.593	-97.843	10.079	B5-03822-P02-CH1	310984	OK	0.794483	0.066677	-0.6036149	0	-72.714	-80.25	3.056	B5-03822-P03-CH0	310984	OK	0.7837988	-0.3802286	-0.4910048	0	-83.418	-62.169	6.589	B5-03822-P03-CH1	310984	OK	0.7734386	-0.5635642	-0.2901519	0	-95.439	-30.024	2.068	B5-03822-P04-CH0	310984	OK	0.7210324	-0.2660273	0.6397982	0	-121.225	-39.914	9.126	B5-03822-P04-CH1	310984	OK	0.7391447	-0.6709902	0.0586283	0	-107.877	-45.752	1.126	NA
0.169864558435987	B5-03822-P01-CH0	310992	OK	0.2260821	0.0222663	0.0566435	-0.972205	102.091	-22.756	-236.959	B5-03822-P02-CH0	310992	OK	0.9053762	0.0941909	-0.4140313	0	-83.015	-97.575	10.638	B5-03822-P02-CH1	310992	OK	0.7964826	0.0544519	-0.6022046	0	-72.954	-79.552	3.287	B5-03822-P03-CH0	310992	OK	0.7695379	-0.3485107	-0.5351185	0	-82.921	-61.219	6.156	B5-03822-P03-CH1	310992	OK	0.7733641	-0.5641067	-0.289295	0	-95.485	-29.488	1.738	B5-03822-P04-CH0	310992	OK	0.723565	-0.2652753	0.6372462	0	-121.399	-39.007	8.636	B5-03822-P04-CH1	310992	OK	0.7386873	-0.6714794	0.0587911	0	-108.002	-45.809	1.185	NA
0.179856591285163	B5-03822-P01-CH0	311000	OK	0.2259043	0.0221788	0.0567499	-0.9722421	102.035	-22.778	-236.928	B5-03822-P02-CH0	311000	OK	0.908471	0.0937295	-0.4073025	0	-82.826	-97.01	10.333	B5-03822-P02-CH1	311000	OK	0.7973832	0.0416618	-0.6020335	0	-73.589	-78.817	4.044	B5-03822-P03-CH0	311000	OK	0.7600292	-0.320251	-0.5655041	0	-82.639	-60.358	5.208	B5-03822-P03-CH1	311000	OK	0.7736123	-0.5647717	-0.2873273	0	-95.777	-29.713	2.322	B5-03822-P04-CH0	311000	OK	0.7274753	-0.2658265	0.6325472	0	-121.731	-39.173	7.692	B5-03822-P04-CH1	311000	OK	0.7386622	-0.6714622	0.059302	0	-107.99	-45.839	1.177	NA
0.189848624134338	B5-03822-P01-CH0	311008	OK	0.2256295	0.0222354	0.0566559	-0.9723102	102.029	-22.787	-237.008	B5-03822-P02-CH0	311008	OK	0.9098928	0.0950277	-0.4038129	0	-83.392	-96.556	10.442	B5-03822-P02-CH1	311008	OK	0.7999985	0.0299059	-0.5992562	0	-73.62	-77.98	3.227	B5-03822-P03-CH0	311008	OK	0.7551552	-0.2983072	-0.5837409	0	-83.259	-59.398	5.371	B5-03822-P03-CH1	311008	OK	0.7742893	-0.564853	-0.2853369	0	-96.327	-29.36	2.63	B5-03822-P04-CH0	311008	OK	0.7319338	-0.2656619	0.6274525	0	-121.622	-40.316	9.457	B5-03822-P04-CH1	311008	OK	0.73837	-0.6717657	0.059502	0	-108.084	-45.889	1.194	NA
0.199840656983514	B5-03822-P01-CH0	311016	OK	0.2253819	0.0223804	0.0568378	-0.9723536	102.049	-22.78	-236.931	B5-03822-P02-CH0	311016	OK	0.9115753	0.0989302	-0.3990531	0	-83.346	-96.554	10.602	B5-03822-P02-CH1	311016	OK	0.8028499	0.017931	-0.5959116	0	-73.789	-77.88	3.35	B5-03822-P03-CH0	311016	OK	0.7598155	-0.2909469	-0.5814038	0	-81.827	-60.101	7.057	B5-03822-P03-CH1	311016	OK	0.7750163	-0.5652848	-0.282494	0	-96.413	-29.404	2.736	B5-03822-P04-CH0	311016	OK	0.7363042	-0.2701747	0.6203723	0	-121.101	-39.433	9.457	B5-03822-P04-CH1	311016	OK	0.738363	-0.6717807	0.0594197	0	-108.146	-45.836	1.055	NA
0.20983268983269	B5-03822-P01-CH0	311024	OK	0.2251528	0.0222966	0.0570169	-0.9723982	102.018	-22.793	-236.863	B5-03822-P02-CH0	311024	OK	0.9120984	0.1068319	-0.3958073	0	-83.155	-96.394	10.761	B5-03822-P02-CH1	311024	OK	0.8052654	0.005378	-0.5928901	0	-73.909	-78.031	3.735	B5-03822-P03-CH0	311024	OK	0.7604201	-0.2896883	-0.5812418	0	-83.843	-60.339	4.545	B5-03822-P03-CH1	311024	OK	0.7758733	-0.5658444	-0.2789995	0	-95.659	-29.662	2.163	B5-03822-P04-CH0	311024	OK	0.7386998	-0.2747367	0.6155018	0	-120.579	-39.229	8.178	B5-03822-P04-CH1	311024	OK	0.7384515	-0.6717008	0.0592233	0	-108.172	-45.746	1.042	NA
0.219824722681866	B5-03822-P01-CH0	311032	OK	0.2250228	0.0223638	0.05699	-0.9724283	102.056	-22.861	-236.872	B5-03822-P02-CH0	311032	OK	0.9107697	0.1128381	-0.3971979	0	-83.614	-96.447	10.547	B5-03822-P02-CH1	311032	OK	0.8054364	-0.0059354	-0.5926525	0	-74.631	-77.914	2.911	B5-03822-P03-CH0	311032	OK	0.7631335	-0.2885127	-0.5782626	0	-84.706	-58.557	4.029	B5-03822-P03-CH1	311032	OK	0.7762437	-0.5654577	-0.2787533	0	-95.843	-29.722	2.266	B5-03822-P04-CH0	311032	OK	0.7414557	-0.2751023	0.6120148	0	-120.694	-39.418	9.274	B5-03822-P04-CH1	311032	OK	0.7383131	-0.6718604	0.0591392	0	-108.213	-45.759	0.847	NA
0.229816755531041	B5-03822-P01-CH0	311040	OK	0.2249812	0.0225128	0.0570985	-0.9724281	102.116	-22.832	-236.889	B5-03822-P02-CH0	311040	OK	0.9101791	0.1181302	-0.397013	0	-83.708	-96.259	10.359	B5-03822-P02-CH1	311040	OK	0.8077528	-0.0158926	-0.5893071	0	-74.252	-77.016	3.537	B5-03822-P03-CH0	311040	OK	0.7679809	-0.2943249	-0.5688394	0	-83.984	-58.263	5.109	B5-03822-P03-CH1	311040	OK	0.7767005	-0.5643992	-0.2796244	0	-95.87	-29.624	2.426	B5-03822-P04-CH0	311040	OK	0.7437271	-0.2755732	0.6090397	0	-120.747	-39.086	9.38	B5-03822-P04-CH1	311040	OK	0.7383678	-0.6718233	0.058876	0	-108.283	-45.658	0.874	NA
0.239808788380217	B5-03822-P01-CH0	311048	OK	0.2249465	0.0226266	0.0569916	-0.9724398	102.171	-22.842	-236.899	B5-03822-P02-CH0	311048	OK	0.9098879	0.1237805	-0.3959575	0	-83.512	-95.592	10.714	B5-03822-P02-CH1	311048	OK	0.8081492	-0.0251993	-0.5884385	0	-74.574	-77.235	4.135	B5-03822-P03-CH0	311048	OK	0.7713811	-0.3090295	-0.556302	0	-84.097	-59.941	7.023	B5-03822-P03-CH1	311048	OK	0.7769758	-0.5638377	-0.2799921	0	-95.535	-30.048	3.755	B5-03822-P04-CH0	311048	OK	0.7444277	-0.2762637	0.6078698	0	-120.701	-39.109	9.404	B5-03822-P04-CH1	311048	OK	0.7382116	-0.6720229	0.058556	0	-108.374	-45.617	0.868	NA
0.249800821229393	B5-03822-P01-CH0	311056	OK	0.2247833	0.0225898	0.0564785	-0.9725083	102.153	-22.894	-236.879	B5-03822-P02-CH0	311056	OK	0.9099679	0.1247021	-0.3954843	0	-83.219	-96.264	11.498	B5-03822-P02-CH1	311056	OK	0.8084085	-0.0325092	-0.5877235	0	-74.667	-76.643	3.093	B5-03822-P03-CH0	311056	OK	0.7737826	-0.3240765	-0.5442747	0	-85.945	-59.329	4.873	B5-03822-P03-CH1	311056	OK	0.7766874	-0.5635755	-0.2813171	0	-95.725	-29.747	3.229	B5-03822-P04-CH0	311056	OK	0.7445645	-0.2774536	0.60716	0	-120.578	-39.058	9.589	B5-03822-P04-CH1	311056	OK	0.7377292	-0.6725684	0.0583732	0	-108.287	-45.659	1.058	NA
0.259792854078568	B5-03822-P01-CH0	311064	OK	0.2246315	0.0227998	0.0558555	-0.9725744	102.241	-22.997	-236.856	B5-03822-P02-CH0	311064	OK	0.9097335	0.1291941	-0.3945807	0	-83.094	-96.346	11.051	B5-03822-P02-CH1	311064	OK	0.8076133	-0.042198	-0.5882007	0	-75.081	-76.853	2.921	B5-03822-P03-CH0	311064	OK	0.7810555	-0.3375925	-0.5253414	0	-86.133	-57.902	3.634	B5-03822-P03-CH1	311064	OK	0.7751183	-0.564783	-0.2832169	0	-96.1	-29.534	2.453	B5-03822-P04-CH0	311064	OK	0.744704	-0.2781595	0.6066657	0	-120.753	-39.153	8.76	B5-03822-P04-CH1	311064	OK	0.737279	-0.6731251	0.0576393	0	-108.331	-45.623	0.873	NA
0.269784886927744	B5-03822-P01-CH0	311072	OK	0.2247439	0.0227882	0.0557355	-0.9725556	102.273	-23.031	-236.898	B5-03822-P02-CH0	311072	OK	0.9088678	0.1338659	-0.395018	0	-82.92	-96.252	10.431	B5-03822-P02-CH1	311072	OK	0.8072399	-0.0514888	-0.5879734	0	-74.878	-76.722	2.893	B5-03822-P03-CH0	311072	OK	0.7886672	-0.3515043	-0.5044291	0	-85.942	-57.928	5.597	B5-03822-P03-CH1	311072	OK	0.7755262	-0.5648759	-0.2819119	0	-95.975	-29.665	2.64	B5-03822-P04-CH0	311072	OK	0.7442782	-0.2774782	0.6074997	0	-120.647	-39.367	8.99	B5-03822-P04-CH1	311072	OK	0.7373157	-0.6731114	0.0573286	0	-108.33	-45.459	0.7	NA
0.27977691977692	B5-03822-P01-CH0	311080	OK	0.2248698	0.0230566	0.0555539	-0.9725306	102.365	-22.995	-236.857	B5-03822-P02-CH0	311080	OK	0.907875	0.1393127	-0.3954175	0	-82.558	-95.78	10.459	B5-03822-P02-CH1	311080	OK	0.8063625	-0.0614222	-0.5882234	0	-74.345	-76.137	3.086	B5-03822-P03-CH0	311080	OK	0.7939419	-0.3664366	-0.4851603	0	-86.14	-59.015	7.589	B5-03822-P03-CH1	311080	OK	0.7757531	-0.5649767	-0.2810845	0	-95.934	-29.751	2.767	B5-03822-P04-CH0	311080	OK	0.7446384	-0.2777331	0.6069415	0	-120.417	-38.646	9.755	B5-03822-P04-CH1	311080	OK	0.7372528	-0.6732009	0.0570865	0	-108.395	-45.349	0.744	NA
0.289768952626095	B5-03822-P01-CH0	311088	OK	0.2251116	0.023225	0.0555174	-0.9724727	102.426	-22.993	-236.76	B5-03822-P02-CH0	311088	OK	0.9054249	0.1434395	-0.3995382	0	-82.519	-95.875	10.839	B5-03822-P02-CH1	311088	OK	0.802251	-0.0717562	-0.5926588	0	-74.533	-76.539	3.353	B5-03822-P03-CH0	311088	OK	0.7984012	-0.3764599	-0.4699293	0	-86.067	-59.156	7.409	B5-03822-P03-CH1	311088	OK	0.7760633	-0.5649308	-0.2803194	0	-95.752	-29.914	2.77	B5-03822-P04-CH0	311088	OK	0.7457539	-0.2762818	0.6062338	0	-120.91	-39.243	10.426	B5-03822-P04-CH1	311088	OK	0.737394	-0.6730648	0.0568675	0	-108.516	-45.207	0.613	NA
0.299760985475271	B5-03822-P01-CH0	311096	OK	0.2251791	0.0230593	0.0552499	-0.9724763	102.42	-23.046	-236.825	B5-03822-P02-CH0	311096	OK	0.9029438	0.1464104	-0.4040501	0	-81.947	-96.225	11.471	B5-03822-P02-CH1	311096	OK	0.799475	-0.0809165	-0.5952246	0	-74.075	-76.33	2.96	B5-03822-P03-CH0	311096	OK	0.8013653	-0.3818276	-0.4604577	0	-87.032	-58.933	7.033	B5-03822-P03-CH1	311096	OK	0.7763629	-0.5645863	-0.2801837	0	-95.537	-30.037	2.858	B5-03822-P04-CH0	311096	OK	0.7452249	-0.2782059	0.6060044	0	-120.614	-39.052	9.276	B5-03822-P04-CH1	311096	OK	0.7372166	-0.673264	0.0568085	0	-108.471	-45.247	0.642	NA
0.309753018324447	B5-03822-P01-CH0	311104	OK	0.2255249	0.0228855	0.0559384	-0.9723609	102.422	-22.996	-236.896	B5-03822-P02-CH0	311104	OK	0.8993231	0.1500566	-0.4107322	0	-81.326	-96.555	10.991	B5-03822-P02-CH1	311104	OK	0.7982403	-0.0933865	-0.5950558	0	-73.455	-76.326	2.446	B5-03822-P03-CH0	311104	OK	0.8065174	-0.3843475	-0.449229	0	-87.443	-59.164	7.154	B5-03822-P03-CH1	311104	OK	0.7770343	-0.5637075	-0.2800922	0	-95.451	-30.121	2.958	B5-03822-P04-CH0	311104	OK	0.7446395	-0.2763396	0.6075759	0	-120.617	-39.458	10.036	B5-03822-P04-CH1	311104	OK	0.7377808	-0.6726243	0.0570613	0	-108.423	-45.173	0.536	NA
0.319745051173623	B5-03822-P01-CH0	311112	OK	0.2257864	0.0227675	0.0562047	-0.9722876	102.41	-22.967	-236.902	B5-03822-P02-CH0	311112	OK	0.8942886	0.1543499	-0.4200287	0	-80.797	-96.422	10.558	B5-03822-P02-CH1	311112	OK	0.7972515	-0.1047877	-0.5944826	0	-73.231	-76.179	2.508	B5-03822-P03-CH0	311112	OK	0.8132315	-0.3848672	-0.4364995	0	-86.575	-59.869	7.794	B5-03822-P03-CH1	311112	OK	0.7775217	-0.5630371	-0.2800879	0	-95.293	-30.198	3.073	B5-03822-P04-CH0	311112	OK	0.7450069	-0.276859	0.6068886	0	-120.558	-39.195	9.586	B5-03822-P04-CH1	311112	OK	0.7381209	-0.672245	0.0571332	0	-108.419	-45.055	0.448	NA
0.329737084022798	B5-03822-P01-CH0	311120	OK	0.2258345	0.0225721	0.0564087	-0.9722692	102.371	-22.967	-236.878	B5-03822-P02-CH0	311120	OK	0.8898462	0.1588395	-0.4277191	0	-79.771	-96.24	10.19	B5-03822-P02-CH1	311120	OK	0.7960287	-0.1145216	-0.5943257	0	-73.067	-76.342	3.086	B5-03822-P03-CH0	311120	OK	0.8168457	-0.3831545	-0.4312259	0	-87.022	-59.931	8.451	B5-03822-P03-CH1	311120	OK	0.7779248	-0.562351	-0.2803467	0	-95.192	-30.191	3.01	B5-03822-P04-CH0	311120	OK	0.7451436	-0.2775542	0.6064031	0	-120.451	-39.075	9.444	B5-03822-P04-CH1	311120	OK	0.7383554	-0.6720057	0.0569176	0	-108.44	-44.951	0.276	NA
0.339729116871974	B5-03822-P01-CH0	311128	OK	0.2258195	0.0226629	0.0560889	-0.9722891	102.376	-22.979	-236.79	B5-03822-P02-CH0	311128	OK	0.8838148	0.1582677	-0.440253	0	-79.695	-97.095	10.104	B5-03822-P02-CH1	311128	OK	0.7939	-0.1237915	-0.5953138	0	-73.368	-76.458	2.252	B5-03822-P03-CH0	311128	OK	0.8188744	-0.3818426	-0.4285335	0	-87.466	-59.641	8.002	B5-03822-P03-CH1	311128	OK	0.7778405	-0.5621605	-0.280962	0	-95.148	-30.239	2.921	B5-03822-P04-CH0	311128	OK	0.7452492	-0.2784256	0.6058736	0	-120.467	-38.925	9.159	B5-03822-P04-CH1	311128	OK	0.7382931	-0.6720883	0.0567503	0	-108.429	-44.846	0.117	NA
0.34972114972115	B5-03822-P01-CH0	311136	OK	0.2260702	0.0227445	0.0567071	-0.972193	102.434	-22.869	-236.776	B5-03822-P02-CH0	311136	OK	0.8780794	0.1624501	-0.4500961	0	-78.876	-96.735	9.216	B5-03822-P02-CH1	311136	OK	0.7937161	-0.1325835	-0.5936634	0	-73.31	-76.328	3.375	B5-03822-P03-CH0	311136	OK	0.8208293	-0.3777469	-0.4284234	0	-87.722	-59.653	8.533	B5-03822-P03-CH1	311136	OK	0.7783038	-0.5614687	-0.2810625	0	-95.111	-30.288	2.902	B5-03822-P04-CH0	311136	OK	0.7455212	-0.2787465	0.6053912	0	-120.541	-38.832	8.971	B5-03822-P04-CH1	311136	OK	0.7388334	-0.6714899	0.0568024	0	-108.604	-44.758	0.13	NA
0.359713182570325	B5-03822-P01-CH0	311144	OK	0.2262639	0.0226691	0.0570847	-0.9721276	102.458	-22.823	-236.832	B5-03822-P02-CH0	311144	OK	0.871167	0.1636978	-0.4628942	0	-78.068	-96.944	9.428	B5-03822-P02-CH1	311144	OK	0.7946197	-0.1408736	-0.5905372	0	-73.249	-76.569	2.475	B5-03822-P03-CH0	311144	OK	0.8229542	-0.370837	-0.4303794	0	-87.89	-59.476	8.963	B5-03822-P03-CH1	311144	OK	0.7786502	-0.5606885	-0.28166	0	-95.145	-30.314	2.926	B5-03822-P04-CH0	311144	OK	0.7454396	-0.2796131	0.6050919	0	-120.498	-38.635	8.905	B5-03822-P04-CH1	311144	OK	0.7391962	-0.6710795	0.0569319	0	-108.639	-44.749	0.304	NA
0.369705215419501	B5-03822-P01-CH0	311152	OK	0.2262481	0.0226703	0.0569096	-0.9721415	102.456	-22.822	-236.791	B5-03822-P02-CH0	311152	OK	0.8619279	0.1631027	-0.480081	0	-77.56	-96.637	8.933	B5-03822-P02-CH1	311152	OK	0.7970909	-0.150219	-0.5848764	0	-73.442	-76.677	2.686	B5-03822-P03-CH0	311152	OK	0.824357	-0.3641246	-0.4334153	0	-88.196	-59.331	8.407	B5-03822-P03-CH1	311152	OK	0.7786312	-0.5601631	-0.2827558	0	-95.144	-30.318	2.804	B5-03822-P04-CH0	311152	OK	0.7417273	-0.2874856	0.6059643	0	-119.89	-38.21	8.737	B5-03822-P04-CH1	311152	OK	0.7389405	-0.6713772	0.0567414	0	-108.565	-44.869	0.37	NA
0.379697248268677	B5-03822-P01-CH0	311160	OK	0.2264045	0.0224141	0.0574523	-0.9720791	102.447	-22.811	-236.847	B5-03822-P02-CH0	311160	OK	0.8526745	0.1611627	-0.4969635	0	-76.682	-96.367	7.124	B5-03822-P02-CH1	311160	OK	0.8000757	-0.1612961	-0.5778083	0	-73.67	-76.709	2.304	B5-03822-P03-CH0	311160	OK	0.8257445	-0.3573069	-0.4364377	0	-88.338	-59.11	8.257	B5-03822-P03-CH1	311160	OK	0.779086	-0.5591122	-0.2835816	0	-95.111	-30.345	2.772	B5-03822-P04-CH0	311160	OK	0.7403529	-0.2903466	0.6062809	0	-119.373	-37.681	8.192	B5-03822-P04-CH1	311160	OK	0.7393906	-0.6708888	0.056655	0	-108.473	-44.857	0.363	NA
0.389689281117853	B5-03822-P01-CH0	311168	OK	0.2262437	0.0224478	0.0567215	-0.9721587	102.464	-22.883	-236.813	B5-03822-P02-CH0	311168	OK	0.8441327	0.1559689	-0.512946	0	-75.913	-96.294	7.134	B5-03822-P02-CH1	311168	OK	0.8034033	-0.1703515	-0.5705467	0	-73.627	-76.724	2.23	B5-03822-P03-CH0	311168	OK	0.8255119	-0.3542558	-0.4393552	0	-88.195	-58.88	8.986	B5-03822-P03-CH1	311168	OK	0.7787846	-0.5587847	-0.2850512	0	-95.107	-30.385	2.731	B5-03822-P04-CH0	311168	OK	0.7406728	-0.2884734	0.6067841	0	-120.235	-39.177	9.681	B5-03822-P04-CH1	311168	OK	0.7388646	-0.6715054	0.056211	0	-108.371	-44.926	0.428	NA
0.399681313967028	B5-03822-P01-CH0	311176	OK	0.2263456	0.0227266	0.0565579	-0.972138	102.539	-22.818	-236.697	B5-03822-P02-CH0	311176	OK	0.8370552	0.1514658	-0.5257345	0	-74.892	-95.865	6.598	B5-03822-P02-CH1	311176	OK	0.8060491	-0.1782552	-0.5643668	0	-74.195	-76.332	2.185	B5-03822-P03-CH0	311176	OK	0.8239353	-0.3522128	-0.4439333	0	-88.605	-58.411	9.162	B5-03822-P03-CH1	311176	OK	0.7786759	-0.5584025	-0.2860954	0	-95.186	-30.362	2.652	B5-03822-P04-CH0	311176	OK	0.7404897	-0.2914073	0.6056045	0	-119.999	-38.426	9.198	B5-03822-P04-CH1	311176	OK	0.7387959	-0.6715994	0.05599	0	-108.389	-44.867	0.387	NA
0.409673346816204	B5-03822-P01-CH0	311184	OK	0.2263383	0.0229654	0.0558423	-0.9721755	102.596	-22.791	-236.615	B5-03822-P02-CH0	311184	OK	0.8327347	0.1448734	-0.5343825	0	-74.344	-95.484	5.905	B5-03822-P02-CH1	311184	OK	0.8090183	-0.1837417	-0.5583264	0	-74.773	-76.225	2.572	B5-03822-P03-CH0	311184	OK	0.8211847	-0.3516663	-0.4494291	0	-89.351	-57.966	8.407	B5-03822-P03-CH1	311184	OK	0.7783379	-0.5583119	-0.2871896	0	-95.255	-30.331	2.685	B5-03822-P04-CH0	311184	OK	0.7404916	-0.29356	0.6045615	0	-119.984	-38.156	8.337	B5-03822-P04-CH1	311184	OK	0.738375	-0.6720944	0.0556012	0	-108.389	-44.845	0.645	NA
0.41966537966538	B5-03822-P01-CH0	311192	OK	0.2263938	0.0229328	0.055954	-0.9721569	102.587	-22.694	-236.575	B5-03822-P02-CH0	311192	OK	0.8300474	0.1352976	-0.5410322	0	-74.424	-95.949	5.698	B5-03822-P02-CH1	311192	OK	0.8140456	-0.1894479	-0.5490348	0	-75.005	-76.157	3.178	B5-03822-P03-CH0	311192	OK	0.8202251	-0.3507919	-0.4518583	0	-88.668	-57.788	7.756	B5-03822-P03-CH1	311192	OK	0.7784303	-0.5577513	-0.2880272	0	-95.365	-30.211	2.594	B5-03822-P04-CH0	311192	OK	0.7407584	-0.2933302	0.6043462	0	-119.964	-38.019	8.544	B5-03822-P04-CH1	311192	OK	0.7385121	-0.671984	0.0551132	0	-108.318	-44.724	0.793	NA
0.429657412514555	B5-03822-P01-CH0	311200	OK	0.2266077	0.0230795	0.0557474	-0.9721155	102.627	-22.629	-236.518	B5-03822-P02-CH0	311200	OK	0.8297927	0.1294345	-0.5428544	0	-73.896	-95.466	5.284	B5-03822-P02-CH1	311200	OK	0.8186964	-0.1930708	-0.5407956	0	-75.432	-76.079	3.109	B5-03822-P03-CH0	311200	OK	0.8183211	-0.350684	-0.4553805	0	-88.623	-57.698	8.403	B5-03822-P03-CH1	311200	OK	0.778369	-0.5576175	-0.2884517	0	-95.431	-30.217	2.582	B5-03822-P04-CH0	311200	OK	0.7396465	-0.2927268	0.6059985	0	-119.517	-37.505	8.866	B5-03822-P04-CH1	311200	OK	0.7383333	-0.6721918	0.0549737	0	-108.258	-44.735	0.877	NA
0.439649445363731	B5-03822-P01-CH0	311208	OK	0.2265849	0.0232336	0.0551923	-0.9721488	102.67	-22.604	-236.46	B5-03822-P02-CH0	311208	OK	0.8298492	0.1239331	-0.5440505	0	-73.665	-95.149	5.136	B5-03822-P02-CH1	311208	OK	0.8222556	-0.1948909	-0.5347085	0	-75.898	-76.066	3.554	B5-03822-P03-CH0	311208	OK	0.8157852	-0.3531296	-0.4580326	0	-88.944	-57.208	8.582	B5-03822-P03-CH1	311208	OK	0.7782522	-0.5575052	-0.2889836	0	-95.43	-30.182	2.59	B5-03822-P04-CH0	311208	OK	0.7392098	-0.2902122	0.6077382	0	-120.007	-37.88	8.736	B5-03822-P04-CH1	311208	OK	0.7379061	-0.6726912	0.0545991	0	-108.241	-44.776	1.184	NA
0.449641478212907	B5-03822-P01-CH0	311216	OK	0.2266289	0.023342	0.0545376	-0.9721729	102.698	-22.635	-236.42	B5-03822-P02-CH0	311216	OK	0.8292163	0.1172724	-0.5464865	0	-74.061	-95.361	5.761	B5-03822-P02-CH1	311216	OK	0.8261375	-0.1955894	-0.5284332	0	-76.045	-76.248	3.977	B5-03822-P03-CH0	311216	OK	0.8136119	-0.3553839	-0.4601499	0	-89.25	-57	8.527	B5-03822-P03-CH1	311216	OK	0.778112	-0.5575612	-0.289253	0	-95.425	-30.142	2.484	B5-03822-P04-CH0	311216	OK	0.7399526	-0.2910313	0.6064411	0	-120.1	-37.785	8.267	B5-03822-P04-CH1	311216	OK	0.7375166	-0.673167	0.0539959	0	-108.09	-44.655	0.831	NA
0.459633511062083	B5-03822-P01-CH0	311224	OK	0.2267462	0.0232188	0.054658	-0.9721417	102.639	-22.539	-236.312	B5-03822-P02-CH0	311224	OK	0.8305638	0.1116003	-0.5456273	0	-73.998	-95.095	5.49	B5-03822-P02-CH1	311224	OK	0.8312114	-0.1943933	-0.5208636	0	-76.593	-76.265	4.214	B5-03822-P03-CH0	311224	OK	0.814622	-0.3571858	-0.4569566	0	-88.981	-56.9	7.993	B5-03822-P03-CH1	311224	OK	0.778456	-0.5572687	-0.2888906	0	-95.355	-30.002	2.276	B5-03822-P04-CH0	311224	OK	0.7396233	-0.2910276	0.6068445	0	-120.041	-37.792	8.311	B5-03822-P04-CH1	311224	OK	0.7375265	-0.6731537	0.0540247	0	-107.877	-44.634	0.903	NA
0.469625543911258	B5-03822-P01-CH0	311232	OK	0.2270111	0.0232377	0.0548305	-0.9720697	102.666	-22.473	-236.276	B5-03822-P02-CH0	311232	OK	0.8323802	0.1051213	-0.544144	0	-74.45	-95.462	4.995	B5-03822-P02-CH1	311232	OK	0.8367	-0.1900711	-0.5136205	0	-77.237	-76.14	4.333	B5-03822-P03-CH0	311232	OK	0.816311	-0.3576588	-0.4535599	0	-89.482	-56.91	8.038	B5-03822-P03-CH1	311232	OK	0.7787682	-0.5572333	-0.2881166	0	-95.325	-30.046	2.365	B5-03822-P04-CH0	311232	OK	0.7397771	-0.2900981	0.6071021	0	-120.195	-38.053	8.522	B5-03822-P04-CH1	311232	OK	0.7377887	-0.672862	0.0540789	0	-107.995	-44.567	1.063	NA
0.479617576760434	B5-03822-P01-CH0	311240	OK	0.2270464	0.0232072	0.0547153	-0.9720687	102.651	-22.444	-236.264	B5-03822-P02-CH0	311240	OK	0.8355225	0.1018781	-0.5399287	0	-74.93	-95.491	5.962	B5-03822-P02-CH1	311240	OK	0.8411875	-0.1846255	-0.508249	0	-77.718	-76.589	4.696	B5-03822-P03-CH0	311240	OK	0.8194018	-0.3582484	-0.4474805	0	-89.605	-56.984	8.661	B5-03822-P03-CH1	311240	OK	0.7788407	-0.55748	-0.2874425	0	-95.283	-30.068	2.427	B5-03822-P04-CH0	311240	OK	0.739771	-0.2895154	0.6073877	0	-120.253	-38.272	8.722	B5-03822-P04-CH1	311240	OK	0.7376076	-0.6730662	0.0540086	0	-108.032	-44.602	0.97	NA
0.48960960960961	B5-03822-P01-CH0	311248	OK	0.2272414	0.0232123	0.0552367	-0.9719935	102.67	-22.316	-236.241	B5-03822-P02-CH0	311248	OK	0.8385742	0.0991189	-0.5356946	0	-75.79	-96.358	6.049	B5-03822-P02-CH1	311248	OK	0.8454472	-0.1781057	-0.5034853	0	-77.961	-76.926	4.822	B5-03822-P03-CH0	311248	OK	0.8215545	-0.3591104	-0.4428181	0	-90.151	-56.913	8.494	B5-03822-P03-CH1	311248	OK	0.7791021	-0.5576897	-0.2863253	0	-95.286	-30.095	2.448	B5-03822-P04-CH0	311248	OK	0.7400385	-0.288748	0.6074271	0	-120.339	-38.344	8.722	B5-03822-P04-CH1	311248	OK	0.7379748	-0.6726593	0.054062	0	-108.106	-44.486	0.663	NA
0.499601642458785	B5-03822-P01-CH0	311256	OK	0.2272362	0.022966	0.0553817	-0.9719924	102.596	-22.304	-236.279	B5-03822-P02-CH0	311256	OK	0.8436217	0.1004471	-0.5274588	0	-75.565	-96.477	5.82	B5-03822-P02-CH1	311256	OK	0.8497308	-0.1706416	-0.4988376	0	-78.037	-76.935	5.349	B5-03822-P03-CH0	311256	OK	0.8238974	-0.3607654	-0.4370829	0	-89.877	-57.256	8.683	B5-03822-P03-CH1	311256	OK	0.7791806	-0.5580708	-0.2853675	0	-95.194	-30.165	2.508	B5-03822-P04-CH0	311256	OK	0.7401192	-0.2884325	0.6074786	0	-120.346	-38.357	8.676	B5-03822-P04-CH1	311256	OK	0.7380147	-0.672601	0.0542415	0	-108.11	-44.534	0.702	NA
0.509593675307961	B5-03822-P01-CH0	311264	OK	0.2273317	0.0227997	0.0556662	-0.9719577	102.56	-22.31	-236.328	B5-03822-P02-CH0	311264	OK	0.8470122	0.1019368	-0.521708	0	-76.248	-96.91	6.073	B5-03822-P02-CH1	311264	OK	0.8517344	-0.1657388	-0.4970707	0	-78.882	-77.771	5.244	B5-03822-P03-CH0	311264	OK	0.8257374	-0.3614386	-0.4330358	0	-90.163	-57.421	8.996	B5-03822-P03-CH1	311264	OK	0.7792528	-0.5585928	-0.2841466	0	-95.121	-30.291	2.527	B5-03822-P04-CH0	311264	OK	0.7402651	-0.2880247	0.6074943	0	-120.374	-38.455	8.618	B5-03822-P04-CH1	311264	OK	0.7381602	-0.6724203	0.0545016	0	-108.085	-44.585	0.423	NA
0.519585708157137	B5-03822-P01-CH0	311272	OK	0.2273936	0.0226274	0.0557722	-0.9719412	102.488	-22.281	-236.361	B5-03822-P02-CH0	311272	OK	0.8500656	0.103627	-0.5163815	0	-76.955	-97.367	6.174	B5-03822-P02-CH1	311272	OK	0.8538483	-0.1593988	-0.495515	0	-79.199	-78.051	5.466	B5-03822-P03-CH0	311272	OK	0.8279394	-0.3638569	-0.4267605	0	-90.55	-57.672	9.311	B5-03822-P03-CH1	311272	OK	0.7792185	-0.5592147	-0.2830148	0	-94.984	-30.329	2.448	B5-03822-P04-CH0	311272	OK	0.7402712	-0.2879769	0.6075096	0	-120.334	-38.511	8.598	B5-03822-P04-CH1	311272	OK	0.7381446	-0.6723939	0.0550362	0	-108.132	-44.639	0.264	NA
0.529577741006312	B5-03822-P01-CH0	311280	OK	0.2271821	0.0225325	0.0556086	-0.9720022	102.432	-22.264	-236.34	B5-03822-P02-CH0	311280	OK	0.8519689	0.1041154	-0.5131364	0	-77.47	-97.741	6.876	B5-03822-P02-CH1	311280	OK	0.8545947	-0.1566362	-0.495109	0	-79.468	-78.1	6.003	B5-03822-P03-CH0	311280	OK	0.8309233	-0.3667468	-0.4184056	0	-90.102	-58.115	8.944	B5-03822-P03-CH1	311280	OK	0.7789986	-0.5598686	-0.2823267	0	-94.874	-30.307	2.356	B5-03822-P04-CH0	311280	OK	0.7403625	-0.2885594	0.6071217	0	-120.389	-38.559	8.511	B5-03822-P04-CH1	311280	OK	0.7380586	-0.6724602	0.0553786	0	-108.172	-44.614	0.157	NA
0.539569773855488	B5-03822-P01-CH0	311288	OK	0.2273333	0.0223389	0.0562432	-0.9719348	102.398	-22.194	-236.404	B5-03822-P02-CH0	311288	OK	0.8528146	0.1058054	-0.5113829	0	-77.789	-97.473	7.162	B5-03822-P02-CH1	311288	OK	0.855226	-0.1536973	-0.49494	0	-79.562	-77.855	5.86	B5-03822-P03-CH0	311288	OK	0.8331894	-0.3670832	-0.4135764	0	-90.176	-58.132	9.107	B5-03822-P03-CH1	311288	OK	0.7790761	-0.5603191	-0.2812169	0	-94.885	-30.374	2.337	B5-03822-P04-CH0	311288	OK	0.7408228	-0.2882542	0.6067052	0	-120.511	-38.754	8.512	B5-03822-P04-CH1	311288	OK	0.7384386	-0.6719778	0.0561638	0	-108.19	-44.718	0.253	NA
0.549561806704664	B5-03822-P01-CH0	311296	OK	0.2272436	0.0222975	0.0563552	-0.9719502	102.346	-22.119	-236.349	B5-03822-P02-CH0	311296	OK	0.8547476	0.1058808	-0.5081297	0	-77.475	-97.392	7.08	B5-03822-P02-CH1	311296	OK	0.8557059	-0.1514748	-0.4947958	0	-79.578	-77.905	5.313	B5-03822-P03-CH0	311296	OK	0.8342652	-0.3680363	-0.4105495	0	-90.327	-58.156	9.282	B5-03822-P03-CH1	311296	OK	0.7788515	-0.5609365	-0.2806075	0	-94.858	-30.353	2.252	B5-03822-P04-CH0	311296	OK	0.741104	-0.288478	0.6062551	0	-120.647	-38.898	8.436	B5-03822-P04-CH1	311296	OK	0.7383902	-0.671978	0.0567939	0	-108.275	-44.792	0.174	NA
0.55955383955384	B5-03822-P01-CH0	311304	OK	0.2270829	0.0223723	0.056032	-0.9720048	102.364	-22.12	-236.428	B5-03822-P02-CH0	311304	OK	0.8564576	0.1053406	-0.5053551	0	-77.557	-97.686	7.869	B5-03822-P02-CH1	311304	OK	0.8567789	-0.14762	-0.4941034	0	-79.576	-77.985	5.258	B5-03822-P03-CH0	311304	OK	0.8349512	-0.3676114	-0.4095344	0	-90.45	-58.411	9.994	B5-03822-P03-CH1	311304	OK	0.7783929	-0.5617263	-0.2803	0	-94.9	-30.411	2.402	B5-03822-P04-CH0	311304	OK	0.741174	-0.2892616	0.605796	0	-120.73	-38.944	8.474	B5-03822-P04-CH1	311304	OK	0.7381453	-0.6722085	0.0572474	0	-108.392	-44.892	0.267	NA
0.569545872403015	B5-03822-P01-CH0	311312	OK	0.2269496	0.0223797	0.0560392	-0.9720353	102.356	-22.08	-236.467	B5-03822-P02-CH0	311312	OK	0.856497	0.1066682	-0.5050097	0	-78.074	-98.257	7.779	B5-03822-P02-CH1	311312	OK	0.857121	-0.1449871	-0.4942897	0	-79.656	-78.302	5.775	B5-03822-P03-CH0	311312	OK	0.8346526	-0.3657146	-0.4118347	0	-90.809	-58.526	10.208	B5-03822-P03-CH1	311312	OK	0.7781068	-0.5622994	-0.2799449	0	-94.942	-30.428	2.442	B5-03822-P04-CH0	311312	OK	0.7413472	-0.2900241	0.6052193	0	-120.808	-38.958	8.516	B5-03822-P04-CH1	311312	OK	0.7380968	-0.6722119	0.0578302	0	-108.472	-44.972	0.307	NA
0.579537905252191	B5-03822-P01-CH0	311320	OK	0.2269516	0.0223786	0.0560188	-0.972036	102.347	-22.072	-236.479	B5-03822-P02-CH0	311320	OK	0.8572568	0.10977	-0.5030521	0	-78.073	-97.855	7.664	B5-03822-P02-CH1	311320	OK	0.8576558	-0.1442324	-0.4935823	0	-79.752	-78.508	5.82	B5-03822-P03-CH0	311320	OK	0.8347686	-0.3624307	-0.4144941	0	-90.302	-58.656	9.719	B5-03822-P03-CH1	311320	OK	0.7779198	-0.5627441	-0.2795708	0	-94.96	-30.444	2.43	B5-03822-P04-CH0	311320	OK	0.7415006	-0.2912122	0.6044603	0	-120.844	-38.921	8.488	B5-03822-P04-CH1	311320	OK	0.738055	-0.6722027	0.0584673	0	-108.485	-45.089	0.351	NA
0.589529938101367	B5-03822-P01-CH0	311328	OK	0.2270078	0.0223308	0.0561547	-0.9720162	102.307	-22.034	-236.495	B5-03822-P02-CH0	311328	OK	0.8573393	0.1111748	-0.5026028	0	-78.544	-97.942	7.811	B5-03822-P02-CH1	311328	OK	0.8585465	-0.1420075	-0.4926782	0	-79.767	-78.002	6.087	B5-03822-P03-CH0	311328	OK	0.8340243	-0.3562525	-0.4212928	0	-90.457	-58.382	9.656	B5-03822-P03-CH1	311328	OK	0.7778745	-0.5630132	-0.2791548	0	-94.99	-30.41	2.366	B5-03822-P04-CH0	311328	OK	0.7416	-0.2924917	0.6037202	0	-120.845	-38.896	8.405	B5-03822-P04-CH1	311328	OK	0.7380876	-0.6721094	0.0591237	0	-108.475	-45.217	0.57	NA
0.599521970950542	B5-03822-P01-CH0	311336	OK	0.2268925	0.0226273	0.0558365	-0.9720546	102.384	-22.053	-236.492	B5-03822-P02-CH0	311336	OK	0.8582743	0.1121346	-0.5007904	0	-78.66	-98.318	7.896	B5-03822-P02-CH1	311336	OK	0.8576744	-0.1424863	-0.494057	0	-80.247	-78.167	6.272	B5-03822-P03-CH0	311336	OK	0.8324865	-0.3502143	-0.4293206	0	-90.822	-57.935	9.405	B5-03822-P03-CH1	311336	OK	0.7774689	-0.5635358	-0.2792301	0	-95.114	-30.455	2.384	B5-03822-P04-CH0	311336	OK	0.7416508	-0.294171	0.6028412	0	-120.984	-38.94	8.372	B5-03822-P04-CH1	311336	OK	0.7378417	-0.6723775	0.0591446	0	-108.548	-45.275	0.61	NA
0.609514003799718	B5-03822-P01-CH0	311344	OK	0.2267721	0.0228317	0.0556246	-0.97209	102.424	-22.027	-236.487	B5-03822-P02-CH0	311344	OK	0.8588104	0.1152059	-0.4991717	0	-78.635	-98.293	7.771	B5-03822-P02-CH1	311344	OK	0.8575886	-0.1414757	-0.4944961	0	-80.025	-78.04	5.479	B5-03822-P03-CH0	311344	OK	0.8311763	-0.3467464	-0.4346411	0	-90.708	-57.792	9.858	B5-03822-P03-CH1	311344	OK	0.7771825	-0.5638161	-0.2794615	0	-95.218	-30.435	2.404	B5-03822-P04-CH0	311344	OK	0.741578	-0.3044639	0.5977992	0	-121.358	-38.821	8.415	B5-03822-P04-CH1	311344	OK	0.7375657	-0.6726686	0.0592773	0	-108.522	-45.365	0.82	NA
0.619506036648894	B5-03822-P01-CH0	311352	OK	0.226636	0.0230627	0.055383	-0.9721301	102.477	-22.038	-236.47	B5-03822-P02-CH0	311352	OK	0.8584034	0.1182007	-0.4991715	0	-78.8	-97.892	7.912	B5-03822-P02-CH1	311352	OK	0.8568425	-0.1396468	-0.4963061	0	-80.144	-77.893	5.925	B5-03822-P03-CH0	311352	OK	0.8296654	-0.3474647	-0.436948	0	-90.804	-57.778	9.918	B5-03822-P03-CH1	311352	OK	0.7769555	-0.5639509	-0.2798206	0	-95.312	-30.439	2.536	B5-03822-P04-CH0	311352	OK	0.7406267	-0.3057389	0.5983275	0	-121.228	-39.81	9.069	B5-03822-P04-CH1	311352	OK	0.7374519	-0.6728115	0.0590703	0	-108.633	-45.298	0.65	NA
0.62949806949807	B5-03822-P01-CH0	311360	OK	0.2267601	0.0230852	0.0555127	-0.9720932	102.478	-22.031	-236.485	B5-03822-P02-CH0	311360	OK	0.8582323	0.1184925	-0.4993964	0	-78.931	-98.016	8.224	B5-03822-P02-CH1	311360	OK	0.8560088	-0.1369377	-0.4984947	0	-80.564	-77.951	6.157	B5-03822-P03-CH0	311360	OK	0.8291627	-0.3484225	-0.4371395	0	-90.657	-57.514	9.821	B5-03822-P03-CH1	311360	OK	0.7769895	-0.5638671	-0.2798949	0	-95.327	-30.491	2.569	B5-03822-P04-CH0	311360	OK	0.7407291	-0.3086543	0.5967018	0	-120.907	-39.268	9.189	B5-03822-P04-CH1	311360	OK	0.7374071	-0.6728435	0.0592656	0	-108.521	-45.429	0.881	NA
0.639490102347245	B5-03822-P01-CH0	311368	OK	0.226679	0.0231089	0.0555271	-0.9721108	102.466	-22.061	-236.5	B5-03822-P02-CH0	311368	OK	0.8585068	0.1176968	-0.4991128	0	-79.034	-98.687	8.214	B5-03822-P02-CH1	311368	OK	0.8564258	-0.1367424	-0.4978317	0	-80.68	-78.104	6.229	B5-03822-P03-CH0	311368	OK	0.828051	-0.3492981	-0.4385457	0	-90.699	-57.64	9.653	B5-03822-P03-CH1	311368	OK	0.7771266	-0.5635342	-0.2801848	0	-95.303	-30.428	2.512	B5-03822-P04-CH0	311368	OK	0.7413779	-0.3097559	0.5953236	0	-121.107	-39.349	9.289	B5-03822-P04-CH1	311368	OK	0.7374727	-0.6727986	0.0589582	0	-108.577	-45.313	0.718	NA
0.649482135196421	B5-03822-P01-CH0	311376	OK	0.2267542	0.0229659	0.0557378	-0.9720846	102.466	-22.143	-236.666	B5-03822-P02-CH0	311376	OK	0.8590639	0.1200767	-0.4975849	0	-78.651	-98.479	7.998	B5-03822-P02-CH1	311376	OK	0.857551	-0.1385384	-0.4953922	0	-80.36	-77.637	6.216	B5-03822-P03-CH0	311376	OK	0.8265622	-0.3494764	-0.4412042	0	-90.884	-57.696	9.405	B5-03822-P03-CH1	311376	OK	0.7773684	-0.5631339	-0.2803188	0	-95.292	-30.565	2.714	B5-03822-P04-CH0	311376	OK	0.7409294	-0.31232	0.5945416	0	-120.742	-39.323	8.884	B5-03822-P04-CH1	311376	OK	0.7376813	-0.672594	0.0586821	0	-108.601	-45.313	0.838	NA
0.659474168045597	B5-03822-P01-CH0	311384	OK	0.2268801	0.0227719	0.056626	-0.9720084	102.4	-22.106	-236.652	B5-03822-P02-CH0	311384	OK	0.8583069	0.1195648	-0.4990126	0	-78.484	-98.211	8.207	B5-03822-P02-CH1	311384	OK	0.85704	-0.1412928	-0.4954986	0	-80.256	-78.193	5.856	B5-03822-P03-CH0	311384	OK	0.8255594	-0.3491402	-0.4433428	0	-90.479	-57.305	8.939	B5-03822-P03-CH1	311384	OK	0.7779757	-0.562311	-0.280286	0	-95.285	-30.538	2.567	B5-03822-P04-CH0	311384	OK	0.7408953	-0.3147917	0.5932793	0	-120.201	-38.237	7.778	B5-03822-P04-CH1	311384	OK	0.7381782	-0.6720524	0.0586389	0	-108.599	-45.287	0.759	NA
0.669466200894772	B5-03822-P01-CH0	311392	OK	0.2267194	0.0226307	0.0565262	-0.972055	102.321	-22.207	-236.667	B5-03822-P02-CH0	311392	OK	0.8573343	0.1181663	-0.5010136	0	-78.258	-98.008	7.776	B5-03822-P02-CH1	311392	OK	0.8571659	-0.1515815	-0.4922293	0	-80.124	-77.945	6.058	B5-03822-P03-CH0	311392	OK	0.8233727	-0.350281	-0.4464982	0	-89.943	-57.104	9.281	B5-03822-P03-CH1	311392	OK	0.7780849	-0.5618418	-0.280923	0	-95.231	-30.566	2.547	B5-03822-P04-CH0	311392	OK	0.7417823	-0.3119544	0.5936694	0	-120.813	-39.166	8.72	B5-03822-P04-CH1	311392	OK	0.7381595	-0.6721474	0.0577793	0	-108.486	-45.128	0.467	NA
0.679458233743948	B5-03822-P01-CH0	311400	OK	0.2265577	0.0227797	0.0562714	-0.972104	102.288	-22.228	-236.585	B5-03822-P02-CH0	311400	OK	0.8561606	0.1126084	-0.50429	0	-77.909	-98.076	8.416	B5-03822-P02-CH1	311400	OK	0.8560322	-0.1575783	-0.492319	0	-79.884	-77.718	6.335	B5-03822-P03-CH0	311400	OK	0.8191464	-0.3524535	-0.4525215	0	-90.35	-56.92	9.365	B5-03822-P03-CH1	311400	OK	0.7779955	-0.5616483	-0.2815565	0	-95.266	-30.53	2.421	B5-03822-P04-CH0	311400	OK	0.7411904	-0.3103534	0.5952457	0	-120.477	-38.556	8.298	B5-03822-P04-CH1	311400	OK	0.7379914	-0.6723907	0.0570913	0	-108.404	-44.923	0.28	NA
0.689450266593124	B5-03822-P01-CH0	311408	OK	0.2262748	0.0228816	0.0560905	-0.972178	102.285	-22.288	-236.636	B5-03822-P02-CH0	311408	OK	0.8545984	0.1103401	-0.5074314	0	-77.47	-97.675	7.729	B5-03822-P02-CH1	311408	OK	0.8529188	-0.1622919	-0.4961763	0	-80.328	-77.562	6.027	B5-03822-P03-CH0	311408	OK	0.8169262	-0.3554338	-0.4542008	0	-90.204	-56.698	8.582	B5-03822-P03-CH1	311408	OK	0.7780033	-0.5612956	-0.2822378	0	-95.311	-30.534	2.511	B5-03822-P04-CH0	311408	OK	0.741183	-0.3119261	0.5944324	0	-120.459	-38.569	8.454	B5-03822-P04-CH1	311408	OK	0.7378701	-0.6725747	0.0564892	0	-108.4	-44.83	0.4	NA
0.6994422994423	B5-03822-P01-CH0	311416	OK	0.2261204	0.0228703	0.0559834	-0.9722203	102.23	-22.353	-236.645	B5-03822-P02-CH0	311416	OK	0.8521619	0.1086647	-0.5118712	0	-77.151	-97.162	8.038	B5-03822-P02-CH1	311416	OK	0.8509452	-0.1648811	-0.4987048	0	-79.713	-77.155	5.434	B5-03822-P03-CH0	311416	OK	0.8149859	-0.3585555	-0.4552317	0	-90.409	-56.572	9.081	B5-03822-P03-CH1	311416	OK	0.7782088	-0.5608186	-0.2826191	0	-95.267	-30.471	2.474	B5-03822-P04-CH0	311416	OK	0.7411397	-0.3131657	0.5938343	0	-120.346	-38.536	8.526	B5-03822-P04-CH1	311416	OK	0.7378201	-0.6726843	0.0558324	0	-108.426	-44.697	0.328	NA
0.709434332291475	B5-03822-P01-CH0	311424	OK	0.2259216	0.0228643	0.0560629	-0.9722621	102.176	-22.429	-236.643	B5-03822-P02-CH0	311424	OK	0.8497922	0.1073506	-0.5160708	0	-76.466	-96.718	7.726	B5-03822-P02-CH1	311424	OK	0.8476363	-0.1700474	-0.50259	0	-79.712	-77.456	4.924	B5-03822-P03-CH0	311424	OK	0.8137229	-0.3604192	-0.4560187	0	-90.452	-56.213	8.66	B5-03822-P03-CH1	311424	OK	0.7785197	-0.5602896	-0.2828119	0	-95.161	-30.448	2.379	B5-03822-P04-CH0	311424	OK	0.7412682	-0.3141086	0.5931756	0	-120.234	-38.537	8.659	B5-03822-P04-CH1	311424	OK	0.7379489	-0.6725943	0.0552117	0	-108.41	-44.529	0.18	NA
0.719426365140651	B5-03822-P01-CH0	311432	OK	0.2257314	0.0227556	0.056123	-0.9723054	102.108	-22.533	-236.655	B5-03822-P02-CH0	311432	OK	0.8463334	0.1050595	-0.5221899	0	-76.261	-96.628	7.067	B5-03822-P02-CH1	311432	OK	0.8456849	-0.1748892	-0.5042131	0	-79.48	-76.991	4.836	B5-03822-P03-CH0	311432	OK	0.8133648	-0.3625348	-0.4549794	0	-89.634	-56.211	8.498	B5-03822-P03-CH1	311432	OK	0.778808	-0.5598092	-0.2829696	0	-95.121	-30.459	2.287	B5-03822-P04-CH0	311432	OK	0.7416476	-0.3145925	0.5924445	0	-120.229	-38.599	8.899	B5-03822-P04-CH1	311432	OK	0.7379629	-0.6726126	0.0548002	0	-108.316	-44.547	0.414	NA
0.729418397989827	B5-03822-P01-CH0	311440	OK	0.2254638	0.0227795	0.0564315	-0.972349	102.09	-22.637	-236.664	B5-03822-P02-CH0	311440	OK	0.8425992	0.1010566	-0.5289746	0	-76.1	-96.927	7.267	B5-03822-P02-CH1	311440	OK	0.8438972	-0.1803869	-0.5052703	0	-79.38	-76.459	5.5	B5-03822-P03-CH0	311440	OK	0.8110776	-0.3640178	-0.4578692	0	-89.742	-56.06	7.606	B5-03822-P03-CH1	311440	OK	0.7791382	-0.5592582	-0.28315	0	-95.161	-30.479	2.285	B5-03822-P04-CH0	311440	OK	0.7418424	-0.3158854	0.5915119	0	-120.089	-38.429	8.702	B5-03822-P04-CH1	311440	OK	0.7383086	-0.6723004	0.0539689	0	-108.49	-44.378	0.307	NA
0.739410430839002	B5-03822-P01-CH0	311448	OK	0.2252987	0.0228034	0.056489	-0.9723834	102.026	-22.7	-236.609	B5-03822-P02-CH0	311448	OK	0.8395558	0.0972632	-0.5344959	0	-75.664	-96.768	6.678	B5-03822-P02-CH1	311448	OK	0.8426641	-0.1876756	-0.5046733	0	-79.155	-76.599	5.313	B5-03822-P03-CH0	311448	OK	0.8095969	-0.3664737	-0.4585301	0	-88.918	-56.177	7.738	B5-03822-P03-CH1	311448	OK	0.7793154	-0.5589702	-0.2832311	0	-95.152	-30.482	2.241	B5-03822-P04-CH0	311448	OK	0.7420771	-0.3168627	0.5906942	0	-119.999	-38.281	8.531	B5-03822-P04-CH1	311448	OK	0.7382171	-0.6724376	0.053509	0	-108.402	-44.413	0.437	NA
0.749402463688178	B5-03822-P01-CH0	311456	OK	0.2248061	0.0230234	0.0557678	-0.9725339	102.002	-22.785	-236.572	B5-03822-P02-CH0	311456	OK	0.8369443	0.0947208	-0.5390289	0	-75.305	-96.425	6.557	B5-03822-P02-CH1	311456	OK	0.8418392	-0.1902491	-0.5050862	0	-78.966	-76.185	5.201	B5-03822-P03-CH0	311456	OK	0.807327	-0.3683438	-0.4610272	0	-88.756	-56.002	8.038	B5-03822-P03-CH1	311456	OK	0.7790022	-0.559143	-0.2837511	0	-95.202	-30.449	2.267	B5-03822-P04-CH0	311456	OK	0.7422132	-0.3177307	0.5900567	0	-120.075	-38.244	8.665	B5-03822-P04-CH1	311456	OK	0.7377387	-0.6730251	0.0527156	0	-108.363	-44.3	0.623	NA
0.759394496537354	B5-03822-P01-CH0	311464	OK	0.2246287	0.0231729	0.0551714	-0.9726053	101.986	-22.948	-236.509	B5-03822-P02-CH0	311464	OK	0.8342073	0.0924108	-0.5436528	0	-74.952	-96.246	7.399	B5-03822-P02-CH1	311464	OK	0.8393853	-0.1916695	-0.5086207	0	-79.451	-75.851	5.345	B5-03822-P03-CH0	311464	OK	0.8047123	-0.371108	-0.4633756	0	-89.227	-55.788	8.348	B5-03822-P03-CH1	311464	OK	0.7788404	-0.5592986	-0.2838885	0	-95.089	-30.592	2.385	B5-03822-P04-CH0	311464	OK	0.7421844	-0.318967	0.5894255	0	-119.984	-38.115	8.555	B5-03822-P04-CH1	311464	OK	0.7375183	-0.6733256	0.0519552	0	-108.372	-44.194	0.607	NA
0.769386529386529	B5-03822-P01-CH0	311472	OK	0.2243997	0.0233964	0.0547851	-0.9726746	102.005	-23.077	-236.402	B5-03822-P02-CH0	311472	OK	0.8321831	0.0910529	-0.5469741	0	-74.485	-95.968	6.732	B5-03822-P02-CH1	311472	OK	0.8377177	-0.192854	-0.5109172	0	-79.234	-75.938	5.437	B5-03822-P03-CH0	311472	OK	0.8032226	-0.3739638	-0.4636643	0	-89.535	-55.696	7.84	B5-03822-P03-CH1	311472	OK	0.7786826	-0.5593693	-0.284182	0	-95.124	-30.652	2.388	B5-03822-P04-CH0	311472	OK	0.7422748	-0.3200359	0.5887318	0	-120.013	-37.993	8.308	B5-03822-P04-CH1	311472	OK	0.7371653	-0.6737511	0.0514464	0	-108.37	-44.268	0.751	NA
0.779378562235705	B5-03822-P01-CH0	311480	OK	0.2243614	0.0234325	0.0548423	-0.9726794	102.016	-23.146	-236.443	B5-03822-P02-CH0	311480	OK	0.8312595	0.0901164	-0.5485315	0	-74.036	-95.92	5.425	B5-03822-P02-CH1	311480	OK	0.8362851	-0.1932234	-0.5131198	0	-78.981	-76.091	5.094	B5-03822-P03-CH0	311480	OK	0.8033413	-0.3767073	-0.4612314	0	-89.455	-55.829	7.63	B5-03822-P03-CH1	311480	OK	0.7788806	-0.559167	-0.2840375	0	-95.043	-30.699	2.449	B5-03822-P04-CH0	311480	OK	0.7423227	-0.3208848	0.5882091	0	-119.989	-37.867	8.187	B5-03822-P04-CH1	311480	OK	0.7371637	-0.6737796	0.0510947	0	-108.385	-44.307	0.845	NA
0.789370595084881	B5-03822-P01-CH0	311488	OK	0.2245318	0.0233446	0.0548768	-0.9726402	101.978	-23.24	-236.406	B5-03822-P02-CH0	311488	OK	0.8295305	0.0872264	-0.5516073	0	-74.003	-96.418	5.176	B5-03822-P02-CH1	311488	OK	0.8346247	-0.1920612	-0.5162501	0	-78.529	-76.004	5.438	B5-03822-P03-CH0	311488	OK	0.8046013	-0.3790883	-0.4570654	0	-89.181	-55.657	7.73	B5-03822-P03-CH1	311488	OK	0.7790755	-0.55895	-0.2839301	0	-94.991	-30.724	2.423	B5-03822-P04-CH0	311488	OK	0.7423361	-0.3211877	0.5880268	0	-119.931	-37.857	8.108	B5-03822-P04-CH1	311488	OK	0.7372971	-0.6736561	0.050798	0	-108.351	-44.272	0.899	NA
0.799362627934057	B5-03822-P01-CH0	311496	OK	0.2247146	0.0233212	0.0553833	-0.9725699	102.007	-23.235	-236.398	B5-03822-P02-CH0	311496	OK	0.827676	0.0862422	-0.5545401	0	-73.9	-96.49	5.531	B5-03822-P02-CH1	311496	OK	0.830918	-0.190201	-0.5228756	0	-78.903	-76.189	4.806	B5-03822-P03-CH0	311496	OK	0.8059475	-0.3818291	-0.4523883	0	-89.309	-55.736	7.815	B5-03822-P03-CH1	311496	OK	0.779456	-0.5584604	-0.2838492	0	-94.982	-30.771	2.48	B5-03822-P04-CH0	311496	OK	0.7425824	-0.3210371	0.5877981	0	-119.955	-37.951	8.254	B5-03822-P04-CH1	311496	OK	0.7376917	-0.6732211	0.0508365	0	-108.305	-44.271	0.975	NA
0.809354660783232	B5-03822-P01-CH0	311504	OK	0.2248724	0.0232898	0.0554221	-0.9725319	102.032	-23.261	-236.392	B5-03822-P02-CH0	311504	OK	0.826714	0.0891574	-0.5555131	0	-73.239	-95.797	5.604	B5-03822-P02-CH1	311504	OK	0.8301397	-0.1887747	-0.5246257	0	-77.916	-76.146	4.719	B5-03822-P03-CH0	311504	OK	0.8079735	-0.3858104	-0.4453416	0	-88.92	-56.213	7.991	B5-03822-P03-CH1	311504	OK	0.7795867	-0.5581246	-0.2841505	0	-94.996	-30.831	2.662	B5-03822-P04-CH0	311504	OK	0.7426171	-0.3210396	0.5877529	0	-119.948	-37.987	8.381	B5-03822-P04-CH1	311504	OK	0.7377244	-0.6731839	0.0508536	0	-108.372	-44.294	0.957	NA
0.819346693632408	B5-03822-P01-CH0	311512	OK	0.2250119	0.0233403	0.0553326	-0.9725036	102.066	-23.288	-236.394	B5-03822-P02-CH0	311512	OK	0.8245012	0.0887038	-0.5588643	0	-73.07	-96.079	5.466	B5-03822-P02-CH1	311512	OK	0.8266586	-0.1885624	-0.5301696	0	-77.999	-76.337	4.817	B5-03822-P03-CH0	311512	OK	0.8086674	-0.3886147	-0.4416284	0	-89.449	-56.206	7.606	B5-03822-P03-CH1	311512	OK	0.7796712	-0.5578114	-0.2845335	0	-94.965	-30.851	2.745	B5-03822-P04-CH0	311512	OK	0.7425447	-0.3214398	0.5876256	0	-119.898	-37.832	8.216	B5-03822-P04-CH1	311512	OK	0.7378366	-0.6730781	0.0506267	0	-108.328	-44.208	1.027	NA
0.829338726481584	B5-03822-P01-CH0	311520	OK	0.225189	0.0234574	0.0548871	-0.972485	102.122	-23.344	-236.409	B5-03822-P02-CH0	311520	OK	0.8218921	0.0877948	-0.5628369	0	-72.902	-96.273	5.361	B5-03822-P02-CH1	311520	OK	0.8230163	-0.1886705	-0.5357683	0	-77.971	-76.387	4.554	B5-03822-P03-CH0	311520	OK	0.8097744	-0.391163	-0.4373293	0	-89.384	-56.372	7.765	B5-03822-P03-CH1	311520	OK	0.7795589	-0.5577006	-0.2850579	0	-94.968	-30.891	2.829	B5-03822-P04-CH0	311520	OK	0.7424703	-0.3212505	0.587823	0	-119.886	-37.887	8.408	B5-03822-P04-CH1	311520	OK	0.7375327	-0.6734067	0.0506845	0	-108.257	-44.303	1.108	NA
0.839330759330759	B5-03822-P01-CH0	311528	OK	0.2254856	0.0233623	0.0551953	-0.9724011	102.144	-23.336	-236.426	B5-03822-P02-CH0	311528	OK	0.8188862	0.0876558	-0.5672229	0	-72.8	-96.386	5.278	B5-03822-P02-CH1	311528	OK	0.8210898	-0.1897626	-0.5383323	0	-77.302	-76.064	3.993	B5-03822-P03-CH0	311528	OK	0.8113231	-0.3935439	-0.4322939	0	-89.315	-56.557	8.286	B5-03822-P03-CH1	311528	OK	0.7798704	-0.5571348	-0.285312	0	-95.005	-30.872	2.901	B5-03822-P04-CH0	311528	OK	0.7425411	-0.3203078	0.588248	0	-119.891	-38.125	8.614	B5-03822-P04-CH1	311528	OK	0.7378109	-0.6730726	0.0510718	0	-108.244	-44.339	1.096	NA
0.849322792179935	B5-03822-P01-CH0	311536	OK	0.225929	0.0236475	0.0555179	-0.9722729	102.281	-23.302	-236.36	B5-03822-P02-CH0	311536	OK	0.8160789	0.0882039	-0.5711702	0	-72.308	-96.295	4.637	B5-03822-P02-CH1	311536	OK	0.8171729	-0.1933155	-0.5430079	0	-77.562	-76.39	3.775	B5-03822-P03-CH0	311536	OK	0.8123628	-0.3974765	-0.4267073	0	-89.144	-56.819	8.374	B5-03822-P03-CH1	311536	OK	0.7800753	-0.5567351	-0.285532	0	-95.078	-30.91	2.918	B5-03822-P04-CH0	311536	OK	0.7428042	-0.3197478	0.5882205	0	-119.92	-38.077	8.513	B5-03822-P04-CH1	311536	OK	0.7381361	-0.672674	0.0516212	0	-108.376	-44.422	1.152	NA
0.859314825029111	B5-03822-P01-CH0	311544	OK	0.2261757	0.0237064	0.0555722	-0.972211	102.331	-23.266	-236.4	B5-03822-P02-CH0	311544	OK	0.8133318	0.0900219	-0.5747934	0	-71.722	-95.86	4.201	B5-03822-P02-CH1	311544	OK	0.8142254	-0.1946553	-0.5469426	0	-77.207	-76.48	4.105	B5-03822-P03-CH0	311544	OK	0.8126026	-0.4025574	-0.4214552	0	-89.228	-56.894	7.888	B5-03822-P03-CH1	311544	OK	0.7801455	-0.5564249	-0.2859446	0	-95.191	-30.835	2.962	B5-03822-P04-CH0	311544	OK	0.7430631	-0.3189119	0.5883472	0	-120.012	-38.172	8.718	B5-03822-P04-CH1	311544	OK	0.7381305	-0.672671	0.0517411	0	-108.326	-44.436	0.992	NA
0.869306857878287	B5-03822-P01-CH0	311552	OK	0.2265465	0.0238299	0.0558223	-0.9721074	102.41	-23.177	-236.422	B5-03822-P02-CH0	311552	OK	0.8098175	0.0900086	-0.5797362	0	-71.889	-96.274	4.953	B5-03822-P02-CH1	311552	OK	0.812872	-0.1943599	-0.5490568	0	-76.45	-76.183	4.103	B5-03822-P03-CH0	311552	OK	0.8122327	-0.4069183	-0.4179659	0	-89.497	-56.972	8.036	B5-03822-P03-CH1	311552	OK	0.7803437	-0.5561722	-0.2858953	0	-95.189	-30.828	3.006	B5-03822-P04-CH0	311552	OK	0.7433995	-0.3178785	0.5884814	0	-120.063	-38.3	9.086	B5-03822-P04-CH1	311552	OK	0.7383822	-0.6723554	0.0522483	0	-108.338	-44.448	1.127	NA
0.879298890727462	B5-03822-P01-CH0	311560	OK	0.2267923	0.0238044	0.055988	-0.9720411	102.426	-23.124	-236.429	B5-03822-P02-CH0	311560	OK	0.8079909	0.0915176	-0.582044	0	-71.491	-96.39	3.892	B5-03822-P02-CH1	311560	OK	0.8109804	-0.1925392	-0.5524848	0	-76.54	-76.325	3.736	B5-03822-P03-CH0	311560	OK	0.8119963	-0.4097023	-0.4156996	0	-89.672	-56.667	8.23	B5-03822-P03-CH1	311560	OK	0.7804987	-0.5557767	-0.2862414	0	-95.242	-30.776	3.011	B5-03822-P04-CH0	311560	OK	0.7437798	-0.3172257	0.5883532	0	-120.154	-38.364	9.158	B5-03822-P04-CH1	311560	OK	0.7385867	-0.6721017	0.0526216	0	-108.334	-44.502	1.356	NA
0.889290923576638	B5-03822-P01-CH0	311568	OK	0.2267665	0.0238868	0.0557175	-0.9720607	102.464	-23.111	-236.402	B5-03822-P02-CH0	311568	OK	0.8063396	0.0941154	-0.5839167	0	-71.55	-96.49	3.885	B5-03822-P02-CH1	311568	OK	0.8096718	-0.1894812	-0.5554533	0	-76.559	-76.394	3.75	B5-03822-P03-CH0	311568	OK	0.8114869	-0.4123113	-0.4141115	0	-89.636	-56.792	8.524	B5-03822-P03-CH1	311568	OK	0.7804099	-0.555578	-0.2868684	0	-95.287	-30.723	2.996	B5-03822-P04-CH0	311568	OK	0.743833	-0.3175049	0.5881353	0	-120.175	-38.345	9.116	B5-03822-P04-CH1	311568	OK	0.7384672	-0.6722196	0.0527922	0	-108.332	-44.526	1.387	NA
0.899282956425814	B5-03822-P01-CH0	311576	OK	0.2269339	0.0239149	0.0553412	-0.9720424	102.464	-23.126	-236.37	B5-03822-P02-CH0	311576	OK	0.8057553	0.0978625	-0.5841073	0	-71.603	-96.709	3.963	B5-03822-P02-CH1	311576	OK	0.808084	-0.1839607	-0.5596058	0	-76.906	-76.219	3.803	B5-03822-P03-CH0	311576	OK	0.8113813	-0.4137979	-0.4128337	0	-89.37	-56.707	8.154	B5-03822-P03-CH1	311576	OK	0.7803703	-0.5555393	-0.2870509	0	-95.221	-30.677	2.901	B5-03822-P04-CH0	311576	OK	0.7437548	-0.3179333	0.5880028	0	-120.122	-38.23	8.886	B5-03822-P04-CH1	311576	OK	0.7382857	-0.6723922	0.0531316	0	-108.268	-44.583	1.416	NA
0.909274989274989	B5-03822-P01-CH0	311584	OK	0.2270328	0.023875	0.0552502	-0.9720255	102.451	-23.076	-236.336	B5-03822-P02-CH0	311584	OK	0.8054456	0.1025968	-0.583722	0	-71.868	-96.927	4.861	B5-03822-P02-CH1	311584	OK	0.8070602	-0.1789282	-0.5627064	0	-76.982	-76.417	3.008	B5-03822-P03-CH0	311584	OK	0.8114616	-0.4153842	-0.411079	0	-89.025	-56.6	7.821	B5-03822-P03-CH1	311584	OK	0.7803738	-0.5554656	-0.2871839	0	-95.182	-30.661	2.862	B5-03822-P04-CH0	311584	OK	0.743682	-0.3184573	0.5878113	0	-120.119	-38.116	8.681	B5-03822-P04-CH1	311584	OK	0.738341	-0.6723133	0.0533616	0	-108.246	-44.612	1.696	NA
0.919267022124165	B5-03822-P01-CH0	311592	OK	0.2272229	0.0240552	0.0553293	-0.9719721	102.537	-23.008	-236.305	B5-03822-P02-CH0	311592	OK	0.8056875	0.1091115	-0.5822047	0	-71.606	-96.516	4.505	B5-03822-P02-CH1	311592	OK	0.8066045	-0.1756421	-0.5643926	0	-76.776	-76.114	4.028	B5-03822-P03-CH0	311592	OK	0.8105355	-0.4166988	-0.4115755	0	-89.278	-56.775	8.316	B5-03822-P03-CH1	311592	OK	0.780396	-0.5553773	-0.2872946	0	-95.27	-30.678	2.885	B5-03822-P04-CH0	311592	OK	0.7436791	-0.3188026	0.5876277	0	-120.204	-38.141	8.545	B5-03822-P04-CH1	311592	OK	0.7383467	-0.6722828	0.0536661	0	-108.374	-44.676	1.5	NA
0.929259054973341	B5-03822-P01-CH0	311600	OK	0.2274018	0.0241073	0.0555321	-0.9719174	102.582	-22.942	-236.229	B5-03822-P02-CH0	311600	OK	0.805413	0.1123089	-0.5819764	0	-71.631	-96.557	4.564	B5-03822-P02-CH1	311600	OK	0.8057212	-0.1737618	-0.5662333	0	-76.773	-76.335	4.054	B5-03822-P03-CH0	311600	OK	0.8109916	-0.4166473	-0.4107281	0	-88.837	-56.778	8.347	B5-03822-P03-CH1	311600	OK	0.7805936	-0.5550077	-0.2874718	0	-95.305	-30.584	2.686	B5-03822-P04-CH0	311600	OK	0.7438236	-0.3190526	0.5873091	0	-120.372	-38.164	8.432	B5-03822-P04-CH1	311600	OK	0.7385315	-0.672061	0.0539003	0	-108.37	-44.652	1.244	NA
0.939251087822516	B5-03822-P01-CH0	311608	OK	0.2273423	0.0242359	0.0548762	-0.9719654	102.646	-22.97	-236.21	B5-03822-P02-CH0	311608	OK	0.8054087	0.1141241	-0.5816292	0	-71.846	-96.434	5.005	B5-03822-P02-CH1	311608	OK	0.8062346	-0.1746743	-0.5652208	0	-76.325	-76.298	4.623	B5-03822-P03-CH0	311608	OK	0.8104121	-0.4155124	-0.4130153	0	-89.19	-56.796	8.637	B5-03822-P03-CH1	311608	OK	0.7804139	-0.5549348	-0.2880998	0	-95.276	-30.576	2.653	B5-03822-P04-CH0	311608	OK	0.7435011	-0.3204686	0.5869463	0	-120.406	-37.981	8.279	B5-03822-P04-CH1	311608	OK	0.7382729	-0.6723609	0.0537032	0	-108.391	-44.6	1.281	NA
0.949243120671692	B5-03822-P01-CH0	311616	OK	0.227424	0.0239378	0.0549012	-0.9719522	102.567	-22.909	-236.199	B5-03822-P02-CH0	311616	OK	0.8051615	0.1154606	-0.5817077	0	-72.114	-96.536	4.739	B5-03822-P02-CH1	311616	OK	0.8054352	-0.172803	-0.5669332	0	-76.34	-76.655	3.755	B5-03822-P03-CH0	311616	OK	0.8103122	-0.4132421	-0.4154818	0	-89.563	-56.732	8.385	B5-03822-P03-CH1	311616	OK	0.780638	-0.5544474	-0.2884308	0	-95.216	-30.499	2.516	B5-03822-P04-CH0	311616	OK	0.7430415	-0.3218564	0.586769	0	-120.25	-37.751	8.149	B5-03822-P04-CH1	311616	OK	0.7382717	-0.6723544	0.0537998	0	-108.245	-44.612	1.31	NA
0.959235153520868	B5-03822-P01-CH0	311624	OK	0.2274621	0.0239803	0.0547905	-0.9719485	102.616	-22.853	-236.141	B5-03822-P02-CH0	311624	OK	0.8051005	0.1176109	-0.5813611	0	-72.348	-96.408	5.302	B5-03822-P02-CH1	311624	OK	0.8058791	-0.1693568	-0.5673422	0	-76.082	-76.444	3.52	B5-03822-P03-CH0	311624	OK	0.8113267	-0.4114472	-0.4152833	0	-89.242	-56.893	8.56	B5-03822-P03-CH1	311624	OK	0.7807379	-0.5540559	-0.2889123	0	-95.152	-30.52	2.446	B5-03822-P04-CH0	311624	OK	0.7426409	-0.3228301	0.5867412	0	-120.26	-37.834	8.19	B5-03822-P04-CH1	311624	OK	0.7381954	-0.6724163	0.054073	0	-108.31	-44.705	1.614	NA
0.969227186370044	B5-03822-P01-CH0	311632	OK	0.2275771	0.023968	0.0547964	-0.9719216	102.679	-22.78	-236.191	B5-03822-P02-CH0	311632	OK	0.8065349	0.1193809	-0.5790075	0	-72.365	-96.621	4.544	B5-03822-P02-CH1	311632	OK	0.8057116	-0.1641299	-0.5691135	0	-76.482	-76.22	3.627	B5-03822-P03-CH0	311632	OK	0.8129275	-0.4083748	-0.4151853	0	-89.297	-56.807	9.292	B5-03822-P03-CH1	311632	OK	0.7809101	-0.5534942	-0.289523	0	-95.215	-30.465	2.471	B5-03822-P04-CH0	311632	OK	0.7422916	-0.3240302	0.5865217	0	-120.322	-37.761	8.038	B5-03822-P04-CH1	311632	OK	0.7382567	-0.6723287	0.0543249	0	-108.376	-44.748	1.821	NA
0.979219219219219	B5-03822-P01-CH0	311640	OK	0.2277202	0.0241257	0.0546995	-0.9718896	102.785	-22.745	-236.126	B5-03822-P02-CH0	311640	OK	0.8077683	0.1208872	-0.576972	0	-72.813	-97.037	5.202	B5-03822-P02-CH1	311640	OK	0.8054767	-0.1600248	-0.5706132	0	-76.582	-76.804	3.726	B5-03822-P03-CH0	311640	OK	0.8139182	-0.4066693	-0.4149184	0	-89.317	-57.027	8.709	B5-03822-P03-CH1	311640	OK	0.7809699	-0.5531997	-0.2899243	0	-95.255	-30.511	2.406	B5-03822-P04-CH0	311640	OK	0.7418356	-0.3252414	0.5864281	0	-120.331	-37.69	7.896	B5-03822-P04-CH1	311640	OK	0.738189	-0.6723982	0.0543835	0	-108.54	-44.793	1.887	NA
0.989211252068395	B5-03822-P01-CH0	311648	OK	0.2279646	0.0242202	0.054793	-0.9718247	102.863	-22.637	-236.138	B5-03822-P02-CH0	311648	OK	0.8089945	0.1245956	-0.5744596	0	-72.95	-97.17	4.691	B5-03822-P02-CH1	311648	OK	0.8038637	-0.1562888	-0.5739137	0	-76.955	-76.63	3.569	B5-03822-P03-CH0	311648	OK	0.8144435	-0.4059377	-0.4146039	0	-89.484	-57.132	8.291	B5-03822-P03-CH1	311648	OK	0.7810868	-0.5528319	-0.2903108	0	-95.303	-30.499	2.43	B5-03822-P04-CH0	311648	OK	0.7393949	-0.3310541	0.5862579	0	-120.065	-37.74	8.032	B5-03822-P04-CH1	311648	OK	0.7381265	-0.6724609	0.054457	0	-108.546	-44.812	1.764	NA
0.999203284917571	B5-03822-P01-CH0	311656	OK	0.2281677	0.024249	0.0547257	-0.9717801	102.924	-22.559	-236.159	B5-03822-P02-CH0	311656	OK	0.8101704	0.1288398	-0.5718603	0	-72.784	-96.663	4.729	B5-03822-P02-CH1	311656	OK	0.8027619	-0.1542032	-0.5760162	0	-76.272	-76.605	3.972	B5-03822-P03-CH0	311656	OK	0.8147533	-0.4057255	-0.4142027	0	-89.59	-57.158	8.343	B5-03822-P03-CH1	311656	OK	0.7810163	-0.5526209	-0.2909014	0	-95.399	-30.527	2.46	B5-03822-P04-CH0	311656	OK	0.741025	-0.3273146	0.5862995	0	-120.322	-37.546	7.885	B5-03822-P04-CH1	311656	OK	0.7380813	-0.6725144	0.054409	0	-108.515	-44.755	1.638	NA
1.00919531776675	B5-03822-P01-CH0	311664	OK	0.2284243	0.0244102	0.0547395	-0.971715	103.035	-22.517	-236.166	B5-03822-P02-CH0	311664	OK	0.8091388	0.1305261	-0.5729374	0	-73.5	-97.273	5.395	B5-03822-P02-CH1	311664	OK	0.8004462	-0.1530545	-0.5795345	0	-76.046	-76.375	2.693	B5-03822-P03-CH0	311664	OK	0.8149365	-0.4052156	-0.4143414	0	-89.566	-57.356	9.047	B5-03822-P03-CH1	311664	OK	0.7810325	-0.5523822	-0.291311	0	-95.442	-30.591	2.526	B5-03822-P04-CH0	311664	OK	0.740806	-0.3277852	0.5863134	0	-120.388	-37.728	8.093	B5-03822-P04-CH1	311664	OK	0.7380963	-0.6724875	0.0545384	0	-108.58	-44.796	1.768	NA
1.01918735061592	B5-03822-P01-CH0	311672	OK	0.2286721	0.0242035	0.0548202	-0.9716573	103.028	-22.499	-236.168	B5-03822-P02-CH0	311672	OK	0.8096981	0.1334779	-0.5714653	0	-73.177	-96.705	5.976	B5-03822-P02-CH1	311672	OK	0.7984012	-0.151692	-0.582705	0	-76.285	-76.437	3.423	B5-03822-P03-CH0	311672	OK	0.8146996	-0.4046086	-0.4153991	0	-89.477	-57.52	8.999	B5-03822-P03-CH1	311672	OK	0.7811364	-0.55214	-0.2914917	0	-95.36	-30.664	2.533	B5-03822-P04-CH0	311672	OK	0.7404426	-0.3283684	0.586446	0	-120.33	-37.833	8.158	B5-03822-P04-CH1	311672	OK	0.7380579	-0.6725149	0.0547199	0	-108.429	-44.894	1.844	NA
1.0291793834651	B5-03822-P01-CH0	311680	OK	0.2288206	0.0242884	0.0545429	-0.9716359	103.079	-22.445	-236.188	B5-03822-P02-CH0	311680	OK	0.8096126	0.1339327	-0.57148	0	-73.514	-96.889	6.072	B5-03822-P02-CH1	311680	OK	0.7983504	-0.1504331	-0.5831008	0	-76.085	-76.57	3.825	B5-03822-P03-CH0	311680	OK	0.814908	-0.4032796	-0.4162818	0	-89.316	-57.428	8.957	B5-03822-P03-CH1	311680	OK	0.7808975	-0.5522765	-0.2918729	0	-95.393	-30.729	2.686	B5-03822-P04-CH0	311680	OK	0.7400692	-0.3290472	0.5865368	0	-120.32	-37.871	8.293	B5-03822-P04-CH1	311680	OK	0.7377247	-0.6728808	0.0547147	0	-108.472	-44.964	1.975	NA
1.03917141631427	B5-03822-P01-CH0	311688	OK	0.2291498	0.0243535	0.0548116	-0.9715415	103.126	-22.342	-236.168	B5-03822-P02-CH0	311688	OK	0.8097811	0.1343316	-0.5711477	0	-73.721	-97.366	5.222	B5-03822-P02-CH1	311688	OK	0.7986206	-0.1487365	-0.583166	0	-75.948	-76.725	2.933	B5-03822-P03-CH0	311688	OK	0.8146916	-0.4013685	-0.4185462	0	-89.699	-57.133	8.25	B5-03822-P03-CH1	311688	OK	0.7809388	-0.5523022	-0.2917138	0	-95.374	-30.745	2.655	B5-03822-P04-CH0	311688	OK	0.7399589	-0.3293754	0.5864918	0	-120.319	-37.867	8.389	B5-03822-P04-CH1	311688	OK	0.7378057	-0.6727793	0.0548707	0	-108.465	-44.969	1.827	NA
1.04916344916345	B5-03822-P01-CH0	311696	OK	0.22945	0.0243859	0.0550403	-0.971457	103.183	-22.249	-236.197	B5-03822-P02-CH0	311696	OK	0.8104756	0.1356605	-0.569847	0	-73.674	-97.267	4.929	B5-03822-P02-CH1	311696	OK	0.7985514	-0.1460085	-0.5839497	0	-76.108	-76.941	2.786	B5-03822-P03-CH0	311696	OK	0.8146629	-0.3998764	-0.4200276	0	-89.992	-57.185	8.432	B5-03822-P03-CH1	311696	OK	0.7809904	-0.5522565	-0.291662	0	-95.387	-30.742	2.794	B5-03822-P04-CH0	311696	OK	0.7399441	-0.3294123	0.5864898	0	-120.419	-38.002	8.442	B5-03822-P04-CH1	311696	OK	0.7379054	-0.6726724	0.0548401	0	-108.474	-44.903	1.512	NA
1.05915548201262	B5-03822-P01-CH0	311704	OK	0.2297995	0.0243892	0.0553353	-0.9713575	103.233	-22.157	-236.248	B5-03822-P02-CH0	311704	OK	0.8116225	0.1358513	-0.5681667	0	-73.563	-97.255	4.789	B5-03822-P02-CH1	311704	OK	0.7989459	-0.1444596	-0.5837952	0	-76.255	-76.723	3.311	B5-03822-P03-CH0	311704	OK	0.8146736	-0.3993356	-0.4205211	0	-90.209	-57.496	8.716	B5-03822-P03-CH1	311704	OK	0.7810193	-0.5522745	-0.2915506	0	-95.489	-30.701	2.881	B5-03822-P04-CH0	311704	OK	0.739865	-0.3301284	0.5861868	0	-120.378	-37.796	8.287	B5-03822-P04-CH1	311704	OK	0.7381428	-0.6724066	0.0549052	0	-108.449	-44.83	1.407	NA
1.0691475148618	B5-03822-P01-CH0	311712	OK	0.2300586	0.0243533	0.0552046	-0.9713045	103.209	-22.152	-236.173	B5-03822-P02-CH0	311712	OK	0.8119084	0.1360426	-0.5677123	0	-73.939	-97.189	5.295	B5-03822-P02-CH1	311712	OK	0.7978844	-0.14208	-0.5858274	0	-76.58	-76.99	2.742	B5-03822-P03-CH0	311712	OK	0.8154568	-0.3986379	-0.4196642	0	-89.772	-57.702	9.036	B5-03822-P03-CH1	311712	OK	0.7808767	-0.5525815	-0.2913508	0	-95.427	-30.721	2.775	B5-03822-P04-CH0	311712	OK	0.7395414	-0.3307277	0.5862573	0	-120.227	-37.782	8.176	B5-03822-P04-CH1	311712	OK	0.7380237	-0.672526	0.0550447	0	-108.343	-44.848	1.293	NA
1.07913954771098	B5-03822-P01-CH0	311720	OK	0.2302522	0.0241853	0.0553193	-0.9712563	103.202	-22.154	-236.235	B5-03822-P02-CH0	311720	OK	0.8126446	0.137067	-0.5664109	0	-74.073	-97.178	5.88	B5-03822-P02-CH1	311720	OK	0.7983328	-0.1397605	-0.5857744	0	-76	-77.049	3.116	B5-03822-P03-CH0	311720	OK	0.815822	-0.3975426	-0.4199934	0	-89.75	-57.722	9.039	B5-03822-P03-CH1	311720	OK	0.7808815	-0.552616	-0.2912724	0	-95.358	-30.751	2.822	B5-03822-P04-CH0	311720	OK	0.7394063	-0.3311917	0.5861659	0	-120.137	-37.822	8.219	B5-03822-P04-CH1	311720	OK	0.7380829	-0.6724631	0.0550176	0	-108.257	-44.866	1.043	NA
1.08913158056015	B5-03822-P01-CH0	311728	OK	0.2305726	0.0241066	0.0555887	-0.9711668	103.226	-22.129	-236.252	B5-03822-P02-CH0	311728	OK	0.8133883	0.1384273	-0.565011	0	-74.148	-97.783	5.604	B5-03822-P02-CH1	311728	OK	0.7973724	-0.1376727	-0.5875742	0	-76.061	-76.75	3.257	B5-03822-P03-CH0	311728	OK	0.8162982	-0.3981546	-0.4184856	0	-89.407	-57.799	8.948	B5-03822-P03-CH1	311728	OK	0.7809557	-0.5527025	-0.2909091	0	-95.311	-30.842	2.874	B5-03822-P04-CH0	311728	OK	0.7394512	-0.3310025	0.5862161	0	-120.133	-38.04	8.368	B5-03822-P04-CH1	311728	OK	0.7382953	-0.6722201	0.0551385	0	-108.291	-44.854	0.846	NA
1.09912361340933	B5-03822-P01-CH0	311736	OK	0.2307439	0.0239612	0.0560391	-0.9711039	103.209	-22.081	-236.278	B5-03822-P02-CH0	311736	OK	0.8145617	0.1420564	-0.5624137	0	-73.932	-97.471	4.975	B5-03822-P02-CH1	311736	OK	0.7955616	-0.1361475	-0.5903775	0	-76.029	-76.838	2.64	B5-03822-P03-CH0	311736	OK	0.8157626	-0.4008534	-0.4169507	0	-89.575	-57.614	8.866	B5-03822-P03-CH1	311736	OK	0.781233	-0.5524977	-0.2905535	0	-95.219	-30.852	2.97	B5-03822-P04-CH0	311736	OK	0.7396168	-0.3313622	0.5858038	0	-120.085	-37.924	8.281	B5-03822-P04-CH1	311736	OK	0.7384668	-0.6720111	0.0553886	0	-108.26	-44.955	0.876	NA
1.1091156462585	B5-03822-P01-CH0	311744	OK	0.2307397	0.023964	0.0556816	-0.9711254	103.203	-22.061	-236.268	B5-03822-P02-CH0	311744	OK	0.8151143	0.143395	-0.5612723	0	-74.063	-97.704	4.804	B5-03822-P02-CH1	311744	OK	0.7945739	-0.1364809	-0.5916293	0	-75.645	-76.875	3.074	B5-03822-P03-CH0	311744	OK	0.8155364	-0.400654	-0.4175845	0	-89.571	-57.617	8.844	B5-03822-P03-CH1	311744	OK	0.7810281	-0.5527186	-0.2906842	0	-95.226	-30.782	2.902	B5-03822-P04-CH0	311744	OK	0.7395345	-0.3319068	0.5855994	0	-120.094	-37.854	8.229	B5-03822-P04-CH1	311744	OK	0.7383165	-0.672207	0.0550139	0	-108.199	-44.778	0.516	NA
