Wav.Time	B5.03822.P01.CH0	Frame	State	Q0	Qx	Qy	Qz	Tx	Ty	Tz	B5.03822.P02.CH0	Frame.1	State.1	Q0.1	Qx.1	Qy.1	Qz.1	Tx.1	Ty.1	Tz.1	B5.03822.P02.CH1	Frame.2	State.2	Q0.2	Qx.2	Qy.2	Qz.2	Tx.2	Ty.2	Tz.2	B5.03822.P03.CH0	Frame.3	State.3	Q0.3	Qx.3	Qy.3	Qz.3	Tx.3	Ty.3	Tz.3	B5.03822.P03.CH1	Frame.4	State.4	Q0.4	Qx.4	Qy.4	Qz.4	Tx.4	Ty.4	Tz.4	B5.03822.P04.CH0	Frame.5	State.5	Q0.5	Qx.5	Qy.5	Qz.5	Tx.5	Ty.5	Tz.5	B5.03822.P04.CH1	Frame.6	State.6	Q0.6	Qx.6	Qy.6	Qz.6	Tx.6	Ty.6	Tz.6	X
0	B5-03822-P01-CH0	486528	OK	0.2450592	0.0176287	0.0873044	-0.9654083	108.336	-28.816	-258.849	B5-03822-P02-CH0	486528	OK	0.6426944	0.5120048	-0.5699079	0	-73.669	-104.303	-3.006	B5-03822-P02-CH1	486528	OK	0.6704775	0.1812685	-0.7194454	0	-71.312	-84.747	-3.653	B5-03822-P03-CH0	486528	OK	0.8276598	-0.3225756	-0.4592648	0	-89.744	-65.62	0.331	B5-03822-P03-CH1	486528	OK	0.7445677	-0.6095905	0.2720632	0	-97.64	-15.402	-21.785	B5-03822-P04-CH0	486528	OK	0.7830959	-0.4227039	0.4561603	0	-118.824	-45.256	-1.94	B5-03822-P04-CH1	486528	OK	0.7179146	-0.6472701	0.2562034	0	-105.838	-40.427	-19.02	NA
0.00999192013970339	B5-03822-P01-CH0	486536	OK	0.2452723	0.0173923	0.08805	-0.9652907	108.272	-28.819	-258.916	B5-03822-P02-CH0	486536	OK	0.642126	0.5090592	-0.573178	0	-73.537	-103.678	-2.388	B5-03822-P02-CH1	486536	OK	0.6640907	0.1761943	-0.7265942	0	-70.799	-84.363	-3.39	B5-03822-P03-CH0	486536	OK	0.8274135	-0.3281406	-0.4557528	0	-89.669	-65.695	-0.138	B5-03822-P03-CH1	486536	OK	0.7448562	-0.6112701	0.267466	0	-97.606	-14.046	-22.175	B5-03822-P04-CH0	486536	OK	0.7856863	-0.4188191	0.4552884	0	-118.989	-46.597	-0.648	B5-03822-P04-CH1	486536	OK	0.718057	-0.6469861	0.2565212	0	-105.843	-40.606	-18.845	NA
0.0199838402794068	B5-03822-P01-CH0	486544	OK	0.2454012	0.0173056	0.0886622	-0.9652035	108.22	-28.786	-259.007	B5-03822-P02-CH0	486544	OK	0.6441597	0.5044744	-0.5749469	0	-72.86	-103.449	-3.065	B5-03822-P02-CH1	486544	OK	0.6590979	0.1701051	-0.7325669	0	-69.489	-83.535	-4.363	B5-03822-P03-CH0	486544	OK	0.8285764	-0.3340632	-0.4492916	0	-89.738	-65.999	0.281	B5-03822-P03-CH1	486544	OK	0.7441764	-0.6120064	0.2676747	0	-98.047	-14.544	-20.783	B5-03822-P04-CH0	486544	OK	0.7880556	-0.4144905	0.4551549	0	-118.484	-46.041	0.022	B5-03822-P04-CH1	486544	OK	0.7181741	-0.6467456	0.2567997	0	-105.859	-40.705	-18.629	NA
0.0299757604191102	B5-03822-P01-CH0	486552	OK	0.2456186	0.016971	0.0897143	-0.9650569	108.13	-28.721	-259.127	B5-03822-P02-CH0	486552	OK	0.6465793	0.5012119	-0.5750842	0	-73.034	-103.781	-2.491	B5-03822-P02-CH1	486552	OK	0.6542888	0.1665989	-0.7376659	0	-68.389	-82.13	-3.744	B5-03822-P03-CH0	486552	OK	0.8328451	-0.3449864	-0.4328435	0	-89.669	-65.328	-0.574	B5-03822-P03-CH1	486552	OK	0.7436961	-0.6121222	0.2687426	0	-98.919	-15.981	-18.949	B5-03822-P04-CH0	486552	OK	0.7901037	-0.4069273	0.4584173	0	-118.876	-47.099	0.832	B5-03822-P04-CH1	486552	OK	0.7188895	-0.6459512	0.2567976	0	-106.075	-40.529	-18.72	NA
0.0399676805588136	B5-03822-P01-CH0	486560	OK	0.2456472	0.0170308	0.0903334	-0.9649908	108.17	-28.748	-259.192	B5-03822-P02-CH0	486560	OK	0.6495065	0.5008082	-0.5721298	0	-73.281	-103.739	-3.346	B5-03822-P02-CH1	486560	OK	0.6493625	0.1718715	-0.7408026	0	-68.236	-82.487	-3.4	B5-03822-P03-CH0	486560	OK	0.83699	-0.3572203	-0.4145377	0	-89.637	-65.872	0.679	B5-03822-P03-CH1	486560	OK	0.7460568	-0.6123715	0.2615347	0	-98.092	-13.236	-21.703	B5-03822-P04-CH0	486560	OK	0.7914733	-0.4008753	0.4613774	0	-118.37	-46.209	-0.357	B5-03822-P04-CH1	486560	OK	0.7190524	-0.6456183	0.2571782	0	-106.119	-40.702	-18.316	NA
0.049959600698517	B5-03822-P01-CH0	486568	OK	0.2454185	0.0170904	0.0902245	-0.9650582	108.141	-28.83	-259.232	B5-03822-P02-CH0	486568	OK	0.6540294	0.5023801	-0.5655614	0	-72.907	-103.269	-3.968	B5-03822-P02-CH1	486568	OK	0.645723	0.1832452	-0.7412578	0	-68.159	-82.648	-3.658	B5-03822-P03-CH0	486568	OK	0.8407922	-0.3689209	-0.3961892	0	-89.244	-67.356	0.853	B5-03822-P03-CH1	486568	OK	0.7468414	-0.6125619	0.2588354	0	-98.086	-13.254	-21.777	B5-03822-P04-CH0	486568	OK	0.7922571	-0.3944621	0.465541	0	-118.255	-46.145	-0.274	B5-03822-P04-CH1	486568	OK	0.7190967	-0.6457693	0.2566749	0	-106.198	-40.418	-18.63	NA
0.0599515208382203	B5-03822-P01-CH0	486576	OK	0.2451303	0.0173146	0.0898191	-0.9651652	108.151	-28.905	-259.236	B5-03822-P02-CH0	486576	OK	0.6590243	0.5033826	-0.5588318	0	-73.56	-103.789	-3.255	B5-03822-P02-CH1	486576	OK	0.6462049	0.1976816	-0.7371168	0	-68.167	-82.784	-3.879	B5-03822-P03-CH0	486576	OK	0.846211	-0.3774378	-0.3761218	0	-89.283	-67.922	0.476	B5-03822-P03-CH1	486576	OK	0.7493927	-0.6117033	0.2534359	0	-97.641	-11.84	-23.587	B5-03822-P04-CH0	486576	OK	0.7931755	-0.3846844	0.4721129	0	-119.014	-47.369	2.181	B5-03822-P04-CH1	486576	OK	0.7184999	-0.6460597	0.2576134	0	-106.44	-40.816	-18.239	NA
0.0699434409779237	B5-03822-P01-CH0	486584	OK	0.2448071	0.0171762	0.0895538	-0.9652744	108.01	-28.947	-259.207	B5-03822-P02-CH0	486584	OK	0.6633583	0.502329	-0.5546362	0	-74.46	-103.694	-2.994	B5-03822-P02-CH1	486584	OK	0.6513169	0.2109593	-0.7288912	0	-68.262	-84.031	-3.775	B5-03822-P03-CH0	486584	OK	0.8550946	-0.3856657	-0.3465187	0	-88.969	-68.751	1.783	B5-03822-P03-CH1	486584	OK	0.7499016	-0.6108448	0.2540005	0	-98.323	-13.97	-21.324	B5-03822-P04-CH0	486584	OK	0.7921487	-0.3762603	0.4805503	0	-119.947	-49.041	2.281	B5-03822-P04-CH1	486584	OK	0.7184595	-0.645917	0.2580837	0	-106.633	-40.629	-18.415	NA
0.0799353611176271	B5-03822-P01-CH0	486592	OK	0.2446697	0.0170554	0.0898215	-0.9652865	107.953	-28.984	-259.239	B5-03822-P02-CH0	486592	OK	0.6684264	0.5001343	-0.5505196	0	-74.96	-103.831	-3.174	B5-03822-P02-CH1	486592	OK	0.6557922	0.2195322	-0.7223172	0	-68.905	-84.114	-3.572	B5-03822-P03-CH0	486592	OK	0.8643092	-0.3946138	-0.3118485	0	-88.86	-69.843	3.025	B5-03822-P03-CH1	486592	OK	0.7516531	-0.6087806	0.253779	0	-98.696	-15.278	-19.537	B5-03822-P04-CH0	486592	OK	0.790552	-0.371113	0.4871372	0	-120.966	-49.75	0.407	B5-03822-P04-CH1	486592	OK	0.7188419	-0.6451257	0.2589966	0	-106.916	-40.583	-18.286	NA
0.0899272812573305	B5-03822-P01-CH0	486600	OK	0.2445985	0.0169928	0.0900092	-0.9652881	107.91	-28.946	-259.288	B5-03822-P02-CH0	486600	OK	0.674166	0.4983536	-0.5451091	0	-74.85	-103.617	-4.106	B5-03822-P02-CH1	486600	OK	0.6578531	0.2315602	-0.7166653	0	-70	-84.441	-3.024	B5-03822-P03-CH0	486600	OK	0.8695982	-0.4027135	-0.2856936	0	-89.047	-70.258	3.052	B5-03822-P03-CH1	486600	OK	0.7515962	-0.609139	0.2530866	0	-98.755	-16.863	-19.404	B5-03822-P04-CH0	486600	OK	0.7897273	-0.3657995	0.4924647	0	-121.946	-51.633	2.815	B5-03822-P04-CH1	486600	OK	0.7190927	-0.6445171	0.2598141	0	-106.931	-40.446	-18.28	NA
0.0999192013970339	B5-03822-P01-CH0	486608	OK	0.2444276	0.0167101	0.0899676	-0.9653402	107.782	-29.007	-259.295	B5-03822-P02-CH0	486608	OK	0.678869	0.4991168	-0.5385344	0	-75.2	-103.799	-3.923	B5-03822-P02-CH1	486608	OK	0.6596402	0.2482564	-0.7093967	0	-70.039	-84.725	-2.741	B5-03822-P03-CH0	486608	OK	0.8714883	-0.4076275	-0.2726681	0	-89.052	-70.72	3.204	B5-03822-P03-CH1	486608	OK	0.7507853	-0.6095064	0.2546045	0	-99.034	-18.963	-17.114	B5-03822-P04-CH0	486608	OK	0.7879493	-0.3642474	0.4964471	0	-121.496	-50.76	1.952	B5-03822-P04-CH1	486608	OK	0.7190207	-0.6440689	0.2611217	0	-106.974	-40.57	-18.323	NA
0.109911121536737	B5-03822-P01-CH0	486616	OK	0.2441268	0.0165542	0.0899967	-0.9654163	107.685	-29	-259.284	B5-03822-P02-CH0	486616	OK	0.6833837	0.5003796	-0.5316079	0	-75.507	-103.827	-5.605	B5-03822-P02-CH1	486616	OK	0.6624938	0.2616626	-0.7018794	0	-69.758	-85.09	-3.481	B5-03822-P03-CH0	486616	OK	0.8730439	-0.40985	-0.2642296	0	-88.693	-70.46	3.363	B5-03822-P03-CH1	486616	OK	0.7525418	-0.6100751	0.2479703	0	-98.841	-16.138	-21.114	B5-03822-P04-CH0	486616	OK	0.7862638	-0.3641826	0.4991596	0	-121.483	-50.468	0.074	B5-03822-P04-CH1	486616	OK	0.7194159	-0.6433664	0.261764	0	-107.206	-40.228	-18.818	NA
0.119903041676441	B5-03822-P01-CH0	486624	OK	0.2438527	0.016523	0.089971	-0.9654885	107.633	-29.011	-259.191	B5-03822-P02-CH0	486624	OK	0.6868451	0.5018339	-0.5257438	0	-75.711	-104.035	-5.386	B5-03822-P02-CH1	486624	OK	0.6650417	0.2693189	-0.6965536	0	-69.334	-84.578	-4.182	B5-03822-P03-CH0	486624	OK	0.8733521	-0.411745	-0.2602347	0	-88.824	-70.433	2.988	B5-03822-P03-CH1	486624	OK	0.7519764	-0.611672	0.2457414	0	-97.886	-15.875	-21.365	B5-03822-P04-CH0	486624	OK	0.7871524	-0.3640939	0.497822	0	-121.368	-48.743	-0.467	B5-03822-P04-CH1	486624	OK	0.7198251	-0.6429138	0.2617512	0	-107.349	-39.738	-19.811	NA
0.129894961816144	B5-03822-P01-CH0	486632	OK	0.2434857	0.0167017	0.0894323	-0.9656281	107.619	-29.023	-259.158	B5-03822-P02-CH0	486632	OK	0.687367	0.504761	-0.522248	0	-76.46	-103.86	-4.813	B5-03822-P02-CH1	486632	OK	0.6662714	0.2733202	-0.6938145	0	-69.382	-84.086	-3.927	B5-03822-P03-CH0	486632	OK	0.8736764	-0.4116293	-0.2593277	0	-88.381	-70.911	3.191	B5-03822-P03-CH1	486632	OK	0.7519585	-0.6131836	0.2420004	0	-97.706	-15.336	-21.452	B5-03822-P04-CH0	486632	OK	0.7882696	-0.3634234	0.4965426	0	-122.165	-49.66	-1.138	B5-03822-P04-CH1	486632	OK	0.7195112	-0.6426757	0.2631951	0	-107.55	-39.926	-19.547	NA
0.139886881955847	B5-03822-P01-CH0	486640	OK	0.2431824	0.0165016	0.0890538	-0.965743	107.477	-29.048	-259.121	B5-03822-P02-CH0	486640	OK	0.6877523	0.5087498	-0.5178518	0	-77.205	-104.239	-4.292	B5-03822-P02-CH1	486640	OK	0.6666858	0.2753812	-0.6926003	0	-70.287	-84.969	-2.931	B5-03822-P03-CH0	486640	OK	0.8731563	-0.4073223	-0.2677437	0	-88.73	-70.884	3.725	B5-03822-P03-CH1	486640	OK	0.7507004	-0.6141531	0.2434437	0	-98.571	-16.881	-20.017	B5-03822-P04-CH0	486640	OK	0.7888741	-0.3653853	0.4941368	0	-121.506	-50.869	0.924	B5-03822-P04-CH1	486640	OK	0.7190333	-0.6425274	0.2648578	0	-107.631	-40.278	-19.526	NA
0.149878802095551	B5-03822-P01-CH0	486648	OK	0.2431313	0.0164542	0.0891335	-0.9657493	107.441	-29.035	-259.119	B5-03822-P02-CH0	486648	OK	0.6888626	0.5129929	-0.5121588	0	-76.876	-103.856	-5.528	B5-03822-P02-CH1	486648	OK	0.6693965	0.2736979	-0.6906503	0	-69.598	-84.611	-3.375	B5-03822-P03-CH0	486648	OK	0.8719852	-0.4001545	-0.2819897	0	-89.459	-70.648	3.398	B5-03822-P03-CH1	486648	OK	0.7517163	-0.6150887	0.2378833	0	-98.232	-15.222	-21.761	B5-03822-P04-CH0	486648	OK	0.7905577	-0.3716164	0.4867441	0	-120.383	-49.127	0.439	B5-03822-P04-CH1	486648	OK	0.719119	-0.6421035	0.2656521	0	-107.669	-40.358	-19.638	NA
0.159870722235254	B5-03822-P01-CH0	486656	OK	0.2429261	0.0162285	0.089285	-0.9657907	107.329	-28.989	-259.069	B5-03822-P02-CH0	486656	OK	0.6904103	0.5164573	-0.5065624	0	-77.06	-104.33	-5.854	B5-03822-P02-CH1	486656	OK	0.6708807	0.2662533	-0.6921187	0	-70.244	-85.088	-3.413	B5-03822-P03-CH0	486656	OK	0.8716166	-0.3884394	-0.2989971	0	-89.415	-70.512	3.616	B5-03822-P03-CH1	486656	OK	0.7500843	-0.6170496	0.2379568	0	-98.107	-16.849	-20.012	B5-03822-P04-CH0	486656	OK	0.7916619	-0.3769341	0.4808244	0	-119.713	-49.306	1.745	B5-03822-P04-CH1	486656	OK	0.7195869	-0.6416154	0.2655644	0	-107.802	-39.936	-20.235	NA
0.169862642374958	B5-03822-P01-CH0	486664	OK	0.2427575	0.016102	0.0896983	-0.965797	107.296	-28.931	-259.097	B5-03822-P02-CH0	486664	OK	0.6908442	0.5178866	-0.5045074	0	-77.821	-104.503	-5.831	B5-03822-P02-CH1	486664	OK	0.6730234	0.255773	-0.6939882	0	-70.27	-84.989	-4.066	B5-03822-P03-CH0	486664	OK	0.8695634	-0.3730201	-0.3235978	0	-90.076	-69.669	2.765	B5-03822-P03-CH1	486664	OK	0.7501282	-0.613786	0.2461186	0	-98.441	-17.719	-18.562	B5-03822-P04-CH0	486664	OK	0.7918429	-0.3823575	0.4762222	0	-119.293	-48.574	0.85	B5-03822-P04-CH1	486664	OK	0.71968	-0.6411954	0.2663253	0	-107.88	-40.194	-19.75	NA
0.179854562514661	B5-03822-P01-CH0	486672	OK	0.2425968	0.0164158	0.0891919	-0.9658789	107.34	-28.879	-259.014	B5-03822-P02-CH0	486672	OK	0.6923259	0.5166397	-0.5037541	0	-78.145	-104.55	-5.806	B5-03822-P02-CH1	486672	OK	0.6756836	0.2426295	-0.6961196	0	-70.405	-85.048	-3.776	B5-03822-P03-CH0	486672	OK	0.8663847	-0.3582645	-0.3478851	0	-90.281	-69.289	3.177	B5-03822-P03-CH1	486672	OK	0.7496271	-0.6151307	0.2442815	0	-98.607	-17.765	-18.728	B5-03822-P04-CH0	486672	OK	0.7912158	-0.386854	0.4736259	0	-118.991	-46.898	-1.361	B5-03822-P04-CH1	486672	OK	0.7192295	-0.6416382	0.266476	0	-107.914	-40.274	-19.852	NA
0.189846482654364	B5-03822-P01-CH0	486680	OK	0.2423518	0.016827	0.0882212	-0.9660225	107.419	-28.929	-258.913	B5-03822-P02-CH0	486680	OK	0.6947453	0.5114462	-0.505719	0	-77.973	-104.392	-5.405	B5-03822-P02-CH1	486680	OK	0.6785477	0.2274428	-0.6984574	0	-70.782	-84.209	-4.41	B5-03822-P03-CH0	486680	OK	0.8641619	-0.3447336	-0.3665829	0	-89.927	-69.308	3.102	B5-03822-P03-CH1	486680	OK	0.7484833	-0.6170625	0.2429127	0	-98.686	-18.202	-18.439	B5-03822-P04-CH0	486680	OK	0.790857	-0.3856492	0.4752051	0	-118.818	-47.653	2.093	B5-03822-P04-CH1	486680	OK	0.7182347	-0.6425175	0.2670399	0	-108.045	-40.701	-19.72	NA
0.199838402794068	B5-03822-P01-CH0	486688	OK	0.2421541	0.0170672	0.0880613	-0.9660824	107.474	-28.882	-258.806	B5-03822-P02-CH0	486688	OK	0.6970467	0.5043415	-0.509672	0	-77.544	-104.17	-5.875	B5-03822-P02-CH1	486688	OK	0.682059	0.213721	-0.6993703	0	-71.758	-83.914	-4.526	B5-03822-P03-CH0	486688	OK	0.8634181	-0.3294618	-0.3820524	0	-90.668	-69.059	2.491	B5-03822-P03-CH1	486688	OK	0.7474484	-0.6237778	0.2285215	0	-98.069	-16.66	-20.879	B5-03822-P04-CH0	486688	OK	0.7894803	-0.3846824	0.478268	0	-119.248	-48.283	1.888	B5-03822-P04-CH1	486688	OK	0.71807	-0.6427759	0.2668605	0	-108.146	-40.656	-19.811	NA
0.209830322933771	B5-03822-P01-CH0	486696	OK	0.2420695	0.01714	0.0879954	-0.9661084	107.538	-28.885	-258.829	B5-03822-P02-CH0	486696	OK	0.6987046	0.4988355	-0.512811	0	-77.177	-104.276	-6.836	B5-03822-P02-CH1	486696	OK	0.6871488	0.2033437	-0.6974797	0	-72.451	-83.967	-4.032	B5-03822-P03-CH0	486696	OK	0.8633801	-0.3142436	-0.3947477	0	-92.316	-68.685	2.65	B5-03822-P03-CH1	486696	OK	0.7491536	-0.6240694	0.2220501	0	-97.53	-14.656	-22.456	B5-03822-P04-CH0	486696	OK	0.7885005	-0.3830057	0.4812209	0	-119.074	-45.974	-0.83	B5-03822-P04-CH1	486696	OK	0.7178643	-0.643182	0.2664352	0	-108.16	-40.643	-19.962	NA
0.219822243073475	B5-03822-P01-CH0	486704	OK	0.2420306	0.0173653	0.0875526	-0.9661543	107.644	-28.891	-258.885	B5-03822-P02-CH0	486704	OK	0.696501	0.4958865	-0.5186357	0	-77.919	-104.283	-5.22	B5-03822-P02-CH1	486704	OK	0.6941193	0.1951853	-0.6928933	0	-72.239	-83.766	-4.622	B5-03822-P03-CH0	486704	OK	0.8648132	-0.3028758	-0.4004552	0	-92.967	-68.737	3.121	B5-03822-P03-CH1	486704	OK	0.7483702	-0.6205327	0.2342675	0	-98.53	-17.116	-19.502	B5-03822-P04-CH0	486704	OK	0.7857427	-0.3765004	0.4907707	0	-119.74	-48.163	-0.746	B5-03822-P04-CH1	486704	OK	0.717508	-0.6437329	0.2660644	0	-108.238	-40.614	-19.985	NA
0.229814163213178	B5-03822-P01-CH0	486712	OK	0.242126	0.0175733	0.0871067	-0.966167	107.741	-28.944	-258.864	B5-03822-P02-CH0	486712	OK	0.6936677	0.4942711	-0.5239477	0	-78.562	-104.47	-4.576	B5-03822-P02-CH1	486712	OK	0.6980952	0.188373	-0.6907813	0	-73.699	-85.474	-4.342	B5-03822-P03-CH0	486712	OK	0.8668384	-0.2962086	-0.4010633	0	-92.914	-68.94	3.228	B5-03822-P03-CH1	486712	OK	0.7491672	-0.6209469	0.2305938	0	-98.302	-16.033	-20.731	B5-03822-P04-CH0	486712	OK	0.7841407	-0.3688237	0.4990916	0	-119.947	-47.122	0.311	B5-03822-P04-CH1	486712	OK	0.7166558	-0.6443441	0.2668804	0	-108.192	-41.141	-19.908	NA
0.239806083352881	B5-03822-P01-CH0	486720	OK	0.2423567	0.0175678	0.0874208	-0.9660809	107.807	-28.819	-258.92	B5-03822-P02-CH0	486720	OK	0.6917123	0.4939712	-0.5268079	0	-78.293	-104.983	-5.156	B5-03822-P02-CH1	486720	OK	0.7014488	0.1868629	-0.6877876	0	-73.667	-84.722	-4.576	B5-03822-P03-CH0	486720	OK	0.8677126	-0.2939524	-0.4008328	0	-93.249	-68.95	3.787	B5-03822-P03-CH1	486720	OK	0.7540103	-0.6176492	0.2235577	0	-97.23	-14.182	-25.219	B5-03822-P04-CH0	486720	OK	0.781324	-0.3625345	0.508037	0	-121.354	-48.16	-1.641	B5-03822-P04-CH1	486720	OK	0.7168043	-0.6441721	0.2668968	0	-108.236	-41.003	-20.048	NA
0.249798003492585	B5-03822-P01-CH0	486728	OK	0.2426982	0.0176513	0.0875322	-0.9659835	107.887	-28.762	-258.881	B5-03822-P02-CH0	486728	OK	0.6889809	0.4950517	-0.5293667	0	-77.941	-105.374	-4.443	B5-03822-P02-CH1	486728	OK	0.7008736	0.1874249	-0.688221	0	-74.564	-85.77	-4.344	B5-03822-P03-CH0	486728	OK	0.8670477	-0.2939378	-0.4022796	0	-94.056	-68.668	3.346	B5-03822-P03-CH1	486728	OK	0.7569128	-0.6099583	0.234593	0	-97.866	-16.841	-23.006	B5-03822-P04-CH0	486728	OK	0.7804595	-0.3578161	0.5126897	0	-122.457	-49.934	0.292	B5-03822-P04-CH1	486728	OK	0.7167582	-0.6438173	0.2678749	0	-108.337	-41.144	-20	NA
0.259789923632288	B5-03822-P01-CH0	486736	OK	0.2430775	0.0175692	0.0878394	-0.9658617	107.893	-28.644	-258.907	B5-03822-P02-CH0	486736	OK	0.6852015	0.4968638	-0.5325648	0	-77.678	-105.294	-5.551	B5-03822-P02-CH1	486736	OK	0.7009105	0.1905499	-0.6873246	0	-73.569	-84.654	-5.828	B5-03822-P03-CH0	486736	OK	0.8656419	-0.2963334	-0.4035475	0	-94.091	-68.642	3.368	B5-03822-P03-CH1	486736	OK	0.7601143	-0.5992067	0.2513515	0	-98.871	-21.373	-19.16	B5-03822-P04-CH0	486736	OK	0.7790023	-0.3592981	0.513868	0	-122.709	-51.909	1.329	B5-03822-P04-CH1	486736	OK	0.7166557	-0.6431302	0.2697927	0	-108.399	-41.489	-19.69	NA
0.269781843771992	B5-03822-P01-CH0	486744	OK	0.2433239	0.0176703	0.0877565	-0.9658054	107.996	-28.588	-258.964	B5-03822-P02-CH0	486744	OK	0.6807105	0.4984627	-0.536813	0	-77.699	-105.187	-4.434	B5-03822-P02-CH1	486744	OK	0.6987419	0.1915406	-0.6892547	0	-74.486	-85.722	-4.888	B5-03822-P03-CH0	486744	OK	0.8635995	-0.2971152	-0.4073309	0	-94.15	-68.36	3.589	B5-03822-P03-CH1	486744	OK	0.7645515	-0.5887842	0.2622865	0	-97.415	-22.486	-19.339	B5-03822-P04-CH0	486744	OK	0.7785014	-0.3660676	0.5098333	0	-122.969	-51.42	-1.01	B5-03822-P04-CH1	486744	OK	0.7169568	-0.6425013	0.2704903	0	-108.671	-41.332	-20.036	NA
0.279773763911695	B5-03822-P01-CH0	486752	OK	0.243426	0.0171665	0.0880135	-0.9657654	107.883	-28.542	-258.969	B5-03822-P02-CH0	486752	OK	0.6785963	0.4992988	-0.5387094	0	-77.119	-105.67	-3.879	B5-03822-P02-CH1	486752	OK	0.6984984	0.1939016	-0.6888412	0	-74.559	-85.753	-5.542	B5-03822-P03-CH0	486752	OK	0.8614621	-0.3011788	-0.4088696	0	-94.267	-68.573	2.852	B5-03822-P03-CH1	486752	OK	0.7667266	-0.577839	0.2797004	0	-97.889	-27.713	-13.135	B5-03822-P04-CH0	486752	OK	0.7776423	-0.3687636	0.5092011	0	-123.089	-53.081	1.045	B5-03822-P04-CH1	486752	OK	0.7169638	-0.6419215	0.2718449	0	-108.693	-41.448	-20.221	NA
0.289765684051398	B5-03822-P01-CH0	486760	OK	0.2437336	0.0168234	0.0883773	-0.9656606	107.837	-28.499	-258.994	B5-03822-P02-CH0	486760	OK	0.6773722	0.5011437	-0.5385369	0	-76.927	-106.404	-3.977	B5-03822-P02-CH1	486760	OK	0.6986434	0.1977489	-0.6875993	0	-74.763	-85.974	-4.922	B5-03822-P03-CH0	486760	OK	0.8606682	-0.305387	-0.4074175	0	-94.454	-68.847	2.405	B5-03822-P03-CH1	486760	OK	0.7705241	-0.5703318	0.2846301	0	-97.617	-27.691	-13.598	B5-03822-P04-CH0	486760	OK	0.7783213	-0.3699	0.5073362	0	-124.001	-54.253	2.014	B5-03822-P04-CH1	486760	OK	0.7172051	-0.6411018	0.2731398	0	-108.713	-41.474	-20.605	NA
0.299757604191102	B5-03822-P01-CH0	486768	OK	0.2438376	0.0166778	0.0882297	-0.9656504	107.85	-28.474	-258.957	B5-03822-P02-CH0	486768	OK	0.6758219	0.5033803	-0.5383986	0	-77.451	-106.822	-4.222	B5-03822-P02-CH1	486768	OK	0.6992029	0.2016072	-0.6859081	0	-75.245	-86.63	-5.442	B5-03822-P03-CH0	486768	OK	0.8623256	-0.308512	-0.4015157	0	-93.565	-69.202	2.468	B5-03822-P03-CH1	486768	OK	0.7725383	-0.5663802	0.2870505	0	-97.565	-27.681	-13.562	B5-03822-P04-CH0	486768	OK	0.7780033	-0.3716223	0.5065646	0	-124.266	-55.947	3.774	B5-03822-P04-CH1	486768	OK	0.7169772	-0.6404829	0.2751824	0	-108.953	-41.842	-20.744	NA
0.309749524330805	B5-03822-P01-CH0	486776	OK	0.2441125	0.0169878	0.0878929	-0.9656062	107.995	-28.392	-258.941	B5-03822-P02-CH0	486776	OK	0.6729919	0.5056838	-0.539783	0	-78.099	-106.691	-4.121	B5-03822-P02-CH1	486776	OK	0.6992695	0.2069136	-0.6842579	0	-75.925	-87.055	-5.714	B5-03822-P03-CH0	486776	OK	0.8618183	-0.3109675	-0.4007098	0	-94.387	-69.382	2.576	B5-03822-P03-CH1	486776	OK	0.7713335	-0.5629309	0.2969066	0	-97.706	-30.596	-10.6	B5-03822-P04-CH0	486776	OK	0.7778889	-0.3769245	0.5028088	0	-123.751	-53.26	0.97	B5-03822-P04-CH1	486776	OK	0.7167784	-0.6398245	0.2772244	0	-109.199	-42.351	-20.315	NA
0.319741444470509	B5-03822-P01-CH0	486784	OK	0.2446443	0.0168611	0.0884879	-0.9654195	108.03	-28.26	-258.941	B5-03822-P02-CH0	486784	OK	0.670849	0.5057312	-0.5423998	0	-77.913	-107.597	-3.972	B5-03822-P02-CH1	486784	OK	0.6993604	0.2093146	-0.6834343	0	-76.29	-87.299	-5.167	B5-03822-P03-CH0	486784	OK	0.862517	-0.3099556	-0.3999899	0	-94.541	-69.011	2.797	B5-03822-P03-CH1	486784	OK	0.7721662	-0.5584786	0.3030858	0	-97.998	-31.728	-9.522	B5-03822-P04-CH0	486784	OK	0.7784109	-0.3778813	0.5012806	0	-123.643	-52.651	-0.121	B5-03822-P04-CH1	486784	OK	0.7170991	-0.6384956	0.2794498	0	-109.27	-42.769	-20.064	NA
0.329733364610212	B5-03822-P01-CH0	486792	OK	0.2449536	0.0167232	0.0886675	-0.965327	108.059	-28.202	-258.926	B5-03822-P02-CH0	486792	OK	0.6683798	0.503791	-0.5472322	0	-77.462	-107.986	-3.25	B5-03822-P02-CH1	486792	OK	0.7013462	0.2087814	-0.6815599	0	-76.066	-87.416	-5.93	B5-03822-P03-CH0	486792	OK	0.8627298	-0.3109214	-0.3987796	0	-94.235	-69.205	2.049	B5-03822-P03-CH1	486792	OK	0.7730377	-0.5562242	0.3050039	0	-97.675	-30.779	-10.095	B5-03822-P04-CH0	486792	OK	0.7778164	-0.3794185	0.5010421	0	-123.665	-52.332	-2.175	B5-03822-P04-CH1	486792	OK	0.7177531	-0.6376849	0.2796219	0	-109.368	-42.455	-20.537	NA
0.339725284749915	B5-03822-P01-CH0	486800	OK	0.245112	0.0169235	0.0881808	-0.9653278	108.119	-28.174	-258.799	B5-03822-P02-CH0	486800	OK	0.6661775	0.4983862	-0.5548141	0	-76.945	-107.77	-3.194	B5-03822-P02-CH1	486800	OK	0.7044298	0.2056388	-0.6793315	0	-75.91	-86.723	-6.029	B5-03822-P03-CH0	486800	OK	0.8641904	-0.3093012	-0.3968724	0	-93.859	-69.261	2.671	B5-03822-P03-CH1	486800	OK	0.7721736	-0.5560466	0.3075062	0	-97.888	-31.384	-9.775	B5-03822-P04-CH0	486800	OK	0.7780403	-0.37919	0.5008675	0	-124.139	-52.38	-0.956	B5-03822-P04-CH1	486800	OK	0.7176864	-0.6374991	0.2802163	0	-109.51	-42.466	-20.788	NA
0.349717204889619	B5-03822-P01-CH0	486808	OK	0.2452406	0.0169711	0.088226	-0.9652902	108.166	-28.033	-258.803	B5-03822-P02-CH0	486808	OK	0.6627343	0.4903734	-0.5659657	0	-77.278	-107.778	-2.427	B5-03822-P02-CH1	486808	OK	0.7073409	0.2010023	-0.6776923	0	-76.635	-87.352	-4.864	B5-03822-P03-CH0	486808	OK	0.8654036	-0.3078336	-0.3953671	0	-94.315	-69.324	1.937	B5-03822-P03-CH1	486808	OK	0.7722867	-0.5560916	0.3071406	0	-97.149	-29.456	-12.579	B5-03822-P04-CH0	486808	OK	0.7765805	-0.3776539	0.5042818	0	-123.742	-54.453	2.232	B5-03822-P04-CH1	486808	OK	0.7179733	-0.637164	0.2802434	0	-109.699	-42.251	-21.369	NA
0.359709125029322	B5-03822-P01-CH0	486816	OK	0.2455535	0.0165825	0.0886308	-0.9651803	108.087	-27.982	-258.805	B5-03822-P02-CH0	486816	OK	0.660429	0.4790879	-0.5781941	0	-76.799	-107.96	-3.205	B5-03822-P02-CH1	486816	OK	0.7108451	0.1964918	-0.6753445	0	-76.667	-87.164	-5.249	B5-03822-P03-CH0	486816	OK	0.8677789	-0.3023246	-0.3944105	0	-94.608	-69.156	2.344	B5-03822-P03-CH1	486816	OK	0.7735336	-0.5546055	0.3066895	0	-97.084	-27.765	-13.958	B5-03822-P04-CH0	486816	OK	0.777558	-0.3752723	0.5045535	0	-123.653	-52.513	-0.664	B5-03822-P04-CH1	486816	OK	0.7180737	-0.6367801	0.2808581	0	-109.46	-42.538	-21.094	NA
0.369701045169025	B5-03822-P01-CH0	486824	OK	0.2457481	0.0165862	0.088483	-0.9651443	108.064	-27.922	-258.71	B5-03822-P02-CH0	486824	OK	0.6575785	0.4671421	-0.5910742	0	-76.115	-108.519	-3.156	B5-03822-P02-CH1	486824	OK	0.713341	0.1907044	-0.6743711	0	-77.181	-87.943	-5.767	B5-03822-P03-CH0	486824	OK	0.8700601	-0.2955129	-0.3945472	0	-94.872	-69.161	3.366	B5-03822-P03-CH1	486824	OK	0.7715899	-0.5543192	0.3120564	0	-97.571	-31.004	-10.444	B5-03822-P04-CH0	486824	OK	0.7771476	-0.3764838	0.5042832	0	-123.639	-52.735	-0.344	B5-03822-P04-CH1	486824	OK	0.7177693	-0.6370519	0.2810198	0	-109.231	-42.7	-21.177	NA
0.379692965308729	B5-03822-P01-CH0	486832	OK	0.2460462	0.0169185	0.088862	-0.9650278	108.198	-27.793	-258.621	B5-03822-P02-CH0	486832	OK	0.6529495	0.4535926	-0.6065565	0	-75.141	-107.799	-3.982	B5-03822-P02-CH1	486832	OK	0.7164836	0.186221	-0.6722893	0	-77.337	-88.391	-5.109	B5-03822-P03-CH0	486832	OK	0.8718835	-0.2894305	-0.3950304	0	-95.099	-69.084	3.315	B5-03822-P03-CH1	486832	OK	0.7712416	-0.5545868	0.3124418	0	-97.685	-31.025	-10.2	B5-03822-P04-CH0	486832	OK	0.7771844	-0.3771947	0.5036949	0	-123.788	-52.756	-0.478	B5-03822-P04-CH1	486832	OK	0.7183376	-0.6367847	0.2801721	0	-109.213	-42.44	-21.316	NA
0.389684885448432	B5-03822-P01-CH0	486840	OK	0.2462205	0.0170376	0.0889663	-0.9649716	108.27	-27.768	-258.564	B5-03822-P02-CH0	486840	OK	0.6470539	0.4400994	-0.6226024	0	-75.605	-107.877	-2.806	B5-03822-P02-CH1	486840	OK	0.7208347	0.1811015	-0.6690288	0	-77.581	-88.624	-4.673	B5-03822-P03-CH0	486840	OK	0.871135	-0.2842094	-0.4004358	0	-96.37	-69.056	2.503	B5-03822-P03-CH1	486840	OK	0.7727598	-0.556584	0.3050516	0	-97.685	-29.075	-13.218	B5-03822-P04-CH0	486840	OK	0.77685	-0.3787634	0.5030332	0	-123.63	-52.395	-1.077	B5-03822-P04-CH1	486840	OK	0.7186572	-0.6366092	0.279751	0	-109.173	-42.463	-21.161	NA
0.399676805588136	B5-03822-P01-CH0	486848	OK	0.2463201	0.016976	0.0891497	-0.9649303	108.257	-27.682	-258.615	B5-03822-P02-CH0	486848	OK	0.6443856	0.4236567	-0.6366178	0	-75.053	-108.425	-3.28	B5-03822-P02-CH1	486848	OK	0.7257208	0.1738551	-0.6656604	0	-77.915	-88.362	-4.324	B5-03822-P03-CH0	486848	OK	0.8739633	-0.2792369	-0.3977625	0	-95.302	-69.234	3.118	B5-03822-P03-CH1	486848	OK	0.7725513	-0.5557257	0.3071375	0	-97.69	-29.432	-12.549	B5-03822-P04-CH0	486848	OK	0.7767075	-0.3794694	0.5027211	0	-123.509	-52.199	-0.982	B5-03822-P04-CH1	486848	OK	0.7190199	-0.6367611	0.2784704	0	-108.909	-42.203	-21.069	NA
0.409668725727839	B5-03822-P01-CH0	486856	OK	0.2463198	0.0168897	0.089031	-0.9649429	108.204	-27.686	-258.49	B5-03822-P02-CH0	486856	OK	0.6423143	0.4038534	-0.6514098	0	-74.419	-109.11	-2.558	B5-03822-P02-CH1	486856	OK	0.7292208	0.1631888	-0.6645347	0	-79.142	-89.457	-3.631	B5-03822-P03-CH0	486856	OK	0.877005	-0.2745902	-0.3942872	0	-94.504	-69.425	3.475	B5-03822-P03-CH1	486856	OK	0.7720779	-0.5556332	0.3084922	0	-97.738	-29.727	-12.232	B5-03822-P04-CH0	486856	OK	0.7763378	-0.3805866	0.5024475	0	-123.365	-51.987	-1.335	B5-03822-P04-CH1	486856	OK	0.7192605	-0.6370277	0.2772364	0	-108.773	-41.789	-21.656	NA
0.419660645867542	B5-03822-P01-CH0	486864	OK	0.246107	0.0166053	0.0887705	-0.9650261	108.063	-27.689	-258.418	B5-03822-P02-CH0	486864	OK	0.6398507	0.3839638	-0.6657049	0	-73.637	-109.234	-2.141	B5-03822-P02-CH1	486864	OK	0.7344001	0.1549431	-0.6607943	0	-78.98	-88.893	-4.721	B5-03822-P03-CH0	486864	OK	0.8772031	-0.2689035	-0.3977508	0	-95.428	-69.478	3.623	B5-03822-P03-CH1	486864	OK	0.7714425	-0.5562358	0.3089954	0	-97.633	-29.883	-11.591	B5-03822-P04-CH0	486864	OK	0.7757809	-0.3818739	0.5023309	0	-123.02	-51.757	-1.159	B5-03822-P04-CH1	486864	OK	0.719359	-0.6375888	0.2756865	0	-108.474	-41.379	-21.905	NA
0.429652566007246	B5-03822-P01-CH0	486872	OK	0.2459614	0.0166051	0.0884685	-0.965091	107.998	-27.589	-258.317	B5-03822-P02-CH0	486872	OK	0.6356863	0.3651825	-0.6801064	0	-72.62	-108.036	-2.434	B5-03822-P02-CH1	486872	OK	0.7404487	0.1447178	-0.6563479	0	-78.93	-88.654	-4.587	B5-03822-P03-CH0	486872	OK	0.8781121	-0.2630883	-0.3996295	0	-95.433	-69.317	3.476	B5-03822-P03-CH1	486872	OK	0.7695323	-0.5632757	0.3008995	0	-96.748	-27.472	-14.02	B5-03822-P04-CH0	486872	OK	0.7753819	-0.3835582	0.5016632	0	-122.711	-51.139	-1.389	B5-03822-P04-CH1	486872	OK	0.7192016	-0.6381762	0.2747366	0	-108.239	-41.151	-21.977	NA
0.439644486146949	B5-03822-P01-CH0	486880	OK	0.2460299	0.0167335	0.088516	-0.9650669	108.063	-27.572	-258.302	B5-03822-P02-CH0	486880	OK	0.6329493	0.3480422	-0.6915503	0	-71.974	-108.304	-2.892	B5-03822-P02-CH1	486880	OK	0.7451752	0.1315303	-0.6537688	0	-80.607	-90.157	-3.334	B5-03822-P03-CH0	486880	OK	0.8787208	-0.2569423	-0.4022814	0	-95.49	-68.769	3.545	B5-03822-P03-CH1	486880	OK	0.7679622	-0.5636366	0.3042167	0	-97.325	-30.047	-10.346	B5-03822-P04-CH0	486880	OK	0.7752359	-0.3847737	0.5009576	0	-122.456	-50.822	-1.521	B5-03822-P04-CH1	486880	OK	0.7191402	-0.6383216	0.2745596	0	-108.182	-41.328	-21.87	NA
0.449636406286653	B5-03822-P01-CH0	486888	OK	0.2458684	0.0167304	0.0881094	-0.9651454	108.055	-27.614	-258.305	B5-03822-P02-CH0	486888	OK	0.6305951	0.332839	-0.7011191	0	-71.995	-108.495	-2.816	B5-03822-P02-CH1	486888	OK	0.7525613	0.1237788	-0.6467846	0	-80.582	-90.19	-2.632	B5-03822-P03-CH0	486888	OK	0.8775054	-0.2521868	-0.4079045	0	-95.719	-68.1	2.782	B5-03822-P03-CH1	486888	OK	0.7685462	-0.5654004	0.2994314	0	-96.924	-27.346	-14.962	B5-03822-P04-CH0	486888	OK	0.7748669	-0.3869038	0.4998868	0	-122.087	-50.245	-1.899	B5-03822-P04-CH1	486888	OK	0.7187038	-0.6387687	0.2746623	0	-107.974	-41.717	-21.193	NA
0.459628326426356	B5-03822-P01-CH0	486896	OK	0.2458292	0.0172592	0.0873656	-0.9652136	108.247	-27.655	-258.252	B5-03822-P02-CH0	486896	OK	0.6290753	0.3176873	-0.7094639	0	-71.792	-108.981	-2.403	B5-03822-P02-CH1	486896	OK	0.7575359	0.118199	-0.6420034	0	-81.12	-90.733	-2.934	B5-03822-P03-CH0	486896	OK	0.8760584	-0.2475977	-0.4137839	0	-95.753	-68.069	3.906	B5-03822-P03-CH1	486896	OK	0.7685739	-0.5666489	0.2969901	0	-97.161	-26.852	-16.063	B5-03822-P04-CH0	486896	OK	0.7746483	-0.3885812	0.4989235	0	-121.959	-49.989	-1.976	B5-03822-P04-CH1	486896	OK	0.7186541	-0.6393317	0.27348	0	-108.092	-41.483	-21.517	NA
0.469620246566059	B5-03822-P01-CH0	486904	OK	0.2456773	0.0172463	0.0870851	-0.9652779	108.262	-27.724	-258.195	B5-03822-P02-CH0	486904	OK	0.6260941	0.3028843	-0.7185175	0	-71.714	-109.11	-2.281	B5-03822-P02-CH1	486904	OK	0.7606892	0.1143163	-0.6389708	0	-81.798	-90.474	-2.651	B5-03822-P03-CH0	486904	OK	0.8733863	-0.2440504	-0.4214686	0	-96.513	-68.143	3.617	B5-03822-P03-CH1	486904	OK	0.7683943	-0.5624502	0.3053196	0	-97.591	-29.689	-11.764	B5-03822-P04-CH0	486904	OK	0.7745411	-0.3899695	0.4980058	0	-121.795	-49.593	-2.362	B5-03822-P04-CH1	486904	OK	0.7183463	-0.639776	0.2732495	0	-107.958	-41.728	-21.281	NA
0.479612166705763	B5-03822-P01-CH0	486912	OK	0.2457159	0.0169392	0.086765	-0.9653023	108.143	-27.752	-258.218	B5-03822-P02-CH0	486912	OK	0.6225962	0.289109	-0.7271795	0	-71.155	-108.189	-1.808	B5-03822-P02-CH1	486912	OK	0.7640535	0.1097509	-0.6357492	0	-82.481	-90.459	-1.408	B5-03822-P03-CH0	486912	OK	0.8723429	-0.2425978	-0.4244575	0	-95.668	-68.539	3.9	B5-03822-P03-CH1	486912	OK	0.7680735	-0.5635512	0.304094	0	-97.404	-29.333	-12.298	B5-03822-P04-CH0	486912	OK	0.7742281	-0.3908717	0.4977853	0	-121.554	-49.333	-2.577	B5-03822-P04-CH1	486912	OK	0.7182433	-0.6400878	0.2727897	0	-107.661	-41.585	-21.555	NA
0.489604086845466	B5-03822-P01-CH0	486920	OK	0.2455042	0.0169332	0.0864099	-0.9653882	108.124	-27.741	-258.177	B5-03822-P02-CH0	486920	OK	0.6207599	0.2804577	-0.7321206	0	-70.837	-108.213	-2.351	B5-03822-P02-CH1	486920	OK	0.7687568	0.1071341	-0.630504	0	-83.003	-90.976	-1.15	B5-03822-P03-CH0	486920	OK	0.8699914	-0.23741	-0.4321474	0	-95.77	-67.807	4.075	B5-03822-P03-CH1	486920	OK	0.7677949	-0.5645717	0.3029022	0	-97.4	-29.196	-12.286	B5-03822-P04-CH0	486920	OK	0.7738954	-0.3914198	0.4978719	0	-121.436	-49.26	-2.498	B5-03822-P04-CH1	486920	OK	0.7183252	-0.6403486	0.2719607	0	-107.662	-41.332	-21.55	NA
0.49959600698517	B5-03822-P01-CH0	486928	OK	0.2456113	0.0171623	0.0861365	-0.9653813	108.212	-27.764	-258.114	B5-03822-P02-CH0	486928	OK	0.6189985	0.2743118	-0.7359306	0	-70.887	-107.736	-1.964	B5-03822-P02-CH1	486928	OK	0.7731452	0.1091868	-0.6247597	0	-83.12	-90.762	-1.344	B5-03822-P03-CH0	486928	OK	0.8673015	-0.2377146	-0.4373554	0	-95.483	-67.971	3.729	B5-03822-P03-CH1	486928	OK	0.7674539	-0.5652865	0.3024328	0	-97.458	-29.401	-12.402	B5-03822-P04-CH0	486928	OK	0.7736131	-0.3917088	0.4980833	0	-121.351	-49.159	-2.739	B5-03822-P04-CH1	486928	OK	0.7181157	-0.6404414	0.2722952	0	-107.771	-41.591	-21.331	NA
0.509587927124873	B5-03822-P01-CH0	486936	OK	0.2456136	0.0169805	0.086075	-0.9653894	108.169	-27.786	-258.158	B5-03822-P02-CH0	486936	OK	0.6194742	0.2720433	-0.7363723	0	-71.099	-108.242	-1.308	B5-03822-P02-CH1	486936	OK	0.7768393	0.1133891	-0.6194059	0	-83.376	-90.881	-1.338	B5-03822-P03-CH0	486936	OK	0.8641454	-0.2392511	-0.442732	0	-95.382	-67.815	3.257	B5-03822-P03-CH1	486936	OK	0.7674676	-0.5657513	0.3015277	0	-97.413	-29.281	-12.548	B5-03822-P04-CH0	486936	OK	0.7734218	-0.3918566	0.4982641	0	-121.239	-49.003	-2.845	B5-03822-P04-CH1	486936	OK	0.7177224	-0.6406495	0.2728421	0	-107.659	-42.022	-20.791	NA
0.519579847264576	B5-03822-P01-CH0	486944	OK	0.245514	0.0172258	0.0857887	-0.9654359	108.254	-27.824	-258.146	B5-03822-P02-CH0	486944	OK	0.6223789	0.2689081	-0.7350735	0	-70.952	-108.524	-1.306	B5-03822-P02-CH1	486944	OK	0.7779371	0.1197269	-0.61683	0	-84.518	-91.51	0.138	B5-03822-P03-CH0	486944	OK	0.8600553	-0.2402506	-0.450094	0	-95.597	-67.096	2.736	B5-03822-P03-CH1	486944	OK	0.7673371	-0.5663193	0.3007927	0	-97.454	-29.321	-12.75	B5-03822-P04-CH0	486944	OK	0.7733154	-0.3915922	0.498637	0	-121.322	-49.167	-2.46	B5-03822-P04-CH1	486944	OK	0.7177839	-0.6408681	0.2721661	0	-107.788	-41.883	-20.908	NA
0.52957176740428	B5-03822-P01-CH0	486952	OK	0.2454494	0.0171228	0.0860249	-0.9654331	108.209	-27.861	-258.126	B5-03822-P02-CH0	486952	OK	0.626104	0.2636934	-0.7337981	0	-70.495	-108.021	-2.101	B5-03822-P02-CH1	486952	OK	0.7785414	0.1304458	-0.613887	0	-84.847	-91.644	0.286	B5-03822-P03-CH0	486952	OK	0.8562124	-0.2451711	-0.4547432	0	-94.84	-66.853	2.699	B5-03822-P03-CH1	486952	OK	0.7675572	-0.5662999	0.3002671	0	-97.39	-29.322	-12.961	B5-03822-P04-CH0	486952	OK	0.7732427	-0.3912175	0.4990437	0	-121.297	-49.239	-2.336	B5-03822-P04-CH1	486952	OK	0.7176238	-0.6406294	0.2731484	0	-107.902	-42.405	-20.181	NA
0.539563687543983	B5-03822-P01-CH0	486960	OK	0.2452699	0.0170165	0.0861235	-0.9654718	108.151	-27.85	-258.123	B5-03822-P02-CH0	486960	OK	0.6295032	0.2570771	-0.7332374	0	-70.806	-108.135	-1.932	B5-03822-P02-CH1	486960	OK	0.7793179	0.1389631	-0.6110261	0	-84.902	-90.924	0.502	B5-03822-P03-CH0	486960	OK	0.8511438	-0.2505466	-0.4612815	0	-94.445	-66.177	2.271	B5-03822-P03-CH1	486960	OK	0.7676939	-0.5663842	0.2997584	0	-97.437	-29.351	-12.987	B5-03822-P04-CH0	486960	OK	0.7730144	-0.3910104	0.4995595	0	-121.277	-49.276	-2.18	B5-03822-P04-CH1	486960	OK	0.7175308	-0.6407942	0.2730061	0	-107.804	-42.547	-19.829	NA
0.549555607683686	B5-03822-P01-CH0	486968	OK	0.2452782	0.0168816	0.0865253	-0.9654362	108.072	-27.83	-258.097	B5-03822-P02-CH0	486968	OK	0.6337043	0.2445288	-0.7339104	0	-70.809	-107.24	-1.923	B5-03822-P02-CH1	486968	OK	0.7808453	0.1442739	-0.6078369	0	-84.853	-90.279	0.809	B5-03822-P03-CH0	486968	OK	0.8449252	-0.2548161	-0.4702874	0	-94.823	-65.252	1.336	B5-03822-P03-CH1	486968	OK	0.7679748	-0.5662205	0.2993477	0	-97.394	-29.356	-13.08	B5-03822-P04-CH0	486968	OK	0.7731034	-0.3898124	0.5003572	0	-121.429	-49.622	-1.776	B5-03822-P04-CH1	486968	OK	0.7177618	-0.6405698	0.2729254	0	-107.816	-42.557	-19.524	NA
0.55954752782339	B5-03822-P01-CH0	486976	OK	0.2448531	0.0167142	0.0864303	-0.9655555	107.938	-27.855	-258.108	B5-03822-P02-CH0	486976	OK	0.6387319	0.2315905	-0.7337489	0	-71.374	-106.448	-1.666	B5-03822-P02-CH1	486976	OK	0.781696	0.1470258	-0.6060815	0	-85.285	-90.002	1.196	B5-03822-P03-CH0	486976	OK	0.8406548	-0.255557	-0.4774832	0	-94.474	-64.67	1.106	B5-03822-P03-CH1	486976	OK	0.7681493	-0.5664967	0.298376	0	-97.294	-29.105	-13.276	B5-03822-P04-CH0	486976	OK	0.772853	-0.3897143	0.5008204	0	-121.415	-49.66	-1.523	B5-03822-P04-CH1	486976	OK	0.7176728	-0.6409526	0.2722601	0	-107.752	-42.388	-19.494	NA
0.569539447963093	B5-03822-P01-CH0	486984	OK	0.2446706	0.0167931	0.0861202	-0.9656281	107.916	-27.925	-258.103	B5-03822-P02-CH0	486984	OK	0.6469264	0.21774	-0.7308047	0	-70.739	-105.72	-1.48	B5-03822-P02-CH1	486984	OK	0.7830527	0.1484206	-0.6039866	0	-85.338	-90.092	0.764	B5-03822-P03-CH0	486984	OK	0.8371001	-0.2509074	-0.4861162	0	-93.755	-64.482	0.379	B5-03822-P03-CH1	486984	OK	0.7681925	-0.5668635	0.2975668	0	-97.314	-29.034	-13.432	B5-03822-P04-CH0	486984	OK	0.7725953	-0.3894186	0.5014476	0	-121.481	-49.866	-1.277	B5-03822-P04-CH1	486984	OK	0.717582	-0.641164	0.2720014	0	-107.853	-42.28	-19.524	NA
0.579531368102797	B5-03822-P01-CH0	486992	OK	0.2442293	0.0170521	0.0855677	-0.9657844	107.938	-28.031	-258.093	B5-03822-P02-CH0	486992	OK	0.6556727	0.2066803	-0.726207	0	-70.049	-106.132	-2.7	B5-03822-P02-CH1	486992	OK	0.7838709	0.1525821	-0.6018846	0	-85.735	-89.561	0.54	B5-03822-P03-CH0	486992	OK	0.8319795	-0.2426761	-0.4989173	0	-94.495	-64.112	0.075	B5-03822-P03-CH1	486992	OK	0.7680512	-0.5674808	0.296754	0	-97.367	-29.109	-13.328	B5-03822-P04-CH0	486992	OK	0.7722734	-0.3895195	0.5018648	0	-121.557	-50.098	-0.729	B5-03822-P04-CH1	486992	OK	0.7170455	-0.6418066	0.2719007	0	-107.975	-42.447	-19.432	NA
0.5895232882425	B5-03822-P01-CH0	487000	OK	0.2442811	0.0169506	0.0860472	-0.9657304	107.853	-27.999	-258.212	B5-03822-P02-CH0	487000	OK	0.6606758	0.1994302	-0.7236954	0	-70.069	-105.705	-3.176	B5-03822-P02-CH1	487000	OK	0.7834225	0.1562643	-0.6015236	0	-86.356	-89.576	0.761	B5-03822-P03-CH0	487000	OK	0.8292648	-0.2380024	-0.5056429	0	-94.371	-64.136	0.209	B5-03822-P03-CH1	487000	OK	0.7685736	-0.5671697	0.2959952	0	-97.278	-28.764	-13.697	B5-03822-P04-CH0	487000	OK	0.7724681	-0.3891788	0.5018295	0	-121.584	-49.952	-0.739	B5-03822-P04-CH1	487000	OK	0.7170031	-0.6416759	0.2723206	0	-107.979	-42.588	-19.278	NA
0.599515208382203	B5-03822-P01-CH0	487008	OK	0.2440486	0.0169289	0.0862363	-0.9657727	107.77	-28.04	-258.242	B5-03822-P02-CH0	487008	OK	0.6637927	0.1965903	-0.7216173	0	-70.47	-105.4	-3.539	B5-03822-P02-CH1	487008	OK	0.7841787	0.1617739	-0.5990768	0	-86.313	-89.559	0.681	B5-03822-P03-CH0	487008	OK	0.8265807	-0.2364174	-0.5107554	0	-94.017	-63.949	0.394	B5-03822-P03-CH1	487008	OK	0.7687393	-0.5671695	0.295565	0	-97.259	-28.752	-13.623	B5-03822-P04-CH0	487008	OK	0.7725924	-0.3895046	0.5013852	0	-121.562	-49.653	-0.788	B5-03822-P04-CH1	487008	OK	0.7171163	-0.6417871	0.2717601	0	-107.975	-42.396	-19.479	NA
0.609507128521907	B5-03822-P01-CH0	487016	OK	0.2437536	0.0171289	0.0860093	-0.9658639	107.724	-28.078	-258.125	B5-03822-P02-CH0	487016	OK	0.6676071	0.1983765	-0.7175985	0	-70.541	-105.138	-3.905	B5-03822-P02-CH1	487016	OK	0.7850732	0.1660001	-0.5967445	0	-86.493	-89.519	1.478	B5-03822-P03-CH0	487016	OK	0.8234521	-0.2372909	-0.515383	0	-93.723	-63.755	0.978	B5-03822-P03-CH1	487016	OK	0.768778	-0.5676264	0.2945856	0	-97.16	-28.415	-14.152	B5-03822-P04-CH0	487016	OK	0.7724475	-0.3902446	0.5010329	0	-121.446	-49.349	-0.856	B5-03822-P04-CH1	487016	OK	0.7171548	-0.6420362	0.2710693	0	-108.106	-42.069	-19.85	NA
0.61949904866161	B5-03822-P01-CH0	487024	OK	0.2434853	0.0171177	0.0859937	-0.9659332	107.651	-28.188	-258.089	B5-03822-P02-CH0	487024	OK	0.6708822	0.2069104	-0.7121132	0	-70.5	-105.119	-3.791	B5-03822-P02-CH1	487024	OK	0.7847142	0.1702987	-0.596005	0	-86.909	-89.624	2.324	B5-03822-P03-CH0	487024	OK	0.8204415	-0.2416116	-0.5181695	0	-93.84	-63.213	-0.118	B5-03822-P03-CH1	487024	OK	0.7688283	-0.5677779	0.2941622	0	-97.191	-28.414	-14.304	B5-03822-P04-CH0	487024	OK	0.7724093	-0.3912686	0.5002927	0	-121.396	-48.935	-1.559	B5-03822-P04-CH1	487024	OK	0.716859	-0.6420971	0.2717066	0	-108.135	-42.398	-19.544	NA
0.629490968801314	B5-03822-P01-CH0	487032	OK	0.243059	0.017201	0.0852902	-0.9661015	107.583	-28.34	-258.079	B5-03822-P02-CH0	487032	OK	0.6733068	0.2215585	-0.7053863	0	-70.467	-105.23	-4.587	B5-03822-P02-CH1	487032	OK	0.7849972	0.1754455	-0.5941366	0	-86.564	-89.447	1.343	B5-03822-P03-CH0	487032	OK	0.8169269	-0.2450361	-0.5220994	0	-94.527	-62.407	-1.184	B5-03822-P03-CH1	487032	OK	0.7685055	-0.5684464	0.2937139	0	-97.237	-28.407	-14.414	B5-03822-P04-CH0	487032	OK	0.7721147	-0.3920169	0.5001615	0	-121.433	-49.033	-1.352	B5-03822-P04-CH1	487032	OK	0.7166877	-0.6430236	0.2699619	0	-108.012	-41.796	-20.722	NA
0.639482888941017	B5-03822-P01-CH0	487040	OK	0.2427327	0.0172503	0.0851929	-0.9661912	107.538	-28.415	-258.052	B5-03822-P02-CH0	487040	OK	0.6717603	0.2406179	-0.7006005	0	-71.49	-104.466	-3.455	B5-03822-P02-CH1	487040	OK	0.7831089	0.1810271	-0.5949534	0	-86.193	-88.572	0.701	B5-03822-P03-CH0	487040	OK	0.8166363	-0.2503462	-0.5200307	0	-93.523	-62.835	-0.957	B5-03822-P03-CH1	487040	OK	0.7686209	-0.5686847	0.2929499	0	-97.205	-28.126	-14.784	B5-03822-P04-CH0	487040	OK	0.7720277	-0.3929733	0.499545	0	-121.395	-48.82	-1.566	B5-03822-P04-CH1	487040	OK	0.7167356	-0.6431546	0.2695223	0	-108.132	-41.576	-20.953	NA
0.64947480908072	B5-03822-P01-CH0	487048	OK	0.2425381	0.0171384	0.0852611	-0.966236	107.454	-28.469	-258.036	B5-03822-P02-CH0	487048	OK	0.6707346	0.2625704	-0.6936655	0	-72.313	-104.725	-3.012	B5-03822-P02-CH1	487048	OK	0.7806219	0.1840147	-0.5973006	0	-85.27	-88.257	1.213	B5-03822-P03-CH0	487048	OK	0.8162764	-0.2543577	-0.5186472	0	-93.551	-62.459	-0.215	B5-03822-P03-CH1	487048	OK	0.7687698	-0.5687056	0.2925182	0	-97.109	-27.965	-14.835	B5-03822-P04-CH0	487048	OK	0.7719477	-0.3937269	0.499075	0	-121.274	-48.672	-1.514	B5-03822-P04-CH1	487048	OK	0.7169661	-0.6432002	0.2687993	0	-108.101	-41.216	-21.375	NA
0.659466729220424	B5-03822-P01-CH0	487056	OK	0.2425627	0.017154	0.085289	-0.9662271	107.429	-28.517	-258.033	B5-03822-P02-CH0	487056	OK	0.6683165	0.2856397	-0.6868501	0	-73.484	-104.85	-1.498	B5-03822-P02-CH1	487056	OK	0.7761745	0.1842242	-0.6030046	0	-85.035	-88.189	1.26	B5-03822-P03-CH0	487056	OK	0.8155559	-0.2597387	-0.5171116	0	-94.003	-62.059	-0.332	B5-03822-P03-CH1	487056	OK	0.768744	-0.5685913	0.292808	0	-97.161	-28.074	-14.768	B5-03822-P04-CH0	487056	OK	0.7720163	-0.3945631	0.4983078	0	-121.204	-48.331	-1.661	B5-03822-P04-CH1	487056	OK	0.7169289	-0.6432581	0.2687599	0	-108.093	-41.202	-21.526	NA
0.669458649360127	B5-03822-P01-CH0	487064	OK	0.2425021	0.0171743	0.0854984	-0.9662235	107.402	-28.53	-258.038	B5-03822-P02-CH0	487064	OK	0.669252	0.3081681	-0.676117	0	-73.162	-105.018	-2.783	B5-03822-P02-CH1	487064	OK	0.7724568	0.1861574	-0.6071704	0	-84.225	-87.689	0.451	B5-03822-P03-CH0	487064	OK	0.8161171	-0.2672826	-0.5123601	0	-93.63	-62.483	-0.764	B5-03822-P03-CH1	487064	OK	0.7688241	-0.5683447	0.2930764	0	-97.223	-28.102	-14.632	B5-03822-P04-CH0	487064	OK	0.7721329	-0.3958178	0.4971308	0	-121.176	-47.981	-1.953	B5-03822-P04-CH1	487064	OK	0.7167497	-0.6433026	0.2691314	0	-108.002	-41.464	-21.133	NA
0.679450569499831	B5-03822-P01-CH0	487072	OK	0.242547	0.0171915	0.0855821	-0.9662045	107.401	-28.598	-258.026	B5-03822-P02-CH0	487072	OK	0.6688827	0.3273336	-0.6674194	0	-73.369	-104.633	-2.759	B5-03822-P02-CH1	487072	OK	0.7690508	0.1911985	-0.6099213	0	-83.288	-86.645	-0.693	B5-03822-P03-CH0	487072	OK	0.8173542	-0.2736708	-0.5069877	0	-92.944	-62.557	-0.379	B5-03822-P03-CH1	487072	OK	0.7688379	-0.5683214	0.2930854	0	-97.168	-28.039	-14.68	B5-03822-P04-CH0	487072	OK	0.7721791	-0.3977033	0.4955517	0	-121.015	-47.434	-2.618	B5-03822-P04-CH1	487072	OK	0.7170393	-0.6433542	0.2682351	0	-107.886	-41.225	-21.046	NA
0.689442489639534	B5-03822-P01-CH0	487080	OK	0.2424244	0.0173207	0.0856114	-0.9662303	107.456	-28.668	-257.916	B5-03822-P02-CH0	487080	OK	0.6693711	0.3442882	-0.6583373	0	-73.579	-104.402	-3.22	B5-03822-P02-CH1	487080	OK	0.7648519	0.192946	-0.6146328	0	-83.146	-86.671	-0.196	B5-03822-P03-CH0	487080	OK	0.815574	-0.2798695	-0.5064703	0	-93.453	-62.36	-1.177	B5-03822-P03-CH1	487080	OK	0.7686431	-0.5683777	0.2934869	0	-97.297	-28.398	-14.221	B5-03822-P04-CH0	487080	OK	0.7722622	-0.3995111	0.4939656	0	-120.986	-47.089	-3.017	B5-03822-P04-CH1	487080	OK	0.717341	-0.6435829	0.2668763	0	-107.964	-40.829	-21.601	NA
0.699434409779237	B5-03822-P01-CH0	487088	OK	0.242465	0.0173999	0.0854849	-0.9662299	107.458	-28.704	-257.816	B5-03822-P02-CH0	487088	OK	0.6698264	0.3580869	-0.6504663	0	-74.103	-105.032	-2.54	B5-03822-P02-CH1	487088	OK	0.7617101	0.1946582	-0.6179854	0	-82.584	-86.314	-1.873	B5-03822-P03-CH0	487088	OK	0.8147089	-0.2852783	-0.5048422	0	-93.332	-61.948	-2.458	B5-03822-P03-CH1	487088	OK	0.7684342	-0.5684811	0.2938335	0	-97.341	-28.533	-14.011	B5-03822-P04-CH0	487088	OK	0.7721601	-0.4008408	0.493047	0	-121.017	-47.192	-3.055	B5-03822-P04-CH1	487088	OK	0.7172978	-0.6437489	0.266592	0	-107.974	-40.756	-21.791	NA
0.709426329918941	B5-03822-P01-CH0	487096	OK	0.2424705	0.0174442	0.0852661	-0.9662471	107.477	-28.781	-257.91	B5-03822-P02-CH0	487096	OK	0.6708752	0.3705816	-0.6423361	0	-74.114	-105.183	-2.759	B5-03822-P02-CH1	487096	OK	0.758526	0.1972316	-0.6210782	0	-81.575	-85.35	-2.609	B5-03822-P03-CH0	487096	OK	0.8149842	-0.2913113	-0.5009375	0	-92.773	-62.176	-1.64	B5-03822-P03-CH1	487096	OK	0.7681211	-0.5687233	0.2941834	0	-97.319	-28.658	-13.798	B5-03822-P04-CH0	487096	OK	0.7720451	-0.4021665	0.4921468	0	-121.072	-47.284	-2.943	B5-03822-P04-CH1	487096	OK	0.7174276	-0.6438622	0.2659682	0	-107.928	-40.543	-21.755	NA
0.719418250058644	B5-03822-P01-CH0	487104	OK	0.2426426	0.0174506	0.0856387	-0.9661708	107.507	-28.745	-257.944	B5-03822-P02-CH0	487104	OK	0.6707116	0.3835097	-0.634875	0	-73.953	-104.412	-2.835	B5-03822-P02-CH1	487104	OK	0.7552779	0.1974482	-0.6249556	0	-80.76	-85.705	-2.452	B5-03822-P03-CH0	487104	OK	0.8147356	-0.2975693	-0.497653	0	-92.966	-62.763	-1.186	B5-03822-P03-CH1	487104	OK	0.7682072	-0.5685466	0.2943001	0	-97.293	-28.597	-13.805	B5-03822-P04-CH0	487104	OK	0.7723023	-0.4027789	0.4912417	0	-121.201	-47.427	-2.507	B5-03822-P04-CH1	487104	OK	0.717583	-0.6437982	0.2657036	0	-107.836	-40.56	-21.428	NA
0.729410170198348	B5-03822-P01-CH0	487112	OK	0.24308	0.017688	0.0860167	-0.966023	107.654	-28.727	-257.937	B5-03822-P02-CH0	487112	OK	0.6701377	0.3957736	-0.6279162	0	-74.209	-104.074	-2.938	B5-03822-P02-CH1	487112	OK	0.749885	0.1987251	-0.6310157	0	-80.58	-84.781	-3.183	B5-03822-P03-CH0	487112	OK	0.8157287	-0.300891	-0.4940155	0	-93.136	-62.335	-0.843	B5-03822-P03-CH1	487112	OK	0.7683267	-0.5679749	0.2950908	0	-97.408	-28.81	-13.439	B5-03822-P04-CH0	487112	OK	0.7726009	-0.4036461	0.4900588	0	-121.242	-47.235	-2.643	B5-03822-P04-CH1	487112	OK	0.7181334	-0.6432653	0.2655075	0	-107.961	-40.508	-21.186	NA
0.739402090338051	B5-03822-P01-CH0	487120	OK	0.2433222	0.017596	0.0861024	-0.965956	107.662	-28.788	-257.952	B5-03822-P02-CH0	487120	OK	0.6697843	0.4076446	-0.6206568	0	-74.11	-103.937	-3.253	B5-03822-P02-CH1	487120	OK	0.7449001	0.1991687	-0.636754	0	-80.206	-84.522	-3.325	B5-03822-P03-CH0	487120	OK	0.8170481	-0.3042858	-0.4897373	0	-92.586	-62.522	-0.96	B5-03822-P03-CH1	487120	OK	0.7683609	-0.5678059	0.2953269	0	-97.384	-28.702	-13.637	B5-03822-P04-CH0	487120	OK	0.7726514	-0.4046988	0.4891101	0	-121.171	-47.115	-2.716	B5-03822-P04-CH1	487120	OK	0.7187494	-0.6430258	0.2644183	0	-107.853	-40.071	-21.272	NA
0.749394010477754	B5-03822-P01-CH0	487128	OK	0.2434751	0.0178544	0.0857149	-0.9659472	107.772	-28.868	-257.954	B5-03822-P02-CH0	487128	OK	0.6694611	0.4184684	-0.6137638	0	-74.224	-104.399	-2.244	B5-03822-P02-CH1	487128	OK	0.7403803	0.197297	-0.6425814	0	-79.68	-84.493	-4.18	B5-03822-P03-CH0	487128	OK	0.8161248	-0.3081375	-0.4888677	0	-92.741	-63.122	-1.175	B5-03822-P03-CH1	487128	OK	0.7680834	-0.5679717	0.2957296	0	-97.455	-28.729	-13.755	B5-03822-P04-CH0	487128	OK	0.7726345	-0.4057029	0.4883044	0	-121.287	-47.209	-2.651	B5-03822-P04-CH1	487128	OK	0.7183873	-0.6433254	0.2646736	0	-107.851	-40.398	-20.705	NA
0.759385930617458	B5-03822-P01-CH0	487136	OK	0.2435946	0.0178627	0.0858872	-0.9659017	107.804	-28.923	-257.865	B5-03822-P02-CH0	487136	OK	0.668315	0.4278812	-0.6085004	0	-74.628	-104.32	-2.244	B5-03822-P02-CH1	487136	OK	0.7367531	0.1946405	-0.6475415	0	-78.78	-83.652	-4.291	B5-03822-P03-CH0	487136	OK	0.8151476	-0.3091316	-0.4898693	0	-93.161	-62.38	-1.887	B5-03822-P03-CH1	487136	OK	0.7679745	-0.5677051	0.2965232	0	-97.538	-29.066	-13.32	B5-03822-P04-CH0	487136	OK	0.7726957	-0.4063947	0.4876317	0	-121.26	-47.422	-2.321	B5-03822-P04-CH1	487136	OK	0.71841	-0.6433391	0.2645787	0	-107.805	-40.555	-20.605	NA
0.769377850757161	B5-03822-P01-CH0	487144	OK	0.2437836	0.0179233	0.0859712	-0.9658454	107.847	-28.905	-257.85	B5-03822-P02-CH0	487144	OK	0.6685517	0.4348192	-0.6032999	0	-74.206	-103.858	-2.715	B5-03822-P02-CH1	487144	OK	0.7332915	0.1926092	-0.6520623	0	-78.159	-83.529	-4.335	B5-03822-P03-CH0	487144	OK	0.8153501	-0.3112954	-0.4881592	0	-92.304	-62.391	-1.986	B5-03822-P03-CH1	487144	OK	0.7679259	-0.5675523	0.2969414	0	-97.596	-29.08	-13.424	B5-03822-P04-CH0	487144	OK	0.772732	-0.4074227	0.4867155	0	-121.161	-47.257	-2.444	B5-03822-P04-CH1	487144	OK	0.7192313	-0.6430828	0.2629655	0	-107.956	-39.882	-20.999	NA
0.779369770896864	B5-03822-P01-CH0	487152	OK	0.2439005	0.0178063	0.0865224	-0.9657688	107.85	-28.806	-257.906	B5-03822-P02-CH0	487152	OK	0.6683809	0.4409503	-0.599024	0	-74.086	-103.503	-2.085	B5-03822-P02-CH1	487152	OK	0.7296524	0.1907333	-0.6566797	0	-77.769	-83.672	-4.862	B5-03822-P03-CH0	487152	OK	0.8140587	-0.3129361	-0.4892641	0	-92.42	-62.26	-2.231	B5-03822-P03-CH1	487152	OK	0.768173	-0.5670721	0.2972197	0	-97.693	-28.938	-13.488	B5-03822-P04-CH0	487152	OK	0.7729896	-0.4075654	0.4861867	0	-121.214	-47.517	-1.938	B5-03822-P04-CH1	487152	OK	0.7195821	-0.6426448	0.2630765	0	-108.031	-39.961	-20.414	NA
0.789361691036568	B5-03822-P01-CH0	487160	OK	0.243803	0.0178785	0.086092	-0.9658305	107.884	-28.864	-257.912	B5-03822-P02-CH0	487160	OK	0.6699293	0.4460471	-0.5934954	0	-73.763	-103.582	-2.46	B5-03822-P02-CH1	487160	OK	0.7258941	0.1888197	-0.6613811	0	-77.613	-83.531	-4.848	B5-03822-P03-CH0	487160	OK	0.812925	-0.3128291	-0.4912138	0	-92.534	-61.994	-1.826	B5-03822-P03-CH1	487160	OK	0.7679598	-0.5674862	0.29698	0	-97.591	-28.607	-13.993	B5-03822-P04-CH0	487160	OK	0.7727627	-0.4088665	0.4854544	0	-121.154	-47.621	-1.713	B5-03822-P04-CH1	487160	OK	0.7196454	-0.6429695	0.2621084	0	-107.944	-39.689	-20.569	NA
0.799353611176271	B5-03822-P01-CH0	487168	OK	0.2437065	0.0177355	0.085899	-0.9658747	107.88	-28.941	-257.973	B5-03822-P02-CH0	487168	OK	0.6711786	0.4511505	-0.5882028	0	-73.809	-103.754	-2.885	B5-03822-P02-CH1	487168	OK	0.7214741	0.186207	-0.6669348	0	-78.026	-83.761	-3.299	B5-03822-P03-CH0	487168	OK	0.812305	-0.3132672	-0.4919596	0	-92.545	-62.119	-1.69	B5-03822-P03-CH1	487168	OK	0.7681057	-0.5677023	0.2961887	0	-97.506	-27.971	-14.858	B5-03822-P04-CH0	487168	OK	0.7726243	-0.4104521	0.4843355	0	-120.968	-47.393	-1.752	B5-03822-P04-CH1	487168	OK	0.7195129	-0.6431522	0.2620238	0	-108.019	-39.787	-20.287	NA
0.809345531315975	B5-03822-P01-CH0	487176	OK	0.2437667	0.017815	0.086081	-0.9658419	107.967	-28.916	-257.94	B5-03822-P02-CH0	487176	OK	0.6711652	0.4575771	-0.5832328	0	-74.083	-103.638	-3.489	B5-03822-P02-CH1	487176	OK	0.7192352	0.1857173	-0.6694847	0	-77.399	-83.43	-4.188	B5-03822-P03-CH0	487176	OK	0.811815	-0.3145749	-0.491934	0	-92.636	-62.593	-1.178	B5-03822-P03-CH1	487176	OK	0.7681139	-0.5674939	0.2965665	0	-97.672	-28.005	-14.859	B5-03822-P04-CH0	487176	OK	0.7726807	-0.4115986	0.4832712	0	-120.993	-47.315	-1.967	B5-03822-P04-CH1	487176	OK	0.7192	-0.6433757	0.2623339	0	-107.983	-40.264	-19.681	NA
0.819337451455678	B5-03822-P01-CH0	487184	OK	0.2440244	0.0179022	0.0861029	-0.9657732	108.085	-28.943	-258.025	B5-03822-P02-CH0	487184	OK	0.670573	0.4651641	-0.5778878	0	-74.102	-103.171	-2.697	B5-03822-P02-CH1	487184	OK	0.7162622	0.1836029	-0.6732447	0	-77.247	-83.432	-4.134	B5-03822-P03-CH0	487184	OK	0.8123001	-0.3158561	-0.4903095	0	-92.259	-62.489	-2.07	B5-03822-P03-CH1	487184	OK	0.7680285	-0.5674582	0.2968557	0	-97.658	-27.996	-14.869	B5-03822-P04-CH0	487184	OK	0.7725304	-0.4127167	0.4825574	0	-120.931	-47.396	-2.086	B5-03822-P04-CH1	487184	OK	0.7195178	-0.6433174	0.2616045	0	-107.991	-40.04	-19.861	NA
0.829329371595381	B5-03822-P01-CH0	487192	OK	0.2439033	0.0178053	0.0858072	-0.9658319	108.083	-29.015	-258.134	B5-03822-P02-CH0	487192	OK	0.6711488	0.471972	-0.5716658	0	-73.75	-102.902	-2.933	B5-03822-P02-CH1	487192	OK	0.7145486	0.1815052	-0.6756302	0	-76.88	-83.777	-4.344	B5-03822-P03-CH0	487192	OK	0.8113629	-0.3181494	-0.4903786	0	-92.338	-62.897	-1.097	B5-03822-P03-CH1	487192	OK	0.7678161	-0.56798	0.2964071	0	-97.496	-27.603	-15.397	B5-03822-P04-CH0	487192	OK	0.7721281	-0.4145187	0.4816559	0	-120.758	-47.347	-2.199	B5-03822-P04-CH1	487192	OK	0.7185305	-0.6439319	0.2628034	0	-107.858	-40.878	-18.568	NA
0.839321291735085	B5-03822-P01-CH0	487200	OK	0.2440046	0.0177805	0.0859752	-0.9657918	108.106	-28.944	-258.239	B5-03822-P02-CH0	487200	OK	0.6715107	0.4770361	-0.5670184	0	-74.052	-103.337	-3.274	B5-03822-P02-CH1	487200	OK	0.7132606	0.1796712	-0.6774789	0	-76.339	-83.078	-4.946	B5-03822-P03-CH0	487200	OK	0.8112444	-0.3201205	-0.4892907	0	-92.145	-62.743	-0.99	B5-03822-P03-CH1	487200	OK	0.7675466	-0.5679728	0.2971181	0	-97.552	-27.882	-14.896	B5-03822-P04-CH0	487200	OK	0.772157	-0.4156991	0.4805911	0	-120.784	-47.103	-2.455	B5-03822-P04-CH1	487200	OK	0.7186769	-0.6440433	0.262129	0	-107.81	-40.677	-18.696	NA
0.849313211874788	B5-03822-P01-CH0	487208	OK	0.2440508	0.017833	0.0863482	-0.9657459	108.174	-28.932	-258.22	B5-03822-P02-CH0	487208	OK	0.6707149	0.4835232	-0.5624472	0	-74.415	-103.468	-3.208	B5-03822-P02-CH1	487208	OK	0.7114796	0.1783255	-0.6797034	0	-76.245	-83.068	-4.934	B5-03822-P03-CH0	487208	OK	0.8111961	-0.3217903	-0.4882745	0	-92.03	-62.785	-1.801	B5-03822-P03-CH1	487208	OK	0.7677299	-0.5677384	0.2970924	0	-97.657	-27.782	-14.989	B5-03822-P04-CH0	487208	OK	0.7722039	-0.4165799	0.4797524	0	-120.785	-47.034	-2.596	B5-03822-P04-CH1	487208	OK	0.719021	-0.6439859	0.2613253	0	-107.849	-40.484	-18.903	NA
0.859305132014492	B5-03822-P01-CH0	487216	OK	0.2440404	0.017931	0.0861905	-0.9657608	108.216	-28.903	-258.259	B5-03822-P02-CH0	487216	OK	0.6708121	0.4908588	-0.5559395	0	-74.317	-103.167	-2.754	B5-03822-P02-CH1	487216	OK	0.7100062	0.1782287	-0.6812677	0	-75.586	-81.66	-5.368	B5-03822-P03-CH0	487216	OK	0.8108665	-0.3238924	-0.4874312	0	-92.173	-62.332	-1.716	B5-03822-P03-CH1	487216	OK	0.7674577	-0.5680622	0.2971766	0	-97.607	-27.643	-15.103	B5-03822-P04-CH0	487216	OK	0.7720543	-0.4176084	0.4790985	0	-120.882	-46.95	-2.843	B5-03822-P04-CH1	487216	OK	0.719049	-0.644267	0.2605544	0	-107.77	-40.215	-18.948	NA
0.869297052154195	B5-03822-P01-CH0	487224	OK	0.2439682	0.0181695	0.0857182	-0.9658166	108.33	-29.01	-258.345	B5-03822-P02-CH0	487224	OK	0.671465	0.4979917	-0.5487613	0	-74.445	-102.865	-2.653	B5-03822-P02-CH1	487224	OK	0.7076463	0.1759079	-0.6843195	0	-76.017	-82.335	-4.8	B5-03822-P03-CH0	487224	OK	0.8087349	-0.3274026	-0.488626	0	-92.744	-62.544	-2.066	B5-03822-P03-CH1	487224	OK	0.7670435	-0.5686185	0.2971822	0	-97.629	-27.67	-15.092	B5-03822-P04-CH0	487224	OK	0.7716472	-0.4183325	0.4791226	0	-120.894	-47.397	-2.256	B5-03822-P04-CH1	487224	OK	0.7185386	-0.6448729	0.2604636	0	-107.666	-40.419	-18.727	NA
