Wav.Time	B5.03822.P01.CH0	Frame	State	Q0	Qx	Qy	Qz	Tx	Ty	Tz	B5.03822.P02.CH0	Frame.1	State.1	Q0.1	Qx.1	Qy.1	Qz.1	Tx.1	Ty.1	Tz.1	B5.03822.P02.CH1	Frame.2	State.2	Q0.2	Qx.2	Qy.2	Qz.2	Tx.2	Ty.2	Tz.2	B5.03822.P03.CH0	Frame.3	State.3	Q0.3	Qx.3	Qy.3	Qz.3	Tx.3	Ty.3	Tz.3	B5.03822.P03.CH1	Frame.4	State.4	Q0.4	Qx.4	Qy.4	Qz.4	Tx.4	Ty.4	Tz.4	B5.03822.P04.CH0	Frame.5	State.5	Q0.5	Qx.5	Qy.5	Qz.5	Tx.5	Ty.5	Tz.5	B5.03822.P04.CH1	Frame.6	State.6	Q0.6	Qx.6	Qy.6	Qz.6	Tx.6	Ty.6	Tz.6	X
0	B5-03822-P01-CH0	1553152	OK	0.1978318	0.1088681	0.1368675	-0.964509	151.691	-23.722	-256.46	B5-03822-P02-CH0	1553152	OK	0.6284502	0.4813129	-0.6110551	0	-83.613	-101.035	-0.844	B5-03822-P02-CH1	1553152	OK	0.6393464	0.035594	-0.7680945	0	-72.63	-75.27	-2.563	B5-03822-P03-CH0	1553152	OK	0.7636926	-0.2273105	-0.604238	0	-93.672	-57.873	-2.343	B5-03822-P03-CH1	1553152	OK	0.7629481	-0.6368551	0.1110212	0	-96.024	-9.636	-6.409	B5-03822-P04-CH0	1553152	OK	0.7686806	-0.3987799	0.5001047	0	-123.237	-37.092	9.76	B5-03822-P04-CH1	1553152	OK	0.807175	-0.5856641	0.0739332	0	-107.174	-43.499	-0.938	NA
0.00999206349206349	B5-03822-P01-CH0	1553160	OK	0.1977996	0.1092646	0.136067	-0.964584	151.788	-23.709	-256.417	B5-03822-P02-CH0	1553160	OK	0.6281864	0.4828042	-0.6101492	0	-84.651	-101.68	-0.172	B5-03822-P02-CH1	1553160	OK	0.6386343	0.0387902	-0.7685321	0	-72.803	-75.01	-1.758	B5-03822-P03-CH0	1553160	OK	0.7664375	-0.2423551	-0.5948424	0	-92.917	-57.322	-2.137	B5-03822-P03-CH1	1553160	OK	0.7621147	-0.6377519	0.1115965	0	-96.388	-10.162	-6.026	B5-03822-P04-CH0	1553160	OK	0.768618	-0.397801	0.5009798	0	-124.75	-40.225	13.45	B5-03822-P04-CH1	1553160	OK	0.8066911	-0.5863072	0.0741175	0	-107.29	-43.661	-0.715	NA
0.019984126984127	B5-03822-P01-CH0	1553168	OK	0.1979639	0.1092047	0.1364671	-0.9645006	151.786	-23.613	-256.445	B5-03822-P02-CH0	1553168	OK	0.6301569	0.4827754	-0.6081367	0	-83.455	-101.415	-0.59	B5-03822-P02-CH1	1553168	OK	0.6456774	0.0407582	-0.7625218	0	-72.309	-74.725	-2.842	B5-03822-P03-CH0	1553168	OK	0.7687053	-0.2574634	-0.5854952	0	-92.727	-58.4	-0.454	B5-03822-P03-CH1	1553168	OK	0.7623472	-0.6375377	0.1112315	0	-96.483	-10.139	-5.97	B5-03822-P04-CH0	1553168	OK	0.7689847	-0.3967646	0.5012388	0	-124.548	-39.721	13.152	B5-03822-P04-CH1	1553168	OK	0.8068847	-0.586013	0.0743358	0	-107.324	-43.723	-0.775	NA
0.0299761904761905	B5-03822-P01-CH0	1553176	OK	0.1976231	0.1097465	0.1354238	-0.964656	151.923	-23.62	-256.351	B5-03822-P02-CH0	1553176	OK	0.6287154	0.4862011	-0.6068982	0	-84.952	-101.776	0.161	B5-03822-P02-CH1	1553176	OK	0.650871	0.0391926	-0.758176	0	-73.563	-75.186	-3.007	B5-03822-P03-CH0	1553176	OK	0.7720731	-0.2719765	-0.5743969	0	-92.641	-58.738	-0.326	B5-03822-P03-CH1	1553176	OK	0.7614089	-0.6387762	0.1105506	0	-96.687	-10.306	-5.93	B5-03822-P04-CH0	1553176	OK	0.7690498	-0.395841	0.5018688	0	-124.644	-39.619	13.458	B5-03822-P04-CH1	1553176	OK	0.8063441	-0.5868097	0.0739165	0	-107.408	-43.606	-0.833	NA
0.039968253968254	B5-03822-P01-CH0	1553184	OK	0.1975178	0.1097297	0.1352977	-0.9646972	151.926	-23.608	-256.356	B5-03822-P02-CH0	1553184	OK	0.6268286	0.4909098	-0.6050566	0	-85.788	-100.849	1.142	B5-03822-P02-CH1	1553184	OK	0.6596594	0.0343055	-0.7507813	0	-72.77	-75.193	-3.331	B5-03822-P03-CH0	1553184	OK	0.776894	-0.2857926	-0.5610332	0	-92.329	-58.699	-1.133	B5-03822-P03-CH1	1553184	OK	0.7612292	-0.6390688	0.1100958	0	-96.827	-10.344	-5.85	B5-03822-P04-CH0	1553184	OK	0.7691142	-0.3952005	0.5022747	0	-124.384	-39.328	13.431	B5-03822-P04-CH1	1553184	OK	0.8060718	-0.587162	0.0740872	0	-107.393	-43.777	-0.905	NA
0.0499603174603175	B5-03822-P01-CH0	1553192	OK	0.1974824	0.1095755	0.1352244	-0.9647322	151.845	-23.651	-256.268	B5-03822-P02-CH0	1553192	OK	0.6313369	0.4923159	-0.5991984	0	-84.814	-101.875	-0.443	B5-03822-P02-CH1	1553192	OK	0.666874	0.0253108	-0.7447405	0	-72.664	-75.325	-3.772	B5-03822-P03-CH0	1553192	OK	0.7808067	-0.2967184	-0.5498173	0	-92.535	-58.156	-1.654	B5-03822-P03-CH1	1553192	OK	0.7611094	-0.6393184	0.109474	0	-96.877	-10.36	-5.974	B5-03822-P04-CH0	1553192	OK	0.7693304	-0.3944718	0.5025165	0	-124.151	-39.071	13.17	B5-03822-P04-CH1	1553192	OK	0.8059796	-0.5872719	0.0742197	0	-107.304	-43.824	-1.093	NA
0.059952380952381	B5-03822-P01-CH0	1553200	OK	0.1973252	0.1096934	0.1350777	-0.9647716	151.878	-23.624	-256.211	B5-03822-P02-CH0	1553200	OK	0.631449	0.4935376	-0.5980742	0	-85.553	-101.727	0.311	B5-03822-P02-CH1	1553200	OK	0.6716417	0.015844	-0.7407066	0	-72.875	-75.07	-2.643	B5-03822-P03-CH0	1553200	OK	0.7858156	-0.3109387	-0.5346129	0	-92.072	-59.016	-0.953	B5-03822-P03-CH1	1553200	OK	0.7611482	-0.6395376	0.1079124	0	-96.807	-9.948	-6.243	B5-03822-P04-CH0	1553200	OK	0.7694857	-0.393107	0.5033475	0	-124.125	-39.171	13.276	B5-03822-P04-CH1	1553200	OK	0.8059128	-0.5873691	0.0741764	0	-107.299	-43.765	-1.18	NA
0.0699444444444444	B5-03822-P01-CH0	1553208	OK	0.1973529	0.1095378	0.1348938	-0.9648093	151.861	-23.567	-256.326	B5-03822-P02-CH0	1553208	OK	0.6314241	0.4940027	-0.5977164	0	-85.505	-100.464	0.145	B5-03822-P02-CH1	1553208	OK	0.6751626	0.0108428	-0.7375892	0	-72.939	-75.354	-3.8	B5-03822-P03-CH0	1553208	OK	0.7896049	-0.3224448	-0.5220665	0	-92.255	-59.564	-1.055	B5-03822-P03-CH1	1553208	OK	0.7605035	-0.6403145	0.1078506	0	-96.96	-10.286	-5.992	B5-03822-P04-CH0	1553208	OK	0.7696229	-0.3913738	0.5044869	0	-124.161	-39.328	13.412	B5-03822-P04-CH1	1553208	OK	0.8057589	-0.5875531	0.0743907	0	-107.328	-43.878	-0.921	NA
0.0799365079365079	B5-03822-P01-CH0	1553216	OK	0.1972567	0.1094565	0.1348855	-0.9648393	151.904	-23.589	-256.402	B5-03822-P02-CH0	1553216	OK	0.634545	0.4923759	-0.5957505	0	-85.094	-100.916	-1.304	B5-03822-P02-CH1	1553216	OK	0.6759843	0.0116306	-0.7368243	0	-73.695	-75.134	-3.183	B5-03822-P03-CH0	1553216	OK	0.7934347	-0.3288791	-0.5121523	0	-92.668	-59.281	-0.609	B5-03822-P03-CH1	1553216	OK	0.7605065	-0.6405677	0.1063151	0	-96.816	-10.059	-5.939	B5-03822-P04-CH0	1553216	OK	0.7712917	-0.3830395	0.5083206	0	-123.71	-38.146	11.979	B5-03822-P04-CH1	1553216	OK	0.805919	-0.5873374	0.0743602	0	-107.424	-43.865	-0.725	NA
0.0899285714285714	B5-03822-P01-CH0	1553224	OK	0.1974785	0.1093214	0.1352278	-0.9647614	151.942	-23.556	-256.469	B5-03822-P02-CH0	1553224	OK	0.634003	0.4889559	-0.5991347	0	-86.516	-101.615	-0.248	B5-03822-P02-CH1	1553224	OK	0.6782449	0.015346	-0.7346757	0	-73.258	-74.229	-3.614	B5-03822-P03-CH0	1553224	OK	0.7976872	-0.3330627	-0.5027568	0	-93.341	-59.239	-0.139	B5-03822-P03-CH1	1553224	OK	0.7607342	-0.64043	0.105512	0	-96.859	-9.915	-5.925	B5-03822-P04-CH0	1553224	OK	0.7726791	-0.3844428	0.5051442	0	-122.531	-35.639	10.693	B5-03822-P04-CH1	1553224	OK	0.8062222	-0.5868698	0.0747644	0	-107.413	-43.815	-0.831	NA
0.0999206349206349	B5-03822-P01-CH0	1553232	OK	0.1969181	0.1092911	0.1341434	-0.9650307	151.873	-23.583	-256.467	B5-03822-P02-CH0	1553232	OK	0.6321804	0.4881576	-0.6017061	0	-87.215	-100.341	1.292	B5-03822-P02-CH1	1553232	OK	0.6798554	0.0241407	-0.7329488	0	-72.531	-74.057	-3.375	B5-03822-P03-CH0	1553232	OK	0.8015974	-0.33598	-0.4945291	0	-93.757	-59.899	-0.1	B5-03822-P03-CH1	1553232	OK	0.7598168	-0.6416891	0.1044675	0	-96.695	-9.915	-5.804	B5-03822-P04-CH0	1553232	OK	0.7726681	-0.381537	0.5073594	0	-122.713	-37.336	10.998	B5-03822-P04-CH1	1553232	OK	0.8054928	-0.5878461	0.0749553	0	-107.406	-43.9	-0.598	NA
0.109912698412698	B5-03822-P01-CH0	1553240	OK	0.1970053	0.1091763	0.1345183	-0.9649737	151.917	-23.584	-256.495	B5-03822-P02-CH0	1553240	OK	0.6330268	0.4853011	-0.6031251	0	-86.693	-100.253	0.151	B5-03822-P02-CH1	1553240	OK	0.6792976	0.038049	-0.7328759	0	-72.622	-75.015	-2.928	B5-03822-P03-CH0	1553240	OK	0.8072409	-0.3357308	-0.4854348	0	-93.233	-60.091	-0.428	B5-03822-P03-CH1	1553240	OK	0.7603115	-0.6413471	0.102958	0	-96.479	-9.504	-6.048	B5-03822-P04-CH0	1553240	OK	0.7745632	-0.3780101	0.5071097	0	-122.463	-37.41	11.795	B5-03822-P04-CH1	1553240	OK	0.8058177	-0.5873427	0.0754085	0	-107.513	-43.826	-0.794	NA
0.119904761904762	B5-03822-P01-CH0	1553248	OK	0.1972359	0.1091199	0.1349221	-0.9648766	151.968	-23.521	-256.507	B5-03822-P02-CH0	1553248	OK	0.6356957	0.4801835	-0.6044127	0	-86.259	-101.92	-2.085	B5-03822-P02-CH1	1553248	OK	0.6766435	0.0620237	-0.7336938	0	-73.081	-75.592	-3.676	B5-03822-P03-CH0	1553248	OK	0.8109258	-0.3331201	-0.481072	0	-93.592	-60.696	0.94	B5-03822-P03-CH1	1553248	OK	0.76076	-0.640975	0.1019577	0	-96.31	-9.238	-6.22	B5-03822-P04-CH0	1553248	OK	0.7773392	-0.3700776	0.5087105	0	-123.986	-39.071	12.84	B5-03822-P04-CH1	1553248	OK	0.8061819	-0.5867208	0.0763515	0	-107.623	-43.792	-0.88	NA
0.129896825396825	B5-03822-P01-CH0	1553256	OK	0.1971375	0.1090234	0.135004	-0.9648962	151.945	-23.425	-256.516	B5-03822-P02-CH0	1553256	OK	0.6311743	0.4780239	-0.6108291	0	-87.358	-100.263	-0.604	B5-03822-P02-CH1	1553256	OK	0.6748758	0.0819755	-0.7333639	0	-73.724	-75.297	-2.994	B5-03822-P03-CH0	1553256	OK	0.814603	-0.3271924	-0.4789229	0	-93.3	-61.441	1.732	B5-03822-P03-CH1	1553256	OK	0.7611777	-0.6406413	0.1009318	0	-96.1	-8.859	-6.351	B5-03822-P04-CH0	1553256	OK	0.7786292	-0.3624156	0.5122416	0	-125.262	-40.815	13.044	B5-03822-P04-CH1	1553256	OK	0.806206	-0.5865534	0.0773754	0	-107.773	-43.796	-0.978	NA
0.139888888888889	B5-03822-P01-CH0	1553264	OK	0.1975471	0.1086366	0.135634	-0.9647677	151.853	-23.299	-256.511	B5-03822-P02-CH0	1553264	OK	0.6290984	0.4725355	-0.6172077	0	-87.062	-99.432	0.677	B5-03822-P02-CH1	1553264	OK	0.678328	0.0823929	-0.730125	0	-73.761	-75.125	-2.896	B5-03822-P03-CH0	1553264	OK	0.8152334	-0.3176129	-0.4842691	0	-95.067	-60.713	0.936	B5-03822-P03-CH1	1553264	OK	0.7620366	-0.6396488	0.1007453	0	-95.903	-8.511	-6.558	B5-03822-P04-CH0	1553264	OK	0.7793337	-0.3535123	0.5173664	0	-126.305	-40.646	11.691	B5-03822-P04-CH1	1553264	OK	0.8066407	-0.5857277	0.0790811	0	-107.799	-43.811	-1.159	NA
0.149880952380952	B5-03822-P01-CH0	1553272	OK	0.1977408	0.1086071	0.1358704	-0.964698	151.922	-23.224	-256.587	B5-03822-P02-CH0	1553272	OK	0.6316238	0.46653	-0.6191939	0	-86.014	-101.069	-1.372	B5-03822-P02-CH1	1553272	OK	0.6838352	0.0781663	-0.7254374	0	-73.977	-74.986	-2.614	B5-03822-P03-CH0	1553272	OK	0.8160238	-0.3055959	-0.4906285	0	-94.67	-61.743	2.023	B5-03822-P03-CH1	1553272	OK	0.763293	-0.6383706	0.0993316	0	-95.536	-7.538	-7.174	B5-03822-P04-CH0	1553272	OK	0.7802953	-0.340554	0.5245591	0	-128.089	-43.059	13.431	B5-03822-P04-CH1	1553272	OK	0.8066807	-0.5854007	0.0810693	0	-108.003	-44.038	-1.368	NA
0.159873015873016	B5-03822-P01-CH0	1553280	OK	0.197871	0.1085309	0.1361294	-0.9646434	151.965	-23.117	-256.63	B5-03822-P02-CH0	1553280	OK	0.6245069	0.4635909	-0.6285497	0	-87.662	-99.437	1.915	B5-03822-P02-CH1	1553280	OK	0.6902729	0.0754975	-0.7195995	0	-74.909	-75.143	-2.697	B5-03822-P03-CH0	1553280	OK	0.8133731	-0.2830484	-0.50824	0	-95.105	-60.944	0.927	B5-03822-P03-CH1	1553280	OK	0.7642422	-0.637186	0.0996389	0	-95.37	-7.192	-7.282	B5-03822-P04-CH0	1553280	OK	0.7803282	-0.3361041	0.5273726	0	-127.489	-42.214	12.664	B5-03822-P04-CH1	1553280	OK	0.8068741	-0.5848491	0.0831003	0	-108.275	-44.129	-1.592	NA
0.169865079365079	B5-03822-P01-CH0	1553288	OK	0.1976243	0.1090757	0.1356304	-0.9647028	152.099	-23.157	-256.336	B5-03822-P02-CH0	1553288	OK	0.6226564	0.463119	-0.6307296	0	-88.709	-100.45	0.736	B5-03822-P02-CH1	1553288	OK	0.6986859	0.074374	-0.7115522	0	-75.203	-75.97	-2.749	B5-03822-P03-CH0	1553288	OK	0.8070242	-0.2552087	-0.5325226	0	-95.315	-61.279	0.658	B5-03822-P03-CH1	1553288	OK	0.7654166	-0.6333569	0.1140016	0	-95.168	-9.395	-7.066	B5-03822-P04-CH0	1553288	OK	0.7823178	-0.3344268	0.525488	0	-127.957	-41.581	10.577	B5-03822-P04-CH1	1553288	OK	0.8063579	-0.5834514	0.0968063	0	-109.831	-46.252	-1.758	NA
0.179857142857143	B5-03822-P01-CH0	1553296	OK	0.1980078	0.1089659	0.13604	-0.9645789	152.075	-23.044	-256.289	B5-03822-P02-CH0	1553296	OK	0.6216109	0.4634204	-0.6315389	0	-87.777	-100.001	-1.738	B5-03822-P02-CH1	1553296	OK	0.7019812	0.0754866	-0.7081837	0	-77.139	-76.233	-2.239	B5-03822-P03-CH0	1553296	OK	0.7969488	-0.2190168	-0.5629425	0	-95.524	-60.474	-0.401	B5-03822-P03-CH1	1553296	OK	0.7665534	-0.6311293	0.1186246	0	-95.395	-9.047	-8.166	B5-03822-P04-CH0	1553296	OK	0.7857604	-0.332248	0.5217201	0	-128.288	-41.773	10.441	B5-03822-P04-CH1	1553296	OK	0.8064998	-0.5828723	0.0990852	0	-110.339	-47.065	-0.6	NA
0.189849206349206	B5-03822-P01-CH0	1553304	OK	0.1980588	0.1088645	0.1360838	-0.9645737	151.984	-22.99	-256.189	B5-03822-P02-CH0	1553304	OK	0.6190833	0.464508	-0.6332204	0	-88.94	-101.321	-0.562	B5-03822-P02-CH1	1553304	OK	0.7058317	0.0789008	-0.7039718	0	-77.629	-76.364	-2.564	B5-03822-P03-CH0	1553304	OK	0.7830604	-0.1744531	-0.5969778	0	-94.664	-59.883	-1.051	B5-03822-P03-CH1	1553304	OK	0.76966	-0.6278296	0.1159891	0	-93.866	-6.031	-9.829	B5-03822-P04-CH0	1553304	OK	0.7873497	-0.3292965	0.5211951	0	-128.766	-43.83	10.389	B5-03822-P04-CH1	1553304	OK	0.8073049	-0.5817547	0.0990972	0	-110.747	-46.46	-0.585	NA
0.19984126984127	B5-03822-P01-CH0	1553312	OK	0.1985657	0.1086001	0.1372373	-0.9643358	151.985	-22.859	-256.276	B5-03822-P02-CH0	1553312	OK	0.6159449	0.4663966	-0.6348906	0	-89.318	-100.577	0.301	B5-03822-P02-CH1	1553312	OK	0.7078498	0.0830277	-0.7014663	0	-78.608	-77.408	-2.313	B5-03822-P03-CH0	1553312	OK	0.7643823	-0.1259578	-0.6323403	0	-94.151	-60.047	-0.022	B5-03822-P03-CH1	1553312	OK	0.7701423	-0.6263077	0.1209111	0	-94.144	-6.979	-9.508	B5-03822-P04-CH0	1553312	OK	0.7900011	-0.3250172	0.5198673	0	-129.387	-45.593	12.56	B5-03822-P04-CH1	1553312	OK	0.807564	-0.5825245	0.0922258	0	-109.436	-45.023	-2.246	NA
0.209833333333333	B5-03822-P01-CH0	1553320	OK	0.198644	0.1083987	0.137543	-0.9642988	151.901	-22.823	-256.23	B5-03822-P02-CH0	1553320	OK	0.618884	0.4653922	-0.6327659	0	-87.433	-99.566	-1.301	B5-03822-P02-CH1	1553320	OK	0.7103116	0.0814258	-0.6991619	0	-78.727	-76.579	-3.023	B5-03822-P03-CH0	1553320	OK	0.744344	-0.0705213	-0.6640623	0	-93.384	-58.473	-2.485	B5-03822-P03-CH1	1553320	OK	0.7685988	-0.6268028	0.1279611	0	-94.89	-9.309	-7.763	B5-03822-P04-CH0	1553320	OK	0.7916455	-0.3272124	0.5159742	0	-128.617	-43.328	11.155	B5-03822-P04-CH1	1553320	OK	0.8077511	-0.5819713	0.094062	0	-109.612	-45.254	-2.25	NA
0.219825396825397	B5-03822-P01-CH0	1553328	OK	0.1987893	0.1083271	0.1378976	-0.9642263	151.858	-22.796	-256.219	B5-03822-P02-CH0	1553328	OK	0.6213471	0.4620808	-0.6327789	0	-88.123	-101.635	-1.345	B5-03822-P02-CH1	1553328	OK	0.7113368	0.0758233	-0.6987494	0	-79.116	-76.749	-2.826	B5-03822-P03-CH0	1553328	OK	0.7274208	-0.0152058	-0.6860231	0	-91.462	-57.531	-1.888	B5-03822-P03-CH1	1553328	OK	0.7688927	-0.6265039	0.1276594	0	-93.841	-8.395	-9.43	B5-03822-P04-CH0	1553328	OK	0.7928021	-0.3263521	0.5147419	0	-128.909	-44.947	12.047	B5-03822-P04-CH1	1553328	OK	0.8080588	-0.5813312	0.0953676	0	-109.912	-45.442	-2.144	NA
0.22981746031746	B5-03822-P01-CH0	1553336	OK	0.1990222	0.1083464	0.1380331	-0.9641567	151.819	-22.822	-256.102	B5-03822-P02-CH0	1553336	OK	0.620727	0.4590526	-0.6355853	0	-88.177	-100.258	-1.722	B5-03822-P02-CH1	1553336	OK	0.711633	0.0692146	-0.6991337	0	-79.778	-76.565	-3.807	B5-03822-P03-CH0	1553336	OK	0.7096055	0.037317	-0.7036103	0	-92.365	-58.224	-2.309	B5-03822-P03-CH1	1553336	OK	0.7688515	-0.6254795	0.132826	0	-94.788	-9.573	-7.905	B5-03822-P04-CH0	1553336	OK	0.7927476	-0.3322363	0.5110482	0	-127.449	-42.704	10.433	B5-03822-P04-CH1	1553336	OK	0.8080968	-0.5810602	0.0966877	0	-110.145	-45.814	-1.999	NA
0.239809523809524	B5-03822-P01-CH0	1553344	OK	0.1988373	0.1085073	0.1380198	-0.9641786	151.784	-22.806	-255.931	B5-03822-P02-CH0	1553344	OK	0.6244439	0.4593054	-0.6317502	0	-86.439	-100.005	-3.604	B5-03822-P02-CH1	1553344	OK	0.7126075	0.0624611	-0.6987769	0	-79.624	-75.806	-2.895	B5-03822-P03-CH0	1553344	OK	0.6996699	0.0866021	-0.7091982	0	-91.585	-57.468	-3.991	B5-03822-P03-CH1	1553344	OK	0.7684704	-0.6260287	0.1324437	0	-94.274	-8.953	-9.349	B5-03822-P04-CH0	1553344	OK	0.7940978	-0.3351814	0.507013	0	-127.859	-42.861	11.712	B5-03822-P04-CH1	1553344	OK	0.8081622	-0.5809362	0.0968863	0	-110.394	-45.85	-1.755	NA
0.249801587301587	B5-03822-P01-CH0	1553352	OK	0.198649	0.1086373	0.1376737	-0.9642523	151.749	-22.829	-255.803	B5-03822-P02-CH0	1553352	OK	0.6241474	0.4624623	-0.629737	0	-87.023	-101.225	-1.719	B5-03822-P02-CH1	1553352	OK	0.7152256	0.0522827	-0.6969354	0	-79.037	-75.253	-3.359	B5-03822-P03-CH0	1553352	OK	0.700813	0.1098777	-0.7048319	0	-92.13	-57.035	-3.312	B5-03822-P03-CH1	1553352	OK	0.7671153	-0.6269721	0.1357943	0	-94.72	-10.561	-7.879	B5-03822-P04-CH0	1553352	OK	0.7943042	-0.340378	0.5032133	0	-127.947	-42.129	10.48	B5-03822-P04-CH1	1553352	OK	0.8080966	-0.58106	0.096691	0	-110.558	-45.905	-1.314	NA
0.259793650793651	B5-03822-P01-CH0	1553360	OK	0.1986475	0.1089056	0.1372895	-0.9642771	151.769	-22.88	-255.672	B5-03822-P02-CH0	1553360	OK	0.6205002	0.4639273	-0.6322587	0	-87.794	-100.112	-1.481	B5-03822-P02-CH1	1553360	OK	0.7147612	0.0407891	-0.6981781	0	-80.177	-75.228	-3.273	B5-03822-P03-CH0	1553360	OK	0.710564	0.1120576	-0.6946523	0	-92.503	-54.439	-1.401	B5-03822-P03-CH1	1553360	OK	0.7686114	-0.6260209	0.1316598	0	-93.481	-8.241	-9.842	B5-03822-P04-CH0	1553360	OK	0.7940407	-0.3456891	0.4999984	0	-127.362	-41.877	10.762	B5-03822-P04-CH1	1553360	OK	0.8078618	-0.5814499	0.0963086	0	-110.707	-45.966	-1.141	NA
0.269785714285714	B5-03822-P01-CH0	1553368	OK	0.1986236	0.1086761	0.1372476	-0.9643139	151.671	-22.845	-255.78	B5-03822-P02-CH0	1553368	OK	0.6219222	0.478424	-0.6199381	0	-86.736	-98.787	-2.162	B5-03822-P02-CH1	1553368	OK	0.7154364	0.0313539	-0.697974	0	-79.916	-73.979	-3.066	B5-03822-P03-CH0	1553368	OK	0.7227618	0.1013142	-0.6836306	0	-92.476	-54.345	-0.684	B5-03822-P03-CH1	1553368	OK	0.7696907	-0.6259049	0.1257748	0	-93.77	-6.996	-10.126	B5-03822-P04-CH0	1553368	OK	0.7937813	-0.3503068	0.4971885	0	-127.336	-42.063	10.943	B5-03822-P04-CH1	1553368	OK	0.8079209	-0.5814944	0.0955409	0	-110.694	-45.836	-0.789	NA
0.279777777777778	B5-03822-P01-CH0	1553376	OK	0.1983116	0.1089488	0.1366514	-0.964432	151.691	-22.893	-255.659	B5-03822-P02-CH0	1553376	OK	0.6203754	0.4921998	-0.6106339	0	-87.481	-98.833	-0.737	B5-03822-P02-CH1	1553376	OK	0.7129693	0.0217618	-0.7008575	0	-80.359	-73.613	-2.254	B5-03822-P03-CH0	1553376	OK	0.734404	0.0788896	-0.6741121	0	-93.296	-55.243	-0.79	B5-03822-P03-CH1	1553376	OK	0.7691056	-0.6262424	0.1276601	0	-93.967	-7.464	-9.699	B5-03822-P04-CH0	1553376	OK	0.793601	-0.3563126	0.4931925	0	-127.196	-41.663	11.263	B5-03822-P04-CH1	1553376	OK	0.8076079	-0.5821699	0.0940622	0	-110.699	-45.622	-0.668	NA
0.289769841269841	B5-03822-P01-CH0	1553384	OK	0.198199	0.1092889	0.1364733	-0.9644419	151.796	-22.872	-255.617	B5-03822-P02-CH0	1553384	OK	0.6183245	0.5074056	-0.6001786	0	-87.931	-98.735	1.232	B5-03822-P02-CH1	1553384	OK	0.7099533	0.0115993	-0.7041533	0	-79.605	-73.745	-3.573	B5-03822-P03-CH0	1553384	OK	0.7458505	0.0433823	-0.6646991	0	-95.142	-56.226	0.339	B5-03822-P03-CH1	1553384	OK	0.7687689	-0.6264013	0.1289022	0	-94.067	-7.654	-9.749	B5-03822-P04-CH0	1553384	OK	0.7930038	-0.3624582	0.4896621	0	-126.393	-40.706	11.232	B5-03822-P04-CH1	1553384	OK	0.8073789	-0.582693	0.09278	0	-110.736	-45.485	-0.721	NA
0.299761904761905	B5-03822-P01-CH0	1553392	OK	0.1980439	0.1096347	0.1360582	-0.9644931	151.85	-22.867	-255.467	B5-03822-P02-CH0	1553392	OK	0.6201834	0.5249978	-0.5828807	0	-86.396	-98.32	-0.136	B5-03822-P02-CH1	1553392	OK	0.7008162	0.0043818	-0.7133284	0	-78.761	-73.671	-3.41	B5-03822-P03-CH0	1553392	OK	0.7584869	-0.0034823	-0.651679	0	-96.036	-55.291	0.551	B5-03822-P03-CH1	1553392	OK	0.7682436	-0.6268538	0.129831	0	-94.14	-7.859	-9.735	B5-03822-P04-CH0	1553392	OK	0.7934603	-0.3645258	0.4873826	0	-127.208	-41.273	12.241	B5-03822-P04-CH1	1553392	OK	0.8070397	-0.5833338	0.0916988	0	-110.829	-45.488	-0.423	NA
0.309753968253968	B5-03822-P01-CH0	1553400	OK	0.1979975	0.1096266	0.1359024	-0.9645255	151.799	-22.798	-255.412	B5-03822-P02-CH0	1553400	OK	0.6210432	0.5454202	-0.5628696	0	-85.631	-98.603	-0.316	B5-03822-P02-CH1	1553400	OK	0.6903965	-0.0067069	-0.7234001	0	-77.024	-73.493	-3.57	B5-03822-P03-CH0	1553400	OK	0.7743236	-0.0618083	-0.629764	0	-96.328	-55.442	0.825	B5-03822-P03-CH1	1553400	OK	0.7681847	-0.6268435	0.1302284	0	-94.161	-7.811	-9.676	B5-03822-P04-CH0	1553400	OK	0.7924713	-0.3704912	0.4844848	0	-126.341	-40.47	12.174	B5-03822-P04-CH1	1553400	OK	0.8069683	-0.5836025	0.09061	0	-110.727	-45.236	-0.348	NA
0.319746031746032	B5-03822-P01-CH0	1553408	OK	0.1977784	0.1097231	0.1350546	-0.9646786	151.736	-22.785	-255.272	B5-03822-P02-CH0	1553408	OK	0.6184546	0.5682563	-0.5427695	0	-86.428	-98.402	0.5	B5-03822-P02-CH1	1553408	OK	0.6800656	-0.020309	-0.73287	0	-75.008	-72.322	-3.393	B5-03822-P03-CH0	1553408	OK	0.7894722	-0.1288791	-0.6001032	0	-97.352	-56.003	1.743	B5-03822-P03-CH1	1553408	OK	0.7674639	-0.6276549	0.1305702	0	-94.156	-7.894	-9.76	B5-03822-P04-CH0	1553408	OK	0.7918092	-0.3730166	0.4836289	0	-127.375	-42.469	12.781	B5-03822-P04-CH1	1553408	OK	0.806352	-0.5845841	0.0897659	0	-110.593	-45.184	-0.079	NA
0.329738095238095	B5-03822-P01-CH0	1553416	OK	0.1974112	0.1099127	0.1341924	-0.9648525	151.725	-22.82	-255.137	B5-03822-P02-CH0	1553416	OK	0.6193032	0.5883054	-0.5199619	0	-85.161	-98.249	-0.717	B5-03822-P02-CH1	1553416	OK	0.6694228	-0.0357013	-0.7420233	0	-74.565	-71.711	-4.127	B5-03822-P03-CH0	1553416	OK	0.7998097	-0.1819578	-0.5720103	0	-98.044	-56.388	2.105	B5-03822-P03-CH1	1553416	OK	0.7666994	-0.6285864	0.1305799	0	-94.226	-8.05	-9.811	B5-03822-P04-CH0	1553416	OK	0.7914225	-0.3762695	0.4817382	0	-127.856	-41.482	11.819	B5-03822-P04-CH1	1553416	OK	0.8058605	-0.5854722	0.0883806	0	-110.494	-44.819	-0.287	NA
0.339730158730159	B5-03822-P01-CH0	1553424	OK	0.1976831	0.1099086	0.1343242	-0.964779	151.783	-22.795	-255.234	B5-03822-P02-CH0	1553424	OK	0.616593	0.606335	-0.5021663	0	-84.962	-98.893	1.334	B5-03822-P02-CH1	1553424	OK	0.6607775	-0.054902	-0.7485712	0	-74.235	-72.131	-3.588	B5-03822-P03-CH0	1553424	OK	0.8044992	-0.2115939	-0.5549856	0	-97.958	-56.716	2.131	B5-03822-P03-CH1	1553424	OK	0.7669488	-0.6283151	0.1304211	0	-94.245	-7.997	-9.755	B5-03822-P04-CH0	1553424	OK	0.7896437	-0.3807657	0.481124	0	-127.196	-40.306	10.386	B5-03822-P04-CH1	1553424	OK	0.8058442	-0.5855412	0.088072	0	-110.377	-44.849	-0.284	NA
0.349722222222222	B5-03822-P01-CH0	1553432	OK	0.1977612	0.110034	0.1342109	-0.9647645	151.824	-22.724	-255.196	B5-03822-P02-CH0	1553432	OK	0.6164547	0.6220351	-0.4827587	0	-83.648	-98.926	-0.898	B5-03822-P02-CH1	1553432	OK	0.6542539	-0.0716716	-0.7528712	0	-73.029	-72.233	-2.127	B5-03822-P03-CH0	1553432	OK	0.8055977	-0.23235	-0.5450008	0	-98.183	-55.665	1.849	B5-03822-P03-CH1	1553432	OK	0.7669315	-0.628365	0.1302827	0	-94.374	-7.982	-9.546	B5-03822-P04-CH0	1553432	OK	0.7873115	-0.3845475	0.4819376	0	-126.162	-39.943	10.328	B5-03822-P04-CH1	1553432	OK	0.8056934	-0.5858421	0.0874478	0	-110.276	-44.579	-0.648	NA
0.359714285714286	B5-03822-P01-CH0	1553440	OK	0.1977258	0.1100899	0.1339516	-0.9648014	151.791	-22.673	-255.096	B5-03822-P02-CH0	1553440	OK	0.6111179	0.6395446	-0.4663879	0	-83.769	-98.461	0.968	B5-03822-P02-CH1	1553440	OK	0.6499212	-0.0917423	-0.754444	0	-72.212	-70.336	-1.63	B5-03822-P03-CH0	1553440	OK	0.8059933	-0.2506544	-0.5362343	0	-98.264	-55.853	0.779	B5-03822-P03-CH1	1553440	OK	0.7662723	-0.6289967	0.1311101	0	-94.74	-8.519	-9.088	B5-03822-P04-CH0	1553440	OK	0.7862833	-0.3868166	0.4818002	0	-126.433	-39.382	9.56	B5-03822-P04-CH1	1553440	OK	0.8053735	-0.586338	0.0870702	0	-110.05	-44.527	-0.692	NA
0.369706349206349	B5-03822-P01-CH0	1553448	OK	0.197867	0.1100274	0.1341803	-0.9647478	151.77	-22.656	-255.036	B5-03822-P02-CH0	1553448	OK	0.6096987	0.653908	-0.4479641	0	-82.74	-100.257	0.208	B5-03822-P02-CH1	1553448	OK	0.6525589	-0.1107833	-0.7495958	0	-72.147	-70.867	-2.517	B5-03822-P03-CH0	1553448	OK	0.8075987	-0.2613664	-0.528651	0	-97.845	-55.711	0.885	B5-03822-P03-CH1	1553448	OK	0.7663089	-0.6289849	0.1309533	0	-94.773	-8.637	-8.997	B5-03822-P04-CH0	1553448	OK	0.7851548	-0.3919309	0.479502	0	-125.843	-37.546	7.345	B5-03822-P04-CH1	1553448	OK	0.8055695	-0.5861384	0.0866007	0	-109.87	-44.242	-1.124	NA
0.379698412698413	B5-03822-P01-CH0	1553456	OK	0.19795	0.1100715	0.134105	-0.9647362	151.77	-22.674	-254.937	B5-03822-P02-CH0	1553456	OK	0.5991141	0.6746822	-0.4311221	0	-82.784	-98.89	0.407	B5-03822-P02-CH1	1553456	OK	0.6581177	-0.1326881	-0.7411309	0	-72.75	-71.078	-2.346	B5-03822-P03-CH0	1553456	OK	0.8090497	-0.2698824	-0.5221132	0	-97.754	-55.718	1.616	B5-03822-P03-CH1	1553456	OK	0.7661781	-0.6292474	0.1304561	0	-94.749	-8.571	-9.243	B5-03822-P04-CH0	1553456	OK	0.784222	-0.393418	0.4798105	0	-125.828	-38.737	9.056	B5-03822-P04-CH1	1553456	OK	0.8054925	-0.5862654	0.0864567	0	-109.892	-44.266	-1.204	NA
0.389690476190476	B5-03822-P01-CH0	1553464	OK	0.1978832	0.110195	0.1336496	-0.964799	151.76	-22.609	-254.839	B5-03822-P02-CH0	1553464	OK	0.5930108	0.6926135	-0.4106394	0	-81.341	-99.807	-0.882	B5-03822-P02-CH1	1553464	OK	0.6651803	-0.1509172	-0.7312723	0	-72.337	-71.13	-2.957	B5-03822-P03-CH0	1553464	OK	0.8091739	-0.2748201	-0.5193376	0	-98.098	-55.623	1.862	B5-03822-P03-CH1	1553464	OK	0.7654224	-0.6301062	0.1307467	0	-94.951	-8.928	-9.005	B5-03822-P04-CH0	1553464	OK	0.7830556	-0.3958109	0.4797476	0	-126.341	-38.717	8.549	B5-03822-P04-CH1	1553464	OK	0.8051296	-0.5867882	0.0862905	0	-109.852	-44.315	-0.963	NA
0.39968253968254	B5-03822-P01-CH0	1553472	OK	0.1981727	0.110177	0.1339704	-0.9646971	151.766	-22.51	-254.797	B5-03822-P02-CH0	1553472	OK	0.5803255	0.7109062	-0.3972842	0	-81.188	-98.745	0.263	B5-03822-P02-CH1	1553472	OK	0.6705945	-0.1658186	-0.7230541	0	-72.511	-71.154	-3.464	B5-03822-P03-CH0	1553472	OK	0.8106485	-0.2773277	-0.5156921	0	-97.666	-55.582	1.907	B5-03822-P03-CH1	1553472	OK	0.7655912	-0.6300079	0.1302308	0	-94.967	-8.8	-8.977	B5-03822-P04-CH0	1553472	OK	0.7821015	-0.3948105	0.4821224	0	-126.788	-40.987	12.275	B5-03822-P04-CH1	1553472	OK	0.8052698	-0.5866006	0.0862566	0	-109.701	-44.255	-1.143	NA
0.409674603174603	B5-03822-P01-CH0	1553480	OK	0.1981392	0.1102698	0.1337846	-0.9647192	151.809	-22.548	-254.776	B5-03822-P02-CH0	1553480	OK	0.5754865	0.7204972	-0.3869096	0	-80.627	-100.104	-0.141	B5-03822-P02-CH1	1553480	OK	0.6747828	-0.1761645	-0.7166828	0	-72.777	-70.538	-3.506	B5-03822-P03-CH0	1553480	OK	0.811913	-0.2788556	-0.5128711	0	-97.188	-56.029	2.441	B5-03822-P03-CH1	1553480	OK	0.7653787	-0.6304194	0.129487	0	-95.036	-8.723	-8.968	B5-03822-P04-CH0	1553480	OK	0.7803223	-0.3986387	0.481855	0	-126.62	-40.153	10.812	B5-03822-P04-CH1	1553480	OK	0.805111	-0.586876	0.0858652	0	-109.61	-44.199	-1.416	NA
0.419666666666667	B5-03822-P01-CH0	1553488	OK	0.1981428	0.1104429	0.1339102	-0.9646812	151.909	-22.574	-254.814	B5-03822-P02-CH0	1553488	OK	0.5690055	0.7275722	-0.3832381	0	-80.511	-99.835	-0.325	B5-03822-P02-CH1	1553488	OK	0.6780908	-0.1825719	-0.7119413	0	-72.989	-70.258	-3.695	B5-03822-P03-CH0	1553488	OK	0.8115562	-0.2783288	-0.5137213	0	-97.751	-56.049	2.677	B5-03822-P03-CH1	1553488	OK	0.7651937	-0.6306873	0.1292757	0	-95.334	-8.987	-8.488	B5-03822-P04-CH0	1553488	OK	0.779844	-0.3996706	0.4817747	0	-127.095	-39.379	9.449	B5-03822-P04-CH1	1553488	OK	0.8052403	-0.5867433	0.0855593	0	-109.638	-44.245	-1.236	NA
0.42965873015873	B5-03822-P01-CH0	1553496	OK	0.1983018	0.1103224	0.1339709	-0.9646539	151.911	-22.568	-254.858	B5-03822-P02-CH0	1553496	OK	0.5664039	0.7302789	-0.3819416	0	-79.222	-99.884	-0.532	B5-03822-P02-CH1	1553496	OK	0.6799961	-0.188185	-0.7086549	0	-73.289	-70.179	-2.896	B5-03822-P03-CH0	1553496	OK	0.8122455	-0.2766177	-0.5135561	0	-97.69	-56.205	2.262	B5-03822-P03-CH1	1553496	OK	0.7650621	-0.6310133	0.128461	0	-95.325	-8.85	-8.641	B5-03822-P04-CH0	1553496	OK	0.7785517	-0.4028008	0.4812574	0	-125.863	-38.392	9.962	B5-03822-P04-CH1	1553496	OK	0.805268	-0.5866753	0.085765	0	-109.507	-44.394	-0.999	NA
0.439650793650794	B5-03822-P01-CH0	1553504	OK	0.1978664	0.1106437	0.1327654	-0.9648732	151.954	-22.632	-254.763	B5-03822-P02-CH0	1553504	OK	0.5638139	0.7312116	-0.3839837	0	-78.862	-99.809	-0.058	B5-03822-P02-CH1	1553504	OK	0.6820353	-0.1920146	-0.7056615	0	-72.792	-70.004	-2.807	B5-03822-P03-CH0	1553504	OK	0.8121752	-0.2746363	-0.5147294	0	-97.765	-56.353	3.436	B5-03822-P03-CH1	1553504	OK	0.7641715	-0.6323711	0.1270774	0	-95.289	-8.625	-8.813	B5-03822-P04-CH0	1553504	OK	0.7783121	-0.404577	0.4801539	0	-126.098	-37.494	9.493	B5-03822-P04-CH1	1553504	OK	0.8046269	-0.5876571	0.0850573	0	-109.478	-44.252	-1.059	NA
0.449642857142857	B5-03822-P01-CH0	1553512	OK	0.1982796	0.1106964	0.1330299	-0.9647458	152.031	-22.669	-254.828	B5-03822-P02-CH0	1553512	OK	0.5649922	0.7274863	-0.3892909	0	-78.166	-102.313	-0.11	B5-03822-P02-CH1	1553512	OK	0.6825945	-0.1955649	-0.7041443	0	-72.709	-69.959	-2.334	B5-03822-P03-CH0	1553512	OK	0.8123743	-0.2707443	-0.5164742	0	-97.903	-55.846	2.477	B5-03822-P03-CH1	1553512	OK	0.7641566	-0.632543	0.1263091	0	-95.232	-8.614	-9.013	B5-03822-P04-CH0	1553512	OK	0.7776636	-0.4037729	0.4818783	0	-126.186	-38.773	10.218	B5-03822-P04-CH1	1553512	OK	0.8048905	-0.5872663	0.0852618	0	-109.442	-44.565	-0.522	NA
0.459634920634921	B5-03822-P01-CH0	1553520	OK	0.1985382	0.1106847	0.1330819	-0.9646868	152.048	-22.665	-254.855	B5-03822-P02-CH0	1553520	OK	0.5542022	0.7304202	-0.399182	0	-79.467	-100.356	1.629	B5-03822-P02-CH1	1553520	OK	0.6823102	-0.2006608	-0.7029851	0	-72.586	-70.294	-2.709	B5-03822-P03-CH0	1553520	OK	0.8140498	-0.2681624	-0.5151814	0	-97.313	-56.226	1.534	B5-03822-P03-CH1	1553520	OK	0.7642034	-0.6326851	0.1253103	0	-95.168	-8.416	-9.206	B5-03822-P04-CH0	1553520	OK	0.777833	-0.402714	0.4824907	0	-126.935	-39.457	10.372	B5-03822-P04-CH1	1553520	OK	0.8050545	-0.5870367	0.0852944	0	-109.379	-44.642	-0.284	NA
0.469626984126984	B5-03822-P01-CH0	1553528	OK	0.198813	0.1105224	0.1334109	-0.9646034	152.061	-22.647	-254.941	B5-03822-P02-CH0	1553528	OK	0.5536763	0.7237519	-0.4118564	0	-77.963	-101.279	-0.245	B5-03822-P02-CH1	1553528	OK	0.6814007	-0.2045995	-0.7027319	0	-72.545	-70.71	-2.914	B5-03822-P03-CH0	1553528	OK	0.8124242	-0.263258	-0.520252	0	-98.563	-56.037	2.376	B5-03822-P03-CH1	1553528	OK	0.7645556	-0.6324517	0.1243364	0	-95.188	-8.131	-9.409	B5-03822-P04-CH0	1553528	OK	0.7778032	-0.3999499	0.4848322	0	-127.263	-41.428	13.031	B5-03822-P04-CH1	1553528	OK	0.8050558	-0.5869722	0.0857247	0	-109.255	-44.992	-0.105	NA
0.479619047619048	B5-03822-P01-CH0	1553536	OK	0.1990293	0.1100665	0.1340743	-0.9645189	151.961	-22.557	-255.124	B5-03822-P02-CH0	1553536	OK	0.5503968	0.7193958	-0.4237135	0	-77.793	-101.098	0.546	B5-03822-P02-CH1	1553536	OK	0.6810094	-0.2069192	-0.702432	0	-72.667	-70.104	-2.583	B5-03822-P03-CH0	1553536	OK	0.811164	-0.2563762	-0.5256274	0	-98.232	-55.827	1.853	B5-03822-P03-CH1	1553536	OK	0.7649102	-0.6321525	0.1236756	0	-95.107	-8.063	-9.232	B5-03822-P04-CH0	1553536	OK	0.7780034	-0.3994841	0.4848949	0	-127.48	-41.407	13.252	B5-03822-P04-CH1	1553536	OK	0.8054798	-0.5863945	0.0856953	0	-109.066	-44.897	-0.101	NA
0.489611111111111	B5-03822-P01-CH0	1553544	OK	0.1991439	0.1101328	0.1340696	-0.9644884	152.041	-22.647	-255.173	B5-03822-P02-CH0	1553544	OK	0.5533846	0.7110345	-0.433815	0	-76.572	-102.401	0.038	B5-03822-P02-CH1	1553544	OK	0.6793541	-0.2085285	-0.703558	0	-73.405	-69.877	-2.815	B5-03822-P03-CH0	1553544	OK	0.8079646	-0.2495372	-0.5337832	0	-98.387	-55.411	1.607	B5-03822-P03-CH1	1553544	OK	0.7647684	-0.632409	0.1232402	0	-95.245	-8.225	-9.144	B5-03822-P04-CH0	1553544	OK	0.7784903	-0.4023366	0.4817448	0	-126.455	-38.99	9.73	B5-03822-P04-CH1	1553544	OK	0.8054886	-0.5863833	0.0856894	0	-109.105	-45.058	-0.039	NA
0.499603174603175	B5-03822-P01-CH0	1553552	OK	0.1992091	0.1100827	0.1343044	-0.9644479	152.034	-22.676	-255.197	B5-03822-P02-CH0	1553552	OK	0.5507239	0.7060645	-0.4451698	0	-77.083	-101.224	-0.367	B5-03822-P02-CH1	1553552	OK	0.6790991	-0.2090503	-0.7036494	0	-73.213	-70.068	-3.051	B5-03822-P03-CH0	1553552	OK	0.804948	-0.2442658	-0.5407337	0	-98.386	-54.872	1.449	B5-03822-P03-CH1	1553552	OK	0.7649437	-0.6323384	0.122512	0	-95.268	-8.024	-9.468	B5-03822-P04-CH0	1553552	OK	0.7781774	-0.4025743	0.4820517	0	-126.58	-39.364	9.935	B5-03822-P04-CH1	1553552	OK	0.8057747	-0.5860254	0.0854487	0	-109.089	-44.978	0.036	NA
0.509595238095238	B5-03822-P01-CH0	1553560	OK	0.1993676	0.1100109	0.1349733	-0.96433	152.04	-22.627	-255.208	B5-03822-P02-CH0	1553560	OK	0.5514385	0.6998985	-0.4539356	0	-77.155	-101.255	0.005	B5-03822-P02-CH1	1553560	OK	0.6797262	-0.2080237	-0.703348	0	-72.601	-70.554	-2.601	B5-03822-P03-CH0	1553560	OK	0.8025211	-0.2431393	-0.5448332	0	-98.106	-55.732	2.044	B5-03822-P03-CH1	1553560	OK	0.7650764	-0.6321609	0.1226	0	-95.375	-8.28	-9.328	B5-03822-P04-CH0	1553560	OK	0.7782007	-0.4031195	0.4815583	0	-126.496	-39.241	10.111	B5-03822-P04-CH1	1553560	OK	0.806071	-0.5855813	0.0856973	0	-109.165	-45.201	0.36	NA
0.519587301587302	B5-03822-P01-CH0	1553568	OK	0.1994119	0.1099386	0.1352433	-0.9642913	152.037	-22.612	-255.203	B5-03822-P02-CH0	1553568	OK	0.5508205	0.6926162	-0.4657033	0	-76.462	-100.436	0.15	B5-03822-P02-CH1	1553568	OK	0.679469	-0.2090428	-0.7032944	0	-72.617	-70.35	-3.344	B5-03822-P03-CH0	1553568	OK	0.800929	-0.242838	-0.5473047	0	-97.937	-56.217	1.369	B5-03822-P03-CH1	1553568	OK	0.7657863	-0.6316163	0.1209634	0	-95.181	-7.551	-9.878	B5-03822-P04-CH0	1553568	OK	0.778051	-0.4037104	0.481305	0	-126.476	-39.237	10.161	B5-03822-P04-CH1	1553568	OK	0.8062101	-0.5854046	0.0855968	0	-109.169	-45.083	0.083	NA
0.529579365079365	B5-03822-P01-CH0	1553576	OK	0.199472	0.1099248	0.1356397	-0.9642247	152.059	-22.624	-255.223	B5-03822-P02-CH0	1553576	OK	0.5535635	0.6839993	-0.4750919	0	-75.428	-101.327	-0.315	B5-03822-P02-CH1	1553576	OK	0.6793695	-0.2096082	-0.7032222	0	-72.235	-70.143	-3.552	B5-03822-P03-CH0	1553576	OK	0.7983204	-0.2384141	-0.5530309	0	-98.343	-55.649	0.842	B5-03822-P03-CH1	1553576	OK	0.7660314	-0.6313695	0.1207002	0	-95.25	-7.734	-9.639	B5-03822-P04-CH0	1553576	OK	0.7779735	-0.4043112	0.4809259	0	-126.495	-39.256	10.082	B5-03822-P04-CH1	1553576	OK	0.8063484	-0.5852316	0.085477	0	-109.22	-45.128	-0.028	NA
0.539571428571429	B5-03822-P01-CH0	1553584	OK	0.1995045	0.1099057	0.1356322	-0.9642212	152.062	-22.651	-255.213	B5-03822-P02-CH0	1553584	OK	0.5509205	0.6784403	-0.4860096	0	-76.691	-101.053	0.817	B5-03822-P02-CH1	1553584	OK	0.6769449	-0.2101336	-0.7054002	0	-72.679	-71.068	-2.378	B5-03822-P03-CH0	1553584	OK	0.796325	-0.2313069	-0.558895	0	-97.948	-55.485	1.025	B5-03822-P03-CH1	1553584	OK	0.7657279	-0.6316222	0.1213021	0	-95.519	-8.268	-9.354	B5-03822-P04-CH0	1553584	OK	0.7777161	-0.404942	0.4808115	0	-126.487	-39.357	10.218	B5-03822-P04-CH1	1553584	OK	0.8061975	-0.5854284	0.085552	0	-109.217	-45.175	-0.164	NA
0.549563492063492	B5-03822-P01-CH0	1553592	OK	0.1992074	0.1098294	0.1351957	-0.9643526	152	-22.681	-255.237	B5-03822-P02-CH0	1553592	OK	0.5549652	0.6681652	-0.4955491	0	-75.893	-102.585	0.245	B5-03822-P02-CH1	1553592	OK	0.6751992	-0.2099604	-0.7071228	0	-72.703	-70.8	-2.137	B5-03822-P03-CH0	1553592	OK	0.794027	-0.2233454	-0.5653653	0	-97.786	-55.496	1.28	B5-03822-P03-CH1	1553592	OK	0.7654978	-0.6319584	0.1210026	0	-95.637	-8.296	-9.26	B5-03822-P04-CH0	1553592	OK	0.77723	-0.4061786	0.4805543	0	-126.417	-39.311	10.337	B5-03822-P04-CH1	1553592	OK	0.8057545	-0.5860716	0.0853212	0	-109.203	-45.088	-0.482	NA
0.559555555555556	B5-03822-P01-CH0	1553600	OK	0.1990882	0.109543	0.1355826	-0.9643555	151.912	-22.713	-255.275	B5-03822-P02-CH0	1553600	OK	0.5550365	0.6582311	-0.5085924	0	-74.614	-102.008	-0.934	B5-03822-P02-CH1	1553600	OK	0.6730077	-0.2102137	-0.7091338	0	-73.29	-70.257	-2.212	B5-03822-P03-CH0	1553600	OK	0.7924633	-0.2158826	-0.5704355	0	-97.417	-55.259	0.871	B5-03822-P03-CH1	1553600	OK	0.7658236	-0.631658	0.1205087	0	-95.585	-8.34	-9.086	B5-03822-P04-CH0	1553600	OK	0.7769604	-0.4073399	0.4800069	0	-126.185	-39.127	10.173	B5-03822-P04-CH1	1553600	OK	0.8058795	-0.5859422	0.0850293	0	-109.215	-45.083	-0.544	NA
0.569547619047619	B5-03822-P01-CH0	1553608	OK	0.198962	0.1096937	0.1354768	-0.9643793	151.949	-22.712	-255.283	B5-03822-P02-CH0	1553608	OK	0.5499559	0.6517055	-0.5223299	0	-75.759	-100.6	0.65	B5-03822-P02-CH1	1553608	OK	0.67249	-0.2088986	-0.7100131	0	-72.895	-69.46	-2.496	B5-03822-P03-CH0	1553608	OK	0.7896851	-0.2073078	-0.5774261	0	-97.363	-55.043	0.343	B5-03822-P03-CH1	1553608	OK	0.765423	-0.6321069	0.1207001	0	-95.682	-8.701	-8.819	B5-03822-P04-CH0	1553608	OK	0.7767914	-0.4088827	0.4789677	0	-126.077	-38.619	9.791	B5-03822-P04-CH1	1553608	OK	0.8058325	-0.586092	0.0844404	0	-109.238	-44.813	-0.834	NA
0.579539682539683	B5-03822-P01-CH0	1553616	OK	0.1988495	0.110074	0.1350672	-0.9644166	152.089	-22.751	-255.232	B5-03822-P02-CH0	1553616	OK	0.5490374	0.6430961	-0.5338402	0	-76.499	-100.733	0.818	B5-03822-P02-CH1	1553616	OK	0.6706172	-0.2066821	-0.712429	0	-72.867	-69.814	-1.743	B5-03822-P03-CH0	1553616	OK	0.7877031	-0.1998259	-0.5827465	0	-97.088	-54.395	-0.384	B5-03822-P03-CH1	1553616	OK	0.7652307	-0.6325038	0.1198369	0	-95.695	-8.524	-9.238	B5-03822-P04-CH0	1553616	OK	0.7765067	-0.4099	0.4785596	0	-126.153	-38.556	9.635	B5-03822-P04-CH1	1553616	OK	0.8055569	-0.5865085	0.084178	0	-109.245	-44.769	-0.909	NA
0.589531746031746	B5-03822-P01-CH0	1553624	OK	0.1986692	0.109644	0.1351022	-0.9644979	151.937	-22.808	-255.283	B5-03822-P02-CH0	1553624	OK	0.5512281	0.6340204	-0.5423705	0	-75.848	-100.995	-0.275	B5-03822-P02-CH1	1553624	OK	0.6703462	-0.2052593	-0.7130951	0	-72.251	-70.144	-2.07	B5-03822-P03-CH0	1553624	OK	0.7852876	-0.1946272	-0.5877445	0	-97.437	-54.088	-0.404	B5-03822-P03-CH1	1553624	OK	0.7655822	-0.6322905	0.1187121	0	-95.486	-8.26	-9.366	B5-03822-P04-CH0	1553624	OK	0.7762523	-0.4105361	0.478427	0	-126.037	-38.502	9.634	B5-03822-P04-CH1	1553624	OK	0.8056007	-0.5864881	0.0838996	0	-109.043	-44.677	-0.86	NA
0.59952380952381	B5-03822-P01-CH0	1553632	OK	0.1987001	0.1095165	0.1350337	-0.9645156	151.916	-22.809	-255.413	B5-03822-P02-CH0	1553632	OK	0.5484935	0.626585	-0.5536661	0	-76.314	-99.773	1.261	B5-03822-P02-CH1	1553632	OK	0.6692047	-0.2037485	-0.7145989	0	-72.495	-70.787	-2.016	B5-03822-P03-CH0	1553632	OK	0.7843288	-0.1911897	-0.5901482	0	-96.6	-54.386	-0.428	B5-03822-P03-CH1	1553632	OK	0.7654493	-0.6324014	0.1189783	0	-95.601	-8.655	-8.899	B5-03822-P04-CH0	1553632	OK	0.7761191	-0.4111798	0.4780903	0	-125.91	-38.318	9.889	B5-03822-P04-CH1	1553632	OK	0.8055525	-0.5865863	0.0836764	0	-108.873	-44.572	-0.897	NA
0.609515873015873	B5-03822-P01-CH0	1553640	OK	0.1986975	0.109558	0.1344929	-0.964587	151.988	-22.888	-255.542	B5-03822-P02-CH0	1553640	OK	0.552848	0.6156627	-0.5615322	0	-75.442	-100.691	0.562	B5-03822-P02-CH1	1553640	OK	0.6689616	-0.2022016	-0.7152656	0	-72.206	-70.438	-2.92	B5-03822-P03-CH0	1553640	OK	0.7813628	-0.1890955	-0.5947395	0	-96.945	-55.374	0.919	B5-03822-P03-CH1	1553640	OK	0.7656486	-0.6324071	0.1176583	0	-95.403	-8.229	-9.245	B5-03822-P04-CH0	1553640	OK	0.7756636	-0.4119607	0.4781573	0	-125.93	-38.447	9.898	B5-03822-P04-CH1	1553640	OK	0.8053328	-0.5869403	0.0833071	0	-108.77	-44.443	-1.01	NA
0.619507936507937	B5-03822-P01-CH0	1553648	OK	0.1986777	0.1091194	0.1344776	-0.9646429	151.839	-22.939	-255.648	B5-03822-P02-CH0	1553648	OK	0.5531687	0.6051366	-0.5725506	0	-74.637	-99.299	0.643	B5-03822-P02-CH1	1553648	OK	0.6670649	-0.2023488	-0.7169933	0	-72.908	-70.389	-2.786	B5-03822-P03-CH0	1553648	OK	0.7795158	-0.1849401	-0.5984583	0	-96.981	-54.747	-0.582	B5-03822-P03-CH1	1553648	OK	0.7652083	-0.632834	0.118226	0	-95.366	-8.835	-8.971	B5-03822-P04-CH0	1553648	OK	0.775398	-0.4126252	0.4780149	0	-125.711	-38.489	10.079	B5-03822-P04-CH1	1553648	OK	0.8054337	-0.5868506	0.0829634	0	-108.46	-44.291	-0.988	NA
0.6295	B5-03822-P01-CH0	1553656	OK	0.1985868	0.1092043	0.134346	-0.9646703	151.895	-22.927	-255.725	B5-03822-P02-CH0	1553656	OK	0.5581085	0.596761	-0.5765338	0	-74.914	-101.226	0.58	B5-03822-P02-CH1	1553656	OK	0.6674331	-0.1992075	-0.7175301	0	-72.331	-69.816	-2.72	B5-03822-P03-CH0	1553656	OK	0.7797971	-0.1785583	-0.6000279	0	-95.502	-54.672	0.029	B5-03822-P03-CH1	1553656	OK	0.7652073	-0.6328992	0.1178835	0	-95.393	-8.875	-8.774	B5-03822-P04-CH0	1553656	OK	0.7754996	-0.4123596	0.4780795	0	-125.906	-38.913	10.803	B5-03822-P04-CH1	1553656	OK	0.8055213	-0.5868042	0.0824399	0	-108.418	-44.098	-0.888	NA
0.639492063492064	B5-03822-P01-CH0	1553664	OK	0.1987637	0.1088608	0.1349755	-0.9645849	151.808	-22.913	-255.805	B5-03822-P02-CH0	1553664	OK	0.5566104	0.589226	-0.5856599	0	-76.099	-100.702	0.516	B5-03822-P02-CH1	1553664	OK	0.6670786	-0.1941006	-0.7192573	0	-72.248	-70.172	-2.341	B5-03822-P03-CH0	1553664	OK	0.7759524	-0.1751997	-0.6059728	0	-96.647	-55.09	0.036	B5-03822-P03-CH1	1553664	OK	0.7658715	-0.6321778	0.11744	0	-95.286	-8.651	-8.77	B5-03822-P04-CH0	1553664	OK	0.7755978	-0.4122612	0.478005	0	-125.839	-39.158	10.928	B5-03822-P04-CH1	1553664	OK	0.8058644	-0.5863404	0.0823865	0	-108.21	-44.077	-0.943	NA
0.649484126984127	B5-03822-P01-CH0	1553672	OK	0.1986051	0.1086606	0.1348692	-0.964655	151.743	-22.896	-255.865	B5-03822-P02-CH0	1553672	OK	0.5605241	0.5809368	-0.5901907	0	-74.651	-100.3	-0.726	B5-03822-P02-CH1	1553672	OK	0.6675216	-0.1907924	-0.7197313	0	-71.981	-70.125	-1.917	B5-03822-P03-CH0	1553672	OK	0.7746934	-0.1703391	-0.608962	0	-96.263	-54.563	-0.233	B5-03822-P03-CH1	1553672	OK	0.7658256	-0.632308	0.1170377	0	-95.199	-8.597	-8.724	B5-03822-P04-CH0	1553672	OK	0.7756343	-0.4127284	0.4775424	0	-125.867	-39.077	11.031	B5-03822-P04-CH1	1553672	OK	0.8058704	-0.5863983	0.0819145	0	-108.146	-44.01	-0.637	NA
0.659476190476191	B5-03822-P01-CH0	1553680	OK	0.1984254	0.1088089	0.1342186	-0.964766	151.838	-23.003	-255.933	B5-03822-P02-CH0	1553680	OK	0.5602819	0.574782	-0.5964142	0	-74.289	-98.645	-0.023	B5-03822-P02-CH1	1553680	OK	0.6692923	-0.1986203	-0.7159594	0	-72.018	-70.224	-1.869	B5-03822-P03-CH0	1553680	OK	0.7733424	-0.1647502	-0.6122082	0	-95.682	-54.464	0.407	B5-03822-P03-CH1	1553680	OK	0.7659119	-0.6323993	0.1159748	0	-95.166	-8.12	-9.201	B5-03822-P04-CH0	1553680	OK	0.7753247	-0.4137931	0.4771235	0	-125.821	-39.108	11.058	B5-03822-P04-CH1	1553680	OK	0.8054854	-0.5869501	0.0817489	0	-108.173	-44.094	-0.541	NA
0.669468253968254	B5-03822-P01-CH0	1553688	OK	0.1982644	0.1089306	0.1338173	-0.9648411	151.83	-23.053	-255.828	B5-03822-P02-CH0	1553688	OK	0.5600886	0.5729487	-0.5983566	0	-76.321	-99.976	1.455	B5-03822-P02-CH1	1553688	OK	0.6687423	-0.1965548	-0.7170425	0	-72.104	-70.25	-2.087	B5-03822-P03-CH0	1553688	OK	0.7705559	-0.162519	-0.6163044	0	-96.272	-54.473	0.511	B5-03822-P03-CH1	1553688	OK	0.7659434	-0.6324322	0.1155866	0	-95.194	-7.965	-9.246	B5-03822-P04-CH0	1553688	OK	0.7752136	-0.4143661	0.4768067	0	-125.864	-39.212	11.116	B5-03822-P04-CH1	1553688	OK	0.8052594	-0.5872822	0.08159	0	-108.226	-44.164	-0.307	NA
0.679460317460318	B5-03822-P01-CH0	1553696	OK	0.1979201	0.1088504	0.1333412	-0.9649867	151.777	-23.133	-255.839	B5-03822-P02-CH0	1553696	OK	0.5652031	0.5702684	-0.5961035	0	-75.453	-101.176	0.307	B5-03822-P02-CH1	1553696	OK	0.6689795	-0.1852535	-0.7198247	0	-72.58	-70.431	-2.143	B5-03822-P03-CH0	1553696	OK	0.7685729	-0.1590104	-0.6196865	0	-96.206	-54.297	-0.418	B5-03822-P03-CH1	1553696	OK	0.7655956	-0.6327828	0.1159711	0	-95.369	-8.315	-8.794	B5-03822-P04-CH0	1553696	OK	0.7748881	-0.4158127	0.4760758	0	-125.657	-39.01	11.048	B5-03822-P04-CH1	1553696	OK	0.8050562	-0.5876353	0.0810507	0	-108.269	-44.129	-0.071	NA
0.689452380952381	B5-03822-P01-CH0	1553704	OK	0.19802	0.1090026	0.1335586	-0.964919	151.831	-23.119	-255.8	B5-03822-P02-CH0	1553704	OK	0.5626456	0.5662173	-0.6023519	0	-75.296	-98.505	0.691	B5-03822-P02-CH1	1553704	OK	0.6703788	-0.1839016	-0.7188689	0	-72.746	-70.424	-2.591	B5-03822-P03-CH0	1553704	OK	0.7680074	-0.1563988	-0.6210507	0	-95.22	-54.581	-0.559	B5-03822-P03-CH1	1553704	OK	0.7655596	-0.6326685	0.116829	0	-95.636	-8.688	-8.519	B5-03822-P04-CH0	1553704	OK	0.7750234	-0.4162963	0.4754326	0	-125.614	-38.98	11.019	B5-03822-P04-CH1	1553704	OK	0.8051878	-0.5874862	0.0808237	0	-108.355	-44.077	-0.159	NA
0.699444444444445	B5-03822-P01-CH0	1553712	OK	0.1975947	0.1090788	0.1330513	-0.9650676	151.848	-23.239	-255.793	B5-03822-P02-CH0	1553712	OK	0.5682377	0.5645805	-0.5986274	0	-75.895	-101.104	-0.485	B5-03822-P02-CH1	1553712	OK	0.6727395	-0.1798181	-0.7176956	0	-72.391	-70.472	-1.868	B5-03822-P03-CH0	1553712	OK	0.7642304	-0.1549951	-0.6260419	0	-96.291	-55.164	1.129	B5-03822-P03-CH1	1553712	OK	0.7655662	-0.6329081	0.1154805	0	-95.383	-8.283	-8.875	B5-03822-P04-CH0	1553712	OK	0.7748151	-0.4174521	0.4747582	0	-125.558	-38.884	10.966	B5-03822-P04-CH1	1553712	OK	0.8047489	-0.5881507	0.0803618	0	-108.384	-44.077	-0.376	NA
0.709436507936508	B5-03822-P01-CH0	1553720	OK	0.1973977	0.108899	0.1333618	-0.9650854	151.752	-23.293	-255.757	B5-03822-P02-CH0	1553720	OK	0.567531	0.559346	-0.6041859	0	-75.448	-99.56	-0.378	B5-03822-P02-CH1	1553720	OK	0.6742663	-0.176233	-0.7171519	0	-72.925	-70.405	-2.172	B5-03822-P03-CH0	1553720	OK	0.7639075	-0.1522749	-0.6271027	0	-96.18	-54.559	-0.797	B5-03822-P03-CH1	1553720	OK	0.7652249	-0.6331565	0.1163775	0	-95.561	-8.955	-8.411	B5-03822-P04-CH0	1553720	OK	0.7747972	-0.4180584	0.4742536	0	-125.395	-38.826	10.829	B5-03822-P04-CH1	1553720	OK	0.8048431	-0.5880656	0.0800401	0	-108.357	-44.07	-0.431	NA
0.719428571428572	B5-03822-P01-CH0	1553728	OK	0.1970547	0.1095565	0.132452	-0.9652063	151.959	-23.402	-255.684	B5-03822-P02-CH0	1553728	OK	0.5680158	0.5549551	-0.6077688	0	-76.518	-99.802	1.007	B5-03822-P02-CH1	1553728	OK	0.6763674	-0.1726417	-0.716046	0	-73.185	-70.213	-3.571	B5-03822-P03-CH0	1553728	OK	0.7650977	-0.1475522	-0.6267806	0	-95.195	-53.554	-1.991	B5-03822-P03-CH1	1553728	OK	0.7651052	-0.6335288	0.1151314	0	-95.589	-8.5	-8.666	B5-03822-P04-CH0	1553728	OK	0.7745111	-0.4188648	0.4740093	0	-125.615	-38.912	10.842	B5-03822-P04-CH1	1553728	OK	0.8041582	-0.5890466	0.0797101	0	-108.606	-44.215	-0.388	NA
0.729420634920635	B5-03822-P01-CH0	1553736	OK	0.1972319	0.1093666	0.1327805	-0.9651465	151.908	-23.451	-255.733	B5-03822-P02-CH0	1553736	OK	0.5674819	0.5483327	-0.6142439	0	-76.94	-98.905	0.722	B5-03822-P02-CH1	1553736	OK	0.6790229	-0.1681777	-0.7145937	0	-72.831	-70.713	-2.487	B5-03822-P03-CH0	1553736	OK	0.7630159	-0.1475692	-0.6293092	0	-96.23	-54.232	-0.273	B5-03822-P03-CH1	1553736	OK	0.765536	-0.6330923	0.1146682	0	-95.473	-8.173	-9.005	B5-03822-P04-CH0	1553736	OK	0.7743945	-0.4195921	0.4735564	0	-125.446	-38.597	10.208	B5-03822-P04-CH1	1553736	OK	0.8042965	-0.5888435	0.0798159	0	-108.623	-44.213	-0.529	NA
0.739412698412699	B5-03822-P01-CH0	1553744	OK	0.1970235	0.1094704	0.1326216	-0.9651992	151.952	-23.53	-255.764	B5-03822-P02-CH0	1553744	OK	0.570211	0.5431839	-0.6162878	0	-76.553	-99.002	0.39	B5-03822-P02-CH1	1553744	OK	0.6794766	-0.164054	-0.7151208	0	-73.967	-71.121	-2.291	B5-03822-P03-CH0	1553744	OK	0.7646031	-0.1453626	-0.6278948	0	-95.076	-54.125	-0.899	B5-03822-P03-CH1	1553744	OK	0.7651687	-0.6335369	0.1146639	0	-95.508	-8.391	-9.018	B5-03822-P04-CH0	1553744	OK	0.7742671	-0.4197445	0.4736296	0	-125.522	-38.778	10.46	B5-03822-P04-CH1	1553744	OK	0.8041603	-0.5890797	0.0794436	0	-108.8	-44.202	-0.567	NA
0.749404761904762	B5-03822-P01-CH0	1553752	OK	0.1971817	0.1095259	0.1334084	-0.9650522	152.027	-23.644	-255.736	B5-03822-P02-CH0	1553752	OK	0.5752495	0.5375119	-0.6165785	0	-76.413	-101.189	-0.284	B5-03822-P02-CH1	1553752	OK	0.6828081	-0.160381	-0.712777	0	-73.671	-72.168	-2.598	B5-03822-P03-CH0	1553752	OK	0.7633127	-0.1425284	-0.6301106	0	-95.935	-54.401	-1.085	B5-03822-P03-CH1	1553752	OK	0.7657421	-0.632881	0.1144583	0	-95.545	-8.444	-9.067	B5-03822-P04-CH0	1553752	OK	0.7745191	-0.4192094	0.4736914	0	-125.626	-39.115	10.438	B5-03822-P04-CH1	1553752	OK	0.804608	-0.5884771	0.0793768	0	-108.807	-44.131	-1.038	NA
0.759396825396826	B5-03822-P01-CH0	1553760	OK	0.1973463	0.1093091	0.1340912	-0.9649485	151.96	-23.554	-255.86	B5-03822-P02-CH0	1553760	OK	0.5716784	0.5349617	-0.6220931	0	-77.697	-99.806	0.359	B5-03822-P02-CH1	1553760	OK	0.6848059	-0.1557385	-0.7118893	0	-73.943	-71.742	-2.205	B5-03822-P03-CH0	1553760	OK	0.7645364	-0.1406167	-0.6290557	0	-95.296	-54.131	-0.476	B5-03822-P03-CH1	1553760	OK	0.7658245	-0.6326691	0.1150765	0	-95.61	-8.757	-8.673	B5-03822-P04-CH0	1553760	OK	0.774663	-0.4182507	0.4743033	0	-125.737	-39.437	10.874	B5-03822-P04-CH1	1553760	OK	0.804989	-0.5879772	0.079218	0	-108.629	-43.866	-1.27	NA
0.769388888888889	B5-03822-P01-CH0	1553768	OK	0.1973833	0.1091298	0.1348473	-0.9648558	151.992	-23.547	-256.028	B5-03822-P02-CH0	1553768	OK	0.5725636	0.5317682	-0.624014	0	-76.617	-98.914	-0.046	B5-03822-P02-CH1	1553768	OK	0.6864452	-0.1514474	-0.711236	0	-74.123	-71.936	-2.787	B5-03822-P03-CH0	1553768	OK	0.7650287	-0.1468147	-0.627038	0	-95.354	-54.558	-0.258	B5-03822-P03-CH1	1553768	OK	0.7661481	-0.6323301	0.1147857	0	-95.636	-8.816	-8.537	B5-03822-P04-CH0	1553768	OK	0.7747425	-0.4184333	0.4740123	0	-125.584	-39.266	10.823	B5-03822-P04-CH1	1553768	OK	0.805539	-0.5872822	0.0787812	0	-108.612	-43.563	-1.527	NA
0.779380952380953	B5-03822-P01-CH0	1553776	OK	0.1975084	0.1090348	0.1354247	-0.9647601	151.994	-23.502	-256.16	B5-03822-P02-CH0	1553776	OK	0.5767989	0.5309832	-0.6207736	0	-76.478	-101.228	-0.377	B5-03822-P02-CH1	1553776	OK	0.6883169	-0.1477714	-0.7101996	0	-73.914	-71.781	-3.955	B5-03822-P03-CH0	1553776	OK	0.7644826	-0.1449223	-0.6281432	0	-95.372	-54.428	-0.395	B5-03822-P03-CH1	1553776	OK	0.7665261	-0.6319725	0.1142298	0	-95.563	-8.547	-8.78	B5-03822-P04-CH0	1553776	OK	0.7749807	-0.4177497	0.4742259	0	-125.677	-39.444	11.169	B5-03822-P04-CH1	1553776	OK	0.8058079	-0.5869046	0.078845	0	-108.474	-43.528	-1.44	NA
0.789373015873016	B5-03822-P01-CH0	1553784	OK	0.1971861	0.1091171	0.1349544	-0.9648826	151.993	-23.549	-256.277	B5-03822-P02-CH0	1553784	OK	0.5755453	0.5281023	-0.6243841	0	-76.744	-99.982	0.02	B5-03822-P02-CH1	1553784	OK	0.6887457	-0.1436386	-0.7106316	0	-74.449	-71.887	-3.016	B5-03822-P03-CH0	1553784	OK	0.76406	-0.1429789	-0.629102	0	-95.359	-54.319	-0.475	B5-03822-P03-CH1	1553784	OK	0.7660572	-0.6326529	0.1136078	0	-95.479	-8.497	-8.862	B5-03822-P04-CH0	1553784	OK	0.774752	-0.4178461	0.4745145	0	-125.806	-39.623	11.566	B5-03822-P04-CH1	1553784	OK	0.8055858	-0.5872564	0.0784948	0	-108.441	-43.341	-1.481	NA
0.799365079365079	B5-03822-P01-CH0	1553792	OK	0.1973821	0.109012	0.1353703	-0.9647961	151.951	-23.573	-256.289	B5-03822-P02-CH0	1553792	OK	0.5734173	0.5286383	-0.6258867	0	-77.416	-99.7	0.883	B5-03822-P02-CH1	1553792	OK	0.6906484	-0.1407512	-0.7093616	0	-74.373	-71.603	-3.788	B5-03822-P03-CH0	1553792	OK	0.7640478	-0.1411195	-0.6295366	0	-95.22	-54.173	-0.849	B5-03822-P03-CH1	1553792	OK	0.7659273	-0.6326236	0.1146417	0	-95.786	-8.996	-8.47	B5-03822-P04-CH0	1553792	OK	0.7747287	-0.4180046	0.4744129	0	-125.678	-39.487	11.275	B5-03822-P04-CH1	1553792	OK	0.8058823	-0.5868531	0.0784674	0	-108.397	-43.252	-1.608	NA
