Wav.Time	B5.03822.P01.CH0	Frame	State	Q0	Qx	Qy	Qz	Tx	Ty	Tz	B5.03822.P02.CH0	Frame.1	State.1	Q0.1	Qx.1	Qy.1	Qz.1	Tx.1	Ty.1	Tz.1	B5.03822.P02.CH1	Frame.2	State.2	Q0.2	Qx.2	Qy.2	Qz.2	Tx.2	Ty.2	Tz.2	B5.03822.P03.CH0	Frame.3	State.3	Q0.3	Qx.3	Qy.3	Qz.3	Tx.3	Ty.3	Tz.3	B5.03822.P03.CH1	Frame.4	State.4	Q0.4	Qx.4	Qy.4	Qz.4	Tx.4	Ty.4	Tz.4	B5.03822.P04.CH0	Frame.5	State.5	Q0.5	Qx.5	Qy.5	Qz.5	Tx.5	Ty.5	Tz.5	B5.03822.P04.CH1	Frame.6	State.6	Q0.6	Qx.6	Qy.6	Qz.6	Tx.6	Ty.6	Tz.6	X
0	B5-03822-P01-CH0	1603312	OK	0.1397761	0.1138362	0.132784	-0.974614	152.737	-15.797	-279.48	B5-03822-P02-CH0	1603312	OK	0.6657386	0.3105521	-0.6784906	0	-86.351	-88.131	0.935	B5-03822-P02-CH1	1603312	OK	0.6915174	0.126146	-0.7112601	0	-81.4	-67.856	0.166	B5-03822-P03-CH0	1603312	OK	0.6984698	-0.0651997	-0.7126632	0	-91.824	-46.455	5.88	B5-03822-P03-CH1	1603312	OK	0.7845165	-0.6115513	-0.1026585	0	-98.889	-13.359	5.758	B5-03822-P04-CH0	1603312	OK	0.7916275	-0.3173386	0.5221323	0	-123.215	-21.32	13.502	B5-03822-P04-CH1	1603312	OK	0.7906631	-0.6120305	0.0164466	0	-110.187	-30.25	5.539	NA
0.00999187096222137	B5-03822-P01-CH0	1603320	OK	0.1398624	0.114059	0.132582	-0.974603	152.812	-15.881	-279.395	B5-03822-P02-CH0	1603320	OK	0.6724013	0.3066913	-0.6736593	0	-86.8	-88.845	-1.338	B5-03822-P02-CH1	1603320	OK	0.683597	0.1348355	-0.7172967	0	-81.848	-67.769	2.373	B5-03822-P03-CH0	1603320	OK	0.697813	-0.0787476	-0.711938	0	-92.027	-47.274	6.274	B5-03822-P03-CH1	1603320	OK	0.7842522	-0.6119034	-0.1025802	0	-98.953	-13.498	5.885	B5-03822-P04-CH0	1603320	OK	0.7912763	-0.3179016	0.5223221	0	-123.101	-21.306	13.367	B5-03822-P04-CH1	1603320	OK	0.7902175	-0.612605	0.0164741	0	-109.838	-30.51	4.991	NA
0.0199837419244427	B5-03822-P01-CH0	1603328	OK	0.1397953	0.114034	0.1324229	-0.9746372	152.766	-15.903	-279.298	B5-03822-P02-CH0	1603328	OK	0.6791417	0.303064	-0.6685198	0	-86.215	-89.215	-1.138	B5-03822-P02-CH1	1603328	OK	0.6810477	0.1446315	-0.7178132	0	-78.489	-67.36	-0.392	B5-03822-P03-CH0	1603328	OK	0.6961893	-0.090701	-0.7121052	0	-92.921	-48.3	7.42	B5-03822-P03-CH1	1603328	OK	0.7841983	-0.6118688	-0.1031973	0	-98.859	-13.35	5.878	B5-03822-P04-CH0	1603328	OK	0.7911205	-0.3176892	0.5226873	0	-123.333	-21.74	13.616	B5-03822-P04-CH1	1603328	OK	0.7897107	-0.613264	0.0162602	0	-109.579	-30.717	4.386	NA
0.0299756128866641	B5-03822-P01-CH0	1603336	OK	0.1400319	0.1137097	0.1330932	-0.9745498	152.689	-15.859	-279.376	B5-03822-P02-CH0	1603336	OK	0.6832004	0.3012645	-0.6651894	0	-86.228	-88.783	-1.215	B5-03822-P02-CH1	1603336	OK	0.6773104	0.1574083	-0.7186607	0	-75.792	-66.132	0.921	B5-03822-P03-CH0	1603336	OK	0.6976707	-0.1019015	-0.7091345	0	-91.304	-48.356	5.936	B5-03822-P03-CH1	1603336	OK	0.7845459	-0.611389	-0.1033987	0	-98.642	-13.395	5.828	B5-03822-P04-CH0	1603336	OK	0.7909125	-0.3170413	0.5233949	0	-123.303	-21.971	13.672	B5-03822-P04-CH1	1603336	OK	0.7900575	-0.6128153	0.0163247	0	-109.619	-30.857	4.348	NA
0.0399674838488855	B5-03822-P01-CH0	1603344	OK	0.1403762	0.1134686	0.1334821	-0.9744752	152.665	-15.882	-279.417	B5-03822-P02-CH0	1603344	OK	0.6848521	0.2989856	-0.6645188	0	-87.754	-89.205	0.625	B5-03822-P02-CH1	1603344	OK	0.6743839	0.1752464	-0.7172831	0	-78.434	-69.223	3.713	B5-03822-P03-CH0	1603344	OK	0.6971403	-0.1148746	-0.7076717	0	-91.296	-49.401	5.788	B5-03822-P03-CH1	1603344	OK	0.7847737	-0.6110281	-0.1038023	0	-98.678	-13.58	5.995	B5-03822-P04-CH0	1603344	OK	0.7905405	-0.3160734	0.5245411	0	-123.194	-22.07	13.475	B5-03822-P04-CH1	1603344	OK	0.7903326	-0.6124519	0.0166447	0	-109.636	-31.166	4.607	NA
0.0499593548111068	B5-03822-P01-CH0	1603352	OK	0.1405846	0.1135948	0.1339737	-0.974363	152.747	-15.8	-279.359	B5-03822-P02-CH0	1603352	OK	0.686983	0.2979213	-0.6627951	0	-88.23	-88.958	0.724	B5-03822-P02-CH1	1603352	OK	0.6823683	0.1899776	-0.705891	0	-77.967	-67.558	0.424	B5-03822-P03-CH0	1603352	OK	0.7009511	-0.1337861	-0.700549	0	-91.136	-50.11	6.068	B5-03822-P03-CH1	1603352	OK	0.7848299	-0.6107549	-0.104979	0	-98.798	-13.622	6.084	B5-03822-P04-CH0	1603352	OK	0.7906013	-0.3135313	0.5259731	0	-123.528	-22.505	13.783	B5-03822-P04-CH1	1603352	OK	0.7905749	-0.6121397	0.0166243	0	-109.675	-31.307	4.757	NA
0.0599512257733282	B5-03822-P01-CH0	1603360	OK	0.1403541	0.1138569	0.1335775	-0.97442	152.767	-15.707	-279.156	B5-03822-P02-CH0	1603360	OK	0.6897122	0.2964286	-0.6606264	0	-88.365	-88.391	-0.484	B5-03822-P02-CH1	1603360	OK	0.6880602	0.2062789	-0.695717	0	-78.526	-67.839	0.236	B5-03822-P03-CH0	1603360	OK	0.7090085	-0.1549977	-0.6879554	0	-90.273	-50.299	6.065	B5-03822-P03-CH1	1603360	OK	0.7845093	-0.6107941	-0.1071249	0	-98.864	-13.321	5.988	B5-03822-P04-CH0	1603360	OK	0.7882255	-0.295904	0.5395751	0	-122.875	-22.164	14.038	B5-03822-P04-CH1	1603360	OK	0.7902636	-0.6125553	0.0161059	0	-109.71	-31.33	4.876	NA
0.0699430967355496	B5-03822-P01-CH0	1603368	OK	0.139754	0.1141933	0.1324531	-0.9746204	152.823	-15.811	-279.059	B5-03822-P02-CH0	1603368	OK	0.6911112	0.2928854	-0.6607445	0	-89.151	-88.962	-0.281	B5-03822-P02-CH1	1603368	OK	0.6949181	0.2163734	-0.6857633	0	-77.936	-66.966	-1.52	B5-03822-P03-CH0	1603368	OK	0.7144939	-0.1735012	-0.6777875	0	-91.13	-51.411	7.147	B5-03822-P03-CH1	1603368	OK	0.7834506	-0.6116165	-0.1101378	0	-98.992	-13.529	6.199	B5-03822-P04-CH0	1603368	OK	0.7868299	-0.2911641	0.5441711	0	-121.927	-20.013	12.673	B5-03822-P04-CH1	1603368	OK	0.7893623	-0.6137401	0.0151749	0	-109.478	-31.199	4.117	NA
0.0799349676977709	B5-03822-P01-CH0	1603376	OK	0.1392831	0.1143978	0.131557	-0.9747852	152.838	-15.832	-279.014	B5-03822-P02-CH0	1603376	OK	0.6919083	0.28784	-0.6621261	0	-88.518	-87.807	-2.04	B5-03822-P02-CH1	1603376	OK	0.6983911	0.2261484	-0.6790484	0	-79.49	-67.545	-1.084	B5-03822-P03-CH0	1603376	OK	0.7218082	-0.1904345	-0.6653778	0	-91.09	-51.88	6.78	B5-03822-P03-CH1	1603376	OK	0.7818386	-0.609684	-0.130437	0	-99.42	-13.457	6.342	B5-03822-P04-CH0	1603376	OK	0.7862664	-0.285618	0.5479119	0	-122.324	-20.108	13.314	B5-03822-P04-CH1	1603376	OK	0.7884707	-0.6149102	0.0141214	0	-109.23	-31.028	3.105	NA
0.0899268386599923	B5-03822-P01-CH0	1603384	OK	0.1391271	0.1147156	0.1308789	-0.9748614	152.965	-15.82	-279.114	B5-03822-P02-CH0	1603384	OK	0.6879805	0.2826865	-0.6684094	0	-90.434	-88.523	0.322	B5-03822-P02-CH1	1603384	OK	0.7037381	0.2351938	-0.6704003	0	-78.466	-67.862	-1.967	B5-03822-P03-CH0	1603384	OK	0.7283001	-0.2028222	-0.6545549	0	-91.443	-51.825	6.274	B5-03822-P03-CH1	1603384	OK	0.7818588	-0.6078889	-0.1384478	0	-98.009	-11.731	4.28	B5-03822-P04-CH0	1603384	OK	0.7845712	-0.2798579	0.553288	0	-122.414	-21.206	13.158	B5-03822-P04-CH1	1603384	OK	0.78806	-0.6154419	0.0138812	0	-109.117	-30.827	2.73	NA
0.0999187096222137	B5-03822-P01-CH0	1603392	OK	0.1391012	0.1149076	0.1308649	-0.9748443	153.068	-15.886	-279.134	B5-03822-P02-CH0	1603392	OK	0.6856212	0.2778927	-0.6728292	0	-90.946	-88.738	-0.244	B5-03822-P02-CH1	1603392	OK	0.7035536	0.2494286	-0.6654304	0	-79.241	-69.23	-0.66	B5-03822-P03-CH0	1603392	OK	0.7340081	-0.2125057	-0.6450376	0	-91.295	-52.171	6.571	B5-03822-P03-CH1	1603392	OK	0.7808485	-0.6080536	-0.1433402	0	-98.622	-12.161	5.359	B5-03822-P04-CH0	1603392	OK	0.7847237	-0.2709127	0.5575079	0	-122.713	-21.976	14.667	B5-03822-P04-CH1	1603392	OK	0.787705	-0.6158936	0.0139953	0	-108.939	-30.979	2.219	NA
0.109910580584435	B5-03822-P01-CH0	1603400	OK	0.1391722	0.1146829	0.131483	-0.9747775	152.963	-15.781	-279.032	B5-03822-P02-CH0	1603400	OK	0.6834086	0.2746164	-0.6764159	0	-91.012	-88.724	-0.945	B5-03822-P02-CH1	1603400	OK	0.7032787	0.2585393	-0.662236	0	-78.878	-68.26	-0.592	B5-03822-P03-CH0	1603400	OK	0.7380301	-0.2194382	-0.6380897	0	-91.81	-52.936	5.598	B5-03822-P03-CH1	1603400	OK	0.7798667	-0.6073086	-0.1516053	0	-98.538	-12.071	4.987	B5-03822-P04-CH0	1603400	OK	0.7838555	-0.263336	0.5623387	0	-122.251	-21.105	12.788	B5-03822-P04-CH1	1603400	OK	0.7883211	-0.6151091	0.0138066	0	-108.801	-30.372	1.336	NA
0.119902451546656	B5-03822-P01-CH0	1603408	OK	0.1389522	0.1145413	0.1310425	-0.9748848	152.958	-15.763	-279.31	B5-03822-P02-CH0	1603408	OK	0.6812678	0.2716235	-0.6797756	0	-91.343	-89.272	0.178	B5-03822-P02-CH1	1603408	OK	0.7005877	0.2684408	-0.6611478	0	-79.4	-68.664	0.982	B5-03822-P03-CH0	1603408	OK	0.7412514	-0.223377	-0.6329685	0	-91.701	-53.789	6.943	B5-03822-P03-CH1	1603408	OK	0.7804879	-0.6042763	-0.1602774	0	-99.314	-11.067	7.507	B5-03822-P04-CH0	1603408	OK	0.784982	-0.2554747	0.56439	0	-123.341	-21.404	11.757	B5-03822-P04-CH1	1603408	OK	0.787895	-0.6156353	0.0146522	0	-109.032	-30.64	1.735	NA
0.129894322508878	B5-03822-P01-CH0	1603416	OK	0.138797	0.1150015	0.1307832	-0.9748876	153.088	-15.728	-279.157	B5-03822-P02-CH0	1603416	OK	0.6816158	0.2704258	-0.6799042	0	-90.401	-88.766	-1.212	B5-03822-P02-CH1	1603416	OK	0.697059	0.2808067	-0.6597397	0	-80.078	-69.281	0.734	B5-03822-P03-CH0	1603416	OK	0.7409494	-0.2213799	-0.6340228	0	-92.596	-53.344	7.346	B5-03822-P03-CH1	1603416	OK	0.7781033	-0.6059339	-0.1655276	0	-98.791	-12.622	6.88	B5-03822-P04-CH0	1603416	OK	0.7873767	-0.2475729	0.5645756	0	-124.656	-22.012	12.991	B5-03822-P04-CH1	1603416	OK	0.7878043	-0.615734	0.0153632	0	-109.25	-30.596	1.698	NA
0.139886193471099	B5-03822-P01-CH0	1603424	OK	0.1386631	0.114945	0.1313871	-0.9748321	153.022	-15.592	-279.12	B5-03822-P02-CH0	1603424	OK	0.6796533	0.2722462	-0.6811413	0	-91.224	-88.287	-1.285	B5-03822-P02-CH1	1603424	OK	0.6936021	0.2953033	-0.657048	0	-81.017	-69.847	2.324	B5-03822-P03-CH0	1603424	OK	0.740112	-0.2161697	-0.6367927	0	-92.2	-54.649	8.636	B5-03822-P03-CH1	1603424	OK	0.7791797	-0.6029671	-0.1712004	0	-98.558	-11.582	5.23	B5-03822-P04-CH0	1603424	OK	0.7902986	-0.2417246	0.5630252	0	-125.796	-23.189	14.862	B5-03822-P04-CH1	1603424	OK	0.7883151	-0.6150693	0.0157827	0	-109.381	-30.277	1.488	NA
0.14987806443332	B5-03822-P01-CH0	1603432	OK	0.1386252	0.1149916	0.1313435	-0.9748379	153.009	-15.595	-279.207	B5-03822-P02-CH0	1603432	OK	0.6795848	0.2729398	-0.680932	0	-92.285	-88.813	-1.22	B5-03822-P02-CH1	1603432	OK	0.6990832	0.3007646	-0.648709	0	-79.518	-70.479	-1.989	B5-03822-P03-CH0	1603432	OK	0.7374211	-0.2072196	-0.6428609	0	-92.765	-54.693	7.517	B5-03822-P03-CH1	1603432	OK	0.780512	-0.6007419	-0.1729458	0	-99.323	-11.895	5.922	B5-03822-P04-CH0	1603432	OK	0.7919084	-0.2426458	0.5603607	0	-124.641	-22.255	14.296	B5-03822-P04-CH1	1603432	OK	0.7884119	-0.614919	0.0167711	0	-109.59	-30.237	1.574	NA
0.159869935395542	B5-03822-P01-CH0	1603440	OK	0.1383765	0.1149009	0.1307412	-0.9749649	152.977	-15.748	-279.267	B5-03822-P02-CH0	1603440	OK	0.6828564	0.274723	-0.6769302	0	-92.173	-88.479	-0.865	B5-03822-P02-CH1	1603440	OK	0.7008695	0.3007239	-0.6467975	0	-81.335	-71.714	1.572	B5-03822-P03-CH0	1603440	OK	0.736687	-0.1945315	-0.6476493	0	-92.766	-54.155	7.567	B5-03822-P03-CH1	1603440	OK	0.7834634	-0.597799	-0.1697691	0	-99.8	-12.487	6.805	B5-03822-P04-CH0	1603440	OK	0.7935923	-0.2453746	0.5567788	0	-123.921	-22.673	14.37	B5-03822-P04-CH1	1603440	OK	0.7878394	-0.6155895	0.0189355	0	-110.496	-31.184	2.816	NA
0.169861806357763	B5-03822-P01-CH0	1603448	OK	0.1386064	0.1145496	0.1316235	-0.9748548	152.774	-15.589	-279.223	B5-03822-P02-CH0	1603448	OK	0.6858855	0.2796279	-0.6718402	0	-93.019	-88.524	-0.606	B5-03822-P02-CH1	1603448	OK	0.7026775	0.2952182	-0.647372	0	-83.117	-72.176	0.469	B5-03822-P03-CH0	1603448	OK	0.7360156	-0.1791859	-0.6528196	0	-92.787	-53.896	6.896	B5-03822-P03-CH1	1603448	OK	0.7877864	-0.5929897	-0.1666007	0	-100.128	-12.277	7.599	B5-03822-P04-CH0	1603448	OK	0.795789	-0.2459448	0.5533815	0	-123.638	-23.182	15.066	B5-03822-P04-CH1	1603448	OK	0.7889182	-0.61415	0.0206853	0	-110.968	-31.143	3.726	NA
0.179853677319985	B5-03822-P01-CH0	1603456	OK	0.1388796	0.11465	0.1325556	-0.9746778	152.79	-15.437	-279.11	B5-03822-P02-CH0	1603456	OK	0.6899775	0.2864721	-0.6647292	0	-93.523	-88.469	-1.418	B5-03822-P02-CH1	1603456	OK	0.7085329	0.2930423	-0.6419558	0	-80.507	-69.503	-0.584	B5-03822-P03-CH0	1603456	OK	0.7353591	-0.1579096	-0.6590232	0	-92.955	-53.295	6.704	B5-03822-P03-CH1	1603456	OK	0.7910565	-0.5895357	-0.1633314	0	-100.144	-12.49	8.366	B5-03822-P04-CH0	1603456	OK	0.7988223	-0.245873	0.5490258	0	-123.253	-21.698	15.961	B5-03822-P04-CH1	1603456	OK	0.789263	-0.6136385	0.0226208	0	-111.487	-31.483	3.771	NA
0.189845548282206	B5-03822-P01-CH0	1603464	OK	0.1386989	0.1145529	0.1322344	-0.9747586	152.689	-15.485	-279.024	B5-03822-P02-CH0	1603464	OK	0.6927628	0.2941604	-0.6584446	0	-94.953	-88.902	0.248	B5-03822-P02-CH1	1603464	OK	0.7108735	0.2824471	-0.6441137	0	-82.308	-70.179	-0.737	B5-03822-P03-CH0	1603464	OK	0.7357821	-0.1297446	-0.6646737	0	-92.651	-52.961	7.402	B5-03822-P03-CH1	1603464	OK	0.7928546	-0.5876747	-0.1613072	0	-99.422	-12.219	7.167	B5-03822-P04-CH0	1603464	OK	0.8001966	-0.247238	0.5464053	0	-123.179	-22.307	15.683	B5-03822-P04-CH1	1603464	OK	0.7892398	-0.6136378	0.0234342	0	-111.459	-31.391	3.615	NA
0.199837419244427	B5-03822-P01-CH0	1603472	OK	0.1386749	0.1143124	0.1321842	-0.9747971	152.497	-15.352	-278.858	B5-03822-P02-CH0	1603472	OK	0.6971973	0.2980102	-0.6520014	0	-94.538	-88.047	-0.139	B5-03822-P02-CH1	1603472	OK	0.7123533	0.2667516	-0.6491505	0	-83.378	-69.135	1.431	B5-03822-P03-CH0	1603472	OK	0.7359978	-0.0967873	-0.6700294	0	-93.708	-52.527	8.119	B5-03822-P03-CH1	1603472	OK	0.7940135	-0.5866033	-0.1594968	0	-99.338	-12.952	7.493	B5-03822-P04-CH0	1603472	OK	0.8006464	-0.2485893	0.5451318	0	-122.439	-21.955	14.626	B5-03822-P04-CH1	1603472	OK	0.7892388	-0.6135968	0.0245179	0	-111.817	-31.339	3.248	NA
0.209829290206649	B5-03822-P01-CH0	1603480	OK	0.1384067	0.1143975	0.1315853	-0.9749062	152.512	-15.366	-278.874	B5-03822-P02-CH0	1603480	OK	0.7008126	0.2954708	-0.6492755	0	-94.422	-88.601	-0.158	B5-03822-P02-CH1	1603480	OK	0.7176189	0.242949	-0.6526859	0	-83.897	-70.846	-0.861	B5-03822-P03-CH0	1603480	OK	0.7371802	-0.064435	-0.6726169	0	-95.824	-53.326	9.971	B5-03822-P03-CH1	1603480	OK	0.7954043	-0.585414	-0.1569155	0	-100.268	-13.919	10.016	B5-03822-P04-CH0	1603480	OK	0.8007477	-0.2475429	0.5454591	0	-121.677	-21.457	14.188	B5-03822-P04-CH1	1603480	OK	0.7888913	-0.6140192	0.025118	0	-112.003	-31.485	3.495	NA
0.21982116116887	B5-03822-P01-CH0	1603488	OK	0.138396	0.1144952	0.131277	-0.9749378	152.515	-15.443	-278.706	B5-03822-P02-CH0	1603488	OK	0.6996914	0.2862854	-0.6545782	0	-95.366	-89.845	-0.778	B5-03822-P02-CH1	1603488	OK	0.7190597	0.217324	-0.6600935	0	-86.192	-71.632	0.479	B5-03822-P03-CH0	1603488	OK	0.7382805	-0.0363899	-0.6735114	0	-98.411	-53.942	9.909	B5-03822-P03-CH1	1603488	OK	0.7965802	-0.5841794	-0.1555454	0	-100.296	-13.252	8.32	B5-03822-P04-CH0	1603488	OK	0.8031069	-0.2459043	0.542725	0	-121.652	-21.063	15.987	B5-03822-P04-CH1	1603488	OK	0.788993	-0.6138756	0.0254318	0	-112.292	-31.351	3.327	NA
0.229813032131091	B5-03822-P01-CH0	1603496	OK	0.137942	0.1142484	0.1299067	-0.9752146	152.384	-15.613	-278.693	B5-03822-P02-CH0	1603496	OK	0.6976039	0.2729541	-0.6624536	0	-94.897	-90.375	-1.624	B5-03822-P02-CH1	1603496	OK	0.7217457	0.1939597	-0.6644267	0	-87.385	-72.363	1.818	B5-03822-P03-CH0	1603496	OK	0.7407051	-0.0110178	-0.6717399	0	-99.201	-53.491	8.798	B5-03822-P03-CH1	1603496	OK	0.7984381	-0.5818607	-0.1547083	0	-98.903	-11.841	7.334	B5-03822-P04-CH0	1603496	OK	0.8044475	-0.2460195	0.5406834	0	-123.252	-23.684	16.748	B5-03822-P04-CH1	1603496	OK	0.7880862	-0.6150157	0.0259977	0	-112.321	-31.649	3.433	NA
0.239804903093313	B5-03822-P01-CH0	1603504	OK	0.1376658	0.1144602	0.1286875	-0.9753904	152.413	-15.638	-278.511	B5-03822-P02-CH0	1603504	OK	0.6935321	0.2556695	-0.6735328	0	-93.836	-90.602	-1.632	B5-03822-P02-CH1	1603504	OK	0.7276733	0.1780027	-0.6624248	0	-85.835	-70.51	-2.198	B5-03822-P03-CH0	1603504	OK	0.7418787	0.0094486	-0.6704676	0	-99.807	-52.651	9.48	B5-03822-P03-CH1	1603504	OK	0.7980847	-0.5835844	-0.1499671	0	-98.842	-13.054	8.308	B5-03822-P04-CH0	1603504	OK	0.8042955	-0.2495875	0.5392726	0	-122.318	-22.511	16.502	B5-03822-P04-CH1	1603504	OK	0.7874346	-0.6158723	0.0254575	0	-112.012	-31.112	2.292	NA
0.249796774055534	B5-03822-P01-CH0	1603512	OK	0.1372899	0.1147021	0.1278564	-0.9755243	152.452	-15.627	-278.299	B5-03822-P02-CH0	1603512	OK	0.6881516	0.2357972	-0.686183	0	-92.388	-90.746	-1.372	B5-03822-P02-CH1	1603512	OK	0.7302429	0.1608684	-0.6639779	0	-86.517	-69.774	-1.155	B5-03822-P03-CH0	1603512	OK	0.7443385	0.0228482	-0.6674116	0	-100.094	-52.615	9.026	B5-03822-P03-CH1	1603512	OK	0.7974975	-0.5852234	-0.1466673	0	-99.563	-13.115	6.454	B5-03822-P04-CH0	1603512	OK	0.8031583	-0.2535052	0.5391399	0	-121.624	-20.6	13.638	B5-03822-P04-CH1	1603512	OK	0.7869473	-0.6164918	0.0255293	0	-112.153	-30.858	1.586	NA
0.259788645017756	B5-03822-P01-CH0	1603520	OK	0.1373312	0.115094	0.127394	-0.9755328	152.668	-15.604	-278.344	B5-03822-P02-CH0	1603520	OK	0.6833008	0.2170992	-0.697114	0	-90.781	-91.322	-2.439	B5-03822-P02-CH1	1603520	OK	0.7330152	0.1443167	-0.6647265	0	-87.595	-70.715	-2.712	B5-03822-P03-CH0	1603520	OK	0.7470109	0.0310893	-0.6640844	0	-100.207	-53.45	10.308	B5-03822-P03-CH1	1603520	OK	0.7977063	-0.5859341	-0.1426389	0	-99.798	-12.696	6.158	B5-03822-P04-CH0	1603520	OK	0.804124	-0.2549253	0.5370267	0	-123.329	-22.589	15.198	B5-03822-P04-CH1	1603520	OK	0.7869392	-0.6165269	0.0249247	0	-111.673	-30.174	0.576	NA
0.269780515979977	B5-03822-P01-CH0	1603528	OK	0.1372214	0.1153406	0.1264452	-0.9756426	152.802	-15.709	-278.301	B5-03822-P02-CH0	1603528	OK	0.6770918	0.1999716	-0.7082076	0	-90.839	-92.236	-2.041	B5-03822-P02-CH1	1603528	OK	0.7354974	0.1272749	-0.6654658	0	-89.033	-70.778	1.655	B5-03822-P03-CH0	1603528	OK	0.7476777	0.0365341	-0.6630561	0	-101.201	-54.437	11.866	B5-03822-P03-CH1	1603528	OK	0.7960895	-0.5895102	-0.1368183	0	-101.01	-14.398	9.593	B5-03822-P04-CH0	1603528	OK	0.8028821	-0.2588552	0.537005	0	-123.735	-23.095	14.441	B5-03822-P04-CH1	1603528	OK	0.7863655	-0.6172588	0.0249169	0	-111.673	-30.046	-0.048	NA
0.279772386942198	B5-03822-P01-CH0	1603536	OK	0.1376082	0.115329	0.1261421	-0.9756287	152.899	-15.838	-278.308	B5-03822-P02-CH0	1603536	OK	0.6704893	0.1828548	-0.7190328	0	-90.874	-92.422	-0.658	B5-03822-P02-CH1	1603536	OK	0.7379608	0.1092755	-0.6659374	0	-91.628	-72.798	3.863	B5-03822-P03-CH0	1603536	OK	0.7489664	0.0383525	-0.6614971	0	-102.209	-54.585	11.316	B5-03822-P03-CH1	1603536	OK	0.7934576	-0.5947802	-0.1290798	0	-100.164	-15.465	8.267	B5-03822-P04-CH0	1603536	OK	0.8020139	-0.2528809	0.541133	0	-122.856	-22.328	15.198	B5-03822-P04-CH1	1603536	OK	0.7866482	-0.6168409	0.0263056	0	-112.073	-30.343	0.742	NA
0.28976425790442	B5-03822-P01-CH0	1603544	OK	0.1381815	0.115559	0.1269079	-0.9754211	153.104	-15.663	-278.251	B5-03822-P02-CH0	1603544	OK	0.6672272	0.1687752	-0.7254811	0	-90.306	-93.42	-2.389	B5-03822-P02-CH1	1603544	OK	0.7414774	0.0944765	-0.6642932	0	-93.061	-73.199	3.026	B5-03822-P03-CH0	1603544	OK	0.7492388	0.0326399	-0.6614952	0	-103.756	-54.909	10.888	B5-03822-P03-CH1	1603544	OK	0.791241	-0.5988562	-0.1237294	0	-99.602	-14.928	7.331	B5-03822-P04-CH0	1603544	OK	0.8027253	-0.2522821	0.5403571	0	-123.431	-22.69	15.133	B5-03822-P04-CH1	1603544	OK	0.7874891	-0.6156944	0.0279514	0	-112.873	-30.519	1.567	NA
0.299756128866641	B5-03822-P01-CH0	1603552	OK	0.1387344	0.115541	0.1273114	-0.9752922	153.198	-15.653	-278.285	B5-03822-P02-CH0	1603552	OK	0.66453	0.1592195	-0.7301021	0	-90.069	-94.266	-1.546	B5-03822-P02-CH1	1603552	OK	0.7459969	0.084774	-0.6605315	0	-93.082	-73.935	3.074	B5-03822-P03-CH0	1603552	OK	0.7491173	0.0239308	-0.662005	0	-104.175	-55.821	11.202	B5-03822-P03-CH1	1603552	OK	0.7881279	-0.6036134	-0.1204376	0	-100.459	-15.106	6.429	B5-03822-P04-CH0	1603552	OK	0.8030763	-0.2519513	0.5399898	0	-123.756	-22.848	15.149	B5-03822-P04-CH1	1603552	OK	0.7877873	-0.6152243	0.0298358	0	-112.952	-30.733	1.404	NA
0.309747999828862	B5-03822-P01-CH0	1603560	OK	0.1390697	0.1156379	0.1274561	-0.975214	153.281	-15.54	-278.26	B5-03822-P02-CH0	1603560	OK	0.6629336	0.1536185	-0.7327486	0	-89.725	-93.629	-1.03	B5-03822-P02-CH1	1603560	OK	0.7487507	0.0761535	-0.6584627	0	-93.455	-75.031	-0.02	B5-03822-P03-CH0	1603560	OK	0.7488014	0.0178076	-0.6625551	0	-103.247	-54.634	9.921	B5-03822-P03-CH1	1603560	OK	0.7867011	-0.6061329	-0.1170656	0	-100.145	-14.87	5.97	B5-03822-P04-CH0	1603560	OK	0.8033728	-0.2494772	0.5406971	0	-128.005	-26.67	17.605	B5-03822-P04-CH1	1603560	OK	0.7883353	-0.6144417	0.0314443	0	-113.418	-30.704	1.977	NA
0.319739870791084	B5-03822-P01-CH0	1603568	OK	0.1397011	0.1154627	0.1285561	-0.9750002	153.289	-15.455	-278.244	B5-03822-P02-CH0	1603568	OK	0.6612177	0.1524501	-0.7345407	0	-90.062	-93.597	-1.626	B5-03822-P02-CH1	1603568	OK	0.7491398	0.066045	-0.6591113	0	-93.887	-75.296	5.174	B5-03822-P03-CH0	1603568	OK	0.74489	0.0079744	-0.6671396	0	-103.14	-55.04	10.467	B5-03822-P03-CH1	1603568	OK	0.7851643	-0.608297	-0.1161541	0	-99.9	-15.532	7.597	B5-03822-P04-CH0	1603568	OK	0.8021583	-0.244141	0.5449195	0	-129.199	-26.633	16.712	B5-03822-P04-CH1	1603568	OK	0.7891705	-0.6132146	0.0343187	0	-113.979	-31.178	2.487	NA
0.329731741753305	B5-03822-P01-CH0	1603576	OK	0.1402045	0.1155134	0.1294144	-0.9748083	153.378	-15.246	-278.29	B5-03822-P02-CH0	1603576	OK	0.6598428	0.1516751	-0.7359362	0	-90.273	-94.974	-1.098	B5-03822-P02-CH1	1603576	OK	0.7504973	0.060062	-0.6581386	0	-92.674	-73.502	3.224	B5-03822-P03-CH0	1603576	OK	0.7395848	-0.0037794	-0.6730528	0	-103.727	-55.825	11.031	B5-03822-P03-CH1	1603576	OK	0.7826669	-0.6121127	-0.1129189	0	-100.293	-17.647	9.75	B5-03822-P04-CH0	1603576	OK	0.7997537	-0.2394301	0.5505155	0	-129.892	-27.474	17.07	B5-03822-P04-CH1	1603576	OK	0.790661	-0.6103788	0.0478844	0	-117.195	-34.289	8.738	NA
0.339723612715526	B5-03822-P01-CH0	1603584	OK	0.1404863	0.1156249	0.1293938	-0.9747573	153.472	-15.236	-278.384	B5-03822-P02-CH0	1603584	OK	0.6586224	0.1508509	-0.7371978	0	-89.907	-94.3	-0.972	B5-03822-P02-CH1	1603584	OK	0.7507363	0.0554947	-0.658267	0	-91.776	-72.864	3.574	B5-03822-P03-CH0	1603584	OK	0.7369905	-0.013848	-0.6757612	0	-103.413	-55.303	9.693	B5-03822-P03-CH1	1603584	OK	0.7827108	-0.6120613	-0.112893	0	-99.816	-16.256	8.034	B5-03822-P04-CH0	1603584	OK	0.7983002	-0.2333087	0.5552331	0	-130.349	-27.068	17.115	B5-03822-P04-CH1	1603584	OK	0.7900086	-0.6118401	0.039218	0	-115.335	-32.034	4.112	NA
0.349715483677748	B5-03822-P01-CH0	1603592	OK	0.141284	0.115365	0.1310466	-0.9744519	153.459	-14.974	-278.469	B5-03822-P02-CH0	1603592	OK	0.6576152	0.1509041	-0.7380855	0	-89.548	-93.726	-2.099	B5-03822-P02-CH1	1603592	OK	0.7471481	0.0520379	-0.6626174	0	-92.211	-73.188	2.181	B5-03822-P03-CH0	1603592	OK	0.7347611	-0.0252977	-0.6778541	0	-102.921	-54.686	9.407	B5-03822-P03-CH1	1603592	OK	0.7842547	-0.610129	-0.1126373	0	-99.499	-14.449	6.68	B5-03822-P04-CH0	1603592	OK	0.7964868	-0.230198	0.5591222	0	-130.66	-27.922	17.275	B5-03822-P04-CH1	1603592	OK	0.7914518	-0.6098147	0.0415936	0	-115.422	-32.104	4.771	NA
0.359707354639969	B5-03822-P01-CH0	1603600	OK	0.1417967	0.1150107	0.1316406	-0.9743393	153.336	-14.907	-278.489	B5-03822-P02-CH0	1603600	OK	0.656596	0.1549643	-0.7381516	0	-89.356	-93.977	-0.819	B5-03822-P02-CH1	1603600	OK	0.7466757	0.0464904	-0.6635616	0	-91.094	-73.333	0.668	B5-03822-P03-CH0	1603600	OK	0.7319188	-0.0338829	-0.6805489	0	-102.682	-54.18	8.531	B5-03822-P03-CH1	1603600	OK	0.7848615	-0.6091742	-0.1135747	0	-98.219	-12.505	4.418	B5-03822-P04-CH0	1603600	OK	0.7955036	-0.2263707	0.5620768	0	-131.858	-28.664	16.966	B5-03822-P04-CH1	1603600	OK	0.7916211	-0.609392	0.0444691	0	-115.941	-32.7	4.731	NA
0.369699225602191	B5-03822-P01-CH0	1603608	OK	0.1417678	0.1151425	0.1317053	-0.9743192	153.363	-14.806	-278.379	B5-03822-P02-CH0	1603608	OK	0.6559675	0.1641777	-0.7367172	0	-89.212	-93.614	-0.598	B5-03822-P02-CH1	1603608	OK	0.7417939	0.0489795	-0.6688369	0	-91.802	-72.606	0.712	B5-03822-P03-CH0	1603608	OK	0.7279145	-0.0397741	-0.6845134	0	-102.5	-53.967	8.649	B5-03822-P03-CH1	1603608	OK	0.7833977	-0.6115278	-0.1110036	0	-99.404	-14.476	8.732	B5-03822-P04-CH0	1603608	OK	0.7945571	-0.225802	0.5636422	0	-132.46	-28.281	15.953	B5-03822-P04-CH1	1603608	OK	0.7917695	-0.6090767	0.0461154	0	-116.181	-32.809	4.848	NA
0.379691096564412	B5-03822-P01-CH0	1603616	OK	0.141993	0.1149889	0.1323067	-0.974223	153.327	-14.639	-278.435	B5-03822-P02-CH0	1603616	OK	0.6552198	0.1744004	-0.7350317	0	-88.863	-92.674	-1.09	B5-03822-P02-CH1	1603616	OK	0.7403681	0.0485717	-0.6704445	0	-90.943	-72.719	0.885	B5-03822-P03-CH0	1603616	OK	0.7256035	-0.044988	-0.6866409	0	-101.85	-54.578	8.246	B5-03822-P03-CH1	1603616	OK	0.785232	-0.6094254	-0.1095964	0	-98.062	-12.172	6.413	B5-03822-P04-CH0	1603616	OK	0.7930102	-0.2278299	0.565003	0	-131.593	-26.996	15.806	B5-03822-P04-CH1	1603616	OK	0.7922543	-0.6083142	0.0478218	0	-116.514	-32.933	5.227	NA
0.389682967526633	B5-03822-P01-CH0	1603624	OK	0.1413263	0.1152089	0.1307587	-0.9745029	153.283	-14.77	-278.301	B5-03822-P02-CH0	1603624	OK	0.655217	0.189792	-0.7312111	0	-88.65	-92.079	-1.477	B5-03822-P02-CH1	1603624	OK	0.736463	0.0522701	-0.6744554	0	-91.373	-72.547	0.736	B5-03822-P03-CH0	1603624	OK	0.7247147	-0.0523486	-0.6870576	0	-100.706	-53.849	8.654	B5-03822-P03-CH1	1603624	OK	0.7813677	-0.614677	-0.1078737	0	-99.715	-14.701	9.947	B5-03822-P04-CH0	1603624	OK	0.7895746	-0.2345101	0.5670775	0	-130.129	-26.875	14.219	B5-03822-P04-CH1	1603624	OK	0.7910989	-0.6097453	0.0487146	0	-116.386	-33.244	5.616	NA
0.399674838488855	B5-03822-P01-CH0	1603632	OK	0.1410156	0.1154305	0.1299102	-0.9746352	153.284	-14.863	-278.161	B5-03822-P02-CH0	1603632	OK	0.6570026	0.2099513	-0.7240635	0	-87.614	-91.331	-2.203	B5-03822-P02-CH1	1603632	OK	0.733884	0.056799	-0.676896	0	-90.122	-71.124	-1.808	B5-03822-P03-CH0	1603632	OK	0.7238234	-0.0601695	-0.6873567	0	-100.043	-53.225	7.99	B5-03822-P03-CH1	1603632	OK	0.7794354	-0.61719	-0.1075035	0	-98.846	-15.015	7.868	B5-03822-P04-CH0	1603632	OK	0.7909751	-0.2368556	0.5641434	0	-131.037	-27.517	16.025	B5-03822-P04-CH1	1603632	OK	0.7904116	-0.6105572	0.0496937	0	-116.591	-33.646	6.087	NA
0.409666709451076	B5-03822-P01-CH0	1603640	OK	0.1409705	0.1155531	0.1295083	-0.9746807	153.292	-14.909	-278.083	B5-03822-P02-CH0	1603640	OK	0.6567241	0.238617	-0.7153848	0	-89.11	-92.498	-0.729	B5-03822-P02-CH1	1603640	OK	0.7280866	0.0595479	-0.6828938	0	-90.301	-72.011	-0.206	B5-03822-P03-CH0	1603640	OK	0.723727	-0.0681325	-0.6867148	0	-99.817	-52.512	7.346	B5-03822-P03-CH1	1603640	OK	0.7799509	-0.6164106	-0.1082341	0	-99.741	-13.565	8.475	B5-03822-P04-CH0	1603640	OK	0.7899544	-0.2444879	0.5623146	0	-130.193	-26.898	14.57	B5-03822-P04-CH1	1603640	OK	0.7900699	-0.6109055	0.0508331	0	-116.756	-34.028	6.6	NA
0.419658580413297	B5-03822-P01-CH0	1603648	OK	0.1406822	0.1158116	0.1283477	-0.9748451	153.34	-14.961	-278.011	B5-03822-P02-CH0	1603648	OK	0.6573465	0.2677116	-0.7044332	0	-90.147	-91.664	0.097	B5-03822-P02-CH1	1603648	OK	0.722978	0.0614282	-0.6881347	0	-89.567	-70.149	-0.974	B5-03822-P03-CH0	1603648	OK	0.723089	-0.0734657	-0.6868371	0	-100.313	-51.63	7.775	B5-03822-P03-CH1	1603648	OK	0.7790209	-0.6171613	-0.1106274	0	-97.812	-11.846	3.954	B5-03822-P04-CH0	1603648	OK	0.7909202	-0.2518041	0.5577095	0	-131.079	-26.737	14.307	B5-03822-P04-CH1	1603648	OK	0.7891766	-0.6121024	0.0503082	0	-116.5	-33.773	5.962	NA
0.429650451375519	B5-03822-P01-CH0	1603656	OK	0.1410134	0.1158443	0.1289169	-0.9747183	153.368	-14.82	-277.957	B5-03822-P02-CH0	1603656	OK	0.6595119	0.2966757	-0.6906718	0	-90.398	-90.731	-0.67	B5-03822-P02-CH1	1603656	OK	0.7196536	0.0647955	-0.6913033	0	-86.588	-68.513	-1.035	B5-03822-P03-CH0	1603656	OK	0.724488	-0.0800821	-0.6846196	0	-99.617	-51.468	9.3	B5-03822-P03-CH1	1603656	OK	0.7783823	-0.618299	-0.1087536	0	-98.916	-13.161	6.42	B5-03822-P04-CH0	1603656	OK	0.7919095	-0.2570963	0.5538779	0	-131.675	-27.387	14.979	B5-03822-P04-CH1	1603656	OK	0.7892563	-0.6119571	0.050823	0	-116.549	-33.826	5.756	NA
0.43964232233774	B5-03822-P01-CH0	1603664	OK	0.1414762	0.1158959	0.1294367	-0.9745762	153.397	-14.701	-277.88	B5-03822-P02-CH0	1603664	OK	0.6633836	0.3249207	-0.674054	0	-90.16	-90.184	-1.984	B5-03822-P02-CH1	1603664	OK	0.7128558	0.0588087	-0.6988405	0	-85.692	-68.088	-0.91	B5-03822-P03-CH0	1603664	OK	0.7272412	-0.088963	-0.6805922	0	-98.763	-52.241	9.217	B5-03822-P03-CH1	1603664	OK	0.7803053	-0.6158069	-0.1091122	0	-99.471	-13.651	7.273	B5-03822-P04-CH0	1603664	OK	0.7915187	-0.2667551	0.5498545	0	-130.054	-25.188	14.443	B5-03822-P04-CH1	1603664	OK	0.7895113	-0.6116388	0.0506942	0	-116.28	-33.634	5.484	NA
0.449634193299962	B5-03822-P01-CH0	1603672	OK	0.1410331	0.116046	0.1280036	-0.9748118	153.439	-14.908	-277.862	B5-03822-P02-CH0	1603672	OK	0.6665169	0.3500248	-0.6582081	0	-90.587	-89.154	0.364	B5-03822-P02-CH1	1603672	OK	0.701164	0.0512017	-0.7111592	0	-86.146	-67.672	-2.147	B5-03822-P03-CH0	1603672	OK	0.7307555	-0.0957914	-0.6758849	0	-97.936	-51.617	9.08	B5-03822-P03-CH1	1603672	OK	0.7789861	-0.6174512	-0.1092461	0	-99.239	-13.603	7.202	B5-03822-P04-CH0	1603672	OK	0.7911099	-0.273989	0.5468777	0	-130.067	-25.277	13.719	B5-03822-P04-CH1	1603672	OK	0.7883477	-0.6131914	0.0500428	0	-116.263	-33.898	5.814	NA
0.459626064262183	B5-03822-P01-CH0	1603680	OK	0.1409986	0.1160363	0.1280483	-0.9748121	153.399	-14.821	-277.739	B5-03822-P02-CH0	1603680	OK	0.6679387	0.37288	-0.644064	0	-92.388	-88.242	0.935	B5-03822-P02-CH1	1603680	OK	0.6911245	0.0350394	-0.7218859	0	-83.244	-66.491	-2.982	B5-03822-P03-CH0	1603680	OK	0.733062	-0.1028764	-0.6723366	0	-97.635	-50.815	7.764	B5-03822-P03-CH1	1603680	OK	0.7786242	-0.6180183	-0.1086171	0	-99.169	-13.424	6.985	B5-03822-P04-CH0	1603680	OK	0.7901515	-0.2820276	0.5441701	0	-128.585	-23.171	11.951	B5-03822-P04-CH1	1603680	OK	0.7882837	-0.613362	0.0489478	0	-115.96	-33.69	6.149	NA
0.469617935224404	B5-03822-P01-CH0	1603688	OK	0.1408082	0.1161761	0.1272134	-0.9749323	153.415	-14.852	-277.701	B5-03822-P02-CH0	1603688	OK	0.6738495	0.3930152	-0.6256723	0	-90.8	-86.334	-1.22	B5-03822-P02-CH1	1603688	OK	0.6750017	0.0140971	-0.7376815	0	-82.665	-65.583	-1.775	B5-03822-P03-CH0	1603688	OK	0.7334637	-0.1113345	-0.6705487	0	-97.691	-50.534	9.601	B5-03822-P03-CH1	1603688	OK	0.7775041	-0.6194759	-0.1083375	0	-98.945	-13.571	6.841	B5-03822-P04-CH0	1603688	OK	0.7892911	-0.2884609	0.5420424	0	-127.557	-23.301	12.746	B5-03822-P04-CH1	1603688	OK	0.7874983	-0.614435	0.0481261	0	-116.088	-33.858	6.765	NA
0.479609806186626	B5-03822-P01-CH0	1603696	OK	0.1405703	0.1162306	0.126333	-0.9750746	153.379	-14.901	-277.621	B5-03822-P02-CH0	1603696	OK	0.6792449	0.4105662	-0.608327	0	-91.289	-87.277	-2.313	B5-03822-P02-CH1	1603696	OK	0.6623297	-0.006528	-0.7491841	0	-79.882	-65.206	-1.863	B5-03822-P03-CH0	1603696	OK	0.7281724	-0.1126713	-0.6760696	0	-97.258	-48.284	6.766	B5-03822-P03-CH1	1603696	OK	0.7768424	-0.6203078	-0.1083244	0	-98.723	-13.479	6.481	B5-03822-P04-CH0	1603696	OK	0.7893795	-0.292543	0.5397209	0	-127.823	-23.545	12.558	B5-03822-P04-CH1	1603696	OK	0.7866487	-0.6156535	0.0464173	0	-115.612	-33.692	6.604	NA
0.489601677148847	B5-03822-P01-CH0	1603704	OK	0.1411552	0.1159094	0.1273224	-0.9748996	153.313	-14.79	-277.712	B5-03822-P02-CH0	1603704	OK	0.6820565	0.4249491	-0.5951615	0	-90.796	-85.302	-2.653	B5-03822-P02-CH1	1603704	OK	0.6523822	-0.0209959	-0.7575993	0	-78.063	-64.391	-2.63	B5-03822-P03-CH0	1603704	OK	0.722518	-0.1120868	-0.6822054	0	-94.524	-49.068	7.665	B5-03822-P03-CH1	1603704	OK	0.777556	-0.6195553	-0.1075078	0	-98.553	-13.302	6.096	B5-03822-P04-CH0	1603704	OK	0.7894235	-0.2954364	0.5380779	0	-126.916	-23.587	13.391	B5-03822-P04-CH1	1603704	OK	0.7870058	-0.6152834	0.0452583	0	-115.42	-33.64	6.36	NA
0.499593548111068	B5-03822-P01-CH0	1603712	OK	0.1413841	0.1159923	0.1282851	-0.9747303	153.397	-14.565	-277.734	B5-03822-P02-CH0	1603712	OK	0.6841244	0.435059	-0.5854038	0	-92.262	-85.792	-1.736	B5-03822-P02-CH1	1603712	OK	0.6431926	-0.0234214	-0.7653461	0	-78.866	-64.455	-1.84	B5-03822-P03-CH0	1603712	OK	0.7156125	-0.1062987	-0.6903617	0	-94.229	-48.427	7.619	B5-03822-P03-CH1	1603712	OK	0.7784457	-0.6184363	-0.1075122	0	-98.499	-12.904	6.038	B5-03822-P04-CH0	1603712	OK	0.7900262	-0.2978597	0.5358527	0	-126.522	-23.033	12.586	B5-03822-P04-CH1	1603712	OK	0.7873587	-0.6149448	0.0436948	0	-115.366	-33.433	6.339	NA
0.50958541907329	B5-03822-P01-CH0	1603720	OK	0.141244	0.1161511	0.1279574	-0.9747748	153.466	-14.506	-277.792	B5-03822-P02-CH0	1603720	OK	0.6867025	0.4423481	-0.5768603	0	-92.671	-85.914	-0.813	B5-03822-P02-CH1	1603720	OK	0.6366536	-0.0232063	-0.7708007	0	-80.848	-64.277	-0.959	B5-03822-P03-CH0	1603720	OK	0.7113419	-0.0947476	-0.6964306	0	-93.784	-48.296	8.516	B5-03822-P03-CH1	1603720	OK	0.7784137	-0.6184727	-0.1075349	0	-98.457	-12.818	5.906	B5-03822-P04-CH0	1603720	OK	0.7908984	-0.3002244	0.5332401	0	-125.51	-21.407	13.734	B5-03822-P04-CH1	1603720	OK	0.7870569	-0.6155041	0.0411855	0	-115.168	-33.102	6.356	NA
0.519577290035511	B5-03822-P01-CH0	1603728	OK	0.1417042	0.1162261	0.1285607	-0.9746197	153.472	-14.347	-277.725	B5-03822-P02-CH0	1603728	OK	0.6866194	0.4459482	-0.5741812	0	-92.996	-84.913	-0.661	B5-03822-P02-CH1	1603728	OK	0.6415149	-0.0233841	-0.7667541	0	-78.317	-63.957	-0.985	B5-03822-P03-CH0	1603728	OK	0.7107212	-0.0824838	-0.6986213	0	-92.858	-47.531	7.667	B5-03822-P03-CH1	1603728	OK	0.779151	-0.6177268	-0.1064768	0	-98.539	-12.818	5.829	B5-03822-P04-CH0	1603728	OK	0.7927709	-0.2994436	0.5308935	0	-126.717	-22.919	14.819	B5-03822-P04-CH1	1603728	OK	0.7872816	-0.6153192	0.0396235	0	-114.96	-32.978	6.726	NA
0.529569160997732	B5-03822-P01-CH0	1603736	OK	0.1415082	0.1163254	0.1280444	-0.9747043	153.513	-14.428	-277.736	B5-03822-P02-CH0	1603736	OK	0.6885889	0.4441624	-0.573206	0	-92.85	-84.878	-0.621	B5-03822-P02-CH1	1603736	OK	0.6449954	-0.0244829	-0.7637941	0	-78.786	-63.615	-0.61	B5-03822-P03-CH0	1603736	OK	0.7116872	-0.0672447	-0.6992706	0	-92.477	-46.517	7.483	B5-03822-P03-CH1	1603736	OK	0.7794629	-0.6173334	-0.1064754	0	-98.246	-12.691	5.691	B5-03822-P04-CH0	1603736	OK	0.7920439	-0.3060129	0.5282258	0	-124.765	-20.337	12.203	B5-03822-P04-CH1	1603736	OK	0.7868158	-0.6160941	0.0367295	0	-114.62	-32.818	6.856	NA
0.539561031959954	B5-03822-P01-CH0	1603744	OK	0.1412306	0.1162343	0.1276341	-0.9748092	153.425	-14.483	-277.723	B5-03822-P02-CH0	1603744	OK	0.6920479	0.4378025	-0.5739326	0	-92.246	-84.486	-1.634	B5-03822-P02-CH1	1603744	OK	0.6511866	-0.0272929	-0.7584267	0	-79.511	-62.913	0.479	B5-03822-P03-CH0	1603744	OK	0.7116174	-0.0498025	-0.7007998	0	-93.755	-47.261	8.088	B5-03822-P03-CH1	1603744	OK	0.7820885	-0.6145913	-0.1030291	0	-97.49	-13.959	6.033	B5-03822-P04-CH0	1603744	OK	0.7927842	-0.3066641	0.5267356	0	-125.291	-21.611	12.671	B5-03822-P04-CH1	1603744	OK	0.7859363	-0.6173231	0.0348765	0	-114.241	-33.095	6.859	NA
0.549552902922175	B5-03822-P01-CH0	1603752	OK	0.1415794	0.1163334	0.1279534	-0.974705	153.424	-14.386	-277.617	B5-03822-P02-CH0	1603752	OK	0.6944695	0.4282235	-0.5782186	0	-92.131	-84.138	-0.906	B5-03822-P02-CH1	1603752	OK	0.6631001	-0.0296645	-0.7479427	0	-77.949	-60.403	-0.786	B5-03822-P03-CH0	1603752	OK	0.7088901	-0.0251277	-0.7048712	0	-92.902	-46.109	8.225	B5-03822-P03-CH1	1603752	OK	0.7838249	-0.6124448	-0.1026152	0	-98.556	-13.431	5.934	B5-03822-P04-CH0	1603752	OK	0.7945904	-0.3047945	0.5250965	0	-126.214	-22.97	14.351	B5-03822-P04-CH1	1603752	OK	0.7858584	-0.6175377	0.0327679	0	-113.791	-32.963	6.535	NA
0.559544773884396	B5-03822-P01-CH0	1603760	OK	0.1418123	0.1163742	0.1283365	-0.9746158	153.418	-14.358	-277.582	B5-03822-P02-CH0	1603760	OK	0.6996611	0.4172989	-0.5799448	0	-91.365	-84.296	-2.086	B5-03822-P02-CH1	1603760	OK	0.671662	-0.0338851	-0.7400824	0	-79.272	-60.593	-1.788	B5-03822-P03-CH0	1603760	OK	0.6979212	0.0056388	-0.7161524	0	-93.061	-45.395	7.664	B5-03822-P03-CH1	1603760	OK	0.7852723	-0.6104583	-0.103383	0	-98.486	-12.521	6.725	B5-03822-P04-CH0	1603760	OK	0.7938854	-0.3081243	0.5242188	0	-124.634	-21.385	12.347	B5-03822-P04-CH1	1603760	OK	0.7861967	-0.6172408	0.0301406	0	-113.171	-32.223	5.342	NA
0.569536644846618	B5-03822-P01-CH0	1603768	OK	0.1422355	0.1162089	0.1292988	-0.9744467	153.381	-14.244	-277.629	B5-03822-P02-CH0	1603768	OK	0.7006418	0.4068125	-0.5861781	0	-91.677	-82.967	-1.224	B5-03822-P02-CH1	1603768	OK	0.6767291	-0.0435539	-0.7349427	0	-81.485	-62.161	-0.147	B5-03822-P03-CH0	1603768	OK	0.6837149	0.0371876	-0.728801	0	-93.408	-44.254	7.938	B5-03822-P03-CH1	1603768	OK	0.7852094	-0.6105435	-0.103358	0	-98.08	-12.89	5.678	B5-03822-P04-CH0	1603768	OK	0.7937077	-0.3089148	0.5240226	0	-123.021	-20.367	12.832	B5-03822-P04-CH1	1603768	OK	0.786525	-0.616908	0.0283362	0	-112.713	-32.292	5.227	NA
0.579528515808839	B5-03822-P01-CH0	1603776	OK	0.1427733	0.1164141	0.1303296	-0.9742062	153.453	-14.143	-277.575	B5-03822-P02-CH0	1603776	OK	0.7017787	0.3940609	-0.5934835	0	-92.406	-83.115	-0.029	B5-03822-P02-CH1	1603776	OK	0.6878204	-0.0546959	-0.7238173	0	-80.403	-62.363	-2.213	B5-03822-P03-CH0	1603776	OK	0.6728951	0.0625702	-0.737087	0	-92.752	-43.678	8.569	B5-03822-P03-CH1	1603776	OK	0.7858062	-0.6100131	-0.1019443	0	-98.491	-13.542	5.873	B5-03822-P04-CH0	1603776	OK	0.7948315	-0.3065629	0.5237003	0	-123.504	-21.038	14.307	B5-03822-P04-CH1	1603776	OK	0.7875127	-0.6157466	0.0260749	0	-112.42	-31.827	5.085	NA
0.589520386771061	B5-03822-P01-CH0	1603784	OK	0.1427259	0.1166583	0.1303925	-0.9741755	153.521	-14.14	-277.505	B5-03822-P02-CH0	1603784	OK	0.7041429	0.3825307	-0.5982083	0	-91.959	-84.037	0.143	B5-03822-P02-CH1	1603784	OK	0.6966577	-0.0571846	-0.715121	0	-81.604	-62.495	-2.698	B5-03822-P03-CH0	1603784	OK	0.6681725	0.0823479	-0.7394352	0	-91.34	-42.807	8.393	B5-03822-P03-CH1	1603784	OK	0.7845339	-0.6114957	-0.102857	0	-98.392	-13.074	5.849	B5-03822-P04-CH0	1603784	OK	0.7942644	-0.303552	0.5263081	0	-124.734	-21.283	13.967	B5-03822-P04-CH1	1603784	OK	0.7874525	-0.6159016	0.0241618	0	-112.189	-31.824	5.194	NA
0.599512257733282	B5-03822-P01-CH0	1603792	OK	0.142473	0.1167385	0.1290574	-0.9743807	153.443	-14.332	-277.444	B5-03822-P02-CH0	1603792	OK	0.7030238	0.3705075	-0.6070269	0	-92.191	-84.059	1.229	B5-03822-P02-CH1	1603792	OK	0.7040977	-0.0557735	-0.7079095	0	-84.577	-62.364	-1.608	B5-03822-P03-CH0	1603792	OK	0.6634353	0.0990332	-0.7416509	0	-91.839	-43.954	9.41	B5-03822-P03-CH1	1603792	OK	0.7842042	-0.6119831	-0.1024717	0	-98.264	-13.26	5.634	B5-03822-P04-CH0	1603792	OK	0.7942098	-0.3048387	0.5256465	0	-124.442	-21.348	14.079	B5-03822-P04-CH1	1603792	OK	0.7871828	-0.6163409	0.021612	0	-111.672	-31.454	5.747	NA
0.609504128695503	B5-03822-P01-CH0	1603800	OK	0.1419391	0.1167797	0.128191	-0.974568	153.333	-14.51	-277.335	B5-03822-P02-CH0	1603800	OK	0.7017616	0.3554448	-0.6174056	0	-91.935	-84.311	1.5	B5-03822-P02-CH1	1603800	OK	0.7193653	-0.0462177	-0.6930927	0	-83.194	-61.879	-1.444	B5-03822-P03-CH0	1603800	OK	0.6606058	0.1190054	-0.7412406	0	-90.971	-43.372	9.456	B5-03822-P03-CH1	1603800	OK	0.7840958	-0.6121491	-0.1023102	0	-98.156	-13.442	5.599	B5-03822-P04-CH0	1603800	OK	0.794411	-0.3056944	0.5248449	0	-124.355	-21.476	14.161	B5-03822-P04-CH1	1603800	OK	0.7864918	-0.6173062	0.0190729	0	-111.059	-31.283	5.178	NA
0.619495999657725	B5-03822-P01-CH0	1603808	OK	0.1415974	0.1166391	0.1282759	-0.9746234	153.168	-14.504	-277.209	B5-03822-P02-CH0	1603808	OK	0.700443	0.3366266	-0.6293347	0	-91.055	-84.089	0.75	B5-03822-P02-CH1	1603808	OK	0.7298843	-0.0331403	-0.6827669	0	-85.554	-62.383	-1.894	B5-03822-P03-CH0	1603808	OK	0.6557267	0.1398461	-0.7419337	0	-91.918	-43.486	8.925	B5-03822-P03-CH1	1603808	OK	0.7841776	-0.6120911	-0.1020293	0	-98.257	-13.831	6.227	B5-03822-P04-CH0	1603808	OK	0.7947286	-0.3055927	0.5244231	0	-124.173	-21.379	14.079	B5-03822-P04-CH1	1603808	OK	0.7867509	-0.6170506	0.016479	0	-110.472	-30.759	4.714	NA
0.629487870619946	B5-03822-P01-CH0	1603816	OK	0.1411776	0.1166536	0.1272508	-0.9748169	153.048	-14.646	-277.181	B5-03822-P02-CH0	1603816	OK	0.699101	0.3094082	-0.6446118	0	-89.991	-84.795	-1.381	B5-03822-P02-CH1	1603816	OK	0.7395719	-0.0244511	-0.6726332	0	-88.128	-63.84	3.534	B5-03822-P03-CH0	1603816	OK	0.6516361	0.1608333	-0.7412847	0	-93.126	-44.636	9.172	B5-03822-P03-CH1	1603816	OK	0.7834557	-0.6130056	-0.1020849	0	-98.42	-14.102	6.37	B5-03822-P04-CH0	1603816	OK	0.7946464	-0.3056426	0.5245185	0	-123.898	-21.38	14.348	B5-03822-P04-CH1	1603816	OK	0.7862665	-0.6176962	0.0153777	0	-110.628	-31.228	6.153	NA
0.639479741582167	B5-03822-P01-CH0	1603824	OK	0.1410001	0.1168667	0.1266058	-0.9749011	153.059	-14.63	-277.157	B5-03822-P02-CH0	1603824	OK	0.6950924	0.279632	-0.6623085	0	-89.243	-85.573	-1.488	B5-03822-P02-CH1	1603824	OK	0.7498856	-0.0201299	-0.6612612	0	-88.611	-64.619	1.072	B5-03822-P03-CH0	1603824	OK	0.651015	0.1808547	-0.7372049	0	-92.12	-43.765	8.987	B5-03822-P03-CH1	1603824	OK	0.7830767	-0.6134976	-0.102037	0	-98.582	-14.142	6.573	B5-03822-P04-CH0	1603824	OK	0.7943838	-0.3056856	0.5248911	0	-123.498	-21.147	14.237	B5-03822-P04-CH1	1603824	OK	0.7869527	-0.6168798	0.0128381	0	-110.45	-30.42	6.956	NA
0.649471612544389	B5-03822-P01-CH0	1603832	OK	0.1405906	0.1172582	0.1261157	-0.9749767	153.108	-14.626	-277.052	B5-03822-P02-CH0	1603832	OK	0.6885394	0.2497155	-0.6808492	0	-89.218	-85.371	-1.695	B5-03822-P02-CH1	1603832	OK	0.7585938	-0.0171927	-0.651337	0	-88.133	-64.383	1.557	B5-03822-P03-CH0	1603832	OK	0.649375	0.1985719	-0.7340854	0	-92.662	-44.37	7.411	B5-03822-P03-CH1	1603832	OK	0.7828034	-0.6137662	-0.102518	0	-98.586	-13.968	6.643	B5-03822-P04-CH0	1603832	OK	0.7943151	-0.3055316	0.5250847	0	-123.276	-20.873	14.227	B5-03822-P04-CH1	1603832	OK	0.7868343	-0.6170687	0.0108654	0	-110.468	-30.109	7.076	NA
0.65946348350661	B5-03822-P01-CH0	1603840	OK	0.1405822	0.1172614	0.12629	-0.974955	153.06	-14.613	-276.983	B5-03822-P02-CH0	1603840	OK	0.6864662	0.2177579	-0.6937908	0	-87.33	-84.249	-2.837	B5-03822-P02-CH1	1603840	OK	0.7585563	-0.0186538	-0.6513405	0	-91.283	-64.752	4.692	B5-03822-P03-CH0	1603840	OK	0.6480108	0.2094526	-0.7322647	0	-92.804	-44.234	7.956	B5-03822-P03-CH1	1603840	OK	0.7827351	-0.6139008	-0.102233	0	-98.568	-14.169	6.788	B5-03822-P04-CH0	1603840	OK	0.7944518	-0.3042459	0.5256242	0	-123.184	-20.813	14.306	B5-03822-P04-CH1	1603840	OK	0.7871265	-0.6167116	0.0099339	0	-110.455	-30.198	7.684	NA
0.669455354468832	B5-03822-P01-CH0	1603848	OK	0.1405469	0.1174688	0.1259356	-0.9749809	153.068	-14.689	-276.845	B5-03822-P02-CH0	1603848	OK	0.6884701	0.1833233	-0.7017132	0	-86.584	-85.565	-0.659	B5-03822-P02-CH1	1603848	OK	0.7665079	-0.0194263	-0.6419411	0	-88.745	-63.263	2.633	B5-03822-P03-CH0	1603848	OK	0.6452127	0.2197614	-0.7317141	0	-94.608	-44.91	8.175	B5-03822-P03-CH1	1603848	OK	0.7822978	-0.6145138	-0.1018965	0	-98.753	-14.465	7.016	B5-03822-P04-CH0	1603848	OK	0.7947638	-0.302614	0.5260943	0	-123.384	-20.946	14.579	B5-03822-P04-CH1	1603848	OK	0.7870586	-0.6168195	0.0085123	0	-110.068	-29.832	7.107	NA
0.679447225431053	B5-03822-P01-CH0	1603856	OK	0.1398805	0.1177249	0.124691	-0.9752059	153.112	-14.792	-276.803	B5-03822-P02-CH0	1603856	OK	0.6923152	0.1544251	-0.7048777	0	-86.55	-86.191	-1.175	B5-03822-P02-CH1	1603856	OK	0.7665214	-0.0232469	-0.6417979	0	-90.927	-63.667	1.202	B5-03822-P03-CH0	1603856	OK	0.6480156	0.2296997	-0.7261638	0	-93.052	-44.44	7.627	B5-03822-P03-CH1	1603856	OK	0.7815466	-0.6153252	-0.1027609	0	-98.764	-14.246	6.856	B5-03822-P04-CH0	1603856	OK	0.794233	-0.3027073	0.5268417	0	-123.117	-20.713	14.566	B5-03822-P04-CH1	1603856	OK	0.786176	-0.6179644	0.0068786	0	-109.922	-29.638	6.701	NA
0.689439096393274	B5-03822-P01-CH0	1603864	OK	0.1395956	0.1178797	0.1242222	-0.9752878	153.15	-14.796	-276.826	B5-03822-P02-CH0	1603864	OK	0.6932107	0.1302316	-0.7088714	0	-86.532	-85.608	-0.787	B5-03822-P02-CH1	1603864	OK	0.768986	-0.0295387	-0.6385828	0	-91.25	-65.329	4.339	B5-03822-P03-CH0	1603864	OK	0.6467477	0.234425	-0.7257839	0	-93.7	-44.954	7.971	B5-03822-P03-CH1	1603864	OK	0.7809852	-0.6159827	-0.1030889	0	-98.666	-14.373	7.036	B5-03822-P04-CH0	1603864	OK	0.7942472	-0.3016288	0.5274386	0	-123.034	-20.621	14.975	B5-03822-P04-CH1	1603864	OK	0.7859323	-0.6182882	0.0054876	0	-109.789	-29.335	6.301	NA
0.699430967355496	B5-03822-P01-CH0	1603872	OK	0.1397117	0.1177128	0.1247593	-0.9752228	153.114	-14.706	-276.879	B5-03822-P02-CH0	1603872	OK	0.6937959	0.1110949	-0.7115513	0	-85.018	-85.42	0.411	B5-03822-P02-CH1	1603872	OK	0.7682639	-0.0304723	-0.6394076	0	-92.92	-65.069	4.018	B5-03822-P03-CH0	1603872	OK	0.6455779	0.2336877	-0.7270621	0	-93.524	-44.413	7.389	B5-03822-P03-CH1	1603872	OK	0.7811319	-0.6157893	-0.1031334	0	-98.672	-14.301	7.141	B5-03822-P04-CH0	1603872	OK	0.7943416	-0.3004211	0.5279854	0	-122.828	-20.399	14.966	B5-03822-P04-CH1	1603872	OK	0.7863193	-0.6178014	0.0048412	0	-109.752	-29.235	6.298	NA
0.709422838317717	B5-03822-P01-CH0	1603880	OK	0.1404126	0.1175641	0.1259882	-0.974982	153.125	-14.538	-276.925	B5-03822-P02-CH0	1603880	OK	0.6927319	0.0956109	-0.7148294	0	-83.692	-85.138	-0.758	B5-03822-P02-CH1	1603880	OK	0.7714384	-0.0329657	-0.6354495	0	-91.495	-64.172	1.387	B5-03822-P03-CH0	1603880	OK	0.6436545	0.2312696	-0.7295363	0	-92.548	-42.907	9.488	B5-03822-P03-CH1	1603880	OK	0.7815426	-0.6153491	-0.1026483	0	-98.753	-14.499	7.279	B5-03822-P04-CH0	1603880	OK	0.7947398	-0.2987291	0.5283461	0	-122.61	-20.234	15.009	B5-03822-P04-CH1	1603880	OK	0.7871075	-0.616795	0.0050673	0	-109.565	-29.168	6.065	NA
0.719414709279938	B5-03822-P01-CH0	1603888	OK	0.1405494	0.1178361	0.1257939	-0.9749546	153.308	-14.572	-277.063	B5-03822-P02-CH0	1603888	OK	0.6909137	0.0826155	-0.7182011	0	-83.602	-85.58	-0.585	B5-03822-P02-CH1	1603888	OK	0.773124	-0.0369201	-0.6331795	0	-90.568	-65.344	4.738	B5-03822-P03-CH0	1603888	OK	0.6427396	0.2296554	-0.7308517	0	-92.351	-42.724	10.175	B5-03822-P03-CH1	1603888	OK	0.7814702	-0.6154133	-0.102814	0	-98.781	-14.4	7.29	B5-03822-P04-CH0	1603888	OK	0.7946338	-0.2989255	0.5283945	0	-122.329	-20.048	14.968	B5-03822-P04-CH1	1603888	OK	0.7869096	-0.617046	0.0052489	0	-109.707	-29.384	6.161	NA
0.72940658024216	B5-03822-P01-CH0	1603896	OK	0.1412441	0.1180855	0.1270935	-0.9746554	153.428	-14.341	-276.87	B5-03822-P02-CH0	1603896	OK	0.6900083	0.0721323	-0.7201982	0	-83.148	-84.744	-0.83	B5-03822-P02-CH1	1603896	OK	0.7721938	-0.0390883	-0.6341836	0	-90.871	-65.851	6.397	B5-03822-P03-CH0	1603896	OK	0.6425761	0.2264009	-0.73201	0	-92.779	-43.64	10.215	B5-03822-P03-CH1	1603896	OK	0.7823505	-0.614367	-0.1023762	0	-98.689	-14.118	6.813	B5-03822-P04-CH0	1603896	OK	0.795489	-0.2972596	0.5280473	0	-122.535	-20.083	15.134	B5-03822-P04-CH1	1603896	OK	0.7879415	-0.6157317	0.0047728	0	-109.261	-28.534	4.638	NA
0.739398451204381	B5-03822-P01-CH0	1603904	OK	0.1410244	0.1182781	0.1268259	-0.9746987	153.462	-14.446	-276.738	B5-03822-P02-CH0	1603904	OK	0.6887065	0.0686428	-0.7217835	0	-83.377	-85.107	-0.649	B5-03822-P02-CH1	1603904	OK	0.7725636	-0.0408899	-0.6336193	0	-90.308	-65.341	4.181	B5-03822-P03-CH0	1603904	OK	0.643839	0.2259426	-0.7310413	0	-93.604	-44.388	8.717	B5-03822-P03-CH1	1603904	OK	0.7820907	-0.6146052	-0.1029298	0	-98.732	-14.148	6.908	B5-03822-P04-CH0	1603904	OK	0.7960737	-0.2970152	0.5273032	0	-122.772	-20.07	15.354	B5-03822-P04-CH1	1603904	OK	0.7874075	-0.6164184	0.0042192	0	-109.04	-28.505	3.696	NA
0.749390322166603	B5-03822-P01-CH0	1603912	OK	0.140806	0.1182893	0.1258802	-0.9748515	153.472	-14.592	-276.742	B5-03822-P02-CH0	1603912	OK	0.6896385	0.0678736	-0.720966	0	-82.921	-86.053	-1.981	B5-03822-P02-CH1	1603912	OK	0.7706254	-0.0422906	-0.6358836	0	-90.48	-64.634	4.183	B5-03822-P03-CH0	1603912	OK	0.6454657	0.2269	-0.7293081	0	-93.094	-43.738	8.252	B5-03822-P03-CH1	1603912	OK	0.7813767	-0.6154433	-0.103344	0	-98.696	-14.319	6.947	B5-03822-P04-CH0	1603912	OK	0.796046	-0.2976656	0.5269781	0	-122.659	-19.98	15.425	B5-03822-P04-CH1	1603912	OK	0.786841	-0.6171429	0.0039896	0	-108.976	-28.51	3.448	NA
0.759382193128824	B5-03822-P01-CH0	1603920	OK	0.140839	0.1182653	0.1257446	-0.9748672	153.53	-14.619	-276.857	B5-03822-P02-CH0	1603920	OK	0.6875507	0.0688672	-0.7228633	0	-83.973	-85.686	-1.307	B5-03822-P02-CH1	1603920	OK	0.7664786	-0.0438651	-0.6407702	0	-91.479	-64.683	4.887	B5-03822-P03-CH0	1603920	OK	0.6497978	0.2207447	-0.7273477	0	-93.333	-43.505	7.768	B5-03822-P03-CH1	1603920	OK	0.781353	-0.6153934	-0.1038197	0	-98.636	-14.121	6.595	B5-03822-P04-CH0	1603920	OK	0.7961529	-0.2980783	0.5265832	0	-122.501	-19.814	15.366	B5-03822-P04-CH1	1603920	OK	0.7867363	-0.6172769	0.0038934	0	-109.021	-28.593	3.637	NA
0.769374064091045	B5-03822-P01-CH0	1603928	OK	0.1410167	0.1184887	0.1258764	-0.9747973	153.65	-14.582	-276.845	B5-03822-P02-CH0	1603928	OK	0.6870996	0.0724962	-0.7229373	0	-83.324	-83.904	-1.224	B5-03822-P02-CH1	1603928	OK	0.7636611	-0.0432464	-0.6441673	0	-90.889	-63.776	2.27	B5-03822-P03-CH0	1603928	OK	0.65266	0.2122786	-0.7273051	0	-93.633	-43.841	8.938	B5-03822-P03-CH1	1603928	OK	0.7812743	-0.6154996	-0.1037823	0	-98.731	-14.235	6.814	B5-03822-P04-CH0	1603928	OK	0.796339	-0.2983506	0.5261475	0	-122.366	-19.647	15.277	B5-03822-P04-CH1	1603928	OK	0.7866466	-0.6173911	0.0039224	0	-108.963	-28.556	3.142	NA
0.779365935053267	B5-03822-P01-CH0	1603936	OK	0.141017	0.1183161	0.1255943	-0.9748546	153.598	-14.635	-276.852	B5-03822-P02-CH0	1603936	OK	0.6866135	0.0747526	-0.7231694	0	-82.848	-84.539	-0.558	B5-03822-P02-CH1	1603936	OK	0.7618318	-0.0427648	-0.6463617	0	-89.038	-63.581	0.21	B5-03822-P03-CH0	1603936	OK	0.656045	0.2033765	-0.7268033	0	-93.941	-44.907	9.052	B5-03822-P03-CH1	1603936	OK	0.780925	-0.6159176	-0.1039308	0	-98.721	-14.366	6.881	B5-03822-P04-CH0	1603936	OK	0.7966977	-0.298332	0.5256147	0	-122.581	-19.698	15.257	B5-03822-P04-CH1	1603936	OK	0.7862646	-0.6178771	0.0039794	0	-108.889	-28.553	2.632	NA
0.789357806015488	B5-03822-P01-CH0	1603944	OK	0.1413038	0.118029	0.1255775	-0.9748501	153.506	-14.732	-276.824	B5-03822-P02-CH0	1603944	OK	0.6843562	0.0773253	-0.7250361	0	-83.177	-85.494	0.181	B5-03822-P02-CH1	1603944	OK	0.7550496	-0.0417532	-0.6543368	0	-90.132	-64.384	1.513	B5-03822-P03-CH0	1603944	OK	0.6596201	0.1924543	-0.7265416	0	-93.375	-44.495	8.039	B5-03822-P03-CH1	1603944	OK	0.7810661	-0.6157345	-0.1039553	0	-98.753	-14.245	6.687	B5-03822-P04-CH0	1603944	OK	0.7966615	-0.2983792	0.5256428	0	-122.519	-19.797	14.917	B5-03822-P04-CH1	1603944	OK	0.7863994	-0.6177028	0.0043884	0	-108.881	-28.568	2.582	NA
0.799349676977709	B5-03822-P01-CH0	1603952	OK	0.1419132	0.1179132	0.1265133	-0.9746546	153.532	-14.625	-276.771	B5-03822-P02-CH0	1603952	OK	0.6826605	0.0789385	-0.7264594	0	-82.983	-85.667	-0.793	B5-03822-P02-CH1	1603952	OK	0.7526903	-0.0412123	-0.6570836	0	-89.007	-64.528	0.649	B5-03822-P03-CH0	1603952	OK	0.6611445	0.1809516	-0.7281102	0	-93.515	-44.684	8.432	B5-03822-P03-CH1	1603952	OK	0.7816762	-0.6150474	-0.1034362	0	-98.781	-14.193	6.565	B5-03822-P04-CH0	1603952	OK	0.7971154	-0.2973944	0.5255127	0	-122.625	-19.881	14.731	B5-03822-P04-CH1	1603952	OK	0.7869374	-0.6170103	0.0052754	0	-108.933	-28.59	2.377	NA
0.809341547939931	B5-03822-P01-CH0	1603960	OK	0.1416368	0.1181236	0.1258618	-0.9747536	153.586	-14.698	-276.674	B5-03822-P02-CH0	1603960	OK	0.6820288	0.0794732	-0.7269943	0	-82.429	-86.136	-0.721	B5-03822-P02-CH1	1603960	OK	0.7498752	-0.0382154	-0.6604747	0	-88.334	-64.604	2.942	B5-03822-P03-CH0	1603960	OK	0.6618652	0.1707479	-0.7299176	0	-94.357	-45.521	8.247	B5-03822-P03-CH1	1603960	OK	0.7813831	-0.6153152	-0.1040561	0	-98.868	-13.897	6.355	B5-03822-P04-CH0	1603960	OK	0.7970722	-0.2977467	0.5253787	0	-122.745	-19.866	14.648	B5-03822-P04-CH1	1603960	OK	0.7864545	-0.6176233	0.005545	0	-109.416	-28.827	2.848	NA
0.819333418902152	B5-03822-P01-CH0	1603968	OK	0.1417854	0.1178673	0.1264209	-0.9746907	153.518	-14.623	-276.644	B5-03822-P02-CH0	1603968	OK	0.6805781	0.0807005	-0.7282176	0	-81.964	-85.64	-1.073	B5-03822-P02-CH1	1603968	OK	0.745849	-0.0389813	-0.6649734	0	-89.464	-64.961	1.993	B5-03822-P03-CH0	1603968	OK	0.663581	0.1620421	-0.7303441	0	-93.545	-44.335	9.532	B5-03822-P03-CH1	1603968	OK	0.7820287	-0.6144148	-0.1045255	0	-98.668	-13.348	5.822	B5-03822-P04-CH0	1603968	OK	0.7973314	-0.2969442	0.5254395	0	-122.851	-19.795	14.629	B5-03822-P04-CH1	1603968	OK	0.7870717	-0.6168334	0.0058913	0	-109.46	-28.77	3.45	NA
0.829325289864373	B5-03822-P01-CH0	1603976	OK	0.1415459	0.117677	0.1259469	-0.9748098	153.478	-14.823	-276.699	B5-03822-P02-CH0	1603976	OK	0.6774105	0.0818512	-0.7310372	0	-82.2	-85.939	-0.273	B5-03822-P02-CH1	1603976	OK	0.7459701	-0.0343065	-0.6650952	0	-87.958	-65.142	1.109	B5-03822-P03-CH0	1603976	OK	0.6677596	0.1552015	-0.7280176	0	-92.699	-44.319	7.557	B5-03822-P03-CH1	1603976	OK	0.7816741	-0.6148332	-0.1047176	0	-98.829	-13.654	6.197	B5-03822-P04-CH0	1603976	OK	0.7970109	-0.2974507	0.5256393	0	-122.764	-19.682	14.224	B5-03822-P04-CH1	1603976	OK	0.7868917	-0.6170628	0.0059097	0	-109.472	-28.76	3.315	NA
0.839317160826595	B5-03822-P01-CH0	1603984	OK	0.1420693	0.1171012	0.1267822	-0.9746948	153.358	-14.849	-276.799	B5-03822-P02-CH0	1603984	OK	0.6750415	0.0815933	-0.7332541	0	-81.544	-85.518	-0.995	B5-03822-P02-CH1	1603984	OK	0.7449927	-0.0311881	-0.6663432	0	-86.713	-65.319	-0.014	B5-03822-P03-CH0	1603984	OK	0.6703529	0.1398536	-0.7287441	0	-92.873	-44.497	7.459	B5-03822-P03-CH1	1603984	OK	0.7822971	-0.6141454	-0.1040997	0	-98.712	-13.796	6.073	B5-03822-P04-CH0	1603984	OK	0.7970105	-0.2965513	0.526148	0	-122.696	-19.802	14.109	B5-03822-P04-CH1	1603984	OK	0.7874974	-0.616275	0.0072729	0	-109.607	-29.131	3.932	NA
0.849309031788816	B5-03822-P01-CH0	1603992	OK	0.1423704	0.1168294	0.1276323	-0.9745725	153.29	-14.732	-276.852	B5-03822-P02-CH0	1603992	OK	0.6724601	0.0846286	-0.7352791	0	-81.077	-85.279	-1.339	B5-03822-P02-CH1	1603992	OK	0.7420315	-0.0269642	-0.6698225	0	-86.122	-64.723	-0.031	B5-03822-P03-CH0	1603992	OK	0.6706962	0.1229274	-0.7314749	0	-94.149	-44.964	8.583	B5-03822-P03-CH1	1603992	OK	0.7829254	-0.6133842	-0.1038639	0	-98.711	-13.698	5.891	B5-03822-P04-CH0	1603992	OK	0.7970586	-0.2958704	0.5264582	0	-122.731	-19.885	14.032	B5-03822-P04-CH1	1603992	OK	0.7881754	-0.615397	0.0081322	0	-109.917	-29.265	4.613	NA
0.859300902751038	B5-03822-P01-CH0	1604000	OK	0.1419841	0.1168576	0.127039	-0.974703	153.246	-14.807	-276.803	B5-03822-P02-CH0	1604000	OK	0.6695474	0.0881302	-0.7375224	0	-80.783	-84.929	-2.231	B5-03822-P02-CH1	1604000	OK	0.7355357	-0.0243911	-0.6770467	0	-87.065	-65.174	1.531	B5-03822-P03-CH0	1604000	OK	0.6739381	0.1057826	-0.7311754	0	-93.932	-44.586	8.945	B5-03822-P03-CH1	1604000	OK	0.7826882	-0.6136085	-0.1043251	0	-98.641	-13.6	5.66	B5-03822-P04-CH0	1604000	OK	0.796991	-0.2961567	0.5263996	0	-122.934	-20.042	14.202	B5-03822-P04-CH1	1604000	OK	0.787966	-0.6156622	0.0083405	0	-110.032	-29.471	5.338	NA
0.869292773713259	B5-03822-P01-CH0	1604008	OK	0.1418919	0.1166043	0.1269271	-0.9747613	153.162	-14.881	-276.911	B5-03822-P02-CH0	1604008	OK	0.6667914	0.0937777	-0.7393206	0	-80.815	-85.639	-2.128	B5-03822-P02-CH1	1604008	OK	0.732839	-0.0231307	-0.6800088	0	-85.848	-65.319	0.691	B5-03822-P03-CH0	1604008	OK	0.6787536	0.0903984	-0.728781	0	-92.917	-44.483	7.726	B5-03822-P03-CH1	1604008	OK	0.7829596	-0.613215	-0.1046021	0	-98.511	-13.402	5.355	B5-03822-P04-CH0	1604008	OK	0.79677	-0.296574	0.5264992	0	-122.901	-20.164	14.113	B5-03822-P04-CH1	1604008	OK	0.7880404	-0.6155527	0.0093441	0	-110.496	-30.021	6.741	NA
0.87928464467548	B5-03822-P01-CH0	1604016	OK	0.1422382	0.11655	0.1274357	-0.974651	153.193	-14.875	-276.972	B5-03822-P02-CH0	1604016	OK	0.662879	0.097501	-0.742351	0	-81.631	-86.011	-0.544	B5-03822-P02-CH1	1604016	OK	0.7263141	-0.0249469	-0.6869101	0	-86.874	-64.573	0.706	B5-03822-P03-CH0	1604016	OK	0.6811694	0.0763177	-0.7281373	0	-92.637	-44.864	8.42	B5-03822-P03-CH1	1604016	OK	0.7836516	-0.6123984	-0.1042034	0	-98.315	-13.441	5.454	B5-03822-P04-CH0	1604016	OK	0.7966729	-0.2967215	0.526563	0	-122.776	-20.225	13.954	B5-03822-P04-CH1	1604016	OK	0.7889018	-0.6144324	0.0103317	0	-110.619	-30.123	7.603	NA
0.889276515637702	B5-03822-P01-CH0	1604024	OK	0.1423862	0.1167534	0.1276949	-0.9745711	153.279	-14.767	-276.985	B5-03822-P02-CH0	1604024	OK	0.6611269	0.1011938	-0.7434185	0	-81.28	-85.315	-0.41	B5-03822-P02-CH1	1604024	OK	0.7230691	-0.0275383	-0.6902266	0	-86.374	-64.81	1.261	B5-03822-P03-CH0	1604024	OK	0.6804283	0.0657269	-0.7298611	0	-93.788	-44.614	7.379	B5-03822-P03-CH1	1604024	OK	0.7842379	-0.6117035	-0.1038738	0	-98.41	-13.298	5.513	B5-03822-P04-CH0	1604024	OK	0.7968045	-0.2969727	0.5262223	0	-122.774	-20.109	14.041	B5-03822-P04-CH1	1604024	OK	0.7888258	-0.6145166	0.0110986	0	-110.82	-30.39	7.594	NA
0.899268386599923	B5-03822-P01-CH0	1604032	OK	0.1421585	0.1168133	0.1274568	-0.9746283	153.283	-14.737	-277.043	B5-03822-P02-CH0	1604032	OK	0.659506	0.1050841	-0.7443179	0	-80.986	-84.67	-0.134	B5-03822-P02-CH1	1604032	OK	0.7206885	-0.026246	-0.6927621	0	-85.548	-63.339	0.063	B5-03822-P03-CH0	1604032	OK	0.6814281	0.0554307	-0.7297829	0	-93.736	-44.41	7.452	B5-03822-P03-CH1	1604032	OK	0.784426	-0.6114181	-0.104133	0	-98.286	-13.149	5.364	B5-03822-P04-CH0	1604032	OK	0.7968487	-0.2977176	0.5257342	0	-122.863	-20.054	14.326	B5-03822-P04-CH1	1604032	OK	0.7888508	-0.6144875	0.0109357	0	-110.66	-30.114	7.366	NA
0.909260257562144	B5-03822-P01-CH0	1604040	OK	0.142414	0.1166283	0.1274269	-0.9746171	153.26	-14.871	-277.176	B5-03822-P02-CH0	1604040	OK	0.657891	0.110006	-0.7450356	0	-80.861	-85.455	-0.673	B5-03822-P02-CH1	1604040	OK	0.7186813	-0.0262996	-0.6948421	0	-85.026	-64.425	1.826	B5-03822-P03-CH0	1604040	OK	0.6843217	0.0461941	-0.7277155	0	-92.751	-44.636	6.707	B5-03822-P03-CH1	1604040	OK	0.7847212	-0.6111097	-0.103719	0	-98.109	-13.427	5.697	B5-03822-P04-CH0	1604040	OK	0.7966597	-0.2984621	0.5255983	0	-122.688	-20.135	14.122	B5-03822-P04-CH1	1604040	OK	0.7889451	-0.6143565	0.0114822	0	-110.533	-30.235	7.219	NA
0.919252128524366	B5-03822-P01-CH0	1604048	OK	0.1424257	0.1164382	0.127134	-0.9746764	153.213	-15.004	-277.234	B5-03822-P02-CH0	1604048	OK	0.6553199	0.1151192	-0.7465276	0	-80.886	-85.179	-0.13	B5-03822-P02-CH1	1604048	OK	0.7149891	-0.0222893	-0.6987802	0	-85.282	-62.914	-0.838	B5-03822-P03-CH0	1604048	OK	0.6857365	0.035324	-0.7269922	0	-92.404	-44.081	6.914	B5-03822-P03-CH1	1604048	OK	0.7844229	-0.6115897	-0.1031445	0	-98.086	-14.002	5.974	B5-03822-P04-CH0	1604048	OK	0.7964181	-0.2993022	0.5254869	0	-122.694	-20.406	14.108	B5-03822-P04-CH1	1604048	OK	0.7888919	-0.6144213	0.0116645	0	-110.472	-30.286	7.168	NA
0.929243999486587	B5-03822-P01-CH0	1604056	OK	0.14242	0.1163697	0.1272604	-0.9746689	153.179	-14.957	-277.252	B5-03822-P02-CH0	1604056	OK	0.6539507	0.1185105	-0.7471973	0	-80.155	-85.124	0.684	B5-03822-P02-CH1	1604056	OK	0.7114213	-0.023934	-0.7023581	0	-85.112	-63.619	-0.34	B5-03822-P03-CH0	1604056	OK	0.6864218	0.0262143	-0.726731	0	-92.847	-44.068	7.308	B5-03822-P03-CH1	1604056	OK	0.7847924	-0.6111133	-0.1031574	0	-97.909	-13.865	5.939	B5-03822-P04-CH0	1604056	OK	0.7963433	-0.3001159	0.525136	0	-122.643	-20.547	14.236	B5-03822-P04-CH1	1604056	OK	0.7886793	-0.614687	0.0120359	0	-110.58	-30.523	7.141	NA
0.939235870448809	B5-03822-P01-CH0	1604064	OK	0.1421582	0.1166902	0.1268573	-0.9747213	153.205	-14.863	-277.102	B5-03822-P02-CH0	1604064	OK	0.650707	0.1240237	-0.7491318	0	-80.849	-84.778	0.934	B5-03822-P02-CH1	1604064	OK	0.7072528	-0.0232262	-0.7065791	0	-85.654	-64.395	-0.132	B5-03822-P03-CH0	1604064	OK	0.6874571	0.0190871	-0.7259741	0	-92.909	-43.731	7.915	B5-03822-P03-CH1	1604064	OK	0.7847264	-0.6111558	-0.1034073	0	-98.123	-13.542	5.77	B5-03822-P04-CH0	1604064	OK	0.7963208	-0.3011731	0.5245645	0	-122.772	-20.596	14.369	B5-03822-P04-CH1	1604064	OK	0.7884204	-0.6150234	0.0118064	0	-110.654	-30.291	6.839	NA
0.94922774141103	B5-03822-P01-CH0	1604072	OK	0.1416646	0.1169726	0.1258049	-0.9748957	153.278	-15.009	-277.034	B5-03822-P02-CH0	1604072	OK	0.6510329	0.1295051	-0.7479202	0	-79.798	-84.438	0.54	B5-03822-P02-CH1	1604072	OK	0.7064632	-0.0224028	-0.7073951	0	-84.966	-65.113	0.65	B5-03822-P03-CH0	1604072	OK	0.6875041	0.0139974	-0.7260456	0	-93.68	-44.612	7.884	B5-03822-P03-CH1	1604072	OK	0.7840392	-0.6119903	-0.1036839	0	-98.249	-13.748	6.041	B5-03822-P04-CH0	1604072	OK	0.7961645	-0.3027263	0.5239072	0	-122.818	-20.425	14.264	B5-03822-P04-CH1	1604072	OK	0.7875511	-0.6161361	0.0118156	0	-110.877	-30.631	7.156	NA
0.959219612373251	B5-03822-P01-CH0	1604080	OK	0.1418201	0.1170374	0.1257993	-0.9748661	153.33	-15.032	-277.035	B5-03822-P02-CH0	1604080	OK	0.6495024	0.1359048	-0.7481153	0	-80.501	-85.524	0.51	B5-03822-P02-CH1	1604080	OK	0.7048131	-0.0190076	-0.7091383	0	-85.296	-65.428	1.251	B5-03822-P03-CH0	1604080	OK	0.6903384	0.0099686	-0.723418	0	-92.456	-44.149	7.79	B5-03822-P03-CH1	1604080	OK	0.7840731	-0.6120281	-0.1032036	0	-98.379	-13.956	6.438	B5-03822-P04-CH0	1604080	OK	0.7961189	-0.303178	0.5237154	0	-122.83	-20.551	14.246	B5-03822-P04-CH1	1604080	OK	0.7876346	-0.6160293	0.0118165	0	-110.874	-30.334	6.446	NA
0.969211483335473	B5-03822-P01-CH0	1604088	OK	0.1419209	0.1172001	0.1260095	-0.9748047	153.381	-15.024	-276.911	B5-03822-P02-CH0	1604088	OK	0.6489524	0.1408005	-0.7476871	0	-80.611	-85.259	-0.894	B5-03822-P02-CH1	1604088	OK	0.7035418	-0.0147037	-0.7105017	0	-84.935	-64.691	1.829	B5-03822-P03-CH0	1604088	OK	0.6884221	0.0059408	-0.725286	0	-94.158	-43.852	8.181	B5-03822-P03-CH1	1604088	OK	0.7842026	-0.6119286	-0.1028087	0	-98.546	-14.065	6.526	B5-03822-P04-CH0	1604088	OK	0.7964628	-0.3031239	0.5232236	0	-122.967	-20.577	14.495	B5-03822-P04-CH1	1604088	OK	0.7877114	-0.6159298	0.0118797	0	-110.805	-30.171	5.819	NA
0.979203354297694	B5-03822-P01-CH0	1604096	OK	0.1422618	0.1167679	0.1271393	-0.9746602	153.276	-14.963	-276.996	B5-03822-P02-CH0	1604096	OK	0.6473718	0.1454581	-0.7481655	0	-81.159	-84.892	0.187	B5-03822-P02-CH1	1604096	OK	0.7031143	-0.0106148	-0.7109976	0	-84.746	-64.39	-1.048	B5-03822-P03-CH0	1604096	OK	0.6902677	0.0035969	-0.7235452	0	-94.03	-44.285	7.29	B5-03822-P03-CH1	1604096	OK	0.7850952	-0.6108756	-0.102257	0	-98.551	-13.921	6.299	B5-03822-P04-CH0	1604096	OK	0.7967403	-0.3027644	0.5230091	0	-122.92	-20.722	14.698	B5-03822-P04-CH1	1604096	OK	0.7882721	-0.6152019	0.0123956	0	-110.768	-30.307	5.91	NA
0.989195225259915	B5-03822-P01-CH0	1604104	OK	0.1422235	0.1166759	0.1272232	-0.9746658	153.199	-14.988	-276.957	B5-03822-P02-CH0	1604104	OK	0.6476567	0.1515272	-0.746713	0	-81.263	-85.485	-0.528	B5-03822-P02-CH1	1604104	OK	0.7050565	-0.0072209	-0.7091144	0	-83.344	-63.821	-1.473	B5-03822-P03-CH0	1604104	OK	0.6925764	0.0035858	-0.7213356	0	-93.175	-45.135	6.534	B5-03822-P03-CH1	1604104	OK	0.7850345	-0.6109834	-0.1020793	0	-98.463	-14.029	6.299	B5-03822-P04-CH0	1604104	OK	0.7967677	-0.303385	0.5226076	0	-122.849	-20.598	14.577	B5-03822-P04-CH1	1604104	OK	0.7885159	-0.6148934	0.0121965	0	-110.516	-29.98	5.799	NA
0.999187096222137	B5-03822-P01-CH0	1604112	OK	0.1419099	0.1167991	0.1266367	-0.9747732	153.271	-15.142	-277.009	B5-03822-P02-CH0	1604112	OK	0.6475502	0.1538489	-0.7463305	0	-81.197	-85.956	-0.621	B5-03822-P02-CH1	1604112	OK	0.7060215	-0.0035979	-0.7081812	0	-82.928	-63.79	-2.75	B5-03822-P03-CH0	1604112	OK	0.6932179	0.0044085	-0.7207145	0	-92.894	-44.327	5.918	B5-03822-P03-CH1	1604112	OK	0.7845213	-0.6116222	-0.1021989	0	-98.677	-14.318	6.619	B5-03822-P04-CH0	1604112	OK	0.7964632	-0.3048448	0.5222222	0	-122.715	-20.461	14.367	B5-03822-P04-CH1	1604112	OK	0.7877911	-0.615816	0.0124873	0	-110.741	-30.449	6.098	NA
1.00917896718436	B5-03822-P01-CH0	1604120	OK	0.142005	0.1169197	0.1273187	-0.974656	153.3	-14.973	-276.932	B5-03822-P02-CH0	1604120	OK	0.645747	0.1554323	-0.7475638	0	-81.703	-85.788	-0.018	B5-03822-P02-CH1	1604120	OK	0.7066596	-0.0027154	-0.7075485	0	-82.382	-62.573	-2.713	B5-03822-P03-CH0	1604120	OK	0.6910876	0.0038737	-0.7227606	0	-94.111	-43.363	6.789	B5-03822-P03-CH1	1604120	OK	0.7848533	-0.6112134	-0.1020954	0	-98.9	-14.217	6.537	B5-03822-P04-CH0	1604120	OK	0.7966897	-0.3049966	0.5217879	0	-122.818	-20.381	14.315	B5-03822-P04-CH1	1604120	OK	0.7881838	-0.6153172	0.01229	0	-110.625	-30.113	5.699	NA
1.01917083814658	B5-03822-P01-CH0	1604128	OK	0.1416606	0.1171204	0.1264667	-0.9747929	153.334	-15.045	-276.937	B5-03822-P02-CH0	1604128	OK	0.6446318	0.1590061	-0.7477746	0	-81.655	-85.088	0.41	B5-03822-P02-CH1	1604128	OK	0.7044122	-0.0054986	-0.7097698	0	-84.028	-63.373	-0.95	B5-03822-P03-CH0	1604128	OK	0.6897234	0.0082597	-0.7240258	0	-93.856	-44.155	6.927	B5-03822-P03-CH1	1604128	OK	0.7844193	-0.6116834	-0.1026143	0	-98.844	-14.119	6.314	B5-03822-P04-CH0	1604128	OK	0.796522	-0.3062224	0.5213258	0	-122.832	-20.254	14.356	B5-03822-P04-CH1	1604128	OK	0.7870913	-0.6167087	0.0125557	0	-110.866	-30.596	5.786	NA
1.0291627091088	B5-03822-P01-CH0	1604136	OK	0.1416332	0.1173237	0.1262482	-0.9748008	153.477	-15.091	-277.08	B5-03822-P02-CH0	1604136	OK	0.6439414	0.1618829	-0.7477522	0	-82.25	-86.24	-0.291	B5-03822-P02-CH1	1604136	OK	0.7048974	-0.0100112	-0.7092386	0	-84.229	-64.317	-0.248	B5-03822-P03-CH0	1604136	OK	0.6904858	0.0060027	-0.7233211	0	-93.889	-44.31	7.041	B5-03822-P03-CH1	1604136	OK	0.7842531	-0.6118777	-0.1027266	0	-99.032	-14.131	6.07	B5-03822-P04-CH0	1604136	OK	0.796582	-0.3066735	0.5209688	0	-123.044	-20.319	14.414	B5-03822-P04-CH1	1604136	OK	0.786775	-0.6170992	0.0131805	0	-111.04	-31.015	6.365	NA
1.03915458007102	B5-03822-P01-CH0	1604144	OK	0.141429	0.1175726	0.1261026	-0.9748193	153.565	-15.128	-277.075	B5-03822-P02-CH0	1604144	OK	0.6438154	0.1661198	-0.7469311	0	-82.636	-86.891	-0.112	B5-03822-P02-CH1	1604144	OK	0.7046625	-0.0075097	-0.7095029	0	-84.203	-64.274	-0.388	B5-03822-P03-CH0	1604144	OK	0.6912703	0.0046677	-0.7225812	0	-93.866	-44.34	7.045	B5-03822-P03-CH1	1604144	OK	0.7841755	-0.6119166	-0.1030862	0	-99.092	-14.147	6.118	B5-03822-P04-CH0	1604144	OK	0.7964639	-0.3075957	0.5206055	0	-123.019	-20.216	14.19	B5-03822-P04-CH1	1604144	OK	0.7865837	-0.6173477	0.0129538	0	-111.043	-30.929	6.045	NA
1.04914645103324	B5-03822-P01-CH0	1604152	OK	0.1417437	0.1173674	0.1266936	-0.9747217	153.573	-15.214	-277.269	B5-03822-P02-CH0	1604152	OK	0.644597	0.168356	-0.7457553	0	-81.886	-85.997	0.239	B5-03822-P02-CH1	1604152	OK	0.7047342	-0.0054413	-0.7094506	0	-84.052	-64.323	-0.784	B5-03822-P03-CH0	1604152	OK	0.6920429	0.0029952	-0.7218502	0	-93.827	-44.39	6.902	B5-03822-P03-CH1	1604152	OK	0.7846958	-0.6112931	-0.1028267	0	-99.054	-14.23	6.11	B5-03822-P04-CH0	1604152	OK	0.7964689	-0.3075829	0.5206054	0	-122.979	-20.498	14.285	B5-03822-P04-CH1	1604152	OK	0.786976	-0.6168502	0.0128309	0	-110.498	-30.626	5.077	NA
1.05913832199546	B5-03822-P01-CH0	1604160	OK	0.1417087	0.1175829	0.1266005	-0.9747129	153.707	-15.254	-277.374	B5-03822-P02-CH0	1604160	OK	0.6458815	0.1588422	-0.7467304	0	-81.278	-85.435	0.361	B5-03822-P02-CH1	1604160	OK	0.7048296	-0.0035927	-0.7093675	0	-83.997	-64.3	-1.203	B5-03822-P03-CH0	1604160	OK	0.6923699	0.0018931	-0.7215403	0	-94.062	-44.376	6.946	B5-03822-P03-CH1	1604160	OK	0.7847024	-0.6112477	-0.103046	0	-99.121	-14.149	5.844	B5-03822-P04-CH0	1604160	OK	0.7964439	-0.3081922	0.5202833	0	-122.989	-20.434	14.352	B5-03822-P04-CH1	1604160	OK	0.7864018	-0.6175685	0.0134627	0	-110.537	-31.126	5.312	NA
