Wav.Time	B5.03822.P01.CH0	Frame	State	Q0	Qx	Qy	Qz	Tx	Ty	Tz	B5.03822.P02.CH0	Frame.1	State.1	Q0.1	Qx.1	Qy.1	Qz.1	Tx.1	Ty.1	Tz.1	B5.03822.P02.CH1	Frame.2	State.2	Q0.2	Qx.2	Qy.2	Qz.2	Tx.2	Ty.2	Tz.2	B5.03822.P03.CH0	Frame.3	State.3	Q0.3	Qx.3	Qy.3	Qz.3	Tx.3	Ty.3	Tz.3	B5.03822.P03.CH1	Frame.4	State.4	Q0.4	Qx.4	Qy.4	Qz.4	Tx.4	Ty.4	Tz.4	B5.03822.P04.CH0	Frame.5	State.5	Q0.5	Qx.5	Qy.5	Qz.5	Tx.5	Ty.5	Tz.5	B5.03822.P04.CH1	Frame.6	State.6	Q0.6	Qx.6	Qy.6	Qz.6	Tx.6	Ty.6	Tz.6	X
0	B5-03822-P01-CH0	3358296	OK	0.2069423	0.0507114	0.0837035	-0.9734459	99.854	-47.704	-295.836	B5-03822-P02-CH0	3358296	OK	0.6950202	0.3868689	-0.6060358	0	-79.313	-96.838	-0.945	B5-03822-P02-CH1	3358296	OK	0.746084	-0.2095915	-0.6320048	0	-77.36	-76.956	0.813	B5-03822-P03-CH0	3358296	OK	0.8056343	-0.364783	-0.4667834	0	-93.142	-60.252	6.642	B5-03822-P03-CH1	3358296	OK	0.8109408	-0.5848092	0.0193177	0	-98.21	-32.783	6.615	B5-03822-P04-CH0	3358296	OK	0.7819083	-0.3347885	0.525867	0	-122.168	-37.433	11.231	B5-03822-P04-CH1	3358296	OK	0.8237371	-0.5666912	0.0178391	0	-107.611	-52.51	8.885	NA
0.00999170399867264	B5-03822-P01-CH0	3358304	OK	0.2069228	0.0510802	0.0837013	-0.973431	99.982	-47.682	-295.825	B5-03822-P02-CH0	3358304	OK	0.6961196	0.396976	-0.5981868	0	-80.478	-97.545	-0.167	B5-03822-P02-CH1	3358304	OK	0.7356071	-0.2176942	-0.641476	0	-75.628	-75.249	-1.474	B5-03822-P03-CH0	3358304	OK	0.8087142	-0.3680385	-0.4588344	0	-92.901	-59.58	6.649	B5-03822-P03-CH1	3358304	OK	0.8108614	-0.5849432	0.0185788	0	-98.515	-32.758	6.804	B5-03822-P04-CH0	3358304	OK	0.7820225	-0.3342274	0.526054	0	-122.279	-38.188	12.283	B5-03822-P04-CH1	3358304	OK	0.8237864	-0.5666302	0.0174964	0	-107.808	-52.411	8.777	NA
0.0199834079973453	B5-03822-P01-CH0	3358312	OK	0.2070111	0.0510687	0.0845218	-0.9733419	100.05	-47.677	-295.93	B5-03822-P02-CH0	3358312	OK	0.6971108	0.4112107	-0.5873179	0	-79.568	-95.529	-0.149	B5-03822-P02-CH1	3358312	OK	0.7267047	-0.224326	-0.6492905	0	-73.949	-75.936	-0.832	B5-03822-P03-CH0	3358312	OK	0.8104324	-0.3740255	-0.4508926	0	-93.719	-60.171	5.312	B5-03822-P03-CH1	3358312	OK	0.8111754	-0.5845268	0.0179695	0	-98.551	-32.871	6.886	B5-03822-P04-CH0	3358312	OK	0.7824631	-0.3329233	0.5262257	0	-122.293	-39.038	13.573	B5-03822-P04-CH1	3358312	OK	0.8242619	-0.5659401	0.0174377	0	-107.853	-52.489	8.779	NA
0.0299751119960179	B5-03822-P01-CH0	3358320	OK	0.206773	0.0512278	0.0840333	-0.9734264	100.061	-47.743	-295.894	B5-03822-P02-CH0	3358320	OK	0.69822	0.4199125	-0.579795	0	-80.836	-96.868	0.986	B5-03822-P02-CH1	3358320	OK	0.7221606	-0.2186606	-0.6562558	0	-71.763	-75.768	-2.195	B5-03822-P03-CH0	3358320	OK	0.8141661	-0.3783819	-0.4404096	0	-93.056	-60.972	6.065	B5-03822-P03-CH1	3358320	OK	0.8106665	-0.5852576	0.0171268	0	-98.469	-32.968	6.817	B5-03822-P04-CH0	3358320	OK	0.782412	-0.3332606	0.5260883	0	-122.177	-39.261	14.205	B5-03822-P04-CH1	3358320	OK	0.8240139	-0.5663149	0.0169876	0	-107.94	-52.449	8.754	NA
0.0399668159946906	B5-03822-P01-CH0	3358328	OK	0.2065032	0.0513826	0.0832777	-0.9735405	100.108	-47.937	-295.805	B5-03822-P02-CH0	3358328	OK	0.7014507	0.4279537	-0.569932	0	-80.007	-95.761	-0.179	B5-03822-P02-CH1	3358328	OK	0.7175707	-0.1980983	-0.6677195	0	-72.693	-75.718	-0.581	B5-03822-P03-CH0	3358328	OK	0.8183776	-0.3778262	-0.4330191	0	-92.547	-61.19	7.976	B5-03822-P03-CH1	3358328	OK	0.8100927	-0.5860827	0.0160282	0	-98.524	-33.176	6.869	B5-03822-P04-CH0	3358328	OK	0.7822581	-0.3338522	0.5259419	0	-122.029	-39.555	14.632	B5-03822-P04-CH1	3358328	OK	0.8235301	-0.567028	0.0166544	0	-108.051	-52.71	8.964	NA
0.0499585199933632	B5-03822-P01-CH0	3358336	OK	0.206461	0.051744	0.0825728	-0.9735904	100.206	-48.05	-295.751	B5-03822-P02-CH0	3358336	OK	0.7036853	0.4311901	-0.5647142	0	-80.725	-95.677	-2.008	B5-03822-P02-CH1	3358336	OK	0.7173919	-0.1885552	-0.6706682	0	-73.181	-75.237	-0.96	B5-03822-P03-CH0	3358336	OK	0.8211548	-0.3796585	-0.4261034	0	-92.615	-62.164	8.986	B5-03822-P03-CH1	3358336	OK	0.8095991	-0.5867811	0.0154069	0	-98.491	-33.432	7.152	B5-03822-P04-CH0	3358336	OK	0.782271	-0.3349906	0.5251984	0	-121.955	-39.292	14.287	B5-03822-P04-CH1	3358336	OK	0.8231695	-0.5675546	0.0165484	0	-108.221	-52.858	9.188	NA
0.0599502239920358	B5-03822-P01-CH0	3358344	OK	0.2064449	0.0515156	0.0828371	-0.9735834	100.124	-48.038	-295.82	B5-03822-P02-CH0	3358344	OK	0.7042511	0.4298132	-0.5650584	0	-81.851	-95.804	0.151	B5-03822-P02-CH1	3358344	OK	0.71704	-0.1853883	-0.6719263	0	-73.817	-75.76	-0.052	B5-03822-P03-CH0	3358344	OK	0.8233991	-0.3786845	-0.422625	0	-93.529	-61.246	7.641	B5-03822-P03-CH1	3358344	OK	0.8097385	-0.5866059	0.0147367	0	-98.286	-33.436	7.21	B5-03822-P04-CH0	3358344	OK	0.782541	-0.3345583	0.5250716	0	-121.789	-39.688	14.955	B5-03822-P04-CH1	3358344	OK	0.8232878	-0.5673741	0.0168465	0	-108.108	-52.847	8.835	NA
0.0699419279907085	B5-03822-P01-CH0	3358352	OK	0.2060347	0.051638	0.0826233	-0.973682	100.139	-48.086	-295.871	B5-03822-P02-CH0	3358352	OK	0.7072538	0.4228555	-0.5665557	0	-82.273	-97.045	3.423	B5-03822-P02-CH1	3358352	OK	0.7183785	-0.1827107	-0.6712295	0	-73.464	-76.246	-0.468	B5-03822-P03-CH0	3358352	OK	0.8261223	-0.3808886	-0.415266	0	-93.122	-61.822	9.229	B5-03822-P03-CH1	3358352	OK	0.8097794	-0.5865806	0.0134379	0	-98.39	-33.193	7.026	B5-03822-P04-CH0	3358352	OK	0.7825968	-0.3358636	0.5241545	0	-121.55	-39.356	14.652	B5-03822-P04-CH1	3358352	OK	0.8230457	-0.5677351	0.0165143	0	-108.193	-52.907	8.809	NA
0.0799336319893811	B5-03822-P01-CH0	3358360	OK	0.2058788	0.0517662	0.0823278	-0.9737332	100.147	-48.133	-295.831	B5-03822-P02-CH0	3358360	OK	0.7086181	0.4191151	-0.5676291	0	-82.91	-95.88	3.246	B5-03822-P02-CH1	3358360	OK	0.7202395	-0.1805405	-0.669821	0	-72.976	-75.215	-2.328	B5-03822-P03-CH0	3358360	OK	0.8304036	-0.3855434	-0.4022265	0	-92.285	-63.372	10.246	B5-03822-P03-CH1	3358360	OK	0.8099165	-0.5864137	0.0124164	0	-98.563	-32.93	6.826	B5-03822-P04-CH0	3358360	OK	0.7832475	-0.334926	0.5237824	0	-121.563	-39.972	15.838	B5-03822-P04-CH1	3358360	OK	0.8228774	-0.5679827	0.0163844	0	-108.204	-52.962	8.838	NA
0.0899253359880538	B5-03822-P01-CH0	3358368	OK	0.2059545	0.0524311	0.0819921	-0.9737099	100.383	-48.147	-295.834	B5-03822-P02-CH0	3358368	OK	0.7119228	0.4119551	-0.5687345	0	-82.547	-96.035	0.724	B5-03822-P02-CH1	3358368	OK	0.7200926	-0.1811062	-0.6698262	0	-73.254	-75.477	-2.262	B5-03822-P03-CH0	3358368	OK	0.8352543	-0.3879189	-0.3897039	0	-92.811	-63.815	10.287	B5-03822-P03-CH1	3358368	OK	0.8096579	-0.5867767	0.0121369	0	-98.821	-33.199	6.928	B5-03822-P04-CH0	3358368	OK	0.7834776	-0.3364248	0.522476	0	-121.34	-39.442	15.098	B5-03822-P04-CH1	3358368	OK	0.8226591	-0.5682981	0.0164088	0	-108.351	-53.07	8.859	NA
0.0999170399867264	B5-03822-P01-CH0	3358376	OK	0.2060786	0.0524728	0.0823216	-0.9736536	100.385	-48.14	-295.827	B5-03822-P02-CH0	3358376	OK	0.712358	0.4050306	-0.5731459	0	-82.612	-95.291	-0.693	B5-03822-P02-CH1	3358376	OK	0.7176985	-0.1822585	-0.6720794	0	-74.75	-75.707	-0.542	B5-03822-P03-CH0	3358376	OK	0.8400308	-0.3855083	-0.381748	0	-93.636	-63.308	10.597	B5-03822-P03-CH1	3358376	OK	0.8099086	-0.5864349	0.0119223	0	-98.763	-33.183	6.539	B5-03822-P04-CH0	3358376	OK	0.7842903	-0.3356641	0.5217456	0	-121.318	-40.051	15.947	B5-03822-P04-CH1	3358376	OK	0.8229008	-0.5679413	0.01664	0	-108.202	-53.046	8.7	NA
0.109908743985399	B5-03822-P01-CH0	3358384	OK	0.2057064	0.052548	0.0813584	-0.9738092	100.39	-48.416	-295.855	B5-03822-P02-CH0	3358384	OK	0.7141767	0.397758	-0.575969	0	-82.315	-95.557	-0.88	B5-03822-P02-CH1	3358384	OK	0.7196148	-0.1829431	-0.6698405	0	-73.762	-75.946	-0.242	B5-03822-P03-CH0	3358384	OK	0.8443845	-0.3825956	-0.3750139	0	-94.018	-63.132	10.502	B5-03822-P03-CH1	3358384	OK	0.8094444	-0.587084	0.0114954	0	-98.542	-33.445	6.79	B5-03822-P04-CH0	3358384	OK	0.7844478	-0.3376222	0.5202431	0	-121.117	-39.758	15.453	B5-03822-P04-CH1	3358384	OK	0.8221283	-0.5690605	0.0165915	0	-108.317	-53.429	8.619	NA
0.119900447984072	B5-03822-P01-CH0	3358392	OK	0.205593	0.0524147	0.0809175	-0.9738771	100.261	-48.433	-295.888	B5-03822-P02-CH0	3358392	OK	0.7143525	0.3858308	-0.5838108	0	-83.231	-97.82	3.872	B5-03822-P02-CH1	3358392	OK	0.722879	-0.1847983	-0.6658044	0	-72.229	-76.575	-0.025	B5-03822-P03-CH0	3358392	OK	0.8496754	-0.3811833	-0.3643502	0	-93.61	-63.806	12.002	B5-03822-P03-CH1	3358392	OK	0.8092868	-0.5873021	0.0114496	0	-98.302	-33.259	6.376	B5-03822-P04-CH0	3358392	OK	0.7845446	-0.3392437	0.5190409	0	-120.832	-39.362	14.88	B5-03822-P04-CH1	3358392	OK	0.8218299	-0.5694875	0.016721	0	-108.146	-53.458	8.636	NA
0.129892151982744	B5-03822-P01-CH0	3358400	OK	0.2056924	0.0522458	0.0813322	-0.9738306	100.139	-48.4	-295.79	B5-03822-P02-CH0	3358400	OK	0.713179	0.3798037	-0.589173	0	-84.101	-97.43	4.275	B5-03822-P02-CH1	3358400	OK	0.7197543	-0.1841884	-0.6693492	0	-73.166	-75.442	-1.769	B5-03822-P03-CH0	3358400	OK	0.8554379	-0.3811178	-0.3506782	0	-92.947	-64.731	12.371	B5-03822-P03-CH1	3358400	OK	0.809771	-0.5866358	0.0113699	0	-98.342	-33.147	6.546	B5-03822-P04-CH0	3358400	OK	0.7850511	-0.3391887	0.5183104	0	-120.607	-39.689	15.195	B5-03822-P04-CH1	3358400	OK	0.822081	-0.5691206	0.0168683	0	-108.116	-53.382	8.308	NA
0.139883855981417	B5-03822-P01-CH0	3358408	OK	0.2058179	0.052102	0.0826609	-0.9736999	100.108	-48.243	-295.848	B5-03822-P02-CH0	3358408	OK	0.7138405	0.377634	-0.5897663	0	-83.261	-96.042	2.377	B5-03822-P02-CH1	3358408	OK	0.7201413	-0.1840449	-0.6689723	0	-73.417	-75.523	-1.606	B5-03822-P03-CH0	3358408	OK	0.8604083	-0.3736889	-0.3464883	0	-94.37	-63.696	12.4	B5-03822-P03-CH1	3358408	OK	0.8107001	-0.5853532	0.0112686	0	-98.329	-32.82	6.222	B5-03822-P04-CH0	3358408	OK	0.7860099	-0.3387234	0.5171604	0	-120.667	-39.767	15.13	B5-03822-P04-CH1	3358408	OK	0.8226577	-0.5682769	0.0171956	0	-108.101	-53.414	7.998	NA
0.14987555998009	B5-03822-P01-CH0	3358416	OK	0.2059679	0.0522129	0.0830157	-0.9736321	100.152	-48.149	-295.9	B5-03822-P02-CH0	3358416	OK	0.7172947	0.3746625	-0.587466	0	-81.507	-95.815	-0.916	B5-03822-P02-CH1	3358416	OK	0.7204245	-0.1849121	-0.6684281	0	-73.631	-75.66	-1.546	B5-03822-P03-CH0	3358416	OK	0.8649917	-0.3692003	-0.3398241	0	-94.16	-64.339	14.127	B5-03822-P03-CH1	3358416	OK	0.8109886	-0.5849604	0.0109008	0	-98.521	-32.744	6.311	B5-03822-P04-CH0	3358416	OK	0.7867277	-0.337172	0.5170827	0	-120.76	-40.63	16.338	B5-03822-P04-CH1	3358416	OK	0.8227299	-0.5681612	0.0175574	0	-108.092	-53.538	7.946	NA
0.159867263978762	B5-03822-P01-CH0	3358424	OK	0.2060797	0.0521594	0.0832421	-0.973592	100.131	-48.137	-295.95	B5-03822-P02-CH0	3358424	OK	0.7166617	0.3672985	-0.5928641	0	-82.076	-97.537	1.33	B5-03822-P02-CH1	3358424	OK	0.7212403	-0.1857159	-0.6673245	0	-73.558	-75.509	-1.57	B5-03822-P03-CH0	3358424	OK	0.867563	-0.368569	-0.3339033	0	-93.508	-65.887	13.546	B5-03822-P03-CH1	3358424	OK	0.8112296	-0.5846292	0.0107402	0	-98.678	-32.734	6.386	B5-03822-P04-CH0	3358424	OK	0.7871078	-0.3362344	0.5171148	0	-120.661	-41.087	16.913	B5-03822-P04-CH1	3358424	OK	0.8229493	-0.567848	0.0174084	0	-108.163	-53.588	8.224	NA
0.169858967977435	B5-03822-P01-CH0	3358432	OK	0.2058292	0.0523334	0.0825351	-0.9736958	100.169	-48.253	-295.871	B5-03822-P02-CH0	3358432	OK	0.7145568	0.3617253	-0.5988016	0	-83.819	-98.873	3.885	B5-03822-P02-CH1	3358432	OK	0.7216033	-0.1862491	-0.6667833	0	-73.606	-75.551	-1.635	B5-03822-P03-CH0	3358432	OK	0.8689138	-0.3630331	-0.3364457	0	-93.504	-65.592	14.304	B5-03822-P03-CH1	3358432	OK	0.810711	-0.585352	0.0105227	0	-98.682	-33.046	6.794	B5-03822-P04-CH0	3358432	OK	0.787178	-0.3360099	0.5171538	0	-120.729	-41.202	16.917	B5-03822-P04-CH1	3358432	OK	0.8227856	-0.568101	0.0168849	0	-108.232	-53.435	8.227	NA
0.179850671976108	B5-03822-P01-CH0	3358440	OK	0.2060621	0.0524919	0.0827016	-0.9736239	100.282	-48.187	-295.936	B5-03822-P02-CH0	3358440	OK	0.7157896	0.3594899	-0.5986754	0	-83.315	-98.704	1.246	B5-03822-P02-CH1	3358440	OK	0.7219989	-0.1874347	-0.6660224	0	-73.76	-75.723	-1.543	B5-03822-P03-CH0	3358440	OK	0.8677004	-0.3596857	-0.3431067	0	-93.04	-65.759	14.686	B5-03822-P03-CH1	3358440	OK	0.8108607	-0.5851423	0.010652	0	-98.573	-33.104	6.985	B5-03822-P04-CH0	3358440	OK	0.7874113	-0.335659	0.5170266	0	-120.818	-40.909	16.362	B5-03822-P04-CH1	3358440	OK	0.8229617	-0.5678368	0.017187	0	-108.346	-53.479	8.377	NA
0.18984237597478	B5-03822-P01-CH0	3358448	OK	0.2059509	0.0521984	0.0831634	-0.9736238	100.187	-48.103	-295.894	B5-03822-P02-CH0	3358448	OK	0.713233	0.3574811	-0.6029145	0	-83.669	-97.918	4.723	B5-03822-P02-CH1	3358448	OK	0.7267802	-0.1843513	-0.6616685	0	-73.758	-76.55	-1.777	B5-03822-P03-CH0	3358448	OK	0.8604116	-0.3559035	-0.3647253	0	-94.341	-64.99	13.167	B5-03822-P03-CH1	3358448	OK	0.811296	-0.5845422	0.010451	0	-98.428	-32.924	7.153	B5-03822-P04-CH0	3358448	OK	0.7878792	-0.3329414	0.5180699	0	-121.147	-41.657	17.319	B5-03822-P04-CH1	3358448	OK	0.8233553	-0.567271	0.0170178	0	-108.483	-53.187	8.05	NA
0.199834079973453	B5-03822-P01-CH0	3358456	OK	0.2058352	0.0519346	0.0827819	-0.9736949	100.017	-48.129	-295.834	B5-03822-P02-CH0	3358456	OK	0.7115244	0.3521304	-0.6080602	0	-84.06	-98.761	5.854	B5-03822-P02-CH1	3358456	OK	0.7326122	-0.1690196	-0.6593267	0	-73.971	-77.622	-0.164	B5-03822-P03-CH0	3358456	OK	0.8488844	-0.3523305	-0.3940286	0	-93.809	-64.249	11.224	B5-03822-P03-CH1	3358456	OK	0.8114556	-0.5843277	0.0100466	0	-98.472	-32.503	7.01	B5-03822-P04-CH0	3358456	OK	0.7875702	-0.3319526	0.519173	0	-121.25	-41.314	16.631	B5-03822-P04-CH1	3358456	OK	0.8230864	-0.5676605	0.0170396	0	-108.412	-53.215	7.955	NA
0.209825783972125	B5-03822-P01-CH0	3358464	OK	0.2059241	0.0517525	0.083712	-0.9736063	99.895	-47.848	-295.78	B5-03822-P02-CH0	3358464	OK	0.710125	0.34912	-0.6114228	0	-83.621	-97.241	1.819	B5-03822-P02-CH1	3358464	OK	0.74199	-0.1451515	-0.6545089	0	-74.782	-77.221	-0.911	B5-03822-P03-CH0	3358464	OK	0.8293646	-0.3484995	-0.436695	0	-93.688	-63.544	8.543	B5-03822-P03-CH1	3358464	OK	0.8120175	-0.5835436	0.0102191	0	-98.58	-32.249	6.824	B5-03822-P04-CH0	3358464	OK	0.7855138	-0.3221172	0.5284019	0	-122.207	-38.874	14.485	B5-03822-P04-CH1	3358464	OK	0.8237399	-0.5667097	0.0171076	0	-108.314	-52.948	8.179	NA
0.219817487970798	B5-03822-P01-CH0	3358472	OK	0.205892	0.0518748	0.0834619	-0.9736281	99.979	-47.956	-295.839	B5-03822-P02-CH0	3358472	OK	0.7092631	0.347435	-0.6133798	0	-82.711	-96.829	0.057	B5-03822-P02-CH1	3358472	OK	0.7497582	-0.1211079	-0.6505348	0	-77.021	-78.049	0.439	B5-03822-P03-CH0	3358472	OK	0.8046426	-0.3404587	-0.4864547	0	-92.694	-62.063	6.823	B5-03822-P03-CH1	3358472	OK	0.8118751	-0.5837371	0.0104788	0	-98.684	-32.535	7.232	B5-03822-P04-CH0	3358472	OK	0.7825886	-0.3226604	0.5323959	0	-122.334	-36.908	10.197	B5-03822-P04-CH1	3358472	OK	0.8235982	-0.5669121	0.0172255	0	-108.356	-53.18	8.503	NA
0.229809191969471	B5-03822-P01-CH0	3358480	OK	0.2058174	0.0518638	0.083716	-0.9736226	99.993	-47.902	-295.816	B5-03822-P02-CH0	3358480	OK	0.7026425	0.3450252	-0.622295	0	-84.503	-97.305	2.508	B5-03822-P02-CH1	3358480	OK	0.756689	-0.0958251	-0.6467142	0	-78.697	-79.869	2.519	B5-03822-P03-CH0	3358480	OK	0.7763655	-0.3318847	-0.5358256	0	-90.821	-60.729	3.145	B5-03822-P03-CH1	3358480	OK	0.8120314	-0.5835107	0.010965	0	-98.664	-32.467	7.11	B5-03822-P04-CH0	3358480	OK	0.7825935	-0.3114516	0.5390225	0	-123.055	-41.266	17.294	B5-03822-P04-CH1	3358480	OK	0.8237732	-0.5666567	0.0172616	0	-108.257	-53.227	8.833	NA
0.239800895968143	B5-03822-P01-CH0	3358488	OK	0.2055624	0.0520295	0.0826611	-0.9737577	100.047	-48.026	-295.893	B5-03822-P02-CH0	3358488	OK	0.6995089	0.3461305	-0.6252047	0	-85.05	-98.122	2.189	B5-03822-P02-CH1	3358488	OK	0.7635559	-0.0694544	-0.6419956	0	-78.725	-79.545	3.604	B5-03822-P03-CH0	3358488	OK	0.7468013	-0.3160968	-0.5851245	0	-88.066	-59.677	0.195	B5-03822-P03-CH1	3358488	OK	0.8113751	-0.5844106	0.0116044	0	-98.608	-32.756	7.363	B5-03822-P04-CH0	3358488	OK	0.7813993	-0.3068511	0.5433761	0	-123.54	-42.345	17.838	B5-03822-P04-CH1	3358488	OK	0.8233499	-0.5672771	0.0170808	0	-108.382	-53.168	9.089	NA
0.249792599966816	B5-03822-P01-CH0	3358496	OK	0.2053959	0.0520214	0.082453	-0.973811	100.018	-48.049	-295.849	B5-03822-P02-CH0	3358496	OK	0.6972572	0.3487449	-0.6262662	0	-84.33	-98.02	2.84	B5-03822-P02-CH1	3358496	OK	0.768524	-0.0506012	-0.6378168	0	-78.781	-80.159	5.605	B5-03822-P03-CH0	3358496	OK	0.7161914	-0.2925778	-0.6336151	0	-86.196	-57.553	-1.727	B5-03822-P03-CH1	3358496	OK	0.8110041	-0.5849071	0.0124934	0	-98.564	-33.062	7.354	B5-03822-P04-CH0	3358496	OK	0.7786771	-0.3086114	0.5462793	0	-122.291	-40.038	15.531	B5-03822-P04-CH1	3358496	OK	0.8234472	-0.5671424	0.0168565	0	-108.407	-52.998	9.278	NA
0.259784303965489	B5-03822-P01-CH0	3358504	OK	0.2051156	0.0517566	0.0829127	-0.9738451	99.894	-48.034	-295.793	B5-03822-P02-CH0	3358504	OK	0.6934717	0.3475898	-0.631093	0	-85.07	-99.709	4.679	B5-03822-P02-CH1	3358504	OK	0.7728974	-0.0450821	-0.6329275	0	-79.532	-81.191	5.093	B5-03822-P03-CH0	3358504	OK	0.7003875	-0.2716862	-0.6600333	0	-80.722	-62.06	2.207	B5-03822-P03-CH1	3358504	OK	0.8111892	-0.5846378	0.0130652	0	-98.409	-33.052	7.177	B5-03822-P04-CH0	3358504	OK	0.778365	-0.3032922	0.5496925	0	-123.492	-41.576	15.723	B5-03822-P04-CH1	3358504	OK	0.8236487	-0.5668492	0.0168761	0	-108.394	-52.892	9.009	NA
0.269776007964161	B5-03822-P01-CH0	3358512	OK	0.2050443	0.05123	0.0838869	-0.9738045	99.647	-47.87	-295.667	B5-03822-P02-CH0	3358512	OK	0.6907446	0.3478798	-0.6339177	0	-84.35	-98.383	1.382	B5-03822-P02-CH1	3358512	OK	0.7803926	-0.0466951	-0.6235439	0	-78.339	-80.472	4.927	B5-03822-P03-CH0	3358512	OK	0.6894734	-0.2540427	-0.6782984	0	-86.462	-60.29	-1.21	B5-03822-P03-CH1	3358512	OK	0.8120198	-0.5834798	0.0132312	0	-98.314	-32.272	6.097	B5-03822-P04-CH0	3358512	OK	0.7788859	-0.2996355	0.5509586	0	-124.219	-40.432	14.53	B5-03822-P04-CH1	3358512	OK	0.824185	-0.5660695	0.0168648	0	-108.384	-52.576	8.608	NA
0.279767711962834	B5-03822-P01-CH0	3358520	OK	0.2045524	0.0510219	0.0837068	-0.9739344	99.462	-47.942	-295.506	B5-03822-P02-CH0	3358520	OK	0.6873359	0.3469562	-0.638115	0	-84.202	-98.22	2.032	B5-03822-P02-CH1	3358520	OK	0.7809747	-0.0461361	-0.6228563	0	-79.653	-79.532	5.183	B5-03822-P03-CH0	3358520	OK	0.6908067	-0.234936	-0.6838064	0	-84.569	-58.136	-2.868	B5-03822-P03-CH1	3358520	OK	0.8117903	-0.5837987	0.0132544	0	-98.318	-32.327	6.146	B5-03822-P04-CH0	3358520	OK	0.7786284	-0.2972509	0.5526117	0	-123.94	-40.23	16.503	B5-03822-P04-CH1	3358520	OK	0.8241223	-0.5661821	0.0161356	0	-108.352	-52.316	8.34	NA
0.289759415961507	B5-03822-P01-CH0	3358528	OK	0.2042167	0.0508056	0.0837842	-0.9740095	99.34	-47.968	-295.548	B5-03822-P02-CH0	3358528	OK	0.6873804	0.3445918	-0.6393471	0	-82.766	-97.655	-0.491	B5-03822-P02-CH1	3358528	OK	0.780945	-0.0469283	-0.6228343	0	-80.593	-79.626	5.954	B5-03822-P03-CH0	3358528	OK	0.6875422	-0.224548	-0.6905533	0	-84.364	-57.904	-1.715	B5-03822-P03-CH1	3358528	OK	0.8116403	-0.5840144	0.0129329	0	-98.204	-32.378	6.281	B5-03822-P04-CH0	3358528	OK	0.7774733	-0.2943463	0.5557837	0	-124	-40.437	16.627	B5-03822-P04-CH1	3358528	OK	0.8241404	-0.566166	0.0157694	0	-108.133	-52.283	8.533	NA
0.299751119960179	B5-03822-P01-CH0	3358536	OK	0.2040447	0.0511442	0.0837273	-0.9740327	99.515	-47.986	-295.715	B5-03822-P02-CH0	3358536	OK	0.686096	0.3432654	-0.6414368	0	-82.001	-96.271	-1.714	B5-03822-P02-CH1	3358536	OK	0.7818135	-0.0483606	-0.621634	0	-80.113	-80.959	5.572	B5-03822-P03-CH0	3358536	OK	0.68488	-0.224884	-0.6930849	0	-83.117	-58.483	-0.444	B5-03822-P03-CH1	3358536	OK	0.8109135	-0.5850252	0.0128366	0	-98.22	-32.999	6.818	B5-03822-P04-CH0	3358536	OK	0.7763954	-0.2895939	0.5597727	0	-124.171	-42.027	17.306	B5-03822-P04-CH1	3358536	OK	0.8240061	-0.566367	0.0155693	0	-108.142	-52.358	8.699	NA
0.309742823958852	B5-03822-P01-CH0	3358544	OK	0.2038157	0.0511482	0.0828942	-0.9741517	99.544	-48.223	-295.784	B5-03822-P02-CH0	3358544	OK	0.6831345	0.3390508	-0.6468167	0	-82.48	-96.437	-0.719	B5-03822-P02-CH1	3358544	OK	0.7817544	-0.0453469	-0.6219354	0	-79.187	-80.992	6.265	B5-03822-P03-CH0	3358544	OK	0.6837625	-0.2322749	-0.6917494	0	-82.694	-57.768	-0.676	B5-03822-P03-CH1	3358544	OK	0.8100282	-0.5862667	0.0120728	0	-97.945	-33.209	6.786	B5-03822-P04-CH0	3358544	OK	0.7752733	-0.2903857	0.5609166	0	-123.912	-40.386	15.841	B5-03822-P04-CH1	3358544	OK	0.8236444	-0.5669071	0.0150422	0	-108.21	-52.273	8.508	NA
0.319734527957524	B5-03822-P01-CH0	3358552	OK	0.2037924	0.0513016	0.083241	-0.974119	99.596	-48.128	-295.79	B5-03822-P02-CH0	3358552	OK	0.6815025	0.3352343	-0.650517	0	-82.103	-96.396	-0.052	B5-03822-P02-CH1	3358552	OK	0.777923	-0.0415513	-0.6269843	0	-79.643	-80.964	6.571	B5-03822-P03-CH0	3358552	OK	0.6872752	-0.249684	-0.6821368	0	-82.482	-58.056	-2.046	B5-03822-P03-CH1	3358552	OK	0.8098495	-0.5865379	0.010818	0	-98.139	-33.061	6.66	B5-03822-P04-CH0	3358552	OK	0.7745342	-0.2923476	0.5609186	0	-123.188	-39.365	14.93	B5-03822-P04-CH1	3358552	OK	0.8237001	-0.5668374	0.0146114	0	-108.347	-52.172	8.33	NA
0.329726231956197	B5-03822-P01-CH0	3358560	OK	0.2036889	0.0514051	0.0837382	-0.9740925	99.607	-48.032	-295.884	B5-03822-P02-CH0	3358560	OK	0.6804046	0.3340596	-0.6522682	0	-82.007	-97.386	-0.574	B5-03822-P02-CH1	3358560	OK	0.7758033	-0.0375667	-0.6298555	0	-78.683	-80.105	5.592	B5-03822-P03-CH0	3358560	OK	0.6940882	-0.2711808	-0.6668601	0	-83.469	-58.049	-0.353	B5-03822-P03-CH1	3358560	OK	0.8097479	-0.5867061	0.0091762	0	-98.226	-32.875	6.58	B5-03822-P04-CH0	3358560	OK	0.7756764	-0.2895156	0.5608091	0	-123.497	-40.812	17.257	B5-03822-P04-CH1	3358560	OK	0.823878	-0.566589	0.0142071	0	-108.606	-51.974	8	NA
0.33971793595487	B5-03822-P01-CH0	3358568	OK	0.2036343	0.0513547	0.0837899	-0.9741022	99.463	-47.966	-295.806	B5-03822-P02-CH0	3358568	OK	0.6784485	0.336773	-0.6529101	0	-81.702	-96.555	-0.312	B5-03822-P02-CH1	3358568	OK	0.7692634	-0.0328039	-0.6380891	0	-79.383	-79.375	4.511	B5-03822-P03-CH0	3358568	OK	0.7059947	-0.2952132	-0.6437551	0	-83.457	-58.459	-0.339	B5-03822-P03-CH1	3358568	OK	0.8093555	-0.5872716	0.0074625	0	-98.311	-32.511	6.246	B5-03822-P04-CH0	3358568	OK	0.7775452	-0.2882151	0.5588877	0	-124.195	-41.161	17.664	B5-03822-P04-CH1	3358568	OK	0.823948	-0.5664958	0.0138649	0	-108.386	-51.766	7.984	NA
0.349709639953542	B5-03822-P01-CH0	3358576	OK	0.2036851	0.0512146	0.0843673	-0.9740491	99.371	-47.858	-295.734	B5-03822-P02-CH0	3358576	OK	0.6761843	0.337833	-0.6547089	0	-82.247	-97.61	0.989	B5-03822-P02-CH1	3358576	OK	0.7663311	-0.0284376	-0.6418161	0	-78.179	-79.82	3.31	B5-03822-P03-CH0	3358576	OK	0.7200547	-0.3202426	-0.615602	0	-84.767	-58.908	-2.085	B5-03822-P03-CH1	3358576	OK	0.8093227	-0.5873354	0.0058253	0	-98.285	-32.163	6.296	B5-03822-P04-CH0	3358576	OK	0.7773555	-0.2920601	0.5571529	0	-124.027	-41.127	16.8	B5-03822-P04-CH1	3358576	OK	0.82427	-0.5660306	0.0137225	0	-108.355	-51.586	7.884	NA
0.359701343952215	B5-03822-P01-CH0	3358584	OK	0.2038571	0.0516916	0.0835432	-0.9740589	99.532	-47.879	-295.701	B5-03822-P02-CH0	3358584	OK	0.6783857	0.3422119	-0.6501414	0	-81.06	-97.508	-2.818	B5-03822-P02-CH1	3358584	OK	0.7626341	-0.02406	-0.6463825	0	-77.336	-80.687	4.517	B5-03822-P03-CH0	3358584	OK	0.7349705	-0.3419439	-0.5855704	0	-86.465	-58.817	-2.112	B5-03822-P03-CH1	3358584	OK	0.8082516	-0.5888197	0.0045514	0	-98.488	-32.141	6.348	B5-03822-P04-CH0	3358584	OK	0.7770835	-0.2921199	0.5575008	0	-124.062	-40.653	16.506	B5-03822-P04-CH1	3358584	OK	0.8235493	-0.5670685	0.0141411	0	-108.436	-51.781	7.714	NA
0.369693047950888	B5-03822-P01-CH0	3358592	OK	0.2040608	0.0515659	0.0837709	-0.9740034	99.535	-47.885	-295.919	B5-03822-P02-CH0	3358592	OK	0.6763778	0.3460382	-0.6502081	0	-80.644	-97.294	0.819	B5-03822-P02-CH1	3358592	OK	0.7599036	-0.0222627	-0.6496544	0	-76.506	-81.534	4.282	B5-03822-P03-CH0	3358592	OK	0.7519827	-0.3568316	-0.5542501	0	-86.999	-59.367	-0.832	B5-03822-P03-CH1	3358592	OK	0.8077653	-0.5894944	0.0034092	0	-98.492	-32.261	6.96	B5-03822-P04-CH0	3358592	OK	0.7770217	-0.2912212	0.5580569	0	-123.956	-40.838	16.952	B5-03822-P04-CH1	3358592	OK	0.8236752	-0.5668649	0.0149476	0	-108.317	-51.875	7.691	NA
0.37968475194956	B5-03822-P01-CH0	3358600	OK	0.2041108	0.0515969	0.0840127	-0.9739704	99.576	-47.836	-296.017	B5-03822-P02-CH0	3358600	OK	0.674048	0.3501067	-0.6504496	0	-81.48	-98.369	1.749	B5-03822-P02-CH1	3358600	OK	0.7575261	-0.0185378	-0.6525416	0	-76.196	-81.786	2.268	B5-03822-P03-CH0	3358600	OK	0.771344	-0.3616369	-0.5236862	0	-86.679	-61.663	2.191	B5-03822-P03-CH1	3358600	OK	0.8072709	-0.5901768	0.0022321	0	-98.382	-32.142	6.975	B5-03822-P04-CH0	3358600	OK	0.7768247	-0.2918109	0.558023	0	-123.802	-40.43	16.58	B5-03822-P04-CH1	3358600	OK	0.8236748	-0.5668458	0.0156739	0	-108.318	-51.926	7.549	NA
0.389676455948233	B5-03822-P01-CH0	3358608	OK	0.2044609	0.0516501	0.0839911	-0.973896	99.636	-47.84	-296.037	B5-03822-P02-CH0	3358608	OK	0.6739785	0.3575697	-0.6464494	0	-80.648	-98.154	-1.278	B5-03822-P02-CH1	3358608	OK	0.7555071	-0.0178897	-0.6548961	0	-76.749	-82.676	1.246	B5-03822-P03-CH0	3358608	OK	0.7909085	-0.3552467	-0.4982604	0	-88.432	-62.017	4.174	B5-03822-P03-CH1	3358608	OK	0.8068057	-0.5908148	0.0015821	0	-98.526	-31.958	6.481	B5-03822-P04-CH0	3358608	OK	0.7765788	-0.2924927	0.5580085	0	-123.637	-40.18	16.109	B5-03822-P04-CH1	3358608	OK	0.8236123	-0.5669026	0.0168575	0	-108.631	-52.02	7.15	NA
0.399668159946906	B5-03822-P01-CH0	3358616	OK	0.2044557	0.0520141	0.0837168	-0.9739014	99.747	-47.801	-295.723	B5-03822-P02-CH0	3358616	OK	0.6712117	0.3658224	-0.6447083	0	-81.029	-99.03	0.687	B5-03822-P02-CH1	3358616	OK	0.754784	-0.0145273	-0.6558125	0	-77.737	-82.473	2.175	B5-03822-P03-CH0	3358616	OK	0.8115527	-0.3452625	-0.4713556	0	-90.125	-63.375	7.831	B5-03822-P03-CH1	3358616	OK	0.8065482	-0.5911682	0.0004566	0	-98.756	-31.378	5.925	B5-03822-P04-CH0	3358616	OK	0.7766367	-0.2940737	0.5570961	0	-123.72	-39.737	15.391	B5-03822-P04-CH1	3358616	OK	0.8233259	-0.5672907	0.0177707	0	-109.059	-52.044	6.697	NA
0.409659863945578	B5-03822-P01-CH0	3358624	OK	0.2046844	0.0518721	0.084008	-0.9738358	99.701	-47.713	-295.764	B5-03822-P02-CH0	3358624	OK	0.67097	0.3761096	-0.6390154	0	-80.474	-97.866	-3.175	B5-03822-P02-CH1	3358624	OK	0.7585743	-0.0167618	-0.6513709	0	-77.728	-83.057	3.293	B5-03822-P03-CH0	3358624	OK	0.8304324	-0.334645	-0.4454153	0	-92.87	-63.526	8.881	B5-03822-P03-CH1	3358624	OK	0.8065976	-0.5911007	0.0005346	0	-98.796	-31.128	5.67	B5-03822-P04-CH0	3358624	OK	0.7768701	-0.2948717	0.5563484	0	-123.829	-39.678	15.121	B5-03822-P04-CH1	3358624	OK	0.8233811	-0.5671561	0.0194317	0	-109.149	-52.221	6.775	NA
0.419651567944251	B5-03822-P01-CH0	3358632	OK	0.2048673	0.0517918	0.0842466	-0.973781	99.669	-47.603	-295.598	B5-03822-P02-CH0	3358632	OK	0.6665677	0.3857068	-0.6379011	0	-82.961	-99.654	1.25	B5-03822-P02-CH1	3358632	OK	0.7649256	-0.0173509	-0.6438849	0	-77.824	-82.684	4.812	B5-03822-P03-CH0	3358632	OK	0.8477156	-0.3267126	-0.4178961	0	-93.652	-65.456	11.537	B5-03822-P03-CH1	3358632	OK	0.8066284	-0.5910575	0.0012912	0	-98.724	-31.007	5.508	B5-03822-P04-CH0	3358632	OK	0.7772269	-0.2969445	0.5547453	0	-123.99	-38.993	14.247	B5-03822-P04-CH1	3358632	OK	0.8229748	-0.567317	0.0293916	0	-110.397	-53.184	6.943	NA
0.429643271942924	B5-03822-P01-CH0	3358640	OK	0.2049179	0.0517566	0.0834876	-0.9738376	99.712	-47.701	-295.445	B5-03822-P02-CH0	3358640	OK	0.665345	0.3975755	-0.6318622	0	-83.447	-99.691	1.702	B5-03822-P02-CH1	3358640	OK	0.7725617	-0.0220646	-0.6345562	0	-78.104	-81.952	5.402	B5-03822-P03-CH0	3358640	OK	0.8641451	-0.3194646	-0.3888388	0	-93.117	-67.314	12.767	B5-03822-P03-CH1	3358640	OK	0.8061904	-0.5916515	0.0023522	0	-98.801	-30.904	4.986	B5-03822-P04-CH0	3358640	OK	0.7769393	-0.2996402	0.5536976	0	-124.245	-38.843	13.144	B5-03822-P04-CH1	3358640	OK	0.8219945	-0.5686443	0.0311237	0	-111.283	-53.139	5.428	NA
0.439634975941596	B5-03822-P01-CH0	3358648	OK	0.2051999	0.0519015	0.0835402	-0.973766	99.839	-47.575	-295.376	B5-03822-P02-CH0	3358648	OK	0.6645905	0.4104352	-0.6243897	0	-83.995	-99.86	-0.57	B5-03822-P02-CH1	3358648	OK	0.7806409	-0.0366604	-0.6239037	0	-78.699	-82.994	6.433	B5-03822-P03-CH0	3358648	OK	0.8746693	-0.3098219	-0.3727788	0	-95.557	-67.531	13.516	B5-03822-P03-CH1	3358648	OK	0.8061704	-0.5916689	0.0041367	0	-98.697	-30.966	4.938	B5-03822-P04-CH0	3358648	OK	0.7782907	-0.3069896	0.5477417	0	-126.981	-42.6	13.204	B5-03822-P04-CH1	3358648	OK	0.8222445	-0.5681915	0.032747	0	-111.941	-53.292	7.001	NA
0.449626679940269	B5-03822-P01-CH0	3358656	OK	0.2050778	0.0518033	0.0831826	-0.9738276	99.855	-47.583	-295.343	B5-03822-P02-CH0	3358656	OK	0.6638671	0.4210799	-0.618039	0	-83.856	-100.619	1.043	B5-03822-P02-CH1	3358656	OK	0.787205	-0.0544982	-0.6142786	0	-79.648	-82.862	5.061	B5-03822-P03-CH0	3358656	OK	0.8828529	-0.3040725	-0.3579256	0	-95.979	-68.091	15.157	B5-03822-P03-CH1	3358656	OK	0.8061549	-0.5916754	0.0058742	0	-98.739	-30.805	4.598	B5-03822-P04-CH0	3358656	OK	0.7782413	-0.3095906	0.5463461	0	-127.247	-42.953	12.355	B5-03822-P04-CH1	3358656	OK	0.8218749	-0.5686273	0.0344195	0	-112.499	-53.072	6.583	NA
0.459618383938941	B5-03822-P01-CH0	3358664	OK	0.2049541	0.0516027	0.0828478	-0.9738928	99.813	-47.65	-295.259	B5-03822-P02-CH0	3358664	OK	0.6624558	0.4325576	-0.6115932	0	-82.69	-100.524	0.765	B5-03822-P02-CH1	3358664	OK	0.7899136	-0.0770174	-0.6083624	0	-80.909	-82.649	3.926	B5-03822-P03-CH0	3358664	OK	0.8881128	-0.3053067	-0.3435746	0	-95.638	-69.286	14.51	B5-03822-P03-CH1	3358664	OK	0.8061123	-0.5917101	0.0078811	0	-98.727	-30.803	4.365	B5-03822-P04-CH0	3358664	OK	0.7795843	-0.3107527	0.5437656	0	-128.035	-40.982	11.388	B5-03822-P04-CH1	3358664	OK	0.8204099	-0.5704919	0.0382949	0	-112.423	-54.154	6.219	NA
0.469610087937614	B5-03822-P01-CH0	3358672	OK	0.2047962	0.051979	0.081711	-0.9740021	99.925	-47.674	-295.013	B5-03822-P02-CH0	3358672	OK	0.6592067	0.4483047	-0.603713	0	-82.443	-100.952	-1.063	B5-03822-P02-CH1	3358672	OK	0.7910859	-0.1008204	-0.6033393	0	-81.375	-82.191	3.706	B5-03822-P03-CH0	3358672	OK	0.8896718	-0.304296	-0.3404234	0	-96.666	-69.748	14.265	B5-03822-P03-CH1	3358672	OK	0.8056445	-0.5923095	0.0103094	0	-98.868	-30.872	4.224	B5-03822-P04-CH0	3358672	OK	0.7809493	-0.3095518	0.5424904	0	-129.503	-41.11	11.128	B5-03822-P04-CH1	3358672	OK	0.819318	-0.5717837	0.0422062	0	-111.912	-54.59	6.731	NA
0.479601791936287	B5-03822-P01-CH0	3358680	OK	0.2051409	0.0518505	0.0822755	-0.9738889	99.941	-47.473	-295.034	B5-03822-P02-CH0	3358680	OK	0.6539145	0.465201	-0.5966439	0	-82.529	-102.256	0.737	B5-03822-P02-CH1	3358680	OK	0.7923866	-0.1248213	-0.5971123	0	-80.112	-83.056	4.841	B5-03822-P03-CH0	3358680	OK	0.8894315	-0.2988619	-0.3458224	0	-98.103	-69.197	15.214	B5-03822-P03-CH1	3358680	OK	0.807027	-0.5898622	0.0277497	0	-99.007	-31.715	7.599	B5-03822-P04-CH0	3358680	OK	0.7811658	-0.3076069	0.5432845	0	-129.696	-42.573	11.86	B5-03822-P04-CH1	3358680	OK	0.8196964	-0.5710962	0.0441246	0	-113.11	-53.598	4.844	NA
0.489593495934959	B5-03822-P01-CH0	3358688	OK	0.2050368	0.0519544	0.0822254	-0.9739095	99.983	-47.347	-294.883	B5-03822-P02-CH0	3358688	OK	0.6508166	0.482822	-0.5859357	0	-81.818	-102.758	-0.59	B5-03822-P02-CH1	3358688	OK	0.7907423	-0.1478395	-0.5940286	0	-79.226	-82.659	5.101	B5-03822-P03-CH0	3358688	OK	0.8896662	-0.3010767	-0.3432883	0	-97.027	-69.925	14.189	B5-03822-P03-CH1	3358688	OK	0.804082	-0.5935165	0.0345025	0	-98.212	-33.664	6.022	B5-03822-P04-CH0	3358688	OK	0.7819679	-0.3081535	0.5418188	0	-129.764	-40.987	12.033	B5-03822-P04-CH1	3358688	OK	0.8189538	-0.5720695	0.0452898	0	-114.518	-54.009	4.611	NA
0.499585199933632	B5-03822-P01-CH0	3358696	OK	0.2054844	0.0515322	0.0829449	-0.9737765	99.836	-47.152	-295.057	B5-03822-P02-CH0	3358696	OK	0.6479055	0.5010169	-0.5737599	0	-80.769	-104.035	0.669	B5-03822-P02-CH1	3358696	OK	0.7858012	-0.1717808	-0.5941446	0	-79.16	-82.236	2.512	B5-03822-P03-CH0	3358696	OK	0.8878657	-0.3009327	-0.3480432	0	-97.386	-69.244	13.699	B5-03822-P03-CH1	3358696	OK	0.804379	-0.5928582	0.038646	0	-97.267	-33.112	5.159	B5-03822-P04-CH0	3358696	OK	0.779045	-0.3088794	0.5456028	0	-127.68	-40.167	10.938	B5-03822-P04-CH1	3358696	OK	0.8204195	-0.5699673	0.0452674	0	-114.7	-52.944	5.439	NA
0.509576903932305	B5-03822-P01-CH0	3358704	OK	0.2054903	0.0520206	0.0823788	-0.9737974	100.031	-47.1	-294.967	B5-03822-P02-CH0	3358704	OK	0.6439557	0.5205783	-0.5606419	0	-79.619	-103.068	0.185	B5-03822-P02-CH1	3358704	OK	0.7801028	-0.1989478	-0.5931773	0	-77.606	-81.911	1.593	B5-03822-P03-CH0	3358704	OK	0.8830116	-0.3055042	-0.3563112	0	-97.949	-69.682	12.903	B5-03822-P03-CH1	3358704	OK	0.8045926	-0.5923695	0.0415836	0	-97.397	-33.128	6.714	B5-03822-P04-CH0	3358704	OK	0.7793744	-0.310677	0.5441097	0	-128.275	-40.185	10.354	B5-03822-P04-CH1	3358704	OK	0.8188614	-0.5721281	0.0462112	0	-114.729	-54.235	5.563	NA
0.519568607930977	B5-03822-P01-CH0	3358712	OK	0.2051326	0.0520451	0.0812557	-0.9739658	99.976	-47.152	-294.916	B5-03822-P02-CH0	3358712	OK	0.6403502	0.5361357	-0.5500093	0	-79.208	-104.137	3.831	B5-03822-P02-CH1	3358712	OK	0.7706659	-0.2288784	-0.5947174	0	-76.006	-81.928	1.164	B5-03822-P03-CH0	3358712	OK	0.8771807	-0.306283	-0.3697901	0	-98.472	-68.736	13.483	B5-03822-P03-CH1	3358712	OK	0.8041374	-0.5930829	0.0401961	0	-99.525	-32.661	6.685	B5-03822-P04-CH0	3358712	OK	0.7792305	-0.3123774	0.5433416	0	-128.591	-40.663	10.472	B5-03822-P04-CH1	3358712	OK	0.8186389	-0.5726745	0.0432924	0	-114.848	-53.075	4.682	NA
0.52956031192965	B5-03822-P01-CH0	3358720	OK	0.2049515	0.0524249	0.0807237	-0.9740278	100.015	-47.034	-294.89	B5-03822-P02-CH0	3358720	OK	0.6353584	0.5502225	-0.5418254	0	-79.33	-103.95	5.454	B5-03822-P02-CH1	3358720	OK	0.75898	-0.2511779	-0.6007155	0	-74.296	-79.19	-0.195	B5-03822-P03-CH0	3358720	OK	0.8690787	-0.3149283	-0.3814739	0	-97.159	-69.273	12.896	B5-03822-P03-CH1	3358720	OK	0.8035344	-0.5938523	0.0408893	0	-100.131	-32.34	5.484	B5-03822-P04-CH0	3358720	OK	0.7797401	-0.3139116	0.5417241	0	-128.989	-40.611	10.711	B5-03822-P04-CH1	3358720	OK	0.8186834	-0.5727167	0.0418699	0	-113.715	-53.261	5.291	NA
0.539552015928323	B5-03822-P01-CH0	3358728	OK	0.2045047	0.0525571	0.0808325	-0.9741056	99.999	-46.957	-294.799	B5-03822-P02-CH0	3358728	OK	0.6360403	0.5551746	-0.535942	0	-77.256	-104.138	4.112	B5-03822-P02-CH1	3358728	OK	0.7449465	-0.2247026	-0.6281428	0	-73.049	-80.204	-0.117	B5-03822-P03-CH0	3358728	OK	0.8581443	-0.3231878	-0.3989211	0	-97.027	-68.16	11.468	B5-03822-P03-CH1	3358728	OK	0.80268	-0.59494	0.0418482	0	-99.945	-32.95	5.365	B5-03822-P04-CH0	3358728	OK	0.7801573	-0.3156658	0.5401015	0	-129.212	-40.614	10.706	B5-03822-P04-CH1	3358728	OK	0.8185687	-0.5729055	0.0415282	0	-113.908	-53.104	5.34	NA
0.549543719926995	B5-03822-P01-CH0	3358736	OK	0.2042934	0.0525576	0.0807869	-0.9741537	99.927	-46.868	-294.801	B5-03822-P02-CH0	3358736	OK	0.6350304	0.5520575	-0.5403415	0	-76.078	-102.717	4.05	B5-03822-P02-CH1	3358736	OK	0.7314193	-0.1460167	-0.6661118	0	-74.954	-79.313	0.379	B5-03822-P03-CH0	3358736	OK	0.8460687	-0.3337311	-0.4156817	0	-96.156	-66.951	11.036	B5-03822-P03-CH1	3358736	OK	0.8035853	-0.5941408	0.0353187	0	-99.056	-32.256	5.841	B5-03822-P04-CH0	3358736	OK	0.7803466	-0.3183411	0.5382547	0	-129.11	-39.912	10.311	B5-03822-P04-CH1	3358736	OK	0.8186494	-0.5728316	0.0409524	0	-113.728	-52.86	5.745	NA
0.559535423925668	B5-03822-P01-CH0	3358744	OK	0.2041628	0.0526811	0.0807611	-0.9741765	99.891	-46.688	-294.778	B5-03822-P02-CH0	3358744	OK	0.6393332	0.5350844	-0.5522116	0	-73.321	-101.336	2.499	B5-03822-P02-CH1	3358744	OK	0.7274783	-0.1025186	-0.6784285	0	-74.41	-78.545	0.538	B5-03822-P03-CH0	3358744	OK	0.8312919	-0.3428428	-0.4375073	0	-94.897	-64.384	8.303	B5-03822-P03-CH1	3358744	OK	0.8034007	-0.5942997	0.0368134	0	-98.999	-32.067	5.774	B5-03822-P04-CH0	3358744	OK	0.7793493	-0.3329849	0.5307879	0	-126.434	-39.952	11.606	B5-03822-P04-CH1	3358744	OK	0.8198763	-0.5717595	0.029898	0	-112.413	-51.564	6.808	NA
0.56952712792434	B5-03822-P01-CH0	3358752	OK	0.2038169	0.0526464	0.0806428	-0.9742606	99.84	-46.656	-294.842	B5-03822-P02-CH0	3358752	OK	0.6422529	0.5123263	-0.5701167	0	-72.153	-98.725	1.039	B5-03822-P02-CH1	3358752	OK	0.7255171	-0.085613	-0.6828583	0	-74.457	-77.707	1.95	B5-03822-P03-CH0	3358752	OK	0.8122674	-0.3464152	-0.4692741	0	-93.667	-61.958	7.584	B5-03822-P03-CH1	3358752	OK	0.8030588	-0.5947096	0.0376443	0	-98.902	-32.099	5.83	B5-03822-P04-CH0	3358752	OK	0.7802291	-0.3351925	0.5280989	0	-125.865	-39.617	13.277	B5-03822-P04-CH1	3358752	OK	0.8195276	-0.572473	0.0254802	0	-111.842	-51.16	5.862	NA
0.579518831923013	B5-03822-P01-CH0	3358760	OK	0.2034044	0.0528046	0.0798132	-0.9744066	99.826	-46.682	-294.683	B5-03822-P02-CH0	3358760	OK	0.6461235	0.4882994	-0.5865903	0	-73.187	-98.406	2.56	B5-03822-P02-CH1	3358760	OK	0.7268696	-0.1005866	-0.6793695	0	-74.889	-76.613	0.176	B5-03822-P03-CH0	3358760	OK	0.7869608	-0.3527734	-0.5062052	0	-92.844	-61.206	6.332	B5-03822-P03-CH1	3358760	OK	0.8023133	-0.5956874	0.0380778	0	-98.867	-32.275	5.841	B5-03822-P04-CH0	3358760	OK	0.7787872	-0.3411184	0.5264302	0	-124.898	-37.833	9.807	B5-03822-P04-CH1	3358760	OK	0.8196305	-0.5725213	0.0206212	0	-111.11	-50.886	6.81	NA
0.589510535921686	B5-03822-P01-CH0	3358768	OK	0.2031671	0.0530968	0.0791507	-0.9744942	99.948	-46.716	-294.697	B5-03822-P02-CH0	3358768	OK	0.6530137	0.468184	-0.5952956	0	-72.146	-96.261	0.182	B5-03822-P02-CH1	3358768	OK	0.731896	-0.1261243	-0.6696424	0	-73.767	-76.216	-1.161	B5-03822-P03-CH0	3358768	OK	0.7584751	-0.366648	-0.5387809	0	-88.215	-57.686	-0.484	B5-03822-P03-CH1	3358768	OK	0.8018281	-0.5963774	0.037493	0	-98.942	-32.405	6.377	B5-03822-P04-CH0	3358768	OK	0.7806497	-0.3342819	0.5280546	0	-125.62	-40.979	15.454	B5-03822-P04-CH1	3358768	OK	0.8189806	-0.5735689	0.0170124	0	-109.998	-50.562	5.61	NA
0.599502239920358	B5-03822-P01-CH0	3358776	OK	0.2030503	0.0531477	0.0785829	-0.9745618	100.004	-46.754	-294.585	B5-03822-P02-CH0	3358776	OK	0.6578071	0.4544923	-0.6006051	0	-72.682	-95.888	0.824	B5-03822-P02-CH1	3358776	OK	0.7330616	-0.1366095	-0.6663022	0	-73.726	-75.887	0.095	B5-03822-P03-CH0	3358776	OK	0.7332145	-0.3719973	-0.5692228	0	-84.18	-58.082	1.475	B5-03822-P03-CH1	3358776	OK	0.801528	-0.5968475	0.0364127	0	-99.105	-32.399	6.682	B5-03822-P04-CH0	3358776	OK	0.779034	-0.3380892	0.5280167	0	-124.252	-40.215	14.796	B5-03822-P04-CH1	3358776	OK	0.8196454	-0.572732	0.0126285	0	-109.784	-49.947	7.454	NA
0.609493943919031	B5-03822-P01-CH0	3358784	OK	0.2031949	0.0529544	0.0788714	-0.9745188	99.95	-46.631	-294.544	B5-03822-P02-CH0	3358784	OK	0.6593554	0.4436737	-0.606963	0	-74.294	-96.299	2.702	B5-03822-P02-CH1	3358784	OK	0.7318654	-0.1429698	-0.6662827	0	-74.477	-76.162	2.073	B5-03822-P03-CH0	3358784	OK	0.7199532	-0.3677448	-0.588584	0	-85.857	-56.811	0.082	B5-03822-P03-CH1	3358784	OK	0.8014984	-0.5969666	0.0350889	0	-99.002	-32.13	6.227	B5-03822-P04-CH0	3358784	OK	0.7779506	-0.3438013	0.5259216	0	-123.148	-36.462	9.67	B5-03822-P04-CH1	3358784	OK	0.8204353	-0.5716403	0.0106423	0	-109.27	-49.568	8.115	NA
0.619485647917704	B5-03822-P01-CH0	3358792	OK	0.2034375	0.0528879	0.0800965	-0.9743719	100.054	-46.423	-294.602	B5-03822-P02-CH0	3358792	OK	0.6623685	0.4360349	-0.6092138	0	-74.77	-96.421	0.286	B5-03822-P02-CH1	3358792	OK	0.7343873	-0.1550247	-0.6607894	0	-74.188	-75.927	-0.694	B5-03822-P03-CH0	3358792	OK	0.7182878	-0.3587525	-0.5961202	0	-85.871	-55.712	-0.387	B5-03822-P03-CH1	3358792	OK	0.8020966	-0.5962367	0.0338051	0	-99.044	-31.947	6.119	B5-03822-P04-CH0	3358792	OK	0.7800151	-0.3348351	0.5286416	0	-125.802	-39	12.943	B5-03822-P04-CH1	3358792	OK	0.8204178	-0.5716962	0.0088337	0	-108.733	-49.144	5.614	NA
0.629477351916376	B5-03822-P01-CH0	3358800	OK	0.2036568	0.0527026	0.0801525	-0.9743315	100.098	-46.409	-294.641	B5-03822-P02-CH0	3358800	OK	0.664032	0.4303475	-0.6114429	0	-75.363	-96.474	0.469	B5-03822-P02-CH1	3358800	OK	0.7431792	-0.1832179	-0.6435184	0	-73.298	-75.998	-0.056	B5-03822-P03-CH0	3358800	OK	0.7212584	-0.3488997	-0.5983772	0	-85.947	-56.931	0.159	B5-03822-P03-CH1	3358800	OK	0.8018892	-0.5965942	0.0323884	0	-98.732	-32.109	6.493	B5-03822-P04-CH0	3358800	OK	0.7799753	-0.3345256	0.5288962	0	-125.307	-39.368	13.622	B5-03822-P04-CH1	3358800	OK	0.8211439	-0.5706666	0.0078985	0	-108.989	-49.479	6.855	NA
0.639469055915049	B5-03822-P01-CH0	3358808	OK	0.2041558	0.0523183	0.0804264	-0.9742252	100.05	-46.388	-294.643	B5-03822-P02-CH0	3358808	OK	0.6657014	0.4256969	-0.6128816	0	-74.811	-94.848	1.112	B5-03822-P02-CH1	3358808	OK	0.7507732	-0.1876069	-0.6333587	0	-74.519	-77.369	2.068	B5-03822-P03-CH0	3358808	OK	0.7265564	-0.3391044	-0.5975985	0	-85.975	-58.467	0.816	B5-03822-P03-CH1	3358808	OK	0.8018737	-0.5966904	0.0309686	0	-98.349	-32.2	6.596	B5-03822-P04-CH0	3358808	OK	0.7799433	-0.3333163	0.5297062	0	-124.6	-39.556	14.293	B5-03822-P04-CH1	3358808	OK	0.8215815	-0.5700532	0.0065799	0	-109.78	-49.457	6.652	NA
0.649460759913722	B5-03822-P01-CH0	3358816	OK	0.2045557	0.0525405	0.0803312	-0.9741372	100.246	-46.393	-294.569	B5-03822-P02-CH0	3358816	OK	0.6660227	0.4199416	-0.6164923	0	-76.856	-96.87	3.088	B5-03822-P02-CH1	3358816	OK	0.7550099	-0.1853961	-0.6289581	0	-76.069	-77.803	0.352	B5-03822-P03-CH0	3358816	OK	0.72875	-0.3374675	-0.5958516	0	-87.767	-58.051	1.088	B5-03822-P03-CH1	3358816	OK	0.801813	-0.5968886	0.0286363	0	-98.636	-32.062	6.605	B5-03822-P04-CH0	3358816	OK	0.7802528	-0.3307997	0.5308268	0	-124.466	-40.27	15.247	B5-03822-P04-CH1	3358816	OK	0.8212394	-0.5704888	0.0104078	0	-108.297	-50.516	7.274	NA
0.659452463912394	B5-03822-P01-CH0	3358824	OK	0.2050803	0.0525689	0.0809577	-0.9739735	100.367	-46.269	-294.587	B5-03822-P02-CH0	3358824	OK	0.666554	0.4149015	-0.6193242	0	-77.585	-97.194	3.069	B5-03822-P02-CH1	3358824	OK	0.7583866	-0.1810419	-0.6261578	0	-77.231	-76.603	0.379	B5-03822-P03-CH0	3358824	OK	0.7309945	-0.3371713	-0.5932643	0	-88.493	-57.913	1.622	B5-03822-P03-CH1	3358824	OK	0.8021106	-0.5965784	0.0266969	0	-98.689	-31.915	6.621	B5-03822-P04-CH0	3358824	OK	0.7802611	-0.3178446	0.5386719	0	-122.65	-39.034	14.973	B5-03822-P04-CH1	3358824	OK	0.8216867	-0.5698379	0.0107586	0	-108.681	-50.979	7.613	NA
0.669444167911067	B5-03822-P01-CH0	3358832	OK	0.2057429	0.0525702	0.0813366	-0.9738021	100.427	-46.158	-294.535	B5-03822-P02-CH0	3358832	OK	0.6678506	0.4140847	-0.6184735	0	-77.628	-96.455	-0.746	B5-03822-P02-CH1	3358832	OK	0.7603946	-0.1801147	-0.6239862	0	-78.09	-76.911	1.481	B5-03822-P03-CH0	3358832	OK	0.7351182	-0.3351202	-0.5893179	0	-88.506	-57.471	1.236	B5-03822-P03-CH1	3358832	OK	0.8022331	-0.5964837	0.0250859	0	-98.639	-31.879	6.685	B5-03822-P04-CH0	3358832	OK	0.7791754	-0.3142996	0.5423112	0	-122.554	-38.817	12.351	B5-03822-P04-CH1	3358832	OK	0.8220198	-0.5693133	0.0128725	0	-109.536	-50.273	7.484	NA
0.67943587190974	B5-03822-P01-CH0	3358840	OK	0.2063392	0.0525894	0.0819247	-0.9736256	100.529	-46.112	-294.652	B5-03822-P02-CH0	3358840	OK	0.6682054	0.4157133	-0.616996	0	-77.448	-96.285	-0.957	B5-03822-P02-CH1	3358840	OK	0.7629084	-0.1817483	-0.620434	0	-77.653	-78.034	1.872	B5-03822-P03-CH0	3358840	OK	0.7376512	-0.3320138	-0.5879094	0	-89.091	-57.612	2.79	B5-03822-P03-CH1	3358840	OK	0.8026327	-0.5960111	0.0234837	0	-98.582	-31.692	6.475	B5-03822-P04-CH0	3358840	OK	0.7798225	-0.3079144	0.5450373	0	-123.096	-39.876	13.966	B5-03822-P04-CH1	3358840	OK	0.8225268	-0.5685857	0.012647	0	-109.441	-50.412	7.501	NA
0.689427575908412	B5-03822-P01-CH0	3358848	OK	0.2068028	0.0523275	0.0822802	-0.9735114	100.407	-46.032	-294.612	B5-03822-P02-CH0	3358848	OK	0.6686392	0.4197935	-0.6137548	0	-77.41	-96.015	-1.281	B5-03822-P02-CH1	3358848	OK	0.7648701	-0.1866316	-0.6165568	0	-76.915	-78.262	2.857	B5-03822-P03-CH0	3358848	OK	0.739135	-0.3321555	-0.5859626	0	-88.999	-58.015	2.94	B5-03822-P03-CH1	3358848	OK	0.8032244	-0.5952627	0.0222015	0	-98.357	-30.997	5.477	B5-03822-P04-CH0	3358848	OK	0.7798582	-0.3035466	0.547431	0	-123.358	-42.224	15.22	B5-03822-P04-CH1	3358848	OK	0.8230023	-0.5678904	0.0129514	0	-109.313	-50.405	7.373	NA
0.699419279907085	B5-03822-P01-CH0	3358856	OK	0.2067146	0.0520936	0.0822347	-0.9735465	100.306	-46.093	-294.694	B5-03822-P02-CH0	3358856	OK	0.667892	0.424013	-0.6116644	0	-77.488	-95.868	2.235	B5-03822-P02-CH1	3358856	OK	0.7657377	-0.1895241	-0.6145945	0	-76.7	-78.501	2.158	B5-03822-P03-CH0	3358856	OK	0.7419459	-0.3322127	-0.5823667	0	-87.777	-58.33	0.215	B5-03822-P03-CH1	3358856	OK	0.8031843	-0.5953499	0.0212973	0	-98.064	-31.137	5.399	B5-03822-P04-CH0	3358856	OK	0.7807175	-0.3075427	0.5439647	0	-123.737	-39.422	12.209	B5-03822-P04-CH1	3358856	OK	0.8231488	-0.5676775	0.0129747	0	-109.11	-50.513	7.346	NA
0.709410983905758	B5-03822-P01-CH0	3358864	OK	0.2067057	0.0521576	0.0818969	-0.9735734	100.287	-46.076	-294.657	B5-03822-P02-CH0	3358864	OK	0.6683746	0.4283922	-0.6080752	0	-78.156	-97.044	2.416	B5-03822-P02-CH1	3358864	OK	0.7664018	-0.192095	-0.6129664	0	-76.896	-79.18	2.226	B5-03822-P03-CH0	3358864	OK	0.7439522	-0.3265857	-0.5829896	0	-87.505	-58.46	0.305	B5-03822-P03-CH1	3358864	OK	0.8034978	-0.5949522	0.0205706	0	-98.137	-30.926	5.359	B5-03822-P04-CH0	3358864	OK	0.7807339	-0.312612	0.5410436	0	-123.442	-40.987	15.558	B5-03822-P04-CH1	3358864	OK	0.8231069	-0.567728	0.0134136	0	-109.192	-50.678	7.437	NA
0.71940268790443	B5-03822-P01-CH0	3358872	OK	0.2068492	0.0522467	0.0810891	-0.9736058	100.214	-46.139	-294.583	B5-03822-P02-CH0	3358872	OK	0.6699	0.4307236	-0.6047406	0	-78.681	-99.45	3.956	B5-03822-P02-CH1	3358872	OK	0.7688675	-0.1914326	-0.610079	0	-76.859	-79.325	3.285	B5-03822-P03-CH0	3358872	OK	0.7435126	-0.3193626	-0.5875343	0	-88.58	-57.792	1.753	B5-03822-P03-CH1	3358872	OK	0.8032715	-0.5952619	0.0204465	0	-97.993	-31.179	5.606	B5-03822-P04-CH0	3358872	OK	0.7803471	-0.311854	0.5420383	0	-123.268	-40.42	14.536	B5-03822-P04-CH1	3358872	OK	0.8226408	-0.5683762	0.0145127	0	-109.088	-51.109	7.589	NA
0.729394391903103	B5-03822-P01-CH0	3358880	OK	0.2070297	0.0523133	0.081148	-0.973559	100.222	-46.186	-294.55	B5-03822-P02-CH0	3358880	OK	0.670293	0.4357296	-0.6007054	0	-78.284	-98.573	1.204	B5-03822-P02-CH1	3358880	OK	0.7727254	-0.1837454	-0.6075632	0	-76.767	-78.766	2.297	B5-03822-P03-CH0	3358880	OK	0.742601	-0.3120234	-0.5926087	0	-88.682	-58.614	1.041	B5-03822-P03-CH1	3358880	OK	0.8037671	-0.5945885	0.0205678	0	-98.105	-31.2	5.444	B5-03822-P04-CH0	3358880	OK	0.7801336	-0.3117061	0.5424306	0	-123.045	-39.802	13.371	B5-03822-P04-CH1	3358880	OK	0.8227881	-0.5681413	0.0153384	0	-109.046	-51.462	7.932	NA
0.739386095901775	B5-03822-P01-CH0	3358888	OK	0.2068722	0.0521808	0.0805516	-0.973649	100.105	-46.199	-294.513	B5-03822-P02-CH0	3358888	OK	0.6713624	0.440561	-0.5959686	0	-77.485	-98.369	0.797	B5-03822-P02-CH1	3358888	OK	0.7745562	-0.178199	-0.6068837	0	-77.674	-79.055	2.727	B5-03822-P03-CH0	3358888	OK	0.7415974	-0.3047927	-0.5976074	0	-89.038	-59.426	0.818	B5-03822-P03-CH1	3358888	OK	0.8040378	-0.5942168	0.0207281	0	-98.126	-30.887	5.087	B5-03822-P04-CH0	3358888	OK	0.7798524	-0.3124487	0.5424076	0	-122.945	-39.151	12.668	B5-03822-P04-CH1	3358888	OK	0.8224955	-0.5685373	0.0163276	0	-108.85	-51.699	8.115	NA
0.749377799900448	B5-03822-P01-CH0	3358896	OK	0.2067738	0.0518973	0.0801079	-0.9737217	99.945	-46.266	-294.559	B5-03822-P02-CH0	3358896	OK	0.670865	0.444309	-0.5937421	0	-77.827	-98.712	0.387	B5-03822-P02-CH1	3358896	OK	0.7778641	-0.1737577	-0.6039336	0	-77.263	-79.169	4.649	B5-03822-P03-CH0	3358896	OK	0.744006	-0.2958482	-0.5991068	0	-87.175	-59.397	-0.407	B5-03822-P03-CH1	3358896	OK	0.8042625	-0.5938734	0.0218243	0	-97.84	-30.845	4.857	B5-03822-P04-CH0	3358896	OK	0.7793985	-0.3136038	0.5423935	0	-122.689	-38.864	12.358	B5-03822-P04-CH1	3358896	OK	0.8222278	-0.5689077	0.0168926	0	-108.886	-51.946	8.187	NA
0.759369503899121	B5-03822-P01-CH0	3358904	OK	0.2066791	0.0521399	0.0793056	-0.9737945	100.045	-46.406	-294.54	B5-03822-P02-CH0	3358904	OK	0.6681416	0.4435439	-0.5973739	0	-79.729	-99.4	3.232	B5-03822-P02-CH1	3358904	OK	0.7801014	-0.1760382	-0.6003769	0	-77.89	-79.507	4.124	B5-03822-P03-CH0	3358904	OK	0.7406816	-0.2891167	-0.606467	0	-89.312	-60.275	2.407	B5-03822-P03-CH1	3358904	OK	0.8039784	-0.5942062	0.0231881	0	-97.855	-31.371	5.116	B5-03822-P04-CH0	3358904	OK	0.7790392	-0.3162495	0.5413726	0	-122.662	-38.252	11.472	B5-03822-P04-CH1	3358904	OK	0.8219691	-0.5692655	0.0174255	0	-108.966	-52.203	8.664	NA
0.769361207897793	B5-03822-P01-CH0	3358912	OK	0.2065217	0.0518925	0.0792845	-0.9738429	99.914	-46.423	-294.503	B5-03822-P02-CH0	3358912	OK	0.667086	0.4414683	-0.600085	0	-79.186	-98.205	4.573	B5-03822-P02-CH1	3358912	OK	0.7841062	-0.1787766	-0.5943201	0	-77.513	-79.889	4.268	B5-03822-P03-CH0	3358912	OK	0.7409836	-0.2802245	-0.6102602	0	-89.784	-59.425	1.444	B5-03822-P03-CH1	3358912	OK	0.8043128	-0.5937054	0.0243867	0	-97.862	-31.424	5.005	B5-03822-P04-CH0	3358912	OK	0.7789421	-0.3185336	0.5401718	0	-122.474	-37.898	11.327	B5-03822-P04-CH1	3358912	OK	0.821919	-0.5693157	0.0181338	0	-108.69	-52.381	8.705	NA
0.779352911896466	B5-03822-P01-CH0	3358920	OK	0.2059738	0.0520431	0.0780694	-0.974049	99.911	-46.563	-294.341	B5-03822-P02-CH0	3358920	OK	0.6674809	0.437473	-0.6025667	0	-79.236	-98.078	5.032	B5-03822-P02-CH1	3358920	OK	0.786108	-0.1781109	-0.5918705	0	-79.41	-79.832	2.584	B5-03822-P03-CH0	3358920	OK	0.7415445	-0.2704385	-0.6139827	0	-89.497	-59.404	1.278	B5-03822-P03-CH1	3358920	OK	0.8038967	-0.5942403	0.0250723	0	-97.861	-31.433	4.749	B5-03822-P04-CH0	3358920	OK	0.7786333	-0.3216008	0.5387979	0	-122.51	-37.875	11.437	B5-03822-P04-CH1	3358920	OK	0.821129	-0.570451	0.0182431	0	-108.586	-52.572	8.718	NA
0.789344615895139	B5-03822-P01-CH0	3358928	OK	0.2059768	0.0519797	0.0777589	-0.9740766	99.95	-46.675	-294.383	B5-03822-P02-CH0	3358928	OK	0.6709235	0.4361758	-0.5996768	0	-78.246	-98.38	1.962	B5-03822-P02-CH1	3358928	OK	0.7902673	-0.1785312	-0.5861776	0	-79.819	-80.195	4.235	B5-03822-P03-CH0	3358928	OK	0.7413418	-0.2589143	-0.6191734	0	-90.053	-60.331	2.237	B5-03822-P03-CH1	3358928	OK	0.803892	-0.5941921	0.0263313	0	-97.901	-31.888	5.226	B5-03822-P04-CH0	3358928	OK	0.7784882	-0.3243589	0.5373522	0	-122.476	-37.695	11.252	B5-03822-P04-CH1	3358928	OK	0.82086	-0.5708285	0.0185394	0	-108.486	-52.863	8.837	NA
0.799336319893811	B5-03822-P01-CH0	3358936	OK	0.2060669	0.0524523	0.0782095	-0.9739961	100.157	-46.528	-294.32	B5-03822-P02-CH0	3358936	OK	0.6724115	0.4226759	-0.6076248	0	-78.212	-98.404	-0.822	B5-03822-P02-CH1	3358936	OK	0.7938642	-0.1777857	-0.5815255	0	-79.937	-80.207	5.69	B5-03822-P03-CH0	3358936	OK	0.744566	-0.2513084	-0.618438	0	-89.252	-59.919	1.76	B5-03822-P03-CH1	3358936	OK	0.8043295	-0.5935631	0.0271461	0	-98.276	-31.951	5.355	B5-03822-P04-CH0	3358936	OK	0.7788622	-0.3261973	0.5356948	0	-122.672	-37.679	11.46	B5-03822-P04-CH1	3358936	OK	0.8210272	-0.5705873	0.0185591	0	-108.808	-52.891	8.801	NA
0.809328023892484	B5-03822-P01-CH0	3358944	OK	0.2062307	0.0519672	0.0797265	-0.9738645	100.039	-46.365	-294.387	B5-03822-P02-CH0	3358944	OK	0.6733715	0.4119959	-0.613865	0	-77.706	-97.798	-0.89	B5-03822-P02-CH1	3358944	OK	0.7985509	-0.1793851	-0.5745759	0	-79.005	-80.235	5.976	B5-03822-P03-CH0	3358944	OK	0.7457043	-0.2488869	-0.6180456	0	-90.236	-59.57	1.587	B5-03822-P03-CH1	3358944	OK	0.8052024	-0.5923374	0.0280255	0	-98.197	-32.026	5.389	B5-03822-P04-CH0	3358944	OK	0.7790671	-0.3277903	0.5344231	0	-122.526	-37.733	11.418	B5-03822-P04-CH1	3358944	OK	0.8217364	-0.5695611	0.018696	0	-108.72	-52.895	8.663	NA
0.819319727891156	B5-03822-P01-CH0	3358952	OK	0.2063147	0.0518109	0.0799298	-0.9738383	100.043	-46.448	-294.395	B5-03822-P02-CH0	3358952	OK	0.6735639	0.4020244	-0.6202323	0	-78.367	-98.392	-0.061	B5-03822-P02-CH1	3358952	OK	0.7986382	-0.1808047	-0.5740093	0	-80.341	-80.126	5.087	B5-03822-P03-CH0	3358952	OK	0.7488568	-0.2452157	-0.615697	0	-89.678	-58.855	1.708	B5-03822-P03-CH1	3358952	OK	0.8054831	-0.5919276	0.0286144	0	-98.162	-32.058	5.091	B5-03822-P04-CH0	3358952	OK	0.7790983	-0.3289572	0.53366	0	-122.538	-38.421	12.114	B5-03822-P04-CH1	3358952	OK	0.8219966	-0.5691906	0.0185344	0	-108.711	-52.792	8.504	NA
0.829311431889829	B5-03822-P01-CH0	3358960	OK	0.2061287	0.0517841	0.0795326	-0.9739117	100.032	-46.467	-294.429	B5-03822-P02-CH0	3358960	OK	0.6745121	0.3925507	-0.6252498	0	-78.388	-98.912	0.346	B5-03822-P02-CH1	3358960	OK	0.7988326	-0.1809692	-0.5736869	0	-80.839	-80.29	7.415	B5-03822-P03-CH0	3358960	OK	0.7511332	-0.2438319	-0.6134696	0	-89.609	-59.433	3.103	B5-03822-P03-CH1	3358960	OK	0.8053621	-0.5920753	0.0289609	0	-98.045	-32.062	4.911	B5-03822-P04-CH0	3358960	OK	0.7790249	-0.3299702	0.5331416	0	-122.682	-39.042	12.989	B5-03822-P04-CH1	3358960	OK	0.8215666	-0.5698145	0.0184334	0	-108.706	-52.749	8.155	NA
0.839303135888502	B5-03822-P01-CH0	3358968	OK	0.2062178	0.052176	0.0795635	-0.9738694	100.149	-46.441	-294.435	B5-03822-P02-CH0	3358968	OK	0.675419	0.3863559	-0.6281228	0	-76.981	-97.39	-0.308	B5-03822-P02-CH1	3358968	OK	0.800246	-0.181035	-0.5716928	0	-80.778	-80.11	5.307	B5-03822-P03-CH0	3358968	OK	0.7514911	-0.2405172	-0.6143391	0	-90.419	-59.986	4.856	B5-03822-P03-CH1	3358968	OK	0.8054724	-0.5919151	0.0291671	0	-98.195	-32.251	5.075	B5-03822-P04-CH0	3358968	OK	0.7791533	-0.3309005	0.5323767	0	-122.855	-39.407	13.305	B5-03822-P04-CH1	3358968	OK	0.8215355	-0.5698638	0.0182919	0	-108.636	-52.744	8.423	NA
0.849294839887174	B5-03822-P01-CH0	3358976	OK	0.2063435	0.0527664	0.0793806	-0.9738259	100.363	-46.422	-294.374	B5-03822-P02-CH0	3358976	OK	0.6735367	0.3779633	-0.6352103	0	-77.717	-97.999	-0.182	B5-03822-P02-CH1	3358976	OK	0.8031886	-0.1813452	-0.5674522	0	-80.031	-79.843	5.219	B5-03822-P03-CH0	3358976	OK	0.7514724	-0.2368811	-0.6157732	0	-91.875	-59.259	3.976	B5-03822-P03-CH1	3358976	OK	0.8056321	-0.591707	0.0289779	0	-98.508	-32.354	5.331	B5-03822-P04-CH0	3358976	OK	0.779195	-0.3323511	0.5314113	0	-122.837	-39.324	13.409	B5-03822-P04-CH1	3358976	OK	0.8212901	-0.5702179	0.0182765	0	-108.591	-52.833	8.508	NA
0.859286543885847	B5-03822-P01-CH0	3358984	OK	0.2064328	0.0527873	0.0795456	-0.9737923	100.388	-46.45	-294.327	B5-03822-P02-CH0	3358984	OK	0.672092	0.3672823	-0.6429589	0	-78.365	-98.962	0.083	B5-03822-P02-CH1	3358984	OK	0.8028986	-0.1817138	-0.5677446	0	-80.897	-80.403	7.036	B5-03822-P03-CH0	3358984	OK	0.7513727	-0.2349873	-0.6166199	0	-92.951	-59.674	4.533	B5-03822-P03-CH1	3358984	OK	0.8060842	-0.5911104	0.0285777	0	-98.471	-32.262	5.269	B5-03822-P04-CH0	3358984	OK	0.7793881	-0.3329104	0.5307776	0	-122.814	-39.574	13.699	B5-03822-P04-CH1	3358984	OK	0.8211792	-0.5703772	0.0182903	0	-108.547	-52.924	8.319	NA
0.86927824788452	B5-03822-P01-CH0	3358992	OK	0.2064296	0.0531392	0.0797581	-0.9737565	100.582	-46.378	-294.437	B5-03822-P02-CH0	3358992	OK	0.6750982	0.3576732	-0.6452227	0	-76.638	-98.412	-3.525	B5-03822-P02-CH1	3358992	OK	0.8035336	-0.1808802	-0.5671121	0	-81.085	-80.461	7.576	B5-03822-P03-CH0	3358992	OK	0.7549699	-0.236911	-0.6114684	0	-91.753	-59.314	2.997	B5-03822-P03-CH1	3358992	OK	0.8064108	-0.5906749	0.0283671	0	-98.609	-32.349	5.401	B5-03822-P04-CH0	3358992	OK	0.7798106	-0.3332716	0.5299297	0	-123.059	-39.77	14.13	B5-03822-P04-CH1	3358992	OK	0.8211053	-0.5704965	0.0178839	0	-108.713	-52.972	8.463	NA
0.879269951883192	B5-03822-P01-CH0	3359000	OK	0.2067962	0.0534083	0.0801269	-0.9736337	100.732	-46.363	-294.548	B5-03822-P02-CH0	3359000	OK	0.6733316	0.3480273	-0.6523048	0	-76.695	-96.944	-2.715	B5-03822-P02-CH1	3359000	OK	0.8053454	-0.1809351	-0.5645186	0	-80.322	-80.518	9.227	B5-03822-P03-CH0	3359000	OK	0.7542483	-0.2407762	-0.6108488	0	-92.072	-59.334	3.777	B5-03822-P03-CH1	3359000	OK	0.8067522	-0.5901995	0.0285558	0	-98.822	-32.731	5.959	B5-03822-P04-CH0	3359000	OK	0.7798317	-0.3346781	0.5290114	0	-122.891	-39.364	13.482	B5-03822-P04-CH1	3359000	OK	0.8213296	-0.5701803	0.0176698	0	-108.891	-52.954	8.55	NA
0.889261655881865	B5-03822-P01-CH0	3359008	OK	0.2069201	0.053322	0.0812004	-0.9735232	100.699	-46.226	-294.532	B5-03822-P02-CH0	3359008	OK	0.6721613	0.3369487	-0.6592911	0	-77.653	-98.943	-0.585	B5-03822-P02-CH1	3359008	OK	0.8047184	-0.1824246	-0.5649332	0	-81.076	-80.076	8.236	B5-03822-P03-CH0	3359008	OK	0.752521	-0.2473455	-0.6103543	0	-92.606	-59.197	3.605	B5-03822-P03-CH1	3359008	OK	0.8072885	-0.5894497	0.0288837	0	-98.789	-33.067	6.298	B5-03822-P04-CH0	3359008	OK	0.7804312	-0.3347698	0.5280685	0	-122.829	-39.179	13.678	B5-03822-P04-CH1	3359008	OK	0.8220347	-0.5691706	0.0174297	0	-108.843	-52.625	8.254	NA
0.899253359880538	B5-03822-P01-CH0	3359016	OK	0.2068382	0.0531466	0.0804907	-0.9736091	100.602	-46.402	-294.419	B5-03822-P02-CH0	3359016	OK	0.6710455	0.3272959	-0.6652634	0	-78.202	-99.149	1.228	B5-03822-P02-CH1	3359016	OK	0.8044231	-0.1877798	-0.5635976	0	-81.263	-80.644	6.781	B5-03822-P03-CH0	3359016	OK	0.7526157	-0.2548024	-0.6071618	0	-92.08	-59.271	3.345	B5-03822-P03-CH1	3359016	OK	0.8070932	-0.5897195	0.0288347	0	-98.619	-33.144	6.144	B5-03822-P04-CH0	3359016	OK	0.7802307	-0.3356978	0.5277756	0	-122.801	-39.32	13.505	B5-03822-P04-CH1	3359016	OK	0.821561	-0.5698636	0.0171159	0	-108.575	-52.642	8.156	NA
0.90924506387921	B5-03822-P01-CH0	3359024	OK	0.2068233	0.0539025	0.079169	-0.9736791	100.863	-46.503	-294.406	B5-03822-P02-CH0	3359024	OK	0.6726333	0.3208701	-0.6667884	0	-77.144	-97.715	-0.875	B5-03822-P02-CH1	3359024	OK	0.8052566	-0.1894768	-0.5618365	0	-80.704	-80.106	6.523	B5-03822-P03-CH0	3359024	OK	0.7519599	-0.2646575	-0.6037489	0	-92.348	-59.646	2.48	B5-03822-P03-CH1	3359024	OK	0.8066441	-0.5903455	0.0285911	0	-98.716	-33.125	6.123	B5-03822-P04-CH0	3359024	OK	0.7801419	-0.3365656	0.527354	0	-123.018	-39.55	13.936	B5-03822-P04-CH1	3359024	OK	0.8209262	-0.5707915	0.0166518	0	-108.762	-52.574	8.42	NA
0.919236767877883	B5-03822-P01-CH0	3359032	OK	0.2068001	0.0540675	0.0791888	-0.9736732	100.881	-46.42	-294.385	B5-03822-P02-CH0	3359032	OK	0.6737894	0.3136397	-0.6690575	0	-76.183	-97.956	-2.459	B5-03822-P02-CH1	3359032	OK	0.8027429	-0.184902	-0.5669349	0	-81.26	-80.284	6.729	B5-03822-P03-CH0	3359032	OK	0.7521211	-0.2717034	-0.6004092	0	-92.658	-58.811	1.916	B5-03822-P03-CH1	3359032	OK	0.8067158	-0.5902512	0.0285138	0	-98.662	-33.06	5.965	B5-03822-P04-CH0	3359032	OK	0.7802531	-0.3370749	0.5268639	0	-123.057	-39.478	14.085	B5-03822-P04-CH1	3359032	OK	0.8207931	-0.570982	0.0166816	0	-108.638	-52.591	8.554	NA
0.929228471876556	B5-03822-P01-CH0	3359040	OK	0.2069924	0.0538135	0.0801864	-0.9735648	100.848	-46.353	-294.441	B5-03822-P02-CH0	3359040	OK	0.6718731	0.3054263	-0.6747601	0	-75.937	-96.693	-1.23	B5-03822-P02-CH1	3359040	OK	0.8035023	-0.1858284	-0.5655544	0	-81.195	-80.19	6.639	B5-03822-P03-CH0	3359040	OK	0.7534277	-0.2766055	-0.59652	0	-92.21	-58.657	2.058	B5-03822-P03-CH1	3359040	OK	0.807661	-0.5889629	0.0283988	0	-98.737	-32.929	6.249	B5-03822-P04-CH0	3359040	OK	0.7806024	-0.3374612	0.5260987	0	-122.924	-39.244	14.156	B5-03822-P04-CH1	3359040	OK	0.8215149	-0.5699467	0.0165523	0	-108.582	-52.394	8.456	NA
0.939220175875228	B5-03822-P01-CH0	3359048	OK	0.2070683	0.0537342	0.0800473	-0.9735645	100.872	-46.403	-294.563	B5-03822-P02-CH0	3359048	OK	0.6700978	0.2973239	-0.6801231	0	-76.539	-97.216	-0.1	B5-03822-P02-CH1	3359048	OK	0.8035972	-0.1872002	-0.5649669	0	-81.271	-80.252	7.194	B5-03822-P03-CH0	3359048	OK	0.7571328	-0.2822959	-0.5891171	0	-90.53	-58.892	2.068	B5-03822-P03-CH1	3359048	OK	0.8078106	-0.5887551	0.0284498	0	-98.441	-32.842	6.178	B5-03822-P04-CH0	3359048	OK	0.780642	-0.3379969	0.5256958	0	-122.967	-39.23	14.205	B5-03822-P04-CH1	3359048	OK	0.8214606	-0.5700338	0.0162467	0	-108.759	-52.331	8.243	NA
0.949211879873901	B5-03822-P01-CH0	3359056	OK	0.2068978	0.0536125	0.0799438	-0.9736159	100.85	-46.47	-294.607	B5-03822-P02-CH0	3359056	OK	0.6707582	0.2917316	-0.6818916	0	-75.809	-96.983	-0.797	B5-03822-P02-CH1	3359056	OK	0.8037972	-0.1884212	-0.5642761	0	-81.224	-80.275	7.544	B5-03822-P03-CH0	3359056	OK	0.7567262	-0.2860782	-0.5878135	0	-91.813	-58.232	1.983	B5-03822-P03-CH1	3359056	OK	0.8079783	-0.58854	0.0281372	0	-98.187	-32.692	5.98	B5-03822-P04-CH0	3359056	OK	0.7807636	-0.3381102	0.5254424	0	-123.221	-39.5	14.35	B5-03822-P04-CH1	3359056	OK	0.8214464	-0.5700661	0.0158282	0	-108.846	-52.166	8.037	NA
0.959203583872573	B5-03822-P01-CH0	3359064	OK	0.2065555	0.0536981	0.0793796	-0.97373	100.83	-46.509	-294.595	B5-03822-P02-CH0	3359064	OK	0.6700837	0.2857973	-0.6850604	0	-76.066	-98.405	1.927	B5-03822-P02-CH1	3359064	OK	0.8037852	-0.1897868	-0.5638353	0	-81.203	-80.2	7.623	B5-03822-P03-CH0	3359064	OK	0.7562947	-0.2879744	-0.5874428	0	-92.206	-58.996	3.662	B5-03822-P03-CH1	3359064	OK	0.8078064	-0.5887967	0.0276984	0	-98.165	-32.551	5.729	B5-03822-P04-CH0	3359064	OK	0.7805095	-0.3391772	0.5251322	0	-123.291	-39.436	14.348	B5-03822-P04-CH1	3359064	OK	0.8211851	-0.5704616	0.0151229	0	-108.9	-51.951	8.009	NA
0.969195287871246	B5-03822-P01-CH0	3359072	OK	0.2065942	0.0539572	0.0787423	-0.9737593	100.892	-46.604	-294.607	B5-03822-P02-CH0	3359072	OK	0.6699811	0.2799749	-0.6875605	0	-75.599	-97.376	1.708	B5-03822-P02-CH1	3359072	OK	0.8035755	-0.1920544	-0.5633663	0	-81.153	-80.316	7.765	B5-03822-P03-CH0	3359072	OK	0.755524	-0.2892279	-0.5878186	0	-93.008	-59.484	5.679	B5-03822-P03-CH1	3359072	OK	0.80756	-0.589143	0.0275215	0	-98.229	-32.696	5.891	B5-03822-P04-CH0	3359072	OK	0.7801773	-0.3403777	0.5248489	0	-123.174	-39.244	14.246	B5-03822-P04-CH1	3359072	OK	0.8209054	-0.5708721	0.0148115	0	-109.027	-51.88	8.018	NA
0.979186991869919	B5-03822-P01-CH0	3359080	OK	0.2065875	0.0536419	0.0790358	-0.9737543	100.71	-46.544	-294.502	B5-03822-P02-CH0	3359080	OK	0.6708301	0.2761807	-0.6882668	0	-75.432	-97.108	-0.493	B5-03822-P02-CH1	3359080	OK	0.803529	-0.1936545	-0.5628846	0	-81.097	-80.087	7.257	B5-03822-P03-CH0	3359080	OK	0.7586982	-0.2887836	-0.5839358	0	-92.012	-58.758	3.59	B5-03822-P03-CH1	3359080	OK	0.8078349	-0.5887752	0.0273225	0	-98.068	-32.58	5.593	B5-03822-P04-CH0	3359080	OK	0.780252	-0.3403794	0.5247367	0	-123.251	-39.253	14.232	B5-03822-P04-CH1	3359080	OK	0.8211695	-0.5704924	0.0147995	0	-108.841	-51.602	7.826	NA
0.989178695868591	B5-03822-P01-CH0	3359088	OK	0.2062203	0.054159	0.0771462	-0.9739551	100.787	-46.709	-294.423	B5-03822-P02-CH0	3359088	OK	0.6712692	0.2705089	-0.6900888	0	-76.173	-97.025	0.296	B5-03822-P02-CH1	3359088	OK	0.803057	-0.1956031	-0.5628844	0	-81.023	-80.031	7.452	B5-03822-P03-CH0	3359088	OK	0.7588145	-0.2914024	-0.582482	0	-92.758	-59.305	3.746	B5-03822-P03-CH1	3359088	OK	0.8070469	-0.5899031	0.026263	0	-98.222	-32.34	5.354	B5-03822-P04-CH0	3359088	OK	0.7794466	-0.3420465	0.5248496	0	-123.349	-39.386	14.054	B5-03822-P04-CH1	3359088	OK	0.8199825	-0.572208	0.0143759	0	-108.854	-51.733	8.185	NA
0.999170399867264	B5-03822-P01-CH0	3359096	OK	0.2061619	0.0540421	0.0772494	-0.9739657	100.783	-46.726	-294.739	B5-03822-P02-CH0	3359096	OK	0.6731698	0.2666487	-0.6897397	0	-75.558	-96.678	0.254	B5-03822-P02-CH1	3359096	OK	0.8028606	-0.1969628	-0.5626905	0	-80.968	-79.93	7.707	B5-03822-P03-CH0	3359096	OK	0.7618688	-0.293548	-0.5773954	0	-92.461	-58.664	4.446	B5-03822-P03-CH1	3359096	OK	0.8072435	-0.5896547	0.0257926	0	-98.251	-32.35	5.462	B5-03822-P04-CH0	3359096	OK	0.7794346	-0.3416715	0.5251117	0	-123.29	-39.953	15.24	B5-03822-P04-CH1	3359096	OK	0.8201201	-0.5720086	0.0144635	0	-108.781	-51.732	8.457	NA
1.00916210386594	B5-03822-P01-CH0	3359104	OK	0.2060301	0.0536423	0.0773824	-0.9740052	100.699	-46.843	-294.866	B5-03822-P02-CH0	3359104	OK	0.6759158	0.2617673	-0.6889236	0	-74.6	-97.308	-1.24	B5-03822-P02-CH1	3359104	OK	0.8027693	-0.198394	-0.5623177	0	-80.895	-79.887	7.562	B5-03822-P03-CH0	3359104	OK	0.7647292	-0.2967998	-0.5719258	0	-92.34	-59.191	4.578	B5-03822-P03-CH1	3359104	OK	0.8074674	-0.5893578	0.0255699	0	-98.093	-32.502	5.697	B5-03822-P04-CH0	3359104	OK	0.7791655	-0.3419462	0.5253322	0	-123.161	-40.196	15.333	B5-03822-P04-CH1	3359104	OK	0.8201822	-0.5719202	0.01444	0	-108.573	-51.8	8.43	NA
1.01915380786461	B5-03822-P01-CH0	3359112	OK	0.2059174	0.0535074	0.0775377	-0.9740241	100.726	-46.894	-295.047	B5-03822-P02-CH0	3359112	OK	0.6753401	0.2584398	-0.6907421	0	-75.16	-97.676	-0.508	B5-03822-P02-CH1	3359112	OK	0.8026553	-0.2079513	-0.5590176	0	-80.409	-79.225	6.09	B5-03822-P03-CH0	3359112	OK	0.7662458	-0.2987183	-0.5688891	0	-92.539	-59.396	3.852	B5-03822-P03-CH1	3359112	OK	0.807665	-0.5890938	0.0254099	0	-98.009	-32.819	6.339	B5-03822-P04-CH0	3359112	OK	0.7791916	-0.3423787	0.5250117	0	-123.138	-40.124	15.319	B5-03822-P04-CH1	3359112	OK	0.8203183	-0.5717403	0.0138171	0	-108.765	-51.795	8.775	NA
1.02914551186328	B5-03822-P01-CH0	3359120	OK	0.2059943	0.0534405	0.0773458	-0.9740267	100.704	-46.947	-295.002	B5-03822-P02-CH0	3359120	OK	0.6768152	0.2561272	-0.6901594	0	-74.305	-97.257	-1.544	B5-03822-P02-CH1	3359120	OK	0.8014418	-0.212383	-0.5590926	0	-81.02	-80.09	6.146	B5-03822-P03-CH0	3359120	OK	0.7661374	-0.2971566	-0.5698521	0	-93.479	-58.928	4.893	B5-03822-P03-CH1	3359120	OK	0.8075336	-0.5892762	0.0253578	0	-97.903	-33.06	6.357	B5-03822-P04-CH0	3359120	OK	0.7791935	-0.3428665	0.5246904	0	-123.173	-39.868	14.826	B5-03822-P04-CH1	3359120	OK	0.8201374	-0.5719962	0.0139673	0	-108.7	-51.924	8.918	NA
1.03913721586195	B5-03822-P01-CH0	3359128	OK	0.2061559	0.0537239	0.0773488	-0.9739767	100.831	-46.932	-294.984	B5-03822-P02-CH0	3359128	OK	0.6748809	0.2535076	-0.6930149	0	-74.988	-96.946	-0.034	B5-03822-P02-CH1	3359128	OK	0.8020525	-0.2118034	-0.5584364	0	-80.867	-79.94	6.412	B5-03822-P03-CH0	3359128	OK	0.7663148	-0.2971053	-0.5696402	0	-93.639	-59.264	6.031	B5-03822-P03-CH1	3359128	OK	0.8077352	-0.5890162	0.0249743	0	-98.375	-33.189	6.874	B5-03822-P04-CH0	3359128	OK	0.7792923	-0.343106	0.5243871	0	-123.159	-39.84	14.987	B5-03822-P04-CH1	3359128	OK	0.8200761	-0.5720817	0.0140597	0	-108.673	-52.039	9.142	NA
1.04912891986063	B5-03822-P01-CH0	3359136	OK	0.2065012	0.0533473	0.0779723	-0.9738745	100.71	-46.817	-295.11	B5-03822-P02-CH0	3359136	OK	0.6731443	0.2515746	-0.6954042	0	-75.644	-95.7	0.764	B5-03822-P02-CH1	3359136	OK	0.8025363	-0.2053704	-0.5601414	0	-80.768	-79.864	6.831	B5-03822-P03-CH0	3359136	OK	0.7685466	-0.2938939	-0.5682979	0	-92.832	-59.052	6.369	B5-03822-P03-CH1	3359136	OK	0.8080866	-0.5885294	0.0250811	0	-98.454	-33.325	7.125	B5-03822-P04-CH0	3359136	OK	0.779452	-0.3424504	0.5245782	0	-122.954	-40.092	15.482	B5-03822-P04-CH1	3359136	OK	0.8204764	-0.5715048	0.0141667	0	-108.618	-51.972	9.23	NA
1.0591206238593	B5-03822-P01-CH0	3359144	OK	0.2068871	0.0534732	0.0785536	-0.973739	100.904	-46.781	-295.236	B5-03822-P02-CH0	3359144	OK	0.6746513	0.2493721	-0.6947368	0	-75.626	-96.433	-0.892	B5-03822-P02-CH1	3359144	OK	0.8022393	-0.2065889	-0.5601189	0	-81.116	-79.832	6.832	B5-03822-P03-CH0	3359144	OK	0.7690517	-0.2929473	-0.5681033	0	-93.007	-60.261	7.58	B5-03822-P03-CH1	3359144	OK	0.8085439	-0.5878968	0.0251818	0	-98.551	-33.46	7.347	B5-03822-P04-CH0	3359144	OK	0.7798276	-0.3422396	0.5241573	0	-122.979	-40.053	15.382	B5-03822-P04-CH1	3359144	OK	0.8208314	-0.5709939	0.0142021	0	-108.648	-52.168	9.689	NA
1.06911232785797	B5-03822-P01-CH0	3359152	OK	0.207045	0.0529765	0.0790584	-0.9736917	100.837	-46.827	-295.435	B5-03822-P02-CH0	3359152	OK	0.6761498	0.2465916	-0.6942723	0	-75.649	-97.945	-1.241	B5-03822-P02-CH1	3359152	OK	0.8026462	-0.2073043	-0.559271	0	-81.096	-79.816	6.654	B5-03822-P03-CH0	3359152	OK	0.7731416	-0.290346	-0.5638717	0	-91.065	-60.448	8.174	B5-03822-P03-CH1	3359152	OK	0.80895	-0.587338	0.0251794	0	-98.376	-33.555	7.514	B5-03822-P04-CH0	3359152	OK	0.7800902	-0.3413286	0.5243606	0	-122.925	-40.569	16.005	B5-03822-P04-CH1	3359152	OK	0.8211184	-0.570576	0.0144081	0	-108.329	-52.315	9.874	NA
1.07910403185665	B5-03822-P01-CH0	3359160	OK	0.2070295	0.0533212	0.0783607	-0.9737326	101.011	-46.921	-295.464	B5-03822-P02-CH0	3359160	OK	0.6747191	0.2533577	-0.6932273	0	-75.698	-97.924	-0.17	B5-03822-P02-CH1	3359160	OK	0.8025749	-0.2083724	-0.5589762	0	-81.248	-79.95	6.824	B5-03822-P03-CH0	3359160	OK	0.7722418	-0.289587	-0.5654927	0	-92.395	-59.895	6.795	B5-03822-P03-CH1	3359160	OK	0.8085569	-0.5878843	0.0250562	0	-98.438	-33.767	7.683	B5-03822-P04-CH0	3359160	OK	0.7800072	-0.3413058	0.5244988	0	-122.857	-41.067	16.705	B5-03822-P04-CH1	3359160	OK	0.8205831	-0.5713575	0.0139286	0	-108.595	-52.588	10.131	NA
1.08909573585532	B5-03822-P01-CH0	3359168	OK	0.2072031	0.0530101	0.0791659	-0.9736475	101.003	-46.857	-295.644	B5-03822-P02-CH0	3359168	OK	0.6751185	0.2510948	-0.6936616	0	-75.566	-97.88	-0.29	B5-03822-P02-CH1	3359168	OK	0.8030524	-0.2085783	-0.5582132	0	-81.21	-80.024	6.809	B5-03822-P03-CH0	3359168	OK	0.7729247	-0.2958883	-0.561282	0	-92.638	-61.473	6.585	B5-03822-P03-CH1	3359168	OK	0.8091318	-0.58709	0.0251187	0	-98.329	-33.886	8.066	B5-03822-P04-CH0	3359168	OK	0.7803939	-0.3408912	0.5241932	0	-122.796	-41.013	16.716	B5-03822-P04-CH1	3359168	OK	0.8210731	-0.5706579	0.0137308	0	-108.553	-52.521	10.033	NA
1.09908743985399	B5-03822-P01-CH0	3359176	OK	0.2075218	0.053189	0.0793225	-0.9735572	101.112	-46.787	-295.544	B5-03822-P02-CH0	3359176	OK	0.6751507	0.2492805	-0.6942844	0	-75.65	-97.847	-0.347	B5-03822-P02-CH1	3359176	OK	0.8032048	-0.2086243	-0.5579767	0	-81.309	-79.993	6.608	B5-03822-P03-CH0	3359176	OK	0.7745389	-0.2981301	-0.5578601	0	-92.678	-61.243	5.918	B5-03822-P03-CH1	3359176	OK	0.809233	-0.5869488	0.0251596	0	-98.329	-33.96	8.099	B5-03822-P04-CH0	3359176	OK	0.780634	-0.3409134	0.5238211	0	-122.813	-40.633	16.079	B5-03822-P04-CH1	3359176	OK	0.8211773	-0.5705071	0.0137653	0	-108.506	-52.506	9.896	NA
1.10907914385266	B5-03822-P01-CH0	3359184	OK	0.2076686	0.0533403	0.0791767	-0.9735295	101.149	-46.708	-295.512	B5-03822-P02-CH0	3359184	OK	0.6753124	0.2482401	-0.6944998	0	-75.672	-97.653	-0.337	B5-03822-P02-CH1	3359184	OK	0.8032892	-0.2084248	-0.5579297	0	-81.397	-80.024	6.628	B5-03822-P03-CH0	3359184	OK	0.7762902	-0.2998809	-0.5544772	0	-92.803	-60.089	4.644	B5-03822-P03-CH1	3359184	OK	0.8092474	-0.5869429	0.024832	0	-98.383	-33.92	8.236	B5-03822-P04-CH0	3359184	OK	0.7808109	-0.3409935	0.5235052	0	-122.672	-40.438	16.235	B5-03822-P04-CH1	3359184	OK	0.8211305	-0.5705783	0.0136021	0	-108.576	-52.405	9.796	NA
1.11907084785134	B5-03822-P01-CH0	3359192	OK	0.2078477	0.0531606	0.0797215	-0.9734566	101.127	-46.66	-295.343	B5-03822-P02-CH0	3359192	OK	0.6753844	0.2473243	-0.6947565	0	-75.644	-97.515	-0.646	B5-03822-P02-CH1	3359192	OK	0.8037937	-0.2067125	-0.5578401	0	-81.414	-79.777	6.223	B5-03822-P03-CH0	3359192	OK	0.7757354	-0.3011046	-0.5545906	0	-94.186	-59.794	4.518	B5-03822-P03-CH1	3359192	OK	0.8097163	-0.5863037	0.0246453	0	-98.534	-33.811	8.034	B5-03822-P04-CH0	3359192	OK	0.7812044	-0.3402118	0.5234268	0	-122.684	-40.726	16.397	B5-03822-P04-CH1	3359192	OK	0.8214982	-0.5700435	0.0138248	0	-108.29	-52.327	9.343	NA
1.12906255185001	B5-03822-P01-CH0	3359200	OK	0.208027	0.0535076	0.0796224	-0.9734074	101.29	-46.568	-295.387	B5-03822-P02-CH0	3359200	OK	0.6753278	0.246659	-0.695048	0	-75.795	-97.668	-0.408	B5-03822-P02-CH1	3359200	OK	0.8039451	-0.2055701	-0.5580441	0	-81.532	-79.794	6.33	B5-03822-P03-CH0	3359200	OK	0.7776197	-0.3027241	-0.5510587	0	-93.421	-60.579	6.448	B5-03822-P03-CH1	3359200	OK	0.8097415	-0.5862744	0.0245162	0	-98.653	-33.771	8.054	B5-03822-P04-CH0	3359200	OK	0.7813912	-0.3394806	0.5236227	0	-122.71	-41.241	17.159	B5-03822-P04-CH1	3359200	OK	0.8215069	-0.5700381	0.0135239	0	-108.4	-52.347	9.505	NA
1.13905425584868	B5-03822-P01-CH0	3359208	OK	0.2080683	0.0530557	0.0802483	-0.9733719	101.213	-46.561	-295.51	B5-03822-P02-CH0	3359208	OK	0.6758032	0.2464936	-0.6946444	0	-75.561	-97.61	-0.886	B5-03822-P02-CH1	3359208	OK	0.8045945	-0.2037322	-0.5577821	0	-81.491	-79.823	6.235	B5-03822-P03-CH0	3359208	OK	0.779599	-0.3030379	-0.5480816	0	-93.25	-60.669	6.126	B5-03822-P03-CH1	3359208	OK	0.8099918	-0.5859316	0.0244444	0	-98.455	-33.802	7.647	B5-03822-P04-CH0	3359208	OK	0.7815584	-0.3386399	0.5239174	0	-122.671	-41.62	17.297	B5-03822-P04-CH1	3359208	OK	0.8219713	-0.5693709	0.0134142	0	-108.201	-52.351	9.569	NA
1.14904595984735	B5-03822-P01-CH0	3359216	OK	0.2078242	0.0530753	0.0804506	-0.9734063	101.235	-46.52	-295.446	B5-03822-P02-CH0	3359216	OK	0.6760332	0.24694	-0.6942621	0	-75.51	-97.645	-1.01	B5-03822-P02-CH1	3359216	OK	0.8050904	-0.202302	-0.5575871	0	-81.488	-79.925	6.187	B5-03822-P03-CH0	3359216	OK	0.7812393	-0.3033638	-0.5455599	0	-93.083	-60.409	4.425	B5-03822-P03-CH1	3359216	OK	0.8101226	-0.5857683	0.0240159	0	-98.561	-33.868	7.789	B5-03822-P04-CH0	3359216	OK	0.7815916	-0.3394819	0.5233226	0	-122.525	-41.003	16.618	B5-03822-P04-CH1	3359216	OK	0.8221159	-0.5691767	0.0127791	0	-108.276	-52.338	9.679	NA
1.15903766384603	B5-03822-P01-CH0	3359224	OK	0.2078128	0.0527233	0.0802569	-0.9734438	101.023	-46.461	-295.487	B5-03822-P02-CH0	3359224	OK	0.6765239	0.2470039	-0.6937611	0	-75.192	-97.624	-0.844	B5-03822-P02-CH1	3359224	OK	0.8059133	-0.2007869	-0.5569456	0	-81.152	-79.858	6.138	B5-03822-P03-CH0	3359224	OK	0.7820349	-0.3027855	-0.5447406	0	-92.759	-60.611	6.379	B5-03822-P03-CH1	3359224	OK	0.8100321	-0.5859062	0.0237044	0	-98.495	-33.685	7.465	B5-03822-P04-CH0	3359224	OK	0.7814003	-0.3391464	0.5238257	0	-122.35	-41.066	16.731	B5-03822-P04-CH1	3359224	OK	0.8220344	-0.5692896	0.0129897	0	-108.047	-52.234	9.503	NA
1.1690293678447	B5-03822-P01-CH0	3359232	OK	0.2078849	0.0530214	0.0801684	-0.9734195	101.131	-46.33	-295.382	B5-03822-P02-CH0	3359232	OK	0.6762904	0.2472543	-0.6938995	0	-75.343	-97.6	-0.9	B5-03822-P02-CH1	3359232	OK	0.8079224	-0.1925871	-0.5569305	0	-81.572	-79.809	7.15	B5-03822-P03-CH0	3359232	OK	0.7828528	-0.3025187	-0.5437131	0	-92.812	-59.899	4.336	B5-03822-P03-CH1	3359232	OK	0.8099804	-0.5859865	0.0234837	0	-98.568	-33.643	7.487	B5-03822-P04-CH0	3359232	OK	0.7814475	-0.3392997	0.523656	0	-122.444	-40.676	16.125	B5-03822-P04-CH1	3359232	OK	0.8220003	-0.5693435	0.0127879	0	-108.327	-52.074	9.062	NA
1.17902107184337	B5-03822-P01-CH0	3359240	OK	0.2082876	0.0524423	0.0814459	-0.9732588	100.943	-46.087	-295.385	B5-03822-P02-CH0	3359240	OK	0.6763346	0.2475116	-0.6937647	0	-75.065	-97.306	-1.595	B5-03822-P02-CH1	3359240	OK	0.8096511	-0.1923455	-0.5544983	0	-80.843	-80.101	7.239	B5-03822-P03-CH0	3359240	OK	0.7820418	-0.301639	-0.5453664	0	-93.65	-60.254	5.578	B5-03822-P03-CH1	3359240	OK	0.8108404	-0.5847946	0.023518	0	-98.527	-33.405	7.44	B5-03822-P04-CH0	3359240	OK	0.7817474	-0.3383549	0.5238196	0	-122.459	-40.282	15.33	B5-03822-P04-CH1	3359240	OK	0.8229248	-0.5679955	0.0132601	0	-108.108	-51.77	8.774	NA
1.18901277584204	B5-03822-P01-CH0	3359248	OK	0.2085202	0.0525245	0.0813861	-0.9732095	101.001	-46.085	-295.346	B5-03822-P02-CH0	3359248	OK	0.6766089	0.247724	-0.6934214	0	-74.914	-97.45	-1.827	B5-03822-P02-CH1	3359248	OK	0.8090751	-0.1907334	-0.5558941	0	-81.543	-79.96	6.084	B5-03822-P03-CH0	3359248	OK	0.7801069	-0.3017374	-0.5480765	0	-93.555	-59.7	4.568	B5-03822-P03-CH1	3359248	OK	0.8108881	-0.5847294	0.0234949	0	-98.495	-33.364	7.366	B5-03822-P04-CH0	3359248	OK	0.7817241	-0.3376602	0.5243025	0	-122.5	-40.509	15.368	B5-03822-P04-CH1	3359248	OK	0.8228553	-0.5680878	0.0136184	0	-108.216	-51.987	8.803	NA
1.19900447984072	B5-03822-P01-CH0	3359256	OK	0.208619	0.05232	0.0811448	-0.9732195	100.915	-46.024	-295.297	B5-03822-P02-CH0	3359256	OK	0.6771193	0.248112	-0.6927841	0	-74.65	-97.238	-1.886	B5-03822-P02-CH1	3359256	OK	0.8113879	-0.1885753	-0.5532531	0	-80.328	-79.588	6.622	B5-03822-P03-CH0	3359256	OK	0.780633	-0.301974	-0.5471963	0	-93.671	-59.505	4.582	B5-03822-P03-CH1	3359256	OK	0.8107789	-0.5848855	0.0233777	0	-98.467	-33.24	7.138	B5-03822-P04-CH0	3359256	OK	0.7813329	-0.3376365	0.5249005	0	-122.29	-40.434	15.325	B5-03822-P04-CH1	3359256	OK	0.8226035	-0.5684479	0.0138002	0	-108.218	-52.075	8.779	NA
1.20899618383939	B5-03822-P01-CH0	3359264	OK	0.2089643	0.0519952	0.0817427	-0.9731128	100.828	-45.924	-295.282	B5-03822-P02-CH0	3359264	OK	0.6772219	0.2482166	-0.6926464	0	-74.5	-97.199	-2.011	B5-03822-P02-CH1	3359264	OK	0.8100722	-0.1885376	-0.5551906	0	-81.432	-79.692	6.95	B5-03822-P03-CH0	3359264	OK	0.7815583	-0.3020567	-0.5458282	0	-93.484	-59.602	4.793	B5-03822-P03-CH1	3359264	OK	0.8110225	-0.5845259	0.0239162	0	-98.218	-33.271	6.713	B5-03822-P04-CH0	3359264	OK	0.7815941	-0.3365345	0.5252192	0	-122.419	-40.357	15	B5-03822-P04-CH1	3359264	OK	0.8227859	-0.5681752	0.014149	0	-108.091	-52.222	8.592	NA
1.21898788783806	B5-03822-P01-CH0	3359272	OK	0.2089091	0.0522153	0.081005	-0.9731746	100.914	-45.942	-295.33	B5-03822-P02-CH0	3359272	OK	0.6771388	0.2489303	-0.6924715	0	-74.695	-97.268	-1.517	B5-03822-P02-CH1	3359272	OK	0.8104175	-0.1868284	-0.5552644	0	-81.527	-79.68	7.644	B5-03822-P03-CH0	3359272	OK	0.7818836	-0.3022078	-0.5452783	0	-93.453	-59.696	4.976	B5-03822-P03-CH1	3359272	OK	0.8106648	-0.5850427	0.0234035	0	-98.238	-33.141	6.508	B5-03822-P04-CH0	3359272	OK	0.7813071	-0.3371183	0.5252718	0	-122.438	-39.817	14.395	B5-03822-P04-CH1	3359272	OK	0.822361	-0.5687962	0.0139004	0	-108.283	-52.284	8.836	NA
1.22897959183673	B5-03822-P01-CH0	3359280	OK	0.2087522	0.0521413	0.0808669	-0.9732237	100.878	-45.892	-295.382	B5-03822-P02-CH0	3359280	OK	0.6768895	0.2497641	-0.692415	0	-74.967	-97.145	-1.386	B5-03822-P02-CH1	3359280	OK	0.8095768	-0.1909416	-0.5550916	0	-81.2	-79.549	6.414	B5-03822-P03-CH0	3359280	OK	0.7821615	-0.3018666	-0.5450688	0	-93.454	-59.64	5.202	B5-03822-P03-CH1	3359280	OK	0.8105606	-0.5852078	0.0228781	0	-98.211	-32.965	6.146	B5-03822-P04-CH0	3359280	OK	0.7808939	-0.3378927	0.5253886	0	-122.298	-39.272	13.611	B5-03822-P04-CH1	3359280	OK	0.8222013	-0.5690311	0.0137326	0	-108.267	-52.248	8.911	NA
