Wav.Time	B5.03822.P01.CH0	Frame	State	Q0	Qx	Qy	Qz	Tx	Ty	Tz	B5.03822.P02.CH0	Frame.1	State.1	Q0.1	Qx.1	Qy.1	Qz.1	Tx.1	Ty.1	Tz.1	B5.03822.P02.CH1	Frame.2	State.2	Q0.2	Qx.2	Qy.2	Qz.2	Tx.2	Ty.2	Tz.2	B5.03822.P03.CH0	Frame.3	State.3	Q0.3	Qx.3	Qy.3	Qz.3	Tx.3	Ty.3	Tz.3	B5.03822.P03.CH1	Frame.4	State.4	Q0.4	Qx.4	Qy.4	Qz.4	Tx.4	Ty.4	Tz.4	B5.03822.P04.CH0	Frame.5	State.5	Q0.5	Qx.5	Qy.5	Qz.5	Tx.5	Ty.5	Tz.5	B5.03822.P04.CH1	Frame.6	State.6	Q0.6	Qx.6	Qy.6	Qz.6	Tx.6	Ty.6	Tz.6	X
0	B5-03822-P01-CH0	1219736	OK	0.2049709	0.0570386	0.0815963	-0.9736917	103.953	-35.405	-291.8	B5-03822-P02-CH0	1219736	OK	0.741601	-0.0192883	-0.6705638	0	-78.34	-97.367	0.93	B5-03822-P02-CH1	1219736	OK	0.7473436	-0.1218296	-0.653173	0	-81.436	-78.055	0.073	B5-03822-P03-CH0	1219736	OK	0.7789553	-0.2763026	-0.5629258	0	-94.702	-58.58	5.678	B5-03822-P03-CH1	1219736	OK	0.8035492	-0.5379062	0.2548836	0	-98.221	-33.131	9.661	B5-03822-P04-CH0	1219736	OK	0.7976908	-0.3045394	0.520524	0	-119.084	-39.446	14.106	B5-03822-P04-CH1	1219736	OK	0.8229713	-0.5678877	0.0148965	0	-107.581	-52.916	10.146	NA
0.00999199679871949	B5-03822-P01-CH0	1219744	OK	0.2045912	0.0569412	0.0809923	-0.9738277	103.868	-35.492	-291.758	B5-03822-P02-CH0	1219744	OK	0.7419202	-0.0201233	-0.6701862	0	-78.462	-98.344	1.598	B5-03822-P02-CH1	1219744	OK	0.7470801	-0.1228008	-0.6532927	0	-81.369	-79.755	-0.767	B5-03822-P03-CH0	1219744	OK	0.7789967	-0.275692	-0.5631678	0	-94.572	-58.67	5.823	B5-03822-P03-CH1	1219744	OK	0.8032791	-0.538273	0.2549605	0	-98.418	-33.272	10.292	B5-03822-P04-CH0	1219744	OK	0.7973347	-0.3052497	0.5206535	0	-119.135	-39.174	13.523	B5-03822-P04-CH1	1219744	OK	0.8226514	-0.5683535	0.0147988	0	-107.509	-52.836	10.277	NA
0.019983993597439	B5-03822-P01-CH0	1219752	OK	0.2043055	0.0571201	0.0804274	-0.973924	103.941	-35.67	-291.787	B5-03822-P02-CH0	1219752	OK	0.7410234	-0.0209101	-0.6711536	0	-77.78	-97.343	0.604	B5-03822-P02-CH1	1219752	OK	0.747828	-0.1239032	-0.6522279	0	-80.276	-80.587	1.664	B5-03822-P03-CH0	1219752	OK	0.7789404	-0.275489	-0.5633451	0	-94.453	-59.114	6.14	B5-03822-P03-CH1	1219752	OK	0.80274	-0.5389274	0.2552758	0	-98.436	-33.689	10.704	B5-03822-P04-CH0	1219752	OK	0.7970203	-0.3058296	0.5207945	0	-119.134	-39.123	13.296	B5-03822-P04-CH1	1219752	OK	0.8222828	-0.5688945	0.0144913	0	-107.555	-52.912	10.414	NA
0.0299759903961585	B5-03822-P01-CH0	1219760	OK	0.2041286	0.0572254	0.0804554	-0.9739526	104.026	-35.728	-291.795	B5-03822-P02-CH0	1219760	OK	0.7409049	-0.0195014	-0.6713268	0	-77.998	-97.426	1.002	B5-03822-P02-CH1	1219760	OK	0.7489488	-0.1243449	-0.6508564	0	-79.354	-79.372	1.824	B5-03822-P03-CH0	1219760	OK	0.7790203	-0.2752408	-0.5633559	0	-94.52	-59.26	6.089	B5-03822-P03-CH1	1219760	OK	0.8027457	-0.5389119	0.2552906	0	-98.615	-33.845	11.028	B5-03822-P04-CH0	1219760	OK	0.7969029	-0.3060184	0.5208631	0	-119.3	-39.057	12.78	B5-03822-P04-CH1	1219760	OK	0.8221718	-0.5690582	0.0143628	0	-107.61	-53.076	10.663	NA
0.039967987194878	B5-03822-P01-CH0	1219768	OK	0.2041266	0.0568525	0.0808724	-0.9739403	103.944	-35.747	-291.929	B5-03822-P02-CH0	1219768	OK	0.7409162	-0.0184906	-0.6713428	0	-78.023	-97.589	1.369	B5-03822-P02-CH1	1219768	OK	0.7457402	-0.1254622	-0.6543171	0	-78.846	-80.684	-0.4	B5-03822-P03-CH0	1219768	OK	0.7794224	-0.2747974	-0.5630161	0	-94.515	-59.232	6.245	B5-03822-P03-CH1	1219768	OK	0.8032694	-0.5384553	0.254606	0	-98.623	-33.149	10.424	B5-03822-P04-CH0	1219768	OK	0.7969126	-0.3057675	0.5209957	0	-119.292	-38.987	12.737	B5-03822-P04-CH1	1219768	OK	0.822622	-0.5684131	0.0141313	0	-107.607	-52.911	10.888	NA
0.0499599839935974	B5-03822-P01-CH0	1219776	OK	0.203975	0.0570432	0.0799094	-0.9740404	103.958	-35.891	-291.887	B5-03822-P02-CH0	1219776	OK	0.7403222	-0.0180679	-0.6720094	0	-78.196	-97.995	1.854	B5-03822-P02-CH1	1219776	OK	0.7444766	-0.1302537	-0.6548194	0	-79.164	-80.058	1.194	B5-03822-P03-CH0	1219776	OK	0.7795904	-0.27492	-0.5627236	0	-94.427	-59.267	6.205	B5-03822-P03-CH1	1219776	OK	0.8026864	-0.5391521	0.2549696	0	-98.989	-33.481	10.742	B5-03822-P04-CH0	1219776	OK	0.7964486	-0.3067299	0.5211395	0	-119.191	-38.751	12.229	B5-03822-P04-CH1	1219776	OK	0.8222205	-0.5689985	0.0139331	0	-107.637	-52.823	10.926	NA
0.0599519807923169	B5-03822-P01-CH0	1219784	OK	0.2038089	0.0567354	0.0799236	-0.974092	103.805	-35.881	-291.784	B5-03822-P02-CH0	1219784	OK	0.7356632	-0.0160321	-0.6771578	0	-78.559	-98.652	0.623	B5-03822-P02-CH1	1219784	OK	0.746024	-0.1387857	-0.6512962	0	-80.134	-79.152	-0.163	B5-03822-P03-CH0	1219784	OK	0.7800749	-0.2738883	-0.5625552	0	-94.244	-59.139	6.272	B5-03822-P03-CH1	1219784	OK	0.8025191	-0.539267	0.2552533	0	-98.699	-33.597	11.415	B5-03822-P04-CH0	1219784	OK	0.7964875	-0.3063888	0.5212807	0	-119.309	-39.043	12.53	B5-03822-P04-CH1	1219784	OK	0.8221165	-0.5691555	0.0136555	0	-107.735	-52.754	10.642	NA
0.0699439775910364	B5-03822-P01-CH0	1219792	OK	0.2036804	0.0565187	0.0800921	-0.9741176	103.729	-35.848	-291.872	B5-03822-P02-CH0	1219792	OK	0.7369897	-0.0170161	-0.6756898	0	-77.581	-97.973	0.83	B5-03822-P02-CH1	1219792	OK	0.7531356	-0.1493345	-0.6406917	0	-80.603	-78.995	1.442	B5-03822-P03-CH0	1219792	OK	0.7796385	-0.2622901	-0.5686544	0	-94.261	-59.34	6.826	B5-03822-P03-CH1	1219792	OK	0.8029588	-0.5385839	0.2553125	0	-98.823	-33.579	12.564	B5-03822-P04-CH0	1219792	OK	0.7964086	-0.3063856	0.5214031	0	-119.344	-39.078	12.363	B5-03822-P04-CH1	1219792	OK	0.822195	-0.569045	0.0135352	0	-107.741	-52.679	10.67	NA
0.0799359743897559	B5-03822-P01-CH0	1219800	OK	0.2036613	0.0565024	0.0804766	-0.9740909	103.798	-35.92	-291.915	B5-03822-P02-CH0	1219800	OK	0.7377822	-0.0216864	-0.6746904	0	-77.779	-98.006	0.642	B5-03822-P02-CH1	1219800	OK	0.7656763	-0.1543482	-0.6244329	0	-80.573	-79.482	2.996	B5-03822-P03-CH0	1219800	OK	0.7770743	-0.24725	-0.5788116	0	-94.025	-59.166	7.35	B5-03822-P03-CH1	1219800	OK	0.8031729	-0.538265	0.2553117	0	-98.689	-33.671	12.737	B5-03822-P04-CH0	1219800	OK	0.7967587	-0.3055375	0.5213658	0	-119.617	-39.517	12.724	B5-03822-P04-CH1	1219800	OK	0.8224674	-0.5686597	0.0131733	0	-107.811	-52.603	10.35	NA
0.0899279711884754	B5-03822-P01-CH0	1219808	OK	0.2041091	0.0569131	0.080106	-0.9740038	103.949	-35.913	-291.789	B5-03822-P02-CH0	1219808	OK	0.7390327	-0.0278797	-0.6730924	0	-78.225	-98.067	-0.858	B5-03822-P02-CH1	1219808	OK	0.7784122	-0.1547807	-0.6083727	0	-81.392	-79.454	4.41	B5-03822-P03-CH0	1219808	OK	0.7699878	-0.2328212	-0.5940649	0	-95.808	-57.542	7.017	B5-03822-P03-CH1	1219808	OK	0.8032413	-0.5378047	0.2560654	0	-99.045	-33.763	12.619	B5-03822-P04-CH0	1219808	OK	0.7969016	-0.3045824	0.5217063	0	-119.836	-39.81	12.825	B5-03822-P04-CH1	1219808	OK	0.8221282	-0.5691376	0.0136992	0	-107.895	-52.853	10.385	NA
0.0999199679871949	B5-03822-P01-CH0	1219816	OK	0.2042699	0.056951	0.0798374	-0.9739899	103.936	-35.931	-291.707	B5-03822-P02-CH0	1219816	OK	0.7409936	-0.0344221	-0.6706293	0	-78.834	-98.614	0.86	B5-03822-P02-CH1	1219816	OK	0.790933	-0.1505864	-0.593084	0	-81.917	-78.231	5.345	B5-03822-P03-CH0	1219816	OK	0.7654862	-0.2229002	-0.6036112	0	-95.353	-58.099	7.048	B5-03822-P03-CH1	1219816	OK	0.8034241	-0.5376796	0.2557545	0	-99.129	-33.015	11.169	B5-03822-P04-CH0	1219816	OK	0.7966542	-0.3039207	0.5224694	0	-119.873	-40.199	12.765	B5-03822-P04-CH1	1219816	OK	0.8220024	-0.5693202	0.0136593	0	-107.842	-52.853	10.513	NA
0.109911964785914	B5-03822-P01-CH0	1219824	OK	0.2043257	0.0567607	0.0805131	-0.9739337	103.931	-35.868	-291.851	B5-03822-P02-CH0	1219824	OK	0.7434215	-0.0405618	-0.6675921	0	-79.236	-98.716	1.673	B5-03822-P02-CH1	1219824	OK	0.8002633	-0.1506799	-0.5804087	0	-83.68	-79.029	2.137	B5-03822-P03-CH0	1219824	OK	0.7625188	-0.2122514	-0.6111583	0	-94.268	-57.963	5.342	B5-03822-P03-CH1	1219824	OK	0.8039327	-0.5369312	0.2557287	0	-99.354	-32.831	11.008	B5-03822-P04-CH0	1219824	OK	0.7967566	-0.3024465	0.5231683	0	-119.934	-40.214	12.717	B5-03822-P04-CH1	1219824	OK	0.8223247	-0.568855	0.0136393	0	-107.825	-52.858	10.467	NA
0.119903961584634	B5-03822-P01-CH0	1219832	OK	0.2044693	0.0563719	0.0810813	-0.973879	103.772	-35.785	-291.901	B5-03822-P02-CH0	1219832	OK	0.746824	-0.0486071	-0.663243	0	-79.018	-98.419	1.401	B5-03822-P02-CH1	1219832	OK	0.8089857	-0.1518085	-0.5678876	0	-85.543	-79.452	6.035	B5-03822-P03-CH0	1219832	OK	0.7587147	-0.1994912	-0.6201252	0	-93.487	-57.804	5.455	B5-03822-P03-CH1	1219832	OK	0.8038119	-0.5366517	0.2566932	0	-99.02	-33.183	11.386	B5-03822-P04-CH0	1219832	OK	0.7968045	-0.3001498	0.5244165	0	-120.122	-40.433	12.582	B5-03822-P04-CH1	1219832	OK	0.8226474	-0.5683827	0.0138667	0	-107.59	-52.816	10.409	NA
0.129895958383353	B5-03822-P01-CH0	1219840	OK	0.2043965	0.0560796	0.0811409	-0.9739062	103.687	-35.865	-292.016	B5-03822-P02-CH0	1219840	OK	0.7491181	-0.0576944	-0.6599193	0	-79.311	-98.002	1.062	B5-03822-P02-CH1	1219840	OK	0.818383	-0.1523905	-0.5540997	0	-87.128	-79.749	7.309	B5-03822-P03-CH0	1219840	OK	0.753083	-0.1822109	-0.6321908	0	-93.272	-58.006	4.412	B5-03822-P03-CH1	1219840	OK	0.8038386	-0.5365172	0.2568907	0	-99.051	-33.209	11.409	B5-03822-P04-CH0	1219840	OK	0.7953011	-0.2865792	0.534199	0	-119.959	-37.895	10.242	B5-03822-P04-CH1	1219840	OK	0.822768	-0.5682136	0.0136453	0	-107.482	-52.732	10.266	NA
0.139887955182073	B5-03822-P01-CH0	1219848	OK	0.2042932	0.0561665	0.0810793	-0.973928	103.732	-35.876	-292.142	B5-03822-P02-CH0	1219848	OK	0.7500173	-0.0701897	-0.6576834	0	-80.299	-99.278	0.249	B5-03822-P02-CH1	1219848	OK	0.8303772	-0.1489976	-0.5369109	0	-86.713	-79.492	8.601	B5-03822-P03-CH0	1219848	OK	0.7470693	-0.1595014	-0.6453269	0	-93.205	-57.378	6.504	B5-03822-P03-CH1	1219848	OK	0.8035454	-0.5364759	0.2578923	0	-98.893	-33.752	12.385	B5-03822-P04-CH0	1219848	OK	0.7948825	-0.2803394	0.5381186	0	-119.839	-37.643	10.53	B5-03822-P04-CH1	1219848	OK	0.8226223	-0.5684322	0.0133145	0	-107.524	-52.731	10.162	NA
0.149879951980792	B5-03822-P01-CH0	1219856	OK	0.2042293	0.0557452	0.0816464	-0.9739182	103.636	-35.908	-292.292	B5-03822-P02-CH0	1219856	OK	0.7538927	-0.0816987	-0.6518981	0	-79.223	-98.894	0.506	B5-03822-P02-CH1	1219856	OK	0.8383297	-0.151283	-0.5237525	0	-86.819	-81.402	9.324	B5-03822-P03-CH0	1219856	OK	0.7417729	-0.1426267	-0.6553096	0	-94.01	-56.777	4.883	B5-03822-P03-CH1	1219856	OK	0.8039553	-0.5359268	0.2577563	0	-98.841	-33.525	12.052	B5-03822-P04-CH0	1219856	OK	0.794353	-0.2701119	0.5440982	0	-120.287	-40.809	13.15	B5-03822-P04-CH1	1219856	OK	0.8228532	-0.5681061	0.0129651	0	-107.33	-52.855	10.353	NA
0.159871948779512	B5-03822-P01-CH0	1219864	OK	0.2042503	0.0557013	0.081985	-0.9738879	103.72	-35.956	-292.579	B5-03822-P02-CH0	1219864	OK	0.7536109	-0.0955724	-0.6503357	0	-80.476	-99.255	0.437	B5-03822-P02-CH1	1219864	OK	0.8459358	-0.1485904	-0.5121655	0	-86.271	-81.513	12.444	B5-03822-P03-CH0	1219864	OK	0.7394205	-0.1306446	-0.6604463	0	-93.09	-57.922	6.065	B5-03822-P03-CH1	1219864	OK	0.8040461	-0.535634	0.2580817	0	-98.86	-33.584	11.837	B5-03822-P04-CH0	1219864	OK	0.7930834	-0.2637643	0.549042	0	-119.759	-40.224	12.474	B5-03822-P04-CH1	1219864	OK	0.8232326	-0.5675633	0.0126529	0	-107.18	-52.83	10.795	NA
0.169863945578231	B5-03822-P01-CH0	1219872	OK	0.204107	0.0556502	0.0821633	-0.9739058	103.77	-36.049	-292.695	B5-03822-P02-CH0	1219872	OK	0.7554717	-0.1086622	-0.6461076	0	-80.051	-99.377	0.703	B5-03822-P02-CH1	1219872	OK	0.8484141	-0.1437951	-0.5094276	0	-88.145	-81.182	9.523	B5-03822-P03-CH0	1219872	OK	0.7364936	-0.1231177	-0.6651461	0	-93.176	-57.785	6.23	B5-03822-P03-CH1	1219872	OK	0.8042536	-0.5356055	0.2574935	0	-99.17	-33.281	10.957	B5-03822-P04-CH0	1219872	OK	0.7933974	-0.2550823	0.5526786	0	-119.962	-39.905	14.498	B5-03822-P04-CH1	1219872	OK	0.8234084	-0.567323	0.0119692	0	-107.164	-52.899	11.17	NA
0.179855942376951	B5-03822-P01-CH0	1219880	OK	0.2038902	0.0553635	0.0816623	-0.9740097	103.604	-36.135	-292.726	B5-03822-P02-CH0	1219880	OK	0.7565927	-0.118662	-0.6430294	0	-79.664	-98.853	1.274	B5-03822-P02-CH1	1219880	OK	0.85122	-0.1440541	-0.5046514	0	-88.633	-81.379	11.929	B5-03822-P03-CH0	1219880	OK	0.7351538	-0.1190195	-0.6673704	0	-92.829	-56.608	4.457	B5-03822-P03-CH1	1219880	OK	0.80315	-0.5366985	0.2586597	0	-99.066	-34.156	11.432	B5-03822-P04-CH0	1219880	OK	0.7920015	-0.2494627	0.557227	0	-120.108	-38.82	12.552	B5-03822-P04-CH1	1219880	OK	0.8231879	-0.5676522	0.0115173	0	-107.026	-52.891	11.383	NA
0.18984793917567	B5-03822-P01-CH0	1219888	OK	0.2034055	0.0547222	0.0821369	-0.9741074	103.417	-36.206	-292.844	B5-03822-P02-CH0	1219888	OK	0.757257	-0.1258681	-0.6408736	0	-79.495	-98.063	0.499	B5-03822-P02-CH1	1219888	OK	0.8537087	-0.1422407	-0.5009482	0	-88.861	-81.413	13.091	B5-03822-P03-CH0	1219888	OK	0.7333798	-0.1190691	-0.6693105	0	-92.562	-55.882	5.04	B5-03822-P03-CH1	1219888	OK	0.8029646	-0.537108	0.2583852	0	-98.663	-34.177	11.501	B5-03822-P04-CH0	1219888	OK	0.7909982	-0.2414861	0.5621443	0	-120.031	-41.133	15.119	B5-03822-P04-CH1	1219888	OK	0.8236572	-0.5669915	0.010465	0	-106.908	-52.722	11.636	NA
0.19983993597439	B5-03822-P01-CH0	1219896	OK	0.2034159	0.0540566	0.0833401	-0.9740402	103.224	-36.149	-293.113	B5-03822-P02-CH0	1219896	OK	0.7576908	-0.134392	-0.6386262	0	-79.209	-98.125	1.275	B5-03822-P02-CH1	1219896	OK	0.8570533	-0.1443296	-0.4945994	0	-88.212	-81.538	13.32	B5-03822-P03-CH0	1219896	OK	0.7324185	-0.1190415	-0.6703673	0	-92.153	-56.544	6.453	B5-03822-P03-CH1	1219896	OK	0.803489	-0.5362436	0.25855	0	-98.488	-34.557	12.869	B5-03822-P04-CH0	1219896	OK	0.7895598	-0.2410987	0.5643286	0	-119.296	-38.31	11.954	B5-03822-P04-CH1	1219896	OK	0.82439	-0.5659294	0.010253	0	-106.766	-52.666	11.645	NA
0.209831932773109	B5-03822-P01-CH0	1219904	OK	0.2031762	0.0538948	0.0833506	-0.9740983	103.151	-36.221	-293.094	B5-03822-P02-CH0	1219904	OK	0.7573184	-0.1412428	-0.6375886	0	-79.513	-98.399	1.396	B5-03822-P02-CH1	1219904	OK	0.8585527	-0.1442732	-0.4920087	0	-88.7	-81.335	10.174	B5-03822-P03-CH0	1219904	OK	0.7315694	-0.1128362	-0.6723646	0	-92.718	-56.62	6.547	B5-03822-P03-CH1	1219904	OK	0.803294	-0.536741	0.2581236	0	-98.139	-34.385	12.426	B5-03822-P04-CH0	1219904	OK	0.7913773	-0.2370791	0.5634852	0	-120.508	-38.844	13.114	B5-03822-P04-CH1	1219904	OK	0.8245111	-0.5657609	0.0097995	0	-106.589	-52.564	11.69	NA
0.219823929571829	B5-03822-P01-CH0	1219912	OK	0.2027378	0.0541119	0.0826371	-0.9742384	103.241	-36.375	-293.027	B5-03822-P02-CH0	1219912	OK	0.7586778	-0.1434469	-0.635477	0	-78.795	-98.494	0.351	B5-03822-P02-CH1	1219912	OK	0.861177	-0.1424729	-0.4879299	0	-87.967	-80.961	12.673	B5-03822-P03-CH0	1219912	OK	0.7330116	-0.1050625	-0.6720534	0	-92.708	-55.623	6.178	B5-03822-P03-CH1	1219912	OK	0.8030979	-0.5373207	0.257527	0	-98.324	-34.292	12.209	B5-03822-P04-CH0	1219912	OK	0.7918569	-0.2360182	0.5632566	0	-121.229	-40.179	13.944	B5-03822-P04-CH1	1219912	OK	0.8243151	-0.5660612	0.0089096	0	-106.725	-52.407	11.712	NA
0.229815926370548	B5-03822-P01-CH0	1219920	OK	0.2025024	0.0543105	0.0819946	-0.9743306	103.26	-36.414	-292.879	B5-03822-P02-CH0	1219920	OK	0.7581377	-0.1465819	-0.6354061	0	-79.174	-99.261	0.994	B5-03822-P02-CH1	1219920	OK	0.8587968	-0.1412857	-0.4924494	0	-89.116	-82.14	11.218	B5-03822-P03-CH0	1219920	OK	0.7344318	-0.1034015	-0.6707593	0	-93.621	-55.507	6.048	B5-03822-P03-CH1	1219920	OK	0.8030635	-0.5377744	0.2566862	0	-98.382	-33.649	11.149	B5-03822-P04-CH0	1219920	OK	0.7899885	-0.2396413	0.5643494	0	-119.757	-36.21	9.898	B5-03822-P04-CH1	1219920	OK	0.8240287	-0.5664802	0.0087692	0	-106.69	-52.39	11.812	NA
0.239807923169268	B5-03822-P01-CH0	1219928	OK	0.2024417	0.0543765	0.0820229	-0.9743371	103.316	-36.412	-292.732	B5-03822-P02-CH0	1219928	OK	0.7586047	-0.1455447	-0.6350871	0	-79.494	-99.274	1.019	B5-03822-P02-CH1	1219928	OK	0.8571672	-0.1399209	-0.4956678	0	-90.163	-82.419	11.44	B5-03822-P03-CH0	1219928	OK	0.7410974	-0.1029319	-0.6634603	0	-92.92	-56.343	7.768	B5-03822-P03-CH1	1219928	OK	0.8034796	-0.5373826	0.2562041	0	-98.878	-33.682	11.339	B5-03822-P04-CH0	1219928	OK	0.7904973	-0.2346431	0.5657354	0	-120.792	-40.518	13.38	B5-03822-P04-CH1	1219928	OK	0.8240572	-0.5664351	0.0090037	0	-106.708	-52.598	12.176	NA
0.249799919967987	B5-03822-P01-CH0	1219936	OK	0.2022048	0.054255	0.0821961	-0.9743785	103.227	-36.335	-292.601	B5-03822-P02-CH0	1219936	OK	0.7585815	-0.1410672	-0.6361243	0	-80.525	-98.591	0.138	B5-03822-P02-CH1	1219936	OK	0.8548094	-0.1381176	-0.5002244	0	-91.895	-81.987	11.382	B5-03822-P03-CH0	1219936	OK	0.7479736	-0.1062697	-0.6551658	0	-93.663	-56.604	8.411	B5-03822-P03-CH1	1219936	OK	0.8032297	-0.5376499	0.2564265	0	-98.672	-34.096	11.815	B5-03822-P04-CH0	1219936	OK	0.7915003	-0.2327764	0.5651039	0	-121.777	-40.751	14.581	B5-03822-P04-CH1	1219936	OK	0.8243971	-0.565936	0.0092737	0	-106.798	-52.259	11.863	NA
0.259791916766707	B5-03822-P01-CH0	1219944	OK	0.2020103	0.0544714	0.0816712	-0.9744509	103.308	-36.377	-292.478	B5-03822-P02-CH0	1219944	OK	0.7613137	-0.1366815	-0.6338136	0	-79.684	-98.889	1.098	B5-03822-P02-CH1	1219944	OK	0.8582056	-0.1359117	-0.494986	0	-91.434	-80.94	10.536	B5-03822-P03-CH0	1219944	OK	0.7585992	-0.1191328	-0.6405736	0	-94.233	-57.609	9.154	B5-03822-P03-CH1	1219944	OK	0.8031826	-0.537762	0.2563391	0	-98.759	-34.415	12.833	B5-03822-P04-CH0	1219944	OK	0.7912899	-0.2388396	0.5628641	0	-121.408	-40.418	13.223	B5-03822-P04-CH1	1219944	OK	0.8240951	-0.566362	0.0100683	0	-107.085	-52.374	11.691	NA
0.269783913565426	B5-03822-P01-CH0	1219952	OK	0.2020052	0.054498	0.0813256	-0.9744794	103.364	-36.404	-292.489	B5-03822-P02-CH0	1219952	OK	0.7610156	-0.1297757	-0.6356205	0	-80.477	-99.54	1.027	B5-03822-P02-CH1	1219952	OK	0.8606921	-0.134631	-0.4910026	0	-90.98	-81.526	13.021	B5-03822-P03-CH0	1219952	OK	0.7674064	-0.1368399	-0.6263883	0	-96.493	-58.461	9.391	B5-03822-P03-CH1	1219952	OK	0.8030813	-0.5379581	0.2562451	0	-98.471	-34.457	13.191	B5-03822-P04-CH0	1219952	OK	0.7907042	-0.2372416	0.564361	0	-121.51	-40.512	12.95	B5-03822-P04-CH1	1219952	OK	0.8239778	-0.5665036	0.0115863	0	-107.163	-52.473	11.511	NA
0.279775910364146	B5-03822-P01-CH0	1219960	OK	0.2018849	0.0543838	0.0812554	-0.9745165	103.327	-36.364	-292.406	B5-03822-P02-CH0	1219960	OK	0.7615968	-0.1218966	-0.6364837	0	-80.809	-99.824	1.297	B5-03822-P02-CH1	1219960	OK	0.8619162	-0.1304787	-0.4899753	0	-90.925	-82.161	11.848	B5-03822-P03-CH0	1219960	OK	0.7761313	-0.1516293	-0.6120693	0	-96.555	-57.925	10.352	B5-03822-P03-CH1	1219960	OK	0.8036639	-0.5372878	0.2558244	0	-98.589	-34.227	13.634	B5-03822-P04-CH0	1219960	OK	0.7901159	-0.236889	0.5653322	0	-121.446	-40.099	12.345	B5-03822-P04-CH1	1219960	OK	0.8240387	-0.5663824	0.0130836	0	-107.485	-52.462	11.213	NA
0.289767907162865	B5-03822-P01-CH0	1219968	OK	0.2019802	0.0542971	0.0811218	-0.9745127	103.269	-36.336	-292.312	B5-03822-P02-CH0	1219968	OK	0.7621788	-0.1089161	-0.6381386	0	-81.303	-99.061	0.303	B5-03822-P02-CH1	1219968	OK	0.8662732	-0.1254051	-0.4835745	0	-88.88	-82.23	14.504	B5-03822-P03-CH0	1219968	OK	0.7848839	-0.1707466	-0.5956533	0	-97.182	-59.144	9.381	B5-03822-P03-CH1	1219968	OK	0.8038703	-0.5371223	0.2555233	0	-98.493	-33.811	12.839	B5-03822-P04-CH0	1219968	OK	0.7899128	-0.2365049	0.5657766	0	-121.551	-40.079	12.048	B5-03822-P04-CH1	1219968	OK	0.8247371	-0.5649603	0.0250709	0	-109.741	-53.845	12.285	NA
0.299759903961585	B5-03822-P01-CH0	1219976	OK	0.2016478	0.0546566	0.0801491	-0.974642	103.385	-36.324	-292.157	B5-03822-P02-CH0	1219976	OK	0.762846	-0.0972706	-0.6392217	0	-82.301	-99.562	1.327	B5-03822-P02-CH1	1219976	OK	0.8636029	-0.1235697	-0.488795	0	-90.93	-83.302	11.578	B5-03822-P03-CH0	1219976	OK	0.7965907	-0.1921161	-0.5731794	0	-98.262	-60	9.921	B5-03822-P03-CH1	1219976	OK	0.8035296	-0.5377478	0.2552794	0	-98.929	-33.761	12.422	B5-03822-P04-CH0	1219976	OK	0.7894995	-0.2374303	0.5659659	0	-121.72	-40.184	11.822	B5-03822-P04-CH1	1219976	OK	0.8236316	-0.5663763	0.0291359	0	-109.264	-54.39	11.588	NA
0.309751900760304	B5-03822-P01-CH0	1219984	OK	0.2017875	0.0547489	0.0801501	-0.9746078	103.474	-36.224	-292.164	B5-03822-P02-CH0	1219984	OK	0.7635036	-0.0909716	-0.6393641	0	-82.885	-101.221	1.302	B5-03822-P02-CH1	1219984	OK	0.8636106	-0.1123429	-0.4914833	0	-90.002	-82.064	12.699	B5-03822-P03-CH0	1219984	OK	0.8067052	-0.2095706	-0.5525458	0	-99.903	-62.059	11.528	B5-03822-P03-CH1	1219984	OK	0.8032114	-0.5375732	0.2566449	0	-99.116	-34.724	13.522	B5-03822-P04-CH0	1219984	OK	0.789454	-0.237637	0.5659426	0	-122.001	-40.466	11.697	B5-03822-P04-CH1	1219984	OK	0.8237345	-0.5660775	0.0319009	0	-109.098	-54.524	11.319	NA
0.319743897559024	B5-03822-P01-CH0	1219992	OK	0.2018015	0.0546715	0.0799666	-0.9746243	103.48	-36.206	-292.237	B5-03822-P02-CH0	1219992	OK	0.7621644	-0.0852184	-0.6417501	0	-82.513	-101.92	0.269	B5-03822-P02-CH1	1219992	OK	0.8603132	-0.1036105	-0.4991254	0	-90.358	-81.422	12.387	B5-03822-P03-CH0	1219992	OK	0.8136778	-0.2138307	-0.5405597	0	-101.63	-63.061	12.386	B5-03822-P03-CH1	1219992	OK	0.8030626	-0.5375914	0.2570718	0	-98.829	-34.923	14.18	B5-03822-P04-CH0	1219992	OK	0.7893776	-0.2380673	0.5658684	0	-122.207	-40.775	11.557	B5-03822-P04-CH1	1219992	OK	0.8225202	-0.5677326	0.0337657	0	-109.475	-55.422	10.34	NA
0.329735894357743	B5-03822-P01-CH0	1220000	OK	0.2017823	0.0541653	0.0803466	-0.9746253	103.325	-36.217	-292.218	B5-03822-P02-CH0	1220000	OK	0.7596297	-0.0764356	-0.6458486	0	-81.897	-101.885	-0.116	B5-03822-P02-CH1	1220000	OK	0.8524345	-0.1130826	-0.5104584	0	-90.978	-84.175	9.41	B5-03822-P03-CH0	1220000	OK	0.8226733	-0.209509	-0.5285023	0	-101.308	-63.515	12.373	B5-03822-P03-CH1	1220000	OK	0.8032	-0.5372862	0.2572806	0	-98.459	-35.02	14.562	B5-03822-P04-CH0	1220000	OK	0.7895255	-0.2385962	0.5654391	0	-122.349	-41.16	11.604	B5-03822-P04-CH1	1220000	OK	0.8239676	-0.5655838	0.03453	0	-110.226	-54.839	11.46	NA
0.339727891156463	B5-03822-P01-CH0	1220008	OK	0.2016167	0.0536402	0.0800804	-0.9747105	103.11	-36.257	-292.244	B5-03822-P02-CH0	1220008	OK	0.7527145	-0.0691218	-0.6547084	0	-83.047	-102.404	0.747	B5-03822-P02-CH1	1220008	OK	0.8417001	-0.132505	-0.5234342	0	-88.044	-85.916	10.326	B5-03822-P03-CH0	1220008	OK	0.832912	-0.2014478	-0.5154381	0	-100.006	-64.409	14.829	B5-03822-P03-CH1	1220008	OK	0.8027732	-0.5379229	0.2572822	0	-98.155	-34.772	13.559	B5-03822-P04-CH0	1220008	OK	0.7913941	-0.2451998	0.5599754	0	-122.901	-42.104	10.768	B5-03822-P04-CH1	1220008	OK	0.822565	-0.5675657	0.0354393	0	-110.536	-55.907	11.011	NA
0.349719887955182	B5-03822-P01-CH0	1220016	OK	0.2017627	0.0539819	0.0797082	-0.9746919	103.355	-36.338	-292.337	B5-03822-P02-CH0	1220016	OK	0.7495734	-0.0582908	-0.6593496	0	-81.758	-102.331	-0.428	B5-03822-P02-CH1	1220016	OK	0.8309862	-0.1395978	-0.5384927	0	-87.002	-85.031	9.916	B5-03822-P03-CH0	1220016	OK	0.84014	-0.1922805	-0.507142	0	-101.327	-65.005	15.577	B5-03822-P03-CH1	1220016	OK	0.8026318	-0.5381452	0.2572586	0	-98.206	-34.813	13.364	B5-03822-P04-CH0	1220016	OK	0.7922449	-0.246818	0.5580581	0	-122.647	-41.917	10.96	B5-03822-P04-CH1	1220016	OK	0.8230298	-0.5672281	0.0295665	0	-109.549	-54.456	10.504	NA
0.359711884753902	B5-03822-P01-CH0	1220024	OK	0.2020943	0.0538073	0.0800986	-0.9746009	103.324	-36.233	-292.401	B5-03822-P02-CH0	1220024	OK	0.7429166	-0.0490016	-0.667588	0	-81.18	-103.056	0.044	B5-03822-P02-CH1	1220024	OK	0.8196233	-0.1492489	-0.5531206	0	-86.995	-85.924	5.279	B5-03822-P03-CH0	1220024	OK	0.8467251	-0.1889681	-0.4973406	0	-100.838	-66.941	16.248	B5-03822-P03-CH1	1220024	OK	0.8029133	-0.5377375	0.2572327	0	-98.473	-34.448	12.283	B5-03822-P04-CH0	1220024	OK	0.7942268	-0.2452794	0.5559152	0	-123.076	-42.493	13.043	B5-03822-P04-CH1	1220024	OK	0.8231902	-0.5668831	0.0316464	0	-109.66	-54.766	10.73	NA
0.369703881552621	B5-03822-P01-CH0	1220032	OK	0.2022454	0.0538614	0.0798393	-0.9745878	103.308	-36.235	-292.354	B5-03822-P02-CH0	1220032	OK	0.7346961	-0.0411135	-0.6771494	0	-80.206	-104.258	0.285	B5-03822-P02-CH1	1220032	OK	0.8114056	-0.1573348	-0.5629092	0	-85.031	-85.355	7.362	B5-03822-P03-CH0	1220032	OK	0.8465214	-0.1778051	-0.5017836	0	-102.347	-66.525	15.103	B5-03822-P03-CH1	1220032	OK	0.8022989	-0.5381155	0.2583566	0	-98.53	-35.135	12.733	B5-03822-P04-CH0	1220032	OK	0.7952383	-0.2471615	0.5536309	0	-123.566	-43.975	13.606	B5-03822-P04-CH1	1220032	OK	0.8229966	-0.5670886	0.0329705	0	-109.937	-54.996	10.734	NA
0.379695878351341	B5-03822-P01-CH0	1220040	OK	0.2024071	0.0541181	0.080212	-0.9745094	103.503	-36.183	-292.424	B5-03822-P02-CH0	1220040	OK	0.7257884	-0.0351194	-0.687021	0	-78.626	-104.47	-3.17	B5-03822-P02-CH1	1220040	OK	0.7974645	-0.1677193	-0.5795866	0	-86.084	-85.523	5.915	B5-03822-P03-CH0	1220040	OK	0.8455547	-0.1674903	-0.5069362	0	-102.911	-66.599	14.75	B5-03822-P03-CH1	1220040	OK	0.8022557	-0.5380406	0.2586466	0	-98.619	-35.313	12.687	B5-03822-P04-CH0	1220040	OK	0.7956747	-0.2509873	0.5512778	0	-123.24	-43.231	12.932	B5-03822-P04-CH1	1220040	OK	0.8230296	-0.5669937	0.03377	0	-110.21	-55.368	11.049	NA
0.38968787515006	B5-03822-P01-CH0	1220048	OK	0.2026113	0.0540633	0.0805852	-0.9744393	103.553	-36.143	-292.578	B5-03822-P02-CH0	1220048	OK	0.713942	-0.0332842	-0.6994133	0	-77.898	-103.586	-2.576	B5-03822-P02-CH1	1220048	OK	0.7851292	-0.176865	-0.5935409	0	-84.973	-85.586	4.633	B5-03822-P03-CH0	1220048	OK	0.8491867	-0.1622953	-0.5025358	0	-101.741	-66.707	16.162	B5-03822-P03-CH1	1220048	OK	0.8021986	-0.5377577	0.259411	0	-98.537	-35.736	13.578	B5-03822-P04-CH0	1220048	OK	0.7951645	-0.2555036	0.5499375	0	-121.976	-42.876	13.308	B5-03822-P04-CH1	1220048	OK	0.8232587	-0.5666366	0.0341778	0	-110.238	-55.511	11.464	NA
0.39967987194878	B5-03822-P01-CH0	1220056	OK	0.2027914	0.0540785	0.0803276	-0.9744222	103.612	-36.197	-292.738	B5-03822-P02-CH0	1220056	OK	0.706639	-0.039958	-0.7064451	0	-74.821	-104.085	-3.07	B5-03822-P02-CH1	1220056	OK	0.7736035	-0.1914334	-0.604062	0	-82.46	-85.521	1.26	B5-03822-P03-CH0	1220056	OK	0.8517495	-0.1670069	-0.4966201	0	-100.259	-67.944	16.556	B5-03822-P03-CH1	1220056	OK	0.802003	-0.5378434	0.2598377	0	-98.42	-35.852	13.871	B5-03822-P04-CH0	1220056	OK	0.795543	-0.2595369	0.547496	0	-122.029	-42.316	12.578	B5-03822-P04-CH1	1220056	OK	0.8230176	-0.566982	0.0342559	0	-110.247	-55.721	11.739	NA
0.409671868747499	B5-03822-P01-CH0	1220064	OK	0.2025883	0.0539367	0.0799762	-0.9745012	103.53	-36.229	-292.764	B5-03822-P02-CH0	1220064	OK	0.6988985	-0.05466	-0.7131291	0	-71.845	-104.514	-2.313	B5-03822-P02-CH1	1220064	OK	0.7611146	-0.2104649	-0.6135219	0	-78.526	-84.655	3.248	B5-03822-P03-CH0	1220064	OK	0.8510102	-0.1739327	-0.4955089	0	-100.731	-67.606	15.612	B5-03822-P03-CH1	1220064	OK	0.8020336	-0.5381167	0.2591765	0	-98.555	-35.331	13.249	B5-03822-P04-CH0	1220064	OK	0.7964022	-0.2614535	0.5453307	0	-122.692	-43.695	14.35	B5-03822-P04-CH1	1220064	OK	0.8228161	-0.5673164	0.0335525	0	-110.342	-55.579	11.755	NA
0.419663865546218	B5-03822-P01-CH0	1220072	OK	0.2028453	0.0540363	0.0799514	-0.9744443	103.57	-36.194	-292.753	B5-03822-P02-CH0	1220072	OK	0.6880316	-0.0718847	-0.7221116	0	-69.412	-103.082	-5.297	B5-03822-P02-CH1	1220072	OK	0.7456332	-0.2357557	-0.6232578	0	-75.945	-83.152	0.187	B5-03822-P03-CH0	1220072	OK	0.8518993	-0.1836319	-0.4904558	0	-100.214	-67.469	16.586	B5-03822-P03-CH1	1220072	OK	0.8021263	-0.5382027	0.2587108	0	-98.738	-34.643	11.601	B5-03822-P04-CH0	1220072	OK	0.7960246	-0.2652678	0.5440384	0	-121.989	-43.166	14.246	B5-03822-P04-CH1	1220072	OK	0.8227855	-0.5673748	0.0333127	0	-110.285	-55.572	11.92	NA
0.429655862344938	B5-03822-P01-CH0	1220080	OK	0.202916	0.0541835	0.0802893	-0.9743936	103.615	-36.044	-292.725	B5-03822-P02-CH0	1220080	OK	0.6766609	-0.082845	-0.7316193	0	-66.55	-100.316	-5.807	B5-03822-P02-CH1	1220080	OK	0.7335621	-0.2628703	-0.6267263	0	-72.717	-81.286	-2.965	B5-03822-P03-CH0	1220080	OK	0.8521204	-0.192194	-0.4867774	0	-100.53	-66.241	15.94	B5-03822-P03-CH1	1220080	OK	0.8022131	-0.5378848	0.2591023	0	-99.251	-34.766	11.541	B5-03822-P04-CH0	1220080	OK	0.795256	-0.2704613	0.5426036	0	-121.14	-40.345	10.231	B5-03822-P04-CH1	1220080	OK	0.8228677	-0.5673062	0.0324399	0	-110.286	-55.375	11.809	NA
0.439647859143657	B5-03822-P01-CH0	1220088	OK	0.2030637	0.0545924	0.0805796	-0.974316	103.805	-35.977	-292.755	B5-03822-P02-CH0	1220088	OK	0.6650373	-0.0741874	-0.7431161	0	-66.124	-99.386	-2.929	B5-03822-P02-CH1	1220088	OK	0.7204735	-0.2872897	-0.6311756	0	-73.431	-80.082	-2.769	B5-03822-P03-CH0	1220088	OK	0.8552442	-0.2022346	-0.4771356	0	-100.172	-66.468	17.141	B5-03822-P03-CH1	1220088	OK	0.8020821	-0.5379177	0.2594397	0	-99.038	-35.117	12.331	B5-03822-P04-CH0	1220088	OK	0.7954244	-0.2723099	0.5414309	0	-120.75	-40.491	11.045	B5-03822-P04-CH1	1220088	OK	0.823051	-0.5671062	0.0312682	0	-110.397	-55.242	12.026	NA
0.449639855942377	B5-03822-P01-CH0	1220096	OK	0.2029148	0.0543435	0.0808512	-0.9743385	103.677	-35.918	-292.768	B5-03822-P02-CH0	1220096	OK	0.6608518	-0.0574795	-0.7483121	0	-65.674	-98.919	-3.061	B5-03822-P02-CH1	1220096	OK	0.7171654	-0.2989898	-0.6295068	0	-72.241	-78.172	-4.09	B5-03822-P03-CH0	1220096	OK	0.8598963	-0.2127354	-0.464028	0	-99.304	-66.544	17.715	B5-03822-P03-CH1	1220096	OK	0.8022138	-0.5378697	0.2591317	0	-98.961	-34.712	12.117	B5-03822-P04-CH0	1220096	OK	0.797438	-0.2713965	0.5389217	0	-121.764	-41.617	13.156	B5-03822-P04-CH1	1220096	OK	0.8232175	-0.5669203	0.030237	0	-110.147	-55.071	12.317	NA
0.459631852741096	B5-03822-P01-CH0	1220104	OK	0.2027167	0.0543774	0.0805598	-0.9744019	103.656	-35.969	-292.66	B5-03822-P02-CH0	1220104	OK	0.6618525	-0.0444963	-0.7483123	0	-65.417	-98.193	-2.86	B5-03822-P02-CH1	1220104	OK	0.7173672	-0.3023913	-0.6276494	0	-71.886	-77.328	-4.805	B5-03822-P03-CH0	1220104	OK	0.8630324	-0.2178112	-0.4557777	0	-98.903	-65.653	18.376	B5-03822-P03-CH1	1220104	OK	0.8019022	-0.5384388	0.258914	0	-98.571	-34.582	12.222	B5-03822-P04-CH0	1220104	OK	0.797141	-0.2754675	0.5372932	0	-121.3	-39.456	10.179	B5-03822-P04-CH1	1220104	OK	0.8230043	-0.5672875	0.0291338	0	-110.105	-54.906	12.111	NA
0.469623849539816	B5-03822-P01-CH0	1220112	OK	0.2025191	0.0544338	0.0811578	-0.9743903	103.646	-35.867	-292.528	B5-03822-P02-CH0	1220112	OK	0.6659141	-0.0383654	-0.7450412	0	-65.463	-97.349	-3.617	B5-03822-P02-CH1	1220112	OK	0.7160937	-0.3019433	-0.6293171	0	-73.363	-76.972	-2.867	B5-03822-P03-CH0	1220112	OK	0.8613432	-0.2226951	-0.4566123	0	-99.635	-64.823	16.981	B5-03822-P03-CH1	1220112	OK	0.8023069	-0.5379764	0.2586214	0	-98.816	-34.462	12.059	B5-03822-P04-CH0	1220112	OK	0.7962399	-0.2680927	0.5423361	0	-121.401	-40.256	11.449	B5-03822-P04-CH1	1220112	OK	0.8232218	-0.567025	0.0280812	0	-110.144	-54.744	11.983	NA
0.479615846338535	B5-03822-P01-CH0	1220120	OK	0.202555	0.0545663	0.0811286	-0.9743778	103.644	-35.847	-292.496	B5-03822-P02-CH0	1220120	OK	0.6717168	-0.0390621	-0.7397775	0	-65.746	-96.54	-3.949	B5-03822-P02-CH1	1220120	OK	0.717288	-0.3009404	-0.6284368	0	-74.151	-77.123	-0.939	B5-03822-P03-CH0	1220120	OK	0.8586734	-0.2243288	-0.4608217	0	-99.505	-64.322	14.922	B5-03822-P03-CH1	1220120	OK	0.80239	-0.5379088	0.2585042	0	-98.657	-34.217	11.829	B5-03822-P04-CH0	1220120	OK	0.7963688	-0.2701501	0.5411244	0	-121.388	-40.214	11.125	B5-03822-P04-CH1	1220120	OK	0.8232722	-0.5669799	0.027508	0	-110.023	-54.468	11.78	NA
0.489607843137255	B5-03822-P01-CH0	1220128	OK	0.2024164	0.0549037	0.0810954	-0.9743904	103.662	-35.809	-292.361	B5-03822-P02-CH0	1220128	OK	0.6776893	-0.0424516	-0.7341219	0	-66.705	-95.602	-3.694	B5-03822-P02-CH1	1220128	OK	0.7230928	-0.2924649	-0.6257804	0	-74.401	-76.687	-3.219	B5-03822-P03-CH0	1220128	OK	0.8557926	-0.2235147	-0.4665406	0	-99.578	-63.916	15.597	B5-03822-P03-CH1	1220128	OK	0.8026662	-0.5377535	0.2579693	0	-99.045	-33.931	11.519	B5-03822-P04-CH0	1220128	OK	0.7966838	-0.2715883	0.5399395	0	-121.484	-40.117	11.109	B5-03822-P04-CH1	1220128	OK	0.823147	-0.5671902	0.0269143	0	-110.082	-54.295	11.403	NA
0.499599839935974	B5-03822-P01-CH0	1220136	OK	0.2024591	0.0548538	0.0815343	-0.9743477	103.573	-35.795	-292.188	B5-03822-P02-CH0	1220136	OK	0.684739	-0.0487191	-0.7271581	0	-68.256	-95.405	-3.59	B5-03822-P02-CH1	1220136	OK	0.7315603	-0.2803517	-0.621468	0	-75.531	-76.798	-3.94	B5-03822-P03-CH0	1220136	OK	0.8540481	-0.224607	-0.4692052	0	-99.597	-64.039	16.419	B5-03822-P03-CH1	1220136	OK	0.8025157	-0.5376924	0.2585641	0	-98.87	-34.503	12.214	B5-03822-P04-CH0	1220136	OK	0.7969326	-0.2720858	0.5393216	0	-121.472	-40.328	11.164	B5-03822-P04-CH1	1220136	OK	0.8233973	-0.5668295	0.0268565	0	-109.934	-54.198	11.147	NA
0.509591836734694	B5-03822-P01-CH0	1220144	OK	0.202386	0.0553173	0.0807966	-0.9743982	103.675	-35.923	-292.077	B5-03822-P02-CH0	1220144	OK	0.6917816	-0.0536978	-0.7201074	0	-70.666	-96.879	-3.701	B5-03822-P02-CH1	1220144	OK	0.7413841	-0.2609982	-0.6182471	0	-78.644	-76.846	-2.492	B5-03822-P03-CH0	1220144	OK	0.8521016	-0.2244931	-0.4727851	0	-99.899	-64.509	16.501	B5-03822-P03-CH1	1220144	OK	0.8018548	-0.5382951	0.2593594	0	-98.76	-35.199	13.145	B5-03822-P04-CH0	1220144	OK	0.7968842	-0.2727319	0.5390667	0	-121.54	-40.579	11.282	B5-03822-P04-CH1	1220144	OK	0.8228509	-0.567631	0.026672	0	-110.019	-54.413	11.194	NA
0.519583833533413	B5-03822-P01-CH0	1220152	OK	0.2023021	0.0554653	0.0809719	-0.9743926	103.707	-35.955	-291.97	B5-03822-P02-CH0	1220152	OK	0.6995362	-0.0544148	-0.7125224	0	-73.168	-97.518	-1.788	B5-03822-P02-CH1	1220152	OK	0.7498366	-0.2402944	-0.6164444	0	-81.311	-77.487	2.099	B5-03822-P03-CH0	1220152	OK	0.8514186	-0.2219955	-0.4751888	0	-99.128	-65.334	16.301	B5-03822-P03-CH1	1220152	OK	0.8018475	-0.5380466	0.259897	0	-98.694	-35.897	14.612	B5-03822-P04-CH0	1220152	OK	0.7971132	-0.2728547	0.5386658	0	-121.679	-40.555	11.1	B5-03822-P04-CH1	1220152	OK	0.8230864	-0.5673014	0.0264194	0	-110.009	-54.357	11.262	NA
0.529575830332133	B5-03822-P01-CH0	1220160	OK	0.2023371	0.0558359	0.0803004	-0.9744198	103.809	-36.04	-292.031	B5-03822-P02-CH0	1220160	OK	0.7059872	-0.0532314	-0.7062213	0	-76.424	-98.697	-1.065	B5-03822-P02-CH1	1220160	OK	0.7566198	-0.2234637	-0.6144839	0	-81.163	-78.621	2.055	B5-03822-P03-CH0	1220160	OK	0.8483799	-0.2159112	-0.4833569	0	-99.443	-64.335	16.331	B5-03822-P03-CH1	1220160	OK	0.8016373	-0.5386939	0.2592037	0	-98.462	-35.522	14.124	B5-03822-P04-CH0	1220160	OK	0.797061	-0.27284	0.5387505	0	-121.761	-40.764	11.472	B5-03822-P04-CH1	1220160	OK	0.8228079	-0.5677068	0.0263839	0	-110.067	-54.471	11.591	NA
0.539567827130852	B5-03822-P01-CH0	1220168	OK	0.2022377	0.0556169	0.0800572	-0.974473	103.679	-36.12	-292.016	B5-03822-P02-CH0	1220168	OK	0.715927	-0.0481693	-0.6965115	0	-76.938	-99.372	-1.068	B5-03822-P02-CH1	1220168	OK	0.7641764	-0.2087492	-0.6102935	0	-79.342	-79.478	2.972	B5-03822-P03-CH0	1220168	OK	0.8422702	-0.2116959	-0.4957476	0	-100.963	-64.375	14.449	B5-03822-P03-CH1	1220168	OK	0.8014023	-0.5390176	0.2592573	0	-98.469	-35.661	13.889	B5-03822-P04-CH0	1220168	OK	0.7972154	-0.2723339	0.5387781	0	-121.927	-41.033	11.854	B5-03822-P04-CH1	1220168	OK	0.8227165	-0.5678246	0.0266984	0	-109.871	-54.534	11.532	NA
0.549559823929572	B5-03822-P01-CH0	1220176	OK	0.2022122	0.0558103	0.0792894	-0.97453	103.736	-36.257	-292.089	B5-03822-P02-CH0	1220176	OK	0.7237875	-0.0434627	-0.6886528	0	-77.362	-100.552	-2.835	B5-03822-P02-CH1	1220176	OK	0.7652336	-0.1930628	-0.6141208	0	-81.198	-80.453	2.919	B5-03822-P03-CH0	1220176	OK	0.8399958	-0.207244	-0.5014549	0	-100.43	-65.318	15.519	B5-03822-P03-CH1	1220176	OK	0.8010216	-0.5396181	0.2591849	0	-98.759	-35.842	13.652	B5-03822-P04-CH0	1220176	OK	0.7968343	-0.2723754	0.5393207	0	-121.939	-41.193	11.912	B5-03822-P04-CH1	1220176	OK	0.8224071	-0.568264	0.026881	0	-109.851	-54.573	11.458	NA
0.559551820728291	B5-03822-P01-CH0	1220184	OK	0.2020115	0.0558825	0.0788173	-0.9746057	103.71	-36.299	-292.092	B5-03822-P02-CH0	1220184	OK	0.726303	-0.0378387	-0.6863324	0	-78.82	-99.827	-0.191	B5-03822-P02-CH1	1220184	OK	0.7669811	-0.1809474	-0.6156282	0	-82.414	-81.094	1.713	B5-03822-P03-CH0	1220184	OK	0.838349	-0.2026849	-0.5060532	0	-100.109	-65.342	15.132	B5-03822-P03-CH1	1220184	OK	0.8006224	-0.5401037	0.2594067	0	-99.166	-36.349	14.081	B5-03822-P04-CH0	1220184	OK	0.7967296	-0.2721961	0.5395658	0	-121.98	-41.474	12.546	B5-03822-P04-CH1	1220184	OK	0.8222193	-0.5685457	0.0266688	0	-109.827	-54.581	11.679	NA
0.569543817527011	B5-03822-P01-CH0	1220192	OK	0.2019774	0.0557178	0.0782177	-0.9746705	103.614	-36.408	-292.117	B5-03822-P02-CH0	1220192	OK	0.7279789	-0.0335295	-0.6847792	0	-79.929	-100.106	0.598	B5-03822-P02-CH1	1220192	OK	0.7678658	-0.1705722	-0.6174847	0	-83.363	-82.055	3.074	B5-03822-P03-CH0	1220192	OK	0.8371785	-0.1980673	-0.5098053	0	-99.284	-64.962	14.687	B5-03822-P03-CH1	1220192	OK	0.8000619	-0.5408719	0.2595353	0	-98.857	-36.499	14.281	B5-03822-P04-CH0	1220192	OK	0.7962411	-0.2723328	0.5402175	0	-121.804	-41.668	12.803	B5-03822-P04-CH1	1220192	OK	0.8220435	-0.5687877	0.0269265	0	-109.568	-54.641	11.898	NA
0.57953581432573	B5-03822-P01-CH0	1220200	OK	0.2018743	0.0557994	0.0781462	-0.974693	103.635	-36.422	-291.972	B5-03822-P02-CH0	1220200	OK	0.7283793	-0.0328182	-0.6843877	0	-81.18	-101.399	1.088	B5-03822-P02-CH1	1220200	OK	0.7699717	-0.1596759	-0.617776	0	-83.55	-82.117	4.774	B5-03822-P03-CH0	1220200	OK	0.8317299	-0.1935955	-0.5203327	0	-100.508	-64.772	14.645	B5-03822-P03-CH1	1220200	OK	0.7997972	-0.5413312	0.2593934	0	-98.97	-36.666	14.273	B5-03822-P04-CH0	1220200	OK	0.7961715	-0.2723382	0.5403173	0	-121.84	-41.672	12.95	B5-03822-P04-CH1	1220200	OK	0.8219121	-0.5689696	0.0270948	0	-109.516	-54.821	11.861	NA
0.58952781112445	B5-03822-P01-CH0	1220208	OK	0.2019004	0.0555913	0.0779122	-0.9747182	103.592	-36.475	-292.033	B5-03822-P02-CH0	1220208	OK	0.729867	-0.0274463	-0.683038	0	-81.073	-101.923	0.601	B5-03822-P02-CH1	1220208	OK	0.7718175	-0.1469549	-0.6186291	0	-83.23	-81.899	1.394	B5-03822-P03-CH0	1220208	OK	0.8281141	-0.1907923	-0.5270914	0	-99.938	-64.822	14.62	B5-03822-P03-CH1	1220208	OK	0.7995328	-0.5418728	0.2590777	0	-98.666	-36.607	14.362	B5-03822-P04-CH0	1220208	OK	0.7957365	-0.2728786	0.5406854	0	-121.741	-41.79	12.878	B5-03822-P04-CH1	1220208	OK	0.8217555	-0.5691837	0.0273483	0	-109.451	-54.988	11.852	NA
0.599519807923169	B5-03822-P01-CH0	1220216	OK	0.2016764	0.0558894	0.0771352	-0.9748093	103.706	-36.552	-292.06	B5-03822-P02-CH0	1220216	OK	0.7309387	-0.0210336	-0.682119	0	-80.649	-100.969	0.477	B5-03822-P02-CH1	1220216	OK	0.7704508	-0.1412916	-0.6216448	0	-83.605	-83.215	4.035	B5-03822-P03-CH0	1220216	OK	0.824924	-0.1902237	-0.5322737	0	-99.119	-65.053	15.549	B5-03822-P03-CH1	1220216	OK	0.7989724	-0.5428053	0.2588543	0	-99.149	-36.889	14.323	B5-03822-P04-CH0	1220216	OK	0.795527	-0.2739476	0.5404531	0	-121.799	-41.516	12.817	B5-03822-P04-CH1	1220216	OK	0.8213278	-0.5698285	0.0267603	0	-109.678	-55.033	11.959	NA
0.609511804721889	B5-03822-P01-CH0	1220224	OK	0.2017204	0.0557567	0.0774374	-0.9747838	103.659	-36.522	-291.902	B5-03822-P02-CH0	1220224	OK	0.7297797	-0.0173857	-0.6834613	0	-81.209	-101.895	-0.409	B5-03822-P02-CH1	1220224	OK	0.7700584	-0.1345967	-0.6236134	0	-82.793	-83.598	1.472	B5-03822-P03-CH0	1220224	OK	0.8209133	-0.1880921	-0.5391871	0	-99.507	-64.404	14.15	B5-03822-P03-CH1	1220224	OK	0.7994024	-0.5428693	0.2573884	0	-99.097	-35.801	12.514	B5-03822-P04-CH0	1220224	OK	0.7953569	-0.274787	0.5402773	0	-121.648	-41.132	12.393	B5-03822-P04-CH1	1220224	OK	0.8216229	-0.5694099	0.0266105	0	-109.513	-54.818	11.611	NA
0.619503801520608	B5-03822-P01-CH0	1220232	OK	0.2016633	0.0557494	0.077162	-0.9748179	103.628	-36.504	-291.899	B5-03822-P02-CH0	1220232	OK	0.7288642	-0.0152108	-0.6844893	0	-80.963	-102.069	-0.916	B5-03822-P02-CH1	1220232	OK	0.765939	-0.1305421	-0.6295206	0	-83.929	-84.294	1.561	B5-03822-P03-CH0	1220232	OK	0.8169455	-0.1904613	-0.5443569	0	-100.208	-63.835	11.999	B5-03822-P03-CH1	1220232	OK	0.7993909	-0.5430931	0.2569517	0	-99.512	-35.582	12.246	B5-03822-P04-CH0	1220232	OK	0.7950691	-0.2758639	0.5401521	0	-121.509	-41.119	12.542	B5-03822-P04-CH1	1220232	OK	0.8214401	-0.5696944	0.0261608	0	-109.517	-54.741	11.537	NA
0.629495798319328	B5-03822-P01-CH0	1220240	OK	0.2014586	0.0554126	0.0771494	-0.9748804	103.475	-36.578	-291.763	B5-03822-P02-CH0	1220240	OK	0.7282261	-0.0122414	-0.6852276	0	-80.116	-101.663	-0.154	B5-03822-P02-CH1	1220240	OK	0.7621592	-0.1281024	-0.6345889	0	-85.199	-82.343	4.174	B5-03822-P03-CH0	1220240	OK	0.8137516	-0.1895515	-0.5494348	0	-99.952	-63.512	12.533	B5-03822-P03-CH1	1220240	OK	0.7987594	-0.5438134	0.2573915	0	-99.359	-36.145	12.553	B5-03822-P04-CH0	1220240	OK	0.7950986	-0.2766414	0.5397108	0	-121.524	-41.237	12.785	B5-03822-P04-CH1	1220240	OK	0.8214003	-0.5697706	0.0257479	0	-109.338	-54.645	11.175	NA
0.639487795118047	B5-03822-P01-CH0	1220248	OK	0.2013086	0.0554622	0.07708	-0.9749141	103.503	-36.623	-291.7	B5-03822-P02-CH0	1220248	OK	0.726257	-0.0113845	-0.687329	0	-79.808	-101.457	-1.548	B5-03822-P02-CH1	1220248	OK	0.7613155	-0.1272176	-0.6357786	0	-85.066	-81.256	0.684	B5-03822-P03-CH0	1220248	OK	0.8132929	-0.1922975	-0.5491597	0	-98.568	-63.604	12.319	B5-03822-P03-CH1	1220248	OK	0.798565	-0.5442617	0.2570469	0	-99.264	-36.009	12.323	B5-03822-P04-CH0	1220248	OK	0.794694	-0.2783125	0.5394475	0	-121.278	-40.907	12.423	B5-03822-P04-CH1	1220248	OK	0.8212219	-0.5700404	0.0254666	0	-109.184	-54.651	11.03	NA
0.649479791916767	B5-03822-P01-CH0	1220256	OK	0.2012683	0.0553313	0.0773986	-0.9749046	103.412	-36.545	-291.613	B5-03822-P02-CH0	1220256	OK	0.7237885	-0.0103539	-0.6899443	0	-79.428	-100.911	-2.697	B5-03822-P02-CH1	1220256	OK	0.7611875	-0.129614	-0.6354478	0	-84.071	-81.608	1.618	B5-03822-P03-CH0	1220256	OK	0.8093578	-0.1956746	-0.5537612	0	-99.084	-63.711	10.55	B5-03822-P03-CH1	1220256	OK	0.798593	-0.5442537	0.256977	0	-98.964	-36.028	12.983	B5-03822-P04-CH0	1220256	OK	0.794782	-0.2792136	0.5388518	0	-121.189	-40.711	12.546	B5-03822-P04-CH1	1220256	OK	0.8212087	-0.5700803	0.0249946	0	-109.111	-54.585	10.893	NA
0.659471788715486	B5-03822-P01-CH0	1220264	OK	0.2014656	0.0551512	0.078133	-0.9748155	103.401	-36.511	-291.668	B5-03822-P02-CH0	1220264	OK	0.719275	-0.0112411	-0.6946345	0	-79.642	-101.54	-1.963	B5-03822-P02-CH1	1220264	OK	0.7637996	-0.1361456	-0.6309315	0	-81.616	-82.243	2.787	B5-03822-P03-CH0	1220264	OK	0.806126	-0.1960338	-0.5583293	0	-99.188	-62.866	11.975	B5-03822-P03-CH1	1220264	OK	0.7991291	-0.5437562	0.256363	0	-98.996	-35.519	12.198	B5-03822-P04-CH0	1220264	OK	0.7949683	-0.2796951	0.5383271	0	-121.111	-40.693	12.757	B5-03822-P04-CH1	1220264	OK	0.821589	-0.5695339	0.0249518	0	-109.016	-54.57	10.852	NA
0.669463785514206	B5-03822-P01-CH0	1220272	OK	0.2014386	0.0548949	0.0789503	-0.9747697	103.344	-36.503	-291.788	B5-03822-P02-CH0	1220272	OK	0.7171159	-0.0133828	-0.6968254	0	-78.313	-100.743	-3.054	B5-03822-P02-CH1	1220272	OK	0.7627932	-0.1402158	-0.6312576	0	-81.186	-82.015	4.253	B5-03822-P03-CH0	1220272	OK	0.8051212	-0.1999065	-0.5584059	0	-98.143	-62.613	10.052	B5-03822-P03-CH1	1220272	OK	0.7992468	-0.5436427	0.2562365	0	-98.87	-35.353	11.362	B5-03822-P04-CH0	1220272	OK	0.795096	-0.2806213	0.537656	0	-120.97	-40.474	12.652	B5-03822-P04-CH1	1220272	OK	0.8219627	-0.5690207	0.0243471	0	-108.94	-54.458	10.726	NA
0.679455782312925	B5-03822-P01-CH0	1220280	OK	0.2012317	0.0546962	0.0786291	-0.9748495	103.228	-36.605	-291.862	B5-03822-P02-CH0	1220280	OK	0.7146296	-0.0167332	-0.6993029	0	-77.503	-100.971	-2.541	B5-03822-P02-CH1	1220280	OK	0.7592474	-0.1436124	-0.6347589	0	-81.74	-82.833	1.615	B5-03822-P03-CH0	1220280	OK	0.8044068	-0.2021127	-0.5586414	0	-97.007	-61.821	11.532	B5-03822-P03-CH1	1220280	OK	0.7993169	-0.5438462	0.2555852	0	-99.008	-34.826	10.635	B5-03822-P04-CH0	1220280	OK	0.7949477	-0.2820114	0.5371478	0	-120.857	-40.385	12.607	B5-03822-P04-CH1	1220280	OK	0.8217865	-0.5693117	0.0234765	0	-108.86	-54.279	10.659	NA
0.689447779111645	B5-03822-P01-CH0	1220288	OK	0.2009515	0.0550657	0.0783094	-0.9749123	103.391	-36.741	-291.88	B5-03822-P02-CH0	1220288	OK	0.711461	-0.0196486	-0.7024508	0	-78.035	-101.405	-1.54	B5-03822-P02-CH1	1220288	OK	0.7589529	-0.1474374	-0.6342339	0	-80.489	-81.259	-0.64	B5-03822-P03-CH0	1220288	OK	0.7995891	-0.2069504	-0.5637631	0	-98.402	-61.097	10.901	B5-03822-P03-CH1	1220288	OK	0.7988494	-0.544403	0.2558612	0	-99.397	-35.351	10.756	B5-03822-P04-CH0	1220288	OK	0.795243	-0.282776	0.536308	0	-120.952	-40.524	13.304	B5-03822-P04-CH1	1220288	OK	0.8216595	-0.5695372	0.0224295	0	-108.788	-54.218	11.079	NA
0.699439775910364	B5-03822-P01-CH0	1220296	OK	0.2011202	0.0549494	0.07905	-0.9748243	103.399	-36.783	-291.985	B5-03822-P02-CH0	1220296	OK	0.7117787	-0.0229744	-0.702028	0	-76.99	-100.227	-2.97	B5-03822-P02-CH1	1220296	OK	0.7546234	-0.151816	-0.6383537	0	-81.397	-80.284	-0.188	B5-03822-P03-CH0	1220296	OK	0.7983087	-0.2149426	-0.5625859	0	-97.432	-61.837	10.529	B5-03822-P03-CH1	1220296	OK	0.7992425	-0.543755	0.2560114	0	-99.077	-35.24	10.725	B5-03822-P04-CH0	1220296	OK	0.7954096	-0.2835165	0.5356697	0	-120.821	-40.481	13.283	B5-03822-P04-CH1	1220296	OK	0.8219965	-0.5690553	0.0223119	0	-108.62	-54.241	11.007	NA
0.709431772709084	B5-03822-P01-CH0	1220304	OK	0.2008808	0.0549844	0.0790816	-0.9748691	103.387	-36.785	-292.074	B5-03822-P02-CH0	1220304	OK	0.7109337	-0.0258358	-0.7027843	0	-76.789	-100.608	-3.766	B5-03822-P02-CH1	1220304	OK	0.7509722	-0.1543439	-0.6420426	0	-81.432	-80.273	0.439	B5-03822-P03-CH0	1220304	OK	0.7954996	-0.2201922	-0.5645315	0	-97.847	-61.48	9.838	B5-03822-P03-CH1	1220304	OK	0.7990538	-0.5439057	0.2562801	0	-98.944	-35.694	11.987	B5-03822-P04-CH0	1220304	OK	0.7955838	-0.2845796	0.5348465	0	-120.87	-40.37	13.277	B5-03822-P04-CH1	1220304	OK	0.8217702	-0.5694046	0.0217258	0	-108.62	-54.298	11.138	NA
0.719423769507803	B5-03822-P01-CH0	1220312	OK	0.2007753	0.0544706	0.0801366	-0.9748335	103.259	-36.825	-292.26	B5-03822-P02-CH0	1220312	OK	0.7095893	-0.0290395	-0.7040169	0	-76.473	-101.024	-3.601	B5-03822-P02-CH1	1220312	OK	0.7485708	-0.1570039	-0.6441983	0	-81	-81.406	0.296	B5-03822-P03-CH0	1220312	OK	0.7963151	-0.2236971	-0.5619982	0	-96.904	-61.272	10.762	B5-03822-P03-CH1	1220312	OK	0.7996383	-0.5433358	0.2556655	0	-98.759	-35.514	11.766	B5-03822-P04-CH0	1220312	OK	0.795776	-0.2852184	0.53422	0	-120.639	-40.205	13.321	B5-03822-P04-CH1	1220312	OK	0.82221	-0.5687867	0.0212709	0	-108.455	-54.311	11.138	NA
0.729415766306523	B5-03822-P01-CH0	1220320	OK	0.2008811	0.0544756	0.0805401	-0.9747782	103.294	-36.847	-292.388	B5-03822-P02-CH0	1220320	OK	0.7078925	-0.0320132	-0.7055943	0	-76.192	-100.75	-2.087	B5-03822-P02-CH1	1220320	OK	0.7469638	-0.1556788	-0.6463816	0	-80.615	-80.096	3.186	B5-03822-P03-CH0	1220320	OK	0.7972845	-0.2308222	-0.5577262	0	-96.248	-61.503	9.128	B5-03822-P03-CH1	1220320	OK	0.8000518	-0.5427564	0.2556023	0	-98.704	-35.469	11.806	B5-03822-P04-CH0	1220320	OK	0.7958198	-0.286002	0.5337356	0	-120.524	-40.014	13.015	B5-03822-P04-CH1	1220320	OK	0.8223431	-0.5686057	0.0209599	0	-108.538	-54.339	11.098	NA
0.739407763105242	B5-03822-P01-CH0	1220328	OK	0.200792	0.0543289	0.081088	-0.9747593	103.185	-36.731	-292.461	B5-03822-P02-CH0	1220328	OK	0.7065934	-0.0359018	-0.7067084	0	-76.19	-100.114	-3.149	B5-03822-P02-CH1	1220328	OK	0.745612	-0.1567536	-0.6476813	0	-79.944	-80.074	-1.302	B5-03822-P03-CH0	1220328	OK	0.7969706	-0.2351982	-0.556345	0	-96.602	-61.002	10.54	B5-03822-P03-CH1	1220328	OK	0.8010379	-0.541956	0.2542084	0	-98.818	-34.487	11.165	B5-03822-P04-CH0	1220328	OK	0.7960428	-0.2863205	0.5332321	0	-120.521	-39.941	13.149	B5-03822-P04-CH1	1220328	OK	0.8228519	-0.5679039	0.0199963	0	-108.652	-53.934	11.286	NA
0.749399759903962	B5-03822-P01-CH0	1220336	OK	0.2010771	0.0542188	0.0820791	-0.9746237	103.173	-36.637	-292.459	B5-03822-P02-CH0	1220336	OK	0.7070613	-0.0394382	-0.7060516	0	-75.111	-98.815	-4.978	B5-03822-P02-CH1	1220336	OK	0.7453112	-0.1601527	-0.6471957	0	-78.726	-79.432	-1.992	B5-03822-P03-CH0	1220336	OK	0.7962585	-0.2405312	-0.5550831	0	-97.431	-60.274	8.889	B5-03822-P03-CH1	1220336	OK	0.8017775	-0.5406957	0.2545603	0	-99.092	-34.642	11.385	B5-03822-P04-CH0	1220336	OK	0.7963265	-0.2864928	0.5327157	0	-120.541	-39.681	12.562	B5-03822-P04-CH1	1220336	OK	0.8235699	-0.5668671	0.0198566	0	-108.648	-53.657	11.073	NA
0.759391756702681	B5-03822-P01-CH0	1220344	OK	0.2009527	0.0540045	0.0826999	-0.9746088	103.092	-36.604	-292.48	B5-03822-P02-CH0	1220344	OK	0.7065175	-0.0410791	-0.7065023	0	-74.846	-98.717	-2.683	B5-03822-P02-CH1	1220344	OK	0.7416423	-0.1647256	-0.6502555	0	-80.13	-78.82	-2.546	B5-03822-P03-CH0	1220344	OK	0.7960752	-0.2437445	-0.5539431	0	-96.963	-60.848	9.523	B5-03822-P03-CH1	1220344	OK	0.8019455	-0.540569	0.2543	0	-98.491	-34.717	11.793	B5-03822-P04-CH0	1220344	OK	0.7965044	-0.2868098	0.5322789	0	-120.482	-39.461	12.321	B5-03822-P04-CH1	1220344	OK	0.8239193	-0.5663783	0.0193047	0	-108.569	-53.418	10.798	NA
0.769383753501401	B5-03822-P01-CH0	1220352	OK	0.2008563	0.054178	0.0825583	-0.974631	103.163	-36.535	-292.546	B5-03822-P02-CH0	1220352	OK	0.7051895	-0.0417271	-0.70779	0	-75.147	-98.505	-2.354	B5-03822-P02-CH1	1220352	OK	0.7397676	-0.1661811	-0.6520182	0	-80.537	-78.373	-1.767	B5-03822-P03-CH0	1220352	OK	0.7954659	-0.244833	-0.5543382	0	-96.327	-60.271	8.509	B5-03822-P03-CH1	1220352	OK	0.8024465	-0.5402173	0.2534658	0	-98.548	-34.404	12.467	B5-03822-P04-CH0	1220352	OK	0.7966161	-0.2872977	0.5318485	0	-120.537	-39.416	12.592	B5-03822-P04-CH1	1220352	OK	0.8237948	-0.5665754	0.018827	0	-108.634	-53.287	10.852	NA
0.77937575030012	B5-03822-P01-CH0	1220360	OK	0.2011503	0.0538382	0.083532	-0.9745062	103.166	-36.477	-292.768	B5-03822-P02-CH0	1220360	OK	0.7068498	-0.0427446	-0.706071	0	-74.075	-98.313	-3.461	B5-03822-P02-CH1	1220360	OK	0.7403235	-0.1675602	-0.6510336	0	-79.847	-78.427	-1.774	B5-03822-P03-CH0	1220360	OK	0.7947677	-0.2443411	-0.5555553	0	-96.008	-60.445	9.605	B5-03822-P03-CH1	1220360	OK	0.8031443	-0.5394887	0.2528066	0	-98.268	-34.102	12.11	B5-03822-P04-CH0	1220360	OK	0.7968268	-0.2866169	0.5319001	0	-120.403	-39.57	12.897	B5-03822-P04-CH1	1220360	OK	0.8243011	-0.5658279	0.0191445	0	-108.513	-53.311	10.745	NA
0.78936774709884	B5-03822-P01-CH0	1220368	OK	0.2012709	0.0537217	0.0835896	-0.9744828	103.161	-36.489	-292.801	B5-03822-P02-CH0	1220368	OK	0.7058378	-0.0426768	-0.7070868	0	-74.568	-98.884	-1.547	B5-03822-P02-CH1	1220368	OK	0.7411396	-0.1677307	-0.6500604	0	-78.87	-79.226	1.074	B5-03822-P03-CH0	1220368	OK	0.7934491	-0.2446545	-0.5572994	0	-96.674	-59.609	8.459	B5-03822-P03-CH1	1220368	OK	0.8034887	-0.5391789	0.2523728	0	-98.187	-33.906	11.861	B5-03822-P04-CH0	1220368	OK	0.796766	-0.2870544	0.5317554	0	-120.304	-39.298	12.438	B5-03822-P04-CH1	1220368	OK	0.8243139	-0.5658095	0.0191383	0	-108.555	-53.301	10.504	NA
0.799359743897559	B5-03822-P01-CH0	1220376	OK	0.2010311	0.0538791	0.0830274	-0.9745717	103.202	-36.491	-292.721	B5-03822-P02-CH0	1220376	OK	0.7044772	-0.0411551	-0.7085324	0	-75.818	-99.265	-2.667	B5-03822-P02-CH1	1220376	OK	0.7398608	-0.1670235	-0.6516972	0	-78.789	-79.654	-0.946	B5-03822-P03-CH0	1220376	OK	0.7920087	-0.2463785	-0.5585873	0	-97.321	-59.662	8.023	B5-03822-P03-CH1	1220376	OK	0.803392	-0.539638	0.2516983	0	-98.122	-33.49	11.024	B5-03822-P04-CH0	1220376	OK	0.7967134	-0.2871506	0.5317822	0	-120.43	-39.549	12.708	B5-03822-P04-CH1	1220376	OK	0.8240334	-0.5662369	0.0185683	0	-108.526	-53.205	10.618	NA
0.809351740696278	B5-03822-P01-CH0	1220384	OK	0.2010124	0.0539288	0.0824955	-0.974618	103.294	-36.581	-292.87	B5-03822-P02-CH0	1220384	OK	0.704046	-0.0401044	-0.7090211	0	-76.306	-98.768	-2.497	B5-03822-P02-CH1	1220384	OK	0.7392443	-0.1643975	-0.653063	0	-78.679	-80.495	-2.452	B5-03822-P03-CH0	1220384	OK	0.7918049	-0.2474665	-0.5583953	0	-96.421	-59.926	8.315	B5-03822-P03-CH1	1220384	OK	0.8037089	-0.5395267	0.2509242	0	-98.632	-32.972	10.169	B5-03822-P04-CH0	1220384	OK	0.7965112	-0.2871949	0.5320611	0	-120.435	-39.881	13.118	B5-03822-P04-CH1	1220384	OK	0.8238025	-0.5665819	0.018288	0	-108.599	-53.336	10.962	NA
0.819343737494998	B5-03822-P01-CH0	1220392	OK	0.2009063	0.0539207	0.0821727	-0.9746676	103.268	-36.544	-292.829	B5-03822-P02-CH0	1220392	OK	0.7054333	-0.0401095	-0.7076405	0	-75.666	-99.307	-1.933	B5-03822-P02-CH1	1220392	OK	0.7366579	-0.1666338	-0.6554146	0	-79.93	-79.662	1.06	B5-03822-P03-CH0	1220392	OK	0.789619	-0.2467412	-0.5618012	0	-96.706	-59.7	8.572	B5-03822-P03-CH1	1220392	OK	0.8031817	-0.5400869	0.2514068	0	-98.428	-33.347	10.364	B5-03822-P04-CH0	1220392	OK	0.7965669	-0.2870502	0.5320557	0	-120.587	-39.983	13.234	B5-03822-P04-CH1	1220392	OK	0.8239288	-0.5664114	0.0178716	0	-108.504	-52.982	10.863	NA
0.829335734293717	B5-03822-P01-CH0	1220400	OK	0.2007215	0.0538669	0.0817732	-0.9747422	103.273	-36.581	-292.874	B5-03822-P02-CH0	1220400	OK	0.7052855	-0.0401928	-0.7077831	0	-75.611	-99.004	-2.086	B5-03822-P02-CH1	1220400	OK	0.735274	-0.1650276	-0.6573721	0	-80.37	-79.789	0.399	B5-03822-P03-CH0	1220400	OK	0.7889986	-0.2480528	-0.5620952	0	-95.954	-60.103	7.891	B5-03822-P03-CH1	1220400	OK	0.8029305	-0.5405908	0.251126	0	-98.418	-33.213	10.007	B5-03822-P04-CH0	1220400	OK	0.7962772	-0.2873183	0.5323446	0	-120.539	-40.187	13.33	B5-03822-P04-CH1	1220400	OK	0.8236921	-0.5667602	0.0177256	0	-108.296	-52.971	10.868	NA
0.839327731092437	B5-03822-P01-CH0	1220408	OK	0.2008856	0.0536961	0.0816892	-0.9747249	103.288	-36.643	-292.924	B5-03822-P02-CH0	1220408	OK	0.7054894	-0.040484	-0.7075632	0	-75.436	-98.859	-2.529	B5-03822-P02-CH1	1220408	OK	0.7352835	-0.1645966	-0.6574695	0	-79.827	-80.811	0.45	B5-03822-P03-CH0	1220408	OK	0.7875258	-0.2469512	-0.56464	0	-95.966	-59.931	6.89	B5-03822-P03-CH1	1220408	OK	0.8025486	-0.5406201	0.2522808	0	-98.287	-34.011	10.917	B5-03822-P04-CH0	1220408	OK	0.7960985	-0.2875316	0.5324967	0	-120.46	-40.155	12.963	B5-03822-P04-CH1	1220408	OK	0.8236089	-0.5668777	0.0178333	0	-108.265	-53.043	10.548	NA
0.849319727891156	B5-03822-P01-CH0	1220416	OK	0.2007707	0.054	0.0808713	-0.9748	103.491	-36.764	-292.981	B5-03822-P02-CH0	1220416	OK	0.7051881	-0.0405017	-0.7078625	0	-75.636	-98.94	-2.243	B5-03822-P02-CH1	1220416	OK	0.7376287	-0.1631024	-0.6552111	0	-78.066	-81.203	0.297	B5-03822-P03-CH0	1220416	OK	0.7865611	-0.2441245	-0.5672079	0	-96.115	-58.913	8.46	B5-03822-P03-CH1	1220416	OK	0.802417	-0.5411142	0.2516395	0	-98.457	-33.552	10.101	B5-03822-P04-CH0	1220416	OK	0.79584	-0.2876131	0.532839	0	-120.513	-40.651	13.537	B5-03822-P04-CH1	1220416	OK	0.8230614	-0.5676776	0.0176626	0	-108.303	-53.263	10.652	NA
0.859311724689876	B5-03822-P01-CH0	1220424	OK	0.2007567	0.0542915	0.0797349	-0.9748803	103.582	-36.857	-292.928	B5-03822-P02-CH0	1220424	OK	0.7055199	-0.0405629	-0.7075284	0	-75.519	-99.034	-2.671	B5-03822-P02-CH1	1220424	OK	0.737837	-0.1652783	-0.6544308	0	-79.245	-80.271	1.233	B5-03822-P03-CH0	1220424	OK	0.7843884	-0.2459031	-0.5694441	0	-96.856	-58.891	7.457	B5-03822-P03-CH1	1220424	OK	0.8017605	-0.5417054	0.2524586	0	-98.755	-33.923	10.166	B5-03822-P04-CH0	1220424	OK	0.795353	-0.2884291	0.533125	0	-120.457	-40.631	13.369	B5-03822-P04-CH1	1220424	OK	0.8224454	-0.5685718	0.0175959	0	-108.331	-53.342	10.713	NA
0.869303721488595	B5-03822-P01-CH0	1220432	OK	0.2008711	0.0546153	0.0789707	-0.9749008	103.695	-36.943	-292.881	B5-03822-P02-CH0	1220432	OK	0.7055517	-0.0407639	-0.707485	0	-75.597	-99.193	-2.792	B5-03822-P02-CH1	1220432	OK	0.7374366	-0.1649821	-0.6549566	0	-79.012	-80.627	1.274	B5-03822-P03-CH0	1220432	OK	0.784395	-0.248203	-0.5684363	0	-96.411	-59.027	7.403	B5-03822-P03-CH1	1220432	OK	0.8016847	-0.5419253	0.2522274	0	-99.065	-33.481	9.188	B5-03822-P04-CH0	1220432	OK	0.7952692	-0.2881213	0.5334164	0	-120.584	-40.839	13.616	B5-03822-P04-CH1	1220432	OK	0.8220383	-0.5691589	0.0176401	0	-108.34	-53.476	10.835	NA
0.879295718287315	B5-03822-P01-CH0	1220440	OK	0.2005022	0.0546393	0.07838	-0.9750231	103.675	-37.064	-292.736	B5-03822-P02-CH0	1220440	OK	0.7057099	-0.0401327	-0.7073633	0	-75.73	-99.318	-3.131	B5-03822-P02-CH1	1220440	OK	0.7369335	-0.1638432	-0.6558082	0	-78.98	-80.678	1.082	B5-03822-P03-CH0	1220440	OK	0.7826664	-0.2469159	-0.5713719	0	-97.266	-58.856	8.238	B5-03822-P03-CH1	1220440	OK	0.8010674	-0.5424703	0.2530158	0	-99.32	-34.338	10.281	B5-03822-P04-CH0	1220440	OK	0.7949713	-0.2888784	0.5334509	0	-120.626	-40.745	13.323	B5-03822-P04-CH1	1220440	OK	0.8217823	-0.5695498	0.0169343	0	-108.368	-53.476	11.133	NA
0.889287715086034	B5-03822-P01-CH0	1220448	OK	0.2006345	0.0543328	0.0792084	-0.974946	103.569	-36.894	-292.926	B5-03822-P02-CH0	1220448	OK	0.7060554	-0.0397672	-0.7070391	0	-75.69	-99.059	-3.188	B5-03822-P02-CH1	1220448	OK	0.7368944	-0.1631042	-0.6560363	0	-78.826	-80.447	0.721	B5-03822-P03-CH0	1220448	OK	0.7840056	-0.2491338	-0.5685662	0	-95.9	-60.129	8.62	B5-03822-P03-CH1	1220448	OK	0.8012065	-0.5419792	0.2536269	0	-99.23	-34.575	10.704	B5-03822-P04-CH0	1220448	OK	0.7951059	-0.2883661	0.5335275	0	-120.627	-40.634	13.446	B5-03822-P04-CH1	1220448	OK	0.8221522	-0.5690103	0.0171152	0	-108.248	-53.39	10.99	NA
0.899279711884754	B5-03822-P01-CH0	1220456	OK	0.2007334	0.0543576	0.0795916	-0.9748931	103.629	-36.855	-293.114	B5-03822-P02-CH0	1220456	OK	0.7064022	-0.0395276	-0.7067061	0	-75.661	-99.026	-3.185	B5-03822-P02-CH1	1220456	OK	0.7360812	-0.1626972	-0.6570495	0	-79.115	-80.433	0.766	B5-03822-P03-CH0	1220456	OK	0.784549	-0.2498714	-0.567492	0	-95.579	-60.03	8.155	B5-03822-P03-CH1	1220456	OK	0.8014818	-0.5416134	0.2535387	0	-99.232	-34.654	11.496	B5-03822-P04-CH0	1220456	OK	0.7952651	-0.2880929	0.5334378	0	-120.646	-40.559	13.791	B5-03822-P04-CH1	1220456	OK	0.8223594	-0.5687118	0.017084	0	-108.337	-53.528	11.493	NA
0.909271708683473	B5-03822-P01-CH0	1220464	OK	0.2009428	0.0540953	0.0803354	-0.9748035	103.581	-36.754	-293.147	B5-03822-P02-CH0	1220464	OK	0.7070481	-0.0394819	-0.7060625	0	-75.513	-98.978	-3.399	B5-03822-P02-CH1	1220464	OK	0.7362401	-0.1621003	-0.6570191	0	-78.963	-80.214	0.424	B5-03822-P03-CH0	1220464	OK	0.7841208	-0.2501156	-0.5679761	0	-95.634	-59.436	7.368	B5-03822-P03-CH1	1220464	OK	0.8016226	-0.5412216	0.2539298	0	-98.995	-34.781	11.784	B5-03822-P04-CH0	1220464	OK	0.7952787	-0.2881693	0.5333762	0	-120.606	-40.284	13.365	B5-03822-P04-CH1	1220464	OK	0.8228397	-0.5680147	0.0171496	0	-108.22	-53.309	11.236	NA
0.919263705482193	B5-03822-P01-CH0	1220472	OK	0.2011336	0.0539761	0.0805966	-0.9747492	103.592	-36.738	-293.211	B5-03822-P02-CH0	1220472	OK	0.70742	-0.0393212	-0.7056988	0	-75.555	-99.012	-3.652	B5-03822-P02-CH1	1220472	OK	0.7361047	-0.1612648	-0.6573763	0	-78.931	-80.199	0.28	B5-03822-P03-CH0	1220472	OK	0.7832828	-0.2501099	-0.5691336	0	-95.406	-59.849	7.841	B5-03822-P03-CH1	1220472	OK	0.8018221	-0.5408295	0.2541352	0	-98.993	-34.814	12.186	B5-03822-P04-CH0	1220472	OK	0.7951435	-0.2881394	0.533594	0	-120.555	-40.198	13.325	B5-03822-P04-CH1	1220472	OK	0.8228337	-0.5680173	0.0173524	0	-108.261	-53.515	11.444	NA
0.929255702280912	B5-03822-P01-CH0	1220480	OK	0.2014017	0.0539867	0.0811199	-0.9746499	103.66	-36.692	-293.307	B5-03822-P02-CH0	1220480	OK	0.7079708	-0.0392564	-0.7051498	0	-75.517	-98.886	-3.607	B5-03822-P02-CH1	1220480	OK	0.7362169	-0.1604437	-0.6574516	0	-78.821	-80.182	0.063	B5-03822-P03-CH0	1220480	OK	0.7846388	-0.248199	-0.5681013	0	-95.771	-59.74	8.773	B5-03822-P03-CH1	1220480	OK	0.8023375	-0.5403096	0.2536139	0	-99.239	-34.261	11.417	B5-03822-P04-CH0	1220480	OK	0.7953992	-0.2875435	0.5335344	0	-120.636	-40.204	13.69	B5-03822-P04-CH1	1220480	OK	0.8231067	-0.5676145	0.0175806	0	-108.354	-53.636	11.681	NA
0.939247699079632	B5-03822-P01-CH0	1220488	OK	0.2012902	0.0545318	0.0804744	-0.9746961	103.854	-36.692	-293.262	B5-03822-P02-CH0	1220488	OK	0.7082258	-0.0385895	-0.7049305	0	-75.704	-98.945	-3.406	B5-03822-P02-CH1	1220488	OK	0.7352307	-0.1596082	-0.6587572	0	-79.321	-80.128	0.127	B5-03822-P03-CH0	1220488	OK	0.7835408	-0.2493878	-0.5690954	0	-96.045	-59.75	8.792	B5-03822-P03-CH1	1220488	OK	0.8019999	-0.5408811	0.2534634	0	-99.883	-34.365	11.556	B5-03822-P04-CH0	1220488	OK	0.7954058	-0.2877092	0.5334352	0	-120.882	-40.229	13.945	B5-03822-P04-CH1	1220488	OK	0.8225298	-0.5684551	0.0174229	0	-108.431	-53.773	11.911	NA
0.949239695878351	B5-03822-P01-CH0	1220496	OK	0.2013665	0.0543279	0.0803813	-0.9746994	103.755	-36.762	-293.238	B5-03822-P02-CH0	1220496	OK	0.7088679	-0.0375352	-0.7043418	0	-75.639	-98.918	-3.462	B5-03822-P02-CH1	1220496	OK	0.7351172	-0.1592969	-0.6589591	0	-79.376	-79.921	-0.269	B5-03822-P03-CH0	1220496	OK	0.7831494	-0.2505106	-0.5691411	0	-95.85	-59.846	8.695	B5-03822-P03-CH1	1220496	OK	0.8012184	-0.5418483	0.2538692	0	-99.262	-34.619	11.46	B5-03822-P04-CH0	1220496	OK	0.7954268	-0.2875196	0.533506	0	-120.882	-40.191	14.034	B5-03822-P04-CH1	1220496	OK	0.822415	-0.5686226	0.0173763	0	-108.38	-53.813	11.839	NA
0.959231692677071	B5-03822-P01-CH0	1220504	OK	0.2015315	0.0544093	0.0806182	-0.9746411	103.792	-36.684	-293.243	B5-03822-P02-CH0	1220504	OK	0.71004	-0.0293619	-0.7035489	0	-76.581	-98.528	-0.926	B5-03822-P02-CH1	1220504	OK	0.7349254	-0.1592014	-0.6591962	0	-79.464	-79.735	-0.781	B5-03822-P03-CH0	1220504	OK	0.7788586	-0.2562766	-0.5724522	0	-96.653	-59.323	7.731	B5-03822-P03-CH1	1220504	OK	0.8014588	-0.5416306	0.2535744	0	-99.319	-34.308	11.685	B5-03822-P04-CH0	1220504	OK	0.7954166	-0.2870463	0.533776	0	-120.937	-40.327	14.156	B5-03822-P04-CH1	1220504	OK	0.822385	-0.5686548	0.017738	0	-108.269	-53.879	11.827	NA
0.96922368947579	B5-03822-P01-CH0	1220512	OK	0.2014301	0.05368	0.0810982	-0.9746627	103.576	-36.737	-293.254	B5-03822-P02-CH0	1220512	OK	0.7117626	-0.0259004	-0.7019424	0	-76.135	-97.991	-1.145	B5-03822-P02-CH1	1220512	OK	0.7352354	-0.1588193	-0.6589426	0	-79.313	-79.459	-1.142	B5-03822-P03-CH0	1220512	OK	0.7791011	-0.2571368	-0.5717361	0	-96.171	-58.673	6.882	B5-03822-P03-CH1	1220512	OK	0.8012772	-0.5419008	0.2535711	0	-98.994	-34.47	11.75	B5-03822-P04-CH0	1220512	OK	0.7948953	-0.2879169	0.5340837	0	-120.529	-39.889	13.349	B5-03822-P04-CH1	1220512	OK	0.8225815	-0.5683703	0.0177413	0	-108.027	-53.845	11.532	NA
0.97921568627451	B5-03822-P01-CH0	1220520	OK	0.2016742	0.0539201	0.0811637	-0.9745935	103.637	-36.621	-293.263	B5-03822-P02-CH0	1220520	OK	0.7126585	-0.024239	-0.7010922	0	-75.863	-98.577	-2.051	B5-03822-P02-CH1	1220520	OK	0.7347663	-0.159322	-0.6593443	0	-79.368	-79.585	-0.677	B5-03822-P03-CH0	1220520	OK	0.7767045	-0.2588954	-0.5741979	0	-96.662	-58.469	6.484	B5-03822-P03-CH1	1220520	OK	0.801514	-0.5416736	0.2533082	0	-99.172	-34.067	11.455	B5-03822-P04-CH0	1220520	OK	0.7950974	-0.2875795	0.5339646	0	-120.578	-39.831	13.663	B5-03822-P04-CH1	1220520	OK	0.8225922	-0.5683505	0.0178848	0	-108.006	-53.76	11.391	NA
0.989207683073229	B5-03822-P01-CH0	1220528	OK	0.2015944	0.0542147	0.0800333	-0.9746872	103.676	-36.722	-293.147	B5-03822-P02-CH0	1220528	OK	0.7130265	-0.021293	-0.7008136	0	-75.912	-98.368	-0.782	B5-03822-P02-CH1	1220528	OK	0.734458	-0.1593628	-0.6596779	0	-79.274	-79.596	-0.435	B5-03822-P03-CH0	1220528	OK	0.7758448	-0.2618534	-0.5740189	0	-96.012	-58.699	6.469	B5-03822-P03-CH1	1220528	OK	0.8008589	-0.542837	0.2528893	0	-98.872	-33.462	10.337	B5-03822-P04-CH0	1220528	OK	0.7947626	-0.2881099	0.5341771	0	-120.568	-39.945	13.738	B5-03822-P04-CH1	1220528	OK	0.8220276	-0.5691742	0.0176473	0	-108.023	-53.699	11.526	NA
0.999199679871949	B5-03822-P01-CH0	1220536	OK	0.2017439	0.053633	0.0801783	-0.9746765	103.488	-36.717	-293.149	B5-03822-P02-CH0	1220536	OK	0.7133221	-0.0188579	-0.7005826	0	-76.291	-98.672	-1.245	B5-03822-P02-CH1	1220536	OK	0.7344229	-0.1592256	-0.6597501	0	-79.092	-79.659	-0.35	B5-03822-P03-CH0	1220536	OK	0.7776076	-0.2633827	-0.5709255	0	-94.432	-57.776	4.686	B5-03822-P03-CH1	1220536	OK	0.8010811	-0.5426435	0.2526008	0	-99.127	-33.028	9.552	B5-03822-P04-CH0	1220536	OK	0.7944288	-0.2883139	0.5345634	0	-120.352	-39.825	13.256	B5-03822-P04-CH1	1220536	OK	0.8221054	-0.5690505	0.0180072	0	-107.741	-53.594	11.182	NA
1.00919167667067	B5-03822-P01-CH0	1220544	OK	0.2018565	0.0536537	0.0801044	-0.9746582	103.544	-36.839	-293.135	B5-03822-P02-CH0	1220544	OK	0.7138311	-0.0177148	-0.7000938	0	-76.265	-98.958	-2.562	B5-03822-P02-CH1	1220544	OK	0.7338037	-0.1595435	-0.660362	0	-79.224	-79.6	-0.002	B5-03822-P03-CH0	1220544	OK	0.7739857	-0.2643368	-0.5753887	0	-95.429	-58.134	5.876	B5-03822-P03-CH1	1220544	OK	0.800695	-0.5429212	0.2532275	0	-99.155	-33.623	9.736	B5-03822-P04-CH0	1220544	OK	0.7945385	-0.2879978	0.5345708	0	-120.378	-39.922	13.358	B5-03822-P04-CH1	1220544	OK	0.8219556	-0.5692635	0.018114	0	-107.624	-53.89	11.382	NA
1.01918367346939	B5-03822-P01-CH0	1220552	OK	0.201781	0.0537258	0.0800331	-0.9746757	103.538	-36.843	-293.058	B5-03822-P02-CH0	1220552	OK	0.7138392	-0.0141743	-0.7001662	0	-76.489	-98.43	-2.515	B5-03822-P02-CH1	1220552	OK	0.7313272	-0.1618856	-0.6625357	0	-78.916	-78.269	0.451	B5-03822-P03-CH0	1220552	OK	0.7741085	-0.2664937	-0.5742274	0	-94.245	-58.486	6.347	B5-03822-P03-CH1	1220552	OK	0.8004352	-0.543367	0.2530926	0	-99.038	-33.42	9.023	B5-03822-P04-CH0	1220552	OK	0.7945293	-0.2884895	0.5343192	0	-120.338	-39.585	12.811	B5-03822-P04-CH1	1220552	OK	0.8219048	-0.5693356	0.0181495	0	-107.566	-53.741	10.905	NA
