Wav.Time	B5.03822.P01.CH0	Frame	State	Q0	Qx	Qy	Qz	Tx	Ty	Tz	B5.03822.P02.CH0	Frame.1	State.1	Q0.1	Qx.1	Qy.1	Qz.1	Tx.1	Ty.1	Tz.1	B5.03822.P02.CH1	Frame.2	State.2	Q0.2	Qx.2	Qy.2	Qz.2	Tx.2	Ty.2	Tz.2	B5.03822.P03.CH0	Frame.3	State.3	Q0.3	Qx.3	Qy.3	Qz.3	Tx.3	Ty.3	Tz.3	B5.03822.P03.CH1	Frame.4	State.4	Q0.4	Qx.4	Qy.4	Qz.4	Tx.4	Ty.4	Tz.4	B5.03822.P04.CH0	Frame.5	State.5	Q0.5	Qx.5	Qy.5	Qz.5	Tx.5	Ty.5	Tz.5	B5.03822.P04.CH1	Frame.6	State.6	Q0.6	Qx.6	Qy.6	Qz.6	Tx.6	Ty.6	Tz.6	X
0	B5-03822-P01-CH0	832288	OK	0.1862771	0.1457603	0.0901457	-0.967434	164.929	-33.323	-242.08	B5-03822-P02-CH0	832288	OK	0.7416003	0.2938626	-0.6030537	0	-90.652	-86.822	1.727	B5-03822-P02-CH1	832288	OK	0.7692077	-0.100779	-0.6310017	0	-93.69	-68.203	5.149	B5-03822-P03-CH0	832288	OK	0.7182869	-0.1637315	-0.676207	0	-99.751	-46.488	7.963	B5-03822-P03-CH1	832288	OK	0.7585916	-0.6491622	-0.0559212	0	-101.548	-10.194	2.835	B5-03822-P04-CH0	832288	OK	0.7955379	-0.3767096	0.4745623	0	-128.938	-26.756	14.632	B5-03822-P04-CH1	832288	OK	0.7936334	-0.6076875	0.0293588	0	-113.651	-32.356	3.54	NA
0.00999185999185999	B5-03822-P01-CH0	832296	OK	0.1859137	0.1459509	0.0894792	-0.967537	164.924	-33.435	-242.055	B5-03822-P02-CH0	832296	OK	0.7460136	0.2792091	-0.6045709	0	-90.287	-86.526	2.437	B5-03822-P02-CH1	832296	OK	0.7739793	-0.0979724	-0.6255857	0	-94.317	-67.649	4.939	B5-03822-P03-CH0	832296	OK	0.7158881	-0.1566457	-0.6804163	0	-100.358	-46.091	6.981	B5-03822-P03-CH1	832296	OK	0.7582127	-0.6495643	-0.0563895	0	-101.518	-10.086	2.737	B5-03822-P04-CH0	832296	OK	0.7938943	-0.3758592	0.4779768	0	-128.301	-26.08	13.953	B5-03822-P04-CH1	832296	OK	0.793114	-0.6084009	0.0286093	0	-113.526	-32.334	3.377	NA
0.01998371998372	B5-03822-P01-CH0	832304	OK	0.1860994	0.1458542	0.0898313	-0.9674833	164.85	-33.459	-241.977	B5-03822-P02-CH0	832304	OK	0.7493994	0.261623	-0.6082384	0	-91.287	-86.914	2.258	B5-03822-P02-CH1	832304	OK	0.7792108	-0.0962115	-0.6193335	0	-94.921	-67.772	5.488	B5-03822-P03-CH0	832304	OK	0.7172762	-0.1507594	-0.6802841	0	-98.991	-46.308	7.229	B5-03822-P03-CH1	832304	OK	0.7585255	-0.6492007	-0.0563695	0	-101.371	-10.047	2.49	B5-03822-P04-CH0	832304	OK	0.7937849	-0.3715805	0.481491	0	-128.508	-25.004	12.542	B5-03822-P04-CH1	832304	OK	0.7932381	-0.6082217	0.0289758	0	-113.653	-32.633	3.802	NA
0.02997557997558	B5-03822-P01-CH0	832312	OK	0.1862203	0.1457684	0.09055	-0.967406	164.841	-33.436	-242.058	B5-03822-P02-CH0	832312	OK	0.752428	0.2447371	-0.6115193	0	-92.193	-87.597	2.931	B5-03822-P02-CH1	832312	OK	0.7854597	-0.0950057	-0.6115774	0	-94.867	-67.962	5.405	B5-03822-P03-CH0	832312	OK	0.7151395	-0.1427615	-0.6842474	0	-99.773	-45.995	6.757	B5-03822-P03-CH1	832312	OK	0.7589605	-0.6486947	-0.0563389	0	-101.409	-10.118	2.585	B5-03822-P04-CH0	832312	OK	0.7941595	-0.3637015	0.4868593	0	-129.539	-26.345	13.941	B5-03822-P04-CH1	832312	OK	0.7937338	-0.607606	0.0283112	0	-113.459	-32.404	3.688	NA
0.03996743996744	B5-03822-P01-CH0	832320	OK	0.1862821	0.145709	0.090901	-0.9673701	164.85	-33.512	-242.097	B5-03822-P02-CH0	832320	OK	0.7571775	0.2280181	-0.6121193	0	-91.924	-87.077	2.966	B5-03822-P02-CH1	832320	OK	0.7901647	-0.0934111	-0.6057344	0	-95.753	-68.026	5.776	B5-03822-P03-CH0	832320	OK	0.7130111	-0.1318946	-0.6886356	0	-99.971	-45.956	6.814	B5-03822-P03-CH1	832320	OK	0.7597441	-0.6476996	-0.0572208	0	-101.335	-9.74	2.369	B5-03822-P04-CH0	832320	OK	0.7926891	-0.361048	0.4912111	0	-128.559	-24.531	12.688	B5-03822-P04-CH1	832320	OK	0.7939354	-0.60736	0.0279355	0	-113.419	-32.461	3.636	NA
0.0499592999593	B5-03822-P01-CH0	832328	OK	0.1862806	0.1455835	0.0912369	-0.9673576	164.844	-33.604	-242.213	B5-03822-P02-CH0	832328	OK	0.7616791	0.2102035	-0.6129107	0	-92.175	-87.147	3.295	B5-03822-P02-CH1	832328	OK	0.7936873	-0.094678	-0.6009131	0	-96.596	-68.786	5.99	B5-03822-P03-CH0	832328	OK	0.7126341	-0.1199386	-0.6912072	0	-99.439	-46.051	7.473	B5-03822-P03-CH1	832328	OK	0.7603157	-0.6469804	-0.0577611	0	-101.159	-9.65	2.365	B5-03822-P04-CH0	832328	OK	0.792408	-0.3544731	0.4964256	0	-129.329	-25.194	13.193	B5-03822-P04-CH1	832328	OK	0.7940355	-0.6072325	0.027862	0	-113.451	-32.748	4.202	NA
0.05995115995116	B5-03822-P01-CH0	832336	OK	0.1861223	0.1456373	0.0910073	-0.9674016	164.857	-33.718	-242.244	B5-03822-P02-CH0	832336	OK	0.7659582	0.1910388	-0.6138504	0	-92.438	-87.379	3.852	B5-03822-P02-CH1	832336	OK	0.7971839	-0.0935552	-0.5964438	0	-96.856	-69.123	7.514	B5-03822-P03-CH0	832336	OK	0.7116235	-0.1071997	-0.6943344	0	-99.629	-46.165	7.33	B5-03822-P03-CH1	832336	OK	0.7600208	-0.6473093	-0.0579577	0	-101.178	-10.014	2.744	B5-03822-P04-CH0	832336	OK	0.7919148	-0.3496942	0.5005845	0	-129.913	-25.654	13.432	B5-03822-P04-CH1	832336	OK	0.7939741	-0.6073466	0.0271169	0	-113.425	-32.642	4.235	NA
0.0699430199430199	B5-03822-P01-CH0	832344	OK	0.1859309	0.1456874	0.0910197	-0.9674297	164.828	-33.783	-242.228	B5-03822-P02-CH0	832344	OK	0.7712793	0.1736484	-0.6123516	0	-92.116	-86.572	2.733	B5-03822-P02-CH1	832344	OK	0.8013174	-0.0942431	-0.5907695	0	-97.037	-69.323	7.802	B5-03822-P03-CH0	832344	OK	0.710416	-0.0925718	-0.6976672	0	-99.818	-46.233	7.733	B5-03822-P03-CH1	832344	OK	0.7601711	-0.6470471	-0.0589066	0	-100.974	-9.938	2.575	B5-03822-P04-CH0	832344	OK	0.7911375	-0.3462892	0.5041679	0	-130.062	-26.612	14.241	B5-03822-P04-CH1	832344	OK	0.7939377	-0.607414	0.0266683	0	-113.533	-32.684	4.467	NA
0.0799348799348799	B5-03822-P01-CH0	832352	OK	0.1857886	0.1454557	0.0911246	-0.9674821	164.793	-33.817	-242.403	B5-03822-P02-CH0	832352	OK	0.7763227	0.1577451	-0.6102783	0	-91.924	-86.364	2.596	B5-03822-P02-CH1	832352	OK	0.8037288	-0.0967317	-0.58708	0	-97.994	-69.083	7.88	B5-03822-P03-CH0	832352	OK	0.7096915	-0.0810075	-0.6998398	0	-100.387	-46.768	7.269	B5-03822-P03-CH1	832352	OK	0.7604742	-0.646636	-0.0595057	0	-100.808	-9.876	2.676	B5-03822-P04-CH0	832352	OK	0.7902868	-0.3473457	0.5047749	0	-128.777	-24.14	12.979	B5-03822-P04-CH1	832352	OK	0.7937755	-0.6076304	0.0265682	0	-113.412	-32.795	4.539	NA
0.0899267399267399	B5-03822-P01-CH0	832360	OK	0.185191	0.1456958	0.0901119	-0.9676554	164.756	-33.971	-242.334	B5-03822-P02-CH0	832360	OK	0.7801511	0.144355	-0.6087084	0	-92.378	-86.794	3.634	B5-03822-P02-CH1	832360	OK	0.8067571	-0.0999663	-0.5823656	0	-98.142	-68.904	7.5	B5-03822-P03-CH0	832360	OK	0.7101437	-0.0687568	-0.7006914	0	-100.151	-47.05	8.321	B5-03822-P03-CH1	832360	OK	0.7596986	-0.6474912	-0.0601091	0	-100.837	-10.144	2.947	B5-03822-P04-CH0	832360	OK	0.7895878	-0.3428794	0.5089055	0	-129.191	-25.22	14.057	B5-03822-P04-CH1	832360	OK	0.7932208	-0.6084031	0.0254241	0	-113.358	-32.501	4.308	NA
0.0999185999185999	B5-03822-P01-CH0	832368	OK	0.1850182	0.1457943	0.0902113	-0.9676643	164.738	-33.944	-242.338	B5-03822-P02-CH0	832368	OK	0.7852907	0.1381954	-0.6035069	0	-92.189	-86.327	3.1	B5-03822-P02-CH1	832368	OK	0.8090602	-0.1011033	-0.5789643	0	-98.255	-68.591	7.106	B5-03822-P03-CH0	832368	OK	0.7111855	-0.0586148	-0.7005566	0	-100.257	-46.716	7.934	B5-03822-P03-CH1	832368	OK	0.7595586	-0.6476466	-0.060204	0	-100.937	-10.429	3.204	B5-03822-P04-CH0	832368	OK	0.7892866	-0.3402522	0.5111313	0	-128.902	-24.842	14.562	B5-03822-P04-CH1	832368	OK	0.7934024	-0.608193	0.024778	0	-113.381	-32.151	4.084	NA
0.10991045991046	B5-03822-P01-CH0	832376	OK	0.1852079	0.145772	0.0906388	-0.9675914	164.732	-33.915	-242.367	B5-03822-P02-CH0	832376	OK	0.7884217	0.1318737	-0.6008332	0	-92.847	-86.86	4.2	B5-03822-P02-CH1	832376	OK	0.8103088	-0.105313	-0.5764623	0	-98.209	-69.173	7.498	B5-03822-P03-CH0	832376	OK	0.7118793	-0.0529225	-0.700305	0	-100.774	-46.453	7.466	B5-03822-P03-CH1	832376	OK	0.7598336	-0.6473415	-0.0600154	0	-100.923	-10.656	3.37	B5-03822-P04-CH0	832376	OK	0.7890766	-0.3354834	0.514596	0	-129.705	-26.604	15.234	B5-03822-P04-CH1	832376	OK	0.7935784	-0.6079556	0.0249677	0	-113.478	-32.204	4.093	NA
0.11990231990232	B5-03822-P01-CH0	832384	OK	0.1849583	0.1460266	0.0904939	-0.9676144	164.774	-33.897	-242.387	B5-03822-P02-CH0	832384	OK	0.7902294	0.1298894	-0.5988874	0	-93.801	-86.912	4.198	B5-03822-P02-CH1	832384	OK	0.8087901	-0.1081552	-0.5780667	0	-99.173	-68.976	7.453	B5-03822-P03-CH0	832384	OK	0.7146653	-0.0510444	-0.6976015	0	-100.634	-46.562	7.21	B5-03822-P03-CH1	832384	OK	0.7596132	-0.6475635	-0.0604102	0	-101.086	-10.766	3.554	B5-03822-P04-CH0	832384	OK	0.7888903	-0.3327052	0.5166811	0	-129.74	-27.322	16.064	B5-03822-P04-CH1	832384	OK	0.7935073	-0.6080764	0.0242761	0	-113.475	-31.97	4.176	NA
0.12989417989418	B5-03822-P01-CH0	832392	OK	0.1849484	0.1458787	0.0911398	-0.9675779	164.732	-33.824	-242.47	B5-03822-P02-CH0	832392	OK	0.7930987	0.1300144	-0.5950553	0	-93.67	-86.976	4.271	B5-03822-P02-CH1	832392	OK	0.8077802	-0.1109971	-0.5789394	0	-99.579	-68.234	8.208	B5-03822-P03-CH0	832392	OK	0.71649	-0.0543164	-0.6954795	0	-101.185	-46.892	7.842	B5-03822-P03-CH1	832392	OK	0.7598164	-0.6473098	-0.0605732	0	-101.06	-10.94	3.645	B5-03822-P04-CH0	832392	OK	0.7901506	-0.3319636	0.5152302	0	-129.62	-24.992	14.14	B5-03822-P04-CH1	832392	OK	0.7940959	-0.6073197	0.0239683	0	-113.558	-31.628	3.902	NA
0.13988603988604	B5-03822-P01-CH0	832400	OK	0.1849466	0.14598	0.091592	-0.9675203	164.764	-33.765	-242.5	B5-03822-P02-CH0	832400	OK	0.794733	0.1316647	-0.5925064	0	-93.565	-86.618	4.182	B5-03822-P02-CH1	832400	OK	0.8062312	-0.1175757	-0.5797993	0	-99.546	-67.981	7.077	B5-03822-P03-CH0	832400	OK	0.720145	-0.0631261	-0.6909459	0	-101.526	-46.961	8.76	B5-03822-P03-CH1	832400	OK	0.7599791	-0.6470926	-0.0608507	0	-101.079	-11.064	3.809	B5-03822-P04-CH0	832400	OK	0.7915478	-0.3273604	0.5160303	0	-129.999	-25.622	15.42	B5-03822-P04-CH1	832400	OK	0.7943572	-0.606971	0.0241417	0	-113.838	-31.552	3.841	NA
0.1498778998779	B5-03822-P01-CH0	832408	OK	0.1846414	0.1461919	0.0914834	-0.9675569	164.849	-33.75	-242.586	B5-03822-P02-CH0	832408	OK	0.7943275	0.1354987	-0.5921858	0	-94.045	-86.497	4.322	B5-03822-P02-CH1	832408	OK	0.804204	-0.1264458	-0.5807473	0	-98.508	-68.277	7.218	B5-03822-P03-CH0	832408	OK	0.7236997	-0.079218	-0.6855533	0	-102.48	-46.827	8.454	B5-03822-P03-CH1	832408	OK	0.759606	-0.6474755	-0.0614348	0	-101.223	-11.282	4.102	B5-03822-P04-CH0	832408	OK	0.7932195	-0.3226182	0.5164497	0	-130.601	-25.804	15.837	B5-03822-P04-CH1	832408	OK	0.7944279	-0.6068904	0.0238395	0	-113.882	-31.266	3.64	NA
0.15986975986976	B5-03822-P01-CH0	832416	OK	0.1844213	0.1462423	0.0913377	-0.967605	164.857	-33.708	-242.653	B5-03822-P02-CH0	832416	OK	0.7943384	0.1422021	-0.5905971	0	-93.984	-86.475	5.665	B5-03822-P02-CH1	832416	OK	0.7994327	-0.1368651	-0.5849575	0	-98.253	-67.138	6.034	B5-03822-P03-CH0	832416	OK	0.7285359	-0.0949098	-0.6784007	0	-102.637	-47.195	8.715	B5-03822-P03-CH1	832416	OK	0.7594192	-0.6476223	-0.0621917	0	-101.26	-11.236	4.038	B5-03822-P04-CH0	832416	OK	0.7942667	-0.3171671	0.5182137	0	-131.42	-26.724	15.698	B5-03822-P04-CH1	832416	OK	0.7943443	-0.6069735	0.0245007	0	-114.005	-31.31	3.552	NA
0.16986161986162	B5-03822-P01-CH0	832424	OK	0.1845619	0.1460552	0.0917284	-0.9675695	164.854	-33.656	-242.796	B5-03822-P02-CH0	832424	OK	0.7923785	0.1498602	-0.5913359	0	-94.358	-86.903	5.604	B5-03822-P02-CH1	832424	OK	0.7950453	-0.1493169	-0.5878838	0	-97.855	-68.289	6.906	B5-03822-P03-CH0	832424	OK	0.7359498	-0.1132998	-0.6674887	0	-102.308	-47.794	10.996	B5-03822-P03-CH1	832424	OK	0.7595944	-0.6473771	-0.062604	0	-101.265	-11.352	4.219	B5-03822-P04-CH0	832424	OK	0.795146	-0.3123627	0.5197812	0	-132.04	-27.957	16.173	B5-03822-P04-CH1	832424	OK	0.7946066	-0.6065679	0.0259946	0	-114.07	-31.524	3.662	NA
0.17985347985348	B5-03822-P01-CH0	832432	OK	0.1844759	0.1463461	0.0915791	-0.9675561	164.892	-33.581	-242.703	B5-03822-P02-CH0	832432	OK	0.790491	0.1614334	-0.5908158	0	-93.739	-86.353	5.379	B5-03822-P02-CH1	832432	OK	0.7907776	-0.1584657	-0.5912355	0	-98.132	-67.972	5.15	B5-03822-P03-CH0	832432	OK	0.7416732	-0.136732	-0.6566774	0	-104.529	-48.839	10.172	B5-03822-P03-CH1	832432	OK	0.7593168	-0.6476159	-0.0634949	0	-101.408	-11.378	4.135	B5-03822-P04-CH0	832432	OK	0.7949699	-0.3103978	0.5212256	0	-132.009	-28.002	15.563	B5-03822-P04-CH1	832432	OK	0.7948002	-0.6062752	0.0268874	0	-114.298	-31.248	3.279	NA
0.18984533984534	B5-03822-P01-CH0	832440	OK	0.1849291	0.1461988	0.0925202	-0.9674023	164.949	-33.418	-242.838	B5-03822-P02-CH0	832440	OK	0.7864265	0.1715037	-0.5933968	0	-93.28	-86.272	5.403	B5-03822-P02-CH1	832440	OK	0.7877595	-0.1670726	-0.5928927	0	-98.03	-68.411	5.39	B5-03822-P03-CH0	832440	OK	0.7512074	-0.1562881	-0.6412967	0	-104.135	-49.244	11.036	B5-03822-P03-CH1	832440	OK	0.7597151	-0.6471097	-0.0638903	0	-101.522	-11.504	4.242	B5-03822-P04-CH0	832440	OK	0.7962388	-0.3069914	0.5213061	0	-132.085	-27.222	15.523	B5-03822-P04-CH1	832440	OK	0.795465	-0.604662	0.0402412	0	-116.188	-33.35	2.982	NA
0.1998371998372	B5-03822-P01-CH0	832448	OK	0.1849717	0.1462545	0.092466	-0.9673909	165.007	-33.419	-242.909	B5-03822-P02-CH0	832448	OK	0.7799813	0.1806449	-0.5991632	0	-93.774	-86.099	5.013	B5-03822-P02-CH1	832448	OK	0.7854273	-0.1758041	-0.5934617	0	-98.099	-68.796	6.477	B5-03822-P03-CH0	832448	OK	0.7578461	-0.1736888	-0.628889	0	-104.886	-49.774	11.698	B5-03822-P03-CH1	832448	OK	0.759529	-0.6472073	-0.0651021	0	-101.518	-11.582	4.34	B5-03822-P04-CH0	832448	OK	0.7973663	-0.3027556	0.5220593	0	-132.429	-27.706	16.515	B5-03822-P04-CH1	832448	OK	0.7945126	-0.6054546	0.04663	0	-117.818	-36.22	6.189	NA
0.20982905982906	B5-03822-P01-CH0	832456	OK	0.1850801	0.1464321	0.0926341	-0.9673272	165.063	-33.337	-242.85	B5-03822-P02-CH0	832456	OK	0.7731962	0.1879125	-0.6056869	0	-94.236	-86.768	3.633	B5-03822-P02-CH1	832456	OK	0.7833196	-0.1834842	-0.5939225	0	-97.603	-68.743	6.121	B5-03822-P03-CH0	832456	OK	0.7634084	-0.1900806	-0.6173143	0	-106.15	-50.018	11.462	B5-03822-P03-CH1	832456	OK	0.7591135	-0.6475958	-0.0660794	0	-101.615	-11.791	4.401	B5-03822-P04-CH0	832456	OK	0.7977209	-0.3005738	0.5227779	0	-132.488	-28.154	16.973	B5-03822-P04-CH1	832456	OK	0.7967674	-0.6025809	0.0453646	0	-117.495	-34.328	6.547	NA
0.21982091982092	B5-03822-P01-CH0	832464	OK	0.1850043	0.1461802	0.0921988	-0.9674214	165.016	-33.384	-242.966	B5-03822-P02-CH0	832464	OK	0.7690615	0.1953527	-0.6085899	0	-93.357	-87.287	3.109	B5-03822-P02-CH1	832464	OK	0.7807939	-0.1866297	-0.5962635	0	-97.822	-69.265	6.767	B5-03822-P03-CH0	832464	OK	0.7703494	-0.2027851	-0.6045164	0	-106.155	-51.252	12.253	B5-03822-P03-CH1	832464	OK	0.7585633	-0.6481321	-0.0671304	0	-101.416	-11.997	4.612	B5-03822-P04-CH0	832464	OK	0.7976463	-0.3007769	0.5227749	0	-132.807	-28.177	15.943	B5-03822-P04-CH1	832464	OK	0.795852	-0.6035365	0.0486141	0	-117.065	-35.845	7.633	NA
0.22981277981278	B5-03822-P01-CH0	832472	OK	0.1849413	0.1463795	0.0915538	-0.9674645	165.063	-33.38	-242.919	B5-03822-P02-CH0	832472	OK	0.7643865	0.2008524	-0.6126757	0	-93.053	-86.737	4.253	B5-03822-P02-CH1	832472	OK	0.7802968	-0.1863439	-0.5970033	0	-97.96	-69.62	7.306	B5-03822-P03-CH0	832472	OK	0.7748518	-0.2059354	-0.5976581	0	-106.579	-51.527	12.933	B5-03822-P03-CH1	832472	OK	0.7582767	-0.6483265	-0.0684784	0	-101.387	-11.662	4.39	B5-03822-P04-CH0	832472	OK	0.7980345	-0.3007346	0.5222066	0	-133.483	-30.112	17.292	B5-03822-P04-CH1	832472	OK	0.7957311	-0.6036547	0.0491227	0	-117.631	-35.162	5.252	NA
0.23980463980464	B5-03822-P01-CH0	832480	OK	0.1852107	0.1461091	0.0916129	-0.9674483	164.995	-33.324	-242.972	B5-03822-P02-CH0	832480	OK	0.7616011	0.2014928	-0.6159257	0	-93.545	-87.807	3.597	B5-03822-P02-CH1	832480	OK	0.7806364	-0.1850546	-0.5969603	0	-98.396	-70.012	7.169	B5-03822-P03-CH0	832480	OK	0.7769937	-0.2047369	-0.5952844	0	-106.86	-52.2	13.518	B5-03822-P03-CH1	832480	OK	0.7580488	-0.6485784	-0.0686152	0	-101.364	-11.721	4.35	B5-03822-P04-CH0	832480	OK	0.7972957	-0.3065546	0.519946	0	-132.152	-28.178	16.353	B5-03822-P04-CH1	832480	OK	0.7958997	-0.603357	0.0500399	0	-117.637	-35.227	5.915	NA
0.2497964997965	B5-03822-P01-CH0	832488	OK	0.1856285	0.1456766	0.0920811	-0.967389	164.853	-33.262	-242.961	B5-03822-P02-CH0	832488	OK	0.7629601	0.201741	-0.6141599	0	-92.209	-87.526	2.49	B5-03822-P02-CH1	832488	OK	0.7815059	-0.1801673	-0.5973176	0	-98.846	-70.292	6.564	B5-03822-P03-CH0	832488	OK	0.7781993	-0.1997864	-0.5953917	0	-106.629	-52.52	12.42	B5-03822-P03-CH1	832488	OK	0.7584028	-0.648148	-0.06877	0	-101.251	-11.505	4.123	B5-03822-P04-CH0	832488	OK	0.7966839	-0.3050281	0.5217784	0	-132.322	-28.6	16.763	B5-03822-P04-CH1	832488	OK	0.7959238	-0.6037598	0.0444894	0	-116.702	-34.154	4.867	NA
0.25978835978836	B5-03822-P01-CH0	832496	OK	0.1858274	0.1454014	0.0922828	-0.967373	164.783	-33.221	-242.961	B5-03822-P02-CH0	832496	OK	0.7611599	0.1952025	-0.6184915	0	-93.234	-88.166	2.239	B5-03822-P02-CH1	832496	OK	0.7838076	-0.1774478	-0.5951117	0	-98.508	-70.454	6.186	B5-03822-P03-CH0	832496	OK	0.7767302	-0.1930473	-0.599519	0	-106.677	-52.516	12.958	B5-03822-P03-CH1	832496	OK	0.7586068	-0.6478608	-0.0692245	0	-101.059	-11.234	3.88	B5-03822-P04-CH0	832496	OK	0.7969665	-0.3047124	0.5215311	0	-132.247	-28.477	16.545	B5-03822-P04-CH1	832496	OK	0.7960661	-0.6034153	0.0465693	0	-116.952	-34.489	4.929	NA
0.26978021978022	B5-03822-P01-CH0	832504	OK	0.1858555	0.1454913	0.0918524	-0.967395	164.788	-33.161	-242.904	B5-03822-P02-CH0	832504	OK	0.7606663	0.1897531	-0.6207902	0	-93.569	-88.097	2.852	B5-03822-P02-CH1	832504	OK	0.7851036	-0.1733122	-0.5946219	0	-98.143	-70.192	6.157	B5-03822-P03-CH0	832504	OK	0.7733412	-0.1854964	-0.6062462	0	-106.741	-52.286	13.159	B5-03822-P03-CH1	832504	OK	0.7581539	-0.6483903	-0.0692295	0	-101.117	-11.125	3.912	B5-03822-P04-CH0	832504	OK	0.7971444	-0.3054754	0.5208124	0	-132.107	-28.169	16.546	B5-03822-P04-CH1	832504	OK	0.7958259	-0.6036221	0.047975	0	-117.105	-34.71	5.064	NA
0.27977207977208	B5-03822-P01-CH0	832512	OK	0.1859563	0.1453002	0.0916863	-0.9674201	164.708	-33.144	-242.882	B5-03822-P02-CH0	832512	OK	0.7640683	0.1832367	-0.618566	0	-92.579	-86.94	3.031	B5-03822-P02-CH1	832512	OK	0.7846426	-0.1669452	-0.5970472	0	-98.062	-70.611	6.799	B5-03822-P03-CH0	832512	OK	0.769144	-0.1776877	-0.6138767	0	-106.678	-51.906	12.087	B5-03822-P03-CH1	832512	OK	0.7576364	-0.6490686	-0.068535	0	-101.115	-11.343	4.217	B5-03822-P04-CH0	832512	OK	0.7981784	-0.3147399	0.5136634	0	-131.625	-27.791	16.112	B5-03822-P04-CH1	832512	OK	0.7957054	-0.6036579	0.0494987	0	-117.374	-35.254	5.818	NA
0.28976393976394	B5-03822-P01-CH0	832520	OK	0.185885	0.1454425	0.0912459	-0.9674541	164.732	-33.232	-242.764	B5-03822-P02-CH0	832520	OK	0.766029	0.1734998	-0.6189487	0	-93.602	-87.483	3.143	B5-03822-P02-CH1	832520	OK	0.7809576	-0.1568385	-0.6045717	0	-99.469	-69.847	6.38	B5-03822-P03-CH0	832520	OK	0.7661825	-0.1659285	-0.6208318	0	-105.443	-50.984	11.407	B5-03822-P03-CH1	832520	OK	0.7574646	-0.6492652	-0.0685714	0	-101.043	-11.097	3.899	B5-03822-P04-CH0	832520	OK	0.7976657	-0.3178045	0.5125716	0	-131.769	-28.712	15.739	B5-03822-P04-CH1	832520	OK	0.795436	-0.6039546	0.0502049	0	-117.416	-35.504	6.071	NA
0.2997557997558	B5-03822-P01-CH0	832528	OK	0.1857141	0.1454536	0.0909142	-0.9675165	164.718	-33.212	-242.672	B5-03822-P02-CH0	832528	OK	0.7704306	0.1696573	-0.6145349	0	-93.296	-87.099	3.987	B5-03822-P02-CH1	832528	OK	0.7807985	-0.1457	-0.6075567	0	-98.748	-68.882	6.857	B5-03822-P03-CH0	832528	OK	0.7606472	-0.1533538	-0.630792	0	-105.315	-49.8	10.333	B5-03822-P03-CH1	832528	OK	0.7573812	-0.6493779	-0.0684258	0	-101.049	-10.745	3.654	B5-03822-P04-CH0	832528	OK	0.7976034	-0.3225353	0.5097056	0	-131.826	-28.315	15.381	B5-03822-P04-CH1	832528	OK	0.7951834	-0.6043344	0.0496317	0	-117.336	-35.511	6.384	NA
0.30974765974766	B5-03822-P01-CH0	832536	OK	0.1856816	0.1452332	0.0907558	-0.9675707	164.651	-33.201	-242.713	B5-03822-P02-CH0	832536	OK	0.7755916	0.1675502	-0.6085923	0	-92.771	-86.262	3.93	B5-03822-P02-CH1	832536	OK	0.7790816	-0.1414214	-0.6107633	0	-99.411	-68.936	6.343	B5-03822-P03-CH0	832536	OK	0.7576533	-0.1394459	-0.6375864	0	-103.666	-49.286	11.856	B5-03822-P03-CH1	832536	OK	0.7574273	-0.649397	-0.0677307	0	-100.985	-10.516	3.568	B5-03822-P04-CH0	832536	OK	0.7963336	-0.3267134	0.5090295	0	-130.97	-28.174	15.167	B5-03822-P04-CH1	832536	OK	0.7949099	-0.6047091	0.0494473	0	-117.438	-35.852	7.13	NA
0.31973951973952	B5-03822-P01-CH0	832544	OK	0.185768	0.1456369	0.0906984	-0.9674988	164.794	-33.17	-242.632	B5-03822-P02-CH0	832544	OK	0.7784508	0.1634216	-0.6060592	0	-93.433	-86.213	3.507	B5-03822-P02-CH1	832544	OK	0.7788172	-0.1365064	-0.6122171	0	-98.783	-68.128	6.04	B5-03822-P03-CH0	832544	OK	0.7518592	-0.1262457	-0.6471242	0	-103.563	-48.155	10.161	B5-03822-P03-CH1	832544	OK	0.7572581	-0.6496896	-0.0668102	0	-101.211	-10.469	3.602	B5-03822-P04-CH0	832544	OK	0.7958437	-0.3306698	0.5072379	0	-129.863	-26.831	15.634	B5-03822-P04-CH1	832544	OK	0.7945649	-0.6052403	0.0484849	0	-117.4	-35.814	6.931	NA
0.32973137973138	B5-03822-P01-CH0	832552	OK	0.1856566	0.1455209	0.0906483	-0.9675423	164.733	-33.175	-242.592	B5-03822-P02-CH0	832552	OK	0.7820298	0.1609968	-0.6020876	0	-92.814	-85.841	4.564	B5-03822-P02-CH1	832552	OK	0.7781309	-0.1365736	-0.6130741	0	-97.873	-67.226	5.794	B5-03822-P03-CH0	832552	OK	0.7443748	-0.11774	-0.6573002	0	-103.155	-47.784	10.28	B5-03822-P03-CH1	832552	OK	0.7565335	-0.6506655	-0.065509	0	-101.312	-10.924	3.965	B5-03822-P04-CH0	832552	OK	0.7963059	-0.3319744	0.5056579	0	-130.463	-26.679	14.957	B5-03822-P04-CH1	832552	OK	0.7943747	-0.6056133	0.0469181	0	-117.137	-35.653	6.974	NA
0.33972323972324	B5-03822-P01-CH0	832560	OK	0.1851223	0.1456356	0.0897645	-0.9677098	164.662	-33.223	-242.476	B5-03822-P02-CH0	832560	OK	0.7838546	0.163068	-0.59915	0	-92.336	-85.249	5.141	B5-03822-P02-CH1	832560	OK	0.7749179	-0.1423148	-0.6158317	0	-97.891	-66.258	5.798	B5-03822-P03-CH0	832560	OK	0.7387864	-0.1152095	-0.6640191	0	-102.322	-46.526	9.234	B5-03822-P03-CH1	832560	OK	0.7559231	-0.6513681	-0.0655726	0	-101.26	-10.643	3.817	B5-03822-P04-CH0	832560	OK	0.7960572	-0.3352202	0.5039051	0	-130.549	-26.663	14.694	B5-03822-P04-CH1	832560	OK	0.7942793	-0.6066372	0.0333414	0	-115.72	-32.635	5.749	NA
0.3497150997151	B5-03822-P01-CH0	832568	OK	0.1851813	0.1458691	0.089772	-0.9676627	164.722	-33.119	-242.411	B5-03822-P02-CH0	832568	OK	0.7818171	0.1658766	-0.6010383	0	-93.189	-85.052	5.549	B5-03822-P02-CH1	832568	OK	0.7739286	-0.1551291	-0.6139784	0	-96.505	-66.143	5.338	B5-03822-P03-CH0	832568	OK	0.7347931	-0.1192178	-0.6677321	0	-101.1	-46.564	11.176	B5-03822-P03-CH1	832568	OK	0.7556907	-0.6517163	-0.0647868	0	-101.346	-10.562	3.9	B5-03822-P04-CH0	832568	OK	0.7960798	-0.3380067	0.5020044	0	-129.744	-25.907	14.058	B5-03822-P04-CH1	832568	OK	0.7923199	-0.6091677	0.0338221	0	-115.135	-33.851	5.785	NA
0.35970695970696	B5-03822-P01-CH0	832576	OK	0.185364	0.145899	0.0900697	-0.9675955	164.693	-33.042	-242.353	B5-03822-P02-CH0	832576	OK	0.7810566	0.1718837	-0.6003387	0	-92.426	-84.501	5.229	B5-03822-P02-CH1	832576	OK	0.7706537	-0.1743071	-0.6129518	0	-96.115	-65.293	4.389	B5-03822-P03-CH0	832576	OK	0.7317291	-0.1269963	-0.6696599	0	-101.108	-45.568	10.061	B5-03822-P03-CH1	832576	OK	0.7559186	-0.6515242	-0.0640569	0	-101.343	-10.31	3.741	B5-03822-P04-CH0	832576	OK	0.7971089	-0.3389879	0.4997045	0	-129.477	-26.218	14.758	B5-03822-P04-CH1	832576	OK	0.7928843	-0.6086428	0.0298075	0	-113.757	-31.488	1.562	NA
0.36969881969882	B5-03822-P01-CH0	832584	OK	0.1855539	0.1456642	0.0905878	-0.9675461	164.628	-33.07	-242.354	B5-03822-P02-CH0	832584	OK	0.7800749	0.1769553	-0.6001416	0	-91.178	-84.223	5.191	B5-03822-P02-CH1	832584	OK	0.766318	-0.1995406	-0.6106884	0	-95.011	-65.138	5.035	B5-03822-P03-CH0	832584	OK	0.7303558	-0.1391545	-0.6687424	0	-101.067	-45.064	9.304	B5-03822-P03-CH1	832584	OK	0.7562676	-0.6511803	-0.0634311	0	-101.245	-10.186	3.592	B5-03822-P04-CH0	832584	OK	0.7986186	-0.3406335	0.4961625	0	-128.778	-25.417	15.004	B5-03822-P04-CH1	832584	OK	0.7945433	-0.606538	0.0285038	0	-114.318	-30.672	2.971	NA
0.37969067969068	B5-03822-P01-CH0	832592	OK	0.1858856	0.1456251	0.0911993	-0.9674309	164.576	-33.011	-242.268	B5-03822-P02-CH0	832592	OK	0.7779201	0.1817159	-0.6015144	0	-90.249	-83.037	3.842	B5-03822-P02-CH1	832592	OK	0.7619144	-0.2274797	-0.6064153	0	-93.869	-64.742	3.972	B5-03822-P03-CH0	832592	OK	0.7311936	-0.1530297	-0.6647841	0	-100.38	-45.297	9.494	B5-03822-P03-CH1	832592	OK	0.7566216	-0.6508479	-0.0626157	0	-101.182	-10.048	3.482	B5-03822-P04-CH0	832592	OK	0.7994972	-0.3411001	0.4944238	0	-128.776	-25.874	13.992	B5-03822-P04-CH1	832592	OK	0.794508	-0.6065392	0.0294495	0	-114.91	-31.834	5.932	NA
0.38968253968254	B5-03822-P01-CH0	832600	OK	0.1859109	0.1454191	0.0916042	-0.9674188	164.474	-32.887	-242.355	B5-03822-P02-CH0	832600	OK	0.7764518	0.1831012	-0.6029897	0	-89.749	-83.083	4.027	B5-03822-P02-CH1	832600	OK	0.7572617	-0.2520602	-0.6025117	0	-92.593	-63.911	2.723	B5-03822-P03-CH0	832600	OK	0.7309897	-0.1656461	-0.6619784	0	-101.064	-44.794	9.397	B5-03822-P03-CH1	832600	OK	0.756835	-0.6506581	-0.0620065	0	-101.099	-9.883	3.72	B5-03822-P04-CH0	832600	OK	0.8005963	-0.3422191	0.4918655	0	-127.696	-24.892	15.188	B5-03822-P04-CH1	832600	OK	0.7941227	-0.606753	0.034929	0	-115.302	-33.21	5.367	NA
0.3996743996744	B5-03822-P01-CH0	832608	OK	0.1860088	0.1453812	0.0919481	-0.967373	164.411	-32.837	-242.377	B5-03822-P02-CH0	832608	OK	0.7756104	0.1859783	-0.603192	0	-89.422	-82.952	4.182	B5-03822-P02-CH1	832608	OK	0.7520628	-0.2721294	-0.6002893	0	-91.122	-63.688	3.386	B5-03822-P03-CH0	832608	OK	0.7344981	-0.1793357	-0.6544854	0	-100.463	-44.251	8.625	B5-03822-P03-CH1	832608	OK	0.7568383	-0.6507066	-0.0614555	0	-100.983	-9.861	3.66	B5-03822-P04-CH0	832608	OK	0.8024016	-0.3405943	0.4900481	0	-128.565	-25.015	14.988	B5-03822-P04-CH1	832608	OK	0.7940473	-0.6069157	0.0337955	0	-115.071	-33.006	5.045	NA
0.40966625966626	B5-03822-P01-CH0	832616	OK	0.1860519	0.1455008	0.0924881	-0.9672953	164.401	-32.735	-242.327	B5-03822-P02-CH0	832616	OK	0.7763579	0.1920634	-0.6003167	0	-88.55	-82.207	2.096	B5-03822-P02-CH1	832616	OK	0.7468506	-0.2870108	-0.5998658	0	-90.598	-63.175	2.617	B5-03822-P03-CH0	832616	OK	0.7373427	-0.1937078	-0.64715	0	-100.469	-45.012	9.724	B5-03822-P03-CH1	832616	OK	0.7571989	-0.6502953	-0.0613666	0	-101.071	-9.612	3.7	B5-03822-P04-CH0	832616	OK	0.8034807	-0.3381562	0.4899686	0	-129.358	-26.132	15.914	B5-03822-P04-CH1	832616	OK	0.7945217	-0.6063849	0.032134	0	-114.913	-32.17	4.145	NA
0.41965811965812	B5-03822-P01-CH0	832624	OK	0.1862657	0.1452814	0.0932959	-0.9672095	164.312	-32.701	-242.314	B5-03822-P02-CH0	832624	OK	0.7763218	0.1979361	-0.5984528	0	-88.599	-82.169	2.712	B5-03822-P02-CH1	832624	OK	0.7437285	-0.2956976	-0.5995256	0	-89.841	-62.889	1.973	B5-03822-P03-CH0	832624	OK	0.7406555	-0.2049145	-0.6398746	0	-100.493	-44.512	9.241	B5-03822-P03-CH1	832624	OK	0.7579481	-0.6494159	-0.0614299	0	-100.908	-9.364	3.493	B5-03822-P04-CH0	832624	OK	0.803272	-0.3389083	0.4897911	0	-129.023	-26.028	15.224	B5-03822-P04-CH1	832624	OK	0.7949328	-0.6058893	0.0313055	0	-114.713	-31.842	3.543	NA
0.42964997964998	B5-03822-P01-CH0	832632	OK	0.1861413	0.1456117	0.0931048	-0.9672022	164.349	-32.7	-242.223	B5-03822-P02-CH0	832632	OK	0.7760521	0.2044057	-0.5966251	0	-89.623	-82.834	4.008	B5-03822-P02-CH1	832632	OK	0.739514	-0.2975722	-0.6037962	0	-90.106	-63.275	2.652	B5-03822-P03-CH0	832632	OK	0.7446132	-0.2174497	-0.6310839	0	-100.912	-45.093	9.822	B5-03822-P03-CH1	832632	OK	0.7578934	-0.6494542	-0.0616995	0	-100.93	-9.259	3.424	B5-03822-P04-CH0	832632	OK	0.8033873	-0.339325	0.4893132	0	-129.418	-26.318	15.136	B5-03822-P04-CH1	832632	OK	0.7946643	-0.6062624	0.0308973	0	-114.896	-31.862	3.754	NA
0.43964183964184	B5-03822-P01-CH0	832640	OK	0.1863987	0.1457747	0.093507	-0.9670893	164.384	-32.664	-242.18	B5-03822-P02-CH0	832640	OK	0.7762298	0.2165354	-0.5920977	0	-89.897	-83.16	4.613	B5-03822-P02-CH1	832640	OK	0.7355606	-0.2938879	-0.6103938	0	-90.269	-63.085	2.011	B5-03822-P03-CH0	832640	OK	0.7526902	-0.2330178	-0.6157598	0	-100.673	-45.12	9.151	B5-03822-P03-CH1	832640	OK	0.7578955	-0.6494827	-0.0613724	0	-100.976	-9.57	3.509	B5-03822-P04-CH0	832640	OK	0.8037014	-0.339468	0.4886978	0	-128.878	-25.802	15.73	B5-03822-P04-CH1	832640	OK	0.7949351	-0.6059213	0.0306201	0	-114.828	-31.587	3.425	NA
0.4496336996337	B5-03822-P01-CH0	832648	OK	0.1860713	0.1457092	0.0931438	-0.9671973	164.268	-32.72	-242.115	B5-03822-P02-CH0	832648	OK	0.7761307	0.2288804	-0.5875669	0	-90.331	-83.284	5.107	B5-03822-P02-CH1	832648	OK	0.7327041	-0.2856339	-0.6177038	0	-88.934	-62.888	1.793	B5-03822-P03-CH0	832648	OK	0.7601496	-0.2532238	-0.598373	0	-101.523	-45.707	10.014	B5-03822-P03-CH1	832648	OK	0.7574262	-0.6500151	-0.06153	0	-100.967	-9.84	3.667	B5-03822-P04-CH0	832648	OK	0.8022776	-0.3396956	0.4908743	0	-128.559	-25.541	15.441	B5-03822-P04-CH1	832648	OK	0.7946912	-0.6062641	0.0301611	0	-114.882	-31.324	2.924	NA
0.45962555962556	B5-03822-P01-CH0	832656	OK	0.1857457	0.1458148	0.0924989	-0.9673058	164.267	-32.808	-242.142	B5-03822-P02-CH0	832656	OK	0.7749154	0.2428747	-0.5835392	0	-91.248	-83.377	5.104	B5-03822-P02-CH1	832656	OK	0.7284794	-0.2778327	-0.6262002	0	-88.647	-62.327	1.449	B5-03822-P03-CH0	832656	OK	0.7697839	-0.2795129	-0.5738513	0	-101.122	-46.18	10.59	B5-03822-P03-CH1	832656	OK	0.7566631	-0.6508732	-0.061846	0	-100.977	-10.248	3.964	B5-03822-P04-CH0	832656	OK	0.8022977	-0.3405468	0.4902512	0	-128.628	-25.535	15.07	B5-03822-P04-CH1	832656	OK	0.7941386	-0.6069664	0.0305905	0	-115.111	-31.681	3.595	NA
0.46961741961742	B5-03822-P01-CH0	832664	OK	0.1856166	0.1459573	0.0924983	-0.9673092	164.256	-32.771	-242.064	B5-03822-P02-CH0	832664	OK	0.7753224	0.255511	-0.5775719	0	-91.402	-83.891	5.482	B5-03822-P02-CH1	832664	OK	0.7256322	-0.271383	-0.6323046	0	-88.502	-63.181	2.231	B5-03822-P03-CH0	832664	OK	0.7767362	-0.3009492	-0.5532725	0	-101.085	-46.841	10.234	B5-03822-P03-CH1	832664	OK	0.75674	-0.650725	-0.0624622	0	-101.041	-10.156	3.992	B5-03822-P04-CH0	832664	OK	0.8026439	-0.340791	0.4895144	0	-128.777	-25.409	14.895	B5-03822-P04-CH1	832664	OK	0.7939904	-0.6071468	0.0308546	0	-115.114	-31.681	3.447	NA
0.47960927960928	B5-03822-P01-CH0	832672	OK	0.1855204	0.1460576	0.0924845	-0.9673138	164.333	-32.815	-242.143	B5-03822-P02-CH0	832672	OK	0.7759254	0.271989	-0.5691764	0	-90.685	-83.693	4.329	B5-03822-P02-CH1	832672	OK	0.7251857	-0.2600941	-0.6375396	0	-88.068	-63.061	2.273	B5-03822-P03-CH0	832672	OK	0.782918	-0.3171971	-0.5351873	0	-100.555	-47.969	9.861	B5-03822-P03-CH1	832672	OK	0.7567671	-0.6506291	-0.0631291	0	-101.117	-10.17	3.895	B5-03822-P04-CH0	832672	OK	0.8029146	-0.3408701	0.4890151	0	-129.003	-25.605	15.085	B5-03822-P04-CH1	832672	OK	0.794016	-0.6071108	0.0309053	0	-115.258	-31.542	2.944	NA
0.48960113960114	B5-03822-P01-CH0	832680	OK	0.1852908	0.1462343	0.0919744	-0.9673797	164.324	-32.867	-242.089	B5-03822-P02-CH0	832680	OK	0.7747515	0.2893797	-0.5621562	0	-90.831	-83.773	4.754	B5-03822-P02-CH1	832680	OK	0.7217712	-0.2477368	-0.6462761	0	-87.924	-63.681	1.762	B5-03822-P03-CH0	832680	OK	0.7881614	-0.328903	-0.5202157	0	-100.075	-48.762	10.557	B5-03822-P03-CH1	832680	OK	0.7564279	-0.6509553	-0.0638279	0	-101.146	-10.155	3.745	B5-03822-P04-CH0	832680	OK	0.8028082	-0.3417042	0.4886075	0	-129.16	-25.633	14.817	B5-03822-P04-CH1	832680	OK	0.7936433	-0.6075819	0.0312181	0	-115.391	-31.623	2.935	NA
0.499592999593	B5-03822-P01-CH0	832688	OK	0.1852349	0.1463616	0.0916173	-0.9674051	164.315	-32.924	-242.002	B5-03822-P02-CH0	832688	OK	0.7741573	0.3046282	-0.5548713	0	-91.232	-84.542	4.744	B5-03822-P02-CH1	832688	OK	0.7161408	-0.2350605	-0.6571826	0	-87.251	-63.601	2.376	B5-03822-P03-CH0	832688	OK	0.7925359	-0.3407036	-0.5057745	0	-101.066	-49.389	10.895	B5-03822-P03-CH1	832688	OK	0.7558971	-0.6515899	-0.0636416	0	-101.284	-10.503	3.851	B5-03822-P04-CH0	832688	OK	0.8027123	-0.342732	0.4880448	0	-129.197	-25.52	14.418	B5-03822-P04-CH1	832688	OK	0.793727	-0.6074676	0.0313142	0	-115.492	-31.377	2.8	NA
0.50958485958486	B5-03822-P01-CH0	832696	OK	0.1850986	0.1464452	0.0914651	-0.9674329	164.328	-32.97	-241.975	B5-03822-P02-CH0	832696	OK	0.7715501	0.3225234	-0.5483513	0	-92.008	-84.544	5.764	B5-03822-P02-CH1	832696	OK	0.7126718	-0.2243987	-0.6646384	0	-85.973	-64.218	1.982	B5-03822-P03-CH0	832696	OK	0.7980666	-0.3485661	-0.4915195	0	-101.399	-49.932	10.731	B5-03822-P03-CH1	832696	OK	0.7558536	-0.6515852	-0.0642035	0	-101.172	-10.471	3.661	B5-03822-P04-CH0	832696	OK	0.8025572	-0.3441518	0.4873002	0	-129.108	-25.376	14.121	B5-03822-P04-CH1	832696	OK	0.7935278	-0.6077105	0.0316487	0	-115.541	-31.476	2.57	NA
0.51957671957672	B5-03822-P01-CH0	832704	OK	0.1849614	0.1465438	0.0912727	-0.9674624	164.293	-32.907	-241.926	B5-03822-P02-CH0	832704	OK	0.7706753	0.3435295	-0.5367002	0	-91.742	-84.122	5.236	B5-03822-P02-CH1	832704	OK	0.7099745	-0.21375	-0.6710046	0	-85.488	-64.436	2.176	B5-03822-P03-CH0	832704	OK	0.803679	-0.352832	-0.4791761	0	-100.159	-50.689	11.072	B5-03822-P03-CH1	832704	OK	0.7555962	-0.6518766	-0.0642752	0	-101.232	-10.475	3.639	B5-03822-P04-CH0	832704	OK	0.8025838	-0.3452781	0.4864589	0	-129.182	-25.301	14.055	B5-03822-P04-CH1	832704	OK	0.7934465	-0.6077921	0.0321163	0	-115.737	-31.571	3.086	NA
0.52956857956858	B5-03822-P01-CH0	832712	OK	0.1851151	0.1464303	0.0912031	-0.9674568	164.264	-32.927	-242.011	B5-03822-P02-CH0	832712	OK	0.7713458	0.3604103	-0.5245284	0	-91.348	-84.561	6.025	B5-03822-P02-CH1	832712	OK	0.7076657	-0.2057708	-0.6759199	0	-85.168	-64.38	2.937	B5-03822-P03-CH0	832712	OK	0.8057993	-0.3562742	-0.4730287	0	-100.257	-51.36	10.78	B5-03822-P03-CH1	832712	OK	0.7556261	-0.6518442	-0.0642523	0	-101.112	-10.482	3.671	B5-03822-P04-CH0	832712	OK	0.8025398	-0.3468281	0.4854278	0	-128.952	-25.018	13.928	B5-03822-P04-CH1	832712	OK	0.793457	-0.6077635	0.0323968	0	-115.521	-31.407	2.578	NA
0.53956043956044	B5-03822-P01-CH0	832720	OK	0.1848314	0.1465227	0.0909698	-0.967519	164.286	-32.983	-242.025	B5-03822-P02-CH0	832720	OK	0.7711525	0.3738516	-0.5153239	0	-92.139	-85.608	6.417	B5-03822-P02-CH1	832720	OK	0.705722	-0.201433	-0.6792505	0	-85.013	-64.805	2.016	B5-03822-P03-CH0	832720	OK	0.8076132	-0.3582205	-0.4684431	0	-99.924	-52.744	12.335	B5-03822-P03-CH1	832720	OK	0.7555138	-0.6519398	-0.0646017	0	-101.186	-10.369	3.602	B5-03822-P04-CH0	832720	OK	0.8034251	-0.3563736	0.4769759	0	-129.156	-25.688	14.281	B5-03822-P04-CH1	832720	OK	0.7932276	-0.608051	0.0326187	0	-115.632	-31.459	2.332	NA
0.5495522995523	B5-03822-P01-CH0	832728	OK	0.1846978	0.1466643	0.090839	-0.9675353	164.326	-32.995	-242.036	B5-03822-P02-CH0	832728	OK	0.7704496	0.3906372	-0.5037956	0	-91.639	-84.613	6.102	B5-03822-P02-CH1	832728	OK	0.7035684	-0.1996059	-0.6820183	0	-84.806	-64.698	2.045	B5-03822-P03-CH0	832728	OK	0.8090433	-0.3571321	-0.4668037	0	-99.989	-52.121	11.327	B5-03822-P03-CH1	832728	OK	0.7552545	-0.652257	-0.0644318	0	-101.313	-10.423	3.469	B5-03822-P04-CH0	832728	OK	0.8037916	-0.3602546	0.4734298	0	-128.887	-24.717	12.9	B5-03822-P04-CH1	832728	OK	0.7932349	-0.6080374	0.0326934	0	-115.795	-31.442	2.599	NA
0.55954415954416	B5-03822-P01-CH0	832736	OK	0.1846277	0.1466811	0.0909935	-0.9675316	164.333	-32.981	-242.069	B5-03822-P02-CH0	832736	OK	0.769755	0.4017822	-0.4960326	0	-91.617	-84.666	5.898	B5-03822-P02-CH1	832736	OK	0.7025245	-0.2006924	-0.6827752	0	-84.105	-64.945	1.895	B5-03822-P03-CH0	832736	OK	0.8098131	-0.3565023	-0.4659495	0	-100.388	-51.838	11.543	B5-03822-P03-CH1	832736	OK	0.755216	-0.6523369	-0.0640731	0	-101.437	-10.423	3.382	B5-03822-P04-CH0	832736	OK	0.8040898	-0.3613862	0.4720589	0	-129.695	-26.438	14.104	B5-03822-P04-CH1	832736	OK	0.7934037	-0.6078356	0.0323484	0	-115.759	-31.165	2.358	NA
0.56953601953602	B5-03822-P01-CH0	832744	OK	0.1846142	0.1466218	0.091294	-0.9675149	164.345	-32.961	-242.24	B5-03822-P02-CH0	832744	OK	0.7689595	0.4079727	-0.4921988	0	-92.301	-85.62	7.237	B5-03822-P02-CH1	832744	OK	0.7002476	-0.2010596	-0.6850025	0	-84.141	-65.155	1.576	B5-03822-P03-CH0	832744	OK	0.8103905	-0.3588605	-0.4631268	0	-99.86	-53.063	12.813	B5-03822-P03-CH1	832744	OK	0.7552117	-0.6523864	-0.0636175	0	-101.409	-10.509	3.364	B5-03822-P04-CH0	832744	OK	0.8042401	-0.3646069	0.4693184	0	-128.81	-25.118	14.26	B5-03822-P04-CH1	832744	OK	0.793585	-0.6075993	0.0323412	0	-115.888	-31.161	2.53	NA
0.57952787952788	B5-03822-P01-CH0	832752	OK	0.1842744	0.1463305	0.0914702	-0.9676071	164.225	-32.93	-242.372	B5-03822-P02-CH0	832752	OK	0.7697585	0.4128224	-0.4868773	0	-91.977	-86.085	5.872	B5-03822-P02-CH1	832752	OK	0.6984766	-0.2014082	-0.6867061	0	-84.174	-64.997	1.703	B5-03822-P03-CH0	832752	OK	0.80972	-0.3574048	-0.4654195	0	-100.584	-52.045	11.958	B5-03822-P03-CH1	832752	OK	0.7552892	-0.6523216	-0.0633612	0	-101.418	-10.41	3.535	B5-03822-P04-CH0	832752	OK	0.8037505	-0.3675856	0.467831	0	-129.019	-24.842	13.05	B5-03822-P04-CH1	832752	OK	0.7933581	-0.6078835	0.0325661	0	-115.778	-31.298	2.754	NA
0.58951973951974	B5-03822-P01-CH0	832760	OK	0.184396	0.1461451	0.0921965	-0.967543	164.25	-32.92	-242.546	B5-03822-P02-CH0	832760	OK	0.767414	0.4169157	-0.4870904	0	-92.451	-86.116	7.224	B5-03822-P02-CH1	832760	OK	0.6975334	-0.2024399	-0.6873611	0	-84.129	-65.392	2.494	B5-03822-P03-CH0	832760	OK	0.8099579	-0.3576262	-0.4648351	0	-99.569	-52.574	11.766	B5-03822-P03-CH1	832760	OK	0.7553649	-0.6523105	-0.0625691	0	-101.431	-10.696	3.717	B5-03822-P04-CH0	832760	OK	0.8042034	-0.3702464	0.4649457	0	-128.287	-23.972	14.63	B5-03822-P04-CH1	832760	OK	0.7938247	-0.6072749	0.0325513	0	-115.719	-31.26	2.965	NA
0.599511599511599	B5-03822-P01-CH0	832768	OK	0.1843424	0.1458144	0.0927044	-0.9675546	164.177	-32.936	-242.633	B5-03822-P02-CH0	832768	OK	0.7657968	0.4204953	-0.4865582	0	-92.42	-85.475	7.922	B5-03822-P02-CH1	832768	OK	0.6976203	-0.201457	-0.6875616	0	-83.862	-64.769	1.472	B5-03822-P03-CH0	832768	OK	0.8088612	-0.3553196	-0.4684992	0	-99.383	-52.436	11.789	B5-03822-P03-CH1	832768	OK	0.7557337	-0.6518956	-0.0624395	0	-101.289	-10.548	3.621	B5-03822-P04-CH0	832768	OK	0.8038155	-0.3691269	0.466504	0	-129.926	-26.701	14.97	B5-03822-P04-CH1	832768	OK	0.793986	-0.6070496	0.0328163	0	-115.783	-31.439	3.184	NA
0.60950345950346	B5-03822-P01-CH0	832776	OK	0.1839095	0.1458395	0.0917117	-0.9677278	164.127	-33.032	-242.651	B5-03822-P02-CH0	832776	OK	0.76631	0.4209314	-0.4853717	0	-92.18	-85.533	7.707	B5-03822-P02-CH1	832776	OK	0.6976833	-0.2018318	-0.6873878	0	-83.398	-64.831	1.289	B5-03822-P03-CH0	832776	OK	0.8054763	-0.3543287	-0.4750359	0	-99.851	-52.213	11.844	B5-03822-P03-CH1	832776	OK	0.7546543	-0.6532044	-0.061813	0	-101.449	-10.885	3.845	B5-03822-P04-CH0	832776	OK	0.8025501	-0.3752569	0.4637841	0	-129.123	-24.552	12.532	B5-03822-P04-CH1	832776	OK	0.7930698	-0.608239	0.0329468	0	-115.755	-31.723	3.555	NA
0.61949531949532	B5-03822-P01-CH0	832784	OK	0.1836267	0.1456737	0.0913198	-0.9678435	164.095	-33.116	-242.797	B5-03822-P02-CH0	832784	OK	0.7664787	0.4192359	-0.4865713	0	-91.906	-85.619	7.791	B5-03822-P02-CH1	832784	OK	0.6960983	-0.2044667	-0.6882154	0	-83.836	-65.103	1.186	B5-03822-P03-CH0	832784	OK	0.8023773	-0.3521192	-0.4818742	0	-99.284	-52.018	11.508	B5-03822-P03-CH1	832784	OK	0.7543003	-0.6536357	-0.061575	0	-101.324	-10.977	3.975	B5-03822-P04-CH0	832784	OK	0.8025802	-0.3793934	0.4603538	0	-128.136	-23.317	13.582	B5-03822-P04-CH1	832784	OK	0.7929294	-0.6084672	0.0321039	0	-115.656	-31.387	3.327	NA
0.629487179487179	B5-03822-P01-CH0	832792	OK	0.1837492	0.1452948	0.0920591	-0.9678072	164.018	-33.107	-242.866	B5-03822-P02-CH0	832792	OK	0.7669226	0.4152119	-0.4893147	0	-91.484	-85.83	6.512	B5-03822-P02-CH1	832792	OK	0.6972072	-0.2065468	-0.6864696	0	-82.877	-64.866	1.488	B5-03822-P03-CH0	832792	OK	0.7977859	-0.3491781	-0.4915407	0	-98.903	-52.032	11.342	B5-03822-P03-CH1	832792	OK	0.7549756	-0.6528946	-0.0611593	0	-101.281	-10.806	3.868	B5-03822-P04-CH0	832792	OK	0.8026847	-0.3782429	0.4611178	0	-128.957	-24.878	14.876	B5-03822-P04-CH1	832792	OK	0.7932395	-0.6080551	0.0322505	0	-115.867	-31.711	3.999	NA
0.63947903947904	B5-03822-P01-CH0	832800	OK	0.1839702	0.1452346	0.0924364	-0.9677383	164.04	-33.049	-242.912	B5-03822-P02-CH0	832800	OK	0.7651241	0.4131662	-0.4938409	0	-91.2	-84.742	7.461	B5-03822-P02-CH1	832800	OK	0.6966957	-0.2084848	-0.6864031	0	-83.045	-64.676	1.685	B5-03822-P03-CH0	832800	OK	0.7903953	-0.3431192	-0.5074884	0	-99.968	-50.629	10.165	B5-03822-P03-CH1	832800	OK	0.7550594	-0.6528643	-0.0604451	0	-101.26	-10.928	3.927	B5-03822-P04-CH0	832800	OK	0.8025301	-0.3793267	0.4604962	0	-129.03	-24.75	14.64	B5-03822-P04-CH1	832800	OK	0.793262	-0.6080132	0.0324874	0	-115.848	-31.843	4.068	NA
0.6494708994709	B5-03822-P01-CH0	832808	OK	0.1839535	0.1453051	0.0922644	-0.9677473	164.092	-33.13	-242.946	B5-03822-P02-CH0	832808	OK	0.764507	0.4056908	-0.5009432	0	-91.31	-85.407	7.326	B5-03822-P02-CH1	832808	OK	0.6964178	-0.210618	-0.6860337	0	-83.337	-64.546	1.574	B5-03822-P03-CH0	832808	OK	0.7842642	-0.3376685	-0.5204899	0	-98.846	-50.33	9.525	B5-03822-P03-CH1	832808	OK	0.7551082	-0.6528167	-0.0603482	0	-101.255	-10.877	3.933	B5-03822-P04-CH0	832808	OK	0.8027469	-0.3814209	0.4583836	0	-129.307	-23.925	12.793	B5-03822-P04-CH1	832808	OK	0.7929809	-0.6083946	0.0322062	0	-115.729	-31.938	4.073	NA
0.659462759462759	B5-03822-P01-CH0	832816	OK	0.1840244	0.1454106	0.0922984	-0.9677147	164.159	-33.133	-242.94	B5-03822-P02-CH0	832816	OK	0.7646464	0.3991089	-0.5059922	0	-90.744	-85.274	6.767	B5-03822-P02-CH1	832816	OK	0.6963134	-0.2109257	-0.6860452	0	-83.072	-64.771	1.214	B5-03822-P03-CH0	832816	OK	0.7786755	-0.332707	-0.5319497	0	-97.765	-50.095	9.305	B5-03822-P03-CH1	832816	OK	0.7550261	-0.6529387	-0.0600562	0	-101.204	-11.049	4.033	B5-03822-P04-CH0	832816	OK	0.8023255	-0.3823349	0.4583599	0	-129.176	-25.691	15.018	B5-03822-P04-CH1	832816	OK	0.792926	-0.6084697	0.0321402	0	-115.892	-32.05	4.156	NA
0.669454619454619	B5-03822-P01-CH0	832824	OK	0.1837156	0.1456558	0.0914759	-0.9678146	164.171	-33.235	-242.799	B5-03822-P02-CH0	832824	OK	0.7645551	0.3936018	-0.5104244	0	-90.273	-84.382	5.402	B5-03822-P02-CH1	832824	OK	0.6939624	-0.2119869	-0.6880971	0	-83.687	-64.844	2.191	B5-03822-P03-CH0	832824	OK	0.7704368	-0.331154	-0.5447606	0	-98.723	-49.91	8.64	B5-03822-P03-CH1	832824	OK	0.754308	-0.6537737	-0.0599954	0	-101.251	-11.276	4.064	B5-03822-P04-CH0	832824	OK	0.802332	-0.3796413	0.4605821	0	-128.358	-23.815	13.224	B5-03822-P04-CH1	832824	OK	0.792286	-0.6093233	0.0317493	0	-115.965	-32.1	4.1	NA
0.67944647944648	B5-03822-P01-CH0	832832	OK	0.1836128	0.1459561	0.0910458	-0.9678294	164.27	-33.259	-242.706	B5-03822-P02-CH0	832832	OK	0.7639654	0.3859356	-0.5171176	0	-90.064	-84.38	5.529	B5-03822-P02-CH1	832832	OK	0.6925516	-0.2127135	-0.6892933	0	-84.066	-64.754	2.08	B5-03822-P03-CH0	832832	OK	0.7636934	-0.3301801	-0.5547554	0	-99.084	-49.861	8.669	B5-03822-P03-CH1	832832	OK	0.7544913	-0.6534894	-0.0607823	0	-101.143	-10.914	3.731	B5-03822-P04-CH0	832832	OK	0.8020522	-0.3815528	0.4594885	0	-128.496	-23.874	13.212	B5-03822-P04-CH1	832832	OK	0.7920252	-0.6096998	0.0310191	0	-116.067	-32.087	4.365	NA
0.689438339438339	B5-03822-P01-CH0	832840	OK	0.1833776	0.1460967	0.0904927	-0.9679047	164.31	-33.323	-242.652	B5-03822-P02-CH0	832840	OK	0.763182	0.3757398	-0.5257118	0	-90.527	-85.067	5.942	B5-03822-P02-CH1	832840	OK	0.6929009	-0.2135062	-0.6886969	0	-83.565	-64.782	1.711	B5-03822-P03-CH0	832840	OK	0.7579185	-0.3282092	-0.5637715	0	-98.875	-49.157	8.347	B5-03822-P03-CH1	832840	OK	0.7544457	-0.6535029	-0.0612014	0	-101.142	-10.789	3.534	B5-03822-P04-CH0	832840	OK	0.8018036	-0.3833515	0.458424	0	-128.624	-24.084	13.297	B5-03822-P04-CH1	832840	OK	0.7916917	-0.6101587	0.0305055	0	-116.147	-32.094	4.464	NA
0.699430199430199	B5-03822-P01-CH0	832848	OK	0.1835028	0.1464395	0.0900743	-0.9678682	164.467	-33.275	-242.678	B5-03822-P02-CH0	832848	OK	0.7622952	0.3685107	-0.532077	0	-89.846	-84.271	5.251	B5-03822-P02-CH1	832848	OK	0.6922971	-0.2140949	-0.6891212	0	-83.788	-64.318	1.658	B5-03822-P03-CH0	832848	OK	0.7529262	-0.3256352	-0.5718949	0	-98.264	-48.96	8.975	B5-03822-P03-CH1	832848	OK	0.7543966	-0.6535677	-0.0611156	0	-101.277	-10.836	3.658	B5-03822-P04-CH0	832848	OK	0.8017887	-0.3850861	0.4569941	0	-128.563	-23.931	13.597	B5-03822-P04-CH1	832848	OK	0.791385	-0.6105712	0.0302099	0	-116.142	-31.991	4.278	NA
0.709422059422059	B5-03822-P01-CH0	832856	OK	0.1840874	0.1462092	0.0911092	-0.9676951	164.497	-33.153	-242.752	B5-03822-P02-CH0	832856	OK	0.7595996	0.3589848	-0.5423453	0	-90.107	-84.866	5.122	B5-03822-P02-CH1	832856	OK	0.6943214	-0.2115919	-0.6878566	0	-83.551	-64.983	2.225	B5-03822-P03-CH0	832856	OK	0.7491882	-0.3233464	-0.5780693	0	-98.237	-48.398	8.643	B5-03822-P03-CH1	832856	OK	0.7553889	-0.6524504	-0.0607954	0	-101.252	-10.759	3.672	B5-03822-P04-CH0	832856	OK	0.8022345	-0.384832	0.4564253	0	-128.663	-24.289	13.934	B5-03822-P04-CH1	832856	OK	0.7922624	-0.6094594	0.0296559	0	-116.034	-31.549	3.813	NA
0.719413919413919	B5-03822-P01-CH0	832864	OK	0.1843104	0.1463015	0.0910338	-0.9676458	164.571	-33.179	-242.684	B5-03822-P02-CH0	832864	OK	0.757843	0.3537807	-0.5481908	0	-89.26	-84.354	4.316	B5-03822-P02-CH1	832864	OK	0.6942446	-0.2125753	-0.6876309	0	-83.533	-64.794	1.981	B5-03822-P03-CH0	832864	OK	0.7464251	-0.3210672	-0.582894	0	-98.252	-47.997	8.022	B5-03822-P03-CH1	832864	OK	0.7556803	-0.6521176	-0.0607442	0	-101.35	-10.764	3.599	B5-03822-P04-CH0	832864	OK	0.8022555	-0.3854321	0.4558819	0	-128.758	-24.533	13.92	B5-03822-P04-CH1	832864	OK	0.7921337	-0.6096145	0.0299052	0	-116.189	-31.941	4.454	NA
0.729405779405779	B5-03822-P01-CH0	832872	OK	0.1844477	0.1464951	0.0906492	-0.9676265	164.717	-33.193	-242.705	B5-03822-P02-CH0	832872	OK	0.7544866	0.3513637	-0.5543406	0	-88.893	-82.979	4.004	B5-03822-P02-CH1	832872	OK	0.6940908	-0.2130641	-0.6876348	0	-83.644	-64.644	2.03	B5-03822-P03-CH0	832872	OK	0.7446474	-0.3186764	-0.5864687	0	-98.637	-48.185	8.961	B5-03822-P03-CH1	832872	OK	0.7556337	-0.652157	-0.0609003	0	-101.373	-10.858	3.582	B5-03822-P04-CH0	832872	OK	0.8021904	-0.38625	0.4553038	0	-128.733	-24.651	14.182	B5-03822-P04-CH1	832872	OK	0.7918067	-0.6100351	0.0299888	0	-116.05	-31.958	4.202	NA
0.739397639397639	B5-03822-P01-CH0	832880	OK	0.1845377	0.1465844	0.0905451	-0.9676055	164.773	-33.145	-242.657	B5-03822-P02-CH0	832880	OK	0.7518546	0.3458664	-0.5613297	0	-89.312	-83.721	3.385	B5-03822-P02-CH1	832880	OK	0.6941664	-0.2132012	-0.687516	0	-83.716	-64.484	1.994	B5-03822-P03-CH0	832880	OK	0.7459523	-0.3158322	-0.5863489	0	-98.045	-47.925	7.925	B5-03822-P03-CH1	832880	OK	0.7561065	-0.6515614	-0.0614058	0	-101.358	-10.584	3.45	B5-03822-P04-CH0	832880	OK	0.8022823	-0.3871522	0.4543747	0	-128.735	-24.385	13.951	B5-03822-P04-CH1	832880	OK	0.7919756	-0.6098565	0.0291507	0	-116.058	-31.596	4.104	NA
0.749389499389499	B5-03822-P01-CH0	832888	OK	0.1848488	0.1462615	0.0908001	-0.9675711	164.723	-33.12	-242.681	B5-03822-P02-CH0	832888	OK	0.7504659	0.3408741	-0.5662206	0	-88.956	-84.018	3.222	B5-03822-P02-CH1	832888	OK	0.6973248	-0.2084516	-0.685774	0	-84	-63.915	1.807	B5-03822-P03-CH0	832888	OK	0.746242	-0.3133775	-0.5872966	0	-97.897	-48.222	7.996	B5-03822-P03-CH1	832888	OK	0.7565425	-0.6510532	-0.0614261	0	-101.21	-10.616	3.291	B5-03822-P04-CH0	832888	OK	0.8023092	-0.3869744	0.4544785	0	-128.775	-24.689	14.106	B5-03822-P04-CH1	832888	OK	0.7922117	-0.6095384	0.0293865	0	-116.095	-31.753	4.495	NA
0.759381359381359	B5-03822-P01-CH0	832896	OK	0.1854614	0.1458438	0.0916612	-0.9674357	164.69	-33.043	-242.798	B5-03822-P02-CH0	832896	OK	0.7490895	0.3378564	-0.5698403	0	-88.591	-83.883	2.777	B5-03822-P02-CH1	832896	OK	0.7000601	-0.2075872	-0.6832447	0	-83.435	-63.593	1.42	B5-03822-P03-CH0	832896	OK	0.7453661	-0.310789	-0.5897793	0	-98.537	-48.22	8.027	B5-03822-P03-CH1	832896	OK	0.7578092	-0.6495728	-0.0614844	0	-101.038	-10.3	3.142	B5-03822-P04-CH0	832896	OK	0.8028065	-0.3862913	0.4541815	0	-128.842	-24.633	14.115	B5-03822-P04-CH1	832896	OK	0.7927305	-0.6088371	0.0299285	0	-116.048	-31.823	4.375	NA
0.769373219373219	B5-03822-P01-CH0	832904	OK	0.1859398	0.1458843	0.0920256	-0.9673032	164.857	-32.994	-242.912	B5-03822-P02-CH0	832904	OK	0.74771	0.3355032	-0.5730334	0	-88.403	-83.366	2.495	B5-03822-P02-CH1	832904	OK	0.700444	-0.2064955	-0.6831821	0	-84.004	-63.819	3.039	B5-03822-P03-CH0	832904	OK	0.7446783	-0.3082087	-0.591998	0	-98.879	-48.347	7.893	B5-03822-P03-CH1	832904	OK	0.7585493	-0.648732	-0.0612353	0	-101.133	-10.243	3.174	B5-03822-P04-CH0	832904	OK	0.8032313	-0.385681	0.4539489	0	-129.042	-24.766	14.445	B5-03822-P04-CH1	832904	OK	0.7932139	-0.6082206	0.029653	0	-115.868	-31.526	4.086	NA
0.779365079365079	B5-03822-P01-CH0	832912	OK	0.1861918	0.1460066	0.0918935	-0.9672488	164.959	-33.014	-242.936	B5-03822-P02-CH0	832912	OK	0.7473203	0.3328081	-0.5751097	0	-88.194	-83.495	3.066	B5-03822-P02-CH1	832912	OK	0.7023626	-0.2064656	-0.6812185	0	-83.794	-64.398	2.456	B5-03822-P03-CH0	832912	OK	0.7439273	-0.3046451	-0.5947802	0	-98.928	-48.417	9.1	B5-03822-P03-CH1	832912	OK	0.7584873	-0.6488391	-0.0608675	0	-101.168	-10.565	3.285	B5-03822-P04-CH0	832912	OK	0.8033381	-0.3851694	0.4541942	0	-129.297	-25.122	14.703	B5-03822-P04-CH1	832912	OK	0.7933427	-0.6080498	0.0297123	0	-115.93	-31.464	4.016	NA
