Wav.Time	B5.03822.P01.CH0	Frame	State	Q0	Qx	Qy	Qz	Tx	Ty	Tz	B5.03822.P02.CH0	Frame.1	State.1	Q0.1	Qx.1	Qy.1	Qz.1	Tx.1	Ty.1	Tz.1	B5.03822.P02.CH1	Frame.2	State.2	Q0.2	Qx.2	Qy.2	Qz.2	Tx.2	Ty.2	Tz.2	B5.03822.P03.CH0	Frame.3	State.3	Q0.3	Qx.3	Qy.3	Qz.3	Tx.3	Ty.3	Tz.3	B5.03822.P03.CH1	Frame.4	State.4	Q0.4	Qx.4	Qy.4	Qz.4	Tx.4	Ty.4	Tz.4	B5.03822.P04.CH0	Frame.5	State.5	Q0.5	Qx.5	Qy.5	Qz.5	Tx.5	Ty.5	Tz.5	B5.03822.P04.CH1	Frame.6	State.6	Q0.6	Qx.6	Qy.6	Qz.6	Tx.6	Ty.6	Tz.6	X
0	B5-03822-P01-CH0	81368	OK	0.2248334	0.0676368	0.067789	-0.9696803	97.002	22.677	-258.152	B5-03822-P02-CH0	81368	OK	0.7214184	0.22267	-0.6557237	0	-85.81	-100.319	-1.838	B5-03822-P02-CH1	81368	OK	0.8029704	-0.0760574	-0.5911462	0	-89.569	-75.726	7.22	B5-03822-P03-CH0	81368	OK	0.7425567	-0.4695925	-0.4775903	0	-97.347	-54.631	2.919	B5-03822-P03-CH1	81368	OK	0.755486	-0.6366782	0.1545372	0	-104.564	-26.752	1.33	B5-03822-P04-CH0	81368	OK	0.6748715	-0.1635791	0.7195765	0	-129.334	-31.635	11.826	B5-03822-P04-CH1	81368	OK	0.7684617	-0.6385895	0.0408667	0	-113.363	-44.272	4.248	NA
0.0099921231650555	B5-03822-P01-CH0	81376	OK	0.2252614	0.067423	0.0685908	-0.9695395	96.922	22.678	-258.109	B5-03822-P02-CH0	81376	OK	0.7182527	0.2131336	-0.6623346	0	-87.515	-99.72	0.194	B5-03822-P02-CH1	81376	OK	0.8079222	-0.0768216	-0.5842603	0	-89.411	-75.927	6.101	B5-03822-P03-CH0	81376	OK	0.744444	-0.4576127	-0.4862034	0	-97.244	-54.819	3.336	B5-03822-P03-CH1	81376	OK	0.7557809	-0.6361633	0.1552144	0	-104.508	-26.806	1.123	B5-03822-P04-CH0	81376	OK	0.6746626	-0.1624064	0.7200379	0	-129.25	-31.685	11.646	B5-03822-P04-CH1	81376	OK	0.7689317	-0.6380262	0.040824	0	-113.197	-44.289	4.141	NA
0.019984246330111	B5-03822-P01-CH0	81384	OK	0.225206	0.0676217	0.0683374	-0.9695564	96.951	22.665	-258.03	B5-03822-P02-CH0	81384	OK	0.7200861	0.201146	-0.6640906	0	-87.256	-101.147	-0.848	B5-03822-P02-CH1	81384	OK	0.8115215	-0.0760785	-0.5793487	0	-90.317	-74.922	7.063	B5-03822-P03-CH0	81384	OK	0.7456018	-0.4451453	-0.4959068	0	-96.987	-55.163	3.784	B5-03822-P03-CH1	81384	OK	0.755365	-0.636565	0.1555919	0	-104.488	-26.849	1.065	B5-03822-P04-CH0	81384	OK	0.6744061	-0.1611972	0.7205497	0	-129.31	-31.72	11.647	B5-03822-P04-CH1	81384	OK	0.7686117	-0.6384191	0.0407078	0	-113.033	-44.331	4.099	NA
0.0299763694951665	B5-03822-P01-CH0	81392	OK	0.2252558	0.0675901	0.0683874	-0.9695435	96.95	22.613	-257.998	B5-03822-P02-CH0	81392	OK	0.7196053	0.1897284	-0.6679606	0	-87.633	-100.89	-0.376	B5-03822-P02-CH1	81392	OK	0.8158196	-0.074257	-0.5735193	0	-91.087	-74.638	7.061	B5-03822-P03-CH0	81392	OK	0.7469695	-0.4323093	-0.5051191	0	-97.225	-54.957	2.281	B5-03822-P03-CH1	81392	OK	0.7552447	-0.6366121	0.1559822	0	-104.586	-26.926	1.136	B5-03822-P04-CH0	81392	OK	0.6741374	-0.159932	0.7210829	0	-129.348	-31.734	11.667	B5-03822-P04-CH1	81392	OK	0.7686668	-0.6383649	0.0405168	0	-112.982	-44.313	3.941	NA
0.039968492660222	B5-03822-P01-CH0	81400	OK	0.2250477	0.0676569	0.0679336	-0.9696191	96.949	22.526	-257.982	B5-03822-P02-CH0	81400	OK	0.7214422	0.1752057	-0.6699434	0	-86.519	-100.489	-0.408	B5-03822-P02-CH1	81400	OK	0.8211201	-0.0745034	-0.5658719	0	-91.032	-74.404	8.116	B5-03822-P03-CH0	81400	OK	0.7481792	-0.4211515	-0.512698	0	-96.871	-54.693	3.456	B5-03822-P03-CH1	81400	OK	0.7546463	-0.637283	0.1561386	0	-104.521	-26.941	1.054	B5-03822-P04-CH0	81400	OK	0.6735884	-0.1589509	0.7218125	0	-129.34	-31.749	11.649	B5-03822-P04-CH1	81400	OK	0.7681949	-0.6389555	0.0401566	0	-112.83	-44.407	3.962	NA
0.0499606158252775	B5-03822-P01-CH0	81408	OK	0.2248252	0.0678711	0.0675512	-0.9696824	97.023	22.496	-258.055	B5-03822-P02-CH0	81408	OK	0.7206798	0.1584538	-0.6749171	0	-86.905	-100.87	0.569	B5-03822-P02-CH1	81408	OK	0.8255062	-0.079175	-0.5588119	0	-91.858	-75.399	7.952	B5-03822-P03-CH0	81408	OK	0.7474384	-0.4088285	-0.5236364	0	-97.166	-55.238	2.608	B5-03822-P03-CH1	81408	OK	0.7542249	-0.6377706	0.1561839	0	-104.602	-26.895	1.238	B5-03822-P04-CH0	81408	OK	0.6731472	-0.1572537	0.7225954	0	-129.426	-31.773	11.83	B5-03822-P04-CH1	81408	OK	0.7677889	-0.6394614	0.0398662	0	-112.799	-44.501	4.205	NA
0.059952738990333	B5-03822-P01-CH0	81416	OK	0.2246001	0.0678002	0.0671493	-0.9697675	96.976	22.378	-258.055	B5-03822-P02-CH0	81416	OK	0.7204908	0.1419495	-0.6787808	0	-87.038	-101.336	1.175	B5-03822-P02-CH1	81416	OK	0.8311431	-0.0800671	-0.5502639	0	-92.183	-75.531	8.239	B5-03822-P03-CH0	81416	OK	0.7460724	-0.3903667	-0.5394347	0	-98.018	-54.782	2.703	B5-03822-P03-CH1	81416	OK	0.7537508	-0.6382909	0.1563472	0	-104.576	-26.904	1.198	B5-03822-P04-CH0	81416	OK	0.6704908	-0.1468233	0.7272448	0	-129.603	-31.894	12.529	B5-03822-P04-CH1	81416	OK	0.767511	-0.639824	0.0393965	0	-112.723	-44.525	4.246	NA
0.0699448621553885	B5-03822-P01-CH0	81424	OK	0.2244238	0.0679136	0.0669671	-0.9698129	97.003	22.318	-258.056	B5-03822-P02-CH0	81424	OK	0.7225608	0.1230234	-0.6802728	0	-85.854	-101.908	0.215	B5-03822-P02-CH1	81424	OK	0.8365187	-0.080162	-0.542043	0	-92.754	-75.384	9.004	B5-03822-P03-CH0	81424	OK	0.7474566	-0.3732516	-0.5495378	0	-97.113	-54.56	2.629	B5-03822-P03-CH1	81424	OK	0.7532023	-0.6388368	0.1567604	0	-104.621	-27.031	1.212	B5-03822-P04-CH0	81424	OK	0.668625	-0.1476233	0.728799	0	-129.44	-31.189	10.86	B5-03822-P04-CH1	81424	OK	0.7675223	-0.6398449	0.0388337	0	-112.726	-44.398	4.23	NA
0.079936985320444	B5-03822-P01-CH0	81432	OK	0.2242466	0.0679641	0.0668616	-0.9698576	97.015	22.289	-258.088	B5-03822-P02-CH0	81432	OK	0.7232748	0.1047941	-0.6825626	0	-85.417	-102.625	-1.13	B5-03822-P02-CH1	81432	OK	0.8404339	-0.0801776	-0.53595	0	-93.68	-76.245	8.47	B5-03822-P03-CH0	81432	OK	0.7474543	-0.3570104	-0.5602282	0	-97.681	-54.118	3.41	B5-03822-P03-CH1	81432	OK	0.7528277	-0.6392496	0.1568769	0	-104.628	-26.994	1.408	B5-03822-P04-CH0	81432	OK	0.6676008	-0.1438534	0.7304898	0	-129.052	-31.312	12.193	B5-03822-P04-CH1	81432	OK	0.7675023	-0.6399022	0.0382797	0	-112.745	-44.301	4.116	NA
0.0899291084854995	B5-03822-P01-CH0	81440	OK	0.2239046	0.0681506	0.0662182	-0.9699677	97.058	22.217	-258.122	B5-03822-P02-CH0	81440	OK	0.7216097	0.0904423	-0.686367	0	-86.164	-102.299	-1.031	B5-03822-P02-CH1	81440	OK	0.8434538	-0.0759105	-0.5318113	0	-94.255	-75.405	10.596	B5-03822-P03-CH0	81440	OK	0.7485061	-0.3457714	-0.5658452	0	-97.779	-53.849	4.398	B5-03822-P03-CH1	81440	OK	0.7520668	-0.6401245	0.1569589	0	-104.633	-26.96	1.599	B5-03822-P04-CH0	81440	OK	0.6663744	-0.1399388	0.7323676	0	-128.989	-31.922	12.262	B5-03822-P04-CH1	81440	OK	0.7671123	-0.6404123	0.0375598	0	-112.728	-44.24	4.182	NA
0.099921231650555	B5-03822-P01-CH0	81448	OK	0.2237579	0.0682304	0.0658837	-0.9700187	97.054	22.16	-258.156	B5-03822-P02-CH0	81448	OK	0.7205438	0.0755221	-0.6892845	0	-86.534	-101.804	0.343	B5-03822-P02-CH1	81448	OK	0.8465392	-0.072259	-0.5273992	0	-94.42	-75.542	11.006	B5-03822-P03-CH0	81448	OK	0.7496943	-0.337734	-0.5691171	0	-97.52	-54.155	4.054	B5-03822-P03-CH1	81448	OK	0.7515405	-0.6406602	0.1572941	0	-104.538	-26.934	1.698	B5-03822-P04-CH0	81448	OK	0.6657902	-0.1385655	0.7331596	0	-129.464	-31.319	11.439	B5-03822-P04-CH1	81448	OK	0.7668617	-0.6407337	0.037195	0	-112.736	-44.235	4.082	NA
0.10991335481561	B5-03822-P01-CH0	81456	OK	0.2235166	0.0684085	0.0653049	-0.970101	97.074	22.105	-258.184	B5-03822-P02-CH0	81456	OK	0.7227088	0.0577358	-0.6887369	0	-86.175	-102.508	-0.022	B5-03822-P02-CH1	81456	OK	0.8485579	-0.0689626	-0.5245891	0	-94.608	-76.412	9.672	B5-03822-P03-CH0	81456	OK	0.7496213	-0.3342851	-0.5712455	0	-97.977	-54.275	4.513	B5-03822-P03-CH1	81456	OK	0.750812	-0.6414455	0.1575719	0	-104.589	-26.941	1.608	B5-03822-P04-CH0	81456	OK	0.6650611	-0.136011	0.7342988	0	-129.645	-31.013	11.252	B5-03822-P04-CH1	81456	OK	0.7665368	-0.6411409	0.0368741	0	-112.736	-44.212	4.181	NA
0.119905477980666	B5-03822-P01-CH0	81464	OK	0.2233663	0.0681526	0.0655187	-0.9701392	96.976	22.074	-258.295	B5-03822-P02-CH0	81464	OK	0.7255875	0.0391685	-0.6870143	0	-85.775	-103.549	0.025	B5-03822-P02-CH1	81464	OK	0.8504297	-0.0607167	-0.5225733	0	-94.642	-76.18	9.813	B5-03822-P03-CH0	81464	OK	0.7517498	-0.3345517	-0.5682846	0	-97.125	-54.571	3.749	B5-03822-P03-CH1	81464	OK	0.7506985	-0.6415481	0.1576952	0	-104.526	-26.843	1.621	B5-03822-P04-CH0	81464	OK	0.6670088	-0.1286566	0.7338574	0	-129.958	-32.128	14.259	B5-03822-P04-CH1	81464	OK	0.7667485	-0.6409113	0.036461	0	-112.708	-44.115	4.233	NA
0.129897601145721	B5-03822-P01-CH0	81472	OK	0.2231382	0.0680659	0.0655615	-0.9701949	96.904	22.044	-258.34	B5-03822-P02-CH0	81472	OK	0.72446	0.0219661	-0.6889668	0	-87.498	-103.494	0.411	B5-03822-P02-CH1	81472	OK	0.8505428	-0.0560496	-0.5229105	0	-94.799	-76.739	10.25	B5-03822-P03-CH0	81472	OK	0.7515118	-0.3342803	-0.5687589	0	-97.658	-54.62	4.552	B5-03822-P03-CH1	81472	OK	0.7505047	-0.6417528	0.1577849	0	-104.491	-26.719	1.537	B5-03822-P04-CH0	81472	OK	0.6667225	-0.1295071	0.733968	0	-129.84	-31.668	13.642	B5-03822-P04-CH1	81472	OK	0.7667031	-0.6409875	0.0360749	0	-112.641	-44.135	4.294	NA
0.139889724310777	B5-03822-P01-CH0	81480	OK	0.2228293	0.067948	0.06528	-0.9702931	96.839	21.959	-258.351	B5-03822-P02-CH0	81480	OK	0.7263265	0.0073141	-0.687311	0	-87.714	-102.561	0.667	B5-03822-P02-CH1	81480	OK	0.8492607	-0.0501319	-0.5255883	0	-95.455	-76.72	10.482	B5-03822-P03-CH0	81480	OK	0.7531629	-0.3327539	-0.5674685	0	-97.937	-54.715	4.3	B5-03822-P03-CH1	81480	OK	0.7502773	-0.642026	0.1577549	0	-104.428	-26.526	1.337	B5-03822-P04-CH0	81480	OK	0.6661833	-0.1285935	0.7346179	0	-129.911	-31.764	13.465	B5-03822-P04-CH1	81480	OK	0.766632	-0.641096	0.0356566	0	-112.634	-44.034	4.181	NA
0.149881847475832	B5-03822-P01-CH0	81488	OK	0.2226849	0.0680209	0.0653069	-0.9703193	96.823	21.957	-258.308	B5-03822-P02-CH0	81488	OK	0.7278413	-0.0063595	-0.6857161	0	-88.144	-102.188	0.813	B5-03822-P02-CH1	81488	OK	0.8472846	-0.0466961	-0.5290824	0	-96.124	-76.655	10.212	B5-03822-P03-CH0	81488	OK	0.7561516	-0.3326452	-0.5635442	0	-97.777	-54.894	4.131	B5-03822-P03-CH1	81488	OK	0.7501493	-0.6420792	0.1581465	0	-104.493	-26.47	1.082	B5-03822-P04-CH0	81488	OK	0.6647828	-0.1270357	0.7361561	0	-129.752	-31.424	12.427	B5-03822-P04-CH1	81488	OK	0.7666893	-0.6410429	0.0353772	0	-112.666	-43.952	4.118	NA
0.159873970640888	B5-03822-P01-CH0	81496	OK	0.2226615	0.068213	0.065832	-0.9702757	96.868	22.025	-258.241	B5-03822-P02-CH0	81496	OK	0.7279026	-0.0174842	-0.6854575	0	-89.054	-102.394	0.068	B5-03822-P02-CH1	81496	OK	0.8459539	-0.0430922	-0.5315121	0	-96.506	-77.065	9.581	B5-03822-P03-CH0	81496	OK	0.7568609	-0.3360778	-0.5605474	0	-98.618	-55.389	4.203	B5-03822-P03-CH1	81496	OK	0.7504598	-0.6416201	0.158536	0	-104.657	-26.38	0.81	B5-03822-P04-CH0	81496	OK	0.6647302	-0.1215505	0.7371291	0	-129.952	-32.256	13.117	B5-03822-P04-CH1	81496	OK	0.7669516	-0.6407272	0.035412	0	-112.762	-43.962	3.925	NA
0.169866093805943	B5-03822-P01-CH0	81504	OK	0.2225819	0.0680616	0.0661353	-0.970284	96.762	22.137	-258.246	B5-03822-P02-CH0	81504	OK	0.7279686	-0.0272763	-0.6850676	0	-89.089	-103.271	0.242	B5-03822-P02-CH1	81504	OK	0.843931	-0.0414494	-0.534848	0	-96.794	-76.715	11.31	B5-03822-P03-CH0	81504	OK	0.759641	-0.3415609	-0.5534273	0	-98.937	-55.01	5.272	B5-03822-P03-CH1	81504	OK	0.7507828	-0.6412093	0.158669	0	-104.645	-26.059	0.59	B5-03822-P04-CH0	81504	OK	0.6645707	-0.1155524	0.7382367	0	-130.547	-32.687	12.072	B5-03822-P04-CH1	81504	OK	0.7669555	-0.6407009	0.0357995	0	-112.826	-43.976	3.706	NA
0.179858216970999	B5-03822-P01-CH0	81512	OK	0.2223287	0.0678834	0.0660374	-0.9703612	96.648	22.091	-258.212	B5-03822-P02-CH0	81512	OK	0.7276578	-0.0379118	-0.6848919	0	-88.726	-103.006	0.627	B5-03822-P02-CH1	81512	OK	0.8440988	-0.0416231	-0.5345696	0	-96.118	-77.223	10.476	B5-03822-P03-CH0	81512	OK	0.7635221	-0.351071	-0.5420177	0	-98.817	-54.677	5.483	B5-03822-P03-CH1	81512	OK	0.7508114	-0.6410993	0.1589777	0	-104.465	-25.968	0.436	B5-03822-P04-CH0	81512	OK	0.6639099	-0.10893	0.7398364	0	-130.405	-33.246	13.7	B5-03822-P04-CH1	81512	OK	0.7669218	-0.6407278	0.036039	0	-112.912	-43.972	3.508	NA
0.189850340136054	B5-03822-P01-CH0	81520	OK	0.2224139	0.0677137	0.0664606	-0.9703246	96.6	22.072	-258.246	B5-03822-P02-CH0	81520	OK	0.7266016	-0.048485	-0.6853462	0	-87.917	-103.322	0.677	B5-03822-P02-CH1	81520	OK	0.8416829	-0.0455486	-0.5380476	0	-96.449	-77.744	9.452	B5-03822-P03-CH0	81520	OK	0.7677434	-0.3679217	-0.5245986	0	-99.268	-55.049	5.236	B5-03822-P03-CH1	81520	OK	0.7512719	-0.6403881	0.1596673	0	-104.414	-26.049	0.422	B5-03822-P04-CH0	81520	OK	0.6623481	-0.1039757	0.7419462	0	-130.175	-33.324	13.501	B5-03822-P04-CH1	81520	OK	0.7672091	-0.6403259	0.0370534	0	-113.131	-44.133	3.291	NA
0.19984246330111	B5-03822-P01-CH0	81528	OK	0.2224254	0.0676493	0.0670744	-0.9702842	96.577	22.185	-258.247	B5-03822-P02-CH0	81528	OK	0.7241711	-0.058971	-0.6870943	0	-86.946	-102.764	0.22	B5-03822-P02-CH1	81528	OK	0.8397917	-0.0508503	-0.5405221	0	-96.326	-77.294	9.37	B5-03822-P03-CH0	81528	OK	0.7739218	-0.3847856	-0.5029763	0	-99.467	-54.639	5.598	B5-03822-P03-CH1	81528	OK	0.7517802	-0.6396517	0.1602254	0	-104.487	-26.041	0.19	B5-03822-P04-CH0	81528	OK	0.6642173	-0.0971305	0.7412024	0	-131.169	-33.307	14.043	B5-03822-P04-CH1	81528	OK	0.7675617	-0.6398124	0.0385889	0	-113.377	-44.256	3.062	NA
0.209834586466165	B5-03822-P01-CH0	81536	OK	0.2221072	0.0677864	0.0667896	-0.9703672	96.62	22.152	-258.276	B5-03822-P02-CH0	81536	OK	0.7192767	-0.0652336	-0.6916542	0	-87.108	-101.666	0.906	B5-03822-P02-CH1	81536	OK	0.8373887	-0.0626552	-0.5430051	0	-96.418	-77.213	10.174	B5-03822-P03-CH0	81536	OK	0.7769842	-0.3972105	-0.4883844	0	-100.783	-54.906	6.08	B5-03822-P03-CH1	81536	OK	0.7521139	-0.6392858	0.1601198	0	-104.512	-25.95	0.386	B5-03822-P04-CH0	81536	OK	0.665332	-0.0892003	0.7411995	0	-131.876	-34.411	13.522	B5-03822-P04-CH1	81536	OK	0.7673267	-0.639986	0.0403456	0	-113.579	-44.506	2.953	NA
0.219826709631221	B5-03822-P01-CH0	81544	OK	0.222112	0.067783	0.0666149	-0.9703784	96.629	22.13	-258.375	B5-03822-P02-CH0	81544	OK	0.716459	-0.0720205	-0.6939017	0	-86.238	-102.835	-0.817	B5-03822-P02-CH1	81544	OK	0.8366721	-0.0767415	-0.5423012	0	-95.864	-76.801	10.414	B5-03822-P03-CH0	81544	OK	0.7812781	-0.4113167	-0.4694925	0	-100.817	-55.97	6.717	B5-03822-P03-CH1	81544	OK	0.7560327	-0.6343793	0.1611753	0	-105.176	-26.31	3.302	B5-03822-P04-CH0	81544	OK	0.6680313	-0.0816305	0.7396422	0	-132.948	-35.478	14.036	B5-03822-P04-CH1	81544	OK	0.7680413	-0.6377389	0.0583236	0	-114.635	-46.379	3.742	NA
0.229818832796276	B5-03822-P01-CH0	81552	OK	0.2220913	0.067721	0.0669042	-0.9703675	96.611	22.193	-258.443	B5-03822-P02-CH0	81552	OK	0.7143688	-0.0755421	-0.6956799	0	-85.492	-102.289	-0.029	B5-03822-P02-CH1	81552	OK	0.8342706	-0.0910571	-0.5437841	0	-95.794	-77.311	8.989	B5-03822-P03-CH0	81552	OK	0.7836737	-0.4299574	-0.4483215	0	-100.942	-56.885	6.081	B5-03822-P03-CH1	81552	OK	0.7551499	-0.6355106	0.1608565	0	-104.827	-26.939	2.094	B5-03822-P04-CH0	81552	OK	0.6699145	-0.0801771	0.7380963	0	-133.927	-35.243	13.841	B5-03822-P04-CH1	81552	OK	0.7687936	-0.6366676	0.0600902	0	-116.157	-46.204	3.247	NA
0.239810955961332	B5-03822-P01-CH0	81560	OK	0.2220579	0.0676263	0.0667828	-0.9703901	96.534	22.2	-258.414	B5-03822-P02-CH0	81560	OK	0.7121272	-0.0772537	-0.697787	0	-85.167	-101.998	-0.283	B5-03822-P02-CH1	81560	OK	0.8321084	-0.1055678	-0.5444731	0	-95.364	-77.817	8.425	B5-03822-P03-CH0	81560	OK	0.7863748	-0.4430144	-0.4305263	0	-101.276	-56.807	7.757	B5-03822-P03-CH1	81560	OK	0.754783	-0.6359603	0.1608017	0	-104.739	-26.82	0.646	B5-03822-P04-CH0	81560	OK	0.669676	-0.077235	0.7386263	0	-133.842	-35.382	14.348	B5-03822-P04-CH1	81560	OK	0.7683712	-0.6368973	0.0629891	0	-116.478	-46.634	2.482	NA
0.249803079126387	B5-03822-P01-CH0	81568	OK	0.222092	0.0673396	0.0672026	-0.9703733	96.422	22.204	-258.501	B5-03822-P02-CH0	81568	OK	0.7090127	-0.078527	-0.7008099	0	-85.259	-101.915	-0.252	B5-03822-P02-CH1	81568	OK	0.830646	-0.1124856	-0.5453202	0	-95.198	-76.767	9.348	B5-03822-P03-CH0	81568	OK	0.7884894	-0.452564	-0.4164977	0	-101.565	-57.088	7.357	B5-03822-P03-CH1	81568	OK	0.755637	-0.6355324	0.1584658	0	-104.827	-26.114	0.571	B5-03822-P04-CH0	81568	OK	0.6703645	-0.0759678	0.738133	0	-134.188	-35.867	14.259	B5-03822-P04-CH1	81568	OK	0.7683884	-0.6366231	0.0655004	0	-117.034	-47.416	3.842	NA
0.259795202291443	B5-03822-P01-CH0	81576	OK	0.2219145	0.0673401	0.0669037	-0.9704345	96.427	22.172	-258.71	B5-03822-P02-CH0	81576	OK	0.7081126	-0.0784096	-0.7017325	0	-85.199	-102.102	0.182	B5-03822-P02-CH1	81576	OK	0.8281958	-0.1159711	-0.5483087	0	-95.515	-77.221	8.799	B5-03822-P03-CH0	81576	OK	0.7879542	-0.4572184	-0.412407	0	-101.615	-57.685	7.283	B5-03822-P03-CH1	81576	OK	0.7542033	-0.6366744	0.1606954	0	-104.476	-26.411	1.773	B5-03822-P04-CH0	81576	OK	0.6704986	-0.0786185	0.7377336	0	-134.239	-35.593	13.463	B5-03822-P04-CH1	81576	OK	0.7687076	-0.6364285	0.0636197	0	-117.15	-47.028	5.395	NA
0.269787325456498	B5-03822-P01-CH0	81584	OK	0.2216594	0.0674329	0.0665354	-0.9705117	96.466	22.077	-258.835	B5-03822-P02-CH0	81584	OK	0.7103135	-0.0727986	-0.7001107	0	-84.473	-102.426	-0.591	B5-03822-P02-CH1	81584	OK	0.8279687	-0.1168313	-0.5484691	0	-95.053	-77.821	8.768	B5-03822-P03-CH0	81584	OK	0.7853357	-0.4586326	-0.4158172	0	-101.659	-57.937	7.465	B5-03822-P03-CH1	81584	OK	0.7541649	-0.6368181	0.1603058	0	-104.47	-26.594	2.023	B5-03822-P04-CH0	81584	OK	0.6702206	-0.0814845	0.7376752	0	-133.613	-35.823	14.557	B5-03822-P04-CH1	81584	OK	0.7683298	-0.6369048	0.0634167	0	-116.895	-47.036	5.399	NA
0.279779448621554	B5-03822-P01-CH0	81592	OK	0.2216687	0.0674774	0.066703	-0.970495	96.443	22.066	-258.821	B5-03822-P02-CH0	81592	OK	0.7113566	-0.064156	-0.699897	0	-84.971	-102.647	-0.436	B5-03822-P02-CH1	81592	OK	0.8272465	-0.1132911	-0.5502984	0	-95.271	-77.689	8.493	B5-03822-P03-CH0	81592	OK	0.7817672	-0.45252	-0.4290288	0	-101.197	-57.126	6.606	B5-03822-P03-CH1	81592	OK	0.7544693	-0.6365195	0.1600595	0	-104.567	-26.642	1.963	B5-03822-P04-CH0	81592	OK	0.6680574	-0.0842228	0.739328	0	-132.762	-35.351	14.375	B5-03822-P04-CH1	81592	OK	0.7671231	-0.6385402	0.0615514	0	-117.278	-47.259	3.582	NA
0.289771571786609	B5-03822-P01-CH0	81600	OK	0.2216373	0.067175	0.0674916	-0.9704686	96.319	22.11	-258.871	B5-03822-P02-CH0	81600	OK	0.7141888	-0.0539801	-0.6978685	0	-85.267	-102.167	0.164	B5-03822-P02-CH1	81600	OK	0.8255638	-0.1077174	-0.5539326	0	-95.855	-77.645	9.14	B5-03822-P03-CH0	81600	OK	0.7778263	-0.4399453	-0.4488144	0	-100.465	-56.357	6.082	B5-03822-P03-CH1	81600	OK	0.7549799	-0.6360492	0.1595201	0	-104.57	-26.57	1.705	B5-03822-P04-CH0	81600	OK	0.6684979	-0.0853028	0.7388058	0	-132.761	-35.036	14.328	B5-03822-P04-CH1	81600	OK	0.7683498	-0.6372424	0.0596724	0	-115.959	-46.594	3.768	NA
0.299763694951665	B5-03822-P01-CH0	81608	OK	0.2215796	0.0672273	0.0677284	-0.9704617	96.306	22.034	-258.926	B5-03822-P02-CH0	81608	OK	0.7163811	-0.0460534	-0.6961876	0	-85.934	-101.879	-0.185	B5-03822-P02-CH1	81608	OK	0.8279342	-0.1001446	-0.5518116	0	-94.629	-76.606	8.623	B5-03822-P03-CH0	81608	OK	0.7726846	-0.4275057	-0.469252	0	-100.405	-55.975	5.429	B5-03822-P03-CH1	81608	OK	0.7551626	-0.6359373	0.1591013	0	-104.601	-26.682	2.031	B5-03822-P04-CH0	81608	OK	0.6693945	-0.1062416	0.7352712	0	-131.831	-33.324	13.847	B5-03822-P04-CH1	81608	OK	0.7686336	-0.6368747	0.059941	0	-116.035	-46.603	4.186	NA
0.30975581811672	B5-03822-P01-CH0	81616	OK	0.2214223	0.0671155	0.0680658	-0.9704817	96.216	21.977	-258.898	B5-03822-P02-CH0	81616	OK	0.7200651	-0.0383766	-0.6928445	0	-85.209	-101.477	-0.559	B5-03822-P02-CH1	81616	OK	0.8270459	-0.0957014	-0.5539282	0	-94.504	-75.633	7.929	B5-03822-P03-CH0	81616	OK	0.7678777	-0.4161365	-0.4870259	0	-100.25	-55.016	5.392	B5-03822-P03-CH1	81616	OK	0.7550988	-0.63606	0.1589138	0	-104.574	-26.793	1.976	B5-03822-P04-CH0	81616	OK	0.6686853	-0.1171969	0.7342512	0	-131.405	-32.933	11.796	B5-03822-P04-CH1	81616	OK	0.7689033	-0.6366115	0.0592754	0	-116.103	-46.489	4.435	NA
0.319747941281776	B5-03822-P01-CH0	81624	OK	0.2212284	0.0671118	0.0682112	-0.970516	96.138	21.912	-258.799	B5-03822-P02-CH0	81624	OK	0.7203609	-0.03133	-0.6928915	0	-85.848	-100.952	-0.088	B5-03822-P02-CH1	81624	OK	0.8232305	-0.0952973	-0.5596517	0	-94.789	-75.495	8.266	B5-03822-P03-CH0	81624	OK	0.7628523	-0.4148119	-0.4959713	0	-99.001	-54.272	4.843	B5-03822-P03-CH1	81624	OK	0.7548112	-0.6364668	0.1586507	0	-104.515	-26.824	1.534	B5-03822-P04-CH0	81624	OK	0.6700291	-0.122288	0.732193	0	-131.279	-33.596	12.604	B5-03822-P04-CH1	81624	OK	0.7689144	-0.6367164	0.0579908	0	-116.068	-46.354	4.552	NA
0.329740064446831	B5-03822-P01-CH0	81632	OK	0.221122	0.0671268	0.0685352	-0.9705164	96.116	21.858	-258.816	B5-03822-P02-CH0	81632	OK	0.7200561	-0.020427	-0.6936151	0	-86.459	-100.378	0.389	B5-03822-P02-CH1	81632	OK	0.8182599	-0.0955831	-0.5668462	0	-94.717	-75.8	7.827	B5-03822-P03-CH0	81632	OK	0.7553202	-0.422272	-0.5011764	0	-98.323	-54.233	4.813	B5-03822-P03-CH1	81632	OK	0.754774	-0.6365384	0.1585402	0	-104.484	-26.801	1.401	B5-03822-P04-CH0	81632	OK	0.670507	-0.1266339	0.7310159	0	-131.079	-33.318	13.363	B5-03822-P04-CH1	81632	OK	0.7690364	-0.6367172	0.0563408	0	-115.918	-46.182	4.833	NA
0.339732187611887	B5-03822-P01-CH0	81640	OK	0.220957	0.0671452	0.0689564	-0.9705228	96.116	21.788	-258.849	B5-03822-P02-CH0	81640	OK	0.7203114	-0.0069087	-0.6936164	0	-86.043	-99.422	0.343	B5-03822-P02-CH1	81640	OK	0.8138113	-0.0942827	-0.57343	0	-93.905	-75.121	6.927	B5-03822-P03-CH0	81640	OK	0.7491825	-0.4319106	-0.5021741	0	-97.75	-53.862	3.766	B5-03822-P03-CH1	81640	OK	0.7547464	-0.6365497	0.1586267	0	-104.405	-26.895	1.565	B5-03822-P04-CH0	81640	OK	0.6693219	-0.1337166	0.7308407	0	-130.662	-32.398	11.686	B5-03822-P04-CH1	81640	OK	0.7680915	-0.6388101	0.0442379	0	-114.431	-44.551	3.532	NA
0.349724310776942	B5-03822-P01-CH0	81648	OK	0.2206991	0.0672922	0.0687544	-0.9705856	96.129	21.729	-258.942	B5-03822-P02-CH0	81648	OK	0.7196933	0.0065171	-0.6942616	0	-85.703	-99.252	-0.619	B5-03822-P02-CH1	81648	OK	0.8092297	-0.0949134	-0.5797747	0	-92.663	-75.166	6.963	B5-03822-P03-CH0	81648	OK	0.742936	-0.4416249	-0.5030044	0	-97.761	-53.517	3.528	B5-03822-P03-CH1	81648	OK	0.7541966	-0.6370968	0.1590445	0	-104.347	-27.044	1.803	B5-03822-P04-CH0	81648	OK	0.6697065	-0.1363846	0.7299948	0	-130.345	-31.908	12.807	B5-03822-P04-CH1	81648	OK	0.7678761	-0.6392126	0.0421131	0	-114.689	-44.514	4.4	NA
0.359716433941998	B5-03822-P01-CH0	81656	OK	0.2204381	0.0672162	0.0686801	-0.9706555	96.036	21.684	-258.911	B5-03822-P02-CH0	81656	OK	0.7178908	0.0208178	-0.6958443	0	-85.704	-99.703	-0.23	B5-03822-P02-CH1	81656	OK	0.8035413	-0.0967826	-0.5873282	0	-92.151	-75.304	5.778	B5-03822-P03-CH0	81656	OK	0.7391099	-0.4515221	-0.4998444	0	-97.093	-53.506	2.724	B5-03822-P03-CH1	81656	OK	0.7538968	-0.6374111	0.1592066	0	-104.31	-26.92	1.518	B5-03822-P04-CH0	81656	OK	0.6696901	-0.1370062	0.7298935	0	-130.081	-32.184	12.551	B5-03822-P04-CH1	81656	OK	0.7683542	-0.6387784	0.0399246	0	-114.653	-43.885	3.902	NA
0.369708557107053	B5-03822-P01-CH0	81664	OK	0.2203016	0.06705	0.0688839	-0.9706835	95.924	21.657	-258.866	B5-03822-P02-CH0	81664	OK	0.7171397	0.033261	-0.6961353	0	-85.012	-100.254	-1.002	B5-03822-P02-CH1	81664	OK	0.7994233	-0.0953367	-0.5931554	0	-91.144	-74.761	5.221	B5-03822-P03-CH0	81664	OK	0.7379823	-0.4611478	-0.492671	0	-96.032	-53.71	3.014	B5-03822-P03-CH1	81664	OK	0.7537238	-0.6375195	0.1595913	0	-104.299	-26.922	1.372	B5-03822-P04-CH0	81664	OK	0.6704922	-0.1382416	0.7289235	0	-130.154	-31.952	12.97	B5-03822-P04-CH1	81664	OK	0.7686329	-0.6379669	0.0469224	0	-114.842	-44.93	4.617	NA
0.379700680272109	B5-03822-P01-CH0	81672	OK	0.2204022	0.0668397	0.0694589	-0.9706342	95.853	21.656	-258.983	B5-03822-P02-CH0	81672	OK	0.7163359	0.0466372	-0.6961952	0	-84.81	-100.439	-0.935	B5-03822-P02-CH1	81672	OK	0.7929976	-0.0942313	-0.6018931	0	-90.936	-75.271	4.869	B5-03822-P03-CH0	81672	OK	0.7367097	-0.4712167	-0.4849882	0	-96.552	-53.805	3.063	B5-03822-P03-CH1	81672	OK	0.7538792	-0.6371919	0.1601641	0	-104.171	-26.993	1.497	B5-03822-P04-CH0	81672	OK	0.6717895	-0.1379332	0.7277866	0	-130.548	-31.933	13.252	B5-03822-P04-CH1	81672	OK	0.7689846	-0.6376905	0.0448717	0	-114.587	-44.598	4.635	NA
0.389692803437164	B5-03822-P01-CH0	81680	OK	0.220094	0.0671129	0.068608	-0.9707458	95.892	21.567	-258.998	B5-03822-P02-CH0	81680	OK	0.7161301	0.0623656	-0.695175	0	-84.852	-99.025	-0.477	B5-03822-P02-CH1	81680	OK	0.7860044	-0.0928465	-0.6112092	0	-90.663	-75.204	4.223	B5-03822-P03-CH0	81680	OK	0.7382934	-0.4823146	-0.4714823	0	-96.421	-53.604	2.882	B5-03822-P03-CH1	81680	OK	0.75322	-0.6378956	0.1604643	0	-104.137	-27.037	1.647	B5-03822-P04-CH0	81680	OK	0.6692519	-0.1338058	0.7308884	0	-130.098	-31.903	12.652	B5-03822-P04-CH1	81680	OK	0.7682615	-0.6386918	0.0429767	0	-114.486	-44.413	4.514	NA
0.39968492660222	B5-03822-P01-CH0	81688	OK	0.2197662	0.0670671	0.0685072	-0.9708304	95.882	21.568	-259.016	B5-03822-P02-CH0	81688	OK	0.7146514	0.0765299	-0.6952816	0	-85.951	-99.258	1.494	B5-03822-P02-CH1	81688	OK	0.7778213	-0.0897335	-0.6220466	0	-90.383	-74.962	3.853	B5-03822-P03-CH0	81688	OK	0.7396818	-0.4952552	-0.4556239	0	-97.599	-53.634	2.406	B5-03822-P03-CH1	81688	OK	0.7531182	-0.6380463	0.160343	0	-104.097	-26.904	1.532	B5-03822-P04-CH0	81688	OK	0.6696118	-0.1359037	0.7301713	0	-130.162	-31.917	12.603	B5-03822-P04-CH1	81688	OK	0.7679783	-0.6391278	0.0415334	0	-114.399	-44.233	4.326	NA
0.409677049767275	B5-03822-P01-CH0	81696	OK	0.2197815	0.0670674	0.0682284	-0.9708465	95.882	21.571	-259.026	B5-03822-P02-CH0	81696	OK	0.716271	0.0903564	-0.6919476	0	-85.317	-99.166	0.846	B5-03822-P02-CH1	81696	OK	0.7686146	-0.0886255	-0.6335433	0	-89.785	-74.588	4.368	B5-03822-P03-CH0	81696	OK	0.7427723	-0.5112934	-0.4322827	0	-96.756	-53.794	3.912	B5-03822-P03-CH1	81696	OK	0.7529443	-0.638171	0.1606629	0	-104.065	-26.879	1.404	B5-03822-P04-CH0	81696	OK	0.66965	-0.136487	0.7300275	0	-130.162	-31.973	12.59	B5-03822-P04-CH1	81696	OK	0.7676335	-0.6395807	0.04093	0	-114.288	-44.153	4.17	NA
0.419669172932331	B5-03822-P01-CH0	81704	OK	0.2198028	0.0669619	0.0683108	-0.9708432	95.844	21.633	-259.046	B5-03822-P02-CH0	81704	OK	0.7164483	0.105124	-0.6896744	0	-85.226	-99.372	0.678	B5-03822-P02-CH1	81704	OK	0.7592923	-0.0919614	-0.6442191	0	-88.612	-74.953	3.093	B5-03822-P03-CH0	81704	OK	0.7430201	-0.5281611	-0.411056	0	-97.306	-54.381	3.135	B5-03822-P03-CH1	81704	OK	0.7530459	-0.6380271	0.1607584	0	-104.042	-26.782	1.432	B5-03822-P04-CH0	81704	OK	0.6697075	-0.1368491	0.729907	0	-130.121	-31.86	12.623	B5-03822-P04-CH1	81704	OK	0.7676382	-0.6396098	0.0403855	0	-114.246	-43.987	4.08	NA
0.429661296097386	B5-03822-P01-CH0	81712	OK	0.219749	0.0670014	0.0681135	-0.9708665	95.861	21.646	-259.039	B5-03822-P02-CH0	81712	OK	0.7149767	0.1197674	-0.6888135	0	-85.54	-99.451	-0.265	B5-03822-P02-CH1	81712	OK	0.7500426	-0.0913917	-0.6550448	0	-87.643	-74.882	3.082	B5-03822-P03-CH0	81712	OK	0.7445587	-0.5432825	-0.387913	0	-97.167	-54.483	3.151	B5-03822-P03-CH1	81712	OK	0.7529812	-0.6381059	0.1607486	0	-104.088	-26.818	1.677	B5-03822-P04-CH0	81712	OK	0.6700587	-0.1367474	0.7296036	0	-130.206	-31.847	12.681	B5-03822-P04-CH1	81712	OK	0.7674263	-0.6398888	0.0399905	0	-114.382	-43.947	3.889	NA
0.439653419262442	B5-03822-P01-CH0	81720	OK	0.2197962	0.0671386	0.0679757	-0.970856	95.934	21.756	-259.152	B5-03822-P02-CH0	81720	OK	0.710427	0.1338854	-0.6909184	0	-86.607	-97.158	1.878	B5-03822-P02-CH1	81720	OK	0.7406301	-0.0881067	-0.6661113	0	-87.242	-75.284	1.173	B5-03822-P03-CH0	81720	OK	0.7459362	-0.5563	-0.3662097	0	-96.189	-55.028	4.03	B5-03822-P03-CH1	81720	OK	0.7529487	-0.6381988	0.1605319	0	-104.275	-26.76	1.78	B5-03822-P04-CH0	81720	OK	0.6702565	-0.1363158	0.7295027	0	-130.327	-31.901	12.799	B5-03822-P04-CH1	81720	OK	0.7671834	-0.6401581	0.0403383	0	-114.37	-44.026	4.074	NA
0.449645542427497	B5-03822-P01-CH0	81728	OK	0.2198337	0.0668748	0.068283	-0.9708441	95.872	21.794	-259.149	B5-03822-P02-CH0	81728	OK	0.7099413	0.1433927	-0.6895084	0	-85.88	-97.083	1.684	B5-03822-P02-CH1	81728	OK	0.7347187	-0.0780968	-0.6738615	0	-86.35	-75.51	0.455	B5-03822-P03-CH0	81728	OK	0.7464156	-0.5625114	-0.3555907	0	-95.963	-55.299	4.864	B5-03822-P03-CH1	81728	OK	0.7532596	-0.6379473	0.1600724	0	-104.299	-26.612	1.336	B5-03822-P04-CH0	81728	OK	0.6704765	-0.1363679	0.7292908	0	-130.396	-31.842	12.483	B5-03822-P04-CH1	81728	OK	0.7673334	-0.639968	0.0405012	0	-114.27	-44.024	3.99	NA
0.459637665592553	B5-03822-P01-CH0	81736	OK	0.2200993	0.0665699	0.0686825	-0.9707767	95.809	21.802	-259.138	B5-03822-P02-CH0	81736	OK	0.7109112	0.1516874	-0.6867287	0	-85.739	-98.376	0.097	B5-03822-P02-CH1	81736	OK	0.7318821	-0.0647414	-0.6783488	0	-85.401	-75.954	0.052	B5-03822-P03-CH0	81736	OK	0.7470217	-0.5637697	-0.3523098	0	-95.65	-55.377	5.034	B5-03822-P03-CH1	81736	OK	0.7536006	-0.6375686	0.159976	0	-104.237	-26.683	1.414	B5-03822-P04-CH0	81736	OK	0.6705728	-0.1358938	0.7292907	0	-130.382	-31.93	12.326	B5-03822-P04-CH1	81736	OK	0.7675091	-0.6397146	0.0411703	0	-114.239	-44.151	3.811	NA
0.469629788757608	B5-03822-P01-CH0	81744	OK	0.22012	0.0665612	0.0686469	-0.9707752	95.836	21.833	-259.134	B5-03822-P02-CH0	81744	OK	0.7133447	0.1597907	-0.6823535	0	-85.2	-99.047	-0.991	B5-03822-P02-CH1	81744	OK	0.7287835	-0.0526455	-0.6827175	0	-85.442	-76.061	0.5	B5-03822-P03-CH0	81744	OK	0.7452944	-0.564688	-0.3544909	0	-95.893	-55.954	3.748	B5-03822-P03-CH1	81744	OK	0.7536329	-0.6376395	0.1595413	0	-104.231	-26.678	1.383	B5-03822-P04-CH0	81744	OK	0.6707441	-0.1360375	0.7291064	0	-130.457	-31.897	12.176	B5-03822-P04-CH1	81744	OK	0.7675975	-0.6396031	0.0412543	0	-114.276	-44.074	3.682	NA
0.479621911922664	B5-03822-P01-CH0	81752	OK	0.2199346	0.0667853	0.0683028	-0.970826	95.949	21.875	-259.11	B5-03822-P02-CH0	81752	OK	0.7101876	0.1681797	-0.6836294	0	-87.031	-98.002	1.273	B5-03822-P02-CH1	81752	OK	0.7262493	-0.0414301	-0.6861818	0	-85.525	-76.272	0.722	B5-03822-P03-CH0	81752	OK	0.7437768	-0.5613828	-0.3628298	0	-95.266	-56.18	4.277	B5-03822-P03-CH1	81752	OK	0.7534323	-0.6380388	0.1588906	0	-104.462	-26.681	1.495	B5-03822-P04-CH0	81752	OK	0.6709065	-0.1363828	0.7288925	0	-130.574	-31.846	12.135	B5-03822-P04-CH1	81752	OK	0.7673339	-0.6399146	0.0413275	0	-114.353	-44.118	3.812	NA
0.489614035087719	B5-03822-P01-CH0	81760	OK	0.2200899	0.0667962	0.0687174	-0.9707608	95.989	21.99	-259.121	B5-03822-P02-CH0	81760	OK	0.7103359	0.1735299	-0.6821365	0	-87.295	-97.816	1.662	B5-03822-P02-CH1	81760	OK	0.7257777	-0.0327969	-0.6871471	0	-84.745	-75.955	0.424	B5-03822-P03-CH0	81760	OK	0.7402003	-0.5551537	-0.379352	0	-95.71	-56.006	4.353	B5-03822-P03-CH1	81760	OK	0.7536463	-0.6379203	0.1583506	0	-104.614	-26.656	1.513	B5-03822-P04-CH0	81760	OK	0.6712924	-0.1367868	0.7284613	0	-130.696	-31.782	12.024	B5-03822-P04-CH1	81760	OK	0.7676518	-0.6395201	0.0415313	0	-114.419	-44.097	3.947	NA
0.499606158252775	B5-03822-P01-CH0	81768	OK	0.2202796	0.0667006	0.0687087	-0.970725	95.996	22.029	-259.265	B5-03822-P02-CH0	81768	OK	0.7130118	0.1753515	-0.6788712	0	-86.247	-99.086	0.459	B5-03822-P02-CH1	81768	OK	0.7260383	-0.0261321	-0.6871576	0	-84.122	-76.636	-0.872	B5-03822-P03-CH0	81768	OK	0.7358788	-0.5504992	-0.39425	0	-94.848	-56.576	2.812	B5-03822-P03-CH1	81768	OK	0.753587	-0.6380613	0.1580646	0	-104.693	-26.656	1.591	B5-03822-P04-CH0	81768	OK	0.6713129	-0.1377057	0.7282693	0	-130.661	-31.68	12.01	B5-03822-P04-CH1	81768	OK	0.7677068	-0.6394553	0.0415114	0	-114.437	-44.109	4.131	NA
0.50959828141783	B5-03822-P01-CH0	81776	OK	0.2202786	0.0664616	0.0689683	-0.9707232	95.965	22.067	-259.387	B5-03822-P02-CH0	81776	OK	0.7126179	0.1775913	-0.6787024	0	-86.553	-98.829	0.868	B5-03822-P02-CH1	81776	OK	0.7240206	-0.022551	-0.6894096	0	-84.931	-76.561	0.575	B5-03822-P03-CH0	81776	OK	0.7300893	-0.5393576	-0.4195987	0	-95.355	-56.876	0.838	B5-03822-P03-CH1	81776	OK	0.7536141	-0.6381686	0.1575013	0	-104.636	-26.624	1.817	B5-03822-P04-CH0	81776	OK	0.6714604	-0.1391699	0.7278548	0	-130.616	-31.588	12.121	B5-03822-P04-CH1	81776	OK	0.767946	-0.6391797	0.0413311	0	-114.362	-44.035	4.213	NA
0.519590404582886	B5-03822-P01-CH0	81784	OK	0.2203369	0.0664415	0.0693688	-0.9706828	96.026	22.083	-259.418	B5-03822-P02-CH0	81784	OK	0.7127001	0.1786354	-0.6783421	0	-86.777	-98.517	-0.391	B5-03822-P02-CH1	81784	OK	0.7246812	-0.0152585	-0.6889154	0	-84.257	-76.206	0.998	B5-03822-P03-CH0	81784	OK	0.7250063	-0.523606	-0.44744	0	-94.736	-56.533	0.552	B5-03822-P03-CH1	81784	OK	0.7536934	-0.6382121	0.1569447	0	-104.719	-26.605	1.817	B5-03822-P04-CH0	81784	OK	0.6716069	-0.1405792	0.7274488	0	-130.665	-31.592	11.968	B5-03822-P04-CH1	81784	OK	0.76809	-0.6390124	0.041242	0	-114.23	-44.115	4.185	NA
0.529582527747941	B5-03822-P01-CH0	81792	OK	0.2203698	0.0662244	0.0692444	-0.9706991	95.955	22.069	-259.418	B5-03822-P02-CH0	81792	OK	0.711731	0.1817967	-0.6785197	0	-87.146	-97.617	1.507	B5-03822-P02-CH1	81792	OK	0.7224379	-0.0089098	-0.6913784	0	-85.002	-76.192	1.657	B5-03822-P03-CH0	81792	OK	0.7176728	-0.5072136	-0.4771584	0	-93.398	-56.919	0.679	B5-03822-P03-CH1	81792	OK	0.753228	-0.6387954	0.1568057	0	-104.685	-26.675	1.585	B5-03822-P04-CH0	81792	OK	0.671262	-0.1424533	0.7274025	0	-130.492	-31.509	11.7	B5-03822-P04-CH1	81792	OK	0.7679812	-0.6391638	0.0409216	0	-114.056	-44.107	4.191	NA
0.539574650912997	B5-03822-P01-CH0	81800	OK	0.2202956	0.0661584	0.0692397	-0.9707207	95.943	22.066	-259.43	B5-03822-P02-CH0	81800	OK	0.7163015	0.184499	-0.6729578	0	-85.371	-98.441	-1.206	B5-03822-P02-CH1	81800	OK	0.722085	-0.0011266	-0.6918034	0	-85.096	-75.691	0.968	B5-03822-P03-CH0	81800	OK	0.7103679	-0.4895321	-0.5057032	0	-92.761	-56.719	0.214	B5-03822-P03-CH1	81800	OK	0.7530196	-0.6391245	0.1564652	0	-104.592	-26.603	1.502	B5-03822-P04-CH0	81800	OK	0.6712799	-0.1441563	0.7270504	0	-130.394	-31.401	11.789	B5-03822-P04-CH1	81800	OK	0.7680325	-0.6391487	0.0401884	0	-114.014	-43.951	4.142	NA
0.549566774078052	B5-03822-P01-CH0	81808	OK	0.2205395	0.0663009	0.069585	-0.970631	96.053	22.112	-259.473	B5-03822-P02-CH0	81808	OK	0.7144812	0.1861601	-0.6744339	0	-86.861	-98.481	0.001	B5-03822-P02-CH1	81808	OK	0.7239947	0.0025971	-0.6898007	0	-84.236	-75.61	-0.007	B5-03822-P03-CH0	81808	OK	0.7045262	-0.4723188	-0.529677	0	-92.332	-57.351	-1.103	B5-03822-P03-CH1	81808	OK	0.7530696	-0.6390973	0.1563358	0	-104.65	-26.626	1.623	B5-03822-P04-CH0	81808	OK	0.6713219	-0.1456259	0.7267187	0	-130.349	-31.376	11.915	B5-03822-P04-CH1	81808	OK	0.7682635	-0.6389043	0.039656	0	-114.101	-43.907	4.136	NA
0.559558897243108	B5-03822-P01-CH0	81816	OK	0.2205742	0.0664249	0.0698055	-0.9705988	96.106	22.205	-259.514	B5-03822-P02-CH0	81816	OK	0.7140264	0.1871517	-0.674641	0	-87.244	-98.308	1.318	B5-03822-P02-CH1	81816	OK	0.7241996	0.0017623	-0.6895882	0	-84.526	-76.381	0.242	B5-03822-P03-CH0	81816	OK	0.7013151	-0.4573928	-0.5467623	0	-92.134	-57.22	-0.979	B5-03822-P03-CH1	81816	OK	0.7528285	-0.6394041	0.1562423	0	-104.634	-26.616	1.525	B5-03822-P04-CH0	81816	OK	0.6712451	-0.1474724	0.7264172	0	-130.245	-31.226	11.95	B5-03822-P04-CH1	81816	OK	0.7683759	-0.6388096	0.0389959	0	-114.047	-43.787	4.27	NA
0.569551020408163	B5-03822-P01-CH0	81824	OK	0.2204958	0.0665324	0.0694422	-0.9706353	96.151	22.137	-259.497	B5-03822-P02-CH0	81824	OK	0.7130882	0.1862402	-0.6758844	0	-87.749	-97.477	1.429	B5-03822-P02-CH1	81824	OK	0.7256979	0.0014263	-0.688012	0	-84.784	-76.162	1.729	B5-03822-P03-CH0	81824	OK	0.7011918	-0.4459925	-0.5562561	0	-91.571	-56.876	-0.032	B5-03822-P03-CH1	81824	OK	0.7522575	-0.6401288	0.1560249	0	-104.566	-26.685	1.411	B5-03822-P04-CH0	81824	OK	0.6710313	-0.1491975	0.7262624	0	-130.131	-31.172	11.871	B5-03822-P04-CH1	81824	OK	0.7679069	-0.6393896	0.0387283	0	-113.887	-43.959	4.369	NA
0.579543143573219	B5-03822-P01-CH0	81832	OK	0.2205597	0.0668007	0.0692053	-0.9706192	96.267	22.12	-259.541	B5-03822-P02-CH0	81832	OK	0.7126953	0.1822922	-0.6773736	0	-88.376	-98.034	1.827	B5-03822-P02-CH1	81832	OK	0.7286997	0.0014698	-0.6848318	0	-84.509	-76.728	0.122	B5-03822-P03-CH0	81832	OK	0.7010069	-0.4361706	-0.5642203	0	-91.304	-56.969	1.119	B5-03822-P03-CH1	81832	OK	0.7518357	-0.6406352	0.1559795	0	-104.444	-26.728	1.395	B5-03822-P04-CH0	81832	OK	0.6709756	-0.1505677	0.726031	0	-130.054	-31.178	11.947	B5-03822-P04-CH1	81832	OK	0.7677102	-0.6396598	0.038162	0	-113.9	-43.983	4.485	NA
0.589535266738274	B5-03822-P01-CH0	81840	OK	0.2203089	0.0668734	0.0683266	-0.9707334	96.283	22.022	-259.549	B5-03822-P02-CH0	81840	OK	0.7140782	0.1817843	-0.6760524	0	-86.986	-98.494	0.322	B5-03822-P02-CH1	81840	OK	0.7295009	0.0023046	-0.6839759	0	-84.991	-76.473	1.498	B5-03822-P03-CH0	81840	OK	0.7001577	-0.4309657	-0.5692519	0	-91.231	-57.394	1.939	B5-03822-P03-CH1	81840	OK	0.7511131	-0.6415225	0.155814	0	-104.325	-26.727	1.349	B5-03822-P04-CH0	81840	OK	0.6708393	-0.1521266	0.725832	0	-129.928	-31.121	12.198	B5-03822-P04-CH1	81840	OK	0.7668672	-0.6407191	0.0373329	0	-113.891	-44.08	4.385	NA
0.59952738990333	B5-03822-P01-CH0	81848	OK	0.2205377	0.0670944	0.0684702	-0.9706561	96.343	22.094	-259.451	B5-03822-P02-CH0	81848	OK	0.7140749	0.1810891	-0.6762424	0	-87.141	-98.404	0.128	B5-03822-P02-CH1	81848	OK	0.7291881	0.0026502	-0.6843082	0	-85.34	-76.196	1.947	B5-03822-P03-CH0	81848	OK	0.6992168	-0.4285519	-0.5722229	0	-92.366	-57.323	0.476	B5-03822-P03-CH1	81848	OK	0.7510502	-0.6415572	0.1559742	0	-104.376	-26.739	1.205	B5-03822-P04-CH0	81848	OK	0.6711016	-0.1525403	0.7255027	0	-129.879	-31.188	12.394	B5-03822-P04-CH1	81848	OK	0.7668546	-0.6407469	0.0371137	0	-113.874	-44.063	4.326	NA
0.609519513068385	B5-03822-P01-CH0	81856	OK	0.2207892	0.0673012	0.0686863	-0.9705694	96.381	22.21	-259.324	B5-03822-P02-CH0	81856	OK	0.7137445	0.1799882	-0.6768848	0	-87.36	-98.283	0.205	B5-03822-P02-CH1	81856	OK	0.7275974	0.001203	-0.6860034	0	-85.648	-76.476	0.917	B5-03822-P03-CH0	81856	OK	0.7001	-0.4291062	-0.5707256	0	-92.593	-57.167	-0.911	B5-03822-P03-CH1	81856	OK	0.751057	-0.6415086	0.1561413	0	-104.485	-26.642	0.703	B5-03822-P04-CH0	81856	OK	0.6711157	-0.1535056	0.7252859	0	-129.737	-31.044	12.269	B5-03822-P04-CH1	81856	OK	0.7669035	-0.6407147	0.0366565	0	-113.887	-43.969	4.259	NA
0.619511636233441	B5-03822-P01-CH0	81864	OK	0.220693	0.0676307	0.067671	-0.9706396	96.435	22.155	-259.279	B5-03822-P02-CH0	81864	OK	0.7136815	0.1784279	-0.6773641	0	-87.595	-98.556	0.53	B5-03822-P02-CH1	81864	OK	0.7264522	0.0034033	-0.6872085	0	-85.219	-77.138	0.686	B5-03822-P03-CH0	81864	OK	0.7013996	-0.430669	-0.5679461	0	-92.566	-56.823	-0.41	B5-03822-P03-CH1	81864	OK	0.7503396	-0.6422708	0.1564564	0	-104.407	-26.75	0.818	B5-03822-P04-CH0	81864	OK	0.6709069	-0.1545363	0.7252602	0	-129.551	-30.982	12.394	B5-03822-P04-CH1	81864	OK	0.7663274	-0.6414475	0.0358821	0	-113.912	-43.836	4.324	NA
0.629503759398496	B5-03822-P01-CH0	81872	OK	0.2209952	0.0677019	0.0681856	-0.9705299	96.487	22.228	-259.309	B5-03822-P02-CH0	81872	OK	0.7129472	0.162171	-0.6822074	0	-87.151	-98.707	0.125	B5-03822-P02-CH1	81872	OK	0.7230522	0.0078655	-0.6907486	0	-86.007	-77.166	2.283	B5-03822-P03-CH0	81872	OK	0.7033753	-0.4346792	-0.5624208	0	-92.331	-57.134	-0.006	B5-03822-P03-CH1	81872	OK	0.7508017	-0.6416984	0.1565889	0	-104.385	-26.689	0.904	B5-03822-P04-CH0	81872	OK	0.6713555	-0.1548795	0.7247718	0	-129.597	-30.909	12.444	B5-03822-P04-CH1	81872	OK	0.7666572	-0.6410662	0.035649	0	-113.842	-43.744	4.279	NA
0.639495882563552	B5-03822-P01-CH0	81880	OK	0.2214084	0.0674094	0.0688297	-0.9704106	96.419	22.227	-259.282	B5-03822-P02-CH0	81880	OK	0.7096418	0.1590405	-0.686378	0	-88.478	-97.392	1.947	B5-03822-P02-CH1	81880	OK	0.7221736	0.0127184	-0.6915949	0	-85.419	-77.345	0.384	B5-03822-P03-CH0	81880	OK	0.7065517	-0.4378399	-0.5559504	0	-91.425	-57.323	0.011	B5-03822-P03-CH1	81880	OK	0.751221	-0.6411066	0.1570014	0	-104.344	-26.795	0.77	B5-03822-P04-CH0	81880	OK	0.6712366	-0.1554512	0.7247595	0	-129.422	-30.888	12.081	B5-03822-P04-CH1	81880	OK	0.7671246	-0.6405144	0.0355132	0	-113.74	-43.708	4.055	NA
0.649488005728607	B5-03822-P01-CH0	81888	OK	0.2215338	0.0675284	0.0688511	-0.9703722	96.419	22.276	-259.16	B5-03822-P02-CH0	81888	OK	0.7092459	0.1530466	-0.6881475	0	-88.642	-96.738	1.351	B5-03822-P02-CH1	81888	OK	0.7188378	0.0167472	-0.694976	0	-85.899	-76.915	1.064	B5-03822-P03-CH0	81888	OK	0.7073767	-0.4406528	-0.5526692	0	-92.227	-57.213	0.887	B5-03822-P03-CH1	81888	OK	0.7513001	-0.6409771	0.1571512	0	-104.43	-26.778	0.694	B5-03822-P04-CH0	81888	OK	0.671526	-0.1557668	0.7244236	0	-129.462	-30.821	11.989	B5-03822-P04-CH1	81888	OK	0.7671658	-0.6404688	0.0354436	0	-113.66	-43.609	4.006	NA
0.659480128893663	B5-03822-P01-CH0	81896	OK	0.2215535	0.0675991	0.0683738	-0.9703965	96.424	22.201	-259.125	B5-03822-P02-CH0	81896	OK	0.7102418	0.1444539	-0.6889772	0	-88.096	-97.39	0.444	B5-03822-P02-CH1	81896	OK	0.7177798	0.020577	-0.6959661	0	-85.672	-77.246	1.108	B5-03822-P03-CH0	81896	OK	0.7081112	-0.442418	-0.5503134	0	-92.652	-57.912	-0.475	B5-03822-P03-CH1	81896	OK	0.7511534	-0.6411598	0.1571075	0	-104.351	-26.824	0.743	B5-03822-P04-CH0	81896	OK	0.671802	-0.1558329	0.7241534	0	-129.509	-30.926	12.068	B5-03822-P04-CH1	81896	OK	0.7669596	-0.640735	0.0350944	0	-113.604	-43.54	3.934	NA
0.669472252058718	B5-03822-P01-CH0	81904	OK	0.2219023	0.0676346	0.0686571	-0.9702944	96.45	22.258	-259.144	B5-03822-P02-CH0	81904	OK	0.7108455	0.134291	-0.690409	0	-87.558	-98.124	0.127	B5-03822-P02-CH1	81904	OK	0.716172	0.0220186	-0.6975764	0	-85.688	-77.155	0.837	B5-03822-P03-CH0	81904	OK	0.7097879	-0.4441389	-0.5467556	0	-92.54	-58.339	-0.516	B5-03822-P03-CH1	81904	OK	0.7516767	-0.6404645	0.15744	0	-104.379	-26.799	1.004	B5-03822-P04-CH0	81904	OK	0.6719821	-0.1559411	0.723963	0	-129.5	-30.929	12.132	B5-03822-P04-CH1	81904	OK	0.7674034	-0.6402194	0.0347999	0	-113.717	-43.338	3.961	NA
0.679464375223774	B5-03822-P01-CH0	81912	OK	0.221995	0.0675228	0.0688451	-0.9702676	96.386	22.295	-259.167	B5-03822-P02-CH0	81912	OK	0.710521	0.1226911	-0.6928974	0	-87.464	-98.02	-0.272	B5-03822-P02-CH1	81912	OK	0.7163483	0.0235693	-0.6973446	0	-85.05	-76.353	1.982	B5-03822-P03-CH0	81912	OK	0.7119223	-0.4465646	-0.5419841	0	-92.238	-58.915	-0.629	B5-03822-P03-CH1	81912	OK	0.7521108	-0.6400177	0.1571835	0	-104.512	-26.686	0.939	B5-03822-P04-CH0	81912	OK	0.6721543	-0.1563287	0.7237195	0	-129.513	-30.853	12.086	B5-03822-P04-CH1	81912	OK	0.7676525	-0.6399302	0.0346271	0	-113.66	-43.184	3.956	NA
0.689456498388829	B5-03822-P01-CH0	81920	OK	0.2224052	0.0674101	0.0697485	-0.970117	96.33	22.357	-259.061	B5-03822-P02-CH0	81920	OK	0.7100867	0.1124679	-0.695074	0	-87.497	-97.714	0.152	B5-03822-P02-CH1	81920	OK	0.7162507	0.0222427	-0.6974885	0	-85.085	-76.877	0.991	B5-03822-P03-CH0	81920	OK	0.7156915	-0.4481543	-0.535671	0	-91.95	-58.506	0.957	B5-03822-P03-CH1	81920	OK	0.7528542	-0.6391281	0.1572444	0	-104.499	-26.676	0.697	B5-03822-P04-CH0	81920	OK	0.6723793	-0.1565345	0.723466	0	-129.451	-30.788	11.951	B5-03822-P04-CH1	81920	OK	0.768466	-0.638943	0.0348134	0	-113.631	-43.045	3.832	NA
0.699448621553885	B5-03822-P01-CH0	81928	OK	0.2224549	0.067481	0.0699961	-0.9700828	96.355	22.382	-259.01	B5-03822-P02-CH0	81928	OK	0.711957	0.1039943	-0.69448	0	-86.689	-98.073	-0.053	B5-03822-P02-CH1	81928	OK	0.7158226	0.0198344	-0.6980004	0	-85.491	-76.623	1.862	B5-03822-P03-CH0	81928	OK	0.718534	-0.4517834	-0.5287727	0	-92.145	-58.024	1.001	B5-03822-P03-CH1	81928	OK	0.7533439	-0.6385943	0.1570676	0	-104.458	-26.598	0.791	B5-03822-P04-CH0	81928	OK	0.6727712	-0.1569151	0.7230191	0	-129.535	-30.731	11.994	B5-03822-P04-CH1	81928	OK	0.7688005	-0.6385453	0.0347236	0	-113.691	-42.917	3.762	NA
0.70944074471894	B5-03822-P01-CH0	81936	OK	0.2225636	0.0674667	0.0704448	-0.9700264	96.361	22.352	-259.048	B5-03822-P02-CH0	81936	OK	0.7118814	0.099143	-0.6952666	0	-86.611	-97.989	0.629	B5-03822-P02-CH1	81936	OK	0.7173641	0.016614	-0.6965003	0	-84.795	-76.912	0.205	B5-03822-P03-CH0	81936	OK	0.7195171	-0.4555945	-0.5241457	0	-92.783	-58.232	1.602	B5-03822-P03-CH1	81936	OK	0.7539639	-0.6379284	0.1567983	0	-104.342	-26.647	1.305	B5-03822-P04-CH0	81936	OK	0.6731702	-0.1569365	0.7226429	0	-129.582	-30.822	12.192	B5-03822-P04-CH1	81936	OK	0.7692943	-0.6379554	0.0346282	0	-113.929	-42.87	3.713	NA
0.719432867883996	B5-03822-P01-CH0	81944	OK	0.2227902	0.0676234	0.0708944	-0.9699307	96.45	22.392	-259.045	B5-03822-P02-CH0	81944	OK	0.7130154	0.0946823	-0.6947261	0	-85.814	-98.152	-0.255	B5-03822-P02-CH1	81944	OK	0.7168433	0.0105885	-0.6971539	0	-84.857	-76.781	-0.199	B5-03822-P03-CH0	81944	OK	0.7215088	-0.4634035	-0.5144728	0	-91.968	-58.421	1.065	B5-03822-P03-CH1	81944	OK	0.7544716	-0.6373895	0.1565479	0	-104.453	-26.658	1.23	B5-03822-P04-CH0	81944	OK	0.6737467	-0.1573326	0.7220193	0	-129.806	-30.773	12.153	B5-03822-P04-CH1	81944	OK	0.7696535	-0.6375154	0.0347515	0	-114.179	-42.898	3.663	NA
0.729424991049051	B5-03822-P01-CH0	81952	OK	0.2226199	0.0678955	0.0704372	-0.9699841	96.508	22.343	-258.964	B5-03822-P02-CH0	81952	OK	0.7117064	0.0928121	-0.6963188	0	-86.24	-97.35	1.847	B5-03822-P02-CH1	81952	OK	0.715839	0.0153594	-0.6980964	0	-85.704	-77.399	1.667	B5-03822-P03-CH0	81952	OK	0.7215248	-0.4704577	-0.5080075	0	-92.313	-58.359	0.246	B5-03822-P03-CH1	81952	OK	0.7542568	-0.6377608	0.1560699	0	-104.439	-26.706	1.058	B5-03822-P04-CH0	81952	OK	0.6737891	-0.1581515	0.7218008	0	-129.821	-30.706	12.157	B5-03822-P04-CH1	81952	OK	0.7694405	-0.6377738	0.0347252	0	-114.349	-42.93	3.683	NA
0.739417114214107	B5-03822-P01-CH0	81960	OK	0.2224139	0.0685395	0.0693464	-0.9700647	96.683	22.259	-258.852	B5-03822-P02-CH0	81960	OK	0.7142714	0.0916511	-0.6938418	0	-85.139	-98.238	-0.754	B5-03822-P02-CH1	81960	OK	0.7157668	-0.0052575	-0.6983196	0	-85.122	-77.138	1.086	B5-03822-P03-CH0	81960	OK	0.7211867	-0.4760013	-0.5033015	0	-92.867	-58.286	-0.201	B5-03822-P03-CH1	81960	OK	0.7538672	-0.6383652	0.1554801	0	-104.542	-26.694	1.158	B5-03822-P04-CH0	81960	OK	0.6741239	-0.1585857	0.7213928	0	-130.034	-30.778	12.341	B5-03822-P04-CH1	81960	OK	0.7688655	-0.6384637	0.0347854	0	-114.548	-42.99	3.891	NA
0.749409237379162	B5-03822-P01-CH0	81968	OK	0.2223165	0.0686528	0.0687617	-0.9701206	96.692	22.22	-258.868	B5-03822-P02-CH0	81968	OK	0.7138672	0.0930928	-0.6940658	0	-85.426	-98.304	0.122	B5-03822-P02-CH1	81968	OK	0.7168034	-0.011877	-0.6971742	0	-84.707	-76.992	1.153	B5-03822-P03-CH0	81968	OK	0.7209077	-0.4801768	-0.4997222	0	-93.716	-57.781	1.499	B5-03822-P03-CH1	81968	OK	0.75356	-0.6387733	0.1552932	0	-104.44	-26.808	1.377	B5-03822-P04-CH0	81968	OK	0.6740732	-0.1593193	0.7212785	0	-130.034	-30.677	12.397	B5-03822-P04-CH1	81968	OK	0.7686073	-0.6387714	0.0348394	0	-114.682	-42.975	3.897	NA
0.759401360544218	B5-03822-P01-CH0	81976	OK	0.2223859	0.0686749	0.0686807	-0.9701089	96.68	22.216	-258.836	B5-03822-P02-CH0	81976	OK	0.7137973	0.0960408	-0.6937359	0	-85.357	-97.871	-0.603	B5-03822-P02-CH1	81976	OK	0.717249	-0.0183276	-0.6965759	0	-84.457	-77.251	0.819	B5-03822-P03-CH0	81976	OK	0.7217586	-0.485616	-0.4931953	0	-92.672	-58.365	0.467	B5-03822-P03-CH1	81976	OK	0.7536647	-0.6386782	0.1551763	0	-104.422	-26.796	1.425	B5-03822-P04-CH0	81976	OK	0.6739813	-0.1601797	0.7211738	0	-130.006	-30.496	12.242	B5-03822-P04-CH1	81976	OK	0.7686089	-0.6387443	0.0352993	0	-114.722	-43.021	3.91	NA
0.769393483709273	B5-03822-P01-CH0	81984	OK	0.2223256	0.068748	0.0684322	-0.9701351	96.662	22.185	-258.76	B5-03822-P02-CH0	81984	OK	0.7110645	0.1006831	-0.6958809	0	-86.335	-97.441	1.76	B5-03822-P02-CH1	81984	OK	0.7180963	-0.0195116	-0.6956702	0	-84.128	-76.274	1.01	B5-03822-P03-CH0	81984	OK	0.7209084	-0.4890451	-0.4910458	0	-92.928	-58.074	1.175	B5-03822-P03-CH1	81984	OK	0.7536196	-0.6388499	0.1546873	0	-104.441	-26.745	1.231	B5-03822-P04-CH0	81984	OK	0.6742703	-0.1602752	0.7208824	0	-130.056	-30.514	12.483	B5-03822-P04-CH1	81984	OK	0.768473	-0.6389012	0.0354178	0	-114.79	-43.048	3.828	NA
0.779385606874329	B5-03822-P01-CH0	81992	OK	0.2225745	0.0686552	0.0686167	-0.9700716	96.608	22.159	-258.645	B5-03822-P02-CH0	81992	OK	0.7118563	0.0985845	-0.6953716	0	-86.183	-97.855	0.851	B5-03822-P02-CH1	81992	OK	0.7189636	-0.0213632	-0.6947194	0	-83.69	-76.188	0.426	B5-03822-P03-CH0	81992	OK	0.7212185	-0.492566	-0.487055	0	-92.49	-57.794	1.671	B5-03822-P03-CH1	81992	OK	0.753817	-0.6385834	0.1548262	0	-104.262	-26.766	1.099	B5-03822-P04-CH0	81992	OK	0.6741806	-0.1605346	0.7209086	0	-129.957	-30.509	12.323	B5-03822-P04-CH1	81992	OK	0.7686329	-0.6386803	0.0359305	0	-114.826	-43.14	3.729	NA
0.789377730039384	B5-03822-P01-CH0	82000	OK	0.2225762	0.0687396	0.0683801	-0.9700819	96.627	22.141	-258.604	B5-03822-P02-CH0	82000	OK	0.7111907	0.1119244	-0.6940322	0	-85.264	-97.337	0.827	B5-03822-P02-CH1	82000	OK	0.7194275	-0.0228057	-0.694193	0	-83.093	-76.646	-0.794	B5-03822-P03-CH0	82000	OK	0.7199322	-0.494949	-0.486542	0	-93.075	-57.695	0.41	B5-03822-P03-CH1	82000	OK	0.7536769	-0.6387481	0.1548288	0	-104.322	-26.842	1.211	B5-03822-P04-CH0	82000	OK	0.6740896	-0.1610817	0.7208716	0	-129.988	-30.457	12.165	B5-03822-P04-CH1	82000	OK	0.768562	-0.6387502	0.0362044	0	-114.866	-43.102	3.658	NA
0.79936985320444	B5-03822-P01-CH0	82008	OK	0.2223943	0.0685886	0.0678596	-0.9701708	96.535	22.057	-258.618	B5-03822-P02-CH0	82008	OK	0.711129	0.1176337	-0.6931507	0	-84.751	-97.201	0.857	B5-03822-P02-CH1	82008	OK	0.7177753	-0.0249555	-0.6958275	0	-83.581	-76.691	0.011	B5-03822-P03-CH0	82008	OK	0.7201727	-0.4996393	-0.4813646	0	-92.718	-58.254	-0.047	B5-03822-P03-CH1	82008	OK	0.7531008	-0.6394418	0.1547688	0	-104.137	-26.948	1.082	B5-03822-P04-CH0	82008	OK	0.6735617	-0.161614	0.7212459	0	-129.833	-30.487	12.05	B5-03822-P04-CH1	82008	OK	0.768314	-0.6390469	0.0362308	0	-114.754	-43.066	3.722	NA
0.809361976369495	B5-03822-P01-CH0	82016	OK	0.2223498	0.0688028	0.0673465	-0.9702016	96.597	22.027	-258.584	B5-03822-P02-CH0	82016	OK	0.7096979	0.1222017	-0.6938268	0	-85.283	-97.211	1.659	B5-03822-P02-CH1	82016	OK	0.7182434	-0.0274594	-0.6952499	0	-83.199	-76.474	0.213	B5-03822-P03-CH0	82016	OK	0.7218972	-0.5020157	-0.4762822	0	-92.663	-58.175	0.577	B5-03822-P03-CH1	82016	OK	0.752652	-0.6399112	0.1550115	0	-104.163	-27.077	0.984	B5-03822-P04-CH0	82016	OK	0.6736863	-0.1617966	0.7210885	0	-130.014	-30.469	11.914	B5-03822-P04-CH1	82016	OK	0.7678254	-0.6396099	0.0366512	0	-114.655	-43.216	3.778	NA
0.819354099534551	B5-03822-P01-CH0	82024	OK	0.2221956	0.0687341	0.0668937	-0.9702731	96.542	21.953	-258.536	B5-03822-P02-CH0	82024	OK	0.7097964	0.1266925	-0.6929199	0	-85.247	-97.195	1.595	B5-03822-P02-CH1	82024	OK	0.7187202	-0.0308889	-0.694613	0	-83.137	-76.838	0.802	B5-03822-P03-CH0	82024	OK	0.7243752	-0.503121	-0.4713277	0	-92.584	-57.948	1.985	B5-03822-P03-CH1	82024	OK	0.7524024	-0.6402302	0.1549059	0	-104.014	-27.06	1.008	B5-03822-P04-CH0	82024	OK	0.673523	-0.1620119	0.7211927	0	-129.944	-30.517	12.018	B5-03822-P04-CH1	82024	OK	0.7675536	-0.6399195	0.036939	0	-114.434	-43.231	3.746	NA
0.829346222699606	B5-03822-P01-CH0	82032	OK	0.222462	0.0687586	0.0671274	-0.9701942	96.556	21.993	-258.551	B5-03822-P02-CH0	82032	OK	0.7109893	0.1317606	-0.6907484	0	-84.707	-97.237	1.15	B5-03822-P02-CH1	82032	OK	0.719708	-0.0329988	-0.6934922	0	-82.842	-76.661	0.047	B5-03822-P03-CH0	82032	OK	0.7276441	-0.504249	-0.4650453	0	-92.75	-57.338	1.728	B5-03822-P03-CH1	82032	OK	0.7527023	-0.6397922	0.1552585	0	-104.057	-27.078	1.344	B5-03822-P04-CH0	82032	OK	0.6736605	-0.1616442	0.7211468	0	-129.966	-30.598	12.197	B5-03822-P04-CH1	82032	OK	0.7676861	-0.6397417	0.0372635	0	-114.433	-43.284	3.886	NA
0.839338345864662	B5-03822-P01-CH0	82040	OK	0.2228764	0.0685098	0.0681871	-0.9700428	96.498	22.184	-258.624	B5-03822-P02-CH0	82040	OK	0.7110273	0.1363608	-0.6898159	0	-84.855	-98.253	0.281	B5-03822-P02-CH1	82040	OK	0.7179914	-0.0264463	-0.6955494	0	-83.769	-76.995	0.432	B5-03822-P03-CH0	82040	OK	0.7293701	-0.5072009	-0.459093	0	-92.999	-57.716	1.466	B5-03822-P03-CH1	82040	OK	0.7533235	-0.6389921	0.15554	0	-104.06	-27.022	1.182	B5-03822-P04-CH0	82040	OK	0.6738133	-0.1611737	0.7211094	0	-129.912	-30.519	12.384	B5-03822-P04-CH1	82040	OK	0.7683148	-0.6389592	0.0377283	0	-114.436	-43.222	3.889	NA
0.849330469029717	B5-03822-P01-CH0	82048	OK	0.2230112	0.068645	0.0685617	-0.9699759	96.591	22.229	-258.594	B5-03822-P02-CH0	82048	OK	0.7103915	0.1422373	-0.689284	0	-85.101	-98.182	0.847	B5-03822-P02-CH1	82048	OK	0.7179365	-0.0285344	-0.6955235	0	-83.769	-76.855	0.364	B5-03822-P03-CH0	82048	OK	0.7307233	-0.5113592	-0.4522778	0	-92.695	-58.161	1.176	B5-03822-P03-CH1	82048	OK	0.7536644	-0.6385841	0.1555647	0	-104.176	-27.034	1.275	B5-03822-P04-CH0	82048	OK	0.6740977	-0.1610285	0.720876	0	-130.016	-30.57	12.46	B5-03822-P04-CH1	82048	OK	0.7685686	-0.6386437	0.0379019	0	-114.497	-43.217	3.956	NA
0.859322592194773	B5-03822-P01-CH0	82056	OK	0.2230621	0.0688372	0.068693	-0.9699412	96.703	22.278	-258.659	B5-03822-P02-CH0	82056	OK	0.7104562	0.1464749	-0.6883292	0	-84.953	-98.187	1.356	B5-03822-P02-CH1	82056	OK	0.7177831	-0.0305166	-0.6955977	0	-83.782	-76.888	0.548	B5-03822-P03-CH0	82056	OK	0.7316127	-0.5138702	-0.4479735	0	-93.201	-57.853	1.756	B5-03822-P03-CH1	82056	OK	0.7538282	-0.6383872	0.1555789	0	-104.34	-27.09	1.45	B5-03822-P04-CH0	82056	OK	0.6742881	-0.1607416	0.7207619	0	-130.107	-30.653	12.644	B5-03822-P04-CH1	82056	OK	0.7685756	-0.6386307	0.0379786	0	-114.607	-43.261	4.073	NA
0.869314715359828	B5-03822-P01-CH0	82064	OK	0.2235514	0.0687101	0.0698613	-0.9697541	96.732	22.387	-258.681	B5-03822-P02-CH0	82064	OK	0.7103564	0.1510415	-0.6874447	0	-84.762	-97.85	0.68	B5-03822-P02-CH1	82064	OK	0.7178856	-0.0329367	-0.6953815	0	-83.638	-76.96	0.099	B5-03822-P03-CH0	82064	OK	0.7331092	-0.5169125	-0.4419869	0	-93.381	-57.729	1.776	B5-03822-P03-CH1	82064	OK	0.7547408	-0.6371982	0.1560285	0	-104.381	-27.071	1.589	B5-03822-P04-CH0	82064	OK	0.674507	-0.1601238	0.7206946	0	-130.16	-30.746	12.506	B5-03822-P04-CH1	82064	OK	0.7693159	-0.6376946	0.0387126	0	-114.517	-43.312	4.107	NA
0.879306838524884	B5-03822-P01-CH0	82072	OK	0.2238097	0.0688541	0.070274	-0.9696545	96.837	22.49	-258.724	B5-03822-P02-CH0	82072	OK	0.710064	0.155117	-0.686839	0	-85.004	-97.825	-0.056	B5-03822-P02-CH1	82072	OK	0.7178683	-0.0350977	-0.6952937	0	-83.667	-76.943	-0.033	B5-03822-P03-CH0	82072	OK	0.7350665	-0.5189081	-0.4363618	0	-92.672	-57.976	2.692	B5-03822-P03-CH1	82072	OK	0.7550824	-0.6367367	0.1562591	0	-104.516	-27.118	1.839	B5-03822-P04-CH0	82072	OK	0.6748254	-0.1596531	0.7205009	0	-130.26	-30.807	12.755	B5-03822-P04-CH1	82072	OK	0.7695316	-0.6374084	0.0391354	0	-114.578	-43.352	4.232	NA
0.889298961689939	B5-03822-P01-CH0	82080	OK	0.2238767	0.0688845	0.0700722	-0.9696515	96.877	22.47	-258.749	B5-03822-P02-CH0	82080	OK	0.7102437	0.1592002	-0.685718	0	-84.867	-97.747	-0.466	B5-03822-P02-CH1	82080	OK	0.718001	-0.0371309	-0.695051	0	-83.671	-76.988	0.026	B5-03822-P03-CH0	82080	OK	0.7349987	-0.5198788	-0.4353194	0	-94.057	-57.502	2.236	B5-03822-P03-CH1	82080	OK	0.7549834	-0.6368368	0.1563299	0	-104.341	-27.163	1.881	B5-03822-P04-CH0	82080	OK	0.6748603	-0.1591104	0.7205883	0	-130.307	-30.959	12.77	B5-03822-P04-CH1	82080	OK	0.7693515	-0.6376136	0.0393346	0	-114.519	-43.422	4.237	NA
0.899291084854995	B5-03822-P01-CH0	82088	OK	0.2243428	0.069063	0.0705885	-0.9694936	96.99	22.529	-258.656	B5-03822-P02-CH0	82088	OK	0.7101747	0.1630064	-0.6848948	0	-84.759	-98.04	-1.186	B5-03822-P02-CH1	82088	OK	0.7178936	-0.0395733	-0.6950271	0	-83.804	-77.049	-0.054	B5-03822-P03-CH0	82088	OK	0.7359518	-0.5211129	-0.4322226	0	-94.606	-57.051	2.241	B5-03822-P03-CH1	82088	OK	0.7555748	-0.6360563	0.1566494	0	-104.575	-27.161	1.756	B5-03822-P04-CH0	82088	OK	0.6752094	-0.1585015	0.7203954	0	-130.452	-31.058	12.567	B5-03822-P04-CH1	82088	OK	0.7695726	-0.6373084	0.0399495	0	-114.558	-43.575	4.197	NA
0.90928320802005	B5-03822-P01-CH0	82096	OK	0.2244826	0.0689523	0.0708732	-0.9694484	96.978	22.588	-258.657	B5-03822-P02-CH0	82096	OK	0.7077029	0.1684214	-0.686142	0	-85.622	-96.903	1.106	B5-03822-P02-CH1	82096	OK	0.7179878	-0.0411557	-0.6948379	0	-83.828	-77.013	-0.103	B5-03822-P03-CH0	82096	OK	0.7365358	-0.5220459	-0.4300967	0	-94.681	-57.139	2.453	B5-03822-P03-CH1	82096	OK	0.7558511	-0.6357473	0.1565706	0	-104.585	-27.129	1.912	B5-03822-P04-CH0	82096	OK	0.6750167	-0.1585345	0.7205687	0	-130.325	-31.085	12.64	B5-03822-P04-CH1	82096	OK	0.7698662	-0.6369533	0.039957	0	-114.542	-43.449	4.176	NA
0.919275331185106	B5-03822-P01-CH0	82104	OK	0.2246792	0.0689243	0.0711371	-0.9693855	96.99	22.666	-258.65	B5-03822-P02-CH0	82104	OK	0.7085451	0.1717532	-0.6844448	0	-85.174	-97.908	1.387	B5-03822-P02-CH1	82104	OK	0.7180926	-0.0425046	-0.6946484	0	-83.794	-76.955	-0.127	B5-03822-P03-CH0	82104	OK	0.737811	-0.5239114	-0.4256193	0	-94.184	-57.385	2.003	B5-03822-P03-CH1	82104	OK	0.7562102	-0.6353442	0.156473	0	-104.698	-27.049	1.96	B5-03822-P04-CH0	82104	OK	0.6749601	-0.1586488	0.7205966	0	-130.315	-30.975	12.438	B5-03822-P04-CH1	82104	OK	0.7701229	-0.6366496	0.0398491	0	-114.595	-43.322	4.143	NA
0.929267454350161	B5-03822-P01-CH0	82112	OK	0.2244766	0.0688797	0.0706687	-0.9694698	97.006	22.664	-258.71	B5-03822-P02-CH0	82112	OK	0.7092063	0.1768501	-0.6824592	0	-85.04	-97.894	-0.061	B5-03822-P02-CH1	82112	OK	0.7181335	-0.0430866	-0.6945702	0	-83.83	-76.918	0.059	B5-03822-P03-CH0	82112	OK	0.7372383	-0.5262395	-0.4237353	0	-94.58	-58.056	1.165	B5-03822-P03-CH1	82112	OK	0.7560128	-0.6357317	0.1558523	0	-104.713	-26.929	1.771	B5-03822-P04-CH0	82112	OK	0.6745179	-0.1590584	0.7209203	0	-130.249	-30.953	12.324	B5-03822-P04-CH1	82112	OK	0.7698022	-0.6370303	0.0399614	0	-114.438	-43.285	4.168	NA
0.939259577515217	B5-03822-P01-CH0	82120	OK	0.2244573	0.0687885	0.0701576	-0.9695179	96.987	22.544	-258.707	B5-03822-P02-CH0	82120	OK	0.7089442	0.1814184	-0.6815317	0	-85.315	-97.838	-0.25	B5-03822-P02-CH1	82120	OK	0.7183838	-0.0435211	-0.6942843	0	-83.687	-76.833	0.109	B5-03822-P03-CH0	82120	OK	0.738599	-0.5267977	-0.420661	0	-94.165	-57.842	2.32	B5-03822-P03-CH1	82120	OK	0.755681	-0.6361122	0.1559087	0	-104.542	-27.094	1.869	B5-03822-P04-CH0	82120	OK	0.674317	-0.159117	0.7210953	0	-130.197	-31.053	12.203	B5-03822-P04-CH1	82120	OK	0.7693723	-0.6375326	0.0402299	0	-114.279	-43.431	3.962	NA
0.949251700680272	B5-03822-P01-CH0	82128	OK	0.2245352	0.0688548	0.0698859	-0.9695148	97.039	22.532	-258.749	B5-03822-P02-CH0	82128	OK	0.7085723	0.1856745	-0.6807719	0	-85.581	-97.864	0.453	B5-03822-P02-CH1	82128	OK	0.7186734	-0.0440856	-0.6939489	0	-83.527	-76.938	0.144	B5-03822-P03-CH0	82128	OK	0.7393429	-0.5285972	-0.4170816	0	-93.912	-57.869	2.435	B5-03822-P03-CH1	82128	OK	0.7554902	-0.6363365	0.155918	0	-104.516	-27.162	1.697	B5-03822-P04-CH0	82128	OK	0.6743968	-0.1590174	0.7210426	0	-130.274	-31.107	12.237	B5-03822-P04-CH1	82128	OK	0.7690347	-0.6379241	0.0404792	0	-114.257	-43.604	3.932	NA
