Wav.Time	B5.03822.P01.CH0	Frame	State	Q0	Qx	Qy	Qz	Tx	Ty	Tz	B5.03822.P02.CH0	Frame.1	State.1	Q0.1	Qx.1	Qy.1	Qz.1	Tx.1	Ty.1	Tz.1	B5.03822.P02.CH1	Frame.2	State.2	Q0.2	Qx.2	Qy.2	Qz.2	Tx.2	Ty.2	Tz.2	B5.03822.P03.CH0	Frame.3	State.3	Q0.3	Qx.3	Qy.3	Qz.3	Tx.3	Ty.3	Tz.3	B5.03822.P03.CH1	Frame.4	State.4	Q0.4	Qx.4	Qy.4	Qz.4	Tx.4	Ty.4	Tz.4	B5.03822.P04.CH0	Frame.5	State.5	Q0.5	Qx.5	Qy.5	Qz.5	Tx.5	Ty.5	Tz.5	B5.03822.P04.CH1	Frame.6	State.6	Q0.6	Qx.6	Qy.6	Qz.6	Tx.6	Ty.6	Tz.6	X
0	B5-03822-P01-CH0	1542960	OK	0.1944981	0.1096668	0.1317795	-0.9658043	151.127	-25.162	-256.372	B5-03822-P02-CH0	1542960	OK	0.6369477	0.4670353	-0.6133316	0	-81.189	-102.897	-0.703	B5-03822-P02-CH1	1542960	OK	0.7454241	-0.0840914	-0.6612651	0	-80.217	-76.078	-3.462	B5-03822-P03-CH0	1542960	OK	0.7306712	-0.0106961	-0.6826457	0	-93.876	-54.739	-0.977	B5-03822-P03-CH1	1542960	OK	0.7636987	-0.6354863	0.1136728	0	-95.432	-7.62	-9.083	B5-03822-P04-CH0	1542960	OK	0.7694079	-0.4105204	0.4893715	0	-125.732	-38.759	11.808	B5-03822-P04-CH1	1542960	OK	0.8050493	-0.5883476	0.0757812	0	-107.85	-43.726	-0.811	NA
0.00999177693055244	B5-03822-P01-CH0	1542968	OK	0.194611	0.1097889	0.1316043	-0.9657915	151.144	-25.19	-256.323	B5-03822-P02-CH0	1542968	OK	0.6393552	0.457802	-0.617772	0	-81.597	-101.529	-0.937	B5-03822-P02-CH1	1542968	OK	0.7530286	-0.0825693	-0.6527866	0	-81	-76.445	-3.94	B5-03822-P03-CH0	1542968	OK	0.7274612	-0.0021041	-0.6861456	0	-93.743	-54.664	0.53	B5-03822-P03-CH1	1542968	OK	0.76379	-0.6354249	0.1134018	0	-95.385	-7.352	-9.609	B5-03822-P04-CH0	1542968	OK	0.7692905	-0.4101027	0.4899061	0	-125.736	-39.003	11.844	B5-03822-P04-CH1	1542968	OK	0.8049957	-0.5884153	0.075824	0	-107.889	-43.818	-0.764	NA
0.0199835538611049	B5-03822-P01-CH0	1542976	OK	0.1947031	0.1098066	0.131856	-0.9657366	151.157	-25.154	-256.339	B5-03822-P02-CH0	1542976	OK	0.6449306	0.4442605	-0.6218498	0	-81.147	-101.44	-1.742	B5-03822-P02-CH1	1542976	OK	0.7610801	-0.082499	-0.6433903	0	-81.771	-76.783	-2.59	B5-03822-P03-CH0	1542976	OK	0.7232497	0.0064184	-0.6905567	0	-93.815	-54.226	0.141	B5-03822-P03-CH1	1542976	OK	0.7637749	-0.6353117	0.1141354	0	-95.483	-7.663	-9.282	B5-03822-P04-CH0	1542976	OK	0.7693744	-0.4092041	0.4905252	0	-125.744	-39.283	12.246	B5-03822-P04-CH1	1542976	OK	0.8051362	-0.5882232	0.0758227	0	-107.738	-43.851	-0.786	NA
0.0299753307916573	B5-03822-P01-CH0	1542984	OK	0.1944889	0.1100892	0.131292	-0.9658244	151.191	-25.251	-256.223	B5-03822-P02-CH0	1542984	OK	0.6513417	0.430662	-0.6247274	0	-81.167	-102.56	-1.919	B5-03822-P02-CH1	1542984	OK	0.769131	-0.0816463	-0.6338543	0	-82.712	-77.024	-1.658	B5-03822-P03-CH0	1542984	OK	0.7196551	0.0152273	-0.6941647	0	-93.737	-54.018	-0.693	B5-03822-P03-CH1	1542984	OK	0.7632971	-0.6358512	0.1143273	0	-95.552	-7.904	-9.202	B5-03822-P04-CH0	1542984	OK	0.7691663	-0.4091409	0.4909042	0	-125.74	-39.379	12.302	B5-03822-P04-CH1	1542984	OK	0.8048441	-0.5886805	0.0753741	0	-107.729	-43.913	-0.705	NA
0.0399671077222098	B5-03822-P01-CH0	1542992	OK	0.1948073	0.1097716	0.1324747	-0.9656349	151.126	-25.167	-256.231	B5-03822-P02-CH0	1542992	OK	0.65536	0.4161771	-0.6303173	0	-80.986	-101.837	-1.3	B5-03822-P02-CH1	1542992	OK	0.7781885	-0.0811546	-0.6227653	0	-83.065	-77.199	-1.78	B5-03822-P03-CH0	1542992	OK	0.71776	0.0262333	-0.6957962	0	-92.564	-53.37	-0.66	B5-03822-P03-CH1	1542992	OK	0.7639728	-0.6349596	0.1147687	0	-95.441	-7.934	-9.109	B5-03822-P04-CH0	1542992	OK	0.7694984	-0.4074791	0.4917652	0	-125.791	-39.57	12.166	B5-03822-P04-CH1	1542992	OK	0.8056347	-0.587618	0.0752182	0	-107.761	-43.851	-0.734	NA
0.0499588846527622	B5-03822-P01-CH0	1543000	OK	0.1944197	0.1098803	0.1315682	-0.9658246	151.084	-25.198	-256.218	B5-03822-P02-CH0	1543000	OK	0.6614536	0.4005229	-0.6340824	0	-80.667	-101.967	-2.874	B5-03822-P02-CH1	1543000	OK	0.7846429	-0.0810927	-0.6146215	0	-84.273	-77.501	-0.559	B5-03822-P03-CH0	1543000	OK	0.7121311	0.0350129	-0.7011728	0	-93.818	-53.942	-0.832	B5-03822-P03-CH1	1543000	OK	0.7631111	-0.6359496	0.1150201	0	-95.412	-8.136	-8.952	B5-03822-P04-CH0	1543000	OK	0.7689081	-0.4077033	0.4925022	0	-125.741	-39.381	11.968	B5-03822-P04-CH1	1543000	OK	0.8051502	-0.588376	0.0744778	0	-107.614	-43.737	-0.611	NA
0.0599506615833146	B5-03822-P01-CH0	1543008	OK	0.1944376	0.1099124	0.1317132	-0.9657975	151.061	-25.175	-256.143	B5-03822-P02-CH0	1543008	OK	0.6652142	0.3861705	-0.6390324	0	-80.303	-101.564	-2.28	B5-03822-P02-CH1	1543008	OK	0.7909025	-0.0828908	-0.6063022	0	-85.126	-77.713	-0.784	B5-03822-P03-CH0	1543008	OK	0.7094806	0.0440498	-0.7033469	0	-93.132	-53.509	-0.971	B5-03822-P03-CH1	1543008	OK	0.7630292	-0.6358744	0.1159748	0	-95.625	-8.317	-8.853	B5-03822-P04-CH0	1543008	OK	0.7687158	-0.4064442	0.4938412	0	-125.799	-39.485	11.847	B5-03822-P04-CH1	1543008	OK	0.8053268	-0.5881478	0.0743709	0	-107.643	-43.898	-0.044	NA
0.0699424385138671	B5-03822-P01-CH0	1543016	OK	0.1946292	0.1099433	0.1321071	-0.9657016	151.144	-25.195	-256.316	B5-03822-P02-CH0	1543016	OK	0.6700448	0.3668303	-0.6453491	0	-81.07	-103.5	-1.563	B5-03822-P02-CH1	1543016	OK	0.79639	-0.0862993	-0.5985946	0	-85.653	-78.076	-1.157	B5-03822-P03-CH0	1543016	OK	0.7087782	0.0526469	-0.7034642	0	-91.895	-53.62	-1.128	B5-03822-P03-CH1	1543016	OK	0.7629062	-0.6357742	0.1173258	0	-95.758	-8.83	-8.388	B5-03822-P04-CH0	1543016	OK	0.7664618	-0.4011226	0.5016342	0	-125.024	-38.18	10.665	B5-03822-P04-CH1	1543016	OK	0.8055952	-0.5878168	0.0740794	0	-107.507	-43.937	0.018	NA
0.0799342154444195	B5-03822-P01-CH0	1543024	OK	0.1948776	0.1096763	0.1328761	-0.9655764	151.044	-25.072	-256.341	B5-03822-P02-CH0	1543024	OK	0.6756823	0.3484008	-0.6496694	0	-79.414	-100.716	-3.6	B5-03822-P02-CH1	1543024	OK	0.8015969	-0.086131	-0.5916281	0	-85.694	-77.887	-0.143	B5-03822-P03-CH0	1543024	OK	0.7060192	0.0587251	-0.7057537	0	-92.528	-53.598	-1.199	B5-03822-P03-CH1	1543024	OK	0.7638161	-0.6347645	0.1168714	0	-95.5	-8.061	-8.907	B5-03822-P04-CH0	1543024	OK	0.7662674	-0.3937193	0.5077592	0	-125.605	-40.506	12.833	B5-03822-P04-CH1	1543024	OK	0.8061462	-0.5870839	0.0738967	0	-107.438	-43.741	0.004	NA
0.089925992374972	B5-03822-P01-CH0	1543032	OK	0.1949442	0.1100617	0.1331812	-0.9654771	151.15	-24.976	-256.228	B5-03822-P02-CH0	1543032	OK	0.6807852	0.330465	-0.6537006	0	-80.176	-101.821	-1.911	B5-03822-P02-CH1	1543032	OK	0.8034283	-0.0883411	-0.5888113	0	-87.04	-78.303	0.095	B5-03822-P03-CH0	1543032	OK	0.704835	0.0645855	-0.7064251	0	-92.566	-53.87	-0.118	B5-03822-P03-CH1	1543032	OK	0.7640256	-0.6344288	0.1173237	0	-95.648	-7.97	-8.868	B5-03822-P04-CH0	1543032	OK	0.7666394	-0.3896424	0.510336	0	-125.482	-39.662	13.801	B5-03822-P04-CH1	1543032	OK	0.8063133	-0.5869089	0.0734633	0	-107.464	-43.745	0.241	NA
0.0999177693055244	B5-03822-P01-CH0	1543040	OK	0.1948125	0.1099972	0.1330672	-0.9655267	151.063	-24.984	-256.147	B5-03822-P02-CH0	1543040	OK	0.6874507	0.3120158	-0.6557878	0	-80.155	-102.014	-1.831	B5-03822-P02-CH1	1543040	OK	0.8045859	-0.087714	-0.5873226	0	-87.675	-78.197	-0.771	B5-03822-P03-CH0	1543040	OK	0.7035813	0.0679124	-0.7073622	0	-93.15	-54.728	0.086	B5-03822-P03-CH1	1543040	OK	0.7640625	-0.6344218	0.1171214	0	-95.391	-7.64	-9.139	B5-03822-P04-CH0	1543040	OK	0.7664208	-0.3874896	0.5122997	0	-125.566	-38.514	13.152	B5-03822-P04-CH1	1543040	OK	0.8062754	-0.5870123	0.0730519	0	-107.444	-43.686	0.298	NA
0.109909546236077	B5-03822-P01-CH0	1543048	OK	0.1947589	0.110315	0.1328395	-0.9655326	151.163	-25.018	-256.067	B5-03822-P02-CH0	1543048	OK	0.6938519	0.295579	-0.6566602	0	-80.141	-103.204	-3.492	B5-03822-P02-CH1	1543048	OK	0.8068902	-0.0875412	-0.5841787	0	-86.739	-78.01	-0.573	B5-03822-P03-CH0	1543048	OK	0.7045933	0.0686076	-0.7062869	0	-92.324	-53.444	-0.812	B5-03822-P03-CH1	1543048	OK	0.7640278	-0.6344367	0.1172673	0	-95.35	-7.513	-9.22	B5-03822-P04-CH0	1543048	OK	0.7649938	-0.3872499	0.5146086	0	-125.326	-37.69	11.11	B5-03822-P04-CH1	1543048	OK	0.8060258	-0.5874141	0.0725743	0	-107.421	-43.67	0.077	NA
0.119901323166629	B5-03822-P01-CH0	1543056	OK	0.1944114	0.1104481	0.132131	-0.9656846	151.154	-25.119	-255.93	B5-03822-P02-CH0	1543056	OK	0.6967858	0.282716	-0.6592126	0	-79.922	-101.84	-2.133	B5-03822-P02-CH1	1543056	OK	0.8056922	-0.0888506	-0.5856328	0	-86.846	-78.621	0.39	B5-03822-P03-CH0	1543056	OK	0.70269	0.0654923	-0.7084754	0	-93.168	-53.856	-0.287	B5-03822-P03-CH1	1543056	OK	0.7636544	-0.6348857	0.1172694	0	-95.273	-7.36	-9.424	B5-03822-P04-CH0	1543056	OK	0.7650492	-0.3816088	0.5187238	0	-125.878	-39.371	13.583	B5-03822-P04-CH1	1543056	OK	0.8056041	-0.5880865	0.0718079	0	-107.438	-43.564	-0.003	NA
0.129893100097182	B5-03822-P01-CH0	1543064	OK	0.1944557	0.1102541	0.1322138	-0.9656866	151.07	-25.142	-255.915	B5-03822-P02-CH0	1543064	OK	0.6993764	0.2692466	-0.6621019	0	-79.689	-102.398	-3.17	B5-03822-P02-CH1	1543064	OK	0.8016614	-0.0908138	-0.59084	0	-87.328	-78.84	0.248	B5-03822-P03-CH0	1543064	OK	0.7022105	0.0599581	-0.7094402	0	-93.197	-53.73	-1.002	B5-03822-P03-CH1	1543064	OK	0.7640169	-0.6345158	0.1169097	0	-94.855	-6.857	-9.822	B5-03822-P04-CH0	1543064	OK	0.7645241	-0.3811093	0.519864	0	-125.541	-38.019	11.832	B5-03822-P04-CH1	1543064	OK	0.8058339	-0.5878175	0.07143	0	-107.43	-43.266	-0.317	NA
0.139884877027734	B5-03822-P01-CH0	1543072	OK	0.1943089	0.1103571	0.1317786	-0.9657638	151.062	-25.175	-255.92	B5-03822-P02-CH0	1543072	OK	0.7009681	0.2624079	-0.6631635	0	-78.126	-101.283	-3.479	B5-03822-P02-CH1	1543072	OK	0.7984682	-0.0915299	-0.5950385	0	-86.404	-77.668	-0.178	B5-03822-P03-CH0	1543072	OK	0.7017737	0.0502879	-0.7106228	0	-93.104	-52.598	-1.486	B5-03822-P03-CH1	1543072	OK	0.7642266	-0.6343808	0.1162702	0	-94.604	-6.274	-10.184	B5-03822-P04-CH0	1543072	OK	0.7645475	-0.3792059	0.5212198	0	-125.707	-38.135	11.648	B5-03822-P04-CH1	1543072	OK	0.8055435	-0.5882588	0.071072	0	-107.252	-43.094	-0.576	NA
0.149876653958287	B5-03822-P01-CH0	1543080	OK	0.1946168	0.1100505	0.1326696	-0.9656148	150.962	-25.101	-255.936	B5-03822-P02-CH0	1543080	OK	0.7000216	0.2584309	-0.6657201	0	-77.712	-102.265	-3.794	B5-03822-P02-CH1	1543080	OK	0.7926315	-0.0964513	-0.6020237	0	-86.009	-77.359	-0.283	B5-03822-P03-CH0	1543080	OK	0.7010059	0.0375117	-0.7121682	0	-92.921	-53.018	0.066	B5-03822-P03-CH1	1543080	OK	0.7651879	-0.633263	0.1160408	0	-94.18	-5.665	-10.797	B5-03822-P04-CH0	1543080	OK	0.7653202	-0.3778433	0.5210753	0	-125.525	-37.174	10.511	B5-03822-P04-CH1	1543080	OK	0.8061281	-0.5874502	0.0711319	0	-107.252	-42.881	-0.923	NA
0.159868430888839	B5-03822-P01-CH0	1543088	OK	0.1948588	0.109922	0.1333363	-0.9654888	150.911	-25.086	-255.911	B5-03822-P02-CH0	1543088	OK	0.6946317	0.2598795	-0.6707827	0	-77.859	-99.867	-1.243	B5-03822-P02-CH1	1543088	OK	0.7845952	-0.1058574	-0.6109047	0	-85.169	-76.577	-1.794	B5-03822-P03-CH0	1543088	OK	0.7016263	0.022655	-0.7121849	0	-92.434	-52.634	-0.102	B5-03822-P03-CH1	1543088	OK	0.7658275	-0.6324504	0.1162527	0	-93.853	-5.454	-10.87	B5-03822-P04-CH0	1543088	OK	0.7654666	-0.3721439	0.5249475	0	-125.642	-39.335	12.525	B5-03822-P04-CH1	1543088	OK	0.8066095	-0.5868086	0.0709703	0	-107.227	-42.659	-1.3	NA
0.169860207819391	B5-03822-P01-CH0	1543096	OK	0.1947753	0.1102823	0.1330543	-0.9655035	150.952	-25.057	-255.759	B5-03822-P02-CH0	1543096	OK	0.6923052	0.2662889	-0.6706741	0	-76.934	-100.094	-2.978	B5-03822-P02-CH1	1543096	OK	0.7709674	-0.1245538	-0.6245764	0	-84.431	-76.055	-2.51	B5-03822-P03-CH0	1543096	OK	0.7023093	0.0053497	-0.7118518	0	-92.236	-52.056	-1.275	B5-03822-P03-CH1	1543096	OK	0.7660444	-0.6321904	0.1162382	0	-93.844	-5.066	-11.152	B5-03822-P04-CH0	1543096	OK	0.766433	-0.3707693	0.5245098	0	-125.682	-39.175	13.343	B5-03822-P04-CH1	1543096	OK	0.8063433	-0.5871626	0.0710674	0	-107.45	-42.725	-1.167	NA
0.179851984749944	B5-03822-P01-CH0	1543104	OK	0.1945397	0.1103999	0.1328388	-0.9655672	150.902	-25.05	-255.696	B5-03822-P02-CH0	1543104	OK	0.6870347	0.283639	-0.6689785	0	-74.998	-99.077	-4.478	B5-03822-P02-CH1	1543104	OK	0.754335	-0.1554991	-0.6378077	0	-81.628	-74.153	-3.706	B5-03822-P03-CH0	1543104	OK	0.7020179	-0.0132419	-0.7120362	0	-92.143	-52.002	-1.749	B5-03822-P03-CH1	1543104	OK	0.7656917	-0.6324235	0.1172891	0	-93.914	-5.343	-11.061	B5-03822-P04-CH0	1543104	OK	0.7659831	-0.3760673	0.521386	0	-126.37	-39.836	13.027	B5-03822-P04-CH1	1543104	OK	0.8061899	-0.5873973	0.0708677	0	-107.341	-42.628	-1.238	NA
0.189843761680496	B5-03822-P01-CH0	1543112	OK	0.1943301	0.1102554	0.1324853	-0.9656745	150.774	-25.119	-255.724	B5-03822-P02-CH0	1543112	OK	0.6776344	0.3005234	-0.6711909	0	-74.497	-98.322	-1.79	B5-03822-P02-CH1	1543112	OK	0.7365411	-0.1962968	-0.6472826	0	-78.42	-73.081	-3.781	B5-03822-P03-CH0	1543112	OK	0.7018111	-0.0356047	-0.7114728	0	-91.95	-51.4	-0.55	B5-03822-P03-CH1	1543112	OK	0.7655938	-0.6324853	0.1175945	0	-93.698	-5.206	-11.32	B5-03822-P04-CH0	1543112	OK	0.7656918	-0.375323	0.5223493	0	-126.179	-39.578	12.797	B5-03822-P04-CH1	1543112	OK	0.8061168	-0.5875003	0.0708453	0	-107.353	-42.475	-1.343	NA
0.199835538611049	B5-03822-P01-CH0	1543120	OK	0.194138	0.1105324	0.1318618	-0.9657668	150.76	-25.142	-255.628	B5-03822-P02-CH0	1543120	OK	0.6719768	0.3202725	-0.667737	0	-72.152	-97.404	-5.147	B5-03822-P02-CH1	1543120	OK	0.7205799	-0.2314916	-0.6535872	0	-76.957	-72.531	-4.277	B5-03822-P03-CH0	1543120	OK	0.7024317	-0.0578729	-0.7093944	0	-92.316	-52.48	0.562	B5-03822-P03-CH1	1543120	OK	0.7649381	-0.6330771	0.1186717	0	-93.808	-5.6	-11.126	B5-03822-P04-CH0	1543120	OK	0.7654539	-0.3744436	0.5233281	0	-126.103	-39.787	13.143	B5-03822-P04-CH1	1543120	OK	0.8057984	-0.587942	0.0708035	0	-107.435	-42.366	-1.513	NA
0.209827315541601	B5-03822-P01-CH0	1543128	OK	0.1939269	0.1105353	0.1319587	-0.9657956	150.649	-25.119	-255.514	B5-03822-P02-CH0	1543128	OK	0.6625438	0.3376879	-0.6685825	0	-71.009	-97.301	-3.931	B5-03822-P02-CH1	1543128	OK	0.7091416	-0.2549151	-0.6573709	0	-75.277	-70.43	-5.201	B5-03822-P03-CH0	1543128	OK	0.7054583	-0.07912	-0.7043214	0	-92.64	-51.899	-0.894	B5-03822-P03-CH1	1543128	OK	0.7650016	-0.6329057	0.1191763	0	-93.828	-5.554	-11.27	B5-03822-P04-CH0	1543128	OK	0.7656175	-0.3739254	0.5234593	0	-126.075	-39.687	13.052	B5-03822-P04-CH1	1543128	OK	0.8059862	-0.5876776	0.0708611	0	-107.501	-42.139	-1.714	NA
0.219819092472154	B5-03822-P01-CH0	1543136	OK	0.1937078	0.1106681	0.1318207	-0.9658432	150.567	-25.033	-255.393	B5-03822-P02-CH0	1543136	OK	0.6473692	0.348029	-0.6780774	0	-72.577	-96.723	-1.281	B5-03822-P02-CH1	1543136	OK	0.696228	-0.2566139	-0.6703849	0	-73.695	-70.051	-3.573	B5-03822-P03-CH0	1543136	OK	0.7105234	-0.1091417	-0.695158	0	-92.003	-50.325	-0.803	B5-03822-P03-CH1	1543136	OK	0.7649565	-0.6328537	0.1197403	0	-93.93	-5.525	-11.148	B5-03822-P04-CH0	1543136	OK	0.7658643	-0.3743123	0.5228214	0	-125.967	-39.173	12.848	B5-03822-P04-CH1	1543136	OK	0.805828	-0.5878408	0.0713053	0	-107.584	-42.115	-1.823	NA
0.229810869402706	B5-03822-P01-CH0	1543144	OK	0.1934582	0.1108331	0.1317748	-0.9658806	150.562	-25.024	-255.381	B5-03822-P02-CH0	1543144	OK	0.6399735	0.3511361	-0.6834745	0	-69.837	-93.772	-3.482	B5-03822-P02-CH1	1543144	OK	0.6837108	-0.2385418	-0.6896647	0	-72.394	-69.344	-3.31	B5-03822-P03-CH0	1543144	OK	0.7165256	-0.1428565	-0.682776	0	-91.205	-50.095	-1.081	B5-03822-P03-CH1	1543144	OK	0.7645476	-0.633097	0.1210582	0	-94.235	-6.107	-10.725	B5-03822-P04-CH0	1543144	OK	0.7661606	-0.3745793	0.5221956	0	-125.974	-39.004	12.729	B5-03822-P04-CH1	1543144	OK	0.8056921	-0.5879557	0.0718916	0	-107.715	-42.313	-1.659	NA
0.239802646333259	B5-03822-P01-CH0	1543152	OK	0.1933186	0.1109429	0.1317305	-0.965902	150.539	-24.985	-255.246	B5-03822-P02-CH0	1543152	OK	0.6327105	0.3567931	-0.6872963	0	-69.879	-93.837	-1.716	B5-03822-P02-CH1	1543152	OK	0.6764373	-0.2280858	-0.7002924	0	-72.522	-69.969	-1.999	B5-03822-P03-CH0	1543152	OK	0.7219396	-0.1629975	-0.6724843	0	-92.444	-50.248	-1.706	B5-03822-P03-CH1	1543152	OK	0.7643906	-0.63311	0.1219784	0	-94.418	-6.374	-10.574	B5-03822-P04-CH0	1543152	OK	0.7664218	-0.3741067	0.5221511	0	-126.149	-39.248	12.814	B5-03822-P04-CH1	1543152	OK	0.8057844	-0.5877296	0.0727007	0	-107.963	-42.338	-1.648	NA
0.249794423263811	B5-03822-P01-CH0	1543160	OK	0.1929744	0.1113609	0.131061	-0.9660138	150.705	-25.163	-255.214	B5-03822-P02-CH0	1543160	OK	0.6265163	0.3689986	-0.6865255	0	-71.908	-96.933	-0.547	B5-03822-P02-CH1	1543160	OK	0.6747571	-0.2283632	-0.7018213	0	-72.972	-70.003	-2.704	B5-03822-P03-CH0	1543160	OK	0.733451	-0.1777504	-0.6560902	0	-93.217	-51.221	-1.357	B5-03822-P03-CH1	1543160	OK	0.7644135	-0.6332615	0.1210448	0	-94.315	-6.13	-10.844	B5-03822-P04-CH0	1543160	OK	0.7664916	-0.3744903	0.5217736	0	-126.332	-39.496	12.913	B5-03822-P04-CH1	1543160	OK	0.8054121	-0.5881205	0.0736592	0	-108.192	-42.785	-1.199	NA
0.259786200194363	B5-03822-P01-CH0	1543168	OK	0.192684	0.1115752	0.1304399	-0.9661311	150.744	-25.175	-255.195	B5-03822-P02-CH0	1543168	OK	0.6207504	0.3833978	-0.6838677	0	-71.643	-94.6	-0.449	B5-03822-P02-CH1	1543168	OK	0.6738389	-0.2311631	-0.7017868	0	-72.576	-69.693	-2.901	B5-03822-P03-CH0	1543168	OK	0.7461291	-0.1920064	-0.6375146	0	-94.549	-52.432	-0.507	B5-03822-P03-CH1	1543168	OK	0.7642304	-0.6335785	0.1205409	0	-94.233	-6.008	-10.958	B5-03822-P04-CH0	1543168	OK	0.7664732	-0.3753069	0.5212136	0	-126.471	-39.402	12.69	B5-03822-P04-CH1	1543168	OK	0.8050458	-0.5884684	0.0748748	0	-108.43	-42.942	-1.143	NA
0.269777977124916	B5-03822-P01-CH0	1543176	OK	0.1926226	0.1111963	0.130631	-0.9661612	150.607	-25.181	-255.176	B5-03822-P02-CH0	1543176	OK	0.6169129	0.3988801	-0.6784638	0	-72.108	-95.108	-0.548	B5-03822-P02-CH1	1543176	OK	0.67409	-0.2335072	-0.7007689	0	-72.04	-68.877	-3.195	B5-03822-P03-CH0	1543176	OK	0.7580529	-0.1996749	-0.620875	0	-95.44	-53.627	-0.076	B5-03822-P03-CH1	1543176	OK	0.7640443	-0.6336761	0.1212061	0	-94.235	-6.363	-10.877	B5-03822-P04-CH0	1543176	OK	0.7665298	-0.3757213	0.5208315	0	-126.477	-39.3	12.304	B5-03822-P04-CH1	1543176	OK	0.8053932	-0.5878219	0.0762046	0	-108.579	-42.878	-1.373	NA
0.279769754055468	B5-03822-P01-CH0	1543184	OK	0.1926109	0.1112216	0.1305063	-0.9661775	150.593	-25.191	-255.116	B5-03822-P02-CH0	1543184	OK	0.6130821	0.4069377	-0.67715	0	-73.13	-95.375	-0.249	B5-03822-P02-CH1	1543184	OK	0.6784803	-0.2270162	-0.6986616	0	-71.807	-69.582	-2.741	B5-03822-P03-CH0	1543184	OK	0.7673684	-0.202242	-0.6084767	0	-95.838	-54.482	0.997	B5-03822-P03-CH1	1543184	OK	0.7640756	-0.6336687	0.1210478	0	-94.174	-6.362	-10.809	B5-03822-P04-CH0	1543184	OK	0.7666502	-0.3759897	0.5204606	0	-126.615	-39.344	12.036	B5-03822-P04-CH1	1543184	OK	0.8052106	-0.5878081	0.0782147	0	-108.934	-43.205	-1.52	NA
0.289761530986021	B5-03822-P01-CH0	1543192	OK	0.1927795	0.1112086	0.1309294	-0.9660881	150.671	-25.124	-255.167	B5-03822-P02-CH0	1543192	OK	0.612404	0.4123907	-0.6744592	0	-74.455	-97.448	-0.877	B5-03822-P02-CH1	1543192	OK	0.6892316	-0.210443	-0.6933062	0	-72.933	-70.207	-2.142	B5-03822-P03-CH0	1543192	OK	0.7762603	-0.2006823	-0.5976174	0	-96.225	-55.369	0.69	B5-03822-P03-CH1	1543192	OK	0.7639961	-0.6336382	0.1217065	0	-94.337	-6.856	-10.246	B5-03822-P04-CH0	1543192	OK	0.7669975	-0.3758178	0.5200728	0	-126.814	-39.502	11.95	B5-03822-P04-CH1	1543192	OK	0.8054546	-0.5872059	0.0802	0	-109.168	-43.388	-1.668	NA
0.299753307916573	B5-03822-P01-CH0	1543200	OK	0.1931769	0.110744	0.1320695	-0.9659069	150.592	-25.008	-255.234	B5-03822-P02-CH0	1543200	OK	0.6064636	0.4120105	-0.6800362	0	-75.943	-96.757	-0.609	B5-03822-P02-CH1	1543200	OK	0.702376	-0.1894419	-0.6861339	0	-75.378	-71.38	-3.377	B5-03822-P03-CH0	1543200	OK	0.7865553	-0.1913049	-0.5871398	0	-96.49	-56.946	0.628	B5-03822-P03-CH1	1543200	OK	0.7649765	-0.6324747	0.1216003	0	-94.262	-6.597	-10.239	B5-03822-P04-CH0	1543200	OK	0.7677091	-0.3751534	0.5195024	0	-127.019	-39.37	11.437	B5-03822-P04-CH1	1543200	OK	0.8061688	-0.5859237	0.0823724	0	-109.371	-43.522	-1.858	NA
0.309745084847126	B5-03822-P01-CH0	1543208	OK	0.1931313	0.1107853	0.131701	-0.9659616	150.654	-25.046	-255.313	B5-03822-P02-CH0	1543208	OK	0.6038308	0.4103824	-0.6833554	0	-77.951	-99.73	-0.5	B5-03822-P02-CH1	1543208	OK	0.7127513	-0.1684638	-0.6808858	0	-76.924	-72.681	-4.709	B5-03822-P03-CH0	1543208	OK	0.7933625	-0.1735553	-0.5834848	0	-97.928	-58.527	2.537	B5-03822-P03-CH1	1543208	OK	0.7646685	-0.6328781	0.1214387	0	-94.23	-6.794	-10.011	B5-03822-P04-CH0	1543208	OK	0.7677805	-0.3752593	0.5193203	0	-127.226	-39.546	11.409	B5-03822-P04-CH1	1543208	OK	0.8059556	-0.5859202	0.0844575	0	-109.616	-43.975	-1.488	NA
0.319736861777678	B5-03822-P01-CH0	1543216	OK	0.1930857	0.1103815	0.1319016	-0.9659895	150.569	-25.044	-255.379	B5-03822-P02-CH0	1543216	OK	0.6018824	0.4043378	-0.688657	0	-77.962	-99.32	-0.386	B5-03822-P02-CH1	1543216	OK	0.7188635	-0.150785	-0.6786008	0	-77.916	-73.677	-3.983	B5-03822-P03-CH0	1543216	OK	0.7998319	-0.1534165	-0.5802864	0	-98.454	-60.234	2.733	B5-03822-P03-CH1	1543216	OK	0.7648442	-0.6327759	0.1208639	0	-94.053	-6.724	-10.015	B5-03822-P04-CH0	1543216	OK	0.7676619	-0.3751395	0.5195821	0	-127.385	-39.816	11.092	B5-03822-P04-CH1	1543216	OK	0.8061212	-0.5854215	0.0863147	0	-109.864	-44.176	-1.524	NA
0.32972863870823	B5-03822-P01-CH0	1543224	OK	0.1934331	0.1103058	0.1323845	-0.9658626	150.58	-24.936	-255.365	B5-03822-P02-CH0	1543224	OK	0.6026081	0.4003255	-0.6903644	0	-78.574	-101.686	-1.143	B5-03822-P02-CH1	1543224	OK	0.7234548	-0.1363994	-0.6767631	0	-78.718	-75.283	-2.99	B5-03822-P03-CH0	1543224	OK	0.8045538	-0.1313023	-0.579183	0	-99.698	-61.585	3.138	B5-03822-P03-CH1	1543224	OK	0.7659204	-0.6318005	0.1191387	0	-93.773	-5.823	-10.564	B5-03822-P04-CH0	1543224	OK	0.7679185	-0.3743834	0.5197482	0	-127.674	-40.118	11.016	B5-03822-P04-CH1	1543224	OK	0.8065261	-0.5845523	0.0883983	0	-110.081	-44.389	-1.384	NA
0.339720415638783	B5-03822-P01-CH0	1543232	OK	0.1937089	0.1103479	0.1324775	-0.9657898	150.604	-24.865	-255.32	B5-03822-P02-CH0	1543232	OK	0.5993477	0.3934756	-0.6971078	0	-80.389	-103.007	-0.752	B5-03822-P02-CH1	1543232	OK	0.7279437	-0.1269727	-0.6737774	0	-79.993	-76.788	-3.625	B5-03822-P03-CH0	1543232	OK	0.8090453	-0.1098975	-0.5773804	0	-100.507	-62.149	3.757	B5-03822-P03-CH1	1543232	OK	0.7662504	-0.6316015	0.118067	0	-93.552	-5.483	-10.76	B5-03822-P04-CH0	1543232	OK	0.7678264	-0.3755807	0.51902	0	-127.613	-39.719	10.469	B5-03822-P04-CH1	1543232	OK	0.8064244	-0.5843624	0.0905551	0	-110.344	-44.865	-1.192	NA
0.349712192569335	B5-03822-P01-CH0	1543240	OK	0.1938856	0.1102247	0.1325	-0.9657653	150.555	-24.74	-255.253	B5-03822-P02-CH0	1543240	OK	0.5967416	0.3832263	-0.7050085	0	-80.072	-101.565	-0.543	B5-03822-P02-CH1	1543240	OK	0.7321912	-0.1191359	-0.6705988	0	-80.535	-77.824	-2.631	B5-03822-P03-CH0	1543240	OK	0.8118336	-0.0919947	-0.5765962	0	-101.523	-62.89	4.207	B5-03822-P03-CH1	1543240	OK	0.7656967	-0.6320468	0.1192704	0	-93.953	-6.257	-10.031	B5-03822-P04-CH0	1543240	OK	0.7676551	-0.3766771	0.5184785	0	-127.655	-39.563	10.156	B5-03822-P04-CH1	1543240	OK	0.806446	-0.5840841	0.0921445	0	-110.579	-44.978	-1.253	NA
0.359703969499888	B5-03822-P01-CH0	1543248	OK	0.1940878	0.1104318	0.1325073	-0.9657	150.638	-24.692	-255.176	B5-03822-P02-CH0	1543248	OK	0.5957221	0.3781485	-0.7086035	0	-80.808	-103.235	-0.505	B5-03822-P02-CH1	1543248	OK	0.7346754	-0.112694	-0.6689934	0	-81.45	-78.842	-2.314	B5-03822-P03-CH0	1543248	OK	0.8143069	-0.0791149	-0.5750174	0	-101.659	-63.552	4.03	B5-03822-P03-CH1	1543248	OK	0.7655988	-0.6322651	0.1187405	0	-93.985	-6.326	-10.074	B5-03822-P04-CH0	1543248	OK	0.7676758	-0.3776694	0.5177254	0	-127.809	-39.689	10.115	B5-03822-P04-CH1	1543248	OK	0.8064567	-0.5838739	0.0933752	0	-110.764	-45.217	-1.202	NA
0.36969574643044	B5-03822-P01-CH0	1543256	OK	0.1942743	0.1107632	0.1324497	-0.9656325	150.777	-24.674	-255.098	B5-03822-P02-CH0	1543256	OK	0.5922259	0.3756176	-0.7128674	0	-82.436	-104.604	0.342	B5-03822-P02-CH1	1543256	OK	0.7379801	-0.1029424	-0.6669245	0	-81.167	-78.687	-2.428	B5-03822-P03-CH0	1543256	OK	0.8149241	-0.0686586	-0.5754865	0	-102.124	-63.692	4.446	B5-03822-P03-CH1	1543256	OK	0.7658692	-0.6321684	0.1175051	0	-94.005	-6.143	-10.175	B5-03822-P04-CH0	1543256	OK	0.7677215	-0.3788399	0.5168017	0	-127.893	-39.84	10.304	B5-03822-P04-CH1	1543256	OK	0.8064314	-0.5837606	0.0942967	0	-110.939	-45.472	-1.092	NA
0.379687523360993	B5-03822-P01-CH0	1543264	OK	0.1947114	0.1107583	0.132923	-0.9654799	150.871	-24.597	-255.119	B5-03822-P02-CH0	1543264	OK	0.5893617	0.3703658	-0.7179708	0	-82.868	-103.525	0.721	B5-03822-P02-CH1	1543264	OK	0.7386825	-0.096122	-0.6671647	0	-82.147	-79.314	-2.945	B5-03822-P03-CH0	1543264	OK	0.8155827	-0.0614408	-0.5753694	0	-102.387	-63.399	3.849	B5-03822-P03-CH1	1543264	OK	0.7660395	-0.6319374	0.1176379	0	-94.235	-6.596	-9.72	B5-03822-P04-CH0	1543264	OK	0.7679852	-0.3795778	0.5158676	0	-127.917	-40.089	10.782	B5-03822-P04-CH1	1543264	OK	0.8068379	-0.5830897	0.0949685	0	-111.011	-45.606	-0.908	NA
0.389679300291545	B5-03822-P01-CH0	1543272	OK	0.195002	0.1106227	0.1330661	-0.9654171	150.812	-24.567	-255.039	B5-03822-P02-CH0	1543272	OK	0.5906082	0.3668104	-0.7187712	0	-82.832	-103.803	-0.645	B5-03822-P02-CH1	1543272	OK	0.7400488	-0.0872531	-0.6668693	0	-82.92	-80.126	-1.73	B5-03822-P03-CH0	1543272	OK	0.8188794	-0.0572434	-0.571104	0	-101.223	-63.482	4.286	B5-03822-P03-CH1	1543272	OK	0.7666819	-0.6313953	0.1163563	0	-94.198	-6.23	-9.986	B5-03822-P04-CH0	1543272	OK	0.7680513	-0.381548	0.5143135	0	-127.712	-39.87	10.587	B5-03822-P04-CH1	1543272	OK	0.8069693	-0.5827883	0.0956991	0	-111.07	-45.964	-0.449	NA
0.399671077222098	B5-03822-P01-CH0	1543280	OK	0.1949175	0.1107102	0.1326158	-0.9654861	150.849	-24.609	-254.996	B5-03822-P02-CH0	1543280	OK	0.5931588	0.3626541	-0.71878	0	-82.277	-104.017	-1.069	B5-03822-P02-CH1	1543280	OK	0.7425341	-0.0786921	-0.6651697	0	-83.366	-80.263	-1.379	B5-03822-P03-CH0	1543280	OK	0.8172245	-0.0559294	-0.5735992	0	-102.496	-63.285	4.509	B5-03822-P03-CH1	1543280	OK	0.7665649	-0.6318244	0.1147876	0	-94.117	-6.135	-10.303	B5-03822-P04-CH0	1543280	OK	0.7700642	-0.3946543	0.5012476	0	-127.27	-39.162	10.824	B5-03822-P04-CH1	1543280	OK	0.8066162	-0.5832601	0.0958011	0	-110.941	-46.197	-0.211	NA
0.40966285415265	B5-03822-P01-CH0	1543288	OK	0.1952837	0.1107251	0.1331362	-0.9653388	150.882	-24.464	-254.984	B5-03822-P02-CH0	1543288	OK	0.5941048	0.364068	-0.7172824	0	-83.121	-105.695	-0.518	B5-03822-P02-CH1	1543288	OK	0.7445341	-0.0731766	-0.6635617	0	-83.75	-80.198	-1.945	B5-03822-P03-CH0	1543288	OK	0.817359	-0.0547511	-0.5735213	0	-102.068	-63.559	5.503	B5-03822-P03-CH1	1543288	OK	0.7670727	-0.6313093	0.1142279	0	-94.319	-6.292	-9.849	B5-03822-P04-CH0	1543288	OK	0.7724665	-0.3971625	0.4955375	0	-127.081	-40.76	13.247	B5-03822-P04-CH1	1543288	OK	0.8070008	-0.5827489	0.0956739	0	-110.963	-46.209	0.011	NA
0.419654631083202	B5-03822-P01-CH0	1543296	OK	0.1954771	0.1109843	0.1328184	-0.9653137	150.934	-24.477	-254.907	B5-03822-P02-CH0	1543296	OK	0.5951964	0.365688	-0.7155512	0	-82.75	-104.611	-0.902	B5-03822-P02-CH1	1543296	OK	0.7459745	-0.0684079	-0.6624518	0	-83.891	-80.592	-2.728	B5-03822-P03-CH0	1543296	OK	0.8155081	-0.0487156	-0.5766918	0	-102.128	-63.128	4.961	B5-03822-P03-CH1	1543296	OK	0.7669904	-0.6315222	0.1136024	0	-94.513	-6.483	-9.853	B5-03822-P04-CH0	1543296	OK	0.7752068	-0.4043601	0.4853322	0	-126.381	-39.145	12.045	B5-03822-P04-CH1	1543296	OK	0.806887	-0.5829715	0.0952768	0	-110.802	-46.24	0.188	NA
0.429646408013755	B5-03822-P01-CH0	1543304	OK	0.1954299	0.1109184	0.1324344	-0.9653835	150.857	-24.533	-254.841	B5-03822-P02-CH0	1543304	OK	0.598908	0.3702309	-0.7100974	0	-81.708	-104.542	-2.579	B5-03822-P02-CH1	1543304	OK	0.7491828	-0.0618046	-0.6594735	0	-82.838	-80.759	-2.228	B5-03822-P03-CH0	1543304	OK	0.8125075	-0.0410852	-0.5815012	0	-101.835	-61.947	5.098	B5-03822-P03-CH1	1543304	OK	0.7662528	-0.6323453	0.1140003	0	-94.749	-7.303	-9.376	B5-03822-P04-CH0	1543304	OK	0.7758708	-0.4109929	0.4786537	0	-125.448	-38.832	11.84	B5-03822-P04-CH1	1543304	OK	0.8065257	-0.5835727	0.0946529	0	-110.567	-46.372	0.286	NA
0.439638184944307	B5-03822-P01-CH0	1543312	OK	0.1951384	0.1110452	0.1320519	-0.9654803	150.844	-24.633	-254.803	B5-03822-P02-CH0	1543312	OK	0.5990044	0.3822936	-0.7035946	0	-83.385	-106.837	-1.954	B5-03822-P02-CH1	1543312	OK	0.7501604	-0.0547915	-0.658982	0	-83.251	-80.801	-3.574	B5-03822-P03-CH0	1543312	OK	0.8106337	-0.0351259	-0.5844991	0	-100.687	-61.835	3.922	B5-03822-P03-CH1	1543312	OK	0.7653107	-0.633363	0.1146771	0	-95.292	-8.375	-8.667	B5-03822-P04-CH0	1543312	OK	0.7749428	-0.4161901	0.4756568	0	-124.859	-39.371	10.549	B5-03822-P04-CH1	1543312	OK	0.806363	-0.5840299	0.0932089	0	-110.374	-46.242	0.342	NA
0.44962996187486	B5-03822-P01-CH0	1543320	OK	0.1950527	0.1110645	0.1321365	-0.9654838	150.77	-24.637	-254.699	B5-03822-P02-CH0	1543320	OK	0.5980612	0.3914796	-0.6993329	0	-83.293	-105.174	-0.664	B5-03822-P02-CH1	1543320	OK	0.7510249	-0.0459603	-0.6586724	0	-83.518	-80.681	-1.937	B5-03822-P03-CH0	1543320	OK	0.8075209	-0.0287727	-0.5891368	0	-100.354	-62.581	5.46	B5-03822-P03-CH1	1543320	OK	0.7649039	-0.6339063	0.1143889	0	-95.554	-8.867	-8.145	B5-03822-P04-CH0	1543320	OK	0.7763639	-0.4200463	0.4699152	0	-123.523	-37.542	11.733	B5-03822-P04-CH1	1543320	OK	0.8063673	-0.5842291	0.0919138	0	-110.058	-46.11	0.261	NA
0.459621738805412	B5-03822-P01-CH0	1543328	OK	0.1948429	0.110885	0.1321464	-0.9655455	150.703	-24.64	-254.815	B5-03822-P02-CH0	1543328	OK	0.6008292	0.400295	-0.6919308	0	-82.417	-104.206	-2.236	B5-03822-P02-CH1	1543328	OK	0.7529914	-0.0382841	-0.6569157	0	-83.195	-80.976	-1.484	B5-03822-P03-CH0	1543328	OK	0.8024292	-0.0211352	-0.5963729	0	-100.578	-62.15	4.783	B5-03822-P03-CH1	1543328	OK	0.7638668	-0.6350491	0.1149791	0	-96.056	-9.942	-7.179	B5-03822-P04-CH0	1543328	OK	0.7758278	-0.421625	0.4693864	0	-123.658	-39.103	12.642	B5-03822-P04-CH1	1543328	OK	0.806303	-0.5845401	0.0904897	0	-109.841	-46.163	0.752	NA
0.469613515735965	B5-03822-P01-CH0	1543336	OK	0.1948256	0.1106289	0.1324073	-0.9655426	150.59	-24.569	-254.906	B5-03822-P02-CH0	1543336	OK	0.6024903	0.4144006	-0.6821126	0	-84.312	-106.998	-0.613	B5-03822-P02-CH1	1543336	OK	0.7537294	-0.0333932	-0.6563359	0	-83.304	-81.264	-1.324	B5-03822-P03-CH0	1543336	OK	0.7981409	-0.0090016	-0.6024035	0	-99.468	-61.564	4.754	B5-03822-P03-CH1	1543336	OK	0.7594329	-0.641292	0.1095726	0	-97.368	-11.788	-4.366	B5-03822-P04-CH0	1543336	OK	0.7746029	-0.4296594	0.4640938	0	-121.786	-36.218	10.466	B5-03822-P04-CH1	1543336	OK	0.806453	-0.5845489	0.0890852	0	-109.47	-46.08	1.173	NA
0.479605292666517	B5-03822-P01-CH0	1543344	OK	0.1944382	0.1105399	0.1319268	-0.9656967	150.453	-24.634	-254.842	B5-03822-P02-CH0	1543344	OK	0.6033557	0.4255127	-0.6744634	0	-84.618	-105.692	0.308	B5-03822-P02-CH1	1543344	OK	0.7529662	-0.0311332	-0.6573223	0	-83.327	-80.919	-1.916	B5-03822-P03-CH0	1543344	OK	0.7933884	0.0021355	-0.608712	0	-98.934	-61.858	5.14	B5-03822-P03-CH1	1543344	OK	0.7566715	-0.6452645	0.1052706	0	-97.016	-12.135	-4.039	B5-03822-P04-CH0	1543344	OK	0.7737943	-0.4260513	0.4687459	0	-122.771	-38.935	13.647	B5-03822-P04-CH1	1543344	OK	0.8061177	-0.5852854	0.0872658	0	-109.151	-46	1.408	NA
0.48959706959707	B5-03822-P01-CH0	1543352	OK	0.1938188	0.1109308	0.130692	-0.9659442	150.478	-24.735	-254.716	B5-03822-P02-CH0	1543352	OK	0.6088063	0.432643	-0.6649623	0	-83.298	-105.102	-1.881	B5-03822-P02-CH1	1543352	OK	0.7517459	-0.0316451	-0.6586932	0	-83.314	-81.004	-1.322	B5-03822-P03-CH0	1543352	OK	0.7878251	0.0122159	-0.6157779	0	-99.734	-62.134	4.446	B5-03822-P03-CH1	1543352	OK	0.7552915	-0.6479823	0.098253	0	-96.897	-10.874	-4.613	B5-03822-P04-CH0	1543352	OK	0.7730336	-0.4277263	0.4684755	0	-122.227	-37.086	12.815	B5-03822-P04-CH1	1543352	OK	0.805267	-0.586788	0.0849995	0	-108.801	-45.649	1.041	NA
0.499588846527622	B5-03822-P01-CH0	1543360	OK	0.1937737	0.1112447	0.1307545	-0.9659087	150.548	-24.645	-254.673	B5-03822-P02-CH0	1543360	OK	0.6105908	0.4402863	-0.6582756	0	-85.001	-107.327	-0.845	B5-03822-P02-CH1	1543360	OK	0.7515741	-0.0330614	-0.6588196	0	-83.229	-80.838	-2.247	B5-03822-P03-CH0	1543360	OK	0.7838779	0.024282	-0.6204401	0	-99.496	-61.136	3.877	B5-03822-P03-CH1	1543360	OK	0.7538576	-0.6502249	0.0943726	0	-97.876	-10.871	-4.905	B5-03822-P04-CH0	1543360	OK	0.7728742	-0.4271676	0.4692476	0	-122.203	-35.459	11.225	B5-03822-P04-CH1	1543360	OK	0.8053144	-0.5869707	0.0832712	0	-108.738	-45.436	1.119	NA
0.509580623458174	B5-03822-P01-CH0	1543368	OK	0.1936924	0.1110642	0.1309517	-0.9659191	150.494	-24.681	-254.716	B5-03822-P02-CH0	1543368	OK	0.6097047	0.4437589	-0.6567634	0	-85.444	-105.505	0.369	B5-03822-P02-CH1	1543368	OK	0.7520672	-0.0341296	-0.6582022	0	-82.837	-81.347	-2.247	B5-03822-P03-CH0	1543368	OK	0.7812677	0.0328074	-0.6233333	0	-98.344	-61.402	4.635	B5-03822-P03-CH1	1543368	OK	0.7576175	-0.6478968	0.0790282	0	-96.134	-5.968	-7.131	B5-03822-P04-CH0	1543368	OK	0.7715532	-0.4251591	0.4732286	0	-121.734	-35.618	11.824	B5-03822-P04-CH1	1543368	OK	0.8055417	-0.5868817	0.0816845	0	-108.514	-45.168	0.956	NA
0.519572400388727	B5-03822-P01-CH0	1543376	OK	0.1933416	0.1110979	0.130765	-0.9660108	150.492	-24.734	-254.703	B5-03822-P02-CH0	1543376	OK	0.6166882	0.4452295	-0.6492044	0	-83.306	-105.875	-2.112	B5-03822-P02-CH1	1543376	OK	0.7521718	-0.0335771	-0.6581111	0	-83.015	-81.269	-1.892	B5-03822-P03-CH0	1543376	OK	0.7763733	0.0431585	-0.628794	0	-99.053	-60.68	4.124	B5-03822-P03-CH1	1543376	OK	0.7536549	-0.6523061	0.0806291	0	-97.475	-9.484	-4.014	B5-03822-P04-CH0	1543376	OK	0.7704095	-0.4210342	0.4787477	0	-122.164	-35.603	10.907	B5-03822-P04-CH1	1543376	OK	0.8054504	-0.587259	0.0798529	0	-108.394	-44.983	0.897	NA
0.529564177319279	B5-03822-P01-CH0	1543384	OK	0.1933135	0.1111261	0.1310347	-0.9659766	150.567	-24.691	-254.796	B5-03822-P02-CH0	1543384	OK	0.6175428	0.4472398	-0.6470065	0	-83.727	-105.867	-0.689	B5-03822-P02-CH1	1543384	OK	0.7532763	-0.0340138	-0.6568241	0	-82.97	-81.258	-2.265	B5-03822-P03-CH0	1543384	OK	0.7735599	0.0527433	-0.6315246	0	-99.273	-60.392	3.101	B5-03822-P03-CH1	1543384	OK	0.7492548	-0.6570475	0.0831015	0	-98.177	-12.93	-2.922	B5-03822-P04-CH0	1543384	OK	0.7705557	-0.4129715	0.4854878	0	-123.216	-36.562	12.958	B5-03822-P04-CH1	1543384	OK	0.8057039	-0.5871025	0.0784339	0	-108.258	-44.783	0.967	NA
0.539555954249832	B5-03822-P01-CH0	1543392	OK	0.1934732	0.1109159	0.1314148	-0.9659171	150.484	-24.589	-254.8	B5-03822-P02-CH0	1543392	OK	0.6188498	0.4457745	-0.6467689	0	-84.665	-106.801	0.176	B5-03822-P02-CH1	1543392	OK	0.7529644	-0.0329322	-0.6572367	0	-83.021	-80.597	-2.096	B5-03822-P03-CH0	1543392	OK	0.7737492	0.0600219	-0.6306422	0	-98.308	-59.7	3.509	B5-03822-P03-CH1	1543392	OK	0.7541014	-0.6529963	0.070192	0	-96.839	-8.117	-4.299	B5-03822-P04-CH0	1543392	OK	0.7689996	-0.4103003	0.4901972	0	-122.366	-36.432	13.674	B5-03822-P04-CH1	1543392	OK	0.8060759	-0.58673	0.0773915	0	-108.063	-44.482	0.91	NA
0.549547731180384	B5-03822-P01-CH0	1543400	OK	0.193401	0.110982	0.1308967	-0.9659943	150.535	-24.634	-254.801	B5-03822-P02-CH0	1543400	OK	0.6209874	0.4456238	-0.644821	0	-84.421	-106.143	-0.414	B5-03822-P02-CH1	1543400	OK	0.7529207	-0.0319246	-0.6573364	0	-83.143	-80.869	-1.959	B5-03822-P03-CH0	1543400	OK	0.7721248	0.0606449	-0.6325706	0	-98.526	-60.358	3.702	B5-03822-P03-CH1	1543400	OK	0.7506458	-0.6565347	0.0741154	0	-97.715	-11.467	-2.112	B5-03822-P04-CH0	1543400	OK	0.7680623	-0.4074115	0.4940609	0	-122.802	-36.297	12.774	B5-03822-P04-CH1	1543400	OK	0.8058723	-0.5871291	0.0764801	0	-108.059	-44.374	0.949	NA
0.559539508110937	B5-03822-P01-CH0	1543408	OK	0.1934004	0.1109426	0.1306378	-0.9660341	150.434	-24.589	-254.607	B5-03822-P02-CH0	1543408	OK	0.6242221	0.4462014	-0.6412885	0	-83.857	-106.487	-1.202	B5-03822-P02-CH1	1543408	OK	0.7527008	-0.031552	-0.6576062	0	-83.208	-81.007	-1.917	B5-03822-P03-CH0	1543408	OK	0.7707204	0.0603433	-0.6343096	0	-98.391	-61.209	4.612	B5-03822-P03-CH1	1543408	OK	0.7521869	-0.6549298	0.0726765	0	-98.658	-10.559	-1.733	B5-03822-P04-CH0	1543408	OK	0.7678064	-0.4038633	0.4973608	0	-123.161	-36.833	12.419	B5-03822-P04-CH1	1543408	OK	0.8058574	-0.5872208	0.0759312	0	-107.956	-44.029	0.574	NA
0.569531285041489	B5-03822-P01-CH0	1543416	OK	0.1933178	0.1111095	0.1300723	-0.9661077	150.453	-24.627	-254.456	B5-03822-P02-CH0	1543416	OK	0.6230318	0.4470801	-0.6418339	0	-84.527	-106.118	0.36	B5-03822-P02-CH1	1543416	OK	0.7525267	-0.031146	-0.6578248	0	-83.171	-81.092	-2.032	B5-03822-P03-CH0	1543416	OK	0.7701034	0.0568804	-0.6353781	0	-98.38	-61.024	4.46	B5-03822-P03-CH1	1543416	OK	0.7518972	-0.6554646	0.0708296	0	-97.825	-9.711	-3.755	B5-03822-P04-CH0	1543416	OK	0.7678633	-0.4019636	0.4988099	0	-123.6	-37.46	12.171	B5-03822-P04-CH1	1543416	OK	0.8054797	-0.5878026	0.075436	0	-107.921	-43.921	0.161	NA
0.579523061972042	B5-03822-P01-CH0	1543424	OK	0.1934676	0.1110694	0.1304713	-0.9660285	150.48	-24.559	-254.44	B5-03822-P02-CH0	1543424	OK	0.6260577	0.448038	-0.6382114	0	-83.66	-107.1	-1.508	B5-03822-P02-CH1	1543424	OK	0.7523066	-0.0311868	-0.6580746	0	-83.191	-81.193	-2.042	B5-03822-P03-CH0	1543424	OK	0.7700741	0.0521106	-0.6358226	0	-98.329	-60.695	3.647	B5-03822-P03-CH1	1543424	OK	0.7544612	-0.6528438	0.0676992	0	-96.952	-7.7	-5.299	B5-03822-P04-CH0	1543424	OK	0.7690402	-0.4005674	0.4981194	0	-123.685	-36.995	11.261	B5-03822-P04-CH1	1543424	OK	0.8058789	-0.587306	0.0750385	0	-107.888	-43.561	-0.354	NA
0.589514838902594	B5-03822-P01-CH0	1543432	OK	0.1937125	0.1110646	0.1306263	-0.965959	150.481	-24.457	-254.386	B5-03822-P02-CH0	1543432	OK	0.6257301	0.4499332	-0.6371985	0	-83.941	-107.261	-0.977	B5-03822-P02-CH1	1543432	OK	0.7518418	-0.0315305	-0.6585892	0	-83.271	-81.329	-2.083	B5-03822-P03-CH0	1543432	OK	0.769965	0.048912	-0.6362087	0	-98.033	-60.57	3.13	B5-03822-P03-CH1	1543432	OK	0.7558126	-0.6506585	0.0734214	0	-97.797	-8.178	-4.138	B5-03822-P04-CH0	1543432	OK	0.7705934	-0.3986057	0.497292	0	-123.666	-36.946	11.971	B5-03822-P04-CH1	1543432	OK	0.8059966	-0.5871162	0.0752603	0	-107.943	-43.569	-0.391	NA
0.599506615833146	B5-03822-P01-CH0	1543440	OK	0.1938085	0.1109773	0.1307207	-0.9659371	150.482	-24.466	-254.37	B5-03822-P02-CH0	1543440	OK	0.6236885	0.4497269	-0.6393421	0	-84.11	-106.082	-0.047	B5-03822-P02-CH1	1543440	OK	0.7484438	-0.0339512	-0.6623286	0	-83.07	-81.567	-3.07	B5-03822-P03-CH0	1543440	OK	0.7693266	0.0459326	-0.6372023	0	-97.799	-60.308	4.895	B5-03822-P03-CH1	1543440	OK	0.7541241	-0.6525436	0.0740523	0	-97.409	-8.623	-4.572	B5-03822-P04-CH0	1543440	OK	0.7720502	-0.3977946	0.4956793	0	-123.606	-36.87	12.433	B5-03822-P04-CH1	1543440	OK	0.8061593	-0.5868937	0.075252	0	-107.978	-43.504	-0.578	NA
0.609498392763699	B5-03822-P01-CH0	1543448	OK	0.1939648	0.1109203	0.1305631	-0.9659335	150.43	-24.394	-254.269	B5-03822-P02-CH0	1543448	OK	0.6274774	0.451009	-0.6347149	0	-82.678	-106.821	-2.378	B5-03822-P02-CH1	1543448	OK	0.74858	-0.0363559	-0.662047	0	-82.233	-80.916	-2.431	B5-03822-P03-CH0	1543448	OK	0.7673505	0.0402452	-0.6399637	0	-98.452	-60.438	3.748	B5-03822-P03-CH1	1543448	OK	0.7556397	-0.6493479	0.0857664	0	-97.023	-10.137	-5.308	B5-03822-P04-CH0	1543448	OK	0.7730274	-0.3963266	0.4953321	0	-123.98	-37.769	12.205	B5-03822-P04-CH1	1543448	OK	0.8059987	-0.5870637	0.0756456	0	-107.917	-43.546	-0.625	NA
0.619490169694251	B5-03822-P01-CH0	1543456	OK	0.1943723	0.1108288	0.130871	-0.9658205	150.48	-24.323	-254.296	B5-03822-P02-CH0	1543456	OK	0.6271265	0.4531519	-0.6335343	0	-82.032	-106.127	-2.146	B5-03822-P02-CH1	1543456	OK	0.747764	-0.0375976	-0.6628993	0	-81.828	-80.501	-2.538	B5-03822-P03-CH0	1543456	OK	0.7663573	0.0391206	-0.6412224	0	-97.787	-59.905	1.503	B5-03822-P03-CH1	1543456	OK	0.7557298	-0.647381	0.0988451	0	-97.676	-13.285	-3.963	B5-03822-P04-CH0	1543456	OK	0.7744394	-0.395776	0.4935635	0	-123.419	-37.59	13.421	B5-03822-P04-CH1	1543456	OK	0.8061476	-0.5867606	0.076407	0	-107.916	-43.708	-0.561	NA
0.629481946624804	B5-03822-P01-CH0	1543464	OK	0.1943919	0.1105128	0.1309018	-0.9658486	150.377	-24.308	-254.242	B5-03822-P02-CH0	1543464	OK	0.6242525	0.4484562	-0.6396842	0	-83.469	-105.857	-1.215	B5-03822-P02-CH1	1543464	OK	0.7465968	-0.041585	-0.6639758	0	-82.095	-80.181	-2.977	B5-03822-P03-CH0	1543464	OK	0.7654247	0.038359	-0.6423812	0	-97.517	-59.242	2.173	B5-03822-P03-CH1	1543464	OK	0.762263	-0.6402752	0.0948834	0	-96.187	-7.952	-7.922	B5-03822-P04-CH0	1543464	OK	0.7732759	-0.3960762	0.4951445	0	-123.073	-37.764	11.957	B5-03822-P04-CH1	1543464	OK	0.8061053	-0.586764	0.0768262	0	-107.929	-43.718	-0.832	NA
0.639473723555356	B5-03822-P01-CH0	1543472	OK	0.1945064	0.1104817	0.1310364	-0.9658108	150.453	-24.278	-254.262	B5-03822-P02-CH0	1543472	OK	0.6247609	0.4493575	-0.6385544	0	-83.209	-105.741	-1.33	B5-03822-P02-CH1	1543472	OK	0.7453802	-0.0456258	-0.6650764	0	-81.853	-79.871	-3.122	B5-03822-P03-CH0	1543472	OK	0.7639144	0.0355569	-0.6443373	0	-97.704	-59.23	2.559	B5-03822-P03-CH1	1543472	OK	0.7668696	-0.6354692	0.089944	0	-93.715	-3.051	-12.112	B5-03822-P04-CH0	1543472	OK	0.7735698	-0.3951085	0.4954584	0	-123.653	-37.402	10.556	B5-03822-P04-CH1	1543472	OK	0.8061393	-0.5866489	0.0773462	0	-107.953	-43.841	-0.856	NA
0.649465500485909	B5-03822-P01-CH0	1543480	OK	0.1944042	0.1105211	0.1306549	-0.9658786	150.445	-24.242	-254.22	B5-03822-P02-CH0	1543480	OK	0.6250708	0.4501229	-0.6377114	0	-83.117	-105.725	-1.026	B5-03822-P02-CH1	1543480	OK	0.744564	-0.0492175	-0.6657343	0	-81.284	-79.594	-3.741	B5-03822-P03-CH0	1543480	OK	0.7627604	0.0331842	-0.6458293	0	-97.472	-58.673	1.6	B5-03822-P03-CH1	1543480	OK	0.7617827	-0.6389608	0.1068463	0	-96.18	-9.905	-7.204	B5-03822-P04-CH0	1543480	OK	0.7730438	-0.3933261	0.4976925	0	-123.606	-37.316	10.68	B5-03822-P04-CH1	1543480	OK	0.8058464	-0.5869914	0.0777992	0	-107.927	-43.946	-0.728	NA
0.659457277416461	B5-03822-P01-CH0	1543488	OK	0.1949285	0.110523	0.1316399	-0.9656389	150.596	-24.168	-254.332	B5-03822-P02-CH0	1543488	OK	0.6245343	0.4500966	-0.6382554	0	-83.1	-105.9	-0.976	B5-03822-P02-CH1	1543488	OK	0.7426971	-0.054408	-0.6674135	0	-81.432	-79.354	-3.503	B5-03822-P03-CH0	1543488	OK	0.7623771	0.028652	-0.6464984	0	-96.819	-59.179	2.471	B5-03822-P03-CH1	1543488	OK	0.7624864	-0.6370349	0.1131419	0	-97.198	-11.395	-5.536	B5-03822-P04-CH0	1543488	OK	0.7732883	-0.3865702	0.502582	0	-125.084	-40.062	12.313	B5-03822-P04-CH1	1543488	OK	0.8064105	-0.5861157	0.0785523	0	-108.016	-44.172	-0.577	NA
0.669449054347014	B5-03822-P01-CH0	1543496	OK	0.1949513	0.1106643	0.1317254	-0.9656065	150.692	-24.131	-254.307	B5-03822-P02-CH0	1543496	OK	0.6246044	0.4504756	-0.6379193	0	-82.909	-105.765	-1.075	B5-03822-P02-CH1	1543496	OK	0.7413672	-0.0577668	-0.6686088	0	-81.47	-78.742	-4.031	B5-03822-P03-CH0	1543496	OK	0.7601743	0.0255972	-0.6492147	0	-96.969	-58.626	1.381	B5-03822-P03-CH1	1543496	OK	0.7642828	-0.6355724	0.1091766	0	-95.897	-9.089	-7.056	B5-03822-P04-CH0	1543496	OK	0.7730692	-0.3914424	0.4991361	0	-124.503	-38.816	12.544	B5-03822-P04-CH1	1543496	OK	0.8064736	-0.58598	0.0789166	0	-108.171	-44.164	-0.617	NA
0.679440831277566	B5-03822-P01-CH0	1543504	OK	0.1949689	0.1107728	0.1313373	-0.9656433	150.776	-24.135	-254.368	B5-03822-P02-CH0	1543504	OK	0.6247363	0.4500647	-0.6380802	0	-82.78	-105.697	-0.892	B5-03822-P02-CH1	1543504	OK	0.7400155	-0.0609698	-0.6698207	0	-81.457	-78.62	-3.983	B5-03822-P03-CH0	1543504	OK	0.7585201	0.0248243	-0.6511766	0	-96.696	-58.363	0.57	B5-03822-P03-CH1	1543504	OK	0.7610145	-0.638549	0.1145081	0	-96.51	-12.132	-6.308	B5-03822-P04-CH0	1543504	OK	0.7713624	-0.3780833	0.5119111	0	-125.865	-40.792	12.552	B5-03822-P04-CH1	1543504	OK	0.8061054	-0.5863944	0.0795975	0	-108.303	-44.454	-0.302	NA
0.689432608208118	B5-03822-P01-CH0	1543512	OK	0.1952707	0.1105334	0.1321419	-0.9655	150.84	-24.169	-254.502	B5-03822-P02-CH0	1543512	OK	0.624748	0.4492563	-0.6386382	0	-82.403	-105.725	-1.13	B5-03822-P02-CH1	1543512	OK	0.7397316	-0.0650893	-0.6697467	0	-80.912	-78.514	-4.271	B5-03822-P03-CH0	1543512	OK	0.7583157	0.0218939	-0.6515197	0	-95.802	-57.579	0.829	B5-03822-P03-CH1	1543512	OK	0.7684469	-0.6317736	0.1017423	0	-93.799	-4.935	-10.513	B5-03822-P04-CH0	1543512	OK	0.7707872	-0.3717142	0.5174125	0	-125.867	-38.981	10.854	B5-03822-P04-CH1	1543512	OK	0.8065854	-0.5856629	0.0801184	0	-108.355	-44.583	-0.261	NA
0.699424385138671	B5-03822-P01-CH0	1543520	OK	0.1950342	0.110574	0.1314647	-0.9656356	150.872	-24.212	-254.549	B5-03822-P02-CH0	1543520	OK	0.6249945	0.4491233	-0.6384905	0	-82.177	-105.385	-1.069	B5-03822-P02-CH1	1543520	OK	0.7388395	-0.0681933	-0.6704221	0	-80.602	-78.416	-2.979	B5-03822-P03-CH0	1543520	OK	0.7554277	0.0157845	-0.6550419	0	-96.259	-58.09	1.872	B5-03822-P03-CH1	1543520	OK	0.7651694	-0.634401	0.1097775	0	-95.538	-8.477	-7.902	B5-03822-P04-CH0	1543520	OK	0.7700909	-0.3669001	0.5218662	0	-126.977	-40.902	12.551	B5-03822-P04-CH1	1543520	OK	0.8062523	-0.5861221	0.0801132	0	-108.299	-44.452	-0.175	NA
0.709416162069223	B5-03822-P01-CH0	1543528	OK	0.1951827	0.1104674	0.1316796	-0.9655885	150.962	-24.297	-254.684	B5-03822-P02-CH0	1543528	OK	0.6250089	0.44782	-0.6393912	0	-81.943	-105.376	-1.024	B5-03822-P02-CH1	1543528	OK	0.7379998	-0.0720272	-0.6709459	0	-80.269	-79.033	-3.424	B5-03822-P03-CH0	1543528	OK	0.7534227	0.0113672	-0.6574382	0	-96.242	-57.799	0.634	B5-03822-P03-CH1	1543528	OK	0.7654793	-0.6342125	0.1087009	0	-95.218	-7.423	-9.301	B5-03822-P04-CH0	1543528	OK	0.7696047	-0.3703773	0.5201243	0	-126.101	-38.892	11.629	B5-03822-P04-CH1	1543528	OK	0.8062761	-0.5860329	0.0805246	0	-108.327	-44.699	-0.021	NA
0.719407938999776	B5-03822-P01-CH0	1543536	OK	0.1947949	0.1104213	0.1311108	-0.9657495	150.934	-24.378	-254.76	B5-03822-P02-CH0	1543536	OK	0.6253371	0.4472338	-0.6394806	0	-81.844	-105.302	-0.847	B5-03822-P02-CH1	1543536	OK	0.7367298	-0.0739751	-0.6721287	0	-80.267	-78.355	-3.846	B5-03822-P03-CH0	1543536	OK	0.7531967	0.007442	-0.6577532	0	-95.733	-57.378	1.135	B5-03822-P03-CH1	1543536	OK	0.765256	-0.6354241	0.1030511	0	-94.904	-6.785	-9.47	B5-03822-P04-CH0	1543536	OK	0.7688587	-0.3676763	0.5231352	0	-127.206	-40.218	11.165	B5-03822-P04-CH1	1543536	OK	0.805774	-0.5867502	0.0803268	0	-108.162	-44.649	-0.175	NA
0.729399715930328	B5-03822-P01-CH0	1543544	OK	0.1948416	0.1108445	0.1308129	-0.965732	151.128	-24.373	-254.764	B5-03822-P02-CH0	1543544	OK	0.6253128	0.4459961	-0.6403682	0	-81.736	-105.091	-0.786	B5-03822-P02-CH1	1543544	OK	0.7353148	-0.0757993	-0.6734735	0	-80.391	-77.968	-3.671	B5-03822-P03-CH0	1543544	OK	0.7526823	0.002961	-0.6583773	0	-95.53	-57.547	0.376	B5-03822-P03-CH1	1543544	OK	0.7639145	-0.6363683	0.1070984	0	-95.56	-8.172	-8.524	B5-03822-P04-CH0	1543544	OK	0.7681615	-0.3690112	0.5232195	0	-126.58	-39.439	11.432	B5-03822-P04-CH1	1543544	OK	0.805506	-0.5871129	0.0803653	0	-108.256	-44.724	-0.025	NA
0.739391492860881	B5-03822-P01-CH0	1543552	OK	0.1948566	0.1106767	0.1308051	-0.9657493	151.11	-24.385	-254.877	B5-03822-P02-CH0	1543552	OK	0.6254017	0.4448218	-0.6410977	0	-81.57	-104.975	-0.725	B5-03822-P02-CH1	1543552	OK	0.7337394	-0.078079	-0.6749298	0	-80.442	-77.847	-2.691	B5-03822-P03-CH0	1543552	OK	0.7509477	-0.0004294	-0.6603615	0	-96.281	-57.372	0.955	B5-03822-P03-CH1	1543552	OK	0.7636317	-0.6364432	0.1086585	0	-95.568	-8.354	-8.23	B5-03822-P04-CH0	1543552	OK	0.7683051	-0.36836	0.5234674	0	-126.893	-39.756	11.517	B5-03822-P04-CH1	1543552	OK	0.8054787	-0.5871509	0.0803608	0	-108.297	-44.702	0.038	NA
0.749383269791433	B5-03822-P01-CH0	1543560	OK	0.1949912	0.1106706	0.1310748	-0.9656862	151.159	-24.346	-254.897	B5-03822-P02-CH0	1543560	OK	0.6253628	0.4437049	-0.6419092	0	-81.378	-104.789	-0.883	B5-03822-P02-CH1	1543560	OK	0.7336249	-0.0789306	-0.6749551	0	-79.649	-77.805	-3.818	B5-03822-P03-CH0	1543560	OK	0.7491882	-0.0032701	-0.6623491	0	-96.575	-57.592	1.58	B5-03822-P03-CH1	1543560	OK	0.763944	-0.6366577	0.1051496	0	-94.174	-4.797	-10.768	B5-03822-P04-CH0	1543560	OK	0.769027	-0.3672149	0.5232119	0	-127.483	-40.373	12.378	B5-03822-P04-CH1	1543560	OK	0.8054765	-0.5871598	0.0803179	0	-108.242	-44.618	-0.295	NA
0.759375046721985	B5-03822-P01-CH0	1543568	OK	0.1943911	0.1110472	0.1297015	-0.9659494	151.239	-24.457	-254.795	B5-03822-P02-CH0	1543568	OK	0.6258707	0.4435655	-0.6415103	0	-81.267	-104.512	-0.579	B5-03822-P02-CH1	1543568	OK	0.7307068	-0.0801656	-0.6779683	0	-80.451	-78.874	-1.904	B5-03822-P03-CH0	1543568	OK	0.7510098	-0.0045019	-0.6602757	0	-95.244	-56.862	0.056	B5-03822-P03-CH1	1543568	OK	0.7613717	-0.6390806	0.1090372	0	-94.961	-6.909	-9.408	B5-03822-P04-CH0	1543568	OK	0.7691626	-0.3682633	0.5222749	0	-127.575	-40.624	13.865	B5-03822-P04-CH1	1543568	OK	0.8045007	-0.5885866	0.0796519	0	-108.248	-44.572	-0.443	NA
0.769366823652538	B5-03822-P01-CH0	1543576	OK	0.1946383	0.1105035	0.1303072	-0.9658804	151.094	-24.404	-254.907	B5-03822-P02-CH0	1543576	OK	0.6257341	0.4427454	-0.6422098	0	-80.923	-104.263	-0.77	B5-03822-P02-CH1	1543576	OK	0.7295645	-0.07999	-0.6792181	0	-80.24	-78.544	-2.629	B5-03822-P03-CH0	1543576	OK	0.7490267	-0.0080355	-0.662491	0	-96.18	-57.603	-0.041	B5-03822-P03-CH1	1543576	OK	0.759888	-0.6402532	0.1124546	0	-95.541	-8.817	-8.165	B5-03822-P04-CH0	1543576	OK	0.7688598	-0.3693942	0.521922	0	-127.018	-40.415	12.291	B5-03822-P04-CH1	1543576	OK	0.8047437	-0.5882241	0.0798745	0	-108.07	-44.645	-0.337	NA
0.77935860058309	B5-03822-P01-CH0	1543584	OK	0.1949665	0.1104567	0.131093	-0.9657132	151.17	-24.306	-254.992	B5-03822-P02-CH0	1543584	OK	0.6248269	0.4429945	-0.6429209	0	-80.888	-104.031	-0.85	B5-03822-P02-CH1	1543584	OK	0.729222	-0.0788591	-0.679718	0	-79.61	-77.816	-3.491	B5-03822-P03-CH0	1543584	OK	0.7485471	-0.0092488	-0.6630171	0	-95.861	-57.638	1.342	B5-03822-P03-CH1	1543584	OK	0.762981	-0.6370599	0.1096116	0	-95.362	-7.724	-8.462	B5-03822-P04-CH0	1543584	OK	0.7690856	-0.3697663	0.5213254	0	-126.849	-39.836	12.186	B5-03822-P04-CH1	1543584	OK	0.8052408	-0.5875694	0.0796831	0	-107.946	-44.501	-0.409	NA
0.789350377513643	B5-03822-P01-CH0	1543592	OK	0.1948822	0.1106391	0.1308613	-0.9657408	151.216	-24.197	-254.977	B5-03822-P02-CH0	1543592	OK	0.6243565	0.4438913	-0.6427593	0	-80.831	-103.675	-0.662	B5-03822-P02-CH1	1543592	OK	0.7268037	-0.078486	-0.6823462	0	-80.429	-77.818	-3.987	B5-03822-P03-CH0	1543592	OK	0.7472883	-0.0092174	-0.6644361	0	-95.734	-56.329	0.197	B5-03822-P03-CH1	1543592	OK	0.7626676	-0.6374623	0.1094526	0	-95.352	-7.358	-8.817	B5-03822-P04-CH0	1543592	OK	0.7690297	-0.3713538	0.5202784	0	-126.809	-39.389	12.106	B5-03822-P04-CH1	1543592	OK	0.8052203	-0.5876607	0.0792156	0	-108.017	-44.206	-0.426	NA
0.799342154444195	B5-03822-P01-CH0	1543600	OK	0.1954368	0.1103919	0.1317342	-0.9655383	151.174	-24.118	-254.979	B5-03822-P02-CH0	1543600	OK	0.6213679	0.4532135	-0.6391396	0	-80.518	-104.253	-0.497	B5-03822-P02-CH1	1543600	OK	0.7258699	-0.0788718	-0.683295	0	-80.488	-77.819	-3.513	B5-03822-P03-CH0	1543600	OK	0.7446084	-0.0101987	-0.6674236	0	-96.389	-56.791	0.681	B5-03822-P03-CH1	1543600	OK	0.7630698	-0.6368767	0.1100575	0	-95.257	-7.286	-8.961	B5-03822-P04-CH0	1543600	OK	0.7693778	-0.3719803	0.5193153	0	-126.681	-39.149	11.914	B5-03822-P04-CH1	1543600	OK	0.8056345	-0.5870334	0.0796547	0	-107.918	-44.326	-0.567	NA
0.809333931374748	B5-03822-P01-CH0	1543608	OK	0.195365	0.1107485	0.1315671	-0.9655348	151.239	-24.065	-254.834	B5-03822-P02-CH0	1543608	OK	0.622442	0.4560397	-0.6360769	0	-80.292	-105.194	-2.16	B5-03822-P02-CH1	1543608	OK	0.7258776	-0.0785147	-0.6833281	0	-80.346	-77.501	-2.664	B5-03822-P03-CH0	1543608	OK	0.7444286	-0.0119211	-0.6675956	0	-96.011	-57.336	0.938	B5-03822-P03-CH1	1543608	OK	0.7631315	-0.6368558	0.1097499	0	-95.361	-6.959	-9.204	B5-03822-P04-CH0	1543608	OK	0.7701252	-0.3809713	0.5116327	0	-126.992	-40.027	12.698	B5-03822-P04-CH1	1543608	OK	0.8055436	-0.5872146	0.0792372	0	-107.952	-44.105	-0.861	NA
0.8193257083053	B5-03822-P01-CH0	1543616	OK	0.1958802	0.110749	0.1323651	-0.9653212	151.307	-23.973	-254.829	B5-03822-P02-CH0	1543616	OK	0.6178973	0.4576795	-0.6393218	0	-81.245	-103.638	-0.898	B5-03822-P02-CH1	1543616	OK	0.727115	-0.0790478	-0.6819496	0	-79.703	-77.508	-4.356	B5-03822-P03-CH0	1543616	OK	0.7445332	-0.0122394	-0.6674732	0	-95.535	-57.475	0.056	B5-03822-P03-CH1	1543616	OK	0.7640341	-0.6357589	0.1098294	0	-95.305	-6.636	-9.488	B5-03822-P04-CH0	1543616	OK	0.7707713	-0.3814252	0.5103199	0	-127.267	-40.869	13.598	B5-03822-P04-CH1	1543616	OK	0.8061455	-0.58634	0.0795914	0	-108.19	-44.139	-0.768	NA
0.829317485235852	B5-03822-P01-CH0	1543624	OK	0.1957348	0.1106533	0.1322229	-0.9653812	151.275	-24.029	-254.854	B5-03822-P02-CH0	1543624	OK	0.6173358	0.4609074	-0.6375429	0	-82.148	-104.195	-0.918	B5-03822-P02-CH1	1543624	OK	0.7271231	-0.0787924	-0.6819705	0	-79.757	-77.709	-4.028	B5-03822-P03-CH0	1543624	OK	0.7437127	-0.0120653	-0.6683905	0	-95.561	-57.481	0.751	B5-03822-P03-CH1	1543624	OK	0.7645051	-0.6353849	0.1087104	0	-94.927	-6.208	-9.871	B5-03822-P04-CH0	1543624	OK	0.7701433	-0.3850355	0.5085538	0	-126.918	-40.499	12.893	B5-03822-P04-CH1	1543624	OK	0.8061146	-0.5864111	0.0793805	0	-108.129	-44.124	-0.696	NA
0.839309262166405	B5-03822-P01-CH0	1543632	OK	0.1957276	0.1106923	0.1321982	-0.9653816	151.309	-24.01	-254.925	B5-03822-P02-CH0	1543632	OK	0.62002	0.4637007	-0.6328956	0	-80.81	-104.096	-2.505	B5-03822-P02-CH1	1543632	OK	0.727514	-0.0797745	-0.6814392	0	-79.435	-77.677	-3.879	B5-03822-P03-CH0	1543632	OK	0.7430753	-0.0123122	-0.6690945	0	-95.615	-56.776	-1.254	B5-03822-P03-CH1	1543632	OK	0.7645592	-0.6352688	0.1090079	0	-94.988	-6.511	-9.789	B5-03822-P04-CH0	1543632	OK	0.7700006	-0.3882056	0.5063551	0	-126.772	-40.451	13.152	B5-03822-P04-CH1	1543632	OK	0.8060008	-0.5865758	0.0793195	0	-108.038	-44.055	-0.92	NA
0.849301039096957	B5-03822-P01-CH0	1543640	OK	0.1958993	0.1106665	0.1327279	-0.965277	151.319	-23.98	-255.021	B5-03822-P02-CH0	1543640	OK	0.6188279	0.4653454	-0.6328553	0	-81.204	-103.874	-1.138	B5-03822-P02-CH1	1543640	OK	0.7271991	-0.0795932	-0.6817964	0	-80.037	-78.017	-2.91	B5-03822-P03-CH0	1543640	OK	0.7435171	-0.0103565	-0.6686367	0	-94.638	-55.817	-0.518	B5-03822-P03-CH1	1543640	OK	0.765279	-0.6344117	0.1089485	0	-94.975	-6.477	-9.846	B5-03822-P04-CH0	1543640	OK	0.7702697	-0.3918272	0.5031462	0	-126.714	-39.107	11.271	B5-03822-P04-CH1	1543640	OK	0.8063293	-0.5861224	0.0793323	0	-108.099	-44.056	-0.928	NA
0.85929281602751	B5-03822-P01-CH0	1543648	OK	0.1959468	0.1105595	0.1328943	-0.9652567	151.325	-24.016	-255.133	B5-03822-P02-CH0	1543648	OK	0.6146349	0.4699303	-0.633553	0	-82.667	-103.327	-0.18	B5-03822-P02-CH1	1543648	OK	0.726658	-0.0793982	-0.6823959	0	-79.953	-77.908	-3.002	B5-03822-P03-CH0	1543648	OK	0.7401273	-0.0137503	-0.6723262	0	-96.154	-56.394	-0.266	B5-03822-P03-CH1	1543648	OK	0.7661918	-0.6335363	0.1076194	0	-94.65	-5.979	-10.253	B5-03822-P04-CH0	1543648	OK	0.7705288	-0.3932901	0.5016056	0	-126.421	-38.631	12.089	B5-03822-P04-CH1	1543648	OK	0.806496	-0.5859023	0.0792627	0	-108.095	-44.06	-0.799	NA
0.869284592958062	B5-03822-P01-CH0	1543656	OK	0.1957911	0.1107624	0.1325998	-0.9653056	151.41	-24.091	-255.214	B5-03822-P02-CH0	1543656	OK	0.6173481	0.4754751	-0.6267414	0	-80.549	-103.246	-2.17	B5-03822-P02-CH1	1543656	OK	0.7260903	-0.0793035	-0.6830108	0	-79.886	-77.922	-3.054	B5-03822-P03-CH0	1543656	OK	0.7411186	-0.014261	-0.6712227	0	-95.108	-56.189	-0.139	B5-03822-P03-CH1	1543656	OK	0.7661832	-0.6335138	0.1078128	0	-94.884	-6.332	-10.212	B5-03822-P04-CH0	1543656	OK	0.7707253	-0.3907831	0.5032605	0	-127.587	-41.167	13.754	B5-03822-P04-CH1	1543656	OK	0.8063119	-0.5861851	0.0790452	0	-108.096	-44.095	-0.681	NA
0.879276369888615	B5-03822-P01-CH0	1543664	OK	0.1957446	0.1104504	0.1327612	-0.9653286	151.32	-24.183	-255.31	B5-03822-P02-CH0	1543664	OK	0.6171537	0.4812103	-0.6225416	0	-80.942	-104.653	-2.102	B5-03822-P02-CH1	1543664	OK	0.7259872	-0.0789791	-0.6831581	0	-79.595	-77.817	-3.243	B5-03822-P03-CH0	1543664	OK	0.7402656	-0.0160563	-0.6721227	0	-95.304	-56.478	-0.086	B5-03822-P03-CH1	1543664	OK	0.7665004	-0.6330815	0.1080973	0	-94.887	-6.566	-10.286	B5-03822-P04-CH0	1543664	OK	0.7703982	-0.3898313	0.5044979	0	-126.146	-38.469	11.525	B5-03822-P04-CH1	1543664	OK	0.8063882	-0.5860761	0.0790748	0	-108.062	-44.171	-0.63	NA
0.889268146819167	B5-03822-P01-CH0	1543672	OK	0.1957927	0.1100225	0.1332378	-0.965302	151.201	-24.241	-255.456	B5-03822-P02-CH0	1543672	OK	0.6125576	0.4868558	-0.6226915	0	-81.726	-103.49	-0.528	B5-03822-P02-CH1	1543672	OK	0.7249878	-0.0792831	-0.6841834	0	-78.231	-77.149	-3.585	B5-03822-P03-CH0	1543672	OK	0.7403983	-0.0176093	-0.6719377	0	-95.292	-56.754	0.453	B5-03822-P03-CH1	1543672	OK	0.7666953	-0.6326783	0.1090713	0	-95.023	-7.195	-9.761	B5-03822-P04-CH0	1543672	OK	0.7704507	-0.3913002	0.503279	0	-126.019	-38.731	11.847	B5-03822-P04-CH1	1543672	OK	0.8065039	-0.585898	0.0792147	0	-107.884	-44.325	-0.526	NA
0.89925992374972	B5-03822-P01-CH0	1543680	OK	0.1954288	0.1100538	0.1328318	-0.9654281	151.147	-24.342	-255.459	B5-03822-P02-CH0	1543680	OK	0.6132994	0.4916883	-0.6181476	0	-80.336	-102.561	-2.054	B5-03822-P02-CH1	1543680	OK	0.7221871	-0.078716	-0.6872041	0	-79.264	-77.768	-3.3	B5-03822-P03-CH0	1543680	OK	0.7400836	-0.0175832	-0.6722849	0	-95.361	-56.25	-1.528	B5-03822-P03-CH1	1543680	OK	0.766612	-0.6328699	0.1085434	0	-95.008	-7.24	-9.852	B5-03822-P04-CH0	1543680	OK	0.7702039	-0.3932516	0.5021345	0	-125.991	-38.998	12.033	B5-03822-P04-CH1	1543680	OK	0.8062491	-0.5863012	0.0788245	0	-107.87	-44.216	-0.581	NA
0.909251700680272	B5-03822-P01-CH0	1543688	OK	0.1952649	0.1098608	0.1328723	-0.9654777	151.103	-24.409	-255.607	B5-03822-P02-CH0	1543688	OK	0.6123153	0.4985861	-0.6135812	0	-81.627	-104.156	-0.884	B5-03822-P02-CH1	1543688	OK	0.7216894	-0.0777141	-0.6878407	0	-79.176	-77.723	-3.107	B5-03822-P03-CH0	1543688	OK	0.7400126	-0.0184391	-0.6723402	0	-95.03	-55.946	-0.741	B5-03822-P03-CH1	1543688	OK	0.7666995	-0.6328362	0.1081214	0	-94.879	-7.391	-9.848	B5-03822-P04-CH0	1543688	OK	0.7702462	-0.3948888	0.5007831	0	-125.979	-39.013	12.035	B5-03822-P04-CH1	1543688	OK	0.8062807	-0.5862763	0.078686	0	-107.807	-44.223	-0.373	NA
