Wav.Time	B5.03822.P01.CH0	Frame	State	Q0	Qx	Qy	Qz	Tx	Ty	Tz	B5.03822.P02.CH0	Frame.1	State.1	Q0.1	Qx.1	Qy.1	Qz.1	Tx.1	Ty.1	Tz.1	B5.03822.P02.CH1	Frame.2	State.2	Q0.2	Qx.2	Qy.2	Qz.2	Tx.2	Ty.2	Tz.2	B5.03822.P03.CH0	Frame.3	State.3	Q0.3	Qx.3	Qy.3	Qz.3	Tx.3	Ty.3	Tz.3	B5.03822.P03.CH1	Frame.4	State.4	Q0.4	Qx.4	Qy.4	Qz.4	Tx.4	Ty.4	Tz.4	B5.03822.P04.CH0	Frame.5	State.5	Q0.5	Qx.5	Qy.5	Qz.5	Tx.5	Ty.5	Tz.5	B5.03822.P04.CH1	Frame.6	State.6	Q0.6	Qx.6	Qy.6	Qz.6	Tx.6	Ty.6	Tz.6	X
0	B5-03822-P01-CH0	2799024	OK	0.1966016	0.0378219	0.0710339	-0.9771753	104.778	-62.148	-282.712	B5-03822-P02-CH0	2799024	OK	0.728505	0.1466976	-0.6691489	0	-86.307	-98.406	-1.286	B5-03822-P02-CH1	2799024	OK	0.763644	-0.0135823	-0.6454947	0	-84.735	-77.688	2.286	B5-03822-P03-CH0	2799024	OK	0.7336709	-0.1252395	-0.6678638	0	-97.819	-57.364	1.904	B5-03822-P03-CH1	2799024	OK	0.773077	-0.6331959	0.037616	0	-102.84	-18.567	-1.345	B5-03822-P04-CH0	2799024	OK	0.7308521	0.4698948	-0.4950294	0	-127.063	-46.167	19.963	B5-03822-P04-CH1	2799024	OK	0.7446899	-0.6640542	0.0668505	0	-114.098	-37.325	-7.303	NA
0.00999183673469388	B5-03822-P01-CH0	2799032	OK	0.1963961	0.037593	0.0709806	-0.9772293	104.681	-62.162	-282.737	B5-03822-P02-CH0	2799032	OK	0.7285783	0.1494409	-0.6684617	0	-86.31	-98.286	-1.365	B5-03822-P02-CH1	2799032	OK	0.7634045	-0.0125858	-0.645798	0	-84.774	-77.72	2.386	B5-03822-P03-CH0	2799032	OK	0.7339524	-0.1249402	-0.6676105	0	-97.566	-57.544	2.058	B5-03822-P03-CH1	2799032	OK	0.7730813	-0.6332046	0.03738	0	-102.781	-18.349	-1.673	B5-03822-P04-CH0	2799032	OK	0.7311394	0.4702429	-0.494274	0	-126.831	-45.964	19.922	B5-03822-P04-CH1	2799032	OK	0.7445169	-0.6642364	0.0669674	0	-113.994	-37.502	-7.016	NA
0.0199836734693878	B5-03822-P01-CH0	2799040	OK	0.1963484	0.0376186	0.0702908	-0.9772878	104.636	-62.184	-282.747	B5-03822-P02-CH0	2799040	OK	0.726924	0.1646445	-0.6666886	0	-87.185	-99.063	-0.527	B5-03822-P02-CH1	2799040	OK	0.7633667	-0.012032	-0.6458533	0	-84.686	-77.749	2.521	B5-03822-P03-CH0	2799040	OK	0.7338447	-0.1249428	-0.6677284	0	-97.426	-57.589	2.298	B5-03822-P03-CH1	2799040	OK	0.7724004	-0.6340166	0.0376906	0	-102.626	-18.576	-1.376	B5-03822-P04-CH0	2799040	OK	0.73151	0.4697776	-0.4941681	0	-126.784	-45.943	19.992	B5-03822-P04-CH1	2799040	OK	0.7440718	-0.6646904	0.0674082	0	-113.941	-37.723	-6.374	NA
0.0299755102040816	B5-03822-P01-CH0	2799048	OK	0.1964986	0.0374586	0.0701853	-0.9772713	104.622	-62.218	-282.701	B5-03822-P02-CH0	2799048	OK	0.7272156	0.1665089	-0.6659071	0	-87.367	-99.461	0.177	B5-03822-P02-CH1	2799048	OK	0.7633909	-0.0120474	-0.6458244	0	-84.696	-77.853	2.232	B5-03822-P03-CH0	2799048	OK	0.7334983	-0.1250765	-0.6680839	0	-97.515	-57.564	2.464	B5-03822-P03-CH1	2799048	OK	0.7726751	-0.633683	0.0376703	0	-102.784	-18.248	-1.598	B5-03822-P04-CH0	2799048	OK	0.7315033	0.4694401	-0.4944986	0	-126.915	-45.953	19.777	B5-03822-P04-CH1	2799048	OK	0.7442176	-0.6645001	0.0676739	0	-113.801	-37.822	-5.908	NA
0.0399673469387755	B5-03822-P01-CH0	2799056	OK	0.1967344	0.0371567	0.0702743	-0.977229	104.545	-62.248	-282.625	B5-03822-P02-CH0	2799056	OK	0.7281199	0.1674598	-0.6646794	0	-87.034	-99.039	0.363	B5-03822-P02-CH1	2799056	OK	0.7636408	-0.0126446	-0.6455175	0	-84.712	-77.907	1.754	B5-03822-P03-CH0	2799056	OK	0.7334202	-0.1247561	-0.6682295	0	-97.436	-57.415	2.362	B5-03822-P03-CH1	2799056	OK	0.7726877	-0.6336386	0.0381561	0	-102.684	-18.293	-1.929	B5-03822-P04-CH0	2799056	OK	0.7315987	0.4694057	-0.4943902	0	-126.841	-45.838	19.263	B5-03822-P04-CH1	2799056	OK	0.7445413	-0.6641537	0.0675145	0	-113.6	-37.668	-5.965	NA
0.0499591836734694	B5-03822-P01-CH0	2799064	OK	0.1968504	0.0371476	0.0705586	-0.9771855	104.562	-62.155	-282.658	B5-03822-P02-CH0	2799064	OK	0.7294969	0.1662738	-0.6634662	0	-86.97	-99.422	-0.078	B5-03822-P02-CH1	2799064	OK	0.7638004	-0.0134235	-0.6453129	0	-84.937	-77.821	1.553	B5-03822-P03-CH0	2799064	OK	0.7331284	-0.1241974	-0.6686537	0	-97.467	-57.318	2.373	B5-03822-P03-CH1	2799064	OK	0.7731108	-0.6331306	0.0380165	0	-102.592	-17.946	-2.114	B5-03822-P04-CH0	2799064	OK	0.7314421	0.469896	-0.4941561	0	-126.72	-45.626	19.428	B5-03822-P04-CH1	2799064	OK	0.7444045	-0.664281	0.0677696	0	-113.367	-37.945	-5.644	NA
0.0599510204081633	B5-03822-P01-CH0	2799072	OK	0.1969456	0.0370186	0.0706022	-0.977168	104.545	-62.108	-282.697	B5-03822-P02-CH0	2799072	OK	0.7308944	0.1648323	-0.6622868	0	-86.766	-99.486	-0.2	B5-03822-P02-CH1	2799072	OK	0.7703319	-0.0197282	-0.6373379	0	-85.03	-77.828	2.622	B5-03822-P03-CH0	2799072	OK	0.7330194	-0.1233625	-0.6689277	0	-97.512	-57.123	2.165	B5-03822-P03-CH1	2799072	OK	0.7730572	-0.6331886	0.0381406	0	-102.599	-17.976	-2.065	B5-03822-P04-CH0	2799072	OK	0.7317586	0.4692587	-0.4942931	0	-126.681	-45.725	19.303	B5-03822-P04-CH1	2799072	OK	0.7447137	-0.6640176	0.0669482	0	-113.294	-37.588	-5.835	NA
0.0699428571428572	B5-03822-P01-CH0	2799080	OK	0.1969665	0.0369006	0.0704174	-0.9771816	104.472	-62.008	-282.687	B5-03822-P02-CH0	2799080	OK	0.7317552	0.1616826	-0.6621125	0	-87.152	-99.545	-0.873	B5-03822-P02-CH1	2799080	OK	0.7745917	-0.0210533	-0.6321112	0	-85.866	-78.497	2.003	B5-03822-P03-CH0	2799080	OK	0.7330763	-0.122037	-0.6691084	0	-97.525	-56.741	1.977	B5-03822-P03-CH1	2799080	OK	0.7727416	-0.6335555	0.0384441	0	-102.503	-17.957	-2.274	B5-03822-P04-CH0	2799080	OK	0.7317794	0.4696821	-0.4938599	0	-126.636	-45.366	19.262	B5-03822-P04-CH1	2799080	OK	0.7446741	-0.6641189	0.0663827	0	-113.042	-37.364	-5.53	NA
0.079934693877551	B5-03822-P01-CH0	2799088	OK	0.1971062	0.0369135	0.0705302	-0.9771448	104.526	-61.95	-282.685	B5-03822-P02-CH0	2799088	OK	0.7325059	0.1558153	-0.662689	0	-87.36	-99.932	-0.637	B5-03822-P02-CH1	2799088	OK	0.7802464	-0.0190925	-0.6251808	0	-86.076	-77.927	2.635	B5-03822-P03-CH0	2799088	OK	0.7356672	-0.1096221	-0.6684136	0	-97.799	-56.719	2.035	B5-03822-P03-CH1	2799088	OK	0.7728321	-0.6334174	0.0388957	0	-102.582	-17.984	-2.068	B5-03822-P04-CH0	2799088	OK	0.7318869	0.4690543	-0.4942972	0	-126.638	-45.438	19.2	B5-03822-P04-CH1	2799088	OK	0.744215	-0.6645631	0.0670818	0	-113.185	-37.929	-4.97	NA
0.0899265306122449	B5-03822-P01-CH0	2799096	OK	0.1970576	0.036769	0.0705731	-0.977157	104.489	-61.915	-282.701	B5-03822-P02-CH0	2799096	OK	0.7342379	0.1495886	-0.6622068	0	-86.886	-99.15	-1.266	B5-03822-P02-CH1	2799096	OK	0.7856573	-0.0209183	-0.6183082	0	-86.82	-78.788	5.411	B5-03822-P03-CH0	2799096	OK	0.7384586	-0.1044667	-0.6661573	0	-97.173	-57.247	3.068	B5-03822-P03-CH1	2799096	OK	0.7726996	-0.6335586	0.0392279	0	-102.373	-18.06	-2.032	B5-03822-P04-CH0	2799096	OK	0.732082	0.4682971	-0.4947261	0	-126.598	-45.516	19.25	B5-03822-P04-CH1	2799096	OK	0.7445365	-0.6642575	0.0665378	0	-113.149	-37.652	-4.899	NA
0.0999183673469388	B5-03822-P01-CH0	2799104	OK	0.1973705	0.036372	0.0717018	-0.9770265	104.414	-61.766	-282.844	B5-03822-P02-CH0	2799104	OK	0.7343369	0.1369316	-0.6648301	0	-87.434	-100.05	-1.165	B5-03822-P02-CH1	2799104	OK	0.7944256	-0.0173771	-0.6071128	0	-86.826	-78.383	4.912	B5-03822-P03-CH0	2799104	OK	0.7417161	-0.0986884	-0.6634138	0	-96.544	-55.605	2.618	B5-03822-P03-CH1	2799104	OK	0.7735737	-0.6324579	0.0397592	0	-102.21	-17.822	-2.121	B5-03822-P04-CH0	2799104	OK	0.7319063	0.4681013	-0.4951711	0	-126.384	-45.488	19.273	B5-03822-P04-CH1	2799104	OK	0.7455623	-0.6631503	0.0660944	0	-113.113	-37.332	-4.714	NA
0.109910204081633	B5-03822-P01-CH0	2799112	OK	0.1974703	0.0364399	0.0713957	-0.9770262	104.462	-61.721	-282.805	B5-03822-P02-CH0	2799112	OK	0.7352426	0.1249625	-0.6661852	0	-87.238	-100.246	-1.381	B5-03822-P02-CH1	2799112	OK	0.8007308	-0.01592	-0.5988128	0	-88.207	-77.965	3.803	B5-03822-P03-CH0	2799112	OK	0.7408536	-0.0928183	-0.6652223	0	-97.537	-56.296	2.915	B5-03822-P03-CH1	2799112	OK	0.773426	-0.6326058	0.0402756	0	-102.15	-17.852	-1.97	B5-03822-P04-CH0	2799112	OK	0.7320997	0.4666668	-0.496238	0	-126.553	-45.742	19.425	B5-03822-P04-CH1	2799112	OK	0.7449869	-0.6637645	0.0664164	0	-112.812	-37.762	-4.223	NA
0.119902040816327	B5-03822-P01-CH0	2799120	OK	0.1974478	0.0364536	0.071692	-0.9770086	104.539	-61.738	-282.739	B5-03822-P02-CH0	2799120	OK	0.7356763	0.1112177	-0.66814	0	-87.217	-100.451	-0.81	B5-03822-P02-CH1	2799120	OK	0.8076488	-0.015998	-0.5894467	0	-88.77	-78.199	5.858	B5-03822-P03-CH0	2799120	OK	0.7412502	-0.0830759	-0.666068	0	-97.909	-55.406	2.798	B5-03822-P03-CH1	2799120	OK	0.7736283	-0.6323246	0.0408036	0	-102.121	-17.875	-2.096	B5-03822-P04-CH0	2799120	OK	0.7317529	0.4667403	-0.4966802	0	-126.724	-45.594	19.176	B5-03822-P04-CH1	2799120	OK	0.745015	-0.6637723	0.066022	0	-112.793	-38.003	-4.034	NA
0.12989387755102	B5-03822-P01-CH0	2799128	OK	0.1973272	0.0366708	0.071341	-0.9770505	104.611	-61.786	-282.707	B5-03822-P02-CH0	2799128	OK	0.7369763	0.0973997	-0.6688641	0	-86.928	-100.6	-0.686	B5-03822-P02-CH1	2799128	OK	0.8162995	-0.0156803	-0.577416	0	-89.075	-78.429	5.99	B5-03822-P03-CH0	2799128	OK	0.7405369	-0.0735485	-0.6679788	0	-97.701	-55.56	4.493	B5-03822-P03-CH1	2799128	OK	0.7730636	-0.6329722	0.0414592	0	-101.875	-18.245	-1.851	B5-03822-P04-CH0	2799128	OK	0.7318614	0.4658053	-0.4973976	0	-126.792	-45.666	19.331	B5-03822-P04-CH1	2799128	OK	0.7452423	-0.6636574	0.0645966	0	-112.796	-37.475	-4.341	NA
0.139885714285714	B5-03822-P01-CH0	2799136	OK	0.197013	0.0368003	0.0711474	-0.9771231	104.62	-61.734	-282.679	B5-03822-P02-CH0	2799136	OK	0.7381461	0.0817991	-0.6696635	0	-87.075	-100.15	-2.898	B5-03822-P02-CH1	2799136	OK	0.8221953	-0.013882	-0.5690361	0	-90.391	-78.797	5.902	B5-03822-P03-CH0	2799136	OK	0.7395926	-0.0632965	-0.6700718	0	-97.199	-56.167	4.948	B5-03822-P03-CH1	2799136	OK	0.7729979	-0.6330424	0.0416125	0	-101.902	-18.051	-1.711	B5-03822-P04-CH0	2799136	OK	0.7322545	0.4642296	-0.4982913	0	-126.878	-45.836	19.547	B5-03822-P04-CH1	2799136	OK	0.7449467	-0.6640589	0.0638766	0	-112.728	-37.445	-4.454	NA
0.149877551020408	B5-03822-P01-CH0	2799144	OK	0.1971146	0.0364331	0.072028	-0.9770519	104.462	-61.583	-282.675	B5-03822-P02-CH0	2799144	OK	0.7397385	0.0651541	-0.6697327	0	-86.668	-100.19	-2.771	B5-03822-P02-CH1	2799144	OK	0.8263011	-0.0152129	-0.5630231	0	-90.934	-79.597	8.074	B5-03822-P03-CH0	2799144	OK	0.7383828	-0.0542379	-0.6721973	0	-96.771	-54.559	3.549	B5-03822-P03-CH1	2799144	OK	0.7731563	-0.6327649	0.0428701	0	-101.998	-18.393	-1.229	B5-03822-P04-CH0	2799144	OK	0.7319632	0.462589	-0.5002413	0	-127.035	-45.868	19.38	B5-03822-P04-CH1	2799144	OK	0.745627	-0.6633487	0.063316	0	-112.567	-37.186	-4.521	NA
0.159869387755102	B5-03822-P01-CH0	2799152	OK	0.1973883	0.0364408	0.0718625	-0.9770086	104.489	-61.622	-282.8	B5-03822-P02-CH0	2799152	OK	0.742335	0.0486359	-0.6682614	0	-85.565	-99.556	-1.637	B5-03822-P02-CH1	2799152	OK	0.831015	-0.0141695	-0.5560696	0	-90.819	-79.6	7.903	B5-03822-P03-CH0	2799152	OK	0.7367328	-0.0487172	-0.6744267	0	-96.604	-54.957	4.26	B5-03822-P03-CH1	2799152	OK	0.7728459	-0.6330544	0.0441738	0	-101.91	-18.736	-0.976	B5-03822-P04-CH0	2799152	OK	0.7321242	0.4604476	-0.5019783	0	-127.105	-46.008	19.633	B5-03822-P04-CH1	2799152	OK	0.7458445	-0.6631436	0.062901	0	-112.476	-37.145	-3.978	NA
0.169861224489796	B5-03822-P01-CH0	2799160	OK	0.1973782	0.0364401	0.0718888	-0.9770087	104.449	-61.662	-282.73	B5-03822-P02-CH0	2799160	OK	0.7409841	0.0287824	-0.6709055	0	-86.913	-101.078	-2.034	B5-03822-P02-CH1	2799160	OK	0.8351209	-0.0101858	-0.549972	0	-90.593	-78.857	8.007	B5-03822-P03-CH0	2799160	OK	0.7347535	-0.0442356	-0.6768903	0	-97.415	-54.958	4.979	B5-03822-P03-CH1	2799160	OK	0.7727625	-0.6330981	0.0449984	0	-101.754	-18.905	-0.916	B5-03822-P04-CH0	2799160	OK	0.735283	0.4458741	-0.5104462	0	-126.804	-46.971	20.053	B5-03822-P04-CH1	2799160	OK	0.7447473	-0.6642418	0.0642986	0	-112.511	-38.474	-2.969	NA
0.17985306122449	B5-03822-P01-CH0	2799168	OK	0.1970313	0.0364367	0.0716457	-0.9770967	104.4	-61.664	-282.636	B5-03822-P02-CH0	2799168	OK	0.7420565	0.01203	-0.6702294	0	-86.391	-99.84	-3.344	B5-03822-P02-CH1	2799168	OK	0.8364958	-0.0109671	-0.5478636	0	-91.343	-78.92	7.296	B5-03822-P03-CH0	2799168	OK	0.734815	-0.0399087	-0.6770924	0	-97.295	-54.233	4.589	B5-03822-P03-CH1	2799168	OK	0.7725183	-0.6333873	0.0451227	0	-101.847	-18.886	-0.94	B5-03822-P04-CH0	2799168	OK	0.7337272	0.4465979	-0.5120495	0	-127.712	-45.281	17.986	B5-03822-P04-CH1	2799168	OK	0.7451967	-0.6639282	0.062299	0	-112.236	-37.639	-3.675	NA
0.189844897959184	B5-03822-P01-CH0	2799176	OK	0.1967755	0.0365376	0.0708385	-0.9772033	104.338	-61.725	-282.533	B5-03822-P02-CH0	2799176	OK	0.7415029	-0.005091	-0.6709303	0	-85.534	-99.971	-3.155	B5-03822-P02-CH1	2799176	OK	0.8372052	-0.0143273	-0.5467012	0	-91.288	-78.931	8.133	B5-03822-P03-CH0	2799176	OK	0.73634	-0.0407241	-0.675385	0	-96.222	-53.646	3.366	B5-03822-P03-CH1	2799176	OK	0.7716207	-0.6344335	0.045778	0	-101.86	-19.259	-0.599	B5-03822-P04-CH0	2799176	OK	0.7325343	0.4518765	-0.509118	0	-127.085	-42.705	17.991	B5-03822-P04-CH1	2799176	OK	0.744037	-0.6652804	0.0617328	0	-111.832	-38.051	-3.766	NA
0.199836734693878	B5-03822-P01-CH0	2799184	OK	0.1966746	0.0364148	0.0706908	-0.9772389	104.285	-61.796	-282.56	B5-03822-P02-CH0	2799184	OK	0.7393226	-0.0203726	-0.6730431	0	-84.774	-99.749	-2.357	B5-03822-P02-CH1	2799184	OK	0.8356804	-0.0193765	-0.5488741	0	-91.624	-78.768	8.063	B5-03822-P03-CH0	2799184	OK	0.7338705	-0.048322	-0.6775685	0	-96.989	-54.634	4.573	B5-03822-P03-CH1	2799184	OK	0.7712141	-0.6348846	0.0463713	0	-101.854	-19.537	-0.229	B5-03822-P04-CH0	2799184	OK	0.7344972	0.4450877	-0.5122604	0	-126.595	-45.076	19.244	B5-03822-P04-CH1	2799184	OK	0.7434487	-0.665925	0.0618696	0	-111.674	-38.694	-3.107	NA
0.209828571428571	B5-03822-P01-CH0	2799192	OK	0.196279	0.0363326	0.0702516	-0.9773532	104.209	-61.878	-282.59	B5-03822-P02-CH0	2799192	OK	0.7356577	-0.0320953	-0.6765927	0	-83.046	-100.742	-2.582	B5-03822-P02-CH1	2799192	OK	0.8329147	-0.0301487	-0.5525795	0	-91.095	-78.406	7.041	B5-03822-P03-CH0	2799192	OK	0.7335887	-0.0581746	-0.6770992	0	-96.318	-54.326	4.928	B5-03822-P03-CH1	2799192	OK	0.7706961	-0.6355125	0.0463832	0	-101.711	-19.603	0.026	B5-03822-P04-CH0	2799192	OK	0.7341326	0.4384705	-0.5184525	0	-127.048	-46.642	21.817	B5-03822-P04-CH1	2799192	OK	0.7435473	-0.66595	0.0603988	0	-111.91	-38.256	-3.399	NA
0.219820408163265	B5-03822-P01-CH0	2799200	OK	0.1962706	0.0361129	0.070414	-0.9773513	104.123	-61.831	-282.757	B5-03822-P02-CH0	2799200	OK	0.7286321	-0.0353653	-0.6839916	0	-80.656	-99.823	-3.927	B5-03822-P02-CH1	2799200	OK	0.8263985	-0.048449	-0.5609975	0	-90.189	-78.05	7.051	B5-03822-P03-CH0	2799200	OK	0.7317232	-0.0785823	-0.6770569	0	-96.658	-54.914	4.948	B5-03822-P03-CH1	2799200	OK	0.7707411	-0.6354458	0.0465496	0	-101.627	-19.425	0.14	B5-03822-P04-CH0	2799200	OK	0.7320062	0.4385793	-0.5213588	0	-128.59	-45.867	19.721	B5-03822-P04-CH1	2799200	OK	0.7436093	-0.665907	0.0601088	0	-111.781	-38.178	-3.399	NA
0.229812244897959	B5-03822-P01-CH0	2799208	OK	0.1963538	0.0359381	0.0711985	-0.9772842	104.083	-61.711	-282.89	B5-03822-P02-CH0	2799208	OK	0.7175574	-0.0333722	-0.6956994	0	-79.094	-97.355	-5.811	B5-03822-P02-CH1	2799208	OK	0.8158068	-0.0770337	-0.573171	0	-89.387	-77.815	5.168	B5-03822-P03-CH0	2799208	OK	0.7320916	-0.0998453	-0.6738492	0	-96.334	-53.893	3.148	B5-03822-P03-CH1	2799208	OK	0.7711537	-0.6349197	0.0468927	0	-101.708	-19.299	0.252	B5-03822-P04-CH0	2799208	OK	0.7342116	0.4374847	-0.5191728	0	-127.362	-46.123	19.14	B5-03822-P04-CH1	2799208	OK	0.7438838	-0.6656054	0.0600528	0	-111.563	-38.152	-3.749	NA
0.239804081632653	B5-03822-P01-CH0	2799216	OK	0.1963289	0.0363755	0.0707773	-0.9773036	104.283	-61.824	-282.886	B5-03822-P02-CH0	2799216	OK	0.7070622	-0.0337846	-0.7063438	0	-77.469	-97.642	-5.272	B5-03822-P02-CH1	2799216	OK	0.8053283	-0.1121734	-0.5821198	0	-87.352	-76.485	2.77	B5-03822-P03-CH0	2799216	OK	0.7344503	-0.1169928	-0.6685024	0	-95.468	-52.349	2.761	B5-03822-P03-CH1	2799216	OK	0.7704465	-0.6357407	0.0473915	0	-101.883	-19.744	0.415	B5-03822-P04-CH0	2799216	OK	0.7337617	0.4430904	-0.5150385	0	-127.624	-46.136	19.859	B5-03822-P04-CH1	2799216	OK	0.7436595	-0.6658933	0.0596377	0	-111.705	-38.079	-4.106	NA
0.249795918367347	B5-03822-P01-CH0	2799224	OK	0.1960295	0.0367662	0.0698868	-0.9774132	104.398	-61.977	-282.853	B5-03822-P02-CH0	2799224	OK	0.6959852	-0.0321033	-0.7173382	0	-76.183	-96.905	-4.737	B5-03822-P02-CH1	2799224	OK	0.7933496	-0.1479678	-0.5905099	0	-85.308	-75.384	3.457	B5-03822-P03-CH0	2799224	OK	0.7359704	-0.1375075	-0.6629022	0	-96.93	-53.334	3.83	B5-03822-P03-CH1	2799224	OK	0.7697914	-0.6365599	0.0470394	0	-101.805	-19.707	0.251	B5-03822-P04-CH0	2799224	OK	0.7340365	0.442083	-0.5155124	0	-127.64	-46.088	19.97	B5-03822-P04-CH1	2799224	OK	0.742777	-0.6668675	0.0597507	0	-111.938	-38.433	-3.984	NA
0.259787755102041	B5-03822-P01-CH0	2799232	OK	0.1955024	0.036892	0.0697217	-0.9775258	104.356	-61.927	-282.663	B5-03822-P02-CH0	2799232	OK	0.685907	-0.028273	-0.7271398	0	-74.357	-95.809	-5.62	B5-03822-P02-CH1	2799232	OK	0.7807354	-0.1817597	-0.5978424	0	-84.835	-74.075	1.567	B5-03822-P03-CH0	2799232	OK	0.7448308	-0.1577909	-0.6483279	0	-96.68	-53.788	4.814	B5-03822-P03-CH1	2799232	OK	0.7695007	-0.6369505	0.0465056	0	-101.817	-19.492	0.085	B5-03822-P04-CH0	2799232	OK	0.7336994	0.4420672	-0.5160056	0	-127.722	-45.82	19.945	B5-03822-P04-CH1	2799232	OK	0.7424095	-0.6672724	0.0597978	0	-112.247	-38.328	-4.59	NA
0.269779591836735	B5-03822-P01-CH0	2799240	OK	0.1953749	0.0367389	0.0697561	-0.9775546	104.285	-61.914	-282.725	B5-03822-P02-CH0	2799240	OK	0.6798043	-0.0165504	-0.7332068	0	-71.906	-95.029	-5.562	B5-03822-P02-CH1	2799240	OK	0.773287	-0.2111902	-0.5978511	0	-82.959	-73.077	-0.263	B5-03822-P03-CH0	2799240	OK	0.7578371	-0.192744	-0.6233239	0	-98.411	-53.471	4.132	B5-03822-P03-CH1	2799240	OK	0.7695015	-0.636958	0.0463878	0	-101.875	-19.228	-0.228	B5-03822-P04-CH0	2799240	OK	0.7332226	0.4424817	-0.516328	0	-127.729	-45.586	19.933	B5-03822-P04-CH1	2799240	OK	0.7428419	-0.6667707	0.0600227	0	-112.183	-37.884	-4.897	NA
0.279771428571429	B5-03822-P01-CH0	2799248	OK	0.1952344	0.0370738	0.0693085	-0.9776018	104.327	-61.882	-282.69	B5-03822-P02-CH0	2799248	OK	0.6764513	0.0018843	-0.7364849	0	-71.82	-94.312	-4.814	B5-03822-P02-CH1	2799248	OK	0.7641815	-0.2266269	-0.6038766	0	-82.65	-72.214	-0.192	B5-03822-P03-CH0	2799248	OK	0.7744827	-0.2530145	-0.5797933	0	-100.088	-54.554	5.624	B5-03822-P03-CH1	2799248	OK	0.7691333	-0.6374048	0.0463584	0	-101.799	-19.138	-0.194	B5-03822-P04-CH0	2799248	OK	0.7330428	0.4414894	-0.5174315	0	-127.872	-45.977	20.326	B5-03822-P04-CH1	2799248	OK	0.7425673	-0.6669429	0.0614892	0	-112.653	-37.872	-5.138	NA
0.289763265306123	B5-03822-P01-CH0	2799256	OK	0.1951501	0.0370997	0.0701514	-0.9775576	104.335	-61.739	-282.713	B5-03822-P02-CH0	2799256	OK	0.6777469	0.0235454	-0.7349182	0	-73.366	-93.217	-5.496	B5-03822-P02-CH1	2799256	OK	0.7585451	-0.2290315	-0.6100442	0	-81.844	-71.27	-0.855	B5-03822-P03-CH0	2799256	OK	0.7867202	-0.2990372	-0.5400445	0	-99.116	-54.709	5.653	B5-03822-P03-CH1	2799256	OK	0.7698585	-0.6365545	0.0460025	0	-101.845	-18.738	-0.398	B5-03822-P04-CH0	2799256	OK	0.7321858	0.4409863	-0.5190714	0	-128.121	-46.313	20.368	B5-03822-P04-CH1	2799256	OK	0.743267	-0.6659983	0.0632499	0	-113.111	-37.717	-5.365	NA
0.299755102040816	B5-03822-P01-CH0	2799264	OK	0.1947806	0.0373075	0.0695971	-0.977663	104.409	-61.858	-282.721	B5-03822-P02-CH0	2799264	OK	0.6839636	0.0491232	-0.7278603	0	-74.877	-93.244	-4.537	B5-03822-P02-CH1	2799264	OK	0.7553068	-0.2301053	-0.6136474	0	-81.079	-70.552	-0.726	B5-03822-P03-CH0	2799264	OK	0.7886464	-0.3223936	-0.5235449	0	-100.904	-54.95	5.745	B5-03822-P03-CH1	2799264	OK	0.7697573	-0.636712	0.0455133	0	-101.797	-18.501	-0.863	B5-03822-P04-CH0	2799264	OK	0.731289	0.4419441	-0.5195208	0	-128.619	-46.247	20.083	B5-03822-P04-CH1	2799264	OK	0.7429582	-0.6661431	0.0653188	0	-113.708	-37.845	-5.74	NA
0.30974693877551	B5-03822-P01-CH0	2799272	OK	0.1948925	0.0371328	0.0701264	-0.9776095	104.299	-61.783	-282.598	B5-03822-P02-CH0	2799272	OK	0.6947527	0.0674331	-0.7160807	0	-76.267	-92.404	-4.19	B5-03822-P02-CH1	2799272	OK	0.7536464	-0.2264871	-0.6170257	0	-80.298	-70.765	-1.331	B5-03822-P03-CH0	2799272	OK	0.7954005	-0.3303931	-0.5081126	0	-100.024	-56.465	5.764	B5-03822-P03-CH1	2799272	OK	0.7704591	-0.6358593	0.0455602	0	-101.84	-18.034	-1.709	B5-03822-P04-CH0	2799272	OK	0.7305031	0.4420666	-0.5205212	0	-128.789	-46.402	19.642	B5-03822-P04-CH1	2799272	OK	0.7420213	-0.6651842	0.0832723	0	-117.92	-39.908	-9.728	NA
0.319738775510204	B5-03822-P01-CH0	2799280	OK	0.1946367	0.0376084	0.0695848	-0.977681	104.383	-61.771	-282.48	B5-03822-P02-CH0	2799280	OK	0.708421	0.0777339	-0.7014964	0	-78.105	-93.429	-4.53	B5-03822-P02-CH1	2799280	OK	0.7523754	-0.2116157	-0.623819	0	-80.238	-70.944	-1.743	B5-03822-P03-CH0	2799280	OK	0.7988559	-0.3261075	-0.5054533	0	-100.79	-56.842	6.315	B5-03822-P03-CH1	2799280	OK	0.7704459	-0.6358761	0.0455493	0	-102.082	-17.898	-1.86	B5-03822-P04-CH0	2799280	OK	0.7264941	0.4385442	-0.5290418	0	-130.683	-49.396	20.452	B5-03822-P04-CH1	2799280	OK	0.7438081	-0.6629229	0.0853393	0	-118.4	-38.609	-9.374	NA
0.329730612244898	B5-03822-P01-CH0	2799288	OK	0.1944797	0.0374677	0.0692874	-0.9777388	104.264	-61.798	-282.382	B5-03822-P02-CH0	2799288	OK	0.7176548	0.0797386	-0.6918189	0	-81.106	-94.773	-3.515	B5-03822-P02-CH1	2799288	OK	0.7494893	-0.1923894	-0.6334447	0	-81.87	-71.378	-1.057	B5-03822-P03-CH0	2799288	OK	0.7998847	-0.3219912	-0.5064644	0	-100.192	-58.178	5.181	B5-03822-P03-CH1	2799288	OK	0.7706757	-0.6355772	0.0458312	0	-102.018	-17.733	-2.186	B5-03822-P04-CH0	2799288	OK	0.7245142	0.4434579	-0.5276592	0	-131.281	-48.325	19.286	B5-03822-P04-CH1	2799288	OK	0.7439818	-0.6623237	0.0884211	0	-118.344	-39.241	-7.857	NA
0.339722448979592	B5-03822-P01-CH0	2799296	OK	0.1942859	0.0369958	0.0693189	-0.977793	104.013	-61.79	-282.377	B5-03822-P02-CH0	2799296	OK	0.7246849	0.0832449	-0.6840337	0	-81.739	-94.716	-2.088	B5-03822-P02-CH1	2799296	OK	0.7483952	-0.1748115	-0.6398012	0	-82.229	-72.22	-0.247	B5-03822-P03-CH0	2799296	OK	0.7997928	-0.3105563	-0.5136987	0	-99.611	-59.624	6.327	B5-03822-P03-CH1	2799296	OK	0.7711801	-0.6349745	0.0457024	0	-101.625	-17.378	-2.509	B5-03822-P04-CH0	2799296	OK	0.7238051	0.4474731	-0.5252372	0	-131.02	-47.593	19.645	B5-03822-P04-CH1	2799296	OK	0.7420978	-0.6642267	0.0899657	0	-116.318	-40.486	-8.632	NA
0.349714285714286	B5-03822-P01-CH0	2799304	OK	0.1943278	0.0367087	0.069447	-0.9777864	103.887	-61.762	-282.32	B5-03822-P02-CH0	2799304	OK	0.7275384	0.0854242	-0.6807279	0	-83.291	-95.923	-2.397	B5-03822-P02-CH1	2799304	OK	0.7490798	-0.1599453	-0.6428817	0	-81.443	-74.01	-0.493	B5-03822-P03-CH0	2799304	OK	0.7975675	-0.2938053	-0.526844	0	-101.805	-61.034	6.603	B5-03822-P03-CH1	2799304	OK	0.7719243	-0.6340515	0.0459518	0	-101.606	-16.922	-2.99	B5-03822-P04-CH0	2799304	OK	0.7274043	0.4444399	-0.5228348	0	-129.549	-47.144	19.613	B5-03822-P04-CH1	2799304	OK	0.7436413	-0.6638604	0.0792903	0	-116.192	-38.076	-8.353	NA
0.35970612244898	B5-03822-P01-CH0	2799312	OK	0.1943483	0.0366381	0.0696916	-0.9777676	103.909	-61.783	-282.389	B5-03822-P02-CH0	2799312	OK	0.7304058	0.0895732	-0.6771145	0	-84.202	-96.466	-1.965	B5-03822-P02-CH1	2799312	OK	0.7496367	-0.1440848	-0.6459755	0	-82.102	-74.733	-1.255	B5-03822-P03-CH0	2799312	OK	0.7983148	-0.2719187	-0.5373581	0	-101.026	-62.178	6.67	B5-03822-P03-CH1	2799312	OK	0.7722982	-0.6335428	0.0466802	0	-101.597	-17.065	-3.034	B5-03822-P04-CH0	2799312	OK	0.7264709	0.4452644	-0.5234306	0	-129.861	-47.313	19.354	B5-03822-P04-CH1	2799312	OK	0.7439284	-0.66315	0.0824787	0	-116.596	-38.454	-8.334	NA
0.369697959183674	B5-03822-P01-CH0	2799320	OK	0.1941148	0.0368735	0.0686654	-0.9778777	103.982	-61.934	-282.384	B5-03822-P02-CH0	2799320	OK	0.7310152	0.0945429	-0.6757799	0	-86.019	-95.887	-0.827	B5-03822-P02-CH1	2799320	OK	0.7503769	-0.126575	-0.6487783	0	-83.231	-75.321	-0.406	B5-03822-P03-CH0	2799320	OK	0.795665	-0.2504422	-0.5515396	0	-101.573	-62.332	7.235	B5-03822-P03-CH1	2799320	OK	0.7717988	-0.634118	0.0471277	0	-101.694	-17.361	-2.817	B5-03822-P04-CH0	2799320	OK	0.7261635	0.445706	-0.5234814	0	-130.168	-47.542	19.259	B5-03822-P04-CH1	2799320	OK	0.7436882	-0.663198	0.0842392	0	-116.98	-38.411	-8.762	NA
0.379689795918367	B5-03822-P01-CH0	2799328	OK	0.1940598	0.0371407	0.0682741	-0.9779059	104.158	-62.029	-282.449	B5-03822-P02-CH0	2799328	OK	0.7331206	0.0973765	-0.6730913	0	-87.654	-96.986	-0.371	B5-03822-P02-CH1	2799328	OK	0.7502218	-0.1070594	-0.6524611	0	-84.472	-75.487	-0.885	B5-03822-P03-CH0	2799328	OK	0.7913241	-0.2367462	-0.5636998	0	-102.736	-61.91	6.919	B5-03822-P03-CH1	2799328	OK	0.7718296	-0.6340532	0.0474926	0	-101.725	-17.463	-2.839	B5-03822-P04-CH0	2799328	OK	0.7254503	0.4471407	-0.5232466	0	-130.508	-47.518	19.1	B5-03822-P04-CH1	2799328	OK	0.7429039	-0.6637415	0.0868393	0	-117.461	-39.414	-8.357	NA
0.389681632653061	B5-03822-P01-CH0	2799336	OK	0.1940972	0.0370746	0.0677755	-0.9779357	104.178	-62.193	-282.462	B5-03822-P02-CH0	2799336	OK	0.7383168	0.1041314	-0.666367	0	-87.436	-97.262	-0.71	B5-03822-P02-CH1	2799336	OK	0.7487007	-0.0854002	-0.6573843	0	-85.547	-76.405	-0.152	B5-03822-P03-CH0	2799336	OK	0.7858395	-0.2264881	-0.5754645	0	-103.098	-60.758	5.974	B5-03822-P03-CH1	2799336	OK	0.7716875	-0.6341708	0.0482269	0	-101.553	-17.658	-3.028	B5-03822-P04-CH0	2799336	OK	0.7251461	0.4485618	-0.5224514	0	-130.549	-47.588	19.1	B5-03822-P04-CH1	2799336	OK	0.742715	-0.6637214	0.0885912	0	-117.614	-39.803	-8.234	NA
0.399673469387755	B5-03822-P01-CH0	2799344	OK	0.1940674	0.0369662	0.0678836	-0.9779382	104.109	-62.123	-282.336	B5-03822-P02-CH0	2799344	OK	0.7406524	0.1128876	-0.6623371	0	-88.055	-97.052	0.51	B5-03822-P02-CH1	2799344	OK	0.7491308	-0.0652571	-0.6591999	0	-84.841	-75.984	0.46	B5-03822-P03-CH0	2799344	OK	0.7831581	-0.2203895	-0.5814567	0	-101.171	-60.786	5.186	B5-03822-P03-CH1	2799344	OK	0.7718482	-0.6339299	0.0488188	0	-101.536	-17.693	-2.962	B5-03822-P04-CH0	2799344	OK	0.7251303	0.4494917	-0.5216735	0	-130.364	-47.649	19.074	B5-03822-P04-CH1	2799344	OK	0.7435864	-0.6627914	0.0882427	0	-117.629	-39.085	-8.591	NA
0.409665306122449	B5-03822-P01-CH0	2799352	OK	0.1939864	0.0372418	0.0674447	-0.9779742	104.279	-62.141	-282.497	B5-03822-P02-CH0	2799352	OK	0.7411674	0.1224543	-0.6600575	0	-89.593	-96.882	2.23	B5-03822-P02-CH1	2799352	OK	0.7501642	-0.0514322	-0.6592484	0	-84.194	-75.292	-0.211	B5-03822-P03-CH0	2799352	OK	0.779484	-0.2140124	-0.5887304	0	-100.221	-60.824	6.643	B5-03822-P03-CH1	2799352	OK	0.7712395	-0.6345837	0.0499303	0	-101.676	-18.366	-2.083	B5-03822-P04-CH0	2799352	OK	0.7249175	0.4507591	-0.520875	0	-130.55	-47.665	19.213	B5-03822-P04-CH1	2799352	OK	0.7435822	-0.6627537	0.0885602	0	-117.606	-39.191	-7.812	NA
0.419657142857143	B5-03822-P01-CH0	2799360	OK	0.194005	0.0373192	0.0671337	-0.977989	104.42	-62.247	-282.563	B5-03822-P02-CH0	2799360	OK	0.7452931	0.1348743	-0.6529526	0	-89.148	-96.424	2.95	B5-03822-P02-CH1	2799360	OK	0.7490488	-0.0439401	-0.6610561	0	-84.191	-76.294	1.687	B5-03822-P03-CH0	2799360	OK	0.7766675	-0.2070962	-0.594894	0	-99.502	-59.889	5.69	B5-03822-P03-CH1	2799360	OK	0.7708588	-0.635005	0.0504504	0	-101.667	-18.679	-1.878	B5-03822-P04-CH0	2799360	OK	0.7248017	0.4525834	-0.5194523	0	-130.625	-47.414	18.862	B5-03822-P04-CH1	2799360	OK	0.7433272	-0.6631091	0.0880399	0	-117.278	-39.314	-7.774	NA
0.429648979591837	B5-03822-P01-CH0	2799368	OK	0.1941055	0.0372856	0.0676208	-0.9779367	104.483	-62.151	-282.594	B5-03822-P02-CH0	2799368	OK	0.7472422	0.145354	-0.6484607	0	-89.907	-96.402	2.159	B5-03822-P02-CH1	2799368	OK	0.7475052	-0.0419889	-0.6629275	0	-84.534	-76.377	2.013	B5-03822-P03-CH0	2799368	OK	0.773131	-0.1999324	-0.6019098	0	-99.465	-58.121	4.864	B5-03822-P03-CH1	2799368	OK	0.7710639	-0.634743	0.0506142	0	-101.815	-18.599	-1.628	B5-03822-P04-CH0	2799368	OK	0.7248288	0.4534026	-0.5186997	0	-130.467	-47.381	18.944	B5-03822-P04-CH1	2799368	OK	0.7434631	-0.6629751	0.0879015	0	-117.32	-39.607	-6.87	NA
0.439640816326531	B5-03822-P01-CH0	2799376	OK	0.1944071	0.037297	0.0681193	-0.9778418	104.578	-61.979	-282.65	B5-03822-P02-CH0	2799376	OK	0.7498574	0.1534032	-0.6435692	0	-89.882	-96.497	1.889	B5-03822-P02-CH1	2799376	OK	0.7476824	-0.0463962	-0.6624337	0	-84.58	-75.155	1.439	B5-03822-P03-CH0	2799376	OK	0.7724378	-0.1916298	-0.6054898	0	-99.055	-57.149	4.755	B5-03822-P03-CH1	2799376	OK	0.7709913	-0.6347565	0.051541	0	-102.163	-18.799	-1.307	B5-03822-P04-CH0	2799376	OK	0.72479	0.4543123	-0.5179572	0	-130.462	-47.129	18.73	B5-03822-P04-CH1	2799376	OK	0.7440661	-0.6624555	0.0867079	0	-117.563	-39.27	-6.535	NA
0.449632653061225	B5-03822-P01-CH0	2799384	OK	0.1944276	0.0377208	0.067631	-0.9778554	104.773	-61.954	-282.652	B5-03822-P02-CH0	2799384	OK	0.7521261	0.1599068	-0.6393247	0	-89.814	-95.885	3.253	B5-03822-P02-CH1	2799384	OK	0.747024	-0.0557856	-0.6624524	0	-84.754	-74.514	1	B5-03822-P03-CH0	2799384	OK	0.7724781	-0.1825299	-0.6082437	0	-98.597	-56.498	4.584	B5-03822-P03-CH1	2799384	OK	0.7701303	-0.6357803	0.0517957	0	-102.19	-19.169	-0.841	B5-03822-P04-CH0	2799384	OK	0.7252692	0.4544665	-0.5171507	0	-130.571	-47.117	18.727	B5-03822-P04-CH1	2799384	OK	0.7436234	-0.6631784	0.0849625	0	-117.354	-39.125	-6.542	NA
0.459624489795918	B5-03822-P01-CH0	2799392	OK	0.1945447	0.0377856	0.067601	-0.9778316	104.809	-61.857	-282.618	B5-03822-P02-CH0	2799392	OK	0.7546381	0.1636252	-0.6354118	0	-89.485	-95.231	3.875	B5-03822-P02-CH1	2799392	OK	0.7482769	-0.0670835	-0.659986	0	-83.805	-73.74	1.235	B5-03822-P03-CH0	2799392	OK	0.7697258	-0.1755357	-0.6137665	0	-98.137	-57.84	7.091	B5-03822-P03-CH1	2799392	OK	0.7696729	-0.6363344	0.0517893	0	-102.225	-19.218	-0.663	B5-03822-P04-CH0	2799392	OK	0.725737	0.4547787	-0.5162191	0	-130.434	-46.892	18.848	B5-03822-P04-CH1	2799392	OK	0.7433724	-0.6636974	0.0830856	0	-116.708	-39.085	-5.978	NA
0.469616326530612	B5-03822-P01-CH0	2799400	OK	0.19492	0.0377372	0.0683693	-0.9777053	104.881	-61.688	-282.705	B5-03822-P02-CH0	2799400	OK	0.7552113	0.1630796	-0.6348709	0	-89.929	-95.404	3.869	B5-03822-P02-CH1	2799400	OK	0.7487906	-0.0843911	-0.6574122	0	-83.726	-72.742	-1.226	B5-03822-P03-CH0	2799400	OK	0.7589982	-0.164252	-0.6300341	0	-98.954	-54.702	4.882	B5-03822-P03-CH1	2799400	OK	0.7696502	-0.6363361	0.0521049	0	-102.07	-19.332	-0.336	B5-03822-P04-CH0	2799400	OK	0.726247	0.4547311	-0.5155433	0	-130.211	-46.829	18.887	B5-03822-P04-CH1	2799400	OK	0.74373	-0.6636263	0.0804095	0	-116.367	-38.678	-6.213	NA
0.479608163265306	B5-03822-P01-CH0	2799408	OK	0.1952244	0.0374211	0.069141	-0.9776025	104.816	-61.538	-282.764	B5-03822-P02-CH0	2799408	OK	0.7575681	0.1649633	-0.6315676	0	-88.368	-94.526	3.526	B5-03822-P02-CH1	2799408	OK	0.7476951	-0.1063006	-0.6554786	0	-84.166	-72.883	-0.625	B5-03822-P03-CH0	2799408	OK	0.7476654	-0.1555042	-0.645612	0	-97.24	-53.032	4.725	B5-03822-P03-CH1	2799408	OK	0.7693299	-0.636687	0.0525474	0	-101.998	-19.575	-0.144	B5-03822-P04-CH0	2799408	OK	0.7268159	0.4539042	-0.5154703	0	-130.088	-46.836	18.905	B5-03822-P04-CH1	2799408	OK	0.7443888	-0.6631624	0.0781083	0	-116.053	-38.19	-6.213	NA
0.4896	B5-03822-P01-CH0	2799416	OK	0.1954607	0.0371721	0.0697573	-0.977521	104.804	-61.416	-282.791	B5-03822-P02-CH0	2799416	OK	0.7574165	0.1629834	-0.6322632	0	-87.161	-94.515	2.368	B5-03822-P02-CH1	2799416	OK	0.748783	-0.124995	-0.6509227	0	-83.401	-72.633	-0.496	B5-03822-P03-CH0	2799416	OK	0.7398246	-0.1463284	-0.6566944	0	-96.44	-50.485	1.115	B5-03822-P03-CH1	2799416	OK	0.7688059	-0.6373111	0.0526504	0	-102.11	-19.907	0.314	B5-03822-P04-CH0	2799416	OK	0.7343005	0.4481304	-0.5098842	0	-128.046	-46.836	20.036	B5-03822-P04-CH1	2799416	OK	0.7447825	-0.663031	0.0754251	0	-116.025	-37.623	-6.747	NA
0.499591836734694	B5-03822-P01-CH0	2799424	OK	0.1955155	0.0367916	0.0700382	-0.9775043	104.704	-61.379	-282.914	B5-03822-P02-CH0	2799424	OK	0.7526268	0.1599938	-0.6387135	0	-86.442	-94.832	2.058	B5-03822-P02-CH1	2799424	OK	0.7495776	-0.1406528	-0.6468	0	-82.132	-72.018	-0.204	B5-03822-P03-CH0	2799424	OK	0.7333299	-0.1425227	-0.6647665	0	-96.202	-51.88	3.151	B5-03822-P03-CH1	2799424	OK	0.7681325	-0.6381638	0.0521488	0	-101.957	-20.04	0.469	B5-03822-P04-CH0	2799424	OK	0.7347404	0.4492918	-0.5082257	0	-127.573	-45.443	20.505	B5-03822-P04-CH1	2799424	OK	0.7445238	-0.6636197	0.0727545	0	-115.384	-37.387	-7.294	NA
0.509583673469388	B5-03822-P01-CH0	2799432	OK	0.1956255	0.0367555	0.0699089	-0.9774929	104.625	-61.271	-282.816	B5-03822-P02-CH0	2799432	OK	0.7443309	0.1568419	-0.6491319	0	-85.304	-94.088	1.511	B5-03822-P02-CH1	2799432	OK	0.745638	-0.1578443	-0.6473864	0	-83.057	-71.582	-1.386	B5-03822-P03-CH0	2799432	OK	0.7297061	-0.141073	-0.6690496	0	-96.2	-52.433	3.074	B5-03822-P03-CH1	2799432	OK	0.7674051	-0.6391318	0.0509907	0	-101.871	-19.778	0.079	B5-03822-P04-CH0	2799432	OK	0.7367145	0.4477637	-0.5067144	0	-126.732	-44.561	19.676	B5-03822-P04-CH1	2799432	OK	0.7441853	-0.6642699	0.0702403	0	-115.109	-37.096	-7.318	NA
0.519575510204082	B5-03822-P01-CH0	2799440	OK	0.1958576	0.0365187	0.0703412	-0.9774243	104.516	-61.133	-282.71	B5-03822-P02-CH0	2799440	OK	0.7355122	0.1480302	-0.6611421	0	-83.239	-93.954	0.371	B5-03822-P02-CH1	2799440	OK	0.7429103	-0.1729271	-0.6466687	0	-82.669	-71.205	-2.951	B5-03822-P03-CH0	2799440	OK	0.7301162	-0.1415954	-0.6684916	0	-94.711	-52.14	2.093	B5-03822-P03-CH1	2799440	OK	0.7669343	-0.6397635	0.0501449	0	-101.738	-19.829	0.145	B5-03822-P04-CH0	2799440	OK	0.7361271	0.4440469	-0.5108222	0	-127.491	-44.412	18.987	B5-03822-P04-CH1	2799440	OK	0.7441641	-0.6644625	0.068625	0	-114.898	-37.093	-6.888	NA
0.529567346938776	B5-03822-P01-CH0	2799448	OK	0.1959713	0.0366118	0.0698686	-0.9774319	104.547	-61.156	-282.615	B5-03822-P02-CH0	2799448	OK	0.7256745	0.135636	-0.6745364	0	-80.756	-92.529	-2.078	B5-03822-P02-CH1	2799448	OK	0.740598	-0.189352	-0.6447173	0	-81.606	-71.159	-3.097	B5-03822-P03-CH0	2799448	OK	0.7299275	-0.1458456	-0.6677836	0	-94.586	-52.251	2.413	B5-03822-P03-CH1	2799448	OK	0.7657551	-0.6412615	0.049019	0	-101.604	-20.154	0.118	B5-03822-P04-CH0	2799448	OK	0.7364505	0.440188	-0.5136879	0	-128.152	-43.856	18.174	B5-03822-P04-CH1	2799448	OK	0.7439968	-0.6649694	0.0654559	0	-114.347	-36.294	-8.358	NA
0.539559183673469	B5-03822-P01-CH0	2799456	OK	0.1958459	0.036327	0.0698203	-0.9774711	104.447	-61.146	-282.676	B5-03822-P02-CH0	2799456	OK	0.7148421	0.1192479	-0.6890433	0	-79.223	-92.667	-3.606	B5-03822-P02-CH1	2799456	OK	0.7383317	-0.2036143	-0.6429677	0	-80.241	-71.106	-1.782	B5-03822-P03-CH0	2799456	OK	0.7329867	-0.1540712	-0.6625651	0	-94.929	-51.115	1.64	B5-03822-P03-CH1	2799456	OK	0.7653016	-0.641978	0.0466665	0	-101.264	-19.947	0.05	B5-03822-P04-CH0	2799456	OK	0.7367812	0.4395811	-0.5137333	0	-127.805	-43.063	18.47	B5-03822-P04-CH1	2799456	OK	0.7435787	-0.6656165	0.0636031	0	-113.589	-36.309	-8.446	NA
0.549551020408163	B5-03822-P01-CH0	2799464	OK	0.1959156	0.0360299	0.0699107	-0.9774617	104.329	-61.12	-282.65	B5-03822-P02-CH0	2799464	OK	0.704781	0.1064027	-0.7014002	0	-77.235	-91.972	-3.599	B5-03822-P02-CH1	2799464	OK	0.7315087	-0.2149029	-0.6470794	0	-80.475	-69.829	-3.461	B5-03822-P03-CH0	2799464	OK	0.7368552	-0.1767321	-0.6525413	0	-96.117	-51.64	2.107	B5-03822-P03-CH1	2799464	OK	0.7647481	-0.6427466	0.0451348	0	-101.25	-19.975	-0.109	B5-03822-P04-CH0	2799464	OK	0.7377945	0.4365482	-0.514864	0	-127.236	-43.643	19.141	B5-03822-P04-CH1	2799464	OK	0.743683	-0.6656686	0.0618131	0	-113.383	-36.012	-8.589	NA
0.559542857142857	B5-03822-P01-CH0	2799472	OK	0.1959153	0.0356122	0.0707755	-0.9774149	104.262	-61.07	-282.801	B5-03822-P02-CH0	2799472	OK	0.6978048	0.0990616	-0.7094048	0	-76.185	-91.839	-3.882	B5-03822-P02-CH1	2799472	OK	0.7261546	-0.2131141	-0.653668	0	-77.878	-69.391	-3.787	B5-03822-P03-CH0	2799472	OK	0.7435019	-0.2141844	-0.6335061	0	-95.689	-51.108	1.916	B5-03822-P03-CH1	2799472	OK	0.7647624	-0.6428533	0.043337	0	-101.219	-19.957	-0.259	B5-03822-P04-CH0	2799472	OK	0.7383713	0.4368467	-0.5137828	0	-126.94	-44.561	19.318	B5-03822-P04-CH1	2799472	OK	0.7444916	-0.6649259	0.0600478	0	-113.316	-35.568	-8.951	NA
0.569534693877551	B5-03822-P01-CH0	2799480	OK	0.1958168	0.0357902	0.0703845	-0.9774563	104.264	-61.016	-282.631	B5-03822-P02-CH0	2799480	OK	0.6939291	0.0929335	-0.7140208	0	-76.169	-91.997	-4.38	B5-03822-P02-CH1	2799480	OK	0.719701	-0.2001581	-0.6648061	0	-76.11	-69.378	-4.81	B5-03822-P03-CH0	2799480	OK	0.7506418	-0.2479218	-0.6124309	0	-95.091	-51.834	1.887	B5-03822-P03-CH1	2799480	OK	0.7641304	-0.643746	0.0411795	0	-101.242	-19.786	-0.476	B5-03822-P04-CH0	2799480	OK	0.7378759	0.4374825	-0.5139536	0	-127.767	-45.868	18.917	B5-03822-P04-CH1	2799480	OK	0.7445168	-0.6649832	0.0590932	0	-113.446	-35.223	-9.308	NA
0.579526530612245	B5-03822-P01-CH0	2799488	OK	0.1957756	0.0357333	0.0701607	-0.9774827	104.22	-60.986	-282.608	B5-03822-P02-CH0	2799488	OK	0.6979979	0.0917042	-0.7102037	0	-75.083	-91.114	-5.749	B5-03822-P02-CH1	2799488	OK	0.715447	-0.1866713	-0.6732677	0	-76.16	-69.912	-3.273	B5-03822-P03-CH0	2799488	OK	0.764483	-0.280351	-0.5804904	0	-95.497	-53.383	4.157	B5-03822-P03-CH1	2799488	OK	0.7637046	-0.6443615	0.0394144	0	-101.377	-19.752	-0.24	B5-03822-P04-CH0	2799488	OK	0.7370082	0.4446509	-0.5090231	0	-127.24	-45.125	18.962	B5-03822-P04-CH1	2799488	OK	0.7444274	-0.6651503	0.0583346	0	-113.288	-35.113	-9.02	NA
0.589518367346939	B5-03822-P01-CH0	2799496	OK	0.1957124	0.0360534	0.0699507	-0.9774987	104.347	-60.914	-282.678	B5-03822-P02-CH0	2799496	OK	0.7059264	0.092079	-0.7022744	0	-77.064	-92.735	-4.194	B5-03822-P02-CH1	2799496	OK	0.714587	-0.1774781	-0.6766587	0	-77.432	-68.867	-5.159	B5-03822-P03-CH0	2799496	OK	0.7830789	-0.3062835	-0.5412743	0	-96.651	-54.913	4.639	B5-03822-P03-CH1	2799496	OK	0.7637983	-0.6443814	0.0372129	0	-101.473	-19.263	-0.328	B5-03822-P04-CH0	2799496	OK	0.7361828	0.4484081	-0.5069172	0	-127.392	-45.459	19.814	B5-03822-P04-CH1	2799496	OK	0.7443628	-0.6652277	0.0582768	0	-113.311	-35.172	-8.578	NA
0.599510204081633	B5-03822-P01-CH0	2799504	OK	0.1959942	0.0364631	0.0697687	-0.97744	104.49	-60.801	-282.647	B5-03822-P02-CH0	2799504	OK	0.7162057	0.0956654	-0.6913013	0	-79.494	-92.23	-2.918	B5-03822-P02-CH1	2799504	OK	0.7137544	-0.1642206	-0.6808717	0	-77.849	-69.334	-3.585	B5-03822-P03-CH0	2799504	OK	0.8016978	-0.3179893	-0.5061259	0	-97.531	-55.495	6.656	B5-03822-P03-CH1	2799504	OK	0.7637099	-0.6445599	0.0359139	0	-101.687	-19.199	-0.128	B5-03822-P04-CH0	2799504	OK	0.7352047	0.4516133	-0.5054893	0	-127.837	-45.645	20.168	B5-03822-P04-CH1	2799504	OK	0.7443873	-0.6651359	0.0590069	0	-113.616	-35.322	-8.047	NA
0.609502040816327	B5-03822-P01-CH0	2799512	OK	0.1960125	0.0365096	0.0698957	-0.9774256	104.569	-60.76	-282.746	B5-03822-P02-CH0	2799512	OK	0.7261437	0.0973422	-0.6806172	0	-82.601	-93.23	-0.998	B5-03822-P02-CH1	2799512	OK	0.7110464	-0.1381196	-0.6894462	0	-77.773	-69.646	-5.181	B5-03822-P03-CH0	2799512	OK	0.8162232	-0.3212346	-0.4801959	0	-99.376	-55.439	7.685	B5-03822-P03-CH1	2799512	OK	0.7639058	-0.6444072	0.0344569	0	-101.918	-19.141	0.113	B5-03822-P04-CH0	2799512	OK	0.7341274	0.4586367	-0.5007089	0	-127.609	-44.249	18.749	B5-03822-P04-CH1	2799512	OK	0.7445582	-0.664874	0.0597959	0	-113.752	-35.48	-7.896	NA
0.61949387755102	B5-03822-P01-CH0	2799520	OK	0.1959694	0.03583	0.0705712	-0.9774108	104.367	-60.702	-282.984	B5-03822-P02-CH0	2799520	OK	0.7377141	0.0949471	-0.6684033	0	-84.148	-94.699	-1.019	B5-03822-P02-CH1	2799520	OK	0.7095066	-0.09816	-0.6978288	0	-77.288	-71.15	-1.884	B5-03822-P03-CH0	2799520	OK	0.8299385	-0.3263633	-0.4524258	0	-97.508	-57.965	9.084	B5-03822-P03-CH1	2799520	OK	0.7644788	-0.6438107	0.0328616	0	-101.715	-18.87	-0.044	B5-03822-P04-CH0	2799520	OK	0.7327461	0.4610084	-0.5005541	0	-127.798	-44.324	20.059	B5-03822-P04-CH1	2799520	OK	0.7451771	-0.6641392	0.0602511	0	-113.59	-35.389	-8.045	NA
0.629485714285714	B5-03822-P01-CH0	2799528	OK	0.1958847	0.0358067	0.0707434	-0.9774162	104.443	-60.67	-283.141	B5-03822-P02-CH0	2799528	OK	0.746897	0.0966344	-0.6578805	0	-84.892	-94.344	-0.422	B5-03822-P02-CH1	2799528	OK	0.7111988	-0.0687638	-0.6996197	0	-78.452	-71.055	-2.805	B5-03822-P03-CH0	2799528	OK	0.8367573	-0.3290991	-0.4376426	0	-98.6	-59.465	10.236	B5-03822-P03-CH1	2799528	OK	0.7647	-0.6436131	0.0315603	0	-101.784	-18.756	-0.056	B5-03822-P04-CH0	2799528	OK	0.7321507	0.4607204	-0.5016893	0	-128.405	-44.828	19.906	B5-03822-P04-CH1	2799528	OK	0.7457239	-0.6634124	0.0614804	0	-114.05	-35.607	-6.723	NA
0.639477551020408	B5-03822-P01-CH0	2799536	OK	0.195771	0.0362737	0.0698688	-0.9774847	104.62	-60.767	-283.059	B5-03822-P02-CH0	2799536	OK	0.7516016	0.0993502	-0.6520924	0	-86.468	-94.29	1.017	B5-03822-P02-CH1	2799536	OK	0.7144338	-0.0447492	-0.6982706	0	-78.549	-72.038	-1.512	B5-03822-P03-CH0	2799536	OK	0.8410714	-0.3319413	-0.4270993	0	-99.215	-60.328	11.023	B5-03822-P03-CH1	2799536	OK	0.7645653	-0.6438264	0.0304553	0	-102.061	-18.548	-0.3	B5-03822-P04-CH0	2799536	OK	0.7328849	0.4592665	-0.5019501	0	-128.235	-45.173	20.473	B5-03822-P04-CH1	2799536	OK	0.7454739	-0.6635808	0.0626827	0	-114.581	-35.655	-6.67	NA
0.649469387755102	B5-03822-P01-CH0	2799544	OK	0.1956402	0.0362942	0.0696734	-0.977524	104.7	-60.791	-283.194	B5-03822-P02-CH0	2799544	OK	0.7552125	0.1026007	-0.6474004	0	-87.697	-94.75	2.086	B5-03822-P02-CH1	2799544	OK	0.7154437	-0.0226942	-0.6983017	0	-79.416	-72.743	-1.715	B5-03822-P03-CH0	2799544	OK	0.8449939	-0.3354901	-0.4164513	0	-98.15	-61.508	10.877	B5-03822-P03-CH1	2799544	OK	0.7650301	-0.643338	0.0290695	0	-101.978	-18.177	-0.492	B5-03822-P04-CH0	2799544	OK	0.7333918	0.457605	-0.5027267	0	-128.521	-45.556	19.106	B5-03822-P04-CH1	2799544	OK	0.7453007	-0.6636257	0.0642477	0	-114.803	-36.037	-6.365	NA
0.659461224489796	B5-03822-P01-CH0	2799552	OK	0.1955149	0.0361165	0.0692287	-0.9775873	104.55	-60.734	-283.012	B5-03822-P02-CH0	2799552	OK	0.7575094	0.1076025	-0.6438954	0	-88.664	-95.108	4.179	B5-03822-P02-CH1	2799552	OK	0.7192454	-0.0067061	-0.6947237	0	-78.767	-72.755	-2.873	B5-03822-P03-CH0	2799552	OK	0.844808	-0.3381483	-0.4146748	0	-99.513	-61.277	10.42	B5-03822-P03-CH1	2799552	OK	0.7653003	-0.6430403	0.0285425	0	-101.944	-17.875	-0.578	B5-03822-P04-CH0	2799552	OK	0.7345272	0.4560997	-0.5024369	0	-127.836	-44.478	19.591	B5-03822-P04-CH1	2799552	OK	0.7449625	-0.6638401	0.0659331	0	-115.051	-36.171	-6.359	NA
0.66945306122449	B5-03822-P01-CH0	2799560	OK	0.1955499	0.0358034	0.0691997	-0.9775939	104.472	-60.791	-283.06	B5-03822-P02-CH0	2799560	OK	0.7605916	0.1128273	-0.6393516	0	-89.472	-95.329	3.248	B5-03822-P02-CH1	2799560	OK	0.7186544	0.0012121	-0.6953663	0	-80.156	-73.54	-1.894	B5-03822-P03-CH0	2799560	OK	0.8448145	-0.345769	-0.4083285	0	-98.919	-62.367	11.259	B5-03822-P03-CH1	2799560	OK	0.7660234	-0.6421853	0.0283925	0	-101.892	-17.534	-0.988	B5-03822-P04-CH0	2799560	OK	0.7341026	0.4569316	-0.5023016	0	-127.926	-44.719	19.847	B5-03822-P04-CH1	2799560	OK	0.7443341	-0.6642581	0.0687608	0	-115.188	-37.237	-5.518	NA
0.679444897959184	B5-03822-P01-CH0	2799568	OK	0.1956912	0.0355883	0.0694691	-0.9775543	104.489	-60.824	-283.208	B5-03822-P02-CH0	2799568	OK	0.7640102	0.1210302	-0.6337509	0	-89.639	-96.197	2.612	B5-03822-P02-CH1	2799568	OK	0.7180647	0.0056542	-0.6959534	0	-80.138	-73.058	-1.117	B5-03822-P03-CH0	2799568	OK	0.8431867	-0.3502769	-0.4078508	0	-99.322	-61.81	10.306	B5-03822-P03-CH1	2799568	OK	0.7665954	-0.6414809	0.0288756	0	-101.764	-17.644	-1.185	B5-03822-P04-CH0	2799568	OK	0.7336315	0.4571294	-0.5028096	0	-128.149	-45.125	20.04	B5-03822-P04-CH1	2799568	OK	0.7448505	-0.6634908	0.0705521	0	-115.464	-37.284	-5.567	NA
0.689436734693878	B5-03822-P01-CH0	2799576	OK	0.195858	0.0351565	0.0698209	-0.9775115	104.322	-60.793	-283.091	B5-03822-P02-CH0	2799576	OK	0.7665083	0.1325522	-0.6284067	0	-89.499	-95.154	3.351	B5-03822-P02-CH1	2799576	OK	0.71718	0.007355	-0.6968492	0	-79.626	-72.262	-1.286	B5-03822-P03-CH0	2799576	OK	0.8425372	-0.3521306	-0.4075967	0	-98.282	-61.418	10.229	B5-03822-P03-CH1	2799576	OK	0.7673752	-0.6405224	0.0294353	0	-101.763	-17.482	-1.606	B5-03822-P04-CH0	2799576	OK	0.7331086	0.4581248	-0.5026664	0	-128.219	-44.964	19.534	B5-03822-P04-CH1	2799576	OK	0.7448734	-0.6632276	0.0727517	0	-115.58	-37.754	-5.321	NA
0.699428571428572	B5-03822-P01-CH0	2799584	OK	0.1954079	0.0347909	0.069509	-0.9776369	104.13	-60.826	-283.011	B5-03822-P02-CH0	2799584	OK	0.7677945	0.1427765	-0.624585	0	-90.454	-95.606	4.587	B5-03822-P02-CH1	2799584	OK	0.7159216	0.0091929	-0.6981201	0	-79.315	-73.064	-2.222	B5-03822-P03-CH0	2799584	OK	0.8405493	-0.3480087	-0.4151709	0	-98.381	-60.409	9.883	B5-03822-P03-CH1	2799584	OK	0.7676267	-0.6402211	0.0294312	0	-101.559	-17.295	-1.932	B5-03822-P04-CH0	2799584	OK	0.7327182	0.4602652	-0.5012784	0	-128.287	-44.426	19.015	B5-03822-P04-CH1	2799584	OK	0.7443218	-0.6636843	0.074217	0	-115.662	-38.169	-5.159	NA
0.709420408163265	B5-03822-P01-CH0	2799592	OK	0.195583	0.034721	0.0698254	-0.9775818	104.147	-60.806	-282.96	B5-03822-P02-CH0	2799592	OK	0.7702006	0.1577111	-0.6179953	0	-90.264	-94.714	3.909	B5-03822-P02-CH1	2799592	OK	0.7153567	0.0109368	-0.6986739	0	-78.779	-72.408	-2.634	B5-03822-P03-CH0	2799592	OK	0.8411304	-0.341321	-0.419523	0	-97.785	-59.9	8.858	B5-03822-P03-CH1	2799592	OK	0.7684048	-0.6392346	0.0305488	0	-101.525	-17.203	-2.192	B5-03822-P04-CH0	2799592	OK	0.7320495	0.4625279	-0.5001715	0	-128.344	-44.231	18.789	B5-03822-P04-CH1	2799592	OK	0.7445482	-0.6633241	0.0751614	0	-115.787	-38.182	-5.632	NA
0.719412244897959	B5-03822-P01-CH0	2799600	OK	0.1954602	0.0356253	0.0687083	-0.977653	104.427	-60.867	-282.782	B5-03822-P02-CH0	2799600	OK	0.7695264	0.1681286	-0.6160859	0	-92.244	-95.402	3.539	B5-03822-P02-CH1	2799600	OK	0.7143038	0.0129393	-0.6997161	0	-79.094	-73.25	-2.056	B5-03822-P03-CH0	2799600	OK	0.8387844	-0.3339683	-0.4300069	0	-98.984	-59.572	8.956	B5-03822-P03-CH1	2799600	OK	0.7681664	-0.6394645	0.0317107	0	-101.906	-17.279	-2.343	B5-03822-P04-CH0	2799600	OK	0.729321	0.4780813	-0.4894171	0	-128.981	-45.116	19.749	B5-03822-P04-CH1	2799600	OK	0.7436525	-0.6642092	0.0762043	0	-116.167	-38.514	-5.457	NA
0.729404081632653	B5-03822-P01-CH0	2799608	OK	0.1954904	0.0353421	0.0685429	-0.9776688	104.266	-60.888	-282.709	B5-03822-P02-CH0	2799608	OK	0.7721881	0.1761536	-0.6104879	0	-91.27	-94.998	5.488	B5-03822-P02-CH1	2799608	OK	0.7146888	0.0180516	-0.6992096	0	-78.607	-73.407	-3.133	B5-03822-P03-CH0	2799608	OK	0.8384324	-0.3289965	-0.4345024	0	-98.36	-59.828	9.838	B5-03822-P03-CH1	2799608	OK	0.768969	-0.6384287	0.0330967	0	-101.96	-16.923	-2.686	B5-03822-P04-CH0	2799608	OK	0.7282907	0.4888449	-0.4802326	0	-128.577	-45.037	19.095	B5-03822-P04-CH1	2799608	OK	0.7433427	-0.6645204	0.0765132	0	-116.057	-38.465	-6.264	NA
0.739395918367347	B5-03822-P01-CH0	2799616	OK	0.1954472	0.0351029	0.069097	-0.9776471	104.204	-60.876	-282.854	B5-03822-P02-CH0	2799616	OK	0.7726384	0.1773267	-0.6095779	0	-91.496	-95.105	5.694	B5-03822-P02-CH1	2799616	OK	0.7136033	0.0214584	-0.7002213	0	-78.677	-72.474	-3.425	B5-03822-P03-CH0	2799616	OK	0.8372759	-0.3244269	-0.4401321	0	-97.997	-59.462	8.861	B5-03822-P03-CH1	2799616	OK	0.7696145	-0.6375566	0.0348583	0	-101.939	-17.129	-2.382	B5-03822-P04-CH0	2799616	OK	0.7274014	0.5055353	-0.4640272	0	-127.479	-43.829	18.987	B5-03822-P04-CH1	2799616	OK	0.7436066	-0.6642106	0.0766382	0	-116.02	-38.523	-6.403	NA
0.749387755102041	B5-03822-P01-CH0	2799624	OK	0.1956789	0.0351978	0.0691339	-0.9775947	104.164	-60.839	-282.702	B5-03822-P02-CH0	2799624	OK	0.7722405	0.1714585	-0.611757	0	-92.163	-95.501	5.721	B5-03822-P02-CH1	2799624	OK	0.7136637	0.0236293	-0.7000899	0	-78.179	-72.609	-3.095	B5-03822-P03-CH0	2799624	OK	0.8344981	-0.3220188	-0.4471206	0	-98.299	-59.764	8.816	B5-03822-P03-CH1	2799624	OK	0.7697407	-0.637268	0.0372667	0	-102.075	-17.527	-2.094	B5-03822-P04-CH0	2799624	OK	0.7276973	0.5136826	-0.4545182	0	-126.65	-44.514	20.748	B5-03822-P04-CH1	2799624	OK	0.7438367	-0.6639913	0.0763055	0	-115.745	-38.141	-6.874	NA
0.759379591836735	B5-03822-P01-CH0	2799632	OK	0.1958331	0.0356238	0.068762	-0.9775746	104.341	-60.969	-282.728	B5-03822-P02-CH0	2799632	OK	0.7737002	0.1590976	-0.6132504	0	-92.197	-96.72	6.59	B5-03822-P02-CH1	2799632	OK	0.7132443	0.0266924	-0.7004071	0	-79.253	-73.852	-2.509	B5-03822-P03-CH0	2799632	OK	0.8339076	-0.3198517	-0.44977	0	-98.073	-59.918	8.038	B5-03822-P03-CH1	2799632	OK	0.7698192	-0.6370955	0.0385708	0	-102.158	-17.714	-2.196	B5-03822-P04-CH0	2799632	OK	0.7288588	0.516901	-0.4489746	0	-126.136	-44.372	19.326	B5-03822-P04-CH1	2799632	OK	0.7432702	-0.6645832	0.0766717	0	-115.657	-38.609	-6.582	NA
0.769371428571429	B5-03822-P01-CH0	2799640	OK	0.1959217	0.0359488	0.0688788	-0.9775367	104.459	-60.94	-282.764	B5-03822-P02-CH0	2799640	OK	0.7749605	0.1519494	-0.6134718	0	-92.028	-96.18	6.152	B5-03822-P02-CH1	2799640	OK	0.7150108	0.0328359	-0.6983419	0	-79.462	-74.027	-2.902	B5-03822-P03-CH0	2799640	OK	0.8347876	-0.3184366	-0.4491411	0	-97.519	-60.693	8.947	B5-03822-P03-CH1	2799640	OK	0.7700863	-0.6367369	0.039157	0	-102.287	-17.861	-1.979	B5-03822-P04-CH0	2799640	OK	0.7292104	0.5155101	-0.4500018	0	-125.929	-45.042	20.275	B5-03822-P04-CH1	2799640	OK	0.7436286	-0.6642237	0.0763112	0	-115.868	-38.445	-6.11	NA
0.779363265306123	B5-03822-P01-CH0	2799648	OK	0.1957222	0.0359965	0.0688626	-0.9775761	104.348	-60.89	-282.518	B5-03822-P02-CH0	2799648	OK	0.7770715	0.1403866	-0.6135564	0	-91.648	-96.142	4.892	B5-03822-P02-CH1	2799648	OK	0.7171977	0.0401318	-0.6957132	0	-79.599	-74.16	-1.237	B5-03822-P03-CH0	2799648	OK	0.8345255	-0.3162283	-0.4511838	0	-98.395	-60.926	9.159	B5-03822-P03-CH1	2799648	OK	0.7706772	-0.6360363	0.038915	0	-102.403	-17.385	-2.362	B5-03822-P04-CH0	2799648	OK	0.728985	0.5184869	-0.4469364	0	-125.159	-43.161	19.467	B5-03822-P04-CH1	2799648	OK	0.7433319	-0.6646515	0.0754722	0	-115.581	-38.426	-6.281	NA
0.789355102040816	B5-03822-P01-CH0	2799656	OK	0.1955288	0.0364299	0.0682642	-0.9776407	104.483	-60.968	-282.56	B5-03822-P02-CH0	2799656	OK	0.7791407	0.1276461	-0.6137151	0	-91.163	-96.302	3.211	B5-03822-P02-CH1	2799656	OK	0.7182484	0.0447587	-0.6943457	0	-80.458	-74.954	-2.166	B5-03822-P03-CH0	2799656	OK	0.8352584	-0.3166575	-0.4495236	0	-98.635	-61.737	9.777	B5-03822-P03-CH1	2799656	OK	0.7707039	-0.6360083	0.0388457	0	-102.506	-17.452	-2.275	B5-03822-P04-CH0	2799656	OK	0.7291588	0.5141875	-0.4515957	0	-125.497	-43.697	20.475	B5-03822-P04-CH1	2799656	OK	0.7431724	-0.6650212	0.0737666	0	-115.497	-38.085	-6.427	NA
0.79934693877551	B5-03822-P01-CH0	2799664	OK	0.1959035	0.0366629	0.0684591	-0.9775433	104.584	-60.977	-282.481	B5-03822-P02-CH0	2799664	OK	0.7780912	0.1133905	-0.6178322	0	-91.517	-97.345	3.975	B5-03822-P02-CH1	2799664	OK	0.7186222	0.0507175	-0.6935487	0	-80.38	-74.768	-2.116	B5-03822-P03-CH0	2799664	OK	0.8361637	-0.3196327	-0.4457188	0	-99.122	-61.696	9.379	B5-03822-P03-CH1	2799664	OK	0.7716432	-0.6348504	0.0391364	0	-102.644	-17.242	-2.457	B5-03822-P04-CH0	2799664	OK	0.7296854	0.5063991	-0.459477	0	-126.258	-45.053	20.362	B5-03822-P04-CH1	2799664	OK	0.7433975	-0.6648182	0.0733276	0	-115.185	-38.017	-6.471	NA
0.809338775510204	B5-03822-P01-CH0	2799672	OK	0.1958116	0.0367788	0.0682188	-0.9775742	104.649	-61.103	-282.553	B5-03822-P02-CH0	2799672	OK	0.7770043	0.102815	-0.6210421	0	-91.454	-97.404	3.772	B5-03822-P02-CH1	2799672	OK	0.7189802	0.0552054	-0.6928346	0	-80.169	-75.262	-2.488	B5-03822-P03-CH0	2799672	OK	0.8391686	-0.3250917	-0.4360177	0	-98.37	-61.6	8.914	B5-03822-P03-CH1	2799672	OK	0.7721731	-0.6342225	0.0388642	0	-102.575	-17.125	-2.57	B5-03822-P04-CH0	2799672	OK	0.7290609	0.5005649	-0.466803	0	-127.177	-44.717	20.073	B5-03822-P04-CH1	2799672	OK	0.743361	-0.6649308	0.0726739	0	-115.18	-38.035	-6.181	NA
0.819330612244898	B5-03822-P01-CH0	2799680	OK	0.1959677	0.0363161	0.0688491	-0.977516	104.479	-61.108	-282.561	B5-03822-P02-CH0	2799680	OK	0.7765194	0.0917695	-0.6233747	0	-91.3	-97.591	3.904	B5-03822-P02-CH1	2799680	OK	0.7179546	0.0565711	-0.6937874	0	-80.292	-75.741	-2.881	B5-03822-P03-CH0	2799680	OK	0.8407115	-0.3336369	-0.4264863	0	-97.994	-62.817	8.297	B5-03822-P03-CH1	2799680	OK	0.773296	-0.6328215	0.0393735	0	-102.429	-16.924	-2.891	B5-03822-P04-CH0	2799680	OK	0.7284279	0.49041	-0.4784254	0	-128.313	-45.601	20.344	B5-03822-P04-CH1	2799680	OK	0.744179	-0.664081	0.072069	0	-115.121	-37.625	-6.312	NA
0.829322448979592	B5-03822-P01-CH0	2799688	OK	0.1958374	0.0364427	0.0686442	-0.9775519	104.464	-61.126	-282.489	B5-03822-P02-CH0	2799688	OK	0.7771819	0.0819867	-0.6239123	0	-90.738	-98.037	4.752	B5-03822-P02-CH1	2799688	OK	0.717374	0.0575292	-0.694309	0	-79.64	-75.764	-1.063	B5-03822-P03-CH0	2799688	OK	0.8409977	-0.3395725	-0.4212047	0	-98.851	-63.201	8.885	B5-03822-P03-CH1	2799688	OK	0.7757948	-0.6292923	0.0461913	0	-102.587	-17.932	-2.929	B5-03822-P04-CH0	2799688	OK	0.7308055	0.4783246	-0.4869588	0	-128.666	-47.539	21.366	B5-03822-P04-CH1	2799688	OK	0.7439336	-0.6643602	0.0720301	0	-114.949	-37.705	-6.145	NA
0.839314285714286	B5-03822-P01-CH0	2799696	OK	0.1961691	0.0362908	0.0691324	-0.9774566	104.377	-61.053	-282.404	B5-03822-P02-CH0	2799696	OK	0.7757923	0.0749411	-0.6265223	0	-91.07	-98.179	2.885	B5-03822-P02-CH1	2799696	OK	0.7165282	0.0578175	-0.6951579	0	-79.104	-74.713	-2.582	B5-03822-P03-CH0	2799696	OK	0.8438044	-0.3452805	-0.410823	0	-97.681	-63.809	9.071	B5-03822-P03-CH1	2799696	OK	0.7739641	-0.6318903	0.0411616	0	-102.191	-17.382	-2.894	B5-03822-P04-CH0	2799696	OK	0.7325198	0.4643551	-0.4977842	0	-129.234	-49.411	22.834	B5-03822-P04-CH1	2799696	OK	0.7444948	-0.6637399	0.0719498	0	-114.872	-37.428	-6.073	NA
0.84930612244898	B5-03822-P01-CH0	2799704	OK	0.1960536	0.0363278	0.0697181	-0.9774368	104.403	-60.972	-282.419	B5-03822-P02-CH0	2799704	OK	0.776478	0.0708055	-0.6261537	0	-90.376	-97.904	3.068	B5-03822-P02-CH1	2799704	OK	0.7161494	0.0600797	-0.6953564	0	-79.047	-75.337	-2.44	B5-03822-P03-CH0	2799704	OK	0.8440184	-0.3512771	-0.4052622	0	-97.767	-64.361	8.588	B5-03822-P03-CH1	2799704	OK	0.7746577	-0.6309951	0.0418408	0	-102.339	-17.376	-2.779	B5-03822-P04-CH0	2799704	OK	0.7324117	0.4671948	-0.4952799	0	-129.149	-46.304	19.245	B5-03822-P04-CH1	2799704	OK	0.744997	-0.6631831	0.0718856	0	-114.982	-37.359	-5.707	NA
0.859297959183674	B5-03822-P01-CH0	2799712	OK	0.1959008	0.0362816	0.0697399	-0.9774676	104.369	-61.023	-282.42	B5-03822-P02-CH0	2799712	OK	0.7774703	0.0672601	-0.6253127	0	-89.828	-98.432	3.432	B5-03822-P02-CH1	2799712	OK	0.7165664	0.0640137	-0.6945753	0	-79.087	-75.631	-2.875	B5-03822-P03-CH0	2799712	OK	0.8444897	-0.3539468	-0.4019438	0	-97.671	-64.829	9.625	B5-03822-P03-CH1	2799712	OK	0.7746754	-0.6309195	0.0426461	0	-102.324	-17.616	-2.701	B5-03822-P04-CH0	2799712	OK	0.7330998	0.4646527	-0.4966513	0	-128.883	-45.126	18.839	B5-03822-P04-CH1	2799712	OK	0.7450795	-0.6630613	0.0721543	0	-115.066	-37.521	-5.316	NA
0.869289795918368	B5-03822-P01-CH0	2799720	OK	0.1954758	0.0361484	0.0697289	-0.9775584	104.29	-61.126	-282.353	B5-03822-P02-CH0	2799720	OK	0.7754441	0.0677545	-0.6277705	0	-91.05	-98.872	3.404	B5-03822-P02-CH1	2799720	OK	0.7177772	0.057818	-0.6938682	0	-79.225	-74.721	-2.678	B5-03822-P03-CH0	2799720	OK	0.8454416	-0.3560012	-0.39811	0	-97.234	-65.06	9.453	B5-03822-P03-CH1	2799720	OK	0.7745445	-0.6309972	0.0438555	0	-102.38	-18.045	-2.286	B5-03822-P04-CH0	2799720	OK	0.7329194	0.4577742	-0.5032613	0	-129.526	-45.575	19.338	B5-03822-P04-CH1	2799720	OK	0.7451645	-0.6630801	0.0710958	0	-114.882	-37.193	-6.061	NA
0.879281632653061	B5-03822-P01-CH0	2799728	OK	0.1952558	0.0362237	0.0690512	-0.9776477	104.219	-61.209	-282.197	B5-03822-P02-CH0	2799728	OK	0.7764243	0.0730406	-0.6259635	0	-90.322	-98.393	2.526	B5-03822-P02-CH1	2799728	OK	0.7141284	0.0673845	-0.6967639	0	-79.305	-77.201	-1.775	B5-03822-P03-CH0	2799728	OK	0.845153	-0.3554519	-0.3992122	0	-97.084	-64.847	9.277	B5-03822-P03-CH1	2799728	OK	0.7738846	-0.631714	0.0451668	0	-102.285	-18.333	-2.26	B5-03822-P04-CH0	2799728	OK	0.7351898	0.4474922	-0.5091627	0	-129.997	-47.831	19.292	B5-03822-P04-CH1	2799728	OK	0.7451882	-0.6630775	0.0708714	0	-114.983	-36.909	-5.927	NA
0.889273469387755	B5-03822-P01-CH0	2799736	OK	0.1951567	0.0361346	0.0691699	-0.9776624	104.106	-61.213	-282.047	B5-03822-P02-CH0	2799736	OK	0.7755641	0.0767657	-0.6265838	0	-90.657	-98.386	2.445	B5-03822-P02-CH1	2799736	OK	0.7134049	0.0692797	-0.697319	0	-78.546	-75.636	-3.263	B5-03822-P03-CH0	2799736	OK	0.843998	-0.3525855	-0.4041667	0	-97.676	-64.353	10.606	B5-03822-P03-CH1	2799736	OK	0.7738817	-0.6316619	0.0459384	0	-102.25	-18.149	-2.543	B5-03822-P04-CH0	2799736	OK	0.734165	0.4494771	-0.508893	0	-129.9	-45.992	19.263	B5-03822-P04-CH1	2799736	OK	0.745146	-0.6630584	0.071492	0	-114.81	-37.169	-5.587	NA
0.899265306122449	B5-03822-P01-CH0	2799744	OK	0.1951035	0.0359938	0.0697516	-0.9776368	104.093	-61.243	-282.166	B5-03822-P02-CH0	2799744	OK	0.7764053	0.0802057	-0.6251095	0	-89.91	-98.563	2.379	B5-03822-P02-CH1	2799744	OK	0.7117113	0.0690327	-0.6990719	0	-78.728	-76.637	-2.813	B5-03822-P03-CH0	2799744	OK	0.8441258	-0.3532382	-0.4033292	0	-96.55	-64.845	9.741	B5-03822-P03-CH1	2799744	OK	0.7728092	-0.6329475	0.0462972	0	-103.206	-17.161	-2.959	B5-03822-P04-CH0	2799744	OK	0.7349832	0.4437554	-0.5127191	0	-129.887	-47.568	19.913	B5-03822-P04-CH1	2799744	OK	0.7456502	-0.6624895	0.071508	0	-115.137	-37.095	-5.622	NA
0.909257142857143	B5-03822-P01-CH0	2799752	OK	0.1948125	0.0361968	0.0693459	-0.9777162	104.079	-61.293	-282.034	B5-03822-P02-CH0	2799752	OK	0.7758354	0.0810795	-0.625704	0	-90.079	-99.143	2.907	B5-03822-P02-CH1	2799752	OK	0.7116443	0.0692445	-0.6991191	0	-78.289	-76.309	-3.785	B5-03822-P03-CH0	2799752	OK	0.8416429	-0.3495494	-0.411646	0	-97.349	-63.952	8.988	B5-03822-P03-CH1	2799752	OK	0.7719127	-0.634146	0.0448286	0	-102.821	-17.804	-2.586	B5-03822-P04-CH0	2799752	OK	0.7348667	0.447449	-0.5096669	0	-129.289	-46.412	19.393	B5-03822-P04-CH1	2799752	OK	0.7453635	-0.6628466	0.0711878	0	-115.08	-37.011	-5.643	NA
0.919248979591837	B5-03822-P01-CH0	2799760	OK	0.1947984	0.036207	0.0693258	-0.9777201	104.088	-61.366	-282.118	B5-03822-P02-CH0	2799760	OK	0.7763418	0.0765741	-0.6256435	0	-90.213	-98.48	3.225	B5-03822-P02-CH1	2799760	OK	0.7113427	0.0684279	-0.6995064	0	-78.051	-76.258	-2.829	B5-03822-P03-CH0	2799760	OK	0.8387331	-0.3464427	-0.4201242	0	-97.842	-63.361	9.069	B5-03822-P03-CH1	2799760	OK	0.7729796	-0.6326756	0.0471603	0	-102.374	-18.378	-2.26	B5-03822-P04-CH0	2799760	OK	0.734158	0.4524249	-0.5062843	0	-129.239	-45.225	18.68	B5-03822-P04-CH1	2799760	OK	0.7453384	-0.6628374	0.0715356	0	-115.033	-37.304	-5.372	NA
0.929240816326531	B5-03822-P01-CH0	2799768	OK	0.1949736	0.0363285	0.0694847	-0.9776694	104.126	-61.355	-282.17	B5-03822-P02-CH0	2799768	OK	0.7764177	0.0779902	-0.6253743	0	-90.101	-98.226	2.848	B5-03822-P02-CH1	2799768	OK	0.7103698	0.0657889	-0.7007472	0	-78.485	-77.048	-2.374	B5-03822-P03-CH0	2799768	OK	0.8364589	-0.3458298	-0.4251333	0	-96.629	-63.669	8.331	B5-03822-P03-CH1	2799768	OK	0.7728693	-0.6328175	0.0470642	0	-102.401	-18.415	-2.084	B5-03822-P04-CH0	2799768	OK	0.7347021	0.4512738	-0.5065223	0	-129.314	-46.204	19.081	B5-03822-P04-CH1	2799768	OK	0.745742	-0.662358	0.071769	0	-115.218	-37.154	-5.607	NA
0.939232653061225	B5-03822-P01-CH0	2799776	OK	0.1946397	0.0366914	0.0688144	-0.9777698	104.228	-61.485	-282.166	B5-03822-P02-CH0	2799776	OK	0.7769342	0.0895925	-0.6231744	0	-90.503	-98.805	3.135	B5-03822-P02-CH1	2799776	OK	0.7117543	0.0649211	-0.6994219	0	-77.492	-76.506	-2.265	B5-03822-P03-CH0	2799776	OK	0.8328445	-0.3428246	-0.4345588	0	-96.133	-63.795	8.776	B5-03822-P03-CH1	2799776	OK	0.77257	-0.6332878	0.0456302	0	-102.428	-18.095	-2.461	B5-03822-P04-CH0	2799776	OK	0.7345904	0.4525329	-0.50556	0	-129.383	-46.573	19.462	B5-03822-P04-CH1	2799776	OK	0.7448097	-0.6633526	0.0722619	0	-115.186	-37.865	-5.107	NA
0.949224489795919	B5-03822-P01-CH0	2799784	OK	0.1944031	0.0369567	0.0678444	-0.9778746	104.245	-61.664	-282.075	B5-03822-P02-CH0	2799784	OK	0.7773837	0.0907436	-0.6224469	0	-90.692	-99.202	3.11	B5-03822-P02-CH1	2799784	OK	0.7111535	0.0605555	-0.700424	0	-77.807	-76.586	-2.461	B5-03822-P03-CH0	2799784	OK	0.8293614	-0.338824	-0.4442499	0	-95.845	-63.126	7.262	B5-03822-P03-CH1	2799784	OK	0.7715566	-0.6345669	0.0450034	0	-102.273	-18.522	-2.373	B5-03822-P04-CH0	2799784	OK	0.7350724	0.4520993	-0.5052473	0	-129.274	-46.523	19.531	B5-03822-P04-CH1	2799784	OK	0.7438166	-0.6644513	0.0723971	0	-115.593	-38.122	-5.81	NA
0.959216326530612	B5-03822-P01-CH0	2799792	OK	0.1942783	0.0369629	0.0676794	-0.9779106	104.222	-61.698	-282.03	B5-03822-P02-CH0	2799792	OK	0.7778483	0.0946292	-0.6212869	0	-90.5	-98.224	3.202	B5-03822-P02-CH1	2799792	OK	0.7107688	0.0532032	-0.7014108	0	-77.711	-76.821	-1.4	B5-03822-P03-CH0	2799792	OK	0.8248968	-0.3296223	-0.4592324	0	-96.821	-61.966	7.823	B5-03822-P03-CH1	2799792	OK	0.7718619	-0.6342759	0.0438566	0	-102.214	-18.204	-2.488	B5-03822-P04-CH0	2799792	OK	0.7351607	0.4529916	-0.5043187	0	-129.104	-46.253	19.42	B5-03822-P04-CH1	2799792	OK	0.7439948	-0.6643703	0.0713013	0	-115.677	-37.628	-6.588	NA
0.969208163265306	B5-03822-P01-CH0	2799800	OK	0.1946624	0.0371258	0.0680555	-0.977802	104.28	-61.581	-282.098	B5-03822-P02-CH0	2799800	OK	0.7785426	0.0948793	-0.6203784	0	-90.376	-98.305	2.786	B5-03822-P02-CH1	2799800	OK	0.7116707	0.0435545	-0.7011618	0	-77.926	-76.007	-2.939	B5-03822-P03-CH0	2799800	OK	0.8218548	-0.3192856	-0.471817	0	-96.231	-61.152	6.871	B5-03822-P03-CH1	2799800	OK	0.7723278	-0.6337429	0.0433549	0	-102.177	-18.027	-2.752	B5-03822-P04-CH0	2799800	OK	0.734853	0.4545427	-0.5033706	0	-128.89	-45.965	19.491	B5-03822-P04-CH1	2799800	OK	0.7441809	-0.6640707	0.0721452	0	-115.738	-37.858	-5.935	NA
0.9792	B5-03822-P01-CH0	2799808	OK	0.1948944	0.0371904	0.0684504	-0.9777257	104.424	-61.679	-282.338	B5-03822-P02-CH0	2799808	OK	0.7797611	0.0932589	-0.6190924	0	-89.536	-98.805	5.105	B5-03822-P02-CH1	2799808	OK	0.7133606	0.0333309	-0.700004	0	-78.127	-75.185	-2.955	B5-03822-P03-CH0	2799808	OK	0.8157167	-0.3102685	-0.4882005	0	-96.573	-61.776	7.26	B5-03822-P03-CH1	2799808	OK	0.7728308	-0.6331801	0.0426094	0	-102.187	-18.204	-2.508	B5-03822-P04-CH0	2799808	OK	0.7345305	0.4565438	-0.5020287	0	-128.684	-45.901	19.77	B5-03822-P04-CH1	2799808	OK	0.7438554	-0.6643973	0.0724942	0	-115.522	-38.394	-6.183	NA
0.989191836734694	B5-03822-P01-CH0	2799816	OK	0.1948152	0.0372278	0.0681907	-0.9777582	104.456	-61.793	-282.404	B5-03822-P02-CH0	2799816	OK	0.778534	0.0944249	-0.6204585	0	-89.618	-98.485	5.565	B5-03822-P02-CH1	2799816	OK	0.7140671	0.0236704	-0.699677	0	-79.005	-76.207	-1.861	B5-03822-P03-CH0	2799816	OK	0.8095707	-0.2992771	-0.5050034	0	-96.804	-60.476	6.454	B5-03822-P03-CH1	2799816	OK	0.7726655	-0.633425	0.0419617	0	-102.1	-18.618	-2.299	B5-03822-P04-CH0	2799816	OK	0.7343617	0.4646007	-0.4948324	0	-128.2	-45.82	20.322	B5-03822-P04-CH1	2799816	OK	0.7433787	-0.6649688	0.0721427	0	-115.42	-38.572	-6.43	NA
0.999183673469388	B5-03822-P01-CH0	2799824	OK	0.194903	0.0371559	0.0679615	-0.9777594	104.38	-61.757	-282.411	B5-03822-P02-CH0	2799824	OK	0.7776663	0.0912715	-0.6220166	0	-89.879	-98.515	4.091	B5-03822-P02-CH1	2799824	OK	0.7161943	0.01694	-0.6976953	0	-78.906	-76.343	-1.305	B5-03822-P03-CH0	2799824	OK	0.8034593	-0.2896448	-0.5201529	0	-96.322	-60.154	7.289	B5-03822-P03-CH1	2799824	OK	0.7727903	-0.6333074	0.0414351	0	-101.814	-18.603	-2.336	B5-03822-P04-CH0	2799824	OK	0.734758	0.4602296	-0.4983166	0	-128.217	-45.539	19.681	B5-03822-P04-CH1	2799824	OK	0.7432966	-0.6650804	0.0719592	0	-115.389	-38.477	-6.45	NA
1.00917551020408	B5-03822-P01-CH0	2799832	OK	0.1951711	0.0369458	0.0684744	-0.9776781	104.376	-61.769	-282.457	B5-03822-P02-CH0	2799832	OK	0.7753523	0.0940967	-0.6244795	0	-89.507	-97.499	1.638	B5-03822-P02-CH1	2799832	OK	0.7171708	0.0120457	-0.6967933	0	-79.652	-75.729	-1.684	B5-03822-P03-CH0	2799832	OK	0.7961346	-0.2809856	-0.5359261	0	-95.891	-60.818	5.648	B5-03822-P03-CH1	2799832	OK	0.7733452	-0.632628	0.0414609	0	-101.865	-18.833	-2.105	B5-03822-P04-CH0	2799832	OK	0.7342476	0.461853	-0.4975663	0	-128.17	-45.522	19.662	B5-03822-P04-CH1	2799832	OK	0.7436254	-0.6647105	0.0719803	0	-115.395	-38.567	-6.587	NA
1.01916734693878	B5-03822-P01-CH0	2799840	OK	0.1953497	0.0370566	0.0687281	-0.9776205	104.398	-61.673	-282.357	B5-03822-P02-CH0	2799840	OK	0.772229	0.0915556	-0.628713	0	-89.675	-97.952	3.14	B5-03822-P02-CH1	2799840	OK	0.7195589	0.0067486	-0.6943986	0	-79.626	-75.155	-1.578	B5-03822-P03-CH0	2799840	OK	0.7878163	-0.26541	-0.5557904	0	-95.827	-60.054	4.925	B5-03822-P03-CH1	2799840	OK	0.7731578	-0.6328222	0.0419896	0	-102.017	-19.543	-1.447	B5-03822-P04-CH0	2799840	OK	0.7338087	0.4632637	-0.4969019	0	-128.158	-45.39	19.594	B5-03822-P04-CH1	2799840	OK	0.7434337	-0.6649039	0.0721741	0	-115.286	-38.617	-6.883	NA
1.02915918367347	B5-03822-P01-CH0	2799848	OK	0.1953025	0.0369417	0.0688939	-0.9776226	104.354	-61.714	-282.232	B5-03822-P02-CH0	2799848	OK	0.7712583	0.0912759	-0.6299439	0	-88.687	-97.361	4.052	B5-03822-P02-CH1	2799848	OK	0.7221744	-0.0001609	-0.691711	0	-79.732	-75.292	-1.576	B5-03822-P03-CH0	2799848	OK	0.7793449	-0.2495979	-0.5747368	0	-95.449	-59.09	4.283	B5-03822-P03-CH1	2799848	OK	0.7736289	-0.6322952	0.0412456	0	-102.036	-19.302	-1.763	B5-03822-P04-CH0	2799848	OK	0.7334627	0.4639821	-0.4967424	0	-128.118	-45.547	19.698	B5-03822-P04-CH1	2799848	OK	0.7431849	-0.6652187	0.0718345	0	-115.029	-38.737	-7.194	NA
1.03915102040816	B5-03822-P01-CH0	2799856	OK	0.1954072	0.0368614	0.0689058	-0.9776038	104.327	-61.679	-282.224	B5-03822-P02-CH0	2799856	OK	0.7694469	0.0902737	-0.6322991	0	-88.495	-97.298	2.964	B5-03822-P02-CH1	2799856	OK	0.7250612	-0.0072267	-0.6886466	0	-79.89	-74.754	-2.759	B5-03822-P03-CH0	2799856	OK	0.7689524	-0.236091	-0.5941156	0	-96.185	-58.241	3.126	B5-03822-P03-CH1	2799856	OK	0.7736301	-0.6322851	0.0413762	0	-102.248	-19.526	-1.365	B5-03822-P04-CH0	2799856	OK	0.7332112	0.4648757	-0.496278	0	-128.079	-45.389	19.58	B5-03822-P04-CH1	2799856	OK	0.7433911	-0.6650685	0.071089	0	-114.914	-38.364	-7.434	NA
1.04914285714286	B5-03822-P01-CH0	2799864	OK	0.1958511	0.0365827	0.0695612	-0.977479	104.344	-61.698	-282.384	B5-03822-P02-CH0	2799864	OK	0.7694655	0.0876693	-0.6326428	0	-87.565	-97.634	1.919	B5-03822-P02-CH1	2799864	OK	0.7285537	-0.0141254	-0.684843	0	-79.28	-74.636	-1.679	B5-03822-P03-CH0	2799864	OK	0.7614899	-0.2269182	-0.6071584	0	-95.916	-58.693	3.378	B5-03822-P03-CH1	2799864	OK	0.7745682	-0.6311591	0.0410167	0	-102.331	-19.243	-1.671	B5-03822-P04-CH0	2799864	OK	0.7327969	0.4657062	-0.4961113	0	-127.865	-45.382	19.596	B5-03822-P04-CH1	2799864	OK	0.7441564	-0.6641944	0.0712533	0	-114.562	-38.411	-6.451	NA
1.05913469387755	B5-03822-P01-CH0	2799872	OK	0.1959777	0.0368471	0.0694443	-0.9774521	104.47	-61.734	-282.333	B5-03822-P02-CH0	2799872	OK	0.7673957	0.085456	-0.6354535	0	-87.508	-97.501	3.773	B5-03822-P02-CH1	2799872	OK	0.7298798	-0.0216231	-0.6832335	0	-79.542	-74.866	-1.468	B5-03822-P03-CH0	2799872	OK	0.7560241	-0.2155211	-0.6180439	0	-95.641	-57.101	1.671	B5-03822-P03-CH1	2799872	OK	0.774586	-0.6311485	0.040843	0	-102.509	-19.338	-1.72	B5-03822-P04-CH0	2799872	OK	0.7326146	0.4658589	-0.4962373	0	-127.903	-45.502	19.589	B5-03822-P04-CH1	2799872	OK	0.744177	-0.664176	0.0712091	0	-114.491	-38.436	-6.315	NA
1.06912653061225	B5-03822-P01-CH0	2799880	OK	0.1962802	0.0363175	0.0699929	-0.977372	104.31	-61.714	-282.423	B5-03822-P02-CH0	2799880	OK	0.765893	0.0836633	-0.6375017	0	-87.075	-97.288	2.28	B5-03822-P02-CH1	2799880	OK	0.7313626	-0.0279612	-0.6814154	0	-79.65	-74.313	-2.023	B5-03822-P03-CH0	2799880	OK	0.7523528	-0.2108253	-0.6241137	0	-95.114	-57.59	3.326	B5-03822-P03-CH1	2799880	OK	0.77517	-0.6304305	0.0408505	0	-102.445	-19.268	-1.606	B5-03822-P04-CH0	2799880	OK	0.7322148	0.4664152	-0.4963047	0	-127.756	-45.379	19.36	B5-03822-P04-CH1	2799880	OK	0.7448757	-0.6634772	0.0704139	0	-114.255	-37.849	-7.084	NA
1.07911836734694	B5-03822-P01-CH0	2799888	OK	0.1961461	0.0366271	0.0693779	-0.9774313	104.366	-61.727	-282.276	B5-03822-P02-CH0	2799888	OK	0.7641373	0.0835939	-0.6396141	0	-86.599	-96.784	1.612	B5-03822-P02-CH1	2799888	OK	0.7324891	-0.0330114	-0.6799779	0	-80.154	-74.76	0.211	B5-03822-P03-CH0	2799888	OK	0.7495621	-0.2067033	-0.6288326	0	-95.375	-56.915	2.26	B5-03822-P03-CH1	2799888	OK	0.774909	-0.6307751	0.0404826	0	-102.445	-19.234	-1.653	B5-03822-P04-CH0	2799888	OK	0.7319232	0.4666213	-0.4965411	0	-127.961	-45.209	19.169	B5-03822-P04-CH1	2799888	OK	0.744717	-0.6636722	0.0702556	0	-114.571	-37.78	-6.313	NA
1.08911020408163	B5-03822-P01-CH0	2799896	OK	0.19643	0.0366053	0.0695489	-0.9773629	104.382	-61.656	-282.298	B5-03822-P02-CH0	2799896	OK	0.7618794	0.0819504	-0.6425137	0	-86.59	-96.759	1.85	B5-03822-P02-CH1	2799896	OK	0.7336026	-0.0384336	-0.6784911	0	-80.612	-74.007	-1.943	B5-03822-P03-CH0	2799896	OK	0.747179	-0.2043531	-0.6324265	0	-95.965	-57.433	2.022	B5-03822-P03-CH1	2799896	OK	0.7752022	-0.6303996	0.0407186	0	-102.435	-19.202	-1.518	B5-03822-P04-CH0	2799896	OK	0.73152	0.4663138	-0.4974232	0	-127.958	-45.309	19.315	B5-03822-P04-CH1	2799896	OK	0.7452118	-0.6630994	0.0704175	0	-114.645	-37.438	-6.25	NA
1.09910204081633	B5-03822-P01-CH0	2799904	OK	0.1965113	0.0367996	0.0697421	-0.9773255	104.533	-61.727	-282.276	B5-03822-P02-CH0	2799904	OK	0.7593221	0.0809803	-0.6456563	0	-86.503	-96.584	0.761	B5-03822-P02-CH1	2799904	OK	0.7347668	-0.0412283	-0.6770657	0	-80.649	-74.544	-1.571	B5-03822-P03-CH0	2799904	OK	0.7445191	-0.1999312	-0.6369606	0	-96.781	-57.441	2.022	B5-03822-P03-CH1	2799904	OK	0.7754118	-0.6301563	0.0404911	0	-102.648	-19.338	-1.371	B5-03822-P04-CH0	2799904	OK	0.7308807	0.4664721	-0.4982139	0	-128.197	-45.485	19.335	B5-03822-P04-CH1	2799904	OK	0.7456668	-0.6626362	0.0699591	0	-114.689	-37.187	-6.19	NA
1.10909387755102	B5-03822-P01-CH0	2799912	OK	0.1964191	0.0367078	0.0692189	-0.9773847	104.417	-61.787	-282.224	B5-03822-P02-CH0	2799912	OK	0.756854	0.0820873	-0.6484086	0	-85.891	-96.09	0.875	B5-03822-P02-CH1	2799912	OK	0.7371105	-0.0416286	-0.6744888	0	-79.898	-74.081	-1.951	B5-03822-P03-CH0	2799912	OK	0.7437649	-0.1929034	-0.6400016	0	-95.834	-57.023	2.945	B5-03822-P03-CH1	2799912	OK	0.775099	-0.6305657	0.0401053	0	-102.475	-19.266	-1.723	B5-03822-P04-CH0	2799912	OK	0.7312805	0.4657646	-0.4982893	0	-128.022	-45.659	19.342	B5-03822-P04-CH1	2799912	OK	0.7448678	-0.663466	0.0706032	0	-114.264	-37.699	-5.276	NA
1.11908571428571	B5-03822-P01-CH0	2799920	OK	0.1963111	0.0366328	0.0691911	-0.9774112	104.415	-61.871	-282.301	B5-03822-P02-CH0	2799920	OK	0.7541243	0.0799211	-0.6518506	0	-85.549	-96.733	1.621	B5-03822-P02-CH1	2799920	OK	0.7376274	-0.043467	-0.6738074	0	-80.402	-74.684	-1.295	B5-03822-P03-CH0	2799920	OK	0.7422114	-0.1888094	-0.6430189	0	-95.608	-57.374	2.715	B5-03822-P03-CH1	2799920	OK	0.7754613	-0.6301851	0.0390693	0	-102.322	-18.825	-2.129	B5-03822-P04-CH0	2799920	OK	0.7312107	0.4665629	-0.4976444	0	-127.922	-45.496	19.25	B5-03822-P04-CH1	2799920	OK	0.7452618	-0.6631615	0.069294	0	-114.108	-37.297	-5.134	NA
1.12907755102041	B5-03822-P01-CH0	2799928	OK	0.1964532	0.0367793	0.0691991	-0.9773766	104.499	-61.897	-282.381	B5-03822-P02-CH0	2799928	OK	0.7524339	0.0791458	-0.6538953	0	-85.299	-96.687	0.314	B5-03822-P02-CH1	2799928	OK	0.7390288	-0.0457152	-0.672121	0	-80.774	-74.767	-1.488	B5-03822-P03-CH0	2799928	OK	0.7398903	-0.1836679	-0.6471695	0	-95.841	-57.407	2.442	B5-03822-P03-CH1	2799928	OK	0.7751787	-0.6305321	0.0390797	0	-102.241	-19.167	-1.871	B5-03822-P04-CH0	2799928	OK	0.7313181	0.4667179	-0.4973412	0	-127.894	-45.538	19.089	B5-03822-P04-CH1	2799928	OK	0.7455949	-0.6627858	0.0693052	0	-114.476	-37.221	-4.36	NA
1.1390693877551	B5-03822-P01-CH0	2799936	OK	0.1968235	0.037025	0.0694403	-0.9772757	104.643	-61.913	-282.469	B5-03822-P02-CH0	2799936	OK	0.7511196	0.0785052	-0.6554817	0	-85.16	-97.518	-0.616	B5-03822-P02-CH1	2799936	OK	0.7408193	-0.0475687	-0.6700179	0	-80.85	-74.475	-0.415	B5-03822-P03-CH0	2799936	OK	0.7400134	-0.1789483	-0.64835	0	-95.166	-56.641	1.514	B5-03822-P03-CH1	2799936	OK	0.7754481	-0.6302283	0.0386329	0	-102.161	-19.054	-2.035	B5-03822-P04-CH0	2799936	OK	0.7310196	0.4664685	-0.4980136	0	-128.096	-45.751	19.112	B5-03822-P04-CH1	2799936	OK	0.7456684	-0.6626086	0.0702038	0	-114.739	-37.457	-4.092	NA
1.1490612244898	B5-03822-P01-CH0	2799944	OK	0.1966311	0.0372908	0.0693956	-0.9773075	104.677	-61.906	-282.375	B5-03822-P02-CH0	2799944	OK	0.749993	0.0795104	-0.6566495	0	-84.719	-97.227	0.675	B5-03822-P02-CH1	2799944	OK	0.7417737	-0.0485703	-0.6688891	0	-81.165	-74.642	-1.118	B5-03822-P03-CH0	2799944	OK	0.7381059	-0.1744817	-0.651733	0	-95.571	-56.897	1.898	B5-03822-P03-CH1	2799944	OK	0.775271	-0.6304909	0.0378954	0	-102.158	-19.053	-1.947	B5-03822-P04-CH0	2799944	OK	0.7309874	0.4668173	-0.4977339	0	-128.131	-45.613	19.073	B5-03822-P04-CH1	2799944	OK	0.745508	-0.6628434	0.0696881	0	-114.825	-37.35	-4.302	NA
1.15905306122449	B5-03822-P01-CH0	2799952	OK	0.1969746	0.0368933	0.0699492	-0.9772139	104.551	-61.894	-282.593	B5-03822-P02-CH0	2799952	OK	0.7471374	0.080695	-0.659753	0	-85.653	-96.821	0.46	B5-03822-P02-CH1	2799952	OK	0.7429722	-0.0507387	-0.6673963	0	-81.439	-75.214	-0.427	B5-03822-P03-CH0	2799952	OK	0.7374575	-0.17155	-0.6532434	0	-95.768	-57.088	3.166	B5-03822-P03-CH1	2799952	OK	0.7755496	-0.6301546	0.0377882	0	-101.908	-19.121	-1.783	B5-03822-P04-CH0	2799952	OK	0.7309959	0.4669711	-0.4975771	0	-127.906	-45.54	19.145	B5-03822-P04-CH1	2799952	OK	0.7456221	-0.6626773	0.0700463	0	-114.539	-37.446	-4.149	NA
1.16904489795918	B5-03822-P01-CH0	2799960	OK	0.1967857	0.0374137	0.0691569	-0.9772886	104.771	-62.093	-282.61	B5-03822-P02-CH0	2799960	OK	0.7468624	0.0844505	-0.6595943	0	-85.073	-97.194	0.248	B5-03822-P02-CH1	2799960	OK	0.7440555	-0.051772	-0.6661089	0	-81.335	-74.887	-1.504	B5-03822-P03-CH0	2799960	OK	0.7387038	-0.1698083	-0.6522896	0	-95.479	-56.634	1.659	B5-03822-P03-CH1	2799960	OK	0.7748489	-0.6310554	0.0371254	0	-101.978	-19.421	-1.683	B5-03822-P04-CH0	2799960	OK	0.7316504	0.4664849	-0.4970709	0	-127.885	-45.807	19.397	B5-03822-P04-CH1	2799960	OK	0.7447885	-0.6635689	0.0704731	0	-114.557	-38.012	-3.465	NA
1.17903673469388	B5-03822-P01-CH0	2799968	OK	0.1971032	0.037433	0.0695091	-0.9771988	104.816	-62.128	-282.668	B5-03822-P02-CH0	2799968	OK	0.7457484	0.0857311	-0.6606886	0	-85.072	-97.516	-0.32	B5-03822-P02-CH1	2799968	OK	0.7447494	-0.0539648	-0.6651587	0	-81.243	-75.58	-0.121	B5-03822-P03-CH0	2799968	OK	0.7363472	-0.1698441	-0.6549395	0	-97.062	-56.858	1.583	B5-03822-P03-CH1	2799968	OK	0.7750235	-0.630838	0.0371767	0	-102.166	-19.589	-1.404	B5-03822-P04-CH0	2799968	OK	0.7317306	0.4662878	-0.4971379	0	-127.834	-45.95	19.341	B5-03822-P04-CH1	2799968	OK	0.7445719	-0.6637683	0.0708831	0	-114.283	-38.263	-4.088	NA
1.18902857142857	B5-03822-P01-CH0	2799976	OK	0.1971507	0.0374231	0.0699663	-0.977157	104.82	-62.107	-282.736	B5-03822-P02-CH0	2799976	OK	0.744967	0.086107	-0.6615208	0	-84.943	-98.114	-1.249	B5-03822-P02-CH1	2799976	OK	0.7455908	-0.0551744	-0.664116	0	-81.564	-75.001	-1.112	B5-03822-P03-CH0	2799976	OK	0.7362999	-0.1684869	-0.6553431	0	-96.876	-57.197	3.922	B5-03822-P03-CH1	2799976	OK	0.7749484	-0.6309305	0.0371702	0	-102.194	-19.839	-1.204	B5-03822-P04-CH0	2799976	OK	0.7316952	0.4669389	-0.4965786	0	-127.776	-45.706	19.158	B5-03822-P04-CH1	2799976	OK	0.7448283	-0.6635246	0.0704685	0	-114.306	-38.169	-4.042	NA
1.19902040816327	B5-03822-P01-CH0	2799984	OK	0.1968967	0.0374872	0.0693129	-0.9772523	104.743	-62.129	-282.713	B5-03822-P02-CH0	2799984	OK	0.7442077	0.0896699	-0.661902	0	-84.687	-97.66	-0.935	B5-03822-P02-CH1	2799984	OK	0.7471483	-0.0568176	-0.6622245	0	-81.353	-75.535	-1.369	B5-03822-P03-CH0	2799984	OK	0.7376493	-0.1667369	-0.6542724	0	-96.222	-56.494	3.076	B5-03822-P03-CH1	2799984	OK	0.7745414	-0.6314726	0.0364414	0	-102.074	-19.601	-1.453	B5-03822-P04-CH0	2799984	OK	0.7323483	0.4667869	-0.4957579	0	-127.637	-45.526	19.155	B5-03822-P04-CH1	2799984	OK	0.7440294	-0.6644169	0.0705011	0	-114.112	-38.332	-4.104	NA
1.20901224489796	B5-03822-P01-CH0	2799992	OK	0.1969535	0.0375399	0.0698589	-0.9772	104.815	-62.112	-282.851	B5-03822-P02-CH0	2799992	OK	0.7429382	0.0929342	-0.6628771	0	-85.116	-98.014	-0.482	B5-03822-P02-CH1	2799992	OK	0.7482407	-0.0571793	-0.6609587	0	-81.189	-75.361	-0.329	B5-03822-P03-CH0	2799992	OK	0.7382314	-0.1727486	-0.6520524	0	-95.914	-56.907	2.729	B5-03822-P03-CH1	2799992	OK	0.7747382	-0.6312492	0.0361258	0	-102.122	-19.653	-1.242	B5-03822-P04-CH0	2799992	OK	0.7322875	0.4668265	-0.4958105	0	-127.651	-45.507	19.2	B5-03822-P04-CH1	2799992	OK	0.7447029	-0.6637211	0.0699421	0	-114.413	-37.845	-4.847	NA
1.21900408163265	B5-03822-P01-CH0	2800000	OK	0.1968796	0.0378457	0.0697253	-0.9772126	104.954	-62.193	-282.827	B5-03822-P02-CH0	2800000	OK	0.7424476	0.0947379	-0.6631714	0	-85.521	-98.252	0.481	B5-03822-P02-CH1	2800000	OK	0.74817	-0.0572053	-0.6610364	0	-81.796	-75.929	-0.497	B5-03822-P03-CH0	2800000	OK	0.7376143	-0.1702102	-0.6534169	0	-96.087	-56.73	2.518	B5-03822-P03-CH1	2800000	OK	0.77431	-0.6317757	0.0361051	0	-102.258	-20.014	-0.98	B5-03822-P04-CH0	2800000	OK	0.7324566	0.4660072	-0.4963312	0	-127.776	-45.772	19.358	B5-03822-P04-CH1	2800000	OK	0.7440661	-0.6643404	0.0708344	0	-114.682	-38.369	-4.884	NA
1.22899591836735	B5-03822-P01-CH0	2800008	OK	0.1968071	0.0375207	0.070276	-0.9772003	104.86	-62.2	-282.903	B5-03822-P02-CH0	2800008	OK	0.7416581	0.0983706	-0.6635257	0	-85.817	-97.715	1.546	B5-03822-P02-CH1	2800008	OK	0.7493634	-0.0586098	-0.65956	0	-81.705	-75.69	-1.008	B5-03822-P03-CH0	2800008	OK	0.7370612	-0.1680158	-0.6546078	0	-96.334	-56.546	2.373	B5-03822-P03-CH1	2800008	OK	0.7745081	-0.6315211	0.0363081	0	-102.362	-20.172	-0.796	B5-03822-P04-CH0	2800008	OK	0.7322472	0.4660695	-0.4965816	0	-127.738	-45.646	19.372	B5-03822-P04-CH1	2800008	OK	0.7442407	-0.6641976	0.0703367	0	-114.216	-38.204	-5.69	NA
1.23898775510204	B5-03822-P01-CH0	2800016	OK	0.1963839	0.0374119	0.0700119	-0.9773086	104.793	-62.319	-282.81	B5-03822-P02-CH0	2800016	OK	0.7448895	0.0916621	-0.6608613	0	-84.926	-97.405	0.436	B5-03822-P02-CH1	2800016	OK	0.7499888	-0.0568158	-0.6590059	0	-81.528	-75.025	-1.108	B5-03822-P03-CH0	2800016	OK	0.736669	-0.1659181	-0.6555837	0	-96.398	-56.608	2.472	B5-03822-P03-CH1	2800016	OK	0.7743672	-0.6317254	0.0357566	0	-102.251	-20.05	-0.823	B5-03822-P04-CH0	2800016	OK	0.7324047	0.4662227	-0.4962054	0	-127.728	-45.517	19.204	B5-03822-P04-CH1	2800016	OK	0.7437846	-0.664789	0.0695702	0	-113.992	-38.305	-5.71	NA
1.24897959183673	B5-03822-P01-CH0	2800024	OK	0.196522	0.036841	0.0705065	-0.9772669	104.587	-62.289	-282.949	B5-03822-P02-CH0	2800024	OK	0.7446665	0.0943604	-0.6607329	0	-84.738	-97.097	0.041	B5-03822-P02-CH1	2800024	OK	0.7504548	-0.0574979	-0.658416	0	-81.504	-75.211	-0.979	B5-03822-P03-CH0	2800024	OK	0.7367598	-0.1646979	-0.6557893	0	-96.286	-56.552	2.479	B5-03822-P03-CH1	2800024	OK	0.77469	-0.6313122	0.0360611	0	-102.071	-19.913	-0.726	B5-03822-P04-CH0	2800024	OK	0.732324	0.4661295	-0.4964119	0	-127.581	-45.368	19.048	B5-03822-P04-CH1	2800024	OK	0.7439269	-0.6645902	0.0699472	0	-113.752	-38.309	-5.994	NA
