Wav.Time	B5.03822.P01.CH0	Frame	State	Q0	Qx	Qy	Qz	Tx	Ty	Tz	B5.03822.P02.CH0	Frame.1	State.1	Q0.1	Qx.1	Qy.1	Qz.1	Tx.1	Ty.1	Tz.1	B5.03822.P02.CH1	Frame.2	State.2	Q0.2	Qx.2	Qy.2	Qz.2	Tx.2	Ty.2	Tz.2	B5.03822.P03.CH0	Frame.3	State.3	Q0.3	Qx.3	Qy.3	Qz.3	Tx.3	Ty.3	Tz.3	B5.03822.P03.CH1	Frame.4	State.4	Q0.4	Qx.4	Qy.4	Qz.4	Tx.4	Ty.4	Tz.4	B5.03822.P04.CH0	Frame.5	State.5	Q0.5	Qx.5	Qy.5	Qz.5	Tx.5	Ty.5	Tz.5	B5.03822.P04.CH1	Frame.6	State.6	Q0.6	Qx.6	Qy.6	Qz.6	Tx.6	Ty.6	Tz.6	X
0	B5-03822-P01-CH0	2513512	OK	0.2243596	0.0735143	0.0621707	-0.9697387	99.053	41.878	-259.36	B5-03822-P02-CH0	2513512	OK	0.7904073	0.0523191	-0.6103434	0	-88.613	-97.204	2.106	B5-03822-P02-CH1	2513512	OK	0.7799291	-0.0028197	-0.6258615	0	-88.255	-75.058	4.591	B5-03822-P03-CH0	2513512	OK	0.7685959	-0.4840448	-0.4182833	0	-98.821	-55.2	6.23	B5-03822-P03-CH1	2513512	OK	0.7388549	-0.6451607	0.1945792	0	-105.335	-26.481	2.973	B5-03822-P04-CH0	2513512	OK	0.6825791	-0.1040023	0.7233735	0	-130.58	-31.086	10.053	B5-03822-P04-CH1	2513512	OK	0.7638757	-0.6439817	0.0422079	0	-114.064	-44.61	6.063	NA
0.00999190152251377	B5-03822-P01-CH0	2513520	OK	0.2241147	0.0737217	0.0616595	-0.9698123	99.119	41.799	-259.335	B5-03822-P02-CH0	2513520	OK	0.7904038	0.0505964	-0.610493	0	-88.632	-97.515	2.14	B5-03822-P02-CH1	2513520	OK	0.7818812	-0.0001797	-0.6234275	0	-89.067	-74.011	4.913	B5-03822-P03-CH0	2513520	OK	0.7675982	-0.4805085	-0.4241516	0	-97.954	-55.891	5.396	B5-03822-P03-CH1	2513520	OK	0.7384148	-0.6457198	0.1943954	0	-105.347	-26.529	2.818	B5-03822-P04-CH0	2513520	OK	0.6826308	-0.1044397	0.7232618	0	-130.638	-31.069	10.083	B5-03822-P04-CH1	2513520	OK	0.763586	-0.6443638	0.0416127	0	-114.114	-44.569	6.182	NA
0.0199838030450275	B5-03822-P01-CH0	2513528	OK	0.2238928	0.0737428	0.061119	-0.9698961	99.122	41.704	-259.323	B5-03822-P02-CH0	2513528	OK	0.7903963	0.0487952	-0.6106494	0	-88.64	-97.715	2.181	B5-03822-P02-CH1	2513528	OK	0.7841925	-0.0003681	-0.6205175	0	-89.644	-74.013	5.554	B5-03822-P03-CH0	2513528	OK	0.7673146	-0.4727061	-0.4333326	0	-97.474	-55.215	6.931	B5-03822-P03-CH1	2513528	OK	0.7381236	-0.6460396	0.1944388	0	-105.326	-26.491	2.924	B5-03822-P04-CH0	2513528	OK	0.6822464	-0.1050117	0.7235416	0	-130.483	-31.027	10.039	B5-03822-P04-CH1	2513528	OK	0.7631533	-0.6449022	0.0412098	0	-114.101	-44.632	6.08	NA
0.0299757045675413	B5-03822-P01-CH0	2513536	OK	0.2237734	0.0738605	0.0610122	-0.9699214	99.179	41.79	-259.371	B5-03822-P02-CH0	2513536	OK	0.7898202	0.046541	-0.6115701	0	-88.982	-97.764	2.527	B5-03822-P02-CH1	2513536	OK	0.7876861	-0.005048	-0.6160561	0	-89.756	-75.114	4.959	B5-03822-P03-CH0	2513536	OK	0.7649078	-0.4665579	-0.4441169	0	-97.457	-55.354	6.471	B5-03822-P03-CH1	2513536	OK	0.7379871	-0.6461619	0.1945501	0	-105.335	-26.375	3.123	B5-03822-P04-CH0	2513536	OK	0.6823378	-0.1052932	0.7234145	0	-130.557	-30.948	10.144	B5-03822-P04-CH1	2513536	OK	0.7630883	-0.6449978	0.0409148	0	-114.153	-44.516	6.132	NA
0.0399676060900551	B5-03822-P01-CH0	2513544	OK	0.2236385	0.0738444	0.0606586	-0.969976	99.13	41.785	-259.365	B5-03822-P02-CH0	2513544	OK	0.7897542	0.0435029	-0.6118789	0	-88.96	-97.907	2.583	B5-03822-P02-CH1	2513544	OK	0.7921249	-0.0059764	-0.6103298	0	-90.182	-74.145	6.244	B5-03822-P03-CH0	2513544	OK	0.7614019	-0.455789	-0.4610028	0	-97.634	-55.471	5.684	B5-03822-P03-CH1	2513544	OK	0.7376192	-0.6465596	0.1946242	0	-105.215	-26.316	3.051	B5-03822-P04-CH0	2513544	OK	0.6821079	-0.1056629	0.7235774	0	-130.433	-30.852	10.171	B5-03822-P04-CH1	2513544	OK	0.7628477	-0.645312	0.0404449	0	-114.044	-44.454	6.147	NA
0.0499595076125688	B5-03822-P01-CH0	2513552	OK	0.2239145	0.0737744	0.0609973	-0.9698964	99.084	41.861	-259.325	B5-03822-P02-CH0	2513552	OK	0.7885713	0.0235307	-0.614493	0	-88.871	-96.92	3.992	B5-03822-P02-CH1	2513552	OK	0.7971946	-0.0101543	-0.6036371	0	-90.895	-74.308	6.54	B5-03822-P03-CH0	2513552	OK	0.7584491	-0.4434931	-0.4775655	0	-98.068	-55.39	5.188	B5-03822-P03-CH1	2513552	OK	0.7377754	-0.6462533	0.1950491	0	-105.365	-26.4	3.173	B5-03822-P04-CH0	2513552	OK	0.6821395	-0.1057363	0.7235368	0	-130.426	-30.704	9.965	B5-03822-P04-CH1	2513552	OK	0.763141	-0.644963	0.040478	0	-113.882	-44.353	6.21	NA
0.0599514091350826	B5-03822-P01-CH0	2513560	OK	0.2242111	0.073657	0.0618509	-0.9697827	99.082	41.965	-259.346	B5-03822-P02-CH0	2513560	OK	0.7894801	0.01577	-0.6135735	0	-87.962	-96.187	2.899	B5-03822-P02-CH1	2513560	OK	0.8023234	-0.0147712	-0.5967068	0	-91.097	-74.099	6.826	B5-03822-P03-CH0	2513560	OK	0.7577784	-0.4326745	-0.4884309	0	-97.174	-54.985	4.816	B5-03822-P03-CH1	2513560	OK	0.7382017	-0.6456245	0.1955178	0	-105.361	-26.404	3.156	B5-03822-P04-CH0	2513560	OK	0.6820492	-0.1055299	0.7236521	0	-130.348	-30.665	9.986	B5-03822-P04-CH1	2513560	OK	0.7637545	-0.6442524	0.0402225	0	-113.852	-44.273	6.175	NA
0.0699433106575964	B5-03822-P01-CH0	2513568	OK	0.224189	0.0735508	0.0621395	-0.9697774	99.099	41.978	-259.388	B5-03822-P02-CH0	2513568	OK	0.7880849	0.0051227	-0.6155453	0	-87.878	-96.901	3.068	B5-03822-P02-CH1	2513568	OK	0.8070834	-0.0190201	-0.590131	0	-91.301	-73.88	7.566	B5-03822-P03-CH0	2513568	OK	0.7548144	-0.4209614	-0.5030376	0	-97.932	-54.515	5.958	B5-03822-P03-CH1	2513568	OK	0.7382593	-0.6455479	0.1955534	0	-105.372	-26.387	3.057	B5-03822-P04-CH0	2513568	OK	0.6820477	-0.1054555	0.7236644	0	-130.366	-30.682	10.138	B5-03822-P04-CH1	2513568	OK	0.7640312	-0.6439529	0.0397617	0	-113.804	-44.142	6.162	NA
0.0799352121801101	B5-03822-P01-CH0	2513576	OK	0.2241719	0.0735233	0.0620432	-0.9697896	99.123	41.91	-259.406	B5-03822-P02-CH0	2513576	OK	0.7882339	-0.0084509	-0.6153177	0	-86.745	-97.961	2.41	B5-03822-P02-CH1	2513576	OK	0.8127309	-0.0246842	-0.5821162	0	-91.259	-74.468	7.995	B5-03822-P03-CH0	2513576	OK	0.7529266	-0.4114414	-0.5136317	0	-97.676	-55.198	4.831	B5-03822-P03-CH1	2513576	OK	0.7381341	-0.6456768	0.1956004	0	-105.444	-26.442	2.984	B5-03822-P04-CH0	2513576	OK	0.6822519	-0.1048885	0.7235543	0	-130.416	-30.784	10.504	B5-03822-P04-CH1	2513576	OK	0.7640105	-0.6440074	0.0392743	0	-113.845	-44.166	6.102	NA
0.0899271137026239	B5-03822-P01-CH0	2513584	OK	0.224101	0.0738379	0.0623031	-0.9697655	99.257	41.973	-259.376	B5-03822-P02-CH0	2513584	OK	0.7866361	-0.0210337	-0.6170586	0	-87.121	-97.913	1.859	B5-03822-P02-CH1	2513584	OK	0.8170363	-0.028783	-0.5758674	0	-92.097	-74.912	7.452	B5-03822-P03-CH0	2513584	OK	0.7507522	-0.3989334	-0.52652	0	-98.678	-55.444	4.045	B5-03822-P03-CH1	2513584	OK	0.7382332	-0.6455231	0.1957336	0	-105.515	-26.376	2.788	B5-03822-P04-CH0	2513584	OK	0.6824173	-0.1043127	0.7234815	0	-130.537	-30.838	10.627	B5-03822-P04-CH1	2513584	OK	0.7640487	-0.644	0.0386456	0	-114.057	-44.173	6.035	NA
0.0999190152251377	B5-03822-P01-CH0	2513592	OK	0.2239863	0.0739219	0.0619052	-0.969811	99.269	41.892	-259.217	B5-03822-P02-CH0	2513592	OK	0.7841885	-0.0335627	-0.6196143	0	-87.694	-98.09	2.836	B5-03822-P02-CH1	2513592	OK	0.8193478	-0.0322771	-0.5723874	0	-92.898	-74.534	7.476	B5-03822-P03-CH0	2513592	OK	0.7514111	-0.3907493	-0.531692	0	-97.985	-55.59	3.788	B5-03822-P03-CH1	2513592	OK	0.7379692	-0.6457362	0.1960263	0	-105.564	-26.441	2.904	B5-03822-P04-CH0	2513592	OK	0.6824978	-0.1034995	0.7235224	0	-130.597	-30.846	10.652	B5-03822-P04-CH1	2513592	OK	0.7636849	-0.6444496	0.038342	0	-113.965	-44.248	5.964	NA
0.109910916747651	B5-03822-P01-CH0	2513600	OK	0.2240969	0.0739749	0.062423	-0.9697483	99.322	41.952	-259.191	B5-03822-P02-CH0	2513600	OK	0.7846506	-0.0470846	-0.6181476	0	-86.327	-98.112	1.234	B5-03822-P02-CH1	2513600	OK	0.8233104	-0.0379963	-0.5663181	0	-92.434	-74.235	8.363	B5-03822-P03-CH0	2513600	OK	0.7505071	-0.3849284	-0.5371864	0	-98.23	-55.329	5.102	B5-03822-P03-CH1	2513600	OK	0.7384024	-0.645134	0.1963774	0	-105.585	-26.378	2.926	B5-03822-P04-CH0	2513600	OK	0.6825552	-0.1022102	0.7236515	0	-130.653	-30.913	10.74	B5-03822-P04-CH1	2513600	OK	0.7639717	-0.6441177	0.0382042	0	-114.006	-44.243	5.8	NA
0.119902818270165	B5-03822-P01-CH0	2513608	OK	0.2239465	0.0737683	0.0622566	-0.9698094	99.245	41.925	-259.232	B5-03822-P02-CH0	2513608	OK	0.7822091	-0.0611259	-0.6200101	0	-86.04	-97.668	2.098	B5-03822-P02-CH1	2513608	OK	0.826245	-0.0463502	-0.5614008	0	-92.656	-74.685	9.024	B5-03822-P03-CH0	2513608	OK	0.7505919	-0.3779287	-0.5420163	0	-97.998	-54.56	4.184	B5-03822-P03-CH1	2513608	OK	0.7380966	-0.6453718	0.1967453	0	-105.291	-26.446	2.889	B5-03822-P04-CH0	2513608	OK	0.6822643	-0.1011333	0.724077	0	-130.616	-30.931	10.687	B5-03822-P04-CH1	2513608	OK	0.7640143	-0.6440867	0.0378744	0	-113.888	-44.094	5.79	NA
0.129894719792679	B5-03822-P01-CH0	2513616	OK	0.2237809	0.0736115	0.0618989	-0.9698825	99.181	41.925	-259.331	B5-03822-P02-CH0	2513616	OK	0.7790126	-0.0802756	-0.6218482	0	-84.961	-98.514	1.097	B5-03822-P02-CH1	2513616	OK	0.8290936	-0.0503441	-0.5568386	0	-92.909	-73.907	8.606	B5-03822-P03-CH0	2513616	OK	0.7474804	-0.3729556	-0.5497065	0	-98.753	-54.712	3.261	B5-03822-P03-CH1	2513616	OK	0.7378288	-0.6456101	0.1969677	0	-105.217	-26.444	2.771	B5-03822-P04-CH0	2513616	OK	0.6820558	-0.0997478	0.7244655	0	-130.64	-30.957	10.882	B5-03822-P04-CH1	2513616	OK	0.7638306	-0.6443185	0.0376364	0	-113.806	-43.992	5.816	NA
0.139886621315193	B5-03822-P01-CH0	2513624	OK	0.2236297	0.0735531	0.0616384	-0.9699384	99.205	41.867	-259.436	B5-03822-P02-CH0	2513624	OK	0.7747013	-0.0948114	-0.6251789	0	-83.889	-98.551	1.689	B5-03822-P02-CH1	2513624	OK	0.8304203	-0.0533356	-0.5545786	0	-93.138	-74.015	7.93	B5-03822-P03-CH0	2513624	OK	0.745922	-0.3735456	-0.55142	0	-98.418	-54.643	4.609	B5-03822-P03-CH1	2513624	OK	0.7378829	-0.6455124	0.1970852	0	-105.239	-26.446	3.076	B5-03822-P04-CH0	2513624	OK	0.681886	-0.0983919	0.7248107	0	-130.703	-31.031	11.016	B5-03822-P04-CH1	2513624	OK	0.7635284	-0.6446755	0.0376532	0	-113.712	-44.108	6.026	NA
0.149878522837707	B5-03822-P01-CH0	2513632	OK	0.2234139	0.0734661	0.0616377	-0.9699947	99.222	41.856	-259.53	B5-03822-P02-CH0	2513632	OK	0.7677909	-0.1059698	-0.6318762	0	-83.548	-99.031	0.759	B5-03822-P02-CH1	2513632	OK	0.8296293	-0.0577473	-0.5553201	0	-93.776	-74.076	9.474	B5-03822-P03-CH0	2513632	OK	0.7441997	-0.3759417	-0.5521184	0	-98.046	-54.865	3.945	B5-03822-P03-CH1	2513632	OK	0.7379833	-0.6453687	0.1971797	0	-105.26	-26.391	3.126	B5-03822-P04-CH0	2513632	OK	0.6817635	-0.0970164	0.7251113	0	-130.77	-31.117	11.223	B5-03822-P04-CH1	2513632	OK	0.7634425	-0.6448035	0.0372029	0	-113.904	-44.117	5.994	NA
0.15987042436022	B5-03822-P01-CH0	2513640	OK	0.223006	0.0734711	0.060791	-0.9701416	99.199	41.81	-259.625	B5-03822-P02-CH0	2513640	OK	0.7617157	-0.1160936	-0.6374257	0	-82.587	-98.819	0.557	B5-03822-P02-CH1	2513640	OK	0.829096	-0.0600495	-0.5558722	0	-94.194	-74.436	8.561	B5-03822-P03-CH0	2513640	OK	0.7418467	-0.3781492	-0.5537749	0	-98.367	-54.403	4.54	B5-03822-P03-CH1	2513640	OK	0.7375388	-0.6459063	0.1970825	0	-105.26	-26.341	3.154	B5-03822-P04-CH0	2513640	OK	0.6815079	-0.096002	0.7254865	0	-130.837	-31.196	11.193	B5-03822-P04-CH1	2513640	OK	0.762785	-0.645588	0.0370827	0	-113.881	-44.114	6.06	NA
0.169862325882734	B5-03822-P01-CH0	2513648	OK	0.223205	0.0734144	0.0615611	-0.9700516	99.172	41.987	-259.678	B5-03822-P02-CH0	2513648	OK	0.7555018	-0.1252912	-0.6430546	0	-82.135	-100.152	-0.16	B5-03822-P02-CH1	2513648	OK	0.8298088	-0.0617334	-0.5546227	0	-93.914	-74.349	9.086	B5-03822-P03-CH0	2513648	OK	0.7413735	-0.3818425	-0.551871	0	-98.458	-53.944	5.229	B5-03822-P03-CH1	2513648	OK	0.7382333	-0.644966	0.1975612	0	-105.254	-26.214	3.191	B5-03822-P04-CH0	2513648	OK	0.68153	-0.0943034	0.7256884	0	-130.877	-31.199	11.231	B5-03822-P04-CH1	2513648	OK	0.7631778	-0.6450915	0.0376377	0	-113.896	-44.107	6.16	NA
0.179854227405248	B5-03822-P01-CH0	2513656	OK	0.2230566	0.0733555	0.0617088	-0.9700808	99.169	42.099	-259.817	B5-03822-P02-CH0	2513656	OK	0.7510388	-0.1278338	-0.6477648	0	-82.2	-99.655	0.679	B5-03822-P02-CH1	2513656	OK	0.8296539	-0.0641672	-0.5545781	0	-94.324	-74.883	9.81	B5-03822-P03-CH0	2513656	OK	0.7401909	-0.3848015	-0.551403	0	-99.242	-53.913	4.703	B5-03822-P03-CH1	2513656	OK	0.7385149	-0.6446246	0.1976232	0	-105.134	-26.075	3.325	B5-03822-P04-CH0	2513656	OK	0.6815627	-0.0932381	0.7257954	0	-131	-31.165	11.342	B5-03822-P04-CH1	2513656	OK	0.7631856	-0.6450768	0.0377319	0	-114.102	-44.072	6.206	NA
0.189846128927762	B5-03822-P01-CH0	2513664	OK	0.2228876	0.0732539	0.0613764	-0.9701484	99.135	42.132	-259.892	B5-03822-P02-CH0	2513664	OK	0.7507265	-0.1270394	-0.6482828	0	-81.92	-99.337	1.261	B5-03822-P02-CH1	2513664	OK	0.8304853	-0.0638117	-0.5533735	0	-94.373	-75.108	9.473	B5-03822-P03-CH0	2513664	OK	0.742074	-0.3906813	-0.5446966	0	-98.365	-53.91	4.248	B5-03822-P03-CH1	2513664	OK	0.7385346	-0.6445426	0.1978171	0	-105.069	-26.13	3.859	B5-03822-P04-CH0	2513664	OK	0.6815524	-0.0923108	0.7259236	0	-131.137	-31.178	11.366	B5-03822-P04-CH1	2513664	OK	0.7629128	-0.6453687	0.0382527	0	-114.222	-44.122	6.257	NA
0.199838030450275	B5-03822-P01-CH0	2513672	OK	0.2228298	0.0732056	0.0613231	-0.9701687	99.14	42.178	-260.006	B5-03822-P02-CH0	2513672	OK	0.7529092	-0.1235715	-0.6464193	0	-82.078	-99.49	0.691	B5-03822-P02-CH1	2513672	OK	0.8304766	-0.0648032	-0.5532714	0	-94.734	-74.976	11.307	B5-03822-P03-CH0	2513672	OK	0.7431351	-0.3951468	-0.5400085	0	-99.674	-53.63	5.086	B5-03822-P03-CH1	2513672	OK	0.7388313	-0.644243	0.1976847	0	-105.011	-26.043	3.935	B5-03822-P04-CH0	2513672	OK	0.6813406	-0.0915895	0.7262137	0	-131.147	-31.267	11.427	B5-03822-P04-CH1	2513672	OK	0.7628692	-0.6453742	0.0390227	0	-114.312	-44.159	6.268	NA
0.209829931972789	B5-03822-P01-CH0	2513680	OK	0.222575	0.0729596	0.061096	-0.97026	99.066	42.167	-260.078	B5-03822-P02-CH0	2513680	OK	0.7555216	-0.1200173	-0.6440364	0	-82.024	-101.494	0.222	B5-03822-P02-CH1	2513680	OK	0.8300306	-0.0619112	-0.5542709	0	-95.947	-74.35	11.285	B5-03822-P03-CH0	2513680	OK	0.7463523	-0.4030451	-0.5296346	0	-99.945	-53.559	3.93	B5-03822-P03-CH1	2513680	OK	0.739009	-0.6441381	0.1973619	0	-104.998	-25.964	4.12	B5-03822-P04-CH0	2513680	OK	0.68091	-0.0912679	0.7266579	0	-131.158	-31.387	11.058	B5-03822-P04-CH1	2513680	OK	0.7626392	-0.645599	0.0397922	0	-114.394	-44.243	6.255	NA
0.219821833495303	B5-03822-P01-CH0	2513688	OK	0.2227096	0.0731003	0.0614035	-0.9701992	99.136	42.273	-260.028	B5-03822-P02-CH0	2513688	OK	0.7585891	-0.1148458	-0.6413681	0	-81.334	-101.995	-0.347	B5-03822-P02-CH1	2513688	OK	0.8301505	-0.0649989	-0.5537376	0	-96.161	-74.732	11.37	B5-03822-P03-CH0	2513688	OK	0.7479313	-0.4166516	-0.5167206	0	-100.585	-53.68	4.717	B5-03822-P03-CH1	2513688	OK	0.7396094	-0.6435919	0.1968943	0	-105.282	-25.839	4.218	B5-03822-P04-CH0	2513688	OK	0.6812955	-0.0903739	0.7264083	0	-131.466	-31.536	11.096	B5-03822-P04-CH1	2513688	OK	0.7627097	-0.6454421	0.0409671	0	-114.754	-44.402	5.996	NA
0.229813735017817	B5-03822-P01-CH0	2513696	OK	0.2227765	0.072948	0.0617489	-0.9701733	99.08	42.249	-259.905	B5-03822-P02-CH0	2513696	OK	0.7587865	-0.1032305	-0.6431069	0	-81.487	-101.211	-0.004	B5-03822-P02-CH1	2513696	OK	0.8282143	-0.0714997	-0.5558317	0	-95.888	-76.589	9.717	B5-03822-P03-CH0	2513696	OK	0.7487816	-0.4377219	-0.4977205	0	-100.694	-54.114	4.709	B5-03822-P03-CH1	2513696	OK	0.739821	-0.6434166	0.1966722	0	-105.275	-25.897	4.342	B5-03822-P04-CH0	2513696	OK	0.6814031	-0.0900844	0.7263434	0	-131.686	-31.642	10.555	B5-03822-P04-CH1	2513696	OK	0.7628922	-0.6451347	0.042388	0	-114.906	-44.637	5.855	NA
0.23980563654033	B5-03822-P01-CH0	2513704	OK	0.2230396	0.0727278	0.0623121	-0.9700934	99.009	42.377	-259.962	B5-03822-P02-CH0	2513704	OK	0.7570959	-0.0833666	-0.6479628	0	-82.139	-99.835	0.232	B5-03822-P02-CH1	2513704	OK	0.8240325	-0.0703938	-0.5621522	0	-94.755	-76.203	8.648	B5-03822-P03-CH0	2513704	OK	0.7482228	-0.4596604	-0.4784088	0	-101.528	-54.155	4.78	B5-03822-P03-CH1	2513704	OK	0.7354857	-0.6488821	0.1949688	0	-104.89	-26.641	2.918	B5-03822-P04-CH0	2513704	OK	0.6814042	-0.0898077	0.7263765	0	-131.93	-31.663	10.232	B5-03822-P04-CH1	2513704	OK	0.763398	-0.6444208	0.0441067	0	-115.123	-44.68	5.751	NA
0.249797538062844	B5-03822-P01-CH0	2513712	OK	0.2233283	0.0726199	0.0628977	-0.9699973	98.963	42.46	-259.897	B5-03822-P02-CH0	2513712	OK	0.7554692	-0.0610069	-0.6523377	0	-83.414	-99.48	0.925	B5-03822-P02-CH1	2513712	OK	0.8172114	-0.0630984	-0.5728736	0	-93.991	-74.963	7.576	B5-03822-P03-CH0	2513712	OK	0.7482425	-0.483327	-0.4544537	0	-100.272	-54.989	4.687	B5-03822-P03-CH1	2513712	OK	0.7345061	-0.6496997	0.1959363	0	-105.676	-25.74	4.261	B5-03822-P04-CH0	2513712	OK	0.6805768	-0.0922892	0.726841	0	-133.318	-31.786	10.44	B5-03822-P04-CH1	2513712	OK	0.7639162	-0.6437026	0.0455955	0	-115.231	-44.773	5.66	NA
0.259789439585358	B5-03822-P01-CH0	2513720	OK	0.22348	0.0727038	0.0632117	-0.9699356	99.011	42.513	-259.861	B5-03822-P02-CH0	2513720	OK	0.7580185	-0.0389665	-0.6510681	0	-83.32	-100.959	0.383	B5-03822-P02-CH1	2513720	OK	0.809169	-0.0570693	-0.5847979	0	-94.163	-75.024	8.332	B5-03822-P03-CH0	2513720	OK	0.7485019	-0.4976555	-0.4382737	0	-99.701	-55.229	5.128	B5-03822-P03-CH1	2513720	OK	0.7308811	-0.6515537	0.203201	0	-104.962	-26.268	3.411	B5-03822-P04-CH0	2513720	OK	0.6775119	-0.1011926	0.7285175	0	-132.21	-30.763	11.008	B5-03822-P04-CH1	2513720	OK	0.7642042	-0.6432583	0.0470177	0	-115.422	-44.947	5.833	NA
0.269781341107872	B5-03822-P01-CH0	2513728	OK	0.2233966	0.0727734	0.0627739	-0.9699781	98.993	42.488	-259.782	B5-03822-P02-CH0	2513728	OK	0.7612725	-0.0202263	-0.6481166	0	-83.195	-102.297	0.014	B5-03822-P02-CH1	2513728	OK	0.8034575	-0.0499154	-0.593266	0	-93.366	-75.048	7.05	B5-03822-P03-CH0	2513728	OK	0.7485182	-0.5037893	-0.4311807	0	-100.602	-55.703	5.379	B5-03822-P03-CH1	2513728	OK	0.7285889	-0.6512137	0.2123178	0	-105.325	-26.71	3.06	B5-03822-P04-CH0	2513728	OK	0.6761354	-0.1132709	0.7280183	0	-131.899	-31.029	11.704	B5-03822-P04-CH1	2513728	OK	0.7639469	-0.64349	0.0480193	0	-115.604	-45.092	5.74	NA
0.279773242630385	B5-03822-P01-CH0	2513736	OK	0.2236476	0.0727101	0.0631321	-0.9699017	98.95	42.514	-259.677	B5-03822-P02-CH0	2513736	OK	0.7633195	-0.0032843	-0.6460128	0	-83.908	-101.262	0.201	B5-03822-P02-CH1	2513736	OK	0.7956675	-0.0460919	-0.6039774	0	-93.102	-75.377	7.158	B5-03822-P03-CH0	2513736	OK	0.7496611	-0.5078123	-0.4244229	0	-100.614	-55.951	4.324	B5-03822-P03-CH1	2513736	OK	0.7285777	-0.648526	0.2204283	0	-105.609	-25.982	2.657	B5-03822-P04-CH0	2513736	OK	0.674719	-0.1309283	0.7263691	0	-131.217	-31.102	11.317	B5-03822-P04-CH1	2513736	OK	0.7642472	-0.6430148	0.0495797	0	-115.479	-45.207	5.632	NA
0.289765144152899	B5-03822-P01-CH0	2513744	OK	0.2237739	0.0724851	0.0636766	-0.9698538	98.863	42.542	-259.63	B5-03822-P02-CH0	2513744	OK	0.7647986	0.0057224	-0.644244	0	-84.363	-100.346	1.489	B5-03822-P02-CH1	2513744	OK	0.7897109	-0.0457898	-0.611768	0	-92.254	-75.469	6.134	B5-03822-P03-CH0	2513744	OK	0.7504559	-0.506952	-0.4240467	0	-99.799	-55.818	4.111	B5-03822-P03-CH1	2513744	OK	0.7286229	-0.646578	0.2259325	0	-105.785	-25.4	2.57	B5-03822-P04-CH0	2513744	OK	0.6743586	-0.1461234	0.7238014	0	-130.353	-30.66	12.476	B5-03822-P04-CH1	2513744	OK	0.7647302	-0.642385	0.0502916	0	-115.463	-45.203	5.469	NA
0.299757045675413	B5-03822-P01-CH0	2513752	OK	0.2239207	0.0725404	0.063911	-0.9698004	98.86	42.602	-259.571	B5-03822-P02-CH0	2513752	OK	0.7676933	0.0103408	-0.640734	0	-84.513	-99.292	0.403	B5-03822-P02-CH1	2513752	OK	0.7850016	-0.0468256	-0.6177215	0	-91.767	-74.823	6.427	B5-03822-P03-CH0	2513752	OK	0.749355	-0.5040091	-0.4294669	0	-99.313	-55.531	5.638	B5-03822-P03-CH1	2513752	OK	0.7275427	-0.6473027	0.2273344	0	-106.127	-25.259	2.522	B5-03822-P04-CH0	2513752	OK	0.675194	-0.1539305	0.7214003	0	-130.486	-30.062	12.089	B5-03822-P04-CH1	2513752	OK	0.7650235	-0.6420016	0.0507252	0	-115.575	-45.187	5.521	NA
0.309748947197927	B5-03822-P01-CH0	2513760	OK	0.2241098	0.0726278	0.0641264	-0.9697359	98.846	42.69	-259.499	B5-03822-P02-CH0	2513760	OK	0.7693056	0.0116017	-0.6387756	0	-86.125	-98.173	0.695	B5-03822-P02-CH1	2513760	OK	0.7807685	-0.0485396	-0.6229322	0	-91.645	-75.499	6.375	B5-03822-P03-CH0	2513760	OK	0.7474231	-0.5006584	-0.4366921	0	-98.278	-55.531	5.113	B5-03822-P03-CH1	2513760	OK	0.7259788	-0.6494837	0.2261097	0	-106.381	-25.483	1.995	B5-03822-P04-CH0	2513760	OK	0.6736694	-0.155863	0.7224101	0	-129.821	-30.135	11.365	B5-03822-P04-CH1	2513760	OK	0.7653322	-0.6416284	0.0507891	0	-115.6	-45.078	5.625	NA
0.319740848720441	B5-03822-P01-CH0	2513768	OK	0.223917	0.0724738	0.0638297	-0.9698116	98.782	42.689	-259.581	B5-03822-P02-CH0	2513768	OK	0.7740149	0.008084	-0.6331157	0	-85.995	-98.4	0.682	B5-03822-P02-CH1	2513768	OK	0.777934	-0.0470031	-0.6265855	0	-90.913	-75.503	4.995	B5-03822-P03-CH0	2513768	OK	0.7426978	-0.4905741	-0.4557817	0	-98.606	-55.153	4.113	B5-03822-P03-CH1	2513768	OK	0.7233999	-0.6531064	0.2239301	0	-105.794	-25.898	1.813	B5-03822-P04-CH0	2513768	OK	0.6743302	-0.154393	0.7221091	0	-130.11	-29.74	11.896	B5-03822-P04-CH1	2513768	OK	0.7653286	-0.6416944	0.0500044	0	-115.497	-44.904	6.067	NA
0.329732750242954	B5-03822-P01-CH0	2513776	OK	0.223957	0.0726916	0.0636986	-0.9697947	98.862	42.782	-259.622	B5-03822-P02-CH0	2513776	OK	0.779154	0.0046127	-0.6268155	0	-85.809	-97.483	1.133	B5-03822-P02-CH1	2513776	OK	0.7741934	-0.042258	-0.6315369	0	-90.874	-75.255	4.188	B5-03822-P03-CH0	2513776	OK	0.7373245	-0.4776452	-0.4777109	0	-98.339	-54.919	3.983	B5-03822-P03-CH1	2513776	OK	0.7231744	-0.6547309	0.2198778	0	-106.537	-25.394	1.89	B5-03822-P04-CH0	2513776	OK	0.6740686	-0.1520347	0.7228534	0	-130.217	-29.545	12.677	B5-03822-P04-CH1	2513776	OK	0.7652429	-0.6418437	0.0493953	0	-115.466	-44.773	6.13	NA
0.339724651765468	B5-03822-P01-CH0	2513784	OK	0.2240688	0.0729683	0.0638055	-0.969741	98.925	42.824	-259.539	B5-03822-P02-CH0	2513784	OK	0.7803421	0.0022673	-0.6253488	0	-86.804	-96.376	2.547	B5-03822-P02-CH1	2513784	OK	0.7694581	-0.0371824	-0.6376141	0	-90.791	-75.171	4.792	B5-03822-P03-CH0	2513784	OK	0.731667	-0.4664888	-0.4970428	0	-97.505	-55.004	2.918	B5-03822-P03-CH1	2513784	OK	0.7216258	-0.6577213	0.2160067	0	-106.413	-25.554	1.193	B5-03822-P04-CH0	2513784	OK	0.6726129	-0.14972	0.7246901	0	-129.968	-29.737	12.464	B5-03822-P04-CH1	2513784	OK	0.7653581	-0.6417976	0.0481951	0	-115.492	-44.623	6.187	NA
0.349716553287982	B5-03822-P01-CH0	2513792	OK	0.2238846	0.0731482	0.0631819	-0.9698108	98.955	42.78	-259.495	B5-03822-P02-CH0	2513792	OK	0.7812869	-0.00551	-0.6241478	0	-86.697	-96.87	1.386	B5-03822-P02-CH1	2513792	OK	0.7649237	-0.0301745	-0.6434137	0	-88.964	-75.445	3.512	B5-03822-P03-CH0	2513792	OK	0.7235177	-0.4650999	-0.5101022	0	-96.547	-55.547	1.841	B5-03822-P03-CH1	2513792	OK	0.7208008	-0.6595178	0.2132661	0	-105.92	-24.912	0.485	B5-03822-P04-CH0	2513792	OK	0.6714998	-0.1452324	0.726633	0	-130.061	-29.777	13.097	B5-03822-P04-CH1	2513792	OK	0.7649182	-0.6424134	0.0469583	0	-115.406	-44.513	6.285	NA
0.359708454810496	B5-03822-P01-CH0	2513800	OK	0.2240289	0.0730017	0.0631641	-0.9697897	98.862	42.787	-259.444	B5-03822-P02-CH0	2513800	OK	0.7796353	-0.0091522	-0.626167	0	-87.589	-96.445	2.097	B5-03822-P02-CH1	2513800	OK	0.7549917	-0.018589	-0.6554708	0	-88.792	-75.012	3.063	B5-03822-P03-CH0	2513800	OK	0.719086	-0.4740674	-0.5081097	0	-95.016	-55.756	2.002	B5-03822-P03-CH1	2513800	OK	0.720146	-0.6602848	0.2131049	0	-105.904	-25.159	0.321	B5-03822-P04-CH0	2513800	OK	0.6713904	-0.1388335	0.7279836	0	-130.958	-29.716	12.486	B5-03822-P04-CH1	2513800	OK	0.764968	-0.6424243	0.0459892	0	-115.155	-44.312	6.153	NA
0.369700356333009	B5-03822-P01-CH0	2513808	OK	0.2239357	0.0730687	0.0630623	-0.9698128	98.919	42.768	-259.456	B5-03822-P02-CH0	2513808	OK	0.7810081	-0.0108484	-0.6244267	0	-87.436	-97.057	1.249	B5-03822-P02-CH1	2513808	OK	0.7477432	-0.0044167	-0.6639733	0	-87.191	-75.267	1.633	B5-03822-P03-CH0	2513808	OK	0.7179727	-0.4855441	-0.4987605	0	-94.671	-56.336	2.163	B5-03822-P03-CH1	2513808	OK	0.7199792	-0.6608568	0.211892	0	-105.496	-24.582	-0.76	B5-03822-P04-CH0	2513808	OK	0.6687727	-0.1280705	0.732353	0	-130.916	-29.956	12.015	B5-03822-P04-CH1	2513808	OK	0.7648599	-0.6426447	0.0446881	0	-115.054	-44.205	6.256	NA
0.379692257855523	B5-03822-P01-CH0	2513816	OK	0.223713	0.0732462	0.0625952	-0.9698811	98.961	42.692	-259.435	B5-03822-P02-CH0	2513816	OK	0.7825603	-0.0114074	-0.6224702	0	-87.634	-96.535	2.009	B5-03822-P02-CH1	2513816	OK	0.7386147	0.0136303	-0.67399	0	-86.895	-76.344	1.395	B5-03822-P03-CH0	2513816	OK	0.7186728	-0.4950589	-0.4882889	0	-94.803	-57.089	1.757	B5-03822-P03-CH1	2513816	OK	0.719875	-0.6603941	0.2136811	0	-105.304	-24.48	-0.12	B5-03822-P04-CH0	2513816	OK	0.6663383	-0.1172842	0.7363679	0	-131.04	-30.983	11.595	B5-03822-P04-CH1	2513816	OK	0.764545	-0.6431258	0.0431285	0	-115.056	-44.094	6.364	NA
0.389684159378037	B5-03822-P01-CH0	2513824	OK	0.2234705	0.0733221	0.0622831	-0.9699513	98.961	42.693	-259.461	B5-03822-P02-CH0	2513824	OK	0.7868918	-0.0135403	-0.6169424	0	-87.134	-96.604	1.951	B5-03822-P02-CH1	2513824	OK	0.730352	0.0368537	-0.682076	0	-86.515	-75.36	2.117	B5-03822-P03-CH0	2513824	OK	0.7200411	-0.5006208	-0.480541	0	-94.689	-56.952	2.511	B5-03822-P03-CH1	2513824	OK	0.7195978	-0.6601887	0.2152437	0	-105.501	-24.631	0.984	B5-03822-P04-CH0	2513824	OK	0.6663242	-0.1095259	0.7375745	0	-131.792	-30.372	12.562	B5-03822-P04-CH1	2513824	OK	0.7643206	-0.6434864	0.0417036	0	-114.941	-43.893	6.442	NA
0.399676060900551	B5-03822-P01-CH0	2513832	OK	0.223402	0.0731434	0.0624052	-0.9699728	98.896	42.691	-259.457	B5-03822-P02-CH0	2513832	OK	0.7897201	-0.0142252	-0.6133023	0	-87.667	-96.195	2.031	B5-03822-P02-CH1	2513832	OK	0.7251255	0.0596338	-0.6860298	0	-85.302	-75.767	1.124	B5-03822-P03-CH0	2513832	OK	0.7213438	-0.502145	-0.4769838	0	-94.253	-56.188	3.24	B5-03822-P03-CH1	2513832	OK	0.7210114	-0.6584183	0.2159347	0	-106.119	-24.9	1.485	B5-03822-P04-CH0	2513832	OK	0.6644686	-0.0981159	0.7408473	0	-131.622	-31.094	12.772	B5-03822-P04-CH1	2513832	OK	0.7644391	-0.6434236	0.0404838	0	-114.786	-43.678	6.414	NA
0.409667962423064	B5-03822-P01-CH0	2513840	OK	0.2233054	0.073112	0.0625001	-0.9699913	98.868	42.76	-259.523	B5-03822-P02-CH0	2513840	OK	0.7906493	-0.0169106	-0.6120358	0	-88.38	-96.564	3.029	B5-03822-P02-CH1	2513840	OK	0.7190495	0.0788235	-0.6904743	0	-84.927	-76.873	0.743	B5-03822-P03-CH0	2513840	OK	0.7196852	-0.4978154	-0.4839763	0	-94.02	-56.151	2.827	B5-03822-P03-CH1	2513840	OK	0.7204733	-0.6594007	0.2147299	0	-105.93	-24.803	1.263	B5-03822-P04-CH0	2513840	OK	0.6650207	-0.0848786	0.7419859	0	-132.197	-31.713	14.211	B5-03822-P04-CH1	2513840	OK	0.7645348	-0.6433703	0.0395111	0	-114.64	-43.422	6.418	NA
0.419659863945578	B5-03822-P01-CH0	2513848	OK	0.2230634	0.0733765	0.0617777	-0.9700732	98.924	42.69	-259.553	B5-03822-P02-CH0	2513848	OK	0.791283	-0.0166649	-0.611223	0	-89.138	-95.604	2.569	B5-03822-P02-CH1	2513848	OK	0.7136416	0.0971291	-0.6937446	0	-83.845	-76.512	0.778	B5-03822-P03-CH0	2513848	OK	0.7141671	-0.4881736	-0.5016491	0	-93.922	-57.636	1.86	B5-03822-P03-CH1	2513848	OK	0.7197534	-0.6605777	0.213523	0	-105.784	-24.786	1.27	B5-03822-P04-CH0	2513848	OK	0.6636716	-0.0775511	0.7439932	0	-131.842	-30.682	14.136	B5-03822-P04-CH1	2513848	OK	0.7638642	-0.6442062	0.0388568	0	-114.478	-43.438	6.273	NA
0.429651765468092	B5-03822-P01-CH0	2513856	OK	0.222993	0.073587	0.0615134	-0.9700903	98.937	42.657	-259.52	B5-03822-P02-CH0	2513856	OK	0.7914797	-0.0166783	-0.6109678	0	-89.408	-94.898	4.186	B5-03822-P02-CH1	2513856	OK	0.7073941	0.1094245	-0.6982978	0	-83.91	-76.412	2.005	B5-03822-P03-CH0	2513856	OK	0.7072696	-0.4814127	-0.5176983	0	-93.287	-58.093	0.971	B5-03822-P03-CH1	2513856	OK	0.7193572	-0.6612356	0.212821	0	-105.494	-24.83	0.863	B5-03822-P04-CH0	2513856	OK	0.6655181	-0.0687362	0.7432099	0	-132.788	-30.425	13.224	B5-03822-P04-CH1	2513856	OK	0.7635861	-0.6445797	0.0381204	0	-114.467	-43.413	6.223	NA
0.439643666990606	B5-03822-P01-CH0	2513864	OK	0.2227913	0.0734248	0.0612901	-0.9701631	98.863	42.594	-259.567	B5-03822-P02-CH0	2513864	OK	0.7940045	-0.0165912	-0.6076854	0	-88.653	-94.969	3.428	B5-03822-P02-CH1	2513864	OK	0.7043137	0.1218435	-0.6993543	0	-84.067	-76.111	2.436	B5-03822-P03-CH0	2513864	OK	0.7010762	-0.4760956	-0.5308721	0	-92.213	-57.422	2.089	B5-03822-P03-CH1	2513864	OK	0.7194852	-0.6613852	0.2119213	0	-105.355	-24.768	0.908	B5-03822-P04-CH0	2513864	OK	0.6631809	-0.063872	0.7457288	0	-132.034	-30.163	12.327	B5-03822-P04-CH1	2513864	OK	0.7633017	-0.6449602	0.0373733	0	-114.43	-43.384	6.095	NA
0.44963556851312	B5-03822-P01-CH0	2513872	OK	0.2226203	0.0733715	0.0612361	-0.9702098	98.814	42.559	-259.595	B5-03822-P02-CH0	2513872	OK	0.7936768	-0.0176194	-0.6080844	0	-89.475	-96.105	3.624	B5-03822-P02-CH1	2513872	OK	0.7037054	0.1354723	-0.6974568	0	-84.073	-76.488	2.114	B5-03822-P03-CH0	2513872	OK	0.6937333	-0.474261	-0.542043	0	-91.781	-58.123	1.692	B5-03822-P03-CH1	2513872	OK	0.7198172	-0.6613266	0.2109746	0	-105.286	-24.746	0.95	B5-03822-P04-CH0	2513872	OK	0.6644592	-0.0584398	0.7450361	0	-132.672	-30.784	12.363	B5-03822-P04-CH1	2513872	OK	0.7632186	-0.6450881	0.03686	0	-114.352	-43.296	6.001	NA
0.459627470035633	B5-03822-P01-CH0	2513880	OK	0.2225198	0.0735647	0.0613636	-0.9702101	98.862	42.584	-259.569	B5-03822-P02-CH0	2513880	OK	0.7961848	-0.0154935	-0.6048551	0	-89.176	-96.207	3.205	B5-03822-P02-CH1	2513880	OK	0.7055782	0.1500433	-0.6925651	0	-83.509	-76.96	2.248	B5-03822-P03-CH0	2513880	OK	0.6883586	-0.4691687	-0.5532117	0	-90.665	-58.846	1.426	B5-03822-P03-CH1	2513880	OK	0.7238915	-0.6596178	0.2022014	0	-105.902	-24.635	1.895	B5-03822-P04-CH0	2513880	OK	0.6649916	-0.0575209	0.7446325	0	-132.627	-30.749	12.421	B5-03822-P04-CH1	2513880	OK	0.7630234	-0.6453391	0.0365064	0	-114.46	-43.368	5.919	NA
0.469619371558147	B5-03822-P01-CH0	2513888	OK	0.2225885	0.0734859	0.0617583	-0.9701753	98.793	42.618	-259.559	B5-03822-P02-CH0	2513888	OK	0.7968426	-0.010474	-0.6040961	0	-90.287	-95.206	3.621	B5-03822-P02-CH1	2513888	OK	0.7073006	0.162059	-0.6880863	0	-83.321	-77.433	1.706	B5-03822-P03-CH0	2513888	OK	0.685243	-0.4601745	-0.5645188	0	-90.243	-58.375	-0.356	B5-03822-P03-CH1	2513888	OK	0.7248357	-0.6593679	0.1996175	0	-105.626	-24.646	2.245	B5-03822-P04-CH0	2513888	OK	0.6643078	-0.0578661	0.7452159	0	-132.169	-31.147	12.011	B5-03822-P04-CH1	2513888	OK	0.7631162	-0.6452312	0.0364736	0	-114.433	-43.377	5.771	NA
0.479611273080661	B5-03822-P01-CH0	2513896	OK	0.2223616	0.0733618	0.0618085	-0.9702335	98.705	42.661	-259.591	B5-03822-P02-CH0	2513896	OK	0.7992323	-0.0078352	-0.6009711	0	-90.652	-94.442	4.96	B5-03822-P02-CH1	2513896	OK	0.7081969	0.1744678	-0.6841186	0	-83.507	-76.414	2.064	B5-03822-P03-CH0	2513896	OK	0.6849792	-0.4543223	-0.5695566	0	-90.79	-58.553	1.385	B5-03822-P03-CH1	2513896	OK	0.7264945	-0.6580836	0.1978175	0	-105.686	-24.442	2.22	B5-03822-P04-CH0	2513896	OK	0.6657072	-0.0598056	0.7438126	0	-132.146	-30.691	13.676	B5-03822-P04-CH1	2513896	OK	0.7630788	-0.6452948	0.0361289	0	-114.384	-43.235	5.631	NA
0.489603174603175	B5-03822-P01-CH0	2513904	OK	0.2223938	0.0734186	0.0622219	-0.9701954	98.714	42.652	-259.537	B5-03822-P02-CH0	2513904	OK	0.8024372	-0.001527	-0.5967346	0	-90.875	-93.087	5.129	B5-03822-P02-CH1	2513904	OK	0.7103132	0.1848929	-0.6791685	0	-82.936	-76.275	2.723	B5-03822-P03-CH0	2513904	OK	0.6876981	-0.455016	-0.5657135	0	-90.799	-58.599	0.548	B5-03822-P03-CH1	2513904	OK	0.7263767	-0.6579171	0.1988013	0	-104.828	-25.483	2.034	B5-03822-P04-CH0	2513904	OK	0.6678147	-0.0627375	0.7416789	0	-132.934	-30.632	12.58	B5-03822-P04-CH1	2513904	OK	0.7631561	-0.6452028	0.03614	0	-114.481	-43.332	5.388	NA
0.499595076125688	B5-03822-P01-CH0	2513912	OK	0.2225053	0.07344	0.0627293	-0.9701355	98.698	42.628	-259.532	B5-03822-P02-CH0	2513912	OK	0.8056275	0.0042963	-0.5924069	0	-91.371	-93.302	5.589	B5-03822-P02-CH1	2513912	OK	0.7106383	0.1948977	-0.6760237	0	-82.831	-76.588	2.288	B5-03822-P03-CH0	2513912	OK	0.6913054	-0.4638987	-0.5539809	0	-89.853	-59.09	0.051	B5-03822-P03-CH1	2513912	OK	0.7289891	-0.6550575	0.1986821	0	-105.589	-25.212	2.195	B5-03822-P04-CH0	2513912	OK	0.6684558	-0.0646614	0.7409357	0	-132.409	-31.002	13.608	B5-03822-P04-CH1	2513912	OK	0.7633894	-0.6449098	0.0364408	0	-114.404	-43.404	5.278	NA
0.509586977648202	B5-03822-P01-CH0	2513920	OK	0.2223808	0.0735248	0.0625065	-0.9701721	98.715	42.527	-259.555	B5-03822-P02-CH0	2513920	OK	0.8093566	0.0104316	-0.5872249	0	-92.079	-93.542	5.896	B5-03822-P02-CH1	2513920	OK	0.7097601	0.2073065	-0.6732493	0	-82.69	-75.987	3.481	B5-03822-P03-CH0	2513920	OK	0.6948695	-0.4752113	-0.5397505	0	-90.298	-58.308	0.527	B5-03822-P03-CH1	2513920	OK	0.7301519	-0.6535687	0.1993141	0	-106.234	-25.547	1.469	B5-03822-P04-CH0	2513920	OK	0.6664795	-0.0632959	0.7428316	0	-132.181	-30.85	13.732	B5-03822-P04-CH1	2513920	OK	0.7631404	-0.6452	0.0365194	0	-114.473	-43.527	5.253	NA
0.519578879170716	B5-03822-P01-CH0	2513928	OK	0.2226837	0.0734648	0.063304	-0.9700554	98.672	42.543	-259.483	B5-03822-P02-CH0	2513928	OK	0.8138696	0.0191599	-0.5807316	0	-92.424	-93.151	6.515	B5-03822-P02-CH1	2513928	OK	0.7115859	0.2186366	-0.6677151	0	-81.465	-77.705	1.309	B5-03822-P03-CH0	2513928	OK	0.6990899	-0.4919143	-0.5189351	0	-90.614	-58.204	0.37	B5-03822-P03-CH1	2513928	OK	0.7304398	-0.6529776	0.2001947	0	-105.957	-26.345	2.103	B5-03822-P04-CH0	2513928	OK	0.672428	-0.0726672	0.7365867	0	-132.546	-30.327	12.859	B5-03822-P04-CH1	2513928	OK	0.7636344	-0.6445813	0.037113	0	-114.477	-43.57	5.23	NA
0.52957078069323	B5-03822-P01-CH0	2513936	OK	0.2227369	0.0732952	0.0641682	-0.9699993	98.627	42.529	-259.469	B5-03822-P02-CH0	2513936	OK	0.8184322	0.0277405	-0.573933	0	-92.676	-92.589	8.646	B5-03822-P02-CH1	2513936	OK	0.7096282	0.2295966	-0.666118	0	-81.381	-77.292	1.045	B5-03822-P03-CH0	2513936	OK	0.7055812	-0.5140876	-0.4877183	0	-90.16	-58.202	1.403	B5-03822-P03-CH1	2513936	OK	0.732395	-0.6510886	0.1992013	0	-105.277	-25.718	3.278	B5-03822-P04-CH0	2513936	OK	0.6729064	-0.0768826	0.7357214	0	-132.317	-30.584	11.444	B5-03822-P04-CH1	2513936	OK	0.7641447	-0.6439586	0.037421	0	-114.504	-43.626	5.192	NA
0.539562682215743	B5-03822-P01-CH0	2513944	OK	0.2226271	0.0733404	0.0641262	-0.9700238	98.631	42.463	-259.465	B5-03822-P02-CH0	2513944	OK	0.8230508	0.0370449	-0.5667584	0	-93.434	-91.802	8.637	B5-03822-P02-CH1	2513944	OK	0.7089272	0.2363757	-0.6644914	0	-81.009	-77.196	1.911	B5-03822-P03-CH0	2513944	OK	0.7149902	-0.5331422	-0.4522702	0	-89.549	-58.241	1.677	B5-03822-P03-CH1	2513944	OK	0.7326773	-0.6506646	0.1995486	0	-104.776	-25.7	2.579	B5-03822-P04-CH0	2513944	OK	0.6739381	-0.0800289	0.7344405	0	-132.41	-31.086	10.714	B5-03822-P04-CH1	2513944	OK	0.7641747	-0.6439001	0.0378126	0	-114.444	-43.642	5.267	NA
0.549554583738257	B5-03822-P01-CH0	2513952	OK	0.2223272	0.0730694	0.0638099	-0.9701339	98.526	42.361	-259.503	B5-03822-P02-CH0	2513952	OK	0.8275638	0.042811	-0.5597368	0	-94.313	-91.612	9.082	B5-03822-P02-CH1	2513952	OK	0.7092609	0.2399923	-0.6628369	0	-80.437	-77.246	1.747	B5-03822-P03-CH0	2513952	OK	0.7239212	-0.5499226	-0.4165613	0	-90.862	-58.569	2.77	B5-03822-P03-CH1	2513952	OK	0.7341076	-0.649456	0.1982244	0	-105.545	-25.62	4.378	B5-03822-P04-CH0	2513952	OK	0.6757756	-0.0854541	0.7321372	0	-132.518	-30.685	11.31	B5-03822-P04-CH1	2513952	OK	0.7640026	-0.6440934	0.037996	0	-114.398	-43.65	5.213	NA
0.559546485260771	B5-03822-P01-CH0	2513960	OK	0.2219876	0.0730162	0.0634235	-0.970241	98.49	42.276	-259.588	B5-03822-P02-CH0	2513960	OK	0.8328316	0.0470596	-0.5515223	0	-94.863	-90.909	10.581	B5-03822-P02-CH1	2513960	OK	0.7064394	0.2391489	-0.6661465	0	-81.481	-76.036	3.942	B5-03822-P03-CH0	2513960	OK	0.7358104	-0.5657552	-0.3721615	0	-90.544	-58.339	2.869	B5-03822-P03-CH1	2513960	OK	0.7339664	-0.6496259	0.1981905	0	-104.941	-25.851	3.919	B5-03822-P04-CH0	2513960	OK	0.6764144	-0.0895564	0.7310562	0	-132.216	-31.158	11.664	B5-03822-P04-CH1	2513960	OK	0.7639234	-0.6441768	0.0381744	0	-114.378	-43.577	5.341	NA
0.569538386783285	B5-03822-P01-CH0	2513968	OK	0.2215228	0.0731493	0.0626001	-0.9703907	98.524	42.097	-259.647	B5-03822-P02-CH0	2513968	OK	0.8376066	0.0520732	-0.5437864	0	-95.506	-90.231	11.348	B5-03822-P02-CH1	2513968	OK	0.7082143	0.231997	-0.6667907	0	-80.9	-76.145	3.149	B5-03822-P03-CH0	2513968	OK	0.7511124	-0.5714441	-0.330578	0	-93.023	-58.179	7.829	B5-03822-P03-CH1	2513968	OK	0.7344799	-0.6490237	0.1982613	0	-104.946	-25.808	4.417	B5-03822-P04-CH0	2513968	OK	0.6779301	-0.0916636	0.7293892	0	-132.263	-31.756	12.809	B5-03822-P04-CH1	2513968	OK	0.7635229	-0.6446508	0.0381861	0	-114.485	-43.631	5.53	NA
0.579530288305799	B5-03822-P01-CH0	2513976	OK	0.22141	0.0733025	0.062168	-0.9704326	98.554	42.033	-259.642	B5-03822-P02-CH0	2513976	OK	0.8435299	0.0555346	-0.5342033	0	-95.417	-91.498	10.677	B5-03822-P02-CH1	2513976	OK	0.7089641	0.2199702	-0.6700619	0	-80.998	-76.299	3.406	B5-03822-P03-CH0	2513976	OK	0.7616215	-0.5803651	-0.2882863	0	-93.116	-58.339	5.421	B5-03822-P03-CH1	2513976	OK	0.7344274	-0.6488864	0.1989042	0	-104.713	-25.926	2.878	B5-03822-P04-CH0	2513976	OK	0.678028	-0.097362	0.7285593	0	-132.092	-30.771	11.274	B5-03822-P04-CH1	2513976	OK	0.763264	-0.6449336	0.0385827	0	-114.66	-43.741	5.624	NA
0.589522189828312	B5-03822-P01-CH0	2513984	OK	0.221188	0.0733997	0.0617057	-0.9705054	98.589	41.951	-259.695	B5-03822-P02-CH0	2513984	OK	0.845907	0.0660825	-0.5292206	0	-96.736	-89.367	12.759	B5-03822-P02-CH1	2513984	OK	0.7133552	0.2015707	-0.6711882	0	-79.225	-76.46	1.144	B5-03822-P03-CH0	2513984	OK	0.7660408	-0.5902602	-0.254508	0	-92.948	-58.433	6.86	B5-03822-P03-CH1	2513984	OK	0.7343566	-0.6489928	0.1988185	0	-104.406	-26.217	3.446	B5-03822-P04-CH0	2513984	OK	0.6788023	-0.0969469	0.7278933	0	-131.669	-31.93	12.393	B5-03822-P04-CH1	2513984	OK	0.7631386	-0.6450487	0.0391363	0	-114.695	-43.767	5.841	NA
0.599514091350826	B5-03822-P01-CH0	2513992	OK	0.2210269	0.0734266	0.0616459	-0.9705439	98.595	41.92	-259.667	B5-03822-P02-CH0	2513992	OK	0.8487207	0.0751219	-0.5234786	0	-97.503	-89	14.153	B5-03822-P02-CH1	2513992	OK	0.7121927	0.1822407	-0.6779158	0	-80.691	-75.604	2.36	B5-03822-P03-CH0	2513992	OK	0.7771763	-0.5865518	-0.2279342	0	-94.437	-56.747	8.817	B5-03822-P03-CH1	2513992	OK	0.7358866	-0.6472709	0.1987747	0	-104.857	-25.996	5.216	B5-03822-P04-CH0	2513992	OK	0.6807783	-0.0981286	0.7258868	0	-131.959	-32.302	12.628	B5-03822-P04-CH1	2513992	OK	0.7631776	-0.6449834	0.0394503	0	-114.859	-43.817	5.916	NA
0.60950599287334	B5-03822-P01-CH0	2514000	OK	0.2210875	0.0734161	0.0619848	-0.9705093	98.575	41.919	-259.612	B5-03822-P02-CH0	2514000	OK	0.8504481	0.0805639	-0.5198533	0	-98.028	-89.926	14.791	B5-03822-P02-CH1	2514000	OK	0.7129803	0.1638919	-0.6817614	0	-81.09	-73.931	2.495	B5-03822-P03-CH0	2514000	OK	0.7857143	-0.5826432	-0.2077981	0	-95.086	-56.498	7.693	B5-03822-P03-CH1	2514000	OK	0.7362642	-0.6469856	0.1983047	0	-105.209	-26.325	3.66	B5-03822-P04-CH0	2514000	OK	0.6821086	-0.0988641	0.724537	0	-132.212	-32.362	11.824	B5-03822-P04-CH1	2514000	OK	0.7633444	-0.6447447	0.0401188	0	-115.054	-43.976	5.765	NA
0.619497894395854	B5-03822-P01-CH0	2514008	OK	0.2206854	0.0732674	0.0614615	-0.9706453	98.508	41.85	-259.616	B5-03822-P02-CH0	2514008	OK	0.8523278	0.0896703	-0.5152636	0	-98.488	-89.855	15.171	B5-03822-P02-CH1	2514008	OK	0.7166491	0.149369	-0.6812511	0	-80.86	-74.802	2.288	B5-03822-P03-CH0	2514008	OK	0.7898333	-0.5807519	-0.197207	0	-95.575	-56.413	7.945	B5-03822-P03-CH1	2514008	OK	0.7361564	-0.6470607	0.1984595	0	-104.562	-26.368	4.128	B5-03822-P04-CH0	2514008	OK	0.6824158	-0.1018886	0.7238283	0	-132.329	-32.056	10.244	B5-03822-P04-CH1	2514008	OK	0.7631744	-0.6449406	0.0402042	0	-115.133	-43.955	5.775	NA
0.629489795918367	B5-03822-P01-CH0	2514016	OK	0.2206155	0.0731241	0.0611562	-0.9706913	98.461	41.768	-259.62	B5-03822-P02-CH0	2514016	OK	0.8537845	0.0965977	-0.5115867	0	-98.733	-90.225	15.483	B5-03822-P02-CH1	2514016	OK	0.7202507	0.1329583	-0.6808532	0	-80.488	-74.752	1.591	B5-03822-P03-CH0	2514016	OK	0.7910318	-0.580909	-0.1918682	0	-95.639	-56.578	8.724	B5-03822-P03-CH1	2514016	OK	0.735936	-0.647274	0.1985813	0	-104.36	-26.67	4.163	B5-03822-P04-CH0	2514016	OK	0.6839982	-0.1041228	0.7220145	0	-132.505	-31.121	10.648	B5-03822-P04-CH1	2514016	OK	0.7631295	-0.6449634	0.040689	0	-115.211	-44.058	5.888	NA
0.639481697440881	B5-03822-P01-CH0	2514024	OK	0.2205078	0.0732486	0.0609777	-0.9707176	98.485	41.791	-259.616	B5-03822-P02-CH0	2514024	OK	0.8533597	0.1047981	-0.5106804	0	-99.755	-88.408	17.324	B5-03822-P02-CH1	2514024	OK	0.7229026	0.1190614	-0.6806146	0	-81.032	-74.976	2.003	B5-03822-P03-CH0	2514024	OK	0.790776	-0.5795928	-0.1968389	0	-96.13	-55.616	8.888	B5-03822-P03-CH1	2514024	OK	0.7369706	-0.6464918	0.197288	0	-104.591	-26.111	5.375	B5-03822-P04-CH0	2514024	OK	0.6866555	-0.100621	0.7199859	0	-132.584	-32.405	14.333	B5-03822-P04-CH1	2514024	OK	0.7630753	-0.6449981	0.041152	0	-115.376	-44.114	5.919	NA
0.649473598963395	B5-03822-P01-CH0	2514032	OK	0.2208729	0.073529	0.0616508	-0.9705709	98.604	41.933	-259.51	B5-03822-P02-CH0	2514032	OK	0.8533197	0.1059649	-0.5105066	0	-100.179	-88.244	17.73	B5-03822-P02-CH1	2514032	OK	0.7258496	0.1055094	-0.6797132	0	-81.006	-74.76	2.146	B5-03822-P03-CH0	2514032	OK	0.7884496	-0.58184	-0.199523	0	-95.549	-55.194	8.746	B5-03822-P03-CH1	2514032	OK	0.7353525	-0.6480295	0.1982789	0	-104.561	-26.237	3.785	B5-03822-P04-CH0	2514032	OK	0.687319	-0.1006097	0.719354	0	-132.867	-32.851	12.436	B5-03822-P04-CH1	2514032	OK	0.7634193	-0.6445197	0.0422535	0	-115.458	-44.287	5.972	NA
0.659465500485909	B5-03822-P01-CH0	2514040	OK	0.2209329	0.0734073	0.0617996	-0.970557	98.582	41.933	-259.453	B5-03822-P02-CH0	2514040	OK	0.855085	0.1083953	-0.5070307	0	-99.488	-87.786	16.272	B5-03822-P02-CH1	2514040	OK	0.7289732	0.0947336	-0.6779555	0	-80.454	-74.733	2.113	B5-03822-P03-CH0	2514040	OK	0.7841347	-0.5865827	-0.2026168	0	-95.681	-55.362	8.457	B5-03822-P03-CH1	2514040	OK	0.7359119	-0.647345	0.1984392	0	-104.516	-26.271	3.835	B5-03822-P04-CH0	2514040	OK	0.6877958	-0.1032065	0.71853	0	-132.499	-31.994	11.852	B5-03822-P04-CH1	2514040	OK	0.7636126	-0.6442475	0.0429072	0	-115.405	-44.351	5.904	NA
0.669457402008422	B5-03822-P01-CH0	2514048	OK	0.221346	0.0733508	0.0624733	-0.970424	98.571	42.042	-259.381	B5-03822-P02-CH0	2514048	OK	0.8549536	0.1091357	-0.5070934	0	-99.379	-88.416	15.486	B5-03822-P02-CH1	2514048	OK	0.7289749	0.0847918	-0.6792687	0	-80.691	-74.107	0.96	B5-03822-P03-CH0	2514048	OK	0.7806454	-0.5909827	-0.2033032	0	-95.994	-55.143	7.627	B5-03822-P03-CH1	2514048	OK	0.7367174	-0.646381	0.1985927	0	-104.55	-26.338	3.805	B5-03822-P04-CH0	2514048	OK	0.6883796	-0.1048269	0.717736	0	-132.365	-32.616	9.988	B5-03822-P04-CH1	2514048	OK	0.7641709	-0.6435424	0.0435435	0	-115.411	-44.354	5.856	NA
0.679449303530936	B5-03822-P01-CH0	2514056	OK	0.2215264	0.0733035	0.0627394	-0.9703692	98.572	42.051	-259.308	B5-03822-P02-CH0	2514056	OK	0.8527227	0.1115199	-0.5103208	0	-99.813	-87.733	17.804	B5-03822-P02-CH1	2514056	OK	0.725915	0.0757778	-0.6835972	0	-82.063	-73.237	1.298	B5-03822-P03-CH0	2514056	OK	0.7768977	-0.5964148	-0.2017904	0	-96.12	-55.589	7.434	B5-03822-P03-CH1	2514056	OK	0.7371389	-0.6458984	0.1985987	0	-104.614	-26.482	3.769	B5-03822-P04-CH0	2514056	OK	0.6902149	-0.107432	0.7155849	0	-132.44	-32.216	11.205	B5-03822-P04-CH1	2514056	OK	0.764397	-0.6432413	0.0440212	0	-115.444	-44.43	5.82	NA
0.68944120505345	B5-03822-P01-CH0	2514064	OK	0.2214621	0.0731961	0.0622894	-0.970421	98.531	42.02	-259.336	B5-03822-P02-CH0	2514064	OK	0.8550655	0.1150247	-0.5056009	0	-98.874	-88.442	14.743	B5-03822-P02-CH1	2514064	OK	0.7260762	0.0675427	-0.684289	0	-82.168	-73.135	0.848	B5-03822-P03-CH0	2514064	OK	0.7747686	-0.5983089	-0.2043526	0	-96.336	-55.02	8.083	B5-03822-P03-CH1	2514064	OK	0.7371225	-0.6459693	0.1984292	0	-104.772	-26.521	3.807	B5-03822-P04-CH0	2514064	OK	0.6908033	-0.109158	0.7147554	0	-132.523	-32.435	10.638	B5-03822-P04-CH1	2514064	OK	0.764153	-0.6435345	0.0439718	0	-115.457	-44.443	6.034	NA
0.699433106575964	B5-03822-P01-CH0	2514072	OK	0.2216909	0.0731739	0.0624943	-0.9703573	98.542	42.066	-259.298	B5-03822-P02-CH0	2514072	OK	0.8535923	0.119784	-0.5069832	0	-99.098	-87.762	14.513	B5-03822-P02-CH1	2514072	OK	0.7289446	0.0591531	-0.6820122	0	-80.921	-73.377	0.001	B5-03822-P03-CH0	2514072	OK	0.7737345	-0.5985226	-0.2076189	0	-96.437	-54.363	7.262	B5-03822-P03-CH1	2514072	OK	0.7372586	-0.645905	0.1981323	0	-104.791	-26.563	3.813	B5-03822-P04-CH0	2514072	OK	0.691109	-0.1132161	0.7138281	0	-132.155	-32.198	11.181	B5-03822-P04-CH1	2514072	OK	0.7642859	-0.643354	0.0443031	0	-115.524	-44.5	5.957	NA
0.709425008098478	B5-03822-P01-CH0	2514080	OK	0.2217457	0.0732232	0.0623071	-0.9703531	98.59	42.055	-259.295	B5-03822-P02-CH0	2514080	OK	0.851418	0.1216849	-0.5101766	0	-99.598	-87.567	15.954	B5-03822-P02-CH1	2514080	OK	0.729683	0.0530722	-0.6817228	0	-81.105	-73.067	1.018	B5-03822-P03-CH0	2514080	OK	0.7711067	-0.5999518	-0.2131956	0	-96.725	-54.817	6.757	B5-03822-P03-CH1	2514080	OK	0.7369217	-0.6464292	0.1976759	0	-104.872	-26.661	3.891	B5-03822-P04-CH0	2514080	OK	0.6890838	-0.1187872	0.7148798	0	-131.311	-31.586	9.963	B5-03822-P04-CH1	2514080	OK	0.7642365	-0.6434214	0.0441744	0	-115.562	-44.51	6.095	NA
0.719416909620991	B5-03822-P01-CH0	2514088	OK	0.2220364	0.0733033	0.0626547	-0.9702581	98.655	42.159	-259.32	B5-03822-P02-CH0	2514088	OK	0.8491714	0.1218575	-0.5138663	0	-99.886	-88.149	16.889	B5-03822-P02-CH1	2514088	OK	0.7291119	0.0478762	-0.6827178	0	-82.202	-72.99	1.584	B5-03822-P03-CH0	2514088	OK	0.7687361	-0.599741	-0.2221611	0	-97.076	-55.072	6.946	B5-03822-P03-CH1	2514088	OK	0.7367953	-0.64675	0.1970967	0	-105.138	-26.695	3.853	B5-03822-P04-CH0	2514088	OK	0.6885604	-0.1238665	0.714522	0	-131.162	-31.501	9.731	B5-03822-P04-CH1	2514088	OK	0.7643892	-0.6432307	0.0443108	0	-115.658	-44.548	6.1	NA
0.729408811143505	B5-03822-P01-CH0	2514096	OK	0.221985	0.0734719	0.0623508	-0.9702767	98.723	42.273	-259.393	B5-03822-P02-CH0	2514096	OK	0.8492459	0.1258707	-0.5127748	0	-99.322	-87.988	14.62	B5-03822-P02-CH1	2514096	OK	0.7320722	0.0451332	-0.6797303	0	-81.31	-73.439	0.378	B5-03822-P03-CH0	2514096	OK	0.7671738	-0.5978773	-0.2323513	0	-96.519	-54.616	6.26	B5-03822-P03-CH1	2514096	OK	0.731438	-0.6538263	0.1936739	0	-105.234	-26.941	3.033	B5-03822-P04-CH0	2514096	OK	0.6867582	-0.1327515	0.7146609	0	-130.609	-31.028	10.062	B5-03822-P04-CH1	2514096	OK	0.7641835	-0.6434791	0.044252	0	-115.559	-44.433	6.222	NA
0.739400712666019	B5-03822-P01-CH0	2514104	OK	0.2224486	0.0733594	0.0632681	-0.9701197	98.742	42.397	-259.412	B5-03822-P02-CH0	2514104	OK	0.8451088	0.1245645	-0.5198796	0	-99.703	-88.331	16.562	B5-03822-P02-CH1	2514104	OK	0.7310786	0.0425505	-0.6809651	0	-82.312	-72.894	1.615	B5-03822-P03-CH0	2514104	OK	0.7654849	-0.5942662	-0.24674	0	-97.207	-54.537	5.928	B5-03822-P03-CH1	2514104	OK	0.7317033	-0.6526675	0.1965589	0	-105.275	-26.133	3.173	B5-03822-P04-CH0	2514104	OK	0.6868771	-0.1423999	0.7126865	0	-130.682	-30.768	10.865	B5-03822-P04-CH1	2514104	OK	0.7648928	-0.64262	0.0444809	0	-115.423	-44.36	6.271	NA
0.749392614188533	B5-03822-P01-CH0	2514112	OK	0.2224549	0.0732936	0.0633272	-0.9701193	98.723	42.442	-259.489	B5-03822-P02-CH0	2514112	OK	0.844157	0.1257171	-0.521147	0	-98.79	-88.769	14.796	B5-03822-P02-CH1	2514112	OK	0.7319516	0.039156	-0.6802306	0	-82.847	-72.19	2.445	B5-03822-P03-CH0	2514112	OK	0.7645949	-0.591112	-0.2568682	0	-96.173	-55.058	7.36	B5-03822-P03-CH1	2514112	OK	0.7310762	-0.652327	0.1999926	0	-105.61	-25.718	3.143	B5-03822-P04-CH0	2514112	OK	0.686278	-0.154141	0.7108185	0	-129.891	-30.121	11.443	B5-03822-P04-CH1	2514112	OK	0.764959	-0.642573	0.0440185	0	-115.465	-44.281	6.309	NA
0.759384515711046	B5-03822-P01-CH0	2514120	OK	0.2222078	0.073565	0.0624865	-0.9702099	98.838	42.418	-259.672	B5-03822-P02-CH0	2514120	OK	0.8393104	0.1253318	-0.5290086	0	-99.09	-89.304	15.786	B5-03822-P02-CH1	2514120	OK	0.7359225	0.0344411	-0.6761893	0	-82.391	-73.401	2.173	B5-03822-P03-CH0	2514120	OK	0.7628061	-0.5865277	-0.2722353	0	-97.441	-55.62	5.599	B5-03822-P03-CH1	2514120	OK	0.7287117	-0.6534478	0.204903	0	-105.358	-25.919	2.892	B5-03822-P04-CH0	2514120	OK	0.6841019	-0.1655292	0.7103553	0	-128.693	-29.864	11.65	B5-03822-P04-CH1	2514120	OK	0.7642952	-0.6434115	0.0432953	0	-115.531	-44.315	6.576	NA
0.76937641723356	B5-03822-P01-CH0	2514128	OK	0.2224072	0.0731857	0.0627841	-0.9701737	98.736	42.435	-259.731	B5-03822-P02-CH0	2514128	OK	0.8381098	0.1259275	-0.5307675	0	-97.633	-89.715	13.942	B5-03822-P02-CH1	2514128	OK	0.7375578	0.0338646	-0.6744344	0	-83.081	-72.73	3.784	B5-03822-P03-CH0	2514128	OK	0.7657361	-0.5784175	-0.2812142	0	-96.81	-55.111	6.865	B5-03822-P03-CH1	2514128	OK	0.7271303	-0.6543128	0.2077408	0	-105.337	-26.098	2.495	B5-03822-P04-CH0	2514128	OK	0.6846143	-0.1677241	0.7093461	0	-128.879	-30.701	12.629	B5-03822-P04-CH1	2514128	OK	0.764475	-0.643199	0.0432787	0	-115.323	-44.305	6.568	NA
0.779368318756074	B5-03822-P01-CH0	2514136	OK	0.222644	0.0729366	0.0629533	-0.9701272	98.694	42.466	-259.758	B5-03822-P02-CH0	2514136	OK	0.8350567	0.1258332	-0.5355804	0	-96.506	-90.23	11.71	B5-03822-P02-CH1	2514136	OK	0.7410703	0.031726	-0.6706775	0	-83.154	-74.212	2.277	B5-03822-P03-CH0	2514136	OK	0.7666692	-0.5722326	-0.2911498	0	-97.012	-55.47	6.569	B5-03822-P03-CH1	2514136	OK	0.7271404	-0.6546787	0.2065493	0	-105.822	-25.449	3.504	B5-03822-P04-CH0	2514136	OK	0.6814242	-0.1724693	0.7112773	0	-128.056	-29.724	10.233	B5-03822-P04-CH1	2514136	OK	0.7646553	-0.6429911	0.043182	0	-115.153	-44.222	6.467	NA
0.789360220278588	B5-03822-P01-CH0	2514144	OK	0.2227657	0.0731067	0.0631558	-0.9700733	98.758	42.574	-259.715	B5-03822-P02-CH0	2514144	OK	0.828624	0.1243288	-0.5458248	0	-96.277	-90.18	11.677	B5-03822-P02-CH1	2514144	OK	0.7435548	0.0292045	-0.6680369	0	-83.177	-74.741	2.331	B5-03822-P03-CH0	2514144	OK	0.7676571	-0.5662583	-0.3000903	0	-97.695	-55.711	6.406	B5-03822-P03-CH1	2514144	OK	0.724649	-0.6573066	0.2069586	0	-105.232	-25.956	2.522	B5-03822-P04-CH0	2514144	OK	0.6833642	-0.167516	0.7105996	0	-129.131	-29.451	12.722	B5-03822-P04-CH1	2514144	OK	0.7647377	-0.6429175	0.0428173	0	-115.21	-44.143	6.325	NA
0.799352121801101	B5-03822-P01-CH0	2514152	OK	0.2224988	0.0733725	0.0623324	-0.9701677	98.867	42.554	-259.778	B5-03822-P02-CH0	2514152	OK	0.8229712	0.1195132	-0.5553693	0	-95.873	-91.499	10.949	B5-03822-P02-CH1	2514152	OK	0.7450428	0.0300537	-0.6663392	0	-83.484	-73.815	3.51	B5-03822-P03-CH0	2514152	OK	0.7692055	-0.5596217	-0.3084581	0	-97.696	-55.723	6.752	B5-03822-P03-CH1	2514152	OK	0.7230333	-0.6593729	0.2060345	0	-105.405	-26.002	2.657	B5-03822-P04-CH0	2514152	OK	0.6812779	-0.1678693	0.7125169	0	-128.71	-29.092	12.766	B5-03822-P04-CH1	2514152	OK	0.7641393	-0.6436586	0.0423644	0	-115.175	-44.12	6.454	NA
0.809344023323615	B5-03822-P01-CH0	2514160	OK	0.2226293	0.0732155	0.0624261	-0.9701436	98.827	42.595	-259.813	B5-03822-P02-CH0	2514160	OK	0.8183763	0.1172477	-0.5625951	0	-94.939	-92.016	9.478	B5-03822-P02-CH1	2514160	OK	0.7456777	0.0297674	-0.6656416	0	-84.046	-73.453	3.65	B5-03822-P03-CH0	2514160	OK	0.7716355	-0.5527878	-0.3146494	0	-98.115	-55.35	7.104	B5-03822-P03-CH1	2514160	OK	0.723091	-0.6603147	0.20279	0	-105.08	-25.309	1.808	B5-03822-P04-CH0	2514160	OK	0.6805482	-0.1668068	0.7134632	0	-129.15	-29.144	11.361	B5-03822-P04-CH1	2514160	OK	0.764234	-0.643542	0.0424271	0	-114.978	-44.063	6.362	NA
0.819335924846129	B5-03822-P01-CH0	2514168	OK	0.2228521	0.0732404	0.0628458	-0.9700635	98.848	42.67	-259.805	B5-03822-P02-CH0	2514168	OK	0.816098	0.1118376	-0.5669889	0	-93.193	-93.715	4.814	B5-03822-P02-CH1	2514168	OK	0.7471016	0.0268477	-0.6641675	0	-84.117	-74.028	3.296	B5-03822-P03-CH0	2514168	OK	0.7740047	-0.5481728	-0.3168964	0	-97.983	-55.464	7.367	B5-03822-P03-CH1	2514168	OK	0.7230458	-0.6608752	0.2011188	0	-105.116	-25.573	1.011	B5-03822-P04-CH0	2514168	OK	0.6796114	-0.1639849	0.7150086	0	-128.651	-28.766	12.234	B5-03822-P04-CH1	2514168	OK	0.7645277	-0.6431892	0.0424865	0	-114.93	-44.035	6.464	NA
0.829327826368643	B5-03822-P01-CH0	2514176	OK	0.2231295	0.0731718	0.0635106	-0.9699616	98.862	42.749	-259.833	B5-03822-P02-CH0	2514176	OK	0.8090527	0.1076871	-0.5777865	0	-93.796	-93.463	6.289	B5-03822-P02-CH1	2514176	OK	0.7463517	0.0260282	-0.6650426	0	-85.063	-73.638	4.555	B5-03822-P03-CH0	2514176	OK	0.7768754	-0.54463	-0.315979	0	-97.371	-55.77	7.661	B5-03822-P03-CH1	2514176	OK	0.7241127	-0.6602098	0.199459	0	-105.639	-25.911	1.551	B5-03822-P04-CH0	2514176	OK	0.6823705	-0.1648017	0.7121874	0	-129.115	-29.071	11.085	B5-03822-P04-CH1	2514176	OK	0.7649369	-0.6427057	0.042437	0	-114.949	-44.015	6.383	NA
0.839319727891156	B5-03822-P01-CH0	2514184	OK	0.2231007	0.0732314	0.0631348	-0.9699883	98.888	42.735	-259.844	B5-03822-P02-CH0	2514184	OK	0.8059205	0.1020396	-0.5831639	0	-92.811	-93.306	5.79	B5-03822-P02-CH1	2514184	OK	0.7504728	0.0234661	-0.6604846	0	-83.761	-74.744	2.996	B5-03822-P03-CH0	2514184	OK	0.7770674	-0.5422447	-0.3195886	0	-98.789	-56.111	7.031	B5-03822-P03-CH1	2514184	OK	0.7267684	-0.658001	0.1970847	0	-106.209	-25.011	2.32	B5-03822-P04-CH0	2514184	OK	0.6817387	-0.1654797	0.7126351	0	-129.076	-29.197	11.065	B5-03822-P04-CH1	2514184	OK	0.7644872	-0.6432483	0.0423198	0	-115.053	-44.141	6.372	NA
0.84931162941367	B5-03822-P01-CH0	2514192	OK	0.2231112	0.0735127	0.0624109	-0.9700114	98.985	42.66	-259.787	B5-03822-P02-CH0	2514192	OK	0.8031177	0.0965145	-0.5879515	0	-92.232	-93.923	6.523	B5-03822-P02-CH1	2514192	OK	0.7527995	0.0211174	-0.6579111	0	-83.574	-74.945	3.327	B5-03822-P03-CH0	2514192	OK	0.7787143	-0.5413118	-0.3171523	0	-98.523	-56.219	7.689	B5-03822-P03-CH1	2514192	OK	0.7250808	-0.6578137	0.2038112	0	-105.637	-25.796	2.651	B5-03822-P04-CH0	2514192	OK	0.6812967	-0.1643498	0.7133189	0	-129.174	-29.548	11.148	B5-03822-P04-CH1	2514192	OK	0.7640606	-0.6437461	0.0424548	0	-115.077	-44.207	6.388	NA
0.859303530936184	B5-03822-P01-CH0	2514200	OK	0.2236796	0.0734392	0.06329	-0.9698291	98.944	42.72	-259.568	B5-03822-P02-CH0	2514200	OK	0.7993546	0.0919358	-0.5937846	0	-92.006	-93.482	5.648	B5-03822-P02-CH1	2514200	OK	0.7519996	0.0195897	-0.6588724	0	-84.642	-74.957	3.656	B5-03822-P03-CH0	2514200	OK	0.7807004	-0.5407314	-0.3132354	0	-98.047	-56.506	6.925	B5-03822-P03-CH1	2514200	OK	0.7257027	-0.6572289	0.203484	0	-105.477	-25.769	2.443	B5-03822-P04-CH0	2514200	OK	0.6813683	-0.1620452	0.7137777	0	-129.361	-29.828	10.873	B5-03822-P04-CH1	2514200	OK	0.7646415	-0.6430141	0.0430843	0	-115.083	-44.244	6.04	NA
0.869295432458698	B5-03822-P01-CH0	2514208	OK	0.223637	0.0739978	0.0631761	-0.9698039	99.139	42.788	-259.525	B5-03822-P02-CH0	2514208	OK	0.7935079	0.0887167	-0.6020587	0	-92.939	-93.896	6.147	B5-03822-P02-CH1	2514208	OK	0.7515435	0.0171273	-0.6594612	0	-85.084	-75.417	2.779	B5-03822-P03-CH0	2514208	OK	0.7810705	-0.5423767	-0.3094454	0	-97.669	-56.684	6.851	B5-03822-P03-CH1	2514208	OK	0.7282888	-0.6557408	0.1989959	0	-105.3	-26.258	2.199	B5-03822-P04-CH0	2514208	OK	0.6816987	-0.1588916	0.7141711	0	-129.855	-30.11	11.014	B5-03822-P04-CH1	2514208	OK	0.7644948	-0.6431969	0.0429579	0	-115.38	-44.28	6.064	NA
0.879287333981212	B5-03822-P01-CH0	2514216	OK	0.2237818	0.0741224	0.0632165	-0.9697583	99.196	42.793	-259.563	B5-03822-P02-CH0	2514216	OK	0.7921415	0.0838643	-0.6045483	0	-91.559	-94.726	5.553	B5-03822-P02-CH1	2514216	OK	0.7521426	0.0128157	-0.6588758	0	-84.468	-75.38	2.623	B5-03822-P03-CH0	2514216	OK	0.780419	-0.54389	-0.3084313	0	-98.435	-56.633	7.5	B5-03822-P03-CH1	2514216	OK	0.7299727	-0.6542634	0.1976847	0	-105.376	-26.019	3.322	B5-03822-P04-CH0	2514216	OK	0.6809046	-0.1401515	0.7188369	0	-130.645	-30.754	11.42	B5-03822-P04-CH1	2514216	OK	0.7645223	-0.6431527	0.0431311	0	-115.478	-44.344	6.116	NA
0.889279235503725	B5-03822-P01-CH0	2514224	OK	0.2241591	0.0741251	0.0638366	-0.9696304	99.243	42.82	-259.563	B5-03822-P02-CH0	2514224	OK	0.7921939	0.0767031	-0.6054299	0	-90.005	-96.307	3.35	B5-03822-P02-CH1	2514224	OK	0.7509498	0.0100655	-0.6602826	0	-84.631	-75.584	2.286	B5-03822-P03-CH0	2514224	OK	0.7798693	-0.5489416	-0.3007772	0	-97.588	-57.481	7.421	B5-03822-P03-CH1	2514224	OK	0.7305111	-0.6536277	0.1977987	0	-104.958	-26.504	2.144	B5-03822-P04-CH0	2514224	OK	0.6821599	-0.1299897	0.7195558	0	-131.722	-31.359	12.106	B5-03822-P04-CH1	2514224	OK	0.7648284	-0.6427413	0.0438303	0	-115.502	-44.531	6.197	NA
0.899271137026239	B5-03822-P01-CH0	2514232	OK	0.2241384	0.0739313	0.0637297	-0.969657	99.162	42.807	-259.551	B5-03822-P02-CH0	2514232	OK	0.7907902	0.0712369	-0.6079278	0	-89.103	-96.055	2.483	B5-03822-P02-CH1	2514232	OK	0.7506143	0.008667	-0.6606837	0	-84.405	-74.713	3.13	B5-03822-P03-CH0	2514232	OK	0.7799828	-0.547934	-0.3023165	0	-98.504	-56.385	6.852	B5-03822-P03-CH1	2514232	OK	0.7328087	-0.6516362	0.1958614	0	-105.379	-25.814	1.993	B5-03822-P04-CH0	2514232	OK	0.6816305	-0.1210453	0.7216148	0	-131.658	-31.388	12.942	B5-03822-P04-CH1	2514232	OK	0.764768	-0.642823	0.043686	0	-115.556	-44.507	5.997	NA
0.909263038548753	B5-03822-P01-CH0	2514240	OK	0.2242543	0.0741101	0.0638544	-0.9696083	99.227	42.918	-259.561	B5-03822-P02-CH0	2514240	OK	0.787939	0.0664003	-0.6121627	0	-89.196	-95.483	3.228	B5-03822-P02-CH1	2514240	OK	0.7491209	0.0052185	-0.6624127	0	-84.978	-75.17	3.73	B5-03822-P03-CH0	2514240	OK	0.7801832	-0.5508852	-0.2963775	0	-97.892	-56.372	7.223	B5-03822-P03-CH1	2514240	OK	0.7324175	-0.6517441	0.1969627	0	-105.292	-26.827	2.083	B5-03822-P04-CH0	2514240	OK	0.6813854	-0.1123258	0.7232544	0	-132.133	-31.353	13.143	B5-03822-P04-CH1	2514240	OK	0.7647388	-0.6428384	0.0439707	0	-115.719	-44.549	6.057	NA
0.919254940071267	B5-03822-P01-CH0	2514248	OK	0.2241671	0.0741088	0.063585	-0.9696463	99.236	42.894	-259.512	B5-03822-P02-CH0	2514248	OK	0.7851567	0.0616174	-0.6162242	0	-89.589	-95.659	3.253	B5-03822-P02-CH1	2514248	OK	0.7501206	0.0127845	-0.6611775	0	-84.846	-75.373	3.018	B5-03822-P03-CH0	2514248	OK	0.7799188	-0.5521115	-0.2947874	0	-98.742	-56.49	6.789	B5-03822-P03-CH1	2514248	OK	0.7341868	-0.6503717	0.1949012	0	-105.607	-26.291	3.915	B5-03822-P04-CH0	2514248	OK	0.6795108	-0.1068399	0.7258446	0	-131.883	-31.078	12.473	B5-03822-P04-CH1	2514248	OK	0.7645145	-0.6431016	0.0440226	0	-115.761	-44.584	5.961	NA
0.92924684159378	B5-03822-P01-CH0	2514256	OK	0.2241803	0.0738977	0.0632863	-0.9696789	99.154	42.824	-259.463	B5-03822-P02-CH0	2514256	OK	0.786408	0.0576965	-0.615007	0	-88.276	-96.37	1.069	B5-03822-P02-CH1	2514256	OK	0.7505188	0.0104745	-0.6607661	0	-84.693	-75.589	3	B5-03822-P03-CH0	2514256	OK	0.7807366	-0.5533202	-0.2903225	0	-98.236	-56.325	7.501	B5-03822-P03-CH1	2514256	OK	0.7338442	-0.6506201	0.1953617	0	-105.197	-27.016	3.673	B5-03822-P04-CH0	2514256	OK	0.6795067	-0.1012284	0.7266523	0	-132.555	-31.849	10.3	B5-03822-P04-CH1	2514256	OK	0.7641886	-0.6434486	0.044605	0	-115.659	-44.742	5.876	NA
0.939238743116294	B5-03822-P01-CH0	2514264	OK	0.2241306	0.0737106	0.0632682	-0.9697058	99.113	42.841	-259.505	B5-03822-P02-CH0	2514264	OK	0.7866012	0.0533492	-0.6151523	0	-87.201	-96.678	2.297	B5-03822-P02-CH1	2514264	OK	0.7487952	0.0019012	-0.6627987	0	-84.815	-76.134	2.861	B5-03822-P03-CH0	2514264	OK	0.7811586	-0.552486	-0.2907757	0	-98.377	-55.826	7.605	B5-03822-P03-CH1	2514264	OK	0.7351857	-0.6496084	0.1936774	0	-105.526	-26.816	4.831	B5-03822-P04-CH0	2514264	OK	0.6805492	-0.0971017	0.7262397	0	-132.739	-32.034	12.89	B5-03822-P04-CH1	2514264	OK	0.7642041	-0.6434028	0.0449992	0	-115.568	-44.708	5.827	NA
0.949230644638808	B5-03822-P01-CH0	2514272	OK	0.2243204	0.073516	0.0636501	-0.9696517	99.08	42.916	-259.589	B5-03822-P02-CH0	2514272	OK	0.7862953	0.0508867	-0.6157518	0	-86.579	-96.717	1.26	B5-03822-P02-CH1	2514272	OK	0.7492775	0.0014185	-0.6622547	0	-84.159	-75.413	2.821	B5-03822-P03-CH0	2514272	OK	0.780674	-0.5544317	-0.2883636	0	-97.886	-56.341	7.338	B5-03822-P03-CH1	2514272	OK	0.7361027	-0.6490263	0.1921397	0	-104.971	-26.494	3.954	B5-03822-P04-CH0	2514272	OK	0.6795926	-0.0983091	0.7269726	0	-132.402	-31.243	12.3	B5-03822-P04-CH1	2514272	OK	0.7645193	-0.6430134	0.0452117	0	-115.661	-44.651	5.8	NA
0.959222546161322	B5-03822-P01-CH0	2514280	OK	0.2243594	0.0735531	0.0637857	-0.969631	99.14	43.007	-259.675	B5-03822-P02-CH0	2514280	OK	0.7845463	0.0507766	-0.6179878	0	-86.781	-95.842	0.873	B5-03822-P02-CH1	2514280	OK	0.748853	0.000916	-0.6627355	0	-84.051	-75.301	2.974	B5-03822-P03-CH0	2514280	OK	0.7791538	-0.5555374	-0.2903402	0	-98.43	-56.462	7.078	B5-03822-P03-CH1	2514280	OK	0.7372927	-0.6479291	0.1912781	0	-105.495	-26.669	4.789	B5-03822-P04-CH0	2514280	OK	0.6770612	-0.0990197	0.7292347	0	-131.873	-32.029	9.5	B5-03822-P04-CH1	2514280	OK	0.764624	-0.6428855	0.045258	0	-115.74	-44.588	5.862	NA
0.969214447683835	B5-03822-P01-CH0	2514288	OK	0.2245355	0.0733415	0.0636345	-0.9696162	99.1	43.003	-259.76	B5-03822-P02-CH0	2514288	OK	0.7817107	0.0477004	-0.6218143	0	-87.726	-95.965	1.382	B5-03822-P02-CH1	2514288	OK	0.7482314	0.0002516	-0.6634378	0	-84.15	-75.287	2.032	B5-03822-P03-CH0	2514288	OK	0.7798817	-0.5521933	-0.2947323	0	-98.295	-56.504	7.399	B5-03822-P03-CH1	2514288	OK	0.7367951	-0.6481629	0.1924004	0	-104.401	-27.019	3.156	B5-03822-P04-CH0	2514288	OK	0.6798429	-0.0974818	0.72685	0	-132.461	-32.159	12.047	B5-03822-P04-CH1	2514288	OK	0.7646125	-0.6428671	0.045712	0	-115.641	-44.56	5.738	NA
0.979206349206349	B5-03822-P01-CH0	2514296	OK	0.2244584	0.0734883	0.0632969	-0.969645	99.191	42.976	-259.827	B5-03822-P02-CH0	2514296	OK	0.7819012	0.0460391	-0.6217	0	-87.38	-96.468	2.168	B5-03822-P02-CH1	2514296	OK	0.7480943	-0.0008136	-0.6635919	0	-84.162	-74.954	2.481	B5-03822-P03-CH0	2514296	OK	0.7793626	-0.5535026	-0.2936475	0	-98.272	-56.459	7.592	B5-03822-P03-CH1	2514296	OK	0.7383814	-0.6463004	0.1925843	0	-104.55	-26.829	3.854	B5-03822-P04-CH0	2514296	OK	0.6803768	-0.1029678	0.7255929	0	-132.476	-32.246	12.416	B5-03822-P04-CH1	2514296	OK	0.764353	-0.6431696	0.0457969	0	-115.608	-44.639	5.892	NA
0.989198250728863	B5-03822-P01-CH0	2514304	OK	0.2244774	0.0734251	0.0630556	-0.9696611	99.163	42.982	-259.846	B5-03822-P02-CH0	2514304	OK	0.7819673	0.046664	-0.6215702	0	-87.441	-96.072	2.43	B5-03822-P02-CH1	2514304	OK	0.7484912	0.00117	-0.6631437	0	-84.637	-75.507	3.723	B5-03822-P03-CH0	2514304	OK	0.7752367	-0.5580788	-0.2958989	0	-98.279	-56.44	6.44	B5-03822-P03-CH1	2514304	OK	0.7399301	-0.6448319	0.1915602	0	-105.253	-26.484	3.816	B5-03822-P04-CH0	2514304	OK	0.6798692	-0.1013168	0.7263007	0	-132.356	-32.006	12.234	B5-03822-P04-CH1	2514304	OK	0.7643769	-0.6431542	0.045613	0	-115.555	-44.506	5.873	NA
0.999190152251377	B5-03822-P01-CH0	2514312	OK	0.2247421	0.0735106	0.063721	-0.9695498	99.241	43.1	-259.867	B5-03822-P02-CH0	2514312	OK	0.7821914	0.0481492	-0.621175	0	-87.324	-94.999	2.583	B5-03822-P02-CH1	2514312	OK	0.7480957	0.0001927	-0.6635908	0	-84.651	-75.545	3.462	B5-03822-P03-CH0	2514312	OK	0.7752299	-0.5567841	-0.2983454	0	-98.788	-55.736	6.133	B5-03822-P03-CH1	2514312	OK	0.740967	-0.6433476	0.1925403	0	-104.986	-26.413	3.227	B5-03822-P04-CH0	2514312	OK	0.6798328	-0.1001978	0.72649	0	-132.315	-31.943	12.16	B5-03822-P04-CH1	2514312	OK	0.764743	-0.6426967	0.0459251	0	-115.581	-44.521	6.002	NA
1.00918205377389	B5-03822-P01-CH0	2514320	OK	0.2246827	0.0732637	0.0631412	-0.9696202	99.163	42.907	-259.831	B5-03822-P02-CH0	2514320	OK	0.7827616	0.0470238	-0.6205426	0	-86.871	-96.072	1.701	B5-03822-P02-CH1	2514320	OK	0.7482383	-0.0004378	-0.6634299	0	-84.358	-75.71	3.238	B5-03822-P03-CH0	2514320	OK	0.7748084	-0.5568969	-0.2992286	0	-98.681	-55.454	6.118	B5-03822-P03-CH1	2514320	OK	0.7405013	-0.6437736	0.1929077	0	-104.152	-26.779	3.556	B5-03822-P04-CH0	2514320	OK	0.6794462	-0.0999875	0.7268806	0	-132.048	-31.999	11.931	B5-03822-P04-CH1	2514320	OK	0.7644413	-0.6430685	0.0457428	0	-115.397	-44.548	5.875	NA
1.0191739552964	B5-03822-P01-CH0	2514328	OK	0.2245598	0.0733558	0.0626026	-0.9696766	99.245	42.859	-260.021	B5-03822-P02-CH0	2514328	OK	0.7817279	0.0473167	-0.6218221	0	-87.306	-96.044	3.036	B5-03822-P02-CH1	2514328	OK	0.7482395	-0.0008785	-0.6634281	0	-84.209	-75.802	3.344	B5-03822-P03-CH0	2514328	OK	0.7739815	-0.5598697	-0.2958015	0	-97.246	-56.198	7.184	B5-03822-P03-CH1	2514328	OK	0.7413695	-0.6433605	0.1909409	0	-104.377	-26.217	3.685	B5-03822-P04-CH0	2514328	OK	0.679522	-0.1007933	0.7266984	0	-132.007	-31.899	11.938	B5-03822-P04-CH1	2514328	OK	0.7641003	-0.6434857	0.0455734	0	-115.373	-44.566	5.986	NA
1.02916585681892	B5-03822-P01-CH0	2514336	OK	0.2245892	0.073811	0.06239	-0.969649	99.433	42.906	-260.048	B5-03822-P02-CH0	2514336	OK	0.7824773	0.0473064	-0.6208796	0	-87.467	-96.451	3.24	B5-03822-P02-CH1	2514336	OK	0.747732	-0.0014044	-0.6639992	0	-84.301	-75.917	3.423	B5-03822-P03-CH0	2514336	OK	0.7733055	-0.5597645	-0.297762	0	-98.313	-55.649	7.529	B5-03822-P03-CH1	2514336	OK	0.7415549	-0.643388	0.1901271	0	-104.926	-26.291	3.548	B5-03822-P04-CH0	2514336	OK	0.6799593	-0.1016563	0.726169	0	-132.035	-31.79	12.233	B5-03822-P04-CH1	2514336	OK	0.7640263	-0.6436039	0.0451431	0	-115.577	-44.514	6.183	NA
1.03915775834143	B5-03822-P01-CH0	2514344	OK	0.2243665	0.0739405	0.0615871	-0.969742	99.473	42.768	-260.024	B5-03822-P02-CH0	2514344	OK	0.7825203	0.0470317	-0.6208461	0	-87.269	-96.54	2.914	B5-03822-P02-CH1	2514344	OK	0.7475533	-0.0014938	-0.6642002	0	-84.221	-75.893	3.383	B5-03822-P03-CH0	2514344	OK	0.7719024	-0.5626001	-0.2960537	0	-98.202	-56.196	7.298	B5-03822-P03-CH1	2514344	OK	0.7408191	-0.6442281	0.1901504	0	-105.242	-26.984	4.711	B5-03822-P04-CH0	2514344	OK	0.6799503	-0.102869	0.7260066	0	-131.914	-31.824	11.976	B5-03822-P04-CH1	2514344	OK	0.7635976	-0.6441546	0.0445376	0	-115.501	-44.492	6.234	NA
1.04914965986395	B5-03822-P01-CH0	2514352	OK	0.2244529	0.0738272	0.0619967	-0.9697045	99.468	42.778	-260.066	B5-03822-P02-CH0	2514352	OK	0.7824591	0.0470291	-0.6209235	0	-87.155	-96.627	2.542	B5-03822-P02-CH1	2514352	OK	0.7473458	-0.0017159	-0.6644331	0	-84.143	-75.845	3.271	B5-03822-P03-CH0	2514352	OK	0.7721288	-0.5636871	-0.2933836	0	-98.102	-56.376	6.26	B5-03822-P03-CH1	2514352	OK	0.7392835	-0.6455569	0.1916147	0	-104.681	-27.008	3.939	B5-03822-P04-CH0	2514352	OK	0.680489	-0.1037095	0.725382	0	-131.853	-31.906	12.128	B5-03822-P04-CH1	2514352	OK	0.7637376	-0.6439726	0.044767	0	-115.29	-44.564	6.226	NA
1.05914156138646	B5-03822-P01-CH0	2514360	OK	0.2244975	0.0738409	0.0620987	-0.9696866	99.483	42.839	-260.1	B5-03822-P02-CH0	2514360	OK	0.7825963	0.0475867	-0.6207081	0	-87.035	-96.566	2.324	B5-03822-P02-CH1	2514360	OK	0.7470646	-0.0017349	-0.6647492	0	-84.136	-75.82	3.233	B5-03822-P03-CH0	2514360	OK	0.7720194	-0.5635845	-0.2938681	0	-98.295	-56.138	6.952	B5-03822-P03-CH1	2514360	OK	0.7399918	-0.6448329	0.1913182	0	-104.807	-26.974	4.015	B5-03822-P04-CH0	2514360	OK	0.6809562	-0.1048003	0.7247865	0	-131.844	-31.779	12.146	B5-03822-P04-CH1	2514360	OK	0.7637085	-0.6440086	0.0447472	0	-115.264	-44.574	6.235	NA
1.06913346290897	B5-03822-P01-CH0	2514368	OK	0.2241762	0.0737904	0.061379	-0.9698106	99.441	42.729	-260.053	B5-03822-P02-CH0	2514368	OK	0.7831623	0.0484476	-0.6199272	0	-86.805	-96.735	2.006	B5-03822-P02-CH1	2514368	OK	0.7470142	-0.0014489	-0.6648064	0	-84.067	-75.877	3.149	B5-03822-P03-CH0	2514368	OK	0.7729184	-0.5608401	-0.2967415	0	-98.261	-56.14	7.254	B5-03822-P03-CH1	2514368	OK	0.74003	-0.6449596	0.1907429	0	-104.896	-26.994	3.961	B5-03822-P04-CH0	2514368	OK	0.6810077	-0.1065494	0.7244831	0	-131.706	-31.633	11.873	B5-03822-P04-CH1	2514368	OK	0.7631524	-0.6446923	0.0443875	0	-115.148	-44.596	6.282	NA
1.07912536443149	B5-03822-P01-CH0	2514376	OK	0.2241482	0.0735921	0.0618203	-0.9698041	99.382	42.807	-260.045	B5-03822-P02-CH0	2514376	OK	0.7833121	0.0495257	-0.6196527	0	-86.763	-96.743	1.668	B5-03822-P02-CH1	2514376	OK	0.7470201	-0.0010138	-0.6648006	0	-83.942	-75.857	2.972	B5-03822-P03-CH0	2514376	OK	0.7728762	-0.560917	-0.296706	0	-98.261	-56.001	7.085	B5-03822-P03-CH1	2514376	OK	0.7407035	-0.6443814	0.1900815	0	-104.916	-26.854	3.811	B5-03822-P04-CH0	2514376	OK	0.6810884	-0.1079077	0.7242062	0	-131.639	-31.472	11.344	B5-03822-P04-CH1	2514376	OK	0.7634164	-0.6443831	0.0443385	0	-115.098	-44.505	6.202	NA
1.089117265954	B5-03822-P01-CH0	2514384	OK	0.224082	0.0735347	0.0617787	-0.9698264	99.399	42.804	-260.064	B5-03822-P02-CH0	2514384	OK	0.7834349	0.0504058	-0.6194263	0	-86.756	-96.932	1.47	B5-03822-P02-CH1	2514384	OK	0.7467526	-0.0004632	-0.6651018	0	-83.979	-75.894	3.05	B5-03822-P03-CH0	2514384	OK	0.7727105	-0.5611769	-0.2966462	0	-98.242	-55.931	7.028	B5-03822-P03-CH1	2514384	OK	0.7410946	-0.6440749	0.1895952	0	-104.914	-26.748	3.907	B5-03822-P04-CH0	2514384	OK	0.68133	-0.1089169	0.7238277	0	-131.594	-31.436	11.306	B5-03822-P04-CH1	2514384	OK	0.7632258	-0.6446041	0.0444076	0	-115.122	-44.602	6.152	NA
1.09910916747651	B5-03822-P01-CH0	2514392	OK	0.2241269	0.0733452	0.0618788	-0.969824	99.36	42.775	-260.104	B5-03822-P02-CH0	2514392	OK	0.7836702	0.0514388	-0.6190437	0	-86.66	-97.046	1.239	B5-03822-P02-CH1	2514392	OK	0.7467303	3.29e-05	-0.665127	0	-83.825	-75.891	3.127	B5-03822-P03-CH0	2514392	OK	0.7725415	-0.5616586	-0.2961744	0	-98.072	-56.031	7.008	B5-03822-P03-CH1	2514392	OK	0.7414132	-0.6437708	0.1893821	0	-104.834	-26.758	4.038	B5-03822-P04-CH0	2514392	OK	0.6816861	-0.1099113	0.7233419	0	-131.531	-31.283	11.425	B5-03822-P04-CH1	2514392	OK	0.7633032	-0.644499	0.0446005	0	-114.981	-44.637	6.081	NA
1.10910106899903	B5-03822-P01-CH0	2514400	OK	0.224437	0.0733654	0.0626607	-0.9697006	99.411	42.884	-260.111	B5-03822-P02-CH0	2514400	OK	0.7835906	0.0524765	-0.6190574	0	-86.741	-97.069	1.147	B5-03822-P02-CH1	2514400	OK	0.7462259	0.0004708	-0.6656926	0	-83.917	-75.814	3.083	B5-03822-P03-CH0	2514400	OK	0.7725627	-0.5619873	-0.2954946	0	-98.136	-56.075	6.925	B5-03822-P03-CH1	2514400	OK	0.7422055	-0.6429129	0.1891932	0	-104.992	-26.706	4.028	B5-03822-P04-CH0	2514400	OK	0.6822154	-0.1104611	0.722759	0	-131.555	-31.28	11.529	B5-03822-P04-CH1	2514400	OK	0.7637487	-0.6439391	0.0450601	0	-114.968	-44.68	6.034	NA
1.11909297052154	B5-03822-P01-CH0	2514408	OK	0.2243503	0.0731635	0.0623208	-0.9697578	99.309	42.828	-260.072	B5-03822-P02-CH0	2514408	OK	0.7839554	0.0540535	-0.6184595	0	-86.643	-97.032	0.883	B5-03822-P02-CH1	2514408	OK	0.7459953	0.001335	-0.6659499	0	-83.888	-75.776	2.88	B5-03822-P03-CH0	2514408	OK	0.7722418	-0.5624125	-0.2955247	0	-98.109	-56.006	6.739	B5-03822-P03-CH1	2514408	OK	0.7420047	-0.6431769	0.1890831	0	-104.901	-26.756	3.9	B5-03822-P04-CH0	2514408	OK	0.6820526	-0.1112969	0.7227844	0	-131.35	-31.308	11.496	B5-03822-P04-CH1	2514408	OK	0.7635349	-0.6442134	0.044761	0	-114.907	-44.643	6.004	NA
