Wav.Time	B5.03822.P01.CH0	Frame	State	Q0	Qx	Qy	Qz	Tx	Ty	Tz	B5.03822.P02.CH0	Frame.1	State.1	Q0.1	Qx.1	Qy.1	Qz.1	Tx.1	Ty.1	Tz.1	B5.03822.P02.CH1	Frame.2	State.2	Q0.2	Qx.2	Qy.2	Qz.2	Tx.2	Ty.2	Tz.2	B5.03822.P03.CH0	Frame.3	State.3	Q0.3	Qx.3	Qy.3	Qz.3	Tx.3	Ty.3	Tz.3	B5.03822.P03.CH1	Frame.4	State.4	Q0.4	Qx.4	Qy.4	Qz.4	Tx.4	Ty.4	Tz.4	B5.03822.P04.CH0	Frame.5	State.5	Q0.5	Qx.5	Qy.5	Qz.5	Tx.5	Ty.5	Tz.5	B5.03822.P04.CH1	Frame.6	State.6	Q0.6	Qx.6	Qy.6	Qz.6	Tx.6	Ty.6	Tz.6	X
0	B5-03822-P01-CH0	3077368	OK	0.2341578	0.018986	0.0618342	-0.9700444	100.922	-12.389	-237.865	B5-03822-P02-CH0	3077368	OK	0.6909481	0.4232241	-0.586065	0	-73.938	-99.872	2.987	B5-03822-P02-CH1	3077368	OK	0.7931026	-0.2166208	-0.569266	0	-76.797	-78.864	3.573	B5-03822-P03-CH0	3077368	OK	0.8478214	-0.2657873	-0.4588638	0	-92.097	-58.436	8.794	B5-03822-P03-CH1	3077368	OK	0.8232519	-0.1934367	-0.5337027	0	-99.425	-31.552	7.71	B5-03822-P04-CH0	3077368	OK	0.7201049	-0.2273414	0.6555645	0	-121.475	-40.271	7.507	B5-03822-P04-CH1	3077368	OK	0.7430176	-0.6666899	0.0587322	0	-108.057	-47.186	1.867	NA
0.00999198332531666	B5-03822-P01-CH0	3077376	OK	0.2342454	0.019111	0.0616634	-0.9700317	100.979	-12.446	-237.858	B5-03822-P02-CH0	3077376	OK	0.6970147	0.4089494	-0.5890084	0	-73.407	-99.898	2.634	B5-03822-P02-CH1	3077376	OK	0.8023081	-0.2135962	-0.5573852	0	-77.534	-79.495	4.008	B5-03822-P03-CH0	3077376	OK	0.8477275	-0.2525316	-0.466461	0	-92.1	-58.837	9.245	B5-03822-P03-CH1	3077376	OK	0.8218024	-0.2005027	-0.5333287	0	-99.459	-31.679	7.488	B5-03822-P04-CH0	3077376	OK	0.7200659	-0.2270016	0.655725	0	-121.48	-40.431	7.616	B5-03822-P04-CH1	3077376	OK	0.7429936	-0.666731	0.0585679	0	-108.137	-47.182	1.795	NA
0.0199839666506333	B5-03822-P01-CH0	3077384	OK	0.234643	0.0186691	0.0628927	-0.9698653	100.883	-12.383	-237.897	B5-03822-P02-CH0	3077384	OK	0.7014046	0.3939363	-0.5940082	0	-73.457	-99.788	1.666	B5-03822-P02-CH1	3077384	OK	0.8099785	-0.2071164	-0.5486689	0	-78.104	-79.764	3.687	B5-03822-P03-CH0	3077384	OK	0.847465	-0.2360934	-0.4754609	0	-91.626	-58.79	9.373	B5-03822-P03-CH1	3077384	OK	0.8220834	-0.2019389	-0.5323528	0	-99.2	-31.934	8.094	B5-03822-P04-CH0	3077384	OK	0.7202003	-0.2262999	0.65582	0	-121.389	-40.43	7.553	B5-03822-P04-CH1	3077384	OK	0.7436608	-0.6659681	0.0587794	0	-107.984	-47.202	1.319	NA
0.02997594997595	B5-03822-P01-CH0	3077392	OK	0.2347032	0.0187264	0.0626389	-0.969866	100.929	-12.416	-237.925	B5-03822-P02-CH0	3077392	OK	0.7074531	0.3786105	-0.5967949	0	-73.597	-100.321	1.291	B5-03822-P02-CH1	3077392	OK	0.8149535	-0.19783	-0.5447146	0	-78.912	-79.563	4.121	B5-03822-P03-CH0	3077392	OK	0.8450876	-0.2217303	-0.4864799	0	-91.545	-58.569	8.83	B5-03822-P03-CH1	3077392	OK	0.821945	-0.2037101	-0.5318916	0	-99.234	-31.502	7.416	B5-03822-P04-CH0	3077392	OK	0.7200773	-0.2260924	0.6560266	0	-121.407	-40.484	7.569	B5-03822-P04-CH1	3077392	OK	0.7436217	-0.666035	0.0585169	0	-107.854	-47.122	1.33	NA
0.0399679333012666	B5-03822-P01-CH0	3077400	OK	0.2345905	0.0186347	0.0626262	-0.9698959	100.896	-12.408	-237.923	B5-03822-P02-CH0	3077400	OK	0.7120194	0.3655696	-0.5994892	0	-74.24	-99.992	1.595	B5-03822-P02-CH1	3077400	OK	0.8177032	-0.1909042	-0.5430626	0	-79.589	-79.849	4.215	B5-03822-P03-CH0	3077400	OK	0.8425741	-0.2080171	-0.4967875	0	-91.142	-58.473	9.031	B5-03822-P03-CH1	3077400	OK	0.8221682	-0.2041387	-0.531382	0	-99.021	-31.264	6.752	B5-03822-P04-CH0	3077400	OK	0.7200763	-0.2263968	0.6559227	0	-121.443	-40.297	7.369	B5-03822-P04-CH1	3077400	OK	0.7436477	-0.6660449	0.0580713	0	-107.813	-47.052	1.496	NA
0.0499599166265833	B5-03822-P01-CH0	3077408	OK	0.2343981	0.0185213	0.0619902	-0.9699854	100.835	-12.442	-237.907	B5-03822-P02-CH0	3077408	OK	0.7173312	0.353783	-0.600228	0	-74.545	-99.764	1.959	B5-03822-P02-CH1	3077408	OK	0.8205208	-0.1852795	-0.540756	0	-79.657	-79.191	4.333	B5-03822-P03-CH0	3077408	OK	0.8399623	-0.1986647	-0.5049709	0	-90.914	-58.219	9.302	B5-03822-P03-CH1	3077408	OK	0.8217857	-0.2060821	-0.5312235	0	-98.93	-31.507	6.705	B5-03822-P04-CH0	3077408	OK	0.7195852	-0.2268599	0.6563016	0	-121.33	-40.238	7.402	B5-03822-P04-CH1	3077408	OK	0.7432086	-0.6666042	0.0572696	0	-107.689	-46.888	1.074	NA
0.0599518999519	B5-03822-P01-CH0	3077416	OK	0.2343744	0.0186835	0.0618939	-0.9699942	100.89	-12.411	-237.879	B5-03822-P02-CH0	3077416	OK	0.7220357	0.3440798	-0.6002279	0	-74.544	-99.821	1.189	B5-03822-P02-CH1	3077416	OK	0.8204431	-0.1849462	-0.5409879	0	-80.232	-79.015	4.939	B5-03822-P03-CH0	3077416	OK	0.8370781	-0.1934826	-0.5117273	0	-91.016	-58.133	8.605	B5-03822-P03-CH1	3077416	OK	0.8213862	-0.2056031	-0.5320263	0	-98.987	-31.302	7.067	B5-03822-P04-CH0	3077416	OK	0.7195142	-0.2267155	0.6564292	0	-121.373	-40.297	7.495	B5-03822-P04-CH1	3077416	OK	0.7430863	-0.6667621	0.0570178	0	-107.577	-46.902	1.228	NA
0.0699438832772166	B5-03822-P01-CH0	3077424	OK	0.2345747	0.0183029	0.0628944	-0.9698887	100.807	-12.268	-237.931	B5-03822-P02-CH0	3077424	OK	0.7258969	0.3349922	-0.6007111	0	-73.629	-99.19	-0.113	B5-03822-P02-CH1	3077424	OK	0.8196311	-0.190074	-0.5404412	0	-80.525	-79.397	3.871	B5-03822-P03-CH0	3077424	OK	0.8364662	-0.1930458	-0.5128915	0	-90.439	-58.34	9.032	B5-03822-P03-CH1	3077424	OK	0.8214707	-0.2065989	-0.5315099	0	-99.16	-31.133	7.002	B5-03822-P04-CH0	3077424	OK	0.719459	-0.2261631	0.6566803	0	-121.33	-40.276	7.517	B5-03822-P04-CH1	3077424	OK	0.7437088	-0.6660776	0.0569022	0	-107.478	-46.784	1.076	NA
0.0799358666025333	B5-03822-P01-CH0	3077432	OK	0.2348006	0.0177997	0.0634815	-0.9698051	100.667	-12.193	-237.981	B5-03822-P02-CH0	3077432	OK	0.7274113	0.3261364	-0.6037448	0	-73.898	-99.276	0.224	B5-03822-P02-CH1	3077432	OK	0.818282	-0.1916738	-0.5419186	0	-80.463	-79.161	4.029	B5-03822-P03-CH0	3077432	OK	0.8346436	-0.1942095	-0.5154151	0	-90.627	-58.378	8.675	B5-03822-P03-CH1	3077432	OK	0.8218162	-0.2076065	-0.5305824	0	-98.928	-31.228	6.952	B5-03822-P04-CH0	3077432	OK	0.7191434	-0.2257108	0.6571814	0	-121.207	-40.21	7.44	B5-03822-P04-CH1	3077432	OK	0.7440886	-0.6656684	0.0567246	0	-107.355	-46.617	0.643	NA
0.0899278499278499	B5-03822-P01-CH0	3077440	OK	0.2348102	0.0177655	0.0633702	-0.9698107	100.661	-12.181	-237.976	B5-03822-P02-CH0	3077440	OK	0.7289548	0.3181136	-0.606159	0	-74.049	-99.048	-0.414	B5-03822-P02-CH1	3077440	OK	0.8164217	-0.1911515	-0.5449007	0	-80.286	-79.174	4.037	B5-03822-P03-CH0	3077440	OK	0.8334163	-0.1950947	-0.5170641	0	-90.59	-58.301	8.904	B5-03822-P03-CH1	3077440	OK	0.822414	-0.2079467	-0.5295219	0	-98.564	-31.042	6.796	B5-03822-P04-CH0	3077440	OK	0.7187767	-0.2255303	0.6576444	0	-121.18	-40.223	7.374	B5-03822-P04-CH1	3077440	OK	0.7439745	-0.6658215	0.0564245	0	-107.211	-46.604	0.605	NA
0.0999198332531666	B5-03822-P01-CH0	3077448	OK	0.2348402	0.0177123	0.0634793	-0.9697973	100.668	-12.127	-238.088	B5-03822-P02-CH0	3077448	OK	0.7319374	0.308933	-0.6073122	0	-73.454	-98.692	-1.074	B5-03822-P02-CH1	3077448	OK	0.8145983	-0.1891667	-0.5483116	0	-80.344	-78.889	4.078	B5-03822-P03-CH0	3077448	OK	0.8320987	-0.193719	-0.5196967	0	-90.679	-58.101	8.953	B5-03822-P03-CH1	3077448	OK	0.8207826	-0.2087407	-0.5317361	0	-99.265	-30.977	6.629	B5-03822-P04-CH0	3077448	OK	0.7184496	-0.2251845	0.6581201	0	-121.188	-40.238	7.46	B5-03822-P04-CH1	3077448	OK	0.743994	-0.6658232	0.0561457	0	-107.324	-46.611	0.706	NA
0.109911816578483	B5-03822-P01-CH0	3077456	OK	0.2346872	0.0175251	0.0635011	-0.9698363	100.581	-12.035	-238.102	B5-03822-P02-CH0	3077456	OK	0.7318753	0.301366	-0.6111768	0	-74.206	-98.172	-0.074	B5-03822-P02-CH1	3077456	OK	0.8118695	-0.1889343	-0.5524236	0	-80.488	-78.535	4.134	B5-03822-P03-CH0	3077456	OK	0.8320305	-0.191012	-0.5208068	0	-90.122	-57.743	8.657	B5-03822-P03-CH1	3077456	OK	0.8219948	-0.2060815	-0.5309001	0	-98.938	-31.113	7.196	B5-03822-P04-CH0	3077456	OK	0.7179222	-0.2251803	0.6586969	0	-121.142	-40.055	7.327	B5-03822-P04-CH1	3077456	OK	0.7439743	-0.6658826	0.0557019	0	-107.237	-46.483	0.764	NA
0.1199037999038	B5-03822-P01-CH0	3077464	OK	0.2343995	0.0176345	0.0628343	-0.9699473	100.59	-12.066	-238.06	B5-03822-P02-CH0	3077464	OK	0.7320809	0.2940168	-0.6145012	0	-74.329	-98.289	-0.182	B5-03822-P02-CH1	3077464	OK	0.8085532	-0.1907071	-0.556662	0	-80.196	-78.605	3.423	B5-03822-P03-CH0	3077464	OK	0.8320478	-0.1922996	-0.520305	0	-89.38	-57.388	8.847	B5-03822-P03-CH1	3077464	OK	0.8217902	-0.2066559	-0.5309935	0	-98.888	-30.983	7.066	B5-03822-P04-CH0	3077464	OK	0.7172706	-0.2252715	0.6593752	0	-121.117	-40.01	7.225	B5-03822-P04-CH1	3077464	OK	0.7435501	-0.6663961	0.0552228	0	-107.244	-46.427	0.88	NA
0.129895783229117	B5-03822-P01-CH0	3077472	OK	0.2341944	0.0175662	0.0627719	-0.9700021	100.56	-12.042	-238.094	B5-03822-P02-CH0	3077472	OK	0.7313001	0.2882068	-0.6181724	0	-74.213	-97.903	0.637	B5-03822-P02-CH1	3077472	OK	0.8043012	-0.1927033	-0.5621077	0	-80.302	-78.685	3.567	B5-03822-P03-CH0	3077472	OK	0.8302265	-0.1960537	-0.5218111	0	-89.465	-57.738	8.377	B5-03822-P03-CH1	3077472	OK	0.8216654	-0.2071842	-0.5309809	0	-98.82	-30.981	7.04	B5-03822-P04-CH0	3077472	OK	0.7149774	-0.2211592	0.6632465	0	-121.036	-39.857	7.123	B5-03822-P04-CH1	3077472	OK	0.7434179	-0.6665782	0.0548026	0	-107.237	-46.439	0.911	NA
0.139887766554433	B5-03822-P01-CH0	3077480	OK	0.2342827	0.0174917	0.0628302	-0.9699784	100.562	-12.01	-238.188	B5-03822-P02-CH0	3077480	OK	0.7306483	0.2838506	-0.6209524	0	-74.061	-97.903	0.695	B5-03822-P02-CH1	3077480	OK	0.8003134	-0.1909275	-0.5683706	0	-80.058	-78.584	3.775	B5-03822-P03-CH0	3077480	OK	0.828454	-0.2009736	-0.5227557	0	-89.916	-57.693	7.977	B5-03822-P03-CH1	3077480	OK	0.8215318	-0.2076758	-0.5309955	0	-98.808	-30.99	7.196	B5-03822-P04-CH0	3077480	OK	0.715085	-0.2173827	0.6643781	0	-121.044	-40.477	8.579	B5-03822-P04-CH1	3077480	OK	0.743558	-0.6664375	0.0546125	0	-107.167	-46.36	0.944	NA
0.14987974987975	B5-03822-P01-CH0	3077488	OK	0.2343638	0.0175413	0.0633323	-0.9699252	100.595	-11.979	-238.164	B5-03822-P02-CH0	3077488	OK	0.7292025	0.2810531	-0.6239174	0	-73.903	-97.837	0.301	B5-03822-P02-CH1	3077488	OK	0.7959781	-0.1867376	-0.575802	0	-79.918	-78.409	3.523	B5-03822-P03-CH0	3077488	OK	0.828874	-0.2065	-0.5199285	0	-89.614	-57.569	8.091	B5-03822-P03-CH1	3077488	OK	0.8214188	-0.2080315	-0.5310312	0	-98.822	-31	7.182	B5-03822-P04-CH0	3077488	OK	0.7148256	-0.2169502	0.6647984	0	-121.176	-40.054	7.123	B5-03822-P04-CH1	3077488	OK	0.7438646	-0.6661011	0.0545421	0	-107.209	-46.366	0.901	NA
0.159871733205067	B5-03822-P01-CH0	3077496	OK	0.2343157	0.0174103	0.063353	-0.9699379	100.556	-11.997	-238.173	B5-03822-P02-CH0	3077496	OK	0.7262218	0.2789343	-0.6283292	0	-73.953	-96.793	0.507	B5-03822-P02-CH1	3077496	OK	0.7914542	-0.1820925	-0.5834745	0	-79.59	-78.425	2.686	B5-03822-P03-CH0	3077496	OK	0.8293195	-0.2122331	-0.5169006	0	-89.271	-57.615	7.962	B5-03822-P03-CH1	3077496	OK	0.8213356	-0.2084014	-0.5310148	0	-98.748	-31.023	7.201	B5-03822-P04-CH0	3077496	OK	0.7138587	-0.2156167	0.6662696	0	-120.859	-39.976	7.217	B5-03822-P04-CH1	3077496	OK	0.7438398	-0.6661401	0.0544043	0	-107.226	-46.436	0.979	NA
0.169863716530383	B5-03822-P01-CH0	3077504	OK	0.2338109	0.0177007	0.0621982	-0.9701291	100.608	-12.058	-238.189	B5-03822-P02-CH0	3077504	OK	0.7252075	0.2781577	-0.6298432	0	-73.507	-97.452	0.195	B5-03822-P02-CH1	3077504	OK	0.786493	-0.1775258	-0.5915347	0	-78.955	-78.533	2.757	B5-03822-P03-CH0	3077504	OK	0.8279416	-0.2188871	-0.5163343	0	-89.435	-57.856	7.736	B5-03822-P03-CH1	3077504	OK	0.8209181	-0.2086793	-0.5315509	0	-98.758	-30.97	7.292	B5-03822-P04-CH0	3077504	OK	0.713633	-0.2139288	0.667055	0	-121.159	-40.173	7.406	B5-03822-P04-CH1	3077504	OK	0.7430213	-0.6671179	0.0536015	0	-107.275	-46.428	1.174	NA
0.1798556998557	B5-03822-P01-CH0	3077512	OK	0.2334195	0.0181026	0.061304	-0.9702729	100.708	-12.132	-238.134	B5-03822-P02-CH0	3077512	OK	0.722822	0.2801867	-0.6316832	0	-73.229	-97.546	-0.49	B5-03822-P02-CH1	3077512	OK	0.7798645	-0.1712307	-0.6020726	0	-78.53	-78.698	1.981	B5-03822-P03-CH0	3077512	OK	0.8278918	-0.2251664	-0.5137073	0	-88.683	-58.016	8.332	B5-03822-P03-CH1	3077512	OK	0.8202916	-0.2091308	-0.5323401	0	-98.847	-31.038	7.355	B5-03822-P04-CH0	3077512	OK	0.7138643	-0.2119472	0.66744	0	-121.468	-40.448	7.709	B5-03822-P04-CH1	3077512	OK	0.7422864	-0.6679849	0.0529817	0	-107.378	-46.532	1.384	NA
0.189847683181017	B5-03822-P01-CH0	3077520	OK	0.233233	0.0181789	0.0610269	-0.9703338	100.718	-12.118	-238.12	B5-03822-P02-CH0	3077520	OK	0.7184499	0.283786	-0.6350553	0	-73.544	-97.121	0.931	B5-03822-P02-CH1	3077520	OK	0.7723667	-0.1631349	-0.6138702	0	-77.862	-78.544	1.818	B5-03822-P03-CH0	3077520	OK	0.8261804	-0.2291952	-0.5146801	0	-88.793	-58.308	8.058	B5-03822-P03-CH1	3077520	OK	0.8200004	-0.2092759	-0.5327316	0	-98.844	-30.997	7.324	B5-03822-P04-CH0	3077520	OK	0.7137431	-0.2123557	0.6674398	0	-121.503	-40.028	7.073	B5-03822-P04-CH1	3077520	OK	0.7422435	-0.6680988	0.05214	0	-107.497	-46.307	1.295	NA
0.199839666506333	B5-03822-P01-CH0	3077528	OK	0.2332014	0.0182278	0.060899	-0.9703485	100.738	-12.096	-238.115	B5-03822-P02-CH0	3077528	OK	0.7144272	0.287943	-0.6377167	0	-73.907	-97.267	2.153	B5-03822-P02-CH1	3077528	OK	0.7657352	-0.1561606	-0.6239099	0	-76.817	-78.442	1.906	B5-03822-P03-CH0	3077528	OK	0.8263622	-0.228467	-0.514712	0	-88.56	-58.621	8.361	B5-03822-P03-CH1	3077528	OK	0.819945	-0.2094532	-0.5327472	0	-98.742	-31.005	7.385	B5-03822-P04-CH0	3077528	OK	0.7143495	-0.216201	0.6655539	0	-121.486	-40.343	7.726	B5-03822-P04-CH1	3077528	OK	0.7419894	-0.6684033	0.0518526	0	-107.504	-46.36	1.362	NA
0.20983164983165	B5-03822-P01-CH0	3077536	OK	0.2334373	0.0180199	0.0616951	-0.9702454	100.73	-12.011	-238.221	B5-03822-P02-CH0	3077536	OK	0.7119864	0.2921717	-0.6385226	0	-73.559	-96.807	1.069	B5-03822-P02-CH1	3077536	OK	0.7606235	-0.1469232	-0.6323492	0	-76.284	-78.871	1.994	B5-03822-P03-CH0	3077536	OK	0.8264117	-0.2231635	-0.5169543	0	-88.914	-58.82	7.374	B5-03822-P03-CH1	3077536	OK	0.8198978	-0.2096783	-0.5327312	0	-98.717	-31.081	7.388	B5-03822-P04-CH0	3077536	OK	0.7143255	-0.2147341	0.6660543	0	-121.506	-40.319	7.826	B5-03822-P04-CH1	3077536	OK	0.7424149	-0.6679438	0.0516843	0	-107.435	-46.3	0.989	NA
0.219823633156966	B5-03822-P01-CH0	3077544	OK	0.2335263	0.0179075	0.0620169	-0.9702055	100.746	-11.941	-238.374	B5-03822-P02-CH0	3077544	OK	0.7104564	0.2950592	-0.6388988	0	-73.873	-97.475	1.308	B5-03822-P02-CH1	3077544	OK	0.7581942	-0.1364768	-0.6375857	0	-75.89	-78.699	1.86	B5-03822-P03-CH0	3077544	OK	0.8279451	-0.2164037	-0.5173745	0	-89.049	-58.918	7.61	B5-03822-P03-CH1	3077544	OK	0.8197027	-0.2097427	-0.5330061	0	-98.739	-31.108	7.495	B5-03822-P04-CH0	3077544	OK	0.7142671	-0.2133917	0.6665482	0	-121.583	-40.383	8.074	B5-03822-P04-CH1	3077544	OK	0.7426024	-0.6677552	0.0514259	0	-107.514	-46.253	1.142	NA
0.229815616482283	B5-03822-P01-CH0	3077552	OK	0.2334874	0.0178392	0.0621433	-0.970208	100.743	-11.896	-238.387	B5-03822-P02-CH0	3077552	OK	0.7081845	0.2951545	-0.6413723	0	-74.366	-97.24	1.878	B5-03822-P02-CH1	3077552	OK	0.7568258	-0.1276704	-0.6410266	0	-75.669	-78.373	1.954	B5-03822-P03-CH0	3077552	OK	0.8317304	-0.2088804	-0.5143866	0	-88.867	-58.73	7.458	B5-03822-P03-CH1	3077552	OK	0.8193823	-0.2095649	-0.5335684	0	-98.796	-31.029	7.445	B5-03822-P04-CH0	3077552	OK	0.7139513	-0.2125558	0.6671533	0	-121.647	-40.341	7.857	B5-03822-P04-CH1	3077552	OK	0.7426016	-0.6677865	0.0510289	0	-107.492	-46.147	0.984	NA
0.2398075998076	B5-03822-P01-CH0	3077560	OK	0.2334611	0.0178225	0.062358	-0.9702009	100.776	-11.831	-238.433	B5-03822-P02-CH0	3077560	OK	0.7073464	0.2908625	-0.6442515	0	-74.241	-97.111	2.356	B5-03822-P02-CH1	3077560	OK	0.7561499	-0.1218863	-0.6429472	0	-75.936	-78.575	1.599	B5-03822-P03-CH0	3077560	OK	0.8354593	-0.200911	-0.5115101	0	-89.101	-59.451	8.541	B5-03822-P03-CH1	3077560	OK	0.8191816	-0.2093185	-0.5339732	0	-98.805	-30.977	7.392	B5-03822-P04-CH0	3077560	OK	0.7138658	-0.2112648	0.6676548	0	-121.841	-40.427	7.851	B5-03822-P04-CH1	3077560	OK	0.7425308	-0.6678836	0.0507882	0	-107.564	-46.115	0.656	NA
0.249799583132916	B5-03822-P01-CH0	3077568	OK	0.2334702	0.0176875	0.062234	-0.9702091	100.775	-11.788	-238.48	B5-03822-P02-CH0	3077568	OK	0.7072519	0.2828781	-0.6479002	0	-74.279	-97.302	2.218	B5-03822-P02-CH1	3077568	OK	0.7576965	-0.1184035	-0.6417761	0	-76.094	-78.5	2.388	B5-03822-P03-CH0	3077568	OK	0.8402867	-0.1891524	-0.5080745	0	-89.423	-59.503	8.883	B5-03822-P03-CH1	3077568	OK	0.8189287	-0.2090876	-0.5344513	0	-98.82	-30.919	7.339	B5-03822-P04-CH0	3077568	OK	0.713317	-0.2101538	0.6685913	0	-121.897	-40.484	7.842	B5-03822-P04-CH1	3077568	OK	0.7424831	-0.667935	0.05081	0	-107.517	-46.004	0.696	NA
0.259791566458233	B5-03822-P01-CH0	3077576	OK	0.2334975	0.0177145	0.0621004	-0.9702106	100.836	-11.712	-238.565	B5-03822-P02-CH0	3077576	OK	0.7075917	0.2731644	-0.6516864	0	-74.361	-97.114	1.759	B5-03822-P02-CH1	3077576	OK	0.7607812	-0.1178807	-0.6382132	0	-76.415	-78.836	1.993	B5-03822-P03-CH0	3077576	OK	0.8451457	-0.178683	-0.5037868	0	-89.646	-59.496	8.967	B5-03822-P03-CH1	3077576	OK	0.8187058	-0.2089679	-0.5348395	0	-98.836	-30.902	7.339	B5-03822-P04-CH0	3077576	OK	0.7113619	-0.2029882	0.6728745	0	-122.651	-41.067	8.401	B5-03822-P04-CH1	3077576	OK	0.7422933	-0.6681333	0.0509768	0	-107.721	-45.964	0.799	NA
0.26978354978355	B5-03822-P01-CH0	3077584	OK	0.2337663	0.0178377	0.0621663	-0.9701394	100.924	-11.632	-238.561	B5-03822-P02-CH0	3077584	OK	0.7095845	0.263549	-0.6534767	0	-74.289	-96.971	0.929	B5-03822-P02-CH1	3077584	OK	0.7652441	-0.1203223	-0.6323954	0	-76.89	-78.637	2.558	B5-03822-P03-CH0	3077584	OK	0.8503513	-0.1739479	-0.4966334	0	-89.994	-59.551	8.662	B5-03822-P03-CH1	3077584	OK	0.8183614	-0.209196	-0.5352772	0	-98.911	-30.959	7.26	B5-03822-P04-CH0	3077584	OK	0.7121932	-0.2008014	0.6726512	0	-123.526	-40.479	7.302	B5-03822-P04-CH1	3077584	OK	0.7421477	-0.6682532	0.0515212	0	-107.872	-45.969	0.322	NA
0.279775533108866	B5-03822-P01-CH0	3077592	OK	0.2340874	0.0175636	0.0628718	-0.9700215	100.914	-11.472	-238.673	B5-03822-P02-CH0	3077592	OK	0.7117438	0.2569772	-0.6537457	0	-74.685	-97.305	1.176	B5-03822-P02-CH1	3077592	OK	0.7698074	-0.1236428	-0.626186	0	-77.751	-78.924	2.495	B5-03822-P03-CH0	3077592	OK	0.8572302	-0.1778846	-0.4832322	0	-90.706	-59.819	9.977	B5-03822-P03-CH1	3077592	OK	0.8184395	-0.208983	-0.5352409	0	-98.882	-30.916	7.211	B5-03822-P04-CH0	3077592	OK	0.7103608	-0.1988802	0.675155	0	-122.959	-40.9	7.699	B5-03822-P04-CH1	3077592	OK	0.7426353	-0.6676289	0.0525784	0	-107.969	-45.843	0.087	NA
0.289767516434183	B5-03822-P01-CH0	3077600	OK	0.2343889	0.0173747	0.0635456	-0.9699082	100.965	-11.364	-238.759	B5-03822-P02-CH0	3077600	OK	0.7141363	0.2535392	-0.6524778	0	-75.065	-97.827	1.466	B5-03822-P02-CH1	3077600	OK	0.7746169	-0.1256578	-0.6198216	0	-78.287	-79.215	2.67	B5-03822-P03-CH0	3077600	OK	0.864887	-0.1942764	-0.4628468	0	-91.723	-60.489	9.617	B5-03822-P03-CH1	3077600	OK	0.8184705	-0.2088058	-0.5352627	0	-98.878	-30.955	7.217	B5-03822-P04-CH0	3077600	OK	0.7107251	-0.1969751	0.6753301	0	-123.508	-40.45	6.512	B5-03822-P04-CH1	3077600	OK	0.7430111	-0.6670836	0.054166	0	-108.259	-45.977	0.286	NA
0.2997594997595	B5-03822-P01-CH0	3077608	OK	0.2346334	0.0171695	0.0639775	-0.9698244	100.971	-11.281	-238.769	B5-03822-P02-CH0	3077608	OK	0.7157453	0.2529596	-0.6509378	0	-75.415	-98.349	1.489	B5-03822-P02-CH1	3077608	OK	0.7769807	-0.129277	-0.6161074	0	-78.796	-80.331	3.076	B5-03822-P03-CH0	3077608	OK	0.8741127	-0.2129651	-0.4365466	0	-91.82	-61.452	10.395	B5-03822-P03-CH1	3077608	OK	0.8183758	-0.2087571	-0.5354265	0	-98.908	-30.97	7.064	B5-03822-P04-CH0	3077608	OK	0.7122847	-0.190088	0.6756604	0	-124.596	-42.061	7.632	B5-03822-P04-CH1	3077608	OK	0.742869	-0.6662804	0.0649318	0	-110.189	-47.427	1.446	NA
0.309751483084816	B5-03822-P01-CH0	3077616	OK	0.2346058	0.0172886	0.0633457	-0.9698704	101.027	-11.238	-238.712	B5-03822-P02-CH0	3077616	OK	0.7180005	0.255934	-0.6472814	0	-75.288	-99.085	0.777	B5-03822-P02-CH1	3077616	OK	0.7772165	-0.1393506	-0.613609	0	-78.639	-80.437	2.448	B5-03822-P03-CH0	3077616	OK	0.8828944	-0.2338564	-0.407196	0	-93.528	-62.26	10.081	B5-03822-P03-CH1	3077616	OK	0.8180556	-0.2087314	-0.5359257	0	-98.968	-30.886	7.025	B5-03822-P04-CH0	3077616	OK	0.712404	-0.1899885	0.6755627	0	-124.756	-42.311	7.116	B5-03822-P04-CH1	3077616	OK	0.7423974	-0.6665916	0.0670952	0	-109.981	-47.26	-0.652	NA
0.319743466410133	B5-03822-P01-CH0	3077624	OK	0.2347846	0.0173092	0.063108	-0.9698422	101.094	-11.213	-238.749	B5-03822-P02-CH0	3077624	OK	0.7183367	0.2621743	-0.6444044	0	-75.851	-99.605	1.778	B5-03822-P02-CH1	3077624	OK	0.776505	-0.1554364	-0.6106387	0	-78.503	-81.035	2.94	B5-03822-P03-CH0	3077624	OK	0.8927099	-0.2598428	-0.3681721	0	-94.089	-63.422	10.811	B5-03822-P03-CH1	3077624	OK	0.8179379	-0.2090187	-0.5359933	0	-98.933	-31	7.139	B5-03822-P04-CH0	3077624	OK	0.7129228	-0.1894169	0.6751757	0	-125.04	-43.39	7.574	B5-03822-P04-CH1	3077624	OK	0.7420563	-0.6666679	0.0700448	0	-110.475	-47.777	-0.326	NA
0.32973544973545	B5-03822-P01-CH0	3077632	OK	0.2349556	0.0173585	0.0631178	-0.9697993	101.163	-11.076	-238.804	B5-03822-P02-CH0	3077632	OK	0.7194611	0.2724115	-0.6388801	0	-75.772	-100.881	1.229	B5-03822-P02-CH1	3077632	OK	0.7738364	-0.1728872	-0.6093335	0	-79.066	-81.698	2.62	B5-03822-P03-CH0	3077632	OK	0.8986292	-0.2819413	-0.3361169	0	-95.196	-64.42	10.484	B5-03822-P03-CH1	3077632	OK	0.8178564	-0.2092324	-0.5360343	0	-98.937	-31.017	7.192	B5-03822-P04-CH0	3077632	OK	0.7129041	-0.1926456	0.6742814	0	-125.132	-42.657	6.646	B5-03822-P04-CH1	3077632	OK	0.7426784	-0.6657181	0.072445	0	-111.133	-48.268	2.308	NA
0.339727433060766	B5-03822-P01-CH0	3077640	OK	0.2351024	0.017422	0.0628079	-0.9697827	101.221	-11.01	-238.801	B5-03822-P02-CH0	3077640	OK	0.7169364	0.2886182	-0.6345878	0	-75.687	-101.843	1.527	B5-03822-P02-CH1	3077640	OK	0.7707396	-0.1922847	-0.607443	0	-78.473	-82.086	2.394	B5-03822-P03-CH0	3077640	OK	0.9033102	-0.3007852	-0.3058739	0	-96.077	-66.03	11.019	B5-03822-P03-CH1	3077640	OK	0.8176149	-0.2094921	-0.5363011	0	-98.971	-30.991	7.226	B5-03822-P04-CH0	3077640	OK	0.7116771	-0.1948271	0.6749505	0	-124.354	-41.816	7.137	B5-03822-P04-CH1	3077640	OK	0.7412465	-0.6669671	0.0755544	0	-110.745	-48.832	0.008	NA
0.349719416386083	B5-03822-P01-CH0	3077648	OK	0.2353373	0.017319	0.0629146	-0.9697207	101.23	-10.883	-238.869	B5-03822-P02-CH0	3077648	OK	0.7108098	0.3149716	-0.6289215	0	-75.69	-102.224	2.283	B5-03822-P02-CH1	3077648	OK	0.7660277	-0.2184977	-0.6045331	0	-77.887	-82.158	2.505	B5-03822-P03-CH0	3077648	OK	0.9097445	-0.3106237	-0.2754593	0	-95.847	-67.208	10.916	B5-03822-P03-CH1	3077648	OK	0.8175598	-0.2099568	-0.5362034	0	-98.934	-31.034	7.255	B5-03822-P04-CH0	3077648	OK	0.7118201	-0.194315	0.6749473	0	-124.632	-41.923	7.028	B5-03822-P04-CH1	3077648	OK	0.7420752	-0.6660878	0.0751762	0	-110.958	-48.268	0.045	NA
0.3597113997114	B5-03822-P01-CH0	3077656	OK	0.2355286	0.0173061	0.0628964	-0.9696756	101.262	-10.802	-238.886	B5-03822-P02-CH0	3077656	OK	0.7030332	0.3521071	-0.6178713	0	-75.51	-102.646	2.472	B5-03822-P02-CH1	3077656	OK	0.7622352	-0.2550696	-0.5949261	0	-76.902	-82.023	1.852	B5-03822-P03-CH0	3077656	OK	0.9154309	-0.3085652	-0.2584061	0	-96.61	-67.527	11.058	B5-03822-P03-CH1	3077656	OK	0.8173848	-0.2104688	-0.5362695	0	-98.932	-31.045	7.25	B5-03822-P04-CH0	3077656	OK	0.7119019	-0.1943366	0.6748548	0	-124.836	-42.03	6.913	B5-03822-P04-CH1	3077656	OK	0.7430419	-0.6650164	0.0751135	0	-111.205	-48.067	2.294	NA
0.369703383036716	B5-03822-P01-CH0	3077664	OK	0.2356421	0.0171222	0.0629668	-0.9696468	101.266	-10.74	-238.937	B5-03822-P02-CH0	3077664	OK	0.6940101	0.3951224	-0.6018541	0	-74.367	-102.516	3.17	B5-03822-P02-CH1	3077664	OK	0.7588301	-0.2922446	-0.5820395	0	-75.552	-81.494	1.719	B5-03822-P03-CH0	3077664	OK	0.9213034	-0.3051336	-0.241026	0	-95.966	-67.731	11.225	B5-03822-P03-CH1	3077664	OK	0.8173452	-0.2108905	-0.5361642	0	-98.87	-31.101	7.268	B5-03822-P04-CH0	3077664	OK	0.7131226	-0.2003393	0.6718038	0	-125.587	-42.926	7.045	B5-03822-P04-CH1	3077664	OK	0.742358	-0.6662605	0.0707215	0	-110.799	-47.549	0.361	NA
0.379695366362033	B5-03822-P01-CH0	3077672	OK	0.2357611	0.0170849	0.0627572	-0.9696321	101.288	-10.715	-238.922	B5-03822-P02-CH0	3077672	OK	0.6836878	0.4391116	-0.5828824	0	-72.836	-103.07	2.623	B5-03822-P02-CH1	3077672	OK	0.7552592	-0.3246405	-0.5693787	0	-74.139	-80.721	1.724	B5-03822-P03-CH0	3077672	OK	0.92515	-0.3028118	-0.228916	0	-96.046	-67.359	11.296	B5-03822-P03-CH1	3077672	OK	0.8171225	-0.2115003	-0.5362634	0	-98.874	-31.143	7.225	B5-03822-P04-CH0	3077672	OK	0.7121479	-0.2053033	0.6713389	0	-124.916	-42.247	5.834	B5-03822-P04-CH1	3077672	OK	0.7420789	-0.6664048	0.0722744	0	-110.966	-47.911	0.618	NA
0.38968734968735	B5-03822-P01-CH0	3077680	OK	0.2357428	0.0170049	0.0624668	-0.9696567	101.28	-10.696	-238.914	B5-03822-P02-CH0	3077680	OK	0.670103	0.4801019	-0.5660955	0	-71.364	-101.436	3.791	B5-03822-P02-CH1	3077680	OK	0.7515278	-0.3501673	-0.5590965	0	-72.403	-79.619	1.844	B5-03822-P03-CH0	3077680	OK	0.927627	-0.3071646	-0.212504	0	-95.357	-67.21	11.521	B5-03822-P03-CH1	3077680	OK	0.8168147	-0.2120145	-0.5365292	0	-98.917	-31.136	7.132	B5-03822-P04-CH0	3077680	OK	0.7128646	-0.205889	0.6703982	0	-125.032	-42.657	6.203	B5-03822-P04-CH1	3077680	OK	0.7418766	-0.666541	0.0730907	0	-110.939	-48.014	0.575	NA
0.399679333012666	B5-03822-P01-CH0	3077688	OK	0.2357517	0.0172023	0.0620449	-0.9696781	101.37	-10.686	-238.925	B5-03822-P02-CH0	3077688	OK	0.6620471	0.5139104	-0.5455178	0	-69.248	-101.069	3.509	B5-03822-P02-CH1	3077688	OK	0.7456979	-0.3694926	-0.5544455	0	-71.432	-78.308	1.999	B5-03822-P03-CH0	3077688	OK	0.927449	-0.3123924	-0.2055464	0	-95.339	-66.818	11.156	B5-03822-P03-CH1	3077688	OK	0.8164241	-0.212628	-0.5368809	0	-99	-31.201	7.201	B5-03822-P04-CH0	3077688	OK	0.713055	-0.2082508	0.6694656	0	-124.747	-42.549	6.958	B5-03822-P04-CH1	3077688	OK	0.7414102	-0.6670029	0.0736071	0	-111.057	-48.273	0.886	NA
0.409671316337983	B5-03822-P01-CH0	3077696	OK	0.235744	0.0169991	0.0620806	-0.9696813	101.341	-10.709	-238.942	B5-03822-P02-CH0	3077696	OK	0.6559162	0.5415332	-0.5258477	0	-67.449	-99.776	4.05	B5-03822-P02-CH1	3077696	OK	0.7395729	-0.3864394	-0.5510867	0	-70.471	-76.934	0.885	B5-03822-P03-CH0	3077696	OK	0.9263358	-0.3176646	-0.2024629	0	-95.08	-65.967	11.313	B5-03822-P03-CH1	3077696	OK	0.8164624	-0.213028	-0.5366639	0	-98.906	-31.254	7.179	B5-03822-P04-CH0	3077696	OK	0.7129802	-0.2119418	0.668386	0	-124.424	-41.908	6.399	B5-03822-P04-CH1	3077696	OK	0.7414032	-0.6669993	0.0737106	0	-111.054	-48.399	1.068	NA
0.4196632996633	B5-03822-P01-CH0	3077704	OK	0.2355308	0.0170163	0.0616522	-0.9697601	101.344	-10.691	-238.899	B5-03822-P02-CH0	3077704	OK	0.6525706	0.5555627	-0.5152686	0	-66.885	-99.404	3.889	B5-03822-P02-CH1	3077704	OK	0.7316468	-0.3986348	-0.5529768	0	-70.03	-75.092	1.461	B5-03822-P03-CH0	3077704	OK	0.9215481	-0.3338803	-0.1981743	0	-94.423	-65.5	10.734	B5-03822-P03-CH1	3077704	OK	0.8162794	-0.2135332	-0.5367416	0	-98.92	-31.205	7.099	B5-03822-P04-CH0	3077704	OK	0.7132733	-0.2146139	0.6672197	0	-124.582	-42.12	7.176	B5-03822-P04-CH1	3077704	OK	0.7409524	-0.6675391	0.0733562	0	-110.971	-48.429	1.127	NA
0.429655282988616	B5-03822-P01-CH0	3077712	OK	0.2356069	0.0169623	0.0613654	-0.9697608	101.335	-10.696	-238.918	B5-03822-P02-CH0	3077712	OK	0.6492993	0.5588286	-0.5158693	0	-66.541	-98.233	3.629	B5-03822-P02-CH1	3077712	OK	0.7231138	-0.4067318	-0.5582792	0	-69.711	-74.249	1.074	B5-03822-P03-CH0	3077712	OK	0.9148769	-0.3514426	-0.1987165	0	-93.883	-65.208	10.793	B5-03822-P03-CH1	3077712	OK	0.8161646	-0.2144035	-0.5365691	0	-98.882	-31.264	7.092	B5-03822-P04-CH0	3077712	OK	0.7127564	-0.2185297	0.6665007	0	-124.422	-41.126	5.765	B5-03822-P04-CH1	3077712	OK	0.7406201	-0.6679644	0.0728387	0	-110.84	-48.392	0.872	NA
0.439647266313933	B5-03822-P01-CH0	3077720	OK	0.2360792	0.0168298	0.0623056	-0.9695883	101.355	-10.589	-238.974	B5-03822-P02-CH0	3077720	OK	0.6504169	0.5573652	-0.5160444	0	-65.821	-97.669	3.339	B5-03822-P02-CH1	3077720	OK	0.7164321	-0.4020944	-0.5701274	0	-68.373	-73.704	0.756	B5-03822-P03-CH0	3077720	OK	0.9076439	-0.3633884	-0.2100746	0	-94.097	-64.387	9.988	B5-03822-P03-CH1	3077720	OK	0.8162653	-0.2152365	-0.5360823	0	-98.883	-31.358	7.1	B5-03822-P04-CH0	3077720	OK	0.7127517	-0.2176505	0.6667933	0	-124.439	-41.651	5.99	B5-03822-P04-CH1	3077720	OK	0.7413051	-0.667242	0.0724905	0	-110.698	-48.27	0.953	NA
0.44963924963925	B5-03822-P01-CH0	3077728	OK	0.2359055	0.0169497	0.0619363	-0.9696521	101.409	-10.655	-238.991	B5-03822-P02-CH0	3077728	OK	0.6518123	0.5568422	-0.514847	0	-66.29	-96.763	2.818	B5-03822-P02-CH1	3077728	OK	0.7085322	-0.3712934	-0.6001028	0	-69.321	-72.608	1.038	B5-03822-P03-CH0	3077728	OK	0.898366	-0.3746371	-0.2293156	0	-93.777	-63.606	9.482	B5-03822-P03-CH1	3077728	OK	0.8160488	-0.2160179	-0.5360976	0	-98.894	-31.436	7.096	B5-03822-P04-CH0	3077728	OK	0.7116224	-0.2188439	0.6676083	0	-123.98	-41.8	6.175	B5-03822-P04-CH1	3077728	OK	0.7408519	-0.6678525	0.0714941	0	-110.706	-48.336	1.073	NA
0.459631232964566	B5-03822-P01-CH0	3077736	OK	0.2359232	0.0168314	0.0622564	-0.9696294	101.385	-10.623	-238.995	B5-03822-P02-CH0	3077736	OK	0.6572526	0.5568022	-0.5079276	0	-66.568	-96.725	2.887	B5-03822-P02-CH1	3077736	OK	0.7032954	-0.3343948	-0.6273402	0	-69.463	-71.88	1.5	B5-03822-P03-CH0	3077736	OK	0.8873965	-0.3799106	-0.2611424	0	-93.101	-62.644	9.396	B5-03822-P03-CH1	3077736	OK	0.8161065	-0.2164606	-0.5358312	0	-98.895	-31.425	7.062	B5-03822-P04-CH0	3077736	OK	0.7122415	-0.2140748	0.6684939	0	-124.315	-41.657	6.351	B5-03822-P04-CH1	3077736	OK	0.7409863	-0.6678114	0.0704784	0	-110.546	-48.128	0.68	NA
0.469623216289883	B5-03822-P01-CH0	3077744	OK	0.2361678	0.0167539	0.0628445	-0.9695332	101.393	-10.596	-239.034	B5-03822-P02-CH0	3077744	OK	0.6641333	0.5600588	-0.4952385	0	-67.348	-96.636	3.128	B5-03822-P02-CH1	3077744	OK	0.6987382	-0.2994847	-0.6496721	0	-69.711	-71.589	2.262	B5-03822-P03-CH0	3077744	OK	0.8742439	-0.3790604	-0.3033328	0	-93.035	-61.401	8.507	B5-03822-P03-CH1	3077744	OK	0.8162267	-0.2171665	-0.5353621	0	-98.873	-31.535	7.096	B5-03822-P04-CH0	3077744	OK	0.7126019	-0.2153786	0.6676905	0	-124.239	-41.678	6.356	B5-03822-P04-CH1	3077744	OK	0.7413433	-0.6674686	0.0699698	0	-110.489	-48.095	1.048	NA
0.4796151996152	B5-03822-P01-CH0	3077752	OK	0.2361214	0.0167427	0.0628305	-0.9695456	101.405	-10.613	-239.106	B5-03822-P02-CH0	3077752	OK	0.6708151	0.5651758	-0.480191	0	-68.463	-95.604	3.351	B5-03822-P02-CH1	3077752	OK	0.6948146	-0.2754913	-0.6643321	0	-69.745	-71.668	2.238	B5-03822-P03-CH0	3077752	OK	0.8610351	-0.3785323	-0.3396053	0	-92.358	-60.477	7.641	B5-03822-P03-CH1	3077752	OK	0.8163567	-0.2178055	-0.5349043	0	-98.792	-31.596	7.125	B5-03822-P04-CH0	3077752	OK	0.7128057	-0.2170989	0.6669153	0	-124.157	-41.584	6.51	B5-03822-P04-CH1	3077752	OK	0.7412455	-0.6676847	0.0689365	0	-110.361	-48	0.984	NA
0.489607182940516	B5-03822-P01-CH0	3077760	OK	0.2362863	0.0167572	0.0630639	-0.96949	101.418	-10.575	-239.152	B5-03822-P02-CH0	3077760	OK	0.6784031	0.5698423	-0.4637339	0	-69.903	-95.488	3.968	B5-03822-P02-CH1	3077760	OK	0.6920763	-0.2726623	-0.6683454	0	-69.695	-70.013	1.592	B5-03822-P03-CH0	3077760	OK	0.8505683	-0.3765665	-0.3670575	0	-92.055	-59.643	7.148	B5-03822-P03-CH1	3077760	OK	0.8164974	-0.2184282	-0.5344353	0	-98.758	-31.584	7.179	B5-03822-P04-CH0	3077760	OK	0.7130371	-0.2181427	0.6663271	0	-124.091	-41.587	6.657	B5-03822-P04-CH1	3077760	OK	0.741161	-0.6678474	0.0682664	0	-110.358	-47.967	0.74	NA
0.499599166265833	B5-03822-P01-CH0	3077768	OK	0.2363246	0.0166833	0.0631427	-0.9694769	101.41	-10.551	-239.214	B5-03822-P02-CH0	3077768	OK	0.6858429	0.5721822	-0.4496966	0	-70.938	-95.668	3.272	B5-03822-P02-CH1	3077768	OK	0.6939715	-0.2753419	-0.6652747	0	-69.252	-71.188	2.38	B5-03822-P03-CH0	3077768	OK	0.8441095	-0.3761355	-0.382101	0	-91.456	-58.973	6.939	B5-03822-P03-CH1	3077768	OK	0.8166507	-0.2190235	-0.5339572	0	-98.691	-31.558	7.197	B5-03822-P04-CH0	3077768	OK	0.7130841	-0.219324	0.6658889	0	-124.019	-41.504	6.63	B5-03822-P04-CH1	3077768	OK	0.741444	-0.6676349	0.0672639	0	-110.197	-47.587	0.483	NA
0.50959114959115	B5-03822-P01-CH0	3077776	OK	0.2363515	0.0168337	0.0630745	-0.9694721	101.468	-10.51	-239.191	B5-03822-P02-CH0	3077776	OK	0.6885977	0.5788717	-0.4367387	0	-72.544	-95.435	3.266	B5-03822-P02-CH1	3077776	OK	0.6960609	-0.2639065	-0.667722	0	-70.571	-71.221	2.462	B5-03822-P03-CH0	3077776	OK	0.8414675	-0.3717089	-0.3921287	0	-91.69	-58.57	7.561	B5-03822-P03-CH1	3077776	OK	0.8165823	-0.2197536	-0.5337619	0	-98.728	-31.548	7.191	B5-03822-P04-CH0	3077776	OK	0.7132906	-0.2199454	0.6654627	0	-124.071	-41.531	6.648	B5-03822-P04-CH1	3077776	OK	0.7414109	-0.6677401	0.0665814	0	-110.222	-47.447	0.663	NA
0.519583132916466	B5-03822-P01-CH0	3077784	OK	0.2365195	0.0168719	0.0634436	-0.9694064	101.488	-10.445	-239.135	B5-03822-P02-CH0	3077784	OK	0.6902886	0.587496	-0.4223152	0	-72.885	-95.287	3.226	B5-03822-P02-CH1	3077784	OK	0.6960189	-0.2570032	-0.6704529	0	-70.728	-71.291	1.952	B5-03822-P03-CH0	3077784	OK	0.8394421	-0.3699969	-0.3980443	0	-92.256	-58.36	7.266	B5-03822-P03-CH1	3077784	OK	0.8165755	-0.2202671	-0.5335605	0	-98.743	-31.495	7.099	B5-03822-P04-CH0	3077784	OK	0.7134179	-0.2202286	0.6652325	0	-123.995	-41.519	6.613	B5-03822-P04-CH1	3077784	OK	0.7417628	-0.6674078	0.0659906	0	-110.129	-47.259	0.585	NA
0.529575116241783	B5-03822-P01-CH0	3077792	OK	0.236739	0.0166686	0.0638303	-0.969331	101.46	-10.4	-239.139	B5-03822-P02-CH0	3077792	OK	0.691795	0.5950526	-0.4090624	0	-73.097	-95.136	3.253	B5-03822-P02-CH1	3077792	OK	0.6936443	-0.2533343	-0.6742991	0	-70.398	-71.012	1.311	B5-03822-P03-CH0	3077792	OK	0.835872	-0.3709409	-0.4046243	0	-91.665	-58.004	7.288	B5-03822-P03-CH1	3077792	OK	0.8168031	-0.2205101	-0.5331116	0	-98.696	-31.412	7.024	B5-03822-P04-CH0	3077792	OK	0.7133781	-0.2205338	0.6651741	0	-123.87	-41.494	6.501	B5-03822-P04-CH1	3077792	OK	0.7420728	-0.667085	0.0657685	0	-109.937	-47.222	0.713	NA
0.5395670995671	B5-03822-P01-CH0	3077800	OK	0.236625	0.0164951	0.0633005	-0.9693965	101.397	-10.484	-239.098	B5-03822-P02-CH0	3077800	OK	0.6938386	0.6005127	-0.3974575	0	-73.687	-95.07	2.982	B5-03822-P02-CH1	3077800	OK	0.6910336	-0.2526868	-0.6772163	0	-69.972	-71.149	1.579	B5-03822-P03-CH0	3077800	OK	0.8322348	-0.371524	-0.4115278	0	-90.808	-57.927	6.942	B5-03822-P03-CH1	3077800	OK	0.8168023	-0.2210005	-0.5329097	0	-98.611	-31.462	6.976	B5-03822-P04-CH0	3077800	OK	0.7131739	-0.2210948	0.6652068	0	-123.702	-41.552	6.585	B5-03822-P04-CH1	3077800	OK	0.7418164	-0.6674422	0.0650329	0	-109.85	-47.182	0.837	NA
0.549559082892416	B5-03822-P01-CH0	3077808	OK	0.2369265	0.0164715	0.0635395	-0.9693076	101.415	-10.439	-239.073	B5-03822-P02-CH0	3077808	OK	0.6959265	0.605988	-0.3853114	0	-73.961	-95.157	2.921	B5-03822-P02-CH1	3077808	OK	0.6897453	-0.2566287	-0.6770474	0	-69.41	-71.214	1.034	B5-03822-P03-CH0	3077808	OK	0.8305075	-0.3705438	-0.4158781	0	-91.294	-57.761	6.343	B5-03822-P03-CH1	3077808	OK	0.8169913	-0.2213032	-0.5324943	0	-98.602	-31.413	6.945	B5-03822-P04-CH0	3077808	OK	0.7133111	-0.2212438	0.6650101	0	-123.633	-41.519	6.527	B5-03822-P04-CH1	3077808	OK	0.7420577	-0.6671969	0.0647969	0	-109.733	-47.18	0.947	NA
0.559551066217733	B5-03822-P01-CH0	3077816	OK	0.2372467	0.0164531	0.0640236	-0.9691978	101.469	-10.381	-239.068	B5-03822-P02-CH0	3077816	OK	0.6988342	0.6108055	-0.3722196	0	-73.574	-94.954	2.675	B5-03822-P02-CH1	3077816	OK	0.6882158	-0.2638415	-0.6758303	0	-69.579	-71.405	1.415	B5-03822-P03-CH0	3077816	OK	0.833051	-0.3693286	-0.4118523	0	-91.386	-57.671	7.045	B5-03822-P03-CH1	3077816	OK	0.8170626	-0.2217444	-0.5322012	0	-98.62	-31.496	6.988	B5-03822-P04-CH0	3077816	OK	0.7133891	-0.2212004	0.6649409	0	-123.537	-41.558	6.505	B5-03822-P04-CH1	3077816	OK	0.7424157	-0.6668166	0.0646104	0	-109.554	-47.182	0.806	NA
0.56954304954305	B5-03822-P01-CH0	3077824	OK	0.2372668	0.0165191	0.0636079	-0.9692191	101.481	-10.3	-239.031	B5-03822-P02-CH0	3077824	OK	0.7036355	0.6131309	-0.3591207	0	-73.649	-95.186	2.412	B5-03822-P02-CH1	3077824	OK	0.6885061	-0.2738229	-0.6715507	0	-69.513	-71.644	1.653	B5-03822-P03-CH0	3077824	OK	0.8373036	-0.3684273	-0.4039605	0	-91.677	-57.548	7.76	B5-03822-P03-CH1	3077824	OK	0.8169805	-0.2220379	-0.5322049	0	-98.672	-31.381	6.959	B5-03822-P04-CH0	3077824	OK	0.7132505	-0.2213224	0.665049	0	-123.493	-41.515	6.495	B5-03822-P04-CH1	3077824	OK	0.7422162	-0.6670925	0.064052	0	-109.432	-47.07	0.777	NA
0.579535032868366	B5-03822-P01-CH0	3077832	OK	0.2375631	0.0166259	0.0637161	-0.9691376	101.53	-10.23	-238.959	B5-03822-P02-CH0	3077832	OK	0.7077804	0.6129516	-0.3511939	0	-73.495	-95.753	1.982	B5-03822-P02-CH1	3077832	OK	0.6894992	-0.286365	-0.6652713	0	-69.464	-71.797	1.682	B5-03822-P03-CH0	3077832	OK	0.8405182	-0.36546	-0.3999601	0	-92.747	-57.397	7.866	B5-03822-P03-CH1	3077832	OK	0.8169006	-0.2222247	-0.5322496	0	-98.758	-31.341	7	B5-03822-P04-CH0	3077832	OK	0.7133062	-0.2208342	0.6651515	0	-123.485	-41.637	6.424	B5-03822-P04-CH1	3077832	OK	0.7423859	-0.6669035	0.0640543	0	-109.372	-47.122	1.042	NA
0.589527016193683	B5-03822-P01-CH0	3077840	OK	0.2377299	0.0166666	0.063792	-0.969091	101.563	-10.169	-238.902	B5-03822-P02-CH0	3077840	OK	0.7080039	0.6139882	-0.3489254	0	-73.47	-95.77	1.688	B5-03822-P02-CH1	3077840	OK	0.6897979	-0.2994138	-0.6591891	0	-69.361	-71.521	1.345	B5-03822-P03-CH0	3077840	OK	0.8426969	-0.3613259	-0.399131	0	-92.854	-57.548	7.286	B5-03822-P03-CH1	3077840	OK	0.8168755	-0.2224074	-0.5322118	0	-98.792	-31.384	6.937	B5-03822-P04-CH0	3077840	OK	0.7132199	-0.2209337	0.665211	0	-123.423	-41.611	6.202	B5-03822-P04-CH1	3077840	OK	0.7425202	-0.6667804	0.063778	0	-109.221	-47.116	1.108	NA
0.599518999519	B5-03822-P01-CH0	3077848	OK	0.2377502	0.0166966	0.063598	-0.9690982	101.564	-10.122	-238.844	B5-03822-P02-CH0	3077848	OK	0.705892	0.616457	-0.3488513	0	-72.724	-95.866	1.621	B5-03822-P02-CH1	3077848	OK	0.6890318	-0.3146187	-0.6528784	0	-69.486	-71.326	1.114	B5-03822-P03-CH0	3077848	OK	0.8435661	-0.3559747	-0.4020924	0	-92.908	-57.772	8.059	B5-03822-P03-CH1	3077848	OK	0.8169065	-0.222326	-0.5321981	0	-98.788	-31.355	6.889	B5-03822-P04-CH0	3077848	OK	0.7130375	-0.2211608	0.6653311	0	-123.332	-41.592	6.21	B5-03822-P04-CH1	3077848	OK	0.7424402	-0.666895	0.0635113	0	-109.1	-47.163	1.331	NA
0.609510982844316	B5-03822-P01-CH0	3077856	OK	0.237892	0.0168222	0.0635797	-0.9690625	101.611	-10.065	-238.858	B5-03822-P02-CH0	3077856	OK	0.7004814	0.6215593	-0.350699	0	-72.135	-95.722	2.265	B5-03822-P02-CH1	3077856	OK	0.6891911	-0.3257517	-0.6472259	0	-69.205	-71.557	1.084	B5-03822-P03-CH0	3077856	OK	0.8438004	-0.3504215	-0.406455	0	-93.298	-57.654	8.124	B5-03822-P03-CH1	3077856	OK	0.8168932	-0.2223576	-0.5322053	0	-98.797	-31.461	6.948	B5-03822-P04-CH0	3077856	OK	0.7129882	-0.2211529	0.6653865	0	-123.261	-41.605	6.381	B5-03822-P04-CH1	3077856	OK	0.7423593	-0.6670048	0.0633021	0	-108.967	-47.269	1.313	NA
0.619502966169633	B5-03822-P01-CH0	3077864	OK	0.2379433	0.0167326	0.0634237	-0.9690616	101.597	-10.069	-238.917	B5-03822-P02-CH0	3077864	OK	0.6957377	0.6254066	-0.3532926	0	-71.473	-96.076	2.131	B5-03822-P02-CH1	3077864	OK	0.6904311	-0.3244533	-0.6465562	0	-69.598	-71.332	1.599	B5-03822-P03-CH0	3077864	OK	0.8440729	-0.3468805	-0.4089192	0	-92.542	-57.573	7.527	B5-03822-P03-CH1	3077864	OK	0.8171298	-0.2222496	-0.5318872	0	-98.705	-31.55	7.036	B5-03822-P04-CH0	3077864	OK	0.7128125	-0.2216108	0.6654225	0	-123.136	-41.552	6.354	B5-03822-P04-CH1	3077864	OK	0.7423243	-0.6670905	0.0628085	0	-108.85	-47.267	1.398	NA
0.629494949494949	B5-03822-P01-CH0	3077872	OK	0.2379788	0.0167899	0.0634164	-0.9690524	101.631	-10.087	-238.917	B5-03822-P02-CH0	3077872	OK	0.6919861	0.6258386	-0.3598352	0	-70.563	-96.856	1.634	B5-03822-P02-CH1	3077872	OK	0.6920178	-0.3229941	-0.6455898	0	-69.729	-71.402	1.753	B5-03822-P03-CH0	3077872	OK	0.8414373	-0.3411804	-0.4190218	0	-92.832	-57.476	7.509	B5-03822-P03-CH1	3077872	OK	0.8172145	-0.2221945	-0.5317801	0	-98.69	-31.659	7.042	B5-03822-P04-CH0	3077872	OK	0.7127915	-0.2218426	0.6653677	0	-123.019	-41.594	6.475	B5-03822-P04-CH1	3077872	OK	0.7424997	-0.6669525	0.0621984	0	-108.841	-47.227	1.435	NA
0.639486932820266	B5-03822-P01-CH0	3077880	OK	0.2380415	0.016913	0.063426	-0.9690342	101.648	-9.996	-238.887	B5-03822-P02-CH0	3077880	OK	0.6844674	0.6278878	-0.3704879	0	-70.327	-96.114	2.319	B5-03822-P02-CH1	3077880	OK	0.6944124	-0.3251427	-0.6419297	0	-69.09	-71.467	1.225	B5-03822-P03-CH0	3077880	OK	0.8397708	-0.3328806	-0.4289237	0	-92.427	-57.198	7.832	B5-03822-P03-CH1	3077880	OK	0.8172433	-0.221992	-0.5318204	0	-98.745	-31.615	7.001	B5-03822-P04-CH0	3077880	OK	0.7128146	-0.2222048	0.6652221	0	-122.964	-41.457	6.419	B5-03822-P04-CH1	3077880	OK	0.7423602	-0.6671373	0.0618796	0	-108.778	-47.305	1.368	NA
0.649478916145583	B5-03822-P01-CH0	3077888	OK	0.2380189	0.0170593	0.0635169	-0.9690313	101.668	-9.906	-238.826	B5-03822-P02-CH0	3077888	OK	0.6803249	0.6287956	-0.376529	0	-69.921	-96.496	2.247	B5-03822-P02-CH1	3077888	OK	0.6945805	-0.3266902	-0.6409613	0	-69.548	-71.445	1.386	B5-03822-P03-CH0	3077888	OK	0.8368557	-0.3254585	-0.4401696	0	-92.61	-56.721	7.386	B5-03822-P03-CH1	3077888	OK	0.817196	-0.2217194	-0.5320068	0	-98.799	-31.634	7.052	B5-03822-P04-CH0	3077888	OK	0.7128957	-0.2224728	0.6650456	0	-122.963	-41.36	6.336	B5-03822-P04-CH1	3077888	OK	0.7424399	-0.6671132	0.0611803	0	-108.725	-47.19	1.25	NA
0.659470899470899	B5-03822-P01-CH0	3077896	OK	0.2379287	0.0170499	0.0630093	-0.9690867	101.619	-9.889	-238.829	B5-03822-P02-CH0	3077896	OK	0.6775689	0.6288404	-0.3813923	0	-69.273	-96.896	2.235	B5-03822-P02-CH1	3077896	OK	0.6955287	-0.3274474	-0.6395451	0	-69.158	-71.418	1.419	B5-03822-P03-CH0	3077896	OK	0.8339259	-0.322531	-0.4478184	0	-92.2	-56.593	7.526	B5-03822-P03-CH1	3077896	OK	0.8172956	-0.2213521	-0.5320066	0	-98.729	-31.553	7.061	B5-03822-P04-CH0	3077896	OK	0.7126157	-0.2228368	0.6652237	0	-122.884	-41.292	6.284	B5-03822-P04-CH1	3077896	OK	0.7422888	-0.6673437	0.0604958	0	-108.74	-47.092	1.649	NA
0.669462882796216	B5-03822-P01-CH0	3077904	OK	0.2378634	0.0170117	0.0631225	-0.969096	101.596	-9.903	-238.796	B5-03822-P02-CH0	3077904	OK	0.6723218	0.6282725	-0.3914805	0	-68.85	-96.858	2.134	B5-03822-P02-CH1	3077904	OK	0.6962927	-0.3297647	-0.63752	0	-69.385	-71.927	1.441	B5-03822-P03-CH0	3077904	OK	0.8305916	-0.3231456	-0.4535357	0	-91.71	-56.525	7.349	B5-03822-P03-CH1	3077904	OK	0.8173874	-0.2207191	-0.5321287	0	-98.672	-31.568	7.076	B5-03822-P04-CH0	3077904	OK	0.71237	-0.2232846	0.6653367	0	-122.73	-41.228	6.218	B5-03822-P04-CH1	3077904	OK	0.7422824	-0.6673951	0.0600055	0	-108.581	-47.144	1.437	NA
0.679454866121533	B5-03822-P01-CH0	3077912	OK	0.2375353	0.0171216	0.0625664	-0.9692107	101.583	-9.909	-238.711	B5-03822-P02-CH0	3077912	OK	0.6661948	0.6255762	-0.4060036	0	-68.885	-96.411	2.723	B5-03822-P02-CH1	3077912	OK	0.6976638	-0.3345324	-0.6335245	0	-69.473	-71.781	0.897	B5-03822-P03-CH0	3077912	OK	0.8267168	-0.3235676	-0.4602644	0	-91.581	-56.325	7.751	B5-03822-P03-CH1	3077912	OK	0.8172728	-0.2202234	-0.5325099	0	-98.685	-31.515	7.039	B5-03822-P04-CH0	3077912	OK	0.7119275	-0.2241793	0.6655095	0	-122.591	-41.053	6.213	B5-03822-P04-CH1	3077912	OK	0.7420889	-0.6677168	0.0588078	0	-108.544	-46.872	1.122	NA
0.689446849446849	B5-03822-P01-CH0	3077920	OK	0.2373279	0.0172718	0.0621297	-0.9692869	101.601	-9.915	-238.667	B5-03822-P02-CH0	3077920	OK	0.6612685	0.6204485	-0.421625	0	-68.478	-96.158	2.444	B5-03822-P02-CH1	3077920	OK	0.6987029	-0.3396299	-0.6296553	0	-69.58	-71.492	1.491	B5-03822-P03-CH0	3077920	OK	0.8230954	-0.3238919	-0.4664846	0	-91.317	-56.219	7.466	B5-03822-P03-CH1	3077920	OK	0.8172189	-0.2198052	-0.5327653	0	-98.694	-31.494	7.083	B5-03822-P04-CH0	3077920	OK	0.7116224	-0.2247952	0.665628	0	-122.483	-40.908	6.347	B5-03822-P04-CH1	3077920	OK	0.7419393	-0.6679554	0.0579797	0	-108.624	-46.774	1.314	NA
0.699438832772166	B5-03822-P01-CH0	3077928	OK	0.2371519	0.0174097	0.0617529	-0.9693516	101.616	-9.936	-238.648	B5-03822-P02-CH0	3077928	OK	0.6585349	0.6141465	-0.4349205	0	-68.078	-97.001	2.417	B5-03822-P02-CH1	3077928	OK	0.6993966	-0.3478367	-0.6243829	0	-69.657	-71.074	1.257	B5-03822-P03-CH0	3077928	OK	0.8202589	-0.3235687	-0.4716764	0	-91.045	-56.113	7.274	B5-03822-P03-CH1	3077928	OK	0.8170813	-0.2194496	-0.5331228	0	-98.748	-31.524	7.187	B5-03822-P04-CH0	3077928	OK	0.7114059	-0.2255616	0.6656002	0	-122.398	-40.713	6.338	B5-03822-P04-CH1	3077928	OK	0.7416307	-0.6683688	0.0571575	0	-108.582	-46.836	1.568	NA
0.709430816097483	B5-03822-P01-CH0	3077936	OK	0.2372172	0.017341	0.0619807	-0.9693223	101.589	-9.898	-238.666	B5-03822-P02-CH0	3077936	OK	0.6527552	0.6096907	-0.449653	0	-67.892	-96.656	3.017	B5-03822-P02-CH1	3077936	OK	0.7003606	-0.3566358	-0.6183089	0	-69.282	-71.444	1.533	B5-03822-P03-CH0	3077936	OK	0.8183949	-0.3229402	-0.4753309	0	-90.976	-56.129	6.658	B5-03822-P03-CH1	3077936	OK	0.8173007	-0.218971	-0.5329833	0	-98.721	-31.485	7.164	B5-03822-P04-CH0	3077936	OK	0.7111937	-0.2256871	0.6657844	0	-122.24	-40.681	6.421	B5-03822-P04-CH1	3077936	OK	0.7419367	-0.6680868	0.0564798	0	-108.522	-46.719	1.477	NA
0.719422799422799	B5-03822-P01-CH0	3077944	OK	0.2372746	0.0173588	0.0623405	-0.9692848	101.614	-9.846	-238.684	B5-03822-P02-CH0	3077944	OK	0.6457941	0.6047131	-0.4661245	0	-68.222	-96.193	2.925	B5-03822-P02-CH1	3077944	OK	0.7000786	-0.3591381	-0.6171789	0	-69.573	-71.851	1.479	B5-03822-P03-CH0	3077944	OK	0.8181613	-0.3206988	-0.4772466	0	-90.515	-56.037	6.942	B5-03822-P03-CH1	3077944	OK	0.8173594	-0.2182628	-0.5331838	0	-98.796	-31.439	7.157	B5-03822-P04-CH0	3077944	OK	0.7110823	-0.2255124	0.6659625	0	-122.166	-40.688	6.554	B5-03822-P04-CH1	3077944	OK	0.7423108	-0.6677185	0.0559161	0	-108.363	-46.621	1.447	NA
0.729414782748116	B5-03822-P01-CH0	3077952	OK	0.2370867	0.017409	0.0622739	-0.9693342	101.618	-9.853	-238.658	B5-03822-P02-CH0	3077952	OK	0.6405743	0.5954115	-0.4849223	0	-68.174	-95.887	3.28	B5-03822-P02-CH1	3077952	OK	0.6998643	-0.3603618	-0.6167085	0	-69.765	-71.637	1.057	B5-03822-P03-CH0	3077952	OK	0.8169748	-0.3181978	-0.480939	0	-90.739	-55.708	6.888	B5-03822-P03-CH1	3077952	OK	0.8173047	-0.2174295	-0.533608	0	-98.861	-31.384	7.19	B5-03822-P04-CH0	3077952	OK	0.7109339	-0.2252766	0.6662008	0	-122.138	-40.739	6.75	B5-03822-P04-CH1	3077952	OK	0.7422415	-0.6678551	0.0552	0	-108.395	-46.642	1.509	NA
0.739406766073433	B5-03822-P01-CH0	3077960	OK	0.2368838	0.0174854	0.0621696	-0.9693891	101.611	-9.893	-238.579	B5-03822-P02-CH0	3077960	OK	0.6370032	0.5834588	-0.5037884	0	-67.95	-95.557	3.256	B5-03822-P02-CH1	3077960	OK	0.6997014	-0.3618664	-0.6160119	0	-70.203	-71.901	0.835	B5-03822-P03-CH0	3077960	OK	0.8160248	-0.3172698	-0.4831598	0	-90.8	-55.919	6.697	B5-03822-P03-CH1	3077960	OK	0.8173718	-0.216519	-0.5338753	0	-98.842	-31.331	7.077	B5-03822-P04-CH0	3077960	OK	0.7107454	-0.2249621	0.666508	0	-122.066	-40.693	6.797	B5-03822-P04-CH1	3077960	OK	0.7423944	-0.6677643	0.0542344	0	-108.311	-46.532	1.585	NA
0.749398749398749	B5-03822-P01-CH0	3077968	OK	0.2366103	0.0173986	0.0614755	-0.9695017	101.56	-9.993	-238.631	B5-03822-P02-CH0	3077968	OK	0.635079	0.5719994	-0.5191255	0	-68.069	-95.166	3.121	B5-03822-P02-CH1	3077968	OK	0.701567	-0.3615669	-0.6140627	0	-70.136	-72.152	1.391	B5-03822-P03-CH0	3077968	OK	0.8164235	-0.3188383	-0.4814507	0	-90.215	-55.97	6.822	B5-03822-P03-CH1	3077968	OK	0.8174894	-0.2155229	-0.5340983	0	-98.77	-31.273	7.063	B5-03822-P04-CH0	3077968	OK	0.7100999	-0.2245766	0.6673256	0	-121.876	-40.717	6.842	B5-03822-P04-CH1	3077968	OK	0.7421602	-0.6680839	0.0534987	0	-108.187	-46.446	1.67	NA
0.759390732724066	B5-03822-P01-CH0	3077976	OK	0.2364021	0.0174476	0.061292	-0.9695633	101.564	-10.053	-238.567	B5-03822-P02-CH0	3077976	OK	0.6352919	0.559773	-0.5320323	0	-68.406	-95.103	3.301	B5-03822-P02-CH1	3077976	OK	0.7040861	-0.3612738	-0.6113461	0	-70.671	-72.357	1	B5-03822-P03-CH0	3077976	OK	0.8150225	-0.3184083	-0.4841018	0	-90.345	-55.92	6.501	B5-03822-P03-CH1	3077976	OK	0.8176992	-0.214333	-0.5342559	0	-98.73	-31.253	6.966	B5-03822-P04-CH0	3077976	OK	0.7087187	-0.2160645	0.6715906	0	-121.41	-41.04	7.542	B5-03822-P04-CH1	3077976	OK	0.7420088	-0.6683102	0.0527676	0	-108.066	-46.497	1.323	NA
0.769382716049383	B5-03822-P01-CH0	3077984	OK	0.2362787	0.0174816	0.0610599	-0.9696074	101.544	-10.049	-238.558	B5-03822-P02-CH0	3077984	OK	0.6381863	0.5438318	-0.5449451	0	-68.772	-95.008	3.495	B5-03822-P02-CH1	3077984	OK	0.7078363	-0.3593798	-0.6081233	0	-71.123	-72.564	1.086	B5-03822-P03-CH0	3077984	OK	0.8150239	-0.3168245	-0.4851373	0	-89.841	-55.828	6.614	B5-03822-P03-CH1	3077984	OK	0.8196223	-0.2074321	-0.534033	0	-98.274	-31.278	6.879	B5-03822-P04-CH0	3077984	OK	0.7073839	-0.2147884	0.6734048	0	-120.642	-40.16	7.64	B5-03822-P04-CH1	3077984	OK	0.7422086	-0.6681376	0.0521395	0	-108.055	-46.348	1.622	NA
0.779374699374699	B5-03822-P01-CH0	3077992	OK	0.2364799	0.0175611	0.0613574	-0.9695381	101.61	-10.039	-238.66	B5-03822-P02-CH0	3077992	OK	0.6417933	0.5240056	-0.5599281	0	-68.757	-94.788	4.123	B5-03822-P02-CH1	3077992	OK	0.7119909	-0.3555079	-0.6055436	0	-71.499	-72.865	1.135	B5-03822-P03-CH0	3077992	OK	0.814672	-0.3135186	-0.4878684	0	-90.143	-55.435	6.193	B5-03822-P03-CH1	3077992	OK	0.8196524	-0.2069278	-0.5341824	0	-98.417	-31.309	7.285	B5-03822-P04-CH0	3077992	OK	0.7084958	-0.209437	0.6739213	0	-121.167	-40.748	8.666	B5-03822-P04-CH1	3077992	OK	0.7425263	-0.6677887	0.0520858	0	-108.077	-46.472	1.757	NA
0.789366682700016	B5-03822-P01-CH0	3078000	OK	0.2366229	0.0174236	0.0615106	-0.969496	101.548	-10.028	-238.682	B5-03822-P02-CH0	3078000	OK	0.646409	0.5027675	-0.5739167	0	-68.728	-94.994	3.709	B5-03822-P02-CH1	3078000	OK	0.7161946	-0.3510026	-0.6032102	0	-72.059	-73.268	1.129	B5-03822-P03-CH0	3078000	OK	0.8152535	-0.308122	-0.490329	0	-90.169	-55.332	5.63	B5-03822-P03-CH1	3078000	OK	0.8183848	-0.2050492	-0.5368436	0	-99.184	-30.835	7.527	B5-03822-P04-CH0	3078000	OK	0.7089715	-0.2049558	0.6747982	0	-121.407	-40.651	8.192	B5-03822-P04-CH1	3078000	OK	0.7428607	-0.6674225	0.0520106	0	-107.916	-46.47	1.815	NA
0.799358666025333	B5-03822-P01-CH0	3078008	OK	0.2367028	0.0174236	0.0616469	-0.9694678	101.562	-10.043	-238.691	B5-03822-P02-CH0	3078008	OK	0.6499066	0.4805947	-0.58877	0	-68.914	-94.762	3.8	B5-03822-P02-CH1	3078008	OK	0.7198288	-0.3475106	-0.6009017	0	-73.157	-73.533	1.319	B5-03822-P03-CH0	3078008	OK	0.8164321	-0.3007839	-0.4929175	0	-90.363	-55.571	6.474	B5-03822-P03-CH1	3078008	OK	0.8188259	-0.204219	-0.5364875	0	-99.038	-30.875	7.398	B5-03822-P04-CH0	3078008	OK	0.7085808	-0.2039814	0.6755034	0	-121.084	-40.207	7.899	B5-03822-P04-CH1	3078008	OK	0.743187	-0.6670798	0.0517456	0	-107.949	-46.469	1.821	NA
0.809350649350649	B5-03822-P01-CH0	3078016	OK	0.2366619	0.0174061	0.0615272	-0.9694857	101.556	-10.077	-238.668	B5-03822-P02-CH0	3078016	OK	0.6547043	0.4561053	-0.6027688	0	-68.791	-94.835	3.359	B5-03822-P02-CH1	3078016	OK	0.7237662	-0.3428431	-0.5988498	0	-73.452	-73.841	1.169	B5-03822-P03-CH0	3078016	OK	0.8186352	-0.292646	-0.4941606	0	-90.276	-55.74	6.826	B5-03822-P03-CH1	3078016	OK	0.8188637	-0.2083797	-0.5348272	0	-98.7	-31.054	7.045	B5-03822-P04-CH0	3078016	OK	0.7091074	-0.2030298	0.6752375	0	-121.172	-40.275	8.657	B5-03822-P04-CH1	3078016	OK	0.7434085	-0.6668602	0.0513927	0	-107.911	-46.41	1.958	NA
0.819342632675966	B5-03822-P01-CH0	3078024	OK	0.2366406	0.0175068	0.0612001	-0.9695098	101.552	-10.096	-238.599	B5-03822-P02-CH0	3078024	OK	0.6594625	0.4305974	-0.616194	0	-68.57	-95.095	2.495	B5-03822-P02-CH1	3078024	OK	0.7273706	-0.3357659	-0.5984925	0	-74.293	-74.228	0.61	B5-03822-P03-CH0	3078024	OK	0.8197731	-0.2856967	-0.496336	0	-90.718	-55.702	7.582	B5-03822-P03-CH1	3078024	OK	0.8189808	-0.2073597	-0.5350443	0	-98.698	-31.003	7.021	B5-03822-P04-CH0	3078024	OK	0.710047	-0.2032062	0.6741962	0	-121.615	-39.951	7.54	B5-03822-P04-CH1	3078024	OK	0.7432282	-0.6670555	0.0514673	0	-108.011	-46.55	2.11	NA
0.829334616001283	B5-03822-P01-CH0	3078032	OK	0.2367865	0.0176094	0.0612139	-0.9694715	101.578	-10.072	-238.58	B5-03822-P02-CH0	3078032	OK	0.6601333	0.4092824	-0.6298507	0	-69.095	-94.767	2.79	B5-03822-P02-CH1	3078032	OK	0.7319132	-0.3300803	-0.5961125	0	-74.544	-74.776	1.086	B5-03822-P03-CH0	3078032	OK	0.8216901	-0.2827785	-0.4948351	0	-90.517	-55.981	7.854	B5-03822-P03-CH1	3078032	OK	0.8192164	-0.2064923	-0.5350191	0	-98.703	-30.997	7.005	B5-03822-P04-CH0	3078032	OK	0.7103628	-0.2010823	0.6745002	0	-121.509	-40.33	8.601	B5-03822-P04-CH1	3078032	OK	0.7434767	-0.6667645	0.0516476	0	-107.976	-46.551	2.308	NA
0.839326599326599	B5-03822-P01-CH0	3078040	OK	0.2368968	0.0177988	0.0612007	-0.9694419	101.671	-10.065	-238.624	B5-03822-P02-CH0	3078040	OK	0.6597743	0.392399	-0.6408751	0	-69.511	-94.28	2.881	B5-03822-P02-CH1	3078040	OK	0.7356969	-0.3285483	-0.5922889	0	-74.675	-75.105	1.969	B5-03822-P03-CH0	3078040	OK	0.8225316	-0.2811896	-0.4943422	0	-90.736	-55.797	7.643	B5-03822-P03-CH1	3078040	OK	0.8193792	-0.2058392	-0.5350214	0	-98.757	-31.06	7.124	B5-03822-P04-CH0	3078040	OK	0.7110659	-0.1961978	0.6751975	0	-121.879	-41.254	9.633	B5-03822-P04-CH1	3078040	OK	0.7436373	-0.6665684	0.0518668	0	-108.065	-46.577	2.357	NA
0.849318582651916	B5-03822-P01-CH0	3078048	OK	0.2371027	0.0178875	0.0615597	-0.9693672	101.69	-10.007	-238.528	B5-03822-P02-CH0	3078048	OK	0.6603686	0.3822198	-0.646391	0	-69.791	-94.685	3.392	B5-03822-P02-CH1	3078048	OK	0.7381794	-0.3274706	-0.5897916	0	-75.431	-75.026	1.605	B5-03822-P03-CH0	3078048	OK	0.8232502	-0.2812548	-0.4931074	0	-90.803	-56.068	7.77	B5-03822-P03-CH1	3078048	OK	0.819625	-0.2051894	-0.5348946	0	-98.753	-31.071	7.132	B5-03822-P04-CH0	3078048	OK	0.7106049	-0.1962166	0.6756772	0	-121.888	-40.635	8.397	B5-03822-P04-CH1	3078048	OK	0.74405	-0.6660713	0.052331	0	-108.113	-46.613	2.435	NA
0.859310565977233	B5-03822-P01-CH0	3078056	OK	0.2373503	0.0179023	0.0618918	-0.9692852	101.711	-9.958	-238.521	B5-03822-P02-CH0	3078056	OK	0.661684	0.3768121	-0.6482183	0	-69.44	-94.931	2.871	B5-03822-P02-CH1	3078056	OK	0.7408054	-0.3266159	-0.5869663	0	-75.46	-75.294	2.223	B5-03822-P03-CH0	3078056	OK	0.8240933	-0.28202	-0.4912586	0	-90.919	-56.185	7.712	B5-03822-P03-CH1	3078056	OK	0.819785	-0.2047053	-0.5348348	0	-98.808	-31.097	7.205	B5-03822-P04-CH0	3078056	OK	0.7105012	-0.1993503	0.6748685	0	-121.918	-41.114	8.818	B5-03822-P04-CH1	3078056	OK	0.7444143	-0.6656046	0.0530841	0	-108.165	-46.733	2.813	NA
0.869302549302549	B5-03822-P01-CH0	3078064	OK	0.2376762	0.0180012	0.0622657	-0.9691795	101.764	-9.932	-238.497	B5-03822-P02-CH0	3078064	OK	0.6617897	0.3737645	-0.6498727	0	-69.581	-94.902	2.836	B5-03822-P02-CH1	3078064	OK	0.7419142	-0.3259139	-0.5859552	0	-75.68	-75.473	1.55	B5-03822-P03-CH0	3078064	OK	0.8254768	-0.2852982	-0.4870246	0	-90.681	-56.376	7.824	B5-03822-P03-CH1	3078064	OK	0.8199291	-0.2043256	-0.5347591	0	-98.871	-31.121	7.252	B5-03822-P04-CH0	3078064	OK	0.7106926	-0.1975662	0.6751915	0	-122.012	-41.148	8.813	B5-03822-P04-CH1	3078064	OK	0.7446444	-0.6652853	0.0538534	0	-108.174	-46.906	2.832	NA
0.879294532627866	B5-03822-P01-CH0	3078072	OK	0.2378246	0.0178416	0.0624697	-0.9691329	101.692	-9.931	-238.459	B5-03822-P02-CH0	3078072	OK	0.6625687	0.3712142	-0.6505404	0	-69.748	-94.821	3.071	B5-03822-P02-CH1	3078072	OK	0.7430796	-0.3245503	-0.5852348	0	-75.92	-75.478	1.176	B5-03822-P03-CH0	3078072	OK	0.8260405	-0.287361	-0.4848512	0	-90.937	-56.289	8.334	B5-03822-P03-CH1	3078072	OK	0.8202948	-0.2038501	-0.5343796	0	-98.787	-31.086	7.168	B5-03822-P04-CH0	3078072	OK	0.7104357	-0.1971022	0.6755974	0	-121.877	-40.986	8.637	B5-03822-P04-CH1	3078072	OK	0.7449789	-0.6648736	0.0543103	0	-108.182	-46.858	2.956	NA
0.889286515953183	B5-03822-P01-CH0	3078080	OK	0.2378629	0.0178692	0.0623881	-0.9691283	101.7	-9.971	-238.432	B5-03822-P02-CH0	3078080	OK	0.6640527	0.3690299	-0.6502699	0	-69.744	-94.853	2.882	B5-03822-P02-CH1	3078080	OK	0.744945	-0.3192221	-0.5857937	0	-75.58	-75.555	1.26	B5-03822-P03-CH0	3078080	OK	0.8266355	-0.291297	-0.4814767	0	-91.111	-56.562	8.242	B5-03822-P03-CH1	3078080	OK	0.8203875	-0.2035478	-0.5343525	0	-98.809	-31.159	7.176	B5-03822-P04-CH0	3078080	OK	0.7103351	-0.1972226	0.6756681	0	-121.862	-40.857	8.524	B5-03822-P04-CH1	3078080	OK	0.7449145	-0.6649076	0.0547745	0	-108.202	-46.956	2.952	NA
0.899278499278499	B5-03822-P01-CH0	3078088	OK	0.2380248	0.0179397	0.0625688	-0.9690756	101.707	-9.923	-238.39	B5-03822-P02-CH0	3078088	OK	0.6652126	0.3686691	-0.6492882	0	-69.658	-95.24	3.355	B5-03822-P02-CH1	3078088	OK	0.746153	-0.3135446	-0.5873206	0	-75.476	-75.641	1.384	B5-03822-P03-CH0	3078088	OK	0.8280991	-0.2943272	-0.4770989	0	-90.944	-56.459	7.858	B5-03822-P03-CH1	3078088	OK	0.8206539	-0.2033245	-0.5340284	0	-98.804	-31.144	7.126	B5-03822-P04-CH0	3078088	OK	0.7104172	-0.1973037	0.675558	0	-121.901	-40.819	8.475	B5-03822-P04-CH1	3078088	OK	0.7450736	-0.6646728	0.0554562	0	-108.18	-46.94	2.856	NA
0.909270482603816	B5-03822-P01-CH0	3078096	OK	0.2382694	0.0178257	0.0629548	-0.9689926	101.642	-9.899	-238.33	B5-03822-P02-CH0	3078096	OK	0.6658943	0.3691745	-0.6483016	0	-69.197	-95.374	2.972	B5-03822-P02-CH1	3078096	OK	0.7459764	-0.3082714	-0.5903287	0	-75.199	-75.703	1.116	B5-03822-P03-CH0	3078096	OK	0.8297049	-0.2993143	-0.4711696	0	-90.597	-56.562	7.74	B5-03822-P03-CH1	3078096	OK	0.8209778	-0.2029902	-0.5336576	0	-98.733	-31.16	7.074	B5-03822-P04-CH0	3078096	OK	0.710573	-0.1969187	0.6755065	0	-121.871	-40.968	8.572	B5-03822-P04-CH1	3078096	OK	0.7453684	-0.6642768	0.0562337	0	-108.189	-46.91	2.716	NA
0.919262465929133	B5-03822-P01-CH0	3078104	OK	0.2383892	0.0177918	0.0630831	-0.9689554	101.606	-9.885	-238.298	B5-03822-P02-CH0	3078104	OK	0.6648628	0.3728819	-0.6472376	0	-69.293	-94.929	2.986	B5-03822-P02-CH1	3078104	OK	0.7445829	-0.3036017	-0.5944934	0	-75.116	-75.777	1.113	B5-03822-P03-CH0	3078104	OK	0.8305377	-0.3048393	-0.4661332	0	-90.281	-56.734	8.011	B5-03822-P03-CH1	3078104	OK	0.8212393	-0.2026702	-0.5333768	0	-98.696	-31.188	7.045	B5-03822-P04-CH0	3078104	OK	0.7106822	-0.1971651	0.6753198	0	-121.855	-41.061	8.579	B5-03822-P04-CH1	3078104	OK	0.7455643	-0.6640145	0.0567329	0	-108.134	-46.838	2.675	NA
0.929254449254449	B5-03822-P01-CH0	3078112	OK	0.2383255	0.0179232	0.0625257	-0.9690048	101.597	-9.898	-238.236	B5-03822-P02-CH0	3078112	OK	0.6650172	0.3785479	-0.6437808	0	-69.468	-95.709	3.58	B5-03822-P02-CH1	3078112	OK	0.7427327	-0.2997853	-0.5987294	0	-74.877	-75.659	0.874	B5-03822-P03-CH0	3078112	OK	0.8304926	-0.3098149	-0.462922	0	-90.394	-56.659	8.021	B5-03822-P03-CH1	3078112	OK	0.8212627	-0.2023766	-0.5334523	0	-98.718	-31.178	7.098	B5-03822-P04-CH0	3078112	OK	0.7125344	-0.205261	0.6709416	0	-121.939	-40.441	7.535	B5-03822-P04-CH1	3078112	OK	0.7450178	-0.6645939	0.0571263	0	-108.123	-46.946	2.734	NA
0.939246432579766	B5-03822-P01-CH0	3078120	OK	0.2384161	0.0178525	0.0625831	-0.9689801	101.547	-9.859	-238.245	B5-03822-P02-CH0	3078120	OK	0.6630943	0.383634	-0.6427526	0	-69.507	-95.182	3.015	B5-03822-P02-CH1	3078120	OK	0.7404632	-0.2952167	-0.6037892	0	-74.637	-75.836	1.084	B5-03822-P03-CH0	3078120	OK	0.8304589	-0.3142303	-0.459997	0	-90.404	-56.558	8.144	B5-03822-P03-CH1	3078120	OK	0.8214309	-0.2018184	-0.5334047	0	-98.732	-31.134	7.201	B5-03822-P04-CH0	3078120	OK	0.7136396	-0.2026992	0.6705457	0	-122.191	-41.407	8.987	B5-03822-P04-CH1	3078120	OK	0.7451651	-0.6644071	0.0573773	0	-108.09	-46.812	2.758	NA
0.949238415905083	B5-03822-P01-CH0	3078128	OK	0.2384237	0.018034	0.0623854	-0.9689876	101.609	-9.898	-238.261	B5-03822-P02-CH0	3078128	OK	0.66177	0.388773	-0.6410273	0	-69.871	-95.638	3.344	B5-03822-P02-CH1	3078128	OK	0.7379873	-0.2907698	-0.6089563	0	-74.589	-75.676	1.032	B5-03822-P03-CH0	3078128	OK	0.8298215	-0.3185362	-0.4581822	0	-90.521	-56.789	7.95	B5-03822-P03-CH1	3078128	OK	0.821508	-0.201526	-0.5333965	0	-98.771	-31.212	7.206	B5-03822-P04-CH0	3078128	OK	0.7139397	-0.2054204	0.6693972	0	-122.426	-40.823	7.978	B5-03822-P04-CH1	3078128	OK	0.7449435	-0.6646334	0.0576331	0	-108.203	-46.876	2.813	NA
0.959230399230399	B5-03822-P01-CH0	3078136	OK	0.2383564	0.018225	0.062062	-0.9690213	101.645	-9.908	-238.254	B5-03822-P02-CH0	3078136	OK	0.6613334	0.3907363	-0.6402838	0	-69.475	-95.578	3.578	B5-03822-P02-CH1	3078136	OK	0.7376	-0.2855936	-0.611868	0	-74.397	-75.601	1.55	B5-03822-P03-CH0	3078136	OK	0.8290077	-0.3210126	-0.457927	0	-90.783	-56.836	7.98	B5-03822-P03-CH1	3078136	OK	0.8215076	-0.2011119	-0.5335534	0	-98.826	-31.183	7.23	B5-03822-P04-CH0	3078136	OK	0.7138823	-0.2088973	0.6683817	0	-122.211	-40.584	8.28	B5-03822-P04-CH1	3078136	OK	0.7445807	-0.6650331	0.0577115	0	-108.187	-46.847	2.624	NA
0.969222382555716	B5-03822-P01-CH0	3078144	OK	0.2384047	0.018328	0.0619102	-0.9690172	101.677	-9.936	-238.213	B5-03822-P02-CH0	3078144	OK	0.6606088	0.3910893	-0.640816	0	-69.261	-95.775	3.303	B5-03822-P02-CH1	3078144	OK	0.7388479	-0.2808847	-0.6125419	0	-74.269	-75.66	0.929	B5-03822-P03-CH0	3078144	OK	0.8290636	-0.32144	-0.4575259	0	-90.42	-56.634	8.315	B5-03822-P03-CH1	3078144	OK	0.8216301	-0.2008547	-0.5334617	0	-98.826	-31.249	7.287	B5-03822-P04-CH0	3078144	OK	0.7139802	-0.211658	0.6674078	0	-122.356	-40.466	7.534	B5-03822-P04-CH1	3078144	OK	0.7444973	-0.665117	0.05782	0	-108.214	-46.796	2.553	NA
0.979214365881033	B5-03822-P01-CH0	3078152	OK	0.2385467	0.0185214	0.0620047	-0.9689726	101.75	-9.919	-238.218	B5-03822-P02-CH0	3078152	OK	0.6579389	0.3906166	-0.6438441	0	-69.324	-95.342	3.013	B5-03822-P02-CH1	3078152	OK	0.7384602	-0.2757616	-0.6153308	0	-74.827	-75.756	1.693	B5-03822-P03-CH0	3078152	OK	0.8279135	-0.3232433	-0.4583372	0	-90.899	-56.549	8.113	B5-03822-P03-CH1	3078152	OK	0.8216014	-0.2007261	-0.5335543	0	-98.898	-31.348	7.414	B5-03822-P04-CH0	3078152	OK	0.713898	-0.2146955	0.6665249	0	-122.13	-40.113	7.605	B5-03822-P04-CH1	3078152	OK	0.7443022	-0.6652986	0.0582405	0	-108.297	-46.967	2.715	NA
0.989206349206349	B5-03822-P01-CH0	3078160	OK	0.2385587	0.0185928	0.0620437	-0.9689658	101.753	-9.911	-238.097	B5-03822-P02-CH0	3078160	OK	0.6558156	0.3909046	-0.6458324	0	-69.551	-95.434	2.989	B5-03822-P02-CH1	3078160	OK	0.7383777	-0.2730009	-0.6166595	0	-74.687	-75.839	1.643	B5-03822-P03-CH0	3078160	OK	0.828508	-0.3245768	-0.456316	0	-90.495	-56.406	7.955	B5-03822-P03-CH1	3078160	OK	0.8217442	-0.2004485	-0.5334388	0	-98.888	-31.334	7.329	B5-03822-P04-CH0	3078160	OK	0.7144385	-0.2154178	0.6657123	0	-122.332	-40.494	7.624	B5-03822-P04-CH1	3078160	OK	0.7444181	-0.665178	0.0581365	0	-108.355	-46.831	2.741	NA
