Wav.Time	B5.03822.P01.CH0	Frame	State	Q0	Qx	Qy	Qz	Tx	Ty	Tz	B5.03822.P02.CH0	Frame.1	State.1	Q0.1	Qx.1	Qy.1	Qz.1	Tx.1	Ty.1	Tz.1	B5.03822.P02.CH1	Frame.2	State.2	Q0.2	Qx.2	Qy.2	Qz.2	Tx.2	Ty.2	Tz.2	B5.03822.P03.CH0	Frame.3	State.3	Q0.3	Qx.3	Qy.3	Qz.3	Tx.3	Ty.3	Tz.3	B5.03822.P03.CH1	Frame.4	State.4	Q0.4	Qx.4	Qy.4	Qz.4	Tx.4	Ty.4	Tz.4	B5.03822.P04.CH0	Frame.5	State.5	Q0.5	Qx.5	Qy.5	Qz.5	Tx.5	Ty.5	Tz.5	B5.03822.P04.CH1	Frame.6	State.6	Q0.6	Qx.6	Qy.6	Qz.6	Tx.6	Ty.6	Tz.6	X
0	B5-03822-P01-CH0	173960	OK	0.2214229	0.0768505	0.034877	-0.9715192	93.29	-37.275	-274.865	B5-03822-P02-CH0	173960	OK	0.7560821	0.2498386	-0.6049137	0	-79.28	-98.336	9.217	B5-03822-P02-CH1	173960	OK	0.7301548	-0.1866423	-0.6572965	0	-82.478	-76.153	2.913	B5-03822-P03-CH0	173960	OK	0.7515498	-0.6518054	-0.1016003	0	-92.026	-56.457	0.803	B5-03822-P03-CH1	173960	OK	0.714684	-0.6534981	0.2493332	0	-100.041	-17.778	-16.753	B5-03822-P04-CH0	173960	OK	0.7401614	0.0433529	0.6710302	0	-123.58	-37.18	2.89	B5-03822-P04-CH1	173960	OK	0.7116183	-0.7012104	0.043628	0	-110.655	-43.449	-9.143	NA
0.0099921329075848	B5-03822-P01-CH0	173968	OK	0.2214827	0.0770069	0.0351176	-0.9714845	93.341	-37.237	-274.877	B5-03822-P02-CH0	173968	OK	0.7571843	0.2399176	-0.6075454	0	-79.288	-98.775	9.673	B5-03822-P02-CH1	173968	OK	0.7325837	-0.182794	-0.6556733	0	-82.58	-76.363	4.514	B5-03822-P03-CH0	173968	OK	0.7495022	-0.6531847	-0.1076859	0	-92.343	-56.852	0.061	B5-03822-P03-CH1	173968	OK	0.7153579	-0.6528677	0.2490519	0	-100.201	-17.366	-17.158	B5-03822-P04-CH0	173968	OK	0.7403279	0.0435664	0.6708328	0	-123.635	-37.105	2.936	B5-03822-P04-CH1	173968	OK	0.7119938	-0.7008383	0.0434806	0	-110.698	-43.304	-9.153	NA
0.0199842658151696	B5-03822-P01-CH0	173976	OK	0.221669	0.0766525	0.0359676	-0.9714389	93.215	-37.11	-274.948	B5-03822-P02-CH0	173976	OK	0.7580018	0.2325354	-0.6093936	0	-79.55	-97.999	8.507	B5-03822-P02-CH1	173976	OK	0.7374794	-0.177709	-0.6515701	0	-82.336	-75.947	6.231	B5-03822-P03-CH0	173976	OK	0.7476607	-0.6539148	-0.1157535	0	-91.196	-57.662	0.792	B5-03822-P03-CH1	173976	OK	0.7163226	-0.6518888	0.248843	0	-100.065	-16.857	-17.423	B5-03822-P04-CH0	173976	OK	0.7401711	0.043898	0.6709842	0	-123.523	-36.768	2.875	B5-03822-P04-CH1	173976	OK	0.7125649	-0.7002625	0.0434012	0	-110.635	-43.201	-9.062	NA
0.0299763987227544	B5-03822-P01-CH0	173984	OK	0.2214634	0.0762979	0.0359389	-0.9715148	93.071	-37.153	-274.921	B5-03822-P02-CH0	173984	OK	0.7583536	0.2230218	-0.612504	0	-79.81	-98.447	9.811	B5-03822-P02-CH1	173984	OK	0.741839	-0.1762044	-0.6470138	0	-82.618	-76.333	4.768	B5-03822-P03-CH0	173984	OK	0.7461434	-0.6530647	-0.1295242	0	-90.182	-57.13	0.316	B5-03822-P03-CH1	173984	OK	0.7166667	-0.6517202	0.2482936	0	-99.925	-16.428	-17.998	B5-03822-P04-CH0	173984	OK	0.7398019	0.0440068	0.671384	0	-123.257	-36.672	2.751	B5-03822-P04-CH1	173984	OK	0.7124342	-0.7004111	0.0431501	0	-110.492	-43.295	-8.932	NA
0.0399685316303392	B5-03822-P01-CH0	173992	OK	0.2214968	0.0760759	0.0362275	-0.9715139	92.958	-37.116	-274.947	B5-03822-P02-CH0	173992	OK	0.7609936	0.214269	-0.612354	0	-78.97	-97.883	9.085	B5-03822-P02-CH1	173992	OK	0.7445919	-0.1761553	-0.6438573	0	-83.166	-77.055	5.085	B5-03822-P03-CH0	173992	OK	0.743826	-0.6520154	-0.1469652	0	-90.31	-56.432	1.561	B5-03822-P03-CH1	173992	OK	0.716954	-0.6512633	0.2486626	0	-99.809	-16.335	-18.104	B5-03822-P04-CH0	173992	OK	0.7397567	0.0442904	0.6714153	0	-123.183	-36.443	2.416	B5-03822-P04-CH1	173992	OK	0.7127693	-0.7001161	0.0423969	0	-110.514	-42.994	-9.38	NA
0.049960664537924	B5-03822-P01-CH0	174000	OK	0.2213385	0.0761264	0.0360329	-0.9715532	92.933	-37.091	-274.913	B5-03822-P02-CH0	174000	OK	0.7615774	0.2028643	-0.6155046	0	-79.428	-98.097	9.824	B5-03822-P02-CH1	174000	OK	0.7493983	-0.1732402	-0.639054	0	-82.836	-75.735	6.872	B5-03822-P03-CH0	174000	OK	0.7400772	-0.6522179	-0.1640045	0	-90.901	-56.07	-0.013	B5-03822-P03-CH1	174000	OK	0.7173764	-0.651	0.2481331	0	-99.764	-15.804	-18.382	B5-03822-P04-CH0	174000	OK	0.7396589	0.0444546	0.6715121	0	-122.998	-36.294	2.448	B5-03822-P04-CH1	174000	OK	0.7126164	-0.7003062	0.0418216	0	-110.14	-42.916	-9.086	NA
0.0599527974455088	B5-03822-P01-CH0	174008	OK	0.221334	0.0757804	0.0363609	-0.9715691	92.824	-37.086	-275.048	B5-03822-P02-CH0	174008	OK	0.7632579	0.1918959	-0.6169387	0	-79.274	-97.915	9.957	B5-03822-P02-CH1	174008	OK	0.7516131	-0.1737455	-0.6363099	0	-83.995	-75.779	6.576	B5-03822-P03-CH0	174008	OK	0.7362532	-0.6521319	-0.1807078	0	-90.255	-56.588	-1.109	B5-03822-P03-CH1	174008	OK	0.7178093	-0.6504632	0.2482891	0	-99.703	-15.662	-18.571	B5-03822-P04-CH0	174008	OK	0.7396599	0.0448908	0.671482	0	-122.844	-36.293	2.609	B5-03822-P04-CH1	174008	OK	0.7127332	-0.7002095	0.0414496	0	-109.946	-42.948	-9.01	NA
0.0699449303530936	B5-03822-P01-CH0	174016	OK	0.2212168	0.0758951	0.0365487	-0.9715798	92.885	-37.066	-275.1	B5-03822-P02-CH0	174016	OK	0.7645922	0.1792851	-0.6190764	0	-79.788	-98.292	9.97	B5-03822-P02-CH1	174016	OK	0.7549427	-0.1746863	-0.6320966	0	-84.507	-76.281	6.696	B5-03822-P03-CH0	174016	OK	0.7337009	-0.6494552	-0.1997272	0	-90.692	-55.845	-1.417	B5-03822-P03-CH1	174016	OK	0.7181467	-0.6500132	0.2484918	0	-99.733	-15.6	-18.441	B5-03822-P04-CH0	174016	OK	0.7401067	0.0454273	0.6709534	0	-123.001	-36.3	2.672	B5-03822-P04-CH1	174016	OK	0.7128267	-0.7001632	0.0406162	0	-109.933	-42.884	-8.962	NA
0.0799370632606784	B5-03822-P01-CH0	174024	OK	0.2211107	0.0756472	0.0368689	-0.9716112	92.784	-37.028	-275.164	B5-03822-P02-CH0	174024	OK	0.768536	0.1702376	-0.6167427	0	-79.143	-97.589	8.462	B5-03822-P02-CH1	174024	OK	0.7572824	-0.1767996	-0.6287012	0	-84.947	-76.929	7.039	B5-03822-P03-CH0	174024	OK	0.7326845	-0.6464939	-0.2126477	0	-90.597	-55.08	-0.303	B5-03822-P03-CH1	174024	OK	0.7186596	-0.6494879	0.2483824	0	-99.712	-15.319	-18.547	B5-03822-P04-CH0	174024	OK	0.7403726	0.0457393	0.6706388	0	-122.976	-36.242	2.812	B5-03822-P04-CH1	174024	OK	0.713121	-0.6998905	0.0401454	0	-109.986	-42.736	-8.833	NA
0.0899291961682632	B5-03822-P01-CH0	174032	OK	0.2211134	0.0754639	0.0370963	-0.9716161	92.694	-37.015	-275.112	B5-03822-P02-CH0	174032	OK	0.7725545	0.1612508	-0.6141317	0	-77.837	-97.54	8.221	B5-03822-P02-CH1	174032	OK	0.7608476	-0.1800887	-0.6234413	0	-83.941	-76.472	6.426	B5-03822-P03-CH0	174032	OK	0.7307206	-0.6455188	-0.2221552	0	-90.895	-55.215	-0.663	B5-03822-P03-CH1	174032	OK	0.7190201	-0.649137	0.2482566	0	-99.587	-15.056	-18.973	B5-03822-P04-CH0	174032	OK	0.7403888	0.046441	0.6705726	0	-122.907	-36.165	2.68	B5-03822-P04-CH1	174032	OK	0.7133595	-0.6996845	0.0394948	0	-109.981	-42.566	-8.941	NA
0.099921329075848	B5-03822-P01-CH0	174040	OK	0.2209008	0.0756289	0.0366505	-0.9716686	92.767	-37.036	-275.13	B5-03822-P02-CH0	174040	OK	0.7714792	0.1509718	-0.6180836	0	-78.55	-97.653	12.121	B5-03822-P02-CH1	174040	OK	0.7588494	-0.183437	-0.6248988	0	-85.349	-77.006	6.93	B5-03822-P03-CH0	174040	OK	0.7286761	-0.6458113	-0.2279448	0	-91.003	-55.583	-1.268	B5-03822-P03-CH1	174040	OK	0.7182306	-0.6495603	0.2494319	0	-99.496	-15.665	-18.615	B5-03822-P04-CH0	174040	OK	0.7405847	0.0469075	0.6703238	0	-122.964	-36.28	2.675	B5-03822-P04-CH1	174040	OK	0.7130956	-0.6999842	0.0389452	0	-110.131	-42.547	-8.86	NA
0.109913461983433	B5-03822-P01-CH0	174048	OK	0.2206837	0.0757115	0.0358922	-0.9717398	92.757	-37.14	-275.091	B5-03822-P02-CH0	174048	OK	0.7731835	0.1454311	-0.617282	0	-79.073	-96.889	10.349	B5-03822-P02-CH1	174048	OK	0.7594156	-0.1850569	-0.6237323	0	-85.47	-76.322	5.335	B5-03822-P03-CH0	174048	OK	0.7272896	-0.646819	-0.2295102	0	-90.02	-56.424	-0.632	B5-03822-P03-CH1	174048	OK	0.7173253	-0.6500273	0.2508166	0	-99.437	-16.373	-18.017	B5-03822-P04-CH0	174048	OK	0.7407909	0.0469116	0.6700956	0	-122.979	-36.129	2.612	B5-03822-P04-CH1	174048	OK	0.7124236	-0.7006928	0.0385007	0	-110.05	-42.744	-8.583	NA
0.119905594891018	B5-03822-P01-CH0	174056	OK	0.220511	0.0758439	0.0358243	-0.9717712	92.715	-37.092	-274.906	B5-03822-P02-CH0	174056	OK	0.7760933	0.1383233	-0.6152607	0	-78.889	-97.384	8.726	B5-03822-P02-CH1	174056	OK	0.7574489	-0.1880122	-0.625238	0	-85.633	-76.007	6.72	B5-03822-P03-CH0	174056	OK	0.7269232	-0.6477266	-0.2281073	0	-89.7	-56.512	-1.504	B5-03822-P03-CH1	174056	OK	0.7174538	-0.6499678	0.2506031	0	-99.468	-16.164	-18.356	B5-03822-P04-CH0	174056	OK	0.7412453	0.0474156	0.6695574	0	-123.052	-36.194	2.599	B5-03822-P04-CH1	174056	OK	0.7125486	-0.7005995	0.0378783	0	-110.119	-42.508	-8.608	NA
0.129897727798602	B5-03822-P01-CH0	174064	OK	0.2204193	0.0760854	0.0357892	-0.9717744	92.845	-37.104	-274.856	B5-03822-P02-CH0	174064	OK	0.7792572	0.1335761	-0.6123036	0	-77.98	-96.249	9.065	B5-03822-P02-CH1	174064	OK	0.757039	-0.1918723	-0.6245614	0	-85.096	-75.723	6.195	B5-03822-P03-CH0	174064	OK	0.7277161	-0.6471989	-0.2270747	0	-90.006	-55.662	-2.152	B5-03822-P03-CH1	174064	OK	0.7175384	-0.6499718	0.2503503	0	-99.497	-16.148	-18.312	B5-03822-P04-CH0	174064	OK	0.7414626	0.0478186	0.6692881	0	-123.169	-36.132	2.512	B5-03822-P04-CH1	174064	OK	0.7126125	-0.7005766	0.0370925	0	-110.29	-42.4	-8.685	NA
0.139889860706187	B5-03822-P01-CH0	174072	OK	0.2202376	0.0763664	0.0345321	-0.971839	92.91	-37.291	-274.816	B5-03822-P02-CH0	174072	OK	0.7789538	0.127671	-0.6139471	0	-78.377	-96.593	11.294	B5-03822-P02-CH1	174072	OK	0.755647	-0.193685	-0.6256866	0	-84.69	-75.249	6.123	B5-03822-P03-CH0	174072	OK	0.7276209	-0.6486103	-0.2233214	0	-89.465	-56.516	-0.759	B5-03822-P03-CH1	174072	OK	0.7166154	-0.6506843	0.2511421	0	-99.585	-16.628	-17.83	B5-03822-P04-CH0	174072	OK	0.7415993	0.048053	0.6691198	0	-123.175	-36.234	2.641	B5-03822-P04-CH1	174072	OK	0.7118561	-0.7013611	0.0367894	0	-110.16	-42.542	-8.421	NA
0.149881993613772	B5-03822-P01-CH0	174080	OK	0.2202823	0.0762697	0.0346137	-0.9718336	92.87	-37.254	-274.823	B5-03822-P02-CH0	174080	OK	0.7784634	0.1272559	-0.6146549	0	-78.05	-96.244	12.312	B5-03822-P02-CH1	174080	OK	0.7528596	-0.1959024	-0.6283508	0	-84.111	-75.445	6.725	B5-03822-P03-CH0	174080	OK	0.7291617	-0.6474367	-0.2216957	0	-89.198	-56.186	0.574	B5-03822-P03-CH1	174080	OK	0.7164712	-0.650629	0.251696	0	-99.57	-16.78	-17.758	B5-03822-P04-CH0	174080	OK	0.7415392	0.0485199	0.6691527	0	-123.169	-36.204	2.535	B5-03822-P04-CH1	174080	OK	0.7120118	-0.7012208	0.0364483	0	-110.35	-42.409	-8.871	NA
0.159874126521357	B5-03822-P01-CH0	174088	OK	0.2203113	0.0764471	0.034274	-0.9718251	92.914	-37.226	-274.758	B5-03822-P02-CH0	174088	OK	0.7787134	0.1277333	-0.6142391	0	-77.857	-96.133	10.407	B5-03822-P02-CH1	174088	OK	0.7480294	-0.1986383	-0.6332416	0	-83.828	-75.989	4.468	B5-03822-P03-CH0	174088	OK	0.7284523	-0.6480019	-0.2223753	0	-90.134	-56.013	-0.525	B5-03822-P03-CH1	174088	OK	0.7159807	-0.6508767	0.2524503	0	-99.58	-17.001	-17.839	B5-03822-P04-CH0	174088	OK	0.7414856	0.0488571	0.6691877	0	-123.154	-36.105	2.424	B5-03822-P04-CH1	174088	OK	0.7120488	-0.7012031	0.036066	0	-110.516	-42.188	-9.015	NA
0.169866259428942	B5-03822-P01-CH0	174096	OK	0.220402	0.076253	0.0342672	-0.97182	92.795	-37.16	-274.71	B5-03822-P02-CH0	174096	OK	0.7763177	0.1286834	-0.6170668	0	-78.627	-96.356	9.249	B5-03822-P02-CH1	174096	OK	0.7427541	-0.1988692	-0.6393492	0	-83.304	-75.297	4.171	B5-03822-P03-CH0	174096	OK	0.7287652	-0.6475214	-0.2227496	0	-90.063	-55.9	-0.876	B5-03822-P03-CH1	174096	OK	0.7161234	-0.6508808	0.2520346	0	-99.49	-16.625	-18.411	B5-03822-P04-CH0	174096	OK	0.7413608	0.0491054	0.6693077	0	-123.007	-35.983	2.402	B5-03822-P04-CH1	174096	OK	0.7119726	-0.701278	0.0361127	0	-110.507	-42.224	-9.059	NA
0.179858392336526	B5-03822-P01-CH0	174104	OK	0.2204594	0.076396	0.0340807	-0.9718024	92.796	-37.106	-274.57	B5-03822-P02-CH0	174104	OK	0.774365	0.1301821	-0.6192023	0	-78.134	-96.05	9.881	B5-03822-P02-CH1	174104	OK	0.7359406	-0.198537	-0.6472824	0	-82.909	-75.034	2.468	B5-03822-P03-CH0	174104	OK	0.732626	-0.6466137	-0.2124849	0	-89.515	-57.316	-0.43	B5-03822-P03-CH1	174104	OK	0.7162383	-0.6509054	0.2516444	0	-99.452	-16.285	-18.988	B5-03822-P04-CH0	174104	OK	0.7414188	0.0493058	0.6692287	0	-122.975	-36.078	2.371	B5-03822-P04-CH1	174104	OK	0.7118448	-0.7014257	0.0357626	0	-110.431	-42.188	-9.116	NA
0.189850525244111	B5-03822-P01-CH0	174112	OK	0.2204857	0.0762967	0.0341994	-0.9718	92.767	-37.033	-274.624	B5-03822-P02-CH0	174112	OK	0.7727906	0.1308033	-0.6210356	0	-78.059	-96.278	9.25	B5-03822-P02-CH1	174112	OK	0.7285904	-0.2007133	-0.6548818	0	-82.342	-75.346	2.913	B5-03822-P03-CH0	174112	OK	0.7323701	-0.6445678	-0.2194683	0	-90.168	-57.348	-0.837	B5-03822-P03-CH1	174112	OK	0.7163997	-0.650591	0.2519976	0	-99.442	-16.247	-18.844	B5-03822-P04-CH0	174112	OK	0.7414933	0.0487994	0.6691833	0	-122.992	-36.009	2.22	B5-03822-P04-CH1	174112	OK	0.7118538	-0.7014147	0.0357991	0	-110.357	-42.245	-9.035	NA
0.199842658151696	B5-03822-P01-CH0	174120	OK	0.2207622	0.0765329	0.034293	-0.9717154	92.83	-36.944	-274.594	B5-03822-P02-CH0	174120	OK	0.7721835	0.1283748	-0.6222963	0	-77.684	-96.621	9.884	B5-03822-P02-CH1	174120	OK	0.7239084	-0.2037748	-0.6591149	0	-81.606	-75.489	4.028	B5-03822-P03-CH0	174120	OK	0.732471	-0.6411501	-0.2289385	0	-89.731	-57.785	0.555	B5-03822-P03-CH1	174120	OK	0.7170951	-0.6501595	0.2511318	0	-99.432	-15.608	-19.376	B5-03822-P04-CH0	174120	OK	0.7416872	0.0480395	0.6690234	0	-123.035	-35.938	2.104	B5-03822-P04-CH1	174120	OK	0.7119737	-0.701292	0.0358183	0	-110.417	-42.21	-8.981	NA
0.209834791059281	B5-03822-P01-CH0	174128	OK	0.2207837	0.0761348	0.0348712	-0.9717212	92.664	-36.814	-274.652	B5-03822-P02-CH0	174128	OK	0.7703437	0.1255674	-0.6251427	0	-78.402	-96.786	9.919	B5-03822-P02-CH1	174128	OK	0.7227633	-0.2055509	-0.6598197	0	-80.44	-75.371	2.666	B5-03822-P03-CH0	174128	OK	0.7321309	-0.6363275	-0.2430466	0	-90.256	-57.365	-0.573	B5-03822-P03-CH1	174128	OK	0.7180014	-0.6495031	0.2502393	0	-99.31	-14.842	-20.194	B5-03822-P04-CH0	174128	OK	0.7415692	0.0465156	0.6692619	0	-122.9	-35.717	2.076	B5-03822-P04-CH1	174128	OK	0.7124679	-0.700814	0.0353448	0	-110.316	-41.951	-9.104	NA
0.219826923966866	B5-03822-P01-CH0	174136	OK	0.2207326	0.0762793	0.0343978	-0.9717383	92.695	-36.817	-274.59	B5-03822-P02-CH0	174136	OK	0.7705806	0.1269093	-0.6245795	0	-78.314	-95.657	9.979	B5-03822-P02-CH1	174136	OK	0.7193896	-0.2084432	-0.6625934	0	-81.116	-75.745	2.512	B5-03822-P03-CH0	174136	OK	0.7300741	-0.6319568	-0.260043	0	-90.016	-58.166	-0.724	B5-03822-P03-CH1	174136	OK	0.7178071	-0.649494	0.2508196	0	-99.207	-14.98	-20.026	B5-03822-P04-CH0	174136	OK	0.7415347	0.0441921	0.6694575	0	-122.909	-35.51	1.931	B5-03822-P04-CH1	174136	OK	0.7120246	-0.7012588	0.035456	0	-110.339	-42.114	-9.073	NA
0.22981905687445	B5-03822-P01-CH0	174144	OK	0.220871	0.0761305	0.0342823	-0.9717226	92.572	-36.741	-274.611	B5-03822-P02-CH0	174144	OK	0.7712992	0.1247071	-0.6241359	0	-78.555	-95.126	10.918	B5-03822-P02-CH1	174144	OK	0.7176257	-0.2132299	-0.6629829	0	-81.533	-75.916	2.15	B5-03822-P03-CH0	174144	OK	0.7291449	-0.6247202	-0.2794143	0	-89.87	-58.819	0.275	B5-03822-P03-CH1	174144	OK	0.7178598	-0.6489662	0.2520322	0	-99.157	-15.154	-19.768	B5-03822-P04-CH0	174144	OK	0.7417104	0.041669	0.6694247	0	-122.883	-35.552	2.04	B5-03822-P04-CH1	174144	OK	0.7119878	-0.7012909	0.0355581	0	-110.251	-42.065	-9.133	NA
0.239811189782035	B5-03822-P01-CH0	174152	OK	0.2209454	0.0757734	0.0352081	-0.9717005	92.417	-36.548	-274.505	B5-03822-P02-CH0	174152	OK	0.7736698	0.1197761	-0.6221645	0	-78.404	-95.773	11.291	B5-03822-P02-CH1	174152	OK	0.7195196	-0.2136985	-0.6607757	0	-80.685	-75.653	1.513	B5-03822-P03-CH0	174152	OK	0.7308004	-0.6137284	-0.2987778	0	-91.313	-57.501	-0.451	B5-03822-P03-CH1	174152	OK	0.7187483	-0.6478026	0.252493	0	-99.008	-14.909	-19.907	B5-03822-P04-CH0	174152	OK	0.7431083	0.0207883	0.6688482	0	-123.502	-35.29	2.552	B5-03822-P04-CH1	174152	OK	0.7124956	-0.7007659	0.0357377	0	-110.195	-41.955	-9.357	NA
0.24980332268962	B5-03822-P01-CH0	174160	OK	0.2211467	0.0759961	0.0350334	-0.9716437	92.448	-36.492	-274.381	B5-03822-P02-CH0	174160	OK	0.7773395	0.1170393	-0.618098	0	-78.036	-96.341	10.662	B5-03822-P02-CH1	174160	OK	0.7207291	-0.2162489	-0.6586243	0	-80.707	-76.207	1.817	B5-03822-P03-CH0	174160	OK	0.7318504	-0.6058374	-0.3120193	0	-91.086	-58.243	0.075	B5-03822-P03-CH1	174160	OK	0.719196	-0.6471697	0.252841	0	-99.149	-14.671	-20.578	B5-03822-P04-CH0	174160	OK	0.7425743	0.0174853	0.6695355	0	-123.377	-35.44	3.061	B5-03822-P04-CH1	174160	OK	0.7125142	-0.7007284	0.036099	0	-110.409	-41.86	-9.443	NA
0.259795455597205	B5-03822-P01-CH0	174168	OK	0.2213297	0.0758199	0.0352301	-0.9716087	92.327	-36.427	-274.352	B5-03822-P02-CH0	174168	OK	0.7788666	0.1190448	-0.6157883	0	-78.599	-95.249	11.428	B5-03822-P02-CH1	174168	OK	0.7209281	-0.2189393	-0.6575168	0	-81.667	-76.322	2.566	B5-03822-P03-CH0	174168	OK	0.7356885	-0.5993341	-0.3155331	0	-90.671	-58.456	0.331	B5-03822-P03-CH1	174168	OK	0.719717	-0.6462694	0.25366	0	-99.172	-14.642	-20.393	B5-03822-P04-CH0	174168	OK	0.7429095	0.0154998	0.6692124	0	-124.151	-35.52	1.904	B5-03822-P04-CH1	174168	OK	0.7127872	-0.7004337	0.036427	0	-110.398	-41.753	-9.175	NA
0.26978758850479	B5-03822-P01-CH0	174176	OK	0.2213246	0.0758728	0.0346276	-0.9716273	92.296	-36.464	-274.291	B5-03822-P02-CH0	174176	OK	0.7805148	0.1163012	-0.6142236	0	-79.461	-96.583	13.162	B5-03822-P02-CH1	174176	OK	0.721557	-0.2214732	-0.6559765	0	-82.47	-76.132	2.982	B5-03822-P03-CH0	174176	OK	0.7417076	-0.5950712	-0.3094514	0	-92.113	-58.079	1.332	B5-03822-P03-CH1	174176	OK	0.7193405	-0.6459436	0.2555505	0	-99.206	-15.202	-19.834	B5-03822-P04-CH0	174176	OK	0.7431171	0.015357	0.6689851	0	-124.187	-35.728	3.102	B5-03822-P04-CH1	174176	OK	0.7126085	-0.7006038	0.0366522	0	-110.641	-41.601	-9.474	NA
0.279779721412375	B5-03822-P01-CH0	174184	OK	0.2211347	0.0759197	0.0341816	-0.9716827	92.318	-36.512	-274.429	B5-03822-P02-CH0	174184	OK	0.7825598	0.1191479	-0.6110678	0	-79.807	-97.047	11.924	B5-03822-P02-CH1	174184	OK	0.722475	-0.2273069	-0.6529636	0	-83.417	-75.756	2.973	B5-03822-P03-CH0	174184	OK	0.751354	-0.5970951	-0.2809707	0	-93.107	-58.835	2.986	B5-03822-P03-CH1	174184	OK	0.7188487	-0.6457512	0.2574138	0	-99.316	-15.983	-18.831	B5-03822-P04-CH0	174184	OK	0.7437433	0.0181675	0.6682184	0	-124.854	-36.146	3.599	B5-03822-P04-CH1	174184	OK	0.7124367	-0.7007528	0.03714	0	-111.023	-41.577	-9.307	NA
0.289771854319959	B5-03822-P01-CH0	174192	OK	0.2211845	0.0760654	0.0341169	-0.9716622	92.326	-36.493	-274.349	B5-03822-P02-CH0	174192	OK	0.7800517	0.1218715	-0.6137317	0	-80.447	-97.868	10.913	B5-03822-P02-CH1	174192	OK	0.723629	-0.2341114	-0.649271	0	-83.537	-75.972	3.442	B5-03822-P03-CH0	174192	OK	0.7631186	-0.6006315	-0.2385201	0	-93.095	-60.03	3.905	B5-03822-P03-CH1	174192	OK	0.7190913	-0.6453352	0.2577791	0	-99.441	-15.985	-19.016	B5-03822-P04-CH0	174192	OK	0.7434136	0.0234843	0.6684195	0	-125.236	-37.009	2.942	B5-03822-P04-CH1	174192	OK	0.7127752	-0.700359	0.0380629	0	-111.336	-41.402	-9.298	NA
0.299763987227544	B5-03822-P01-CH0	174200	OK	0.2210819	0.0757247	0.034597	-0.9716952	92.265	-36.491	-274.501	B5-03822-P02-CH0	174200	OK	0.7768534	0.1288593	-0.6163555	0	-80.305	-97.057	9.752	B5-03822-P02-CH1	174200	OK	0.7247211	-0.2443327	-0.6442676	0	-83.613	-76.997	3.507	B5-03822-P03-CH0	174200	OK	0.7737832	-0.6019057	-0.1974058	0	-94.354	-60.729	6.285	B5-03822-P03-CH1	174200	OK	0.7192825	-0.6446674	0.2589144	0	-99.517	-16.414	-18.39	B5-03822-P04-CH0	174200	OK	0.7428012	0.022317	0.66914	0	-124.209	-35.394	2.012	B5-03822-P04-CH1	174200	OK	0.7133146	-0.6997488	0.0391663	0	-111.641	-41.343	-9.404	NA
0.309756120135129	B5-03822-P01-CH0	174208	OK	0.2210512	0.0761658	0.0340717	-0.9716863	92.448	-36.594	-274.537	B5-03822-P02-CH0	174208	OK	0.7748249	0.1319338	-0.6182555	0	-79.654	-97.298	10.488	B5-03822-P02-CH1	174208	OK	0.7276467	-0.2554369	-0.6366178	0	-84.124	-77.781	4.295	B5-03822-P03-CH0	174208	OK	0.7803679	-0.6075441	-0.1480412	0	-94.777	-62.084	5.908	B5-03822-P03-CH1	174208	OK	0.7187789	-0.6446287	0.260405	0	-99.794	-17.166	-17.503	B5-03822-P04-CH0	174208	OK	0.7433264	0.0223914	0.6685541	0	-124.727	-36.103	2.217	B5-03822-P04-CH1	174208	OK	0.712968	-0.6999833	0.0412306	0	-112.247	-41.702	-9.427	NA
0.319748253042714	B5-03822-P01-CH0	174216	OK	0.2210311	0.0762708	0.0341706	-0.9716792	92.508	-36.628	-274.62	B5-03822-P02-CH0	174216	OK	0.7737457	0.1320411	-0.6195827	0	-80.534	-98.29	9.986	B5-03822-P02-CH1	174216	OK	0.7325561	-0.2624607	-0.6280732	0	-84.566	-78.541	5.698	B5-03822-P03-CH0	174216	OK	0.7864616	-0.6103058	-0.0948945	0	-95.027	-63.777	8.168	B5-03822-P03-CH1	174216	OK	0.7186637	-0.6444861	0.261075	0	-99.946	-17.536	-17.087	B5-03822-P04-CH0	174216	OK	0.7438966	0.0231572	0.6678934	0	-125.174	-36.514	2.583	B5-03822-P04-CH1	174216	OK	0.7131737	-0.6996678	0.0429907	0	-112.619	-41.809	-9.651	NA
0.329740385950299	B5-03822-P01-CH0	174224	OK	0.2208493	0.0764204	0.0338606	-0.9717196	92.57	-36.707	-274.556	B5-03822-P02-CH0	174224	OK	0.773687	0.1316375	-0.6197419	0	-80.867	-98.042	11.7	B5-03822-P02-CH1	174224	OK	0.7359867	-0.2616423	-0.6243932	0	-85.537	-78.993	5.975	B5-03822-P03-CH0	174224	OK	0.7939963	-0.6056801	-0.0521684	0	-97.169	-64.08	9.381	B5-03822-P03-CH1	174224	OK	0.7180015	-0.6450383	0.2615328	0	-100.145	-17.923	-16.814	B5-03822-P04-CH0	174224	OK	0.7443172	0.0239558	0.6673964	0	-125.583	-36.774	2.763	B5-03822-P04-CH1	174224	OK	0.7130884	-0.6996149	0.0452093	0	-113.112	-42.044	-9.79	NA
0.339732518857883	B5-03822-P01-CH0	174232	OK	0.2208804	0.0767252	0.0335568	-0.971699	92.713	-36.819	-274.66	B5-03822-P02-CH0	174232	OK	0.7745458	0.1282164	-0.6193863	0	-80.885	-99.303	12.027	B5-03822-P02-CH1	174232	OK	0.7382326	-0.2611154	-0.6219577	0	-85.618	-79.655	6.118	B5-03822-P03-CH0	174232	OK	0.8006128	-0.5989257	-0.0175242	0	-97.602	-65.498	8.31	B5-03822-P03-CH1	174232	OK	0.7168844	-0.6456585	0.2630622	0	-100.51	-18.862	-15.753	B5-03822-P04-CH0	174232	OK	0.7448207	0.0255863	0.6667739	0	-126.011	-37.343	2.947	B5-03822-P04-CH1	174232	OK	0.7130415	-0.6994895	0.0478138	0	-113.781	-42.471	-9.451	NA
0.349724651765468	B5-03822-P01-CH0	174240	OK	0.2209083	0.076879	0.0332266	-0.9716919	92.801	-36.909	-274.762	B5-03822-P02-CH0	174240	OK	0.7760606	0.1291176	-0.6172994	0	-80.421	-99.099	11.244	B5-03822-P02-CH1	174240	OK	0.7382845	-0.2647024	-0.6203778	0	-86.359	-79.931	5.536	B5-03822-P03-CH0	174240	OK	0.8079444	-0.5892522	0.0027559	0	-98.484	-66.057	10.254	B5-03822-P03-CH1	174240	OK	0.7121962	-0.65501	0.2524647	0	-101.043	-16.324	-19.043	B5-03822-P04-CH0	174240	OK	0.7452458	0.0271534	0.6662368	0	-126.412	-37.727	3.017	B5-03822-P04-CH1	174240	OK	0.7127579	-0.6995825	0.0506022	0	-114.063	-43.026	-9.06	NA
0.359716784673053	B5-03822-P01-CH0	174248	OK	0.2205903	0.0772611	0.0322256	-0.9717675	92.934	-37.108	-274.73	B5-03822-P02-CH0	174248	OK	0.7754786	0.1257671	-0.618721	0	-81.52	-100.289	10.661	B5-03822-P02-CH1	174248	OK	0.7407169	-0.2683565	-0.6158922	0	-85.597	-80.752	6.413	B5-03822-P03-CH0	174248	OK	0.8126859	-0.582475	0.016262	0	-98.607	-66.149	11.124	B5-03822-P03-CH1	174248	OK	0.7079807	-0.6589851	0.2539722	0	-101.971	-17.628	-15.867	B5-03822-P04-CH0	174248	OK	0.7455919	0.0278547	0.6658204	0	-126.755	-38.056	3.008	B5-03822-P04-CH1	174248	OK	0.7121091	-0.7000663	0.0529883	0	-114.394	-43.554	-8.925	NA
0.369708917580638	B5-03822-P01-CH0	174256	OK	0.2205255	0.077254	0.0323353	-0.9717792	92.95	-37.167	-274.747	B5-03822-P02-CH0	174256	OK	0.7766577	0.1238951	-0.6176186	0	-81.13	-100.543	11.729	B5-03822-P02-CH1	174256	OK	0.7419929	-0.2657774	-0.6154746	0	-86.343	-80.583	6.659	B5-03822-P03-CH0	174256	OK	0.8157631	-0.5778005	0.0260214	0	-98.773	-66.439	10.786	B5-03822-P03-CH1	174256	OK	0.7044714	-0.6640136	0.2506113	0	-102.116	-17.4	-15.917	B5-03822-P04-CH0	174256	OK	0.7456479	0.0275955	0.6657685	0	-126.863	-37.951	2.915	B5-03822-P04-CH1	174256	OK	0.7123953	-0.6996253	0.0549311	0	-114.605	-43.752	-8.862	NA
0.379701050488223	B5-03822-P01-CH0	174264	OK	0.2208894	0.0771703	0.0328224	-0.9716868	92.916	-37.123	-274.691	B5-03822-P02-CH0	174264	OK	0.7782581	0.1257394	-0.6152267	0	-80.383	-100.31	11.22	B5-03822-P02-CH1	174264	OK	0.7419821	-0.2560863	-0.6195824	0	-87.073	-80.25	6.469	B5-03822-P03-CH0	174264	OK	0.8188022	-0.5728374	0.0376878	0	-98.518	-67.277	11.973	B5-03822-P03-CH1	174264	OK	0.7006725	-0.6691891	0.2474752	0	-100.719	-17.74	-13.38	B5-03822-P04-CH0	174264	OK	0.7457119	0.0267086	0.665733	0	-126.908	-37.889	2.545	B5-03822-P04-CH1	174264	OK	0.7129341	-0.6989052	0.0570661	0	-114.573	-43.967	-9.008	NA
0.389693183395807	B5-03822-P01-CH0	174272	OK	0.2208259	0.0768728	0.0323909	-0.9717393	92.805	-37.242	-274.68	B5-03822-P02-CH0	174272	OK	0.7762175	0.1292928	-0.6170655	0	-80.499	-99.329	10.873	B5-03822-P02-CH1	174272	OK	0.7416705	-0.2386134	-0.626888	0	-86.266	-80.572	5.891	B5-03822-P03-CH0	174272	OK	0.8257211	-0.561733	0.0513878	0	-98.262	-66.15	11.962	B5-03822-P03-CH1	174272	OK	0.6985779	-0.6734732	0.2417081	0	-100.595	-16.371	-13.879	B5-03822-P04-CH0	174272	OK	0.7461308	0.0043898	0.665785	0	-125.767	-39.648	4.533	B5-03822-P04-CH1	174272	OK	0.7125316	-0.6992088	0.0583591	0	-114.53	-44.401	-9.096	NA
0.399685316303392	B5-03822-P01-CH0	174280	OK	0.2210138	0.077108	0.0313253	-0.9717129	92.861	-37.399	-274.602	B5-03822-P02-CH0	174280	OK	0.7766931	0.1299351	-0.6163317	0	-80.515	-99.554	10.704	B5-03822-P02-CH1	174280	OK	0.7370541	-0.22146	-0.6385192	0	-85.57	-80.434	5.581	B5-03822-P03-CH0	174280	OK	0.8293629	-0.5551254	0.06319	0	-96.978	-66.367	12.904	B5-03822-P03-CH1	174280	OK	0.6943799	-0.6786026	0.2394473	0	-101.325	-16.192	-14.53	B5-03822-P04-CH0	174280	OK	0.7446602	-0.0123168	0.6673301	0	-124.945	-37.656	2.234	B5-03822-P04-CH1	174280	OK	0.7116497	-0.6999997	0.059625	0	-114.389	-45.048	-8.709	NA
0.409677449210977	B5-03822-P01-CH0	174288	OK	0.2212065	0.0767966	0.0316551	-0.971683	92.736	-37.36	-274.535	B5-03822-P02-CH0	174288	OK	0.7770945	0.1314296	-0.6155082	0	-80.372	-99.607	10.669	B5-03822-P02-CH1	174288	OK	0.7288505	-0.1999097	-0.6548382	0	-85.258	-80.004	6.258	B5-03822-P03-CH0	174288	OK	0.8326867	-0.5503976	0.0607889	0	-96.746	-65.421	13.203	B5-03822-P03-CH1	174288	OK	0.6899249	-0.6804183	0.2470518	0	-101.308	-18.69	-9.869	B5-03822-P04-CH0	174288	OK	0.7438368	-0.0273689	0.6678007	0	-124.017	-36.869	1.821	B5-03822-P04-CH1	174288	OK	0.7120728	-0.6995748	0.0595603	0	-114.042	-45.056	-8.707	NA
0.419669582118562	B5-03822-P01-CH0	174296	OK	0.2215484	0.0766077	0.0316508	-0.9716202	92.714	-37.36	-274.607	B5-03822-P02-CH0	174296	OK	0.7755777	0.1482876	-0.6135878	0	-80.988	-101.401	10.845	B5-03822-P02-CH1	174296	OK	0.721405	-0.1751555	-0.6699966	0	-83.434	-79.689	4.591	B5-03822-P03-CH0	174296	OK	0.8300284	-0.5542348	0.0622622	0	-94.971	-67.077	11.153	B5-03822-P03-CH1	174296	OK	0.6871115	-0.6820285	0.2504293	0	-100.66	-19.477	-8.318	B5-03822-P04-CH0	174296	OK	0.7428333	-0.0365926	0.6684756	0	-122.998	-36.396	3.121	B5-03822-P04-CH1	174296	OK	0.712195	-0.6994691	0.0593408	0	-113.945	-45.193	-8.471	NA
0.429661715026147	B5-03822-P01-CH0	174304	OK	0.2218568	0.0764941	0.0322334	-0.9715396	92.715	-37.235	-274.682	B5-03822-P02-CH0	174304	OK	0.7756041	0.1597976	-0.6106578	0	-80.926	-99.797	11.472	B5-03822-P02-CH1	174304	OK	0.7122081	-0.1487831	-0.6860198	0	-82.086	-79.257	3.095	B5-03822-P03-CH0	174304	OK	0.831797	-0.5517725	0.0605054	0	-95.297	-66.164	12.27	B5-03822-P03-CH1	174304	OK	0.6902857	-0.6832768	0.2379883	0	-101.639	-15.077	-13.928	B5-03822-P04-CH0	174304	OK	0.7408555	-0.0384522	0.6705628	0	-121.234	-35.798	4.598	B5-03822-P04-CH1	174304	OK	0.7127149	-0.6990381	0.0581656	0	-113.722	-45.059	-8.642	NA
0.439653847933731	B5-03822-P01-CH0	174312	OK	0.2217551	0.0764075	0.0321386	-0.9715728	92.68	-37.176	-274.572	B5-03822-P02-CH0	174312	OK	0.7782606	0.1683378	-0.6049569	0	-80.452	-99.846	11.845	B5-03822-P02-CH1	174312	OK	0.7002039	-0.1197438	-0.7038295	0	-81.72	-79.62	3.039	B5-03822-P03-CH0	174312	OK	0.8320675	-0.5509304	0.0643375	0	-95.627	-65.914	12.169	B5-03822-P03-CH1	174312	OK	0.683912	-0.6846297	0.2520843	0	-101.618	-21.328	-5.926	B5-03822-P04-CH0	174312	OK	0.7408179	-0.0349223	0.6707975	0	-121.718	-35.847	3.334	B5-03822-P04-CH1	174312	OK	0.7126864	-0.6992181	0.056321	0	-113.401	-44.875	-8.952	NA
0.449645980841316	B5-03822-P01-CH0	174320	OK	0.2218654	0.0762457	0.0320121	-0.9715645	92.626	-37.115	-274.541	B5-03822-P02-CH0	174320	OK	0.7796834	0.1722148	-0.6020265	0	-81.292	-101.169	13.878	B5-03822-P02-CH1	174320	OK	0.6913922	-0.0927388	-0.7165029	0	-79.98	-79.388	1.311	B5-03822-P03-CH0	174320	OK	0.8332276	-0.5479633	0.0739452	0	-94.435	-65.121	12.302	B5-03822-P03-CH1	174320	OK	0.6850339	-0.6865409	0.2437011	0	-100.247	-19.375	-7.186	B5-03822-P04-CH0	174320	OK	0.7406706	-0.0299518	0.6712004	0	-122.006	-35.39	1.569	B5-03822-P04-CH1	174320	OK	0.712546	-0.6995036	0.0545242	0	-113.062	-44.8	-9.176	NA
0.459638113748901	B5-03822-P01-CH0	174328	OK	0.222175	0.0761572	0.0328408	-0.971473	92.663	-36.902	-274.533	B5-03822-P02-CH0	174328	OK	0.7824027	0.1838229	-0.5950253	0	-81.045	-99.509	14.267	B5-03822-P02-CH1	174328	OK	0.6832398	-0.0704561	-0.7267869	0	-77.888	-78.725	2.603	B5-03822-P03-CH0	174328	OK	0.8317658	-0.5482939	0.0868296	0	-93.871	-65.965	11.143	B5-03822-P03-CH1	174328	OK	0.6877207	-0.6853122	0.2395567	0	-100.779	-18.056	-9.393	B5-03822-P04-CH0	174328	OK	0.7416305	-0.0250738	0.6703399	0	-122.069	-35.198	3.1	B5-03822-P04-CH1	174328	OK	0.7129958	-0.699177	0.0528065	0	-112.933	-44.65	-9.309	NA
0.469630246656486	B5-03822-P01-CH0	174336	OK	0.222394	0.0763886	0.0328109	-0.9714057	92.787	-36.795	-274.498	B5-03822-P02-CH0	174336	OK	0.7844225	0.1885906	-0.5908595	0	-81.541	-100.217	15.887	B5-03822-P02-CH1	174336	OK	0.6732444	-0.0559352	-0.7373013	0	-77.392	-78.318	1.349	B5-03822-P03-CH0	174336	OK	0.833044	-0.5435256	0.1030421	0	-93.163	-64.373	10.629	B5-03822-P03-CH1	174336	OK	0.6888459	-0.6846253	0.2382845	0	-101.002	-17.91	-11.063	B5-03822-P04-CH0	174336	OK	0.7426738	-0.0163626	0.6694534	0	-122.511	-36.966	4.095	B5-03822-P04-CH1	174336	OK	0.7129003	-0.6993959	0.0511712	0	-112.961	-44.614	-9.305	NA
0.479622379564071	B5-03822-P01-CH0	174344	OK	0.222321	0.0765423	0.0323573	-0.9714256	92.862	-36.76	-274.418	B5-03822-P02-CH0	174344	OK	0.7898103	0.1931012	-0.5821612	0	-81.214	-100.134	16.432	B5-03822-P02-CH1	174344	OK	0.6649258	-0.0473126	-0.7454094	0	-76.022	-78.253	0.898	B5-03822-P03-CH0	174344	OK	0.829199	-0.5448729	0.1246701	0	-91.999	-65.854	10.636	B5-03822-P03-CH1	174344	OK	0.6909523	-0.6835586	0.2352287	0	-100.379	-16.961	-13.677	B5-03822-P04-CH0	174344	OK	0.7432338	-0.0067971	0.6689972	0	-122.762	-36.839	4.546	B5-03822-P04-CH1	174344	OK	0.7125758	-0.6998858	0.0489452	0	-112.852	-44.428	-9.406	NA
0.489614512471655	B5-03822-P01-CH0	174352	OK	0.2226186	0.0770055	0.0324738	-0.9713169	93.04	-36.604	-274.38	B5-03822-P02-CH0	174352	OK	0.7938426	0.1957385	-0.5757607	0	-81.893	-100.581	16.308	B5-03822-P02-CH1	174352	OK	0.6544965	-0.049253	-0.7544591	0	-74.802	-77.957	1.002	B5-03822-P03-CH0	174352	OK	0.8292946	-0.5393983	0.1460135	0	-92.659	-66.432	11.432	B5-03822-P03-CH1	174352	OK	0.694481	-0.6808011	0.2328219	0	-100.078	-15.96	-12.924	B5-03822-P04-CH0	174352	OK	0.745308	0.0055027	0.6666976	0	-124.746	-36.987	3.835	B5-03822-P04-CH1	174352	OK	0.7126627	-0.6999033	0.0474044	0	-112.816	-44.246	-9.374	NA
0.49960664537924	B5-03822-P01-CH0	174360	OK	0.2227665	0.0767278	0.0331944	-0.9712806	92.943	-36.404	-274.392	B5-03822-P02-CH0	174360	OK	0.7985125	0.19895	-0.568152	0	-81.558	-100.204	16.545	B5-03822-P02-CH1	174360	OK	0.6417826	-0.0560523	-0.7648354	0	-73.876	-77.066	2.025	B5-03822-P03-CH0	174360	OK	0.8323084	-0.5283986	0.167504	0	-92.375	-65.095	11.786	B5-03822-P03-CH1	174360	OK	0.6954267	-0.6770902	0.2406876	0	-99.812	-18.19	-12.744	B5-03822-P04-CH0	174360	OK	0.7429912	0.0147702	0.6691382	0	-124.393	-36.707	2.807	B5-03822-P04-CH1	174360	OK	0.7134546	-0.6991992	0.0458583	0	-112.679	-43.67	-9.522	NA
0.509598778286825	B5-03822-P01-CH0	174368	OK	0.2229453	0.0768159	0.0330964	-0.971236	92.967	-36.286	-274.374	B5-03822-P02-CH0	174368	OK	0.8023449	0.2009421	-0.5620186	0	-81.259	-99.624	18.381	B5-03822-P02-CH1	174368	OK	0.6320412	-0.0672342	-0.7720126	0	-72.233	-75.289	0.107	B5-03822-P03-CH0	174368	OK	0.8320228	-0.5216566	0.1887129	0	-91.585	-64.947	11.633	B5-03822-P03-CH1	174368	OK	0.6985688	-0.6713992	0.2474364	0	-100.316	-19.649	-12.559	B5-03822-P04-CH0	174368	OK	0.7410177	0.0223194	0.6711144	0	-124.092	-36.246	2.451	B5-03822-P04-CH1	174368	OK	0.7132449	-0.6994614	0.0451162	0	-112.628	-43.585	-9.458	NA
0.51959091119441	B5-03822-P01-CH0	174376	OK	0.2229362	0.0770764	0.0332622	-0.9712118	93.019	-36.123	-274.227	B5-03822-P02-CH0	174376	OK	0.8062361	0.2027099	-0.5557806	0	-81.479	-99.322	18.022	B5-03822-P02-CH1	174376	OK	0.6238752	-0.079854	-0.7774337	0	-71.389	-75.017	-0.506	B5-03822-P03-CH0	174376	OK	0.8326459	-0.514286	0.2054526	0	-92.079	-64.65	12.336	B5-03822-P03-CH1	174376	OK	0.7029166	-0.6641405	0.2546088	0	-100.215	-20.708	-10.069	B5-03822-P04-CH0	174376	OK	0.7421938	0.0278593	0.669606	0	-125.113	-37.544	2.383	B5-03822-P04-CH1	174376	OK	0.713371	-0.699394	0.0441577	0	-112.59	-43.306	-9.602	NA
0.529583044101995	B5-03822-P01-CH0	174384	OK	0.2229016	0.0771865	0.0325209	-0.9712361	93.058	-36.204	-274.164	B5-03822-P02-CH0	174384	OK	0.8109328	0.2007025	-0.5496422	0	-81.363	-100.24	19.725	B5-03822-P02-CH1	174384	OK	0.6184689	-0.0931873	-0.7802643	0	-71.305	-73.805	-0.498	B5-03822-P03-CH0	174384	OK	0.8317668	-0.508742	0.2221386	0	-92.226	-64.818	11.235	B5-03822-P03-CH1	174384	OK	0.7087825	-0.659353	0.2507609	0	-100.531	-17.272	-13.161	B5-03822-P04-CH0	174384	OK	0.7422057	0.0308577	0.6694614	0	-125.286	-37.357	2.663	B5-03822-P04-CH1	174384	OK	0.7128439	-0.699946	0.043923	0	-112.37	-43.385	-9.381	NA
0.539575177009579	B5-03822-P01-CH0	174392	OK	0.2230264	0.0770281	0.0323966	-0.9712242	92.994	-36.149	-274.171	B5-03822-P02-CH0	174392	OK	0.8139979	0.2042458	-0.5437748	0	-81.959	-100.129	19.097	B5-03822-P02-CH1	174392	OK	0.6206336	-0.0952716	-0.7782912	0	-71.137	-75.395	0.972	B5-03822-P03-CH0	174392	OK	0.8331045	-0.501798	0.2326708	0	-92.453	-64.134	11.11	B5-03822-P03-CH1	174392	OK	0.7122938	-0.6572559	0.2462767	0	-100.833	-14.437	-19.625	B5-03822-P04-CH0	174392	OK	0.7427602	0.0349841	0.6686429	0	-125.364	-38.333	4.429	B5-03822-P04-CH1	174392	OK	0.7129629	-0.6998527	0.0434749	0	-112.172	-43.094	-9.657	NA
0.549567309917164	B5-03822-P01-CH0	174400	OK	0.2228389	0.0771257	0.0323426	-0.9712612	93.018	-36.12	-274.152	B5-03822-P02-CH0	174400	OK	0.8165203	0.2099009	-0.5378068	0	-82.033	-98.966	20.865	B5-03822-P02-CH1	174400	OK	0.6242413	-0.0972083	-0.7751602	0	-71.461	-75.425	0.835	B5-03822-P03-CH0	174400	OK	0.8331153	-0.4981001	0.2404478	0	-92.485	-64.504	10.869	B5-03822-P03-CH1	174400	OK	0.7116872	-0.6560462	0.2512068	0	-99.822	-16.419	-17.748	B5-03822-P04-CH0	174400	OK	0.7422563	0.0376622	0.6690569	0	-125.234	-38.561	4.438	B5-03822-P04-CH1	174400	OK	0.7128313	-0.6999934	0.0433674	0	-112.144	-43.124	-9.394	NA
0.559559442824749	B5-03822-P01-CH0	174408	OK	0.2228451	0.0768868	0.0319203	-0.9712927	92.902	-36.168	-274.163	B5-03822-P02-CH0	174408	OK	0.8187871	0.2117188	-0.5336318	0	-82.594	-99.765	21.291	B5-03822-P02-CH1	174408	OK	0.6283605	-0.1005714	-0.7713939	0	-70.862	-74.644	-0.044	B5-03822-P03-CH0	174408	OK	0.8335342	-0.494794	0.2457632	0	-92.646	-64.432	11.21	B5-03822-P03-CH1	174408	OK	0.7109626	-0.6553496	0.2550473	0	-99.066	-17.784	-18.011	B5-03822-P04-CH0	174408	OK	0.7408319	0.0413448	0.6704168	0	-124.548	-39.136	4.553	B5-03822-P04-CH1	174408	OK	0.7128308	-0.6999967	0.0433226	0	-111.915	-42.933	-9.61	NA
0.569551575732334	B5-03822-P01-CH0	174416	OK	0.2227059	0.0766691	0.0320971	-0.971336	92.828	-36.137	-274.187	B5-03822-P02-CH0	174416	OK	0.8208779	0.2161514	-0.528619	0	-82.376	-100.089	21.218	B5-03822-P02-CH1	174416	OK	0.6318683	-0.1024505	-0.7682749	0	-70.704	-74.669	-1.078	B5-03822-P03-CH0	174416	OK	0.8344172	-0.4912363	0.2498696	0	-93.309	-64.172	11.753	B5-03822-P03-CH1	174416	OK	0.713614	-0.6527721	0.2542512	0	-99.884	-17.099	-16.797	B5-03822-P04-CH0	174416	OK	0.7405877	0.0414337	0.6706811	0	-125.033	-38.433	3.638	B5-03822-P04-CH1	174416	OK	0.7130332	-0.699788	0.0433637	0	-111.639	-42.836	-9.414	NA
0.579543708639919	B5-03822-P01-CH0	174424	OK	0.2227049	0.0764933	0.0325814	-0.971334	92.79	-36.095	-274.256	B5-03822-P02-CH0	174424	OK	0.8213929	0.2229245	-0.5249936	0	-82.758	-99.542	20.551	B5-03822-P02-CH1	174424	OK	0.6341331	-0.1088685	-0.7655213	0	-71.153	-73.727	-1.114	B5-03822-P03-CH0	174424	OK	0.8338344	-0.4903431	0.2535427	0	-92.599	-64.118	10.993	B5-03822-P03-CH1	174424	OK	0.7132929	-0.6516409	0.2580258	0	-99.404	-18.122	-17.283	B5-03822-P04-CH0	174424	OK	0.7411592	0.0423235	0.6699938	0	-125.892	-37.877	2.69	B5-03822-P04-CH1	174424	OK	0.713181	-0.6996012	0.0439434	0	-111.524	-43.026	-9.092	NA
0.589535841547503	B5-03822-P01-CH0	174432	OK	0.2226408	0.0761509	0.0326896	-0.971372	92.674	-36.111	-274.358	B5-03822-P02-CH0	174432	OK	0.8228884	0.2300163	-0.5195644	0	-81.983	-98.97	21.382	B5-03822-P02-CH1	174432	OK	0.6369579	-0.1137427	-0.7624613	0	-70.74	-73.477	-0.978	B5-03822-P03-CH0	174432	OK	0.8335823	-0.4914681	0.2521897	0	-92.804	-63.799	10.706	B5-03822-P03-CH1	174432	OK	0.7146588	-0.6502833	0.2576712	0	-99.307	-17.465	-16.84	B5-03822-P04-CH0	174432	OK	0.7412955	0.0355625	0.6702359	0	-125.056	-38.176	3.255	B5-03822-P04-CH1	174432	OK	0.7135061	-0.6992626	0.0440542	0	-111.481	-42.84	-8.87	NA
0.599527974455088	B5-03822-P01-CH0	174440	OK	0.2224184	0.0764563	0.0326237	-0.9714011	92.752	-36.085	-274.289	B5-03822-P02-CH0	174440	OK	0.8208796	0.2334093	-0.5212263	0	-82.684	-100.261	21.57	B5-03822-P02-CH1	174440	OK	0.6387563	-0.1187597	-0.7601885	0	-70.847	-74.107	-0.17	B5-03822-P03-CH0	174440	OK	0.8333596	-0.4920343	0.2518216	0	-93.276	-63.491	11.23	B5-03822-P03-CH1	174440	OK	0.7166336	-0.6512661	0.2495771	0	-98.536	-14.005	-22.09	B5-03822-P04-CH0	174440	OK	0.7410958	0.0373341	0.6703604	0	-125.194	-38.166	3.203	B5-03822-P04-CH1	174440	OK	0.7130872	-0.6996926	0.0440112	0	-111.555	-42.993	-9.193	NA
0.609520107362673	B5-03822-P01-CH0	174448	OK	0.2220986	0.0766084	0.0322265	-0.9714756	92.776	-36.163	-274.254	B5-03822-P02-CH0	174448	OK	0.8190117	0.2458125	-0.5184554	0	-82.75	-99.297	20.222	B5-03822-P02-CH1	174448	OK	0.6391585	-0.1268032	-0.7585495	0	-71.334	-74.254	0.809	B5-03822-P03-CH0	174448	OK	0.8318294	-0.4946942	0.2516695	0	-93.213	-63.259	10.741	B5-03822-P03-CH1	174448	OK	0.715933	-0.6508828	0.2525698	0	-99.177	-15.387	-21.334	B5-03822-P04-CH0	174448	OK	0.7409549	0.0382851	0.6704626	0	-125.156	-38.33	3.425	B5-03822-P04-CH1	174448	OK	0.7127856	-0.7000094	0.0438592	0	-111.611	-43.017	-9.171	NA
0.619512240270258	B5-03822-P01-CH0	174456	OK	0.222101	0.076446	0.0321466	-0.9714905	92.717	-36.25	-274.318	B5-03822-P02-CH0	174456	OK	0.8162474	0.2529622	-0.519375	0	-82.587	-99.102	21.438	B5-03822-P02-CH1	174456	OK	0.6410912	-0.136332	-0.7552586	0	-71.18	-74.185	0.089	B5-03822-P03-CH0	174456	OK	0.8295057	-0.4994717	0.2498966	0	-93.28	-63.677	10.32	B5-03822-P03-CH1	174456	OK	0.7147445	-0.6491258	0.2603382	0	-99.809	-19.016	-15.39	B5-03822-P04-CH0	174456	OK	0.7406054	0.0393498	0.670787	0	-124.926	-38.473	3.684	B5-03822-P04-CH1	174456	OK	0.7125753	-0.7001956	0.0443004	0	-111.358	-43.193	-9.102	NA
0.629504373177843	B5-03822-P01-CH0	174464	OK	0.2221118	0.076188	0.0328703	-0.9714841	92.586	-36.154	-274.373	B5-03822-P02-CH0	174464	OK	0.8132181	0.2584682	-0.521412	0	-82.354	-99.497	22.463	B5-03822-P02-CH1	174464	OK	0.6428809	-0.1454035	-0.7520385	0	-71.197	-73.879	-0.025	B5-03822-P03-CH0	174464	OK	0.8283285	-0.5032089	0.2462777	0	-93.138	-63.693	10.559	B5-03822-P03-CH1	174464	OK	0.7158845	-0.6521892	0.2493164	0	-99.007	-14.659	-20.589	B5-03822-P04-CH0	174464	OK	0.7402221	0.0399138	0.6711766	0	-124.658	-38.513	3.639	B5-03822-P04-CH1	174464	OK	0.7129966	-0.6997516	0.0445361	0	-111.406	-43.135	-8.981	NA
0.639496506085427	B5-03822-P01-CH0	174472	OK	0.2219876	0.0764289	0.03298	-0.9714898	92.653	-36.22	-274.428	B5-03822-P02-CH0	174472	OK	0.8100835	0.2626373	-0.5242006	0	-82.564	-100.058	22.107	B5-03822-P02-CH1	174472	OK	0.6452115	-0.1550432	-0.7481068	0	-70.73	-73.014	-1.151	B5-03822-P03-CH0	174472	OK	0.8282081	-0.5071874	0.238395	0	-93.599	-63.309	11.157	B5-03822-P03-CH1	174472	OK	0.7163336	-0.651102	0.2508632	0	-99.016	-15.268	-19.78	B5-03822-P04-CH0	174472	OK	0.7403775	0.0395605	0.6710261	0	-124.67	-38.394	3.675	B5-03822-P04-CH1	174472	OK	0.7126603	-0.700064	0.0450086	0	-111.442	-43.546	-8.56	NA
0.649488638993012	B5-03822-P01-CH0	174480	OK	0.2219083	0.076445	0.0336409	-0.971484	92.634	-36.174	-274.463	B5-03822-P02-CH0	174480	OK	0.8069835	0.266647	-0.5269506	0	-82.483	-99.624	22.282	B5-03822-P02-CH1	174480	OK	0.6443678	-0.1601924	-0.747749	0	-71.546	-73.688	0.436	B5-03822-P03-CH0	174480	OK	0.8279805	-0.5110841	0.2307407	0	-93.874	-62.651	11.032	B5-03822-P03-CH1	174480	OK	0.7172207	-0.6498215	0.2516476	0	-99.098	-15.448	-19.514	B5-03822-P04-CH0	174480	OK	0.7404859	0.0388443	0.6709484	0	-124.604	-38.165	3.623	B5-03822-P04-CH1	174480	OK	0.7132817	-0.6994464	0.0447642	0	-111.458	-43.272	-8.618	NA
0.659480771900597	B5-03822-P01-CH0	174488	OK	0.2218656	0.0767149	0.0340273	-0.971459	92.697	-36.178	-274.57	B5-03822-P02-CH0	174488	OK	0.8059953	0.2725028	-0.5254653	0	-81.91	-99.097	19.921	B5-03822-P02-CH1	174488	OK	0.6447403	-0.1679144	-0.745731	0	-71.793	-73.481	-0.528	B5-03822-P03-CH0	174488	OK	0.8243541	-0.5185154	0.2271171	0	-92.735	-63.504	9.659	B5-03822-P03-CH1	174488	OK	0.7180715	-0.6488745	0.2516648	0	-99.115	-15.43	-19.153	B5-03822-P04-CH0	174488	OK	0.7408674	0.0378848	0.6705821	0	-124.636	-37.969	3.61	B5-03822-P04-CH1	174488	OK	0.7132547	-0.6994589	0.0450006	0	-111.532	-43.446	-8.475	NA
0.669472904808182	B5-03822-P01-CH0	174496	OK	0.2218692	0.076755	0.0340208	-0.9714553	92.704	-36.268	-274.66	B5-03822-P02-CH0	174496	OK	0.8039449	0.2722117	-0.528747	0	-81.766	-100.576	20.328	B5-03822-P02-CH1	174496	OK	0.6449893	-0.1745856	-0.7439816	0	-71.575	-74.175	0.65	B5-03822-P03-CH0	174496	OK	0.8243082	-0.5233379	0.2159478	0	-93.247	-62.836	10.533	B5-03822-P03-CH1	174496	OK	0.7184186	-0.6485271	0.2515696	0	-99.047	-15.485	-19.375	B5-03822-P04-CH0	174496	OK	0.7409223	0.0369975	0.6705708	0	-124.403	-37.991	3.697	B5-03822-P04-CH1	174496	OK	0.7130496	-0.6996503	0.0452734	0	-111.604	-43.671	-8.425	NA
0.679465037715767	B5-03822-P01-CH0	174504	OK	0.2217153	0.0768529	0.0338717	-0.9714879	92.665	-36.341	-274.692	B5-03822-P02-CH0	174504	OK	0.8015894	0.2772426	-0.5297084	0	-81.326	-99.339	20.328	B5-03822-P02-CH1	174504	OK	0.6447243	-0.177469	-0.743529	0	-71.667	-73.404	-0.176	B5-03822-P03-CH0	174504	OK	0.8224147	-0.530449	0.2055672	0	-93.542	-63.405	10.169	B5-03822-P03-CH1	174504	OK	0.7186919	-0.6484245	0.251053	0	-99.021	-15.468	-19.437	B5-03822-P04-CH0	174504	OK	0.7411683	0.0358321	0.6703623	0	-124.202	-38.025	3.86	B5-03822-P04-CH1	174504	OK	0.7129802	-0.699726	0.045198	0	-111.518	-43.606	-8.493	NA
0.689457170623351	B5-03822-P01-CH0	174512	OK	0.2213743	0.077226	0.0337847	-0.9715391	92.773	-36.402	-274.685	B5-03822-P02-CH0	174512	OK	0.7991589	0.2772057	-0.5333873	0	-81.152	-99.292	21.329	B5-03822-P02-CH1	174512	OK	0.642794	-0.1788582	-0.7448662	0	-71.96	-72.864	0.942	B5-03822-P03-CH0	174512	OK	0.8199359	-0.5380231	0.195541	0	-92.876	-63.61	9.951	B5-03822-P03-CH1	174512	OK	0.7186288	-0.6485944	0.2507946	0	-99.194	-15.822	-19.248	B5-03822-P04-CH0	174512	OK	0.7417727	0.034084	0.6697847	0	-124.258	-37.818	4.073	B5-03822-P04-CH1	174512	OK	0.7125766	-0.7001349	0.0452289	0	-111.61	-43.88	-8.279	NA
0.699449303530936	B5-03822-P01-CH0	174520	OK	0.2211168	0.0772845	0.0338882	-0.9715895	92.747	-36.436	-274.669	B5-03822-P02-CH0	174520	OK	0.7976073	0.2763985	-0.5361217	0	-81.172	-99.816	19.225	B5-03822-P02-CH1	174520	OK	0.6403498	-0.1808966	-0.7464774	0	-72.419	-73.772	-0.264	B5-03822-P03-CH0	174520	OK	0.8178191	-0.5452882	0.1839367	0	-92.936	-63.707	10.176	B5-03822-P03-CH1	174520	OK	0.7182467	-0.6484918	0.2521509	0	-99.455	-16.802	-18.214	B5-03822-P04-CH0	174520	OK	0.742042	0.0327377	0.6695535	0	-124.13	-37.777	4.119	B5-03822-P04-CH1	174520	OK	0.7125764	-0.7001317	0.0452808	0	-111.61	-43.907	-7.992	NA
0.709441436438521	B5-03822-P01-CH0	174528	OK	0.221087	0.0774005	0.0340177	-0.9715825	92.793	-36.48	-274.761	B5-03822-P02-CH0	174528	OK	0.7947962	0.2764393	-0.5402595	0	-81.391	-99.582	18.684	B5-03822-P02-CH1	174528	OK	0.6414257	-0.1822769	-0.7452169	0	-71.102	-73.64	-0.896	B5-03822-P03-CH0	174528	OK	0.8176881	-0.5496042	0.1712347	0	-93.534	-62.839	12.358	B5-03822-P03-CH1	174528	OK	0.7185258	-0.6483038	0.2518388	0	-99.468	-16.978	-17.483	B5-03822-P04-CH0	174528	OK	0.7422439	0.0316509	0.6693819	0	-124.094	-37.647	4.061	B5-03822-P04-CH1	174528	OK	0.7127445	-0.6999686	0.0451582	0	-111.509	-43.844	-7.698	NA
0.719433569346106	B5-03822-P01-CH0	174536	OK	0.2209648	0.077554	0.0338272	-0.9716047	92.849	-36.564	-274.854	B5-03822-P02-CH0	174536	OK	0.7916007	0.2735642	-0.5463799	0	-81.179	-99.941	19.598	B5-03822-P02-CH1	174536	OK	0.638842	-0.1834235	-0.7471524	0	-71.918	-74.037	0.586	B5-03822-P03-CH0	174536	OK	0.8148488	-0.5558996	0.1643076	0	-93.265	-62.902	11.059	B5-03822-P03-CH1	174536	OK	0.7184861	-0.648622	0.2511319	0	-99.6	-17.082	-17.404	B5-03822-P04-CH0	174536	OK	0.7424854	0.0305111	0.669167	0	-124.178	-37.539	3.89	B5-03822-P04-CH1	174536	OK	0.7125154	-0.7002064	0.045086	0	-111.693	-43.957	-7.464	NA
0.729425702253691	B5-03822-P01-CH0	174544	OK	0.2208534	0.0779005	0.0337822	-0.9716039	92.922	-36.538	-274.89	B5-03822-P02-CH0	174544	OK	0.7875347	0.2750872	-0.5514672	0	-81.444	-99.322	18.363	B5-03822-P02-CH1	174544	OK	0.6389582	-0.1828449	-0.7471949	0	-71.444	-73.411	0.684	B5-03822-P03-CH0	174544	OK	0.8114749	-0.5632849	0.1556234	0	-92.807	-62.917	9.405	B5-03822-P03-CH1	174544	OK	0.7184385	-0.6489431	0.2504374	0	-99.661	-17.162	-17.23	B5-03822-P04-CH0	174544	OK	0.7428424	0.0293063	0.6688246	0	-124.346	-37.212	3.867	B5-03822-P04-CH1	174544	OK	0.7126552	-0.7000926	0.0446431	0	-111.8	-43.64	-7.729	NA
0.739417835161275	B5-03822-P01-CH0	174552	OK	0.2208798	0.0778363	0.0338792	-0.9715996	92.888	-36.586	-274.952	B5-03822-P02-CH0	174552	OK	0.7835076	0.2716494	-0.5588581	0	-81.421	-99.463	19.327	B5-03822-P02-CH1	174552	OK	0.6369986	-0.1831778	-0.7487848	0	-72.138	-73.069	0.702	B5-03822-P03-CH0	174552	OK	0.8076797	-0.5718585	0.1436365	0	-92.406	-63.258	8.728	B5-03822-P03-CH1	174552	OK	0.7180895	-0.6494974	0.250001	0	-99.561	-17.454	-17.261	B5-03822-P04-CH0	174552	OK	0.7428529	0.0286635	0.6688408	0	-124.269	-37.283	3.79	B5-03822-P04-CH1	174552	OK	0.7127076	-0.7000427	0.0445882	0	-111.815	-43.587	-7.727	NA
0.74940996806886	B5-03822-P01-CH0	174560	OK	0.2208514	0.0778179	0.0337209	-0.9716131	92.826	-36.617	-274.877	B5-03822-P02-CH0	174560	OK	0.7823931	0.2716266	-0.5604285	0	-80.063	-98.91	17.799	B5-03822-P02-CH1	174560	OK	0.6372242	-0.1828112	-0.7486824	0	-71.43	-72.932	0.851	B5-03822-P03-CH0	174560	OK	0.8064143	-0.5769374	0.1297663	0	-91.999	-61.895	9.409	B5-03822-P03-CH1	174560	OK	0.7176933	-0.6501651	0.2494026	0	-99.592	-17.668	-17.403	B5-03822-P04-CH0	174560	OK	0.7426268	0.0278674	0.6691255	0	-124.239	-37.099	3.381	B5-03822-P04-CH1	174560	OK	0.712581	-0.7001873	0.0443402	0	-111.921	-43.475	-7.998	NA
0.759402100976445	B5-03822-P01-CH0	174568	OK	0.2208843	0.0777376	0.0337428	-0.9716113	92.808	-36.648	-274.79	B5-03822-P02-CH0	174568	OK	0.7798746	0.2691042	-0.5651359	0	-79.938	-98.992	14.692	B5-03822-P02-CH1	174568	OK	0.6365363	-0.1832976	-0.7491485	0	-71.528	-72.579	0.517	B5-03822-P03-CH0	174568	OK	0.8047843	-0.5821748	0.1157355	0	-92.472	-61.447	9.558	B5-03822-P03-CH1	174568	OK	0.7173445	-0.6506436	0.249158	0	-99.585	-17.953	-17.373	B5-03822-P04-CH0	174568	OK	0.7427144	0.0273032	0.6690514	0	-124.315	-37.159	3.314	B5-03822-P04-CH1	174568	OK	0.7124128	-0.700343	0.0445829	0	-111.924	-43.606	-7.825	NA
0.76939423388403	B5-03822-P01-CH0	174576	OK	0.2208572	0.0776759	0.0338645	-0.9716181	92.773	-36.682	-274.79	B5-03822-P02-CH0	174576	OK	0.7765186	0.2649989	-0.5716594	0	-79.892	-98.503	15.891	B5-03822-P02-CH1	174576	OK	0.6371503	-0.1863505	-0.7478723	0	-71.569	-72.757	-0.633	B5-03822-P03-CH0	174576	OK	0.8027482	-0.5872642	0.1035191	0	-92.531	-61.277	8.807	B5-03822-P03-CH1	174576	OK	0.7172109	-0.6508702	0.2489507	0	-99.651	-18.212	-16.982	B5-03822-P04-CH0	174576	OK	0.7426327	0.0264247	0.6691774	0	-124.29	-37.085	3.216	B5-03822-P04-CH1	174576	OK	0.7123706	-0.7003977	0.0443985	0	-111.748	-43.557	-7.903	NA
0.779386366791615	B5-03822-P01-CH0	174584	OK	0.2209263	0.0777203	0.034014	-0.9715936	92.866	-36.713	-274.828	B5-03822-P02-CH0	174584	OK	0.775093	0.2625551	-0.5747135	0	-79.436	-98.124	15.62	B5-03822-P02-CH1	174584	OK	0.6380816	-0.1831364	-0.7478722	0	-71.883	-73.525	0.731	B5-03822-P03-CH0	174584	OK	0.7990778	-0.5942041	0.0916313	0	-92.164	-61.976	7.953	B5-03822-P03-CH1	174584	OK	0.7170706	-0.651108	0.248733	0	-99.736	-18.526	-16.495	B5-03822-P04-CH0	174584	OK	0.7426125	0.0258921	0.6692206	0	-124.455	-37.018	2.964	B5-03822-P04-CH1	174584	OK	0.7125619	-0.700223	0.0440827	0	-111.945	-43.407	-7.813	NA
0.789378499699199	B5-03822-P01-CH0	174592	OK	0.2210305	0.0776071	0.0336711	-0.9715909	92.812	-36.81	-274.745	B5-03822-P02-CH0	174592	OK	0.7756528	0.2619833	-0.574219	0	-78.818	-97.892	11.707	B5-03822-P02-CH1	174592	OK	0.6384275	-0.1835255	-0.7474816	0	-71.672	-73.388	0.156	B5-03822-P03-CH0	174592	OK	0.7962321	-0.5998706	0.0785471	0	-92.027	-62.009	7.817	B5-03822-P03-CH1	174592	OK	0.7167935	-0.6514124	0.2487348	0	-99.71	-18.719	-16.139	B5-03822-P04-CH0	174592	OK	0.7424948	0.0254485	0.6693682	0	-124.474	-36.985	2.578	B5-03822-P04-CH1	174592	OK	0.7123274	-0.7004549	0.044187	0	-111.707	-43.397	-7.919	NA
0.799370632606784	B5-03822-P01-CH0	174600	OK	0.2213687	0.0774709	0.0336518	-0.9715254	92.82	-36.912	-274.835	B5-03822-P02-CH0	174600	OK	0.7741717	0.2572976	-0.5783218	0	-78.839	-98.305	12.248	B5-03822-P02-CH1	174600	OK	0.6389691	-0.1841574	-0.7468631	0	-71.53	-73.398	-0.16	B5-03822-P03-CH0	174600	OK	0.7939918	-0.6041981	0.0672429	0	-91.712	-61.834	7.777	B5-03822-P03-CH1	174600	OK	0.7173171	-0.6513796	0.2473071	0	-99.512	-18.211	-16.545	B5-03822-P04-CH0	174600	OK	0.7426664	0.0253554	0.6691813	0	-124.577	-37.003	2.688	B5-03822-P04-CH1	174600	OK	0.712366	-0.7004024	0.0443972	0	-111.522	-43.467	-7.83	NA
0.809362765514369	B5-03822-P01-CH0	174608	OK	0.2214749	0.077399	0.0339668	-0.971496	92.812	-36.897	-274.822	B5-03822-P02-CH0	174608	OK	0.7722469	0.2534289	-0.5825877	0	-78.927	-98.833	14.57	B5-03822-P02-CH1	174608	OK	0.64252	-0.1790826	-0.7450486	0	-72.197	-74.03	-0.21	B5-03822-P03-CH0	174608	OK	0.7917886	-0.6082552	0.0556455	0	-92.045	-61.54	6.783	B5-03822-P03-CH1	174608	OK	0.7174766	-0.6514906	0.246551	0	-99.416	-18.044	-17.024	B5-03822-P04-CH0	174608	OK	0.7426339	0.025171	0.6692244	0	-124.604	-37.029	2.574	B5-03822-P04-CH1	174608	OK	0.7123862	-0.7003734	0.0445301	0	-111.663	-43.544	-8.08	NA
0.819354898421954	B5-03822-P01-CH0	174616	OK	0.2216782	0.0773435	0.0345947	-0.9714319	92.774	-36.835	-274.762	B5-03822-P02-CH0	174616	OK	0.771076	0.2552152	-0.5833584	0	-78.88	-98.165	13.515	B5-03822-P02-CH1	174616	OK	0.6439043	-0.1787875	-0.7439236	0	-72.411	-73.115	0.545	B5-03822-P03-CH0	174616	OK	0.7894594	-0.6120605	0.0462149	0	-91.75	-61.825	6.434	B5-03822-P03-CH1	174616	OK	0.7175029	-0.6514576	0.2465615	0	-99.231	-18.22	-17.054	B5-03822-P04-CH0	174616	OK	0.7426375	0.0249727	0.6692278	0	-124.531	-36.983	2.693	B5-03822-P04-CH1	174616	OK	0.7127839	-0.6999673	0.0445528	0	-111.596	-43.396	-8.316	NA
0.829347031329539	B5-03822-P01-CH0	174624	OK	0.2216546	0.0771527	0.0347822	-0.9714458	92.751	-36.9	-274.703	B5-03822-P02-CH0	174624	OK	0.7709159	0.2561439	-0.5831629	0	-78.758	-97.812	12.023	B5-03822-P02-CH1	174624	OK	0.6463763	-0.1771364	-0.7421727	0	-72.232	-73.216	-0.936	B5-03822-P03-CH0	174624	OK	0.7890428	-0.6133055	0.0356068	0	-91.753	-60.457	6.064	B5-03822-P03-CH1	174624	OK	0.7176828	-0.6513243	0.2463902	0	-99.307	-18.274	-17.02	B5-03822-P04-CH0	174624	OK	0.7425497	0.024843	0.6693301	0	-124.464	-37.071	2.71	B5-03822-P04-CH1	174624	OK	0.7128674	-0.6998915	0.0444067	0	-111.622	-43.428	-8.174	NA
0.839339164237124	B5-03822-P01-CH0	174632	OK	0.2216603	0.0772974	0.0346256	-0.9714386	92.765	-36.897	-274.519	B5-03822-P02-CH0	174632	OK	0.7693166	0.256384	-0.585166	0	-79.395	-98.111	12.444	B5-03822-P02-CH1	174632	OK	0.6487588	-0.1760786	-0.7403434	0	-71.748	-73.434	-1.234	B5-03822-P03-CH0	174632	OK	0.7870495	-0.6161772	0.0296444	0	-91.507	-60.735	7.012	B5-03822-P03-CH1	174632	OK	0.7178875	-0.6513517	0.2457202	0	-99.354	-17.958	-17.274	B5-03822-P04-CH0	174632	OK	0.7426232	0.0248453	0.6692485	0	-124.535	-36.967	2.634	B5-03822-P04-CH1	174632	OK	0.7129098	-0.6998517	0.0443523	0	-111.596	-43.274	-8.378	NA
0.849331297144708	B5-03822-P01-CH0	174640	OK	0.2218209	0.0774788	0.0344737	-0.9713929	92.881	-36.973	-274.593	B5-03822-P02-CH0	174640	OK	0.7711312	0.2573765	-0.582335	0	-78.394	-98.34	10.739	B5-03822-P02-CH1	174640	OK	0.6478425	-0.1756125	-0.7412559	0	-72.983	-74.213	-1.186	B5-03822-P03-CH0	174640	OK	0.7849102	-0.619053	0.0262562	0	-90.8	-61.223	7.256	B5-03822-P03-CH1	174640	OK	0.7180845	-0.651319	0.2452311	0	-99.41	-17.864	-17.116	B5-03822-P04-CH0	174640	OK	0.7427931	0.025498	0.6690354	0	-124.569	-37.262	2.903	B5-03822-P04-CH1	174640	OK	0.7128709	-0.699852	0.04497	0	-111.597	-43.426	-8.156	NA
0.859323430052293	B5-03822-P01-CH0	174648	OK	0.2216586	0.0775872	0.0339748	-0.9714388	92.893	-37.081	-274.618	B5-03822-P02-CH0	174648	OK	0.7690689	0.2533574	-0.5868075	0	-79.41	-99.466	11.689	B5-03822-P02-CH1	174648	OK	0.6499947	-0.173782	-0.7398018	0	-72.166	-74.599	-0.836	B5-03822-P03-CH0	174648	OK	0.7833046	-0.6213421	0.0191825	0	-91.553	-60.658	7.224	B5-03822-P03-CH1	174648	OK	0.71777	-0.6517765	0.2449358	0	-99.423	-17.976	-16.943	B5-03822-P04-CH0	174648	OK	0.7426994	0.0255673	0.6691367	0	-124.484	-37.337	3.089	B5-03822-P04-CH1	174648	OK	0.7126955	-0.7000536	0.0446117	0	-111.533	-43.314	-8.348	NA
0.869315562959878	B5-03822-P01-CH0	174656	OK	0.2215293	0.0777339	0.0335427	-0.9714716	92.891	-37.104	-274.639	B5-03822-P02-CH0	174656	OK	0.768289	0.2526125	-0.5881487	0	-79.145	-99.207	13.386	B5-03822-P02-CH1	174656	OK	0.6489217	-0.1737803	-0.7407435	0	-72.897	-73.905	0.895	B5-03822-P03-CH0	174656	OK	0.7807401	-0.624679	0.0148679	0	-92.127	-60.473	6.179	B5-03822-P03-CH1	174656	OK	0.7176511	-0.6521142	0.2443847	0	-99.472	-17.778	-17.212	B5-03822-P04-CH0	174656	OK	0.7429281	0.0257646	0.6688752	0	-124.639	-37.271	3.118	B5-03822-P04-CH1	174656	OK	0.7124844	-0.7002791	0.0444429	0	-111.558	-43.236	-8.393	NA
0.879307695867463	B5-03822-P01-CH0	174664	OK	0.2214441	0.0776438	0.0335645	-0.9714975	92.799	-37.187	-274.6	B5-03822-P02-CH0	174664	OK	0.7686141	0.2525939	-0.5877318	0	-78.723	-99.255	13.059	B5-03822-P02-CH1	174664	OK	0.6489078	-0.1731712	-0.7408984	0	-73.047	-73.976	2.449	B5-03822-P03-CH0	174664	OK	0.7780311	-0.6280965	0.0127406	0	-91.842	-61.039	6.109	B5-03822-P03-CH1	174664	OK	0.7175484	-0.6521693	0.2445392	0	-99.395	-17.898	-17.23	B5-03822-P04-CH0	174664	OK	0.742766	0.025951	0.669048	0	-124.511	-37.266	3.054	B5-03822-P04-CH1	174664	OK	0.7124063	-0.7003487	0.0445982	0	-111.455	-43.324	-8.76	NA
0.889299828775048	B5-03822-P01-CH0	174672	OK	0.2214126	0.0777027	0.033747	-0.9714936	92.771	-37.162	-274.57	B5-03822-P02-CH0	174672	OK	0.7689642	0.2550214	-0.5862236	0	-78.518	-99.062	10.201	B5-03822-P02-CH1	174672	OK	0.6504273	-0.1732332	-0.7395502	0	-72.707	-73.967	0.938	B5-03822-P03-CH0	174672	OK	0.7763152	-0.6302315	0.0119571	0	-91.329	-61.233	6.465	B5-03822-P03-CH1	174672	OK	0.7177757	-0.6521082	0.2440345	0	-99.412	-17.72	-17.386	B5-03822-P04-CH0	174672	OK	0.7428373	0.0264669	0.6689486	0	-124.458	-37.402	3.285	B5-03822-P04-CH1	174672	OK	0.7125631	-0.7001939	0.0445235	0	-111.574	-43.19	-9.267	NA
0.899291961682632	B5-03822-P01-CH0	174680	OK	0.2212115	0.0780062	0.0337861	-0.9715138	92.857	-37.15	-274.592	B5-03822-P02-CH0	174680	OK	0.7654975	0.2522963	-0.5919123	0	-79.447	-99.193	13.689	B5-03822-P02-CH1	174680	OK	0.6506142	-0.1723717	-0.7395872	0	-72.913	-74.57	0.953	B5-03822-P03-CH0	174680	OK	0.7754728	-0.6313326	0.0078182	0	-92.359	-60.334	6.349	B5-03822-P03-CH1	174680	OK	0.7175914	-0.6523057	0.2440488	0	-99.539	-17.926	-17.098	B5-03822-P04-CH0	174680	OK	0.7429511	0.0266421	0.6688152	0	-124.501	-37.377	3.389	B5-03822-P04-CH1	174680	OK	0.7125798	-0.7001747	0.0445581	0	-111.79	-43.139	-9.179	NA
0.909284094590217	B5-03822-P01-CH0	174688	OK	0.2211323	0.0780011	0.0334624	-0.9715434	92.818	-37.235	-274.599	B5-03822-P02-CH0	174688	OK	0.7681084	0.252759	-0.5883216	0	-79.083	-99.321	13.956	B5-03822-P02-CH1	174688	OK	0.6519625	-0.1714227	-0.7386198	0	-72.777	-73.744	1.372	B5-03822-P03-CH0	174688	OK	0.7727368	-0.6346755	0.0080552	0	-92.139	-60.84	5.189	B5-03822-P03-CH1	174688	OK	0.7173093	-0.6526088	0.2440677	0	-99.526	-18.044	-17.127	B5-03822-P04-CH0	174688	OK	0.7429462	0.0270313	0.6688051	0	-124.456	-37.438	3.395	B5-03822-P04-CH1	174688	OK	0.7125215	-0.7002277	0.0446577	0	-111.814	-43.043	-9.332	NA
0.919276227497802	B5-03822-P01-CH0	174696	OK	0.2207842	0.0778469	0.0330865	-0.9716478	92.725	-37.368	-274.512	B5-03822-P02-CH0	174696	OK	0.7677523	0.2530491	-0.5886617	0	-79.085	-99.28	13.599	B5-03822-P02-CH1	174696	OK	0.6509845	-0.1697295	-0.7398724	0	-74.002	-74.032	0.388	B5-03822-P03-CH0	174696	OK	0.7721535	-0.635405	0.0062751	0	-91.884	-60.276	6.695	B5-03822-P03-CH1	174696	OK	0.7174038	-0.6527774	0.2433383	0	-99.66	-17.748	-17.523	B5-03822-P04-CH0	174696	OK	0.7429216	0.026921	0.6688369	0	-124.495	-37.323	3.006	B5-03822-P04-CH1	174696	OK	0.712229	-0.7005379	0.0444569	0	-111.681	-43.097	-9.458	NA
0.929268360405387	B5-03822-P01-CH0	174704	OK	0.2205952	0.0779789	0.0323769	-0.9717041	92.74	-37.507	-274.489	B5-03822-P02-CH0	174704	OK	0.7675105	0.2525445	-0.5891934	0	-79.091	-99.509	13.708	B5-03822-P02-CH1	174704	OK	0.6532457	-0.1697459	-0.7378729	0	-73.035	-73.764	0.99	B5-03822-P03-CH0	174704	OK	0.7693666	-0.6387712	0.0068087	0	-91.49	-60.907	4.558	B5-03822-P03-CH1	174704	OK	0.7165409	-0.6535574	0.2437866	0	-99.509	-18.169	-17.144	B5-03822-P04-CH0	174704	OK	0.7429374	0.0272103	0.6688076	0	-124.479	-37.458	2.981	B5-03822-P04-CH1	174704	OK	0.7114828	-0.7012759	0.0447704	0	-111.645	-43.408	-9.501	NA
0.939260493312971	B5-03822-P01-CH0	174712	OK	0.2206533	0.0779876	0.0324968	-0.9716862	92.746	-37.555	-274.569	B5-03822-P02-CH0	174712	OK	0.7671522	0.2519718	-0.5899049	0	-79.026	-99.731	13.717	B5-03822-P02-CH1	174712	OK	0.652484	-0.1698292	-0.7385274	0	-73.623	-74.143	0.447	B5-03822-P03-CH0	174712	OK	0.7701988	-0.6377929	0.0037399	0	-92.764	-59.416	3.257	B5-03822-P03-CH1	174712	OK	0.7164659	-0.6536297	0.2438131	0	-99.578	-18.302	-17.216	B5-03822-P04-CH0	174712	OK	0.7428892	0.0275132	0.6688488	0	-124.35	-37.441	3.157	B5-03822-P04-CH1	174712	OK	0.7114659	-0.7012825	0.0449338	0	-111.666	-43.481	-9.425	NA
0.949252626220556	B5-03822-P01-CH0	174720	OK	0.2206041	0.0778647	0.0329251	-0.9716928	92.681	-37.509	-274.565	B5-03822-P02-CH0	174720	OK	0.766659	0.2523845	-0.5903694	0	-79.036	-99.515	13.519	B5-03822-P02-CH1	174720	OK	0.6528255	-0.1697623	-0.738241	0	-73.577	-73.714	0.051	B5-03822-P03-CH0	174720	OK	0.7700134	-0.6380241	0.0021416	0	-92.518	-58.942	4.402	B5-03822-P03-CH1	174720	OK	0.7166443	-0.6535038	0.243626	0	-99.559	-18.192	-17.298	B5-03822-P04-CH0	174720	OK	0.743056	0.0274771	0.6686649	0	-124.459	-37.372	2.949	B5-03822-P04-CH1	174720	OK	0.7114115	-0.7013296	0.0450614	0	-111.569	-43.609	-9.25	NA
0.959244759128141	B5-03822-P01-CH0	174728	OK	0.2206752	0.0778855	0.033617	-0.9716513	92.724	-37.447	-274.575	B5-03822-P02-CH0	174728	OK	0.7663157	0.2530895	-0.5905134	0	-79.055	-99.292	12.972	B5-03822-P02-CH1	174728	OK	0.6515343	-0.1707993	-0.7391418	0	-73.306	-73.716	0.383	B5-03822-P03-CH0	174728	OK	0.7687762	-0.6395152	0.0018816	0	-92.248	-59.371	3.895	B5-03822-P03-CH1	174728	OK	0.7168954	-0.6533007	0.243432	0	-99.509	-18.124	-17.339	B5-03822-P04-CH0	174728	OK	0.743181	0.0278719	0.6685096	0	-124.562	-37.373	2.766	B5-03822-P04-CH1	174728	OK	0.7119468	-0.7007947	0.0449278	0	-111.744	-43.438	-9.246	NA
0.969236892035726	B5-03822-P01-CH0	174736	OK	0.2206514	0.077654	0.0345563	-0.9716422	92.71	-37.421	-274.504	B5-03822-P02-CH0	174736	OK	0.7658742	0.2536301	-0.5908541	0	-79.214	-99.17	12.32	B5-03822-P02-CH1	174736	OK	0.6523843	-0.1703832	-0.7384878	0	-73.333	-73.676	-0.111	B5-03822-P03-CH0	174736	OK	0.7688686	-0.6394058	0.0010956	0	-92.154	-59.788	4.226	B5-03822-P03-CH1	174736	OK	0.7170724	-0.6529614	0.2438208	0	-99.422	-18.403	-17.036	B5-03822-P04-CH0	174736	OK	0.743014	0.0280618	0.6686874	0	-124.462	-37.334	2.647	B5-03822-P04-CH1	174736	OK	0.7126165	-0.7001173	0.0448708	0	-111.901	-43.313	-9.286	NA
0.979229024943311	B5-03822-P01-CH0	174744	OK	0.2206235	0.0777208	0.0347665	-0.9716358	92.708	-37.365	-274.432	B5-03822-P02-CH0	174744	OK	0.7656551	0.2534135	-0.5912308	0	-79.308	-99.185	12.232	B5-03822-P02-CH1	174744	OK	0.6530513	-0.169926	-0.7380035	0	-73.377	-73.599	-0.599	B5-03822-P03-CH0	174744	OK	0.7691776	-0.6390315	-0.00214	0	-91.644	-59.773	4.551	B5-03822-P03-CH1	174744	OK	0.7173994	-0.6530278	0.2426784	0	-99.34	-17.884	-17.541	B5-03822-P04-CH0	174744	OK	0.7431322	0.0279348	0.6685612	0	-124.479	-37.29	2.623	B5-03822-P04-CH1	174744	OK	0.7126972	-0.7000368	0.0448474	0	-111.781	-43.245	-9.028	NA
