Wav.Time	B5.03822.P01.CH0	Frame	State	Q0	Qx	Qy	Qz	Tx	Ty	Tz	B5.03822.P02.CH0	Frame.1	State.1	Q0.1	Qx.1	Qy.1	Qz.1	Tx.1	Ty.1	Tz.1	B5.03822.P02.CH1	Frame.2	State.2	Q0.2	Qx.2	Qy.2	Qz.2	Tx.2	Ty.2	Tz.2	B5.03822.P03.CH0	Frame.3	State.3	Q0.3	Qx.3	Qy.3	Qz.3	Tx.3	Ty.3	Tz.3	B5.03822.P03.CH1	Frame.4	State.4	Q0.4	Qx.4	Qy.4	Qz.4	Tx.4	Ty.4	Tz.4	B5.03822.P04.CH0	Frame.5	State.5	Q0.5	Qx.5	Qy.5	Qz.5	Tx.5	Ty.5	Tz.5	B5.03822.P04.CH1	Frame.6	State.6	Q0.6	Qx.6	Qy.6	Qz.6	Tx.6	Ty.6	Tz.6	X
0	B5-03822-P01-CH0	1339576	OK	0.207579	0.0930716	0.0898977	-0.9696221	156.067	-25.35	-265.76	B5-03822-P02-CH0	1339576	OK	0.8073885	0.3103953	-0.5017753	0	-90.299	-94.972	6.186	B5-03822-P02-CH1	1339576	OK	0.800505	-0.2767912	-0.531581	0	-83.679	-73.24	-2.078	B5-03822-P03-CH0	1339576	OK	0.8152131	-0.320855	-0.4821615	0	-95.667	-54.503	1.912	B5-03822-P03-CH1	1339576	OK	0.7017291	-0.7113101	0.0401764	0	-99.158	-9.062	-1.983	B5-03822-P04-CH0	1339576	OK	0.7321505	-0.4178037	0.5379551	0	-126.051	-35.489	9.013	B5-03822-P04-CH1	1339576	OK	0.8034008	-0.5942704	0.0372813	0	-109.482	-40.947	-1.188	NA
0.00999183673469388	B5-03822-P01-CH0	1339584	OK	0.2076366	0.0929375	0.0899329	-0.9696194	155.997	-25.337	-265.749	B5-03822-P02-CH0	1339584	OK	0.8084516	0.3013577	-0.5055586	0	-90.215	-95.07	5.329	B5-03822-P02-CH1	1339584	OK	0.8043109	-0.2779466	-0.5251949	0	-83.072	-73.248	-1.665	B5-03822-P03-CH0	1339584	OK	0.813422	-0.31661	-0.4879578	0	-94.665	-53.854	1.106	B5-03822-P03-CH1	1339584	OK	0.7010128	-0.7119649	0.0410727	0	-99.225	-9.332	-1.909	B5-03822-P04-CH0	1339584	OK	0.7316364	-0.415658	0.5403115	0	-125.653	-35.066	8.324	B5-03822-P04-CH1	1339584	OK	0.8033863	-0.5943033	0.0370691	0	-109.453	-40.941	-1.367	NA
0.0199836734693878	B5-03822-P01-CH0	1339592	OK	0.2076636	0.0930096	0.0893618	-0.9696595	155.965	-25.319	-265.743	B5-03822-P02-CH0	1339592	OK	0.8105717	0.2949994	-0.5059138	0	-89.415	-93.903	4.541	B5-03822-P02-CH1	1339592	OK	0.8055949	-0.2788599	-0.522737	0	-83.721	-73.124	-1.452	B5-03822-P03-CH0	1339592	OK	0.8113519	-0.3130129	-0.4936913	0	-93.453	-53.865	1.407	B5-03822-P03-CH1	1339592	OK	0.6996209	-0.7132574	0.0423618	0	-99.322	-9.795	-1.736	B5-03822-P04-CH0	1339592	OK	0.7314431	-0.4084562	0.5460352	0	-126.162	-37.144	10.774	B5-03822-P04-CH1	1339592	OK	0.8031093	-0.5946835	0.0369724	0	-109.294	-40.855	-1.449	NA
0.0299755102040816	B5-03822-P01-CH0	1339600	OK	0.207831	0.0931175	0.0892828	-0.9696205	156.008	-25.323	-265.715	B5-03822-P02-CH0	1339600	OK	0.8110324	0.2836011	-0.5116609	0	-90.265	-94.693	5.922	B5-03822-P02-CH1	1339600	OK	0.807408	-0.2807534	-0.5189121	0	-84.053	-72.918	-1.463	B5-03822-P03-CH0	1339600	OK	0.8079376	-0.3107937	-0.5006436	0	-93.138	-54.405	1.975	B5-03822-P03-CH1	1339600	OK	0.6990399	-0.7138231	0.0424235	0	-99.202	-9.933	-1.561	B5-03822-P04-CH0	1339600	OK	0.7316699	-0.4100129	0.5445628	0	-124.906	-34.61	9.888	B5-03822-P04-CH1	1339600	OK	0.8030833	-0.5947268	0.0368397	0	-109.335	-40.898	-1.394	NA
0.0399673469387755	B5-03822-P01-CH0	1339608	OK	0.2073761	0.0934228	0.0883056	-0.969778	156.108	-25.415	-265.789	B5-03822-P02-CH0	1339608	OK	0.8127897	0.2793322	-0.5112205	0	-89.631	-93.321	6.469	B5-03822-P02-CH1	1339608	OK	0.8070484	-0.283065	-0.5182152	0	-85.154	-72.598	-2.297	B5-03822-P03-CH0	1339608	OK	0.8025874	-0.3104377	-0.5093936	0	-94.331	-54.198	1.499	B5-03822-P03-CH1	1339608	OK	0.6979019	-0.7149766	0.0417294	0	-99.187	-9.983	-1.399	B5-03822-P04-CH0	1339608	OK	0.7309305	-0.4009707	0.5522347	0	-126.549	-38.487	12.176	B5-03822-P04-CH1	1339608	OK	0.8024686	-0.5956018	0.0360928	0	-109.294	-40.9	-1.338	NA
0.0499591836734694	B5-03822-P01-CH0	1339616	OK	0.2074172	0.0933804	0.0887302	-0.9697346	156.093	-25.32	-265.768	B5-03822-P02-CH0	1339616	OK	0.8150482	0.2712593	-0.5119716	0	-89.175	-93.898	6.107	B5-03822-P02-CH1	1339616	OK	0.8073007	-0.2866375	-0.5158533	0	-84.787	-72.49	-2.818	B5-03822-P03-CH0	1339616	OK	0.8002866	-0.3080704	-0.5144259	0	-94.327	-53.589	1.321	B5-03822-P03-CH1	1339616	OK	0.6978582	-0.7150409	0.0413585	0	-99.142	-9.903	-1.307	B5-03822-P04-CH0	1339616	OK	0.7312498	-0.4047402	0.549053	0	-125.024	-35.143	9.922	B5-03822-P04-CH1	1339616	OK	0.802758	-0.5952259	0.0358559	0	-109.221	-40.849	-1.069	NA
0.0599510204081633	B5-03822-P01-CH0	1339624	OK	0.2079047	0.0930293	0.0899893	-0.9695479	155.995	-25.106	-265.769	B5-03822-P02-CH0	1339624	OK	0.8154621	0.2698075	-0.5120796	0	-88.317	-92.773	5.482	B5-03822-P02-CH1	1339624	OK	0.806319	-0.2918163	-0.5144832	0	-84.355	-72.26	-2.95	B5-03822-P03-CH0	1339624	OK	0.7995716	-0.309865	-0.5144599	0	-93.462	-53.04	0.194	B5-03822-P03-CH1	1339624	OK	0.6981433	-0.7147377	0.0417838	0	-99.187	-9.94	-1.315	B5-03822-P04-CH0	1339624	OK	0.7315655	-0.4080052	0.5462084	0	-123.694	-31.988	6.881	B5-03822-P04-CH1	1339624	OK	0.8036215	-0.5940561	0.035914	0	-109.134	-40.61	-1.292	NA
0.0699428571428571	B5-03822-P01-CH0	1339632	OK	0.2073797	0.0930303	0.0893157	-0.9697225	155.877	-25.065	-265.7	B5-03822-P02-CH0	1339632	OK	0.8153054	0.2672353	-0.5136754	0	-88.73	-92.378	3.635	B5-03822-P02-CH1	1339632	OK	0.8017144	-0.2976547	-0.5183201	0	-84.823	-72.082	-2.501	B5-03822-P03-CH0	1339632	OK	0.7973222	-0.3131828	-0.5159398	0	-93.09	-52.946	0.332	B5-03822-P03-CH1	1339632	OK	0.6964411	-0.7164723	0.0404645	0	-98.958	-10.167	-1.252	B5-03822-P04-CH0	1339632	OK	0.7315622	-0.4017564	0.5508254	0	-124.482	-33.755	8.947	B5-03822-P04-CH1	1339632	OK	0.8031559	-0.5947258	0.0352388	0	-109.013	-40.439	-1.269	NA
0.079934693877551	B5-03822-P01-CH0	1339640	OK	0.2070172	0.0929258	0.0891907	-0.9698215	155.807	-25.016	-265.676	B5-03822-P02-CH0	1339640	OK	0.815585	0.268191	-0.5127325	0	-88.84	-92.493	5.633	B5-03822-P02-CH1	1339640	OK	0.7973413	-0.3011137	-0.5230462	0	-83.839	-71.664	-1.616	B5-03822-P03-CH0	1339640	OK	0.7946517	-0.3159037	-0.5183952	0	-92.816	-52.358	-0.244	B5-03822-P03-CH1	1339640	OK	0.6953064	-0.7176425	0.0392211	0	-98.978	-10.29	-1.093	B5-03822-P04-CH0	1339640	OK	0.7325074	-0.3966564	0.55326	0	-125.467	-34.381	8.861	B5-03822-P04-CH1	1339640	OK	0.8029166	-0.5950684	0.0349092	0	-108.919	-40.436	-1.198	NA
0.0899265306122449	B5-03822-P01-CH0	1339648	OK	0.2069862	0.0931023	0.089189	-0.9698113	155.877	-24.955	-265.664	B5-03822-P02-CH0	1339648	OK	0.8154719	0.2735697	-0.510064	0	-88.722	-92.136	5.381	B5-03822-P02-CH1	1339648	OK	0.7907573	-0.3060938	-0.5301032	0	-82.588	-71.928	-3.116	B5-03822-P03-CH0	1339648	OK	0.7909852	-0.3214151	-0.5206101	0	-92.147	-53.117	-0.306	B5-03822-P03-CH1	1339648	OK	0.6935945	-0.7193142	0.0389053	0	-99.159	-10.914	-0.616	B5-03822-P04-CH0	1339648	OK	0.7319212	-0.3960316	0.5544821	0	-125.375	-34.436	7.663	B5-03822-P04-CH1	1339648	OK	0.8028674	-0.5951426	0.0347739	0	-109.017	-40.407	-1.17	NA
0.0999183673469388	B5-03822-P01-CH0	1339656	OK	0.2066715	0.0932538	0.0884199	-0.9699343	155.914	-24.96	-265.644	B5-03822-P02-CH0	1339656	OK	0.8148887	0.2785714	-0.5082858	0	-89.376	-92.769	5.101	B5-03822-P02-CH1	1339656	OK	0.7836863	-0.3085871	-0.5390823	0	-81.944	-71.668	-4.067	B5-03822-P03-CH0	1339656	OK	0.7861727	-0.3260034	-0.5250278	0	-91.996	-53.066	-0.307	B5-03822-P03-CH1	1339656	OK	0.6894368	-0.7238415	0.0270252	0	-99.528	-9.68	0.621	B5-03822-P04-CH0	1339656	OK	0.7316349	-0.4000316	0.5519829	0	-126.199	-36.285	10.779	B5-03822-P04-CH1	1339656	OK	0.8024251	-0.5957654	0.0343148	0	-109.099	-40.33	-0.976	NA
0.109910204081633	B5-03822-P01-CH0	1339664	OK	0.2067812	0.0932887	0.0889709	-0.9698572	155.927	-24.806	-265.549	B5-03822-P02-CH0	1339664	OK	0.8147748	0.2880694	-0.5031482	0	-89.422	-92.374	5.262	B5-03822-P02-CH1	1339664	OK	0.7779114	-0.3077487	-0.5478545	0	-81.838	-71.386	-3.303	B5-03822-P03-CH0	1339664	OK	0.7817008	-0.3287635	-0.5299608	0	-91.478	-52.753	-0.75	B5-03822-P03-CH1	1339664	OK	0.692088	-0.7215646	0.018941	0	-99.053	-7.097	-1.591	B5-03822-P04-CH0	1339664	OK	0.7320357	-0.3986006	0.5524864	0	-125.93	-35.724	10.639	B5-03822-P04-CH1	1339664	OK	0.8026448	-0.59548	0.034132	0	-109.174	-40.215	-1.048	NA
0.119902040816327	B5-03822-P01-CH0	1339672	OK	0.2067026	0.0933466	0.0889261	-0.9698725	155.998	-24.797	-265.549	B5-03822-P02-CH0	1339672	OK	0.8157495	0.295504	-0.4972224	0	-89.706	-92.36	6.529	B5-03822-P02-CH1	1339672	OK	0.7743597	-0.3048774	-0.5544519	0	-81.116	-71.821	-3.953	B5-03822-P03-CH0	1339672	OK	0.7763258	-0.3346873	-0.5341374	0	-90.556	-53.856	-1.913	B5-03822-P03-CH1	1339672	OK	0.6907245	-0.7229016	0.0176921	0	-99.322	-7.784	-0.979	B5-03822-P04-CH0	1339672	OK	0.7323619	-0.3979617	0.5525147	0	-125.752	-35.124	10.205	B5-03822-P04-CH1	1339672	OK	0.8026253	-0.5955306	0.0337025	0	-109.364	-40.19	-0.886	NA
0.12989387755102	B5-03822-P01-CH0	1339680	OK	0.2061978	0.0935358	0.0878382	-0.9700608	156.015	-24.856	-265.541	B5-03822-P02-CH0	1339680	OK	0.8177143	0.3024231	-0.4897791	0	-90.436	-92.824	6.675	B5-03822-P02-CH1	1339680	OK	0.7727736	-0.2993607	-0.5596464	0	-79.941	-72.432	-2.503	B5-03822-P03-CH0	1339680	OK	0.7704891	-0.339335	-0.5396279	0	-89.956	-53.022	-2.209	B5-03822-P03-CH1	1339680	OK	0.6879563	-0.7256426	0.0126099	0	-99.065	-8.463	-1.14	B5-03822-P04-CH0	1339680	OK	0.732338	-0.3975947	0.5528106	0	-125.645	-34.963	10.227	B5-03822-P04-CH1	1339680	OK	0.8018409	-0.5966159	0.0331746	0	-109.431	-40.308	-0.534	NA
0.139885714285714	B5-03822-P01-CH0	1339688	OK	0.2061938	0.0934556	0.0882037	-0.9700362	155.996	-24.833	-265.526	B5-03822-P02-CH0	1339688	OK	0.8192569	0.3138008	-0.4799449	0	-90.801	-91.903	7.459	B5-03822-P02-CH1	1339688	OK	0.7717251	-0.2906184	-0.5656689	0	-79.306	-71.184	-5.111	B5-03822-P03-CH0	1339688	OK	0.7646556	-0.3473403	-0.5428227	0	-89.546	-52.673	-3.14	B5-03822-P03-CH1	1339688	OK	0.6909279	-0.7229125	0.0040127	0	-98.685	-5.347	-2.378	B5-03822-P04-CH0	1339688	OK	0.7381383	-0.3935646	0.5479587	0	-125.874	-34.127	9.557	B5-03822-P04-CH1	1339688	OK	0.8020449	-0.5963522	0.0329862	0	-109.473	-40.255	-0.49	NA
0.149877551020408	B5-03822-P01-CH0	1339696	OK	0.2062918	0.093521	0.088178	-0.9700114	155.989	-24.802	-265.429	B5-03822-P02-CH0	1339696	OK	0.8217063	0.3195363	-0.471906	0	-92.195	-93.004	10.877	B5-03822-P02-CH1	1339696	OK	0.7681793	-0.2831348	-0.5742257	0	-79.695	-71.639	-2.879	B5-03822-P03-CH0	1339696	OK	0.7587321	-0.3560958	-0.5454553	0	-88.788	-52.016	-2.276	B5-03822-P03-CH1	1339696	OK	0.6896516	-0.7241406	0.0009764	0	-98.883	-4.761	-2.736	B5-03822-P04-CH0	1339696	OK	0.7405501	-0.3965654	0.542514	0	-124.615	-33.156	9.035	B5-03822-P04-CH1	1339696	OK	0.8019064	-0.5965306	0.0331273	0	-109.493	-40.23	-0.742	NA
0.159869387755102	B5-03822-P01-CH0	1339704	OK	0.2058647	0.0937712	0.0874594	-0.970143	156.07	-24.932	-265.466	B5-03822-P02-CH0	1339704	OK	0.8263494	0.3246857	-0.4601369	0	-93.127	-94.536	12.58	B5-03822-P02-CH1	1339704	OK	0.764794	-0.2734574	-0.5833619	0	-79.554	-71.422	-3.775	B5-03822-P03-CH0	1339704	OK	0.7518019	-0.3665685	-0.5481071	0	-88.218	-52.992	-3.04	B5-03822-P03-CH1	1339704	OK	0.6851851	-0.7283414	0.0063439	0	-100.407	-6.505	-0.148	B5-03822-P04-CH0	1339704	OK	0.7427089	-0.3970678	0.5391852	0	-124.504	-34.379	10.693	B5-03822-P04-CH1	1339704	OK	0.8014692	-0.5971323	0.0328655	0	-109.504	-40.247	-0.646	NA
0.169861224489796	B5-03822-P01-CH0	1339712	OK	0.2057025	0.0936121	0.0870375	-0.9702308	156.051	-25.104	-265.571	B5-03822-P02-CH0	1339712	OK	0.830062	0.3351128	-0.4457539	0	-93.945	-94.071	14.465	B5-03822-P02-CH1	1339712	OK	0.7611105	-0.2631687	-0.5928348	0	-78.63	-71.219	-4.265	B5-03822-P03-CH0	1339712	OK	0.7479623	-0.3784446	-0.5452817	0	-87.655	-52.22	-4.847	B5-03822-P03-CH1	1339712	OK	0.6834555	-0.7299766	0.0047705	0	-99.984	-5.874	-0.348	B5-03822-P04-CH0	1339712	OK	0.744838	-0.4007753	0.5334749	0	-124.02	-33.458	9.795	B5-03822-P04-CH1	1339712	OK	0.8013139	-0.5973445	0.0327966	0	-109.595	-40.305	-0.51	NA
0.17985306122449	B5-03822-P01-CH0	1339720	OK	0.2061896	0.0932991	0.0883143	-0.9700421	155.992	-25.026	-265.617	B5-03822-P02-CH0	1339720	OK	0.8333252	0.3394351	-0.4362945	0	-95.909	-96.047	14.219	B5-03822-P02-CH1	1339720	OK	0.7577104	-0.2561482	-0.6002192	0	-78.403	-71.755	-3.861	B5-03822-P03-CH0	1339720	OK	0.7480743	-0.3945546	-0.5335837	0	-86.737	-52.612	-2.868	B5-03822-P03-CH1	1339720	OK	0.6805462	-0.7326682	0.0073536	0	-99.925	-6.835	-0.207	B5-03822-P04-CH0	1339720	OK	0.7479127	-0.3984115	0.5309378	0	-124.483	-33.918	10.346	B5-03822-P04-CH1	1339720	OK	0.8022022	-0.5961234	0.0332951	0	-109.666	-40.227	-0.555	NA
0.189844897959184	B5-03822-P01-CH0	1339728	OK	0.2063937	0.0929847	0.0892006	-0.9699478	155.874	-25.01	-265.614	B5-03822-P02-CH0	1339728	OK	0.8362966	0.348524	-0.4232482	0	-96.447	-95.543	15.883	B5-03822-P02-CH1	1339728	OK	0.75485	-0.2499687	-0.6063968	0	-78.842	-71.871	-4.031	B5-03822-P03-CH0	1339728	OK	0.7529893	-0.4099315	-0.5147459	0	-86.682	-52.77	-2.99	B5-03822-P03-CH1	1339728	OK	0.6807366	-0.7324979	0.0066733	0	-99.359	-5.719	0.21	B5-03822-P04-CH0	1339728	OK	0.7489108	-0.399429	0.5287619	0	-124.388	-34.202	8.753	B5-03822-P04-CH1	1339728	OK	0.8027727	-0.5953303	0.0337329	0	-109.606	-40.174	-0.702	NA
0.199836734693878	B5-03822-P01-CH0	1339736	OK	0.2058686	0.0930641	0.088593	-0.9701074	155.764	-25.082	-265.489	B5-03822-P02-CH0	1339736	OK	0.8403724	0.350132	-0.4137413	0	-97.532	-96.942	17.344	B5-03822-P02-CH1	1339736	OK	0.7537792	-0.2465985	-0.6091027	0	-78.059	-71.378	-4.769	B5-03822-P03-CH0	1339736	OK	0.7611604	-0.4251555	-0.4897731	0	-87.092	-52.318	-2.895	B5-03822-P03-CH1	1339736	OK	0.686222	-0.7273897	0.0018762	0	-98.769	-0.535	-0.463	B5-03822-P04-CH0	1339736	OK	0.7510747	-0.4015995	0.5240273	0	-124.354	-32.65	8.864	B5-03822-P04-CH1	1339736	OK	0.8025855	-0.5955917	0.0335702	0	-109.667	-39.963	-0.755	NA
0.209828571428571	B5-03822-P01-CH0	1339744	OK	0.2057064	0.0928229	0.0886692	-0.970158	155.7	-25.183	-265.612	B5-03822-P02-CH0	1339744	OK	0.8429139	0.3507331	-0.4080227	0	-98.778	-97.999	21.516	B5-03822-P02-CH1	1339744	OK	0.7517101	-0.2457358	-0.6120015	0	-77.317	-71.961	-4.776	B5-03822-P03-CH0	1339744	OK	0.7712159	-0.4411372	-0.458938	0	-87.479	-53.47	-2.139	B5-03822-P03-CH1	1339744	OK	0.6752027	-0.7373888	0.0189491	0	-99.713	-6.247	1.135	B5-03822-P04-CH0	1339744	OK	0.7510082	-0.4021752	0.523681	0	-124.307	-33.753	9.398	B5-03822-P04-CH1	1339744	OK	0.8028093	-0.5952711	0.0339058	0	-109.501	-39.825	-1.019	NA
0.219820408163265	B5-03822-P01-CH0	1339752	OK	0.2055323	0.092844	0.0886987	-0.9701902	155.641	-25.197	-265.56	B5-03822-P02-CH0	1339752	OK	0.8471873	0.3573985	-0.3931156	0	-98.154	-97.872	20.555	B5-03822-P02-CH1	1339752	OK	0.7493826	-0.2468321	-0.61441	0	-76.909	-71.318	-4.842	B5-03822-P03-CH0	1339752	OK	0.7844847	-0.4521172	-0.4244688	0	-86.952	-53.527	-2.345	B5-03822-P03-CH1	1339752	OK	0.6724762	-0.7397513	0.0233183	0	-99.701	-7.126	1.51	B5-03822-P04-CH0	1339752	OK	0.7509085	-0.4056682	0.5211235	0	-123.784	-33.251	8.539	B5-03822-P04-CH1	1339752	OK	0.8029083	-0.5951093	0.0343981	0	-109.535	-39.742	-1.127	NA
0.229812244897959	B5-03822-P01-CH0	1339760	OK	0.2052424	0.0929045	0.0881488	-0.9702959	155.557	-25.265	-265.392	B5-03822-P02-CH0	1339760	OK	0.849981	0.3579166	-0.3865591	0	-99.125	-98.619	22.334	B5-03822-P02-CH1	1339760	OK	0.7471925	-0.2457428	-0.6175062	0	-76.645	-71.504	-4.908	B5-03822-P03-CH0	1339760	OK	0.7955997	-0.4591255	-0.3952529	0	-88.12	-54.638	-0.426	B5-03822-P03-CH1	1339760	OK	0.6716265	-0.7404258	0.0262208	0	-99.894	-7.644	3.139	B5-03822-P04-CH0	1339760	OK	0.7507485	-0.4068456	0.5204357	0	-124.399	-33.655	7.567	B5-03822-P04-CH1	1339760	OK	0.8026497	-0.5954205	0.0350417	0	-109.538	-39.69	-1.54	NA
0.239804081632653	B5-03822-P01-CH0	1339768	OK	0.2053925	0.092987	0.0882421	-0.9702477	155.573	-25.261	-265.297	B5-03822-P02-CH0	1339768	OK	0.8532759	0.3622991	-0.3750462	0	-99.074	-98.781	20.772	B5-03822-P02-CH1	1339768	OK	0.7473396	-0.2405394	-0.6193741	0	-75.605	-70.871	-5.765	B5-03822-P03-CH0	1339768	OK	0.8055573	-0.4600541	-0.3734002	0	-89.493	-54.775	-0.463	B5-03822-P03-CH1	1339768	OK	0.6755254	-0.737003	0.0221821	0	-99.034	-5.42	-0.013	B5-03822-P04-CH0	1339768	OK	0.7516186	-0.4079705	0.5182949	0	-124.541	-33.606	8.853	B5-03822-P04-CH1	1339768	OK	0.802858	-0.595074	0.0361393	0	-109.781	-39.861	-1.257	NA
0.249795918367347	B5-03822-P01-CH0	1339776	OK	0.2055223	0.0931056	0.0886312	-0.9701734	155.639	-25.219	-265.291	B5-03822-P02-CH0	1339776	OK	0.8551315	0.3637795	-0.3693435	0	-99.71	-99.877	23.63	B5-03822-P02-CH1	1339776	OK	0.7457618	-0.2383115	-0.622131	0	-75.874	-71.838	-5.121	B5-03822-P03-CH0	1339776	OK	0.8123987	-0.4578992	-0.3610218	0	-88.44	-55.291	0.318	B5-03822-P03-CH1	1339776	OK	0.6748814	-0.7373873	0.0281969	0	-99.611	-7.552	1.434	B5-03822-P04-CH0	1339776	OK	0.7517323	-0.4055253	0.5200459	0	-125.294	-35.297	10.124	B5-03822-P04-CH1	1339776	OK	0.8032366	-0.5945094	0.0370061	0	-109.924	-39.939	-1.058	NA
0.259787755102041	B5-03822-P01-CH0	1339784	OK	0.2057649	0.0931604	0.0888662	-0.9700952	155.655	-25.15	-265.232	B5-03822-P02-CH0	1339784	OK	0.8557495	0.3693177	-0.3623495	0	-100.187	-100.013	24.645	B5-03822-P02-CH1	1339784	OK	0.7435741	-0.2380804	-0.6248322	0	-76.649	-71.278	-4.484	B5-03822-P03-CH0	1339784	OK	0.8123555	-0.4537187	-0.3663576	0	-88.909	-54.791	0.767	B5-03822-P03-CH1	1339784	OK	0.6753729	-0.7368792	0.0296716	0	-98.917	-8.975	0.611	B5-03822-P04-CH0	1339784	OK	0.7507912	-0.4045109	0.5221911	0	-124.131	-33.281	9.092	B5-03822-P04-CH1	1339784	OK	0.803339	-0.5943027	0.0380894	0	-109.94	-40.048	-1.213	NA
0.269779591836735	B5-03822-P01-CH0	1339792	OK	0.2059896	0.0934271	0.0891769	-0.9699934	155.703	-25.051	-264.971	B5-03822-P02-CH0	1339792	OK	0.857457	0.3756939	-0.3515986	0	-99.726	-99.779	23.702	B5-03822-P02-CH1	1339792	OK	0.7435684	-0.2402231	-0.6240183	0	-75.98	-70.562	-5.688	B5-03822-P03-CH0	1339792	OK	0.8083369	-0.451031	-0.3783683	0	-88.172	-55.477	1.033	B5-03822-P03-CH1	1339792	OK	0.680478	-0.7319348	0.0349439	0	-99.646	-8.755	0.897	B5-03822-P04-CH0	1339792	OK	0.7515382	-0.405305	0.520498	0	-124.352	-33.095	8.438	B5-03822-P04-CH1	1339792	OK	0.8036405	-0.5938493	0.0387941	0	-110.084	-39.952	-1.605	NA
0.279771428571429	B5-03822-P01-CH0	1339800	OK	0.2058989	0.0936332	0.0881751	-0.9700843	155.76	-25.168	-264.884	B5-03822-P02-CH0	1339800	OK	0.8579753	0.3797578	-0.3459226	0	-99.897	-99.855	24.304	B5-03822-P02-CH1	1339800	OK	0.7428227	-0.2485056	-0.6216586	0	-76.107	-71.028	-4.913	B5-03822-P03-CH0	1339800	OK	0.8003873	-0.4437808	-0.403037	0	-89.106	-54.946	0.54	B5-03822-P03-CH1	1339800	OK	0.686219	-0.7265492	0.0350672	0	-99.643	-7.538	1.038	B5-03822-P04-CH0	1339800	OK	0.7513835	-0.4070298	0.5193743	0	-124.417	-33.139	8.228	B5-03822-P04-CH1	1339800	OK	0.803031	-0.594635	0.0393764	0	-110.136	-40.148	-1.665	NA
0.289763265306122	B5-03822-P01-CH0	1339808	OK	0.2060611	0.0936973	0.0879951	-0.97006	155.811	-25.13	-264.781	B5-03822-P02-CH0	1339808	OK	0.8576556	0.3782396	-0.3483701	0	-100.731	-100.976	25.484	B5-03822-P02-CH1	1339808	OK	0.7438171	-0.2564601	-0.6172231	0	-76.095	-71.449	-6.594	B5-03822-P03-CH0	1339808	OK	0.7905615	-0.433101	-0.4329388	0	-89.077	-54.423	-1.377	B5-03822-P03-CH1	1339808	OK	0.6915743	-0.7216253	0.0313344	0	-97.74	-6.091	-0.991	B5-03822-P04-CH0	1339808	OK	0.7515521	-0.4073444	0.5188834	0	-124.758	-33.434	8.297	B5-03822-P04-CH1	1339808	OK	0.8029801	-0.5946634	0.0399792	0	-110.336	-40.376	-1.217	NA
0.299755102040816	B5-03822-P01-CH0	1339816	OK	0.206555	0.0935585	0.0888159	-0.9698936	155.946	-25.028	-264.931	B5-03822-P02-CH0	1339816	OK	0.856373	0.3823183	-0.3470707	0	-100.322	-99.859	23.956	B5-03822-P02-CH1	1339816	OK	0.7459962	-0.2546148	-0.6153543	0	-76.513	-70.873	-4.79	B5-03822-P03-CH0	1339816	OK	0.7776016	-0.419317	-0.4685178	0	-88.943	-53.613	-1.936	B5-03822-P03-CH1	1339816	OK	0.6977205	-0.7157219	0.0304655	0	-97.674	-4.614	-1.994	B5-03822-P04-CH0	1339816	OK	0.7520526	-0.4073977	0.5181158	0	-125.04	-33.558	8.267	B5-03822-P04-CH1	1339816	OK	0.8034063	-0.5940429	0.0406369	0	-110.418	-40.581	-1.138	NA
0.30974693877551	B5-03822-P01-CH0	1339824	OK	0.2065833	0.0938154	0.0883524	-0.9699051	156.069	-25.036	-264.9	B5-03822-P02-CH0	1339824	OK	0.856527	0.3748144	-0.3547895	0	-100.552	-100.733	26.195	B5-03822-P02-CH1	1339824	OK	0.7489099	-0.2532973	-0.6123515	0	-76.559	-70.769	-4.363	B5-03822-P03-CH0	1339824	OK	0.7609827	-0.4056281	-0.5063311	0	-87.951	-52.743	-2.807	B5-03822-P03-CH1	1339824	OK	0.696225	-0.7168395	0.037575	0	-98.476	-7.382	-1.488	B5-03822-P04-CH0	1339824	OK	0.7519534	-0.4078915	0.5178713	0	-125.341	-33.835	8.488	B5-03822-P04-CH1	1339824	OK	0.8031165	-0.5944353	0.0406279	0	-110.598	-40.797	-0.733	NA
0.319738775510204	B5-03822-P01-CH0	1339832	OK	0.2068275	0.0938933	0.0884213	-0.9698392	156.154	-25.017	-264.849	B5-03822-P02-CH0	1339832	OK	0.8555473	0.3707342	-0.3613793	0	-100.62	-100.062	25.902	B5-03822-P02-CH1	1339832	OK	0.7507972	-0.2525012	-0.610366	0	-78.135	-71.365	-3.434	B5-03822-P03-CH0	1339832	OK	0.7452798	-0.393	-0.5386177	0	-86.345	-52.951	-2.307	B5-03822-P03-CH1	1339832	OK	0.6962777	-0.7163717	0.0448221	0	-99.539	-9.536	-0.011	B5-03822-P04-CH0	1339832	OK	0.752096	-0.4080819	0.517514	0	-125.595	-33.994	8.682	B5-03822-P04-CH1	1339832	OK	0.8031837	-0.5943504	0.0405399	0	-110.619	-40.887	-0.525	NA
0.329730612244898	B5-03822-P01-CH0	1339840	OK	0.2071484	0.0938316	0.089095	-0.969715	156.229	-24.893	-264.881	B5-03822-P02-CH0	1339840	OK	0.8548463	0.365221	-0.3685802	0	-100.472	-100.175	24.035	B5-03822-P02-CH1	1339840	OK	0.7559387	-0.2503681	-0.604874	0	-77.859	-70.987	-3.184	B5-03822-P03-CH0	1339840	OK	0.7320705	-0.378656	-0.5662971	0	-88.104	-50.897	-3.449	B5-03822-P03-CH1	1339840	OK	0.6974857	-0.7151337	0.0457971	0	-99.201	-10.031	0.201	B5-03822-P04-CH0	1339840	OK	0.7523408	-0.4077661	0.5174071	0	-125.829	-34.183	8.843	B5-03822-P04-CH1	1339840	OK	0.8036536	-0.5937397	0.0401751	0	-110.671	-40.803	-0.315	NA
0.339722448979592	B5-03822-P01-CH0	1339848	OK	0.2072466	0.0939636	0.0888595	-0.9697029	156.325	-24.932	-264.831	B5-03822-P02-CH0	1339848	OK	0.85348	0.363248	-0.3736614	0	-99.945	-99.498	22.427	B5-03822-P02-CH1	1339848	OK	0.7588744	-0.252882	-0.6001336	0	-78.145	-70.734	-3.872	B5-03822-P03-CH0	1339848	OK	0.7284207	-0.369541	-0.5769252	0	-86.099	-52.636	-2.437	B5-03822-P03-CH1	1339848	OK	0.7005087	-0.7123871	0.0423353	0	-98.913	-7.954	-1.652	B5-03822-P04-CH0	1339848	OK	0.7519756	-0.4091586	0.5168384	0	-125.683	-33.948	8.525	B5-03822-P04-CH1	1339848	OK	0.8033531	-0.5941801	0.0396712	0	-110.657	-40.928	-0.342	NA
0.349714285714286	B5-03822-P01-CH0	1339856	OK	0.2074587	0.0937778	0.08919	-0.9696452	156.275	-24.886	-264.74	B5-03822-P02-CH0	1339856	OK	0.8499638	0.3636737	-0.3811862	0	-100.012	-98.39	21.564	B5-03822-P02-CH1	1339856	OK	0.7601552	-0.2578283	-0.5963963	0	-78.703	-70.605	-3.504	B5-03822-P03-CH0	1339856	OK	0.7244335	-0.3655649	-0.58443	0	-87.302	-53.097	-2.765	B5-03822-P03-CH1	1339856	OK	0.7026951	-0.7103031	0.0410998	0	-98.784	-6.751	-2.931	B5-03822-P04-CH0	1339856	OK	0.7518479	-0.4101113	0.5162688	0	-125.652	-33.56	7.708	B5-03822-P04-CH1	1339856	OK	0.8036624	-0.5938051	0.0390153	0	-110.596	-40.716	-0.475	NA
0.35970612244898	B5-03822-P01-CH0	1339864	OK	0.2073613	0.0936232	0.0889478	-0.9697032	156.223	-24.859	-264.716	B5-03822-P02-CH0	1339864	OK	0.8493453	0.3657616	-0.3805668	0	-98.363	-96.48	20.251	B5-03822-P02-CH1	1339864	OK	0.7620645	-0.2636395	-0.5913982	0	-78.075	-70.472	-4.579	B5-03822-P03-CH0	1339864	OK	0.722801	-0.3617939	-0.5887817	0	-88.376	-50.328	-4.983	B5-03822-P03-CH1	1339864	OK	0.7013377	-0.7115411	0.042833	0	-98.455	-7.864	-2.208	B5-03822-P04-CH0	1339864	OK	0.7513523	-0.4111623	0.5161543	0	-125.613	-33.465	7.618	B5-03822-P04-CH1	1339864	OK	0.8037195	-0.5938048	0.0378259	0	-110.479	-40.337	-0.486	NA
0.369697959183673	B5-03822-P01-CH0	1339872	OK	0.2075957	0.0937519	0.0886278	-0.9696699	156.298	-24.865	-264.742	B5-03822-P02-CH0	1339872	OK	0.848265	0.3572907	-0.3908834	0	-98.779	-97.832	21.209	B5-03822-P02-CH1	1339872	OK	0.7630821	-0.2686944	-0.5878002	0	-78.251	-70.31	-3.819	B5-03822-P03-CH0	1339872	OK	0.7246115	-0.3610712	-0.5869972	0	-85.319	-52.151	-2.72	B5-03822-P03-CH1	1339872	OK	0.6986451	-0.7139043	0.0472835	0	-98.545	-10.041	-1.226	B5-03822-P04-CH0	1339872	OK	0.7508857	-0.4121224	0.5160676	0	-125.525	-33.372	7.522	B5-03822-P04-CH1	1339872	OK	0.8034982	-0.5941257	0.0374864	0	-110.446	-40.376	-0.287	NA
0.379689795918367	B5-03822-P01-CH0	1339880	OK	0.2074068	0.0937323	0.0881612	-0.9697548	156.265	-24.921	-264.717	B5-03822-P02-CH0	1339880	OK	0.8473457	0.3521749	-0.3974645	0	-98.257	-98.205	20.651	B5-03822-P02-CH1	1339880	OK	0.7646119	-0.2727414	-0.5839356	0	-78.026	-70.784	-2.926	B5-03822-P03-CH0	1339880	OK	0.7226617	-0.3645493	-0.5872511	0	-86.229	-53.637	-2.923	B5-03822-P03-CH1	1339880	OK	0.7004903	-0.7122174	0.0453846	0	-98.578	-8.616	-1.871	B5-03822-P04-CH0	1339880	OK	0.7503007	-0.4133077	0.5159705	0	-125.505	-33.208	7.239	B5-03822-P04-CH1	1339880	OK	0.8032154	-0.5945617	0.0366248	0	-110.295	-40.269	-0.217	NA
0.389681632653061	B5-03822-P01-CH0	1339888	OK	0.2074537	0.0939515	0.0880565	-0.969733	156.335	-24.91	-264.711	B5-03822-P02-CH0	1339888	OK	0.8446689	0.353042	-0.4023628	0	-97.376	-96.837	18.886	B5-03822-P02-CH1	1339888	OK	0.7660595	-0.2781273	-0.5794808	0	-78.022	-71.353	-3.558	B5-03822-P03-CH0	1339888	OK	0.7249129	-0.3650502	-0.5841572	0	-87.975	-51.38	-5.244	B5-03822-P03-CH1	1339888	OK	0.7022081	-0.7108961	0.0391205	0	-98.182	-6.026	-2.769	B5-03822-P04-CH0	1339888	OK	0.7498346	-0.4142548	0.5158886	0	-125.468	-33.137	7.061	B5-03822-P04-CH1	1339888	OK	0.8031114	-0.5947416	0.0359791	0	-110.236	-40.101	-0.505	NA
0.399673469387755	B5-03822-P01-CH0	1339896	OK	0.2073632	0.0943183	0.0874585	-0.9697709	156.387	-25.008	-264.581	B5-03822-P02-CH0	1339896	OK	0.8409792	0.3473031	-0.4148911	0	-97.671	-97.036	18.838	B5-03822-P02-CH1	1339896	OK	0.7681812	-0.2791302	-0.5761805	0	-78.782	-70.966	-3.174	B5-03822-P03-CH0	1339896	OK	0.7368511	-0.363451	-0.5700471	0	-86.136	-50.465	-5.485	B5-03822-P03-CH1	1339896	OK	0.7010311	-0.7119058	0.041779	0	-98.287	-7.164	-2.554	B5-03822-P04-CH0	1339896	OK	0.7490877	-0.4155253	0.515952	0	-125.398	-33.128	6.825	B5-03822-P04-CH1	1339896	OK	0.8026839	-0.5953549	0.0353696	0	-110.171	-39.999	-0.811	NA
0.409665306122449	B5-03822-P01-CH0	1339904	OK	0.2074427	0.0942574	0.0877507	-0.9697334	156.333	-25.018	-264.483	B5-03822-P02-CH0	1339904	OK	0.8375188	0.3464075	-0.4225685	0	-97.013	-95.977	16.317	B5-03822-P02-CH1	1339904	OK	0.7720882	-0.279067	-0.5709653	0	-78.962	-70.877	-3.901	B5-03822-P03-CH0	1339904	OK	0.7486592	-0.3639617	-0.5541131	0	-86.874	-52.716	-1.301	B5-03822-P03-CH1	1339904	OK	0.7010852	-0.7117435	0.0435964	0	-98.359	-7.666	-2.482	B5-03822-P04-CH0	1339904	OK	0.7486426	-0.4167115	0.5156411	0	-125.299	-32.84	6.169	B5-03822-P04-CH1	1339904	OK	0.802968	-0.5949904	0.0350544	0	-109.999	-39.783	-0.941	NA
0.419657142857143	B5-03822-P01-CH0	1339912	OK	0.207484	0.0944825	0.087776	-0.9697004	156.372	-25.038	-264.388	B5-03822-P02-CH0	1339912	OK	0.8354831	0.3408053	-0.431068	0	-96.347	-96.024	15.929	B5-03822-P02-CH1	1339912	OK	0.7737614	-0.2774516	-0.5694857	0	-79.982	-71.701	-3.324	B5-03822-P03-CH0	1339912	OK	0.7575951	-0.3634055	-0.5422049	0	-88.781	-54.044	-1.816	B5-03822-P03-CH1	1339912	OK	0.7009882	-0.7117662	0.0447709	0	-98.323	-7.971	-2.437	B5-03822-P04-CH0	1339912	OK	0.7481522	-0.4175114	0.5157058	0	-125.258	-32.841	6.014	B5-03822-P04-CH1	1339912	OK	0.8029425	-0.5950349	0.0348834	0	-110.046	-39.702	-1.163	NA
0.429648979591837	B5-03822-P01-CH0	1339920	OK	0.2080042	0.0945003	0.0890071	-0.969475	156.445	-24.949	-264.458	B5-03822-P02-CH0	1339920	OK	0.8323519	0.3387018	-0.4387157	0	-95.925	-95.53	14.442	B5-03822-P02-CH1	1339920	OK	0.774877	-0.2761375	-0.5686069	0	-80.385	-72.59	-2.889	B5-03822-P03-CH0	1339920	OK	0.7665981	-0.3620211	-0.5303471	0	-89.035	-54.015	-2.517	B5-03822-P03-CH1	1339920	OK	0.7020107	-0.7106527	0.0464067	0	-98.499	-8.096	-2.322	B5-03822-P04-CH0	1339920	OK	0.7482478	-0.4170924	0.5159061	0	-125.382	-33.027	6.235	B5-03822-P04-CH1	1339920	OK	0.8036984	-0.5939881	0.0353132	0	-110.022	-39.67	-1.157	NA
0.439640816326531	B5-03822-P01-CH0	1339928	OK	0.2082094	0.0945023	0.0899508	-0.9693436	156.414	-24.791	-264.451	B5-03822-P02-CH0	1339928	OK	0.8297095	0.3315427	-0.4490674	0	-95.782	-96.348	14.691	B5-03822-P02-CH1	1339928	OK	0.7774563	-0.2733991	-0.566405	0	-79.842	-72.882	-1.614	B5-03822-P03-CH0	1339928	OK	0.773463	-0.3615128	-0.5206375	0	-92.041	-52.717	-4.246	B5-03822-P03-CH1	1339928	OK	0.7020904	-0.7104274	0.0485997	0	-98.701	-8.615	-1.883	B5-03822-P04-CH0	1339928	OK	0.7483349	-0.4165091	0.5162509	0	-125.671	-33.153	6.482	B5-03822-P04-CH1	1339928	OK	0.8043474	-0.5930986	0.0354869	0	-109.835	-39.293	-1.618	NA
0.449632653061224	B5-03822-P01-CH0	1339936	OK	0.207977	0.0945445	0.0893209	-0.9694476	156.381	-24.878	-264.522	B5-03822-P02-CH0	1339936	OK	0.8276994	0.3264456	-0.4564503	0	-95.488	-96.88	14.223	B5-03822-P02-CH1	1339936	OK	0.7783669	-0.269809	-0.5668756	0	-80.184	-72.795	-2.826	B5-03822-P03-CH0	1339936	OK	0.7837764	-0.3628821	-0.5039952	0	-91.093	-54.69	-1.404	B5-03822-P03-CH1	1339936	OK	0.7016088	-0.7108528	0.0493303	0	-98.605	-8.771	-1.845	B5-03822-P04-CH0	1339936	OK	0.7474688	-0.4171533	0.516985	0	-125.722	-33.373	6.86	B5-03822-P04-CH1	1339936	OK	0.8039448	-0.5936437	0.0354958	0	-109.708	-39.271	-1.66	NA
0.459624489795918	B5-03822-P01-CH0	1339944	OK	0.2079885	0.0947182	0.0892571	-0.9694341	156.39	-24.969	-264.439	B5-03822-P02-CH0	1339944	OK	0.8253337	0.3316111	-0.4570103	0	-94.608	-94.83	12.258	B5-03822-P02-CH1	1339944	OK	0.7794346	-0.2655164	-0.5674353	0	-80.904	-72.771	-2.675	B5-03822-P03-CH0	1339944	OK	0.7936878	-0.3603073	-0.4901411	0	-90.362	-54.907	-1.69	B5-03822-P03-CH1	1339944	OK	0.7016755	-0.7107413	0.0499827	0	-98.539	-8.886	-1.942	B5-03822-P04-CH0	1339944	OK	0.7470843	-0.4176074	0.5171742	0	-125.779	-33.358	6.975	B5-03822-P04-CH1	1339944	OK	0.8037597	-0.5938599	0.036067	0	-109.847	-39.485	-1.856	NA
0.469616326530612	B5-03822-P01-CH0	1339952	OK	0.20794	0.0946707	0.0896731	-0.9694107	156.356	-24.954	-264.495	B5-03822-P02-CH0	1339952	OK	0.8255587	0.3312655	-0.4568544	0	-93.859	-95.111	10.59	B5-03822-P02-CH1	1339952	OK	0.7836232	-0.2610135	-0.5637434	0	-80.442	-72.573	-3.865	B5-03822-P03-CH0	1339952	OK	0.7993308	-0.3566249	-0.4836206	0	-91.559	-55.361	-0.352	B5-03822-P03-CH1	1339952	OK	0.702076	-0.7102904	0.0507629	0	-98.61	-8.931	-1.704	B5-03822-P04-CH0	1339952	OK	0.7467395	-0.4173122	0.5179099	0	-126.02	-33.732	7.35	B5-03822-P04-CH1	1339952	OK	0.8039742	-0.5935535	0.0363271	0	-109.744	-39.532	-1.72	NA
0.479608163265306	B5-03822-P01-CH0	1339960	OK	0.2082572	0.0947076	0.0905694	-0.9692557	156.417	-24.909	-264.558	B5-03822-P02-CH0	1339960	OK	0.8259446	0.3272922	-0.4590156	0	-93.951	-96.006	11.46	B5-03822-P02-CH1	1339960	OK	0.7865532	-0.2560382	-0.5619418	0	-81.286	-73.213	-3.919	B5-03822-P03-CH0	1339960	OK	0.8030787	-0.3549704	-0.4786028	0	-92.367	-55.598	-1.134	B5-03822-P03-CH1	1339960	OK	0.7018404	-0.7103579	0.0530251	0	-98.822	-9.724	-1.115	B5-03822-P04-CH0	1339960	OK	0.7467903	-0.4172621	0.5178771	0	-126.107	-33.686	7.534	B5-03822-P04-CH1	1339960	OK	0.8044957	-0.5928087	0.0369393	0	-109.795	-39.647	-1.692	NA
0.4896	B5-03822-P01-CH0	1339968	OK	0.2080125	0.0946564	0.0905575	-0.9693143	156.381	-24.962	-264.646	B5-03822-P02-CH0	1339968	OK	0.8268757	0.3296452	-0.4556431	0	-93.504	-95.076	10.932	B5-03822-P02-CH1	1339968	OK	0.7905268	-0.2490775	-0.5594888	0	-82.235	-73.662	-2.382	B5-03822-P03-CH0	1339968	OK	0.8059319	-0.3505572	-0.477057	0	-91.932	-55.846	0.119	B5-03822-P03-CH1	1339968	OK	0.7022573	-0.7099696	0.0527065	0	-98.712	-9.454	-1.237	B5-03822-P04-CH0	1339968	OK	0.7461834	-0.4182797	0.5179309	0	-126.127	-33.667	7.542	B5-03822-P04-CH1	1339968	OK	0.8044946	-0.5928003	0.0370967	0	-109.806	-39.708	-1.372	NA
0.499591836734694	B5-03822-P01-CH0	1339976	OK	0.2077425	0.0946695	0.0903102	-0.969394	156.368	-24.945	-264.679	B5-03822-P02-CH0	1339976	OK	0.8265029	0.3216027	-0.4620223	0	-95.351	-96.725	12.576	B5-03822-P02-CH1	1339976	OK	0.7947455	-0.243676	-0.5558791	0	-83.173	-73.424	-2.54	B5-03822-P03-CH0	1339976	OK	0.8057253	-0.3440956	-0.482084	0	-92.433	-55.039	0.378	B5-03822-P03-CH1	1339976	OK	0.7026009	-0.7096641	0.0522382	0	-98.817	-9.008	-1.468	B5-03822-P04-CH0	1339976	OK	0.7453976	-0.4194357	0.5181276	0	-126.186	-33.731	7.71	B5-03822-P04-CH1	1339976	OK	0.804332	-0.5930113	0.0372505	0	-109.935	-39.778	-1.134	NA
0.509583673469388	B5-03822-P01-CH0	1339984	OK	0.2076113	0.0948421	0.0899643	-0.9694374	156.36	-24.946	-264.654	B5-03822-P02-CH0	1339984	OK	0.8279826	0.3185793	-0.4614673	0	-95	-96.54	11.45	B5-03822-P02-CH1	1339984	OK	0.7990228	-0.2393884	-0.5515938	0	-83.42	-73.263	-1.58	B5-03822-P03-CH0	1339984	OK	0.8025605	-0.3347939	-0.4937709	0	-93.603	-55.264	1.361	B5-03822-P03-CH1	1339984	OK	0.7025392	-0.7097392	0.0520481	0	-98.761	-8.799	-1.749	B5-03822-P04-CH0	1339984	OK	0.7447178	-0.4199585	0.5186813	0	-126.33	-34.027	8.079	B5-03822-P04-CH1	1339984	OK	0.8040007	-0.5934451	0.0374948	0	-110.05	-39.879	-1.118	NA
0.519575510204082	B5-03822-P01-CH0	1339992	OK	0.2074595	0.0945477	0.0900943	-0.9694866	156.25	-24.958	-264.759	B5-03822-P02-CH0	1339992	OK	0.8279654	0.3146667	-0.4641747	0	-95.065	-96.716	11.625	B5-03822-P02-CH1	1339992	OK	0.8024499	-0.2362212	-0.5479724	0	-83.706	-73.005	-1.019	B5-03822-P03-CH0	1339992	OK	0.8027883	-0.32455	-0.5001981	0	-92.165	-54.834	0.816	B5-03822-P03-CH1	1339992	OK	0.7034411	-0.7089233	0.0509738	0	-98.567	-8.143	-2.198	B5-03822-P04-CH0	1339992	OK	0.744168	-0.4206551	0.5189058	0	-126.444	-34.192	8.235	B5-03822-P04-CH1	1339992	OK	0.8040208	-0.5934031	0.0377267	0	-109.965	-39.937	-1.066	NA
0.529567346938775	B5-03822-P01-CH0	1340000	OK	0.2068512	0.0948855	0.0886838	-0.9697136	156.23	-25.103	-264.572	B5-03822-P02-CH0	1340000	OK	0.8286278	0.3189282	-0.4600661	0	-93.533	-94.256	9.866	B5-03822-P02-CH1	1340000	OK	0.8044083	-0.2338377	-0.5461201	0	-83.985	-73.182	0.01	B5-03822-P03-CH0	1340000	OK	0.8001401	-0.3194101	-0.5076938	0	-93.025	-55.094	0.989	B5-03822-P03-CH1	1340000	OK	0.7023111	-0.7100656	0.0506548	0	-98.585	-8.225	-2.508	B5-03822-P04-CH0	1340000	OK	0.7429221	-0.4231563	0.5186575	0	-126.38	-33.984	7.786	B5-03822-P04-CH1	1340000	OK	0.8030551	-0.5947262	0.0374608	0	-110.012	-40.038	-1.155	NA
0.539559183673469	B5-03822-P01-CH0	1340008	OK	0.2064767	0.0947883	0.0878356	-0.9698801	156.168	-25.24	-264.652	B5-03822-P02-CH0	1340008	OK	0.8274151	0.312927	-0.466327	0	-94.353	-95.263	11.066	B5-03822-P02-CH1	1340008	OK	0.8054232	-0.2314763	-0.54563	0	-84.181	-72.986	-0.592	B5-03822-P03-CH0	1340008	OK	0.798227	-0.3131287	-0.5145718	0	-94.764	-54.276	-0.381	B5-03822-P03-CH1	1340008	OK	0.7018269	-0.7105839	0.0500955	0	-98.396	-8.226	-2.646	B5-03822-P04-CH0	1340008	OK	0.741954	-0.4244248	0.5190066	0	-126.464	-34.284	8.028	B5-03822-P04-CH1	1340008	OK	0.8027069	-0.5952215	0.037053	0	-110.001	-39.877	-1.302	NA
0.549551020408163	B5-03822-P01-CH0	1340016	OK	0.2061752	0.0949298	0.0878965	-0.9699249	156.186	-25.214	-264.619	B5-03822-P02-CH0	1340016	OK	0.8271096	0.3145283	-0.4657914	0	-93.604	-94.098	9.814	B5-03822-P02-CH1	1340016	OK	0.8061739	-0.2293751	-0.5454087	0	-84.339	-72.857	-0.189	B5-03822-P03-CH0	1340016	OK	0.7982393	-0.3078625	-0.5177206	0	-94.926	-53.87	-0.328	B5-03822-P03-CH1	1340016	OK	0.7023462	-0.7101479	0.0489878	0	-98.365	-7.823	-3.027	B5-03822-P04-CH0	1340016	OK	0.7414903	-0.426015	0.5183659	0	-126.465	-34.247	8.15	B5-03822-P04-CH1	1340016	OK	0.8026212	-0.5953515	0.0368207	0	-110.075	-39.896	-1.244	NA
0.559542857142857	B5-03822-P01-CH0	1340024	OK	0.2059174	0.0952441	0.087545	-0.9699807	156.243	-25.17	-264.563	B5-03822-P02-CH0	1340024	OK	0.8266451	0.30811	-0.470878	0	-94.301	-95.347	10.676	B5-03822-P02-CH1	1340024	OK	0.8060862	-0.2308131	-0.5449315	0	-84.616	-73.429	-0.288	B5-03822-P03-CH0	1340024	OK	0.798921	-0.3043564	-0.5187413	0	-94.44	-53.301	-0.39	B5-03822-P03-CH1	1340024	OK	0.7022105	-0.7103021	0.0486968	0	-98.523	-7.717	-3.134	B5-03822-P04-CH0	1340024	OK	0.7409461	-0.4272429	0.5181336	0	-126.627	-34.345	8.152	B5-03822-P04-CH1	1340024	OK	0.8023496	-0.5957372	0.0364994	0	-110.117	-39.933	-0.916	NA
0.569534693877551	B5-03822-P01-CH0	1340032	OK	0.2059687	0.0949902	0.0881409	-0.9699407	156.163	-25.105	-264.631	B5-03822-P02-CH0	1340032	OK	0.8264973	0.3046212	-0.4734006	0	-93.878	-95.887	11.039	B5-03822-P02-CH1	1340032	OK	0.8045616	-0.2302982	-0.5473969	0	-85.806	-73.178	0.298	B5-03822-P03-CH0	1340032	OK	0.7993379	-0.3026544	-0.5190946	0	-94.59	-53.147	-0.416	B5-03822-P03-CH1	1340032	OK	0.7026242	-0.7099034	0.0485424	0	-98.407	-7.648	-3.364	B5-03822-P04-CH0	1340032	OK	0.7407383	-0.4284262	0.5174531	0	-126.516	-34.166	7.921	B5-03822-P04-CH1	1340032	OK	0.8026049	-0.5953844	0.0366445	0	-110.183	-39.909	-1.126	NA
0.579526530612245	B5-03822-P01-CH0	1340040	OK	0.2056376	0.0951924	0.0874085	-0.9700574	156.16	-25.096	-264.616	B5-03822-P02-CH0	1340040	OK	0.82497	0.3033804	-0.4768488	0	-94.003	-95.845	10.907	B5-03822-P02-CH1	1340040	OK	0.8046638	-0.2325472	-0.5462948	0	-85.184	-72.524	-0.364	B5-03822-P03-CH0	1340040	OK	0.8003288	-0.3032927	-0.5171917	0	-94.178	-53.61	1.452	B5-03822-P03-CH1	1340040	OK	0.702236	-0.7103308	0.0479041	0	-98.353	-7.522	-3.618	B5-03822-P04-CH0	1340040	OK	0.7399972	-0.4293435	0.5177531	0	-126.649	-34.477	8.188	B5-03822-P04-CH1	1340040	OK	0.8021652	-0.5959956	0.0363356	0	-110.156	-39.799	-1.083	NA
0.589518367346939	B5-03822-P01-CH0	1340048	OK	0.2056736	0.0952679	0.0874984	-0.9700342	156.159	-25.049	-264.524	B5-03822-P02-CH0	1340048	OK	0.8241143	0.3064537	-0.4763631	0	-92.865	-94.594	8.786	B5-03822-P02-CH1	1340048	OK	0.8051443	-0.2389647	-0.5428061	0	-84.338	-73.098	-0.328	B5-03822-P03-CH0	1340048	OK	0.8008366	-0.3063456	-0.5146	0	-94.272	-53.538	0.881	B5-03822-P03-CH1	1340048	OK	0.7023439	-0.710231	0.0478006	0	-98.359	-7.535	-3.702	B5-03822-P04-CH0	1340048	OK	0.7398929	-0.4296279	0.5176663	0	-126.807	-34.583	8.341	B5-03822-P04-CH1	1340048	OK	0.8021375	-0.596031	0.0363652	0	-110.15	-39.815	-1.262	NA
0.599510204081633	B5-03822-P01-CH0	1340056	OK	0.206242	0.0947761	0.0889529	-0.9698294	156.037	-24.937	-264.587	B5-03822-P02-CH0	1340056	OK	0.8209788	0.3048107	-0.482788	0	-93.175	-94.984	8.246	B5-03822-P02-CH1	1340056	OK	0.8055536	-0.241061	-0.5412698	0	-83.884	-72.589	-0.029	B5-03822-P03-CH0	1340056	OK	0.8037716	-0.3068118	-0.5097233	0	-93.583	-52.88	0.502	B5-03822-P03-CH1	1340056	OK	0.7035085	-0.7090512	0.0481888	0	-98.182	-7.549	-3.735	B5-03822-P04-CH0	1340056	OK	0.740268	-0.4290895	0.5175766	0	-126.692	-34.639	8.447	B5-03822-P04-CH1	1340056	OK	0.8031065	-0.5946909	0.0369142	0	-109.982	-39.731	-1.371	NA
0.609502040816327	B5-03822-P01-CH0	1340064	OK	0.2065248	0.0945443	0.0895104	-0.9697406	156.037	-24.924	-264.713	B5-03822-P02-CH0	1340064	OK	0.8184234	0.3047015	-0.4871756	0	-93.063	-94.766	8.796	B5-03822-P02-CH1	1340064	OK	0.8043659	-0.2435067	-0.541941	0	-84.085	-72.726	-0.485	B5-03822-P03-CH0	1340064	OK	0.8049329	-0.3102178	-0.5058142	0	-93.449	-53.665	1.507	B5-03822-P03-CH1	1340064	OK	0.7031463	-0.7092891	0.0499422	0	-98.405	-8.4	-3.077	B5-03822-P04-CH0	1340064	OK	0.7403377	-0.4285678	0.5179091	0	-126.804	-34.984	8.708	B5-03822-P04-CH1	1340064	OK	0.803452	-0.5942053	0.0372151	0	-110.034	-39.909	-1.13	NA
0.61949387755102	B5-03822-P01-CH0	1340072	OK	0.2063453	0.0945527	0.0891832	-0.9698081	156.068	-24.934	-264.878	B5-03822-P02-CH0	1340072	OK	0.8160369	0.3033765	-0.4919821	0	-93.638	-95.459	9.276	B5-03822-P02-CH1	1340072	OK	0.802682	-0.2442661	-0.5440916	0	-84.523	-72.488	-0.282	B5-03822-P03-CH0	1340072	OK	0.8012599	-0.3078938	-0.5130146	0	-94.207	-53.346	0.278	B5-03822-P03-CH1	1340072	OK	0.7025156	-0.7098949	0.0502102	0	-98.516	-8.769	-2.91	B5-03822-P04-CH0	1340072	OK	0.7400409	-0.4294018	0.5176423	0	-126.771	-34.865	8.695	B5-03822-P04-CH1	1340072	OK	0.803279	-0.5944492	0.037054	0	-110.008	-39.892	-1.042	NA
0.629485714285714	B5-03822-P01-CH0	1340080	OK	0.2059894	0.0944585	0.0887469	-0.969933	156.026	-25.043	-264.969	B5-03822-P02-CH0	1340080	OK	0.8157054	0.3086066	-0.4892715	0	-92.91	-94.316	7.041	B5-03822-P02-CH1	1340080	OK	0.8018555	-0.2481458	-0.5435543	0	-84.538	-73.028	0.357	B5-03822-P03-CH0	1340080	OK	0.8013955	-0.3077629	-0.5128814	0	-94.177	-53.329	0.531	B5-03822-P03-CH1	1340080	OK	0.7027744	-0.7097301	0.0489003	0	-98.264	-8.446	-2.993	B5-03822-P04-CH0	1340080	OK	0.7398178	-0.4300008	0.517464	0	-126.778	-34.971	8.911	B5-03822-P04-CH1	1340080	OK	0.8031075	-0.5947085	0.0366066	0	-109.942	-39.748	-1.283	NA
0.639477551020408	B5-03822-P01-CH0	1340088	OK	0.2065094	0.0941043	0.0899187	-0.9697489	155.985	-24.923	-265.084	B5-03822-P02-CH0	1340088	OK	0.814253	0.3111289	-0.4900928	0	-92.624	-93.813	6.01	B5-03822-P02-CH1	1340088	OK	0.8036698	-0.2507176	-0.539681	0	-83.318	-72.63	-0.383	B5-03822-P03-CH0	1340088	OK	0.8019991	-0.3169266	-0.506315	0	-94.212	-52.273	0.851	B5-03822-P03-CH1	1340088	OK	0.7040594	-0.7084395	0.0491309	0	-98.217	-8.167	-3.051	B5-03822-P04-CH0	1340088	OK	0.7401559	-0.4296727	0.5172529	0	-126.63	-34.943	8.923	B5-03822-P04-CH1	1340088	OK	0.803681	-0.5938818	0.0374321	0	-109.923	-40.016	-0.969	NA
0.649469387755102	B5-03822-P01-CH0	1340096	OK	0.206612	0.0942269	0.0895052	-0.9697534	156.029	-25.018	-265.066	B5-03822-P02-CH0	1340096	OK	0.8121824	0.3095287	-0.4945218	0	-93.287	-94.595	9.001	B5-03822-P02-CH1	1340096	OK	0.8020589	-0.2536906	-0.5406872	0	-83.617	-72.441	-0.971	B5-03822-P03-CH0	1340096	OK	0.8008229	-0.321041	-0.5055842	0	-93.969	-52.75	0.994	B5-03822-P03-CH1	1340096	OK	0.7033222	-0.70908	0.0504317	0	-98.384	-8.733	-2.68	B5-03822-P04-CH0	1340096	OK	0.7400461	-0.4293972	0.5176387	0	-126.767	-35.201	8.985	B5-03822-P04-CH1	1340096	OK	0.803475	-0.5941444	0.037688	0	-110.019	-40.088	-1.192	NA
0.659461224489796	B5-03822-P01-CH0	1340104	OK	0.2065973	0.0940591	0.0896904	-0.9697557	156.002	-25.048	-265.229	B5-03822-P02-CH0	1340104	OK	0.8128599	0.3161363	-0.4891999	0	-91.327	-93.463	6.373	B5-03822-P02-CH1	1340104	OK	0.7997009	-0.2579367	-0.5421689	0	-83.646	-72.872	-1.252	B5-03822-P03-CH0	1340104	OK	0.8003772	-0.3248853	-0.5038313	0	-93.262	-53.822	1.851	B5-03822-P03-CH1	1340104	OK	0.7043673	-0.7081109	0.049454	0	-98.213	-8.097	-2.871	B5-03822-P04-CH0	1340104	OK	0.7401006	-0.4296878	0.5173195	0	-126.677	-35.193	9.234	B5-03822-P04-CH1	1340104	OK	0.803618	-0.5939418	0.0378332	0	-110.138	-40.116	-1.175	NA
0.66945306122449	B5-03822-P01-CH0	1340112	OK	0.2062798	0.0943254	0.0891944	-0.9698431	156.085	-25.121	-265.173	B5-03822-P02-CH0	1340112	OK	0.8130012	0.3144747	-0.4900354	0	-91.156	-94.401	6.675	B5-03822-P02-CH1	1340112	OK	0.7973263	-0.2621931	-0.5436226	0	-83.542	-72.684	-1.467	B5-03822-P03-CH0	1340112	OK	0.7990179	-0.3270652	-0.5045779	0	-93.525	-53.167	0.503	B5-03822-P03-CH1	1340112	OK	0.70438	-0.7081483	0.0487324	0	-98.256	-7.855	-3.13	B5-03822-P04-CH0	1340112	OK	0.7400197	-0.429639	0.5174758	0	-126.899	-35.46	9.708	B5-03822-P04-CH1	1340112	OK	0.8034452	-0.5942029	0.0373996	0	-110.246	-40.078	-0.984	NA
0.679444897959184	B5-03822-P01-CH0	1340120	OK	0.2060323	0.0944726	0.0889044	-0.9699081	156.107	-25.176	-265.124	B5-03822-P02-CH0	1340120	OK	0.8121107	0.3138563	-0.4919049	0	-91.457	-94.915	6.991	B5-03822-P02-CH1	1340120	OK	0.7955271	-0.2650739	-0.54486	0	-83.043	-72.464	-1.327	B5-03822-P03-CH0	1340120	OK	0.7985033	-0.3288541	-0.5042296	0	-93.503	-52.066	-0.187	B5-03822-P03-CH1	1340120	OK	0.704732	-0.7078474	0.0480096	0	-98.241	-7.498	-3.247	B5-03822-P04-CH0	1340120	OK	0.7398282	-0.4301186	0.5173512	0	-126.979	-35.573	9.775	B5-03822-P04-CH1	1340120	OK	0.8033347	-0.5943652	0.0371942	0	-110.262	-39.993	-1.092	NA
0.689436734693878	B5-03822-P01-CH0	1340128	OK	0.2059512	0.0947034	0.0886416	-0.9699268	156.171	-25.257	-265.09	B5-03822-P02-CH0	1340128	OK	0.8109436	0.3167618	-0.4919679	0	-91.18	-94.2	6.711	B5-03822-P02-CH1	1340128	OK	0.7929212	-0.2682023	-0.5471229	0	-83.209	-72.882	-2.113	B5-03822-P03-CH0	1340128	OK	0.7970818	-0.3328553	-0.5038531	0	-93.688	-53.185	0.808	B5-03822-P03-CH1	1340128	OK	0.7046932	-0.7078825	0.0480608	0	-98.378	-7.487	-3.416	B5-03822-P04-CH0	1340128	OK	0.7395414	-0.4309807	0.5170436	0	-126.878	-35.549	9.622	B5-03822-P04-CH1	1340128	OK	0.8031715	-0.5945794	0.0372945	0	-110.409	-40.126	-1.029	NA
0.699428571428571	B5-03822-P01-CH0	1340136	OK	0.2055875	0.0949016	0.0879135	-0.9700509	156.221	-25.397	-265.128	B5-03822-P02-CH0	1340136	OK	0.8101345	0.3195221	-0.4915158	0	-90.94	-93.852	6.002	B5-03822-P02-CH1	1340136	OK	0.7912846	-0.2690613	-0.5490671	0	-83.19	-72.816	-1.515	B5-03822-P03-CH0	1340136	OK	0.7948926	-0.335416	-0.5056104	0	-94.123	-53.278	0.086	B5-03822-P03-CH1	1340136	OK	0.7044423	-0.7081598	0.0476522	0	-98.46	-7.4	-3.4	B5-03822-P04-CH0	1340136	OK	0.7393547	-0.4313896	0.5169696	0	-127.11	-35.757	9.819	B5-03822-P04-CH1	1340136	OK	0.8026696	-0.5952819	0.0368909	0	-110.624	-40.178	-1.144	NA
0.709420408163265	B5-03822-P01-CH0	1340144	OK	0.2050361	0.0954208	0.0870528	-0.9701943	156.282	-25.416	-264.923	B5-03822-P02-CH0	1340144	OK	0.8091157	0.3174593	-0.4945214	0	-91.95	-94.748	7.448	B5-03822-P02-CH1	1340144	OK	0.7901927	-0.2681414	-0.5510859	0	-83.444	-72.254	-1.41	B5-03822-P03-CH0	1340144	OK	0.7935987	-0.3369458	-0.5066248	0	-94.149	-53.599	1.053	B5-03822-P03-CH1	1340144	OK	0.7041062	-0.708551	0.0467971	0	-98.56	-7.069	-3.759	B5-03822-P04-CH0	1340144	OK	0.7391212	-0.4329753	0.5159769	0	-127.131	-35.326	9.586	B5-03822-P04-CH1	1340144	OK	0.8020268	-0.5961807	0.0363533	0	-110.706	-40.092	-1.349	NA
0.719412244897959	B5-03822-P01-CH0	1340152	OK	0.2050528	0.095506	0.0868671	-0.970199	156.25	-25.496	-264.766	B5-03822-P02-CH0	1340152	OK	0.8090034	0.3201633	-0.4929594	0	-91.166	-94.138	6.77	B5-03822-P02-CH1	1340152	OK	0.7907168	-0.2689017	-0.5499625	0	-82.813	-72.213	-2.518	B5-03822-P03-CH0	1340152	OK	0.7949736	-0.336064	-0.5050525	0	-93.385	-52.863	-0.332	B5-03822-P03-CH1	1340152	OK	0.7045534	-0.708174	0.0457617	0	-98.237	-6.66	-4.318	B5-03822-P04-CH0	1340152	OK	0.7389606	-0.4327989	0.5163548	0	-127.196	-35.68	9.82	B5-03822-P04-CH1	1340152	OK	0.8019288	-0.5963045	0.0364843	0	-110.705	-40.125	-1.473	NA
0.729404081632653	B5-03822-P01-CH0	1340160	OK	0.205562	0.0953229	0.0881776	-0.969991	156.266	-25.408	-264.845	B5-03822-P02-CH0	1340160	OK	0.8081353	0.319989	-0.4944941	0	-91.063	-94.1	5.894	B5-03822-P02-CH1	1340160	OK	0.7908213	-0.2689516	-0.5497879	0	-82.983	-72.004	-2.845	B5-03822-P03-CH0	1340160	OK	0.7954153	-0.3361932	-0.5042704	0	-93.403	-53.507	-0.261	B5-03822-P03-CH1	1340160	OK	0.705386	-0.7073077	0.0463293	0	-98.22	-6.78	-4.252	B5-03822-P04-CH0	1340160	OK	0.7394582	-0.4319619	0.5163435	0	-127.249	-35.844	9.952	B5-03822-P04-CH1	1340160	OK	0.8025968	-0.5953664	0.0371109	0	-110.689	-40.25	-1.536	NA
0.739395918367347	B5-03822-P01-CH0	1340168	OK	0.2048963	0.0955675	0.0868909	-0.9702239	156.343	-25.621	-264.938	B5-03822-P02-CH0	1340168	OK	0.8087159	0.3200653	-0.4934944	0	-90.418	-94.005	5.315	B5-03822-P02-CH1	1340168	OK	0.7909679	-0.2694164	-0.5493492	0	-82.808	-72.167	-2.181	B5-03822-P03-CH0	1340168	OK	0.7951134	-0.3364968	-0.504544	0	-93.178	-53.935	0.347	B5-03822-P03-CH1	1340168	OK	0.7043259	-0.7084161	0.0455162	0	-98.219	-6.982	-4.285	B5-03822-P04-CH0	1340168	OK	0.7387291	-0.4336916	0.5159369	0	-127.154	-35.76	10.124	B5-03822-P04-CH1	1340168	OK	0.8016711	-0.5966486	0.0365215	0	-110.701	-40.433	-1.441	NA
0.749387755102041	B5-03822-P01-CH0	1340176	OK	0.2044961	0.0957045	0.0866328	-0.9703179	156.366	-25.637	-264.944	B5-03822-P02-CH0	1340176	OK	0.8081609	0.3192724	-0.4949151	0	-90.476	-94.098	4.21	B5-03822-P02-CH1	1340176	OK	0.7889978	-0.2699303	-0.551924	0	-84.194	-72.312	-2.317	B5-03822-P03-CH0	1340176	OK	0.7953198	-0.3338317	-0.5059869	0	-93.732	-53.723	0.693	B5-03822-P03-CH1	1340176	OK	0.7046682	-0.7081752	0.0439386	0	-98.104	-6.492	-4.607	B5-03822-P04-CH0	1340176	OK	0.7383818	-0.4346458	0.515631	0	-127.101	-35.647	10.103	B5-03822-P04-CH1	1340176	OK	0.8014615	-0.5969539	0.0361317	0	-110.738	-40.397	-1.291	NA
