Wav.Time	B5.03822.P01.CH0	Frame	State	Q0	Qx	Qy	Qz	Tx	Ty	Tz	B5.03822.P02.CH0	Frame.1	State.1	Q0.1	Qx.1	Qy.1	Qz.1	Tx.1	Ty.1	Tz.1	B5.03822.P02.CH1	Frame.2	State.2	Q0.2	Qx.2	Qy.2	Qz.2	Tx.2	Ty.2	Tz.2	B5.03822.P03.CH0	Frame.3	State.3	Q0.3	Qx.3	Qy.3	Qz.3	Tx.3	Ty.3	Tz.3	B5.03822.P03.CH1	Frame.4	State.4	Q0.4	Qx.4	Qy.4	Qz.4	Tx.4	Ty.4	Tz.4	B5.03822.P04.CH0	Frame.5	State.5	Q0.5	Qx.5	Qy.5	Qz.5	Tx.5	Ty.5	Tz.5	B5.03822.P04.CH1	Frame.6	State.6	Q0.6	Qx.6	Qy.6	Qz.6	Tx.6	Ty.6	Tz.6	X
0	B5-03822-P01-CH0	4410064	OK	0.2209937	0.0563805	0.0404245	-0.9728046	137.007	-34.73	-258.198	B5-03822-P02-CH0	4410064	OK	0.8307643	0.0028119	-0.5566172	0	-81.673	-98.948	3.921	B5-03822-P02-CH1	4410064	OK	0.6786999	0.0037482	-0.7344062	0	-76.717	-77.245	-0.64	B5-03822-P03-CH0	4410064	OK	0.7524288	-0.2480971	-0.6101629	0	-93.944	-56.735	-0.445	B5-03822-P03-CH1	4410064	OK	0.745636	-0.6142067	0.2584128	0	-96.039	-15.264	-19.109	B5-03822-P04-CH0	4410064	OK	0.7580774	-0.0754433	0.6477862	0	-121.652	-38.457	1.804	B5-03822-P04-CH1	4410064	OK	0.706071	-0.6750269	0.2140151	0	-105.242	-30.397	-18.483	NA
0.00999196529005303	B5-03822-P01-CH0	4410072	OK	0.2208218	0.0562355	0.0402257	-0.9728603	136.929	-34.736	-258.144	B5-03822-P02-CH0	4410072	OK	0.8309889	0.001374	-0.5562872	0	-82.033	-99.054	3.64	B5-03822-P02-CH1	4410072	OK	0.68339	0.0013983	-0.7300522	0	-77.161	-77.142	-0.992	B5-03822-P03-CH0	4410072	OK	0.7519792	-0.2442026	-0.6122846	0	-94.392	-56.666	-0.696	B5-03822-P03-CH1	4410072	OK	0.7453192	-0.6143935	0.2588821	0	-96.133	-15.514	-18.817	B5-03822-P04-CH0	4410072	OK	0.758171	-0.0753819	0.6476838	0	-121.724	-38.464	1.873	B5-03822-P04-CH1	4410072	OK	0.7059293	-0.6750837	0.2143032	0	-105.255	-30.491	-17.981	NA
0.0199839305801061	B5-03822-P01-CH0	4410080	OK	0.2211198	0.0563143	0.0406698	-0.9727696	136.963	-34.627	-258.054	B5-03822-P02-CH0	4410080	OK	0.8325339	0.0003788	-0.553974	0	-81.471	-99.185	3.613	B5-03822-P02-CH1	4410080	OK	0.6896277	-0.0024856	-0.7241598	0	-76.693	-76.645	-1.308	B5-03822-P03-CH0	4410080	OK	0.7523122	-0.2405654	-0.6133145	0	-94.508	-56.289	0.47	B5-03822-P03-CH1	4410080	OK	0.7455992	-0.6139164	0.2592074	0	-96.212	-15.551	-18.674	B5-03822-P04-CH0	4410080	OK	0.7584795	-0.0747272	0.6473985	0	-121.871	-38.605	1.978	B5-03822-P04-CH1	4410080	OK	0.7062907	-0.6747003	0.2143198	0	-105.284	-30.444	-18.062	NA
0.0299758958701591	B5-03822-P01-CH0	4410088	OK	0.2210825	0.0561587	0.0405848	-0.9727906	136.894	-34.632	-257.999	B5-03822-P02-CH0	4410088	OK	0.8324993	0.0010913	-0.554025	0	-81.845	-98.645	4.808	B5-03822-P02-CH1	4410088	OK	0.6941011	-0.005167	-0.719859	0	-77.349	-77.062	-1.465	B5-03822-P03-CH0	4410088	OK	0.7529269	-0.2363429	-0.6142012	0	-94.213	-56.144	-0.206	B5-03822-P03-CH1	4410088	OK	0.7452725	-0.6141158	0.2596743	0	-96.154	-15.746	-18.625	B5-03822-P04-CH0	4410088	OK	0.758433	-0.0747148	0.6474543	0	-121.806	-38.636	2.025	B5-03822-P04-CH1	4410088	OK	0.7064416	-0.6749128	0.2131499	0	-105.047	-30.083	-18.862	NA
0.0399678611602121	B5-03822-P01-CH0	4410096	OK	0.2212685	0.056198	0.0405865	-0.972746	136.908	-34.567	-257.974	B5-03822-P02-CH0	4410096	OK	0.8332355	0.001654	-0.5529158	0	-81.771	-98.551	4.287	B5-03822-P02-CH1	4410096	OK	0.6989975	-0.0077464	-0.7150821	0	-77.932	-77.545	-1.423	B5-03822-P03-CH0	4410096	OK	0.7538358	-0.2321839	-0.6146724	0	-93.717	-55.903	-0.401	B5-03822-P03-CH1	4410096	OK	0.7453369	-0.614001	0.2597608	0	-96.068	-15.618	-18.626	B5-03822-P04-CH0	4410096	OK	0.7583345	-0.0743963	0.6476063	0	-121.733	-38.614	1.859	B5-03822-P04-CH1	4410096	OK	0.7069742	-0.6745643	0.2124862	0	-104.934	-29.573	-19.384	NA
0.0499598264502651	B5-03822-P01-CH0	4410104	OK	0.2210613	0.0561091	0.0402869	-0.9728107	136.933	-34.665	-258.045	B5-03822-P02-CH0	4410104	OK	0.8340947	0.0002686	-0.5516212	0	-81.684	-98.777	4.509	B5-03822-P02-CH1	4410104	OK	0.704653	-0.0084918	-0.7095013	0	-78.226	-77.471	-1.677	B5-03822-P03-CH0	4410104	OK	0.752633	-0.2275965	-0.6178539	0	-94.653	-56.113	0.179	B5-03822-P03-CH1	4410104	OK	0.7452176	-0.6141869	0.2596637	0	-96.123	-15.648	-18.566	B5-03822-P04-CH0	4410104	OK	0.7581841	-0.0745588	0.6477637	0	-121.689	-38.685	1.922	B5-03822-P04-CH1	4410104	OK	0.7061593	-0.6749858	0.2138532	0	-105.131	-30.395	-18.408	NA
0.0599517917403182	B5-03822-P01-CH0	4410112	OK	0.220851	0.0561645	0.0397171	-0.9728787	136.96	-34.657	-258.107	B5-03822-P02-CH0	4410112	OK	0.8347821	7e-05	-0.5505805	0	-81.707	-98.738	4.729	B5-03822-P02-CH1	4410112	OK	0.7092389	-0.0071926	-0.7049315	0	-78.717	-77.896	-2.094	B5-03822-P03-CH0	4410112	OK	0.7545023	-0.2222519	-0.6175195	0	-93.395	-56.613	0.33	B5-03822-P03-CH1	4410112	OK	0.7446357	-0.6145715	0.2604219	0	-96.326	-16.022	-18.065	B5-03822-P04-CH0	4410112	OK	0.7581451	-0.0746858	0.6477948	0	-121.787	-38.554	1.839	B5-03822-P04-CH1	4410112	OK	0.7050994	-0.6757396	0.2149668	0	-105.273	-31.075	-17.74	NA
0.0699437570303712	B5-03822-P01-CH0	4410120	OK	0.220615	0.0559887	0.0394875	-0.9729517	136.841	-34.686	-257.929	B5-03822-P02-CH0	4410120	OK	0.8347509	0.0008161	-0.5506271	0	-82.104	-98.832	5.258	B5-03822-P02-CH1	4410120	OK	0.7134727	-0.0069266	-0.7006487	0	-79.109	-77.651	-1.725	B5-03822-P03-CH0	4410120	OK	0.7525341	-0.2172157	-0.6216991	0	-94.762	-56.174	0.604	B5-03822-P03-CH1	4410120	OK	0.7439179	-0.6150645	0.2613078	0	-96.37	-16.554	-17.98	B5-03822-P04-CH0	4410120	OK	0.7581138	-0.074528	0.6478495	0	-121.773	-38.699	1.85	B5-03822-P04-CH1	4410120	OK	0.7050236	-0.6760237	0.2143211	0	-105.178	-30.947	-18.034	NA
0.0799357223204242	B5-03822-P01-CH0	4410128	OK	0.2206367	0.05584	0.0394501	-0.9729568	136.802	-34.679	-257.983	B5-03822-P02-CH0	4410128	OK	0.8362452	0.0029811	-0.5483477	0	-81.655	-98.971	3.349	B5-03822-P02-CH1	4410128	OK	0.718449	-0.0076825	-0.6955372	0	-79.571	-77.742	-2.372	B5-03822-P03-CH0	4410128	OK	0.7530059	-0.2112908	-0.6231679	0	-94.294	-55.076	-0.494	B5-03822-P03-CH1	4410128	OK	0.7441003	-0.6150343	0.2608593	0	-96.092	-16.152	-18.466	B5-03822-P04-CH0	4410128	OK	0.7579281	-0.0738699	0.6481421	0	-121.689	-38.997	2.087	B5-03822-P04-CH1	4410128	OK	0.7049657	-0.6760999	0.2142715	0	-105.182	-31.026	-17.882	NA
0.0899276876104773	B5-03822-P01-CH0	4410136	OK	0.2201752	0.0560268	0.0387131	-0.9730802	136.78	-34.761	-257.783	B5-03822-P02-CH0	4410136	OK	0.8355018	0.0044685	-0.5494696	0	-82.302	-99.24	4.085	B5-03822-P02-CH1	4410136	OK	0.7242316	-0.0081329	-0.6895088	0	-79.595	-78.182	-1.64	B5-03822-P03-CH0	4410136	OK	0.7510256	-0.205262	-0.6275572	0	-94.237	-55.664	-0.977	B5-03822-P03-CH1	4410136	OK	0.7435271	-0.6157088	0.2609025	0	-96.09	-16.223	-18.826	B5-03822-P04-CH0	4410136	OK	0.7580253	-0.0731915	0.6481055	0	-121.821	-39.138	2.147	B5-03822-P04-CH1	4410136	OK	0.7040405	-0.676949	0.2146325	0	-105.251	-31.442	-17.66	NA
0.0999196529005303	B5-03822-P01-CH0	4410144	OK	0.2199971	0.0561576	0.0384391	-0.9731238	136.798	-34.768	-257.751	B5-03822-P02-CH0	4410144	OK	0.8361846	0.0086288	-0.5483803	0	-82.157	-99.143	3.89	B5-03822-P02-CH1	4410144	OK	0.7266314	-0.0091718	-0.6869663	0	-80.762	-78.255	-1.329	B5-03822-P03-CH0	4410144	OK	0.7480531	-0.2017835	-0.6322183	0	-94.085	-56.18	0.059	B5-03822-P03-CH1	4410144	OK	0.7433233	-0.6158994	0.2610332	0	-96.125	-16.267	-18.814	B5-03822-P04-CH0	4410144	OK	0.7578825	-0.0717669	0.6484316	0	-121.828	-39.26	2.244	B5-03822-P04-CH1	4410144	OK	0.7035263	-0.6774579	0.2147127	0	-105.322	-31.713	-17.471	NA
0.109911618190583	B5-03822-P01-CH0	4410152	OK	0.2200076	0.056087	0.0383429	-0.9731293	136.768	-34.753	-257.744	B5-03822-P02-CH0	4410152	OK	0.8362145	0.0107826	-0.5482965	0	-82.166	-99.186	3.275	B5-03822-P02-CH1	4410152	OK	0.7294991	-0.0091075	-0.6839211	0	-80.906	-77.977	-1.226	B5-03822-P03-CH0	4410152	OK	0.7462711	-0.1975887	-0.63564	0	-92.91	-56.013	-0.232	B5-03822-P03-CH1	4410152	OK	0.7434667	-0.6157754	0.2609174	0	-95.976	-15.963	-19.261	B5-03822-P04-CH0	4410152	OK	0.7576318	-0.0694352	0.6489782	0	-121.849	-39.429	2.253	B5-03822-P04-CH1	4410152	OK	0.7035117	-0.6777471	0.2138461	0	-105.08	-31.509	-17.914	NA
0.119903583480636	B5-03822-P01-CH0	4410160	OK	0.2198662	0.0560815	0.0380799	-0.973172	136.785	-34.811	-257.812	B5-03822-P02-CH0	4410160	OK	0.8360321	0.0088799	-0.5486087	0	-82.459	-100.012	4.33	B5-03822-P02-CH1	4410160	OK	0.7338872	-0.0114683	-0.6791746	0	-80.048	-78.703	-1.865	B5-03822-P03-CH0	4410160	OK	0.7430098	-0.1928309	-0.6408999	0	-92.561	-55.754	-0.36	B5-03822-P03-CH1	4410160	OK	0.7432608	-0.615945	0.2611037	0	-95.901	-16.133	-19.144	B5-03822-P04-CH0	4410160	OK	0.7550996	-0.0501562	0.6536887	0	-121.641	-38.763	1.829	B5-03822-P04-CH1	4410160	OK	0.7034547	-0.6780682	0.2130142	0	-104.928	-31.366	-18.094	NA
0.129895548770689	B5-03822-P01-CH0	4410168	OK	0.2198694	0.0563641	0.0378583	-0.9731635	136.919	-34.836	-257.778	B5-03822-P02-CH0	4410168	OK	0.8359206	0.0060274	-0.5488173	0	-82.414	-99.691	5.032	B5-03822-P02-CH1	4410168	OK	0.7354562	-0.0184796	-0.6773202	0	-80.545	-78.61	-2.307	B5-03822-P03-CH0	4410168	OK	0.7394274	-0.1875164	-0.6465948	0	-92.626	-55.294	-0.411	B5-03822-P03-CH1	4410168	OK	0.7432853	-0.6159869	0.260935	0	-95.882	-16.065	-19.473	B5-03822-P04-CH0	4410168	OK	0.7534993	-0.0448702	0.6559157	0	-120.949	-37.746	1.426	B5-03822-P04-CH1	4410168	OK	0.7030377	-0.6782915	0.2136788	0	-105.171	-31.792	-17.563	NA
0.139887514060742	B5-03822-P01-CH0	4410176	OK	0.2196819	0.0561011	0.037592	-0.9732314	136.811	-34.891	-257.826	B5-03822-P02-CH0	4410176	OK	0.8351597	-5.99e-05	-0.5500075	0	-81.921	-100.011	3.614	B5-03822-P02-CH1	4410176	OK	0.7356495	-0.0255994	-0.6768785	0	-81.145	-78.43	-1.109	B5-03822-P03-CH0	4410176	OK	0.7365467	-0.1835035	-0.6510188	0	-92.16	-54.872	-1.54	B5-03822-P03-CH1	4410176	OK	0.7432682	-0.6160542	0.2608248	0	-95.684	-15.913	-19.658	B5-03822-P04-CH0	4410176	OK	0.7525934	-0.0416492	0.6571671	0	-120.964	-38.458	1.468	B5-03822-P04-CH1	4410176	OK	0.7022849	-0.6789533	0.2140523	0	-105.155	-32.324	-16.835	NA
0.149879479350795	B5-03822-P01-CH0	4410184	OK	0.2198252	0.0563677	0.0375999	-0.9731833	136.871	-34.774	-257.777	B5-03822-P02-CH0	4410184	OK	0.8340257	-0.0062423	-0.5516903	0	-81.684	-99.282	4.532	B5-03822-P02-CH1	4410184	OK	0.7378628	-0.0333281	-0.6741274	0	-80.475	-77.875	-2.036	B5-03822-P03-CH0	4410184	OK	0.7338199	-0.180322	-0.6549751	0	-91.626	-55.321	-0.374	B5-03822-P03-CH1	4410184	OK	0.7431186	-0.6158605	0.261707	0	-95.749	-16.112	-19.603	B5-03822-P04-CH0	4410184	OK	0.7525772	-0.0376247	0.6574283	0	-121.259	-38.819	2.662	B5-03822-P04-CH1	4410184	OK	0.7024963	-0.6790659	0.2129987	0	-105.083	-31.988	-17.116	NA
0.159871444640848	B5-03822-P01-CH0	4410192	OK	0.2201322	0.0563371	0.0383304	-0.9730872	136.883	-34.716	-257.746	B5-03822-P02-CH0	4410192	OK	0.8324204	-0.0134427	-0.5539815	0	-81.584	-99.479	3.878	B5-03822-P02-CH1	4410192	OK	0.7379054	-0.0417046	-0.6736144	0	-80.968	-78.252	-2.936	B5-03822-P03-CH0	4410192	OK	0.7325013	-0.1802617	-0.656466	0	-91.065	-55.385	-0.711	B5-03822-P03-CH1	4410192	OK	0.7437702	-0.6149632	0.2619659	0	-95.659	-15.911	-19.939	B5-03822-P04-CH0	4410192	OK	0.7516261	-0.0332101	0.6587528	0	-121.418	-38.591	1.367	B5-03822-P04-CH1	4410192	OK	0.7035712	-0.6784401	0.2114394	0	-104.932	-31.388	-17.476	NA
0.169863409930901	B5-03822-P01-CH0	4410200	OK	0.2201649	0.0565052	0.0383588	-0.9730689	136.974	-34.714	-257.864	B5-03822-P02-CH0	4410200	OK	0.8321419	-0.0176704	-0.5542812	0	-80.821	-99.185	3.063	B5-03822-P02-CH1	4410200	OK	0.7391621	-0.048686	-0.6717657	0	-80.725	-78.076	-2.269	B5-03822-P03-CH0	4410200	OK	0.7318469	-0.1806813	-0.6570801	0	-90.935	-55.065	1.239	B5-03822-P03-CH1	4410200	OK	0.7442886	-0.6144078	0.2617967	0	-95.626	-15.554	-20.014	B5-03822-P04-CH0	4410200	OK	0.7509914	-0.029942	0.6596327	0	-121.396	-38.464	3.02	B5-03822-P04-CH1	4410200	OK	0.7033613	-0.6786071	0.2116015	0	-105.065	-31.662	-16.946	NA
0.179855375220955	B5-03822-P01-CH0	4410208	OK	0.2202866	0.056502	0.0388484	-0.9730222	137.01	-34.741	-257.846	B5-03822-P02-CH0	4410208	OK	0.8314978	-0.0218556	-0.555098	0	-80.832	-99.046	3.73	B5-03822-P02-CH1	4410208	OK	0.739486	-0.0532559	-0.6710621	0	-80.767	-78.073	-1.892	B5-03822-P03-CH0	4410208	OK	0.7307682	-0.1835146	-0.6574954	0	-92.189	-55.158	1.985	B5-03822-P03-CH1	4410208	OK	0.7444001	-0.613826	0.2628425	0	-95.693	-15.923	-19.79	B5-03822-P04-CH0	4410208	OK	0.7520128	-0.0265168	0.6586149	0	-122.169	-39.062	3.487	B5-03822-P04-CH1	4410208	OK	0.7039908	-0.6782994	0.210492	0	-104.94	-31.326	-17.441	NA
0.189847340511008	B5-03822-P01-CH0	4410216	OK	0.2204676	0.0562679	0.0394356	-0.9729711	136.988	-34.747	-257.941	B5-03822-P02-CH0	4410216	OK	0.8316088	-0.0239687	-0.5548444	0	-80.828	-98.705	4.311	B5-03822-P02-CH1	4410216	OK	0.738912	-0.0576746	-0.671329	0	-80.889	-77.725	-1.708	B5-03822-P03-CH0	4410216	OK	0.7333726	-0.1874692	-0.6534677	0	-92.123	-55.415	0.641	B5-03822-P03-CH1	4410216	OK	0.7449642	-0.6130298	0.2631023	0	-95.623	-15.842	-19.812	B5-03822-P04-CH0	4410216	OK	0.7525525	-0.0237353	0.6581044	0	-122.846	-39.027	4.404	B5-03822-P04-CH1	4410216	OK	0.7044466	-0.6779253	0.2101721	0	-104.947	-31.223	-17.384	NA
0.199839305801061	B5-03822-P01-CH0	4410224	OK	0.2205607	0.0561046	0.0402867	-0.9729246	136.919	-34.621	-257.863	B5-03822-P02-CH0	4410224	OK	0.8330446	-0.026384	-0.5525763	0	-80.271	-98.797	3.837	B5-03822-P02-CH1	4410224	OK	0.7364648	-0.0612122	-0.6737007	0	-81.617	-77.923	-1.783	B5-03822-P03-CH0	4410224	OK	0.7375614	-0.1966213	-0.6460211	0	-92.231	-54.924	0.085	B5-03822-P03-CH1	4410224	OK	0.7458224	-0.612128	0.2627703	0	-95.381	-15.313	-20.346	B5-03822-P04-CH0	4410224	OK	0.7512979	-0.0228665	0.659567	0	-122.687	-38.589	3.402	B5-03822-P04-CH1	4410224	OK	0.7055937	-0.6769772	0.2093784	0	-105.005	-30.552	-17.908	NA
0.209831271091114	B5-03822-P01-CH0	4410232	OK	0.2205786	0.0562027	0.040489	-0.9729065	136.966	-34.563	-257.887	B5-03822-P02-CH0	4410232	OK	0.8332056	-0.0291445	-0.5521947	0	-80.778	-98.764	4.383	B5-03822-P02-CH1	4410232	OK	0.734824	-0.0664685	-0.674993	0	-81.02	-77.221	-2.422	B5-03822-P03-CH0	4410232	OK	0.742774	-0.2112056	-0.6353574	0	-93.148	-55.265	1.092	B5-03822-P03-CH1	4410232	OK	0.7455811	-0.611819	0.2641712	0	-95.784	-16.028	-19.396	B5-03822-P04-CH0	4410232	OK	0.7507362	-0.0208385	0.6602734	0	-123.317	-39.602	2.654	B5-03822-P04-CH1	4410232	OK	0.7056005	-0.6767445	0.2101068	0	-105.284	-30.671	-17.871	NA
0.219823236381167	B5-03822-P01-CH0	4410240	OK	0.2209525	0.0558258	0.041407	-0.9728047	136.879	-34.408	-257.937	B5-03822-P02-CH0	4410240	OK	0.8336194	-0.0305733	-0.5514924	0	-81.022	-97.924	3.744	B5-03822-P02-CH1	4410240	OK	0.7313234	-0.0754862	-0.6778406	0	-80.465	-77.123	-2.261	B5-03822-P03-CH0	4410240	OK	0.7504443	-0.2271149	-0.6206868	0	-94.144	-54.291	0.04	B5-03822-P03-CH1	4410240	OK	0.7451921	-0.6112445	0.2665875	0	-96.395	-17.078	-18.215	B5-03822-P04-CH0	4410240	OK	0.7493671	-0.0164527	0.6619503	0	-123.438	-39.214	2.305	B5-03822-P04-CH1	4410240	OK	0.7063443	-0.6757824	0.2107032	0	-105.292	-30.444	-18.12	NA
0.22981520167122	B5-03822-P01-CH0	4410248	OK	0.2209803	0.0553223	0.0422257	-0.9727919	136.706	-34.279	-258.032	B5-03822-P02-CH0	4410248	OK	0.8339702	-0.0320855	-0.5508759	0	-80.894	-97.652	3.447	B5-03822-P02-CH1	4410248	OK	0.7280912	-0.0809919	-0.6806787	0	-79.756	-76.826	-3.073	B5-03822-P03-CH0	4410248	OK	0.7592549	-0.2455031	-0.6027107	0	-94.352	-55.175	1.093	B5-03822-P03-CH1	4410248	OK	0.7442977	-0.618281	0.2524867	0	-95.609	-13.611	-20.98	B5-03822-P04-CH0	4410248	OK	0.747644	-0.0108167	0.6640116	0	-123.477	-40.011	2.869	B5-03822-P04-CH1	4410248	OK	0.7072015	-0.6747212	0.2112281	0	-105.284	-30.015	-18.199	NA
0.239807166961273	B5-03822-P01-CH0	4410256	OK	0.2209293	0.0555763	0.0425536	-0.9727748	136.83	-34.274	-257.976	B5-03822-P02-CH0	4410256	OK	0.8335032	-0.0326991	-0.5515461	0	-80.942	-98.112	3.495	B5-03822-P02-CH1	4410256	OK	0.7216292	-0.0791458	-0.6877407	0	-80.761	-77.448	-2.194	B5-03822-P03-CH0	4410256	OK	0.7657803	-0.2610071	-0.5877549	0	-94.739	-56.219	1.256	B5-03822-P03-CH1	4410256	OK	0.7390771	-0.6254831	0.2500719	0	-97.325	-16.5	-16.896	B5-03822-P04-CH0	4410256	OK	0.7484779	-0.0072005	0.6631207	0	-124.849	-41.086	3.262	B5-03822-P04-CH1	4410256	OK	0.7082319	-0.6737678	0.2108187	0	-105.472	-29.294	-19.285	NA
0.249799132251326	B5-03822-P01-CH0	4410264	OK	0.2210776	0.0554912	0.0431645	-0.972719	136.807	-34.23	-257.882	B5-03822-P02-CH0	4410264	OK	0.8324213	-0.0278406	-0.5534434	0	-81.165	-98.201	3.164	B5-03822-P02-CH1	4410264	OK	0.7174582	-0.0706614	-0.6930084	0	-79.668	-77.445	-2.782	B5-03822-P03-CH0	4410264	OK	0.7713736	-0.2694495	-0.5765239	0	-94.886	-56.005	1.389	B5-03822-P03-CH1	4410264	OK	0.7371762	-0.6316462	0.2399882	0	-96.214	-14.224	-18.775	B5-03822-P04-CH0	4410264	OK	0.7473934	-0.0136387	0.6642418	0	-123.774	-41.087	2.872	B5-03822-P04-CH1	4410264	OK	0.7088281	-0.6726474	0.2123869	0	-105.702	-29.246	-19.658	NA
0.259791097541379	B5-03822-P01-CH0	4410272	OK	0.221013	0.0552287	0.0433022	-0.9727425	136.689	-34.158	-257.853	B5-03822-P02-CH0	4410272	OK	0.8320839	-0.0228729	-0.554178	0	-80.654	-98.135	3.512	B5-03822-P02-CH1	4410272	OK	0.7120823	-0.0605999	-0.6994758	0	-79.233	-77.552	-3.138	B5-03822-P03-CH0	4410272	OK	0.776366	-0.2716343	-0.5687448	0	-95.306	-56.538	2.031	B5-03822-P03-CH1	4410272	OK	0.7348792	-0.6371727	0.2323004	0	-95.872	-11.904	-20.085	B5-03822-P04-CH0	4410272	OK	0.7464881	-0.0264378	0.6648733	0	-122.532	-39.432	1.809	B5-03822-P04-CH1	4410272	OK	0.7089062	-0.6719554	0.2143082	0	-105.922	-29.367	-19.634	NA
0.269783062831432	B5-03822-P01-CH0	4410280	OK	0.2208673	0.0551873	0.0432131	-0.9727819	136.656	-34.102	-257.812	B5-03822-P02-CH0	4410280	OK	0.8298426	-0.019493	-0.5576569	0	-81.612	-99.001	3.366	B5-03822-P02-CH1	4410280	OK	0.7081506	-0.0503023	-0.7042672	0	-78.673	-77.716	-4.195	B5-03822-P03-CH0	4410280	OK	0.7807424	-0.2670554	-0.5649095	0	-95.917	-57.031	2.04	B5-03822-P03-CH1	4410280	OK	0.7328272	-0.6421559	0.2249445	0	-95.279	-9.582	-20.744	B5-03822-P04-CH0	4410280	OK	0.7455252	-0.0354125	0.665536	0	-121.19	-38.33	2.313	B5-03822-P04-CH1	4410280	OK	0.7092655	-0.6715434	0.2144105	0	-105.893	-28.894	-20.471	NA
0.279775028121485	B5-03822-P01-CH0	4410288	OK	0.2206323	0.0550043	0.0427721	-0.9728651	136.523	-34.061	-257.733	B5-03822-P02-CH0	4410288	OK	0.8305153	-0.0110007	-0.5568872	0	-81.036	-98.447	3.638	B5-03822-P02-CH1	4410288	OK	0.7034066	-0.0400347	-0.7096594	0	-78.57	-77.465	-2.554	B5-03822-P03-CH0	4410288	OK	0.7845153	-0.2635102	-0.561336	0	-96.368	-57.485	1.633	B5-03822-P03-CH1	4410288	OK	0.7311254	-0.6469446	0.2166065	0	-94.406	-7.081	-23.731	B5-03822-P04-CH0	4410288	OK	0.7460334	-0.0362408	0.6649216	0	-120.776	-38.795	3.109	B5-03822-P04-CH1	4410288	OK	0.7088059	-0.6715812	0.2158074	0	-105.949	-29.031	-20.841	NA
0.289766993411538	B5-03822-P01-CH0	4410296	OK	0.2202989	0.0554792	0.0417921	-0.9729563	136.638	-34.044	-257.661	B5-03822-P02-CH0	4410296	OK	0.82903	-0.0056285	-0.5591758	0	-81.302	-98.377	4.47	B5-03822-P02-CH1	4410296	OK	0.6970128	-0.0309438	-0.7163907	0	-79.166	-78.102	-0.48	B5-03822-P03-CH0	4410296	OK	0.7885681	-0.2600786	-0.5572428	0	-95.967	-57.717	3.264	B5-03822-P03-CH1	4410296	OK	0.7272392	-0.6515391	0.2159166	0	-95.234	-8.016	-21.531	B5-03822-P04-CH0	4410296	OK	0.7460264	-0.0359702	0.6649441	0	-120.309	-37.112	2.542	B5-03822-P04-CH1	4410296	OK	0.7083793	-0.67188	0.2162776	0	-105.966	-28.911	-21.299	NA
0.299758958701591	B5-03822-P01-CH0	4410304	OK	0.2203263	0.0554664	0.0415666	-0.9729605	136.693	-34.04	-257.738	B5-03822-P02-CH0	4410304	OK	0.8281968	-0.0041418	-0.5604221	0	-81.204	-99.176	4.727	B5-03822-P02-CH1	4410304	OK	0.6927394	-0.0244531	-0.7207733	0	-79.047	-78.85	-1.406	B5-03822-P03-CH0	4410304	OK	0.7906482	-0.2613562	-0.5536861	0	-96.616	-58.669	4.198	B5-03822-P03-CH1	4410304	OK	0.7246784	-0.6547644	0.2147667	0	-95.403	-8.214	-20.619	B5-03822-P04-CH0	4410304	OK	0.7470491	-0.0333115	0.6639338	0	-120.791	-37.076	3.009	B5-03822-P04-CH1	4410304	OK	0.7074799	-0.6719329	0.2190395	0	-106.199	-29.942	-20.164	NA
0.309750923991644	B5-03822-P01-CH0	4410312	OK	0.2201928	0.0554145	0.0410027	-0.9730175	136.613	-34.075	-257.556	B5-03822-P02-CH0	4410312	OK	0.8286067	-0.0013254	-0.5598296	0	-80.625	-98.815	4.094	B5-03822-P02-CH1	4410312	OK	0.6918363	-0.0203418	-0.7217677	0	-77.331	-78.012	-2.205	B5-03822-P03-CH0	4410312	OK	0.7938242	-0.2623277	-0.5486596	0	-96.458	-59.027	4.639	B5-03822-P03-CH1	4410312	OK	0.7212881	-0.6579177	0.2165359	0	-96.152	-9.472	-19.817	B5-03822-P04-CH0	4410312	OK	0.7466768	-0.0286239	0.6645708	0	-120.978	-37.674	2.782	B5-03822-P04-CH1	4410312	OK	0.7072555	-0.6719714	0.2196456	0	-106.185	-30.038	-20.243	NA
0.319742889281697	B5-03822-P01-CH0	4410320	OK	0.2199811	0.0556556	0.0402881	-0.9730815	136.635	-34.122	-257.401	B5-03822-P02-CH0	4410320	OK	0.8280759	-0.0004349	-0.5606158	0	-80.498	-98.565	3.968	B5-03822-P02-CH1	4410320	OK	0.6900859	-0.0192042	-0.7234726	0	-77.861	-78.365	-1.672	B5-03822-P03-CH0	4410320	OK	0.794683	-0.2599359	-0.5485547	0	-98.032	-58.415	3.558	B5-03822-P03-CH1	4410320	OK	0.7198022	-0.6592928	0.2172965	0	-97.219	-9.656	-19.469	B5-03822-P04-CH0	4410320	OK	0.7460389	-0.0247318	0.6654429	0	-121.183	-38.376	3.923	B5-03822-P04-CH1	4410320	OK	0.7067633	-0.6723407	0.2200991	0	-106.208	-30.227	-20.289	NA
0.32973485457175	B5-03822-P01-CH0	4410328	OK	0.2198317	0.0559799	0.0394383	-0.9731315	136.703	-34.19	-257.223	B5-03822-P02-CH0	4410328	OK	0.8257988	-0.000869	-0.5639642	0	-81.16	-99.019	2.787	B5-03822-P02-CH1	4410328	OK	0.6913789	-0.0213915	-0.7221757	0	-78.377	-78.628	-0.89	B5-03822-P03-CH0	4410328	OK	0.7956857	-0.2596608	-0.5472299	0	-99.064	-58.861	2.729	B5-03822-P03-CH1	4410328	OK	0.7157928	-0.660612	0.2263457	0	-98.625	-13.289	-14.142	B5-03822-P04-CH0	4410328	OK	0.7454277	-0.0206525	0.6662665	0	-121.9	-38.938	4.633	B5-03822-P04-CH1	4410328	OK	0.7060473	-0.6730491	0.2202321	0	-106.199	-30.508	-20.795	NA
0.339726819861803	B5-03822-P01-CH0	4410336	OK	0.219724	0.0561061	0.0388263	-0.9731732	136.674	-34.139	-257.042	B5-03822-P02-CH0	4410336	OK	0.8248272	-0.0018093	-0.5653821	0	-81.293	-99.388	3.442	B5-03822-P02-CH1	4410336	OK	0.6963192	-0.0236575	-0.7173422	0	-78.317	-78.691	-1.066	B5-03822-P03-CH0	4410336	OK	0.7986398	-0.2584096	-0.5435061	0	-98.338	-59.515	3.1	B5-03822-P03-CH1	4410336	OK	0.7176985	-0.661329	0.218066	0	-96.666	-9.801	-18.258	B5-03822-P04-CH0	4410336	OK	0.7435131	-0.0156955	0.6685371	0	-122.111	-38.844	5.048	B5-03822-P04-CH1	4410336	OK	0.7054543	-0.6735277	0.2206688	0	-106.192	-30.729	-20.83	NA
0.349718785151856	B5-03822-P01-CH0	4410344	OK	0.2196308	0.0562287	0.0384556	-0.9732018	136.722	-34.111	-256.973	B5-03822-P02-CH0	4410344	OK	0.8251135	-0.0031311	-0.5649584	0	-81.237	-100.055	3.787	B5-03822-P02-CH1	4410344	OK	0.7019713	-0.0272127	-0.7116851	0	-79.252	-79.52	-1.146	B5-03822-P03-CH0	4410344	OK	0.7999529	-0.2556445	-0.5428823	0	-98.243	-60.151	3.758	B5-03822-P03-CH1	4410344	OK	0.7161672	-0.6627796	0.2186958	0	-96.112	-10.649	-17.899	B5-03822-P04-CH0	4410344	OK	0.7420204	-0.0098924	0.6703043	0	-122.801	-39.269	4.195	B5-03822-P04-CH1	4410344	OK	0.705454	-0.6736683	0.2202399	0	-106.212	-30.622	-20.823	NA
0.359710750441909	B5-03822-P01-CH0	4410352	OK	0.2195981	0.0565041	0.0376904	-0.9732232	136.804	-34.066	-256.898	B5-03822-P02-CH0	4410352	OK	0.8271898	-0.0043402	-0.5619059	0	-81.025	-99.905	3.501	B5-03822-P02-CH1	4410352	OK	0.7108229	-0.0341576	-0.7025411	0	-79.531	-79.052	-0.832	B5-03822-P03-CH0	4410352	OK	0.7995156	-0.2483997	-0.5468752	0	-98.41	-59.815	4.019	B5-03822-P03-CH1	4410352	OK	0.7191726	-0.6605575	0.2155332	0	-96.358	-9.273	-17.423	B5-03822-P04-CH0	4410352	OK	0.7412899	-0.0054559	0.6711628	0	-123.241	-39.421	3.477	B5-03822-P04-CH1	4410352	OK	0.7048195	-0.6743152	0.2202918	0	-106.214	-30.724	-21.208	NA
0.369702715731962	B5-03822-P01-CH0	4410360	OK	0.2197942	0.0563959	0.0378938	-0.9731773	136.774	-33.994	-256.791	B5-03822-P02-CH0	4410360	OK	0.8303655	-0.0095684	-0.557137	0	-81.363	-99.617	3.968	B5-03822-P02-CH1	4410360	OK	0.7191349	-0.0406458	-0.6936807	0	-80.76	-79.176	-1.069	B5-03822-P03-CH0	4410360	OK	0.79637	-0.2303027	-0.5592454	0	-97.875	-58.652	3.738	B5-03822-P03-CH1	4410360	OK	0.7210839	-0.6587626	0.2146388	0	-96.202	-9.167	-20.306	B5-03822-P04-CH0	4410360	OK	0.7418892	-0.0023892	0.6705182	0	-124.061	-39.589	3.085	B5-03822-P04-CH1	4410360	OK	0.7045817	-0.6741324	0.2216082	0	-106.372	-31.25	-20.792	NA
0.379694681022015	B5-03822-P01-CH0	4410368	OK	0.2202114	0.0564231	0.0384576	-0.9730593	136.869	-33.893	-256.819	B5-03822-P02-CH0	4410368	OK	0.8333107	-0.0199778	-0.5524438	0	-82.012	-99.788	4.774	B5-03822-P02-CH1	4410368	OK	0.7268122	-0.0485998	-0.6851146	0	-81.741	-80.098	-0.824	B5-03822-P03-CH0	4410368	OK	0.788186	-0.2066891	-0.5796917	0	-98.392	-57.461	2.418	B5-03822-P03-CH1	4410368	OK	0.7235046	-0.655071	0.2177686	0	-96.384	-10.51	-19.722	B5-03822-P04-CH0	4410368	OK	0.7436617	-0.0071555	0.6685178	0	-125.42	-41.417	4.152	B5-03822-P04-CH1	4410368	OK	0.7055098	-0.6733198	0.2211254	0	-106.387	-30.943	-20.542	NA
0.389686646312068	B5-03822-P01-CH0	4410376	OK	0.2202946	0.0563196	0.0382703	-0.9730538	136.827	-33.894	-256.753	B5-03822-P02-CH0	4410376	OK	0.837685	-0.0330614	-0.5451521	0	-80.903	-99.167	4.903	B5-03822-P02-CH1	4410376	OK	0.7335022	-0.0548187	-0.6774729	0	-81.799	-78.609	-1.983	B5-03822-P03-CH0	4410376	OK	0.7811348	-0.1794959	-0.5980047	0	-97.598	-56.706	2.611	B5-03822-P03-CH1	4410376	OK	0.7274522	-0.6492206	0.2220941	0	-96.843	-11.92	-19.024	B5-03822-P04-CH0	4410376	OK	0.7437765	-0.0160361	0.668236	0	-125.181	-41.774	4.192	B5-03822-P04-CH1	4410376	OK	0.70517	-0.6733701	0.2220541	0	-106.506	-31.331	-20.03	NA
0.399678611602121	B5-03822-P01-CH0	4410384	OK	0.220332	0.056496	0.0379062	-0.9730494	136.839	-33.936	-256.607	B5-03822-P02-CH0	4410384	OK	0.8387393	-0.0428363	-0.5428456	0	-81.066	-99.119	4.655	B5-03822-P02-CH1	4410384	OK	0.7404343	-0.0587108	-0.6695596	0	-81.433	-77.738	-1.605	B5-03822-P03-CH0	4410384	OK	0.7785636	-0.1549296	-0.608141	0	-97.335	-56.584	2.946	B5-03822-P03-CH1	4410384	OK	0.7333713	-0.6423193	0.2226935	0	-95.974	-11.19	-20.247	B5-03822-P04-CH0	4410384	OK	0.7440731	-0.0215175	0.6677516	0	-124.94	-41.51	4.111	B5-03822-P04-CH1	4410384	OK	0.7054782	-0.6733162	0.221237	0	-106.428	-30.948	-20.772	NA
0.409670576892174	B5-03822-P01-CH0	4410392	OK	0.2204453	0.0565438	0.0382237	-0.9730085	136.861	-33.806	-256.698	B5-03822-P02-CH0	4410392	OK	0.8402312	-0.0469701	-0.5401901	0	-81.469	-98.772	4.39	B5-03822-P02-CH1	4410392	OK	0.7449958	-0.0590003	-0.6644548	0	-83.05	-78.391	-0.292	B5-03822-P03-CH0	4410392	OK	0.7770338	-0.1331152	-0.6152226	0	-98.538	-55.597	2.232	B5-03822-P03-CH1	4410392	OK	0.7377233	-0.6354585	0.2279403	0	-95.193	-12.082	-21.079	B5-03822-P04-CH0	4410392	OK	0.744883	-0.0252851	0.6667158	0	-125.097	-42.284	4.523	B5-03822-P04-CH1	4410392	OK	0.7058969	-0.6730057	0.2208459	0	-106.344	-30.668	-20.822	NA
0.419662542182227	B5-03822-P01-CH0	4410400	OK	0.2205676	0.0561457	0.0392338	-0.9729637	136.73	-33.658	-256.753	B5-03822-P02-CH0	4410400	OK	0.8430173	-0.0465372	-0.5358695	0	-81.695	-98.536	3.885	B5-03822-P02-CH1	4410400	OK	0.7506343	-0.0551583	-0.6584115	0	-83.445	-77.75	-0.777	B5-03822-P03-CH0	4410400	OK	0.7795282	-0.1214385	-0.6144823	0	-97.658	-54.706	2.592	B5-03822-P03-CH1	4410400	OK	0.7409555	-0.6280873	0.2376789	0	-96.04	-15.28	-17.686	B5-03822-P04-CH0	4410400	OK	0.7457581	-0.0273183	0.6656565	0	-125.174	-42.395	4.667	B5-03822-P04-CH1	4410400	OK	0.7062313	-0.6723537	0.2217608	0	-106.42	-30.92	-20.254	NA
0.42965450747228	B5-03822-P01-CH0	4410408	OK	0.2207552	0.0561411	0.0395283	-0.9729095	136.727	-33.552	-256.797	B5-03822-P02-CH0	4410408	OK	0.84525	-0.045946	-0.5323921	0	-82.228	-98.866	4.865	B5-03822-P02-CH1	4410408	OK	0.7557493	-0.0526402	-0.6527419	0	-83.363	-78.201	-2.171	B5-03822-P03-CH0	4410408	OK	0.7806916	-0.1146106	-0.6143167	0	-98.422	-54.639	2.924	B5-03822-P03-CH1	4410408	OK	0.7454219	-0.6215881	0.2407788	0	-95.904	-14.628	-19.267	B5-03822-P04-CH0	4410408	OK	0.7474085	-0.0284662	0.6637546	0	-125.653	-42.749	5.377	B5-03822-P04-CH1	4410408	OK	0.7065406	-0.671968	0.2219445	0	-106.415	-30.899	-19.868	NA
0.439646472762333	B5-03822-P01-CH0	4410416	OK	0.2208083	0.0561245	0.0394876	-0.9729	136.715	-33.586	-256.876	B5-03822-P02-CH0	4410416	OK	0.8474137	-0.0423584	-0.5292408	0	-82.364	-98.955	5.477	B5-03822-P02-CH1	4410416	OK	0.7572771	-0.0493217	-0.6512286	0	-84.383	-78.646	-0.968	B5-03822-P03-CH0	4410416	OK	0.7827425	-0.1122026	-0.6121476	0	-98.589	-54.641	1.783	B5-03822-P03-CH1	4410416	OK	0.747529	-0.6173377	0.2451418	0	-95.422	-14.63	-19.561	B5-03822-P04-CH0	4410416	OK	0.7466677	-0.0307149	0.6644877	0	-124.517	-41.075	3.563	B5-03822-P04-CH1	4410416	OK	0.70641	-0.6719476	0.2224215	0	-106.353	-31.136	-19.286	NA
0.449638438052386	B5-03822-P01-CH0	4410424	OK	0.2207347	0.0561802	0.0394673	-0.9729143	136.713	-33.577	-256.895	B5-03822-P02-CH0	4410424	OK	0.8488956	-0.0417993	-0.5269051	0	-82.936	-99.446	6.197	B5-03822-P02-CH1	4410424	OK	0.7584832	-0.0436039	-0.6502322	0	-84.502	-78.621	-0.924	B5-03822-P03-CH0	4410424	OK	0.7859015	-0.1105052	-0.6083974	0	-98.581	-54.656	2.685	B5-03822-P03-CH1	4410424	OK	0.748278	-0.6151063	0.2484439	0	-95.195	-14.829	-20.579	B5-03822-P04-CH0	4410424	OK	0.7480072	-0.0317929	0.6629287	0	-124.574	-42.682	4.387	B5-03822-P04-CH1	4410424	OK	0.7060667	-0.6721963	0.2227596	0	-106.342	-31.374	-19.255	NA
0.459630403342439	B5-03822-P01-CH0	4410432	OK	0.2205669	0.0560105	0.0396667	-0.9729541	136.617	-33.643	-256.797	B5-03822-P02-CH0	4410432	OK	0.851261	-0.0384946	-0.5233287	0	-83.097	-99.375	5.735	B5-03822-P02-CH1	4410432	OK	0.7571987	-0.0351653	-0.6522373	0	-84.751	-78.786	0.285	B5-03822-P03-CH0	4410432	OK	0.7889109	-0.1119296	-0.6042279	0	-99.034	-54.234	2.416	B5-03822-P03-CH1	4410432	OK	0.7466593	-0.6122989	0.2599805	0	-97.757	-19.588	-14.758	B5-03822-P04-CH0	4410432	OK	0.7475445	-0.0349716	0.6632904	0	-123.6	-41.622	3.527	B5-03822-P04-CH1	4410432	OK	0.7061464	-0.672175	0.2225713	0	-106.316	-31.428	-19.213	NA
0.469622368632492	B5-03822-P01-CH0	4410440	OK	0.2206944	0.0561245	0.0396625	-0.9729188	136.643	-33.613	-256.768	B5-03822-P02-CH0	4410440	OK	0.8530325	-0.0356764	-0.5206368	0	-83.762	-99.161	5.864	B5-03822-P02-CH1	4410440	OK	0.7536617	-0.0259497	-0.6567501	0	-84.839	-78.807	-0.643	B5-03822-P03-CH0	4410440	OK	0.7920563	-0.1203017	-0.5984767	0	-99.476	-54.264	3.048	B5-03822-P03-CH1	4410440	OK	0.747176	-0.6109139	0.2617483	0	-96.881	-19.021	-14.507	B5-03822-P04-CH0	4410440	OK	0.7497507	-0.036396	0.6607187	0	-124.604	-41.913	3.598	B5-03822-P04-CH1	4410440	OK	0.7065512	-0.6720789	0.2215749	0	-106.108	-30.971	-19.468	NA
0.479614333922545	B5-03822-P01-CH0	4410448	OK	0.2204516	0.0563353	0.0394063	-0.972972	136.652	-33.618	-256.675	B5-03822-P02-CH0	4410448	OK	0.8551838	-0.0351913	-0.5171288	0	-83.832	-99.288	6.942	B5-03822-P02-CH1	4410448	OK	0.7496519	-0.0193838	-0.6615484	0	-83.686	-78.707	-1.308	B5-03822-P03-CH0	4410448	OK	0.795092	-0.1369033	-0.5908351	0	-100.19	-54.591	2.789	B5-03822-P03-CH1	4410448	OK	0.7460048	-0.6107303	0.2654909	0	-96.526	-19.568	-13.659	B5-03822-P04-CH0	4410448	OK	0.7513352	-0.0392383	0.6587532	0	-124.902	-41.948	3.306	B5-03822-P04-CH1	4410448	OK	0.7060335	-0.6724427	0.2221206	0	-106.225	-31.277	-19.213	NA
0.489606299212598	B5-03822-P01-CH0	4410456	OK	0.2207112	0.0563396	0.0399274	-0.9728917	136.695	-33.55	-256.71	B5-03822-P02-CH0	4410456	OK	0.8572919	-0.0336296	-0.5137312	0	-83.411	-99.117	6.502	B5-03822-P02-CH1	4410456	OK	0.7415042	-0.0163797	-0.6707483	0	-82.929	-78.228	-1.667	B5-03822-P03-CH0	4410456	OK	0.7990998	-0.1614377	-0.5791178	0	-100.507	-55.25	3.546	B5-03822-P03-CH1	4410456	OK	0.7454119	-0.6098842	0.2690768	0	-96.403	-19.561	-15.192	B5-03822-P04-CH0	4410456	OK	0.7507541	-0.0408968	0.6593146	0	-123.856	-40.934	3.091	B5-03822-P04-CH1	4410456	OK	0.7066855	-0.6720325	0.221287	0	-106.065	-30.844	-19.705	NA
0.499598264502651	B5-03822-P01-CH0	4410464	OK	0.2208346	0.0562107	0.0402239	-0.9728589	136.663	-33.431	-256.778	B5-03822-P02-CH0	4410464	OK	0.8568613	-0.0319447	-0.5145563	0	-83.795	-99.026	5.399	B5-03822-P02-CH1	4410464	OK	0.7312209	-0.0186575	-0.6818856	0	-81.99	-77.765	-1.316	B5-03822-P03-CH0	4410464	OK	0.8050214	-0.1839486	-0.5640066	0	-100.313	-55.395	3.851	B5-03822-P03-CH1	4410464	OK	0.7452411	-0.609502	0.2704127	0	-96.639	-19.282	-16.036	B5-03822-P04-CH0	4410464	OK	0.7520628	-0.0421281	0.6577437	0	-124.316	-41.43	2.047	B5-03822-P04-CH1	4410464	OK	0.7068535	-0.6718835	0.2212031	0	-106.015	-30.665	-19.702	NA
0.509590229792704	B5-03822-P01-CH0	4410472	OK	0.2207784	0.0563015	0.0396721	-0.9728891	136.676	-33.528	-256.658	B5-03822-P02-CH0	4410472	OK	0.8571633	-0.0315416	-0.514078	0	-83.298	-98.798	6.836	B5-03822-P02-CH1	4410472	OK	0.7219958	-0.0236552	-0.6914929	0	-80.927	-77.981	-1.947	B5-03822-P03-CH0	4410472	OK	0.8103017	-0.2028914	-0.5497692	0	-101.133	-56.448	4.452	B5-03822-P03-CH1	4410472	OK	0.746495	-0.6081771	0.2699369	0	-96.983	-18.44	-16.478	B5-03822-P04-CH0	4410472	OK	0.7528758	-0.0427175	0.6567749	0	-124.555	-41.846	2.645	B5-03822-P04-CH1	4410472	OK	0.7062798	-0.672332	0.2216722	0	-106.045	-30.865	-19.872	NA
0.519582195082757	B5-03822-P01-CH0	4410480	OK	0.2207373	0.0567245	0.038479	-0.9729217	136.834	-33.715	-256.592	B5-03822-P02-CH0	4410480	OK	0.8558649	-0.0336589	-0.5161031	0	-83.189	-99.956	6.149	B5-03822-P02-CH1	4410480	OK	0.7134754	-0.0297594	-0.700048	0	-80.618	-78.11	-0.937	B5-03822-P03-CH0	4410480	OK	0.8153235	-0.2208025	-0.5352512	0	-101.159	-57.856	4.839	B5-03822-P03-CH1	4410480	OK	0.7450515	-0.6095082	0.2709206	0	-96.438	-19.111	-17.062	B5-03822-P04-CH0	4410480	OK	0.7530498	-0.0434052	0.6565302	0	-124.428	-42.735	3.87	B5-03822-P04-CH1	4410480	OK	0.7052587	-0.6730939	0.2226088	0	-106.2	-31.319	-19.931	NA
0.529574160372811	B5-03822-P01-CH0	4410488	OK	0.2207871	0.0567467	0.0383172	-0.9729155	136.828	-33.746	-256.459	B5-03822-P02-CH0	4410488	OK	0.8545857	-0.0320945	-0.5183177	0	-83.606	-99.77	6.972	B5-03822-P02-CH1	4410488	OK	0.7089998	-0.0377721	-0.7041964	0	-79.755	-77.569	-1.407	B5-03822-P03-CH0	4410488	OK	0.8188761	-0.2305509	-0.5256312	0	-100.483	-58.269	4.46	B5-03822-P03-CH1	4410488	OK	0.7467126	-0.6116771	0.2612879	0	-95.682	-16.834	-19.028	B5-03822-P04-CH0	4410488	OK	0.753373	-0.0463537	0.6559577	0	-124.367	-42.323	2.638	B5-03822-P04-CH1	4410488	OK	0.7053044	-0.6730568	0.2225764	0	-106.167	-31.082	-20.668	NA
0.539566125662864	B5-03822-P01-CH0	4410496	OK	0.2210679	0.0566969	0.0388057	-0.9728353	136.862	-33.657	-256.481	B5-03822-P02-CH0	4410496	OK	0.8543456	-0.031754	-0.5187343	0	-83.839	-99.954	5.902	B5-03822-P02-CH1	4410496	OK	0.7050614	-0.0439349	-0.707784	0	-79.385	-78.145	-2.221	B5-03822-P03-CH0	4410496	OK	0.8180451	-0.2293118	-0.5274641	0	-101.08	-58.462	2.78	B5-03822-P03-CH1	4410496	OK	0.7465434	-0.6103837	0.2647729	0	-96.052	-17.741	-18.143	B5-03822-P04-CH0	4410496	OK	0.7551004	-0.0477994	0.6538644	0	-124.94	-41.965	2.873	B5-03822-P04-CH1	4410496	OK	0.7056022	-0.6726453	0.2228761	0	-106.125	-30.97	-21.2	NA
0.549558090952917	B5-03822-P01-CH0	4410504	OK	0.2212435	0.0566924	0.0389666	-0.9727892	136.86	-33.568	-256.427	B5-03822-P02-CH0	4410504	OK	0.8549314	-0.03132	-0.5177948	0	-83.884	-99.521	6.541	B5-03822-P02-CH1	4410504	OK	0.6996487	-0.0495511	-0.7127667	0	-79.567	-77.817	-1.533	B5-03822-P03-CH0	4410504	OK	0.8165515	-0.2199662	-0.5337214	0	-101.028	-59.553	4.396	B5-03822-P03-CH1	4410504	OK	0.7460651	-0.6094783	0.2681849	0	-96.466	-18.721	-16.946	B5-03822-P04-CH0	4410504	OK	0.7552093	-0.051203	0.6534809	0	-124.541	-42.549	3.048	B5-03822-P04-CH1	4410504	OK	0.706061	-0.6722276	0.2226836	0	-106.098	-30.528	-21.856	NA
0.55955005624297	B5-03822-P01-CH0	4410512	OK	0.2212652	0.0570425	0.0382614	-0.9727918	136.971	-33.541	-256.476	B5-03822-P02-CH0	4410512	OK	0.8558115	-0.0330534	-0.5162308	0	-83.646	-99.255	6.182	B5-03822-P02-CH1	4410512	OK	0.6940366	-0.0502922	-0.718181	0	-79.963	-77.742	-0.78	B5-03822-P03-CH0	4410512	OK	0.8126654	-0.2062178	-0.5450222	0	-101.573	-59.709	3.765	B5-03822-P03-CH1	4410512	OK	0.7452207	-0.6094852	0.2705066	0	-96.71	-19.351	-16.14	B5-03822-P04-CH0	4410512	OK	0.7549744	-0.0555052	0.653401	0	-123.95	-41.805	1.908	B5-03822-P04-CH1	4410512	OK	0.7056272	-0.6724602	0.2233554	0	-106.194	-30.638	-21.685	NA
0.569542021533023	B5-03822-P01-CH0	4410520	OK	0.2213144	0.05702	0.0382516	-0.9727823	136.925	-33.544	-256.373	B5-03822-P02-CH0	4410520	OK	0.8562646	-0.0318939	-0.5155518	0	-83.477	-99.115	6.523	B5-03822-P02-CH1	4410520	OK	0.6909516	-0.0437777	-0.7215742	0	-78.875	-78.276	-0.742	B5-03822-P03-CH0	4410520	OK	0.8010453	-0.1828188	-0.5700032	0	-100.554	-60.58	1.525	B5-03822-P03-CH1	4410520	OK	0.7451192	-0.6091643	0.2715073	0	-96.674	-19.341	-16.483	B5-03822-P04-CH0	4410520	OK	0.7549539	-0.0587266	0.653143	0	-123.714	-41.247	1.12	B5-03822-P04-CH1	4410520	OK	0.7050659	-0.6724227	0.2252327	0	-106.41	-31.251	-21.467	NA
0.579533986823076	B5-03822-P01-CH0	4410528	OK	0.2214671	0.0570273	0.0383336	-0.9727439	136.897	-33.476	-256.323	B5-03822-P02-CH0	4410528	OK	0.856131	-0.0298347	-0.5158969	0	-83.466	-98.87	6.723	B5-03822-P02-CH1	4410528	OK	0.686766	-0.0344072	-0.7260637	0	-78.093	-78.028	-1.226	B5-03822-P03-CH0	4410528	OK	0.7835297	-0.1269831	-0.6082405	0	-97.328	-59.551	1.536	B5-03822-P03-CH1	4410528	OK	0.7448594	-0.6087381	0.2731711	0	-96.974	-19.861	-15.946	B5-03822-P04-CH0	4410528	OK	0.7547549	-0.060429	0.6532177	0	-123.561	-40.971	1.819	B5-03822-P04-CH1	4410528	OK	0.7049558	-0.672179	0.2263024	0	-106.548	-31.423	-21.572	NA
0.589525952113129	B5-03822-P01-CH0	4410536	OK	0.2216806	0.0569519	0.0386653	-0.9726866	136.872	-33.391	-256.317	B5-03822-P02-CH0	4410536	OK	0.8533831	-0.0127733	-0.5211278	0	-84.295	-98.322	6.605	B5-03822-P02-CH1	4410536	OK	0.6832466	-0.0236493	-0.7298047	0	-77.495	-78.046	-0.684	B5-03822-P03-CH0	4410536	OK	0.7667433	-0.0784924	-0.6371371	0	-96.212	-59.361	1.423	B5-03822-P03-CH1	4410536	OK	0.7450113	-0.6083083	0.2737138	0	-96.966	-19.94	-15.705	B5-03822-P04-CH0	4410536	OK	0.7543083	-0.064487	0.6533456	0	-123.394	-40.078	1.536	B5-03822-P04-CH1	4410536	OK	0.7050575	-0.6719547	0.2266513	0	-106.525	-31.452	-21.919	NA
0.599517917403182	B5-03822-P01-CH0	4410544	OK	0.2218051	0.0569394	0.0386133	-0.972661	136.902	-33.437	-256.318	B5-03822-P02-CH0	4410544	OK	0.8527596	-0.0043062	-0.5222859	0	-84.869	-98.719	7.23	B5-03822-P02-CH1	4410544	OK	0.6808995	-0.011464	-0.7322871	0	-77.727	-78.646	-1.889	B5-03822-P03-CH0	4410544	OK	0.7629049	-0.0618345	-0.6435469	0	-95.436	-58.789	0.397	B5-03822-P03-CH1	4410544	OK	0.7449936	-0.6081794	0.2740482	0	-96.947	-20.087	-15.501	B5-03822-P04-CH0	4410544	OK	0.7546714	-0.0705728	0.6522964	0	-123.49	-40.224	1.854	B5-03822-P04-CH1	4410544	OK	0.7047716	-0.672088	0.2271447	0	-106.539	-31.684	-22.247	NA
0.609509882693235	B5-03822-P01-CH0	4410552	OK	0.2220472	0.0567331	0.0393266	-0.9725892	136.856	-33.301	-256.362	B5-03822-P02-CH0	4410552	OK	0.8541784	0.0051122	-0.5199549	0	-85.407	-98.97	7.662	B5-03822-P02-CH1	4410552	OK	0.6789619	0.0011699	-0.7341726	0	-78.181	-78.333	-0.905	B5-03822-P03-CH0	4410552	OK	0.7648797	-0.0572322	-0.6416257	0	-95.107	-57.525	-1.286	B5-03822-P03-CH1	4410552	OK	0.7450613	-0.6076557	0.2750239	0	-97.069	-20.435	-14.978	B5-03822-P04-CH0	4410552	OK	0.754835	-0.0770165	0.6513774	0	-123.474	-39.756	1.49	B5-03822-P04-CH1	4410552	OK	0.704922	-0.6718237	0.2274596	0	-106.495	-31.836	-21.91	NA
0.619501847983288	B5-03822-P01-CH0	4410560	OK	0.2218632	0.0567248	0.0392041	-0.9726367	136.813	-33.229	-256.328	B5-03822-P02-CH0	4410560	OK	0.8562215	0.0159205	-0.5163636	0	-85.974	-99.075	7.797	B5-03822-P02-CH1	4410560	OK	0.6791739	0.0154444	-0.7338149	0	-77.578	-77.563	0.076	B5-03822-P03-CH0	4410560	OK	0.7666664	-0.0557439	-0.6396211	0	-94.742	-58.341	1.626	B5-03822-P03-CH1	4410560	OK	0.7449774	-0.60794	0.2746227	0	-96.988	-20.19	-15.221	B5-03822-P04-CH0	4410560	OK	0.7538552	-0.0839288	0.6516581	0	-122.791	-39.431	2.104	B5-03822-P04-CH1	4410560	OK	0.7046324	-0.6723164	0.2269003	0	-106.53	-31.837	-21.743	NA
0.629493813273341	B5-03822-P01-CH0	4410568	OK	0.2216684	0.0566999	0.0388714	-0.9726959	136.808	-33.244	-256.394	B5-03822-P02-CH0	4410568	OK	0.8574749	0.0256711	-0.513885	0	-86.614	-98.564	8.773	B5-03822-P02-CH1	4410568	OK	0.6780081	0.0236784	-0.734673	0	-77.356	-78.201	0.006	B5-03822-P03-CH0	4410568	OK	0.7692941	-0.0617908	-0.6358997	0	-95.831	-59.723	2.499	B5-03822-P03-CH1	4410568	OK	0.744792	-0.608317	0.2742905	0	-96.907	-19.96	-15.256	B5-03822-P04-CH0	4410568	OK	0.7540046	-0.0881398	0.6509289	0	-123.182	-39.325	1.901	B5-03822-P04-CH1	4410568	OK	0.7039857	-0.6730286	0.2267966	0	-106.657	-32.21	-20.698	NA
0.639485778563394	B5-03822-P01-CH0	4410576	OK	0.2216301	0.0565195	0.0386738	-0.972723	136.718	-33.269	-256.349	B5-03822-P02-CH0	4410576	OK	0.8577713	0.0345404	-0.5128697	0	-87.024	-98.892	9.147	B5-03822-P02-CH1	4410576	OK	0.6747372	0.0252732	-0.7376252	0	-76.786	-78.414	0.427	B5-03822-P03-CH0	4410576	OK	0.7770651	-0.0749288	-0.6249443	0	-95.904	-60.954	2.815	B5-03822-P03-CH1	4410576	OK	0.7443537	-0.6087134	0.2746008	0	-96.862	-20.004	-15.186	B5-03822-P04-CH0	4410576	OK	0.7540606	-0.0918447	0.6503515	0	-123.271	-38.739	0.686	B5-03822-P04-CH1	4410576	OK	0.7031638	-0.6736534	0.2274904	0	-106.937	-32.914	-19.618	NA
0.649477743853447	B5-03822-P01-CH0	4410584	OK	0.2216804	0.0564149	0.0388245	-0.9727116	136.717	-33.186	-256.431	B5-03822-P02-CH0	4410584	OK	0.8565332	0.0427656	-0.5143169	0	-87.133	-98.88	8.984	B5-03822-P02-CH1	4410584	OK	0.6658084	0.0206307	-0.7458375	0	-77.025	-79.015	0.722	B5-03822-P03-CH0	4410584	OK	0.7844725	-0.1006507	-0.6119415	0	-97.164	-61.396	1.202	B5-03822-P03-CH1	4410584	OK	0.7447559	-0.608993	0.272885	0	-96.365	-18.897	-16.439	B5-03822-P04-CH0	4410584	OK	0.7530267	-0.0933111	0.65134	0	-122.695	-37.333	0.169	B5-03822-P04-CH1	4410584	OK	0.7031748	-0.673863	0.2268346	0	-107.106	-32.975	-18.762	NA
0.6594697091435	B5-03822-P01-CH0	4410592	OK	0.2217226	0.0564964	0.0390628	-0.9726877	136.75	-33.199	-256.303	B5-03822-P02-CH0	4410592	OK	0.8544932	0.0481629	-0.5172249	0	-86.244	-98.803	8.297	B5-03822-P02-CH1	4410592	OK	0.6532937	0.0072046	-0.7570703	0	-76.267	-78.639	-0.086	B5-03822-P03-CH0	4410592	OK	0.7935129	-0.1324934	-0.5939552	0	-97.42	-60.506	1.898	B5-03822-P03-CH1	4410592	OK	0.7447172	-0.6091321	0.27268	0	-96.302	-18.776	-16.776	B5-03822-P04-CH0	4410592	OK	0.7531377	-0.0922922	0.6513569	0	-122.882	-37.783	1.594	B5-03822-P04-CH1	4410592	OK	0.703201	-0.674225	0.2256746	0	-107.178	-32.901	-18.779	NA
0.669461674433553	B5-03822-P01-CH0	4410600	OK	0.2211208	0.0566151	0.0381792	-0.9728528	136.756	-33.199	-256.346	B5-03822-P02-CH0	4410600	OK	0.8496814	0.0500305	-0.5249177	0	-85.12	-98.33	7.908	B5-03822-P02-CH1	4410600	OK	0.6386259	-0.0139743	-0.7693905	0	-74.834	-77.642	1.135	B5-03822-P03-CH0	4410600	OK	0.8013635	-0.1718035	-0.5729748	0	-98.772	-60.454	2.559	B5-03822-P03-CH1	4410600	OK	0.7436124	-0.6103299	0.2730164	0	-96.503	-19.162	-16.033	B5-03822-P04-CH0	4410600	OK	0.7529849	-0.0938519	0.6513107	0	-123.166	-39.2	2.513	B5-03822-P04-CH1	4410600	OK	0.7028706	-0.6753805	0.2232353	0	-107.231	-32.357	-18.79	NA
0.679453639723606	B5-03822-P01-CH0	4410608	OK	0.2209859	0.056497	0.0381948	-0.9728897	136.731	-33.188	-256.376	B5-03822-P02-CH0	4410608	OK	0.8423624	0.0492043	-0.5366606	0	-83.836	-98.469	8.142	B5-03822-P02-CH1	4410608	OK	0.6246422	-0.0424294	-0.7797576	0	-73.454	-76.7	1.686	B5-03822-P03-CH0	4410608	OK	0.8105614	-0.2125253	-0.5457318	0	-98.966	-60.164	2.093	B5-03822-P03-CH1	4410608	OK	0.7432731	-0.610727	0.2730524	0	-96.483	-19.155	-16.019	B5-03822-P04-CH0	4410608	OK	0.7519651	-0.0963796	0.6521193	0	-122.871	-37.697	0.089	B5-03822-P04-CH1	4410608	OK	0.702913	-0.6759734	0.2212991	0	-107.056	-31.984	-18.659	NA
0.689445605013659	B5-03822-P01-CH0	4410616	OK	0.2204868	0.0567758	0.0375455	-0.973012	136.806	-33.241	-256.408	B5-03822-P02-CH0	4410616	OK	0.8329627	0.0478853	-0.5512533	0	-81.576	-98.241	6.88	B5-03822-P02-CH1	4410616	OK	0.6146718	-0.0701033	-0.7856615	0	-71.603	-75.986	1.729	B5-03822-P03-CH0	4410616	OK	0.8193202	-0.2593625	-0.5113174	0	-99.527	-60.066	2.689	B5-03822-P03-CH1	4410616	OK	0.7428394	-0.6116896	0.2720764	0	-96.437	-18.82	-16.374	B5-03822-P04-CH0	4410616	OK	0.7523838	-0.0988713	0.6512627	0	-123.105	-37.54	-0.117	B5-03822-P04-CH1	4410616	OK	0.7018738	-0.6771178	0.2210987	0	-107.42	-32.464	-17.728	NA
0.699437570303712	B5-03822-P01-CH0	4410624	OK	0.2203935	0.0565559	0.0377227	-0.9730391	136.735	-33.19	-256.482	B5-03822-P02-CH0	4410624	OK	0.8217076	0.0498922	-0.5677212	0	-78.503	-97.91	3.309	B5-03822-P02-CH1	4410624	OK	0.6060095	-0.0974018	-0.7894716	0	-70.452	-74.837	2.16	B5-03822-P03-CH0	4410624	OK	0.8283786	-0.3041248	-0.4704221	0	-100.643	-60.751	4.15	B5-03822-P03-CH1	4410624	OK	0.7427965	-0.6120402	0.2714038	0	-96.18	-18.334	-17.089	B5-03822-P04-CH0	4410624	OK	0.7523939	-0.0947433	0.6518643	0	-122.627	-37.36	0.734	B5-03822-P04-CH1	4410624	OK	0.701968	-0.677258	0.2203692	0	-107.579	-32.392	-17.022	NA
0.709429535593765	B5-03822-P01-CH0	4410632	OK	0.220208	0.0567568	0.0376936	-0.9730706	136.796	-33.204	-256.473	B5-03822-P02-CH0	4410632	OK	0.8058896	0.0516808	-0.5898059	0	-77.146	-98.757	2.808	B5-03822-P02-CH1	4410632	OK	0.6055975	-0.1033523	-0.7890311	0	-70.157	-76.853	2.517	B5-03822-P03-CH0	4410632	OK	0.8361402	-0.3359898	-0.4335671	0	-101.639	-60.552	5.925	B5-03822-P03-CH1	4410632	OK	0.7428529	-0.6123622	0.270522	0	-96.028	-17.869	-17.481	B5-03822-P04-CH0	4410632	OK	0.7526591	-0.096473	0.6513043	0	-122.823	-37.448	0.905	B5-03822-P04-CH1	4410632	OK	0.7023986	-0.6774774	0.2183131	0	-107.722	-31.778	-17.615	NA
0.719421500883818	B5-03822-P01-CH0	4410640	OK	0.220278	0.0566547	0.0382173	-0.9730402	136.806	-33.148	-256.633	B5-03822-P02-CH0	4410640	OK	0.7898204	0.0500202	-0.6112951	0	-74.387	-98.764	1.115	B5-03822-P02-CH1	4410640	OK	0.6085561	-0.1055059	-0.7864655	0	-71.096	-74.782	1.635	B5-03822-P03-CH0	4410640	OK	0.8407303	-0.352859	-0.4106861	0	-101.106	-61.021	6.334	B5-03822-P03-CH1	4410640	OK	0.7428699	-0.6122715	0.2706805	0	-96.041	-17.831	-17.259	B5-03822-P04-CH0	4410640	OK	0.7530173	-0.0972599	0.650773	0	-123.058	-37.516	1.064	B5-03822-P04-CH1	4410640	OK	0.7031419	-0.677228	0.2166879	0	-107.663	-31.181	-17.941	NA
0.729413466173871	B5-03822-P01-CH0	4410648	OK	0.2200004	0.0567965	0.0377854	-0.9731116	136.798	-33.174	-256.635	B5-03822-P02-CH0	4410648	OK	0.7726598	0.0396893	-0.6335784	0	-71.303	-98	-0.565	B5-03822-P02-CH1	4410648	OK	0.6101552	-0.1080973	-0.784873	0	-70.413	-75.309	1.659	B5-03822-P03-CH0	4410648	OK	0.8426287	-0.3478598	-0.41106	0	-102.136	-60.122	5.763	B5-03822-P03-CH1	4410648	OK	0.7421006	-0.6129269	0.2713069	0	-96.265	-18.213	-16.824	B5-03822-P04-CH0	4410648	OK	0.7529295	-0.0982873	0.6507202	0	-123.056	-37.465	1	B5-03822-P04-CH1	4410648	OK	0.7031116	-0.6777016	0.2153011	0	-107.56	-30.717	-18.086	NA
0.739405431463924	B5-03822-P01-CH0	4410656	OK	0.2197492	0.056918	0.0379694	-0.9731541	136.841	-33.197	-256.689	B5-03822-P02-CH0	4410656	OK	0.7541145	0.0224338	-0.6563597	0	-69.516	-97.647	-1.188	B5-03822-P02-CH1	4410656	OK	0.6078138	-0.1282334	-0.7836572	0	-71.343	-75.455	1.805	B5-03822-P03-CH0	4410656	OK	0.843338	-0.3306576	-0.4236113	0	-102.916	-59.678	5.536	B5-03822-P03-CH1	4410656	OK	0.7419306	-0.6130998	0.2713811	0	-96.433	-18.403	-16.519	B5-03822-P04-CH0	4410656	OK	0.7532537	-0.0987053	0.6502815	0	-123.213	-37.558	1.248	B5-03822-P04-CH1	4410656	OK	0.7035436	-0.6776787	0.213958	0	-107.572	-30.271	-18.147	NA
0.749397396753977	B5-03822-P01-CH0	4410664	OK	0.2192459	0.0570813	0.0371903	-0.9732882	136.822	-33.424	-256.701	B5-03822-P02-CH0	4410664	OK	0.7379738	-0.0009621	-0.6748287	0	-67.953	-97.343	-1.511	B5-03822-P02-CH1	4410664	OK	0.6143689	-0.1718731	-0.7700718	0	-69.788	-73.802	1.352	B5-03822-P03-CH0	4410664	OK	0.8436841	-0.3013362	-0.4442901	0	-102.248	-59.584	5.8	B5-03822-P03-CH1	4410664	OK	0.7411789	-0.6140738	0.2712328	0	-96.449	-18.691	-16.237	B5-03822-P04-CH0	4410664	OK	0.7534367	-0.0992829	0.6499815	0	-123.281	-37.941	1.65	B5-03822-P04-CH1	4410664	OK	0.7032231	-0.6784507	0.2125605	0	-107.446	-30.016	-18.506	NA
0.75938936204403	B5-03822-P01-CH0	4410672	OK	0.2188984	0.0568509	0.0373721	-0.9733729	136.681	-33.394	-256.845	B5-03822-P02-CH0	4410672	OK	0.7268443	-0.0216383	-0.6864613	0	-66.242	-98.075	-3.141	B5-03822-P02-CH1	4410672	OK	0.624873	-0.2096628	-0.7520474	0	-70.816	-74.901	2.242	B5-03822-P03-CH0	4410672	OK	0.8411814	-0.2614243	-0.4733617	0	-103.322	-59.134	5.198	B5-03822-P03-CH1	4410672	OK	0.7410925	-0.6143142	0.2709243	0	-96.465	-18.664	-15.947	B5-03822-P04-CH0	4410672	OK	0.7535717	-0.0994384	0.6498013	0	-123.275	-37.994	1.725	B5-03822-P04-CH1	4410672	OK	0.7035825	-0.6784188	0.21147	0	-107.28	-29.505	-18.872	NA
0.769381327334083	B5-03822-P01-CH0	4410680	OK	0.2192565	0.0567496	0.0385999	-0.9732503	136.686	-33.401	-256.914	B5-03822-P02-CH0	4410680	OK	0.7180124	-0.0373055	-0.6950298	0	-66.162	-97.918	-2.232	B5-03822-P02-CH1	4410680	OK	0.6394083	-0.2498991	-0.7271227	0	-71.839	-74.563	-0.011	B5-03822-P03-CH0	4410680	OK	0.8404386	-0.2119133	-0.4987541	0	-104.085	-58.918	5.641	B5-03822-P03-CH1	4410680	OK	0.7421263	-0.6134394	0.2700754	0	-96.292	-18.251	-16.472	B5-03822-P04-CH0	4410680	OK	0.7539734	-0.0981247	0.649535	0	-123.252	-38.121	1.804	B5-03822-P04-CH1	4410680	OK	0.7043725	-0.6775679	0.2115682	0	-107.209	-29.55	-18.82	NA
0.779373292624136	B5-03822-P01-CH0	4410688	OK	0.2189144	0.0567895	0.0384167	-0.9733322	136.644	-33.51	-257.003	B5-03822-P02-CH0	4410688	OK	0.7154541	-0.047193	-0.697064	0	-66.083	-97.668	-1.341	B5-03822-P02-CH1	4410688	OK	0.6510587	-0.2748811	-0.7075048	0	-73.225	-75.217	0.568	B5-03822-P03-CH0	4410688	OK	0.8397879	-0.1628272	-0.5179223	0	-104.29	-58.327	5.596	B5-03822-P03-CH1	4410688	OK	0.7423599	-0.613909	0.268361	0	-95.948	-17.673	-17.177	B5-03822-P04-CH0	4410688	OK	0.7542739	-0.0974223	0.6492917	0	-123.312	-38.304	1.927	B5-03822-P04-CH1	4410688	OK	0.7043526	-0.6778201	0.2108252	0	-107.069	-29.38	-19.011	NA
0.789365257914189	B5-03822-P01-CH0	4410696	OK	0.218844	0.0566271	0.0381476	-0.9733681	136.504	-33.628	-256.983	B5-03822-P02-CH0	4410696	OK	0.719231	-0.0598436	-0.692189	0	-65.939	-97.477	-2.08	B5-03822-P02-CH1	4410696	OK	0.6628677	-0.2840006	-0.6927843	0	-73.6	-75.792	-0.227	B5-03822-P03-CH0	4410696	OK	0.8376219	-0.1205118	-0.5327911	0	-103.724	-57.898	4.551	B5-03822-P03-CH1	4410696	OK	0.7420223	-0.6141918	0.2686471	0	-95.892	-17.952	-16.998	B5-03822-P04-CH0	4410696	OK	0.7543855	-0.0958196	0.6494006	0	-123.267	-38.585	2.061	B5-03822-P04-CH1	4410696	OK	0.7046781	-0.6777083	0.2100958	0	-106.819	-28.915	-19.557	NA
0.799357223204242	B5-03822-P01-CH0	4410704	OK	0.2184268	0.0569173	0.0375732	-0.9734672	136.509	-33.749	-256.888	B5-03822-P02-CH0	4410704	OK	0.7261002	-0.0707209	-0.6839423	0	-67.316	-97.58	-1.785	B5-03822-P02-CH1	4410704	OK	0.671492	-0.2732638	-0.6887854	0	-74.661	-76.295	-0.145	B5-03822-P03-CH0	4410704	OK	0.8319608	-0.0882995	-0.5477632	0	-103.417	-56.395	4.317	B5-03822-P03-CH1	4410704	OK	0.7417993	-0.6148366	0.2677866	0	-95.936	-17.891	-17.315	B5-03822-P04-CH0	4410704	OK	0.7546345	-0.0944694	0.6493091	0	-123.379	-38.758	2	B5-03822-P04-CH1	4410704	OK	0.7046167	-0.6780288	0.209266	0	-106.691	-28.659	-19.909	NA
0.809349188494295	B5-03822-P01-CH0	4410712	OK	0.2181608	0.0568134	0.0373053	-0.9735432	136.435	-33.886	-256.883	B5-03822-P02-CH0	4410712	OK	0.7371095	-0.0775007	-0.6713146	0	-68.762	-98.114	-1.013	B5-03822-P02-CH1	4410712	OK	0.6798319	-0.2462646	-0.6907838	0	-75.767	-76.55	-0.726	B5-03822-P03-CH0	4410712	OK	0.8251543	-0.0777407	-0.5595326	0	-102.454	-56.814	4.057	B5-03822-P03-CH1	4410712	OK	0.7419688	-0.6152454	0.2663744	0	-95.634	-17.463	-17.999	B5-03822-P04-CH0	4410712	OK	0.7546275	-0.092457	0.6496068	0	-123.371	-39.115	2.026	B5-03822-P04-CH1	4410712	OK	0.7042323	-0.6781888	0.21004	0	-106.601	-29.011	-19.786	NA
0.819341153784348	B5-03822-P01-CH0	4410720	OK	0.2178432	0.0569958	0.0370571	-0.9736132	136.432	-34.01	-256.673	B5-03822-P02-CH0	4410720	OK	0.7515066	-0.078625	-0.6550236	0	-69.422	-99.144	-0.928	B5-03822-P02-CH1	4410720	OK	0.6844565	-0.2132374	-0.6971722	0	-77.63	-76.985	-0.349	B5-03822-P03-CH0	4410720	OK	0.8159345	-0.0755729	-0.5731838	0	-101.847	-55.682	1.631	B5-03822-P03-CH1	4410720	OK	0.741887	-0.6155531	0.265891	0	-95.712	-17.631	-17.967	B5-03822-P04-CH0	4410720	OK	0.7522406	-0.0803917	0.6539658	0	-122.057	-37.945	0.134	B5-03822-P04-CH1	4410720	OK	0.7041907	-0.6782861	0.2098654	0	-106.51	-29.047	-20.128	NA
0.829333119074401	B5-03822-P01-CH0	4410728	OK	0.2179464	0.056973	0.0375313	-0.9735732	136.43	-34.008	-256.659	B5-03822-P02-CH0	4410728	OK	0.7657426	-0.0707563	-0.6392431	0	-70.33	-99.803	-0.952	B5-03822-P02-CH1	4410728	OK	0.6874117	-0.1842874	-0.7024979	0	-78.142	-77.351	-0.525	B5-03822-P03-CH0	4410728	OK	0.8060189	-0.0904369	-0.5849399	0	-100.649	-55.666	2.178	B5-03822-P03-CH1	4410728	OK	0.7424425	-0.6151625	0.2652437	0	-95.677	-17.485	-18.123	B5-03822-P04-CH0	4410728	OK	0.7529998	-0.0772311	0.6534728	0	-122.654	-39.204	1.479	B5-03822-P04-CH1	4410728	OK	0.7046328	-0.6778075	0.2099277	0	-106.425	-29.043	-20.585	NA
0.839325084364454	B5-03822-P01-CH0	4410736	OK	0.2182968	0.0569787	0.0377565	-0.9734857	136.442	-34.016	-256.649	B5-03822-P02-CH0	4410736	OK	0.7786638	-0.057353	-0.6248146	0	-71.912	-100.08	-0.023	B5-03822-P02-CH1	4410736	OK	0.6880597	-0.159827	-0.7078342	0	-77.993	-76.862	0.469	B5-03822-P03-CH0	4410736	OK	0.7949697	-0.1141274	-0.5958172	0	-99.845	-55.637	0.181	B5-03822-P03-CH1	4410736	OK	0.7427934	-0.6147917	0.2651209	0	-95.615	-17.437	-18.296	B5-03822-P04-CH0	4410736	OK	0.7518492	-0.0760489	0.6549346	0	-121.803	-38.461	0.995	B5-03822-P04-CH1	4410736	OK	0.7047517	-0.6772577	0.2112985	0	-106.389	-29.395	-20.402	NA
0.849317049654507	B5-03822-P01-CH0	4410744	OK	0.2184443	0.05692	0.0378436	-0.9734527	136.408	-33.991	-256.586	B5-03822-P02-CH0	4410744	OK	0.790915	-0.0444607	-0.6103088	0	-73.454	-99.989	0.834	B5-03822-P02-CH1	4410744	OK	0.686434	-0.1354181	-0.714472	0	-77.59	-76.736	-0.436	B5-03822-P03-CH0	4410744	OK	0.7860403	-0.1385105	-0.6024579	0	-98.579	-55.17	-0.912	B5-03822-P03-CH1	4410744	OK	0.7428313	-0.6145467	0.2655826	0	-95.752	-17.643	-18.189	B5-03822-P04-CH0	4410744	OK	0.7519043	-0.0742694	0.6550755	0	-121.624	-38.609	1.13	B5-03822-P04-CH1	4410744	OK	0.7045391	-0.6770509	0.2126657	0	-106.271	-29.785	-20.459	NA
0.85930901494456	B5-03822-P01-CH0	4410752	OK	0.2191528	0.0566171	0.0387966	-0.9732735	136.419	-33.951	-256.636	B5-03822-P02-CH0	4410752	OK	0.8028532	-0.0349462	-0.5951517	0	-75.346	-98.945	2.768	B5-03822-P02-CH1	4410752	OK	0.6806556	-0.1118336	-0.7240174	0	-77.629	-76.516	-0.7	B5-03822-P03-CH0	4410752	OK	0.7792183	-0.1610119	-0.6057178	0	-97.657	-54.506	-1.698	B5-03822-P03-CH1	4410752	OK	0.7438183	-0.6134559	0.2653417	0	-95.624	-17.282	-18.812	B5-03822-P04-CH0	4410752	OK	0.7526997	-0.0723079	0.6543812	0	-121.89	-38.631	0.21	B5-03822-P04-CH1	4410752	OK	0.7052226	-0.6760847	0.2134727	0	-106.07	-29.899	-20.865	NA
0.869300980234613	B5-03822-P01-CH0	4410760	OK	0.2190018	0.0565649	0.0380358	-0.9733406	136.354	-33.911	-256.647	B5-03822-P02-CH0	4410760	OK	0.8154207	-0.0319524	-0.5779863	0	-77.467	-98.521	3.884	B5-03822-P02-CH1	4410760	OK	0.6726632	-0.0892508	-0.7345465	0	-77.179	-76.248	1.346	B5-03822-P03-CH0	4410760	OK	0.7738047	-0.1863327	-0.6053978	0	-97.118	-53.868	-1.413	B5-03822-P03-CH1	4410760	OK	0.7432396	-0.6139796	0.2657518	0	-95.683	-17.423	-18.533	B5-03822-P04-CH0	4410760	OK	0.753767	-0.0772383	0.6525868	0	-122.752	-39.579	1.482	B5-03822-P04-CH1	4410760	OK	0.7048652	-0.6765109	0.2133027	0	-105.852	-29.726	-21.31	NA
0.879292945524667	B5-03822-P01-CH0	4410768	OK	0.2195573	0.0565376	0.0380819	-0.9732152	136.371	-33.821	-256.547	B5-03822-P02-CH0	4410768	OK	0.8276176	-0.0330649	-0.5603177	0	-79.301	-98.341	4.627	B5-03822-P02-CH1	4410768	OK	0.6652965	-0.0730249	-0.7429992	0	-75.366	-73.754	1.7	B5-03822-P03-CH0	4410768	OK	0.7698884	-0.2182524	-0.5996981	0	-96.355	-54.441	-2.062	B5-03822-P03-CH1	4410768	OK	0.7430443	-0.6137495	0.2668273	0	-95.811	-17.726	-18.415	B5-03822-P04-CH0	4410768	OK	0.753594	-0.0747886	0.6530718	0	-122.66	-39.666	1.294	B5-03822-P04-CH1	4410768	OK	0.7049984	-0.6759978	0.214486	0	-105.899	-29.854	-21.321	NA
0.88928491081472	B5-03822-P01-CH0	4410776	OK	0.2200239	0.0562998	0.0391319	-0.973082	136.386	-33.649	-256.638	B5-03822-P02-CH0	4410776	OK	0.8392866	-0.0301378	-0.5428533	0	-79.906	-96.965	6.4	B5-03822-P02-CH1	4410776	OK	0.6579352	-0.0557988	-0.7510045	0	-73.98	-73.905	0.805	B5-03822-P03-CH0	4410776	OK	0.7653538	-0.2491636	-0.5934232	0	-96.327	-54.868	-1.25	B5-03822-P03-CH1	4410776	OK	0.7440445	-0.6128519	0.2661021	0	-95.672	-17.077	-19.018	B5-03822-P04-CH0	4410776	OK	0.7534823	-0.0728898	0.6534153	0	-122.584	-39.456	0.923	B5-03822-P04-CH1	4410776	OK	0.7051966	-0.6751212	0.216585	0	-106.09	-30.515	-20.36	NA
0.899276876104773	B5-03822-P01-CH0	4410784	OK	0.2204718	0.0563447	0.0397845	-0.9729515	136.474	-33.525	-256.615	B5-03822-P02-CH0	4410784	OK	0.847526	-0.0250287	-0.5301633	0	-80.612	-96.543	7.209	B5-03822-P02-CH1	4410784	OK	0.6491738	-0.0412766	-0.7595194	0	-73.526	-73.601	0.578	B5-03822-P03-CH0	4410784	OK	0.7606422	-0.2762933	-0.5874398	0	-95.593	-54.884	-2.014	B5-03822-P03-CH1	4410784	OK	0.7442468	-0.6123279	0.2667419	0	-95.74	-17.329	-18.498	B5-03822-P04-CH0	4410784	OK	0.753673	-0.0712038	0.6533812	0	-122.651	-39.482	0.854	B5-03822-P04-CH1	4410784	OK	0.7054958	-0.6744746	0.2176226	0	-106.194	-30.81	-19.997	NA
0.909268841394826	B5-03822-P01-CH0	4410792	OK	0.2205574	0.0564606	0.0393726	-0.9729421	136.522	-33.476	-256.629	B5-03822-P02-CH0	4410792	OK	0.8535413	-0.0158857	-0.520783	0	-81.553	-95.683	7.601	B5-03822-P02-CH1	4410792	OK	0.6433634	-0.0243503	-0.7651736	0	-72.797	-73.481	0.738	B5-03822-P03-CH0	4410792	OK	0.7533881	-0.3013681	-0.5844516	0	-95.051	-55.821	-2.468	B5-03822-P03-CH1	4410792	OK	0.7435051	-0.6125348	0.2683307	0	-96.213	-18.163	-17.408	B5-03822-P04-CH0	4410792	OK	0.7536568	-0.0704186	0.653485	0	-122.648	-39.325	0.841	B5-03822-P04-CH1	4410792	OK	0.7056404	-0.6746216	0.2166964	0	-106.063	-30.363	-20.415	NA
0.919260806684879	B5-03822-P01-CH0	4410800	OK	0.2207633	0.0566937	0.0388515	-0.9729028	136.64	-33.457	-256.732	B5-03822-P02-CH0	4410800	OK	0.8586035	-0.0051193	-0.5126147	0	-82.12	-95.096	8.232	B5-03822-P02-CH1	4410800	OK	0.6375043	-0.0076703	-0.7704086	0	-72.779	-73.075	0.986	B5-03822-P03-CH0	4410800	OK	0.7447834	-0.3222158	-0.5843584	0	-93.597	-56.318	-2.622	B5-03822-P03-CH1	4410800	OK	0.7432124	-0.6129293	0.2682405	0	-96.141	-18.112	-17.578	B5-03822-P04-CH0	4410800	OK	0.7538164	-0.0698664	0.6533602	0	-122.738	-39.491	1.098	B5-03822-P04-CH1	4410800	OK	0.7052973	-0.6746782	0.2176352	0	-106.251	-30.624	-19.846	NA
0.929252771974932	B5-03822-P01-CH0	4410808	OK	0.2209654	0.0567986	0.0390563	-0.9728426	136.743	-33.415	-256.811	B5-03822-P02-CH0	4410808	OK	0.8616424	-0.0002856	-0.5075159	0	-83.081	-94.958	8.687	B5-03822-P02-CH1	4410808	OK	0.6326583	0.0083066	-0.7743866	0	-72.634	-73.091	2.045	B5-03822-P03-CH0	4410808	OK	0.7333119	-0.33707	-0.5904553	0	-92.864	-56.037	-2.852	B5-03822-P03-CH1	4410808	OK	0.7434302	-0.6127868	0.2679623	0	-96.095	-17.936	-17.826	B5-03822-P04-CH0	4410808	OK	0.754027	-0.0695708	0.6531486	0	-122.784	-39.461	1.139	B5-03822-P04-CH1	4410808	OK	0.7050501	-0.6745052	0.2189682	0	-106.488	-31.117	-19.122	NA
0.939244737264985	B5-03822-P01-CH0	4410816	OK	0.2206209	0.0570644	0.0380906	-0.9729436	136.794	-33.378	-256.778	B5-03822-P02-CH0	4410816	OK	0.865067	0.0030061	-0.5016473	0	-83.291	-93.974	9.401	B5-03822-P02-CH1	4410816	OK	0.6296227	0.0218806	-0.7765929	0	-72.821	-72.889	1.973	B5-03822-P03-CH0	4410816	OK	0.7225354	-0.3466143	-0.5981647	0	-90.696	-55.611	-3.205	B5-03822-P03-CH1	4410816	OK	0.7433586	-0.6136917	0.2660835	0	-95.757	-16.997	-18.742	B5-03822-P04-CH0	4410816	OK	0.7542774	-0.0705146	0.6527582	0	-122.977	-39.289	1.081	B5-03822-P04-CH1	4410816	OK	0.7041135	-0.6755865	0.2186482	0	-106.52	-31.13	-19.479	NA
0.949236702555038	B5-03822-P01-CH0	4410824	OK	0.2207323	0.0570656	0.0381686	-0.9729152	136.837	-33.368	-256.792	B5-03822-P02-CH0	4410824	OK	0.867566	5.09e-05	-0.4973221	0	-83.332	-93.803	9.817	B5-03822-P02-CH1	4410824	OK	0.6297093	0.0293316	-0.7762769	0	-72.644	-73.007	2.304	B5-03822-P03-CH0	4410824	OK	0.7109716	-0.3515199	-0.6090592	0	-90.714	-56.055	-1.848	B5-03822-P03-CH1	4410824	OK	0.7435023	-0.6138417	0.265335	0	-95.528	-16.643	-19.344	B5-03822-P04-CH0	4410824	OK	0.7546812	-0.0708513	0.6522549	0	-123.164	-39.416	1.165	B5-03822-P04-CH1	4410824	OK	0.7042669	-0.6754269	0.218647	0	-106.69	-31.118	-19.088	NA
0.959228667845091	B5-03822-P01-CH0	4410832	OK	0.2202417	0.0573412	0.037085	-0.9730521	136.868	-33.455	-256.655	B5-03822-P02-CH0	4410832	OK	0.8685665	-0.0044501	-0.4955526	0	-83.622	-93.987	9.455	B5-03822-P02-CH1	4410832	OK	0.6324661	0.0337369	-0.773853	0	-72.263	-72.994	2.097	B5-03822-P03-CH0	4410832	OK	0.7039419	-0.3468614	-0.6198008	0	-90.545	-55.436	-2.752	B5-03822-P03-CH1	4410832	OK	0.7426219	-0.6149017	0.2653462	0	-95.588	-16.87	-19.072	B5-03822-P04-CH0	4410832	OK	0.7546997	-0.0725797	0.6520433	0	-123.232	-39.361	1.154	B5-03822-P04-CH1	4410832	OK	0.7034628	-0.6763999	0.2182275	0	-106.881	-31.123	-18.851	NA
0.969220633135144	B5-03822-P01-CH0	4410840	OK	0.2201568	0.0574308	0.036886	-0.9730735	136.932	-33.548	-256.661	B5-03822-P02-CH0	4410840	OK	0.8680044	-0.0109912	-0.4964349	0	-83.904	-94.097	10.503	B5-03822-P02-CH1	4410840	OK	0.6345217	0.0338612	-0.772163	0	-72.928	-72.61	2.071	B5-03822-P03-CH0	4410840	OK	0.7014445	-0.3361406	-0.6284784	0	-89.475	-56.277	-1.614	B5-03822-P03-CH1	4410840	OK	0.7426147	-0.6151065	0.2648913	0	-95.611	-16.717	-19.362	B5-03822-P04-CH0	4410840	OK	0.7546624	-0.0743531	0.6518868	0	-123.179	-39.151	1.021	B5-03822-P04-CH1	4410840	OK	0.7024579	-0.6767779	0.2202829	0	-107.269	-32.098	-17.445	NA
0.979212598425197	B5-03822-P01-CH0	4410848	OK	0.2197387	0.0575267	0.0363181	-0.9731837	136.943	-33.623	-256.7	B5-03822-P02-CH0	4410848	OK	0.8656239	-0.0201671	-0.5002885	0	-84.336	-93.948	10.499	B5-03822-P02-CH1	4410848	OK	0.639445	0.0328318	-0.7681355	0	-73.053	-72.862	0.783	B5-03822-P03-CH0	4410848	OK	0.7013491	-0.325645	-0.6340858	0	-90.3	-55.068	-3.084	B5-03822-P03-CH1	4410848	OK	0.742265	-0.6156843	0.2645289	0	-95.612	-16.645	-19.206	B5-03822-P04-CH0	4410848	OK	0.7546505	-0.0767818	0.6516189	0	-123.152	-38.913	1.141	B5-03822-P04-CH1	4410848	OK	0.7017398	-0.6775109	0.2203185	0	-107.384	-32.265	-17.134	NA
0.98920456371525	B5-03822-P01-CH0	4410856	OK	0.2197786	0.0576005	0.0363787	-0.9731681	136.985	-33.713	-256.609	B5-03822-P02-CH0	4410856	OK	0.8624171	-0.0319205	-0.5051908	0	-84.389	-94.218	9.795	B5-03822-P02-CH1	4410856	OK	0.6448558	0.0263233	-0.7638509	0	-73.267	-72.849	1.138	B5-03822-P03-CH0	4410856	OK	0.7057961	-0.3173278	-0.6333679	0	-90.571	-55.069	-2.152	B5-03822-P03-CH1	4410856	OK	0.7420812	-0.6156931	0.2650236	0	-95.765	-16.931	-19.094	B5-03822-P04-CH0	4410856	OK	0.7547753	-0.0785964	0.6512579	0	-123.179	-39.055	1.263	B5-03822-P04-CH1	4410856	OK	0.7020736	-0.6777423	0.2185363	0	-107.236	-31.671	-18.187	NA
0.999196529005303	B5-03822-P01-CH0	4410864	OK	0.2199707	0.0575147	0.0369348	-0.9731088	137.013	-33.698	-256.695	B5-03822-P02-CH0	4410864	OK	0.8604367	-0.0408425	-0.5079179	0	-82.993	-93.642	8.694	B5-03822-P02-CH1	4410864	OK	0.6508454	0.0169377	-0.7590213	0	-73.524	-73.438	0.694	B5-03822-P03-CH0	4410864	OK	0.71238	-0.3115112	-0.6288684	0	-91.31	-55.664	-2.063	B5-03822-P03-CH1	4410864	OK	0.7424805	-0.6152548	0.2649229	0	-95.938	-16.757	-19.181	B5-03822-P04-CH0	4410864	OK	0.7544762	-0.0917596	0.6498814	0	-123.219	-38.501	0.974	B5-03822-P04-CH1	4410864	OK	0.7020187	-0.6776672	0.218945	0	-107.464	-31.78	-18.189	NA
1.00918849429536	B5-03822-P01-CH0	4410872	OK	0.220345	0.057548	0.0374941	-0.9730008	137.039	-33.645	-256.728	B5-03822-P02-CH0	4410872	OK	0.8560821	-0.0511979	-0.5142977	0	-82.619	-94.111	8.613	B5-03822-P02-CH1	4410872	OK	0.6563079	0.0074189	-0.7544567	0	-74.019	-73.847	0.447	B5-03822-P03-CH0	4410872	OK	0.7197341	-0.3061171	-0.6231173	0	-91.91	-56.147	-1.916	B5-03822-P03-CH1	4410872	OK	0.7427212	-0.6149093	0.2650503	0	-95.996	-16.645	-19.186	B5-03822-P04-CH0	4410872	OK	0.7536206	-0.0938826	0.6505706	0	-122.725	-37.474	0.72	B5-03822-P04-CH1	4410872	OK	0.7013779	-0.6775695	0.2212886	0	-107.88	-32.7	-16.798	NA
1.01918045958541	B5-03822-P01-CH0	4410880	OK	0.2206643	0.0571926	0.0388011	-0.9728981	136.959	-33.52	-256.839	B5-03822-P02-CH0	4410880	OK	0.8504944	-0.0591145	-0.5226517	0	-82.658	-94.537	7.986	B5-03822-P02-CH1	4410880	OK	0.661603	-0.0018815	-0.7498519	0	-74.02	-73.704	-0.012	B5-03822-P03-CH0	4410880	OK	0.7276579	-0.2995456	-0.6170789	0	-91.55	-55.905	-2.324	B5-03822-P03-CH1	4410880	OK	0.7435708	-0.6140259	0.2647162	0	-96.057	-16.203	-19.24	B5-03822-P04-CH0	4410880	OK	0.7537845	-0.093864	0.6503833	0	-123.14	-36.914	-0.274	B5-03822-P04-CH1	4410880	OK	0.7022506	-0.6770634	0.2200665	0	-107.776	-32.058	-17.725	NA
1.02917242487546	B5-03822-P01-CH0	4410888	OK	0.2210364	0.0571911	0.0394882	-0.9727861	136.978	-33.564	-256.851	B5-03822-P02-CH0	4410888	OK	0.845642	-0.062952	-0.5300252	0	-82.29	-94.849	7.493	B5-03822-P02-CH1	4410888	OK	0.6628328	-0.0103758	-0.7486956	0	-74.764	-73.683	0.028	B5-03822-P03-CH0	4410888	OK	0.7308983	-0.2934477	-0.6161787	0	-92.318	-56.352	-1.817	B5-03822-P03-CH1	4410888	OK	0.743819	-0.613656	0.2648766	0	-96.176	-16.219	-19.012	B5-03822-P04-CH0	4410888	OK	0.7545027	-0.0926028	0.649731	0	-123.398	-36.727	2.106	B5-03822-P04-CH1	4410888	OK	0.7027798	-0.6769026	0.2188683	0	-107.714	-31.637	-18.61	NA
1.03916439016551	B5-03822-P01-CH0	4410896	OK	0.2212328	0.0573308	0.040209	-0.9727037	137.046	-33.585	-256.931	B5-03822-P02-CH0	4410896	OK	0.8426411	-0.0653735	-0.5344925	0	-81.125	-94.859	6.401	B5-03822-P02-CH1	4410896	OK	0.6642882	-0.0158212	-0.747309	0	-74.618	-74.035	0.378	B5-03822-P03-CH0	4410896	OK	0.7332746	-0.2845144	-0.6175434	0	-92.911	-55.418	-2.96	B5-03822-P03-CH1	4410896	OK	0.7436967	-0.6134343	0.2657322	0	-96.604	-16.723	-18.337	B5-03822-P04-CH0	4410896	OK	0.7538112	-0.0926395	0.6505279	0	-123.537	-37.434	-0.236	B5-03822-P04-CH1	4410896	OK	0.703474	-0.6764905	0.2179105	0	-107.751	-31.182	-18.656	NA
1.04915635545557	B5-03822-P01-CH0	4410904	OK	0.2215064	0.0573373	0.0410717	-0.972605	137.034	-33.576	-256.989	B5-03822-P02-CH0	4410904	OK	0.8391247	-0.0671827	-0.5397742	0	-80.697	-94.939	6.235	B5-03822-P02-CH1	4410904	OK	0.6656343	-0.0189728	-0.7460369	0	-74.423	-74.689	0.345	B5-03822-P03-CH0	4410904	OK	0.7344381	-0.2788664	-0.618736	0	-92.931	-56.288	-2.4	B5-03822-P03-CH1	4410904	OK	0.7440987	-0.6131004	0.2653771	0	-96.678	-16.477	-18.403	B5-03822-P04-CH0	4410904	OK	0.754119	-0.0919102	0.6502746	0	-123.825	-39.23	1.124	B5-03822-P04-CH1	4410904	OK	0.7035655	-0.6764023	0.217889	0	-107.689	-31.147	-18.975	NA
1.05914832074562	B5-03822-P01-CH0	4410912	OK	0.2217536	0.0575418	0.0414441	-0.9725208	137.097	-33.617	-257.16	B5-03822-P02-CH0	4410912	OK	0.835164	-0.0687105	-0.5456923	0	-80.891	-95.246	5.559	B5-03822-P02-CH1	4410912	OK	0.6678618	-0.0214804	-0.7439752	0	-74.093	-74.278	-0.333	B5-03822-P03-CH0	4410912	OK	0.7350084	-0.2739732	-0.620243	0	-93.174	-56.356	-2.248	B5-03822-P03-CH1	4410912	OK	0.7441568	-0.6132435	0.264883	0	-96.637	-16.26	-18.609	B5-03822-P04-CH0	4410912	OK	0.7545107	-0.0897639	0.65012	0	-123.097	-37.745	0.351	B5-03822-P04-CH1	4410912	OK	0.7034891	-0.6764127	0.2181031	0	-107.794	-31.212	-18.901	NA
1.06914028603567	B5-03822-P01-CH0	4410920	OK	0.2219214	0.0579384	0.0418045	-0.9724435	137.2	-33.696	-257.181	B5-03822-P02-CH0	4410920	OK	0.8323894	-0.068617	-0.5499269	0	-81.082	-95.938	6.175	B5-03822-P02-CH1	4410920	OK	0.6692047	-0.02148	-0.7427676	0	-74.517	-74.63	-0.687	B5-03822-P03-CH0	4410920	OK	0.7369427	-0.2697425	-0.619802	0	-93.169	-56.371	-1.922	B5-03822-P03-CH1	4410920	OK	0.7439403	-0.6135361	0.2648136	0	-96.698	-16.451	-18.387	B5-03822-P04-CH0	4410920	OK	0.7545355	-0.0905721	0.6499791	0	-123.168	-37.791	0.44	B5-03822-P04-CH1	4410920	OK	0.7039835	-0.6763302	0.2167596	0	-107.835	-30.709	-19.6	NA
1.07913225132573	B5-03822-P01-CH0	4410928	OK	0.2219167	0.0582903	0.0420199	-0.9724143	137.263	-33.768	-257.197	B5-03822-P02-CH0	4410928	OK	0.8318784	-0.0649945	-0.5511388	0	-80.337	-95.753	5.095	B5-03822-P02-CH1	4410928	OK	0.6711881	-0.0187998	-0.7410486	0	-74.395	-74.943	-1.122	B5-03822-P03-CH0	4410928	OK	0.738071	-0.2673097	-0.6195133	0	-93.316	-56.678	-2.244	B5-03822-P03-CH1	4410928	OK	0.7440572	-0.6138117	0.2638447	0	-96.747	-16.198	-18.484	B5-03822-P04-CH0	4410928	OK	0.7546646	-0.0912439	0.6497353	0	-123.342	-37.94	0.568	B5-03822-P04-CH1	4410928	OK	0.7039252	-0.6765312	0.2163211	0	-108.022	-30.678	-19.621	NA
1.08912421661578	B5-03822-P01-CH0	4410936	OK	0.2216044	0.058666	0.041561	-0.9724826	137.284	-33.897	-257.227	B5-03822-P02-CH0	4410936	OK	0.8307206	-0.061749	-0.5532543	0	-80.175	-96.189	5.784	B5-03822-P02-CH1	4410936	OK	0.6713468	-0.0177045	-0.7409319	0	-74.904	-75.279	-0.082	B5-03822-P03-CH0	4410936	OK	0.7395858	-0.2658896	-0.6183167	0	-93.599	-57.133	-1.716	B5-03822-P03-CH1	4410936	OK	0.743366	-0.6147635	0.2635772	0	-96.893	-16.408	-18.171	B5-03822-P04-CH0	4410936	OK	0.7544871	-0.0923894	0.6497795	0	-123.359	-37.728	0.419	B5-03822-P04-CH1	4410936	OK	0.7031896	-0.6770892	0.2169667	0	-108.312	-31.031	-19.091	NA
1.09911618190583	B5-03822-P01-CH0	4410944	OK	0.2212021	0.058933	0.0409501	-0.972584	137.215	-34.029	-257.239	B5-03822-P02-CH0	4410944	OK	0.8287057	-0.0590455	-0.5565613	0	-80.774	-96.455	5.47	B5-03822-P02-CH1	4410944	OK	0.6719368	-0.0158931	-0.7404379	0	-75.082	-75.215	0.675	B5-03822-P03-CH0	4410944	OK	0.741515	-0.2662738	-0.6158358	0	-93.718	-56.611	-2.133	B5-03822-P03-CH1	4410944	OK	0.7423516	-0.6160071	0.2635323	0	-96.881	-16.711	-17.955	B5-03822-P04-CH0	4410944	OK	0.7543268	-0.093452	0.6498137	0	-123.342	-37.621	0.314	B5-03822-P04-CH1	4410944	OK	0.7030888	-0.6776789	0.2154471	0	-108.044	-30.514	-19.226	NA
1.10910814719589	B5-03822-P01-CH0	4410952	OK	0.2212086	0.0591605	0.041433	-0.9725483	137.276	-34.096	-257.32	B5-03822-P02-CH0	4410952	OK	0.8292048	-0.0555792	-0.5561748	0	-80.287	-96.048	5.964	B5-03822-P02-CH1	4410952	OK	0.6731416	-0.0162361	-0.7393354	0	-75.076	-74.801	-1.23	B5-03822-P03-CH0	4410952	OK	0.7410119	-0.2682619	-0.6155785	0	-94.918	-56.318	-1.779	B5-03822-P03-CH1	4410952	OK	0.7426348	-0.6161251	0.2624566	0	-96.798	-16.37	-18.43	B5-03822-P04-CH0	4410952	OK	0.7544885	-0.0934555	0.6496254	0	-123.44	-37.814	0.703	B5-03822-P04-CH1	4410952	OK	0.7038189	-0.6774603	0.213744	0	-107.924	-29.848	-20.064	NA
1.11910011248594	B5-03822-P01-CH0	4410960	OK	0.2207664	0.0595451	0.040442	-0.972667	137.266	-34.272	-257.241	B5-03822-P02-CH0	4410960	OK	0.8286256	-0.0568232	-0.5569118	0	-80.397	-96.684	6.416	B5-03822-P02-CH1	4410960	OK	0.6724852	-0.0147719	-0.7399631	0	-76.082	-75.7	-0.018	B5-03822-P03-CH0	4410960	OK	0.7415799	-0.267759	-0.6151134	0	-94.428	-56.067	-1.72	B5-03822-P03-CH1	4410960	OK	0.7418298	-0.617524	0.2614434	0	-96.576	-16.236	-18.893	B5-03822-P04-CH0	4410960	OK	0.7545891	-0.0940527	0.6494223	0	-123.581	-37.998	0.808	B5-03822-P04-CH1	4410960	OK	0.7029765	-0.6783316	0.2137526	0	-107.957	-30.078	-19.481	NA
1.12909207777599	B5-03822-P01-CH0	4410968	OK	0.2204572	0.0595881	0.0401042	-0.9727484	137.196	-34.361	-257.274	B5-03822-P02-CH0	4410968	OK	0.8289166	-0.0548938	-0.5566722	0	-79.917	-96.36	6.356	B5-03822-P02-CH1	4410968	OK	0.6739427	-0.0152695	-0.7386258	0	-75.585	-75.271	-0.432	B5-03822-P03-CH0	4410968	OK	0.741606	-0.2673196	-0.6152729	0	-94.235	-56.034	-1.911	B5-03822-P03-CH1	4410968	OK	0.7414587	-0.6183481	0.2605469	0	-96.336	-16.015	-19.274	B5-03822-P04-CH0	4410968	OK	0.7544673	-0.0947131	0.6494679	0	-123.521	-37.918	0.726	B5-03822-P04-CH1	4410968	OK	0.7027099	-0.6784721	0.2141834	0	-107.982	-30.186	-18.683	NA
1.13908404306605	B5-03822-P01-CH0	4410976	OK	0.2205774	0.0595007	0.0405334	-0.9727087	137.13	-34.413	-257.191	B5-03822-P02-CH0	4410976	OK	0.8275067	-0.0535669	-0.5588947	0	-80.132	-96.848	5.302	B5-03822-P02-CH1	4410976	OK	0.6739632	-0.0170666	-0.7385678	0	-75.347	-74.648	-0.879	B5-03822-P03-CH0	4410976	OK	0.7395415	-0.2681118	-0.6174095	0	-95.144	-56.491	-1.409	B5-03822-P03-CH1	4410976	OK	0.7420776	-0.6182781	0.2589458	0	-95.873	-15.259	-20.226	B5-03822-P04-CH0	4410976	OK	0.7546843	-0.0944229	0.6492579	0	-123.581	-38.022	0.703	B5-03822-P04-CH1	4410976	OK	0.7029318	-0.6782459	0.2141714	0	-107.931	-30.23	-18.809	NA
1.1490760083561	B5-03822-P01-CH0	4410984	OK	0.2202849	0.0596876	0.0397973	-0.972794	137.127	-34.515	-257.172	B5-03822-P02-CH0	4410984	OK	0.8276037	-0.0523194	-0.5588693	0	-79.711	-96.064	5.517	B5-03822-P02-CH1	4410984	OK	0.6721353	-0.0169849	-0.7402335	0	-76.13	-75.835	-0.104	B5-03822-P03-CH0	4410984	OK	0.7399941	-0.2697012	-0.6161737	0	-94.575	-56.407	-1.481	B5-03822-P03-CH1	4410984	OK	0.7421079	-0.618819	0.2575635	0	-95.551	-14.652	-20.668	B5-03822-P04-CH0	4410984	OK	0.7549545	-0.09464	0.6489122	0	-123.726	-38.032	0.973	B5-03822-P04-CH1	4410984	OK	0.7027414	-0.6786941	0.2133747	0	-107.968	-29.989	-18.917	NA
1.15906797364615	B5-03822-P01-CH0	4410992	OK	0.2202665	0.059677	0.0399393	-0.972793	137.115	-34.543	-257.129	B5-03822-P02-CH0	4410992	OK	0.8258764	-0.0508011	-0.5615581	0	-80.031	-96.068	4.653	B5-03822-P02-CH1	4410992	OK	0.6715338	-0.0173976	-0.7407697	0	-75.904	-75.847	-0.48	B5-03822-P03-CH0	4410992	OK	0.741087	-0.271437	-0.6140945	0	-93.4	-56.563	-1.491	B5-03822-P03-CH1	4410992	OK	0.7421419	-0.6187951	0.257523	0	-95.675	-14.777	-20.527	B5-03822-P04-CH0	4410992	OK	0.7550475	-0.0945755	0.6488133	0	-123.665	-38.068	1.088	B5-03822-P04-CH1	4410992	OK	0.7031854	-0.6784187	0.2127872	0	-107.856	-29.815	-18.699	NA
1.1690599389362	B5-03822-P01-CH0	4411000	OK	0.2204478	0.0593314	0.0403574	-0.9727558	137.013	-34.574	-257.104	B5-03822-P02-CH0	4411000	OK	0.8248296	-0.0504185	-0.5631288	0	-79.916	-96.514	5.156	B5-03822-P02-CH1	4411000	OK	0.6724036	-0.0161068	-0.7400095	0	-75.138	-75.395	-0.549	B5-03822-P03-CH0	4411000	OK	0.7405559	-0.2684841	-0.6160302	0	-93.931	-56.454	-2.256	B5-03822-P03-CH1	4411000	OK	0.7426785	-0.6183748	0.2569849	0	-95.51	-14.506	-20.859	B5-03822-P04-CH0	4411000	OK	0.7551194	-0.0941035	0.6487983	0	-123.572	-38.216	1.112	B5-03822-P04-CH1	4411000	OK	0.7033293	-0.6779756	0.2137217	0	-107.751	-30.106	-18.32	NA
1.17905190422626	B5-03822-P01-CH0	4411008	OK	0.2209531	0.0588146	0.0414225	-0.9726278	136.953	-34.555	-257.244	B5-03822-P02-CH0	4411008	OK	0.8234085	-0.049863	-0.565254	0	-80.157	-96.854	5.169	B5-03822-P02-CH1	4411008	OK	0.6721061	-0.0168829	-0.7402624	0	-75.24	-75.529	-0.32	B5-03822-P03-CH0	4411008	OK	0.7412047	-0.2698066	-0.6146707	0	-93.855	-56.586	-1.992	B5-03822-P03-CH1	4411008	OK	0.7434519	-0.6174547	0.2569611	0	-95.363	-14.367	-21.027	B5-03822-P04-CH0	4411008	OK	0.7551397	-0.0932912	0.6488919	0	-123.4	-38.132	1.048	B5-03822-P04-CH1	4411008	OK	0.7047517	-0.6767576	0.2128949	0	-107.354	-29.526	-18.84	NA
1.18904386951631	B5-03822-P01-CH0	4411016	OK	0.2212647	0.0584761	0.0419963	-0.9725527	136.927	-34.509	-257.364	B5-03822-P02-CH0	4411016	OK	0.8227471	-0.047785	-0.5663955	0	-79.996	-97.235	4.445	B5-03822-P02-CH1	4411016	OK	0.6693804	-0.0191487	-0.742673	0	-74.141	-74.628	-0.675	B5-03822-P03-CH0	4411016	OK	0.7414542	-0.2710774	-0.61381	0	-93.793	-56.638	-1.715	B5-03822-P03-CH1	4411016	OK	0.7442381	-0.6168755	0.2560747	0	-94.967	-13.848	-21.343	B5-03822-P04-CH0	4411016	OK	0.7554254	-0.0923661	0.6486918	0	-123.417	-38.182	1.289	B5-03822-P04-CH1	4411016	OK	0.7052282	-0.6762477	0.2129371	0	-107.157	-29.532	-18.603	NA
1.19903583480636	B5-03822-P01-CH0	4411024	OK	0.2216582	0.0582575	0.0422009	-0.9724674	136.976	-34.53	-257.453	B5-03822-P02-CH0	4411024	OK	0.8238909	-0.0434491	-0.5650805	0	-79.056	-96.5	4.917	B5-03822-P02-CH1	4411024	OK	0.6675878	-0.0191919	-0.7442837	0	-74.514	-74.786	-0.91	B5-03822-P03-CH0	4411024	OK	0.7413536	-0.2724579	-0.6133201	0	-93.77	-56.782	-1.478	B5-03822-P03-CH1	4411024	OK	0.7448248	-0.6161828	0.2560368	0	-94.887	-13.662	-21.427	B5-03822-P04-CH0	4411024	OK	0.7557359	-0.0912703	0.6484852	0	-123.483	-38.306	1.422	B5-03822-P04-CH1	4411024	OK	0.7059239	-0.6756734	0.2124543	0	-106.987	-29.272	-18.974	NA
1.20902780009642	B5-03822-P01-CH0	4411032	OK	0.221471	0.0581278	0.0416068	-0.9725434	136.925	-34.557	-257.36	B5-03822-P02-CH0	4411032	OK	0.8227865	-0.040588	-0.5668995	0	-79.273	-96.969	4.745	B5-03822-P02-CH1	4411032	OK	0.6670355	-0.0179791	-0.744809	0	-74.433	-75.197	-0.633	B5-03822-P03-CH0	4411032	OK	0.7412345	-0.2730974	-0.6131796	0	-93.645	-56.69	-1.584	B5-03822-P03-CH1	4411032	OK	0.7447354	-0.6165204	0.2554834	0	-94.753	-13.485	-21.649	B5-03822-P04-CH0	4411032	OK	0.7558566	-0.0912742	0.6483439	0	-123.499	-38.233	1.195	B5-03822-P04-CH1	4411032	OK	0.7056892	-0.6759718	0.2122846	0	-106.818	-29.217	-19.083	NA
1.21901976538647	B5-03822-P01-CH0	4411040	OK	0.2217063	0.0579824	0.041912	-0.9724853	136.967	-34.592	-257.37	B5-03822-P02-CH0	4411040	OK	0.8220944	-0.0406455	-0.5678985	0	-79.359	-97.655	3.748	B5-03822-P02-CH1	4411040	OK	0.6661002	-0.0184383	-0.7456343	0	-74.924	-75.965	-0.54	B5-03822-P03-CH0	4411040	OK	0.7411936	-0.2742517	-0.6127136	0	-93.585	-56.851	-1.581	B5-03822-P03-CH1	4411040	OK	0.7450596	-0.6159026	0.2560276	0	-94.963	-13.778	-21.293	B5-03822-P04-CH0	4411040	OK	0.7560275	-0.0904956	0.6482538	0	-123.435	-38.388	1.322	B5-03822-P04-CH1	4411040	OK	0.705974	-0.6755355	0.2127264	0	-106.788	-29.412	-18.841	NA
1.22901173067652	B5-03822-P01-CH0	4411048	OK	0.221993	0.0579258	0.0422171	-0.9724101	137.034	-34.536	-257.422	B5-03822-P02-CH0	4411048	OK	0.8216857	-0.0395336	-0.5685681	0	-79.608	-97.732	4.812	B5-03822-P02-CH1	4411048	OK	0.6663021	-0.0193693	-0.7454303	0	-74.776	-75.627	-0.139	B5-03822-P03-CH0	4411048	OK	0.7413967	-0.2753186	-0.6119891	0	-93.483	-56.767	-1.672	B5-03822-P03-CH1	4411048	OK	0.7456261	-0.6152288	0.2559986	0	-95.098	-13.682	-21.303	B5-03822-P04-CH0	4411048	OK	0.7561849	-0.0896571	0.6481867	0	-123.401	-38.559	1.458	B5-03822-P04-CH1	4411048	OK	0.7064575	-0.6751486	0.212349	0	-106.688	-29.217	-19.264	NA
1.23900369596658	B5-03822-P01-CH0	4411056	OK	0.2215626	0.0578648	0.041006	-0.9725637	137.035	-34.636	-257.522	B5-03822-P02-CH0	4411056	OK	0.8225542	-0.0373493	-0.5674589	0	-79.112	-97.34	4.211	B5-03822-P02-CH1	4411056	OK	0.6682956	-0.0174281	-0.7436916	0	-73.892	-75.699	-1.462	B5-03822-P03-CH0	4411056	OK	0.7414502	-0.2758046	-0.6117053	0	-93.315	-56.672	-1.643	B5-03822-P03-CH1	4411056	OK	0.7447094	-0.6161665	0.2564113	0	-95.257	-14.107	-21.038	B5-03822-P04-CH0	4411056	OK	0.7561084	-0.0897967	0.6482566	0	-123.364	-38.51	1.638	B5-03822-P04-CH1	4411056	OK	0.7055459	-0.6760285	0.2125804	0	-106.706	-29.453	-19.003	NA
1.24899566125663	B5-03822-P01-CH0	4411064	OK	0.2216221	0.0578246	0.0410541	-0.9725505	137.084	-34.579	-257.592	B5-03822-P02-CH0	4411064	OK	0.8227512	-0.0359328	-0.5672648	0	-79.125	-97.134	4.764	B5-03822-P02-CH1	4411064	OK	0.6680562	-0.01654	-0.7439269	0	-74.272	-75.889	-0.833	B5-03822-P03-CH0	4411064	OK	0.7414698	-0.2765636	-0.6113388	0	-93.314	-56.582	-1.812	B5-03822-P03-CH1	4411064	OK	0.7446108	-0.616218	0.2565739	0	-95.378	-14.342	-20.909	B5-03822-P04-CH0	4411064	OK	0.7558244	-0.0896132	0.6486131	0	-123.077	-38.333	1.507	B5-03822-P04-CH1	4411064	OK	0.7058791	-0.675597	0.212846	0	-106.836	-29.409	-18.856	NA
1.25898762654668	B5-03822-P01-CH0	4411072	OK	0.221516	0.0579456	0.0406847	-0.972583	137.168	-34.601	-257.579	B5-03822-P02-CH0	4411072	OK	0.8224116	-0.0342202	-0.5678628	0	-79.547	-97.026	4.595	B5-03822-P02-CH1	4411072	OK	0.6680672	-0.0176374	-0.7438919	0	-74.749	-75.67	-0.153	B5-03822-P03-CH0	4411072	OK	0.7413711	-0.2771162	-0.6112083	0	-93.415	-56.544	-1.728	B5-03822-P03-CH1	4411072	OK	0.7447352	-0.6164059	0.2557602	0	-95.283	-14.017	-21.393	B5-03822-P04-CH0	4411072	OK	0.7560091	-0.0893663	0.6484319	0	-123.096	-38.264	1.609	B5-03822-P04-CH1	4411072	OK	0.7064907	-0.6756543	0.2106233	0	-106.569	-28.484	-20.302	NA
1.26897959183673	B5-03822-P01-CH0	4411080	OK	0.2214256	0.0581999	0.0403421	-0.9726027	137.309	-34.553	-257.652	B5-03822-P02-CH0	4411080	OK	0.8227946	-0.0342605	-0.5673053	0	-79.692	-97.646	4.355	B5-03822-P02-CH1	4411080	OK	0.6677967	-0.0172201	-0.7441445	0	-74.767	-75.63	-0.159	B5-03822-P03-CH0	4411080	OK	0.7413307	-0.2777032	-0.6109908	0	-93.518	-56.536	-1.613	B5-03822-P03-CH1	4411080	OK	0.7442859	-0.6166352	0.2565142	0	-95.646	-14.496	-20.885	B5-03822-P04-CH0	4411080	OK	0.7562721	-0.0892292	0.648144	0	-123.194	-38.225	1.665	B5-03822-P04-CH1	4411080	OK	0.7065799	-0.675774	0.2099391	0	-106.631	-28.283	-20.333	NA
