Wav.Time	B5.03822.P01.CH0	Frame	State	Q0	Qx	Qy	Qz	Tx	Ty	Tz	B5.03822.P02.CH0	Frame.1	State.1	Q0.1	Qx.1	Qy.1	Qz.1	Tx.1	Ty.1	Tz.1	B5.03822.P02.CH1	Frame.2	State.2	Q0.2	Qx.2	Qy.2	Qz.2	Tx.2	Ty.2	Tz.2	B5.03822.P03.CH0	Frame.3	State.3	Q0.3	Qx.3	Qy.3	Qz.3	Tx.3	Ty.3	Tz.3	B5.03822.P03.CH1	Frame.4	State.4	Q0.4	Qx.4	Qy.4	Qz.4	Tx.4	Ty.4	Tz.4	B5.03822.P04.CH0	Frame.5	State.5	Q0.5	Qx.5	Qy.5	Qz.5	Tx.5	Ty.5	Tz.5	B5.03822.P04.CH1	Frame.6	State.6	Q0.6	Qx.6	Qy.6	Qz.6	Tx.6	Ty.6	Tz.6	X
0	B5-03822-P01-CH0	3397112	OK	0.2065921	0.050031	0.080834	-0.973798	100.623	-47.731	-296.276	B5-03822-P02-CH0	3397112	OK	0.693987	0.3555894	-0.6260497	0	-79.661	-99.786	0.144	B5-03822-P02-CH1	3397112	OK	0.8466051	-0.1911379	-0.4967153	0	-84.175	-81.341	10.901	B5-03822-P03-CH0	3397112	OK	0.8016093	-0.2043237	-0.561849	0	-99.315	-57.598	9.298	B5-03822-P03-CH1	3397112	OK	0.8079865	-0.5886638	0.025154	0	-98.696	-33.858	7.301	B5-03822-P04-CH0	3397112	OK	0.7802857	-0.3404493	0.5246413	0	-122.419	-40.164	13.164	B5-03822-P04-CH1	3397112	OK	0.8230203	-0.5675838	0.0220484	0	-108.136	-53.683	8.232	NA
0.00999181803305515	B5-03822-P01-CH0	3397120	OK	0.206479	0.0501666	0.0812172	-0.9737831	100.602	-47.64	-296.129	B5-03822-P02-CH0	3397120	OK	0.6934516	0.3531828	-0.6280023	0	-79.856	-99.415	1.515	B5-03822-P02-CH1	3397120	OK	0.8503098	-0.1903915	-0.4906367	0	-85.276	-80.623	11.157	B5-03822-P03-CH0	3397120	OK	0.799553	-0.1855738	-0.5712069	0	-98.429	-57.583	11.542	B5-03822-P03-CH1	3397120	OK	0.8083483	-0.5881841	0.0247502	0	-98.662	-33.284	6.798	B5-03822-P04-CH0	3397120	OK	0.7802623	-0.339833	0.5250756	0	-122.373	-39.972	12.67	B5-03822-P04-CH1	3397120	OK	0.8232705	-0.567218	0.0221213	0	-108.183	-53.383	7.761	NA
0.0199836360661103	B5-03822-P01-CH0	3397128	OK	0.2064594	0.050455	0.0807457	-0.9738116	100.713	-47.713	-296.135	B5-03822-P02-CH0	3397128	OK	0.6937483	0.3522211	-0.6282146	0	-79.861	-98.939	0.118	B5-03822-P02-CH1	3397128	OK	0.855451	-0.1913409	-0.4812403	0	-84.56	-80.585	13.133	B5-03822-P03-CH0	3397128	OK	0.794394	-0.1665982	-0.5841089	0	-99.537	-57.294	11.228	B5-03822-P03-CH1	3397128	OK	0.8078373	-0.5888876	0.0247043	0	-98.719	-33.276	6.556	B5-03822-P04-CH0	3397128	OK	0.7801711	-0.3392406	0.5255939	0	-122.471	-39.911	12.502	B5-03822-P04-CH1	3397128	OK	0.822742	-0.5679624	0.0226805	0	-108.293	-53.796	7.832	NA
0.0299754540991654	B5-03822-P01-CH0	3397136	OK	0.2062923	0.0504229	0.0808534	-0.9738397	100.684	-47.766	-296.17	B5-03822-P02-CH0	3397136	OK	0.694234	0.3497929	-0.6290342	0	-80.356	-100.456	2.502	B5-03822-P02-CH1	3397136	OK	0.8576183	-0.1924359	-0.4769269	0	-85.588	-80.185	12.194	B5-03822-P03-CH0	3397136	OK	0.7929255	-0.1518844	-0.590085	0	-99.096	-57.911	10.715	B5-03822-P03-CH1	3397136	OK	0.8077476	-0.5890094	0.0247329	0	-98.432	-33.118	6.221	B5-03822-P04-CH0	3397136	OK	0.7802009	-0.3379008	0.526412	0	-122.632	-40.051	12.344	B5-03822-P04-CH1	3397136	OK	0.8228311	-0.5678261	0.0228576	0	-108.132	-53.824	8.037	NA
0.0399672721322206	B5-03822-P01-CH0	3397144	OK	0.2062816	0.0503927	0.0812911	-0.9738071	100.64	-47.664	-296.158	B5-03822-P02-CH0	3397144	OK	0.6958448	0.3556163	-0.6239688	0	-79.156	-98.101	-0.999	B5-03822-P02-CH1	3397144	OK	0.8596167	-0.1958842	-0.4718989	0	-86.006	-80.196	11.98	B5-03822-P03-CH0	3397144	OK	0.7887368	-0.1356716	-0.5995727	0	-100.351	-57.285	11.446	B5-03822-P03-CH1	3397144	OK	0.8077197	-0.5890331	0.0250791	0	-98.374	-32.945	5.695	B5-03822-P04-CH0	3397144	OK	0.7803562	-0.3352346	0.5278844	0	-122.781	-40.582	12.89	B5-03822-P04-CH1	3397144	OK	0.8229939	-0.567577	0.0231818	0	-108.041	-53.794	7.92	NA
0.0499590901652757	B5-03822-P01-CH0	3397152	OK	0.2062986	0.0505216	0.0817281	-0.9737602	100.724	-47.583	-296.24	B5-03822-P02-CH0	3397152	OK	0.6955485	0.358165	-0.6228403	0	-79.8	-99.448	1.136	B5-03822-P02-CH1	3397152	OK	0.8632056	-0.200289	-0.4634226	0	-85.317	-79.85	12.424	B5-03822-P03-CH0	3397152	OK	0.7851231	-0.1151333	-0.6085442	0	-101.461	-55.725	10.073	B5-03822-P03-CH1	3397152	OK	0.8078457	-0.5888451	0.0254319	0	-98.504	-32.964	5.943	B5-03822-P04-CH0	3397152	OK	0.7804402	-0.3336014	0.5287941	0	-122.981	-40.456	12.489	B5-03822-P04-CH1	3397152	OK	0.8231963	-0.5672718	0.0234634	0	-108.089	-53.819	7.993	NA
0.0599509081983309	B5-03822-P01-CH0	3397160	OK	0.2058917	0.0512513	0.0801874	-0.9739363	100.906	-47.784	-296.008	B5-03822-P02-CH0	3397160	OK	0.6947099	0.3602783	-0.6225574	0	-79.631	-98.97	-1.055	B5-03822-P02-CH1	3397160	OK	0.8643818	-0.2039905	-0.4595998	0	-85.22	-79.751	12.818	B5-03822-P03-CH0	3397160	OK	0.7826277	-0.1001614	-0.6143791	0	-101.739	-55.83	10.616	B5-03822-P03-CH1	3397160	OK	0.8066075	-0.5905493	0.0252162	0	-98.54	-33.297	6.062	B5-03822-P04-CH0	3397160	OK	0.7800807	-0.3317527	0.5304849	0	-123.264	-41.151	13.125	B5-03822-P04-CH1	3397160	OK	0.8223068	-0.5685639	0.0233804	0	-108.263	-54.009	8.103	NA
0.069942726231386	B5-03822-P01-CH0	3397168	OK	0.2056253	0.0513894	0.0803988	-0.9739679	100.973	-47.876	-295.887	B5-03822-P02-CH0	3397168	OK	0.6956448	0.3756304	-0.6123562	0	-80.87	-99.725	-0.84	B5-03822-P02-CH1	3397168	OK	0.8597459	-0.2099212	-0.4655857	0	-87.918	-80.016	12.43	B5-03822-P03-CH0	3397168	OK	0.7824258	-0.0903173	-0.6161596	0	-100.878	-57.166	11.181	B5-03822-P03-CH1	3397168	OK	0.806928	-0.5901362	0.0246257	0	-98.688	-32.968	5.804	B5-03822-P04-CH0	3397168	OK	0.7800265	-0.3298262	0.5317643	0	-123.306	-41.398	13.034	B5-03822-P04-CH1	3397168	OK	0.8225629	-0.5682019	0.0231703	0	-108.499	-53.977	8.035	NA
0.0799345442644412	B5-03822-P01-CH0	3397176	OK	0.205578	0.0511081	0.0808933	-0.9739517	100.834	-47.9	-295.903	B5-03822-P02-CH0	3397176	OK	0.696879	0.3850681	-0.6050474	0	-80.464	-99.617	-1.825	B5-03822-P02-CH1	3397176	OK	0.8603812	-0.2177967	-0.4607697	0	-86.123	-80.983	13.106	B5-03822-P03-CH0	3397176	OK	0.7792704	-0.083391	-0.6211148	0	-101.662	-56.654	11.797	B5-03822-P03-CH1	3397176	OK	0.8070306	-0.5899906	0.0247535	0	-98.575	-32.856	5.454	B5-03822-P04-CH0	3397176	OK	0.7800753	-0.3272667	0.533272	0	-123.44	-41.6	12.817	B5-03822-P04-CH1	3397176	OK	0.8229257	-0.5676529	0.0237373	0	-108.315	-53.985	7.887	NA
0.0899263622974963	B5-03822-P01-CH0	3397184	OK	0.2054257	0.0511321	0.0812698	-0.9739512	100.83	-47.869	-295.84	B5-03822-P02-CH0	3397184	OK	0.696568	0.3952242	-0.5988245	0	-80.741	-99.337	0.004	B5-03822-P02-CH1	3397184	OK	0.8585742	-0.2252833	-0.4605408	0	-84.817	-80.827	10.953	B5-03822-P03-CH0	3397184	OK	0.7787093	-0.0826385	-0.6219186	0	-101.453	-55.822	10.659	B5-03822-P03-CH1	3397184	OK	0.8072829	-0.5896513	0.0246116	0	-98.475	-32.486	5.065	B5-03822-P04-CH0	3397184	OK	0.7801004	-0.3253708	0.5343942	0	-123.432	-41.627	12.945	B5-03822-P04-CH1	3397184	OK	0.8231181	-0.5673717	0.0237911	0	-108.412	-54.057	8.138	NA
0.0999181803305515	B5-03822-P01-CH0	3397192	OK	0.2050479	0.0506067	0.0810848	-0.9740737	100.519	-47.876	-295.815	B5-03822-P02-CH0	3397192	OK	0.6978699	0.4075424	-0.588971	0	-80.412	-98.563	-0.694	B5-03822-P02-CH1	3397192	OK	0.8524759	-0.2293066	-0.4697907	0	-84.541	-79.071	11.238	B5-03822-P03-CH0	3397192	OK	0.777013	-0.0866394	-0.6234937	0	-101.998	-56.038	10.198	B5-03822-P03-CH1	3397192	OK	0.807063	-0.5899521	0.0246151	0	-98.285	-32.233	4.749	B5-03822-P04-CH0	3397192	OK	0.7797653	-0.3241164	0.5356442	0	-123.292	-41.428	12.712	B5-03822-P04-CH1	3397192	OK	0.8229452	-0.5675992	0.0243365	0	-107.979	-54.068	8.114	NA
0.109909998363607	B5-03822-P01-CH0	3397200	OK	0.204881	0.0506284	0.0809019	-0.9741229	100.488	-47.928	-295.689	B5-03822-P02-CH0	3397200	OK	0.6986605	0.4185296	-0.5802642	0	-80.773	-98.352	-1.265	B5-03822-P02-CH1	3397200	OK	0.8410706	-0.2372629	-0.4861137	0	-85.001	-78.159	10.799	B5-03822-P03-CH0	3397200	OK	0.7770766	-0.0906075	-0.6228501	0	-101.399	-55.563	11.225	B5-03822-P03-CH1	3397200	OK	0.8067155	-0.5904279	0.0245983	0	-98.437	-32.431	4.899	B5-03822-P04-CH0	3397200	OK	0.7796981	-0.3223588	0.5368013	0	-123.27	-41.491	12.973	B5-03822-P04-CH1	3397200	OK	0.8228726	-0.5677112	0.0241792	0	-108.284	-54.108	8.145	NA
0.119901816396662	B5-03822-P01-CH0	3397208	OK	0.2047073	0.0506144	0.0811364	-0.9741406	100.459	-47.892	-295.731	B5-03822-P02-CH0	3397208	OK	0.7014411	0.4256164	-0.5716914	0	-80.859	-99.31	0.139	B5-03822-P02-CH1	3397208	OK	0.829099	-0.2486918	-0.5007467	0	-84.348	-77.694	8.317	B5-03822-P03-CH0	3397208	OK	0.777031	-0.0995818	-0.6215354	0	-101.133	-55.753	9.696	B5-03822-P03-CH1	3397208	OK	0.8067846	-0.5903276	0.0247382	0	-98.504	-32.436	4.973	B5-03822-P04-CH0	3397208	OK	0.7798218	-0.3203122	0.5378458	0	-123.36	-41.672	13.266	B5-03822-P04-CH1	3397208	OK	0.8233138	-0.5670731	0.0241334	0	-108.258	-53.815	8.302	NA
0.129893634429717	B5-03822-P01-CH0	3397216	OK	0.2050989	0.0507404	0.0819394	-0.9739845	100.525	-47.738	-295.795	B5-03822-P02-CH0	3397216	OK	0.705138	0.4345344	-0.5603215	0	-79.817	-98.418	-2.157	B5-03822-P02-CH1	3397216	OK	0.8171609	-0.2568147	-0.5160371	0	-82.649	-76.994	6.93	B5-03822-P03-CH0	3397216	OK	0.777512	-0.1125633	-0.6187121	0	-100.658	-54.623	9.91	B5-03822-P03-CH1	3397216	OK	0.8070588	-0.5899284	0.0253105	0	-98.673	-32.633	5.249	B5-03822-P04-CH0	3397216	OK	0.7800192	-0.3183816	0.5387051	0	-123.189	-41.503	13.41	B5-03822-P04-CH1	3397216	OK	0.8237893	-0.5663624	0.0245922	0	-108.542	-53.817	8.286	NA
0.139885452462772	B5-03822-P01-CH0	3397224	OK	0.2050832	0.0508297	0.0814758	-0.974022	100.496	-47.762	-295.774	B5-03822-P02-CH0	3397224	OK	0.7062392	0.4457226	-0.5500523	0	-79.037	-95.246	-3.994	B5-03822-P02-CH1	3397224	OK	0.8037641	-0.2629572	-0.5336823	0	-81.664	-76.077	6.375	B5-03822-P03-CH0	3397224	OK	0.7776849	-0.1346494	-0.6140649	0	-100.851	-54.515	9.201	B5-03822-P03-CH1	3397224	OK	0.8066292	-0.5904905	0.0258882	0	-98.492	-32.822	5.437	B5-03822-P04-CH0	3397224	OK	0.7797396	-0.3177533	0.5394803	0	-122.974	-41.375	13.429	B5-03822-P04-CH1	3397224	OK	0.8235449	-0.5667056	0.0248706	0	-108.631	-53.783	8.191	NA
0.149877270495827	B5-03822-P01-CH0	3397232	OK	0.2050043	0.050734	0.0809174	-0.9740902	100.363	-47.78	-295.63	B5-03822-P02-CH0	3397232	OK	0.7079126	0.4525511	-0.5422705	0	-79.888	-95.246	-4.134	B5-03822-P02-CH1	3397232	OK	0.7900459	-0.2694975	-0.5506347	0	-81.17	-75.737	2.679	B5-03822-P03-CH0	3397232	OK	0.7814985	-0.1634395	-0.6021193	0	-100.465	-54.607	8.079	B5-03822-P03-CH1	3397232	OK	0.8062535	-0.5909936	0.0261109	0	-98.43	-32.762	5.235	B5-03822-P04-CH0	3397232	OK	0.7796603	-0.3163867	0.5403973	0	-122.883	-41.78	14.017	B5-03822-P04-CH1	3397232	OK	0.8233412	-0.5669928	0.025071	0	-108.63	-53.694	8.183	NA
0.159869088528882	B5-03822-P01-CH0	3397240	OK	0.2051713	0.0502538	0.081984	-0.9739907	100.247	-47.693	-295.885	B5-03822-P02-CH0	3397240	OK	0.7093944	0.4584318	-0.5353502	0	-80.102	-94.842	-3.12	B5-03822-P02-CH1	3397240	OK	0.7796478	-0.2721305	-0.5639984	0	-79.204	-75.224	2.466	B5-03822-P03-CH0	3397240	OK	0.7883732	-0.1972326	-0.5827239	0	-99.803	-55.073	7.134	B5-03822-P03-CH1	3397240	OK	0.8070754	-0.5898542	0.0264813	0	-98.293	-32.46	5.161	B5-03822-P04-CH0	3397240	OK	0.7802205	-0.314345	0.5407802	0	-122.993	-42.175	14.502	B5-03822-P04-CH1	3397240	OK	0.8239961	-0.5660171	0.0255935	0	-108.458	-53.663	8.312	NA
0.169860906561938	B5-03822-P01-CH0	3397248	OK	0.2052568	0.0498585	0.0825911	-0.9739417	100.088	-47.534	-295.962	B5-03822-P02-CH0	3397248	OK	0.7105523	0.4627094	-0.5301088	0	-81.3	-94.275	-1.926	B5-03822-P02-CH1	3397248	OK	0.7682407	-0.2722192	-0.5793988	0	-77.68	-74.596	1.153	B5-03822-P03-CH0	3397248	OK	0.7969428	-0.2353776	-0.5563089	0	-99.769	-55.757	6.927	B5-03822-P03-CH1	3397248	OK	0.8071896	-0.5896537	0.0274483	0	-98.085	-32.639	5.234	B5-03822-P04-CH0	3397248	OK	0.7803593	-0.3131596	0.5412674	0	-123.049	-41.991	14.15	B5-03822-P04-CH1	3397248	OK	0.8240476	-0.5659024	0.0264581	0	-108.328	-53.779	8.029	NA
0.179852724594993	B5-03822-P01-CH0	3397256	OK	0.2055866	0.0500911	0.0822944	-0.9738853	100.19	-47.515	-295.96	B5-03822-P02-CH0	3397256	OK	0.7176364	0.4713446	-0.5126717	0	-77.995	-90.954	-9.966	B5-03822-P02-CH1	3397256	OK	0.7526855	-0.2745607	-0.5983986	0	-77.62	-75.156	0.111	B5-03822-P03-CH0	3397256	OK	0.8085189	-0.2794454	-0.5178875	0	-98.752	-56.891	8.693	B5-03822-P03-CH1	3397256	OK	0.8069967	-0.5898895	0.0280483	0	-98.11	-32.709	5.075	B5-03822-P04-CH0	3397256	OK	0.7803659	-0.3116703	0.5421168	0	-123.064	-42.266	14.495	B5-03822-P04-CH1	3397256	OK	0.8238671	-0.566136	0.0270745	0	-108.323	-53.94	8.216	NA
0.189844542628048	B5-03822-P01-CH0	3397264	OK	0.2058238	0.0501791	0.0826178	-0.9738033	100.287	-47.428	-296.006	B5-03822-P02-CH0	3397264	OK	0.718254	0.4691638	-0.513806	0	-80.418	-92.498	-4.575	B5-03822-P02-CH1	3397264	OK	0.7400123	-0.2720956	-0.6150982	0	-76.421	-73.636	-3.942	B5-03822-P03-CH0	3397264	OK	0.8213174	-0.3307352	-0.4648139	0	-97.925	-58.109	9.893	B5-03822-P03-CH1	3397264	OK	0.8070877	-0.5897362	0.0286466	0	-98.168	-32.895	5.174	B5-03822-P04-CH0	3397264	OK	0.7807478	-0.3096148	0.5427444	0	-123.395	-42.459	14.522	B5-03822-P04-CH1	3397264	OK	0.8242468	-0.565555	0.0276525	0	-108.422	-53.954	8.49	NA
0.199836360661103	B5-03822-P01-CH0	3397272	OK	0.2061156	0.0504533	0.0828442	-0.9737082	100.474	-47.392	-295.984	B5-03822-P02-CH0	3397272	OK	0.7215966	0.4729411	-0.5055938	0	-78.601	-89.972	-6.709	B5-03822-P02-CH1	3397272	OK	0.7328889	-0.270978	-0.6240551	0	-73.381	-72.86	-3.04	B5-03822-P03-CH0	3397272	OK	0.8305409	-0.375028	-0.4117716	0	-96.8	-60.05	8.787	B5-03822-P03-CH1	3397272	OK	0.8071269	-0.5896673	0.0289595	0	-98.312	-33.086	5.339	B5-03822-P04-CH0	3397272	OK	0.7809245	-0.3076087	0.5436302	0	-123.577	-42.783	14.72	B5-03822-P04-CH1	3397272	OK	0.8244769	-0.5652014	0.0280205	0	-108.682	-54.067	8.59	NA
0.209828178694158	B5-03822-P01-CH0	3397280	OK	0.2062449	0.0506894	0.0826401	-0.9736859	100.633	-47.346	-296.128	B5-03822-P02-CH0	3397280	OK	0.725527	0.4715166	-0.501281	0	-78.046	-90.798	-8.772	B5-03822-P02-CH1	3397280	OK	0.725081	-0.2663359	-0.6350769	0	-74.102	-73.24	-2.56	B5-03822-P03-CH0	3397280	OK	0.8376854	-0.3942946	-0.3779085	0	-94.806	-60.766	9.049	B5-03822-P03-CH1	3397280	OK	0.8067513	-0.5901677	0.0292314	0	-98.279	-33.246	5.524	B5-03822-P04-CH0	3397280	OK	0.7810769	-0.3055725	0.5445589	0	-123.881	-43.144	15.113	B5-03822-P04-CH1	3397280	OK	0.8244375	-0.5652494	0.0282106	0	-108.789	-54.11	8.872	NA
0.219819996727213	B5-03822-P01-CH0	3397288	OK	0.2063095	0.0506549	0.082569	-0.97368	100.691	-47.349	-296.188	B5-03822-P02-CH0	3397288	OK	0.7235048	0.4628492	-0.5121636	0	-81.298	-94.161	-0.994	B5-03822-P02-CH1	3397288	OK	0.726746	-0.2555212	-0.637612	0	-72.174	-73.881	-2.739	B5-03822-P03-CH0	3397288	OK	0.8427383	-0.3983313	-0.362111	0	-94.208	-63.18	9.538	B5-03822-P03-CH1	3397288	OK	0.8063531	-0.5907133	0.0291958	0	-98.353	-33.322	5.305	B5-03822-P04-CH0	3397288	OK	0.7808694	-0.3042926	0.5455721	0	-123.914	-43.203	15.117	B5-03822-P04-CH1	3397288	OK	0.824161	-0.5656365	0.028531	0	-108.806	-54.373	8.737	NA
0.229811814760268	B5-03822-P01-CH0	3397296	OK	0.2062535	0.0505972	0.0825487	-0.9736966	100.693	-47.283	-296.119	B5-03822-P02-CH0	3397296	OK	0.7235613	0.4615134	-0.5132879	0	-81.509	-93.416	-2.846	B5-03822-P02-CH1	3397296	OK	0.7287011	-0.2416491	-0.640781	0	-73.97	-74.719	-0.537	B5-03822-P03-CH0	3397296	OK	0.8504422	-0.3853688	-0.3581048	0	-94.885	-62.259	9.669	B5-03822-P03-CH1	3397296	OK	0.8056873	-0.591623	0.0291577	0	-98.456	-33.623	5.398	B5-03822-P04-CH0	3397296	OK	0.7806295	-0.3029622	0.5466549	0	-124.075	-43.39	14.987	B5-03822-P04-CH1	3397296	OK	0.8242255	-0.5655364	0.028651	0	-108.684	-54.305	8.65	NA
0.239803632793324	B5-03822-P01-CH0	3397304	OK	0.2064136	0.0503763	0.0831401	-0.9736238	100.671	-47.15	-296.111	B5-03822-P02-CH0	3397304	OK	0.7242808	0.453389	-0.5194765	0	-81.81	-94.786	-4.115	B5-03822-P02-CH1	3397304	OK	0.7343442	-0.222393	-0.6413111	0	-75.178	-75.529	0.333	B5-03822-P03-CH0	3397304	OK	0.8571297	-0.3746835	-0.35347	0	-95.397	-63.05	10.972	B5-03822-P03-CH1	3397304	OK	0.8058829	-0.5914024	0.0282113	0	-98.564	-33.336	5.585	B5-03822-P04-CH0	3397304	OK	0.7805286	-0.3017068	0.5474926	0	-124.075	-42.999	14.594	B5-03822-P04-CH1	3397304	OK	0.8245942	-0.5649989	0.0286462	0	-108.755	-54.436	9.095	NA
0.249795450826379	B5-03822-P01-CH0	3397312	OK	0.2067069	0.0508334	0.0835343	-0.9735041	100.944	-46.992	-296.22	B5-03822-P02-CH0	3397312	OK	0.7216348	0.4474719	-0.528216	0	-82.545	-94.828	-0.662	B5-03822-P02-CH1	3397312	OK	0.7417757	-0.1989535	-0.6404579	0	-75.349	-75.518	-3.514	B5-03822-P03-CH0	3397312	OK	0.8648692	-0.3626006	-0.3471628	0	-95.257	-63.25	12.034	B5-03822-P03-CH1	3397312	OK	0.8054016	-0.59209	0.0275249	0	-98.677	-33.479	5.669	B5-03822-P04-CH0	3397312	OK	0.7804724	-0.3007259	0.548112	0	-124.329	-42.652	13.972	B5-03822-P04-CH1	3397312	OK	0.8248303	-0.5646519	0.0286937	0	-108.912	-54.545	9.507	NA
0.259787268859434	B5-03822-P01-CH0	3397320	OK	0.2069085	0.0509948	0.0831531	-0.9734855	101.015	-46.907	-296.185	B5-03822-P02-CH0	3397320	OK	0.7213965	0.4467105	-0.529185	0	-82.394	-93.333	-4.123	B5-03822-P02-CH1	3397320	OK	0.7457584	-0.1778969	-0.6420258	0	-76.03	-76.706	-0.85	B5-03822-P03-CH0	3397320	OK	0.8710893	-0.3540807	-0.3403386	0	-94.576	-63.664	12.721	B5-03822-P03-CH1	3397320	OK	0.8043038	-0.5936144	0.0267839	0	-98.823	-33.73	5.689	B5-03822-P04-CH0	3397320	OK	0.7798045	-0.3006839	0.5490848	0	-124.166	-42.122	13.312	B5-03822-P04-CH1	3397320	OK	0.8246801	-0.5648806	0.0285058	0	-109.023	-54.558	9.758	NA
0.269779086892489	B5-03822-P01-CH0	3397328	OK	0.2070986	0.0512616	0.0827763	-0.9734631	101.186	-46.851	-296.27	B5-03822-P02-CH0	3397328	OK	0.7205416	0.4460829	-0.5308764	0	-82.502	-93.228	-5.808	B5-03822-P02-CH1	3397328	OK	0.7482591	-0.1578612	-0.6443509	0	-76.26	-77.063	-0.97	B5-03822-P03-CH0	3397328	OK	0.8753889	-0.3511034	-0.3322959	0	-93.1	-65.493	13.822	B5-03822-P03-CH1	3397328	OK	0.8005554	-0.5990169	0.0170242	0	-98.297	-32.622	4.25	B5-03822-P04-CH0	3397328	OK	0.7793915	-0.3003734	0.5498406	0	-123.986	-41.983	13.715	B5-03822-P04-CH1	3397328	OK	0.8246116	-0.5650009	0.0281027	0	-109.138	-54.5	9.927	NA
0.279770904925544	B5-03822-P01-CH0	3397336	OK	0.2069118	0.0510915	0.0828299	-0.9735073	101.144	-46.833	-296.275	B5-03822-P02-CH0	3397336	OK	0.7183957	0.4416933	-0.5374147	0	-83.426	-95.203	-1.526	B5-03822-P02-CH1	3397336	OK	0.7517994	-0.1399554	-0.644368	0	-75.137	-76.976	0.205	B5-03822-P03-CH0	3397336	OK	0.8781242	-0.3444809	-0.3320103	0	-92.49	-65.359	13.699	B5-03822-P03-CH1	3397336	OK	0.8029339	-0.5955923	0.0238103	0	-98.736	-33.426	5.591	B5-03822-P04-CH0	3397336	OK	0.779026	-0.3010819	0.5499711	0	-123.797	-41.564	13.339	B5-03822-P04-CH1	3397336	OK	0.8245681	-0.5650844	0.0276968	0	-109.024	-54.459	9.667	NA
0.289762722958599	B5-03822-P01-CH0	3397344	OK	0.2067644	0.0512048	0.0817193	-0.9736265	101.173	-46.969	-296.202	B5-03822-P02-CH0	3397344	OK	0.7202033	0.4435616	-0.5334419	0	-82.574	-94.496	-6.029	B5-03822-P02-CH1	3397344	OK	0.751193	-0.1296576	-0.6472233	0	-75.994	-78.525	-0.183	B5-03822-P03-CH0	3397344	OK	0.876521	-0.3429205	-0.3378114	0	-93.761	-66.005	13.865	B5-03822-P03-CH1	3397344	OK	0.8015084	-0.5975659	0.022342	0	-98.657	-33.687	5.852	B5-03822-P04-CH0	3397344	OK	0.7781797	-0.3027235	0.5502679	0	-123.506	-41.187	12.891	B5-03822-P04-CH1	3397344	OK	0.8239765	-0.5659836	0.02693	0	-109.078	-54.362	9.26	NA
0.299754540991654	B5-03822-P01-CH0	3397352	OK	0.2064823	0.0511785	0.0810481	-0.9737438	101.176	-47.001	-296.263	B5-03822-P02-CH0	3397352	OK	0.7189645	0.4417382	-0.5366166	0	-84.086	-95.617	-2.279	B5-03822-P02-CH1	3397352	OK	0.7516088	-0.121789	-0.6482681	0	-75.449	-79.28	1.141	B5-03822-P03-CH0	3397352	OK	0.875985	-0.3425556	-0.3395672	0	-94.134	-65.929	13.565	B5-03822-P03-CH1	3397352	OK	0.800582	-0.5988754	0.0204139	0	-98.636	-33.625	5.971	B5-03822-P04-CH0	3397352	OK	0.777747	-0.3042566	0.5500342	0	-123.365	-40.752	12.759	B5-03822-P04-CH1	3397352	OK	0.8237149	-0.5664058	0.0260421	0	-109.073	-54.18	9.183	NA
0.30974635902471	B5-03822-P01-CH0	3397360	OK	0.2065142	0.0512724	0.0809861	-0.9737373	101.233	-46.931	-296.284	B5-03822-P02-CH0	3397360	OK	0.7210148	0.4464733	-0.529905	0	-82.653	-92.907	-8.194	B5-03822-P02-CH1	3397360	OK	0.7499077	-0.1152586	-0.6514245	0	-76.634	-77.386	-0.448	B5-03822-P03-CH0	3397360	OK	0.8770041	-0.3457299	-0.3336686	0	-93.075	-66.314	12.973	B5-03822-P03-CH1	3397360	OK	0.8003154	-0.5992918	0.0185648	0	-98.654	-33.298	5.829	B5-03822-P04-CH0	3397360	OK	0.7775734	-0.3054609	0.5496119	0	-123.308	-40.399	12.454	B5-03822-P04-CH1	3397360	OK	0.8236805	-0.5664723	0.0256823	0	-109.006	-54.218	9.25	NA
0.319738177057765	B5-03822-P01-CH0	3397368	OK	0.2065547	0.0512688	0.080941	-0.9737326	101.196	-46.803	-296.145	B5-03822-P02-CH0	3397368	OK	0.7209588	0.4438727	-0.5321611	0	-83.608	-94.245	-5.868	B5-03822-P02-CH1	3397368	OK	0.7508105	-0.1138999	-0.6506231	0	-76.312	-77.053	-0.856	B5-03822-P03-CH0	3397368	OK	0.8760886	-0.3454763	-0.3363255	0	-93.771	-65.085	12.885	B5-03822-P03-CH1	3397368	OK	0.8000809	-0.5996488	0.017083	0	-98.515	-33.088	5.898	B5-03822-P04-CH0	3397368	OK	0.7775007	-0.3063993	0.5491923	0	-123.223	-40.129	12.208	B5-03822-P04-CH1	3397368	OK	0.8238979	-0.566181	0.0251261	0	-109.149	-53.985	9.377	NA
0.32972999509082	B5-03822-P01-CH0	3397376	OK	0.206484	0.0513712	0.0803578	-0.9737905	101.214	-46.815	-296.081	B5-03822-P02-CH0	3397376	OK	0.7209834	0.4424464	-0.5333143	0	-83.903	-95.247	-2.196	B5-03822-P02-CH1	3397376	OK	0.7517017	-0.112398	-0.6498548	0	-75.974	-78.037	1.844	B5-03822-P03-CH0	3397376	OK	0.8728111	-0.3465932	-0.3436188	0	-94.285	-64.695	13.068	B5-03822-P03-CH1	3397376	OK	0.7998496	-0.600005	0.015316	0	-98.404	-32.729	5.843	B5-03822-P04-CH0	3397376	OK	0.7775228	-0.3075114	0.5485389	0	-123.187	-39.93	12.268	B5-03822-P04-CH1	3397376	OK	0.823625	-0.566597	0.0246937	0	-109.207	-53.957	9.442	NA
0.339721813123875	B5-03822-P01-CH0	3397384	OK	0.2063504	0.0513696	0.0799451	-0.9738529	101.264	-46.892	-296.179	B5-03822-P02-CH0	3397384	OK	0.7213887	0.4427198	-0.5325388	0	-83.861	-94.895	-3.354	B5-03822-P02-CH1	3397384	OK	0.7514717	-0.1106536	-0.6504199	0	-76.173	-78.975	1.457	B5-03822-P03-CH0	3397384	OK	0.8694607	-0.3484128	-0.3502095	0	-93.921	-64.655	14.241	B5-03822-P03-CH1	3397384	OK	0.7995185	-0.6004714	0.0142948	0	-98.399	-32.639	5.327	B5-03822-P04-CH0	3397384	OK	0.7773243	-0.3090892	0.5479332	0	-123.151	-39.968	12.093	B5-03822-P04-CH1	3397384	OK	0.8233722	-0.5669698	0.0245673	0	-109.079	-54.01	9.299	NA
0.34971363115693	B5-03822-P01-CH0	3397392	OK	0.2063429	0.050943	0.0798262	-0.9738866	101.054	-46.897	-296.115	B5-03822-P02-CH0	3397392	OK	0.7235889	0.4454037	-0.5272899	0	-84.401	-93.601	-4.414	B5-03822-P02-CH1	3397392	OK	0.7519811	-0.111509	-0.6496847	0	-76.455	-78.719	1.547	B5-03822-P03-CH0	3397392	OK	0.8650333	-0.354789	-0.3547425	0	-92.959	-64.793	12.993	B5-03822-P03-CH1	3397392	OK	0.7997685	-0.6001494	0.013823	0	-98.175	-32.303	4.812	B5-03822-P04-CH0	3397392	OK	0.7773109	-0.3099061	0.5474906	0	-122.979	-40.026	12.257	B5-03822-P04-CH1	3397392	OK	0.8232318	-0.5671707	0.0246334	0	-109.076	-54.05	8.948	NA
0.359705449189985	B5-03822-P01-CH0	3397400	OK	0.2064442	0.0510087	0.0803193	-0.9738212	101.094	-46.764	-296.078	B5-03822-P02-CH0	3397400	OK	0.724536	0.4478561	-0.5239012	0	-84.256	-93.517	-4.897	B5-03822-P02-CH1	3397400	OK	0.7523981	-0.1119204	-0.6491309	0	-76.706	-78.381	2.927	B5-03822-P03-CH0	3397400	OK	0.8614543	-0.3601352	-0.358049	0	-92	-64.73	12.098	B5-03822-P03-CH1	3397400	OK	0.8006623	-0.598964	0.0134891	0	-98.135	-31.817	4.36	B5-03822-P04-CH0	3397400	OK	0.7776742	-0.3104002	0.5466941	0	-123.052	-40.011	12.293	B5-03822-P04-CH1	3397400	OK	0.8234723	-0.5668251	0.0245484	0	-109.159	-54.028	8.808	NA
0.36969726722304	B5-03822-P01-CH0	3397408	OK	0.2064465	0.0511479	0.0799791	-0.9738414	101.087	-46.77	-295.879	B5-03822-P02-CH0	3397408	OK	0.7217545	0.4477993	-0.5277748	0	-86.348	-94.571	1.825	B5-03822-P02-CH1	3397408	OK	0.7552607	-0.1104621	-0.6460491	0	-75.696	-77.941	2.043	B5-03822-P03-CH0	3397408	OK	0.8560613	-0.3615373	-0.3693912	0	-93.235	-63.113	11.468	B5-03822-P03-CH1	3397408	OK	0.8010786	-0.5984048	0.0135921	0	-98.326	-31.607	4.043	B5-03822-P04-CH0	3397408	OK	0.7778053	-0.3118942	0.5456565	0	-123.212	-39.559	11.324	B5-03822-P04-CH1	3397408	OK	0.8233752	-0.5669641	0.0245959	0	-109.14	-53.985	8.761	NA
0.379689085256096	B5-03822-P01-CH0	3397416	OK	0.20654	0.0512402	0.0800891	-0.9738077	101.176	-46.713	-295.963	B5-03822-P02-CH0	3397416	OK	0.7213816	0.4540489	-0.5229228	0	-87.072	-94.229	1.663	B5-03822-P02-CH1	3397416	OK	0.7555525	-0.1136723	-0.6451504	0	-76.876	-77.901	2.38	B5-03822-P03-CH0	3397416	OK	0.8513	-0.3649163	-0.3769938	0	-93.391	-62.624	12.103	B5-03822-P03-CH1	3397416	OK	0.8017814	-0.597455	0.0139299	0	-98.491	-31.553	3.989	B5-03822-P04-CH0	3397416	OK	0.7782181	-0.3123518	0.5448053	0	-123.408	-39.594	11.585	B5-03822-P04-CH1	3397416	OK	0.8235233	-0.5667455	0.0246743	0	-109.342	-54.022	9.023	NA
0.389680903289151	B5-03822-P01-CH0	3397424	OK	0.2064746	0.0511697	0.080019	-0.973831	101.145	-46.693	-295.983	B5-03822-P02-CH0	3397424	OK	0.7257619	0.4654667	-0.5065673	0	-85.168	-92.015	-8.024	B5-03822-P02-CH1	3397424	OK	0.7562914	-0.1177799	-0.6435458	0	-78.151	-78.371	0.271	B5-03822-P03-CH0	3397424	OK	0.8477236	-0.36923	-0.3808331	0	-92.682	-62.241	11.578	B5-03822-P03-CH1	3397424	OK	0.8047456	-0.5931483	0.0236576	0	-98.698	-34.126	6.712	B5-03822-P04-CH0	3397424	OK	0.7785516	-0.3132903	0.5437891	0	-123.538	-39.413	11.567	B5-03822-P04-CH1	3397424	OK	0.8234613	-0.5668322	0.0247535	0	-109.355	-54.116	9.398	NA
0.399672721322206	B5-03822-P01-CH0	3397432	OK	0.2065241	0.0512699	0.0800089	-0.9738161	101.179	-46.624	-295.988	B5-03822-P02-CH0	3397432	OK	0.7265518	0.4719287	-0.4994054	0	-85.201	-91.343	-7.504	B5-03822-P02-CH1	3397432	OK	0.7595893	-0.1233761	-0.6385941	0	-77.596	-77.79	1.067	B5-03822-P03-CH0	3397432	OK	0.8419453	-0.3757157	-0.3872542	0	-93.916	-62.304	10.647	B5-03822-P03-CH1	3397432	OK	0.804864	-0.5928745	0.0263405	0	-98.554	-35.098	8.695	B5-03822-P04-CH0	3397432	OK	0.7788062	-0.3137845	0.5431391	0	-123.714	-39.592	11.668	B5-03822-P04-CH1	3397432	OK	0.8232101	-0.5671904	0.0249035	0	-109.517	-54.18	9.25	NA
0.409664539355261	B5-03822-P01-CH0	3397440	OK	0.2064413	0.0512513	0.0796075	-0.9738675	101.107	-46.693	-295.911	B5-03822-P02-CH0	3397440	OK	0.7284784	0.473698	-0.4949035	0	-85.394	-92.226	-4.518	B5-03822-P02-CH1	3397440	OK	0.7607983	-0.1353421	-0.6347192	0	-76.986	-77.261	0.815	B5-03822-P03-CH0	3397440	OK	0.8386988	-0.3798889	-0.3902162	0	-93.353	-61.768	9.769	B5-03822-P03-CH1	3397440	OK	0.8054707	-0.5919473	0.0285549	0	-97.85	-33.99	6.131	B5-03822-P04-CH0	3397440	OK	0.778783	-0.3145185	0.5427477	0	-123.638	-39.859	12.034	B5-03822-P04-CH1	3397440	OK	0.8228303	-0.5677318	0.0251199	0	-109.506	-54.355	9.363	NA
0.419656357388316	B5-03822-P01-CH0	3397448	OK	0.2063748	0.0510959	0.0797324	-0.9738796	101.005	-46.676	-295.891	B5-03822-P02-CH0	3397448	OK	0.7317825	0.4826978	-0.4811416	0	-83.837	-88.287	-12.531	B5-03822-P02-CH1	3397448	OK	0.7583978	-0.149125	-0.6345034	0	-77.018	-76.269	1.573	B5-03822-P03-CH0	3397448	OK	0.8340957	-0.3860084	-0.3940581	0	-92.928	-61.89	9.888	B5-03822-P03-CH1	3397448	OK	0.8070335	-0.5897406	0.0300501	0	-98.571	-32.842	5.759	B5-03822-P04-CH0	3397448	OK	0.7792121	-0.3153355	0.5416567	0	-123.716	-39.908	12.296	B5-03822-P04-CH1	3397448	OK	0.8227805	-0.5678058	0.0250782	0	-109.405	-54.247	9.099	NA
0.429648175421371	B5-03822-P01-CH0	3397456	OK	0.2060564	0.0511188	0.0795058	-0.9739643	101.001	-46.741	-295.871	B5-03822-P02-CH0	3397456	OK	0.7352975	0.481201	-0.4772664	0	-83.892	-90.027	-10.947	B5-03822-P02-CH1	3397456	OK	0.7546991	-0.1660358	-0.6347137	0	-77.562	-75.692	-0.283	B5-03822-P03-CH0	3397456	OK	0.8303497	-0.3905589	-0.3974709	0	-93.092	-61.365	9.512	B5-03822-P03-CH1	3397456	OK	0.8080091	-0.5884127	0.0298614	0	-100.046	-32.506	7.763	B5-03822-P04-CH0	3397456	OK	0.779421	-0.3169887	0.5403898	0	-123.841	-39.778	12.195	B5-03822-P04-CH1	3397456	OK	0.8225278	-0.5681922	0.0246095	0	-109.413	-54.241	9.169	NA
0.439639993454426	B5-03822-P01-CH0	3397464	OK	0.2060647	0.0512279	0.0793721	-0.9739677	100.987	-46.749	-295.689	B5-03822-P02-CH0	3397464	OK	0.7387762	0.4828228	-0.4702041	0	-83.397	-89.213	-13.243	B5-03822-P02-CH1	3397464	OK	0.7520787	-0.1809908	-0.6337349	0	-77.314	-76.082	1.334	B5-03822-P03-CH0	3397464	OK	0.8277973	-0.3907573	-0.4025673	0	-93.934	-60.226	10.732	B5-03822-P03-CH1	3397464	OK	0.8065746	-0.5902339	0.0325776	0	-98.926	-32.737	4.038	B5-03822-P04-CH0	3397464	OK	0.7798531	-0.3176515	0.5393762	0	-124.007	-39.881	12.254	B5-03822-P04-CH1	3397464	OK	0.8223976	-0.5683838	0.0245382	0	-109.524	-54.232	9.156	NA
0.449631811487482	B5-03822-P01-CH0	3397472	OK	0.2060982	0.0510886	0.0798944	-0.9739252	100.952	-46.666	-295.755	B5-03822-P02-CH0	3397472	OK	0.7378949	0.477888	-0.4765859	0	-85.746	-90.423	-5.856	B5-03822-P02-CH1	3397472	OK	0.751013	-0.1924945	-0.6316054	0	-77.148	-74.799	0.094	B5-03822-P03-CH0	3397472	OK	0.8252562	-0.3938161	-0.4047975	0	-93.818	-60.831	9.55	B5-03822-P03-CH1	3397472	OK	0.8062188	-0.5910765	0.0252957	0	-98.709	-32.052	4.444	B5-03822-P04-CH0	3397472	OK	0.7803224	-0.3179529	0.5385192	0	-124.064	-40.176	12.756	B5-03822-P04-CH1	3397472	OK	0.8227341	-0.5679054	0.0243301	0	-109.428	-54.029	9.169	NA
0.459623629520537	B5-03822-P01-CH0	3397480	OK	0.2057861	0.050951	0.0792467	-0.9740513	100.832	-46.81	-295.698	B5-03822-P02-CH0	3397480	OK	0.7420085	0.4835912	-0.4642875	0	-83.231	-86.801	-10.252	B5-03822-P02-CH1	3397480	OK	0.7506645	-0.2054925	-0.6279138	0	-76.694	-75.191	-0.025	B5-03822-P03-CH0	3397480	OK	0.8248448	-0.3931034	-0.4063259	0	-93.274	-60.789	8.586	B5-03822-P03-CH1	3397480	OK	0.8061822	-0.5910583	0.0268414	0	-98.598	-32.399	4.971	B5-03822-P04-CH0	3397480	OK	0.7805235	-0.3187487	0.5377567	0	-124.158	-40.684	13.354	B5-03822-P04-CH1	3397480	OK	0.8223091	-0.5685338	0.0240211	0	-109.279	-54.026	9.191	NA
0.469615447553592	B5-03822-P01-CH0	3397488	OK	0.2055497	0.0504822	0.0791742	-0.9741316	100.616	-46.895	-295.775	B5-03822-P02-CH0	3397488	OK	0.7430865	0.4689361	-0.4774111	0	-86.368	-92.092	0.594	B5-03822-P02-CH1	3397488	OK	0.7539133	-0.2135658	-0.6212926	0	-74.617	-74.908	0.811	B5-03822-P03-CH0	3397488	OK	0.8259583	-0.3866485	-0.4102388	0	-93.484	-59.442	9.079	B5-03822-P03-CH1	3397488	OK	0.8063375	-0.5907629	0.0286165	0	-98.267	-32.636	5.016	B5-03822-P04-CH0	3397488	OK	0.7807037	-0.319445	0.5370816	0	-124.103	-41.131	13.899	B5-03822-P04-CH1	3397488	OK	0.8222778	-0.5685997	0.023529	0	-109.276	-53.873	9.011	NA
0.479607265586647	B5-03822-P01-CH0	3397496	OK	0.2055529	0.0501307	0.0797929	-0.9740986	100.428	-46.793	-295.74	B5-03822-P02-CH0	3397496	OK	0.7445521	0.462152	-0.4817236	0	-86.967	-93.895	5.412	B5-03822-P02-CH1	3397496	OK	0.7520652	-0.2239992	-0.6198566	0	-76.079	-74.688	-0.008	B5-03822-P03-CH0	3397496	OK	0.8267967	-0.3820274	-0.4128708	0	-92.677	-59.27	8.659	B5-03822-P03-CH1	3397496	OK	0.8068377	-0.5899994	0.0302274	0	-98.188	-32.722	5.147	B5-03822-P04-CH0	3397496	OK	0.7811412	-0.320054	0.5360819	0	-124.125	-41.083	13.688	B5-03822-P04-CH1	3397496	OK	0.8227418	-0.5679367	0.0233227	0	-109.024	-53.531	8.779	NA
0.489599083619702	B5-03822-P01-CH0	3397504	OK	0.2056396	0.0505062	0.079638	-0.9740736	100.557	-46.746	-295.83	B5-03822-P02-CH0	3397504	OK	0.7476337	0.4593747	-0.4796027	0	-86.152	-93.915	4.561	B5-03822-P02-CH1	3397504	OK	0.75259	-0.2312784	-0.6165376	0	-76.626	-73.677	-0.744	B5-03822-P03-CH0	3397504	OK	0.824414	-0.3769737	-0.4221758	0	-93.874	-58.814	8.437	B5-03822-P03-CH1	3397504	OK	0.8071206	-0.5895683	0.0310745	0	-98.368	-32.599	5.392	B5-03822-P04-CH0	3397504	OK	0.7812777	-0.3207711	0.5354541	0	-124.155	-41.394	13.924	B5-03822-P04-CH1	3397504	OK	0.8228968	-0.5677291	0.0228999	0	-108.937	-53.309	9.045	NA
0.499590901652757	B5-03822-P01-CH0	3397512	OK	0.2054706	0.0504057	0.0795575	-0.974121	100.461	-46.861	-295.818	B5-03822-P02-CH0	3397512	OK	0.7469762	0.4506612	-0.4888056	0	-87.097	-95.665	12.951	B5-03822-P02-CH1	3397512	OK	0.7548125	-0.2398835	-0.6105031	0	-76.25	-73.531	-0.081	B5-03822-P03-CH0	3397512	OK	0.8210079	-0.3700684	-0.434736	0	-94.691	-58.514	10.022	B5-03822-P03-CH1	3397512	OK	0.8071985	-0.589431	0.0316487	0	-98.518	-32.764	5.552	B5-03822-P04-CH0	3397512	OK	0.7813351	-0.3223359	0.5344296	0	-123.984	-41.278	13.621	B5-03822-P04-CH1	3397512	OK	0.8229687	-0.5676456	0.0223838	0	-108.72	-53.317	9.295	NA
0.509582719685812	B5-03822-P01-CH0	3397520	OK	0.2055907	0.0501358	0.0805345	-0.9740293	100.422	-46.783	-295.929	B5-03822-P02-CH0	3397520	OK	0.7468752	0.4363109	-0.5018069	0	-89.075	-100	22.203	B5-03822-P02-CH1	3397520	OK	0.7560795	-0.2474524	-0.605897	0	-77.626	-72.712	0.56	B5-03822-P03-CH0	3397520	OK	0.818056	-0.3636951	-0.4455449	0	-94.139	-57.403	7.46	B5-03822-P03-CH1	3397520	OK	0.8077906	-0.5885879	0.0322279	0	-98.585	-33.016	6.223	B5-03822-P04-CH0	3397520	OK	0.7818389	-0.323329	0.5330912	0	-123.884	-40.974	13.439	B5-03822-P04-CH1	3397520	OK	0.8236685	-0.5666484	0.021902	0	-108.637	-53.141	9.315	NA
0.519574537718868	B5-03822-P01-CH0	3397528	OK	0.2055711	0.0502534	0.0805729	-0.9740242	100.517	-46.878	-295.966	B5-03822-P02-CH0	3397528	OK	0.7503994	0.4350789	-0.4976014	0	-88.481	-98.786	18.886	B5-03822-P02-CH1	3397528	OK	0.761918	-0.2574039	-0.5943266	0	-76.437	-73.402	1.23	B5-03822-P03-CH0	3397528	OK	0.814114	-0.3590089	-0.4564329	0	-92.877	-58.68	9.384	B5-03822-P03-CH1	3397528	OK	0.8076578	-0.5887615	0.0323838	0	-98.533	-33.339	6.34	B5-03822-P04-CH0	3397528	OK	0.7821213	-0.3248744	0.5317357	0	-123.963	-40.628	13.035	B5-03822-P04-CH1	3397528	OK	0.8236778	-0.5666538	0.0214091	0	-108.607	-53.247	9.298	NA
0.529566355751923	B5-03822-P01-CH0	3397536	OK	0.2059734	0.0501735	0.0813741	-0.9738767	100.465	-46.812	-296.021	B5-03822-P02-CH0	3397536	OK	0.7505032	0.4197135	-0.5104758	0	-88.839	-101.521	26.416	B5-03822-P02-CH1	3397536	OK	0.7670408	-0.2676601	-0.5831008	0	-76.831	-74.095	0.772	B5-03822-P03-CH0	3397536	OK	0.8094855	-0.3502	-0.4712677	0	-93.539	-58.434	9.826	B5-03822-P03-CH1	3397536	OK	0.8079862	-0.5882906	0.0327488	0	-98.44	-33.491	6.301	B5-03822-P04-CH0	3397536	OK	0.7823876	-0.3261496	0.5305621	0	-123.764	-40.303	12.656	B5-03822-P04-CH1	3397536	OK	0.8242327	-0.5658516	0.0212693	0	-108.514	-53.216	9.357	NA
0.539558173784978	B5-03822-P01-CH0	3397544	OK	0.2060708	0.0501733	0.0816329	-0.9738344	100.413	-46.738	-296.069	B5-03822-P02-CH0	3397544	OK	0.7496151	0.4079236	-0.521225	0	-89.102	-101.685	27.277	B5-03822-P02-CH1	3397544	OK	0.7720751	-0.2754367	-0.5727431	0	-78.563	-74.011	1.953	B5-03822-P03-CH0	3397544	OK	0.8051607	-0.3403058	-0.4857039	0	-94.898	-58.041	8.673	B5-03822-P03-CH1	3397544	OK	0.8080689	-0.5881856	0.0325933	0	-98.368	-33.384	6.146	B5-03822-P04-CH0	3397544	OK	0.7824161	-0.3272878	0.5298187	0	-123.582	-40.409	13.106	B5-03822-P04-CH1	3397544	OK	0.8244791	-0.5655148	0.0206708	0	-108.467	-53.063	9.397	NA
0.549549991818033	B5-03822-P01-CH0	3397552	OK	0.205597	0.0505812	0.0812298	-0.9739472	100.531	-46.813	-295.919	B5-03822-P02-CH0	3397552	OK	0.7494882	0.400457	-0.5271637	0	-88.385	-100.328	21.378	B5-03822-P02-CH1	3397552	OK	0.7802172	-0.2844286	-0.557101	0	-78.818	-75.12	3.598	B5-03822-P03-CH0	3397552	OK	0.8039411	-0.32975	-0.4949179	0	-94.625	-57.853	8.128	B5-03822-P03-CH1	3397552	OK	0.8077047	-0.588733	0.031726	0	-98.5	-33.515	6.528	B5-03822-P04-CH0	3397552	OK	0.7823568	-0.3297628	0.5283695	0	-123.662	-40.222	12.997	B5-03822-P04-CH1	3397552	OK	0.824345	-0.5657537	0.0194458	0	-108.49	-52.93	9.503	NA
0.559541809851088	B5-03822-P01-CH0	3397560	OK	0.2056453	0.0509773	0.0812462	-0.973915	100.696	-46.828	-295.902	B5-03822-P02-CH0	3397560	OK	0.747931	0.3935187	-0.5345486	0	-86.916	-97.734	15.711	B5-03822-P02-CH1	3397560	OK	0.7909822	-0.2905537	-0.5384475	0	-78.81	-74.962	3.243	B5-03822-P03-CH0	3397560	OK	0.802723	-0.3176729	-0.5046977	0	-95.172	-57.098	9.251	B5-03822-P03-CH1	3397560	OK	0.8076487	-0.5888408	0.0311473	0	-98.706	-33.441	6.301	B5-03822-P04-CH0	3397560	OK	0.7824021	-0.33187	0.5269813	0	-123.652	-39.918	12.733	B5-03822-P04-CH1	3397560	OK	0.8245082	-0.5655433	0.0186315	0	-108.52	-52.84	9.669	NA
0.569533627884143	B5-03822-P01-CH0	3397568	OK	0.2056453	0.051301	0.0810193	-0.9739169	100.789	-46.878	-295.899	B5-03822-P02-CH0	3397568	OK	0.7464382	0.3774299	-0.5480663	0	-85.823	-97.114	13.339	B5-03822-P02-CH1	3397568	OK	0.7989653	-0.2947887	-0.5241699	0	-81.434	-74.451	2.631	B5-03822-P03-CH0	3397568	OK	0.8015959	-0.3089611	-0.5118467	0	-94.982	-58.074	11.381	B5-03822-P03-CH1	3397568	OK	0.8075104	-0.5890728	0.0303342	0	-98.908	-33.453	6.658	B5-03822-P04-CH0	3397568	OK	0.7823881	-0.3335236	0.525957	0	-123.56	-39.763	12.977	B5-03822-P04-CH1	3397568	OK	0.8244171	-0.5657	0.017888	0	-108.493	-52.825	9.76	NA
0.579525445917198	B5-03822-P01-CH0	3397576	OK	0.205412	0.0519672	0.0798651	-0.9740261	100.982	-47.077	-295.729	B5-03822-P02-CH0	3397576	OK	0.7462839	0.3613583	-0.5589996	0	-84.313	-95.687	8.376	B5-03822-P02-CH1	3397576	OK	0.8095148	-0.2944235	-0.5079376	0	-81.65	-75.819	6.213	B5-03822-P03-CH0	3397576	OK	0.7994735	-0.2997625	-0.5205618	0	-95.915	-57.852	10.604	B5-03822-P03-CH1	3397576	OK	0.806691	-0.5902425	0.0293851	0	-99.037	-33.631	6.812	B5-03822-P04-CH0	3397576	OK	0.7819481	-0.3358984	0.5250994	0	-123.374	-39.804	13.34	B5-03822-P04-CH1	3397576	OK	0.8236481	-0.5668544	0.0167279	0	-108.673	-53.081	10.125	NA
0.589517263950254	B5-03822-P01-CH0	3397584	OK	0.2051868	0.0521025	0.0794269	-0.9741022	100.971	-47.165	-295.614	B5-03822-P02-CH0	3397584	OK	0.7429503	0.3375505	-0.5780005	0	-84.275	-96.074	9.885	B5-03822-P02-CH1	3397584	OK	0.8203639	-0.291176	-0.4921581	0	-82.165	-76.046	6.189	B5-03822-P03-CH0	3397584	OK	0.7954898	-0.289434	-0.5323757	0	-97.111	-57.351	9.964	B5-03822-P03-CH1	3397584	OK	0.8062815	-0.5908362	0.0286822	0	-98.946	-33.649	6.89	B5-03822-P04-CH0	3397584	OK	0.7817614	-0.3378907	0.5240982	0	-123.229	-39.664	13.505	B5-03822-P04-CH1	3397584	OK	0.8231272	-0.5676337	0.0159243	0	-108.646	-53.236	10.05	NA
0.599509081983309	B5-03822-P01-CH0	3397592	OK	0.2053287	0.0520717	0.079597	-0.9740601	100.955	-47.15	-295.573	B5-03822-P02-CH0	3397592	OK	0.7416156	0.3143384	-0.5926193	0	-83.84	-97.103	5.803	B5-03822-P02-CH1	3397592	OK	0.8319331	-0.2869912	-0.474893	0	-81.616	-76.778	7.817	B5-03822-P03-CH0	3397592	OK	0.7914578	-0.2802297	-0.5431997	0	-96.962	-57.118	9.65	B5-03822-P03-CH1	3397592	OK	0.8063735	-0.5907149	0.0285957	0	-98.68	-33.358	6.343	B5-03822-P04-CH0	3397592	OK	0.7818098	-0.3388338	0.5234168	0	-123.226	-39.72	13.681	B5-03822-P04-CH1	3397592	OK	0.823425	-0.567219	0.0152925	0	-108.539	-53.04	10.27	NA
0.609500900016364	B5-03822-P01-CH0	3397600	OK	0.2053919	0.0523867	0.0790206	-0.9740768	101.014	-47.215	-295.441	B5-03822-P02-CH0	3397600	OK	0.7406996	0.2937153	-0.6042313	0	-82.537	-95.915	3.607	B5-03822-P02-CH1	3397600	OK	0.840264	-0.2792382	-0.4647391	0	-82.945	-76.573	10.068	B5-03822-P03-CH0	3397600	OK	0.787908	-0.2702667	-0.5533145	0	-96.417	-56.215	7.277	B5-03822-P03-CH1	3397600	OK	0.8058148	-0.5914837	0.028452	0	-98.723	-33.439	6.16	B5-03822-P04-CH0	3397600	OK	0.7816244	-0.3401433	0.522844	0	-123.226	-39.803	13.909	B5-03822-P04-CH1	3397600	OK	0.8230927	-0.5677196	0.0145891	0	-108.584	-52.87	9.973	NA
0.619492718049419	B5-03822-P01-CH0	3397608	OK	0.2051866	0.0524488	0.0790401	-0.9741151	101.004	-47.186	-295.446	B5-03822-P02-CH0	3397608	OK	0.7386597	0.2715587	-0.6169584	0	-81.869	-94.95	5.385	B5-03822-P02-CH1	3397608	OK	0.8463351	-0.2739782	-0.4567853	0	-84.854	-77.094	9.944	B5-03822-P03-CH0	3397608	OK	0.7841274	-0.2625676	-0.5623189	0	-96.157	-56.534	8.137	B5-03822-P03-CH1	3397608	OK	0.8059265	-0.5913614	0.0278253	0	-98.944	-33.13	6.222	B5-03822-P04-CH0	3397608	OK	0.7814197	-0.3410986	0.5225275	0	-123.172	-40.004	14.267	B5-03822-P04-CH1	3397608	OK	0.82306	-0.5677911	0.013624	0	-108.615	-52.763	10.197	NA
0.629484536082474	B5-03822-P01-CH0	3397616	OK	0.2047196	0.0526107	0.0776596	-0.9743157	101.035	-47.373	-295.452	B5-03822-P02-CH0	3397616	OK	0.7362505	0.2476741	-0.6297561	0	-82.212	-96.156	6.308	B5-03822-P02-CH1	3397616	OK	0.8523408	-0.269825	-0.4480063	0	-85.666	-77.878	9.644	B5-03822-P03-CH0	3397616	OK	0.7814332	-0.2568857	-0.5686579	0	-96.095	-56.268	7.961	B5-03822-P03-CH1	3397616	OK	0.8050302	-0.5925994	0.0274292	0	-98.825	-33.201	6.446	B5-03822-P04-CH0	3397616	OK	0.7809506	-0.3418344	0.5227479	0	-123.236	-40.571	15.227	B5-03822-P04-CH1	3397616	OK	0.8222388	-0.5689976	0.0128471	0	-108.51	-52.725	10.303	NA
0.639476354115529	B5-03822-P01-CH0	3397624	OK	0.2043777	0.0527068	0.0773575	-0.9744063	101.055	-47.448	-295.375	B5-03822-P02-CH0	3397624	OK	0.7352276	0.2310575	-0.6372228	0	-81.154	-95.252	4.872	B5-03822-P02-CH1	3397624	OK	0.8583319	-0.2651745	-0.4392594	0	-84.935	-78.574	10.984	B5-03822-P03-CH0	3397624	OK	0.7804828	-0.2532695	-0.5715778	0	-95.192	-56.887	8.441	B5-03822-P03-CH1	3397624	OK	0.8049926	-0.5926785	0.0268154	0	-98.842	-33.076	6.778	B5-03822-P04-CH0	3397624	OK	0.7809567	-0.3426042	0.5222347	0	-123.34	-40.559	15.487	B5-03822-P04-CH1	3397624	OK	0.8221056	-0.5692085	0.0120044	0	-108.4	-52.514	10.215	NA
0.649468172148585	B5-03822-P01-CH0	3397632	OK	0.2047964	0.0526941	0.0767221	-0.9743693	101.054	-47.598	-295.367	B5-03822-P02-CH0	3397632	OK	0.7333529	0.2164605	-0.6444675	0	-80.697	-95.962	4	B5-03822-P02-CH1	3397632	OK	0.8619236	-0.2607625	-0.4348456	0	-84.982	-78.48	11.609	B5-03822-P03-CH0	3397632	OK	0.78133	-0.2515757	-0.5711682	0	-94.553	-56.39	8.304	B5-03822-P03-CH1	3397632	OK	0.8044852	-0.593332	0.0275817	0	-98.709	-33.318	6.549	B5-03822-P04-CH0	3397632	OK	0.7807112	-0.3430664	0.5222982	0	-123.14	-40.413	15.374	B5-03822-P04-CH1	3397632	OK	0.821743	-0.5697331	0.0119425	0	-108.392	-52.596	10.122	NA
0.65945999018164	B5-03822-P01-CH0	3397640	OK	0.2048718	0.0519644	0.077633	-0.9743205	100.836	-47.558	-295.433	B5-03822-P02-CH0	3397640	OK	0.7313365	0.2078381	-0.6495769	0	-79.856	-95.609	4.182	B5-03822-P02-CH1	3397640	OK	0.8653274	-0.2593483	-0.4288904	0	-84.524	-78.756	11.802	B5-03822-P03-CH0	3397640	OK	0.782015	-0.2498701	-0.5709794	0	-94.52	-55.721	8.4	B5-03822-P03-CH1	3397640	OK	0.804953	-0.5926853	0.0278344	0	-98.634	-33.314	6.436	B5-03822-P04-CH0	3397640	OK	0.7807829	-0.3429859	0.5222439	0	-122.929	-40.251	15.348	B5-03822-P04-CH1	3397640	OK	0.8221991	-0.5690758	0.0118907	0	-108.232	-52.408	9.63	NA
0.669451808214695	B5-03822-P01-CH0	3397648	OK	0.2049022	0.0519174	0.0779937	-0.9742878	100.869	-47.528	-295.542	B5-03822-P02-CH0	3397648	OK	0.7274866	0.2025181	-0.6555529	0	-80.35	-96.015	3.881	B5-03822-P02-CH1	3397648	OK	0.8659337	-0.2585662	-0.4281382	0	-84.696	-78.862	11.775	B5-03822-P03-CH0	3397648	OK	0.7810284	-0.2542426	-0.5703993	0	-95.155	-57.127	8.47	B5-03822-P03-CH1	3397648	OK	0.8050499	-0.5925531	0.027846	0	-98.478	-33.4	6.558	B5-03822-P04-CH0	3397648	OK	0.7808603	-0.3432786	0.5219358	0	-122.982	-40.213	15.217	B5-03822-P04-CH1	3397648	OK	0.8223665	-0.5688405	0.0115691	0	-108.2	-52.401	9.916	NA
0.67944362624775	B5-03822-P01-CH0	3397656	OK	0.2049978	0.0517234	0.078458	-0.9742407	100.881	-47.464	-295.77	B5-03822-P02-CH0	3397656	OK	0.7264104	0.2007032	-0.6573022	0	-79.54	-95.82	1.14	B5-03822-P02-CH1	3397656	OK	0.8670681	-0.2606965	-0.4245354	0	-83.652	-78.903	12.715	B5-03822-P03-CH0	3397656	OK	0.7813257	-0.2562191	-0.5691063	0	-94.913	-57.427	9.413	B5-03822-P03-CH1	3397656	OK	0.8053213	-0.59217	0.0281485	0	-98.511	-33.531	6.996	B5-03822-P04-CH0	3397656	OK	0.7811827	-0.3419937	0.5222967	0	-123.237	-40.836	16.092	B5-03822-P04-CH1	3397656	OK	0.8227423	-0.5683008	0.0113737	0	-108.151	-52.188	9.937	NA
0.689435444280805	B5-03822-P01-CH0	3397664	OK	0.2051038	0.0515524	0.0789737	-0.9741858	100.839	-47.463	-295.621	B5-03822-P02-CH0	3397664	OK	0.7243883	0.1983434	-0.6602435	0	-78.75	-96.296	1.301	B5-03822-P02-CH1	3397664	OK	0.8639214	-0.2655317	-0.4279401	0	-84.462	-78.397	10.231	B5-03822-P03-CH0	3397664	OK	0.7809205	-0.2587643	-0.5685105	0	-95.671	-56.258	8.807	B5-03822-P03-CH1	3397664	OK	0.8056965	-0.5916674	0.0279789	0	-98.623	-33.311	6.267	B5-03822-P04-CH0	3397664	OK	0.7812869	-0.3411364	0.5227014	0	-123.199	-41.205	16.407	B5-03822-P04-CH1	3397664	OK	0.8231462	-0.5677166	0.0113192	0	-108.214	-51.921	9.376	NA
0.69942726231386	B5-03822-P01-CH0	3397672	OK	0.2053085	0.0515875	0.0793919	-0.9741068	100.895	-47.399	-295.516	B5-03822-P02-CH0	3397672	OK	0.7230848	0.196498	-0.6622212	0	-78.055	-95.703	-2.959	B5-03822-P02-CH1	3397672	OK	0.8606797	-0.2679947	-0.4329081	0	-84.287	-77.555	10.24	B5-03822-P03-CH0	3397672	OK	0.7825236	-0.2579649	-0.5666665	0	-95.005	-57.109	9.008	B5-03822-P03-CH1	3397672	OK	0.8060939	-0.5911429	0.0276185	0	-98.794	-33.185	6.384	B5-03822-P04-CH0	3397672	OK	0.7814337	-0.3402505	0.5230593	0	-123.168	-41.388	16.896	B5-03822-P04-CH1	3397672	OK	0.8232549	-0.5675536	0.0115897	0	-108.341	-51.891	8.793	NA
0.709419080346915	B5-03822-P01-CH0	3397680	OK	0.2052398	0.0514477	0.0790799	-0.9741541	100.843	-47.43	-295.668	B5-03822-P02-CH0	3397680	OK	0.7201939	0.1980453	-0.6649051	0	-77.067	-94.225	0.6	B5-03822-P02-CH1	3397680	OK	0.8563885	-0.2711202	-0.4394229	0	-83.621	-77.465	11.343	B5-03822-P03-CH0	3397680	OK	0.7832265	-0.2733986	-0.558399	0	-95.115	-57.184	8.859	B5-03822-P03-CH1	3397680	OK	0.8060059	-0.5912741	0.0273755	0	-98.806	-33.161	6.517	B5-03822-P04-CH0	3397680	OK	0.7811679	-0.3401732	0.5235063	0	-123.126	-41.382	16.785	B5-03822-P04-CH1	3397680	OK	0.823185	-0.5676513	0.0117675	0	-108.242	-51.918	9.143	NA
0.719410898379971	B5-03822-P01-CH0	3397688	OK	0.2056352	0.0511614	0.0796558	-0.9740388	100.764	-47.4	-295.744	B5-03822-P02-CH0	3397688	OK	0.7160789	0.1959363	-0.6699552	0	-78.039	-95.563	2.254	B5-03822-P02-CH1	3397688	OK	0.853364	-0.2694871	-0.4462584	0	-83.188	-76.47	11.269	B5-03822-P03-CH0	3397688	OK	0.7857928	-0.2800191	-0.5514699	0	-94.935	-57.045	8.03	B5-03822-P03-CH1	3397688	OK	0.8065069	-0.5905784	0.0276355	0	-98.645	-33.145	6.618	B5-03822-P04-CH0	3397688	OK	0.7812789	-0.3388365	0.5242071	0	-122.978	-41.705	17.197	B5-03822-P04-CH1	3397688	OK	0.8237499	-0.5668174	0.0124156	0	-108.099	-51.804	9.155	NA
0.729402716413026	B5-03822-P01-CH0	3397696	OK	0.2057974	0.051078	0.0797903	-0.9739979	100.68	-47.354	-295.6	B5-03822-P02-CH0	3397696	OK	0.7160252	0.1979459	-0.6694216	0	-77.003	-94.487	-0.09	B5-03822-P02-CH1	3397696	OK	0.8498368	-0.2734699	-0.4505459	0	-82.419	-77.445	10.076	B5-03822-P03-CH0	3397696	OK	0.7881644	-0.2821893	-0.5469608	0	-95.215	-56.395	8.694	B5-03822-P03-CH1	3397696	OK	0.8066595	-0.5903698	0.0276394	0	-98.582	-32.989	6.054	B5-03822-P04-CH0	3397696	OK	0.7812907	-0.3383599	0.5244974	0	-122.879	-41.507	16.955	B5-03822-P04-CH1	3397696	OK	0.8238015	-0.5667363	0.0126946	0	-108.184	-51.803	8.922	NA
0.739394534446081	B5-03822-P01-CH0	3397704	OK	0.206232	0.0510169	0.0802885	-0.9738683	100.664	-47.253	-295.566	B5-03822-P02-CH0	3397704	OK	0.7148035	0.1978302	-0.6707601	0	-76.694	-94.42	1.227	B5-03822-P02-CH1	3397704	OK	0.8466729	-0.2755382	-0.4552183	0	-82.166	-78.392	9.894	B5-03822-P03-CH0	3397704	OK	0.7897966	-0.2822724	-0.5445582	0	-96.139	-55.902	8.722	B5-03822-P03-CH1	3397704	OK	0.8069359	-0.5899632	0.0282463	0	-98.704	-33.221	6.188	B5-03822-P04-CH0	3397704	OK	0.7816055	-0.3375324	0.5245615	0	-122.949	-41.288	16.552	B5-03822-P04-CH1	3397704	OK	0.8240675	-0.5663316	0.0134656	0	-108.304	-51.894	8.822	NA
0.749386352479136	B5-03822-P01-CH0	3397712	OK	0.2063919	0.0511643	0.0807481	-0.9737886	100.755	-47.213	-295.601	B5-03822-P02-CH0	3397712	OK	0.7122466	0.1987627	-0.6731999	0	-77.198	-94.355	1.261	B5-03822-P02-CH1	3397712	OK	0.8415369	-0.2741418	-0.4654696	0	-83.318	-78.102	8.587	B5-03822-P03-CH0	3397712	OK	0.7952371	-0.2844005	-0.5354571	0	-94.501	-56.971	8.231	B5-03822-P03-CH1	3397712	OK	0.807589	-0.5890856	0.027896	0	-98.769	-32.963	5.978	B5-03822-P04-CH0	3397712	OK	0.7818337	-0.3366879	0.524764	0	-123.058	-41.545	16.571	B5-03822-P04-CH1	3397712	OK	0.8243419	-0.5659192	0.013997	0	-108.333	-52.005	8.938	NA
0.759378170512191	B5-03822-P01-CH0	3397720	OK	0.2063582	0.0517887	0.0801255	-0.9738142	100.972	-47.288	-295.558	B5-03822-P02-CH0	3397720	OK	0.7107985	0.2018403	-0.6738145	0	-77.205	-94.515	0.046	B5-03822-P02-CH1	3397720	OK	0.838428	-0.2738517	-0.4712152	0	-82.262	-78.043	9.789	B5-03822-P03-CH0	3397720	OK	0.798506	-0.2858646	-0.5297826	0	-94.502	-57.066	10.033	B5-03822-P03-CH1	3397720	OK	0.8075917	-0.5891038	0.0274284	0	-98.86	-32.881	6.153	B5-03822-P04-CH0	3397720	OK	0.7818563	-0.3373163	0.5243266	0	-123.245	-41.164	15.95	B5-03822-P04-CH1	3397720	OK	0.823991	-0.5664212	0.0143455	0	-108.454	-52.279	9.357	NA
0.769369988545246	B5-03822-P01-CH0	3397728	OK	0.2064621	0.0520802	0.0801777	-0.9737723	101.044	-47.256	-295.353	B5-03822-P02-CH0	3397728	OK	0.7100029	0.2037965	-0.6740644	0	-76.586	-94.412	-0.481	B5-03822-P02-CH1	3397728	OK	0.832719	-0.2748299	-0.4806741	0	-82.597	-78.032	9.261	B5-03822-P03-CH0	3397728	OK	0.8006269	-0.289829	-0.5244004	0	-95.272	-56.988	9.792	B5-03822-P03-CH1	3397728	OK	0.8079751	-0.5885976	0.0270029	0	-99.137	-32.654	5.828	B5-03822-P04-CH0	3397728	OK	0.781908	-0.337141	0.5243624	0	-123.247	-41.066	15.642	B5-03822-P04-CH1	3397728	OK	0.8240272	-0.5663561	0.0148339	0	-108.483	-52.4	9.427	NA
0.779361806578301	B5-03822-P01-CH0	3397736	OK	0.2064433	0.0523146	0.079427	-0.9738253	101.06	-47.35	-295.132	B5-03822-P02-CH0	3397736	OK	0.7095863	0.2036193	-0.6745565	0	-76.028	-95.291	-1.163	B5-03822-P02-CH1	3397736	OK	0.8272034	-0.2765536	-0.4891346	0	-82.784	-77.439	8.194	B5-03822-P03-CH0	3397736	OK	0.8017226	-0.2958522	-0.5193383	0	-95.862	-57.697	9.701	B5-03822-P03-CH1	3397736	OK	0.8077487	-0.5889205	0.0267323	0	-99.153	-32.533	5.31	B5-03822-P04-CH0	3397736	OK	0.7814738	-0.3384085	0.524193	0	-123.091	-40.43	14.57	B5-03822-P04-CH1	3397736	OK	0.8235118	-0.5670866	0.0155281	0	-108.499	-52.527	9.044	NA
0.789353624611357	B5-03822-P01-CH0	3397744	OK	0.2064518	0.052424	0.0788774	-0.9738623	101.084	-47.435	-295.234	B5-03822-P02-CH0	3397744	OK	0.7065113	0.2051453	-0.6773162	0	-76.077	-94.752	0.31	B5-03822-P02-CH1	3397744	OK	0.8261225	-0.278217	-0.4900172	0	-80.204	-77.095	6.648	B5-03822-P03-CH0	3397744	OK	0.8055338	-0.3020054	-0.5098117	0	-94.366	-58.331	9.769	B5-03822-P03-CH1	3397744	OK	0.8076428	-0.5890626	0.0268048	0	-99.008	-32.578	5.39	B5-03822-P04-CH0	3397744	OK	0.7813937	-0.338775	0.5240758	0	-123.161	-40.148	14.085	B5-03822-P04-CH1	3397744	OK	0.8232699	-0.5674285	0.0158635	0	-108.488	-52.735	9.524	NA
0.799345442644412	B5-03822-P01-CH0	3397752	OK	0.2062066	0.0523636	0.0786272	-0.9739377	101.031	-47.493	-295.345	B5-03822-P02-CH0	3397752	OK	0.7047028	0.2062802	-0.6788537	0	-76.179	-94.921	0.205	B5-03822-P02-CH1	3397752	OK	0.8210716	-0.2795218	-0.4977037	0	-80.489	-77.076	6.328	B5-03822-P03-CH0	3397752	OK	0.8054819	-0.3026291	-0.5095238	0	-96.027	-57.058	8.622	B5-03822-P03-CH1	3397752	OK	0.8075319	-0.5892212	0.0266572	0	-98.904	-32.791	5.705	B5-03822-P04-CH0	3397752	OK	0.7813719	-0.3390073	0.523958	0	-123.158	-40.129	14.102	B5-03822-P04-CH1	3397752	OK	0.8231323	-0.5676257	0.0159459	0	-108.485	-52.839	9.883	NA
0.809337260677467	B5-03822-P01-CH0	3397760	OK	0.2061502	0.0525337	0.0789688	-0.9739129	101.084	-47.452	-295.19	B5-03822-P02-CH0	3397760	OK	0.7032304	0.2090736	-0.6795257	0	-76.2	-95.198	-0.52	B5-03822-P02-CH1	3397760	OK	0.8132879	-0.2794058	-0.5103873	0	-82.827	-76.952	5.294	B5-03822-P03-CH0	3397760	OK	0.8075767	-0.3044431	-0.5051083	0	-95.772	-57.555	9.644	B5-03822-P03-CH1	3397760	OK	0.8081198	-0.5884432	0.0260173	0	-98.947	-32.544	5.739	B5-03822-P04-CH0	3397760	OK	0.7816282	-0.3386539	0.5238042	0	-123.288	-40.252	14.12	B5-03822-P04-CH1	3397760	OK	0.8232729	-0.567417	0.0161181	0	-108.582	-52.86	9.8	NA
0.819329078710522	B5-03822-P01-CH0	3397768	OK	0.2062358	0.0528741	0.0786922	-0.9738987	101.248	-47.514	-295.149	B5-03822-P02-CH0	3397768	OK	0.7034711	0.2110439	-0.678667	0	-75.402	-95.028	-1.649	B5-03822-P02-CH1	3397768	OK	0.8103015	-0.2812784	-0.5140953	0	-81.693	-78.085	6.672	B5-03822-P03-CH0	3397768	OK	0.8080826	-0.3070835	-0.502695	0	-96.338	-58.445	9.743	B5-03822-P03-CH1	3397768	OK	0.8079262	-0.5887095	0.0260084	0	-99.069	-32.847	5.617	B5-03822-P04-CH0	3397768	OK	0.7817116	-0.3384918	0.5237845	0	-123.407	-40.47	14.312	B5-03822-P04-CH1	3397768	OK	0.8229997	-0.567799	0.0166083	0	-108.636	-53.111	9.859	NA
0.829320896743577	B5-03822-P01-CH0	3397776	OK	0.2061018	0.0530777	0.0785165	-0.9739302	101.305	-47.53	-295.083	B5-03822-P02-CH0	3397776	OK	0.7007743	0.2152276	-0.6801415	0	-76.171	-95.413	0.312	B5-03822-P02-CH1	3397776	OK	0.8080097	-0.2783337	-0.5192791	0	-81.747	-77.645	6.399	B5-03822-P03-CH0	3397776	OK	0.8118481	-0.310339	-0.4945628	0	-94.174	-59.808	10.112	B5-03822-P03-CH1	3397776	OK	0.8079797	-0.5886562	0.0255478	0	-99.058	-32.868	5.782	B5-03822-P04-CH0	3397776	OK	0.7817125	-0.3383479	0.5238762	0	-123.402	-40.873	14.846	B5-03822-P04-CH1	3397776	OK	0.8227958	-0.5680903	0.0167483	0	-108.659	-53.123	9.678	NA
0.839312714776632	B5-03822-P01-CH0	3397784	OK	0.2059427	0.0532111	0.0780923	-0.9739906	101.318	-47.621	-295.073	B5-03822-P02-CH0	3397784	OK	0.7007657	0.2203082	-0.6785218	0	-75.348	-94.836	-1.364	B5-03822-P02-CH1	3397784	OK	0.8069629	-0.2745611	-0.5229026	0	-81.302	-76.836	6.781	B5-03822-P03-CH0	3397784	OK	0.8114459	-0.3086477	-0.4962782	0	-95.425	-58.435	10.278	B5-03822-P03-CH1	3397784	OK	0.8077242	-0.5890281	0.0250504	0	-99.038	-32.944	5.642	B5-03822-P04-CH0	3397784	OK	0.7814684	-0.3394239	0.5235443	0	-123.236	-40.492	14.387	B5-03822-P04-CH1	3397784	OK	0.8224623	-0.5685687	0.0168938	0	-108.57	-53.211	9.746	NA
0.849304532809687	B5-03822-P01-CH0	3397792	OK	0.2057098	0.0531093	0.0779979	-0.974053	101.227	-47.6	-295.073	B5-03822-P02-CH0	3397792	OK	0.6977131	0.2235809	-0.6805939	0	-75.851	-94.864	0.839	B5-03822-P02-CH1	3397792	OK	0.8045011	-0.2714382	-0.5282985	0	-81.989	-76.256	4.888	B5-03822-P03-CH0	3397792	OK	0.8136369	-0.3095776	-0.4920942	0	-94.533	-58.284	9.881	B5-03822-P03-CH1	3397792	OK	0.8076614	-0.5891287	0.0247057	0	-99.009	-32.915	5.721	B5-03822-P04-CH0	3397792	OK	0.7814637	-0.3398781	0.5232564	0	-123.167	-40.285	14.383	B5-03822-P04-CH1	3397792	OK	0.8223248	-0.5687675	0.0168916	0	-108.594	-53.173	9.641	NA
0.859296350842743	B5-03822-P01-CH0	3397800	OK	0.2058526	0.0528749	0.078066	-0.9740301	101.107	-47.569	-295.231	B5-03822-P02-CH0	3397800	OK	0.6972347	0.2261339	-0.6802406	0	-75.367	-95.001	-0.407	B5-03822-P02-CH1	3397800	OK	0.8049886	-0.2711477	-0.5277047	0	-80.7	-77.052	5.589	B5-03822-P03-CH0	3397800	OK	0.8133035	-0.3107802	-0.4918872	0	-95.479	-58.48	10.755	B5-03822-P03-CH1	3397800	OK	0.8075475	-0.5892706	0.0250445	0	-98.919	-33.193	6.009	B5-03822-P04-CH0	3397800	OK	0.7814498	-0.3390487	0.5238151	0	-122.962	-40.685	15.187	B5-03822-P04-CH1	3397800	OK	0.8223117	-0.5687851	0.0169378	0	-108.647	-53.126	9.641	NA
0.869288168875798	B5-03822-P01-CH0	3397808	OK	0.2058584	0.0524071	0.078508	-0.9740186	100.931	-47.565	-295.278	B5-03822-P02-CH0	3397808	OK	0.6960481	0.2275118	-0.6809959	0	-75.511	-96.201	-0.278	B5-03822-P02-CH1	3397808	OK	0.805186	-0.2666573	-0.5296879	0	-80.148	-76.694	4.917	B5-03822-P03-CH0	3397808	OK	0.8136474	-0.3118802	-0.4906207	0	-96.306	-58.101	10.296	B5-03822-P03-CH1	3397808	OK	0.8078159	-0.5888948	0.0252288	0	-98.652	-33.228	6.145	B5-03822-P04-CH0	3397808	OK	0.7816117	-0.3384224	0.5239785	0	-122.824	-40.892	15.634	B5-03822-P04-CH1	3397808	OK	0.8225717	-0.568403	0.0171404	0	-108.484	-52.982	9.426	NA
0.879279986908853	B5-03822-P01-CH0	3397816	OK	0.2058361	0.0518226	0.0793278	-0.9739882	100.742	-47.571	-295.424	B5-03822-P02-CH0	3397816	OK	0.6970946	0.2342011	-0.6776496	0	-73.853	-94.269	-3.574	B5-03822-P02-CH1	3397816	OK	0.8048172	-0.2623067	-0.5324138	0	-80.543	-76.23	5.113	B5-03822-P03-CH0	3397816	OK	0.8153953	-0.3108719	-0.4883535	0	-95.228	-58.238	10.277	B5-03822-P03-CH1	3397816	OK	0.8084586	-0.5880241	0.0249472	0	-98.448	-33.043	6.299	B5-03822-P04-CH0	3397816	OK	0.7816863	-0.3383487	0.5239147	0	-122.553	-40.81	15.523	B5-03822-P04-CH1	3397816	OK	0.8230371	-0.5677345	0.0169533	0	-108.457	-52.919	9.463	NA
0.889271804941908	B5-03822-P01-CH0	3397824	OK	0.2057583	0.0518748	0.0796141	-0.9739785	100.805	-47.499	-295.447	B5-03822-P02-CH0	3397824	OK	0.695986	0.2363547	-0.6780413	0	-74.53	-95.08	-3.467	B5-03822-P02-CH1	3397824	OK	0.8023441	-0.2612529	-0.5366477	0	-81.841	-76.424	5.817	B5-03822-P03-CH0	3397824	OK	0.8159726	-0.3102212	-0.4878027	0	-95.148	-57.975	11.202	B5-03822-P03-CH1	3397824	OK	0.8085373	-0.5879229	0.0247813	0	-98.459	-33.229	6.842	B5-03822-P04-CH0	3397824	OK	0.7819998	-0.3380324	0.523651	0	-122.779	-40.915	15.706	B5-03822-P04-CH1	3397824	OK	0.8231584	-0.5675634	0.0167967	0	-108.541	-52.735	9.183	NA
0.899263622974963	B5-03822-P01-CH0	3397832	OK	0.2061083	0.0520106	0.0796711	-0.9738926	100.903	-47.481	-295.425	B5-03822-P02-CH0	3397832	OK	0.6940724	0.2378842	-0.6794664	0	-75.299	-96.242	-0.872	B5-03822-P02-CH1	3397832	OK	0.8034487	-0.2599523	-0.5356258	0	-81.194	-77.111	6.769	B5-03822-P03-CH0	3397832	OK	0.8132503	-0.3097181	-0.4926446	0	-95.409	-58.219	9.686	B5-03822-P03-CH1	3397832	OK	0.8086222	-0.5877919	0.0251162	0	-98.573	-33.292	6.874	B5-03822-P04-CH0	3397832	OK	0.7820693	-0.3385569	0.5232082	0	-122.791	-40.361	14.958	B5-03822-P04-CH1	3397832	OK	0.8232169	-0.5674665	0.0171964	0	-108.559	-52.686	8.974	NA
0.909255441008018	B5-03822-P01-CH0	3397840	OK	0.205981	0.0520336	0.0790039	-0.9739726	100.932	-47.657	-295.555	B5-03822-P02-CH0	3397840	OK	0.6943683	0.2436797	-0.6771063	0	-74.589	-94.99	-2.492	B5-03822-P02-CH1	3397840	OK	0.8039689	-0.2590674	-0.5352738	0	-80.818	-76.851	4.694	B5-03822-P03-CH0	3397840	OK	0.8136837	-0.3111792	-0.4910055	0	-95.171	-58.606	10.039	B5-03822-P03-CH1	3397840	OK	0.808207	-0.5883643	0.025079	0	-98.384	-33.305	6.665	B5-03822-P04-CH0	3397840	OK	0.7817329	-0.3396214	0.5230211	0	-122.617	-40.153	14.794	B5-03822-P04-CH1	3397840	OK	0.8227321	-0.56817	0.0171691	0	-108.526	-52.883	9.126	NA
0.919247259041074	B5-03822-P01-CH0	3397848	OK	0.2056603	0.0518359	0.0787573	-0.9740709	100.755	-47.628	-295.452	B5-03822-P02-CH0	3397848	OK	0.6922956	0.2476184	-0.6777993	0	-75.413	-95.698	-0.564	B5-03822-P02-CH1	3397848	OK	0.8044236	-0.2565222	-0.5358163	0	-80.29	-76.434	5.005	B5-03822-P03-CH0	3397848	OK	0.8139337	-0.3115687	-0.4903436	0	-95.115	-58.309	10.066	B5-03822-P03-CH1	3397848	OK	0.8081071	-0.5885171	0.0247095	0	-98.181	-32.926	6.214	B5-03822-P04-CH0	3397848	OK	0.7814354	-0.3407704	0.5227181	0	-122.481	-39.706	14.107	B5-03822-P04-CH1	3397848	OK	0.8224323	-0.5686093	0.016988	0	-108.545	-52.841	9.04	NA
0.929239077074129	B5-03822-P01-CH0	3397856	OK	0.2058594	0.0514318	0.0794034	-0.9739978	100.713	-47.634	-295.722	B5-03822-P02-CH0	3397856	OK	0.6916162	0.2541342	-0.6760791	0	-74.914	-95.252	-2.846	B5-03822-P02-CH1	3397856	OK	0.8039197	-0.2531733	-0.5381602	0	-80.264	-76.862	6.174	B5-03822-P03-CH0	3397856	OK	0.8142867	-0.3120036	-0.4894804	0	-95.037	-58.309	10.358	B5-03822-P03-CH1	3397856	OK	0.8086208	-0.5878073	0.0247972	0	-98.222	-32.9	6.386	B5-03822-P04-CH0	3397856	OK	0.7814948	-0.3411482	0.5223827	0	-122.44	-39.309	13.266	B5-03822-P04-CH1	3397856	OK	0.8228004	-0.5680682	0.0172656	0	-108.387	-52.994	9.364	NA
0.939230895107184	B5-03822-P01-CH0	3397864	OK	0.2059505	0.0512121	0.0800147	-0.9739401	100.68	-47.636	-295.736	B5-03822-P02-CH0	3397864	OK	0.6893177	0.2598875	-0.6762393	0	-75.298	-95.855	-0.752	B5-03822-P02-CH1	3397864	OK	0.8024628	-0.2511873	-0.5412564	0	-80.941	-76.517	4.226	B5-03822-P03-CH0	3397864	OK	0.8112649	-0.3178124	-0.4907592	0	-95.085	-58.191	9.257	B5-03822-P03-CH1	3397864	OK	0.8092213	-0.5869854	0.02468	0	-98.273	-32.685	6.303	B5-03822-P04-CH0	3397864	OK	0.781696	-0.3409195	0.522231	0	-122.44	-39.357	13.176	B5-03822-P04-CH1	3397864	OK	0.8232781	-0.5673823	0.0170465	0	-108.51	-52.885	9.304	NA
0.949222713140239	B5-03822-P01-CH0	3397872	OK	0.2057481	0.0510486	0.0795939	-0.974026	100.616	-47.765	-295.77	B5-03822-P02-CH0	3397872	OK	0.6906068	0.2647236	-0.6730406	0	-74.458	-95.603	-2.336	B5-03822-P02-CH1	3397872	OK	0.8043977	-0.2573928	-0.5354374	0	-80.34	-76.704	5.655	B5-03822-P03-CH0	3397872	OK	0.8102567	-0.3199984	-0.4910041	0	-95.033	-58.672	9.519	B5-03822-P03-CH1	3397872	OK	0.8090759	-0.5871955	0.0244455	0	-98.168	-32.652	6.186	B5-03822-P04-CH0	3397872	OK	0.781378	-0.3419893	0.5220074	0	-122.366	-39.087	12.734	B5-03822-P04-CH1	3397872	OK	0.8230628	-0.5677009	0.0168301	0	-108.491	-52.848	9.237	NA
0.959214531173294	B5-03822-P01-CH0	3397880	OK	0.2055791	0.0509832	0.0795256	-0.9740706	100.6	-47.813	-295.703	B5-03822-P02-CH0	3397880	OK	0.6872174	0.2665684	-0.6757763	0	-76.019	-95.682	0.785	B5-03822-P02-CH1	3397880	OK	0.8039272	-0.2554053	-0.5370934	0	-80.504	-76.773	5.438	B5-03822-P03-CH0	3397880	OK	0.809265	-0.3184844	-0.4936172	0	-95.709	-57.994	9.775	B5-03822-P03-CH1	3397880	OK	0.8092138	-0.5870273	0.0239163	0	-98.139	-32.543	6.35	B5-03822-P04-CH0	3397880	OK	0.7812924	-0.3427044	0.5216665	0	-122.398	-38.976	12.523	B5-03822-P04-CH1	3397880	OK	0.8232104	-0.567492	0.0166612	0	-108.419	-52.69	9.209	NA
0.969206349206349	B5-03822-P01-CH0	3397888	OK	0.2056952	0.0511971	0.0793507	-0.9740492	100.694	-47.832	-295.851	B5-03822-P02-CH0	3397888	OK	0.6867794	0.2696517	-0.6749978	0	-76.334	-95.792	0.512	B5-03822-P02-CH1	3397888	OK	0.8031776	-0.2536922	-0.5390232	0	-80.871	-76.812	5.518	B5-03822-P03-CH0	3397888	OK	0.8094913	-0.316689	-0.4944006	0	-95.679	-57.675	10.067	B5-03822-P03-CH1	3397888	OK	0.8091415	-0.5871272	0.023909	0	-98.26	-32.627	6.619	B5-03822-P04-CH0	3397888	OK	0.781194	-0.343335	0.5213991	0	-122.394	-38.907	12.633	B5-03822-P04-CH1	3397888	OK	0.8232359	-0.5674505	0.0168135	0	-108.385	-52.69	9.39	NA
