Wav.Time	B5.03822.P01.CH0	Frame	State	Q0	Qx	Qy	Qz	Tx	Ty	Tz	B5.03822.P02.CH0	Frame.1	State.1	Q0.1	Qx.1	Qy.1	Qz.1	Tx.1	Ty.1	Tz.1	B5.03822.P02.CH1	Frame.2	State.2	Q0.2	Qx.2	Qy.2	Qz.2	Tx.2	Ty.2	Tz.2	B5.03822.P03.CH0	Frame.3	State.3	Q0.3	Qx.3	Qy.3	Qz.3	Tx.3	Ty.3	Tz.3	B5.03822.P03.CH1	Frame.4	State.4	Q0.4	Qx.4	Qy.4	Qz.4	Tx.4	Ty.4	Tz.4	B5.03822.P04.CH0	Frame.5	State.5	Q0.5	Qx.5	Qy.5	Qz.5	Tx.5	Ty.5	Tz.5	B5.03822.P04.CH1	Frame.6	State.6	Q0.6	Qx.6	Qy.6	Qz.6	Tx.6	Ty.6	Tz.6	X
0	B5-03822-P01-CH0	1349616	OK	0.2092762	0.0926591	0.0869866	-0.9695623	156.427	-24.429	-265.011	B5-03822-P02-CH0	1349616	OK	0.8009832	0.2963895	-0.5201722	0	-90.176	-97.329	4.067	B5-03822-P02-CH1	1349616	OK	0.8204453	-0.2010639	-0.5352035	0	-88.364	-76.201	0.657	B5-03822-P03-CH0	1349616	OK	0.8684906	-0.3371373	-0.3634041	0	-98.832	-59.994	7.574	B5-03822-P03-CH1	1349616	OK	0.7017536	-0.7108883	0.0466866	0	-99.218	-9.309	-3.022	B5-03822-P04-CH0	1349616	OK	0.7333983	-0.4331298	0.5239518	0	-126.713	-36.331	8.608	B5-03822-P04-CH1	1349616	OK	0.8032395	-0.5939163	0.0454945	0	-110.464	-41.586	-1.309	NA
0.00999190152251377	B5-03822-P01-CH0	1349624	OK	0.2090494	0.0926348	0.0864181	-0.9696644	156.444	-24.449	-265.133	B5-03822-P02-CH0	1349624	OK	0.7999077	0.2917147	-0.5244522	0	-90.326	-97.479	3.576	B5-03822-P02-CH1	1349624	OK	0.8202343	-0.2037362	-0.5345159	0	-88.947	-76.27	0.986	B5-03822-P03-CH0	1349624	OK	0.8711091	-0.334259	-0.3597776	0	-99.975	-60.003	7.845	B5-03822-P03-CH1	1349624	OK	0.70139	-0.711236	0.0468557	0	-99.107	-9.228	-2.934	B5-03822-P04-CH0	1349624	OK	0.7329448	-0.4319798	0.5255335	0	-126.92	-36.761	8.962	B5-03822-P04-CH1	1349624	OK	0.8030779	-0.5940949	0.0460136	0	-110.6	-41.557	-1.146	NA
0.0199838030450275	B5-03822-P01-CH0	1349632	OK	0.2091536	0.0927929	0.0867195	-0.9695999	156.496	-24.387	-265.08	B5-03822-P02-CH0	1349632	OK	0.7990497	0.2865788	-0.5285756	0	-90.207	-97.915	3.254	B5-03822-P02-CH1	1349632	OK	0.8207871	-0.2073079	-0.5322893	0	-88.874	-76.653	0.873	B5-03822-P03-CH0	1349632	OK	0.8752451	-0.3338604	-0.3499761	0	-99.56	-60.45	8.413	B5-03822-P03-CH1	1349632	OK	0.7015903	-0.71101	0.0472846	0	-99.094	-9.172	-3.055	B5-03822-P04-CH0	1349632	OK	0.7331864	-0.4300774	0.5267553	0	-127.325	-37.044	8.772	B5-03822-P04-CH1	1349632	OK	0.8031516	-0.5939052	0.0471599	0	-110.675	-41.702	-1.329	NA
0.0299757045675413	B5-03822-P01-CH0	1349640	OK	0.209299	0.0925898	0.0875049	-0.9695174	156.479	-24.387	-265.131	B5-03822-P02-CH0	1349640	OK	0.7983108	0.282617	-0.5318154	0	-89.653	-97.819	2.094	B5-03822-P02-CH1	1349640	OK	0.8214241	-0.2109287	-0.5298788	0	-88.748	-77.448	0.697	B5-03822-P03-CH0	1349640	OK	0.8788656	-0.3346639	-0.3399931	0	-99.388	-61.732	9.461	B5-03822-P03-CH1	1349640	OK	0.7022914	-0.7103083	0.0474225	0	-98.976	-9.033	-3.212	B5-03822-P04-CH0	1349640	OK	0.7333827	-0.4278865	0.5282641	0	-127.603	-37.59	8.867	B5-03822-P04-CH1	1349640	OK	0.8037841	-0.5929746	0.0480845	0	-110.8	-41.755	-1.374	NA
0.0399676060900551	B5-03822-P01-CH0	1349648	OK	0.209647	0.0924237	0.0882091	-0.9693942	156.434	-24.253	-265.135	B5-03822-P02-CH0	1349648	OK	0.7970593	0.278782	-0.5357024	0	-89.619	-97.521	2.167	B5-03822-P02-CH1	1349648	OK	0.8210587	-0.2125042	-0.5298156	0	-89.201	-77.422	-0.4	B5-03822-P03-CH0	1349648	OK	0.8800251	-0.3311449	-0.3404392	0	-101.518	-60.82	8.461	B5-03822-P03-CH1	1349648	OK	0.7025239	-0.7099736	0.0489656	0	-99.061	-9.222	-2.944	B5-03822-P04-CH0	1349648	OK	0.7335943	-0.4263139	0.5292407	0	-127.638	-37.518	8.659	B5-03822-P04-CH1	1349648	OK	0.8042191	-0.5922344	0.0499006	0	-110.768	-41.885	-1.376	NA
0.0499595076125688	B5-03822-P01-CH0	1349656	OK	0.2091666	0.0928365	0.0871861	-0.9695511	156.533	-24.347	-265.11	B5-03822-P02-CH0	1349656	OK	0.7967681	0.2737436	-0.5387254	0	-89.96	-97.945	2.976	B5-03822-P02-CH1	1349656	OK	0.821651	-0.2124158	-0.5289321	0	-89.152	-77.102	1.126	B5-03822-P03-CH0	1349656	OK	0.8820689	-0.3321175	-0.3341443	0	-100.648	-61.549	9.75	B5-03822-P03-CH1	1349656	OK	0.7012339	-0.7112208	0.049355	0	-99.025	-9.593	-2.772	B5-03822-P04-CH0	1349656	OK	0.7330464	-0.4260874	0.5301817	0	-127.734	-37.446	8.584	B5-03822-P04-CH1	1349656	OK	0.8036494	-0.592932	0.0507858	0	-111.025	-41.982	-1.501	NA
0.0599514091350826	B5-03822-P01-CH0	1349664	OK	0.2094263	0.0929534	0.0875768	-0.9694486	156.618	-24.309	-265.129	B5-03822-P02-CH0	1349664	OK	0.7969669	0.2706999	-0.539968	0	-89.653	-97.389	2.325	B5-03822-P02-CH1	1349664	OK	0.820873	-0.2110892	-0.5306683	0	-90.283	-77.396	1.352	B5-03822-P03-CH0	1349664	OK	0.8821667	-0.3317341	-0.3342669	0	-100.854	-61.161	9.316	B5-03822-P03-CH1	1349664	OK	0.7016033	-0.7107794	0.0504518	0	-99.079	-9.675	-2.459	B5-03822-P04-CH0	1349664	OK	0.7333259	-0.4239129	0.5315365	0	-128.004	-37.808	8.832	B5-03822-P04-CH1	1349664	OK	0.8039704	-0.5923686	0.0522598	0	-111.304	-42.166	-1.409	NA
0.0699433106575964	B5-03822-P01-CH0	1349672	OK	0.2091938	0.0930229	0.0874389	-0.9695046	156.607	-24.325	-265.072	B5-03822-P02-CH0	1349672	OK	0.7971127	0.2648937	-0.5426257	0	-90.91	-98.285	4.344	B5-03822-P02-CH1	1349672	OK	0.8205526	-0.2061232	-0.5331103	0	-89.247	-76.57	-0.082	B5-03822-P03-CH0	1349672	OK	0.8781459	-0.3335795	-0.342906	0	-101.519	-61.524	9.001	B5-03822-P03-CH1	1349672	OK	0.7017024	-0.7107025	0.0501569	0	-98.882	-9.461	-2.555	B5-03822-P04-CH0	1349672	OK	0.7334124	-0.4224219	0.532603	0	-128.226	-38.107	9.257	B5-03822-P04-CH1	1349672	OK	0.8040099	-0.5922403	0.0530987	0	-111.603	-42.196	-1.451	NA
0.0799352121801101	B5-03822-P01-CH0	1349680	OK	0.2084339	0.0931601	0.085985	-0.9697851	156.521	-24.468	-264.944	B5-03822-P02-CH0	1349680	OK	0.8005578	0.260494	-0.539676	0	-91.614	-97.679	5.787	B5-03822-P02-CH1	1349680	OK	0.8205924	-0.2060991	-0.5330584	0	-89.358	-76.704	0.444	B5-03822-P03-CH0	1349680	OK	0.8728484	-0.3339497	-0.3558277	0	-100.115	-61.665	9.166	B5-03822-P03-CH1	1349680	OK	0.7007022	-0.7116847	0.0502122	0	-98.912	-9.387	-2.783	B5-03822-P04-CH0	1349680	OK	0.7328088	-0.4228419	0.5331004	0	-128.169	-38.186	9.382	B5-03822-P04-CH1	1349680	OK	0.803018	-0.5935194	0.0538226	0	-111.758	-42.345	-1.553	NA
0.0899271137026239	B5-03822-P01-CH0	1349688	OK	0.2084295	0.0935886	0.0860224	-0.9697415	156.671	-24.404	-264.877	B5-03822-P02-CH0	1349688	OK	0.8061496	0.2565928	-0.5331819	0	-92.053	-96.71	5.329	B5-03822-P02-CH1	1349688	OK	0.8179528	-0.1919815	-0.5423065	0	-91.123	-76.965	1.444	B5-03822-P03-CH0	1349688	OK	0.8614785	-0.3252207	-0.3899824	0	-101.616	-59.746	7.281	B5-03822-P03-CH1	1349688	OK	0.7006481	-0.711689	0.0509017	0	-98.976	-9.521	-2.683	B5-03822-P04-CH0	1349688	OK	0.733364	-0.42255	0.5325681	0	-128.225	-38.232	9.532	B5-03822-P04-CH1	1349688	OK	0.8030388	-0.5934091	0.0547198	0	-111.973	-42.538	-1.238	NA
0.0999190152251377	B5-03822-P01-CH0	1349696	OK	0.2085953	0.0934346	0.0864973	-0.9696784	156.615	-24.413	-264.838	B5-03822-P02-CH0	1349696	OK	0.8120235	0.2477738	-0.5284184	0	-93.313	-97.718	7.058	B5-03822-P02-CH1	1349696	OK	0.8172179	-0.181822	-0.5468964	0	-91.782	-76.587	0.792	B5-03822-P03-CH0	1349696	OK	0.8464392	-0.3122241	-0.4313431	0	-102.246	-58.94	6.179	B5-03822-P03-CH1	1349696	OK	0.7012076	-0.7110681	0.0518648	0	-98.95	-9.556	-2.669	B5-03822-P04-CH0	1349696	OK	0.739835	-0.4264262	0.5203892	0	-127.616	-37.212	8.772	B5-03822-P04-CH1	1349696	OK	0.8032855	-0.59299	0.0556353	0	-112.089	-42.765	-1.183	NA
0.109910916747651	B5-03822-P01-CH0	1349704	OK	0.208251	0.0937771	0.0860851	-0.969756	156.614	-24.397	-264.644	B5-03822-P02-CH0	1349704	OK	0.8177015	0.2466914	-0.5201035	0	-94.357	-96.332	6.635	B5-03822-P02-CH1	1349704	OK	0.8176034	-0.1710446	-0.5497894	0	-91.996	-75.547	0.703	B5-03822-P03-CH0	1349704	OK	0.8325603	-0.2902201	-0.4718216	0	-99.984	-58.653	6.181	B5-03822-P03-CH1	1349704	OK	0.7011296	-0.7111265	0.0521182	0	-98.987	-9.476	-2.642	B5-03822-P04-CH0	1349704	OK	0.7424189	-0.4317514	0.5122547	0	-126.615	-36.066	8.278	B5-03822-P04-CH1	1349704	OK	0.8028808	-0.5935332	0.0556843	0	-112.223	-42.828	-1.23	NA
0.119902818270165	B5-03822-P01-CH0	1349712	OK	0.2080395	0.0938006	0.0855139	-0.9698497	156.605	-24.516	-264.638	B5-03822-P02-CH0	1349712	OK	0.8228097	0.245293	-0.5126554	0	-95.074	-96.673	7.682	B5-03822-P02-CH1	1349712	OK	0.815888	-0.1636529	-0.5545669	0	-92.437	-75.166	0.629	B5-03822-P03-CH0	1349712	OK	0.8125438	-0.2515854	-0.5258112	0	-100.082	-55.812	1.943	B5-03822-P03-CH1	1349712	OK	0.7005408	-0.711611	0.0534077	0	-99.008	-9.874	-2.494	B5-03822-P04-CH0	1349712	OK	0.7443972	-0.4374725	0.5044706	0	-125.84	-35.189	7.166	B5-03822-P04-CH1	1349712	OK	0.8025124	-0.5940287	0.0557114	0	-112.38	-43.09	-0.82	NA
0.129894719792679	B5-03822-P01-CH0	1349720	OK	0.20777	0.0938312	0.0852767	-0.9699254	156.551	-24.507	-264.579	B5-03822-P02-CH0	1349720	OK	0.8248862	0.2493463	-0.5073353	0	-95.64	-95.383	9.041	B5-03822-P02-CH1	1349720	OK	0.815183	-0.1549812	-0.5580838	0	-91.552	-74.304	1.124	B5-03822-P03-CH0	1349720	OK	0.7965171	-0.2121616	-0.5661696	0	-97.892	-54.507	0.832	B5-03822-P03-CH1	1349720	OK	0.7006684	-0.7114592	0.053755	0	-98.94	-9.755	-2.552	B5-03822-P04-CH0	1349720	OK	0.7464908	-0.4382903	0.5006527	0	-126.075	-36.811	8.169	B5-03822-P04-CH1	1349720	OK	0.8020996	-0.5945985	0.0555769	0	-112.367	-43.225	-0.716	NA
0.139886621315193	B5-03822-P01-CH0	1349728	OK	0.2076625	0.0939717	0.0853142	-0.9699315	156.588	-24.495	-264.537	B5-03822-P02-CH0	1349728	OK	0.8263328	0.2532755	-0.5030165	0	-96.164	-94.646	8.103	B5-03822-P02-CH1	1349728	OK	0.813109	-0.1488916	-0.5627477	0	-91.619	-73.659	1.598	B5-03822-P03-CH0	1349728	OK	0.7910408	-0.2087223	-0.575056	0	-98.169	-55.763	3.6	B5-03822-P03-CH1	1349728	OK	0.7008551	-0.7112344	0.0542923	0	-98.878	-9.765	-2.712	B5-03822-P04-CH0	1349728	OK	0.7487418	-0.4432997	0.4928195	0	-124.882	-34.33	6.107	B5-03822-P04-CH1	1349728	OK	0.802065	-0.5947165	0.0548092	0	-112.446	-43.086	-0.907	NA
0.149878522837707	B5-03822-P01-CH0	1349736	OK	0.207723	0.093818	0.0855775	-0.9699102	156.52	-24.506	-264.493	B5-03822-P02-CH0	1349736	OK	0.8288369	0.2572046	-0.4968654	0	-95.849	-94.565	8.181	B5-03822-P02-CH1	1349736	OK	0.8108914	-0.1483668	-0.5660763	0	-91.806	-73.059	0.806	B5-03822-P03-CH0	1349736	OK	0.795883	-0.215571	-0.5657733	0	-98.066	-54.516	1.525	B5-03822-P03-CH1	1349736	OK	0.7017151	-0.7103192	0.0551593	0	-98.925	-9.552	-2.943	B5-03822-P04-CH0	1349736	OK	0.7502723	-0.4397413	0.493679	0	-125.903	-36.245	6.235	B5-03822-P04-CH1	1349736	OK	0.8022223	-0.5945708	0.0540821	0	-112.326	-42.98	-0.854	NA
0.15987042436022	B5-03822-P01-CH0	1349744	OK	0.2077457	0.0935523	0.0858424	-0.9699076	156.409	-24.401	-264.53	B5-03822-P02-CH0	1349744	OK	0.829614	0.2593589	-0.4944428	0	-96.327	-94.941	10.005	B5-03822-P02-CH1	1349744	OK	0.8112185	-0.1521808	-0.5645932	0	-90.622	-72.827	0.707	B5-03822-P03-CH0	1349744	OK	0.7975309	-0.2209782	-0.5613494	0	-98.644	-54.103	0.197	B5-03822-P03-CH1	1349744	OK	0.703004	-0.7090719	0.0547953	0	-98.649	-8.804	-3.261	B5-03822-P04-CH0	1349744	OK	0.7504689	-0.4417485	0.4915838	0	-124.266	-33.933	4.841	B5-03822-P04-CH1	1349744	OK	0.8023109	-0.5945177	0.0533479	0	-112.207	-42.832	-0.717	NA
0.169862325882734	B5-03822-P01-CH0	1349752	OK	0.2077749	0.0934497	0.086228	-0.9698771	156.427	-24.393	-264.664	B5-03822-P02-CH0	1349752	OK	0.8313232	0.2662586	-0.4878607	0	-95.721	-94.707	9.987	B5-03822-P02-CH1	1349752	OK	0.8093845	-0.1567028	-0.5659867	0	-91.065	-72.51	0.163	B5-03822-P03-CH0	1349752	OK	0.8017284	-0.2235169	-0.554321	0	-97.47	-52.814	1.683	B5-03822-P03-CH1	1349752	OK	0.7033673	-0.7085758	0.0565226	0	-98.838	-9.1	-2.816	B5-03822-P04-CH0	1349752	OK	0.7510361	-0.4395461	0.4926906	0	-124.017	-33.444	5.833	B5-03822-P04-CH1	1349752	OK	0.8024744	-0.594367	0.0525608	0	-112.054	-42.835	-0.421	NA
0.179854227405248	B5-03822-P01-CH0	1349760	OK	0.2083229	0.0935329	0.0870334	-0.9696795	156.547	-24.348	-264.828	B5-03822-P02-CH0	1349760	OK	0.8313344	0.2716065	-0.4848846	0	-95.961	-94.998	10.79	B5-03822-P02-CH1	1349760	OK	0.809669	-0.1658386	-0.5629687	0	-90.224	-72.318	0.321	B5-03822-P03-CH0	1349760	OK	0.8039835	-0.2330038	-0.5471013	0	-97.19	-53.359	3.433	B5-03822-P03-CH1	1349760	OK	0.7050881	-0.7068284	0.0569601	0	-98.717	-8.627	-2.93	B5-03822-P04-CH0	1349760	OK	0.7512035	-0.434643	0.4967683	0	-124.627	-34.033	6.743	B5-03822-P04-CH1	1349760	OK	0.8028792	-0.5938397	0.0523394	0	-111.954	-42.947	-0.208	NA
0.189846128927762	B5-03822-P01-CH0	1349768	OK	0.2081305	0.0933654	0.0868592	-0.9697526	156.461	-24.351	-264.885	B5-03822-P02-CH0	1349768	OK	0.8310464	0.2771011	-0.4822623	0	-96.196	-94.872	10.927	B5-03822-P02-CH1	1349768	OK	0.8093269	-0.1751379	-0.5606395	0	-89.639	-71.98	0.356	B5-03822-P03-CH0	1349768	OK	0.803822	-0.2480012	-0.5407083	0	-98.536	-53.663	3.333	B5-03822-P03-CH1	1349768	OK	0.7055164	-0.7063672	0.057376	0	-98.631	-8.323	-3.017	B5-03822-P04-CH0	1349768	OK	0.7497101	-0.4302417	0.502819	0	-125.659	-35.418	6.694	B5-03822-P04-CH1	1349768	OK	0.8026448	-0.594226	0.0515433	0	-111.87	-42.899	-0.138	NA
0.199838030450275	B5-03822-P01-CH0	1349776	OK	0.2077674	0.093695	0.0865442	-0.9698268	156.49	-24.292	-264.857	B5-03822-P02-CH0	1349776	OK	0.8307792	0.2826739	-0.4794803	0	-96.172	-94.942	11.719	B5-03822-P02-CH1	1349776	OK	0.8081259	-0.1852579	-0.5591172	0	-88.897	-72.611	0.421	B5-03822-P03-CH0	1349776	OK	0.8067844	-0.2690522	-0.5260322	0	-99.134	-52.402	1.579	B5-03822-P03-CH1	1349776	OK	0.705229	-0.7066006	0.0580314	0	-98.702	-8.33	-2.963	B5-03822-P04-CH0	1349776	OK	0.7477018	-0.42747	0.5081451	0	-126.412	-36.388	5.877	B5-03822-P04-CH1	1349776	OK	0.8022292	-0.594857	0.0507287	0	-111.815	-42.815	-0.127	NA
0.209829931972789	B5-03822-P01-CH0	1349784	OK	0.2081233	0.0934328	0.0869535	-0.9697392	156.379	-24.244	-264.924	B5-03822-P02-CH0	1349784	OK	0.8283634	0.2869754	-0.4811021	0	-96.99	-95.478	13.754	B5-03822-P02-CH1	1349784	OK	0.8055727	-0.1952585	-0.5593985	0	-88.807	-72.683	-0.854	B5-03822-P03-CH0	1349784	OK	0.819072	-0.2991258	-0.4895353	0	-96.688	-53.239	2.61	B5-03822-P03-CH1	1349784	OK	0.7057407	-0.7060165	0.058914	0	-98.52	-8.246	-3.105	B5-03822-P04-CH0	1349784	OK	0.7466897	-0.4260904	0.5107852	0	-125.234	-35.657	8.208	B5-03822-P04-CH1	1349784	OK	0.8025101	-0.5944619	0.0509172	0	-111.733	-42.827	0.035	NA
0.219821833495303	B5-03822-P01-CH0	1349792	OK	0.2082397	0.0934741	0.0871633	-0.9696914	156.337	-24.166	-264.866	B5-03822-P02-CH0	1349792	OK	0.8270509	0.2959848	-0.4778909	0	-96.918	-94.95	12.255	B5-03822-P02-CH1	1349792	OK	0.8050116	-0.2035332	-0.5572527	0	-88.09	-72.707	0.3	B5-03822-P03-CH0	1349792	OK	0.8317226	-0.3282329	-0.4477731	0	-97.613	-54.72	5.212	B5-03822-P03-CH1	1349792	OK	0.7061743	-0.7055357	0.0594755	0	-98.428	-8.075	-3.104	B5-03822-P04-CH0	1349792	OK	0.7470018	-0.4221745	0.5135728	0	-126.71	-35.68	7.256	B5-03822-P04-CH1	1349792	OK	0.8028208	-0.5940747	0.0505381	0	-111.84	-42.524	-0.165	NA
0.229813735017817	B5-03822-P01-CH0	1349800	OK	0.2083714	0.0935309	0.0875675	-0.9696212	156.362	-24.116	-264.831	B5-03822-P02-CH0	1349800	OK	0.8267319	0.2989522	-0.4765941	0	-96.795	-96.072	11.611	B5-03822-P02-CH1	1349800	OK	0.8056468	-0.2096253	-0.5540672	0	-87.761	-72.33	-0.519	B5-03822-P03-CH0	1349800	OK	0.8409296	-0.3534322	-0.4097843	0	-99.825	-54.881	4.575	B5-03822-P03-CH1	1349800	OK	0.7064726	-0.7051344	0.0606785	0	-98.522	-8.164	-3.033	B5-03822-P04-CH0	1349800	OK	0.7472382	-0.4159263	0.5183052	0	-128.086	-37.265	9.015	B5-03822-P04-CH1	1349800	OK	0.8031737	-0.5935816	0.0507242	0	-111.843	-42.383	-0.291	NA
0.23980563654033	B5-03822-P01-CH0	1349808	OK	0.2079529	0.0938704	0.0865784	-0.969767	156.444	-24.237	-264.833	B5-03822-P02-CH0	1349808	OK	0.8261971	0.3062291	-0.472887	0	-95.826	-95.407	11.698	B5-03822-P02-CH1	1349808	OK	0.8052628	-0.214461	-0.5527733	0	-88.151	-72.566	-0.33	B5-03822-P03-CH0	1349808	OK	0.8480723	-0.376452	-0.3729038	0	-98.535	-56.321	5.173	B5-03822-P03-CH1	1349808	OK	0.7059744	-0.7056309	0.0607058	0	-98.424	-8.111	-3.058	B5-03822-P04-CH0	1349808	OK	0.7449098	-0.4168428	0.5209142	0	-127.844	-37.546	8.063	B5-03822-P04-CH1	1349808	OK	0.8026351	-0.5942945	0.0509024	0	-112.054	-42.465	-0.15	NA
0.249797538062844	B5-03822-P01-CH0	1349816	OK	0.2081103	0.0939675	0.0866141	-0.9697207	156.429	-24.251	-264.745	B5-03822-P02-CH0	1349816	OK	0.824314	0.3088444	-0.4744698	0	-95.816	-95.962	12.324	B5-03822-P02-CH1	1349816	OK	0.8069048	-0.2184437	-0.5488051	0	-87.175	-72.468	-1.111	B5-03822-P03-CH0	1349816	OK	0.8541928	-0.3923198	-0.3412328	0	-97.874	-58.419	6.338	B5-03822-P03-CH1	1349816	OK	0.7059394	-0.7056034	0.0614276	0	-98.28	-8.177	-3.24	B5-03822-P04-CH0	1349816	OK	0.7444253	-0.4178886	0.5207687	0	-127.46	-35.826	6.113	B5-03822-P04-CH1	1349816	OK	0.8026632	-0.5941672	0.0519347	0	-112.077	-42.634	-0.155	NA
0.259789439585358	B5-03822-P01-CH0	1349824	OK	0.2082035	0.0939862	0.0868966	-0.9696736	156.418	-24.283	-264.769	B5-03822-P02-CH0	1349824	OK	0.8233785	0.3135985	-0.4729733	0	-94.604	-95.863	10.543	B5-03822-P02-CH1	1349824	OK	0.8050825	-0.2239388	-0.5492663	0	-87.679	-73.176	-0.857	B5-03822-P03-CH0	1349824	OK	0.860127	-0.396889	-0.3204071	0	-99.028	-58.488	6.384	B5-03822-P03-CH1	1349824	OK	0.7060843	-0.7053512	0.0626464	0	-98.403	-8.332	-3.326	B5-03822-P04-CH0	1349824	OK	0.7446619	-0.4141182	0.5234356	0	-128.187	-37.5	9.038	B5-03822-P04-CH1	1349824	OK	0.8028486	-0.5938186	0.0530436	0	-112.191	-42.73	-0.346	NA
0.269781341107872	B5-03822-P01-CH0	1349832	OK	0.2085163	0.0937651	0.0875073	-0.9695729	156.29	-24.191	-264.689	B5-03822-P02-CH0	1349832	OK	0.8208772	0.3188809	-0.4737885	0	-94.403	-95.644	9.822	B5-03822-P02-CH1	1349832	OK	0.8038841	-0.2285769	-0.5491111	0	-87.165	-73.467	-0.27	B5-03822-P03-CH0	1349832	OK	0.8658435	-0.3992033	-0.3015821	0	-98.651	-59.037	7.268	B5-03822-P03-CH1	1349832	OK	0.7064508	-0.7048656	0.0639674	0	-98.356	-8.367	-3.557	B5-03822-P04-CH0	1349832	OK	0.74537	-0.4101739	0.5255293	0	-129.377	-38.429	9.309	B5-03822-P04-CH1	1349832	OK	0.8032577	-0.5931337	0.0544931	0	-112.262	-42.746	-0.615	NA
0.279773242630385	B5-03822-P01-CH0	1349840	OK	0.2080211	0.0936983	0.0871309	-0.9697196	156.161	-24.162	-264.571	B5-03822-P02-CH0	1349840	OK	0.8196467	0.3221016	-0.4737403	0	-94.756	-96.144	9.238	B5-03822-P02-CH1	1349840	OK	0.8015277	-0.2312157	-0.551446	0	-86.614	-73.355	-1.318	B5-03822-P03-CH0	1349840	OK	0.8698631	-0.3988329	-0.2902939	0	-99.559	-59.263	7.802	B5-03822-P03-CH1	1349840	OK	0.7061518	-0.7051426	0.064215	0	-98.361	-8.255	-3.605	B5-03822-P04-CH0	1349840	OK	0.7443605	-0.412377	0.5252358	0	-129.093	-37.065	7.144	B5-03822-P04-CH1	1349840	OK	0.80307	-0.5933433	0.0549757	0	-112.466	-42.653	-0.719	NA
0.289765144152899	B5-03822-P01-CH0	1349848	OK	0.2079009	0.0942374	0.0869532	-0.9697091	156.314	-24.18	-264.462	B5-03822-P02-CH0	1349848	OK	0.8184315	0.3278989	-0.4718604	0	-94.295	-95.426	9.469	B5-03822-P02-CH1	1349848	OK	0.7996765	-0.2357689	-0.5522052	0	-86.431	-73.324	-1.731	B5-03822-P03-CH0	1349848	OK	0.8736279	-0.3983035	-0.2795151	0	-99.589	-60.969	9.301	B5-03822-P03-CH1	1349848	OK	0.7058225	-0.7054127	0.0648661	0	-98.496	-8.489	-3.481	B5-03822-P04-CH0	1349848	OK	0.743467	-0.4110722	0.5275192	0	-129.089	-38.659	9.778	B5-03822-P04-CH1	1349848	OK	0.8030791	-0.5932442	0.0559049	0	-112.932	-42.736	-0.716	NA
0.299757045675413	B5-03822-P01-CH0	1349856	OK	0.2080159	0.0942525	0.0867447	-0.9697016	156.26	-24.277	-264.315	B5-03822-P02-CH0	1349856	OK	0.8175818	0.3330882	-0.4696937	0	-93.618	-94.942	8.532	B5-03822-P02-CH1	1349856	OK	0.7978295	-0.2389335	-0.553515	0	-86.708	-73.724	-1.897	B5-03822-P03-CH0	1349856	OK	0.876246	-0.3945586	-0.2766161	0	-99.77	-61.083	8.921	B5-03822-P03-CH1	1349856	OK	0.7061549	-0.7050565	0.0651207	0	-98.381	-8.317	-3.618	B5-03822-P04-CH0	1349856	OK	0.7440001	-0.4119177	0.5261062	0	-129.582	-37.128	7.73	B5-03822-P04-CH1	1349856	OK	0.80319	-0.5929711	0.0571937	0	-113.098	-42.848	-0.622	NA
0.309748947197927	B5-03822-P01-CH0	1349864	OK	0.2079279	0.0945937	0.0866255	-0.9696979	156.378	-24.333	-264.189	B5-03822-P02-CH0	1349864	OK	0.8160203	0.330287	-0.4743641	0	-94.468	-96.295	11.047	B5-03822-P02-CH1	1349864	OK	0.797109	-0.2413944	-0.5534854	0	-87.005	-73.323	-2.235	B5-03822-P03-CH0	1349864	OK	0.8771598	-0.3897934	-0.2804494	0	-100.736	-60.994	9.575	B5-03822-P03-CH1	1349864	OK	0.7055262	-0.7055348	0.0667337	0	-98.67	-8.882	-3.414	B5-03822-P04-CH0	1349864	OK	0.7430808	-0.412343	0.5270713	0	-129.545	-37.655	8.369	B5-03822-P04-CH1	1349864	OK	0.8031079	-0.5929768	0.0582766	0	-113.405	-43.021	-0.803	NA
0.319740848720441	B5-03822-P01-CH0	1349872	OK	0.2078193	0.0945906	0.0862078	-0.9697587	156.33	-24.422	-264.127	B5-03822-P02-CH0	1349872	OK	0.8151816	0.3313659	-0.4750532	0	-94.044	-96.567	10.437	B5-03822-P02-CH1	1349872	OK	0.7973924	-0.2432958	-0.5522431	0	-86.535	-73.491	-2.078	B5-03822-P03-CH0	1349872	OK	0.8777235	-0.3868289	-0.2827806	0	-100.113	-61.037	9.191	B5-03822-P03-CH1	1349872	OK	0.7055557	-0.7054984	0.0668073	0	-98.544	-8.731	-3.597	B5-03822-P04-CH0	1349872	OK	0.7439944	-0.4135709	0.5248156	0	-129.142	-37.476	7.259	B5-03822-P04-CH1	1349872	OK	0.802765	-0.5933008	0.0596869	0	-113.503	-43.36	-0.624	NA
0.329732750242954	B5-03822-P01-CH0	1349880	OK	0.2075922	0.0946848	0.0855338	-0.9698578	156.329	-24.509	-264.165	B5-03822-P02-CH0	1349880	OK	0.8132557	0.3299445	-0.4793243	0	-94.494	-97.062	10.548	B5-03822-P02-CH1	1349880	OK	0.7964425	-0.2489641	-0.5510863	0	-86.818	-74.342	-2.133	B5-03822-P03-CH0	1349880	OK	0.8760169	-0.3846879	-0.2908772	0	-100.369	-61.161	8.897	B5-03822-P03-CH1	1349880	OK	0.7053144	-0.7057647	0.066542	0	-98.446	-8.609	-3.709	B5-03822-P04-CH0	1349880	OK	0.7431436	-0.4139263	0.5257401	0	-129.212	-37.439	7.166	B5-03822-P04-CH1	1349880	OK	0.8024503	-0.5936417	0.0605233	0	-113.748	-43.485	-0.491	NA
0.339724651765468	B5-03822-P01-CH0	1349888	OK	0.2078864	0.0944229	0.0861579	-0.9697651	156.194	-24.425	-264.16	B5-03822-P02-CH0	1349888	OK	0.8115345	0.3285136	-0.4832087	0	-94.075	-97.447	10.399	B5-03822-P02-CH1	1349888	OK	0.7962122	-0.2507078	-0.5506285	0	-86.683	-74.277	-2.239	B5-03822-P03-CH0	1349888	OK	0.875021	-0.3810987	-0.2984996	0	-100.241	-60.974	9.264	B5-03822-P03-CH1	1349888	OK	0.705886	-0.7051298	0.0672071	0	-98.441	-8.547	-3.589	B5-03822-P04-CH0	1349888	OK	0.7428859	-0.4138704	0.5261481	0	-129.14	-37.152	6.969	B5-03822-P04-CH1	1349888	OK	0.8028658	-0.5929581	0.061703	0	-113.752	-43.572	-0.405	NA
0.349716553287982	B5-03822-P01-CH0	1349896	OK	0.2075747	0.0946828	0.0858994	-0.9698295	156.285	-24.494	-264.199	B5-03822-P02-CH0	1349896	OK	0.8103664	0.3318972	-0.4828567	0	-93.477	-96.338	9.065	B5-03822-P02-CH1	1349896	OK	0.7955164	-0.2503021	-0.5518175	0	-86.974	-73.904	-1.508	B5-03822-P03-CH0	1349896	OK	0.871864	-0.3802165	-0.3086886	0	-100.717	-60.784	8.443	B5-03822-P03-CH1	1349896	OK	0.7051496	-0.7057612	0.0683029	0	-98.747	-9.072	-3.167	B5-03822-P04-CH0	1349896	OK	0.7423614	-0.41399	0.5267939	0	-129.456	-37.502	7.241	B5-03822-P04-CH1	1349896	OK	0.8027574	-0.5930594	0.0621387	0	-114.038	-43.695	-0.203	NA
0.359708454810496	B5-03822-P01-CH0	1349904	OK	0.2074525	0.0948776	0.0856422	-0.9698593	156.353	-24.49	-264.222	B5-03822-P02-CH0	1349904	OK	0.8100144	0.3280731	-0.48605	0	-93.929	-97.279	8.529	B5-03822-P02-CH1	1349904	OK	0.7953396	-0.252556	-0.5510448	0	-87.132	-74.024	-2.59	B5-03822-P03-CH0	1349904	OK	0.8693534	-0.379093	-0.3170381	0	-100.331	-60.984	8.634	B5-03822-P03-CH1	1349904	OK	0.7047479	-0.7061496	0.0684335	0	-98.826	-9.172	-3.04	B5-03822-P04-CH0	1349904	OK	0.7417696	-0.4143387	0.5273531	0	-129.655	-37.628	7.412	B5-03822-P04-CH1	1349904	OK	0.8025525	-0.593291	0.0625712	0	-114.115	-43.786	-0.208	NA
0.369700356333009	B5-03822-P01-CH0	1349912	OK	0.2075506	0.0952285	0.0857122	-0.9697978	156.469	-24.5	-264.126	B5-03822-P02-CH0	1349912	OK	0.8089638	0.3290769	-0.4871202	0	-94.169	-96.582	9.04	B5-03822-P02-CH1	1349912	OK	0.7959693	-0.2540841	-0.5494308	0	-86.778	-74.5	-1.834	B5-03822-P03-CH0	1349912	OK	0.8670156	-0.3772103	-0.3255709	0	-100.49	-61.072	8.926	B5-03822-P03-CH1	1349912	OK	0.7045073	-0.7063846	0.0684856	0	-98.905	-9.346	-2.959	B5-03822-P04-CH0	1349912	OK	0.7412867	-0.4147093	0.5277407	0	-129.759	-37.867	7.63	B5-03822-P04-CH1	1349912	OK	0.8025641	-0.5932381	0.0629239	0	-114.273	-43.98	0.049	NA
0.379692257855523	B5-03822-P01-CH0	1349920	OK	0.207854	0.0951714	0.0859377	-0.9697184	156.442	-24.551	-264.165	B5-03822-P02-CH0	1349920	OK	0.8098353	0.3248364	-0.4885161	0	-93.822	-97.358	8.96	B5-03822-P02-CH1	1349920	OK	0.7956879	-0.2479676	-0.5526236	0	-87.264	-74.228	-2.002	B5-03822-P03-CH0	1349920	OK	0.8649682	-0.3728221	-0.3359074	0	-99.609	-60.698	8.407	B5-03822-P03-CH1	1349920	OK	0.7050017	-0.7059593	0.0677794	0	-98.633	-9.04	-3.374	B5-03822-P04-CH0	1349920	OK	0.7410569	-0.4143834	0.5283191	0	-129.947	-38.287	8.042	B5-03822-P04-CH1	1349920	OK	0.8028485	-0.592802	0.063404	0	-114.199	-43.996	0.028	NA
0.389684159378037	B5-03822-P01-CH0	1349928	OK	0.2083279	0.0945211	0.0869639	-0.9695888	156.23	-24.469	-264.245	B5-03822-P02-CH0	1349928	OK	0.8098862	0.3206312	-0.4912026	0	-93.576	-97.503	8.835	B5-03822-P02-CH1	1349928	OK	0.7963822	-0.2493664	-0.5509917	0	-86.948	-74.123	-2.479	B5-03822-P03-CH0	1349928	OK	0.8592369	-0.3653166	-0.358128	0	-100.223	-59.46	6.045	B5-03822-P03-CH1	1349928	OK	0.705743	-0.7051832	0.0681435	0	-98.538	-8.898	-3.466	B5-03822-P04-CH0	1349928	OK	0.7406737	-0.415216	0.5282028	0	-129.593	-37.992	7.778	B5-03822-P04-CH1	1349928	OK	0.8034858	-0.5918951	0.0638029	0	-113.886	-43.982	0.105	NA
0.399676060900551	B5-03822-P01-CH0	1349936	OK	0.2085755	0.0944118	0.0874283	-0.9695045	156.234	-24.45	-264.286	B5-03822-P02-CH0	1349936	OK	0.8097036	0.3179029	-0.4932726	0	-93.06	-96.18	8.151	B5-03822-P02-CH1	1349936	OK	0.7970337	-0.2500326	-0.5497463	0	-86.815	-73.992	-2.641	B5-03822-P03-CH0	1349936	OK	0.8537327	-0.3574154	-0.3786749	0	-98.92	-59.028	5.959	B5-03822-P03-CH1	1349936	OK	0.7053488	-0.7055035	0.068905	0	-98.656	-9.306	-3.406	B5-03822-P04-CH0	1349936	OK	0.7402799	-0.4155015	0.5285302	0	-129.608	-38.273	8.029	B5-03822-P04-CH1	1349936	OK	0.8037235	-0.5916027	0.0635196	0	-113.863	-44.02	0.092	NA
0.409667962423064	B5-03822-P01-CH0	1349944	OK	0.2083774	0.0943543	0.087279	-0.9695661	156.185	-24.465	-264.371	B5-03822-P02-CH0	1349944	OK	0.810532	0.3086305	-0.4977801	0	-92.736	-96.191	8.125	B5-03822-P02-CH1	1349944	OK	0.8016181	-0.2462305	-0.5447743	0	-86.402	-73.684	-2.284	B5-03822-P03-CH0	1349944	OK	0.8481438	-0.3477758	-0.39963	0	-98.444	-58.752	6.431	B5-03822-P03-CH1	1349944	OK	0.7050608	-0.7058246	0.0685627	0	-98.654	-9.235	-3.389	B5-03822-P04-CH0	1349944	OK	0.7396124	-0.4171663	0.5281531	0	-129.42	-38.172	8.345	B5-03822-P04-CH1	1349944	OK	0.8037568	-0.5916706	0.0624565	0	-113.805	-43.897	0.426	NA
0.419659863945578	B5-03822-P01-CH0	1349952	OK	0.208225	0.0944908	0.0870897	-0.9696026	156.243	-24.551	-264.455	B5-03822-P02-CH0	1349952	OK	0.8112986	0.2970619	-0.5035363	0	-92.807	-96.092	8.234	B5-03822-P02-CH1	1349952	OK	0.8015772	-0.2454173	-0.5452012	0	-87.552	-74.714	-2.503	B5-03822-P03-CH0	1349952	OK	0.8443258	-0.3357304	-0.4176111	0	-98.084	-57.982	5.482	B5-03822-P03-CH1	1349952	OK	0.7044384	-0.7064669	0.068345	0	-98.709	-9.47	-3.269	B5-03822-P04-CH0	1349952	OK	0.7386944	-0.4190078	0.5279802	0	-129.152	-38.18	8.226	B5-03822-P04-CH1	1349952	OK	0.8036632	-0.5919155	0.061331	0	-113.602	-43.823	0.512	NA
0.429651765468092	B5-03822-P01-CH0	1349960	OK	0.2082013	0.0945937	0.087042	-0.969602	156.282	-24.525	-264.53	B5-03822-P02-CH0	1349960	OK	0.8139929	0.2883773	-0.5042362	0	-91.579	-94.23	5.727	B5-03822-P02-CH1	1349960	OK	0.8049009	-0.2409976	-0.5422681	0	-87.895	-74.213	-1.144	B5-03822-P03-CH0	1349960	OK	0.8426836	-0.3199149	-0.4330575	0	-97.282	-57.578	5.918	B5-03822-P03-CH1	1349960	OK	0.7041425	-0.7067803	0.0681534	0	-98.695	-9.502	-2.955	B5-03822-P04-CH0	1349960	OK	0.738384	-0.4193723	0.5281249	0	-129.208	-38.494	9.144	B5-03822-P04-CH1	1349960	OK	0.8036538	-0.5920676	0.0599706	0	-113.459	-43.66	0.598	NA
0.439643666990606	B5-03822-P01-CH0	1349968	OK	0.208141	0.0947732	0.0868967	-0.9696104	156.292	-24.47	-264.481	B5-03822-P02-CH0	1349968	OK	0.8173181	0.2703099	-0.5088455	0	-91.419	-94.095	5.273	B5-03822-P02-CH1	1349968	OK	0.8081248	-0.2384036	-0.5386074	0	-88.601	-73.284	-0.217	B5-03822-P03-CH0	1349968	OK	0.8401867	-0.2970608	-0.4536972	0	-98.562	-56.828	6.715	B5-03822-P03-CH1	1349968	OK	0.7037387	-0.7071888	0.068087	0	-98.742	-9.406	-3.177	B5-03822-P04-CH0	1349968	OK	0.7379975	-0.4195045	0.52856	0	-129.347	-38.866	9.66	B5-03822-P04-CH1	1349968	OK	0.8035142	-0.5924112	0.0584285	0	-113.242	-43.455	0.57	NA
0.44963556851312	B5-03822-P01-CH0	1349976	OK	0.2080414	0.094349	0.087114	-0.9696536	156.071	-24.428	-264.458	B5-03822-P02-CH0	1349976	OK	0.8198337	0.2505273	-0.5148872	0	-91.557	-93.644	6.734	B5-03822-P02-CH1	1349976	OK	0.810437	-0.2379708	-0.5353146	0	-88.396	-72.911	-0.666	B5-03822-P03-CH0	1349976	OK	0.8368869	-0.2774143	-0.4718703	0	-97.107	-54.599	3.649	B5-03822-P03-CH1	1349976	OK	0.7042673	-0.7068088	0.0665498	0	-98.397	-8.697	-3.664	B5-03822-P04-CH0	1349976	OK	0.7375188	-0.4208339	0.5281712	0	-128.939	-38.518	9.638	B5-03822-P04-CH1	1349976	OK	0.8036261	-0.5924282	0.0566918	0	-112.758	-43.067	0.371	NA
0.459627470035633	B5-03822-P01-CH0	1349984	OK	0.2079509	0.0941879	0.0872599	-0.9696756	155.928	-24.469	-264.332	B5-03822-P02-CH0	1349984	OK	0.8206112	0.2341494	-0.521317	0	-91.868	-93.451	5.989	B5-03822-P02-CH1	1349984	OK	0.8096273	-0.2360776	-0.5373741	0	-88.931	-72.642	-1.115	B5-03822-P03-CH0	1349984	OK	0.8279433	-0.2653584	-0.4940596	0	-97.009	-54.571	3.322	B5-03822-P03-CH1	1349984	OK	0.7040806	-0.7069856	0.066648	0	-98.38	-8.745	-3.634	B5-03822-P04-CH0	1349984	OK	0.737275	-0.4213849	0.5280723	0	-128.764	-38.556	9.684	B5-03822-P04-CH1	1349984	OK	0.8036869	-0.5925287	0.0547455	0	-112.362	-42.872	0.375	NA
0.469619371558147	B5-03822-P01-CH0	1349992	OK	0.2077763	0.0941936	0.0869631	-0.9697391	155.928	-24.518	-264.387	B5-03822-P02-CH0	1349992	OK	0.8210432	0.2231594	-0.5254407	0	-91.426	-92.612	4.613	B5-03822-P02-CH1	1349992	OK	0.8094701	-0.2370477	-0.5371839	0	-88.468	-72.752	-0.442	B5-03822-P03-CH0	1349992	OK	0.8202927	-0.255222	-0.5118414	0	-97.261	-53.544	2.39	B5-03822-P03-CH1	1349992	OK	0.7041832	-0.7069747	0.0656722	0	-98.19	-8.34	-3.812	B5-03822-P04-CH0	1349992	OK	0.7369587	-0.4224519	0.5276611	0	-128.51	-38.238	9.808	B5-03822-P04-CH1	1349992	OK	0.8034785	-0.5929992	0.0526706	0	-112.23	-42.676	0.388	NA
0.479611273080661	B5-03822-P01-CH0	1350000	OK	0.207333	0.0943688	0.0865011	-0.9698583	155.916	-24.536	-264.317	B5-03822-P02-CH0	1350000	OK	0.8202386	0.2164826	-0.5294751	0	-91.133	-91.521	5.245	B5-03822-P02-CH1	1350000	OK	0.8065714	-0.237762	-0.5412133	0	-89.886	-71.839	-1.557	B5-03822-P03-CH0	1350000	OK	0.8169218	-0.2500119	-0.519743	0	-95.541	-53.519	1.714	B5-03822-P03-CH1	1350000	OK	0.7034297	-0.7077181	0.0657396	0	-98.323	-8.507	-3.521	B5-03822-P04-CH0	1350000	OK	0.7363247	-0.423957	0.5273389	0	-128.247	-37.861	9.338	B5-03822-P04-CH1	1350000	OK	0.803054	-0.5937798	0.0502969	0	-112.071	-42.475	0.489	NA
0.489603174603175	B5-03822-P01-CH0	1350008	OK	0.2067458	0.094637	0.0855166	-0.9700448	155.942	-24.66	-264.252	B5-03822-P02-CH0	1350008	OK	0.8187083	0.2078996	-0.5352517	0	-91.714	-92.014	5.548	B5-03822-P02-CH1	1350008	OK	0.8047193	-0.2411245	-0.5424812	0	-89.79	-72.554	-2.133	B5-03822-P03-CH0	1350008	OK	0.8098551	-0.2450993	-0.5329738	0	-96.694	-53.655	2.064	B5-03822-P03-CH1	1350008	OK	0.7024045	-0.7087703	0.0653647	0	-98.313	-8.646	-3.435	B5-03822-P04-CH0	1350008	OK	0.7357352	-0.4250523	0.5272801	0	-128.068	-37.746	9.449	B5-03822-P04-CH1	1350008	OK	0.8023162	-0.5949862	0.0477507	0	-111.829	-42.162	0.049	NA
0.499595076125688	B5-03822-P01-CH0	1350016	OK	0.2062872	0.0945584	0.0852035	-0.9701776	155.912	-24.721	-264.376	B5-03822-P02-CH0	1350016	OK	0.8177427	0.2072381	-0.5369816	0	-91.223	-91.53	5.093	B5-03822-P02-CH1	1350016	OK	0.8038552	-0.2428641	-0.5429861	0	-88.673	-72.394	-1.041	B5-03822-P03-CH0	1350016	OK	0.8063584	-0.2443033	-0.5386112	0	-96.116	-53.143	1.2	B5-03822-P03-CH1	1350016	OK	0.7022792	-0.708978	0.0644523	0	-98.163	-8.426	-3.519	B5-03822-P04-CH0	1350016	OK	0.7352665	-0.4261256	0.5270675	0	-127.752	-37.566	9.587	B5-03822-P04-CH1	1350016	OK	0.8019995	-0.5955965	0.0454044	0	-111.428	-41.812	-0.147	NA
0.509586977648202	B5-03822-P01-CH0	1350024	OK	0.2065451	0.0944989	0.0857433	-0.970081	155.919	-24.684	-264.392	B5-03822-P02-CH0	1350024	OK	0.8161498	0.2094372	-0.5385495	0	-90.403	-91.074	3.928	B5-03822-P02-CH1	1350024	OK	0.8009209	-0.2485996	-0.5447237	0	-88.248	-72.101	-1.74	B5-03822-P03-CH0	1350024	OK	0.8029828	-0.2524772	-0.5398832	0	-96.002	-53.621	0.412	B5-03822-P03-CH1	1350024	OK	0.7026793	-0.7085882	0.0643782	0	-98.139	-8.355	-3.663	B5-03822-P04-CH0	1350024	OK	0.735391	-0.4258133	0.5271463	0	-127.593	-37.492	9.351	B5-03822-P04-CH1	1350024	OK	0.8021691	-0.5954882	0.0438023	0	-111.153	-41.589	-0.291	NA
0.519578879170716	B5-03822-P01-CH0	1350032	OK	0.2064447	0.0945667	0.0858718	-0.9700844	155.943	-24.673	-264.347	B5-03822-P02-CH0	1350032	OK	0.8127891	0.2150149	-0.5414263	0	-90.168	-90.753	4.161	B5-03822-P02-CH1	1350032	OK	0.7968556	-0.2549879	-0.5477247	0	-87.646	-71.506	-3.199	B5-03822-P03-CH0	1350032	OK	0.8004186	-0.263296	-0.5385214	0	-95.495	-53.401	-0.002	B5-03822-P03-CH1	1350032	OK	0.7027537	-0.708551	0.0639744	0	-98.136	-8.224	-3.839	B5-03822-P04-CH0	1350032	OK	0.7357252	-0.426058	0.5264818	0	-127.506	-37.216	9.6	B5-03822-P04-CH1	1350032	OK	0.80211	-0.5957071	0.0418637	0	-110.928	-41.246	-0.662	NA
0.52957078069323	B5-03822-P01-CH0	1350040	OK	0.2061546	0.0946248	0.0855757	-0.9701666	155.93	-24.825	-264.31	B5-03822-P02-CH0	1350040	OK	0.8094566	0.2234357	-0.5430069	0	-89.665	-90.542	4.039	B5-03822-P02-CH1	1350040	OK	0.7921417	-0.2619556	-0.5512629	0	-86.24	-71.397	-2.847	B5-03822-P03-CH0	1350040	OK	0.7976894	-0.2750991	-0.5366676	0	-94.518	-53.391	-0.311	B5-03822-P03-CH1	1350040	OK	0.7025659	-0.7087886	0.0634024	0	-98.068	-8.186	-4.217	B5-03822-P04-CH0	1350040	OK	0.7355349	-0.4274491	0.5256193	0	-127.159	-36.778	9.146	B5-03822-P04-CH1	1350040	OK	0.8017173	-0.5963526	0.0401608	0	-110.698	-41.206	-0.587	NA
0.539562682215743	B5-03822-P01-CH0	1350048	OK	0.2060366	0.0944025	0.0862297	-0.9701554	155.901	-24.804	-264.37	B5-03822-P02-CH0	1350048	OK	0.8063418	0.232259	-0.5439381	0	-88.754	-89.906	3.736	B5-03822-P02-CH1	1350048	OK	0.7856083	-0.2695958	-0.5569001	0	-85.731	-70.857	-2.356	B5-03822-P03-CH0	1350048	OK	0.7940788	-0.2850324	-0.5368383	0	-94.233	-52.958	0.346	B5-03822-P03-CH1	1350048	OK	0.7032793	-0.7081777	0.0623093	0	-98.026	-7.922	-4.264	B5-03822-P04-CH0	1350048	OK	0.7357105	-0.4287699	0.5242961	0	-126.774	-36.144	8.737	B5-03822-P04-CH1	1350048	OK	0.8021372	-0.5959061	0.0383651	0	-110.593	-40.735	-0.864	NA
0.549554583738257	B5-03822-P01-CH0	1350056	OK	0.2062889	0.0945267	0.0868639	-0.9700331	156	-24.784	-264.469	B5-03822-P02-CH0	1350056	OK	0.8012083	0.2392527	-0.5484737	0	-89.132	-90.921	3.063	B5-03822-P02-CH1	1350056	OK	0.7782461	-0.2836031	-0.5602698	0	-84.518	-70.72	-3.44	B5-03822-P03-CH0	1350056	OK	0.7907049	-0.2976149	-0.534987	0	-93.868	-52.856	-1.152	B5-03822-P03-CH1	1350056	OK	0.7037839	-0.7077036	0.0619979	0	-97.955	-7.959	-4.089	B5-03822-P04-CH0	1350056	OK	0.7361538	-0.4293715	0.5231803	0	-126.612	-35.79	8.617	B5-03822-P04-CH1	1350056	OK	0.8023257	-0.5957111	0.0374398	0	-110.566	-40.721	-0.896	NA
0.559546485260771	B5-03822-P01-CH0	1350064	OK	0.2058092	0.0944743	0.0859558	-0.970221	155.983	-24.918	-264.596	B5-03822-P02-CH0	1350064	OK	0.7982649	0.252907	-0.5466362	0	-87.102	-90.123	0.953	B5-03822-P02-CH1	1350064	OK	0.770288	-0.3034741	-0.5608564	0	-83.381	-70.433	-3.956	B5-03822-P03-CH0	1350064	OK	0.788737	-0.3084215	-0.5317613	0	-92.647	-53.25	-1.365	B5-03822-P03-CH1	1350064	OK	0.7030242	-0.708497	0.0615551	0	-97.984	-8.105	-4.065	B5-03822-P04-CH0	1350064	OK	0.7356396	-0.4315846	0.5220815	0	-126.285	-35.397	8.565	B5-03822-P04-CH1	1350064	OK	0.8017497	-0.5965785	0.0359387	0	-110.433	-40.475	-0.983	NA
0.569538386783285	B5-03822-P01-CH0	1350072	OK	0.205244	0.0947437	0.0845519	-0.9704378	155.987	-24.983	-264.616	B5-03822-P02-CH0	1350072	OK	0.7932936	0.2645908	-0.5483401	0	-85.652	-89.531	1.051	B5-03822-P02-CH1	1350072	OK	0.7640181	-0.3301771	-0.5543099	0	-81.187	-70.541	-3.106	B5-03822-P03-CH0	1350072	OK	0.7861122	-0.3196194	-0.5290284	0	-93.022	-53.499	-1.726	B5-03822-P03-CH1	1350072	OK	0.7019963	-0.7095924	0.0606624	0	-97.941	-8.116	-4.067	B5-03822-P04-CH0	1350072	OK	0.7349039	-0.4347082	0.5205237	0	-125.972	-34.715	7.936	B5-03822-P04-CH1	1350072	OK	0.8008357	-0.597882	0.0346315	0	-110.254	-40.246	-0.803	NA
0.579530288305799	B5-03822-P01-CH0	1350080	OK	0.2055842	0.0944253	0.0856991	-0.9702962	156.001	-24.857	-264.815	B5-03822-P02-CH0	1350080	OK	0.7837711	0.2735245	-0.5575726	0	-85.894	-89.96	1.857	B5-03822-P02-CH1	1350080	OK	0.7565323	-0.3603188	-0.5457374	0	-80.444	-69.331	-6.057	B5-03822-P03-CH0	1350080	OK	0.7851828	-0.3300249	-0.5239957	0	-92.349	-53.638	-1.368	B5-03822-P03-CH1	1350080	OK	0.7022936	-0.7092193	0.0615776	0	-98.126	-8.509	-3.765	B5-03822-P04-CH0	1350080	OK	0.7354808	-0.4360214	0.5186072	0	-125.691	-34.128	7.743	B5-03822-P04-CH1	1350080	OK	0.8015555	-0.5969504	0.0340449	0	-110.131	-39.903	-0.973	NA
0.589522189828312	B5-03822-P01-CH0	1350088	OK	0.2054315	0.0946504	0.085072	-0.9703618	156.054	-24.868	-264.77	B5-03822-P02-CH0	1350088	OK	0.7765576	0.2873679	-0.5606942	0	-83.258	-88.97	-0.514	B5-03822-P02-CH1	1350088	OK	0.749891	-0.3910139	-0.5336399	0	-78.75	-69.48	-3.035	B5-03822-P03-CH0	1350088	OK	0.78166	-0.3429798	-0.5209343	0	-92.669	-53.503	-2.215	B5-03822-P03-CH1	1350088	OK	0.7015824	-0.7099442	0.0613293	0	-98.24	-8.658	-3.88	B5-03822-P04-CH0	1350088	OK	0.7354844	-0.4374702	0.5173805	0	-125.798	-33.877	7.654	B5-03822-P04-CH1	1350088	OK	0.8009615	-0.5977739	0.0335717	0	-110.128	-39.884	-1.036	NA
0.599514091350826	B5-03822-P01-CH0	1350096	OK	0.2056254	0.0944601	0.0853193	-0.9703175	156.05	-24.792	-264.926	B5-03822-P02-CH0	1350096	OK	0.7684326	0.3002173	-0.565138	0	-80.446	-87.863	-1.452	B5-03822-P02-CH1	1350096	OK	0.7444149	-0.4191266	-0.5197878	0	-77.264	-68.544	-3.926	B5-03822-P03-CH0	1350096	OK	0.7804444	-0.3565137	-0.5136191	0	-91.717	-53.555	-1.431	B5-03822-P03-CH1	1350096	OK	0.7022068	-0.7093926	0.0605623	0	-98.118	-8.333	-3.836	B5-03822-P04-CH0	1350096	OK	0.7356782	-0.4385272	0.5162087	0	-125.772	-33.651	7.622	B5-03822-P04-CH1	1350096	OK	0.8012357	-0.5974193	0.0333406	0	-110.198	-39.692	-0.838	NA
0.60950599287334	B5-03822-P01-CH0	1350104	OK	0.2051375	0.094501	0.0841338	-0.9705203	155.983	-24.926	-264.845	B5-03822-P02-CH0	1350104	OK	0.759161	0.3096128	-0.5725509	0	-79.993	-87.444	-1.736	B5-03822-P02-CH1	1350104	OK	0.7386621	-0.4409572	-0.5098382	0	-76.134	-68.161	-5.066	B5-03822-P03-CH0	1350104	OK	0.7790137	-0.3703185	-0.5059663	0	-90.818	-53.169	-2.292	B5-03822-P03-CH1	1350104	OK	0.7015343	-0.7101561	0.0593967	0	-97.93	-8.229	-3.792	B5-03822-P04-CH0	1350104	OK	0.735123	-0.4408426	0.5150262	0	-125.664	-33.369	7.479	B5-03822-P04-CH1	1350104	OK	0.8004011	-0.5985642	0.032847	0	-110.107	-39.636	-1.029	NA
0.619497894395854	B5-03822-P01-CH0	1350112	OK	0.2050976	0.0941754	0.084283	-0.9705474	155.898	-24.88	-264.975	B5-03822-P02-CH0	1350112	OK	0.752657	0.3180264	-0.5765125	0	-79.033	-87.104	-2.687	B5-03822-P02-CH1	1350112	OK	0.7354003	-0.4346942	-0.519834	0	-76.101	-68.272	-4.734	B5-03822-P03-CH0	1350112	OK	0.7782676	-0.3786937	-0.5008898	0	-91.175	-52.384	-1.219	B5-03822-P03-CH1	1350112	OK	0.7017256	-0.7100013	0.0589867	0	-97.851	-8.169	-3.687	B5-03822-P04-CH0	1350112	OK	0.7350898	-0.4424264	0.5137138	0	-125.555	-32.972	7.149	B5-03822-P04-CH1	1350112	OK	0.8006548	-0.5982352	0.032657	0	-110.162	-39.407	-0.928	NA
0.629489795918367	B5-03822-P01-CH0	1350120	OK	0.2054941	0.0938912	0.0850852	-0.9704211	155.921	-24.792	-265.043	B5-03822-P02-CH0	1350120	OK	0.7499821	0.3244268	-0.5764322	0	-77.58	-86.933	-3.186	B5-03822-P02-CH1	1350120	OK	0.7343921	-0.4142618	-0.5376388	0	-77.308	-67.015	-4.494	B5-03822-P03-CH0	1350120	OK	0.7794367	-0.3866319	-0.4929445	0	-91.862	-52.323	-1.29	B5-03822-P03-CH1	1350120	OK	0.7024724	-0.7092608	0.059006	0	-98.003	-8.065	-3.598	B5-03822-P04-CH0	1350120	OK	0.7352337	-0.4431635	0.5128718	0	-125.521	-32.859	6.777	B5-03822-P04-CH1	1350120	OK	0.8011789	-0.5975117	0.0330478	0	-110.156	-39.25	-1.313	NA
0.639481697440881	B5-03822-P01-CH0	1350128	OK	0.2055025	0.0937403	0.0845659	-0.9704793	155.907	-25.045	-265.071	B5-03822-P02-CH0	1350128	OK	0.7495509	0.3293738	-0.5741833	0	-76.427	-86.636	-3.797	B5-03822-P02-CH1	1350128	OK	0.7352406	-0.403359	-0.5447227	0	-76.333	-67.053	-4.934	B5-03822-P03-CH0	1350128	OK	0.7833969	-0.3921978	-0.4821516	0	-90.714	-52.737	-1.527	B5-03822-P03-CH1	1350128	OK	0.7021552	-0.7096007	0.058694	0	-97.845	-8.251	-3.686	B5-03822-P04-CH0	1350128	OK	0.7349924	-0.4444236	0.5121268	0	-125.478	-32.89	6.599	B5-03822-P04-CH1	1350128	OK	0.8007863	-0.598013	0.033493	0	-110.171	-39.545	-1.336	NA
0.649473598963395	B5-03822-P01-CH0	1350136	OK	0.2056626	0.0933906	0.0843969	-0.9704938	155.805	-25.044	-265.084	B5-03822-P02-CH0	1350136	OK	0.7496474	0.331247	-0.5729784	0	-76.672	-87.219	-3.77	B5-03822-P02-CH1	1350136	OK	0.7354594	-0.4023805	-0.5451508	0	-76.32	-66.714	-5.88	B5-03822-P03-CH0	1350136	OK	0.7887638	-0.3909473	-0.4743543	0	-90.519	-52.979	-0.549	B5-03822-P03-CH1	1350136	OK	0.7021062	-0.7096412	0.0587894	0	-97.915	-8.183	-3.792	B5-03822-P04-CH0	1350136	OK	0.7345338	-0.4448608	0.512405	0	-125.503	-33.09	6.505	B5-03822-P04-CH1	1350136	OK	0.8008311	-0.5979269	0.0339551	0	-110.115	-39.356	-1.548	NA
0.659465500485909	B5-03822-P01-CH0	1350144	OK	0.2059267	0.0937618	0.0847616	-0.9703702	155.98	-24.946	-265.033	B5-03822-P02-CH0	1350144	OK	0.7513949	0.3346843	-0.5686757	0	-76.612	-87.142	-3.574	B5-03822-P02-CH1	1350144	OK	0.737414	-0.4118985	-0.5353132	0	-75.536	-66.948	-4.428	B5-03822-P03-CH0	1350144	OK	0.7941256	-0.3898331	-0.466256	0	-91.469	-53.356	-1.068	B5-03822-P03-CH1	1350144	OK	0.70252	-0.7092721	0.0582979	0	-97.967	-8.011	-3.753	B5-03822-P04-CH0	1350144	OK	0.7346859	-0.4446874	0.5123375	0	-125.803	-33.249	6.474	B5-03822-P04-CH1	1350144	OK	0.800993	-0.5976709	0.0346366	0	-110.327	-39.388	-1.589	NA
0.669457402008422	B5-03822-P01-CH0	1350152	OK	0.2062544	0.0934463	0.0858758	-0.9702331	155.926	-24.962	-264.958	B5-03822-P02-CH0	1350152	OK	0.7520672	0.3363858	-0.5667799	0	-78.104	-87.388	-3.166	B5-03822-P02-CH1	1350152	OK	0.7385911	-0.4263957	-0.522178	0	-76.239	-67.439	-4.223	B5-03822-P03-CH0	1350152	OK	0.8011217	-0.387492	-0.4561293	0	-91.081	-54.316	0.961	B5-03822-P03-CH1	1350152	OK	0.7037517	-0.7081137	0.0575205	0	-97.85	-7.661	-3.996	B5-03822-P04-CH0	1350152	OK	0.7351074	-0.4428701	0.5133061	0	-126.132	-34.052	7.148	B5-03822-P04-CH1	1350152	OK	0.8016604	-0.5967354	0.0353205	0	-110.404	-39.346	-2.188	NA
0.679449303530936	B5-03822-P01-CH0	1350160	OK	0.206596	0.0937078	0.0859051	-0.9701326	156.1	-25.046	-265.042	B5-03822-P02-CH0	1350160	OK	0.7549007	0.3359136	-0.5632822	0	-78.973	-87.673	-2.162	B5-03822-P02-CH1	1350160	OK	0.7413247	-0.4405651	-0.5063004	0	-75.933	-68.269	-4.325	B5-03822-P03-CH0	1350160	OK	0.8061376	-0.3831666	-0.4509163	0	-92.57	-53.954	1.01	B5-03822-P03-CH1	1350160	OK	0.7044918	-0.7074737	0.0563231	0	-97.729	-7.285	-4.13	B5-03822-P04-CH0	1350160	OK	0.7353087	-0.4418263	0.513917	0	-126.457	-34.625	7.785	B5-03822-P04-CH1	1350160	OK	0.8018834	-0.596382	0.0362161	0	-110.576	-39.455	-2.126	NA
0.68944120505345	B5-03822-P01-CH0	1350168	OK	0.2063258	0.0935414	0.0855784	-0.970235	156.022	-25.114	-265.108	B5-03822-P02-CH0	1350168	OK	0.7621224	0.3331807	-0.5551217	0	-77.81	-87.525	-5.56	B5-03822-P02-CH1	1350168	OK	0.7469003	-0.4384122	-0.4999347	0	-75.633	-69.058	-4.346	B5-03822-P03-CH0	1350168	OK	0.8124616	-0.3770406	-0.4446869	0	-92.02	-53.947	0.626	B5-03822-P03-CH1	1350168	OK	0.7039617	-0.7080157	0.0561391	0	-97.691	-7.588	-3.658	B5-03822-P04-CH0	1350168	OK	0.7349155	-0.4417629	0.5145335	0	-126.544	-35.028	8.22	B5-03822-P04-CH1	1350168	OK	0.8018	-0.5964829	0.0363985	0	-110.649	-39.428	-1.924	NA
0.699433106575964	B5-03822-P01-CH0	1350176	OK	0.2062922	0.0938213	0.0855008	-0.970222	156.052	-25.119	-264.897	B5-03822-P02-CH0	1350176	OK	0.7656488	0.3269915	-0.553948	0	-80.116	-88.087	-2.729	B5-03822-P02-CH1	1350176	OK	0.7531244	-0.4227181	-0.5040962	0	-77.663	-68.284	-4.864	B5-03822-P03-CH0	1350176	OK	0.8169896	-0.3721718	-0.4404726	0	-92.927	-54.956	2.135	B5-03822-P03-CH1	1350176	OK	0.7036383	-0.7083406	0.0560968	0	-97.842	-7.77	-3.704	B5-03822-P04-CH0	1350176	OK	0.7350467	-0.4416402	0.5144514	0	-126.703	-35.031	8.215	B5-03822-P04-CH1	1350176	OK	0.8017488	-0.5965152	0.036992	0	-110.792	-39.448	-2.189	NA
0.709425008098478	B5-03822-P01-CH0	1350184	OK	0.2068233	0.0935796	0.0867109	-0.9700248	156.121	-25.06	-265.073	B5-03822-P02-CH0	1350184	OK	0.7693242	0.3237766	-0.5507349	0	-81.602	-88.292	0.148	B5-03822-P02-CH1	1350184	OK	0.7608689	-0.4042516	-0.5076013	0	-78.115	-68.738	-3.71	B5-03822-P03-CH0	1350184	OK	0.8214654	-0.3657965	-0.4374787	0	-94.147	-54.343	1.362	B5-03822-P03-CH1	1350184	OK	0.704466	-0.7075041	0.0562636	0	-97.875	-7.913	-3.683	B5-03822-P04-CH0	1350184	OK	0.735704	-0.4409411	0.5141114	0	-126.745	-35.04	8.268	B5-03822-P04-CH1	1350184	OK	0.8026565	-0.5952354	0.0379132	0	-110.933	-39.527	-2.038	NA
0.719416909620991	B5-03822-P01-CH0	1350192	OK	0.2071422	0.0937375	0.0868868	-0.9699258	156.216	-24.972	-265.071	B5-03822-P02-CH0	1350192	OK	0.7752399	0.3222291	-0.5432968	0	-82.535	-89.172	0.233	B5-03822-P02-CH1	1350192	OK	0.7671617	-0.3864717	-0.5119595	0	-78.487	-69.739	-2.72	B5-03822-P03-CH0	1350192	OK	0.8249407	-0.3612181	-0.4347348	0	-94.929	-54.722	1.956	B5-03822-P03-CH1	1350192	OK	0.7052829	-0.7067535	0.0554571	0	-97.938	-7.466	-3.867	B5-03822-P04-CH0	1350192	OK	0.735838	-0.4397406	0.5149472	0	-126.992	-35.645	8.869	B5-03822-P04-CH1	1350192	OK	0.8027926	-0.5949897	0.0388741	0	-111.063	-39.627	-1.97	NA
0.729408811143505	B5-03822-P01-CH0	1350200	OK	0.2076578	0.093666	0.0877047	-0.9697488	156.239	-24.951	-265.049	B5-03822-P02-CH0	1350200	OK	0.7806935	0.3212743	-0.5360043	0	-83.088	-89.201	-0.058	B5-03822-P02-CH1	1350200	OK	0.7744057	-0.3660912	-0.5160164	0	-79.795	-69.908	-2.087	B5-03822-P03-CH0	1350200	OK	0.8304936	-0.3546216	-0.4295625	0	-95.153	-55.555	3.883	B5-03822-P03-CH1	1350200	OK	0.7057493	-0.7062548	0.0558746	0	-97.933	-7.729	-3.863	B5-03822-P04-CH0	1350200	OK	0.7364896	-0.4379851	0.5155115	0	-127.222	-36.224	9.515	B5-03822-P04-CH1	1350200	OK	0.8034413	-0.5940459	0.0398926	0	-111.05	-39.764	-1.814	NA
0.739400712666019	B5-03822-P01-CH0	1350208	OK	0.2076748	0.0940381	0.0873283	-0.9697432	156.356	-24.919	-264.938	B5-03822-P02-CH0	1350208	OK	0.7840609	0.3150135	-0.5348038	0	-85.557	-91.127	2.3	B5-03822-P02-CH1	1350208	OK	0.7814089	-0.3465778	-0.5189258	0	-81.279	-69.641	-2.536	B5-03822-P03-CH0	1350208	OK	0.8344995	-0.3483261	-0.426942	0	-96.097	-55.372	3.595	B5-03822-P03-CH1	1350208	OK	0.7053821	-0.7066492	0.0555242	0	-97.967	-7.906	-3.768	B5-03822-P04-CH0	1350208	OK	0.7362475	-0.4379909	0.5158522	0	-127.215	-36.521	9.851	B5-03822-P04-CH1	1350208	OK	0.8033951	-0.5940841	0.040255	0	-111.164	-39.792	-1.596	NA
0.749392614188533	B5-03822-P01-CH0	1350216	OK	0.2078361	0.094359	0.0873419	-0.9696762	156.514	-24.963	-264.842	B5-03822-P02-CH0	1350216	OK	0.7872971	0.3118357	-0.5319039	0	-86.232	-91.054	3.703	B5-03822-P02-CH1	1350216	OK	0.787805	-0.3332278	-0.5179985	0	-81.867	-70.583	-3.516	B5-03822-P03-CH0	1350216	OK	0.8373233	-0.3464565	-0.4229155	0	-96.493	-55.751	3.042	B5-03822-P03-CH1	1350216	OK	0.70522	-0.7067734	0.0560005	0	-98.252	-8.366	-3.461	B5-03822-P04-CH0	1350216	OK	0.7366242	-0.4372464	0.5159461	0	-127.462	-36.967	10.281	B5-03822-P04-CH1	1350216	OK	0.8034413	-0.593995	0.0406449	0	-111.225	-39.961	-1.633	NA
0.759384515711046	B5-03822-P01-CH0	1350224	OK	0.2080724	0.093905	0.0878411	-0.9696245	156.339	-24.954	-264.723	B5-03822-P02-CH0	1350224	OK	0.7907075	0.3103538	-0.5276951	0	-85.523	-90.234	2.22	B5-03822-P02-CH1	1350224	OK	0.7919806	-0.3235082	-0.5177927	0	-82.856	-70.393	-2.935	B5-03822-P03-CH0	1350224	OK	0.8381348	-0.3458924	-0.4217682	0	-96.329	-55.679	3.621	B5-03822-P03-CH1	1350224	OK	0.7057625	-0.7062418	0.0558734	0	-98.178	-8.427	-3.498	B5-03822-P04-CH0	1350224	OK	0.7369513	-0.437687	0.5151046	0	-127.188	-36.696	10.081	B5-03822-P04-CH1	1350224	OK	0.8037801	-0.5935145	0.0409647	0	-111.18	-40.046	-1.65	NA
0.76937641723356	B5-03822-P01-CH0	1350232	OK	0.2081438	0.0939821	0.0873683	-0.9696444	156.353	-24.949	-264.721	B5-03822-P02-CH0	1350232	OK	0.7917051	0.3019023	-0.5310914	0	-87.018	-92.507	3.055	B5-03822-P02-CH1	1350232	OK	0.7939716	-0.3204148	-0.5166658	0	-82.551	-70.888	-2.184	B5-03822-P03-CH0	1350232	OK	0.8371942	-0.3497432	-0.4204587	0	-94.922	-55.723	3.089	B5-03822-P03-CH1	1350232	OK	0.7049328	-0.7070337	0.0563304	0	-98.284	-8.982	-3.371	B5-03822-P04-CH0	1350232	OK	0.7369236	-0.4388832	0.5141257	0	-127.055	-36.353	9.828	B5-03822-P04-CH1	1350232	OK	0.8034467	-0.5939452	0.0412615	0	-111.203	-40.286	-1.379	NA
0.779368318756074	B5-03822-P01-CH0	1350240	OK	0.20789	0.0940269	0.0869272	-0.9697342	156.269	-24.915	-264.456	B5-03822-P02-CH0	1350240	OK	0.7930871	0.3036474	-0.5280256	0	-86.277	-90.806	1.692	B5-03822-P02-CH1	1350240	OK	0.7928286	-0.3207243	-0.5182265	0	-82.625	-70.845	-2.512	B5-03822-P03-CH0	1350240	OK	0.834623	-0.3570403	-0.4194362	0	-94.065	-55.892	3.142	B5-03822-P03-CH1	1350240	OK	0.704529	-0.7074732	0.0558626	0	-98.332	-9.092	-3.501	B5-03822-P04-CH0	1350240	OK	0.7366633	-0.4404685	0.513142	0	-126.86	-36.011	9.54	B5-03822-P04-CH1	1350240	OK	0.803057	-0.5944832	0.0410993	0	-111.177	-40.408	-1.173	NA
0.789360220278588	B5-03822-P01-CH0	1350248	OK	0.2082698	0.0939989	0.0873004	-0.9696218	156.367	-24.842	-264.512	B5-03822-P02-CH0	1350248	OK	0.7930531	0.3039066	-0.5279276	0	-86.144	-89.938	3.033	B5-03822-P02-CH1	1350248	OK	0.7912252	-0.3200623	-0.5210786	0	-82.555	-69.873	-3.433	B5-03822-P03-CH0	1350248	OK	0.8311209	-0.3605353	-0.4233821	0	-94.843	-55.007	2.635	B5-03822-P03-CH1	1350248	OK	0.7055223	-0.7065212	0.0553713	0	-98.38	-8.808	-3.626	B5-03822-P04-CH0	1350248	OK	0.7368659	-0.4411696	0.512248	0	-126.714	-35.893	9.605	B5-03822-P04-CH1	1350248	OK	0.8033272	-0.5940868	0.0415494	0	-111.052	-40.508	-1.015	NA
0.799352121801101	B5-03822-P01-CH0	1350256	OK	0.2090955	0.0935221	0.0886365	-0.969369	156.353	-24.765	-264.624	B5-03822-P02-CH0	1350256	OK	0.7950451	0.3002997	-0.5269947	0	-85.524	-90.977	0.842	B5-03822-P02-CH1	1350256	OK	0.7892802	-0.3233053	-0.5220254	0	-82.227	-70.262	-2.834	B5-03822-P03-CH0	1350256	OK	0.8296386	-0.3647466	-0.4226816	0	-93.827	-54.899	1.983	B5-03822-P03-CH1	1350256	OK	0.706954	-0.7050762	0.05553	0	-98.303	-8.756	-3.674	B5-03822-P04-CH0	1350256	OK	0.7374377	-0.4404022	0.5120855	0	-126.633	-36.195	9.716	B5-03822-P04-CH1	1350256	OK	0.8041903	-0.5928701	0.0422263	0	-110.978	-40.726	-0.784	NA
0.809344023323615	B5-03822-P01-CH0	1350264	OK	0.2088507	0.0938528	0.0879965	-0.9694481	156.433	-24.757	-264.499	B5-03822-P02-CH0	1350264	OK	0.7950402	0.2983236	-0.5281232	0	-86.185	-90.969	2.221	B5-03822-P02-CH1	1350264	OK	0.7877592	-0.3240883	-0.5238342	0	-81.408	-70.135	-2.691	B5-03822-P03-CH0	1350264	OK	0.8243961	-0.3696348	-0.4286504	0	-95.046	-55.346	2.435	B5-03822-P03-CH1	1350264	OK	0.7065787	-0.7054853	0.0551102	0	-98.479	-8.802	-3.611	B5-03822-P04-CH0	1350264	OK	0.7372667	-0.4414524	0.511427	0	-126.69	-36.082	9.667	B5-03822-P04-CH1	1350264	OK	0.80392	-0.5932688	0.04177	0	-110.999	-40.614	-0.774	NA
0.819335924846129	B5-03822-P01-CH0	1350272	OK	0.2088991	0.0939088	0.0877622	-0.9694535	156.446	-24.775	-264.452	B5-03822-P02-CH0	1350272	OK	0.7963544	0.2981162	-0.526257	0	-85.576	-90.626	1.225	B5-03822-P02-CH1	1350272	OK	0.787519	-0.3237339	-0.5244142	0	-80.642	-70.433	-2.675	B5-03822-P03-CH0	1350272	OK	0.8227629	-0.3690629	-0.4322659	0	-94.99	-54.658	2.313	B5-03822-P03-CH1	1350272	OK	0.7065415	-0.7055186	0.0551602	0	-98.619	-8.876	-3.648	B5-03822-P04-CH0	1350272	OK	0.7371727	-0.4427987	0.5103977	0	-126.534	-35.746	9.24	B5-03822-P04-CH1	1350272	OK	0.8037332	-0.5935368	0.0415565	0	-111.015	-40.74	-0.639	NA
0.829327826368643	B5-03822-P01-CH0	1350280	OK	0.208396	0.0940845	0.0863857	-0.9696684	156.427	-24.852	-264.364	B5-03822-P02-CH0	1350280	OK	0.7959772	0.2957851	-0.5281397	0	-86.592	-90.936	2.177	B5-03822-P02-CH1	1350280	OK	0.7845417	-0.3246689	-0.5282845	0	-82.386	-70.427	-3.609	B5-03822-P03-CH0	1350280	OK	0.822192	-0.3684088	-0.433907	0	-94.501	-54.034	1.671	B5-03822-P03-CH1	1350280	OK	0.7060724	-0.7061165	0.0534914	0	-98.403	-8.558	-3.81	B5-03822-P04-CH0	1350280	OK	0.7364417	-0.4447902	0.5097207	0	-126.406	-35.528	8.934	B5-03822-P04-CH1	1350280	OK	0.8028996	-0.5947216	0.040724	0	-111.065	-40.693	-0.604	NA
0.839319727891156	B5-03822-P01-CH0	1350288	OK	0.2085728	0.0939222	0.0865601	-0.9696305	156.416	-24.742	-264.536	B5-03822-P02-CH0	1350288	OK	0.7951155	0.2928703	-0.531054	0	-87.287	-91.25	3.779	B5-03822-P02-CH1	1350288	OK	0.7853184	-0.3230648	-0.5281138	0	-81.753	-70.181	-3.758	B5-03822-P03-CH0	1350288	OK	0.8221158	-0.3701976	-0.4325268	0	-93.462	-55.131	3.096	B5-03822-P03-CH1	1350288	OK	0.7069037	-0.7053156	0.0530757	0	-98.466	-8.107	-3.826	B5-03822-P04-CH0	1350288	OK	0.7367298	-0.4451943	0.5089511	0	-126.417	-35.272	8.992	B5-03822-P04-CH1	1350288	OK	0.803048	-0.5945283	0.04062	0	-110.925	-40.594	-0.465	NA
