Wav.Time	B5.03822.P01.CH0	Frame	State	Q0	Qx	Qy	Qz	Tx	Ty	Tz	B5.03822.P02.CH0	Frame.1	State.1	Q0.1	Qx.1	Qy.1	Qz.1	Tx.1	Ty.1	Tz.1	B5.03822.P02.CH1	Frame.2	State.2	Q0.2	Qx.2	Qy.2	Qz.2	Tx.2	Ty.2	Tz.2	B5.03822.P03.CH0	Frame.3	State.3	Q0.3	Qx.3	Qy.3	Qz.3	Tx.3	Ty.3	Tz.3	B5.03822.P03.CH1	Frame.4	State.4	Q0.4	Qx.4	Qy.4	Qz.4	Tx.4	Ty.4	Tz.4	B5.03822.P04.CH0	Frame.5	State.5	Q0.5	Qx.5	Qy.5	Qz.5	Tx.5	Ty.5	Tz.5	B5.03822.P04.CH1	Frame.6	State.6	Q0.6	Qx.6	Qy.6	Qz.6	Tx.6	Ty.6	Tz.6	X
0	B5-03822-P01-CH0	1717448	OK	0.2071223	0.1096286	0.0959282	-0.9674087	140.399	-31.62	-241.214	B5-03822-P02-CH0	1717448	OK	0.7876316	0.3686935	-0.4936615	0	-81.053	-104.117	3.776	B5-03822-P02-CH1	1717448	OK	0.6196418	0.1479841	0.7708079	0	-78.029	-84.214	1.14	B5-03822-P03-CH0	1717448	OK	0.7911912	-0.5128323	-0.3331961	0	-90.449	-65.325	2.796	B5-03822-P03-CH1	1717448	OK	0.8115313	-0.5833762	0.0330035	0	-98.542	-32.204	4.898	B5-03822-P04-CH0	1717448	OK	0.7330804	-0.4067156	0.5451381	0	-121.372	-43.908	13.721	B5-03822-P04-CH1	1717448	OK	0.7347486	-0.6753357	0.0637665	0	-108.681	-41.786	-7.079	NA
0.00999202149995801	B5-03822-P01-CH0	1717456	OK	0.2071596	0.1095775	0.0964135	-0.9673583	140.375	-31.56	-241.164	B5-03822-P02-CH0	1717456	OK	0.7890806	0.3663544	-0.4930884	0	-80.209	-104.135	2.003	B5-03822-P02-CH1	1717456	OK	0.6152403	0.1481491	0.774294	0	-78.11	-84.214	1.161	B5-03822-P03-CH0	1717456	OK	0.7936571	-0.5083624	-0.3341797	0	-90.819	-65.746	3.328	B5-03822-P03-CH1	1717456	OK	0.8117381	-0.5830817	0.0331201	0	-98.555	-32.226	5.01	B5-03822-P04-CH0	1717456	OK	0.7333019	-0.4057187	0.5455828	0	-121.483	-44.038	13.678	B5-03822-P04-CH1	1717456	OK	0.7352519	-0.6747855	0.0637906	0	-108.717	-41.741	-7.057	NA
0.019984042999916	B5-03822-P01-CH0	1717464	OK	0.2073819	0.109407	0.096821	-0.9672893	140.342	-31.562	-241.173	B5-03822-P02-CH0	1717464	OK	0.7873951	0.3610897	-0.499623	0	-81.033	-104.941	2.755	B5-03822-P02-CH1	1717464	OK	0.6108854	0.1513808	0.7771119	0	-78.474	-84.904	2.065	B5-03822-P03-CH0	1717464	OK	0.7982384	-0.504215	-0.329519	0	-90.388	-66.548	3.776	B5-03822-P03-CH1	1717464	OK	0.8119147	-0.5828075	0.0336141	0	-98.466	-32.368	5.131	B5-03822-P04-CH0	1717464	OK	0.7332516	-0.4047756	0.5463505	0	-121.444	-44.225	13.474	B5-03822-P04-CH1	1717464	OK	0.7357836	-0.67419	0.0639558	0	-108.68	-41.78	-7.049	NA
0.029976064499874	B5-03822-P01-CH0	1717472	OK	0.2077274	0.1092132	0.0977648	-0.9671421	140.312	-31.456	-241.192	B5-03822-P02-CH0	1717472	OK	0.7862947	0.3574047	-0.5039867	0	-81.061	-104.963	2.312	B5-03822-P02-CH1	1717472	OK	0.6065615	0.1526459	0.780245	0	-78.856	-85.311	1.156	B5-03822-P03-CH0	1717472	OK	0.8038581	-0.4999065	-0.3223441	0	-91.012	-67.264	4.196	B5-03822-P03-CH1	1717472	OK	0.8124587	-0.5820277	0.0339793	0	-98.353	-32.243	5.018	B5-03822-P04-CH0	1717472	OK	0.7336956	-0.403047	0.5470319	0	-121.441	-44.341	13.788	B5-03822-P04-CH1	1717472	OK	0.736633	-0.6732088	0.0645122	0	-108.793	-41.826	-7.08	NA
0.039968085999832	B5-03822-P01-CH0	1717480	OK	0.2081315	0.109078	0.0984165	-0.9670044	140.32	-31.38	-241.267	B5-03822-P02-CH0	1717480	OK	0.7846143	0.352609	-0.5099483	0	-81.224	-105.839	2.682	B5-03822-P02-CH1	1717480	OK	0.6018706	0.1538502	0.7836338	0	-78.9	-85.482	1.57	B5-03822-P03-CH0	1717480	OK	0.8101833	-0.4960161	-0.3123637	0	-91.231	-67.983	4.394	B5-03822-P03-CH1	1717480	OK	0.8127768	-0.581553	0.034498	0	-98.344	-32.249	5.012	B5-03822-P04-CH0	1717480	OK	0.7341247	-0.3991553	0.549305	0	-121.807	-45.429	14.608	B5-03822-P04-CH1	1717480	OK	0.7373604	-0.6723815	0.0648283	0	-108.81	-41.864	-7.308	NA
0.04996010749979	B5-03822-P01-CH0	1717488	OK	0.208477	0.1088763	0.0989786	-0.9668953	140.295	-31.291	-241.335	B5-03822-P02-CH0	1717488	OK	0.7835704	0.350043	-0.5133102	0	-80.717	-106.185	2	B5-03822-P02-CH1	1717488	OK	0.5974449	0.1532711	0.7871261	0	-79.232	-85.599	1.408	B5-03822-P03-CH0	1717488	OK	0.8162804	-0.4917033	-0.3031734	0	-91.747	-68.578	4.006	B5-03822-P03-CH1	1717488	OK	0.8129899	-0.5812149	0.0351655	0	-98.292	-32.24	4.982	B5-03822-P04-CH0	1717488	OK	0.7340647	-0.3978178	0.5503544	0	-121.818	-45.544	14.362	B5-03822-P04-CH1	1717488	OK	0.7380682	-0.6715384	0.0655098	0	-108.867	-41.92	-7.403	NA
0.059952128999748	B5-03822-P01-CH0	1717496	OK	0.2086436	0.108758	0.0994772	-0.9668215	140.306	-31.164	-241.41	B5-03822-P02-CH0	1717496	OK	0.782072	0.3495906	-0.515897	0	-79.963	-105.982	-0.266	B5-03822-P02-CH1	1717496	OK	0.5924368	0.1535905	0.7908404	0	-79.64	-86.639	1.74	B5-03822-P03-CH0	1717496	OK	0.8224778	-0.486652	-0.2944486	0	-91.789	-69.552	4.215	B5-03822-P03-CH1	1717496	OK	0.8130764	-0.5810712	0.0355388	0	-98.331	-32.203	5.04	B5-03822-P04-CH0	1717496	OK	0.7340169	-0.3968289	0.5511316	0	-121.821	-45.382	14.022	B5-03822-P04-CH1	1717496	OK	0.7385517	-0.6709204	0.0663871	0	-109.01	-42.066	-7.372	NA
0.0699441504997061	B5-03822-P01-CH0	1717504	OK	0.2083487	0.1089698	0.0991849	-0.9668913	140.366	-31.143	-241.372	B5-03822-P02-CH0	1717504	OK	0.7776167	0.3479887	-0.5236564	0	-80.531	-106.791	-0.09	B5-03822-P02-CH1	1717504	OK	0.5895308	0.148552	0.7939683	0	-80.501	-87.437	1.998	B5-03822-P03-CH0	1717504	OK	0.8261336	-0.4791387	-0.2965287	0	-93.284	-70.001	5.154	B5-03822-P03-CH1	1717504	OK	0.8126194	-0.5817047	0.0356289	0	-98.501	-32.276	5.218	B5-03822-P04-CH0	1717504	OK	0.7338282	-0.3949994	0.5526948	0	-122.027	-45.896	14.731	B5-03822-P04-CH1	1717504	OK	0.7384068	-0.6710274	0.0669147	0	-109.276	-42.251	-7.353	NA
0.0799361719996641	B5-03822-P01-CH0	1717512	OK	0.2085849	0.1089889	0.0993856	-0.9668176	140.446	-31.142	-241.392	B5-03822-P02-CH0	1717512	OK	0.773006	0.347707	-0.5306238	0	-80.66	-107.165	-0.707	B5-03822-P02-CH1	1717512	OK	0.585259	0.1463728	0.7975255	0	-80.467	-87.876	1.815	B5-03822-P03-CH0	1717512	OK	0.8296386	-0.4724937	-0.2974046	0	-92.682	-71.025	5.467	B5-03822-P03-CH1	1717512	OK	0.8124632	-0.5818777	0.0363588	0	-98.567	-32.427	5.146	B5-03822-P04-CH0	1717512	OK	0.7338937	-0.3929366	0.5540765	0	-122.498	-46.251	14.201	B5-03822-P04-CH1	1717512	OK	0.7387941	-0.6705269	0.0676538	0	-109.389	-42.356	-7.561	NA
0.0899281934996221	B5-03822-P01-CH0	1717520	OK	0.2086381	0.1087079	0.0994875	-0.9668273	140.408	-31.123	-241.475	B5-03822-P02-CH0	1717520	OK	0.7687365	0.3492786	-0.5357692	0	-80.537	-107.172	-0.345	B5-03822-P02-CH1	1717520	OK	0.5814645	0.1506261	0.7995066	0	-79.937	-87.997	3.16	B5-03822-P03-CH0	1717520	OK	0.8296291	-0.4654712	-0.3083052	0	-92.866	-70.663	4.808	B5-03822-P03-CH1	1717520	OK	0.8123298	-0.5820382	0.0367678	0	-98.583	-32.328	4.926	B5-03822-P04-CH0	1717520	OK	0.7334415	-0.3928018	0.5547706	0	-122.385	-45.999	13.737	B5-03822-P04-CH1	1717520	OK	0.7389646	-0.6702636	0.0683966	0	-109.493	-42.454	-7.677	NA
0.0999202149995801	B5-03822-P01-CH0	1717528	OK	0.2085749	0.1084834	0.0995089	-0.9668639	140.358	-31.111	-241.5	B5-03822-P02-CH0	1717528	OK	0.7665123	0.3499882	-0.538486	0	-79.292	-107.631	-2.016	B5-03822-P02-CH1	1717528	OK	0.5835901	0.1623123	0.7956616	0	-80.468	-87.758	2.158	B5-03822-P03-CH0	1717528	OK	0.8250956	-0.4644513	-0.3217175	0	-92.49	-71.16	5.363	B5-03822-P03-CH1	1717528	OK	0.8121949	-0.5822026	0.0371426	0	-98.559	-32.2	4.778	B5-03822-P04-CH0	1717528	OK	0.7334972	-0.3915027	0.5556146	0	-122.601	-46.027	13.616	B5-03822-P04-CH1	1717528	OK	0.7390613	-0.670076	0.0691847	0	-109.595	-42.509	-7.804	NA
0.109912236499538	B5-03822-P01-CH0	1717536	OK	0.2084527	0.1084325	0.0989578	-0.9669525	140.297	-31.175	-241.415	B5-03822-P02-CH0	1717536	OK	0.7618485	0.3544569	-0.5421689	0	-77.721	-106.619	-4.083	B5-03822-P02-CH1	1717536	OK	0.5893306	0.1874239	0.785851	0	-80.195	-87.133	1.694	B5-03822-P03-CH0	1717536	OK	0.8167419	-0.4625135	-0.344984	0	-92.293	-70.66	4.557	B5-03822-P03-CH1	1717536	OK	0.8116416	-0.5829461	0.0375729	0	-98.518	-32.249	4.665	B5-03822-P04-CH0	1717536	OK	0.7331934	-0.3910889	0.5563065	0	-122.69	-46.039	13.407	B5-03822-P04-CH1	1717536	OK	0.7385147	-0.6705534	0.0703859	0	-109.724	-42.815	-7.794	NA
0.119904257999496	B5-03822-P01-CH0	1717544	OK	0.2084202	0.1084479	0.0990565	-0.9669477	140.284	-31.098	-241.369	B5-03822-P02-CH0	1717544	OK	0.7554998	0.3578106	-0.5488093	0	-76.58	-104.642	-4.907	B5-03822-P02-CH1	1717544	OK	0.5967148	0.221999	0.7711342	0	-78.61	-85.762	0.858	B5-03822-P03-CH0	1717544	OK	0.800179	-0.4539513	-0.3919716	0	-93.081	-68.376	2.132	B5-03822-P03-CH1	1717544	OK	0.8116573	-0.5829092	0.0378066	0	-98.608	-32.008	4.484	B5-03822-P04-CH0	1717544	OK	0.7331687	-0.39144	0.5560921	0	-122.666	-45.665	13.093	B5-03822-P04-CH1	1717544	OK	0.7383325	-0.6706581	0.0712946	0	-109.821	-42.976	-7.765	NA
0.129896279499454	B5-03822-P01-CH0	1717552	OK	0.2080221	0.1082671	0.0984495	-0.9671157	140.158	-31.121	-241.321	B5-03822-P02-CH0	1717552	OK	0.750424	0.3579777	-0.555622	0	-76.099	-103.948	-3.44	B5-03822-P02-CH1	1717552	OK	0.6115207	0.2555557	0.7488216	0	-77.882	-84.586	0.363	B5-03822-P03-CH0	1717552	OK	0.7758837	-0.4464761	-0.445717	0	-90.784	-67.234	0.802	B5-03822-P03-CH1	1717552	OK	0.8110888	-0.5836916	0.0379362	0	-98.553	-32.048	4.57	B5-03822-P04-CH0	1717552	OK	0.7326828	-0.3923909	0.5560623	0	-122.532	-45.506	12.937	B5-03822-P04-CH1	1717552	OK	0.737532	-0.6715239	0.0714296	0	-109.675	-43.083	-7.745	NA
0.139888300999412	B5-03822-P01-CH0	1717560	OK	0.2077917	0.10835	0.0983137	-0.9671697	140.161	-31.122	-241.299	B5-03822-P02-CH0	1717560	OK	0.7481957	0.3631107	-0.5552962	0	-74.237	-102.363	-4.778	B5-03822-P02-CH1	1717560	OK	0.6271324	0.2930916	0.7216663	0	-75.018	-82.066	-0.862	B5-03822-P03-CH0	1717560	OK	0.7518706	-0.437366	-0.4933575	0	-87.738	-65.271	0.071	B5-03822-P03-CH1	1717560	OK	0.8110458	-0.5837529	0.0379109	0	-98.652	-31.95	4.673	B5-03822-P04-CH0	1717560	OK	0.7329139	-0.3935268	0.554954	0	-122.561	-45.121	12.759	B5-03822-P04-CH1	1717560	OK	0.7368495	-0.672237	0.0717651	0	-109.756	-43.375	-7.333	NA
0.14988032249937	B5-03822-P01-CH0	1717568	OK	0.2074239	0.1085534	0.0977152	-0.9672865	140.175	-31.175	-241.232	B5-03822-P02-CH0	1717568	OK	0.7468037	0.3670306	-0.5545924	0	-72.442	-100.136	-5.98	B5-03822-P02-CH1	1717568	OK	0.6487509	0.3219706	0.6895341	0	-73.952	-80.219	-1.755	B5-03822-P03-CH0	1717568	OK	0.7319084	-0.4300227	-0.5285742	0	-86.184	-64.164	-0.19	B5-03822-P03-CH1	1717568	OK	0.8105885	-0.5843857	0.0379422	0	-98.661	-32.013	4.614	B5-03822-P04-CH0	1717568	OK	0.7343911	-0.3979971	0.5497891	0	-122.543	-45.708	14.514	B5-03822-P04-CH1	1717568	OK	0.7359188	-0.6733199	0.0711607	0	-109.803	-43.473	-7.163	NA
0.159872343999328	B5-03822-P01-CH0	1717576	OK	0.2071163	0.1084516	0.0976328	-0.9673722	140.086	-31.196	-241.17	B5-03822-P02-CH0	1717576	OK	0.7454941	0.3718706	-0.5531282	0	-71.521	-98.975	-5.857	B5-03822-P02-CH1	1717576	OK	0.6663207	0.344368	0.6613829	0	-71.867	-77.759	-3.581	B5-03822-P03-CH0	1717576	OK	0.721962	-0.4368549	-0.5365899	0	-86.185	-61.816	0.391	B5-03822-P03-CH1	1717576	OK	0.810641	-0.584321	0.0378179	0	-98.638	-31.888	4.471	B5-03822-P04-CH0	1717576	OK	0.7318759	-0.4045142	0.5483848	0	-121.321	-44.552	11.991	B5-03822-P04-CH1	1717576	OK	0.7352864	-0.6741208	0.0701083	0	-109.742	-43.492	-7.101	NA
0.169864365499286	B5-03822-P01-CH0	1717584	OK	0.2068499	0.1083667	0.0974304	-0.9674591	139.988	-31.159	-241.12	B5-03822-P02-CH0	1717584	OK	0.7441023	0.379488	-0.5498187	0	-71.242	-98.349	-5.399	B5-03822-P02-CH1	1717584	OK	0.6732793	0.3481233	0.6523075	0	-68.938	-79.569	-1	B5-03822-P03-CH0	1717584	OK	0.7188041	-0.4696263	-0.5126128	0	-85.704	-62.406	-1.332	B5-03822-P03-CH1	1717584	OK	0.8106229	-0.5843522	0.0377235	0	-98.489	-31.659	4.159	B5-03822-P04-CH0	1717584	OK	0.7314619	-0.3982138	0.5535244	0	-121.824	-47.945	16.245	B5-03822-P04-CH1	1717584	OK	0.7345814	-0.6750428	0.0686104	0	-109.572	-43.385	-7.075	NA
0.179856386999244	B5-03822-P01-CH0	1717592	OK	0.2065605	0.108197	0.0972965	-0.9675534	139.846	-31.127	-241.095	B5-03822-P02-CH0	1717592	OK	0.742751	0.3863728	-0.5468428	0	-70.918	-97.953	-4.045	B5-03822-P02-CH1	1717592	OK	0.6768662	0.306849	0.6691007	0	-70.905	-76.827	-1.638	B5-03822-P03-CH0	1717592	OK	0.7147726	-0.5010217	-0.4879318	0	-87.091	-59.342	-3.482	B5-03822-P03-CH1	1717592	OK	0.8106297	-0.58435	0.0376118	0	-98.402	-31.564	4.184	B5-03822-P04-CH0	1717592	OK	0.7325677	-0.402097	0.5492382	0	-122.184	-46.546	14.577	B5-03822-P04-CH1	1717592	OK	0.7332142	-0.6777467	0.0552834	0	-108.841	-41.604	-8.242	NA
0.189848408499202	B5-03822-P01-CH0	1717600	OK	0.2063371	0.1085211	0.0968599	-0.9676086	139.897	-31.169	-241.022	B5-03822-P02-CH0	1717600	OK	0.7430615	0.3938024	-0.5410908	0	-70.053	-97.446	-5.424	B5-03822-P02-CH1	1717600	OK	0.678691	0.2755858	0.6807577	0	-71.484	-76.318	-1.729	B5-03822-P03-CH0	1717600	OK	0.7109495	-0.5339989	-0.457598	0	-84.778	-59.392	-2.5	B5-03822-P03-CH1	1717600	OK	0.8103381	-0.584747	0.0377247	0	-98.468	-31.803	4.45	B5-03822-P04-CH0	1717600	OK	0.7311757	-0.4044881	0.5493373	0	-121.848	-46.004	13.007	B5-03822-P04-CH1	1717600	OK	0.7316675	-0.6795011	0.0542295	0	-108.819	-42.589	-7.857	NA
0.19984042999916	B5-03822-P01-CH0	1717608	OK	0.2061938	0.108779	0.096675	-0.9676286	139.975	-31.19	-241.049	B5-03822-P02-CH0	1717608	OK	0.7414677	0.3984758	-0.5398543	0	-70.366	-97.37	-3.787	B5-03822-P02-CH1	1717608	OK	0.6803709	0.2592642	0.6854761	0	-72.164	-75.967	-2.205	B5-03822-P03-CH0	1717608	OK	0.7084082	-0.5639624	-0.424387	0	-84.623	-60.743	-0.842	B5-03822-P03-CH1	1717608	OK	0.8102507	-0.5848805	0.0375308	0	-98.548	-31.896	4.505	B5-03822-P04-CH0	1717608	OK	0.7321202	-0.4025561	0.5494985	0	-121.746	-44.741	13.394	B5-03822-P04-CH1	1717608	OK	0.7328018	-0.6785977	0.0500658	0	-109.468	-41.539	-7.403	NA
0.209832451499118	B5-03822-P01-CH0	1717616	OK	0.2059043	0.1089117	0.0965682	-0.967686	140.016	-31.155	-241.134	B5-03822-P02-CH0	1717616	OK	0.7432536	0.3980899	-0.5376788	0	-70.016	-96.486	-4.29	B5-03822-P02-CH1	1717616	OK	0.6787267	0.2459962	0.6919653	0	-71.185	-75.885	-1.889	B5-03822-P03-CH0	1717616	OK	0.7073322	-0.59288	-0.3849344	0	-86.106	-61.599	-0.22	B5-03822-P03-CH1	1717616	OK	0.8102455	-0.5849121	0.0371489	0	-98.569	-31.806	4.416	B5-03822-P04-CH0	1717616	OK	0.7321451	-0.4032627	0.548947	0	-121.717	-44.898	13.931	B5-03822-P04-CH1	1717616	OK	0.7319361	-0.6796579	0.0483187	0	-108.869	-41.733	-6.932	NA
0.219824472999076	B5-03822-P01-CH0	1717624	OK	0.2053101	0.1089285	0.0958862	-0.9678782	139.972	-31.206	-241.175	B5-03822-P02-CH0	1717624	OK	0.7493462	0.3866406	-0.5375772	0	-70.347	-97.443	-3.325	B5-03822-P02-CH1	1717624	OK	0.6802241	0.2162044	0.7003933	0	-71.85	-75.356	-1.022	B5-03822-P03-CH0	1717624	OK	0.7058665	-0.6171125	-0.3477421	0	-83.294	-58.675	-3.222	B5-03822-P03-CH1	1717624	OK	0.809796	-0.585568	0.0366129	0	-98.495	-31.828	4.488	B5-03822-P04-CH0	1717624	OK	0.7317451	-0.4051139	0.5481166	0	-121.596	-44.678	13.84	B5-03822-P04-CH1	1717624	OK	0.7303314	-0.6811938	0.0509027	0	-108.962	-43.133	-4.356	NA
0.229816494499034	B5-03822-P01-CH0	1717632	OK	0.2050557	0.1091574	0.0955976	-0.9679349	140.02	-31.268	-241.171	B5-03822-P02-CH0	1717632	OK	0.754299	0.3747318	-0.5390817	0	-70.743	-97.944	-3.507	B5-03822-P02-CH1	1717632	OK	0.6815061	0.2030816	0.7030699	0	-72.153	-75.404	-0.999	B5-03822-P03-CH0	1717632	OK	0.7052453	-0.6365898	-0.3120616	0	-84.081	-61.276	0.058	B5-03822-P03-CH1	1717632	OK	0.8096704	-0.5857594	0.0363295	0	-98.574	-31.864	4.45	B5-03822-P04-CH0	1717632	OK	0.7316938	-0.4062342	0.5473554	0	-121.558	-44.517	13.822	B5-03822-P04-CH1	1717632	OK	0.7307622	-0.6803912	0.0552665	0	-109.214	-42.929	-5.942	NA
0.239808515998992	B5-03822-P01-CH0	1717640	OK	0.2047271	0.1091301	0.095499	-0.9680172	139.968	-31.283	-241.164	B5-03822-P02-CH0	1717640	OK	0.7580092	0.3649635	-0.5405772	0	-71.13	-97.662	-2.431	B5-03822-P02-CH1	1717640	OK	0.6819863	0.2044441	0.7022089	0	-71.977	-75.657	-1.219	B5-03822-P03-CH0	1717640	OK	0.7229371	-0.6360266	-0.2698742	0	-86.13	-59.371	-1.829	B5-03822-P03-CH1	1717640	OK	0.8094669	-0.5860444	0.0362672	0	-98.458	-31.976	4.42	B5-03822-P04-CH0	1717640	OK	0.7316525	-0.4063199	0.547347	0	-121.594	-44.547	14.014	B5-03822-P04-CH1	1717640	OK	0.7304086	-0.6809229	0.05336	0	-109.136	-42.798	-5.885	NA
0.24980053749895	B5-03822-P01-CH0	1717648	OK	0.2043872	0.1091569	0.09538	-0.9680978	139.933	-31.273	-241.173	B5-03822-P02-CH0	1717648	OK	0.7636332	0.3571428	-0.5378786	0	-70.909	-96.845	-3.02	B5-03822-P02-CH1	1717648	OK	0.6836804	0.2081061	0.6994805	0	-72.605	-75.627	-0.54	B5-03822-P03-CH0	1717648	OK	0.7388324	-0.6320414	-0.2337742	0	-87.184	-59.424	-2.272	B5-03822-P03-CH1	1717648	OK	0.8093185	-0.5862606	0.0360845	0	-98.481	-32.007	4.487	B5-03822-P04-CH0	1717648	OK	0.7315043	-0.4060655	0.5477338	0	-121.621	-44.598	14.291	B5-03822-P04-CH1	1717648	OK	0.7302441	-0.6812512	0.0513846	0	-109.121	-42.467	-6.043	NA
0.259792558998908	B5-03822-P01-CH0	1717656	OK	0.2042587	0.1092842	0.095281	-0.9681203	139.994	-31.303	-241.214	B5-03822-P02-CH0	1717656	OK	0.7693645	0.3478622	-0.5357893	0	-71.872	-96.89	-2.209	B5-03822-P02-CH1	1717656	OK	0.682965	0.2148244	0.698147	0	-72.235	-75.3	-1.474	B5-03822-P03-CH0	1717656	OK	0.7516989	-0.6282652	-0.2005785	0	-88.181	-60.752	-0.583	B5-03822-P03-CH1	1717656	OK	0.8092313	-0.5863838	0.0360372	0	-98.453	-32.001	4.4	B5-03822-P04-CH0	1717656	OK	0.731521	-0.4057738	0.5479276	0	-121.675	-44.641	14.6	B5-03822-P04-CH1	1717656	OK	0.7299242	-0.6816724	0.0503338	0	-109.145	-42.506	-5.788	NA
0.269784580498866	B5-03822-P01-CH0	1717664	OK	0.2039747	0.1094158	0.0948173	-0.9682108	140.019	-31.38	-241.219	B5-03822-P02-CH0	1717664	OK	0.7767626	0.3354274	-0.5330369	0	-73.29	-97.198	0.074	B5-03822-P02-CH1	1717664	OK	0.6820923	0.2268829	0.6951793	0	-72.025	-75.727	-1.506	B5-03822-P03-CH0	1717664	OK	0.7625664	-0.622904	-0.1745941	0	-87.626	-61.612	-0.367	B5-03822-P03-CH1	1717664	OK	0.8088871	-0.5868689	0.0358695	0	-98.506	-32.168	4.679	B5-03822-P04-CH0	1717664	OK	0.731199	-0.406373	0.5479134	0	-121.719	-44.39	14.09	B5-03822-P04-CH1	1717664	OK	0.7296244	-0.6820695	0.0492892	0	-109.287	-42.276	-5.865	NA
0.279776601998824	B5-03822-P01-CH0	1717672	OK	0.2038146	0.1096627	0.0944229	-0.9682551	140.105	-31.42	-241.24	B5-03822-P02-CH0	1717672	OK	0.7869367	0.3242044	-0.5249972	0	-73.873	-96.973	-0.56	B5-03822-P02-CH1	1717672	OK	0.6796544	0.2478696	0.6903844	0	-72.205	-75.594	-1.009	B5-03822-P03-CH0	1717672	OK	0.7709916	-0.6158151	-0.1623076	0	-88.291	-62.45	1.059	B5-03822-P03-CH1	1717672	OK	0.8086806	-0.5871638	0.0356977	0	-98.556	-32.246	4.925	B5-03822-P04-CH0	1717672	OK	0.7309936	-0.4074308	0.5474016	0	-121.488	-43.855	14.129	B5-03822-P04-CH1	1717672	OK	0.7290794	-0.6826625	0.0491438	0	-109.371	-42.345	-5.598	NA
0.289768623498782	B5-03822-P01-CH0	1717680	OK	0.2035961	0.1093921	0.0944785	-0.9683263	139.979	-31.395	-241.246	B5-03822-P02-CH0	1717680	OK	0.7975767	0.3107902	-0.5169921	0	-75.677	-97.808	2.975	B5-03822-P02-CH1	1717680	OK	0.6709283	0.2840485	0.684961	0	-71.558	-74.238	-2.272	B5-03822-P03-CH0	1717680	OK	0.7776367	-0.6061772	-0.1668242	0	-89.148	-62.358	0.951	B5-03822-P03-CH1	1717680	OK	0.8088473	-0.5869524	0.035397	0	-98.481	-32.026	4.802	B5-03822-P04-CH0	1717680	OK	0.7312559	-0.407354	0.5471084	0	-121.498	-43.581	14.189	B5-03822-P04-CH1	1717680	OK	0.7289316	-0.6828569	0.0486327	0	-109.332	-42.154	-5.538	NA
0.29976064499874	B5-03822-P01-CH0	1717688	OK	0.2035341	0.1092595	0.0946998	-0.9683327	139.931	-31.382	-241.218	B5-03822-P02-CH0	1717688	OK	0.8070738	0.3040493	-0.5061482	0	-77.812	-98.034	5.115	B5-03822-P02-CH1	1717688	OK	0.6576966	0.2942124	0.693451	0	-72.401	-76.545	-0.299	B5-03822-P03-CH0	1717688	OK	0.7816812	-0.594717	-0.187846	0	-88.986	-62.909	1.563	B5-03822-P03-CH1	1717688	OK	0.8090364	-0.5866856	0.0354966	0	-98.45	-32.004	4.747	B5-03822-P04-CH0	1717688	OK	0.7313792	-0.4070835	0.5471449	0	-121.577	-43.557	13.969	B5-03822-P04-CH1	1717688	OK	0.728861	-0.6829525	0.0483478	0	-109.299	-42.049	-5.616	NA
0.309752666498698	B5-03822-P01-CH0	1717696	OK	0.2032369	0.1093453	0.0942946	-0.968425	139.898	-31.466	-241.045	B5-03822-P02-CH0	1717696	OK	0.8162477	0.3008272	-0.4931964	0	-79.391	-98.601	5.715	B5-03822-P02-CH1	1717696	OK	0.6395689	0.2715273	0.7191833	0	-73.808	-77.082	0.472	B5-03822-P03-CH0	1717696	OK	0.7831381	-0.5796223	-0.2252391	0	-88.081	-64.241	1.672	B5-03822-P03-CH1	1717696	OK	0.8089413	-0.5868259	0.0353456	0	-98.427	-31.983	4.671	B5-03822-P04-CH0	1717696	OK	0.7311482	-0.4074293	0.5471962	0	-121.521	-43.4	13.686	B5-03822-P04-CH1	1717696	OK	0.7283876	-0.6835211	0.0474385	0	-109.311	-42.001	-5.704	NA
0.319744687998656	B5-03822-P01-CH0	1717704	OK	0.2035827	0.1093568	0.0949234	-0.9682896	139.963	-31.453	-241.029	B5-03822-P02-CH0	1717704	OK	0.8217859	0.2978636	-0.4857419	0	-81.152	-99.985	6.619	B5-03822-P02-CH1	1717704	OK	0.622779	0.2414722	0.7442026	0	-76.158	-78.696	0.622	B5-03822-P03-CH0	1717704	OK	0.7846211	-0.5544004	-0.2775064	0	-88.454	-64.871	3.029	B5-03822-P03-CH1	1717704	OK	0.8094841	-0.5860597	0.0356304	0	-98.448	-32.066	4.651	B5-03822-P04-CH0	1717704	OK	0.7315638	-0.4063776	0.5474226	0	-121.525	-43.697	14.067	B5-03822-P04-CH1	1717704	OK	0.7284812	-0.6834668	0.0467791	0	-109.314	-42.183	-5.68	NA
0.329736709498614	B5-03822-P01-CH0	1717712	OK	0.2037612	0.1094234	0.0948676	-0.96825	140.017	-31.472	-241.005	B5-03822-P02-CH0	1717712	OK	0.8259914	0.293138	-0.4814649	0	-82.617	-101.605	7.564	B5-03822-P02-CH1	1717712	OK	0.6063838	0.2142727	0.7657584	0	-77.745	-80.221	2.363	B5-03822-P03-CH0	1717712	OK	0.7803624	-0.5235458	-0.3419565	0	-89.709	-64.373	2.393	B5-03822-P03-CH1	1717712	OK	0.8096563	-0.5858024	0.0359484	0	-98.431	-32.126	4.609	B5-03822-P04-CH0	1717712	OK	0.7317822	-0.4064746	0.5470587	0	-121.594	-43.682	13.801	B5-03822-P04-CH1	1717712	OK	0.7271156	-0.6856205	0.0350355	0	-109.202	-43.391	-3.341	NA
0.339728730998572	B5-03822-P01-CH0	1717720	OK	0.2040716	0.1095277	0.0950737	-0.9681526	140.107	-31.428	-241.032	B5-03822-P02-CH0	1717720	OK	0.8274696	0.2903466	-0.4806172	0	-84.22	-102.783	8.622	B5-03822-P02-CH1	1717720	OK	0.5933513	0.1919763	0.7817157	0	-79.134	-81.067	2.438	B5-03822-P03-CH0	1717720	OK	0.7719471	-0.4878548	-0.4075481	0	-89.169	-63.146	0.714	B5-03822-P03-CH1	1717720	OK	0.8100831	-0.5851928	0.0362597	0	-98.591	-32.162	4.925	B5-03822-P04-CH0	1717720	OK	0.7319336	-0.4087926	0.5451254	0	-121.246	-43.091	13.353	B5-03822-P04-CH1	1717720	OK	0.7272452	-0.6858726	0.0263298	0	-108.793	-43.587	-3.136	NA
0.34972075249853	B5-03822-P01-CH0	1717728	OK	0.2044137	0.1090751	0.0958132	-0.9680586	140.027	-31.39	-241.083	B5-03822-P02-CH0	1717728	OK	0.8288278	0.2944677	-0.4757449	0	-84.521	-102.112	8.048	B5-03822-P02-CH1	1717728	OK	0.5812137	0.1734643	0.7950477	0	-79.685	-81.698	3.314	B5-03822-P03-CH0	1717728	OK	0.7617634	-0.4518239	-0.4642969	0	-89.138	-62.456	0.489	B5-03822-P03-CH1	1717728	OK	0.8107636	-0.5842262	0.0366343	0	-98.397	-32.148	5.062	B5-03822-P04-CH0	1717728	OK	0.7343639	-0.4224604	0.5312597	0	-120.252	-42.239	12.796	B5-03822-P04-CH1	1717728	OK	0.7294298	-0.68398	0.0101727	0	-109.297	-42.341	-4.882	NA
0.359712773998488	B5-03822-P01-CH0	1717736	OK	0.204858	0.1088174	0.0962507	-0.9679503	139.969	-31.367	-241.061	B5-03822-P02-CH0	1717736	OK	0.8304955	0.2943411	-0.4729066	0	-84.708	-102.687	7.468	B5-03822-P02-CH1	1717736	OK	0.5698441	0.1586732	0.8062881	0	-80.073	-82.177	4.187	B5-03822-P03-CH0	1717736	OK	0.7573297	-0.4222354	-0.4981656	0	-88.009	-63.258	1.631	B5-03822-P03-CH1	1717736	OK	0.8111766	-0.5836201	0.0371492	0	-98.32	-32.322	5.26	B5-03822-P04-CH0	1717736	OK	0.7331514	-0.4282997	0.5282503	0	-120.171	-44.848	12.99	B5-03822-P04-CH1	1717736	OK	0.7306248	-0.6826915	-0.010946	0	-108.765	-42.262	-5.546	NA
0.369704795498446	B5-03822-P01-CH0	1717744	OK	0.2052456	0.1086291	0.0967976	-0.9678348	139.943	-31.319	-241.088	B5-03822-P02-CH0	1717744	OK	0.8311238	0.291757	-0.4734037	0	-85.091	-103.585	8.519	B5-03822-P02-CH1	1717744	OK	0.5610135	0.1485419	0.8143704	0	-80.771	-82.742	5.091	B5-03822-P03-CH0	1717744	OK	0.7578979	-0.4034635	-0.5126481	0	-88.468	-64.308	2.437	B5-03822-P03-CH1	1717744	OK	0.8117143	-0.5828563	0.0373965	0	-98.204	-32.233	5.213	B5-03822-P04-CH0	1717744	OK	0.7330622	-0.4378241	0.5205093	0	-119.554	-45.298	13.917	B5-03822-P04-CH1	1717744	OK	0.7308978	-0.6818574	-0.0293064	0	-108.736	-44.64	-2.335	NA
0.379696816998404	B5-03822-P01-CH0	1717752	OK	0.2055587	0.1085391	0.0971731	-0.9677408	139.925	-31.298	-241.027	B5-03822-P02-CH0	1717752	OK	0.8309088	0.2913821	-0.4740116	0	-85.365	-103.874	8.345	B5-03822-P02-CH1	1717752	OK	0.554613	0.1393392	0.8203591	0	-81.022	-83.342	4.755	B5-03822-P03-CH0	1717752	OK	0.7604904	-0.390872	-0.51853	0	-89.351	-63.693	0.648	B5-03822-P03-CH1	1717752	OK	0.8121393	-0.5822579	0.0374899	0	-98.215	-32.218	5.224	B5-03822-P04-CH0	1717752	OK	0.7341651	-0.4509722	0.5075685	0	-118.372	-43.103	13.122	B5-03822-P04-CH1	1717752	OK	0.7321924	-0.6795721	-0.0455637	0	-108.475	-45.459	-1.979	NA
0.389688838498362	B5-03822-P01-CH0	1717760	OK	0.2059323	0.1086366	0.0970762	-0.9676602	139.965	-31.305	-240.982	B5-03822-P02-CH0	1717760	OK	0.8301894	0.2917057	-0.4750719	0	-85.252	-104.1	7.586	B5-03822-P02-CH1	1717760	OK	0.5499209	0.1277104	0.8253951	0	-80.833	-83.175	4.563	B5-03822-P03-CH0	1717760	OK	0.7644184	-0.3886896	-0.5143781	0	-89.671	-62.854	-0.211	B5-03822-P03-CH1	1717760	OK	0.812162	-0.5822139	0.0376819	0	-98.172	-32.337	5.286	B5-03822-P04-CH0	1717760	OK	0.7343094	-0.458826	0.5002684	0	-117.54	-42.469	12.275	B5-03822-P04-CH1	1717760	OK	0.7346486	-0.6762057	-0.055111	0	-108.317	-45.691	-2.517	NA
0.39968085999832	B5-03822-P01-CH0	1717768	OK	0.2061021	0.1086307	0.0968494	-0.9676474	139.906	-31.301	-240.868	B5-03822-P02-CH0	1717768	OK	0.8278821	0.2915488	-0.479177	0	-85.195	-104.03	8.369	B5-03822-P02-CH1	1717768	OK	0.5501188	0.1208925	0.8262895	0	-81.188	-83.57	4.885	B5-03822-P03-CH0	1717768	OK	0.769527	-0.3980916	-0.4993509	0	-90.194	-62.369	-0.173	B5-03822-P03-CH1	1717768	OK	0.8121803	-0.5821966	0.0375548	0	-98.077	-32.289	5.355	B5-03822-P04-CH0	1717768	OK	0.7340586	-0.4702035	0.489966	0	-115.797	-39.918	9.841	B5-03822-P04-CH1	1717768	OK	0.7369367	-0.6730139	-0.0630599	0	-108.508	-45.441	-2.632	NA
0.409672881498278	B5-03822-P01-CH0	1717776	OK	0.2063548	0.1086716	0.0970166	-0.9675722	139.925	-31.255	-240.895	B5-03822-P02-CH0	1717776	OK	0.8258539	0.2900067	-0.4835922	0	-85.076	-104.868	7.566	B5-03822-P02-CH1	1717776	OK	0.5525513	0.1169164	0.8252379	0	-81.542	-84.269	4.9	B5-03822-P03-CH0	1717776	OK	0.7784996	-0.4144706	-0.4713305	0	-89.816	-63.637	0.905	B5-03822-P03-CH1	1717776	OK	0.8123545	-0.581958	0.0374834	0	-98.088	-32.308	5.555	B5-03822-P04-CH0	1717776	OK	0.7350831	-0.4808901	0.4779096	0	-114.24	-35.708	7.147	B5-03822-P04-CH1	1717776	OK	0.7374469	-0.6722137	-0.0655809	0	-107.86	-46.806	-1.107	NA
0.419664902998236	B5-03822-P01-CH0	1717784	OK	0.2060887	0.1086186	0.0965104	-0.9676855	139.845	-31.298	-240.862	B5-03822-P02-CH0	1717784	OK	0.8237007	0.294192	-0.4847352	0	-84.172	-104.088	5.579	B5-03822-P02-CH1	1717784	OK	0.5539835	0.1130134	0.8248213	0	-81.261	-84.497	5.507	B5-03822-P03-CH0	1717784	OK	0.7887434	-0.4295709	-0.4397189	0	-89.32	-65.029	2.43	B5-03822-P03-CH1	1717784	OK	0.8121369	-0.5822939	0.0369806	0	-97.952	-32.121	5.305	B5-03822-P04-CH0	1717784	OK	0.7349651	-0.4674862	0.4912056	0	-116.485	-42.59	14.455	B5-03822-P04-CH1	1717784	OK	0.7381464	-0.6711767	-0.068277	0	-107.876	-46.713	-1.482	NA
0.429656924498194	B5-03822-P01-CH0	1717792	OK	0.2060802	0.1086802	0.0967121	-0.9676602	139.839	-31.246	-240.862	B5-03822-P02-CH0	1717792	OK	0.8196461	0.2958492	-0.4905646	0	-84.195	-104.189	5.095	B5-03822-P02-CH1	1717792	OK	0.555584	0.1126674	0.8237915	0	-81.395	-84.734	4.714	B5-03822-P03-CH0	1717792	OK	0.7978159	-0.4418653	-0.4101766	0	-90.191	-65.771	3.423	B5-03822-P03-CH1	1717792	OK	0.8122457	-0.5821627	0.0366536	0	-97.951	-32.113	5.542	B5-03822-P04-CH0	1717792	OK	0.7350436	-0.464791	0.4936398	0	-117.629	-43.462	11.595	B5-03822-P04-CH1	1717792	OK	0.7394967	-0.6695079	-0.0700266	0	-107.965	-45.757	-2.726	NA
0.439648945998152	B5-03822-P01-CH0	1717800	OK	0.2060687	0.1086782	0.0965287	-0.9676812	139.756	-31.238	-240.692	B5-03822-P02-CH0	1717800	OK	0.8161401	0.2950645	-0.4968423	0	-84.347	-105.015	5.937	B5-03822-P02-CH1	1717800	OK	0.5556876	0.1123087	0.8237706	0	-81.146	-84.833	4.618	B5-03822-P03-CH0	1717800	OK	0.8052356	-0.4527348	-0.3829188	0	-90.261	-66.158	3.553	B5-03822-P03-CH1	1717800	OK	0.8120612	-0.582425	0.0365752	0	-97.897	-32.15	5.481	B5-03822-P04-CH0	1717800	OK	0.7358651	-0.4765115	0.4810814	0	-114.55	-35.463	5.84	B5-03822-P04-CH1	1717800	OK	0.7390093	-0.6703339	-0.0672138	0	-107.625	-46.279	-2.338	NA
0.44964096749811	B5-03822-P01-CH0	1717808	OK	0.2061197	0.1089543	0.0961438	-0.9676776	139.802	-31.272	-240.621	B5-03822-P02-CH0	1717808	OK	0.8147705	0.2986409	-0.4969534	0	-83.706	-104.858	5.161	B5-03822-P02-CH1	1717808	OK	0.5551705	0.1095679	0.8244881	0	-80.749	-84.978	4.692	B5-03822-P03-CH0	1717808	OK	0.8094867	-0.4608055	-0.3638537	0	-91.111	-66.378	4.119	B5-03822-P03-CH1	1717808	OK	0.811875	-0.5826858	0.0365552	0	-97.947	-32.132	5.284	B5-03822-P04-CH0	1717808	OK	0.7345936	-0.4557099	0.5026934	0	-116.94	-42.81	11.791	B5-03822-P04-CH1	1717808	OK	0.7382764	-0.6715543	-0.0629509	0	-107.688	-46.531	-2.304	NA
0.459632988998068	B5-03822-P01-CH0	1717816	OK	0.2056432	0.1094699	0.0949687	-0.9678368	139.87	-31.352	-240.508	B5-03822-P02-CH0	1717816	OK	0.8130537	0.2981937	-0.5000243	0	-84.232	-105.362	6.555	B5-03822-P02-CH1	1717816	OK	0.5590256	0.1092616	0.8219199	0	-81.617	-85.618	4.85	B5-03822-P03-CH0	1717816	OK	0.8130943	-0.4683403	-0.3457384	0	-90.129	-67.544	5.084	B5-03822-P03-CH1	1717816	OK	0.8112472	-0.5835878	0.036102	0	-98.065	-32.058	5.241	B5-03822-P04-CH0	1717816	OK	0.7360982	-0.4377898	0.5162359	0	-119.232	-45.127	13.704	B5-03822-P04-CH1	1717816	OK	0.7370719	-0.6733597	-0.0575481	0	-108.703	-46.336	-2.514	NA
0.469625010498026	B5-03822-P01-CH0	1717824	OK	0.2055233	0.109647	0.0947795	-0.9678608	139.879	-31.321	-240.398	B5-03822-P02-CH0	1717824	OK	0.8115956	0.298385	-0.5022737	0	-84.718	-105.744	6.419	B5-03822-P02-CH1	1717824	OK	0.5607	0.1065548	0.8211343	0	-81.133	-85.474	4.76	B5-03822-P03-CH0	1717824	OK	0.8144873	-0.4718192	-0.3376345	0	-90.734	-67.644	4.699	B5-03822-P03-CH1	1717824	OK	0.8111797	-0.5836853	0.036041	0	-98.063	-32.034	5.222	B5-03822-P04-CH0	1717824	OK	0.7367465	-0.4327111	0.5195822	0	-118.669	-41.507	11.593	B5-03822-P04-CH1	1717824	OK	0.7353812	-0.675942	-0.0481333	0	-108.65	-46.301	-2.564	NA
0.479617031997984	B5-03822-P01-CH0	1717832	OK	0.2055606	0.1098337	0.094525	-0.9678566	139.919	-31.308	-240.366	B5-03822-P02-CH0	1717832	OK	0.8120644	0.2998564	-0.5006371	0	-84.337	-105.677	6.175	B5-03822-P02-CH1	1717832	OK	0.5641466	0.1063913	0.8187915	0	-80.842	-85.827	4.674	B5-03822-P03-CH0	1717832	OK	0.8136631	-0.4749665	-0.3352001	0	-90.934	-67.321	3.41	B5-03822-P03-CH1	1717832	OK	0.8110702	-0.5838094	0.0364916	0	-98.043	-32.135	5.23	B5-03822-P04-CH0	1717832	OK	0.7355352	-0.4120688	0.5377613	0	-120.409	-46.266	14.711	B5-03822-P04-CH1	1717832	OK	0.7336618	-0.6787294	-0.0326615	0	-108.955	-46.141	-3.055	NA
0.489609053497942	B5-03822-P01-CH0	1717840	OK	0.2054692	0.1099833	0.0948648	-0.9678258	139.979	-31.253	-240.358	B5-03822-P02-CH0	1717840	OK	0.8125992	0.3045243	-0.4969382	0	-83.679	-104.936	5.073	B5-03822-P02-CH1	1717840	OK	0.5679908	0.1051128	0.8162951	0	-80.956	-85.802	3.905	B5-03822-P03-CH0	1717840	OK	0.8099836	-0.4806982	-0.3359403	0	-90.816	-67.67	3.946	B5-03822-P03-CH1	1717840	OK	0.811453	-0.5832651	0.0366852	0	-98.075	-32.086	5.26	B5-03822-P04-CH0	1717840	OK	0.7341026	-0.4097002	0.5415155	0	-119.507	-43.54	12.455	B5-03822-P04-CH1	1717840	OK	0.731938	-0.6813063	-0.0094109	0	-108.458	-46.463	-2.511	NA
0.4996010749979	B5-03822-P01-CH0	1717848	OK	0.2053953	0.1099362	0.0951377	-0.96782	140.021	-31.237	-240.474	B5-03822-P02-CH0	1717848	OK	0.8119476	0.3061443	-0.4970078	0	-84.06	-105.774	5.718	B5-03822-P02-CH1	1717848	OK	0.572673	0.1047449	0.8130647	0	-80.886	-85.568	3.912	B5-03822-P03-CH0	1717848	OK	0.8052513	-0.4839257	-0.3426168	0	-90.138	-67.912	3.757	B5-03822-P03-CH1	1717848	OK	0.8117435	-0.5828325	0.0371307	0	-98.042	-32.108	5.191	B5-03822-P04-CH0	1717848	OK	0.7336666	-0.4013589	0.5483104	0	-119.894	-42.488	11.621	B5-03822-P04-CH1	1717848	OK	0.7320967	-0.6810447	0.0145771	0	-109.003	-44.508	-5.282	NA
0.509593096497858	B5-03822-P01-CH0	1717856	OK	0.2056007	0.109826	0.0955463	-0.9677487	140.029	-31.195	-240.516	B5-03822-P02-CH0	1717856	OK	0.8112993	0.3087358	-0.4964632	0	-84.391	-106.147	7.184	B5-03822-P02-CH1	1717856	OK	0.5773397	0.1103414	0.809014	0	-80.277	-85.41	3.296	B5-03822-P03-CH0	1717856	OK	0.7980412	-0.4814799	-0.3623636	0	-89.515	-67.107	2.819	B5-03822-P03-CH1	1717856	OK	0.8121127	-0.582265	0.0379526	0	-97.991	-32.22	5.257	B5-03822-P04-CH0	1717856	OK	0.7340798	-0.3825993	0.5610211	0	-121.965	-46.278	13.496	B5-03822-P04-CH1	1717856	OK	0.7324291	-0.6797589	0.038412	0	-108.973	-43.188	-6.679	NA
0.519585117997816	B5-03822-P01-CH0	1717864	OK	0.2059451	0.110103	0.0958524	-0.9676137	140.154	-31.079	-240.497	B5-03822-P02-CH0	1717864	OK	0.8130401	0.3126277	-0.4911515	0	-83.965	-105.301	6.282	B5-03822-P02-CH1	1717864	OK	0.582933	0.1140603	0.8044746	0	-79.685	-84.802	2.838	B5-03822-P03-CH0	1717864	OK	0.786058	-0.4789052	-0.3908486	0	-89.168	-66.694	2.705	B5-03822-P03-CH1	1717864	OK	0.8123661	-0.5818408	0.0390204	0	-98.187	-32.502	5.75	B5-03822-P04-CH0	1717864	OK	0.7337713	-0.3820045	0.5618294	0	-121.35	-44.078	11.202	B5-03822-P04-CH1	1717864	OK	0.7331049	-0.6775787	0.0586889	0	-109.216	-42.641	-6.341	NA
0.529577139497774	B5-03822-P01-CH0	1717872	OK	0.2060949	0.1100418	0.0956171	-0.9676121	140.168	-31.083	-240.539	B5-03822-P02-CH0	1717872	OK	0.8144978	0.3099905	-0.4904072	0	-84.924	-105.855	7.693	B5-03822-P02-CH1	1717872	OK	0.5902807	0.1167483	0.7987105	0	-79.699	-84.677	2.084	B5-03822-P03-CH0	1717872	OK	0.7717881	-0.475949	-0.4216821	0	-88.373	-65.331	1.148	B5-03822-P03-CH1	1717872	OK	0.8123697	-0.5817735	0.0399389	0	-98.185	-32.601	5.864	B5-03822-P04-CH0	1717872	OK	0.7346397	-0.3819224	0.5607493	0	-121.604	-42.162	9.647	B5-03822-P04-CH1	1717872	OK	0.7324845	-0.6764303	0.0768676	0	-109.193	-43.178	-5.563	NA
0.539569160997732	B5-03822-P01-CH0	1717880	OK	0.2061833	0.1099224	0.0956662	-0.9676019	140.179	-31.041	-240.625	B5-03822-P02-CH0	1717880	OK	0.8186029	0.3146515	-0.4805037	0	-84.624	-104.466	6.883	B5-03822-P02-CH1	1717880	OK	0.5937554	0.1162551	0.796203	0	-78.84	-84.24	2.679	B5-03822-P03-CH0	1717880	OK	0.7552106	-0.4733587	-0.4534188	0	-87.05	-65.032	0.266	B5-03822-P03-CH1	1717880	OK	0.8124803	-0.5815815	0.0404818	0	-98.117	-32.511	5.571	B5-03822-P04-CH0	1717880	OK	0.7367968	-0.3654842	0.5688161	0	-123.939	-47.867	15.331	B5-03822-P04-CH1	1717880	OK	0.7332225	-0.6747444	0.0842898	0	-108.44	-41.441	-8.74	NA
0.54956118249769	B5-03822-P01-CH0	1717888	OK	0.206143	0.1098726	0.0957126	-0.9676116	140.202	-30.978	-240.663	B5-03822-P02-CH0	1717888	OK	0.8223759	0.3100953	-0.4770103	0	-85.123	-105.094	9.552	B5-03822-P02-CH1	1717888	OK	0.5990542	0.1156414	0.7923138	0	-79.104	-83.841	2.38	B5-03822-P03-CH0	1717888	OK	0.7384841	-0.4643669	-0.488881	0	-86.642	-63.116	-1.231	B5-03822-P03-CH1	1717888	OK	0.8125396	-0.5814818	0.0407213	0	-98.16	-32.594	5.856	B5-03822-P04-CH0	1717888	OK	0.7369648	-0.3693373	0.5661032	0	-123.445	-45.55	13.629	B5-03822-P04-CH1	1717888	OK	0.7348049	-0.6722422	0.0902899	0	-108.597	-40.062	-9.215	NA
0.559553203997648	B5-03822-P01-CH0	1717896	OK	0.2066601	0.1094601	0.0969738	-0.9674224	140.199	-30.853	-240.769	B5-03822-P02-CH0	1717896	OK	0.8251954	0.3102468	-0.4720163	0	-84.733	-104.263	9.519	B5-03822-P02-CH1	1717896	OK	0.603451	0.114612	0.7891203	0	-78.428	-83.213	1.599	B5-03822-P03-CH0	1717896	OK	0.7248539	-0.462156	-0.5108803	0	-85.734	-62.134	-0.74	B5-03822-P03-CH1	1717896	OK	0.8133078	-0.5803709	0.0412323	0	-98.095	-32.664	5.952	B5-03822-P04-CH0	1717896	OK	0.7357632	-0.3685585	0.56817	0	-122.588	-44.587	12.091	B5-03822-P04-CH1	1717896	OK	0.7356195	-0.6704834	0.0965197	0	-108.952	-40.673	-8.045	NA
0.569545225497606	B5-03822-P01-CH0	1717904	OK	0.206882	0.1095573	0.0971549	-0.9673458	140.292	-30.819	-240.746	B5-03822-P02-CH0	1717904	OK	0.8263682	0.3118603	-0.468891	0	-84.192	-103.288	8.244	B5-03822-P02-CH1	1717904	OK	0.6110205	0.1199795	0.7824697	0	-77.833	-83.111	1.088	B5-03822-P03-CH0	1717904	OK	0.7171367	-0.4708814	-0.5137953	0	-84.035	-62.701	0.201	B5-03822-P03-CH1	1717904	OK	0.8134016	-0.5802274	0.0414013	0	-98.283	-32.857	6.226	B5-03822-P04-CH0	1717904	OK	0.7346343	-0.3639519	0.5725831	0	-121.938	-44.24	12.499	B5-03822-P04-CH1	1717904	OK	0.736402	-0.6695047	0.0973426	0	-108.581	-40.557	-9.203	NA
0.579537246997564	B5-03822-P01-CH0	1717912	OK	0.2068272	0.1094632	0.0969994	-0.9673838	140.29	-30.827	-240.776	B5-03822-P02-CH0	1717912	OK	0.8244927	0.3113476	-0.4725193	0	-84.379	-103.082	7.778	B5-03822-P02-CH1	1717912	OK	0.6177141	0.1257862	0.7762777	0	-76.624	-83.055	0.172	B5-03822-P03-CH0	1717912	OK	0.7116415	-0.4785657	-0.5143358	0	-83.511	-62.14	-1.118	B5-03822-P03-CH1	1717912	OK	0.8132031	-0.5805376	0.0409486	0	-98.225	-32.794	6.028	B5-03822-P04-CH0	1717912	OK	0.7341541	-0.357837	0.5770359	0	-122.846	-44.571	11.312	B5-03822-P04-CH1	1717912	OK	0.7388384	-0.6673825	0.0933726	0	-108.988	-39.231	-9.605	NA
0.589529268497522	B5-03822-P01-CH0	1717920	OK	0.2070552	0.1092952	0.0972662	-0.9673272	140.296	-30.763	-240.892	B5-03822-P02-CH0	1717920	OK	0.8220358	0.3121323	-0.4762673	0	-84.093	-102.908	7.984	B5-03822-P02-CH1	1717920	OK	0.6269012	0.1286192	0.7684088	0	-76.575	-82.719	0.192	B5-03822-P03-CH0	1717920	OK	0.705301	-0.4885653	-0.5136676	0	-82.832	-63.403	0.104	B5-03822-P03-CH1	1717920	OK	0.8131646	-0.5806155	0.0406081	0	-98.129	-32.8	6.016	B5-03822-P04-CH0	1717920	OK	0.7347588	-0.3542924	0.5784518	0	-123.107	-43.664	11.398	B5-03822-P04-CH1	1717920	OK	0.7396582	-0.6669654	0.0897936	0	-108.57	-39.24	-10.587	NA
0.59952128999748	B5-03822-P01-CH0	1717928	OK	0.2070666	0.1093589	0.0970818	-0.9673361	140.285	-30.711	-240.819	B5-03822-P02-CH0	1717928	OK	0.8195898	0.3156657	-0.4781504	0	-83.271	-101.846	7.956	B5-03822-P02-CH1	1717928	OK	0.633305	0.1329553	0.762396	0	-75.603	-81.932	0.479	B5-03822-P03-CH0	1717928	OK	0.6998235	-0.5016466	-0.5085251	0	-81.947	-64.351	1.139	B5-03822-P03-CH1	1717928	OK	0.8128664	-0.5810893	0.039793	0	-98.145	-32.836	6.272	B5-03822-P04-CH0	1717928	OK	0.7326048	-0.35605	0.5801023	0	-121.189	-42.183	12.661	B5-03822-P04-CH1	1717928	OK	0.7389274	-0.667848	0.0892483	0	-108.297	-41.215	-7.588	NA
0.609513311497438	B5-03822-P01-CH0	1717936	OK	0.2070794	0.109277	0.0972547	-0.9673253	140.257	-30.665	-240.817	B5-03822-P02-CH0	1717936	OK	0.8162448	0.3169313	-0.4830104	0	-82.811	-101.534	7.309	B5-03822-P02-CH1	1717936	OK	0.6391761	0.1399185	0.7562253	0	-74.851	-81.74	-0.691	B5-03822-P03-CH0	1717936	OK	0.6968981	-0.5123085	-0.5018696	0	-81.468	-63.816	0.133	B5-03822-P03-CH1	1717936	OK	0.8127752	-0.5812939	0.0386501	0	-98.17	-32.768	6.291	B5-03822-P04-CH0	1717936	OK	0.7331295	-0.3516172	0.5821396	0	-121.77	-43.046	12.289	B5-03822-P04-CH1	1717936	OK	0.7399185	-0.6673802	0.0844052	0	-108.301	-40.78	-7.923	NA
0.619505332997397	B5-03822-P01-CH0	1717944	OK	0.2069968	0.1091535	0.09725	-0.9673574	140.189	-30.657	-240.87	B5-03822-P02-CH0	1717944	OK	0.8138842	0.3175806	-0.4865543	0	-81.828	-101.186	6.497	B5-03822-P02-CH1	1717944	OK	0.6423287	0.1469265	0.7522144	0	-74.326	-81.748	0.103	B5-03822-P03-CH0	1717944	OK	0.6964389	-0.5178185	-0.4968268	0	-81.534	-62.72	-1.108	B5-03822-P03-CH1	1717944	OK	0.8125389	-0.5817097	0.0373419	0	-98.085	-32.691	6.204	B5-03822-P04-CH0	1717944	OK	0.7330572	-0.3535707	0.5810463	0	-121.066	-41.882	11.784	B5-03822-P04-CH1	1717944	OK	0.740471	-0.6674306	0.0789884	0	-108.462	-40.105	-7.913	NA
0.629497354497354	B5-03822-P01-CH0	1717952	OK	0.2069107	0.1090791	0.0974115	-0.9673679	140.171	-30.669	-240.866	B5-03822-P02-CH0	1717952	OK	0.8107063	0.3145009	-0.4938061	0	-81.477	-101.451	6.559	B5-03822-P02-CH1	1717952	OK	0.6444589	0.1502973	0.7497223	0	-74.829	-81.964	-0.509	B5-03822-P03-CH0	1717952	OK	0.6978044	-0.5174243	-0.4953192	0	-81.612	-62.891	-1.013	B5-03822-P03-CH1	1717952	OK	0.8124883	-0.5818792	0.0357683	0	-98.069	-32.669	6.158	B5-03822-P04-CH0	1717952	OK	0.733536	-0.3543065	0.579993	0	-120.94	-41.216	12.079	B5-03822-P04-CH1	1717952	OK	0.7410097	-0.6676691	0.0715722	0	-108	-38.451	-10.696	NA
0.639489375997312	B5-03822-P01-CH0	1717960	OK	0.2068407	0.1093086	0.0972346	-0.9673748	140.219	-30.712	-240.849	B5-03822-P02-CH0	1717960	OK	0.8073381	0.3108658	-0.5015652	0	-81.354	-101.576	5.414	B5-03822-P02-CH1	1717960	OK	0.6433749	0.1501431	0.7506835	0	-74.405	-81.72	-1.59	B5-03822-P03-CH0	1717960	OK	0.7003785	-0.5149843	-0.4942278	0	-81.972	-63.202	-0.106	B5-03822-P03-CH1	1717960	OK	0.8123293	-0.5822053	0.0340303	0	-98.075	-32.626	6.215	B5-03822-P04-CH0	1717960	OK	0.7330258	-0.3508925	0.5827071	0	-121.102	-43.178	13.534	B5-03822-P04-CH1	1717960	OK	0.7381218	-0.6705312	0.0745931	0	-108.308	-41.723	-5.495	NA
0.649481397497271	B5-03822-P01-CH0	1717968	OK	0.2066891	0.109393	0.0968666	-0.9674346	140.15	-30.752	-240.782	B5-03822-P02-CH0	1717968	OK	0.8038945	0.3051612	-0.5105196	0	-81.188	-101.819	4.918	B5-03822-P02-CH1	1717968	OK	0.6432877	0.1513525	0.7505154	0	-74.706	-82.807	-0.889	B5-03822-P03-CH0	1717968	OK	0.7049152	-0.5102886	-0.4926461	0	-82.589	-62.432	-1.936	B5-03822-P03-CH1	1717968	OK	0.8120228	-0.5827261	0.0323915	0	-97.996	-32.539	6.154	B5-03822-P04-CH0	1717968	OK	0.7337215	-0.3456707	0.5849483	0	-122.259	-44.265	14.14	B5-03822-P04-CH1	1717968	OK	0.7379689	-0.6713115	0.0688677	0	-108.23	-41.093	-5.951	NA
0.659473418997228	B5-03822-P01-CH0	1717976	OK	0.2064871	0.1094624	0.0964689	-0.9675096	140.078	-30.778	-240.757	B5-03822-P02-CH0	1717976	OK	0.8013084	0.2990453	-0.5181475	0	-80.37	-101.612	3.885	B5-03822-P02-CH1	1717976	OK	0.6426959	0.1495789	0.7513775	0	-74.892	-82.853	-0.812	B5-03822-P03-CH0	1717976	OK	0.7105175	-0.5074199	-0.4875345	0	-83.214	-62.571	-1.772	B5-03822-P03-CH1	1717976	OK	0.8116251	-0.5833605	0.0309064	0	-97.982	-32.578	6.245	B5-03822-P04-CH0	1717976	OK	0.7317039	-0.3519739	0.5837155	0	-121.23	-42.184	12.328	B5-03822-P04-CH1	1717976	OK	0.7386917	-0.6711803	0.0620614	0	-108.5	-39.872	-7.762	NA
0.669465440497186	B5-03822-P01-CH0	1717984	OK	0.2062804	0.1094053	0.0963022	-0.9675768	139.975	-30.828	-240.731	B5-03822-P02-CH0	1717984	OK	0.7976606	0.2946435	-0.5262346	0	-79.764	-101.373	4.072	B5-03822-P02-CH1	1717984	OK	0.6414747	0.149856	0.7523652	0	-74.743	-82.73	-0.839	B5-03822-P03-CH0	1717984	OK	0.7193589	-0.5039318	-0.4780957	0	-81.856	-63.904	-1.338	B5-03822-P03-CH1	1717984	OK	0.8114744	-0.5836497	0.0293657	0	-97.752	-32.365	5.797	B5-03822-P04-CH0	1717984	OK	0.7328875	-0.3511919	0.5827008	0	-121.943	-43.299	12.491	B5-03822-P04-CH1	1717984	OK	0.738523	-0.6716848	0.058509	0	-108.198	-39.869	-8.234	NA
0.679457461997145	B5-03822-P01-CH0	1717992	OK	0.2062268	0.1094899	0.0965388	-0.967555	139.951	-30.812	-240.699	B5-03822-P02-CH0	1717992	OK	0.7937635	0.292792	-0.5331157	0	-79.126	-101.078	1.847	B5-03822-P02-CH1	1717992	OK	0.641269	0.1481514	0.752878	0	-74.964	-83.096	-0.959	B5-03822-P03-CH0	1717992	OK	0.7278537	-0.4974847	-0.4719513	0	-83.774	-63.853	-1.903	B5-03822-P03-CH1	1717992	OK	0.8115845	-0.5835544	0.0281938	0	-97.785	-32.319	5.857	B5-03822-P04-CH0	1717992	OK	0.7326656	-0.3511576	0.5830004	0	-121.773	-42.98	12.511	B5-03822-P04-CH1	1717992	OK	0.7387018	-0.6716548	0.0565647	0	-108.534	-40.433	-6.909	NA
0.689449483497103	B5-03822-P01-CH0	1718000	OK	0.2060184	0.1095521	0.0960149	-0.9676445	139.891	-30.898	-240.61	B5-03822-P02-CH0	1718000	OK	0.7895624	0.2880965	-0.541841	0	-78.992	-101.996	1.069	B5-03822-P02-CH1	1718000	OK	0.6409494	0.1470056	0.7533746	0	-75.345	-83.605	-0.756	B5-03822-P03-CH0	1718000	OK	0.7356121	-0.4882386	-0.4695721	0	-83.635	-64.433	-0.957	B5-03822-P03-CH1	1718000	OK	0.8112229	-0.5840999	0.0272891	0	-97.832	-32.377	5.869	B5-03822-P04-CH0	1718000	OK	0.7320126	-0.3521607	0.5832156	0	-121.527	-42.702	12.448	B5-03822-P04-CH1	1718000	OK	0.7377358	-0.6730078	0.052975	0	-108.101	-40.547	-8.009	NA
0.69944150499706	B5-03822-P01-CH0	1718008	OK	0.2061599	0.1094062	0.0962857	-0.967604	139.836	-30.924	-240.636	B5-03822-P02-CH0	1718008	OK	0.7858331	0.2871705	-0.5477221	0	-78.43	-102.179	0.065	B5-03822-P02-CH1	1718008	OK	0.6385636	0.1458901	0.7556141	0	-74.908	-83.515	-1.108	B5-03822-P03-CH0	1718008	OK	0.7378034	-0.4765523	-0.4780629	0	-84.809	-64.565	-1.377	B5-03822-P03-CH1	1718008	OK	0.8114476	-0.5838078	0.0268552	0	-97.745	-32.267	5.654	B5-03822-P04-CH0	1718008	OK	0.7317118	-0.3524071	0.5834442	0	-121.441	-42.813	12.332	B5-03822-P04-CH1	1718008	OK	0.7375615	-0.6731727	0.0533063	0	-108.359	-41.496	-5.97	NA
0.709433526497019	B5-03822-P01-CH0	1718016	OK	0.2061318	0.1096961	0.0957091	-0.9676343	139.895	-30.968	-240.568	B5-03822-P02-CH0	1718016	OK	0.7824205	0.2854282	-0.5534879	0	-78.23	-102.461	0.568	B5-03822-P02-CH1	1718016	OK	0.6353779	0.1491484	0.7576607	0	-74.822	-84.098	0.039	B5-03822-P03-CH0	1718016	OK	0.7382634	-0.4606391	-0.4927259	0	-84.048	-65.124	-1.168	B5-03822-P03-CH1	1718016	OK	0.8110745	-0.584335	0.0266606	0	-97.778	-32.356	5.665	B5-03822-P04-CH0	1718016	OK	0.7312197	-0.3537875	0.5832257	0	-121.391	-42.698	12.359	B5-03822-P04-CH1	1718016	OK	0.7372066	-0.673746	0.050919	0	-108.675	-41.024	-6.256	NA
0.719425547996977	B5-03822-P01-CH0	1718024	OK	0.2060478	0.1096932	0.0955804	-0.9676653	139.85	-30.975	-240.495	B5-03822-P02-CH0	1718024	OK	0.7801433	0.2824946	-0.5581874	0	-78.012	-102.696	0.251	B5-03822-P02-CH1	1718024	OK	0.6310724	0.1527535	0.7605353	0	-75.464	-84.346	0.132	B5-03822-P03-CH0	1718024	OK	0.7375892	-0.4388386	-0.5132085	0	-84.151	-64.945	-0.748	B5-03822-P03-CH1	1718024	OK	0.8109953	-0.5844507	0.0265332	0	-97.814	-32.386	5.851	B5-03822-P04-CH0	1718024	OK	0.7304172	-0.3569572	0.5822992	0	-121.821	-45.15	15.851	B5-03822-P04-CH1	1718024	OK	0.7355062	-0.6755564	0.0515183	0	-108.943	-42.073	-5.17	NA
0.729417569496935	B5-03822-P01-CH0	1718032	OK	0.2059371	0.1099316	0.0952614	-0.9676932	139.855	-30.998	-240.398	B5-03822-P02-CH0	1718032	OK	0.7783304	0.2777483	-0.5630787	0	-77.644	-102.525	-0.653	B5-03822-P02-CH1	1718032	OK	0.6259736	0.1570291	0.763871	0	-76.585	-84.69	0.562	B5-03822-P03-CH0	1718032	OK	0.7369612	-0.4133686	-0.5348033	0	-85.203	-64.822	-0.881	B5-03822-P03-CH1	1718032	OK	0.810739	-0.5848164	0.0263057	0	-97.775	-32.226	5.474	B5-03822-P04-CH0	1718032	OK	0.7302772	-0.3619906	0.5793601	0	-121.501	-45.01	15.86	B5-03822-P04-CH1	1718032	OK	0.7347551	-0.6766268	0.0480737	0	-108.246	-41.605	-5.713	NA
0.739409590996893	B5-03822-P01-CH0	1718040	OK	0.2058756	0.1096916	0.0952625	-0.9677335	139.756	-31.035	-240.367	B5-03822-P02-CH0	1718040	OK	0.7753942	0.2712528	-0.5702507	0	-77.755	-102.515	-0.131	B5-03822-P02-CH1	1718040	OK	0.6173079	0.1638668	0.7694664	0	-77.168	-85.162	0.082	B5-03822-P03-CH0	1718040	OK	0.7403291	-0.3856195	-0.5506454	0	-86.05	-64.645	-0.793	B5-03822-P03-CH1	1718040	OK	0.8105457	-0.585068	0.0266663	0	-97.715	-32.34	5.48	B5-03822-P04-CH0	1718040	OK	0.7283408	-0.3706664	0.5763039	0	-119.912	-43.879	15.401	B5-03822-P04-CH1	1718040	OK	0.7336525	-0.6779933	0.0455972	0	-108.815	-42.274	-5.067	NA
0.749401612496851	B5-03822-P01-CH0	1718048	OK	0.2058579	0.1098306	0.095087	-0.9677387	139.795	-31.055	-240.297	B5-03822-P02-CH0	1718048	OK	0.7730812	0.2632452	-0.5771026	0	-77.543	-102.73	-1.044	B5-03822-P02-CH1	1718048	OK	0.6080219	0.171174	0.7752476	0	-77.694	-85.537	0.462	B5-03822-P03-CH0	1718048	OK	0.7453919	-0.3635415	-0.558774	0	-87.745	-64.496	0.016	B5-03822-P03-CH1	1718048	OK	0.8103605	-0.5853183	0.0268026	0	-97.872	-32.302	5.354	B5-03822-P04-CH0	1718048	OK	0.7287979	-0.372714	0.5744022	0	-120.853	-43.279	13.3	B5-03822-P04-CH1	1718048	OK	0.7324246	-0.6796153	0.0409534	0	-109.024	-43.107	-4.81	NA
0.759393633996809	B5-03822-P01-CH0	1718056	OK	0.2056729	0.1101331	0.0945836	-0.967793	139.891	-31.098	-240.233	B5-03822-P02-CH0	1718056	OK	0.7715507	0.2545593	-0.5830172	0	-77.12	-103.158	-1.513	B5-03822-P02-CH1	1718056	OK	0.5977932	0.1784834	0.7815287	0	-78.08	-85.64	1.885	B5-03822-P03-CH0	1718056	OK	0.7523615	-0.3416745	-0.5632147	0	-88.776	-64.433	0.481	B5-03822-P03-CH1	1718056	OK	0.8099572	-0.5858713	0.0269104	0	-97.884	-32.259	5.262	B5-03822-P04-CH0	1718056	OK	0.7295582	-0.3728701	0.5733348	0	-121.237	-43.564	14.315	B5-03822-P04-CH1	1718056	OK	0.7323821	-0.6800664	0.0335591	0	-108.359	-42.861	-5.251	NA
0.769385655496767	B5-03822-P01-CH0	1718064	OK	0.2057809	0.1101947	0.0942606	-0.9677945	139.908	-31.097	-240.203	B5-03822-P02-CH0	1718064	OK	0.7697636	0.2479488	-0.5882052	0	-76.402	-102.751	-2.294	B5-03822-P02-CH1	1718064	OK	0.5869419	0.1818775	0.7889358	0	-78.425	-85.383	2.143	B5-03822-P03-CH0	1718064	OK	0.7635688	-0.3244717	-0.5582838	0	-88.541	-65.058	2.232	B5-03822-P03-CH1	1718064	OK	0.8096342	-0.5862965	0.0273661	0	-97.973	-32.367	5.358	B5-03822-P04-CH0	1718064	OK	0.7280757	-0.3788294	0.571309	0	-120.274	-42.86	13.421	B5-03822-P04-CH1	1718064	OK	0.73378	-0.6787793	0.0287328	0	-108.994	-42.09	-5.515	NA
0.779377676996725	B5-03822-P01-CH0	1718072	OK	0.2057401	0.1101915	0.09399	-0.9678299	139.903	-31.115	-240.186	B5-03822-P02-CH0	1718072	OK	0.7681254	0.2407796	-0.5933031	0	-76.448	-104.432	-2.567	B5-03822-P02-CH1	1718072	OK	0.5770912	0.1826148	0.796001	0	-79.414	-85.674	2.426	B5-03822-P03-CH0	1718072	OK	0.7766483	-0.3120946	-0.5471877	0	-90.899	-64.529	1.954	B5-03822-P03-CH1	1718072	OK	0.8094252	-0.5865805	0.0274624	0	-97.936	-32.367	5.309	B5-03822-P04-CH0	1718072	OK	0.7285539	-0.385382	0.566295	0	-119.968	-40.289	11.739	B5-03822-P04-CH1	1718072	OK	0.7327643	-0.6799276	0.0274758	0	-108.995	-43.175	-5.352	NA
0.789369698496683	B5-03822-P01-CH0	1718080	OK	0.2055753	0.1103417	0.0935733	-0.9678882	139.925	-31.138	-240.121	B5-03822-P02-CH0	1718080	OK	0.7666333	0.2371716	-0.5966767	0	-76.259	-104.73	-2.352	B5-03822-P02-CH1	1718080	OK	0.5657516	0.1825651	0.8041114	0	-80.529	-87.144	3.784	B5-03822-P03-CH0	1718080	OK	0.7962172	-0.3102024	-0.519435	0	-92.746	-65.266	2.94	B5-03822-P03-CH1	1718080	OK	0.8091622	-0.5869502	0.027313	0	-97.98	-32.423	5.373	B5-03822-P04-CH0	1718080	OK	0.7294281	-0.3783599	0.5698933	0	-121.885	-43.775	13.738	B5-03822-P04-CH1	1718080	OK	0.7319918	-0.6808736	0.0244784	0	-109.174	-43.697	-5.421	NA
0.799361719996641	B5-03822-P01-CH0	1718088	OK	0.2056881	0.1105072	0.0936059	-0.9678422	139.984	-31.096	-240.084	B5-03822-P02-CH0	1718088	OK	0.7651093	0.2348908	-0.5995282	0	-75.407	-105.19	-3.952	B5-03822-P02-CH1	1718088	OK	0.5534364	0.1765527	0.813964	0	-81.083	-87.675	4.388	B5-03822-P03-CH0	1718088	OK	0.8189861	-0.3225654	-0.4745666	0	-94.749	-66.519	6.142	B5-03822-P03-CH1	1718088	OK	0.8091041	-0.5870218	0.0274947	0	-98.096	-32.641	5.658	B5-03822-P04-CH0	1718088	OK	0.7289843	-0.3904739	0.5622384	0	-120.24	-40.675	11.63	B5-03822-P04-CH1	1718088	OK	0.732423	-0.6804987	0.0218655	0	-109.323	-43.088	-6.425	NA
0.809353741496599	B5-03822-P01-CH0	1718096	OK	0.2057989	0.1105392	0.093633	-0.9678124	140.003	-31.069	-240.137	B5-03822-P02-CH0	1718096	OK	0.7616527	0.2324177	-0.6048695	0	-75.446	-105.664	-3.561	B5-03822-P02-CH1	1718096	OK	0.5443258	0.1743638	0.8205527	0	-81.672	-88.522	4.809	B5-03822-P03-CH0	1718096	OK	0.834074	-0.3441818	-0.4311141	0	-96.395	-67.887	9.022	B5-03822-P03-CH1	1718096	OK	0.8092075	-0.5868806	0.0274651	0	-98.091	-32.588	5.553	B5-03822-P04-CH0	1718096	OK	0.7291744	-0.3906077	0.5618989	0	-120.283	-41.203	12.159	B5-03822-P04-CH1	1718096	OK	0.7335693	-0.6793004	0.0206656	0	-109.633	-42.342	-6.517	NA
0.819345762996557	B5-03822-P01-CH0	1718104	OK	0.205698	0.1105396	0.0933233	-0.9678637	139.983	-31.132	-240.085	B5-03822-P02-CH0	1718104	OK	0.7590368	0.2338245	-0.6076094	0	-75.257	-106.652	-4.487	B5-03822-P02-CH1	1718104	OK	0.5383901	0.1738904	0.8245594	0	-81.979	-88.805	5.017	B5-03822-P03-CH0	1718104	OK	0.8386759	-0.3471486	-0.4196554	0	-95.435	-67.874	7.347	B5-03822-P03-CH1	1718104	OK	0.8091669	-0.5869498	0.0271817	0	-98.047	-32.552	5.347	B5-03822-P04-CH0	1718104	OK	0.729659	-0.3858264	0.5645668	0	-121.12	-43.767	14.792	B5-03822-P04-CH1	1718104	OK	0.7318845	-0.6810377	0.0230801	0	-109.389	-44.121	-4.442	NA
0.829337784496515	B5-03822-P01-CH0	1718112	OK	0.2061405	0.1100933	0.0942485	-0.9677307	139.896	-31.038	-240.174	B5-03822-P02-CH0	1718112	OK	0.7569759	0.2365975	-0.6091052	0	-74.553	-106.802	-5.934	B5-03822-P02-CH1	1718112	OK	0.5355524	0.1717999	0.8268425	0	-82.03	-88.997	5.395	B5-03822-P03-CH0	1718112	OK	0.8380589	-0.3394149	-0.4271474	0	-97.5	-67.689	7.225	B5-03822-P03-CH1	1718112	OK	0.8098749	-0.5859497	0.0276691	0	-97.939	-32.588	5.332	B5-03822-P04-CH0	1718112	OK	0.7303575	-0.3856679	0.5637714	0	-121.852	-44.534	13.084	B5-03822-P04-CH1	1718112	OK	0.7328869	-0.6798794	0.0253135	0	-109.084	-43.857	-4.51	NA
0.839329805996473	B5-03822-P01-CH0	1718120	OK	0.2059377	0.1104411	0.0936149	-0.9677958	139.96	-31.054	-240.09	B5-03822-P02-CH0	1718120	OK	0.7540403	0.2375572	-0.6123641	0	-75.272	-107.505	-3.876	B5-03822-P02-CH1	1718120	OK	0.5340813	0.1720477	0.8277419	0	-82.217	-89.213	5.238	B5-03822-P03-CH0	1718120	OK	0.8407242	-0.34047	-0.4210261	0	-96.764	-67.918	7.675	B5-03822-P03-CH1	1718120	OK	0.8096601	-0.5862615	0.0273483	0	-98	-32.649	5.312	B5-03822-P04-CH0	1718120	OK	0.7297663	-0.3894401	0.5619409	0	-120.923	-43.591	14.284	B5-03822-P04-CH1	1718120	OK	0.7323006	-0.6804701	0.0263871	0	-109.149	-43.422	-5.019	NA
0.849321827496431	B5-03822-P01-CH0	1718128	OK	0.2059872	0.1102829	0.0937686	-0.9677884	139.904	-31.025	-240.118	B5-03822-P02-CH0	1718128	OK	0.75444	0.2381906	-0.6116254	0	-75.068	-108.047	-3.91	B5-03822-P02-CH1	1718128	OK	0.5317848	0.1743266	0.8287431	0	-82.25	-89.572	6.051	B5-03822-P03-CH0	1718128	OK	0.841845	-0.345886	-0.4143185	0	-96.509	-68.191	8.035	B5-03822-P03-CH1	1718128	OK	0.8099826	-0.585817	0.0273256	0	-97.882	-32.724	5.431	B5-03822-P04-CH0	1718128	OK	0.7292505	-0.3969958	0.5573042	0	-120.017	-40.787	11.424	B5-03822-P04-CH1	1718128	OK	0.7325337	-0.6802313	0.0260721	0	-109.039	-43.283	-5.264	NA
0.859313848996389	B5-03822-P01-CH0	1718136	OK	0.2062286	0.109865	0.0943178	-0.9677312	139.786	-31.009	-240.146	B5-03822-P02-CH0	1718136	OK	0.7552489	0.2400318	-0.6099048	0	-74.938	-107.787	-4.659	B5-03822-P02-CH1	1718136	OK	0.5298511	0.1755227	0.8297286	0	-82.558	-89.921	5.274	B5-03822-P03-CH0	1718136	OK	0.842265	-0.3528134	-0.407569	0	-96.49	-68.381	7.137	B5-03822-P03-CH1	1718136	OK	0.8105506	-0.5850205	0.0275463	0	-97.893	-32.874	5.531	B5-03822-P04-CH0	1718136	OK	0.7293403	-0.3960455	0.5578625	0	-119.774	-41.432	12.034	B5-03822-P04-CH1	1718136	OK	0.7329856	-0.6797452	0.0260504	0	-109.088	-43.271	-5.265	NA
0.869305870496347	B5-03822-P01-CH0	1718144	OK	0.206129	0.109865	0.09434	-0.9677502	139.773	-30.976	-240.193	B5-03822-P02-CH0	1718144	OK	0.7559295	0.2416613	-0.6084162	0	-75.282	-107.617	-4.557	B5-03822-P02-CH1	1718144	OK	0.5271521	0.1715597	0.8322727	0	-82.524	-89.641	5.798	B5-03822-P03-CH0	1718144	OK	0.8420138	-0.3576726	-0.4038355	0	-96.467	-68.224	6.844	B5-03822-P03-CH1	1718144	OK	0.8107611	-0.5847336	0.0274421	0	-97.953	-32.999	5.815	B5-03822-P04-CH0	1718144	OK	0.7296242	-0.3907137	0.5612409	0	-120.368	-41.672	12.502	B5-03822-P04-CH1	1718144	OK	0.7329131	-0.6798275	0.025943	0	-109.051	-43.217	-5.242	NA
0.879297891996305	B5-03822-P01-CH0	1718152	OK	0.2061366	0.1099683	0.0940216	-0.9677679	139.762	-30.973	-240.179	B5-03822-P02-CH0	1718152	OK	0.7572139	0.2430721	-0.6062532	0	-75.735	-108.483	-5.126	B5-03822-P02-CH1	1718152	OK	0.5253758	0.1661849	0.8344836	0	-82.474	-89.832	5.989	B5-03822-P03-CH0	1718152	OK	0.8411279	-0.3638261	-0.400168	0	-96.002	-67.822	6.593	B5-03822-P03-CH1	1718152	OK	0.8108415	-0.5846143	0.0276076	0	-97.983	-33.008	5.877	B5-03822-P04-CH0	1718152	OK	0.7295425	-0.3909228	0.5612014	0	-120.351	-42.324	13.26	B5-03822-P04-CH1	1718152	OK	0.732653	-0.6800887	0.0264362	0	-109.091	-43.163	-5.223	NA
0.889289913496263	B5-03822-P01-CH0	1718160	OK	0.2060485	0.1101471	0.0936343	-0.9678038	139.768	-30.999	-240.144	B5-03822-P02-CH0	1718160	OK	0.7573921	0.2467601	-0.6045384	0	-75.944	-108.504	-4.855	B5-03822-P02-CH1	1718160	OK	0.5256816	0.1571026	0.8360488	0	-82.987	-89.625	5.909	B5-03822-P03-CH0	1718160	OK	0.8379301	-0.3718438	-0.3995064	0	-95.848	-67.745	6.386	B5-03822-P03-CH1	1718160	OK	0.8108407	-0.5846187	0.0275386	0	-97.981	-32.891	5.737	B5-03822-P04-CH0	1718160	OK	0.7296028	-0.3902706	0.5615768	0	-120.578	-42.984	13.637	B5-03822-P04-CH1	1718160	OK	0.7324273	-0.6803029	0.0271712	0	-109.112	-43.036	-5.221	NA
0.899281934996221	B5-03822-P01-CH0	1718168	OK	0.2058221	0.1103391	0.0931703	-0.9678749	139.773	-31.047	-240.039	B5-03822-P02-CH0	1718168	OK	0.7570535	0.2499855	-0.6036367	0	-76.528	-108.59	-4.224	B5-03822-P02-CH1	1718168	OK	0.5251286	0.1465404	0.8383113	0	-82.984	-89.241	6.402	B5-03822-P03-CH0	1718168	OK	0.83394	-0.3804763	-0.3997272	0	-95.663	-66.967	5.875	B5-03822-P03-CH1	1718168	OK	0.8107687	-0.5847233	0.0274345	0	-97.97	-32.78	5.448	B5-03822-P04-CH0	1718168	OK	0.7297174	-0.3899257	0.5616676	0	-120.878	-43.536	13.956	B5-03822-P04-CH1	1718168	OK	0.7319153	-0.6808182	0.0280464	0	-109.136	-43.053	-5.241	NA
0.909273956496179	B5-03822-P01-CH0	1718176	OK	0.2058188	0.1100725	0.093633	-0.9678613	139.648	-31.003	-239.955	B5-03822-P02-CH0	1718176	OK	0.7563277	0.2526609	-0.6034326	0	-77.288	-108.421	-2.969	B5-03822-P02-CH1	1718176	OK	0.5257196	0.1390089	0.8392231	0	-83.054	-89.306	5.842	B5-03822-P03-CH0	1718176	OK	0.8310785	-0.3907908	-0.395716	0	-94.13	-66.973	6.457	B5-03822-P03-CH1	1718176	OK	0.8112069	-0.5841108	0.0275325	0	-97.836	-32.701	5.268	B5-03822-P04-CH0	1718176	OK	0.7300425	-0.3897574	0.5613619	0	-120.978	-43.792	14.109	B5-03822-P04-CH1	1718176	OK	0.7321716	-0.6804955	0.0291666	0	-109.012	-42.847	-5.384	NA
0.919265977996137	B5-03822-P01-CH0	1718184	OK	0.2061549	0.1100039	0.0942557	-0.9677371	139.646	-30.913	-239.96	B5-03822-P02-CH0	1718184	OK	0.7592569	0.2564295	-0.5981413	0	-76.279	-107.769	-4.798	B5-03822-P02-CH1	1718184	OK	0.5270639	0.134671	0.8390872	0	-82.792	-89.278	5.615	B5-03822-P03-CH0	1718184	OK	0.8275671	-0.4010452	-0.3928046	0	-93.692	-67.002	5.979	B5-03822-P03-CH1	1718184	OK	0.8117146	-0.5833896	0.0278576	0	-97.833	-32.7	5.189	B5-03822-P04-CH0	1718184	OK	0.7304227	-0.3896134	0.5609671	0	-121.088	-43.894	14.033	B5-03822-P04-CH1	1718184	OK	0.7324555	-0.6801119	0.0309316	0	-109.016	-42.77	-5.36	NA
0.929257999496095	B5-03822-P01-CH0	1718192	OK	0.2058883	0.1103991	0.0934744	-0.9678247	139.765	-30.988	-239.936	B5-03822-P02-CH0	1718192	OK	0.760185	0.256824	-0.5967916	0	-76.848	-108.087	-3.595	B5-03822-P02-CH1	1718192	OK	0.5330695	0.1282638	0.8362926	0	-83.698	-89.072	5.439	B5-03822-P03-CH0	1718192	OK	0.8244793	-0.4101283	-0.3899084	0	-93.533	-66.993	5.948	B5-03822-P03-CH1	1718192	OK	0.8114455	-0.5837778	0.0275608	0	-97.962	-32.74	5.301	B5-03822-P04-CH0	1718192	OK	0.7302807	-0.3910684	0.5601389	0	-121.165	-43.764	14.019	B5-03822-P04-CH1	1718192	OK	0.73183	-0.680754	0.0316048	0	-109.135	-42.639	-5.441	NA
0.939250020996053	B5-03822-P01-CH0	1718200	OK	0.2061805	0.1103543	0.093829	-0.9677333	139.766	-30.904	-239.989	B5-03822-P02-CH0	1718200	OK	0.7619563	0.2593367	-0.5934367	0	-76.725	-107.686	-3.679	B5-03822-P02-CH1	1718200	OK	0.5370717	0.1239749	0.8343766	0	-83.956	-88.909	5.416	B5-03822-P03-CH0	1718200	OK	0.8225963	-0.4180205	-0.3854793	0	-93.538	-66.588	5.393	B5-03822-P03-CH1	1718200	OK	0.8118828	-0.5831534	0.0279007	0	-97.913	-32.701	5.525	B5-03822-P04-CH0	1718200	OK	0.7305596	-0.3921041	0.5590502	0	-121.094	-43.443	13.812	B5-03822-P04-CH1	1718200	OK	0.7320117	-0.6805009	0.0328242	0	-109.103	-42.452	-5.61	NA
0.949242042496011	B5-03822-P01-CH0	1718208	OK	0.2062169	0.1105184	0.0937785	-0.9677117	139.821	-30.886	-239.956	B5-03822-P02-CH0	1718208	OK	0.7642625	0.2637604	-0.5885009	0	-76.772	-107.477	-3.73	B5-03822-P02-CH1	1718208	OK	0.5376124	0.1185928	0.8348106	0	-82.979	-88.462	5.606	B5-03822-P03-CH0	1718208	OK	0.8209661	-0.4272919	-0.3787298	0	-92.708	-66.655	5.224	B5-03822-P03-CH1	1718208	OK	0.8119875	-0.5830017	0.0280233	0	-97.968	-32.63	5.337	B5-03822-P04-CH0	1718208	OK	0.7306325	-0.3921884	0.5588957	0	-121.275	-43.745	13.855	B5-03822-P04-CH1	1718208	OK	0.7319972	-0.6804642	0.0338916	0	-109.246	-42.211	-5.783	NA
0.959234063995969	B5-03822-P01-CH0	1718216	OK	0.2062881	0.1106721	0.0936256	-0.9676937	139.86	-30.862	-239.956	B5-03822-P02-CH0	1718216	OK	0.7663417	0.2684324	-0.5836647	0	-76.731	-107.569	-3.728	B5-03822-P02-CH1	1718216	OK	0.5412705	0.1149761	0.8329506	0	-82.374	-88.368	5.178	B5-03822-P03-CH0	1718216	OK	0.8177919	-0.4367509	-0.3747867	0	-92.955	-66.466	5.461	B5-03822-P03-CH1	1718216	OK	0.8121165	-0.5828239	0.0279855	0	-97.951	-32.527	5.306	B5-03822-P04-CH0	1718216	OK	0.7307102	-0.3932583	0.5580417	0	-121.327	-43.635	13.756	B5-03822-P04-CH1	1718216	OK	0.731449	-0.6807187	0.040054	0	-109.362	-41.248	-7.172	NA
0.969226085495927	B5-03822-P01-CH0	1718224	OK	0.2064964	0.1108187	0.0936697	-0.9676282	139.908	-30.868	-239.86	B5-03822-P02-CH0	1718224	OK	0.765564	0.2724194	-0.5828373	0	-77.784	-107.369	-2.537	B5-03822-P02-CH1	1718224	OK	0.5481576	0.1141409	0.82855	0	-82.336	-88.391	4.741	B5-03822-P03-CH0	1718224	OK	0.8149787	-0.4466427	-0.3692155	0	-92.195	-66.641	5.484	B5-03822-P03-CH1	1718224	OK	0.8124493	-0.5823579	0.0280261	0	-97.926	-32.31	4.983	B5-03822-P04-CH0	1718224	OK	0.7308752	-0.3946307	0.5568554	0	-121.299	-43.44	13.47	B5-03822-P04-CH1	1718224	OK	0.7309546	-0.6812341	0.0403174	0	-108.983	-41.666	-6.208	NA
0.979218106995885	B5-03822-P01-CH0	1718232	OK	0.2068513	0.1106941	0.0945596	-0.9674801	139.949	-30.766	-239.912	B5-03822-P02-CH0	1718232	OK	0.765361	0.2783016	-0.5803196	0	-77.733	-106.244	-1.866	B5-03822-P02-CH1	1718232	OK	0.5544317	0.1144585	0.8243207	0	-82.305	-87.69	4.512	B5-03822-P03-CH0	1718232	OK	0.8121279	-0.4535215	-0.3671057	0	-92.008	-65.857	4.629	B5-03822-P03-CH1	1718232	OK	0.8129662	-0.5816159	0.0284415	0	-97.928	-32.421	5.026	B5-03822-P04-CH0	1718232	OK	0.7314886	-0.3956305	0.5553387	0	-121.432	-43.07	12.841	B5-03822-P04-CH1	1718232	OK	0.7319973	-0.6802643	0.0376879	0	-109.237	-42.036	-6.016	NA
0.989210128495843	B5-03822-P01-CH0	1718240	OK	0.207324	0.1105155	0.0954771	-0.9673093	140.02	-30.707	-240.044	B5-03822-P02-CH0	1718240	OK	0.7667015	0.2801049	-0.5776764	0	-77.56	-106.608	-2.01	B5-03822-P02-CH1	1718240	OK	0.559912	0.117979	0.8201094	0	-82.165	-87.578	4.172	B5-03822-P03-CH0	1718240	OK	0.808521	-0.4594677	-0.3676728	0	-92.284	-65.266	3.274	B5-03822-P03-CH1	1718240	OK	0.8135794	-0.580738	0.0288441	0	-97.956	-32.639	5.296	B5-03822-P04-CH0	1718240	OK	0.7320717	-0.3974073	0.5532978	0	-121.392	-42.529	12.359	B5-03822-P04-CH1	1718240	OK	0.7323424	-0.6798095	0.0391623	0	-109.195	-42.128	-5.967	NA
0.999202149995801	B5-03822-P01-CH0	1718248	OK	0.207728	0.1103287	0.0960881	-0.9671834	140.046	-30.66	-240.145	B5-03822-P02-CH0	1718248	OK	0.7683515	0.2823096	-0.5744016	0	-77.613	-106.728	-2.757	B5-03822-P02-CH1	1718248	OK	0.5636188	0.1223592	0.8169223	0	-81.594	-87.407	3.707	B5-03822-P03-CH0	1718248	OK	0.8054403	-0.4654231	-0.3669431	0	-91.602	-65.37	3.517	B5-03822-P03-CH1	1718248	OK	0.8140875	-0.5800177	0.0290015	0	-97.973	-32.711	5.425	B5-03822-P04-CH0	1718248	OK	0.7322014	-0.3989179	0.5520377	0	-121.213	-42.202	11.985	B5-03822-P04-CH1	1718248	OK	0.7325759	-0.6794831	0.040437	0	-109.132	-42.189	-5.718	NA
1.00919417149576	B5-03822-P01-CH0	1718256	OK	0.2074399	0.1104817	0.0953099	-0.9673048	140.085	-30.705	-240.104	B5-03822-P02-CH0	1718256	OK	0.7705847	0.2874069	-0.5688554	0	-76.833	-105.242	-2.715	B5-03822-P02-CH1	1718256	OK	0.5664236	0.1242161	0.8146991	0	-80.988	-86.674	3.855	B5-03822-P03-CH0	1718256	OK	0.8021309	-0.4706908	-0.3674727	0	-91.024	-64.551	3.115	B5-03822-P03-CH1	1718256	OK	0.8136899	-0.5806002	0.0284983	0	-98.055	-32.747	5.591	B5-03822-P04-CH0	1718256	OK	0.7318608	-0.4007833	0.5511374	0	-121.155	-42.036	11.942	B5-03822-P04-CH1	1718256	OK	0.7318772	-0.680229	0.0405494	0	-109.13	-42.085	-5.841	NA
1.01918619299572	B5-03822-P01-CH0	1718264	OK	0.2076043	0.1106524	0.0951502	-0.9672657	140.229	-30.699	-240.198	B5-03822-P02-CH0	1718264	OK	0.7719418	0.289556	-0.5659181	0	-76.943	-105.254	-2.16	B5-03822-P02-CH1	1718264	OK	0.5717108	0.12856	0.8103203	0	-81.265	-86.432	3.448	B5-03822-P03-CH0	1718264	OK	0.7979964	-0.4782864	-0.3666659	0	-90.605	-64.741	3.026	B5-03822-P03-CH1	1718264	OK	0.8136551	-0.5806557	0.02836	0	-98.03	-32.816	5.71	B5-03822-P04-CH0	1718264	OK	0.7319166	-0.4007031	0.5511216	0	-121.285	-42.448	12.373	B5-03822-P04-CH1	1718264	OK	0.7319295	-0.6801614	0.0407382	0	-109.193	-41.882	-5.995	NA
1.02917821449567	B5-03822-P01-CH0	1718272	OK	0.2078488	0.1106724	0.0953387	-0.9671924	140.266	-30.627	-240.201	B5-03822-P02-CH0	1718272	OK	0.7723257	0.2917577	-0.5642609	0	-77.368	-105.173	-1.879	B5-03822-P02-CH1	1718272	OK	0.5733718	0.1347395	0.8081398	0	-80.54	-86.251	2.639	B5-03822-P03-CH0	1718272	OK	0.7947048	-0.4839058	-0.3664416	0	-90.167	-64.792	3.391	B5-03822-P03-CH1	1718272	OK	0.8137866	-0.5804735	0.0283174	0	-97.938	-32.827	5.658	B5-03822-P04-CH0	1718272	OK	0.7320761	-0.4012055	0.550544	0	-121.243	-42.496	12.601	B5-03822-P04-CH1	1718272	OK	0.7320079	-0.6800537	0.0411269	0	-109.174	-41.894	-5.822	NA
1.03917023599563	B5-03822-P01-CH0	1718280	OK	0.2081451	0.1105777	0.095497	-0.9671238	140.327	-30.643	-240.216	B5-03822-P02-CH0	1718280	OK	0.7732878	0.2958247	-0.5608152	0	-77.063	-104.687	-1.88	B5-03822-P02-CH1	1718280	OK	0.5758476	0.1396514	0.8055414	0	-80.132	-85.988	2.845	B5-03822-P03-CH0	1718280	OK	0.790982	-0.4878088	-0.3693103	0	-91.282	-64.048	2.93	B5-03822-P03-CH1	1718280	OK	0.8140247	-0.5801484	0.0281357	0	-97.962	-32.836	5.495	B5-03822-P04-CH0	1718280	OK	0.7320706	-0.3998626	0.5515274	0	-121.331	-43.36	13.386	B5-03822-P04-CH1	1718280	OK	0.7320334	-0.6799997	0.0415635	0	-109.129	-42.043	-5.686	NA
1.04916225749559	B5-03822-P01-CH0	1718288	OK	0.2082511	0.1106243	0.0952472	-0.9671203	140.423	-30.674	-240.267	B5-03822-P02-CH0	1718288	OK	0.7730055	0.2983908	-0.5598441	0	-77.712	-104.769	-1.119	B5-03822-P02-CH1	1718288	OK	0.5794868	0.1425586	0.8024164	0	-80.28	-85.462	2.475	B5-03822-P03-CH0	1718288	OK	0.7885605	-0.4931489	-0.3673915	0	-91.054	-63.821	2.208	B5-03822-P03-CH1	1718288	OK	0.8139761	-0.5802268	0.0279237	0	-97.972	-32.983	5.72	B5-03822-P04-CH0	1718288	OK	0.7322944	-0.3996294	0.5513994	0	-121.533	-43.586	13.777	B5-03822-P04-CH1	1718288	OK	0.7317281	-0.6803228	0.0416508	0	-109.062	-42.237	-5.475	NA
1.05915427899555	B5-03822-P01-CH0	1718296	OK	0.2082156	0.110973	0.0946379	-0.9671478	140.593	-30.736	-240.239	B5-03822-P02-CH0	1718296	OK	0.7741476	0.3004774	-0.5571435	0	-77.878	-105.103	-0.82	B5-03822-P02-CH1	1718296	OK	0.5831003	0.1473694	0.7989219	0	-80.771	-85.902	2.931	B5-03822-P03-CH0	1718296	OK	0.7862893	-0.4970828	-0.3669575	0	-90.928	-63.854	3.275	B5-03822-P03-CH1	1718296	OK	0.8137121	-0.580613	0.0275876	0	-98.033	-33.073	5.795	B5-03822-P04-CH0	1718296	OK	0.7323048	-0.3998733	0.5512087	0	-121.729	-43.785	13.889	B5-03822-P04-CH1	1718296	OK	0.7312702	-0.6808241	0.0415013	0	-109.099	-42.35	-5.307	NA
1.06914630049551	B5-03822-P01-CH0	1718304	OK	0.2083397	0.1108551	0.0946875	-0.9671298	140.66	-30.764	-240.332	B5-03822-P02-CH0	1718304	OK	0.7749106	0.3040496	-0.5541367	0	-77.799	-104.99	-0.728	B5-03822-P02-CH1	1718304	OK	0.5830733	0.1509764	0.7982679	0	-80.253	-85.989	2.768	B5-03822-P03-CH0	1718304	OK	0.784708	-0.5002673	-0.3660137	0	-90.71	-63.909	2.539	B5-03822-P03-CH1	1718304	OK	0.8136963	-0.5806349	0.0275929	0	-98.039	-33.308	5.948	B5-03822-P04-CH0	1718304	OK	0.7323198	-0.4008762	0.5504598	0	-121.766	-43.542	13.448	B5-03822-P04-CH1	1718304	OK	0.7313175	-0.6807578	0.0417557	0	-109.147	-42.398	-5.299	NA
1.07913832199546	B5-03822-P01-CH0	1718312	OK	0.2085391	0.1109995	0.0945748	-0.9670813	140.722	-30.742	-240.27	B5-03822-P02-CH0	1718312	OK	0.7749469	0.308766	-0.5514716	0	-78.233	-104.72	-0.395	B5-03822-P02-CH1	1718312	OK	0.5831161	0.1519692	0.7980482	0	-79.696	-85.561	3.018	B5-03822-P03-CH0	1718312	OK	0.7838047	-0.5013551	-0.3664605	0	-90.252	-63.365	2.241	B5-03822-P03-CH1	1718312	OK	0.8138406	-0.5804427	0.0273821	0	-98.051	-33.207	5.882	B5-03822-P04-CH0	1718312	OK	0.7324148	-0.4002632	0.5507794	0	-121.988	-43.777	13.461	B5-03822-P04-CH1	1718312	OK	0.7314995	-0.6805582	0.0418199	0	-109.203	-42.137	-5.784	NA
