Wav.Time	B5.03822.P01.CH0	Frame	State	Q0	Qx	Qy	Qz	Tx	Ty	Tz	B5.03822.P02.CH0	Frame.1	State.1	Q0.1	Qx.1	Qy.1	Qz.1	Tx.1	Ty.1	Tz.1	B5.03822.P02.CH1	Frame.2	State.2	Q0.2	Qx.2	Qy.2	Qz.2	Tx.2	Ty.2	Tz.2	B5.03822.P03.CH0	Frame.3	State.3	Q0.3	Qx.3	Qy.3	Qz.3	Tx.3	Ty.3	Tz.3	B5.03822.P03.CH1	Frame.4	State.4	Q0.4	Qx.4	Qy.4	Qz.4	Tx.4	Ty.4	Tz.4	B5.03822.P04.CH0	Frame.5	State.5	Q0.5	Qx.5	Qy.5	Qz.5	Tx.5	Ty.5	Tz.5	B5.03822.P04.CH1	Frame.6	State.6	Q0.6	Qx.6	Qy.6	Qz.6	Tx.6	Ty.6	Tz.6	X
0	B5-03822-P01-CH0	508240	OK	0.244907	0.0172773	0.0922276	-0.9649954	107.781	-30.048	-260.173	B5-03822-P02-CH0	508240	OK	0.7130109	0.5596135	-0.4224314	0	-73.205	-100.345	-5.463	B5-03822-P02-CH1	508240	OK	0.7106271	0.1983431	-0.6750327	0	-72.133	-80.352	-5.124	B5-03822-P03-CH0	508240	OK	0.8032878	-0.3262591	-0.4982807	0	-91.512	-61.328	-3.606	B5-03822-P03-CH1	508240	OK	0.7672669	-0.5643879	0.3045781	0	-96.609	-24.413	-18.115	B5-03822-P04-CH0	508240	OK	0.7657598	-0.4401435	0.4689196	0	-119.024	-44.437	-7.089	B5-03822-P04-CH1	508240	OK	0.7204234	-0.6438444	0.2577878	0	-106.117	-39.602	-19.678	NA
0.00999177693055244	B5-03822-P01-CH0	508248	OK	0.2446957	0.0174587	0.0920427	-0.9650634	107.839	-30.048	-260.213	B5-03822-P02-CH0	508248	OK	0.7204341	0.5663289	-0.4003077	0	-73	-99.583	-8.168	B5-03822-P02-CH1	508248	OK	0.7050262	0.1956303	-0.6816647	0	-72.225	-80.311	-4.713	B5-03822-P03-CH0	508248	OK	0.7964303	-0.3326144	-0.505041	0	-90.589	-61.289	-2.613	B5-03822-P03-CH1	508248	OK	0.7671546	-0.5645185	0.3046189	0	-96.72	-24.453	-18.173	B5-03822-P04-CH0	508248	OK	0.7657118	-0.4401274	0.4690131	0	-119.087	-44.275	-7.274	B5-03822-P04-CH1	508248	OK	0.7202824	-0.6440481	0.2576728	0	-106.167	-39.68	-19.377	NA
0.0199835538611049	B5-03822-P01-CH0	508256	OK	0.2447443	0.0174835	0.0917854	-0.9650751	107.808	-30.051	-260.168	B5-03822-P02-CH0	508256	OK	0.7264889	0.5750716	-0.3761737	0	-72.572	-98.057	-10.398	B5-03822-P02-CH1	508256	OK	0.7002365	0.1930019	-0.6873275	0	-71.797	-79.667	-3.691	B5-03822-P03-CH0	508256	OK	0.7872517	-0.3383802	-0.5154936	0	-90.799	-60.37	-4.447	B5-03822-P03-CH1	508256	OK	0.7669555	-0.5646791	0.3048227	0	-96.652	-24.489	-18.278	B5-03822-P04-CH0	508256	OK	0.7654812	-0.4390663	0.4703822	0	-119.117	-44.69	-6.794	B5-03822-P04-CH1	508256	OK	0.7199454	-0.6442542	0.2580992	0	-106.147	-39.808	-19.552	NA
0.0299753307916573	B5-03822-P01-CH0	508264	OK	0.2445783	0.0173824	0.091797	-0.9651179	107.724	-30.092	-260.088	B5-03822-P02-CH0	508264	OK	0.7330998	0.5830401	-0.3501842	0	-72.571	-96.871	-11.322	B5-03822-P02-CH1	508264	OK	0.6965183	0.1912299	-0.6915876	0	-71.404	-79.648	-3.743	B5-03822-P03-CH0	508264	OK	0.7794054	-0.3429703	-0.5243078	0	-89.948	-59.319	-5.187	B5-03822-P03-CH1	508264	OK	0.7669158	-0.564729	0.3048298	0	-96.558	-24.474	-18.445	B5-03822-P04-CH0	508264	OK	0.7655504	-0.438694	0.4706168	0	-119.147	-44.445	-7.363	B5-03822-P04-CH1	508264	OK	0.7196213	-0.6445816	0.2581856	0	-105.886	-40.062	-19.067	NA
0.0399671077222098	B5-03822-P01-CH0	508272	OK	0.2442762	0.0176354	0.0910563	-0.96526	107.773	-30.15	-260.005	B5-03822-P02-CH0	508272	OK	0.7412282	0.5894484	-0.3211406	0	-72.548	-95.186	-15.581	B5-03822-P02-CH1	508272	OK	0.6928706	0.1898424	-0.6956221	0	-70.928	-78.718	-4.27	B5-03822-P03-CH0	508272	OK	0.7693276	-0.3514339	-0.5335065	0	-89.512	-59.421	-4.533	B5-03822-P03-CH1	508272	OK	0.7664765	-0.5652851	0.3049041	0	-96.592	-24.568	-18.543	B5-03822-P04-CH0	508272	OK	0.7652057	-0.4384566	0.471398	0	-119.174	-44.514	-7.348	B5-03822-P04-CH1	508272	OK	0.7193295	-0.6452619	0.2572979	0	-105.819	-39.863	-18.982	NA
0.0499588846527622	B5-03822-P01-CH0	508280	OK	0.2440892	0.0176464	0.0909116	-0.9653208	107.74	-30.139	-259.925	B5-03822-P02-CH0	508280	OK	0.7496457	0.5921577	-0.2956019	0	-72.143	-93.902	-19.004	B5-03822-P02-CH1	508280	OK	0.6894241	0.1881335	-0.6995	0	-69.875	-77.382	-4.517	B5-03822-P03-CH0	508280	OK	0.7595138	-0.3606805	-0.5413395	0	-89.225	-58.294	-6.027	B5-03822-P03-CH1	508280	OK	0.7665113	-0.5654876	0.3044409	0	-96.474	-24.279	-18.88	B5-03822-P04-CH0	508280	OK	0.765208	-0.4374449	0.4723332	0	-119.227	-44.59	-7.063	B5-03822-P04-CH1	508280	OK	0.7191427	-0.6457936	0.2564847	0	-105.693	-39.694	-19.226	NA
0.0599506615833146	B5-03822-P01-CH0	508288	OK	0.2439864	0.0175153	0.0912515	-0.9653171	107.708	-30.133	-259.897	B5-03822-P02-CH0	508288	OK	0.7550526	0.5942566	-0.2770463	0	-72.932	-92.155	-19.711	B5-03822-P02-CH1	508288	OK	0.6852822	0.1911702	-0.7027391	0	-69.709	-77.399	-5.467	B5-03822-P03-CH0	508288	OK	0.7535526	-0.3731497	-0.5412187	0	-87.735	-57.893	-5.076	B5-03822-P03-CH1	508288	OK	0.7670519	-0.5650121	0.3039617	0	-96.49	-24.017	-18.886	B5-03822-P04-CH0	508288	OK	0.7654294	-0.4359676	0.4733392	0	-119.217	-44.671	-6.728	B5-03822-P04-CH1	508288	OK	0.7187927	-0.6459549	0.257059	0	-105.605	-40.176	-18.915	NA
0.0699424385138671	B5-03822-P01-CH0	508296	OK	0.2436501	0.0175685	0.0907812	-0.9654454	107.736	-30.254	-259.873	B5-03822-P02-CH0	508296	OK	0.7602575	0.5976696	-0.2545574	0	-72.177	-89.427	-25.01	B5-03822-P02-CH1	508296	OK	0.6827825	0.1957211	-0.7039185	0	-69.053	-75.732	-5.232	B5-03822-P03-CH0	508296	OK	0.7496996	-0.3856616	-0.5377878	0	-87.021	-58.278	-5.139	B5-03822-P03-CH1	508296	OK	0.7669472	-0.5654652	0.3033827	0	-96.402	-23.98	-18.879	B5-03822-P04-CH0	508296	OK	0.7652711	-0.4349467	0.4745329	0	-119.259	-44.921	-6.385	B5-03822-P04-CH1	508296	OK	0.7182409	-0.6469126	0.2561917	0	-105.347	-40.226	-18.933	NA
0.0799342154444195	B5-03822-P01-CH0	508304	OK	0.243491	0.0175857	0.0904545	-0.9655158	107.743	-30.287	-259.843	B5-03822-P02-CH0	508304	OK	0.7646023	0.5975755	-0.2414266	0	-72.734	-88.998	-24.773	B5-03822-P02-CH1	508304	OK	0.6850143	0.1994929	-0.700684	0	-68.745	-77	-4.115	B5-03822-P03-CH0	508304	OK	0.7472928	-0.395885	-0.5336932	0	-87.861	-57.792	-6.848	B5-03822-P03-CH1	508304	OK	0.7667835	-0.565765	0.3032376	0	-96.407	-24.079	-18.814	B5-03822-P04-CH0	508304	OK	0.7651677	-0.4322963	0.4771146	0	-119.526	-45.916	-5.066	B5-03822-P04-CH1	508304	OK	0.718098	-0.6474111	0.2553314	0	-105.343	-39.916	-19.546	NA
0.089925992374972	B5-03822-P01-CH0	508312	OK	0.2431371	0.0175395	0.0898712	-0.9656603	107.627	-30.341	-259.669	B5-03822-P02-CH0	508312	OK	0.7674814	0.5985433	-0.2296044	0	-73.211	-87.631	-26.445	B5-03822-P02-CH1	508312	OK	0.6872727	0.2030833	-0.6974334	0	-68.876	-76.694	-4.608	B5-03822-P03-CH0	508312	OK	0.7470719	-0.4050725	-0.5270672	0	-87.5	-57.76	-6.944	B5-03822-P03-CH1	508312	OK	0.7662287	-0.5663038	0.3036339	0	-96.388	-24.627	-18.139	B5-03822-P04-CH0	508312	OK	0.7648383	-0.4305198	0.4792442	0	-119.437	-46.232	-4.469	B5-03822-P04-CH1	508312	OK	0.7178044	-0.6479947	0.2546756	0	-105.437	-39.721	-19.844	NA
0.0999177693055244	B5-03822-P01-CH0	508320	OK	0.2429399	0.0173987	0.0896398	-0.965734	107.552	-30.369	-259.643	B5-03822-P02-CH0	508320	OK	0.7691651	0.5993935	-0.2216132	0	-74.113	-86.451	-27.271	B5-03822-P02-CH1	508320	OK	0.6888964	0.2059751	-0.6949792	0	-69.318	-76.958	-4.96	B5-03822-P03-CH0	508320	OK	0.7478465	-0.413197	-0.5196094	0	-87.531	-57.198	-6.955	B5-03822-P03-CH1	508320	OK	0.765895	-0.5668051	0.3035405	0	-96.441	-25.057	-17.808	B5-03822-P04-CH0	508320	OK	0.7645683	-0.4202792	0.4886723	0	-118.189	-45.464	-3.799	B5-03822-P04-CH1	508320	OK	0.7173333	-0.6482163	0.255438	0	-105.461	-40.034	-19.223	NA
0.109909546236077	B5-03822-P01-CH0	508328	OK	0.2427555	0.0173151	0.089503	-0.9657946	107.521	-30.39	-259.631	B5-03822-P02-CH0	508328	OK	0.7704312	0.6004737	-0.214166	0	-74.201	-85.264	-28.664	B5-03822-P02-CH1	508328	OK	0.6900805	0.2077078	-0.6932867	0	-69.289	-77.178	-4.701	B5-03822-P03-CH0	508328	OK	0.749843	-0.4210469	-0.510348	0	-87.696	-57.716	-5.817	B5-03822-P03-CH1	508328	OK	0.7656915	-0.5674525	0.3028435	0	-96.41	-25.286	-17.546	B5-03822-P04-CH0	508328	OK	0.7641963	-0.416538	0.492443	0	-118.56	-46.418	-3.758	B5-03822-P04-CH1	508328	OK	0.7173379	-0.6484982	0.2547083	0	-105.325	-39.774	-19.377	NA
0.119901323166629	B5-03822-P01-CH0	508336	OK	0.2424394	0.0172924	0.0892308	-0.9658996	107.497	-30.382	-259.624	B5-03822-P02-CH0	508336	OK	0.7722843	0.5982639	-0.2136754	0	-73.408	-85.282	-29.261	B5-03822-P02-CH1	508336	OK	0.6897514	0.2057862	-0.6941866	0	-69.522	-76.868	-4.317	B5-03822-P03-CH0	508336	OK	0.7548937	-0.4269552	-0.4978401	0	-88.183	-57.739	-6.131	B5-03822-P03-CH1	508336	OK	0.7654464	-0.5683984	0.3016868	0	-96.415	-25.323	-17.416	B5-03822-P04-CH0	508336	OK	0.7650493	-0.4109341	0.4958153	0	-119.246	-47.419	-0.975	B5-03822-P04-CH1	508336	OK	0.7173196	-0.6486959	0.2542563	0	-105.422	-39.575	-19.237	NA
0.129893100097182	B5-03822-P01-CH0	508344	OK	0.2424739	0.0174791	0.0890844	-0.9659011	107.58	-30.359	-259.655	B5-03822-P02-CH0	508344	OK	0.7725385	0.5940189	-0.2243339	0	-73.686	-85.629	-28.066	B5-03822-P02-CH1	508344	OK	0.6897371	0.1991289	-0.6961396	0	-69.06	-76.928	-4.594	B5-03822-P03-CH0	508344	OK	0.7632772	-0.4292678	-0.4828427	0	-87.797	-58.506	-5.54	B5-03822-P03-CH1	508344	OK	0.7652058	-0.5693629	0.3004763	0	-96.572	-25.467	-17.254	B5-03822-P04-CH0	508344	OK	0.7655546	-0.4097391	0.4960242	0	-119.668	-46.019	-3.926	B5-03822-P04-CH1	508344	OK	0.7172941	-0.6486798	0.254369	0	-105.56	-39.511	-19.383	NA
0.139884877027734	B5-03822-P01-CH0	508352	OK	0.2422584	0.0174181	0.0888194	-0.9659806	107.571	-30.368	-259.688	B5-03822-P02-CH0	508352	OK	0.7723787	0.5876184	-0.2411135	0	-72.664	-86.141	-28.161	B5-03822-P02-CH1	508352	OK	0.6883987	0.190807	-0.6997856	0	-69.045	-77.063	-5.574	B5-03822-P03-CH0	508352	OK	0.774102	-0.4261513	-0.4681465	0	-87.844	-58.95	-5.803	B5-03822-P03-CH1	508352	OK	0.7645473	-0.5789673	0.2833097	0	-95.939	-21.66	-22.388	B5-03822-P04-CH0	508352	OK	0.7656697	-0.4058533	0.4990321	0	-119.53	-46.542	-2.79	B5-03822-P04-CH1	508352	OK	0.7167711	-0.6490635	0.2548643	0	-105.547	-39.754	-19.263	NA
0.149876653958287	B5-03822-P01-CH0	508360	OK	0.2422272	0.0174167	0.089101	-0.9659626	107.62	-30.345	-259.729	B5-03822-P02-CH0	508360	OK	0.7700034	0.580957	-0.2637873	0	-70.712	-85.986	-31.58	B5-03822-P02-CH1	508360	OK	0.68688	0.1783993	-0.704535	0	-68.965	-76.174	-4.835	B5-03822-P03-CH0	508360	OK	0.786696	-0.4152268	-0.4568327	0	-88.914	-60.402	-4.294	B5-03822-P03-CH1	508360	OK	0.7637487	-0.580983	0.2813304	0	-96.353	-22.062	-20.189	B5-03822-P04-CH0	508360	OK	0.7660438	-0.3991582	0.5038349	0	-119.88	-48.558	-0.716	B5-03822-P04-CH1	508360	OK	0.7168897	-0.6486747	0.2555198	0	-105.605	-39.931	-18.827	NA
0.159868430888839	B5-03822-P01-CH0	508368	OK	0.2420111	0.0172556	0.089041	-0.9660251	107.548	-30.356	-259.616	B5-03822-P02-CH0	508368	OK	0.7663775	0.5673323	-0.3013298	0	-69.676	-88.353	-28.268	B5-03822-P02-CH1	508368	OK	0.6881029	0.1636786	-0.7069114	0	-69.114	-77.119	-5.195	B5-03822-P03-CH0	508368	OK	0.797583	-0.3906541	-0.4596201	0	-90.541	-61.897	-3.202	B5-03822-P03-CH1	508368	OK	0.7637431	-0.5846819	0.2735757	0	-95.976	-19.456	-24.038	B5-03822-P04-CH0	508368	OK	0.7663643	-0.4022127	0.5009099	0	-119.33	-44.07	-7.538	B5-03822-P04-CH1	508368	OK	0.7172077	-0.6485946	0.2548297	0	-105.622	-39.366	-19.43	NA
0.169860207819391	B5-03822-P01-CH0	508376	OK	0.2421831	0.0170757	0.0900127	-0.9658952	107.525	-30.254	-259.605	B5-03822-P02-CH0	508376	OK	0.7576739	0.5545957	-0.344026	0	-69.411	-90.922	-24.093	B5-03822-P02-CH1	508376	OK	0.688609	0.1494021	-0.709575	0	-69.247	-76.938	-5.515	B5-03822-P03-CH0	508376	OK	0.8051411	-0.3540225	-0.4758318	0	-90.26	-62.88	-2.608	B5-03822-P03-CH1	508376	OK	0.762127	-0.585456	0.2764122	0	-96.955	-22.757	-19.012	B5-03822-P04-CH0	508376	OK	0.766967	-0.3937605	0.5066698	0	-119.79	-47.843	-1.561	B5-03822-P04-CH1	508376	OK	0.7179862	-0.647419	0.2556254	0	-105.955	-39.286	-19.727	NA
0.179851984749944	B5-03822-P01-CH0	508384	OK	0.2420648	0.0171075	0.0904089	-0.9658873	107.603	-30.247	-259.641	B5-03822-P02-CH0	508384	OK	0.745863	0.5411988	-0.3883198	0	-70.926	-93.747	-16.475	B5-03822-P02-CH1	508384	OK	0.6892626	0.1379773	-0.7112519	0	-69.815	-76.73	-5.054	B5-03822-P03-CH0	508384	OK	0.8053451	-0.3067979	-0.5072419	0	-90.324	-62.196	-3.188	B5-03822-P03-CH1	508384	OK	0.7625929	-0.5870426	0.2717225	0	-96.071	-21.755	-19.179	B5-03822-P04-CH0	508384	OK	0.7677672	-0.3919145	0.5068891	0	-119.416	-47.148	-1.387	B5-03822-P04-CH1	508384	OK	0.7183861	-0.6467939	0.256084	0	-106.147	-39.326	-19.467	NA
0.189843761680496	B5-03822-P01-CH0	508392	OK	0.2418875	0.0172015	0.0898883	-0.9659786	107.665	-30.326	-259.701	B5-03822-P02-CH0	508392	OK	0.7359606	0.5245932	-0.4279765	0	-71.822	-95.827	-9.946	B5-03822-P02-CH1	508392	OK	0.6935194	0.1255756	-0.7094094	0	-70.323	-77.373	-3.882	B5-03822-P03-CH0	508392	OK	0.8000207	-0.2534718	-0.5438004	0	-90.311	-62.288	-3.199	B5-03822-P03-CH1	508392	OK	0.7634195	-0.587511	0.2683681	0	-96.071	-20.3	-21.622	B5-03822-P04-CH0	508392	OK	0.7679977	-0.3926727	0.5059523	0	-119.143	-45.838	-3.929	B5-03822-P04-CH1	508392	OK	0.7177682	-0.6470157	0.2572539	0	-106.127	-39.816	-18.773	NA
0.199835538611049	B5-03822-P01-CH0	508400	OK	0.2419714	0.0169369	0.0905743	-0.9658982	107.653	-30.305	-259.822	B5-03822-P02-CH0	508400	OK	0.7282837	0.5075948	-0.4603808	0	-72.873	-96.875	-7.357	B5-03822-P02-CH1	508400	OK	0.7034302	0.1135604	-0.7016338	0	-71.139	-78.045	-4.018	B5-03822-P03-CH0	508400	OK	0.8011157	-0.2056339	-0.562075	0	-89.194	-62.399	-1.968	B5-03822-P03-CH1	508400	OK	0.764717	-0.5862101	0.2675174	0	-96.164	-19.738	-22.357	B5-03822-P04-CH0	508400	OK	0.7686025	-0.3910784	0.5062686	0	-119.227	-46.742	-3.077	B5-03822-P04-CH1	508400	OK	0.7183244	-0.6462666	0.257584	0	-106.202	-39.79	-18.719	NA
0.209827315541601	B5-03822-P01-CH0	508408	OK	0.2418838	0.0169917	0.0906741	-0.9659098	107.721	-30.3	-259.857	B5-03822-P02-CH0	508408	OK	0.7248354	0.4927199	-0.4814984	0	-73.187	-97.088	-6.531	B5-03822-P02-CH1	508408	OK	0.7193485	0.108977	-0.686048	0	-72.068	-78.278	-4.159	B5-03822-P03-CH0	508408	OK	0.8058476	-0.1775636	-0.5648724	0	-91.953	-64.368	-0.863	B5-03822-P03-CH1	508408	OK	0.7647143	-0.5857924	0.2684387	0	-95.817	-20.177	-22.269	B5-03822-P04-CH0	508408	OK	0.7689091	-0.391452	0.5055137	0	-119.404	-47.107	-3.023	B5-03822-P04-CH1	508408	OK	0.7183546	-0.6460987	0.2579209	0	-106.35	-39.843	-18.749	NA
0.219819092472154	B5-03822-P01-CH0	508416	OK	0.2421618	0.0169564	0.0912191	-0.9657894	107.808	-30.324	-259.881	B5-03822-P02-CH0	508416	OK	0.7242546	0.4802664	-0.4947722	0	-72.962	-97.757	-7.795	B5-03822-P02-CH1	508416	OK	0.7348534	0.1115451	-0.6689904	0	-74.165	-79.754	-4.012	B5-03822-P03-CH0	508416	OK	0.8193894	-0.146562	-0.5541847	0	-92.349	-62.839	-1.553	B5-03822-P03-CH1	508416	OK	0.7662517	-0.5823295	0.2715707	0	-96.628	-21.233	-21.06	B5-03822-P04-CH0	508416	OK	0.7700661	-0.3924856	0.5029446	0	-119.704	-47.306	-2.671	B5-03822-P04-CH1	508416	OK	0.7187797	-0.6454937	0.2582511	0	-106.463	-39.828	-19.209	NA
0.229810869402706	B5-03822-P01-CH0	508424	OK	0.2421402	0.0169938	0.0909095	-0.9658234	107.858	-30.374	-259.886	B5-03822-P02-CH0	508424	OK	0.7224998	0.4712652	-0.5058688	0	-74.047	-97.909	-6.706	B5-03822-P02-CH1	508424	OK	0.7465914	0.1192147	-0.6545144	0	-76.112	-80.449	-2.719	B5-03822-P03-CH0	508424	OK	0.8288321	-0.1276758	-0.544735	0	-92.691	-64.867	2.176	B5-03822-P03-CH1	508424	OK	0.7647899	-0.583026	0.2741845	0	-96.648	-21.838	-19.97	B5-03822-P04-CH0	508424	OK	0.7685782	-0.3935317	0.504401	0	-119.779	-47.779	-1.469	B5-03822-P04-CH1	508424	OK	0.7186736	-0.6453287	0.2589578	0	-106.64	-40.03	-18.773	NA
0.239802646333259	B5-03822-P01-CH0	508432	OK	0.2421605	0.0171487	0.0906793	-0.9658372	107.868	-30.356	-259.792	B5-03822-P02-CH0	508432	OK	0.7246675	0.463593	-0.5098417	0	-74.05	-99.454	-6.751	B5-03822-P02-CH1	508432	OK	0.7547439	0.1276415	-0.6434822	0	-77.819	-82.575	-1.685	B5-03822-P03-CH0	508432	OK	0.8343182	-0.1194096	-0.5381956	0	-94.076	-65.988	1.31	B5-03822-P03-CH1	508432	OK	0.7674135	-0.5769632	0.2796248	0	-96.966	-23.421	-18.932	B5-03822-P04-CH0	508432	OK	0.7689575	-0.394171	0.5033226	0	-119.701	-47.166	-2.215	B5-03822-P04-CH1	508432	OK	0.7185156	-0.645318	0.2594224	0	-106.721	-40.1	-18.583	NA
0.249794423263811	B5-03822-P01-CH0	508440	OK	0.242268	0.0169381	0.0909576	-0.9657878	107.808	-30.328	-259.733	B5-03822-P02-CH0	508440	OK	0.7252876	0.4611523	-0.5111717	0	-74.18	-99.749	-8.725	B5-03822-P02-CH1	508440	OK	0.7605562	0.1409054	-0.633798	0	-77.96	-81.786	-2.2	B5-03822-P03-CH0	508440	OK	0.8407891	-0.1189423	-0.5281349	0	-94.732	-64.853	-0.894	B5-03822-P03-CH1	508440	OK	0.7673633	-0.5743664	0.2850556	0	-96.823	-25.257	-16.801	B5-03822-P04-CH0	508440	OK	0.7693716	-0.3947303	0.5022502	0	-119.599	-46.854	-2.354	B5-03822-P04-CH1	508440	OK	0.7188221	-0.6450851	0.2591523	0	-106.769	-39.868	-19.066	NA
0.259786200194363	B5-03822-P01-CH0	508448	OK	0.2423105	0.0169566	0.0907214	-0.965799	107.82	-30.323	-259.741	B5-03822-P02-CH0	508448	OK	0.7245005	0.4579359	-0.5151638	0	-74.678	-99.87	-8.485	B5-03822-P02-CH1	508448	OK	0.7639869	0.1509782	-0.6273193	0	-78.257	-82.38	-1.5	B5-03822-P03-CH0	508448	OK	0.8495741	-0.1289975	-0.5114524	0	-94.274	-63.921	1.022	B5-03822-P03-CH1	508448	OK	0.7681197	-0.5718644	0.2880334	0	-96.92	-25.491	-16.1	B5-03822-P04-CH0	508448	OK	0.7698128	-0.4031807	0.4948066	0	-120.976	-49.112	0.089	B5-03822-P04-CH1	508448	OK	0.7191516	-0.6449086	0.2586774	0	-106.89	-39.612	-18.939	NA
0.269777977124916	B5-03822-P01-CH0	508456	OK	0.2421337	0.0170795	0.0900906	-0.9659002	107.834	-30.359	-259.682	B5-03822-P02-CH0	508456	OK	0.7232073	0.4548267	-0.5197152	0	-75.687	-100.556	-6.428	B5-03822-P02-CH1	508456	OK	0.7661106	0.1600696	-0.6224566	0	-78.75	-83.543	-0.922	B5-03822-P03-CH0	508456	OK	0.8555672	-0.1504358	-0.4953522	0	-94.74	-64.941	2.052	B5-03822-P03-CH1	508456	OK	0.7696026	-0.5690417	0.2896608	0	-97.171	-24.522	-17.738	B5-03822-P04-CH0	508456	OK	0.7687979	-0.4101401	0.4906475	0	-121.006	-47.184	-4.244	B5-03822-P04-CH1	508456	OK	0.7187873	-0.6453298	0.2586392	0	-106.868	-39.735	-18.37	NA
0.279769754055468	B5-03822-P01-CH0	508464	OK	0.2421834	0.0168513	0.0900336	-0.9658971	107.686	-30.319	-259.581	B5-03822-P02-CH0	508464	OK	0.7238231	0.4525764	-0.5208212	0	-75.449	-100.853	-6.218	B5-03822-P02-CH1	508464	OK	0.7669844	0.1723646	-0.618082	0	-78.885	-84.219	-1.184	B5-03822-P03-CH0	508464	OK	0.8615306	-0.1738323	-0.4770193	0	-94.63	-64.95	2.625	B5-03822-P03-CH1	508464	OK	0.7695425	-0.5653704	0.2969188	0	-97.849	-27.064	-14.535	B5-03822-P04-CH0	508464	OK	0.7686481	-0.4122849	0.489082	0	-120.41	-45.885	-4.757	B5-03822-P04-CH1	508464	OK	0.7187352	-0.6455125	0.2583281	0	-106.676	-39.608	-18.397	NA
0.289761530986021	B5-03822-P01-CH0	508472	OK	0.2424043	0.0166652	0.0907477	-0.9657781	107.635	-30.264	-259.604	B5-03822-P02-CH0	508472	OK	0.7253976	0.450345	-0.5205649	0	-75.287	-102.135	-5.772	B5-03822-P02-CH1	508472	OK	0.7666447	0.1864595	-0.6144011	0	-79.13	-84.61	-1.86	B5-03822-P03-CH0	508472	OK	0.8649662	-0.1989631	-0.4607029	0	-94.736	-64.662	2.3	B5-03822-P03-CH1	508472	OK	0.7703118	-0.5637722	0.2979609	0	-96.556	-26.049	-16.989	B5-03822-P04-CH0	508472	OK	0.7693797	-0.4086231	0.491001	0	-120.834	-48.941	0.298	B5-03822-P04-CH1	508472	OK	0.7194681	-0.6450938	0.2573317	0	-106.531	-39.189	-18.948	NA
0.299753307916573	B5-03822-P01-CH0	508480	OK	0.2422353	0.0169799	0.0905369	-0.9658348	107.684	-30.248	-259.455	B5-03822-P02-CH0	508480	OK	0.7264105	0.448997	-0.5203168	0	-75.519	-102.466	-5.517	B5-03822-P02-CH1	508480	OK	0.7657745	0.1981739	-0.6118141	0	-80.076	-85.749	-0.669	B5-03822-P03-CH0	508480	OK	0.8645627	-0.2248994	-0.4493903	0	-94.491	-64.788	2.843	B5-03822-P03-CH1	508480	OK	0.7714924	-0.5620608	0.2981394	0	-96.236	-25.056	-17.82	B5-03822-P04-CH0	508480	OK	0.7695838	-0.4115343	0.4882421	0	-120.788	-47.698	-1.373	B5-03822-P04-CH1	508480	OK	0.7196898	-0.6453068	0.2561752	0	-106.584	-38.802	-19.394	NA
0.309745084847126	B5-03822-P01-CH0	508488	OK	0.2422789	0.0167641	0.0909676	-0.9657871	107.595	-30.257	-259.403	B5-03822-P02-CH0	508488	OK	0.7262365	0.4473104	-0.5220094	0	-75.487	-102.171	-7.147	B5-03822-P02-CH1	508488	OK	0.7649046	0.2111602	-0.6085494	0	-79.827	-85.312	-1.622	B5-03822-P03-CH0	508488	OK	0.8590506	-0.2425657	-0.4507703	0	-94.318	-64.558	2.468	B5-03822-P03-CH1	508488	OK	0.7714117	-0.5597448	0.3026711	0	-96.907	-26.925	-15.538	B5-03822-P04-CH0	508488	OK	0.7704365	-0.4123773	0.4861815	0	-120.651	-46.836	-1.434	B5-03822-P04-CH1	508488	OK	0.7198526	-0.6449682	0.2565704	0	-106.588	-39.052	-19.077	NA
0.319736861777678	B5-03822-P01-CH0	508496	OK	0.2419784	0.0167049	0.0906286	-0.9658954	107.446	-30.266	-259.32	B5-03822-P02-CH0	508496	OK	0.7272143	0.4432462	-0.5241108	0	-74.986	-101.929	-7.039	B5-03822-P02-CH1	508496	OK	0.7639724	0.2206201	-0.6063604	0	-79.114	-84.999	-2.674	B5-03822-P03-CH0	508496	OK	0.850603	-0.2518756	-0.4615553	0	-93.098	-64.082	1.584	B5-03822-P03-CH1	508496	OK	0.7700768	-0.5586215	0.3080968	0	-97.442	-29.319	-12.709	B5-03822-P04-CH0	508496	OK	0.7688866	-0.4132083	0.4879265	0	-120.584	-48.214	-1.279	B5-03822-P04-CH1	508496	OK	0.7196167	-0.6453055	0.2563836	0	-106.518	-39.162	-18.605	NA
0.32972863870823	B5-03822-P01-CH0	508504	OK	0.2418086	0.0164865	0.0909191	-0.9659143	107.278	-30.249	-259.243	B5-03822-P02-CH0	508504	OK	0.7284332	0.4381881	-0.5266652	0	-74.68	-101.485	-7.645	B5-03822-P02-CH1	508504	OK	0.7620176	0.2233409	-0.6078224	0	-79.579	-85.613	-2.537	B5-03822-P03-CH0	508504	OK	0.8376304	-0.252827	-0.4842042	0	-92.166	-63.153	0.248	B5-03822-P03-CH1	508504	OK	0.7704602	-0.5590325	0.3063881	0	-96.723	-27.814	-14.982	B5-03822-P04-CH0	508504	OK	0.769778	-0.4103956	0.4888939	0	-120.204	-46.377	-2.935	B5-03822-P04-CH1	508504	OK	0.7197373	-0.645318	0.2560134	0	-106.344	-39.122	-18.436	NA
0.339720415638783	B5-03822-P01-CH0	508512	OK	0.2416994	0.0162137	0.0912571	-0.9659144	107.119	-30.256	-259.221	B5-03822-P02-CH0	508512	OK	0.7293951	0.4326376	-0.5299128	0	-75.024	-101.033	-7.056	B5-03822-P02-CH1	508512	OK	0.7628558	0.2268265	-0.6054757	0	-79.578	-85.014	-1.683	B5-03822-P03-CH0	508512	OK	0.8232071	-0.2505903	-0.5094453	0	-91.065	-62.328	-0.673	B5-03822-P03-CH1	508512	OK	0.7723679	-0.5579207	0.3035991	0	-97.121	-26.364	-14.915	B5-03822-P04-CH0	508512	OK	0.7696404	-0.4115134	0.4881705	0	-120.109	-46.546	-2.773	B5-03822-P04-CH1	508512	OK	0.7202408	-0.6451224	0.2550889	0	-106.294	-38.765	-18.719	NA
0.349712192569335	B5-03822-P01-CH0	508520	OK	0.2415453	0.016691	0.0906499	-0.966002	107.174	-30.36	-259.114	B5-03822-P02-CH0	508520	OK	0.7357202	0.4262589	-0.526326	0	-74.115	-101.398	-7.481	B5-03822-P02-CH1	508520	OK	0.7666748	0.2278709	-0.6002371	0	-80.115	-85.571	-0.868	B5-03822-P03-CH0	508520	OK	0.8109327	-0.2551205	-0.5265944	0	-90.941	-61.709	-1.052	B5-03822-P03-CH1	508520	OK	0.7710494	-0.5589535	0.3050473	0	-97.079	-27.765	-13.96	B5-03822-P04-CH0	508520	OK	0.7694292	-0.4129636	0.4872778	0	-120.076	-46.556	-2.905	B5-03822-P04-CH1	508520	OK	0.7198139	-0.6456897	0.2548582	0	-106.263	-38.921	-18.341	NA
0.359703969499888	B5-03822-P01-CH0	508528	OK	0.2414382	0.0170725	0.0905634	-0.9660302	107.218	-30.419	-259.042	B5-03822-P02-CH0	508528	OK	0.7400334	0.422525	-0.5232812	0	-73.985	-101.38	-7.442	B5-03822-P02-CH1	508528	OK	0.7703002	0.2312188	-0.5942857	0	-80.669	-84.788	-0.996	B5-03822-P03-CH0	508528	OK	0.8031278	-0.2654195	-0.5334212	0	-90.901	-60.729	-2.443	B5-03822-P03-CH1	508528	OK	0.7713769	-0.5615265	0.2994422	0	-96.493	-25.564	-17.089	B5-03822-P04-CH0	508528	OK	0.7694692	-0.4138695	0.4864455	0	-119.943	-46.454	-3.064	B5-03822-P04-CH1	508528	OK	0.7193828	-0.6461574	0.2548899	0	-106.167	-39.256	-18.148	NA
0.36969574643044	B5-03822-P01-CH0	508536	OK	0.2413183	0.0170697	0.090883	-0.9660302	107.148	-30.388	-259.025	B5-03822-P02-CH0	508536	OK	0.7402222	0.4197511	-0.5252429	0	-74.178	-100.459	-7.344	B5-03822-P02-CH1	508536	OK	0.7717845	0.2293438	-0.5930853	0	-81.443	-85.028	-0.846	B5-03822-P03-CH0	508536	OK	0.7992591	-0.2715988	-0.5361147	0	-89.536	-60.183	-2.227	B5-03822-P03-CH1	508536	OK	0.7714054	-0.5605067	0.3012738	0	-96.522	-26.132	-16.422	B5-03822-P04-CH0	508536	OK	0.7697855	-0.4140722	0.4857721	0	-119.889	-46.349	-2.964	B5-03822-P04-CH1	508536	OK	0.7196278	-0.6462851	0.2538728	0	-106.095	-38.978	-18.342	NA
0.379687523360993	B5-03822-P01-CH0	508544	OK	0.2410637	0.0176995	0.0903486	-0.9661326	107.317	-30.419	-258.974	B5-03822-P02-CH0	508544	OK	0.7406113	0.4126628	-0.5302871	0	-73.982	-100.351	-6.587	B5-03822-P02-CH1	508544	OK	0.7739396	0.2273794	-0.5910297	0	-80.763	-84.619	-0.906	B5-03822-P03-CH0	508544	OK	0.7955191	-0.2743712	-0.5402498	0	-90.208	-59.626	-1.854	B5-03822-P03-CH1	508544	OK	0.7712261	-0.5602678	0.3021761	0	-96.762	-26.519	-15.904	B5-03822-P04-CH0	508544	OK	0.7697605	-0.4146913	0.4852833	0	-120.016	-46.437	-2.918	B5-03822-P04-CH1	508544	OK	0.7188895	-0.6469432	0.254288	0	-106.418	-39.45	-18.034	NA
0.389679300291545	B5-03822-P01-CH0	508552	OK	0.2409211	0.0179914	0.0899491	-0.9662	107.35	-30.442	-258.803	B5-03822-P02-CH0	508552	OK	0.740993	0.4038983	-0.5364658	0	-73.757	-100.808	-6.927	B5-03822-P02-CH1	508552	OK	0.7735875	0.2262364	-0.5919285	0	-80.72	-84.623	-1.238	B5-03822-P03-CH0	508552	OK	0.7963308	-0.2745397	-0.5389668	0	-90.215	-59.248	-2.346	B5-03822-P03-CH1	508552	OK	0.7709135	-0.5601893	0.3031178	0	-96.916	-26.886	-15.675	B5-03822-P04-CH0	508552	OK	0.7697684	-0.4152228	0.484816	0	-120.03	-46.178	-3.398	B5-03822-P04-CH1	508552	OK	0.7184642	-0.6473641	0.2544186	0	-106.535	-39.645	-17.78	NA
0.399671077222098	B5-03822-P01-CH0	508560	OK	0.2409534	0.0180068	0.0894595	-0.9662372	107.322	-30.481	-258.753	B5-03822-P02-CH0	508560	OK	0.7390149	0.3970582	-0.5442442	0	-73.866	-100.763	-5.709	B5-03822-P02-CH1	508560	OK	0.7720362	0.2282202	-0.593191	0	-80.679	-84.143	-1.733	B5-03822-P03-CH0	508560	OK	0.7984928	-0.2771049	-0.5344363	0	-90.209	-60.168	-1.131	B5-03822-P03-CH1	508560	OK	0.7705567	-0.560229	0.3039505	0	-96.952	-27.186	-15.29	B5-03822-P04-CH0	508560	OK	0.7696065	-0.4156061	0.4847447	0	-120.001	-45.918	-4.053	B5-03822-P04-CH1	508560	OK	0.7177814	-0.6478413	0.2551302	0	-106.468	-40.028	-17.229	NA
0.40966285415265	B5-03822-P01-CH0	508568	OK	0.2409576	0.0183147	0.0891096	-0.9662626	107.36	-30.455	-258.666	B5-03822-P02-CH0	508568	OK	0.7369989	0.3934314	-0.5495856	0	-73.718	-100.592	-5.81	B5-03822-P02-CH1	508568	OK	0.7705341	0.2309997	-0.5940677	0	-80.773	-84.49	-1.399	B5-03822-P03-CH0	508568	OK	0.800582	-0.2829888	-0.528191	0	-90.522	-60.133	-2.388	B5-03822-P03-CH1	508568	OK	0.7703164	-0.5605063	0.3040483	0	-96.961	-27.158	-15.375	B5-03822-P04-CH0	508568	OK	0.7694196	-0.4147998	0.485731	0	-120.045	-46.376	-3.551	B5-03822-P04-CH1	508568	OK	0.7177053	-0.6483016	0.2541736	0	-106.455	-39.672	-17.761	NA
0.419654631083202	B5-03822-P01-CH0	508576	OK	0.241055	0.0183803	0.0890522	-0.9662424	107.372	-30.387	-258.597	B5-03822-P02-CH0	508576	OK	0.7361569	0.3923243	-0.5515022	0	-73.472	-100.97	-6.572	B5-03822-P02-CH1	508576	OK	0.7698605	0.2356244	-0.5931239	0	-80.472	-84.669	-1.789	B5-03822-P03-CH0	508576	OK	0.8029956	-0.2910835	-0.5200659	0	-91.038	-60.428	-1.642	B5-03822-P03-CH1	508576	OK	0.7701683	-0.5606609	0.3041385	0	-96.974	-27.176	-15.276	B5-03822-P04-CH0	508576	OK	0.7695256	-0.4139642	0.4862756	0	-120.125	-46.353	-3.593	B5-03822-P04-CH1	508576	OK	0.7177667	-0.64837	0.2538254	0	-106.538	-39.423	-18.105	NA
0.429646408013755	B5-03822-P01-CH0	508584	OK	0.2412604	0.0185198	0.0894295	-0.9661536	107.426	-30.26	-258.49	B5-03822-P02-CH0	508584	OK	0.7338143	0.3978397	-0.5506725	0	-73.851	-100.37	-7.567	B5-03822-P02-CH1	508584	OK	0.7676543	0.2410465	-0.5938042	0	-81.004	-84.965	-1.917	B5-03822-P03-CH0	508584	OK	0.806514	-0.2982787	-0.5104556	0	-90.745	-60.45	-1.927	B5-03822-P03-CH1	508584	OK	0.7702935	-0.5603907	0.3043191	0	-97.158	-27.171	-15.222	B5-03822-P04-CH0	508584	OK	0.7698091	-0.4127697	0.486842	0	-120.233	-46.41	-3.422	B5-03822-P04-CH1	508584	OK	0.7180766	-0.6481198	0.2535879	0	-106.649	-39.19	-18.44	NA
0.439638184944307	B5-03822-P01-CH0	508592	OK	0.2413656	0.0184916	0.089601	-0.966112	107.443	-30.215	-258.46	B5-03822-P02-CH0	508592	OK	0.7317917	0.4057217	-0.5476047	0	-73.946	-101.147	-7.18	B5-03822-P02-CH1	508592	OK	0.7657026	0.2477579	-0.5935617	0	-80.44	-84.509	-1.854	B5-03822-P03-CH0	508592	OK	0.8082626	-0.3066841	-0.5026494	0	-90.954	-60.962	-0.839	B5-03822-P03-CH1	508592	OK	0.7702259	-0.5603749	0.3045193	0	-97.195	-27.188	-15.175	B5-03822-P04-CH0	508592	OK	0.7699814	-0.4112939	0.4878176	0	-120.393	-46.795	-2.927	B5-03822-P04-CH1	508592	OK	0.7181987	-0.6480547	0.2534084	0	-106.567	-39.079	-18.617	NA
0.44962996187486	B5-03822-P01-CH0	508600	OK	0.2415061	0.0180648	0.0902729	-0.9660224	107.334	-30.101	-258.438	B5-03822-P02-CH0	508600	OK	0.7294184	0.4144926	-0.5441918	0	-73.689	-101.768	-7.588	B5-03822-P02-CH1	508600	OK	0.7624437	0.2500688	-0.596779	0	-80.515	-84.958	-1.828	B5-03822-P03-CH0	508600	OK	0.811093	-0.3140115	-0.4934823	0	-90.988	-60.894	-1.848	B5-03822-P03-CH1	508600	OK	0.7704172	-0.5600245	0.30468	0	-97.096	-27	-15.236	B5-03822-P04-CH0	508600	OK	0.7701315	-0.4101715	0.4885252	0	-120.376	-46.961	-2.718	B5-03822-P04-CH1	508600	OK	0.718926	-0.6473877	0.2530506	0	-106.61	-38.663	-19.22	NA
0.459621738805412	B5-03822-P01-CH0	508608	OK	0.2411725	0.0179272	0.0897198	-0.9661598	107.297	-30.098	-258.431	B5-03822-P02-CH0	508608	OK	0.7264323	0.4232569	-0.541433	0	-74.212	-102.478	-6.913	B5-03822-P02-CH1	508608	OK	0.7593106	0.2538275	-0.5991819	0	-80.486	-84.971	-2.844	B5-03822-P03-CH0	508608	OK	0.8149474	-0.3199313	-0.4832232	0	-90.857	-61.498	-1.037	B5-03822-P03-CH1	508608	OK	0.7698745	-0.5608611	0.3045129	0	-97.057	-26.901	-15.249	B5-03822-P04-CH0	508608	OK	0.7698352	-0.4099947	0.4891401	0	-120.484	-47.153	-2.393	B5-03822-P04-CH1	508608	OK	0.7183776	-0.6478025	0.2535458	0	-106.748	-38.889	-19.002	NA
0.469613515735965	B5-03822-P01-CH0	508616	OK	0.2412318	0.0179974	0.0891908	-0.9661927	107.316	-30.119	-258.356	B5-03822-P02-CH0	508616	OK	0.7235358	0.4325096	-0.5379883	0	-74.279	-102.485	-7.392	B5-03822-P02-CH1	508616	OK	0.7559859	0.2579917	-0.6016025	0	-80.035	-84.803	-3.679	B5-03822-P03-CH0	508616	OK	0.8189003	-0.322418	-0.4748147	0	-90.496	-61.912	-0.776	B5-03822-P03-CH1	508616	OK	0.7696324	-0.5613811	0.3041665	0	-97.019	-26.506	-15.77	B5-03822-P04-CH0	508616	OK	0.7696754	-0.4098129	0.4895439	0	-120.544	-47.291	-2.183	B5-03822-P04-CH1	508616	OK	0.7178489	-0.6479739	0.2546031	0	-106.808	-39.254	-18.851	NA
0.479605292666517	B5-03822-P01-CH0	508624	OK	0.2413989	0.0179502	0.0890215	-0.9661675	107.29	-30.116	-258.288	B5-03822-P02-CH0	508624	OK	0.7199057	0.4407037	-0.5362052	0	-74.812	-102.415	-7.564	B5-03822-P02-CH1	508624	OK	0.7524377	0.2593956	-0.605435	0	-79.616	-84.889	-3.62	B5-03822-P03-CH0	508624	OK	0.8211995	-0.3197419	-0.4726483	0	-90.908	-61.985	-1.136	B5-03822-P03-CH1	508624	OK	0.769073	-0.5617297	0.3049367	0	-96.952	-26.7	-15.782	B5-03822-P04-CH0	508624	OK	0.769461	-0.4101716	0.4895805	0	-120.487	-47.221	-2.511	B5-03822-P04-CH1	508624	OK	0.7180882	-0.6477435	0.2545147	0	-106.728	-38.967	-19.238	NA
0.48959706959707	B5-03822-P01-CH0	508632	OK	0.2413206	0.0180774	0.0884095	-0.9662408	107.306	-30.107	-258.275	B5-03822-P02-CH0	508632	OK	0.7185737	0.4467432	-0.5329844	0	-74.831	-102.152	-7.477	B5-03822-P02-CH1	508632	OK	0.7489548	0.2593322	-0.6097651	0	-79.732	-85.208	-3.164	B5-03822-P03-CH0	508632	OK	0.8228317	-0.314591	-0.4732658	0	-90.727	-62.335	-0.111	B5-03822-P03-CH1	508632	OK	0.7683823	-0.5623322	0.3055668	0	-96.983	-26.913	-15.347	B5-03822-P04-CH0	508632	OK	0.7690016	-0.4111287	0.4894994	0	-120.488	-47.252	-2.482	B5-03822-P04-CH1	508632	OK	0.7178947	-0.6479441	0.2545499	0	-106.817	-38.879	-19.372	NA
0.499588846527622	B5-03822-P01-CH0	508640	OK	0.2416018	0.0177544	0.0891338	-0.96611	107.183	-30.048	-258.172	B5-03822-P02-CH0	508640	OK	0.7188878	0.4514073	-0.5286131	0	-74.438	-102.415	-8.686	B5-03822-P02-CH1	508640	OK	0.7460597	0.2616754	-0.6123079	0	-79.494	-84.556	-4.13	B5-03822-P03-CH0	508640	OK	0.8248697	-0.3081201	-0.4739746	0	-90.598	-63.164	0.44	B5-03822-P03-CH1	508640	OK	0.7684643	-0.5619095	0.3061378	0	-96.853	-26.851	-15.522	B5-03822-P04-CH0	508640	OK	0.7690626	-0.4112278	0.4893203	0	-120.356	-47.347	-2.31	B5-03822-P04-CH1	508640	OK	0.7184647	-0.6471582	0.2549407	0	-106.866	-38.834	-19.661	NA
0.509580623458174	B5-03822-P01-CH0	508648	OK	0.2417463	0.0177239	0.0889029	-0.9660957	107.167	-30.053	-258.121	B5-03822-P02-CH0	508648	OK	0.7174845	0.4553489	-0.527137	0	-75.249	-102.114	-7.352	B5-03822-P02-CH1	508648	OK	0.7446957	0.260622	-0.6144139	0	-79.756	-85.319	-3.866	B5-03822-P03-CH0	508648	OK	0.8269779	-0.2978301	-0.4768698	0	-90.914	-63.354	0.447	B5-03822-P03-CH1	508648	OK	0.7682015	-0.5622941	0.3060912	0	-96.686	-26.617	-15.785	B5-03822-P04-CH0	508648	OK	0.7688169	-0.4130641	0.4881584	0	-120.252	-46.991	-2.84	B5-03822-P04-CH1	508648	OK	0.718277	-0.6471159	0.2555762	0	-106.825	-38.984	-19.677	NA
0.519572400388727	B5-03822-P01-CH0	508656	OK	0.2417029	0.0178413	0.0886936	-0.9661236	107.207	-30.096	-258.15	B5-03822-P02-CH0	508656	OK	0.7190559	0.4563409	-0.5241294	0	-75.848	-102.57	-7.626	B5-03822-P02-CH1	508656	OK	0.7448996	0.2615144	-0.6137872	0	-79.789	-85.412	-2.843	B5-03822-P03-CH0	508656	OK	0.8286182	-0.2825595	-0.4832721	0	-91.409	-63.301	0.652	B5-03822-P03-CH1	508656	OK	0.7681229	-0.5625777	0.3057671	0	-96.629	-26.311	-16.213	B5-03822-P04-CH0	508656	OK	0.7668303	-0.4268681	0.4793276	0	-119.673	-46.172	-4.859	B5-03822-P04-CH1	508656	OK	0.7183233	-0.6471501	0.2553595	0	-106.777	-38.908	-19.748	NA
0.529564177319279	B5-03822-P01-CH0	508664	OK	0.2417902	0.0177684	0.0887686	-0.9660962	107.197	-30.094	-258.224	B5-03822-P02-CH0	508664	OK	0.7222483	0.4565304	-0.519555	0	-75.142	-102.477	-8.381	B5-03822-P02-CH1	508664	OK	0.7475017	0.2619631	-0.6104233	0	-79.471	-85.245	-3.553	B5-03822-P03-CH0	508664	OK	0.8291653	-0.2583796	-0.4957064	0	-91.736	-63.125	0.296	B5-03822-P03-CH1	508664	OK	0.7680344	-0.5625882	0.3059701	0	-96.498	-26.317	-16.089	B5-03822-P04-CH0	508664	OK	0.7663904	-0.4267905	0.4800996	0	-119.642	-47.648	-2.847	B5-03822-P04-CH1	508664	OK	0.7183971	-0.6470495	0.2554067	0	-106.775	-38.936	-19.968	NA
0.539555954249832	B5-03822-P01-CH0	508672	OK	0.2419821	0.0178404	0.0887016	-0.966053	107.209	-30.085	-258.198	B5-03822-P02-CH0	508672	OK	0.7229413	0.4558374	-0.5191996	0	-75.565	-102.732	-7.444	B5-03822-P02-CH1	508672	OK	0.7482523	0.2584193	-0.6110139	0	-80.294	-86.115	-2.765	B5-03822-P03-CH0	508672	OK	0.8272254	-0.2345869	-0.5105557	0	-91.922	-64.176	1.11	B5-03822-P03-CH1	508672	OK	0.7678606	-0.5625722	0.3064353	0	-96.488	-26.395	-16.151	B5-03822-P04-CH0	508672	OK	0.767141	-0.4266391	0.4790342	0	-120.056	-47.335	-2.317	B5-03822-P04-CH1	508672	OK	0.7183974	-0.647023	0.2554729	0	-106.756	-38.943	-20.094	NA
0.549547731180384	B5-03822-P01-CH0	508680	OK	0.2417281	0.0184416	0.0875613	-0.9662093	107.382	-30.185	-258.19	B5-03822-P02-CH0	508680	OK	0.7228473	0.4577039	-0.5176862	0	-75.983	-102.453	-8.129	B5-03822-P02-CH1	508680	OK	0.7485341	0.2587625	-0.6105233	0	-80.171	-85.581	-3.199	B5-03822-P03-CH0	508680	OK	0.8204908	-0.2149898	-0.5296926	0	-92.238	-64.255	0.12	B5-03822-P03-CH1	508680	OK	0.7670743	-0.5634982	0.306703	0	-96.671	-26.739	-16.028	B5-03822-P04-CH0	508680	OK	0.7663618	-0.4280144	0.4790546	0	-120.022	-47.549	-2.053	B5-03822-P04-CH1	508680	OK	0.7177869	-0.6478317	0.2551392	0	-106.824	-39.064	-19.778	NA
0.559539508110937	B5-03822-P01-CH0	508688	OK	0.2418537	0.018593	0.0874573	-0.9661844	107.398	-30.146	-258.151	B5-03822-P02-CH0	508688	OK	0.7221679	0.4618803	-0.5149176	0	-75.699	-102.035	-8.245	B5-03822-P02-CH1	508688	OK	0.7474014	0.2579707	-0.6122436	0	-79.63	-85.147	-3.09	B5-03822-P03-CH0	508688	OK	0.8175681	-0.2020652	-0.5392143	0	-90.694	-63.995	1.579	B5-03822-P03-CH1	508688	OK	0.767037	-0.5636478	0.3065213	0	-96.628	-26.545	-16.329	B5-03822-P04-CH0	508688	OK	0.7673088	-0.4248683	0.4803376	0	-119.911	-45.834	-4.539	B5-03822-P04-CH1	508688	OK	0.7178413	-0.64781	0.2550413	0	-106.873	-38.92	-20.132	NA
0.569531285041489	B5-03822-P01-CH0	508696	OK	0.2419503	0.0188274	0.0873441	-0.9661659	107.471	-30.115	-258.179	B5-03822-P02-CH0	508696	OK	0.7211429	0.4644203	-0.5140687	0	-75.852	-101.997	-7.622	B5-03822-P02-CH1	508696	OK	0.7456772	0.2553889	-0.6154201	0	-79.328	-85.178	-2.433	B5-03822-P03-CH0	508696	OK	0.8136095	-0.1985112	-0.5464731	0	-92.246	-64.299	-0.239	B5-03822-P03-CH1	508696	OK	0.7669261	-0.5637106	0.3066833	0	-96.647	-26.635	-16.169	B5-03822-P04-CH0	508696	OK	0.7669091	-0.4259845	0.4799872	0	-119.999	-46.276	-4.165	B5-03822-P04-CH1	508696	OK	0.7177832	-0.6477961	0.2552402	0	-106.886	-39.035	-19.852	NA
0.579523061972042	B5-03822-P01-CH0	508704	OK	0.2417627	0.0185539	0.0877404	-0.9661823	107.339	-30.06	-258.211	B5-03822-P02-CH0	508704	OK	0.7201981	0.465677	-0.5142565	0	-75.73	-101.937	-7.704	B5-03822-P02-CH1	508704	OK	0.7436426	0.2512536	-0.6195703	0	-78.986	-85.02	-2.18	B5-03822-P03-CH0	508704	OK	0.8133778	-0.1959365	-0.5477458	0	-92.186	-64	-1.296	B5-03822-P03-CH1	508704	OK	0.7671348	-0.5636185	0.3063306	0	-96.531	-26.398	-16.36	B5-03822-P04-CH0	508704	OK	0.7667866	-0.4276005	0.4787443	0	-119.901	-46.005	-4.415	B5-03822-P04-CH1	508704	OK	0.7180466	-0.6477884	0.2545176	0	-106.681	-38.87	-19.659	NA
0.589514838902594	B5-03822-P01-CH0	508712	OK	0.2416884	0.0184059	0.0880384	-0.9661766	107.26	-30.06	-258.164	B5-03822-P02-CH0	508712	OK	0.717983	0.4668907	-0.5162494	0	-76.083	-101.689	-6.587	B5-03822-P02-CH1	508712	OK	0.7406701	0.2483421	-0.6242868	0	-78.503	-84.247	-3.688	B5-03822-P03-CH0	508712	OK	0.8120495	-0.1953897	-0.5499077	0	-91.958	-63.932	-0.786	B5-03822-P03-CH1	508712	OK	0.7672344	-0.5634032	0.3064771	0	-96.555	-26.506	-16.31	B5-03822-P04-CH0	508712	OK	0.7667084	-0.4288461	0.4777544	0	-119.737	-45.837	-4.425	B5-03822-P04-CH1	508712	OK	0.7182842	-0.6476852	0.2541096	0	-106.647	-38.687	-19.923	NA
0.599506615833146	B5-03822-P01-CH0	508720	OK	0.2413363	0.0187935	0.087434	-0.966312	107.364	-30.075	-258.266	B5-03822-P02-CH0	508720	OK	0.7169339	0.4671271	-0.5174921	0	-76.396	-102.342	-4.977	B5-03822-P02-CH1	508720	OK	0.7378584	0.2463917	-0.6283758	0	-77.752	-83.514	-4.308	B5-03822-P03-CH0	508720	OK	0.8112014	-0.1960727	-0.5509154	0	-91.332	-63.089	-1.408	B5-03822-P03-CH1	508720	OK	0.7669202	-0.5638579	0.3064271	0	-96.731	-26.675	-15.996	B5-03822-P04-CH0	508720	OK	0.7663402	-0.4304201	0.476929	0	-119.734	-45.781	-4.143	B5-03822-P04-CH1	508720	OK	0.7178395	-0.6482826	0.2538427	0	-106.739	-38.689	-19.928	NA
0.609498392763699	B5-03822-P01-CH0	508728	OK	0.241068	0.0187594	0.0874323	-0.9663798	107.317	-30.062	-258.302	B5-03822-P02-CH0	508728	OK	0.7160676	0.4694912	-0.5165513	0	-75.657	-101.612	-6.507	B5-03822-P02-CH1	508728	OK	0.7349326	0.2441319	-0.6326718	0	-77.37	-83.272	-5.632	B5-03822-P03-CH0	508728	OK	0.8088446	-0.1985841	-0.5534751	0	-91.147	-63.385	-1.218	B5-03822-P03-CH1	508728	OK	0.7667308	-0.5636529	0.3072772	0	-96.935	-27.18	-15.3	B5-03822-P04-CH0	508728	OK	0.7661903	-0.430977	0.4766667	0	-119.754	-45.946	-3.759	B5-03822-P04-CH1	508728	OK	0.7179862	-0.6483282	0.2533109	0	-106.87	-38.509	-20.064	NA
0.619490169694251	B5-03822-P01-CH0	508736	OK	0.2410342	0.018776	0.0876979	-0.9663638	107.307	-30.032	-258.287	B5-03822-P02-CH0	508736	OK	0.7155773	0.4683188	-0.518292	0	-75.096	-101.863	-7.134	B5-03822-P02-CH1	508736	OK	0.7320291	0.2399646	-0.6376131	0	-77.485	-83.477	-4.645	B5-03822-P03-CH0	508736	OK	0.8081523	-0.2003413	-0.553853	0	-90.447	-63.46	-1.352	B5-03822-P03-CH1	508736	OK	0.7670608	-0.5633948	0.3069268	0	-96.917	-26.902	-15.55	B5-03822-P04-CH0	508736	OK	0.7662889	-0.4310259	0.476464	0	-119.769	-45.956	-3.611	B5-03822-P04-CH1	508736	OK	0.7181908	-0.6482242	0.252997	0	-106.876	-38.317	-20.332	NA
0.629481946624804	B5-03822-P01-CH0	508744	OK	0.2409927	0.0188437	0.0875223	-0.9663888	107.325	-30.108	-258.321	B5-03822-P02-CH0	508744	OK	0.7133089	0.4684051	-0.521332	0	-75.507	-101.473	-6.67	B5-03822-P02-CH1	508744	OK	0.7305753	0.2354244	-0.6409642	0	-77.186	-84.068	-4.526	B5-03822-P03-CH0	508744	OK	0.8053757	-0.2039391	-0.5565778	0	-91.133	-63.262	-1.787	B5-03822-P03-CH1	508744	OK	0.7669933	-0.5634298	0.3070312	0	-96.965	-26.918	-15.769	B5-03822-P04-CH0	508744	OK	0.7660981	-0.4315094	0.4763332	0	-119.689	-45.941	-3.595	B5-03822-P04-CH1	508744	OK	0.7179041	-0.6485011	0.2531008	0	-106.745	-38.424	-20.431	NA
0.639473723555356	B5-03822-P01-CH0	508752	OK	0.2407666	0.0191094	0.0873409	-0.9664563	107.378	-30.142	-258.306	B5-03822-P02-CH0	508752	OK	0.7133861	0.4693816	-0.5203472	0	-74.829	-101.222	-7.797	B5-03822-P02-CH1	508752	OK	0.728644	0.2330512	-0.6440225	0	-76.962	-83.5	-4.721	B5-03822-P03-CH0	508752	OK	0.8043085	-0.2126307	-0.5548657	0	-90.773	-62.843	-1.932	B5-03822-P03-CH1	508752	OK	0.766959	-0.5636284	0.3067521	0	-96.944	-26.83	-15.815	B5-03822-P04-CH0	508752	OK	0.7661181	-0.4322898	0.4755929	0	-119.708	-45.627	-3.871	B5-03822-P04-CH1	508752	OK	0.7175223	-0.6485798	0.2539804	0	-106.995	-38.902	-19.82	NA
0.649465500485909	B5-03822-P01-CH0	508760	OK	0.2407542	0.0191447	0.0873583	-0.9664572	107.346	-30.126	-258.3	B5-03822-P02-CH0	508760	OK	0.714298	0.4700433	-0.5184956	0	-73.781	-100.838	-8.438	B5-03822-P02-CH1	508760	OK	0.7271755	0.2283338	-0.6473635	0	-76.963	-83.255	-3.847	B5-03822-P03-CH0	508760	OK	0.803352	-0.221106	-0.5529355	0	-90.126	-62.748	-0.52	B5-03822-P03-CH1	508760	OK	0.7671052	-0.5635265	0.3065739	0	-96.854	-26.612	-15.811	B5-03822-P04-CH0	508760	OK	0.766181	-0.4327343	0.4750871	0	-119.65	-45.33	-4.139	B5-03822-P04-CH1	508760	OK	0.7171667	-0.6486053	0.2549178	0	-107.03	-39.24	-19.65	NA
0.659457277416461	B5-03822-P01-CH0	508768	OK	0.2407124	0.0189726	0.0874206	-0.9664653	107.274	-30.211	-258.324	B5-03822-P02-CH0	508768	OK	0.7136062	0.4707698	-0.5187889	0	-73.779	-100.597	-7.944	B5-03822-P02-CH1	508768	OK	0.7254081	0.2243647	-0.6507254	0	-77.074	-83.32	-3.788	B5-03822-P03-CH0	508768	OK	0.8011645	-0.2273983	-0.5535571	0	-90.245	-62.509	-1.11	B5-03822-P03-CH1	508768	OK	0.7670828	-0.56335	0.3069539	0	-96.888	-26.862	-15.592	B5-03822-P04-CH0	508768	OK	0.766248	-0.4322621	0.4754088	0	-119.689	-45.716	-3.532	B5-03822-P04-CH1	508768	OK	0.717245	-0.6485965	0.2547201	0	-106.84	-39.186	-19.751	NA
0.669449054347014	B5-03822-P01-CH0	508776	OK	0.2406588	0.0186643	0.0876556	-0.9664634	107.152	-30.257	-258.35	B5-03822-P02-CH0	508776	OK	0.7137349	0.4696817	-0.5195976	0	-73.741	-101.044	-7.487	B5-03822-P02-CH1	508776	OK	0.7244381	0.2239029	-0.651964	0	-76.392	-82.025	-5.264	B5-03822-P03-CH0	508776	OK	0.800615	-0.2331217	-0.5519691	0	-89.934	-62.339	-1.624	B5-03822-P03-CH1	508776	OK	0.7670957	-0.563204	0.3071895	0	-96.779	-26.961	-15.519	B5-03822-P04-CH0	508776	OK	0.7663141	-0.4323832	0.475192	0	-119.538	-45.675	-3.383	B5-03822-P04-CH1	508776	OK	0.7177055	-0.6484423	0.2538137	0	-106.733	-38.681	-20.282	NA
0.679440831277566	B5-03822-P01-CH0	508784	OK	0.2407912	0.0187833	0.0873702	-0.9664539	107.227	-30.377	-258.461	B5-03822-P02-CH0	508784	OK	0.7133756	0.4697826	-0.5199996	0	-73.662	-101.031	-7.169	B5-03822-P02-CH1	508784	OK	0.7233237	0.2209708	-0.6541977	0	-76.604	-82.697	-4.862	B5-03822-P03-CH0	508784	OK	0.7992497	-0.2369463	-0.5523191	0	-90.234	-62.863	-0.518	B5-03822-P03-CH1	508784	OK	0.7671132	-0.5630961	0.3073436	0	-96.865	-27.117	-15.323	B5-03822-P04-CH0	508784	OK	0.7664527	-0.4327403	0.4746431	0	-119.505	-45.46	-3.491	B5-03822-P04-CH1	508784	OK	0.7174269	-0.6485043	0.2544422	0	-106.863	-38.928	-20.315	NA
0.689432608208118	B5-03822-P01-CH0	508792	OK	0.2408032	0.0187966	0.0876013	-0.9664298	107.277	-30.436	-258.543	B5-03822-P02-CH0	508792	OK	0.712721	0.4695144	-0.5211383	0	-73.675	-101.086	-7.477	B5-03822-P02-CH1	508792	OK	0.7221021	0.2189232	-0.6562326	0	-76.445	-83.019	-4.511	B5-03822-P03-CH0	508792	OK	0.7986532	-0.2408316	-0.5515009	0	-89.856	-63.473	-1.029	B5-03822-P03-CH1	508792	OK	0.7674529	-0.5631065	0.3064754	0	-96.738	-26.73	-15.895	B5-03822-P04-CH0	508792	OK	0.7667921	-0.4323753	0.4744275	0	-119.649	-45.605	-3.336	B5-03822-P04-CH1	508792	OK	0.717471	-0.6483701	0.2546599	0	-106.696	-39.119	-19.972	NA
0.699424385138671	B5-03822-P01-CH0	508800	OK	0.2407239	0.0186167	0.0873759	-0.9664734	107.186	-30.539	-258.501	B5-03822-P02-CH0	508800	OK	0.7114177	0.4682135	-0.524081	0	-73.752	-101.468	-6.464	B5-03822-P02-CH1	508800	OK	0.7214343	0.2184053	-0.657139	0	-75.42	-82.638	-5.455	B5-03822-P03-CH0	508800	OK	0.7967368	-0.2460904	-0.5519511	0	-90.133	-63.743	-2.087	B5-03822-P03-CH1	508800	OK	0.7674514	-0.5632551	0.3062059	0	-96.645	-26.633	-16.068	B5-03822-P04-CH0	508800	OK	0.7666468	-0.433094	0.4740066	0	-119.503	-45.442	-3.883	B5-03822-P04-CH1	508800	OK	0.717666	-0.6484556	0.2538914	0	-106.559	-38.822	-20.09	NA
0.709416162069223	B5-03822-P01-CH0	508808	OK	0.2406849	0.0186033	0.0871441	-0.9665043	107.171	-30.624	-258.49	B5-03822-P02-CH0	508808	OK	0.7092831	0.4679579	-0.5271933	0	-73.722	-100.868	-6.442	B5-03822-P02-CH1	508808	OK	0.718018	0.2174431	-0.6611873	0	-75.438	-82.543	-4.836	B5-03822-P03-CH0	508808	OK	0.7947808	-0.2496785	-0.5531583	0	-90.375	-63.504	-1.921	B5-03822-P03-CH1	508808	OK	0.7674044	-0.5634312	0.3059996	0	-96.619	-26.647	-16.111	B5-03822-P04-CH0	508808	OK	0.76671	-0.4332136	0.473795	0	-119.507	-45.393	-4.002	B5-03822-P04-CH1	508808	OK	0.7171383	-0.6486735	0.2548242	0	-106.51	-39.293	-19.545	NA
0.719407938999776	B5-03822-P01-CH0	508816	OK	0.2406771	0.0188008	0.0865772	-0.9665534	107.204	-30.711	-258.474	B5-03822-P02-CH0	508816	OK	0.7086789	0.4669507	-0.5288963	0	-73.512	-101.467	-6.866	B5-03822-P02-CH1	508816	OK	0.7150678	0.2165505	-0.6646683	0	-74.874	-82.341	-5.744	B5-03822-P03-CH0	508816	OK	0.7944106	-0.2533545	-0.5520175	0	-89.662	-63.196	-2.072	B5-03822-P03-CH1	508816	OK	0.7669633	-0.563674	0.3066575	0	-96.808	-27.213	-15.571	B5-03822-P04-CH0	508816	OK	0.766585	-0.4331425	0.4740623	0	-119.631	-45.69	-3.67	B5-03822-P04-CH1	508816	OK	0.7164003	-0.649171	0.2556316	0	-106.349	-39.817	-18.896	NA
0.729399715930328	B5-03822-P01-CH0	508824	OK	0.2405981	0.0188035	0.0865167	-0.9665784	107.148	-30.711	-258.36	B5-03822-P02-CH0	508824	OK	0.7069186	0.4668859	-0.5313037	0	-73.296	-101.233	-6.452	B5-03822-P02-CH1	508824	OK	0.7106404	0.2163725	-0.6694574	0	-75.001	-82.21	-4.884	B5-03822-P03-CH0	508824	OK	0.7939341	-0.2563355	-0.5513264	0	-89.459	-63.055	-2.679	B5-03822-P03-CH1	508824	OK	0.7667817	-0.5635215	0.3073912	0	-97.013	-27.789	-14.89	B5-03822-P04-CH0	508824	OK	0.7667176	-0.4330634	0.4739199	0	-119.652	-45.691	-3.633	B5-03822-P04-CH1	508824	OK	0.7166749	-0.6491777	0.2548438	0	-106.412	-39.423	-19.249	NA
0.739391492860881	B5-03822-P01-CH0	508832	OK	0.2405858	0.0184868	0.0864481	-0.9665937	107.056	-30.751	-258.445	B5-03822-P02-CH0	508832	OK	0.7049727	0.4670613	-0.5337296	0	-73.573	-101.384	-5.79	B5-03822-P02-CH1	508832	OK	0.7063868	0.2142159	-0.6746327	0	-75.59	-83.454	-3.944	B5-03822-P03-CH0	508832	OK	0.7953065	-0.2568616	-0.549099	0	-88.948	-63.039	-2.796	B5-03822-P03-CH1	508832	OK	0.7667514	-0.5635426	0.3074279	0	-97.026	-27.827	-14.909	B5-03822-P04-CH0	508832	OK	0.7667485	-0.4332419	0.4737069	0	-119.617	-45.543	-3.837	B5-03822-P04-CH1	508832	OK	0.7168559	-0.6494636	0.2536034	0	-106.066	-38.911	-19.859	NA
0.749383269791433	B5-03822-P01-CH0	508840	OK	0.2406549	0.0183429	0.0865704	-0.9665683	106.997	-30.803	-258.43	B5-03822-P02-CH0	508840	OK	0.703735	0.4684758	-0.5341232	0	-72.957	-101.275	-5.883	B5-03822-P02-CH1	508840	OK	0.7040617	0.2141268	-0.677087	0	-74.576	-81.924	-5.678	B5-03822-P03-CH0	508840	OK	0.7949375	-0.2575555	-0.5493082	0	-89.538	-63.582	-1.938	B5-03822-P03-CH1	508840	OK	0.7667996	-0.5634346	0.3075058	0	-97.059	-27.912	-15.086	B5-03822-P04-CH0	508840	OK	0.7667704	-0.4329515	0.4739369	0	-119.61	-45.735	-3.702	B5-03822-P04-CH1	508840	OK	0.7170619	-0.6493144	0.2534031	0	-106.053	-38.758	-20.142	NA
0.759375046721985	B5-03822-P01-CH0	508848	OK	0.2407725	0.0184342	0.0864187	-0.9665509	107	-30.822	-258.443	B5-03822-P02-CH0	508848	OK	0.702658	0.4688245	-0.535234	0	-72.604	-101.259	-5.344	B5-03822-P02-CH1	508848	OK	0.7019339	0.2133705	-0.6795306	0	-74.17	-82.478	-5.175	B5-03822-P03-CH0	508848	OK	0.7954548	-0.2576017	-0.5485372	0	-89.713	-63.09	-2.327	B5-03822-P03-CH1	508848	OK	0.7668416	-0.5635276	0.3072305	0	-96.987	-27.717	-15.379	B5-03822-P04-CH0	508848	OK	0.7666789	-0.4330173	0.4740248	0	-119.546	-45.733	-3.801	B5-03822-P04-CH1	508848	OK	0.7166805	-0.649442	0.2541539	0	-106.038	-39.048	-19.797	NA
0.769366823652538	B5-03822-P01-CH0	508856	OK	0.2407626	0.0184663	0.086694	-0.9665281	106.985	-30.776	-258.476	B5-03822-P02-CH0	508856	OK	0.7001957	0.468832	-0.5384445	0	-73.183	-100.864	-4.697	B5-03822-P02-CH1	508856	OK	0.7001752	0.2138254	-0.6811999	0	-73.975	-82.349	-6.121	B5-03822-P03-CH0	508856	OK	0.796036	-0.2585166	-0.5472621	0	-89.439	-62.947	-2.278	B5-03822-P03-CH1	508856	OK	0.7670954	-0.5632522	0.307102	0	-97.094	-27.676	-15.298	B5-03822-P04-CH0	508856	OK	0.7669836	-0.4332475	0.4733211	0	-119.521	-45.361	-3.961	B5-03822-P04-CH1	508856	OK	0.7168074	-0.6493045	0.2541474	0	-105.986	-39.06	-19.558	NA
0.77935860058309	B5-03822-P01-CH0	508864	OK	0.2406301	0.018368	0.0868603	-0.966548	106.943	-30.792	-258.475	B5-03822-P02-CH0	508864	OK	0.6991406	0.4685669	-0.540044	0	-73.222	-100.827	-4.448	B5-03822-P02-CH1	508864	OK	0.6974958	0.2139445	-0.683906	0	-74.457	-81.748	-5.039	B5-03822-P03-CH0	508864	OK	0.795287	-0.2586347	-0.5482943	0	-89.866	-63.089	-1.683	B5-03822-P03-CH1	508864	OK	0.7672704	-0.5634322	0.3063337	0	-96.969	-27.33	-15.75	B5-03822-P04-CH0	508864	OK	0.7669892	-0.4329316	0.473601	0	-119.53	-45.627	-3.54	B5-03822-P04-CH1	508864	OK	0.7171776	-0.6491457	0.2535078	0	-106.014	-38.769	-19.69	NA
0.789350377513643	B5-03822-P01-CH0	508872	OK	0.240603	0.0184503	0.0865292	-0.9665829	106.946	-30.874	-258.487	B5-03822-P02-CH0	508872	OK	0.697805	0.4682059	-0.5420806	0	-73.024	-100.572	-4.205	B5-03822-P02-CH1	508872	OK	0.6975232	0.2144617	-0.683716	0	-73.529	-81.504	-6.077	B5-03822-P03-CH0	508872	OK	0.7960868	-0.2594124	-0.5467642	0	-89.427	-62.737	-1.573	B5-03822-P03-CH1	508872	OK	0.7672717	-0.5636673	0.3058975	0	-96.966	-27.105	-16.013	B5-03822-P04-CH0	508872	OK	0.7667736	-0.4328032	0.4740672	0	-119.588	-45.952	-3.342	B5-03822-P04-CH1	508872	OK	0.716626	-0.6495816	0.2539506	0	-105.962	-39.109	-19.382	NA
0.799342154444195	B5-03822-P01-CH0	508880	OK	0.2408313	0.018339	0.0872986	-0.966459	106.954	-30.827	-258.672	B5-03822-P02-CH0	508880	OK	0.6966806	0.4679004	-0.5437879	0	-72.787	-100.828	-4.685	B5-03822-P02-CH1	508880	OK	0.6947541	0.2138972	-0.6867057	0	-73.837	-82.021	-5.114	B5-03822-P03-CH0	508880	OK	0.7951299	-0.2575955	-0.549011	0	-89.53	-63.297	-1.801	B5-03822-P03-CH1	508880	OK	0.7677014	-0.5631735	0.305729	0	-96.905	-27.003	-15.934	B5-03822-P04-CH0	508880	OK	0.7672838	-0.4320913	0.473891	0	-119.687	-45.902	-3.157	B5-03822-P04-CH1	508880	OK	0.7168365	-0.6491965	0.2543409	0	-105.873	-39.284	-19.212	NA
0.809333931374748	B5-03822-P01-CH0	508888	OK	0.2410339	0.01823	0.0878187	-0.9663634	106.91	-30.826	-258.697	B5-03822-P02-CH0	508888	OK	0.6939428	0.4682018	-0.5470196	0	-73.096	-100.479	-3.741	B5-03822-P02-CH1	508888	OK	0.6925339	0.2143773	-0.6887955	0	-73.454	-81.657	-6.213	B5-03822-P03-CH0	508888	OK	0.7954448	-0.2590971	-0.547847	0	-89.485	-63.088	-2.113	B5-03822-P03-CH1	508888	OK	0.7679933	-0.5628103	0.3056647	0	-96.851	-26.912	-15.981	B5-03822-P04-CH0	508888	OK	0.767425	-0.4318864	0.4738491	0	-119.629	-45.923	-3.172	B5-03822-P04-CH1	508888	OK	0.7175823	-0.6486788	0.2535577	0	-105.845	-38.771	-19.855	NA
0.8193257083053	B5-03822-P01-CH0	508896	OK	0.2410911	0.0179893	0.0885436	-0.9662875	106.866	-30.864	-258.735	B5-03822-P02-CH0	508896	OK	0.6918303	0.4688589	-0.5491286	0	-73.141	-100.358	-4.012	B5-03822-P02-CH1	508896	OK	0.6907387	0.2149661	-0.6904126	0	-73.114	-82.126	-6.05	B5-03822-P03-CH0	508896	OK	0.7981432	-0.2675866	-0.5397822	0	-89.08	-62.726	-1.777	B5-03822-P03-CH1	508896	OK	0.7685485	-0.5623165	0.3051776	0	-96.768	-26.605	-16.147	B5-03822-P04-CH0	508896	OK	0.7678335	-0.4323129	0.4727973	0	-119.532	-45.411	-3.853	B5-03822-P04-CH1	508896	OK	0.718093	-0.6481235	0.2535318	0	-105.942	-38.642	-20.199	NA
0.829317485235852	B5-03822-P01-CH0	508904	OK	0.2410463	0.0181082	0.0885192	-0.9662987	106.906	-30.937	-258.807	B5-03822-P02-CH0	508904	OK	0.6934661	0.4679712	-0.5478209	0	-72.459	-101.483	-5.136	B5-03822-P02-CH1	508904	OK	0.6890657	0.2151995	-0.6920099	0	-73.18	-82.316	-5.347	B5-03822-P03-CH0	508904	OK	0.7982427	-0.270932	-0.5379633	0	-89.74	-62.996	-1.799	B5-03822-P03-CH1	508904	OK	0.7689079	-0.5627611	0.303448	0	-96.523	-25.684	-17.145	B5-03822-P04-CH0	508904	OK	0.7679246	-0.4328023	0.4722013	0	-119.594	-45.23	-4.058	B5-03822-P04-CH1	508904	OK	0.7179835	-0.6480178	0.2541115	0	-106	-38.873	-19.831	NA
0.839309262166405	B5-03822-P01-CH0	508912	OK	0.2411003	0.0183829	0.0885534	-0.9662769	106.991	-30.995	-258.846	B5-03822-P02-CH0	508912	OK	0.6922367	0.46895	-0.5485383	0	-72.268	-100.775	-5.374	B5-03822-P02-CH1	508912	OK	0.6881189	0.2162806	-0.6926147	0	-73.054	-82.549	-5.758	B5-03822-P03-CH0	508912	OK	0.7996501	-0.2731883	-0.5347222	0	-89.896	-62.645	-2.421	B5-03822-P03-CH1	508912	OK	0.7689772	-0.5628192	0.3031643	0	-96.524	-25.588	-17.227	B5-03822-P04-CH0	508912	OK	0.7678815	-0.433455	0.4716724	0	-119.517	-45.017	-4.361	B5-03822-P04-CH1	508912	OK	0.7181123	-0.6476371	0.2547174	0	-106.203	-39.08	-19.319	NA
0.849301039096957	B5-03822-P01-CH0	508920	OK	0.2411763	0.0184312	0.088841	-0.9662306	107.044	-31.053	-258.877	B5-03822-P02-CH0	508920	OK	0.6914712	0.4680875	-0.5502379	0	-72.585	-101.554	-4.594	B5-03822-P02-CH1	508920	OK	0.6863471	0.2170846	-0.6941195	0	-73.343	-82.287	-5.644	B5-03822-P03-CH0	508920	OK	0.8000791	-0.2758027	-0.5327347	0	-90.199	-63.18	-1.827	B5-03822-P03-CH1	508920	OK	0.7691171	-0.5625745	0.3032636	0	-96.61	-25.732	-16.936	B5-03822-P04-CH0	508920	OK	0.7679234	-0.4334389	0.4716189	0	-119.5	-45.169	-4.277	B5-03822-P04-CH1	508920	OK	0.718263	-0.6474183	0.2548484	0	-106.174	-39.178	-19.004	NA
0.85929281602751	B5-03822-P01-CH0	508928	OK	0.2412307	0.0183874	0.0893158	-0.9661741	107.067	-31.108	-258.935	B5-03822-P02-CH0	508928	OK	0.6904574	0.4684729	-0.5511822	0	-72.852	-101.749	-4.761	B5-03822-P02-CH1	508928	OK	0.6855462	0.2173205	-0.6948368	0	-73.339	-83.351	-5.438	B5-03822-P03-CH0	508928	OK	0.8024741	-0.2783482	-0.5277855	0	-89.41	-63.275	-1.907	B5-03822-P03-CH1	508928	OK	0.7692933	-0.5622814	0.3033603	0	-96.627	-25.843	-16.695	B5-03822-P04-CH0	508928	OK	0.7680932	-0.4328537	0.4718798	0	-119.61	-45.596	-3.74	B5-03822-P04-CH1	508928	OK	0.7187977	-0.6470091	0.2543798	0	-106.276	-38.981	-19.12	NA
0.869284592958062	B5-03822-P01-CH0	508936	OK	0.2414257	0.0184336	0.0896405	-0.9660944	107.154	-31.208	-259.004	B5-03822-P02-CH0	508936	OK	0.6888091	0.4698585	-0.5520643	0	-72.683	-101.009	-4.836	B5-03822-P02-CH1	508936	OK	0.6835154	0.2168763	-0.6969731	0	-73.554	-82.994	-4.503	B5-03822-P03-CH0	508936	OK	0.8032718	-0.2824382	-0.5243882	0	-89.344	-63.834	-2.139	B5-03822-P03-CH1	508936	OK	0.7694205	-0.5622461	0.303103	0	-96.541	-25.814	-16.68	B5-03822-P04-CH0	508936	OK	0.768054	-0.4322505	0.4724961	0	-119.689	-46.158	-3.477	B5-03822-P04-CH1	508936	OK	0.7188095	-0.6466911	0.255154	0	-106.462	-39.387	-18.868	NA
0.879276369888615	B5-03822-P01-CH0	508944	OK	0.2416238	0.0185346	0.0897067	-0.9660368	107.223	-31.284	-259.053	B5-03822-P02-CH0	508944	OK	0.6880021	0.4705319	-0.5524969	0	-72.888	-101.147	-4.371	B5-03822-P02-CH1	508944	OK	0.6839542	0.2172066	-0.6964394	0	-72.82	-82.911	-5.402	B5-03822-P03-CH0	508944	OK	0.8039228	-0.2844514	-0.5222983	0	-89.945	-63.604	-1.588	B5-03822-P03-CH1	508944	OK	0.7693033	-0.5622639	0.3033675	0	-96.605	-25.968	-16.575	B5-03822-P04-CH0	508944	OK	0.7681059	-0.4319491	0.4726872	0	-119.83	-46.414	-3.29	B5-03822-P04-CH1	508944	OK	0.7187667	-0.6465952	0.2555172	0	-106.428	-39.539	-18.736	NA
0.889268146819167	B5-03822-P01-CH0	508952	OK	0.2417048	0.0185073	0.0899255	-0.9659967	107.239	-31.29	-259.102	B5-03822-P02-CH0	508952	OK	0.6885037	0.4715517	-0.5510006	0	-72.641	-101.619	-4.512	B5-03822-P02-CH1	508952	OK	0.6833081	0.2184418	-0.6966873	0	-72.431	-81.961	-5.288	B5-03822-P03-CH0	508952	OK	0.8060314	-0.2860912	-0.5181362	0	-89.625	-63.335	-1.907	B5-03822-P03-CH1	508952	OK	0.769252	-0.5622807	0.3034663	0	-96.725	-26.034	-16.514	B5-03822-P04-CH0	508952	OK	0.7681874	-0.4328604	0.4717203	0	-119.716	-45.795	-3.979	B5-03822-P04-CH1	508952	OK	0.7193774	-0.6461361	0.2549594	0	-106.536	-39.113	-18.954	NA
0.89925992374972	B5-03822-P01-CH0	508960	OK	0.2418058	0.0186234	0.089926	-0.9659692	107.291	-31.331	-259.034	B5-03822-P02-CH0	508960	OK	0.6876657	0.4741483	-0.5498175	0	-72.835	-101.705	-4.396	B5-03822-P02-CH1	508960	OK	0.6816464	0.2201562	-0.6977746	0	-73.143	-82.88	-5.226	B5-03822-P03-CH0	508960	OK	0.8062511	-0.2898169	-0.5157183	0	-90.41	-63.393	-1.497	B5-03822-P03-CH1	508960	OK	0.7692841	-0.5625398	0.3029042	0	-96.705	-25.616	-17.173	B5-03822-P04-CH0	508960	OK	0.7679792	-0.4331962	0.471751	0	-119.661	-45.845	-4.084	B5-03822-P04-CH1	508960	OK	0.7193733	-0.6461685	0.2548889	0	-106.6	-39.061	-19.121	NA
0.909251700680272	B5-03822-P01-CH0	508968	OK	0.2417017	0.0189787	0.0894682	-0.9660308	107.441	-31.43	-259.1	B5-03822-P02-CH0	508968	OK	0.6893753	0.4708527	-0.5505083	0	-72.735	-101.754	-4.161	B5-03822-P02-CH1	508968	OK	0.6806796	0.2214981	-0.6982935	0	-73.349	-82.909	-5.831	B5-03822-P03-CH0	508968	OK	0.8075121	-0.2941957	-0.5112466	0	-90.499	-63.772	-1.531	B5-03822-P03-CH1	508968	OK	0.7689998	-0.5632982	0.302216	0	-96.733	-25.362	-17.621	B5-03822-P04-CH0	508968	OK	0.7678062	-0.433797	0.4714805	0	-119.741	-45.851	-4.027	B5-03822-P04-CH1	508968	OK	0.7189055	-0.6464548	0.2554822	0	-106.721	-39.452	-18.444	NA
