Wav.Time	B5.03822.P01.CH0	Frame	State	Q0	Qx	Qy	Qz	Tx	Ty	Tz	B5.03822.P02.CH0	Frame.1	State.1	Q0.1	Qx.1	Qy.1	Qz.1	Tx.1	Ty.1	Tz.1	B5.03822.P02.CH1	Frame.2	State.2	Q0.2	Qx.2	Qy.2	Qz.2	Tx.2	Ty.2	Tz.2	B5.03822.P03.CH0	Frame.3	State.3	Q0.3	Qx.3	Qy.3	Qz.3	Tx.3	Ty.3	Tz.3	B5.03822.P03.CH1	Frame.4	State.4	Q0.4	Qx.4	Qy.4	Qz.4	Tx.4	Ty.4	Tz.4	B5.03822.P04.CH0	Frame.5	State.5	Q0.5	Qx.5	Qy.5	Qz.5	Tx.5	Ty.5	Tz.5	B5.03822.P04.CH1	Frame.6	State.6	Q0.6	Qx.6	Qy.6	Qz.6	Tx.6	Ty.6	Tz.6	X
0	B5-03822-P01-CH0	1483160	OK	0.2010107	0.1090265	0.1339139	-0.9642484	152.328	-24.875	-256.212	B5-03822-P02-CH0	1483160	OK	0.5942578	0.516813	-0.6162484	0	-77.508	-105.246	-0.865	B5-03822-P02-CH1	1483160	OK	0.6821611	-0.1315237	-0.7192758	0	-72.23	-77.117	-5.315	B5-03822-P03-CH0	1483160	OK	0.7594079	-0.1458337	-0.6340601	0	-93.435	-59.766	-0.697	B5-03822-P03-CH1	1483160	OK	0.7533753	-0.653788	0.0706178	0	-97.832	-7.595	-4.167	B5-03822-P04-CH0	1483160	OK	0.7541016	-0.371407	0.5416527	0	-125.001	-39.868	11.873	B5-03822-P04-CH1	1483160	OK	0.8063679	-0.586655	0.074878	0	-107.788	-43.571	-1.687	NA
0.00999190152251377	B5-03822-P01-CH0	1483168	OK	0.2009099	0.1089824	0.1334533	-0.9643382	152.252	-25	-256.13	B5-03822-P02-CH0	1483168	OK	0.5893607	0.5270827	-0.6122399	0	-77.078	-104.646	-1.441	B5-03822-P02-CH1	1483168	OK	0.6878037	-0.1477606	-0.7106988	0	-71.503	-77.191	-5.806	B5-03822-P03-CH0	1483168	OK	0.7677019	-0.1641993	-0.619413	0	-93.277	-61.701	0.617	B5-03822-P03-CH1	1483168	OK	0.7486334	-0.6596233	0.0666717	0	-98.401	-10.137	-2.517	B5-03822-P04-CH0	1483168	OK	0.7528314	-0.3599797	0.551053	0	-124.975	-40.529	13.343	B5-03822-P04-CH1	1483168	OK	0.8060657	-0.5870385	0.0751259	0	-107.753	-43.725	-1.689	NA
0.0199838030450275	B5-03822-P01-CH0	1483176	OK	0.2009295	0.1087994	0.1340398	-0.9642735	152.182	-24.94	-256.187	B5-03822-P02-CH0	1483176	OK	0.5886963	0.5369353	-0.6042658	0	-74.91	-104.422	-3.609	B5-03822-P02-CH1	1483176	OK	0.6885072	-0.1552431	-0.7084189	0	-71.825	-76.989	-4.57	B5-03822-P03-CH0	1483176	OK	0.7746772	-0.1759728	-0.6073786	0	-94.443	-61.821	-0.61	B5-03822-P03-CH1	1483176	OK	0.746763	-0.6622322	0.0615916	0	-98.75	-11.076	-1.774	B5-03822-P04-CH0	1483176	OK	0.7516931	-0.3508867	0.5584228	0	-124.719	-40.265	13.28	B5-03822-P04-CH1	1483176	OK	0.8066118	-0.5863065	0.0749808	0	-107.566	-43.341	-2.071	NA
0.0299757045675413	B5-03822-P01-CH0	1483184	OK	0.2008528	0.1090936	0.1340689	-0.9642522	152.223	-24.887	-256.103	B5-03822-P02-CH0	1483184	OK	0.5861244	0.5489512	-0.5959117	0	-75.636	-105.857	-2.223	B5-03822-P02-CH1	1483184	OK	0.6890616	-0.1607062	-0.7066595	0	-71.616	-77.599	-4.943	B5-03822-P03-CH0	1483184	OK	0.7808222	-0.1768494	-0.5992003	0	-94.476	-62.532	0.8	B5-03822-P03-CH1	1483184	OK	0.7443296	-0.6650712	0.0604469	0	-99.786	-13.16	-0.396	B5-03822-P04-CH0	1483184	OK	0.7507417	-0.3454621	0.5630656	0	-124.395	-38.646	11.35	B5-03822-P04-CH1	1483184	OK	0.80685	-0.5860162	0.0746872	0	-107.617	-43.044	-2.232	NA
0.0399676060900551	B5-03822-P01-CH0	1483192	OK	0.2010654	0.1089607	0.1344285	-0.9641728	152.141	-24.801	-256.067	B5-03822-P02-CH0	1483192	OK	0.5801383	0.5574622	-0.5938648	0	-76.137	-104.474	-0.977	B5-03822-P02-CH1	1483192	OK	0.6879938	-0.164151	-0.706908	0	-71.892	-77.978	-4.745	B5-03822-P03-CH0	1483192	OK	0.7845176	-0.1730975	-0.5954573	0	-94.137	-62.571	1.442	B5-03822-P03-CH1	1483192	OK	0.7477943	-0.6620931	0.0493592	0	-99.269	-9.672	-1.624	B5-03822-P04-CH0	1483192	OK	0.7509148	-0.3339806	0.5697227	0	-125.259	-39.543	11.399	B5-03822-P04-CH1	1483192	OK	0.8069306	-0.5858066	0.0754567	0	-107.618	-43.217	-2.21	NA
0.0499595076125688	B5-03822-P01-CH0	1483200	OK	0.2007901	0.1091616	0.133923	-0.9642778	152.114	-24.797	-255.985	B5-03822-P02-CH0	1483200	OK	0.5798087	0.566267	-0.5858016	0	-76.588	-104.888	-2.082	B5-03822-P02-CH1	1483200	OK	0.6870063	-0.1625031	-0.7082479	0	-71.666	-77.38	-5.29	B5-03822-P03-CH0	1483200	OK	0.7797011	-0.1626309	-0.6046631	0	-95.394	-63.259	0.983	B5-03822-P03-CH1	1483200	OK	0.7453891	-0.6649023	0.0479597	0	-99.745	-11.511	0.45	B5-03822-P04-CH0	1483200	OK	0.7513448	-0.3280556	0.5725911	0	-125.784	-38.288	9.261	B5-03822-P04-CH1	1483200	OK	0.8067604	-0.5860203	0.0756169	0	-107.776	-43.146	-2.074	NA
0.0599514091350826	B5-03822-P01-CH0	1483208	OK	0.2007584	0.1087948	0.1341173	-0.9642989	151.984	-24.815	-256.027	B5-03822-P02-CH0	1483208	OK	0.5793138	0.5716787	-0.5810155	0	-77.01	-103.519	-2.206	B5-03822-P02-CH1	1483208	OK	0.6843686	-0.1489362	-0.713763	0	-71.002	-77.489	-4.801	B5-03822-P03-CH0	1483208	OK	0.7708554	-0.1396907	-0.621505	0	-94.404	-62.437	0.71	B5-03822-P03-CH1	1483208	OK	0.7444039	-0.6663876	0.042314	0	-98.873	-11.368	-1.917	B5-03822-P04-CH0	1483208	OK	0.7513475	-0.3200639	0.5770928	0	-125.716	-39.602	11.298	B5-03822-P04-CH1	1483208	OK	0.806927	-0.5857447	0.0759739	0	-107.686	-43.049	-2.357	NA
0.0699433106575964	B5-03822-P01-CH0	1483216	OK	0.2002484	0.1087553	0.1335088	-0.9644938	151.931	-24.868	-256.085	B5-03822-P02-CH0	1483216	OK	0.5872185	0.572716	-0.5719885	0	-78.054	-106.011	-2.298	B5-03822-P02-CH1	1483216	OK	0.6773719	-0.1230149	-0.7252825	0	-72.018	-76.898	-2.834	B5-03822-P03-CH0	1483216	OK	0.7576248	-0.112221	-0.6429705	0	-92.959	-61.557	-0.419	B5-03822-P03-CH1	1483216	OK	0.7451132	-0.6656619	0.0412378	0	-99.52	-11.188	-1.071	B5-03822-P04-CH0	1483216	OK	0.7526704	-0.3123584	0.5795856	0	-126.659	-40.829	12.131	B5-03822-P04-CH1	1483216	OK	0.8066402	-0.5861268	0.0760726	0	-107.712	-43.113	-2.073	NA
0.0799352121801101	B5-03822-P01-CH0	1483224	OK	0.2005682	0.1087877	0.1339595	-0.9643612	152.015	-24.814	-256.197	B5-03822-P02-CH0	1483224	OK	0.5892583	0.5685025	-0.5740902	0	-78.954	-103.775	-1.464	B5-03822-P02-CH1	1483224	OK	0.6771658	-0.1000511	-0.7289967	0	-72.443	-76.945	-3.792	B5-03822-P03-CH0	1483224	OK	0.7414843	-0.0788351	-0.6663228	0	-91.724	-60.357	-0.841	B5-03822-P03-CH1	1483224	OK	0.7454605	-0.6650933	0.0440408	0	-99.388	-12.529	-0.003	B5-03822-P04-CH0	1483224	OK	0.755312	-0.3090872	0.5779004	0	-127.354	-41.523	12.106	B5-03822-P04-CH1	1483224	OK	0.8070298	-0.5854809	0.0769095	0	-107.848	-43.231	-1.907	NA
0.0899271137026239	B5-03822-P01-CH0	1483232	OK	0.2009065	0.1085023	0.134681	-0.9642224	151.907	-24.704	-256.199	B5-03822-P02-CH0	1483232	OK	0.5965808	0.5594729	-0.5753967	0	-79.465	-102.797	-1.941	B5-03822-P02-CH1	1483232	OK	0.6814147	-0.085615	-0.7268728	0	-72.855	-76.778	-3.93	B5-03822-P03-CH0	1483232	OK	0.7288554	-0.0458499	-0.6831307	0	-89.808	-58.997	-0.817	B5-03822-P03-CH1	1483232	OK	0.7476743	-0.6624665	0.0460566	0	-98.303	-12.109	-0.677	B5-03822-P04-CH0	1483232	OK	0.757993	-0.3122635	0.5726588	0	-126.745	-41.323	12.118	B5-03822-P04-CH1	1483232	OK	0.8075015	-0.5847178	0.0777581	0	-107.643	-43.114	-2.242	NA
0.0999190152251377	B5-03822-P01-CH0	1483240	OK	0.2007803	0.1084067	0.1343514	-0.9643054	151.839	-24.746	-256.195	B5-03822-P02-CH0	1483240	OK	0.6049308	0.5496328	-0.576162	0	-80.489	-102.058	-1.188	B5-03822-P02-CH1	1483240	OK	0.6873295	-0.0725744	-0.722711	0	-73.411	-76.433	-4.344	B5-03822-P03-CH0	1483240	OK	0.7167142	-0.0218195	-0.6970256	0	-90.72	-58.915	-0.657	B5-03822-P03-CH1	1483240	OK	0.7508987	-0.6585224	0.0499939	0	-97.858	-10.512	-2.416	B5-03822-P04-CH0	1483240	OK	0.7612874	-0.3151751	0.5666623	0	-127.324	-42.109	11.452	B5-03822-P04-CH1	1483240	OK	0.8074738	-0.5847329	0.0779329	0	-107.605	-42.882	-2.693	NA
0.109910916747651	B5-03822-P01-CH0	1483248	OK	0.200549	0.1083081	0.1343725	-0.9643617	151.852	-24.72	-256.314	B5-03822-P02-CH0	1483248	OK	0.6148946	0.541235	-0.5735585	0	-80.523	-101.666	-2.306	B5-03822-P02-CH1	1483248	OK	0.692215	-0.0602656	-0.7191707	0	-74.434	-76.316	-3.595	B5-03822-P03-CH0	1483248	OK	0.708892	0.0036713	-0.7053075	0	-90.841	-58.631	-1.744	B5-03822-P03-CH1	1483248	OK	0.753345	-0.6551022	0.057553	0	-98.025	-10.154	-3.338	B5-03822-P04-CH0	1483248	OK	0.7648073	-0.3189772	0.559753	0	-126.986	-41.817	11.702	B5-03822-P04-CH1	1483248	OK	0.8075184	-0.5846632	0.0779938	0	-107.631	-42.819	-2.719	NA
0.119902818270165	B5-03822-P01-CH0	1483256	OK	0.2000539	0.1083804	0.1334511	-0.9645843	151.829	-24.801	-256.248	B5-03822-P02-CH0	1483256	OK	0.6219542	0.5353175	-0.5714964	0	-81.171	-101.616	-1.098	B5-03822-P02-CH1	1483256	OK	0.6958121	-0.0492749	-0.7165316	0	-75.807	-75.667	-4.272	B5-03822-P03-CH0	1483256	OK	0.7004011	0.0335605	-0.71296	0	-90.551	-57.621	-0.741	B5-03822-P03-CH1	1483256	OK	0.7531238	-0.6540138	0.0712074	0	-98.711	-12.418	-1.666	B5-03822-P04-CH0	1483256	OK	0.7680958	-0.3166858	0.5565419	0	-127.666	-42.909	12.631	B5-03822-P04-CH1	1483256	OK	0.8068832	-0.5855435	0.0779631	0	-107.676	-42.999	-2.449	NA
0.129894719792679	B5-03822-P01-CH0	1483264	OK	0.2000517	0.1080484	0.1338806	-0.9645625	151.78	-24.753	-256.314	B5-03822-P02-CH0	1483264	OK	0.6227802	0.5313872	-0.5742582	0	-82.791	-100.272	-0.899	B5-03822-P02-CH1	1483264	OK	0.699472	-0.0381633	-0.7136403	0	-76.164	-75.026	-4.263	B5-03822-P03-CH0	1483264	OK	0.6883344	0.0647488	-0.722498	0	-90.856	-57.235	-0.255	B5-03822-P03-CH1	1483264	OK	0.7559385	-0.649831	0.0792259	0	-98.637	-11.636	-2.308	B5-03822-P04-CH0	1483264	OK	0.7699072	-0.3160713	0.5543842	0	-127.399	-42.575	12.021	B5-03822-P04-CH1	1483264	OK	0.8070157	-0.5853173	0.0782904	0	-107.706	-43.183	-2.243	NA
0.139886621315193	B5-03822-P01-CH0	1483272	OK	0.1998937	0.1079114	0.1339535	-0.9646005	151.78	-24.772	-256.352	B5-03822-P02-CH0	1483272	OK	0.6259222	0.5300413	-0.5720818	0	-82.181	-99.054	-1.273	B5-03822-P02-CH1	1483272	OK	0.7024747	-0.0307808	-0.7110428	0	-75.8	-74.708	-4.344	B5-03822-P03-CH0	1483272	OK	0.6787162	0.0995975	-0.7276157	0	-88.351	-56.939	-2.199	B5-03822-P03-CH1	1483272	OK	0.7610938	-0.6438085	0.0790367	0	-97.135	-7.452	-5.585	B5-03822-P04-CH0	1483272	OK	0.7712128	-0.3189338	0.5509193	0	-126.601	-41.223	11.23	B5-03822-P04-CH1	1483272	OK	0.8072239	-0.5850919	0.0778275	0	-107.675	-42.965	-2.383	NA
0.149878522837707	B5-03822-P01-CH0	1483280	OK	0.1998935	0.1078175	0.1341539	-0.9645832	151.842	-24.757	-256.415	B5-03822-P02-CH0	1483280	OK	0.6314867	0.5296009	-0.5663457	0	-81.697	-100.983	-2.214	B5-03822-P02-CH1	1483280	OK	0.7025302	-0.0241239	-0.7112449	0	-76.309	-74.468	-3.478	B5-03822-P03-CH0	1483280	OK	0.6715813	0.1126588	-0.7323159	0	-87.527	-57.835	-1.728	B5-03822-P03-CH1	1483280	OK	0.7616088	-0.6419023	0.0889577	0	-97.283	-8.998	-5.979	B5-03822-P04-CH0	1483280	OK	0.772563	-0.3185169	0.5492662	0	-126.807	-42.528	11.851	B5-03822-P04-CH1	1483280	OK	0.8072567	-0.5850644	0.0776941	0	-107.726	-43.161	-2.053	NA
0.15987042436022	B5-03822-P01-CH0	1483288	OK	0.1995896	0.1079549	0.1338393	-0.9646744	151.896	-24.736	-256.364	B5-03822-P02-CH0	1483288	OK	0.6281308	0.5318341	-0.5679825	0	-83.449	-99.984	-0.911	B5-03822-P02-CH1	1483288	OK	0.7021553	-0.0194944	-0.7117569	0	-76.972	-74.804	-3.698	B5-03822-P03-CH0	1483288	OK	0.6637503	0.1136351	-0.7392716	0	-90.468	-57.971	-2.212	B5-03822-P03-CH1	1483288	OK	0.7637532	-0.6389675	0.0916596	0	-95.905	-7.5	-7.268	B5-03822-P04-CH0	1483288	OK	0.7739907	-0.3228898	0.544684	0	-126.44	-40.861	10.958	B5-03822-P04-CH1	1483288	OK	0.8070323	-0.5854476	0.077136	0	-107.723	-43.129	-1.821	NA
0.169862325882734	B5-03822-P01-CH0	1483296	OK	0.1998186	0.1079536	0.1341796	-0.9645799	151.938	-24.709	-256.251	B5-03822-P02-CH0	1483296	OK	0.6258689	0.5335178	-0.5688997	0	-83.559	-98.755	-0.959	B5-03822-P02-CH1	1483296	OK	0.7008023	-0.0172594	-0.7131467	0	-78.016	-75.227	-3.421	B5-03822-P03-CH0	1483296	OK	0.6626433	0.1137903	-0.7402402	0	-87.471	-53.531	-1.836	B5-03822-P03-CH1	1483296	OK	0.7619317	-0.6392936	0.1037491	0	-97.244	-11.185	-4.483	B5-03822-P04-CH0	1483296	OK	0.7746893	-0.3257532	0.5419791	0	-126.227	-40.245	9.854	B5-03822-P04-CH1	1483296	OK	0.807238	-0.5852203	0.0767073	0	-107.649	-42.935	-2.197	NA
0.179854227405248	B5-03822-P01-CH0	1483304	OK	0.1997035	0.1079855	0.1338525	-0.9646456	151.943	-24.735	-256.125	B5-03822-P02-CH0	1483304	OK	0.6257174	0.5337844	-0.5688162	0	-83.63	-99.056	-0.111	B5-03822-P02-CH1	1483304	OK	0.702785	-0.0142946	-0.7112586	0	-76.998	-74.633	-4.387	B5-03822-P03-CH0	1483304	OK	0.658058	0.1110357	-0.7447353	0	-87.22	-54.975	-2.919	B5-03822-P03-CH1	1483304	OK	0.7617292	-0.6387914	0.1082322	0	-96.767	-11.52	-5.468	B5-03822-P04-CH0	1483304	OK	0.7752612	-0.3253319	0.5414141	0	-126.661	-41.083	11.353	B5-03822-P04-CH1	1483304	OK	0.8069541	-0.5857155	0.0759103	0	-107.58	-42.823	-2.381	NA
0.189846128927762	B5-03822-P01-CH0	1483312	OK	0.199268	0.108208	0.1331681	-0.9648054	152.037	-24.737	-256.039	B5-03822-P02-CH0	1483312	OK	0.6263853	0.5329256	-0.5688864	0	-84.459	-100.871	0.566	B5-03822-P02-CH1	1483312	OK	0.7021799	-0.0141714	-0.7118585	0	-76.971	-74.779	-2.936	B5-03822-P03-CH0	1483312	OK	0.653935	0.1052731	-0.7491906	0	-86.226	-56.293	-1.597	B5-03822-P03-CH1	1483312	OK	0.7619174	-0.6382905	0.1098508	0	-96.186	-10.716	-6.324	B5-03822-P04-CH0	1483312	OK	0.7750501	-0.3266139	0.5409443	0	-127.132	-42.108	12.302	B5-03822-P04-CH1	1483312	OK	0.8063986	-0.5866247	0.074784	0	-107.683	-42.803	-2.155	NA
0.199838030450275	B5-03822-P01-CH0	1483320	OK	0.1993821	0.1080595	0.1338527	-0.9647038	152.087	-24.647	-256.114	B5-03822-P02-CH0	1483320	OK	0.6244379	0.5320934	-0.5717988	0	-83.541	-98.932	-1.329	B5-03822-P02-CH1	1483320	OK	0.7026454	-0.0154139	-0.7113733	0	-76.363	-74.463	-3.559	B5-03822-P03-CH0	1483320	OK	0.647034	0.097818	-0.7561605	0	-87.422	-57.078	-3.807	B5-03822-P03-CH1	1483320	OK	0.7644977	-0.6353138	0.1091773	0	-95.655	-8.826	-6.897	B5-03822-P04-CH0	1483320	OK	0.7749268	-0.3284236	0.5400245	0	-126.892	-41.106	11.901	B5-03822-P04-CH1	1483320	OK	0.8066629	-0.5863293	0.0742488	0	-107.637	-42.875	-1.763	NA
0.209829931972789	B5-03822-P01-CH0	1483328	OK	0.199968	0.1081401	0.1349499	-0.9644206	152.194	-24.541	-256.036	B5-03822-P02-CH0	1483328	OK	0.6230789	0.5284825	-0.5766098	0	-82.909	-98.646	-1.277	B5-03822-P02-CH1	1483328	OK	0.7018286	-0.0152341	-0.712183	0	-76.561	-74.924	-3.987	B5-03822-P03-CH0	1483328	OK	0.6402408	0.0931447	-0.7625063	0	-87.518	-57.13	-4.323	B5-03822-P03-CH1	1483328	OK	0.7662664	-0.6328402	0.1111264	0	-95.814	-7.932	-7.316	B5-03822-P04-CH0	1483328	OK	0.7740191	-0.3299321	0.5404066	0	-126.428	-41.004	11.862	B5-03822-P04-CH1	1483328	OK	0.8072272	-0.5855741	0.074076	0	-107.677	-42.964	-1.606	NA
0.219821833495303	B5-03822-P01-CH0	1483336	OK	0.2004099	0.1079199	0.1358183	-0.9642316	152.276	-24.476	-256.194	B5-03822-P02-CH0	1483336	OK	0.6240286	0.5239415	-0.5797186	0	-82.6	-100.617	-2.055	B5-03822-P02-CH1	1483336	OK	0.7015351	-0.0159931	-0.7124554	0	-76.754	-74.742	-3.954	B5-03822-P03-CH0	1483336	OK	0.6366946	0.0867859	-0.7662168	0	-85.239	-53.688	-0.846	B5-03822-P03-CH1	1483336	OK	0.7640142	-0.6344008	0.1175498	0	-96.59	-10.36	-7.231	B5-03822-P04-CH0	1483336	OK	0.7743798	-0.3249326	0.5429132	0	-126.541	-40.773	11.487	B5-03822-P04-CH1	1483336	OK	0.8076468	-0.5850436	0.0736935	0	-107.578	-42.993	-1.549	NA
0.229813735017817	B5-03822-P01-CH0	1483344	OK	0.2001662	0.1076871	0.135246	-0.9643887	152.173	-24.557	-256.21	B5-03822-P02-CH0	1483344	OK	0.6207791	0.5225854	-0.5844124	0	-82.716	-99.307	-0.529	B5-03822-P02-CH1	1483344	OK	0.7027302	-0.0177981	-0.7112338	0	-76.557	-74.422	-3.799	B5-03822-P03-CH0	1483344	OK	0.6338579	0.0835755	-0.7689209	0	-84.725	-52.496	-1.316	B5-03822-P03-CH1	1483344	OK	0.7663831	-0.6324922	0.1122966	0	-94.955	-6.98	-9.219	B5-03822-P04-CH0	1483344	OK	0.7742628	-0.3270253	0.5418224	0	-126.382	-40.482	11.178	B5-03822-P04-CH1	1483344	OK	0.8072505	-0.5857106	0.07273	0	-107.329	-42.807	-1.677	NA
0.23980563654033	B5-03822-P01-CH0	1483352	OK	0.2000441	0.1077858	0.1352007	-0.9644093	152.23	-24.589	-256.211	B5-03822-P02-CH0	1483352	OK	0.6207579	0.5208247	-0.5860044	0	-82.515	-99.568	-0.306	B5-03822-P02-CH1	1483352	OK	0.7024524	-0.0167578	-0.7115334	0	-76.741	-74.655	-3.628	B5-03822-P03-CH0	1483352	OK	0.6330437	0.0831508	-0.7696373	0	-84.172	-54.732	-1.331	B5-03822-P03-CH1	1483352	OK	0.7659433	-0.6321795	0.1169613	0	-95.835	-8.521	-6.63	B5-03822-P04-CH0	1483352	OK	0.7743958	-0.3285837	0.5406884	0	-126.424	-40.271	11.023	B5-03822-P04-CH1	1483352	OK	0.8070767	-0.5860347	0.0720445	0	-107.284	-42.799	-1.653	NA
0.249797538062844	B5-03822-P01-CH0	1483360	OK	0.199838	0.1075454	0.1351519	-0.9644857	152.16	-24.614	-256.323	B5-03822-P02-CH0	1483360	OK	0.621302	0.5191307	-0.5869303	0	-82.356	-99.884	-1.644	B5-03822-P02-CH1	1483360	OK	0.7028378	-0.0160074	-0.71117	0	-76.628	-74.728	-3.659	B5-03822-P03-CH0	1483360	OK	0.6327746	0.0816537	-0.7700188	0	-84.194	-56.929	-1.507	B5-03822-P03-CH1	1483360	OK	0.7650024	-0.6329885	0.1187304	0	-95.602	-8.679	-8.125	B5-03822-P04-CH0	1483360	OK	0.7740915	-0.330368	0.5400364	0	-126.312	-40.013	10.824	B5-03822-P04-CH1	1483360	OK	0.8068484	-0.5864231	0.07144	0	-107.108	-42.778	-1.611	NA
0.259789439585358	B5-03822-P01-CH0	1483368	OK	0.1998845	0.1078101	0.1352344	-0.964435	152.267	-24.594	-256.313	B5-03822-P02-CH0	1483368	OK	0.6197288	0.5174633	-0.5900576	0	-83.029	-99.496	-0.537	B5-03822-P02-CH1	1483368	OK	0.7033713	-0.0157401	-0.7106483	0	-76.53	-74.693	-3.864	B5-03822-P03-CH0	1483368	OK	0.6350535	0.0768442	-0.7686364	0	-84.511	-57.126	-3.048	B5-03822-P03-CH1	1483368	OK	0.7648156	-0.6327902	0.1209698	0	-95.675	-9.301	-7.723	B5-03822-P04-CH0	1483368	OK	0.7738558	-0.3313035	0.5398011	0	-126.392	-40.044	10.804	B5-03822-P04-CH1	1483368	OK	0.8067872	-0.5865682	0.0709376	0	-107.123	-42.854	-1.342	NA
0.269781341107872	B5-03822-P01-CH0	1483376	OK	0.1999978	0.1074057	0.1361372	-0.9643296	152.193	-24.483	-256.515	B5-03822-P02-CH0	1483376	OK	0.6207516	0.5140698	-0.5919457	0	-82.763	-99.481	-0.352	B5-03822-P02-CH1	1483376	OK	0.7096895	-0.0135621	-0.7043841	0	-76.017	-75.371	-3.824	B5-03822-P03-CH0	1483376	OK	0.6374483	0.0694339	-0.7673582	0	-85.351	-56.32	-2.502	B5-03822-P03-CH1	1483376	OK	0.7670669	-0.6317784	0.1116442	0	-95.213	-7.188	-8.442	B5-03822-P04-CH0	1483376	OK	0.7737656	-0.3320485	0.5394726	0	-126.359	-39.862	10.88	B5-03822-P04-CH1	1483376	OK	0.8073308	-0.5858673	0.0705438	0	-106.994	-42.766	-0.998	NA
0.279773242630385	B5-03822-P01-CH0	1483384	OK	0.1999216	0.1074419	0.1365051	-0.9642893	152.246	-24.398	-256.649	B5-03822-P02-CH0	1483384	OK	0.6223496	0.5117168	-0.5923063	0	-82.532	-99.42	-1.728	B5-03822-P02-CH1	1483384	OK	0.7116619	-0.0084202	-0.7024717	0	-76.202	-75.227	-4.54	B5-03822-P03-CH0	1483384	OK	0.6359568	0.0611706	-0.7692965	0	-86.986	-55.823	-2.453	B5-03822-P03-CH1	1483384	OK	0.7674351	-0.6311168	0.1128493	0	-95.205	-7.024	-8.493	B5-03822-P04-CH0	1483384	OK	0.7735072	-0.3325721	0.5395205	0	-126.438	-39.959	11.176	B5-03822-P04-CH1	1483384	OK	0.8075067	-0.585672	0.0701512	0	-106.989	-42.671	-0.771	NA
0.289765144152899	B5-03822-P01-CH0	1483392	OK	0.1999982	0.1072984	0.137083	-0.9642075	152.21	-24.378	-256.771	B5-03822-P02-CH0	1483392	OK	0.6226008	0.5102191	-0.5933336	0	-82.623	-99.555	-0.963	B5-03822-P02-CH1	1483392	OK	0.7120081	-0.0020328	-0.7021683	0	-76.413	-75.57	-3.79	B5-03822-P03-CH0	1483392	OK	0.6375419	0.0545916	-0.7684791	0	-85.775	-56.058	-2.625	B5-03822-P03-CH1	1483392	OK	0.7679305	-0.6302421	0.1143578	0	-95.157	-7.035	-8.318	B5-03822-P04-CH0	1483392	OK	0.773278	-0.3335718	0.5392318	0	-126.294	-39.594	10.982	B5-03822-P04-CH1	1483392	OK	0.8078252	-0.5852425	0.0700698	0	-106.93	-42.666	-0.681	NA
0.299757045675413	B5-03822-P01-CH0	1483400	OK	0.1998275	0.1074429	0.1367447	-0.9642748	152.216	-24.376	-256.784	B5-03822-P02-CH0	1483400	OK	0.6239725	0.5108244	-0.5913685	0	-82.431	-99.368	-1.577	B5-03822-P02-CH1	1483400	OK	0.7116994	0.0031568	-0.702477	0	-76.64	-75.654	-2.428	B5-03822-P03-CH0	1483400	OK	0.638237	0.0456884	-0.768483	0	-85.193	-56.196	-1.592	B5-03822-P03-CH1	1483400	OK	0.7675173	-0.6304496	0.1159757	0	-95.248	-7.257	-8.229	B5-03822-P04-CH0	1483400	OK	0.7728529	-0.3343381	0.5393666	0	-126.283	-39.564	11.192	B5-03822-P04-CH1	1483400	OK	0.807661	-0.5855138	0.0696949	0	-106.98	-42.51	-0.746	NA
0.309748947197927	B5-03822-P01-CH0	1483408	OK	0.1994159	0.1074677	0.1361458	-0.964442	152.163	-24.359	-256.831	B5-03822-P02-CH0	1483408	OK	0.6236707	0.5134843	-0.5893799	0	-82.568	-98.207	-1.662	B5-03822-P02-CH1	1483408	OK	0.7123414	0.0099813	-0.7017621	0	-76.1	-75.409	-3.307	B5-03822-P03-CH0	1483408	OK	0.6401421	0.0351955	-0.7674499	0	-84.567	-55.865	-2.164	B5-03822-P03-CH1	1483408	OK	0.7671695	-0.6307881	0.1164364	0	-95.078	-7.072	-8.478	B5-03822-P04-CH0	1483408	OK	0.7723302	-0.3349206	0.5397539	0	-126.369	-39.648	11.399	B5-03822-P04-CH1	1483408	OK	0.8071887	-0.586225	0.0691855	0	-106.883	-42.335	-0.901	NA
0.319740848720441	B5-03822-P01-CH0	1483416	OK	0.1990574	0.1076027	0.1356957	-0.9645644	152.11	-24.425	-256.679	B5-03822-P02-CH0	1483416	OK	0.6263879	0.5150785	-0.5850918	0	-82.74	-99.71	-1.349	B5-03822-P02-CH1	1483416	OK	0.7103231	0.0145014	-0.7037264	0	-76.942	-76.055	-3.355	B5-03822-P03-CH0	1483416	OK	0.6422343	0.0246964	-0.7661104	0	-84.586	-55.733	-2.103	B5-03822-P03-CH1	1483416	OK	0.7670237	-0.6308497	0.1170609	0	-95.017	-6.957	-8.664	B5-03822-P04-CH0	1483416	OK	0.7718908	-0.3358449	0.5398081	0	-126.353	-39.579	11.319	B5-03822-P04-CH1	1483416	OK	0.8067811	-0.5868245	0.0688574	0	-106.98	-42.191	-1.374	NA
0.329732750242954	B5-03822-P01-CH0	1483424	OK	0.1994082	0.1077298	0.1363536	-0.964385	152.201	-24.372	-256.743	B5-03822-P02-CH0	1483424	OK	0.6251784	0.5217358	-0.5804685	0	-83.631	-99.788	-0.722	B5-03822-P02-CH1	1483424	OK	0.7087963	0.0195701	-0.7051417	0	-76.608	-75.753	-3.892	B5-03822-P03-CH0	1483424	OK	0.6440085	0.0094744	-0.7649597	0	-85.183	-55.518	-1.623	B5-03822-P03-CH1	1483424	OK	0.7674156	-0.6301217	0.118406	0	-94.947	-7.118	-8.551	B5-03822-P04-CH0	1483424	OK	0.7720414	-0.3358545	0.5395867	0	-126.377	-39.471	11.312	B5-03822-P04-CH1	1483424	OK	0.8071085	-0.5863056	0.0694382	0	-107.116	-42.299	-1.347	NA
0.339724651765468	B5-03822-P01-CH0	1483432	OK	0.1997073	0.1076063	0.1367588	-0.9642795	152.173	-24.291	-256.828	B5-03822-P02-CH0	1483432	OK	0.6258699	0.5309201	-0.5713236	0	-81.927	-97.763	-2.644	B5-03822-P02-CH1	1483432	OK	0.7068918	0.025168	-0.7068738	0	-75.65	-75.186	-4.547	B5-03822-P03-CH0	1483432	OK	0.6479066	-0.005986	-0.7616962	0	-84.378	-54.493	-3.267	B5-03822-P03-CH1	1483432	OK	0.7677713	-0.6294304	0.1197693	0	-94.934	-7.136	-8.474	B5-03822-P04-CH0	1483432	OK	0.7719347	-0.3363572	0.5394262	0	-126.219	-39.317	11.3	B5-03822-P04-CH1	1483432	OK	0.8072577	-0.5860235	0.0700812	0	-107.181	-42.36	-1.334	NA
0.349716553287982	B5-03822-P01-CH0	1483440	OK	0.2000175	0.107905	0.1371301	-0.9641291	152.273	-24.188	-256.785	B5-03822-P02-CH0	1483440	OK	0.6283621	0.5393698	-0.5605723	0	-81.848	-100.007	-1.907	B5-03822-P02-CH1	1483440	OK	0.7028502	0.0327394	-0.7105841	0	-75.566	-75.39	-4.132	B5-03822-P03-CH0	1483440	OK	0.6504707	-0.0236785	-0.7591621	0	-84.196	-53.599	-2.544	B5-03822-P03-CH1	1483440	OK	0.7678814	-0.629015	0.1212366	0	-95.006	-7.296	-8.438	B5-03822-P04-CH0	1483440	OK	0.7721706	-0.3362851	0.5391335	0	-126.373	-39.356	11.347	B5-03822-P04-CH1	1483440	OK	0.8074502	-0.5856989	0.070576	0	-107.252	-42.399	-1.23	NA
0.359708454810496	B5-03822-P01-CH0	1483448	OK	0.2000449	0.1079719	0.1371279	-0.9641162	152.3	-24.202	-256.821	B5-03822-P02-CH0	1483448	OK	0.6245918	0.5506028	-0.5538246	0	-82.932	-98.469	-0.645	B5-03822-P02-CH1	1483448	OK	0.6997596	0.0405467	-0.7132268	0	-74.983	-75.155	-3.499	B5-03822-P03-CH0	1483448	OK	0.6524547	-0.0430721	-0.7566027	0	-84.807	-54.151	-1.607	B5-03822-P03-CH1	1483448	OK	0.7677121	-0.6289409	0.1226845	0	-95.092	-7.6	-8.242	B5-03822-P04-CH0	1483448	OK	0.7722942	-0.3365506	0.5387906	0	-126.471	-39.454	11.546	B5-03822-P04-CH1	1483448	OK	0.8074311	-0.5856926	0.0708458	0	-107.222	-42.304	-1.546	NA
0.369700356333009	B5-03822-P01-CH0	1483456	OK	0.199882	0.1081052	0.1364998	-0.9642242	152.293	-24.246	-256.712	B5-03822-P02-CH0	1483456	OK	0.6248433	0.5600851	-0.5439445	0	-83.432	-98.403	-1.212	B5-03822-P02-CH1	1483456	OK	0.6959899	0.0477956	-0.7164591	0	-75.106	-74.657	-4.116	B5-03822-P03-CH0	1483456	OK	0.6556124	-0.0588238	-0.7528029	0	-85.272	-54.108	-3.581	B5-03822-P03-CH1	1483456	OK	0.7674539	-0.6291298	0.1233297	0	-94.995	-7.533	-8.258	B5-03822-P04-CH0	1483456	OK	0.7720261	-0.3371992	0.5387693	0	-126.507	-39.653	11.631	B5-03822-P04-CH1	1483456	OK	0.8069492	-0.5863234	0.0711182	0	-107.304	-42.391	-1.584	NA
0.379692257855523	B5-03822-P01-CH0	1483464	OK	0.2000714	0.1078996	0.1366285	-0.9641897	152.213	-24.25	-256.724	B5-03822-P02-CH0	1483464	OK	0.6254574	0.5663486	-0.536705	0	-83.999	-99.581	0.749	B5-03822-P02-CH1	1483464	OK	0.6940365	0.0517751	-0.7180757	0	-74.357	-74.636	-3.259	B5-03822-P03-CH0	1483464	OK	0.6594393	-0.0698077	-0.7485096	0	-85.238	-54.699	-1.21	B5-03822-P03-CH1	1483464	OK	0.7673544	-0.6289249	0.1249829	0	-94.952	-7.854	-8.032	B5-03822-P04-CH0	1483464	OK	0.7719725	-0.3385351	0.5380079	0	-126.31	-39.326	11.184	B5-03822-P04-CH1	1483464	OK	0.8069731	-0.586215	0.0717386	0	-107.259	-42.508	-1.587	NA
0.389684159378037	B5-03822-P01-CH0	1483472	OK	0.1998745	0.107901	0.1362899	-0.9642783	152.167	-24.229	-256.669	B5-03822-P02-CH0	1483472	OK	0.6278403	0.5700773	-0.5299325	0	-83.52	-99.595	-0.436	B5-03822-P02-CH1	1483472	OK	0.6908586	0.0531598	-0.7210329	0	-74.779	-75.503	-3.529	B5-03822-P03-CH0	1483472	OK	0.6652179	-0.0782755	-0.7425349	0	-84.884	-54.799	-1.072	B5-03822-P03-CH1	1483472	OK	0.7673259	-0.6289805	0.1248777	0	-94.75	-7.403	-8.552	B5-03822-P04-CH0	1483472	OK	0.77175	-0.3398807	0.5374783	0	-126.261	-39.301	11.061	B5-03822-P04-CH1	1483472	OK	0.8067046	-0.5865441	0.0720676	0	-107.301	-42.475	-1.702	NA
0.399676060900551	B5-03822-P01-CH0	1483480	OK	0.2000611	0.1076231	0.13675	-0.9642055	152.135	-24.204	-256.776	B5-03822-P02-CH0	1483480	OK	0.626494	0.5733806	-0.5279582	0	-83.081	-98.186	-1.083	B5-03822-P02-CH1	1483480	OK	0.6885981	0.0522693	-0.7232569	0	-74.41	-75.815	-3.76	B5-03822-P03-CH0	1483480	OK	0.6683232	-0.0835784	-0.7391608	0	-85.926	-55.232	-2.268	B5-03822-P03-CH1	1483480	OK	0.7674188	-0.628631	0.1260613	0	-94.68	-7.69	-8.361	B5-03822-P04-CH0	1483480	OK	0.7719112	-0.340915	0.5365912	0	-126.238	-39.26	10.9	B5-03822-P04-CH1	1483480	OK	0.8069168	-0.586174	0.0726998	0	-107.249	-42.517	-1.828	NA
0.409667962423064	B5-03822-P01-CH0	1483488	OK	0.200111	0.1074746	0.1369449	-0.964184	152.15	-24.2	-256.87	B5-03822-P02-CH0	1483488	OK	0.6292438	0.5713724	-0.5268642	0	-82.928	-100.132	-1.072	B5-03822-P02-CH1	1483488	OK	0.6868202	0.0460922	-0.7253644	0	-73.92	-75.681	-3.031	B5-03822-P03-CH0	1483488	OK	0.6723148	-0.0838693	-0.735499	0	-86.252	-55.361	-2.653	B5-03822-P03-CH1	1483488	OK	0.7672851	-0.6286247	0.1269038	0	-94.689	-7.939	-8.334	B5-03822-P04-CH0	1483488	OK	0.771916	-0.3432472	0.5350953	0	-126.1	-38.806	10.395	B5-03822-P04-CH1	1483488	OK	0.8070028	-0.58598	0.0733062	0	-107.278	-42.6	-1.933	NA
0.419659863945578	B5-03822-P01-CH0	1483496	OK	0.2003321	0.1072191	0.1375123	-0.9640858	152.064	-24.059	-256.962	B5-03822-P02-CH0	1483496	OK	0.6279978	0.5662511	-0.5338338	0	-83.375	-99.637	-0.158	B5-03822-P02-CH1	1483496	OK	0.6852036	0.036415	-0.7274407	0	-73.903	-75.562	-4.446	B5-03822-P03-CH0	1483496	OK	0.6771377	-0.0823378	-0.7312353	0	-86.106	-55.139	-1.3	B5-03822-P03-CH1	1483496	OK	0.7676361	-0.6281362	0.1271994	0	-94.487	-7.752	-8.234	B5-03822-P04-CH0	1483496	OK	0.7719478	-0.3450698	0.5338758	0	-125.924	-38.583	10.241	B5-03822-P04-CH1	1483496	OK	0.8074273	-0.5853033	0.074036	0	-107.294	-42.581	-1.784	NA
0.429651765468092	B5-03822-P01-CH0	1483504	OK	0.2000089	0.1075121	0.1367334	-0.9642311	152.091	-24.068	-256.798	B5-03822-P02-CH0	1483504	OK	0.6326542	0.5530378	-0.5421236	0	-81.312	-98.399	-2.866	B5-03822-P02-CH1	1483504	OK	0.6845036	0.0200347	-0.7287341	0	-73.944	-75.191	-3.606	B5-03822-P03-CH0	1483504	OK	0.6829621	-0.0790927	-0.7261592	0	-86.575	-55.045	-2.651	B5-03822-P03-CH1	1483504	OK	0.766796	-0.6290326	0.1278351	0	-94.852	-8.023	-8.126	B5-03822-P04-CH0	1483504	OK	0.7705567	-0.3534113	0.5304176	0	-126.393	-41.763	12.814	B5-03822-P04-CH1	1483504	OK	0.8069522	-0.5859417	0.0741653	0	-107.365	-42.628	-1.777	NA
0.439643666990606	B5-03822-P01-CH0	1483512	OK	0.1998233	0.1073721	0.1366558	-0.9642962	152.034	-24.043	-256.78	B5-03822-P02-CH0	1483512	OK	0.6382115	0.5303677	-0.5580289	0	-81.227	-100.698	-2.381	B5-03822-P02-CH1	1483512	OK	0.6858896	-0.0026191	-0.7277009	0	-74.074	-75.157	-3.207	B5-03822-P03-CH0	1483512	OK	0.6914335	-0.0808824	-0.7178982	0	-87.552	-54.912	-2.386	B5-03822-P03-CH1	1483512	OK	0.7663694	-0.6295271	0.1279595	0	-94.893	-8.173	-8.094	B5-03822-P04-CH0	1483512	OK	0.7705123	-0.3594171	0.5264316	0	-126.88	-40.65	10.516	B5-03822-P04-CH1	1483512	OK	0.8069129	-0.5859568	0.0744721	0	-107.373	-42.703	-1.698	NA
0.44963556851312	B5-03822-P01-CH0	1483520	OK	0.1998612	0.1071883	0.1366795	-0.9643054	151.978	-24.046	-256.753	B5-03822-P02-CH0	1483520	OK	0.6382731	0.4997192	-0.5855666	0	-81.902	-99.477	-0.975	B5-03822-P02-CH1	1483520	OK	0.6916073	-0.0326572	-0.721535	0	-73.887	-74.999	-3.859	B5-03822-P03-CH0	1483520	OK	0.703239	-0.0839723	-0.705977	0	-88.819	-56.378	-1.882	B5-03822-P03-CH1	1483520	OK	0.766845	-0.6292841	0.1262948	0	-94.528	-7.463	-8.551	B5-03822-P04-CH0	1483520	OK	0.7699571	-0.3667882	0.5221422	0	-125.956	-38.264	9.294	B5-03822-P04-CH1	1483520	OK	0.8070571	-0.5857178	0.07479	0	-107.376	-42.592	-2.061	NA
0.459627470035633	B5-03822-P01-CH0	1483528	OK	0.1997109	0.1072561	0.1361141	-0.9644089	151.943	-24.042	-256.632	B5-03822-P02-CH0	1483528	OK	0.6471395	0.4591052	-0.6086319	0	-79.76	-100.085	-3.181	B5-03822-P02-CH1	1483528	OK	0.6996137	-0.0668902	-0.7113834	0	-74.353	-74.258	-4.873	B5-03822-P03-CH0	1483528	OK	0.7159634	-0.0838958	-0.6930786	0	-90.226	-57.39	-2.119	B5-03822-P03-CH1	1483528	OK	0.7664793	-0.6299081	0.1254008	0	-94.5	-7.254	-8.833	B5-03822-P04-CH0	1483528	OK	0.7700258	-0.3625902	0.5249653	0	-127.622	-42.319	13.197	B5-03822-P04-CH1	1483528	OK	0.806662	-0.5862077	0.0752132	0	-107.556	-42.82	-1.888	NA
0.469619371558147	B5-03822-P01-CH0	1483536	OK	0.1995644	0.1073141	0.1356282	-0.9645013	151.894	-24.069	-256.577	B5-03822-P02-CH0	1483536	OK	0.653196	0.4138665	-0.6340738	0	-78.656	-100.833	-2.648	B5-03822-P02-CH1	1483536	OK	0.7122912	-0.0990372	-0.6948617	0	-74.929	-75.088	-3.372	B5-03822-P03-CH0	1483536	OK	0.7285982	-0.0764794	-0.6806581	0	-90.597	-56.86	-1.88	B5-03822-P03-CH1	1483536	OK	0.7652368	-0.6311949	0.1265129	0	-94.869	-8.158	-8.454	B5-03822-P04-CH0	1483536	OK	0.7689746	-0.3693622	0.5217754	0	-126.484	-40.69	12.994	B5-03822-P04-CH1	1483536	OK	0.8063451	-0.5865817	0.0756938	0	-107.516	-43.013	-1.785	NA
0.479611273080661	B5-03822-P01-CH0	1483544	OK	0.1994231	0.1074611	0.1353212	-0.9645573	151.886	-24.066	-256.439	B5-03822-P02-CH0	1483544	OK	0.6579235	0.3626532	-0.6600147	0	-78.021	-99.872	-1.575	B5-03822-P02-CH1	1483544	OK	0.7291151	-0.1244622	-0.6729787	0	-76.18	-75.709	-4.262	B5-03822-P03-CH0	1483544	OK	0.7395972	-0.0684213	-0.6695629	0	-92.154	-56.749	-0.743	B5-03822-P03-CH1	1483544	OK	0.7649321	-0.6317961	0.12535	0	-94.843	-7.955	-8.688	B5-03822-P04-CH0	1483544	OK	0.7682829	-0.3720446	0.5208879	0	-127.109	-41.432	12.784	B5-03822-P04-CH1	1483544	OK	0.8063111	-0.5866369	0.075628	0	-107.605	-42.915	-2.013	NA
0.489603174603175	B5-03822-P01-CH0	1483552	OK	0.2000509	0.1074435	0.1363973	-0.9642776	151.965	-23.982	-256.491	B5-03822-P02-CH0	1483552	OK	0.6687292	0.3105584	-0.6755404	0	-76.099	-99.753	-4.231	B5-03822-P02-CH1	1483552	OK	0.7465402	-0.1444607	-0.6494681	0	-78.348	-77.01	-3.33	B5-03822-P03-CH0	1483552	OK	0.7528185	-0.0605891	-0.6554337	0	-94.301	-58.863	0.007	B5-03822-P03-CH1	1483552	OK	0.7648911	-0.6316526	0.1263198	0	-95.223	-8.828	-7.869	B5-03822-P04-CH0	1483552	OK	0.7683199	-0.375754	0.5181635	0	-126.91	-40.806	12.116	B5-03822-P04-CH1	1483552	OK	0.8070821	-0.5854832	0.0763411	0	-107.659	-43.063	-1.952	NA
0.499595076125688	B5-03822-P01-CH0	1483560	OK	0.1997811	0.1074563	0.13611	-0.9643727	151.892	-24.041	-256.402	B5-03822-P02-CH0	1483560	OK	0.6783921	0.2631953	-0.6859391	0	-76.349	-100.273	-3.331	B5-03822-P02-CH1	1483560	OK	0.7644969	-0.1540126	-0.625959	0	-79.789	-77.515	-3.229	B5-03822-P03-CH0	1483560	OK	0.7636038	-0.04177	-0.6443326	0	-96.651	-59.092	-0.406	B5-03822-P03-CH1	1483560	OK	0.7645037	-0.6324333	0.1247485	0	-95.094	-8.635	-8.238	B5-03822-P04-CH0	1483560	OK	0.7678655	-0.3815776	0.5145688	0	-126.015	-39.11	11.906	B5-03822-P04-CH1	1483560	OK	0.8069535	-0.5856546	0.0763857	0	-107.713	-43.213	-1.846	NA
0.509586977648202	B5-03822-P01-CH0	1483568	OK	0.1997915	0.1071685	0.1365241	-0.964344	151.763	-24.031	-256.374	B5-03822-P02-CH0	1483568	OK	0.6896173	0.2157864	-0.6912772	0	-76.666	-101.876	-3.23	B5-03822-P02-CH1	1483568	OK	0.7798464	-0.1578949	-0.6057299	0	-82.1	-78.604	-2.758	B5-03822-P03-CH0	1483568	OK	0.7723627	-0.016692	-0.6349623	0	-96.97	-58.429	0.65	B5-03822-P03-CH1	1483568	OK	0.7648957	-0.6322882	0.1230699	0	-94.91	-8.161	-8.469	B5-03822-P04-CH0	1483568	OK	0.7665867	-0.3837801	0.5148375	0	-125.969	-40.691	12.553	B5-03822-P04-CH1	1483568	OK	0.8073277	-0.5851187	0.0765383	0	-107.665	-43.202	-1.843	NA
0.519578879170716	B5-03822-P01-CH0	1483576	OK	0.1996985	0.1074327	0.1364521	-0.9643441	151.855	-24.065	-256.332	B5-03822-P02-CH0	1483576	OK	0.7036465	0.1752116	-0.6886091	0	-75.016	-100.749	-4.798	B5-03822-P02-CH1	1483576	OK	0.7934443	-0.1551763	-0.5885291	0	-84.777	-79.687	-1.5	B5-03822-P03-CH0	1483576	OK	0.7745547	0.0116637	-0.6323994	0	-98.599	-59.977	1.584	B5-03822-P03-CH1	1483576	OK	0.7647022	-0.6326875	0.1222176	0	-95.171	-8.341	-8.358	B5-03822-P04-CH0	1483576	OK	0.7662551	-0.3888219	0.5115376	0	-125.221	-38.934	11.714	B5-03822-P04-CH1	1483576	OK	0.807326	-0.5851142	0.076591	0	-107.639	-43.397	-1.635	NA
0.52957078069323	B5-03822-P01-CH0	1483584	OK	0.1997196	0.1075657	0.1367288	-0.9642857	151.886	-24.043	-256.354	B5-03822-P02-CH0	1483584	OK	0.7203701	0.1381894	-0.6796842	0	-74.597	-102.239	-5.596	B5-03822-P02-CH1	1483584	OK	0.8048695	-0.1547073	-0.5729318	0	-85.271	-80.41	-0.272	B5-03822-P03-CH0	1483584	OK	0.7743141	0.0495016	-0.6308624	0	-98.97	-59.029	0.266	B5-03822-P03-CH1	1483584	OK	0.7651043	-0.6325568	0.1203628	0	-95.017	-7.987	-8.621	B5-03822-P04-CH0	1483584	OK	0.765629	-0.3890791	0.5122789	0	-125.674	-40.193	11.57	B5-03822-P04-CH1	1483584	OK	0.8075582	-0.5847597	0.076849	0	-107.779	-43.614	-1.235	NA
0.539562682215743	B5-03822-P01-CH0	1483592	OK	0.1996725	0.1080455	0.1365643	-0.9642651	151.994	-24.076	-256.224	B5-03822-P02-CH0	1483592	OK	0.7328359	0.1024612	-0.6726465	0	-76.624	-103.142	-2.99	B5-03822-P02-CH1	1483592	OK	0.8099494	-0.1483226	-0.5674349	0	-87.188	-81.101	0.593	B5-03822-P03-CH0	1483592	OK	0.7715667	0.0789859	-0.6312259	0	-99.116	-60.028	2.541	B5-03822-P03-CH1	1483592	OK	0.7652926	-0.6326183	0.118833	0	-95.068	-7.744	-8.752	B5-03822-P04-CH0	1483592	OK	0.7651738	-0.3956437	0.5079125	0	-124.409	-37.955	10.591	B5-03822-P04-CH1	1483592	OK	0.8076083	-0.5847021	0.0767617	0	-107.862	-43.661	-1.198	NA
0.549554583738257	B5-03822-P01-CH0	1483600	OK	0.1994644	0.1082299	0.1360438	-0.9643611	152.018	-24.17	-256.26	B5-03822-P02-CH0	1483600	OK	0.7480611	0.0763844	-0.6592193	0	-76.176	-102.066	-4.701	B5-03822-P02-CH1	1483600	OK	0.8145096	-0.1342576	-0.5644015	0	-88.286	-81.244	0.332	B5-03822-P03-CH0	1483600	OK	0.7675387	0.107584	-0.6319098	0	-99.472	-60.429	3.938	B5-03822-P03-CH1	1483600	OK	0.7644579	-0.6335589	0.1191941	0	-95.446	-8.585	-8.13	B5-03822-P04-CH0	1483600	OK	0.7647761	-0.3929626	0.5105858	0	-125.768	-40.475	11.126	B5-03822-P04-CH1	1483600	OK	0.8073873	-0.5850318	0.0765735	0	-107.776	-43.722	-1.152	NA
0.559546485260771	B5-03822-P01-CH0	1483608	OK	0.1993303	0.1082183	0.1357318	-0.9644341	151.95	-24.269	-256.242	B5-03822-P02-CH0	1483608	OK	0.7598544	0.0551565	-0.6477492	0	-76.971	-102.039	-3.28	B5-03822-P02-CH1	1483608	OK	0.8175475	-0.1205131	-0.5631098	0	-88.568	-81.537	0.006	B5-03822-P03-CH0	1483608	OK	0.7635112	0.1414891	-0.6301044	0	-98.641	-59.826	2.894	B5-03822-P03-CH1	1483608	OK	0.7642388	-0.6339507	0.1185141	0	-95.484	-8.731	-8.02	B5-03822-P04-CH0	1483608	OK	0.7648637	-0.3952167	0.5087114	0	-125.887	-40.115	10.819	B5-03822-P04-CH1	1483608	OK	0.8073199	-0.5851013	0.0767527	0	-107.649	-43.806	-1.144	NA
0.569538386783285	B5-03822-P01-CH0	1483616	OK	0.1994142	0.1081454	0.1363791	-0.9643336	151.976	-24.267	-256.304	B5-03822-P02-CH0	1483616	OK	0.7686756	0.0371584	-0.6385586	0	-78.25	-102.731	-1.721	B5-03822-P02-CH1	1483616	OK	0.8200953	-0.1050004	-0.5625111	0	-88.351	-81.297	0.096	B5-03822-P03-CH0	1483616	OK	0.7565322	0.1702174	-0.6314151	0	-98.008	-60.084	3.133	B5-03822-P03-CH1	1483616	OK	0.7650147	-0.6333583	0.1166609	0	-95.34	-8.296	-8.284	B5-03822-P04-CH0	1483616	OK	0.7660652	-0.3977011	0.5049534	0	-125.589	-40.041	13.072	B5-03822-P04-CH1	1483616	OK	0.8079016	-0.5843202	0.0765821	0	-107.769	-43.81	-1.07	NA
0.579530288305799	B5-03822-P01-CH0	1483624	OK	0.199615	0.1082543	0.136737	-0.9642291	152.01	-24.23	-256.321	B5-03822-P02-CH0	1483624	OK	0.7788215	0.0287064	-0.6265884	0	-77.451	-101.101	-2.615	B5-03822-P02-CH1	1483624	OK	0.8199033	-0.0919426	-0.565071	0	-89.268	-80.894	1.128	B5-03822-P03-CH0	1483624	OK	0.7465342	0.1960592	-0.6358046	0	-97.759	-58.896	1.132	B5-03822-P03-CH1	1483624	OK	0.765007	-0.6333117	0.1169642	0	-95.536	-8.786	-7.695	B5-03822-P04-CH0	1483624	OK	0.7663211	-0.4025171	0.5007314	0	-124.644	-38.67	12.703	B5-03822-P04-CH1	1483624	OK	0.8081464	-0.5839326	0.076955	0	-107.654	-43.949	-0.943	NA
0.589522189828312	B5-03822-P01-CH0	1483632	OK	0.1991075	0.1083085	0.135507	-0.9645016	151.943	-24.402	-256.287	B5-03822-P02-CH0	1483632	OK	0.7859018	0.0201947	-0.6180214	0	-77.637	-101.526	-1.325	B5-03822-P02-CH1	1483632	OK	0.8195845	-0.0811048	-0.567189	0	-89.467	-81.129	2.157	B5-03822-P03-CH0	1483632	OK	0.7401552	0.2121959	-0.6380777	0	-96.864	-57.518	1.266	B5-03822-P03-CH1	1483632	OK	0.7647164	-0.6340118	0.1150561	0	-95.255	-8.297	-8.08	B5-03822-P04-CH0	1483632	OK	0.7657185	-0.4027818	0.5014399	0	-125.194	-40.509	13.537	B5-03822-P04-CH1	1483632	OK	0.8074407	-0.584935	0.0767503	0	-107.602	-44.125	-0.786	NA
0.599514091350826	B5-03822-P01-CH0	1483640	OK	0.1992431	0.1086198	0.135446	-0.9644471	152.012	-24.379	-256.2	B5-03822-P02-CH0	1483640	OK	0.7862331	0.0149931	-0.6177481	0	-79.649	-101.969	-1.615	B5-03822-P02-CH1	1483640	OK	0.8207692	-0.0709598	-0.5668356	0	-88.882	-80.638	2.244	B5-03822-P03-CH0	1483640	OK	0.7412649	0.2032439	-0.6397017	0	-97.157	-58.334	1.483	B5-03822-P03-CH1	1483640	OK	0.764862	-0.6338521	0.1149684	0	-95.571	-8.372	-7.912	B5-03822-P04-CH0	1483640	OK	0.7656293	-0.3988611	0.5046995	0	-124.681	-38.585	11.536	B5-03822-P04-CH1	1483640	OK	0.8075102	-0.5848278	0.0768359	0	-107.61	-44.174	-0.713	NA
0.60950599287334	B5-03822-P01-CH0	1483648	OK	0.1994895	0.1090455	0.13502	-0.9644079	152.124	-24.412	-256.108	B5-03822-P02-CH0	1483648	OK	0.7892089	0.0173476	-0.6138797	0	-78.986	-100.314	-1.331	B5-03822-P02-CH1	1483648	OK	0.8193701	-0.063701	-0.5697148	0	-89.482	-80.277	1.333	B5-03822-P03-CH0	1483648	OK	0.7440178	0.1926928	-0.6397711	0	-97.065	-57.905	1.886	B5-03822-P03-CH1	1483648	OK	0.764618	-0.6340317	0.1155987	0	-95.834	-8.839	-7.344	B5-03822-P04-CH0	1483648	OK	0.7658175	-0.3990546	0.5042609	0	-124.955	-39.162	12.076	B5-03822-P04-CH1	1483648	OK	0.8074557	-0.5848706	0.0770823	0	-107.698	-44.263	-0.549	NA
0.619497894395854	B5-03822-P01-CH0	1483656	OK	0.1994358	0.1091369	0.1345334	-0.9644767	152.144	-24.506	-256.09	B5-03822-P02-CH0	1483656	OK	0.788793	0.020253	-0.6143252	0	-78.983	-100.85	-0.282	B5-03822-P02-CH1	1483656	OK	0.8176718	-0.0594232	-0.5726096	0	-88.972	-80.384	2.933	B5-03822-P03-CH0	1483656	OK	0.7457349	0.1840272	-0.6403229	0	-96.492	-57.703	3.778	B5-03822-P03-CH1	1483656	OK	0.7645494	-0.6342789	0.1146925	0	-95.714	-8.67	-7.532	B5-03822-P04-CH0	1483656	OK	0.7659235	-0.3996394	0.5036364	0	-125.072	-39.498	12.441	B5-03822-P04-CH1	1483656	OK	0.807287	-0.5851091	0.0770385	0	-107.732	-44.364	-0.382	NA
0.629489795918367	B5-03822-P01-CH0	1483664	OK	0.1993977	0.1090722	0.1338613	-0.9645854	152.059	-24.61	-255.993	B5-03822-P02-CH0	1483664	OK	0.7834081	0.0331818	-0.6206213	0	-80.03	-101.408	-0.689	B5-03822-P02-CH1	1483664	OK	0.8134482	-0.0604315	-0.5784895	0	-89.374	-80.383	1.892	B5-03822-P03-CH0	1483664	OK	0.7459552	0.1718722	-0.6434367	0	-97.029	-57.777	2.471	B5-03822-P03-CH1	1483664	OK	0.7639093	-0.6349248	0.1153818	0	-95.793	-9.138	-7.214	B5-03822-P04-CH0	1483664	OK	0.7659842	-0.4001627	0.5031283	0	-125.095	-39.71	12.655	B5-03822-P04-CH1	1483664	OK	0.8069655	-0.5855583	0.0769941	0	-107.571	-44.281	-0.758	NA
0.639481697440881	B5-03822-P01-CH0	1483672	OK	0.1994211	0.109117	0.1334049	-0.9646387	152.063	-24.621	-256.009	B5-03822-P02-CH0	1483672	OK	0.7789135	0.0570847	-0.6245279	0	-79.122	-99.975	-0.98	B5-03822-P02-CH1	1483672	OK	0.8109033	-0.0615617	-0.581933	0	-88.697	-79.884	1.841	B5-03822-P03-CH0	1483672	OK	0.7459997	0.1575623	-0.6470383	0	-96.793	-57.906	1.934	B5-03822-P03-CH1	1483672	OK	0.7636873	-0.6351957	0.1153607	0	-95.79	-9.169	-7.24	B5-03822-P04-CH0	1483672	OK	0.7662487	-0.4006524	0.5023352	0	-125.126	-39.861	13.053	B5-03822-P04-CH1	1483672	OK	0.8068559	-0.5857306	0.0768331	0	-107.515	-44.172	-0.712	NA
0.649473598963395	B5-03822-P01-CH0	1483680	OK	0.1994292	0.1091598	0.1329969	-0.9646885	152.05	-24.717	-255.911	B5-03822-P02-CH0	1483680	OK	0.772918	0.0777121	-0.629729	0	-78.997	-100.286	-1.309	B5-03822-P02-CH1	1483680	OK	0.8078569	-0.0621891	-0.5860886	0	-87.896	-79.719	1.626	B5-03822-P03-CH0	1483680	OK	0.7465422	0.131112	-0.6522916	0	-97.018	-58.563	2.452	B5-03822-P03-CH1	1483680	OK	0.7639382	-0.6351107	0.114161	0	-95.495	-8.665	-7.635	B5-03822-P04-CH0	1483680	OK	0.766655	-0.4008388	0.5015659	0	-125.106	-39.996	13.365	B5-03822-P04-CH1	1483680	OK	0.806761	-0.5858503	0.0769159	0	-107.593	-44.274	-0.492	NA
0.659465500485909	B5-03822-P01-CH0	1483688	OK	0.2000536	0.1089005	0.1337549	-0.9644837	151.994	-24.647	-255.844	B5-03822-P02-CH0	1483688	OK	0.7634131	0.0985069	-0.6383547	0	-80.279	-101.514	-1.305	B5-03822-P02-CH1	1483688	OK	0.8026523	-0.0643389	-0.592967	0	-87.504	-79.844	1.118	B5-03822-P03-CH0	1483688	OK	0.7496637	0.0937383	-0.655147	0	-96.68	-57.468	2.216	B5-03822-P03-CH1	1483688	OK	0.7649596	-0.6339595	0.1137201	0	-95.204	-8.119	-8.074	B5-03822-P04-CH0	1483688	OK	0.767677	-0.399029	0.5014458	0	-125.23	-40.382	13.822	B5-03822-P04-CH1	1483688	OK	0.8073466	-0.5849919	0.0773044	0	-107.638	-44.172	-0.72	NA
0.669457402008422	B5-03822-P01-CH0	1483696	OK	0.2003341	0.109332	0.1334312	-0.9644215	152.121	-24.67	-255.715	B5-03822-P02-CH0	1483696	OK	0.7569512	0.1251633	-0.6413727	0	-78.946	-100.588	-2.589	B5-03822-P02-CH1	1483696	OK	0.7951545	-0.0647858	-0.6029363	0	-86.828	-79.201	-0.326	B5-03822-P03-CH0	1483696	OK	0.7507397	0.0574041	-0.6580993	0	-96.465	-56.708	0.53	B5-03822-P03-CH1	1483696	OK	0.765479	-0.6333985	0.11335	0	-95.205	-7.738	-8.172	B5-03822-P04-CH0	1483696	OK	0.7711115	-0.3976408	0.4972614	0	-124.94	-38.474	11.988	B5-03822-P04-CH1	1483696	OK	0.8073053	-0.5850179	0.077539	0	-107.776	-44.138	-0.729	NA
0.679449303530936	B5-03822-P01-CH0	1483704	OK	0.2002858	0.1094776	0.1329177	-0.964486	152.175	-24.764	-255.661	B5-03822-P02-CH0	1483704	OK	0.7475728	0.1465657	-0.6478066	0	-79.011	-100.157	-1.276	B5-03822-P02-CH1	1483704	OK	0.7874977	-0.0659103	-0.6127831	0	-85.188	-78.946	-0.398	B5-03822-P03-CH0	1483704	OK	0.7517681	0.0256982	-0.6589267	0	-95.406	-56.733	-0.44	B5-03822-P03-CH1	1483704	OK	0.7658616	-0.6331257	0.1122848	0	-95.043	-7.2	-8.715	B5-03822-P04-CH0	1483704	OK	0.7714613	-0.3974639	0.4968601	0	-125.226	-39.222	12.201	B5-03822-P04-CH1	1483704	OK	0.8071269	-0.5852858	0.0773741	0	-107.832	-44.082	-0.69	NA
0.68944120505345	B5-03822-P01-CH0	1483712	OK	0.2004556	0.1098015	0.1327492	-0.9644371	152.247	-24.707	-255.548	B5-03822-P02-CH0	1483712	OK	0.7379379	0.1664827	-0.6540116	0	-79.74	-101.922	-2.384	B5-03822-P02-CH1	1483712	OK	0.7784691	-0.068434	-0.6239413	0	-84.709	-78.526	-1.323	B5-03822-P03-CH0	1483712	OK	0.7509542	-0.0051635	-0.6603341	0	-95.46	-56.694	-0.659	B5-03822-P03-CH1	1483712	OK	0.7660901	-0.6328163	0.11247	0	-95.161	-7.08	-8.856	B5-03822-P04-CH0	1483712	OK	0.7722929	-0.3968444	0.4960628	0	-126.078	-39.124	10.739	B5-03822-P04-CH1	1483712	OK	0.8071954	-0.5852005	0.0773037	0	-107.975	-43.887	-0.673	NA
0.699433106575964	B5-03822-P01-CH0	1483720	OK	0.2003582	0.1098287	0.1325477	-0.9644819	152.281	-24.784	-255.513	B5-03822-P02-CH0	1483720	OK	0.7297771	0.1919013	-0.6562006	0	-78.643	-100.097	-0.809	B5-03822-P02-CH1	1483720	OK	0.7721995	-0.0726423	-0.631214	0	-83.033	-78.236	-2.478	B5-03822-P03-CH0	1483720	OK	0.7525145	-0.0330187	-0.6577475	0	-94.272	-56.516	-1.182	B5-03822-P03-CH1	1483720	OK	0.7661255	-0.6328403	0.112093	0	-94.939	-7.095	-8.917	B5-03822-P04-CH0	1483720	OK	0.7699933	-0.3965705	0.4998421	0	-125.741	-40.439	13.22	B5-03822-P04-CH1	1483720	OK	0.8071749	-0.5852629	0.0770455	0	-107.945	-43.745	-0.684	NA
0.709425008098478	B5-03822-P01-CH0	1483728	OK	0.2000244	0.1099826	0.1316017	-0.9646632	152.291	-24.871	-255.46	B5-03822-P02-CH0	1483728	OK	0.7221368	0.2095565	-0.6592454	0	-78.619	-100.227	-1.116	B5-03822-P02-CH1	1483728	OK	0.7633066	-0.0764405	-0.6414982	0	-82.611	-77.701	-2.432	B5-03822-P03-CH0	1483728	OK	0.7504976	-0.0589589	-0.658238	0	-95.199	-57.052	-0.415	B5-03822-P03-CH1	1483728	OK	0.7653729	-0.6337099	0.1123214	0	-94.898	-7.379	-8.974	B5-03822-P04-CH0	1483728	OK	0.7701242	-0.3981193	0.4984072	0	-125.558	-39.697	12.53	B5-03822-P04-CH1	1483728	OK	0.8064709	-0.5862711	0.076752	0	-107.916	-43.769	-0.7	NA
0.719416909620991	B5-03822-P01-CH0	1483736	OK	0.2001046	0.1102017	0.1313625	-0.9646541	152.39	-24.98	-255.42	B5-03822-P02-CH0	1483736	OK	0.7178429	0.2269612	-0.6581719	0	-76.868	-99.684	-4.434	B5-03822-P02-CH1	1483736	OK	0.7548929	-0.0808152	-0.6508499	0	-81.982	-77.446	-1.921	B5-03822-P03-CH0	1483736	OK	0.7501263	-0.0766241	-0.6568403	0	-94.642	-56.666	-1.022	B5-03822-P03-CH1	1483736	OK	0.7649372	-0.633968	0.1138233	0	-95.135	-8.169	-8.479	B5-03822-P04-CH0	1483736	OK	0.7705289	-0.3984776	0.4974945	0	-125.486	-39.638	12.385	B5-03822-P04-CH1	1483736	OK	0.8062804	-0.5865409	0.0766927	0	-107.962	-43.849	-0.731	NA
0.729408811143505	B5-03822-P01-CH0	1483744	OK	0.2001315	0.1101842	0.131374	-0.964649	152.413	-25.02	-255.399	B5-03822-P02-CH0	1483744	OK	0.7088792	0.2393663	-0.6634712	0	-78.781	-102.001	-2.109	B5-03822-P02-CH1	1483744	OK	0.7486018	-0.0852598	-0.6575151	0	-81.206	-77.679	-2.612	B5-03822-P03-CH0	1483744	OK	0.7492427	-0.0861306	-0.6566711	0	-94.187	-55.889	-0.878	B5-03822-P03-CH1	1483744	OK	0.765479	-0.633397	0.1133589	0	-95.028	-7.843	-8.666	B5-03822-P04-CH0	1483744	OK	0.7710146	-0.3985108	0.4967148	0	-125.492	-39.504	12.264	B5-03822-P04-CH1	1483744	OK	0.8063465	-0.5864688	0.0765487	0	-107.971	-43.859	-0.419	NA
0.739400712666019	B5-03822-P01-CH0	1483752	OK	0.2005008	0.1101174	0.1320104	-0.964493	152.468	-24.957	-255.413	B5-03822-P02-CH0	1483752	OK	0.7030616	0.2531936	-0.6645279	0	-78.083	-99.885	-2.251	B5-03822-P02-CH1	1483752	OK	0.7444497	-0.0864862	-0.6620535	0	-80.518	-77.247	-2.056	B5-03822-P03-CH0	1483752	OK	0.7474178	-0.0937246	-0.65771	0	-94.343	-56.368	-1.284	B5-03822-P03-CH1	1483752	OK	0.76602	-0.632682	0.1136962	0	-94.946	-7.858	-8.647	B5-03822-P04-CH0	1483752	OK	0.7717209	-0.3978817	0.4961219	0	-125.577	-39.458	12.154	B5-03822-P04-CH1	1483752	OK	0.8066682	-0.586003	0.0767258	0	-108.124	-43.939	-0.25	NA
0.749392614188533	B5-03822-P01-CH0	1483760	OK	0.2005887	0.1099502	0.1323407	-0.9644486	152.439	-24.884	-255.432	B5-03822-P02-CH0	1483760	OK	0.7006071	0.266094	-0.6620753	0	-76.804	-99.425	-3.736	B5-03822-P02-CH1	1483760	OK	0.7427265	-0.0860418	-0.6640438	0	-79.93	-76.461	-2.752	B5-03822-P03-CH0	1483760	OK	0.7442807	-0.0958316	-0.6609558	0	-95.125	-55.979	-1.906	B5-03822-P03-CH1	1483760	OK	0.7662882	-0.6323059	0.1139809	0	-94.903	-7.864	-8.646	B5-03822-P04-CH0	1483760	OK	0.7721298	-0.3979794	0.4954069	0	-125.558	-39.251	12.02	B5-03822-P04-CH1	1483760	OK	0.8067408	-0.5859174	0.0766161	0	-108.001	-43.778	-0.473	NA
0.759384515711046	B5-03822-P01-CH0	1483768	OK	0.2004389	0.1101928	0.1317942	-0.9645269	152.572	-24.922	-255.549	B5-03822-P02-CH0	1483768	OK	0.6969078	0.2740721	-0.6627247	0	-77.886	-101.365	-2.166	B5-03822-P02-CH1	1483768	OK	0.7400579	-0.0854555	-0.6670919	0	-80.478	-76.718	-1.834	B5-03822-P03-CH0	1483768	OK	0.7437883	-0.0952761	-0.66159	0	-94.489	-55.25	-1.628	B5-03822-P03-CH1	1483768	OK	0.7659139	-0.6326564	0.1145501	0	-95.144	-8.198	-8.296	B5-03822-P04-CH0	1483768	OK	0.7720468	-0.3988031	0.4948736	0	-125.523	-39.321	12.255	B5-03822-P04-CH1	1483768	OK	0.8063129	-0.5865196	0.0765133	0	-107.964	-43.846	-0.334	NA
0.76937641723356	B5-03822-P01-CH0	1483776	OK	0.2007308	0.1099626	0.1320684	-0.9644549	152.546	-24.94	-255.564	B5-03822-P02-CH0	1483776	OK	0.6918344	0.283206	-0.6641984	0	-78.483	-99.705	-0.669	B5-03822-P02-CH1	1483776	OK	0.738901	-0.0852638	-0.6683977	0	-80.048	-76.473	-2.151	B5-03822-P03-CH0	1483776	OK	0.7423631	-0.0948016	-0.6632569	0	-94.521	-55.414	-1.017	B5-03822-P03-CH1	1483776	OK	0.7657883	-0.6326045	0.1156707	0	-95.134	-8.665	-8.016	B5-03822-P04-CH0	1483776	OK	0.7723045	-0.398916	0.4943803	0	-125.483	-39.287	12.177	B5-03822-P04-CH1	1483776	OK	0.8065478	-0.586167	0.0767393	0	-107.882	-43.866	-0.242	NA
0.779368318756074	B5-03822-P01-CH0	1483784	OK	0.2008893	0.1100321	0.1319425	-0.9644313	152.59	-24.938	-255.532	B5-03822-P02-CH0	1483784	OK	0.6918707	0.2919568	-0.6603606	0	-77.15	-99.755	-3.547	B5-03822-P02-CH1	1483784	OK	0.7367936	-0.0850509	-0.670747	0	-80.014	-76.529	-3.062	B5-03822-P03-CH0	1483784	OK	0.7400829	-0.0954171	-0.6657123	0	-94.808	-56.559	-0.481	B5-03822-P03-CH1	1483784	OK	0.7656343	-0.6326586	0.1163924	0	-95.289	-8.929	-7.817	B5-03822-P04-CH0	1483784	OK	0.7723638	-0.3988847	0.4943128	0	-125.541	-39.465	12.383	B5-03822-P04-CH1	1483784	OK	0.8065111	-0.5862059	0.076827	0	-107.973	-43.866	-0.116	NA
0.789360220278588	B5-03822-P01-CH0	1483792	OK	0.2006482	0.1101031	0.1315521	-0.9645267	152.654	-25.024	-255.548	B5-03822-P02-CH0	1483792	OK	0.6886944	0.2992473	-0.6604174	0	-77.933	-100.737	-1.407	B5-03822-P02-CH1	1483792	OK	0.7360595	-0.0834049	-0.6717589	0	-79.178	-76.604	-2.769	B5-03822-P03-CH0	1483792	OK	0.739737	-0.0916659	-0.6666232	0	-94.279	-56.203	-1.33	B5-03822-P03-CH1	1483792	OK	0.7654662	-0.6329047	0.1161601	0	-95.321	-8.914	-7.917	B5-03822-P04-CH0	1483792	OK	0.772234	-0.4000448	0.4935776	0	-125.409	-39.387	12.564	B5-03822-P04-CH1	1483792	OK	0.8061779	-0.5867008	0.0765465	0	-108.008	-43.967	-0.024	NA
0.799352121801101	B5-03822-P01-CH0	1483800	OK	0.2010027	0.1102048	0.1317843	-0.9644095	152.734	-24.983	-255.493	B5-03822-P02-CH0	1483800	OK	0.6854393	0.302448	-0.6623429	0	-78.182	-101.019	-0.568	B5-03822-P02-CH1	1483800	OK	0.7345503	-0.0822822	-0.6735469	0	-79.471	-76.462	-3.308	B5-03822-P03-CH0	1483800	OK	0.7385316	-0.0897913	-0.668213	0	-94.455	-56.994	-0.96	B5-03822-P03-CH1	1483800	OK	0.765968	-0.632271	0.1163033	0	-95.398	-8.692	-8.049	B5-03822-P04-CH0	1483800	OK	0.772501	-0.3995163	0.4935878	0	-125.495	-39.701	12.982	B5-03822-P04-CH1	1483800	OK	0.8062354	-0.5865821	0.0768501	0	-108.087	-44.107	-0.062	NA
0.809344023323615	B5-03822-P01-CH0	1483808	OK	0.2012058	0.1101079	0.1320886	-0.9643366	152.788	-24.977	-255.573	B5-03822-P02-CH0	1483808	OK	0.6836641	0.3069998	-0.6620835	0	-78.172	-102.119	-1.894	B5-03822-P02-CH1	1483808	OK	0.7333295	-0.0818494	-0.6749285	0	-79.849	-76.839	-2.964	B5-03822-P03-CH0	1483808	OK	0.7378715	-0.086242	-0.6694087	0	-94.368	-56.134	-2.133	B5-03822-P03-CH1	1483808	OK	0.7665732	-0.6315347	0.116316	0	-95.475	-8.572	-7.825	B5-03822-P04-CH0	1483808	OK	0.7726959	-0.3995974	0.493217	0	-125.44	-39.775	13.251	B5-03822-P04-CH1	1483808	OK	0.8064238	-0.586314	0.076919	0	-108.085	-44.227	0.157	NA
0.819335924846129	B5-03822-P01-CH0	1483816	OK	0.2015165	0.1099771	0.132574	-0.96422	152.769	-24.843	-255.625	B5-03822-P02-CH0	1483816	OK	0.6804415	0.313781	-0.6622242	0	-77.469	-100.45	-1.762	B5-03822-P02-CH1	1483816	OK	0.7322377	-0.0822159	-0.6760684	0	-80.261	-77.392	-3.65	B5-03822-P03-CH0	1483816	OK	0.736511	-0.0828828	-0.6713285	0	-94.284	-56.698	-1.319	B5-03822-P03-CH1	1483816	OK	0.7671291	-0.6308645	0.116288	0	-95.471	-8.344	-7.897	B5-03822-P04-CH0	1483816	OK	0.772904	-0.399792	0.492733	0	-125.367	-39.595	13.172	B5-03822-P04-CH1	1483816	OK	0.8069797	-0.58556	0.0768323	0	-108.026	-43.881	0.012	NA
0.829327826368643	B5-03822-P01-CH0	1483824	OK	0.2015182	0.1099468	0.1325069	-0.9642324	152.784	-24.832	-255.678	B5-03822-P02-CH0	1483824	OK	0.6781156	0.3168072	-0.6631685	0	-77.858	-101.014	-1.644	B5-03822-P02-CH1	1483824	OK	0.7335827	-0.0805285	-0.6748123	0	-79.312	-77.355	-2.596	B5-03822-P03-CH0	1483824	OK	0.736243	-0.0780814	-0.6721976	0	-93.527	-56.941	-0.314	B5-03822-P03-CH1	1483824	OK	0.766971	-0.6309823	0.1166913	0	-95.592	-8.603	-7.714	B5-03822-P04-CH0	1483824	OK	0.7726503	-0.4008011	0.4923109	0	-125.233	-39.597	13.094	B5-03822-P04-CH1	1483824	OK	0.806879	-0.585703	0.0768003	0	-107.965	-43.949	0.085	NA
0.839319727891156	B5-03822-P01-CH0	1483832	OK	0.201051	0.1099012	0.1316311	-0.964455	152.732	-24.961	-255.645	B5-03822-P02-CH0	1483832	OK	0.678248	0.3220443	-0.6605052	0	-77.34	-101.879	-3.017	B5-03822-P02-CH1	1483832	OK	0.7333937	-0.0787829	-0.6752236	0	-79.379	-77.142	-2.985	B5-03822-P03-CH0	1483832	OK	0.7332139	-0.0732514	-0.6760411	0	-94.622	-56.585	-1.213	B5-03822-P03-CH1	1483832	OK	0.7660321	-0.6320001	0.1173482	0	-95.914	-9.268	-7.271	B5-03822-P04-CH0	1483832	OK	0.7721118	-0.4023497	0.4918924	0	-125.083	-39.538	13.025	B5-03822-P04-CH1	1483832	OK	0.8064187	-0.5863908	0.0763854	0	-107.857	-43.83	-0.095	NA
