Wav.Time	B5.03822.P01.CH0	Frame	State	Q0	Qx	Qy	Qz	Tx	Ty	Tz	B5.03822.P02.CH0	Frame.1	State.1	Q0.1	Qx.1	Qy.1	Qz.1	Tx.1	Ty.1	Tz.1	B5.03822.P02.CH1	Frame.2	State.2	Q0.2	Qx.2	Qy.2	Qz.2	Tx.2	Ty.2	Tz.2	B5.03822.P03.CH0	Frame.3	State.3	Q0.3	Qx.3	Qy.3	Qz.3	Tx.3	Ty.3	Tz.3	B5.03822.P03.CH1	Frame.4	State.4	Q0.4	Qx.4	Qy.4	Qz.4	Tx.4	Ty.4	Tz.4	B5.03822.P04.CH0	Frame.5	State.5	Q0.5	Qx.5	Qy.5	Qz.5	Tx.5	Ty.5	Tz.5	B5.03822.P04.CH1	Frame.6	State.6	Q0.6	Qx.6	Qy.6	Qz.6	Tx.6	Ty.6	Tz.6	X
0	B5-03822-P01-CH0	574192	OK	0.2007212	0.0713636	0.0864195	-0.9732163	96.269	61.029	-231.322	B5-03822-P02-CH0	574192	OK	0.8373273	-0.0118525	-0.5465734	0	-90.94	-91.369	9.099	B5-03822-P02-CH1	574192	OK	0.8702423	-0.0177746	-0.4923032	0	-89.865	-69.238	12.12	B5-03822-P03-CH0	574192	OK	0.8781935	-0.2252189	-0.4219628	0	-96.264	-50.619	13.976	B5-03822-P03-CH1	574192	OK	0.7202849	-0.6658294	-0.1945784	0	-101.754	-20.606	7.169	B5-03822-P04-CH0	574192	OK	0.6506691	-0.6219528	0.4356654	0	-122.13	-24.624	0.845	B5-03822-P04-CH1	574192	OK	0.7747506	-0.6317862	0.0246518	0	-112.114	-39.179	11.721	NA
0.00999185999185999	B5-03822-P01-CH0	574200	OK	0.2003618	0.0715759	0.0858894	-0.9733217	96.314	61.036	-231.314	B5-03822-P02-CH0	574200	OK	0.8364179	-0.0147966	-0.5478924	0	-90.761	-91.97	8.2	B5-03822-P02-CH1	574200	OK	0.8760902	-0.020986	-0.4816903	0	-90.474	-69.419	13.067	B5-03822-P03-CH0	574200	OK	0.8766916	-0.2129335	-0.4313596	0	-96.995	-50.437	13.981	B5-03822-P03-CH1	574200	OK	0.7195774	-0.6662905	-0.1956151	0	-101.857	-20.551	7.202	B5-03822-P04-CH0	574200	OK	0.6502298	-0.6165483	0.443925	0	-122.162	-24.946	1.547	B5-03822-P04-CH1	574200	OK	0.7744358	-0.6322048	0.0237974	0	-112.19	-39.08	11.768	NA
0.01998371998372	B5-03822-P01-CH0	574208	OK	0.2002164	0.0716321	0.0858041	-0.973355	96.325	61.03	-231.291	B5-03822-P02-CH0	574208	OK	0.835791	-0.0184337	-0.5487381	0	-90.235	-92.679	7.978	B5-03822-P02-CH1	574208	OK	0.8825952	-0.0220218	-0.4696177	0	-90.429	-69.336	12.475	B5-03822-P03-CH0	574208	OK	0.8761464	-0.2007285	-0.4382642	0	-97.05	-50.146	14.03	B5-03822-P03-CH1	574208	OK	0.7190802	-0.6665612	-0.1965193	0	-101.861	-20.57	7.162	B5-03822-P04-CH0	574208	OK	0.6495984	-0.6114516	0.4518283	0	-121.974	-25.06	1.343	B5-03822-P04-CH1	574208	OK	0.7744302	-0.6322391	0.0230551	0	-112.227	-39.014	11.791	NA
0.02997557997558	B5-03822-P01-CH0	574216	OK	0.2002065	0.0716931	0.086124	-0.9733243	96.355	61.084	-231.308	B5-03822-P02-CH0	574216	OK	0.8340253	-0.0213626	-0.5513125	0	-90.222	-92.29	7.61	B5-03822-P02-CH1	574216	OK	0.8865943	-0.0233787	-0.4619567	0	-90.78	-69.154	12.342	B5-03822-P03-CH0	574216	OK	0.8755503	-0.1914018	-0.4435956	0	-96.866	-49.805	14.236	B5-03822-P03-CH1	574216	OK	0.7188509	-0.6665521	-0.1973871	0	-101.886	-20.538	7.257	B5-03822-P04-CH0	574216	OK	0.6485856	-0.6080154	0.4578798	0	-121.705	-24.817	-1.17	B5-03822-P04-CH1	574216	OK	0.7746307	-0.6320109	0.0225719	0	-112.28	-38.971	11.889	NA
0.03996743996744	B5-03822-P01-CH0	574224	OK	0.2000979	0.0716513	0.0859447	-0.9733655	96.334	61.112	-231.286	B5-03822-P02-CH0	574224	OK	0.8325804	-0.0256992	-0.5533078	0	-90.043	-92.166	7.804	B5-03822-P02-CH1	574224	OK	0.8885339	-0.0282113	-0.4579429	0	-91.412	-69.501	13.534	B5-03822-P03-CH0	574224	OK	0.8735194	-0.1842426	-0.4505759	0	-97.074	-49.994	14.319	B5-03822-P03-CH1	574224	OK	0.716318	-0.6665672	-0.2063411	0	-102.056	-19.835	7.362	B5-03822-P04-CH0	574224	OK	0.6495242	-0.6009912	0.4657551	0	-121.751	-24.304	1.13	B5-03822-P04-CH1	574224	OK	0.7745367	-0.632148	0.0219511	0	-112.303	-38.884	11.849	NA
0.0499592999593	B5-03822-P01-CH0	574232	OK	0.2001344	0.0714184	0.0861354	-0.9733583	96.27	61.122	-231.296	B5-03822-P02-CH0	574232	OK	0.8310292	-0.0297248	-0.5554339	0	-89.845	-92.432	7.947	B5-03822-P02-CH1	574232	OK	0.8914127	-0.0312963	-0.4521106	0	-91.754	-69.746	13.211	B5-03822-P03-CH0	574232	OK	0.8725819	-0.176932	-0.4552977	0	-96.935	-49.738	14.134	B5-03822-P03-CH1	574232	OK	0.7153718	-0.6670627	-0.2080158	0	-101.653	-20.119	7.155	B5-03822-P04-CH0	574232	OK	0.6503883	-0.5966022	0.4701711	0	-122.102	-23.83	0.127	B5-03822-P04-CH1	574232	OK	0.774741	-0.6319061	0.0217057	0	-112.198	-38.822	11.758	NA
0.05995115995116	B5-03822-P01-CH0	574240	OK	0.2005376	0.0712648	0.0871098	-0.9731998	96.252	61.229	-231.268	B5-03822-P02-CH0	574240	OK	0.8285482	-0.0346339	-0.5588456	0	-90.247	-93.101	7.832	B5-03822-P02-CH1	574240	OK	0.8948692	-0.03296	-0.4451098	0	-91.668	-69.606	12.922	B5-03822-P03-CH0	574240	OK	0.8716144	-0.170974	-0.4594085	0	-96.713	-49.851	14.123	B5-03822-P03-CH1	574240	OK	0.7150901	-0.6671557	-0.208685	0	-101.322	-20.298	6.701	B5-03822-P04-CH0	574240	OK	0.6499174	-0.5924233	0.4760692	0	-121.66	-24.117	-0.701	B5-03822-P04-CH1	574240	OK	0.7753051	-0.6312162	0.0216352	0	-112.2	-38.844	11.593	NA
0.0699430199430199	B5-03822-P01-CH0	574248	OK	0.2006212	0.0711426	0.0871205	-0.9731906	96.226	61.233	-231.265	B5-03822-P02-CH0	574248	OK	0.8284859	-0.0365898	-0.5588133	0	-89.703	-93.043	6.801	B5-03822-P02-CH1	574248	OK	0.8976202	-0.0360519	-0.4392929	0	-91.465	-70.142	12.099	B5-03822-P03-CH0	574248	OK	0.869702	-0.166919	-0.464496	0	-96.904	-50.182	13.836	B5-03822-P03-CH1	574248	OK	0.7147735	-0.666971	-0.2103535	0	-101.199	-20.058	6.745	B5-03822-P04-CH0	574248	OK	0.6499783	-0.5859591	0.4839217	0	-121.674	-24.506	0.007	B5-03822-P04-CH1	574248	OK	0.7752522	-0.631287	0.0214662	0	-112.139	-38.863	11.526	NA
0.0799348799348799	B5-03822-P01-CH0	574256	OK	0.2007075	0.071018	0.0872465	-0.9731706	96.199	61.247	-231.24	B5-03822-P02-CH0	574256	OK	0.8268747	-0.0400643	-0.5609573	0	-89.803	-91.982	7.583	B5-03822-P02-CH1	574256	OK	0.8992176	-0.039829	-0.4356848	0	-91.584	-69.851	13.145	B5-03822-P03-CH0	574256	OK	0.8684945	-0.1639799	-0.4677905	0	-96.781	-50.214	13.695	B5-03822-P03-CH1	574256	OK	0.7142041	-0.6671362	-0.2117586	0	-101.355	-19.853	6.351	B5-03822-P04-CH0	574256	OK	0.6508077	-0.5793874	0.4906726	0	-121.966	-24.649	0.527	B5-03822-P04-CH1	574256	OK	0.775389	-0.6311277	0.0212076	0	-112.129	-38.81	11.408	NA
0.0899267399267399	B5-03822-P01-CH0	574264	OK	0.2011753	0.0708743	0.0877147	-0.9730424	96.187	61.299	-231.22	B5-03822-P02-CH0	574264	OK	0.8264132	-0.0490162	-0.5609266	0	-89.007	-93.429	6.504	B5-03822-P02-CH1	574264	OK	0.9004423	-0.0424052	-0.4329036	0	-91.754	-69.641	12.726	B5-03822-P03-CH0	574264	OK	0.8674761	-0.1605688	-0.4708534	0	-96.538	-49.777	13.579	B5-03822-P03-CH1	574264	OK	0.7140395	-0.6673272	-0.2117121	0	-101.193	-20.034	6.694	B5-03822-P04-CH0	574264	OK	0.6509634	-0.5748326	0.4957964	0	-121.792	-24.694	0.184	B5-03822-P04-CH1	574264	OK	0.7757397	-0.6306878	0.0214672	0	-112.058	-38.835	11.313	NA
0.0999185999185999	B5-03822-P01-CH0	574272	OK	0.201002	0.071067	0.0870009	-0.9731282	96.249	61.286	-231.269	B5-03822-P02-CH0	574272	OK	0.8260973	-0.053551	-0.5609773	0	-88.563	-92.722	7.139	B5-03822-P02-CH1	574272	OK	0.9008429	-0.0482723	-0.4314531	0	-91.635	-70.244	12.331	B5-03822-P03-CH0	574272	OK	0.8655841	-0.1632	-0.4734237	0	-96.501	-49.962	14.042	B5-03822-P03-CH1	574272	OK	0.71316	-0.6676341	-0.2136998	0	-101.218	-19.816	6.418	B5-03822-P04-CH0	574272	OK	0.6505386	-0.5713755	0.5003294	0	-121.498	-24.552	0.102	B5-03822-P04-CH1	574272	OK	0.7753863	-0.6311384	0.0209885	0	-112.079	-38.743	11.4	NA
0.10991045991046	B5-03822-P01-CH0	574280	OK	0.2012084	0.0709182	0.0872656	-0.9730727	96.251	61.332	-231.329	B5-03822-P02-CH0	574280	OK	0.8252024	-0.0582531	-0.5618253	0	-88.007	-93.152	6.862	B5-03822-P02-CH1	574280	OK	0.9006655	-0.0494173	-0.4316938	0	-91.565	-69.391	13.155	B5-03822-P03-CH0	574280	OK	0.8641464	-0.1654126	-0.4752786	0	-96.58	-49.769	13.658	B5-03822-P03-CH1	574280	OK	0.7131641	-0.6673119	-0.21469	0	-100.937	-19.799	7.05	B5-03822-P04-CH0	574280	OK	0.6510346	-0.5670041	0.5046389	0	-121.729	-24.628	-0.293	B5-03822-P04-CH1	574280	OK	0.775454	-0.6310459	0.0212663	0	-112.042	-38.808	11.295	NA
0.11990231990232	B5-03822-P01-CH0	574288	OK	0.2011125	0.0708092	0.0866369	-0.9731567	96.234	61.268	-231.376	B5-03822-P02-CH0	574288	OK	0.8232595	-0.0596448	-0.564523	0	-87.965	-92.643	6.839	B5-03822-P02-CH1	574288	OK	0.9011747	-0.0511549	-0.430427	0	-91.065	-69.194	12.595	B5-03822-P03-CH0	574288	OK	0.8636626	-0.1687404	-0.474988	0	-96.147	-49.676	13.851	B5-03822-P03-CH1	574288	OK	0.712195	-0.6681594	-0.21527	0	-100.732	-19.937	6.681	B5-03822-P04-CH0	574288	OK	0.6533761	-0.5608521	0.5084728	0	-122.144	-24.372	3.285	B5-03822-P04-CH1	574288	OK	0.7750747	-0.6315117	0.0212656	0	-111.953	-38.835	11.309	NA
0.12989417989418	B5-03822-P01-CH0	574296	OK	0.2011979	0.0706683	0.0868457	-0.9731306	96.193	61.322	-231.336	B5-03822-P02-CH0	574296	OK	0.8214823	-0.0644124	-0.5665844	0	-87.521	-93.396	6.912	B5-03822-P02-CH1	574296	OK	0.8996661	-0.0554257	-0.433046	0	-91.034	-69.362	12.748	B5-03822-P03-CH0	574296	OK	0.8624518	-0.1714169	-0.4762281	0	-96.242	-49.492	14.071	B5-03822-P03-CH1	574296	OK	0.7117827	-0.6685783	-0.2153334	0	-100.999	-19.724	5.275	B5-03822-P04-CH0	574296	OK	0.6532694	-0.5587923	0.5108721	0	-122.41	-24.875	2.4	B5-03822-P04-CH1	574296	OK	0.7753608	-0.6311641	0.0211533	0	-111.981	-38.732	11.29	NA
0.13988603988604	B5-03822-P01-CH0	574304	OK	0.2013698	0.0706025	0.0871975	-0.9730684	96.179	61.411	-231.357	B5-03822-P02-CH0	574304	OK	0.8192459	-0.0689198	-0.5692857	0	-87.158	-93.934	6.792	B5-03822-P02-CH1	574304	OK	0.8966908	-0.0588088	-0.4387335	0	-91.156	-69.266	12.867	B5-03822-P03-CH0	574304	OK	0.8616284	-0.1767731	-0.4757603	0	-96.188	-49.791	13.563	B5-03822-P03-CH1	574304	OK	0.7115875	-0.66874	-0.2154764	0	-101.194	-19.599	5.975	B5-03822-P04-CH0	574304	OK	0.6541945	-0.5559496	0.5127861	0	-122.746	-24.74	2.118	B5-03822-P04-CH1	574304	OK	0.775662	-0.6307885	0.0213159	0	-111.995	-38.669	11.252	NA
0.1498778998779	B5-03822-P01-CH0	574312	OK	0.201501	0.0706443	0.0872299	-0.9730353	96.199	61.428	-231.319	B5-03822-P02-CH0	574312	OK	0.8183982	-0.0698444	-0.5703912	0	-86.378	-93.838	5.877	B5-03822-P02-CH1	574312	OK	0.8938383	-0.0618141	-0.4441082	0	-90.433	-69.41	12.745	B5-03822-P03-CH0	574312	OK	0.8611457	-0.1841542	-0.4738306	0	-95.923	-49.687	13.489	B5-03822-P03-CH1	574312	OK	0.7108166	-0.6692586	-0.2164085	0	-101.301	-19.642	5.753	B5-03822-P04-CH0	574312	OK	0.6528891	-0.5545817	0.5159214	0	-122.438	-25.223	1.96	B5-03822-P04-CH1	574312	OK	0.7756385	-0.6308075	0.021604	0	-111.993	-38.764	11.262	NA
0.15986975986976	B5-03822-P01-CH0	574320	OK	0.2014776	0.0705504	0.0871762	-0.9730518	96.158	61.452	-231.307	B5-03822-P02-CH0	574320	OK	0.8170589	-0.0705013	-0.5722275	0	-86.185	-93.91	5.794	B5-03822-P02-CH1	574320	OK	0.8890726	-0.0628026	-0.4534376	0	-90.199	-69.383	11.889	B5-03822-P03-CH0	574320	OK	0.8609703	-0.1922798	-0.4709125	0	-95.569	-49.56	13.694	B5-03822-P03-CH1	574320	OK	0.7105366	-0.6693909	-0.2169184	0	-101.242	-19.5	5.723	B5-03822-P04-CH0	574320	OK	0.6531742	-0.5520665	0.5182529	0	-122.62	-24.806	2.026	B5-03822-P04-CH1	574320	OK	0.7756762	-0.6307521	0.0218691	0	-111.895	-38.724	11.283	NA
0.16986161986162	B5-03822-P01-CH0	574328	OK	0.2013251	0.0705506	0.0870914	-0.9730909	96.168	61.489	-231.325	B5-03822-P02-CH0	574328	OK	0.8167222	-0.069444	-0.5728372	0	-85.819	-93.577	5.932	B5-03822-P02-CH1	574328	OK	0.8847403	-0.0636521	-0.4617175	0	-89.28	-69.193	11.575	B5-03822-P03-CH0	574328	OK	0.8597517	-0.2005492	-0.4696882	0	-95.935	-49.339	13.609	B5-03822-P03-CH1	574328	OK	0.7100805	-0.6694773	-0.2181419	0	-101.277	-19.268	5.907	B5-03822-P04-CH0	574328	OK	0.6533322	-0.5485959	0.5217275	0	-122.682	-24.626	2.699	B5-03822-P04-CH1	574328	OK	0.7756858	-0.6307461	0.021702	0	-111.962	-38.667	11.359	NA
0.17985347985348	B5-03822-P01-CH0	574336	OK	0.2012297	0.0705187	0.086684	-0.9731493	96.166	61.418	-231.322	B5-03822-P02-CH0	574336	OK	0.815045	-0.0663678	-0.575584	0	-86.169	-92.882	6.05	B5-03822-P02-CH1	574336	OK	0.8770405	-0.0647374	-0.4760347	0	-89.38	-69.174	11.587	B5-03822-P03-CH0	574336	OK	0.8603583	-0.209025	-0.4648572	0	-95.598	-48.97	13.369	B5-03822-P03-CH1	574336	OK	0.7091967	-0.6702443	-0.218661	0	-101.403	-19.108	5.448	B5-03822-P04-CH0	574336	OK	0.6542229	-0.5447552	0.5246276	0	-122.677	-24.192	4.373	B5-03822-P04-CH1	574336	OK	0.7753628	-0.6311334	0.0219806	0	-111.982	-38.806	11.34	NA
0.18984533984534	B5-03822-P01-CH0	574344	OK	0.2008063	0.070545	0.0864302	-0.9732574	96.178	61.409	-231.34	B5-03822-P02-CH0	574344	OK	0.8154011	-0.0653473	-0.5751963	0	-85.639	-93.469	5.894	B5-03822-P02-CH1	574344	OK	0.8700857	-0.0662686	-0.4884253	0	-88.681	-69.395	11.128	B5-03822-P03-CH0	574344	OK	0.8599378	-0.2198044	-0.4606442	0	-95.832	-48.999	13.622	B5-03822-P03-CH1	574344	OK	0.7078321	-0.6718554	-0.2181377	0	-100.902	-19.464	6.311	B5-03822-P04-CH0	574344	OK	0.6541682	-0.5412315	0.5283298	0	-122.759	-24.804	5.821	B5-03822-P04-CH1	574344	OK	0.7752414	-0.6312955	0.0216068	0	-112.071	-38.751	11.395	NA
0.1998371998372	B5-03822-P01-CH0	574352	OK	0.2005578	0.0704946	0.0861598	-0.9733363	96.165	61.391	-231.363	B5-03822-P02-CH0	574352	OK	0.8151331	-0.062875	-0.5758513	0	-85.63	-92.827	6.415	B5-03822-P02-CH1	574352	OK	0.861389	-0.0702273	-0.5030676	0	-87.865	-69.969	10.232	B5-03822-P03-CH0	574352	OK	0.8592641	-0.2324535	-0.455665	0	-95.786	-49.608	13.246	B5-03822-P03-CH1	574352	OK	0.706967	-0.6726054	-0.2186314	0	-101.312	-19.131	5.767	B5-03822-P04-CH0	574352	OK	0.6538716	-0.5419234	0.5279876	0	-123.14	-24.823	4.237	B5-03822-P04-CH1	574352	OK	0.7750201	-0.6315616	0.021768	0	-112.079	-38.798	11.478	NA
0.20982905982906	B5-03822-P01-CH0	574360	OK	0.2003048	0.0705807	0.0856703	-0.9734254	96.145	61.371	-231.3	B5-03822-P02-CH0	574360	OK	0.8150708	-0.0624992	-0.5759804	0	-85.246	-93.174	5.925	B5-03822-P02-CH1	574360	OK	0.85214	-0.0724242	-0.5182781	0	-87.067	-69.537	10.156	B5-03822-P03-CH0	574360	OK	0.8590155	-0.244669	-0.4496993	0	-95.441	-49.459	13.39	B5-03822-P03-CH1	574360	OK	0.7056513	-0.6741022	-0.2182715	0	-101.507	-19.077	6.085	B5-03822-P04-CH0	574360	OK	0.6534402	-0.5434148	0.5269879	0	-123.185	-24.78	3.721	B5-03822-P04-CH1	574360	OK	0.7747489	-0.6318951	0.0217413	0	-112.122	-38.77	11.525	NA
0.21982091982092	B5-03822-P01-CH0	574368	OK	0.2003252	0.0706495	0.0860212	-0.9733852	96.173	61.422	-231.257	B5-03822-P02-CH0	574368	OK	0.8138351	-0.0595307	-0.5780385	0	-85.638	-92.806	6.685	B5-03822-P02-CH1	574368	OK	0.8422636	-0.0766042	-0.5335951	0	-86.503	-69.63	9.722	B5-03822-P03-CH0	574368	OK	0.8588827	-0.2554091	-0.4439444	0	-95.293	-48.999	13.497	B5-03822-P03-CH1	574368	OK	0.7051955	-0.6750686	-0.2167525	0	-101.192	-19.055	6.071	B5-03822-P04-CH0	574368	OK	0.6533808	-0.5470096	0.5233298	0	-122.944	-24.306	2.822	B5-03822-P04-CH1	574368	OK	0.7750163	-0.6315576	0.0220156	0	-112.188	-38.761	11.474	NA
0.22981277981278	B5-03822-P01-CH0	574376	OK	0.2001973	0.0706974	0.0854245	-0.9734606	96.184	61.35	-231.284	B5-03822-P02-CH0	574376	OK	0.8134981	-0.0555394	-0.5789095	0	-85.58	-91.941	6.933	B5-03822-P02-CH1	574376	OK	0.8305333	-0.0807587	-0.551083	0	-85.885	-70.198	8.415	B5-03822-P03-CH0	574376	OK	0.8588537	-0.2704049	-0.4350305	0	-94.928	-49.324	13.316	B5-03822-P03-CH1	574376	OK	0.7044952	-0.6757663	-0.2168559	0	-101.57	-18.702	5.997	B5-03822-P04-CH0	574376	OK	0.651697	-0.5509779	0.5212622	0	-122.279	-24.334	1.621	B5-03822-P04-CH1	574376	OK	0.7745452	-0.6321292	0.0221882	0	-112.225	-38.896	11.437	NA
0.23980463980464	B5-03822-P01-CH0	574384	OK	0.2001149	0.070586	0.0854657	-0.973482	96.165	61.342	-231.325	B5-03822-P02-CH0	574384	OK	0.8140619	-0.0545487	-0.5782107	0	-84.924	-92.759	6.146	B5-03822-P02-CH1	574384	OK	0.8167503	-0.0859946	-0.5705471	0	-84.99	-70.733	7.609	B5-03822-P03-CH0	574384	OK	0.8592821	-0.2830462	-0.4260506	0	-94.802	-49.539	13.513	B5-03822-P03-CH1	574384	OK	0.7032573	-0.6773506	-0.2159288	0	-101.537	-19.151	5.868	B5-03822-P04-CH0	574384	OK	0.6519304	-0.5491985	0.5228458	0	-122.604	-24.649	2.223	B5-03822-P04-CH1	574384	OK	0.7744549	-0.6322279	0.0225271	0	-112.183	-39.003	11.447	NA
0.2497964997965	B5-03822-P01-CH0	574392	OK	0.1999638	0.0707346	0.0854112	-0.9735071	96.218	61.385	-231.341	B5-03822-P02-CH0	574392	OK	0.8135409	-0.0530551	-0.5790823	0	-85.046	-92.079	6.332	B5-03822-P02-CH1	574392	OK	0.8025592	-0.0909586	-0.5895976	0	-83.781	-70.158	6.625	B5-03822-P03-CH0	574392	OK	0.8594595	-0.2939057	-0.4182689	0	-95.021	-50.233	13.277	B5-03822-P03-CH1	574392	OK	0.7024962	-0.6780695	-0.2161502	0	-101.665	-19.09	6.496	B5-03822-P04-CH0	574392	OK	0.6527808	-0.5468009	0.5242957	0	-122.939	-24.712	3.55	B5-03822-P04-CH1	574392	OK	0.7744914	-0.6321822	0.022556	0	-112.276	-38.932	11.531	NA
0.25978835978836	B5-03822-P01-CH0	574400	OK	0.199678	0.0707924	0.084781	-0.9736166	96.243	61.319	-231.382	B5-03822-P02-CH0	574400	OK	0.8135386	-0.0528463	-0.5791046	0	-85.409	-92.173	6.68	B5-03822-P02-CH1	574400	OK	0.7894799	-0.0963564	-0.6061658	0	-83.365	-70.961	6.373	B5-03822-P03-CH0	574400	OK	0.8611677	-0.2994924	-0.4107243	0	-94.997	-50.61	13.756	B5-03822-P03-CH1	574400	OK	0.701177	-0.678908	-0.2177953	0	-101.014	-19.041	6.364	B5-03822-P04-CH0	574400	OK	0.6524383	-0.5468651	0.5246549	0	-122.909	-24.698	3.606	B5-03822-P04-CH1	574400	OK	0.7740366	-0.6327417	0.0224765	0	-112.373	-39.002	11.6	NA
0.26978021978022	B5-03822-P01-CH0	574408	OK	0.1999285	0.0706822	0.0852835	-0.9735293	96.231	61.35	-231.378	B5-03822-P02-CH0	574408	OK	0.815991	-0.0518838	-0.5757314	0	-84.578	-93.108	5.599	B5-03822-P02-CH1	574408	OK	0.7812094	-0.0991844	-0.6163395	0	-82.452	-71.39	5.655	B5-03822-P03-CH0	574408	OK	0.8645928	-0.3003955	-0.4027925	0	-94.555	-50.367	13.427	B5-03822-P03-CH1	574408	OK	0.7000038	-0.6797444	-0.2189568	0	-101.359	-19.22	6.264	B5-03822-P04-CH0	574408	OK	0.6527432	-0.5459914	0.5251854	0	-122.93	-24.799	3.666	B5-03822-P04-CH1	574408	OK	0.7743907	-0.6322887	0.0230232	0	-112.422	-39.055	11.475	NA
0.27977207977208	B5-03822-P01-CH0	574416	OK	0.1997494	0.070651	0.0851739	-0.973578	96.217	61.362	-231.412	B5-03822-P02-CH0	574416	OK	0.8171023	-0.0477214	-0.5745142	0	-85.075	-92.343	6.206	B5-03822-P02-CH1	574416	OK	0.7751319	-0.1000639	-0.6238251	0	-81.962	-71.779	5.913	B5-03822-P03-CH0	574416	OK	0.865905	-0.301133	-0.3994088	0	-94.67	-50.577	13.632	B5-03822-P03-CH1	574416	OK	0.6991793	-0.6795471	-0.2221802	0	-101.599	-18.984	4.977	B5-03822-P04-CH0	574416	OK	0.6524304	-0.5464221	0.5251261	0	-122.927	-24.778	3.205	B5-03822-P04-CH1	574416	OK	0.7743839	-0.6322977	0.0230039	0	-112.435	-38.987	11.459	NA
0.28976393976394	B5-03822-P01-CH0	574424	OK	0.2000565	0.0705159	0.0858389	-0.9734663	96.164	61.462	-231.41	B5-03822-P02-CH0	574424	OK	0.8187867	-0.0432198	-0.5724687	0	-85.449	-92.446	6.126	B5-03822-P02-CH1	574424	OK	0.7699427	-0.0979876	-0.6305448	0	-81.854	-72.413	4.526	B5-03822-P03-CH0	574424	OK	0.8662431	-0.3020129	-0.3980089	0	-95.028	-51.168	13.737	B5-03822-P03-CH1	574424	OK	0.6989783	-0.6795343	-0.2228507	0	-101.506	-19.037	5.436	B5-03822-P04-CH0	574424	OK	0.6526929	-0.5459311	0.5253106	0	-122.919	-24.739	3.047	B5-03822-P04-CH1	574424	OK	0.774736	-0.6318379	0.0237693	0	-112.417	-39.052	11.357	NA
0.2997557997558	B5-03822-P01-CH0	574432	OK	0.2005028	0.0703302	0.0869361	-0.9732905	96.121	61.565	-231.377	B5-03822-P02-CH0	574432	OK	0.8194422	-0.0354333	-0.5720655	0	-86.628	-90.789	7.419	B5-03822-P02-CH1	574432	OK	0.7658084	-0.0935895	-0.6362221	0	-81.86	-71.148	5.37	B5-03822-P03-CH0	574432	OK	0.8673068	-0.3014118	-0.3961438	0	-94.954	-51.011	13.187	B5-03822-P03-CH1	574432	OK	0.6996207	-0.6788048	-0.223058	0	-101.543	-18.716	5.944	B5-03822-P04-CH0	574432	OK	0.6531112	-0.5453149	0.5254307	0	-122.896	-24.73	2.795	B5-03822-P04-CH1	574432	OK	0.7754289	-0.6309601	0.0244824	0	-112.426	-39.121	11.216	NA
0.30974765974766	B5-03822-P01-CH0	574440	OK	0.2006967	0.0702285	0.0873905	-0.9732172	96.111	61.616	-231.418	B5-03822-P02-CH0	574440	OK	0.8230449	-0.0335909	-0.5669821	0	-86.121	-91.735	6.151	B5-03822-P02-CH1	574440	OK	0.7625933	-0.0925283	-0.6402265	0	-81.403	-72.169	4.431	B5-03822-P03-CH0	574440	OK	0.8668503	-0.3035987	-0.3954724	0	-94.819	-51.022	13.397	B5-03822-P03-CH1	574440	OK	0.6999561	-0.6786113	-0.2225941	0	-101.878	-18.481	5.981	B5-03822-P04-CH0	574440	OK	0.6530213	-0.5451475	0.5257161	0	-122.846	-24.763	2.579	B5-03822-P04-CH1	574440	OK	0.7757321	-0.6305621	0.0251204	0	-112.378	-39.168	11.182	NA
0.31973951973952	B5-03822-P01-CH0	574448	OK	0.2004142	0.0704248	0.0868346	-0.973311	96.162	61.613	-231.476	B5-03822-P02-CH0	574448	OK	0.8252758	-0.0282229	-0.5640243	0	-86.388	-90.868	7.034	B5-03822-P02-CH1	574448	OK	0.7596468	-0.0893862	-0.6441637	0	-81.311	-72.309	5.332	B5-03822-P03-CH0	574448	OK	0.8656666	-0.3078718	-0.3947611	0	-94.679	-51.511	13.328	B5-03822-P03-CH1	574448	OK	0.6991252	-0.6794975	-0.222502	0	-101.974	-18.592	5.781	B5-03822-P04-CH0	574448	OK	0.6524925	-0.545457	0.5260515	0	-122.907	-24.762	2.463	B5-03822-P04-CH1	574448	OK	0.7753323	-0.6310602	0.0249554	0	-112.532	-39.179	11.326	NA
0.32973137973138	B5-03822-P01-CH0	574456	OK	0.2003761	0.070507	0.0869851	-0.9732994	96.197	61.667	-231.502	B5-03822-P02-CH0	574456	OK	0.8257872	-0.0237298	-0.5634824	0	-87.313	-90.467	7.695	B5-03822-P02-CH1	574456	OK	0.7573441	-0.0848141	-0.6474848	0	-80.556	-72.711	4.636	B5-03822-P03-CH0	574456	OK	0.864869	-0.3105308	-0.3944264	0	-94.804	-51.999	13.259	B5-03822-P03-CH1	574456	OK	0.699471	-0.67972	-0.2207285	0	-101.262	-18.735	6.22	B5-03822-P04-CH0	574456	OK	0.6523993	-0.5453629	0.5262646	0	-122.977	-24.763	2.383	B5-03822-P04-CH1	574456	OK	0.775464	-0.630886	0.0252682	0	-112.517	-39.154	11.377	NA
0.33972323972324	B5-03822-P01-CH0	574464	OK	0.2004699	0.0705579	0.0870414	-0.9732714	96.188	61.699	-231.43	B5-03822-P02-CH0	574464	OK	0.8283383	-0.0214741	-0.5598165	0	-86.981	-90.908	7.225	B5-03822-P02-CH1	574464	OK	0.7536041	-0.0822986	-0.6521563	0	-80.64	-73.349	4.145	B5-03822-P03-CH0	574464	OK	0.8660242	-0.3096349	-0.3925918	0	-94.328	-51.744	13.575	B5-03822-P03-CH1	574464	OK	0.6992329	-0.6795282	-0.2220693	0	-102.025	-18.437	5.696	B5-03822-P04-CH0	574464	OK	0.652229	-0.5451854	0.5266594	0	-122.967	-24.749	2.205	B5-03822-P04-CH1	574464	OK	0.7755658	-0.630745	0.0256593	0	-112.521	-39.126	11.312	NA
0.3497150997151	B5-03822-P01-CH0	574472	OK	0.2003292	0.0706461	0.0866083	-0.9733326	96.216	61.639	-231.421	B5-03822-P02-CH0	574472	OK	0.8293592	-0.0196498	-0.5583701	0	-87.312	-90.96	7.525	B5-03822-P02-CH1	574472	OK	0.7522694	-0.0791472	-0.6540845	0	-80.075	-73.159	4.622	B5-03822-P03-CH0	574472	OK	0.8668885	-0.3091677	-0.3910494	0	-93.821	-51.6	13.89	B5-03822-P03-CH1	574472	OK	0.6996269	-0.6792073	-0.2218098	0	-101.681	-18.687	6.207	B5-03822-P04-CH0	574472	OK	0.6516369	-0.5459558	0.5265943	0	-122.887	-24.688	1.759	B5-03822-P04-CH1	574472	OK	0.7753223	-0.6310411	0.025736	0	-112.554	-39.173	11.352	NA
0.35970695970696	B5-03822-P01-CH0	574480	OK	0.2002361	0.0706406	0.086682	-0.9733456	96.22	61.662	-231.392	B5-03822-P02-CH0	574480	OK	0.8317865	-0.018235	-0.5547961	0	-86.992	-91.533	7.041	B5-03822-P02-CH1	574480	OK	0.7498398	-0.0758667	-0.6572552	0	-80.293	-73.276	4.065	B5-03822-P03-CH0	574480	OK	0.8659421	-0.306554	-0.3951822	0	-94.64	-51.483	13.292	B5-03822-P03-CH1	574480	OK	0.6994532	-0.6791508	-0.2225294	0	-101.609	-18.638	6.09	B5-03822-P04-CH0	574480	OK	0.6513264	-0.5464353	0.5264812	0	-122.805	-24.604	1.392	B5-03822-P04-CH1	574480	OK	0.7754445	-0.6308857	0.0258648	0	-112.557	-39.12	11.311	NA
0.36969881969882	B5-03822-P01-CH0	574488	OK	0.2000471	0.0706374	0.0863621	-0.9734131	96.211	61.645	-231.464	B5-03822-P02-CH0	574488	OK	0.8325957	-0.0164055	-0.5536382	0	-87.395	-91.971	7.448	B5-03822-P02-CH1	574488	OK	0.7492343	-0.0728778	-0.6582832	0	-79.826	-73.133	4.535	B5-03822-P03-CH0	574488	OK	0.8661127	-0.3073118	-0.3942186	0	-94.509	-51.592	13.477	B5-03822-P03-CH1	574488	OK	0.6990808	-0.6791979	-0.2235535	0	-101.623	-18.575	6.128	B5-03822-P04-CH0	574488	OK	0.6510855	-0.5467853	0.5264157	0	-122.786	-24.541	1.409	B5-03822-P04-CH1	574488	OK	0.7753078	-0.6310554	0.0258225	0	-112.456	-39.087	11.505	NA
0.37969067969068	B5-03822-P01-CH0	574496	OK	0.2000026	0.0706642	0.0862073	-0.9734341	96.212	61.645	-231.455	B5-03822-P02-CH0	574496	OK	0.832517	-0.0124144	-0.5538604	0	-88.07	-91.116	8.185	B5-03822-P02-CH1	574496	OK	0.7479983	-0.0705161	-0.659944	0	-79.728	-73.448	4.112	B5-03822-P03-CH0	574496	OK	0.8662253	-0.3079031	-0.393509	0	-94.366	-51.696	13.59	B5-03822-P03-CH1	574496	OK	0.6988993	-0.6792186	-0.2240576	0	-101.613	-18.553	6.125	B5-03822-P04-CH0	574496	OK	0.6513835	-0.5465458	0.5262958	0	-122.861	-24.463	1.944	B5-03822-P04-CH1	574496	OK	0.7752207	-0.6311648	0.0257657	0	-112.473	-39.103	11.586	NA
0.38968253968254	B5-03822-P01-CH0	574504	OK	0.1999683	0.0706185	0.0859374	-0.9734683	96.206	61.587	-231.477	B5-03822-P02-CH0	574504	OK	0.8336673	-0.0128053	-0.5521184	0	-88.025	-92.118	7.485	B5-03822-P02-CH1	574504	OK	0.7471215	-0.0674958	-0.6612517	0	-79.461	-74.195	3.575	B5-03822-P03-CH0	574504	OK	0.8662642	-0.3085049	-0.3929517	0	-94.209	-51.871	13.541	B5-03822-P03-CH1	574504	OK	0.6988703	-0.6791161	-0.2244584	0	-101.564	-18.557	5.972	B5-03822-P04-CH0	574504	OK	0.6511478	-0.5473465	0.5257549	0	-122.769	-24.46	1.854	B5-03822-P04-CH1	574504	OK	0.7751366	-0.6312753	0.0255883	0	-112.514	-39.093	11.564	NA
0.3996743996744	B5-03822-P01-CH0	574512	OK	0.1998409	0.0708176	0.0855328	-0.9735156	96.274	61.619	-231.53	B5-03822-P02-CH0	574512	OK	0.8349282	-0.0090232	-0.5502848	0	-88.113	-91.584	7.993	B5-03822-P02-CH1	574512	OK	0.7453475	-0.0644285	-0.6635557	0	-79.866	-74.413	3.919	B5-03822-P03-CH0	574512	OK	0.8677611	-0.3075128	-0.3904184	0	-93.719	-52.803	13.548	B5-03822-P03-CH1	574512	OK	0.6986655	-0.6791019	-0.2251381	0	-101.64	-18.571	6.02	B5-03822-P04-CH0	574512	OK	0.6514258	-0.547435	0.5253184	0	-122.882	-24.428	2.597	B5-03822-P04-CH1	574512	OK	0.7749087	-0.6315641	0.0253612	0	-112.611	-39.039	11.689	NA
0.40966625966626	B5-03822-P01-CH0	574520	OK	0.1998236	0.0708898	0.0855181	-0.9735152	96.298	61.591	-231.506	B5-03822-P02-CH0	574520	OK	0.8345583	-0.0046657	-0.5508999	0	-88.943	-90.859	8.944	B5-03822-P02-CH1	574520	OK	0.7441976	-0.0604804	-0.6652158	0	-80.16	-73.762	4.512	B5-03822-P03-CH0	574520	OK	0.8684889	-0.3054616	-0.3904105	0	-94.141	-52.974	13.898	B5-03822-P03-CH1	574520	OK	0.6988305	-0.6787939	-0.2255542	0	-101.563	-18.672	5.937	B5-03822-P04-CH0	574520	OK	0.6516272	-0.5480935	0.5243811	0	-122.852	-24.454	2.875	B5-03822-P04-CH1	574520	OK	0.7748935	-0.6315883	0.0252243	0	-112.689	-39.07	11.672	NA
0.41965811965812	B5-03822-P01-CH0	574528	OK	0.200057	0.0706166	0.0858269	-0.9734599	96.208	61.57	-231.497	B5-03822-P02-CH0	574528	OK	0.8352341	-0.0017649	-0.5498917	0	-89.033	-90.856	8.526	B5-03822-P02-CH1	574528	OK	0.7448802	-0.0583467	-0.6646421	0	-79.483	-74.687	3.847	B5-03822-P03-CH0	574528	OK	0.868978	-0.3055011	-0.3892896	0	-94.256	-53.743	13.343	B5-03822-P03-CH1	574528	OK	0.7006598	-0.6759777	-0.2283199	0	-101.953	-19.133	5.929	B5-03822-P04-CH0	574528	OK	0.6517851	-0.5490501	0.5231827	0	-122.698	-24.454	2.771	B5-03822-P04-CH1	574528	OK	0.7750932	-0.6313263	0.0256468	0	-112.543	-39.132	11.558	NA
0.42964997964998	B5-03822-P01-CH0	574536	OK	0.1999965	0.0706002	0.0857473	-0.9734806	96.215	61.504	-231.483	B5-03822-P02-CH0	574536	OK	0.8354879	0.0026265	-0.5495026	0	-89.403	-90.368	8.512	B5-03822-P02-CH1	574536	OK	0.744015	-0.0561157	-0.6658023	0	-79.695	-75.243	3.827	B5-03822-P03-CH0	574536	OK	0.869729	-0.3048405	-0.3881284	0	-94.368	-53.987	13.03	B5-03822-P03-CH1	574536	OK	0.7012846	-0.6752609	-0.2285227	0	-102.079	-18.899	5.987	B5-03822-P04-CH0	574536	OK	0.6507198	-0.5617932	0.5108347	0	-122.503	-24.397	0.101	B5-03822-P04-CH1	574536	OK	0.7750855	-0.6313405	0.0255255	0	-112.581	-39.152	11.557	NA
0.43964183964184	B5-03822-P01-CH0	574544	OK	0.2000362	0.070692	0.0860036	-0.9734431	96.254	61.528	-231.491	B5-03822-P02-CH0	574544	OK	0.8373836	0.0008337	-0.546615	0	-88.671	-92.206	7.461	B5-03822-P02-CH1	574544	OK	0.7431811	-0.0547993	-0.6668424	0	-79.725	-75.096	3.62	B5-03822-P03-CH0	574544	OK	0.871068	-0.3037465	-0.3859775	0	-94.016	-53.542	13.687	B5-03822-P03-CH1	574544	OK	0.7013515	-0.6753614	-0.2280199	0	-102.101	-19.074	5.789	B5-03822-P04-CH0	574544	OK	0.6509614	-0.5643878	0.507657	0	-122.487	-24.442	1.254	B5-03822-P04-CH1	574544	OK	0.7753442	-0.6310285	0.0253838	0	-112.658	-39.119	11.663	NA
0.4496336996337	B5-03822-P01-CH0	574552	OK	0.2004284	0.0704622	0.0866167	-0.9733248	96.183	61.567	-231.499	B5-03822-P02-CH0	574552	OK	0.8379192	0.0031923	-0.545785	0	-88.746	-91.797	7.84	B5-03822-P02-CH1	574552	OK	0.7418036	-0.0542219	-0.6684215	0	-79.607	-75.609	3.202	B5-03822-P03-CH0	574552	OK	0.8719509	-0.3034732	-0.3841948	0	-93.855	-53.682	13.659	B5-03822-P03-CH1	574552	OK	0.7019078	-0.6752471	-0.2266424	0	-102.181	-19.068	5.427	B5-03822-P04-CH0	574552	OK	0.6482762	-0.5730511	0.5013485	0	-121.882	-24.583	-3.867	B5-03822-P04-CH1	574552	OK	0.7757373	-0.6305291	0.025781	0	-112.642	-39.162	11.534	NA
0.45962555962556	B5-03822-P01-CH0	574560	OK	0.200409	0.0704442	0.0864319	-0.9733465	96.147	61.544	-231.52	B5-03822-P02-CH0	574560	OK	0.8386053	0.0084206	-0.5446744	0	-88.843	-91.031	8.081	B5-03822-P02-CH1	574560	OK	0.7394941	-0.0528864	-0.6710823	0	-80.007	-74.828	3.977	B5-03822-P03-CH0	574560	OK	0.8711918	-0.3037514	-0.3856941	0	-94.472	-54.566	13.397	B5-03822-P03-CH1	574560	OK	0.7026997	-0.6752329	-0.224218	0	-101.672	-18.97	6.074	B5-03822-P04-CH0	574560	OK	0.6506531	-0.572247	0.4991832	0	-122.212	-24.182	-0.853	B5-03822-P04-CH1	574560	OK	0.77556	-0.6307503	0.0257048	0	-112.657	-39.178	11.494	NA
0.46961741961742	B5-03822-P01-CH0	574568	OK	0.2002691	0.0705754	0.0861576	-0.9733901	96.169	61.509	-231.469	B5-03822-P02-CH0	574568	OK	0.83934	0.0100397	-0.5435141	0	-89.059	-91.396	7.933	B5-03822-P02-CH1	574568	OK	0.7395205	-0.0498308	-0.6712871	0	-79.264	-74.564	3.616	B5-03822-P03-CH0	574568	OK	0.8716277	-0.302306	-0.3858447	0	-94.695	-54.707	13.668	B5-03822-P03-CH1	574568	OK	0.7011223	-0.6761017	-0.2265259	0	-101.793	-18.968	5.487	B5-03822-P04-CH0	574568	OK	0.6516718	-0.5743594	0.4954141	0	-122.447	-24.093	0.353	B5-03822-P04-CH1	574568	OK	0.7752718	-0.6311069	0.0256455	0	-112.752	-39.21	11.364	NA
0.47960927960928	B5-03822-P01-CH0	574576	OK	0.2005789	0.0706457	0.0870096	-0.9732454	96.187	61.592	-231.393	B5-03822-P02-CH0	574576	OK	0.840264	0.0112036	-0.5420616	0	-89.162	-91.79	8.147	B5-03822-P02-CH1	574576	OK	0.7384439	-0.0498549	-0.6724694	0	-79.396	-75.124	3.421	B5-03822-P03-CH0	574576	OK	0.8735869	-0.2977085	-0.3849878	0	-94.842	-54.161	13.919	B5-03822-P03-CH1	574576	OK	0.7018732	-0.6757153	-0.2253507	0	-101.95	-19.005	5.366	B5-03822-P04-CH0	574576	OK	0.6502561	-0.5793229	0.4914794	0	-122.013	-24.717	-0.882	B5-03822-P04-CH1	574576	OK	0.7757452	-0.630512	0.0259611	0	-112.799	-39.23	11.226	NA
0.48960113960114	B5-03822-P01-CH0	574584	OK	0.2005255	0.0708123	0.0873281	-0.9732158	96.228	61.632	-231.338	B5-03822-P02-CH0	574584	OK	0.839987	0.0127336	-0.5424571	0	-89.736	-92.22	7.991	B5-03822-P02-CH1	574584	OK	0.7369053	-0.0466634	-0.6743835	0	-80.155	-74.645	4.651	B5-03822-P03-CH0	574584	OK	0.8753071	-0.2945463	-0.3835101	0	-94.424	-54.154	13.75	B5-03822-P03-CH1	574584	OK	0.7021027	-0.6757862	-0.2244211	0	-102.173	-19.018	5.343	B5-03822-P04-CH0	574584	OK	0.6505211	-0.5845824	0.4848564	0	-121.934	-24.166	-0.887	B5-03822-P04-CH1	574584	OK	0.7759175	-0.6303025	0.0259012	0	-112.854	-39.19	11.266	NA
0.499592999593	B5-03822-P01-CH0	574592	OK	0.2004187	0.0706963	0.0872044	-0.9732573	96.164	61.512	-231.239	B5-03822-P02-CH0	574592	OK	0.8402272	0.0156418	-0.5420088	0	-90.221	-92.152	7.896	B5-03822-P02-CH1	574592	OK	0.7383118	-0.0437735	-0.6730376	0	-79.403	-75.45	3.404	B5-03822-P03-CH0	574592	OK	0.8742174	-0.2930438	-0.3871295	0	-94.864	-54.826	13.278	B5-03822-P03-CH1	574592	OK	0.7020188	-0.6797827	-0.2122853	0	-102.347	-18.834	5.401	B5-03822-P04-CH0	574592	OK	0.6505035	-0.5929192	0.4746494	0	-122.076	-23.972	-1.917	B5-03822-P04-CH1	574592	OK	0.7757907	-0.6304635	0.0257783	0	-112.845	-39.253	11.067	NA
0.50958485958486	B5-03822-P01-CH0	574600	OK	0.2002437	0.0705792	0.0870527	-0.9733154	96.118	61.506	-231.281	B5-03822-P02-CH0	574600	OK	0.8423347	0.0171347	-0.5386824	0	-89.881	-92.262	7.26	B5-03822-P02-CH1	574600	OK	0.7385582	-0.0377715	-0.6731308	0	-79.951	-75.247	3.77	B5-03822-P03-CH0	574600	OK	0.8749702	-0.2880878	-0.3891433	0	-94.642	-54.232	13.468	B5-03822-P03-CH1	574600	OK	0.7008058	-0.6822957	-0.2081918	0	-102.327	-18.926	5.629	B5-03822-P04-CH0	574600	OK	0.6498181	-0.604468	0.4608198	0	-121.639	-23.468	-3.174	B5-03822-P04-CH1	574600	OK	0.7757068	-0.6305755	0.0255642	0	-112.784	-39.189	11.119	NA
0.51957671957672	B5-03822-P01-CH0	574608	OK	0.2000985	0.0706682	0.0867485	-0.973366	96.166	61.418	-231.304	B5-03822-P02-CH0	574608	OK	0.8445257	0.0192792	-0.5351679	0	-89.553	-91.809	7.365	B5-03822-P02-CH1	574608	OK	0.7394193	-0.031765	-0.6724954	0	-80.519	-74.913	4.359	B5-03822-P03-CH0	574608	OK	0.8741328	-0.2848987	-0.3933504	0	-94.693	-54.059	13.58	B5-03822-P03-CH1	574608	OK	0.6999773	-0.6847622	-0.2028114	0	-102.47	-18.994	5.502	B5-03822-P04-CH0	574608	OK	0.6494512	-0.6130808	0.4498278	0	-121.336	-23.937	-0.109	B5-03822-P04-CH1	574608	OK	0.7755066	-0.6308309	0.0253344	0	-112.828	-39.24	11.188	NA
0.52956857956858	B5-03822-P01-CH0	574616	OK	0.2002819	0.0705641	0.0870714	-0.973307	96.131	61.432	-231.297	B5-03822-P02-CH0	574616	OK	0.8433172	0.0224442	-0.5369472	0	-90.95	-90.843	8.83	B5-03822-P02-CH1	574616	OK	0.7422994	-0.0254286	-0.6695857	0	-80.517	-75.377	3.946	B5-03822-P03-CH0	574616	OK	0.8718795	-0.2808571	-0.4011801	0	-95.551	-54.389	13.044	B5-03822-P03-CH1	574616	OK	0.6999046	-0.6858039	-0.1995158	0	-102.246	-19.146	5.369	B5-03822-P04-CH0	574616	OK	0.65087	-0.6175035	0.4416534	0	-121.301	-23.551	2.353	B5-03822-P04-CH1	574616	OK	0.7757418	-0.6305385	0.0254127	0	-112.807	-39.242	11.209	NA
0.53956043956044	B5-03822-P01-CH0	574624	OK	0.2003731	0.070348	0.0871746	-0.9732946	96.055	61.37	-231.237	B5-03822-P02-CH0	574624	OK	0.8444162	0.026152	-0.535049	0	-91.216	-90.944	8.146	B5-03822-P02-CH1	574624	OK	0.7469641	-0.0193454	-0.6645828	0	-80.534	-75.834	3.811	B5-03822-P03-CH0	574624	OK	0.8721168	-0.2761872	-0.4038972	0	-95.195	-54.541	13.048	B5-03822-P03-CH1	574624	OK	0.7004297	-0.6855119	-0.198675	0	-101.972	-18.953	5.9	B5-03822-P04-CH0	574624	OK	0.6500253	-0.6244468	0.4330512	0	-120.982	-23.241	0.04	B5-03822-P04-CH1	574624	OK	0.7758247	-0.6304301	0.0255736	0	-112.749	-39.254	11.023	NA
0.5495522995523	B5-03822-P01-CH0	574632	OK	0.2004755	0.0704276	0.0873784	-0.9732495	96.095	61.352	-231.197	B5-03822-P02-CH0	574632	OK	0.8455883	0.0267541	-0.5331648	0	-91.056	-92.356	8.268	B5-03822-P02-CH1	574632	OK	0.7523725	-0.0108312	-0.6586488	0	-80.92	-75.519	3.911	B5-03822-P03-CH0	574632	OK	0.8714957	-0.2693316	-0.409824	0	-95.593	-54.252	13.169	B5-03822-P03-CH1	574632	OK	0.7004566	-0.6854297	-0.1988636	0	-102.217	-18.745	5.569	B5-03822-P04-CH0	574632	OK	0.6496851	-0.6288059	0.4272148	0	-120.388	-22.62	-0.936	B5-03822-P04-CH1	574632	OK	0.7758671	-0.6303698	0.0257722	0	-112.716	-39.336	11.023	NA
0.55954415954416	B5-03822-P01-CH0	574640	OK	0.2006558	0.070566	0.0875867	-0.9731836	96.183	61.327	-231.173	B5-03822-P02-CH0	574640	OK	0.8456509	0.0321691	-0.5327661	0	-91.272	-92.162	8.068	B5-03822-P02-CH1	574640	OK	0.7567609	-0.0055584	-0.6536682	0	-81.67	-75.486	4.223	B5-03822-P03-CH0	574640	OK	0.8705089	-0.2625181	-0.4162914	0	-95.89	-54.071	13.295	B5-03822-P03-CH1	574640	OK	0.7005581	-0.6848822	-0.2003866	0	-102.379	-18.669	4.778	B5-03822-P04-CH0	574640	OK	0.6482573	-0.6315911	0.4252707	0	-120.075	-22.548	-2.876	B5-03822-P04-CH1	574640	OK	0.7760629	-0.6301196	0.025993	0	-112.73	-39.385	11.094	NA
0.56953601953602	B5-03822-P01-CH0	574648	OK	0.2008202	0.0706405	0.0877483	-0.9731297	96.255	61.314	-231.153	B5-03822-P02-CH0	574648	OK	0.8446777	0.0385032	-0.5338886	0	-91.836	-91.643	8.227	B5-03822-P02-CH1	574648	OK	0.7619259	0.0001098	-0.6476642	0	-82.086	-75.991	4.541	B5-03822-P03-CH0	574648	OK	0.8689831	-0.256413	-0.4232267	0	-96.266	-54.189	13.399	B5-03822-P03-CH1	574648	OK	0.700479	-0.6846759	-0.2013653	0	-102.085	-18.895	4.839	B5-03822-P04-CH0	574648	OK	0.6471549	-0.6294958	0.4300296	0	-120.254	-23.53	-2.46	B5-03822-P04-CH1	574648	OK	0.7762323	-0.6299096	0.026026	0	-112.802	-39.412	11.092	NA
0.57952787952788	B5-03822-P01-CH0	574656	OK	0.2008068	0.0706856	0.0872797	-0.9731713	96.296	61.209	-231.131	B5-03822-P02-CH0	574656	OK	0.8433344	0.0410322	-0.5358204	0	-92.477	-92.193	9.36	B5-03822-P02-CH1	574656	OK	0.767074	0.0031838	-0.6415508	0	-82.412	-75.957	4.364	B5-03822-P03-CH0	574656	OK	0.8678764	-0.2521267	-0.4280452	0	-96.394	-54.376	13.627	B5-03822-P03-CH1	574656	OK	0.7003249	-0.6842978	-0.2031786	0	-102.215	-18.899	5.527	B5-03822-P04-CH0	574656	OK	0.6498968	-0.6213896	0.4376176	0	-121.653	-24.023	-0.139	B5-03822-P04-CH1	574656	OK	0.775974	-0.6302309	0.0259491	0	-112.803	-39.472	11.149	NA
0.58951973951974	B5-03822-P01-CH0	574664	OK	0.2008387	0.0706834	0.0867202	-0.9732149	96.33	61.124	-231.161	B5-03822-P02-CH0	574664	OK	0.8442001	0.0432899	-0.5342772	0	-92.275	-92.763	8.255	B5-03822-P02-CH1	574664	OK	0.7710108	0.0068526	-0.6367853	0	-83.425	-76.149	5.298	B5-03822-P03-CH0	574664	OK	0.8680235	-0.24747	-0.4304577	0	-96.427	-54.096	13.651	B5-03822-P03-CH1	574664	OK	0.700214	-0.6846568	-0.20235	0	-102.348	-19.204	5.426	B5-03822-P04-CH0	574664	OK	0.650115	-0.6162551	0.4444999	0	-121.719	-24.212	-0.799	B5-03822-P04-CH1	574664	OK	0.7756546	-0.6306191	0.0260689	0	-112.8	-39.533	11.169	NA
0.599511599511599	B5-03822-P01-CH0	574672	OK	0.2008173	0.0707278	0.0860513	-0.9732755	96.383	61.065	-231.231	B5-03822-P02-CH0	574672	OK	0.8429657	0.0451997	-0.5360651	0	-92.591	-92.201	9.009	B5-03822-P02-CH1	574672	OK	0.7756921	0.0110303	-0.6310151	0	-83.855	-75.824	5.565	B5-03822-P03-CH0	574672	OK	0.8675283	-0.2445425	-0.4331209	0	-96.864	-54.211	13.237	B5-03822-P03-CH1	574672	OK	0.6998492	-0.6852772	-0.2015099	0	-102.2	-19.34	5.364	B5-03822-P04-CH0	574672	OK	0.651106	-0.6069147	0.4557581	0	-122.378	-24.682	0.824	B5-03822-P04-CH1	574672	OK	0.7751909	-0.6311734	0.0264427	0	-112.739	-39.61	11.295	NA
0.60950345950346	B5-03822-P01-CH0	574680	OK	0.2010821	0.0708679	0.0859942	-0.9732157	96.454	61.046	-231.195	B5-03822-P02-CH0	574680	OK	0.8418459	0.0434673	-0.5379647	0	-92.372	-92.656	8.324	B5-03822-P02-CH1	574680	OK	0.7781469	0.0113852	-0.6279791	0	-84.318	-76.188	5.472	B5-03822-P03-CH0	574680	OK	0.8669094	-0.2459798	-0.433546	0	-97.085	-54.643	13.266	B5-03822-P03-CH1	574680	OK	0.7031127	-0.6813006	-0.2036222	0	-101.755	-19.549	5.77	B5-03822-P04-CH0	574680	OK	0.6516881	-0.5992138	0.465022	0	-122.543	-25.016	1.687	B5-03822-P04-CH1	574680	OK	0.7751574	-0.6312	0.0267894	0	-112.885	-39.682	11.297	NA
0.61949531949532	B5-03822-P01-CH0	574688	OK	0.2010921	0.0709059	0.0856147	-0.9732443	96.47	61.069	-231.194	B5-03822-P02-CH0	574688	OK	0.8407794	0.0375099	-0.5400768	0	-92.01	-94.282	7.399	B5-03822-P02-CH1	574688	OK	0.7783814	0.0113383	-0.6276893	0	-85.077	-74.86	6.725	B5-03822-P03-CH0	574688	OK	0.8673069	-0.2480417	-0.4315716	0	-96.389	-54.42	13.696	B5-03822-P03-CH1	574688	OK	0.7058908	-0.6783016	-0.2040224	0	-102.028	-19.4	6.181	B5-03822-P04-CH0	574688	OK	0.6508289	-0.59811	0.4676389	0	-122.834	-24.756	-1.466	B5-03822-P04-CH1	574688	OK	0.77499	-0.6313904	0.0271402	0	-112.886	-39.607	11.352	NA
0.629487179487179	B5-03822-P01-CH0	574696	OK	0.2010792	0.0711328	0.0854225	-0.9732473	96.573	61.065	-231.186	B5-03822-P02-CH0	574696	OK	0.8400204	0.0363221	-0.5413376	0	-91.545	-93.644	7.339	B5-03822-P02-CH1	574696	OK	0.7808813	0.0083277	-0.6246239	0	-84.236	-75.898	5.537	B5-03822-P03-CH0	574696	OK	0.8644949	-0.2529618	-0.4343487	0	-96.682	-55.068	13.344	B5-03822-P03-CH1	574696	OK	0.7084501	-0.6752585	-0.2052425	0	-102.311	-19.59	6.234	B5-03822-P04-CH0	574696	OK	0.6511086	-0.5950735	0.4711106	0	-123.424	-25.208	-1.047	B5-03822-P04-CH1	574696	OK	0.7748016	-0.6316089	0.0274356	0	-112.997	-39.649	11.285	NA
0.63947903947904	B5-03822-P01-CH0	574704	OK	0.2012223	0.0713348	0.0854832	-0.9731976	96.672	61.119	-231.225	B5-03822-P02-CH0	574704	OK	0.8373554	0.035003	-0.5455371	0	-92.039	-92.489	8.885	B5-03822-P02-CH1	574704	OK	0.7825583	0.005896	-0.6225493	0	-83.587	-76.246	5.265	B5-03822-P03-CH0	574704	OK	0.8623396	-0.2554333	-0.4371776	0	-96.783	-54.597	13.536	B5-03822-P03-CH1	574704	OK	0.7106348	-0.6727915	-0.2057904	0	-102.04	-19.821	6.196	B5-03822-P04-CH0	574704	OK	0.6511529	-0.5930819	0.4735544	0	-123.404	-25.212	-1.432	B5-03822-P04-CH1	574704	OK	0.7748178	-0.6315693	0.0278868	0	-113.086	-39.68	11.384	NA
0.6494708994709	B5-03822-P01-CH0	574712	OK	0.2010758	0.0714103	0.0848497	-0.9732778	96.709	61.06	-231.263	B5-03822-P02-CH0	574712	OK	0.8355513	0.028699	-0.5486624	0	-92.069	-92.869	8.208	B5-03822-P02-CH1	574712	OK	0.781459	0.0017188	-0.6239542	0	-83.952	-76.143	5.725	B5-03822-P03-CH0	574712	OK	0.859848	-0.2561136	-0.4416642	0	-96.873	-53.793	13.799	B5-03822-P03-CH1	574712	OK	0.7121584	-0.6706347	-0.2075561	0	-102.434	-19.896	6.742	B5-03822-P04-CH0	574712	OK	0.6502863	-0.5913086	0.4769506	0	-123.584	-25.732	-2.488	B5-03822-P04-CH1	574712	OK	0.7745822	-0.6318626	0.0277873	0	-113.176	-39.601	11.5	NA
0.659462759462759	B5-03822-P01-CH0	574720	OK	0.201159	0.0713174	0.0846445	-0.9732853	96.675	61.025	-231.252	B5-03822-P02-CH0	574720	OK	0.836748	0.0170942	-0.5473213	0	-90.448	-93.928	7.447	B5-03822-P02-CH1	574720	OK	0.7818813	-0.0033926	-0.6234181	0	-83.72	-76.128	5.527	B5-03822-P03-CH0	574720	OK	0.8573771	-0.2586011	-0.4450056	0	-96.318	-53.798	13.085	B5-03822-P03-CH1	574720	OK	0.7131741	-0.6696284	-0.2073175	0	-102.123	-20.339	7.091	B5-03822-P04-CH0	574720	OK	0.651732	-0.5847559	0.4830174	0	-124.335	-26.333	0.44	B5-03822-P04-CH1	574720	OK	0.7744873	-0.6319634	0.0281357	0	-113.175	-39.613	11.409	NA
0.669454619454619	B5-03822-P01-CH0	574728	OK	0.2012908	0.0713528	0.0847304	-0.973248	96.683	61.054	-231.262	B5-03822-P02-CH0	574728	OK	0.8365816	0.0074973	-0.5477911	0	-89.639	-93.381	7.813	B5-03822-P02-CH1	574728	OK	0.7819688	-0.0098627	-0.6232395	0	-83.577	-75.716	6.148	B5-03822-P03-CH0	574728	OK	0.8547196	-0.2626015	-0.4477665	0	-95.868	-53.768	13.082	B5-03822-P03-CH1	574728	OK	0.7144753	-0.6683317	-0.2070215	0	-101.886	-20.311	7.084	B5-03822-P04-CH0	574728	OK	0.6532661	-0.581182	0.4852535	0	-125.04	-26.154	1.882	B5-03822-P04-CH1	574728	OK	0.7745142	-0.6319104	0.0285833	0	-113.19	-39.617	11.427	NA
0.67944647944648	B5-03822-P01-CH0	574736	OK	0.201378	0.0713954	0.0846278	-0.9732357	96.676	61.075	-231.301	B5-03822-P02-CH0	574736	OK	0.8357224	-0.0029503	-0.5491443	0	-89.353	-93.463	7.565	B5-03822-P02-CH1	574736	OK	0.7823055	-0.0160985	-0.6226868	0	-83.103	-75.066	6.006	B5-03822-P03-CH0	574736	OK	0.8517322	-0.2658503	-0.4515261	0	-95.788	-53.598	13.279	B5-03822-P03-CH1	574736	OK	0.7151251	-0.6677943	-0.2065114	0	-101.552	-20.46	7.137	B5-03822-P04-CH0	574736	OK	0.6520249	-0.5836709	0.4839338	0	-124.692	-25.923	0.129	B5-03822-P04-CH1	574736	OK	0.7744929	-0.6319198	0.0289489	0	-113.214	-39.572	11.463	NA
0.689438339438339	B5-03822-P01-CH0	574744	OK	0.2016038	0.0714346	0.0847881	-0.9731721	96.668	61.083	-231.277	B5-03822-P02-CH0	574744	OK	0.8344438	-0.0095492	-0.5510102	0	-89.25	-92.127	8.237	B5-03822-P02-CH1	574744	OK	0.7810714	-0.0250411	-0.6239394	0	-83.221	-75.171	5.708	B5-03822-P03-CH0	574744	OK	0.8491493	-0.2678489	-0.4551949	0	-95.872	-53.433	12.711	B5-03822-P03-CH1	574744	OK	0.7156913	-0.6674404	-0.2056921	0	-101.625	-20.395	7.233	B5-03822-P04-CH0	574744	OK	0.651006	-0.5856781	0.4828792	0	-124.545	-25.92	-1.136	B5-03822-P04-CH1	574744	OK	0.7746897	-0.6316622	0.0293052	0	-113.161	-39.544	11.428	NA
0.699430199430199	B5-03822-P01-CH0	574752	OK	0.2017419	0.0715245	0.0853271	-0.9730898	96.701	61.102	-231.243	B5-03822-P02-CH0	574752	OK	0.833566	-0.0177308	-0.5521352	0	-88.745	-91.468	8.287	B5-03822-P02-CH1	574752	OK	0.7793844	-0.0317466	-0.6257413	0	-83.454	-74.957	5.816	B5-03822-P03-CH0	574752	OK	0.8464642	-0.2706495	-0.4585272	0	-96.04	-53.431	12.761	B5-03822-P03-CH1	574752	OK	0.7162595	-0.666774	-0.2058754	0	-101.96	-20.443	6.358	B5-03822-P04-CH0	574752	OK	0.6505284	-0.5869623	0.4819628	0	-124.195	-25.812	-1.276	B5-03822-P04-CH1	574752	OK	0.7751408	-0.6311063	0.0293528	0	-113.165	-39.498	11.445	NA
0.709422059422059	B5-03822-P01-CH0	574760	OK	0.2018828	0.0716172	0.0858282	-0.9730097	96.727	61.164	-231.218	B5-03822-P02-CH0	574760	OK	0.8324883	-0.0279146	-0.553339	0	-88.033	-92.824	7.666	B5-03822-P02-CH1	574760	OK	0.7784149	-0.0370025	-0.6266586	0	-83.218	-74.125	6.209	B5-03822-P03-CH0	574760	OK	0.8457147	-0.2735866	-0.4581671	0	-95.342	-52.697	13.031	B5-03822-P03-CH1	574760	OK	0.7175838	-0.6657458	-0.2045876	0	-101.37	-20.582	7.509	B5-03822-P04-CH0	574760	OK	0.6515604	-0.5877845	0.4795608	0	-124.189	-25.908	-1.074	B5-03822-P04-CH1	574760	OK	0.7755163	-0.6306321	0.0296242	0	-113.072	-39.447	11.441	NA
0.719413919413919	B5-03822-P01-CH0	574768	OK	0.202439	0.0715095	0.0872348	-0.9727769	96.701	61.261	-231.133	B5-03822-P02-CH0	574768	OK	0.8315953	-0.0345925	-0.5543038	0	-87.354	-92.847	7.092	B5-03822-P02-CH1	574768	OK	0.7776076	-0.0405932	-0.6274381	0	-82.929	-73.721	6.281	B5-03822-P03-CH0	574768	OK	0.8438837	-0.2776698	-0.4590859	0	-95.408	-52.951	12.61	B5-03822-P03-CH1	574768	OK	0.7192928	-0.6644783	-0.2026979	0	-101.39	-20.614	7.312	B5-03822-P04-CH0	574768	OK	0.6527195	-0.5857233	0.4805054	0	-124.314	-25.947	-0.53	B5-03822-P04-CH1	574768	OK	0.7763553	-0.629579	0.0300454	0	-113.083	-39.503	11.251	NA
0.729405779405779	B5-03822-P01-CH0	574776	OK	0.2025419	0.0715107	0.0873465	-0.9727454	96.67	61.274	-231.103	B5-03822-P02-CH0	574776	OK	0.8306261	-0.0405885	-0.5553492	0	-86.791	-93.383	6.671	B5-03822-P02-CH1	574776	OK	0.7781386	-0.0444389	-0.6265186	0	-82.125	-74.29	5.139	B5-03822-P03-CH0	574776	OK	0.8427957	-0.280122	-0.4595945	0	-95.293	-52.733	12.11	B5-03822-P03-CH1	574776	OK	0.7203143	-0.6634176	-0.202545	0	-102.073	-20.302	7.337	B5-03822-P04-CH0	574776	OK	0.6531932	-0.5846325	0.4811896	0	-124.472	-25.916	0.231	B5-03822-P04-CH1	574776	OK	0.776534	-0.6293712	0.0297784	0	-113.081	-39.412	11.245	NA
0.739397639397639	B5-03822-P01-CH0	574784	OK	0.2021858	0.0714577	0.086614	-0.9728889	96.644	61.16	-231.128	B5-03822-P02-CH0	574784	OK	0.8290359	-0.0443349	-0.5574351	0	-86.898	-93.05	7.016	B5-03822-P02-CH1	574784	OK	0.7772912	-0.0474227	-0.6273511	0	-82.077	-74.598	5.002	B5-03822-P03-CH0	574784	OK	0.8420776	-0.2810328	-0.4603541	0	-94.971	-52.32	12.463	B5-03822-P03-CH1	574784	OK	0.720066	-0.6641219	-0.2011144	0	-101.431	-20.81	6.925	B5-03822-P04-CH0	574784	OK	0.652817	-0.5850247	0.4812235	0	-124.523	-25.96	1.02	B5-03822-P04-CH1	574784	OK	0.7761004	-0.6299344	0.0291703	0	-113.042	-39.368	11.268	NA
0.749389499389499	B5-03822-P01-CH0	574792	OK	0.201992	0.0715227	0.0862019	-0.9729609	96.651	61.151	-231.192	B5-03822-P02-CH0	574792	OK	0.8285322	-0.0484518	-0.5578412	0	-86.46	-92.946	6.857	B5-03822-P02-CH1	574792	OK	0.7755497	-0.0499922	-0.6293039	0	-82.443	-74.379	5.907	B5-03822-P03-CH0	574792	OK	0.8411498	-0.2809321	-0.4621084	0	-94.877	-51.615	12.626	B5-03822-P03-CH1	574792	OK	0.7204885	-0.6635911	-0.2013535	0	-101.506	-20.555	6.733	B5-03822-P04-CH0	574792	OK	0.6526145	-0.5860521	0.4802471	0	-124.533	-25.842	1.582	B5-03822-P04-CH1	574792	OK	0.7757016	-0.6304344	0.0289732	0	-112.957	-39.384	11.294	NA
0.759381359381359	B5-03822-P01-CH0	574800	OK	0.2022353	0.0714883	0.0868562	-0.9728547	96.627	61.256	-231.155	B5-03822-P02-CH0	574800	OK	0.8280895	-0.0521192	-0.5581679	0	-86.074	-92.506	6.574	B5-03822-P02-CH1	574800	OK	0.7750688	-0.0524198	-0.6296988	0	-82.081	-74.03	6.063	B5-03822-P03-CH0	574800	OK	0.8391169	-0.2808338	-0.4658489	0	-95.446	-51.269	12.551	B5-03822-P03-CH1	574800	OK	0.7213606	-0.663174	-0.1995975	0	-101.282	-20.548	6.79	B5-03822-P04-CH0	574800	OK	0.650179	-0.5999319	0.466207	0	-123.979	-25.678	-1.475	B5-03822-P04-CH1	574800	OK	0.7760995	-0.6299474	0.0289097	0	-112.987	-39.338	11.2	NA
0.769373219373219	B5-03822-P01-CH0	574808	OK	0.2024482	0.0713849	0.087276	-0.9727805	96.597	61.297	-231.165	B5-03822-P02-CH0	574808	OK	0.8278743	-0.0562204	-0.558089	0	-85.504	-92.867	6.151	B5-03822-P02-CH1	574808	OK	0.7740438	-0.0543974	-0.6307909	0	-82.142	-73.913	5.494	B5-03822-P03-CH0	574808	OK	0.8383627	-0.2854746	-0.4643838	0	-94.975	-51.744	12.301	B5-03822-P03-CH1	574808	OK	0.7225763	-0.662296	-0.1981097	0	-101.276	-20.485	7.772	B5-03822-P04-CH0	574808	OK	0.6515698	-0.6006134	0.4633792	0	-123.645	-25.162	0.396	B5-03822-P04-CH1	574808	OK	0.7763603	-0.6296294	0.0288375	0	-112.98	-39.366	11.177	NA
0.779365079365079	B5-03822-P01-CH0	574816	OK	0.2023652	0.0712978	0.0872429	-0.9728071	96.571	61.243	-231.154	B5-03822-P02-CH0	574816	OK	0.8271848	-0.0591597	-0.5588071	0	-85.276	-92.38	7.074	B5-03822-P02-CH1	574816	OK	0.7736451	-0.0559567	-0.6311435	0	-82.134	-73.382	5.833	B5-03822-P03-CH0	574816	OK	0.837974	-0.2878375	-0.4636261	0	-94.737	-51.984	11.668	B5-03822-P03-CH1	574816	OK	0.7228302	-0.6622883	-0.1972072	0	-101.14	-20.714	8.006	B5-03822-P04-CH0	574816	OK	0.6510652	-0.6036941	0.4600734	0	-123.185	-24.998	-0.632	B5-03822-P04-CH1	574816	OK	0.7763632	-0.6296349	0.0286376	0	-112.9	-39.382	11.144	NA
