Wav.Time	B5.03822.P01.CH0	Frame	State	Q0	Qx	Qy	Qz	Tx	Ty	Tz	B5.03822.P02.CH0	Frame.1	State.1	Q0.1	Qx.1	Qy.1	Qz.1	Tx.1	Ty.1	Tz.1	B5.03822.P02.CH1	Frame.2	State.2	Q0.2	Qx.2	Qy.2	Qz.2	Tx.2	Ty.2	Tz.2	B5.03822.P03.CH0	Frame.3	State.3	Q0.3	Qx.3	Qy.3	Qz.3	Tx.3	Ty.3	Tz.3	B5.03822.P03.CH1	Frame.4	State.4	Q0.4	Qx.4	Qy.4	Qz.4	Tx.4	Ty.4	Tz.4	B5.03822.P04.CH0	Frame.5	State.5	Q0.5	Qx.5	Qy.5	Qz.5	Tx.5	Ty.5	Tz.5	B5.03822.P04.CH1	Frame.6	State.6	Q0.6	Qx.6	Qy.6	Qz.6	Tx.6	Ty.6	Tz.6	X
0	B5-03822-P01-CH0	190872	OK	0.1958846	0.0781804	0.0864007	-0.9736796	95.52	56.309	-230.053	B5-03822-P02-CH0	190872	OK	0.8115306	0.1658662	-0.5602736	0	-89.12	-96.705	4.914	B5-03822-P02-CH1	190872	OK	0.8519198	-0.0145709	-0.5234695	0	-89.343	-70.986	11.601	B5-03822-P03-CH0	190872	OK	0.8429311	-0.2504973	-0.4761493	0	-96.352	-47.702	12.771	B5-03822-P03-CH1	190872	OK	0.741806	-0.6205178	-0.2543255	0	-101.255	-20.519	8.085	B5-03822-P04-CH0	190872	OK	0.6821947	-0.4958071	0.5373879	0	-125.292	-24.103	9.8	B5-03822-P04-CH1	190872	OK	0.7759334	-0.6304606	0.0211365	0	-112.234	-38.626	11.826	NA
0.00999203284917571	B5-03822-P01-CH0	190880	OK	0.1959741	0.0779042	0.087035	-0.9736272	95.427	56.317	-230.013	B5-03822-P02-CH0	190880	OK	0.8113058	0.1645706	-0.5609807	0	-88.295	-97.071	4.13	B5-03822-P02-CH1	190880	OK	0.8558765	-0.0150594	-0.516961	0	-89.229	-70.307	11.791	B5-03822-P03-CH0	190880	OK	0.8434692	-0.246327	-0.4773705	0	-96.439	-47.649	12.959	B5-03822-P03-CH1	190880	OK	0.7421412	-0.6200964	-0.2543756	0	-101.231	-20.488	7.995	B5-03822-P04-CH0	190880	OK	0.682526	-0.4949212	0.5377837	0	-125.229	-24.027	9.589	B5-03822-P04-CH1	190880	OK	0.7763332	-0.629981	0.0207524	0	-112.204	-38.578	11.652	NA
0.0199840656983514	B5-03822-P01-CH0	190888	OK	0.1960012	0.0778838	0.0872957	-0.9736001	95.439	56.411	-230.084	B5-03822-P02-CH0	190888	OK	0.8068845	0.1633684	-0.5676691	0	-89.646	-96.254	5.684	B5-03822-P02-CH1	190888	OK	0.8590572	-0.0176504	-0.5115752	0	-89.572	-70.296	12.403	B5-03822-P03-CH0	190888	OK	0.8437427	-0.2411185	-0.4795416	0	-96.742	-47.462	13.305	B5-03822-P03-CH1	190888	OK	0.7421849	-0.6200159	-0.2544443	0	-101.258	-20.443	8.065	B5-03822-P04-CH0	190888	OK	0.6830389	-0.4934601	0.5384746	0	-125.28	-23.927	10.226	B5-03822-P04-CH1	190888	OK	0.7764493	-0.629844	0.0205687	0	-112.163	-38.485	11.66	NA
0.0299760985475271	B5-03822-P01-CH0	190896	OK	0.1960529	0.0779314	0.0876606	-0.9735531	95.445	56.483	-230.07	B5-03822-P02-CH0	190896	OK	0.8060726	0.1588832	-0.5700905	0	-89.289	-96.679	6.13	B5-03822-P02-CH1	190896	OK	0.8631399	-0.0179232	-0.5046467	0	-89.65	-70.071	11.745	B5-03822-P03-CH0	190896	OK	0.845984	-0.2344877	-0.4788806	0	-96.197	-47.236	13.389	B5-03822-P03-CH1	190896	OK	0.7421995	-0.6200591	-0.2542963	0	-101.253	-20.452	8.092	B5-03822-P04-CH0	190896	OK	0.6831205	-0.4929819	0.5388091	0	-125.243	-23.855	9.97	B5-03822-P04-CH1	190896	OK	0.7765732	-0.629693	0.0205129	0	-112.097	-38.449	11.665	NA
0.0399681313967028	B5-03822-P01-CH0	190904	OK	0.1958833	0.0779097	0.0873467	-0.9736172	95.432	56.472	-230.146	B5-03822-P02-CH0	190904	OK	0.8072616	0.1554001	-0.5693676	0	-88.191	-96.892	4.88	B5-03822-P02-CH1	190904	OK	0.8656007	-0.0220857	-0.5002476	0	-90.085	-70.494	12.657	B5-03822-P03-CH0	190904	OK	0.8461289	-0.2292753	-0.4811431	0	-96.571	-47.293	13.076	B5-03822-P03-CH1	190904	OK	0.7419001	-0.6202245	-0.2547663	0	-101.28	-20.418	8.146	B5-03822-P04-CH0	190904	OK	0.6830008	-0.4926586	0.5392564	0	-125.267	-23.764	9.907	B5-03822-P04-CH1	190904	OK	0.7763083	-0.6300307	0.0201677	0	-112.078	-38.42	11.738	NA
0.0499601642458785	B5-03822-P01-CH0	190912	OK	0.195694	0.077844	0.0870639	-0.9736858	95.39	56.407	-230.177	B5-03822-P02-CH0	190912	OK	0.8041225	0.1511534	-0.5749258	0	-89.331	-96.468	6.099	B5-03822-P02-CH1	190912	OK	0.8680252	-0.0219859	-0.4960332	0	-90.356	-70.441	13.039	B5-03822-P03-CH0	190912	OK	0.8459559	-0.2270633	-0.4824945	0	-96.803	-48.203	12.635	B5-03822-P03-CH1	190912	OK	0.7416126	-0.6204711	-0.2550026	0	-101.184	-20.453	8.171	B5-03822-P04-CH0	190912	OK	0.6827922	-0.4922184	0.5399221	0	-125.235	-23.758	9.807	B5-03822-P04-CH1	190912	OK	0.7760974	-0.6303067	0.0196559	0	-112.002	-38.385	11.735	NA
0.0599521970950542	B5-03822-P01-CH0	190920	OK	0.1956371	0.0776143	0.0869982	-0.9737215	95.265	56.371	-230.164	B5-03822-P02-CH0	190920	OK	0.8032841	0.1490293	-0.5766498	0	-89.359	-95.706	6.282	B5-03822-P02-CH1	190920	OK	0.8705881	-0.0214118	-0.4915464	0	-90.554	-70.363	12.478	B5-03822-P03-CH0	190920	OK	0.8468887	-0.2229887	-0.4827583	0	-96.88	-48.303	12.521	B5-03822-P03-CH1	190920	OK	0.7414571	-0.6204928	-0.2554019	0	-101.095	-20.414	8.098	B5-03822-P04-CH0	190920	OK	0.6826078	-0.4846202	0.5469825	0	-125.383	-23.496	8.875	B5-03822-P04-CH1	190920	OK	0.7760142	-0.6304195	0.0193189	0	-111.893	-38.32	11.594	NA
0.0699442299442299	B5-03822-P01-CH0	190928	OK	0.1955475	0.0776501	0.0867732	-0.9737567	95.248	56.352	-230.199	B5-03822-P02-CH0	190928	OK	0.8025829	0.1458286	-0.5784416	0	-89.47	-95.303	6.927	B5-03822-P02-CH1	190928	OK	0.8730463	-0.0209293	-0.4871879	0	-90.91	-70.047	13.004	B5-03822-P03-CH0	190928	OK	0.8489529	-0.2182297	-0.4813052	0	-96.8	-48.25	12.753	B5-03822-P03-CH1	190928	OK	0.7410582	-0.6208262	-0.255749	0	-101.101	-20.434	8.038	B5-03822-P04-CH0	190928	OK	0.6841939	-0.4790704	0.5498821	0	-125.553	-23.033	11.059	B5-03822-P04-CH1	190928	OK	0.7757679	-0.630732	0.0190076	0	-111.85	-38.331	11.663	NA
0.0799362627934057	B5-03822-P01-CH0	190936	OK	0.1954527	0.0775942	0.0869265	-0.9737665	95.218	56.316	-230.19	B5-03822-P02-CH0	190936	OK	0.8024922	0.141661	-0.579602	0	-89.265	-95.908	6.662	B5-03822-P02-CH1	190936	OK	0.8758181	-0.0210326	-0.4821828	0	-90.936	-70.08	12.921	B5-03822-P03-CH0	190936	OK	0.8510183	-0.2136449	-0.4797122	0	-96.825	-48.352	12.706	B5-03822-P03-CH1	190936	OK	0.7409997	-0.6207413	-0.2561244	0	-101.023	-20.421	8.019	B5-03822-P04-CH0	190936	OK	0.6839444	-0.4736466	0.5548684	0	-125.691	-23.907	12.028	B5-03822-P04-CH1	190936	OK	0.7758023	-0.630692	0.0189304	0	-111.789	-38.321	11.614	NA
0.0899282956425814	B5-03822-P01-CH0	190944	OK	0.1954694	0.0775375	0.0873158	-0.9737328	95.169	56.319	-230.166	B5-03822-P02-CH0	190944	OK	0.8027273	0.1385944	-0.5800176	0	-88.681	-97.058	5.17	B5-03822-P02-CH1	190944	OK	0.876147	-0.0239459	-0.481449	0	-91.521	-70.69	13.011	B5-03822-P03-CH0	190944	OK	0.8519591	-0.2068822	-0.4810046	0	-97.01	-47.887	13.455	B5-03822-P03-CH1	190944	OK	0.7410906	-0.6204773	-0.2565008	0	-101.003	-20.379	7.979	B5-03822-P04-CH0	190944	OK	0.6832113	-0.4730128	0.5563103	0	-125.775	-23.851	10.128	B5-03822-P04-CH1	190944	OK	0.7760415	-0.6304017	0.0187935	0	-111.769	-38.277	11.52	NA
0.0999203284917571	B5-03822-P01-CH0	190952	OK	0.1953739	0.077409	0.0873953	-0.9737551	95.116	56.232	-230.135	B5-03822-P02-CH0	190952	OK	0.8015504	0.1357051	-0.5823238	0	-88.284	-97.262	4.919	B5-03822-P02-CH1	190952	OK	0.8783854	-0.0216492	-0.4774625	0	-91.076	-70.244	12.873	B5-03822-P03-CH0	190952	OK	0.8524302	-0.2026716	-0.4819616	0	-96.751	-47.828	13.397	B5-03822-P03-CH1	190952	OK	0.7410646	-0.6203093	-0.2569819	0	-100.916	-20.378	7.929	B5-03822-P04-CH0	190952	OK	0.6839302	-0.4689028	0.5589004	0	-125.579	-23.803	12.731	B5-03822-P04-CH1	190952	OK	0.7761036	-0.6303301	0.0186339	0	-111.769	-38.275	11.376	NA
0.109912361340933	B5-03822-P01-CH0	190960	OK	0.1951971	0.0775211	0.0871491	-0.9738037	95.113	56.22	-230.14	B5-03822-P02-CH0	190960	OK	0.8006959	0.1333987	-0.5840298	0	-87.86	-97.609	4.457	B5-03822-P02-CH1	190960	OK	0.8778877	-0.0223557	-0.4783444	0	-91.554	-70.646	12.901	B5-03822-P03-CH0	190960	OK	0.8502043	-0.2021434	-0.4860975	0	-96.978	-48.531	12.285	B5-03822-P03-CH1	190960	OK	0.7406732	-0.6205614	-0.257501	0	-100.855	-20.423	8.014	B5-03822-P04-CH0	190960	OK	0.6831874	-0.4691874	0.5595696	0	-125.114	-23.287	12.805	B5-03822-P04-CH1	190960	OK	0.7758729	-0.6306185	0.0184828	0	-111.79	-38.251	11.409	NA
0.119904394190108	B5-03822-P01-CH0	190968	OK	0.1950165	0.0775876	0.0868868	-0.973858	95.101	56.153	-230.109	B5-03822-P02-CH0	190968	OK	0.7970148	0.1334388	-0.5890344	0	-88.807	-96.525	5.396	B5-03822-P02-CH1	190968	OK	0.8771601	-0.0231353	-0.4796405	0	-91.88	-71.167	13.555	B5-03822-P03-CH0	190968	OK	0.8494832	-0.2006714	-0.4879645	0	-96.502	-47.98	12.5	B5-03822-P03-CH1	190968	OK	0.740411	-0.6205828	-0.2582024	0	-100.847	-20.415	8.016	B5-03822-P04-CH0	190968	OK	0.6826729	-0.4690032	0.5603514	0	-125.388	-23.617	11.323	B5-03822-P04-CH1	190968	OK	0.7756915	-0.6308468	0.018303	0	-111.791	-38.265	11.403	NA
0.129896427039284	B5-03822-P01-CH0	190976	OK	0.194905	0.0775022	0.0868466	-0.9738907	95.046	56.135	-230.105	B5-03822-P02-CH0	190976	OK	0.7968152	0.1292152	-0.5902448	0	-88.547	-97.123	5.529	B5-03822-P02-CH1	190976	OK	0.8778174	-0.0196482	-0.4785924	0	-91.853	-70.59	12.957	B5-03822-P03-CH0	190976	OK	0.8481978	-0.2034014	-0.4890688	0	-96.306	-47.881	13.471	B5-03822-P03-CH1	190976	OK	0.7403795	-0.6203572	-0.2588344	0	-100.815	-20.35	7.955	B5-03822-P04-CH0	190976	OK	0.6844594	-0.4629942	0.5631622	0	-126.047	-24.126	13.42	B5-03822-P04-CH1	190976	OK	0.7755873	-0.6309715	0.0184175	0	-111.77	-38.289	11.349	NA
0.13988845988846	B5-03822-P01-CH0	190984	OK	0.1949521	0.0774615	0.0871445	-0.9738579	95.026	56.141	-230.057	B5-03822-P02-CH0	190984	OK	0.7973951	0.1239427	-0.5905923	0	-88.14	-97.464	4.891	B5-03822-P02-CH1	190984	OK	0.8774254	-0.0171425	-0.4794068	0	-92.154	-70.339	12.539	B5-03822-P03-CH0	190984	OK	0.8467021	-0.2070991	-0.4901076	0	-96.856	-48.797	13.023	B5-03822-P03-CH1	190984	OK	0.7404651	-0.6202441	-0.2588601	0	-100.75	-20.413	7.841	B5-03822-P04-CH0	190984	OK	0.6870409	-0.4562834	0.5654912	0	-126.583	-24.303	16.874	B5-03822-P04-CH1	190984	OK	0.7757222	-0.6308047	0.0184552	0	-111.824	-38.331	11.23	NA
0.149880492737636	B5-03822-P01-CH0	190992	OK	0.1949043	0.0775753	0.087157	-0.9738573	95.04	56.167	-230.018	B5-03822-P02-CH0	190992	OK	0.7976312	0.1189227	-0.5913053	0	-87.964	-97.556	4.947	B5-03822-P02-CH1	190992	OK	0.8767755	-0.0172729	-0.4805896	0	-91.786	-70.54	12.594	B5-03822-P03-CH0	190992	OK	0.8468892	-0.2117155	-0.4878066	0	-97.096	-49.099	11.762	B5-03822-P03-CH1	190992	OK	0.7404465	-0.6201312	-0.259184	0	-100.78	-20.387	7.879	B5-03822-P04-CH0	190992	OK	0.6834628	-0.4623642	0.5648876	0	-126.076	-23.761	10.807	B5-03822-P04-CH1	190992	OK	0.7757066	-0.630811	0.0188907	0	-111.849	-38.358	11.231	NA
0.159872525586811	B5-03822-P01-CH0	191000	OK	0.1946881	0.0777187	0.0871853	-0.9738866	95.102	56.189	-230.032	B5-03822-P02-CH0	191000	OK	0.7963909	0.1151587	-0.5937171	0	-88.595	-96.894	6.223	B5-03822-P02-CH1	191000	OK	0.8751202	-0.0159182	-0.4836437	0	-91.755	-70.433	12.487	B5-03822-P03-CH0	191000	OK	0.8505413	-0.2115555	-0.4814808	0	-96.4	-47.987	12.124	B5-03822-P03-CH1	191000	OK	0.7403918	-0.6200539	-0.2595251	0	-100.866	-20.399	7.927	B5-03822-P04-CH0	191000	OK	0.6833862	-0.4627386	0.5646735	0	-126.352	-23.939	10.241	B5-03822-P04-CH1	191000	OK	0.7757763	-0.6307235	0.0189472	0	-111.988	-38.329	11.31	NA
0.169864558435987	B5-03822-P01-CH0	191008	OK	0.1946261	0.0778381	0.0875687	-0.973855	95.129	56.225	-229.986	B5-03822-P02-CH0	191008	OK	0.7965817	0.1115256	-0.5941545	0	-88.88	-96.322	5.894	B5-03822-P02-CH1	191008	OK	0.871899	-0.0161351	-0.4894199	0	-92.311	-70.867	12.725	B5-03822-P03-CH0	191008	OK	0.8519371	-0.2121206	-0.4787568	0	-96.778	-47.502	13.818	B5-03822-P03-CH1	191008	OK	0.7405843	-0.6197817	-0.2596258	0	-100.934	-20.405	7.902	B5-03822-P04-CH0	191008	OK	0.6842254	-0.4653358	0.5615142	0	-126.156	-24.027	11.987	B5-03822-P04-CH1	191008	OK	0.7761042	-0.6303184	0.0189966	0	-112.126	-38.272	11.305	NA
0.179856591285163	B5-03822-P01-CH0	191016	OK	0.1945689	0.0778439	0.0871814	-0.9739007	95.123	56.211	-230.028	B5-03822-P02-CH0	191016	OK	0.8004073	0.1056896	-0.590066	0	-88.094	-97.057	5.289	B5-03822-P02-CH1	191016	OK	0.8718694	-0.0124629	-0.4895798	0	-92.176	-70.395	12.823	B5-03822-P03-CH0	191016	OK	0.8552461	-0.2150406	-0.4714993	0	-96.785	-47.608	14.505	B5-03822-P03-CH1	191016	OK	0.7403681	-0.6199921	-0.2597401	0	-100.979	-20.462	7.924	B5-03822-P04-CH0	191016	OK	0.6844784	-0.4635358	0.5626935	0	-126.272	-24.123	12.767	B5-03822-P04-CH1	191016	OK	0.7759616	-0.6304829	0.0193613	0	-112.161	-38.291	11.401	NA
0.189848624134338	B5-03822-P01-CH0	191024	OK	0.1944563	0.0778196	0.0867666	-0.9739622	95.113	56.154	-230.023	B5-03822-P02-CH0	191024	OK	0.8026959	0.1000525	-0.5879361	0	-88.428	-96.997	5.93	B5-03822-P02-CH1	191024	OK	0.8711901	-0.0101753	-0.4908404	0	-92.68	-70.354	13.427	B5-03822-P03-CH0	191024	OK	0.8584564	-0.2189793	-0.4637894	0	-97.589	-48.333	14.178	B5-03822-P03-CH1	191024	OK	0.7402123	-0.6201526	-0.2598009	0	-100.911	-20.538	7.96	B5-03822-P04-CH0	191024	OK	0.6842756	-0.4626842	0.5636402	0	-126.372	-24.291	12.793	B5-03822-P04-CH1	191024	OK	0.7756071	-0.6308942	0.0201536	0	-112.226	-38.455	11.382	NA
0.199840656983514	B5-03822-P01-CH0	191032	OK	0.1946443	0.0778059	0.0871708	-0.9738897	95.078	56.24	-229.94	B5-03822-P02-CH0	191032	OK	0.8043599	0.0980906	-0.5859893	0	-88.688	-96.468	6.681	B5-03822-P02-CH1	191032	OK	0.8718469	-0.0104402	-0.4896672	0	-92.422	-70.84	13.042	B5-03822-P03-CH0	191032	OK	0.8650839	-0.2227101	-0.4494776	0	-97.825	-48.569	13.741	B5-03822-P03-CH1	191032	OK	0.7405014	-0.6200013	-0.2593377	0	-100.864	-20.574	7.854	B5-03822-P04-CH0	191032	OK	0.6848773	-0.4605372	0.5646667	0	-126.63	-24.51	13.033	B5-03822-P04-CH1	191032	OK	0.775874	-0.6305235	0.0214404	0	-112.29	-38.513	11.286	NA
0.20983268983269	B5-03822-P01-CH0	191040	OK	0.1947153	0.0780372	0.0871066	-0.9738627	95.149	56.256	-229.884	B5-03822-P02-CH0	191040	OK	0.8034263	0.0974183	-0.5873805	0	-89.455	-95.805	7.143	B5-03822-P02-CH1	191040	OK	0.8718091	-0.0115861	-0.4897088	0	-92.12	-70.535	13.113	B5-03822-P03-CH0	191040	OK	0.8699264	-0.2293769	-0.436594	0	-98.205	-48.833	14.856	B5-03822-P03-CH1	191040	OK	0.740498	-0.6201014	-0.2591082	0	-100.975	-20.608	7.699	B5-03822-P04-CH0	191040	OK	0.6857333	-0.4576212	0.5659971	0	-127.106	-24.963	13.666	B5-03822-P04-CH1	191040	OK	0.7758624	-0.6304865	0.0228982	0	-112.501	-38.677	11.267	NA
0.219824722681866	B5-03822-P01-CH0	191048	OK	0.1947684	0.0779459	0.0870562	-0.9738639	95.101	56.203	-229.797	B5-03822-P02-CH0	191048	OK	0.8002743	0.0965382	-0.591812	0	-90.472	-94.716	7.931	B5-03822-P02-CH1	191048	OK	0.8704538	-0.0141177	-0.4920476	0	-91.748	-71.112	12.442	B5-03822-P03-CH0	191048	OK	0.8702146	-0.2397227	-0.4304179	0	-98.416	-49.63	13.997	B5-03822-P03-CH1	191048	OK	0.7406513	-0.6200923	-0.2586912	0	-100.893	-20.681	7.614	B5-03822-P04-CH0	191048	OK	0.6901473	-0.4457333	0.5701039	0	-129.285	-26.588	14.45	B5-03822-P04-CH1	191048	OK	0.7761631	-0.6296342	0.0336401	0	-114.182	-39.865	11.517	NA
0.229816755531041	B5-03822-P01-CH0	191056	OK	0.1948423	0.0778881	0.0870582	-0.9738536	95.08	56.176	-229.751	B5-03822-P02-CH0	191056	OK	0.8010229	0.0917864	-0.5915551	0	-89.684	-95.016	7.384	B5-03822-P02-CH1	191056	OK	0.867814	-0.01462	-0.496674	0	-91.27	-71.247	12.6	B5-03822-P03-CH0	191056	OK	0.8657067	-0.2557385	-0.4302903	0	-98.468	-50.448	13.962	B5-03822-P03-CH1	191056	OK	0.7408172	-0.619947	-0.2585646	0	-100.876	-20.725	7.691	B5-03822-P04-CH0	191056	OK	0.6900666	-0.4443697	0.571265	0	-129.535	-27.312	12.615	B5-03822-P04-CH1	191056	OK	0.7759773	-0.6296538	0.0373546	0	-114.603	-40.412	11.52	NA
0.239808788380217	B5-03822-P01-CH0	191064	OK	0.1946879	0.0778716	0.0867692	-0.9739116	95.066	56.167	-229.785	B5-03822-P02-CH0	191064	OK	0.801615	0.082953	-0.5920575	0	-88.986	-96.353	7.673	B5-03822-P02-CH1	191064	OK	0.8628337	-0.0169293	-0.5052044	0	-90.973	-72.069	12.837	B5-03822-P03-CH0	191064	OK	0.8633869	-0.2681359	-0.4273946	0	-98.617	-51.09	13.615	B5-03822-P03-CH1	191064	OK	0.7406804	-0.6199888	-0.2588561	0	-100.931	-20.73	7.695	B5-03822-P04-CH0	191064	OK	0.6899545	-0.4463823	0.5698295	0	-129.574	-26.991	10.931	B5-03822-P04-CH1	191064	OK	0.7765049	-0.6288836	0.0393137	0	-115.023	-40.307	11.428	NA
0.249800821229393	B5-03822-P01-CH0	191072	OK	0.1948228	0.0778955	0.0867184	-0.9738872	95.077	56.136	-229.732	B5-03822-P02-CH0	191072	OK	0.8032803	0.0779669	-0.590476	0	-88.054	-97.989	5.423	B5-03822-P02-CH1	191072	OK	0.8570271	-0.0206537	-0.5148572	0	-90.925	-73.228	12.519	B5-03822-P03-CH0	191072	OK	0.8627306	-0.2752926	-0.4241578	0	-99.367	-51.832	14.218	B5-03822-P03-CH1	191072	OK	0.7406867	-0.6200282	-0.2587435	0	-100.96	-20.828	7.699	B5-03822-P04-CH0	191072	OK	0.6910561	-0.4449168	0.5696407	0	-129.911	-27.456	12.17	B5-03822-P04-CH1	191072	OK	0.7769414	-0.6281116	0.0428696	0	-115.129	-40.419	11.474	NA
0.259792854078568	B5-03822-P01-CH0	191080	OK	0.1950175	0.0778111	0.0868107	-0.9738468	95.047	56.136	-229.713	B5-03822-P02-CH0	191080	OK	0.800787	0.0761782	-0.594085	0	-88.824	-97.305	6.553	B5-03822-P02-CH1	191080	OK	0.851327	-0.026002	-0.5239908	0	-90.248	-73.475	11.1	B5-03822-P03-CH0	191080	OK	0.8622151	-0.2772442	-0.4239349	0	-99.819	-52.846	14.166	B5-03822-P03-CH1	191080	OK	0.7409525	-0.6197753	-0.2585886	0	-100.886	-20.819	7.784	B5-03822-P04-CH0	191080	OK	0.690884	-0.4445458	0.5701389	0	-130.076	-27.838	12.287	B5-03822-P04-CH1	191080	OK	0.7765402	-0.628427	0.0454405	0	-115.579	-41.045	11.499	NA
0.269784886927744	B5-03822-P01-CH0	191088	OK	0.1949525	0.0778436	0.0865849	-0.9738773	95.053	56.137	-229.704	B5-03822-P02-CH0	191088	OK	0.8002857	0.0707064	-0.5954355	0	-88.849	-98.541	6.203	B5-03822-P02-CH1	191088	OK	0.8421219	-0.0373511	-0.5379921	0	-90.623	-73.888	11.413	B5-03822-P03-CH0	191088	OK	0.8606634	-0.2722312	-0.4302891	0	-100.213	-53.366	13.909	B5-03822-P03-CH1	191088	OK	0.7408579	-0.6198543	-0.25867	0	-100.919	-20.826	7.723	B5-03822-P04-CH0	191088	OK	0.6912299	-0.4432694	0.5707131	0	-130.788	-28.47	12.994	B5-03822-P04-CH1	191088	OK	0.7763247	-0.6285908	0.0468353	0	-115.762	-41.236	11.062	NA
0.27977691977692	B5-03822-P01-CH0	191096	OK	0.1949958	0.0779316	0.0866719	-0.9738538	95.071	56.15	-229.629	B5-03822-P02-CH0	191096	OK	0.7996083	0.067557	-0.5967098	0	-88.647	-98.526	6.826	B5-03822-P02-CH1	191096	OK	0.8366074	-0.0429276	-0.5461184	0	-90.402	-74.561	10.376	B5-03822-P03-CH0	191096	OK	0.8573661	-0.2663022	-0.4404618	0	-100.82	-54.164	13.839	B5-03822-P03-CH1	191096	OK	0.7409003	-0.6196886	-0.2589455	0	-100.952	-20.849	7.7	B5-03822-P04-CH0	191096	OK	0.6901177	-0.4453085	0.5704717	0	-130.875	-28.426	10.723	B5-03822-P04-CH1	191096	OK	0.7775534	-0.6269866	0.047942	0	-115.624	-40.805	11.723	NA
0.289768952626095	B5-03822-P01-CH0	191104	OK	0.1949639	0.0779922	0.0865105	-0.9738697	95.071	56.145	-229.588	B5-03822-P02-CH0	191104	OK	0.7996294	0.0650798	-0.5969568	0	-88.081	-99.422	6.412	B5-03822-P02-CH1	191104	OK	0.8322028	-0.0461723	-0.5525456	0	-90.109	-75.007	10.297	B5-03822-P03-CH0	191104	OK	0.8554145	-0.2614565	-0.447109	0	-100.885	-54.884	13.97	B5-03822-P03-CH1	191104	OK	0.740791	-0.6197297	-0.2591597	0	-101.008	-20.864	7.633	B5-03822-P04-CH0	191104	OK	0.6907103	-0.4451499	0.5698779	0	-131.078	-28.349	11.641	B5-03822-P04-CH1	191104	OK	0.7772337	-0.6272738	0.049349	0	-115.871	-41.135	11.3	NA
0.299760985475271	B5-03822-P01-CH0	191112	OK	0.1947695	0.0779896	0.0860148	-0.9739527	95.062	56.097	-229.631	B5-03822-P02-CH0	191112	OK	0.7983133	0.0680073	-0.5983903	0	-88.255	-98.789	5.976	B5-03822-P02-CH1	191112	OK	0.8278632	-0.0501097	-0.5586873	0	-89.616	-76.083	10.644	B5-03822-P03-CH0	191112	OK	0.8547158	-0.2540053	-0.4527054	0	-100.408	-54.643	14.058	B5-03822-P03-CH1	191112	OK	0.7404659	-0.6198731	-0.2597451	0	-101.031	-20.902	7.726	B5-03822-P04-CH0	191112	OK	0.6901194	-0.4446516	0.5709818	0	-130.139	-27.935	12.811	B5-03822-P04-CH1	191112	OK	0.77634	-0.628342	0.0498254	0	-116.146	-41.526	11.21	NA
0.309753018324447	B5-03822-P01-CH0	191120	OK	0.1948405	0.0779589	0.0862285	-0.9739221	95.065	56.103	-229.617	B5-03822-P02-CH0	191120	OK	0.7973697	0.0712629	-0.5992689	0	-88.079	-99.346	5.789	B5-03822-P02-CH1	191120	OK	0.8233268	-0.050326	-0.565332	0	-89.192	-76.916	9.338	B5-03822-P03-CH0	191120	OK	0.852547	-0.24768	-0.4602371	0	-100.965	-55.035	13.88	B5-03822-P03-CH1	191120	OK	0.740609	-0.6196252	-0.2599286	0	-101.058	-20.903	7.805	B5-03822-P04-CH0	191120	OK	0.6903721	-0.4445727	0.5707377	0	-130.317	-28.072	12.536	B5-03822-P04-CH1	191120	OK	0.7760414	-0.6290365	0.0455294	0	-115.475	-41.115	11.065	NA
0.319745051173623	B5-03822-P01-CH0	191128	OK	0.1947605	0.078029	0.0861159	-0.9739424	95.101	56.124	-229.643	B5-03822-P02-CH0	191128	OK	0.7957868	0.0753618	-0.6008694	0	-88.219	-100.16	5.607	B5-03822-P02-CH1	191128	OK	0.8180614	-0.0479317	-0.5731301	0	-89.211	-75.941	9.503	B5-03822-P03-CH0	191128	OK	0.8508953	-0.2415247	-0.4665223	0	-101.447	-55.499	13.77	B5-03822-P03-CH1	191128	OK	0.7403648	-0.6196817	-0.2604891	0	-101.13	-20.942	7.924	B5-03822-P04-CH0	191128	OK	0.6905288	-0.4450919	0.5701431	0	-130.551	-28.091	12.344	B5-03822-P04-CH1	191128	OK	0.7762808	-0.6286385	0.0469226	0	-115.665	-41.143	11.296	NA
0.329737084022798	B5-03822-P01-CH0	191136	OK	0.194873	0.0782693	0.0861674	-0.9738961	95.185	56.167	-229.618	B5-03822-P02-CH0	191136	OK	0.7938973	0.0821325	-0.6024793	0	-88.609	-99.584	6.195	B5-03822-P02-CH1	191136	OK	0.8127154	-0.0471286	-0.5807518	0	-89.534	-76.227	9.977	B5-03822-P03-CH0	191136	OK	0.8500435	-0.2353241	-0.4712204	0	-101.517	-55.657	13.764	B5-03822-P03-CH1	191136	OK	0.7402704	-0.6197694	-0.2605488	0	-101.243	-20.931	7.942	B5-03822-P04-CH0	191136	OK	0.6905406	-0.4457517	0.5696131	0	-130.746	-28.161	12.162	B5-03822-P04-CH1	191136	OK	0.7764838	-0.6282939	0.0481633	0	-115.935	-41.259	11.446	NA
0.339729116871974	B5-03822-P01-CH0	191144	OK	0.1950924	0.0783208	0.0866018	-0.9738095	95.209	56.168	-229.518	B5-03822-P02-CH0	191144	OK	0.7939026	0.0874931	-0.6017172	0	-88.647	-99.889	5.753	B5-03822-P02-CH1	191144	OK	0.8100624	-0.0467494	-0.584477	0	-89.31	-77.187	9.529	B5-03822-P03-CH0	191144	OK	0.8486772	-0.2316238	-0.4754971	0	-101.85	-56.201	13.562	B5-03822-P03-CH1	191144	OK	0.7403752	-0.6196451	-0.2605467	0	-101.291	-20.982	7.928	B5-03822-P04-CH0	191144	OK	0.6906059	-0.4463548	0.5690614	0	-130.887	-28.306	11.821	B5-03822-P04-CH1	191144	OK	0.7768754	-0.6277127	0.0494105	0	-116.044	-41.404	11.469	NA
0.34972114972115	B5-03822-P01-CH0	191152	OK	0.1950427	0.0783045	0.0865813	-0.9738226	95.193	56.155	-229.462	B5-03822-P02-CH0	191152	OK	0.7967722	0.088999	-0.5976899	0	-87.81	-101.872	5.055	B5-03822-P02-CH1	191152	OK	0.8097008	-0.0444872	-0.5851543	0	-88.829	-77.404	8.866	B5-03822-P03-CH0	191152	OK	0.8487228	-0.2293641	-0.47651	0	-101.547	-56.645	13.711	B5-03822-P03-CH1	191152	OK	0.7402839	-0.6197205	-0.2606267	0	-101.239	-20.948	7.871	B5-03822-P04-CH0	191152	OK	0.6902956	-0.4476334	0.5684333	0	-130.95	-28.328	11.483	B5-03822-P04-CH1	191152	OK	0.7768721	-0.6276589	0.0501405	0	-116.141	-41.528	11.483	NA
0.359713182570325	B5-03822-P01-CH0	191160	OK	0.1950295	0.0783544	0.0863248	-0.973844	95.192	56.133	-229.441	B5-03822-P02-CH0	191160	OK	0.7967589	0.0923939	-0.5971923	0	-88.171	-101.359	5.702	B5-03822-P02-CH1	191160	OK	0.8088513	-0.0450487	-0.5862851	0	-88.583	-78.266	8.671	B5-03822-P03-CH0	191160	OK	0.8481601	-0.2284126	-0.4779667	0	-101.604	-56.873	13.447	B5-03822-P03-CH1	191160	OK	0.7399272	-0.6200657	-0.2608185	0	-101.255	-20.992	7.796	B5-03822-P04-CH0	191160	OK	0.6897105	-0.4492053	0.5679031	0	-130.925	-28.355	11.192	B5-03822-P04-CH1	191160	OK	0.7768394	-0.6276572	0.0506664	0	-116.156	-41.571	11.634	NA
0.369705215419501	B5-03822-P01-CH0	191168	OK	0.1952449	0.0783467	0.0866966	-0.9737684	95.198	56.158	-229.384	B5-03822-P02-CH0	191168	OK	0.7949706	0.0965011	-0.5989234	0	-89.212	-99.846	6.467	B5-03822-P02-CH1	191168	OK	0.8077361	-0.0447538	-0.587843	0	-88.586	-78.484	8.862	B5-03822-P03-CH0	191168	OK	0.8475622	-0.2270903	-0.4796544	0	-101.46	-56.862	13.127	B5-03822-P03-CH1	191168	OK	0.7400874	-0.6199572	-0.2606218	0	-101.19	-20.997	7.886	B5-03822-P04-CH0	191168	OK	0.6894184	-0.4506246	0.5671329	0	-130.834	-28.294	10.924	B5-03822-P04-CH1	191168	OK	0.7771946	-0.627172	0.051223	0	-116.23	-41.626	11.629	NA
0.379697248268677	B5-03822-P01-CH0	191176	OK	0.1952282	0.0783729	0.0867483	-0.9737651	95.213	56.141	-229.348	B5-03822-P02-CH0	191176	OK	0.7956859	0.0958363	-0.5980798	0	-89.056	-100.389	5.597	B5-03822-P02-CH1	191176	OK	0.80652	-0.0419112	-0.5897193	0	-88.663	-77.784	8.734	B5-03822-P03-CH0	191176	OK	0.8469785	-0.2251407	-0.4816005	0	-101.196	-56.715	13.781	B5-03822-P03-CH1	191176	OK	0.7399105	-0.6201585	-0.260645	0	-101.229	-21.041	7.905	B5-03822-P04-CH0	191176	OK	0.689187	-0.4519057	0.5663943	0	-130.789	-28.279	11.019	B5-03822-P04-CH1	191176	OK	0.7772452	-0.6270894	0.0514669	0	-116.255	-41.701	11.705	NA
0.389689281117853	B5-03822-P01-CH0	191184	OK	0.1953415	0.0784527	0.0868999	-0.9737224	95.241	56.181	-229.359	B5-03822-P02-CH0	191184	OK	0.7953402	0.0960474	-0.5985055	0	-89.151	-99.861	6.576	B5-03822-P02-CH1	191184	OK	0.8056611	-0.041615	-0.5909131	0	-88.464	-77.836	9.106	B5-03822-P03-CH0	191184	OK	0.8472279	-0.2245914	-0.4814183	0	-100.848	-56.505	13.776	B5-03822-P03-CH1	191184	OK	0.7398815	-0.6202067	-0.2606126	0	-101.263	-21.011	8.048	B5-03822-P04-CH0	191184	OK	0.6881011	-0.4580477	0.5627691	0	-130.348	-27.859	12.966	B5-03822-P04-CH1	191184	OK	0.7773962	-0.6268778	0.0517625	0	-116.289	-41.716	11.794	NA
0.399681313967028	B5-03822-P01-CH0	191192	OK	0.1955727	0.0786861	0.0870449	-0.9736442	95.33	56.224	-229.322	B5-03822-P02-CH0	191192	OK	0.7929736	0.0970763	-0.6014724	0	-90.27	-98.913	7.825	B5-03822-P02-CH1	191192	OK	0.8046032	-0.0430779	-0.5922483	0	-88.615	-78.376	9.184	B5-03822-P03-CH0	191192	OK	0.8452477	-0.2237723	-0.4852652	0	-101.42	-56.843	13.596	B5-03822-P03-CH1	191192	OK	0.7399199	-0.620296	-0.2602909	0	-101.34	-20.963	8.099	B5-03822-P04-CH0	191192	OK	0.6857352	-0.4639765	0.5607969	0	-130.244	-27.696	9.626	B5-03822-P04-CH1	191192	OK	0.7775278	-0.6266935	0.0520167	0	-116.391	-41.78	11.84	NA
0.409673346816204	B5-03822-P01-CH0	191200	OK	0.1955058	0.0787139	0.086623	-0.973693	95.314	56.225	-229.311	B5-03822-P02-CH0	191200	OK	0.7943467	0.0968068	-0.5997013	0	-90.054	-99.486	7.218	B5-03822-P02-CH1	191200	OK	0.8045134	-0.0423329	-0.592424	0	-88.801	-78.131	8.985	B5-03822-P03-CH0	191200	OK	0.8442214	-0.2235802	-0.4871367	0	-101.49	-56.728	13.41	B5-03822-P03-CH1	191200	OK	0.7396389	-0.6206016	-0.2603612	0	-101.301	-20.927	8.107	B5-03822-P04-CH0	191200	OK	0.6842579	-0.4663615	0.5606229	0	-129.992	-27.918	9.153	B5-03822-P04-CH1	191200	OK	0.7772252	-0.627085	0.0518205	0	-116.413	-41.783	11.874	NA
0.41966537966538	B5-03822-P01-CH0	191208	OK	0.1955053	0.0788478	0.0864938	-0.9736937	95.324	56.266	-229.271	B5-03822-P02-CH0	191208	OK	0.7961827	0.0961967	-0.5973603	0	-89.701	-100.203	6.285	B5-03822-P02-CH1	191208	OK	0.8044087	-0.0397249	-0.5927467	0	-89.021	-77.653	8.992	B5-03822-P03-CH0	191208	OK	0.8432094	-0.2241521	-0.4886243	0	-101.439	-56.69	13.65	B5-03822-P03-CH1	191208	OK	0.739491	-0.6208223	-0.2602552	0	-101.299	-20.874	8.138	B5-03822-P04-CH0	191208	OK	0.6841654	-0.4687927	0.5587049	0	-129.835	-27.325	9.716	B5-03822-P04-CH1	191208	OK	0.7771484	-0.6271882	0.051724	0	-116.455	-41.752	11.882	NA
0.429657412514555	B5-03822-P01-CH0	191216	OK	0.1956274	0.0787528	0.0867847	-0.973651	95.274	56.297	-229.288	B5-03822-P02-CH0	191216	OK	0.7983564	0.0954151	-0.594578	0	-89.36	-101.114	5.634	B5-03822-P02-CH1	191216	OK	0.8041776	-0.0387149	-0.5931269	0	-88.978	-77.775	9.014	B5-03822-P03-CH0	191216	OK	0.8417822	-0.2255067	-0.4904584	0	-101.321	-56.997	13.629	B5-03822-P03-CH1	191216	OK	0.7395266	-0.6210054	-0.2597167	0	-101.248	-20.883	8.161	B5-03822-P04-CH0	191216	OK	0.6839178	-0.4706566	0.5574395	0	-129.92	-27.477	10.184	B5-03822-P04-CH1	191216	OK	0.7774267	-0.626855	0.0515811	0	-116.337	-41.664	11.89	NA
0.439649445363731	B5-03822-P01-CH0	191224	OK	0.1956719	0.0788041	0.0867887	-0.9736376	95.276	56.383	-229.314	B5-03822-P02-CH0	191224	OK	0.8003744	0.0955043	-0.5918444	0	-88.968	-100.898	5.538	B5-03822-P02-CH1	191224	OK	0.8046424	-0.0367061	-0.592624	0	-88.736	-78.264	8.817	B5-03822-P03-CH0	191224	OK	0.8410839	-0.2249236	-0.4919221	0	-101.083	-56.683	13.741	B5-03822-P03-CH1	191224	OK	0.7392864	-0.62153	-0.259145	0	-101.296	-20.818	8.16	B5-03822-P04-CH0	191224	OK	0.6818507	-0.4777075	0.5539631	0	-129.713	-26.948	7.128	B5-03822-P04-CH1	191224	OK	0.7774183	-0.6268957	0.0512109	0	-116.374	-41.593	11.934	NA
0.449641478212907	B5-03822-P01-CH0	191232	OK	0.1957327	0.078809	0.086732	-0.97363	95.279	56.387	-229.336	B5-03822-P02-CH0	191232	OK	0.7994925	0.0976923	-0.5926786	0	-89.865	-99.666	7.082	B5-03822-P02-CH1	191232	OK	0.8048761	-0.0339247	-0.5924725	0	-88.695	-77.942	9.547	B5-03822-P03-CH0	191232	OK	0.8406022	-0.2238222	-0.4932459	0	-100.787	-56.614	13.424	B5-03822-P03-CH1	191232	OK	0.7365835	-0.6267067	-0.2543294	0	-101.696	-20.425	7.165	B5-03822-P04-CH0	191232	OK	0.6794606	-0.4866784	0.5490696	0	-128.932	-26.695	5.879	B5-03822-P04-CH1	191232	OK	0.7774456	-0.6269025	0.0507107	0	-116.325	-41.528	11.987	NA
0.459633511062083	B5-03822-P01-CH0	191240	OK	0.1957503	0.0789396	0.0869304	-0.9735982	95.288	56.414	-229.229	B5-03822-P02-CH0	191240	OK	0.7993596	0.0999591	-0.5924799	0	-90.183	-98.507	7.91	B5-03822-P02-CH1	191240	OK	0.8050227	-0.0379621	-0.5920282	0	-88.745	-77.435	9.402	B5-03822-P03-CH0	191240	OK	0.8393879	-0.2230454	-0.4956598	0	-100.942	-56.458	13.191	B5-03822-P03-CH1	191240	OK	0.7344934	-0.6306418	-0.2506199	0	-100.972	-20.442	8.145	B5-03822-P04-CH0	191240	OK	0.6790972	-0.4953829	0.5416851	0	-128.23	-25.834	6.502	B5-03822-P04-CH1	191240	OK	0.7775983	-0.6267591	0.050139	0	-116.208	-41.425	11.863	NA
0.469625543911258	B5-03822-P01-CH0	191248	OK	0.1955094	0.0788829	0.0863043	-0.9737069	95.237	56.358	-229.208	B5-03822-P02-CH0	191248	OK	0.8029895	0.0975561	-0.5879547	0	-89.056	-100.22	6.016	B5-03822-P02-CH1	191248	OK	0.8051959	-0.0359693	-0.5919171	0	-88.626	-77.355	9.271	B5-03822-P03-CH0	191248	OK	0.8378584	-0.2198461	-0.4996608	0	-100.884	-55.886	13.43	B5-03822-P03-CH1	191248	OK	0.7305162	-0.6363555	-0.2477855	0	-101.428	-20.319	7.835	B5-03822-P04-CH0	191248	OK	0.6781831	-0.5076525	0.5313724	0	-127.532	-25.244	5.942	B5-03822-P04-CH1	191248	OK	0.7771656	-0.6273622	0.0492983	0	-116.009	-41.339	11.876	NA
0.479617576760434	B5-03822-P01-CH0	191256	OK	0.1954195	0.0787538	0.0858499	-0.9737755	95.185	56.273	-229.221	B5-03822-P02-CH0	191256	OK	0.8036505	0.0982828	-0.5869296	0	-88.941	-100.279	6.447	B5-03822-P02-CH1	191256	OK	0.8064333	-0.0218499	-0.5909212	0	-88.358	-77.448	9.147	B5-03822-P03-CH0	191256	OK	0.8375208	-0.2139933	-0.5027581	0	-100.309	-55.738	13.454	B5-03822-P03-CH1	191256	OK	0.7260272	-0.6445758	-0.2395968	0	-101.507	-20.405	7.131	B5-03822-P04-CH0	191256	OK	0.6760151	-0.5256124	0.5164642	0	-126.18	-24.377	3.415	B5-03822-P04-CH1	191256	OK	0.7767401	-0.6279633	0.0483417	0	-115.838	-41.35	11.794	NA
0.48960960960961	B5-03822-P01-CH0	191264	OK	0.1953422	0.0787222	0.0857037	-0.9738065	95.186	56.24	-229.232	B5-03822-P02-CH0	191264	OK	0.8030222	0.1027552	-0.5870237	0	-89.466	-99.899	6.084	B5-03822-P02-CH1	191264	OK	0.8072965	-0.0144095	-0.5899701	0	-87.984	-77.606	9.211	B5-03822-P03-CH0	191264	OK	0.8371518	-0.2064038	-0.5065316	0	-100.059	-56.032	13.362	B5-03822-P03-CH1	191264	OK	0.7216701	-0.6534699	-0.2284064	0	-101.214	-20.702	7.637	B5-03822-P04-CH0	191264	OK	0.674095	-0.5434396	0.5002692	0	-124.583	-23.92	3.096	B5-03822-P04-CH1	191264	OK	0.776649	-0.6281721	0.0470759	0	-115.544	-41.243	11.922	NA
0.499601642458785	B5-03822-P01-CH0	191272	OK	0.1951872	0.0786178	0.0855894	-0.9738561	95.13	56.192	-229.201	B5-03822-P02-CH0	191272	OK	0.8012894	0.1076653	-0.5885095	0	-90.256	-99.388	7.037	B5-03822-P02-CH1	191272	OK	0.8069132	-0.0066401	-0.5906327	0	-88.023	-78.009	9.563	B5-03822-P03-CH0	191272	OK	0.837799	-0.1984452	-0.5086378	0	-99.629	-55.728	13.874	B5-03822-P03-CH1	191272	OK	0.7185671	-0.659287	-0.221364	0	-101.699	-19.877	7.849	B5-03822-P04-CH0	191272	OK	0.6718625	-0.5601269	0.4846222	0	-123.305	-23.636	3.207	B5-03822-P04-CH1	191272	OK	0.776447	-0.6290388	0.0379512	0	-113.671	-40.383	12.005	NA
0.509593675307961	B5-03822-P01-CH0	191280	OK	0.1950576	0.0785358	0.0854337	-0.9739023	95.086	56.162	-229.178	B5-03822-P02-CH0	191280	OK	0.8039313	0.1114149	-0.5841928	0	-89.033	-99.896	5.889	B5-03822-P02-CH1	191280	OK	0.8072177	-0.0005168	-0.5902536	0	-87.835	-77.626	9.258	B5-03822-P03-CH0	191280	OK	0.8382512	-0.1932912	-0.5098759	0	-99.576	-55.689	12.916	B5-03822-P03-CH1	191280	OK	0.715286	-0.6648224	-0.2153536	0	-101.432	-19.864	7.949	B5-03822-P04-CH0	191280	OK	0.671426	-0.5662419	0.4780766	0	-122.873	-23.468	7.306	B5-03822-P04-CH1	191280	OK	0.7757613	-0.6300595	0.0349207	0	-114.084	-40.416	11.466	NA
0.519585708157137	B5-03822-P01-CH0	191288	OK	0.1951236	0.0783417	0.0856586	-0.973885	95.029	56.127	-229.165	B5-03822-P02-CH0	191288	OK	0.8040829	0.1182379	-0.582641	0	-89.224	-99.77	5.883	B5-03822-P02-CH1	191288	OK	0.8063472	0.0053952	-0.5914179	0	-88.504	-78.291	9.475	B5-03822-P03-CH0	191288	OK	0.8392411	-0.1894905	-0.5096742	0	-99.15	-55.472	13.042	B5-03822-P03-CH1	191288	OK	0.7142763	-0.6663766	-0.213896	0	-101.781	-19.381	7.688	B5-03822-P04-CH0	191288	OK	0.6707132	-0.5707852	0.4736539	0	-122.777	-22.925	6.191	B5-03822-P04-CH1	191288	OK	0.7755336	-0.6304385	0.0330891	0	-113.904	-40.342	10.944	NA
0.529577741006312	B5-03822-P01-CH0	191296	OK	0.1947951	0.0784005	0.0849632	-0.9740069	95.051	56.024	-229.143	B5-03822-P02-CH0	191296	OK	0.8038945	0.1251657	-0.5814527	0	-89.936	-99.977	6.33	B5-03822-P02-CH1	191296	OK	0.8076319	0.0148408	-0.5895001	0	-88.364	-77.654	9.026	B5-03822-P03-CH0	191296	OK	0.8391026	-0.1864696	-0.5110146	0	-99.194	-55.371	12.664	B5-03822-P03-CH1	191296	OK	0.7125412	-0.6681776	-0.2140648	0	-101.41	-19.772	6.712	B5-03822-P04-CH0	191296	OK	0.670554	-0.5707238	0.4739533	0	-122.714	-22.769	6.482	B5-03822-P04-CH1	191296	OK	0.7754076	-0.6306823	0.0313515	0	-113.738	-39.95	11.259	NA
0.539569773855488	B5-03822-P01-CH0	191304	OK	0.1947798	0.0784147	0.0846924	-0.9740324	95.052	55.963	-229.081	B5-03822-P02-CH0	191304	OK	0.8035446	0.1322015	-0.5803782	0	-90.194	-100.301	6.21	B5-03822-P02-CH1	191304	OK	0.8085202	0.0194112	-0.5881483	0	-87.806	-78.074	7.882	B5-03822-P03-CH0	191304	OK	0.8390791	-0.1841791	-0.5118832	0	-98.938	-55.383	12.417	B5-03822-P03-CH1	191304	OK	0.7118443	-0.6679953	-0.2169332	0	-101.715	-19.718	6.25	B5-03822-P04-CH0	191304	OK	0.6709362	-0.5682974	0.476322	0	-122.058	-22.15	5.764	B5-03822-P04-CH1	191304	OK	0.7753079	-0.6308039	0.0313698	0	-112.926	-39.893	11.204	NA
0.549561806704664	B5-03822-P01-CH0	191312	OK	0.1947454	0.0783569	0.0845861	-0.9740532	95.052	55.932	-229.078	B5-03822-P02-CH0	191312	OK	0.7990749	0.1397755	-0.5847581	0	-91.858	-98.998	7.825	B5-03822-P02-CH1	191312	OK	0.8074659	0.0227687	-0.5894748	0	-87.63	-76.891	8.151	B5-03822-P03-CH0	191312	OK	0.8392247	-0.1820437	-0.5124081	0	-98.629	-55.053	12.678	B5-03822-P03-CH1	191312	OK	0.7122669	-0.6666944	-0.2195324	0	-101.633	-19.531	6.022	B5-03822-P04-CH0	191312	OK	0.6713331	-0.5630564	0.4819537	0	-121.665	-21.945	2.742	B5-03822-P04-CH1	191312	OK	0.7752179	-0.6309556	0.0305311	0	-112.493	-39.743	10.923	NA
0.55955383955384	B5-03822-P01-CH0	191320	OK	0.1947519	0.0783598	0.0843928	-0.9740684	95.078	55.898	-229.082	B5-03822-P02-CH0	191320	OK	0.8011932	0.1436001	-0.5809204	0	-90.489	-99.021	6.966	B5-03822-P02-CH1	191320	OK	0.8060488	0.0218194	-0.5914468	0	-87.49	-77.183	7.823	B5-03822-P03-CH0	191320	OK	0.8385477	-0.1826574	-0.5132973	0	-98.464	-54.753	12.507	B5-03822-P03-CH1	191320	OK	0.7130557	-0.6644435	-0.2237553	0	-102.48	-18.978	5.662	B5-03822-P04-CH0	191320	OK	0.6757747	-0.5462405	0.4949242	0	-122.569	-22.347	6.289	B5-03822-P04-CH1	191320	OK	0.7747577	-0.6316078	0.0286719	0	-113.253	-39.836	10.655	NA
0.569545872403015	B5-03822-P01-CH0	191328	OK	0.1947193	0.0785125	0.0841126	-0.9740869	95.175	55.897	-229.127	B5-03822-P02-CH0	191328	OK	0.8036573	0.1428012	-0.5777048	0	-89.493	-100.624	5.712	B5-03822-P02-CH1	191328	OK	0.8045117	0.0200463	-0.5935985	0	-87.33	-77.049	8.587	B5-03822-P03-CH0	191328	OK	0.8366098	-0.1843171	-0.5158597	0	-98.572	-54.897	12.58	B5-03822-P03-CH1	191328	OK	0.7139788	-0.6624475	-0.2267101	0	-102.004	-19.049	5.65	B5-03822-P04-CH0	191328	OK	0.6793203	-0.5292031	0.5083975	0	-123.588	-22.576	7.875	B5-03822-P04-CH1	191328	OK	0.7750302	-0.6310561	0.0331125	0	-113.701	-40.21	11.507	NA
0.579537905252191	B5-03822-P01-CH0	191336	OK	0.1950084	0.0786217	0.0846045	-0.9739776	95.259	56.005	-229.124	B5-03822-P02-CH0	191336	OK	0.8039454	0.143443	-0.5771446	0	-89.433	-100.111	5.076	B5-03822-P02-CH1	191336	OK	0.8030105	0.0180474	-0.5956916	0	-87.515	-77.291	9.025	B5-03822-P03-CH0	191336	OK	0.8343832	-0.1874845	-0.5183187	0	-98.548	-55.044	12.728	B5-03822-P03-CH1	191336	OK	0.7163918	-0.6586781	-0.2300564	0	-101.361	-18.839	6.36	B5-03822-P04-CH0	191336	OK	0.6805636	-0.5118997	0.524206	0	-124.118	-23.531	8.889	B5-03822-P04-CH1	191336	OK	0.7753391	-0.6307302	0.0320726	0	-113.66	-40.047	11.486	NA
0.589529938101367	B5-03822-P01-CH0	191344	OK	0.1952001	0.078504	0.0848012	-0.9739316	95.24	56.034	-229.068	B5-03822-P02-CH0	191344	OK	0.8034175	0.14233	-0.5781544	0	-89.453	-99.758	5.059	B5-03822-P02-CH1	191344	OK	0.8011357	0.0173148	-0.5982323	0	-87.896	-77.039	9.16	B5-03822-P03-CH0	191344	OK	0.8317621	-0.1921175	-0.5208288	0	-98.531	-55.31	12.086	B5-03822-P03-CH1	191344	OK	0.7183359	-0.6551095	-0.2341475	0	-101.731	-18.745	6.073	B5-03822-P04-CH0	191344	OK	0.6806814	-0.497753	0.537508	0	-124.744	-23.852	7.863	B5-03822-P04-CH1	191344	OK	0.7753532	-0.6307473	0.0313887	0	-113.63	-39.983	11.221	NA
0.599521970950542	B5-03822-P01-CH0	191352	OK	0.1954401	0.0784815	0.0848767	-0.9738787	95.277	56.07	-229.087	B5-03822-P02-CH0	191352	OK	0.8027913	0.1386107	-0.5799252	0	-89.044	-99.021	5.841	B5-03822-P02-CH1	191352	OK	0.8008292	0.016185	-0.598674	0	-87.338	-76.72	8.419	B5-03822-P03-CH0	191352	OK	0.8291714	-0.197784	-0.5228349	0	-98.178	-55.619	11.986	B5-03822-P03-CH1	191352	OK	0.7204427	-0.6511656	-0.2386329	0	-101.821	-19.427	5.822	B5-03822-P04-CH0	191352	OK	0.6812826	-0.4839384	0.5492337	0	-125.839	-24.781	8.89	B5-03822-P04-CH1	191352	OK	0.775283	-0.6308403	0.0312536	0	-113.547	-39.994	11.15	NA
0.609514003799718	B5-03822-P01-CH0	191360	OK	0.1956692	0.0785207	0.0850501	-0.9738144	95.341	56.112	-229.127	B5-03822-P02-CH0	191360	OK	0.8010841	0.1345392	-0.5832353	0	-89.056	-98.927	5.722	B5-03822-P02-CH1	191360	OK	0.8004336	0.0121042	-0.5992992	0	-86.5	-76.753	8.052	B5-03822-P03-CH0	191360	OK	0.8268898	-0.2035225	-0.524244	0	-97.898	-55.208	11.599	B5-03822-P03-CH1	191360	OK	0.7249085	-0.6446999	-0.2426307	0	-101.659	-19.44	7.058	B5-03822-P04-CH0	191360	OK	0.6814651	-0.4748007	0.5569288	0	-126.354	-25.166	8.64	B5-03822-P04-CH1	191360	OK	0.7754211	-0.6306771	0.0311205	0	-113.498	-39.957	11.136	NA
0.619506036648894	B5-03822-P01-CH0	191368	OK	0.1957477	0.0786039	0.0849875	-0.9737974	95.412	56.151	-229.172	B5-03822-P02-CH0	191368	OK	0.7994686	0.1330433	-0.5857896	0	-89.162	-97.98	6.523	B5-03822-P02-CH1	191368	OK	0.7995516	0.0087377	-0.6005339	0	-86.021	-76.935	7.825	B5-03822-P03-CH0	191368	OK	0.8256555	-0.2109036	-0.5232711	0	-97.537	-54.472	11.965	B5-03822-P03-CH1	191368	OK	0.7292263	-0.6387944	-0.2452972	0	-101.648	-19.63	7.334	B5-03822-P04-CH0	191368	OK	0.683707	-0.4638951	0.5633349	0	-127.164	-25.532	11.005	B5-03822-P04-CH1	191368	OK	0.7753793	-0.6307345	0.0309986	0	-113.492	-39.919	11.225	NA
0.62949806949807	B5-03822-P01-CH0	191376	OK	0.196033	0.0784977	0.0852388	-0.9737266	95.41	56.188	-229.167	B5-03822-P02-CH0	191376	OK	0.7999185	0.1297986	-0.5859033	0	-88.561	-98.094	5.815	B5-03822-P02-CH1	191376	OK	0.7976243	0.0067867	-0.6031165	0	-86.018	-76.585	7.868	B5-03822-P03-CH0	191376	OK	0.8238042	-0.2202103	-0.5223543	0	-97.506	-54.699	11.89	B5-03822-P03-CH1	191376	OK	0.7332059	-0.6330601	-0.248282	0	-101.825	-19.784	7.728	B5-03822-P04-CH0	191376	OK	0.6844804	-0.4574977	0.5676111	0	-127.854	-25.838	10.219	B5-03822-P04-CH1	191376	OK	0.7755425	-0.6305207	0.0312661	0	-113.398	-39.915	11.155	NA
0.639490102347245	B5-03822-P01-CH0	191384	OK	0.1959582	0.0785559	0.0850459	-0.9737538	95.464	56.198	-229.23	B5-03822-P02-CH0	191384	OK	0.8007177	0.1280565	-0.5851946	0	-87.925	-98.851	5.414	B5-03822-P02-CH1	191384	OK	0.7954523	0.0049136	-0.6059963	0	-86.212	-75.772	8.735	B5-03822-P03-CH0	191384	OK	0.8229656	-0.2290679	-0.519861	0	-97.287	-54.727	11.812	B5-03822-P03-CH1	191384	OK	0.735306	-0.6299352	-0.2500133	0	-101.386	-20.204	8.073	B5-03822-P04-CH0	191384	OK	0.6856733	-0.4508855	0.5714493	0	-127.901	-26.259	13.918	B5-03822-P04-CH1	191384	OK	0.7753712	-0.6307458	0.0309729	0	-113.555	-39.907	11.232	NA
0.649482135196421	B5-03822-P01-CH0	191392	OK	0.196075	0.0786701	0.0851815	-0.9737093	95.503	56.257	-229.225	B5-03822-P02-CH0	191392	OK	0.7989366	0.1295384	-0.587299	0	-88.404	-97.374	6.132	B5-03822-P02-CH1	191392	OK	0.7949404	0.0019136	-0.6066845	0	-85.641	-75.831	8.157	B5-03822-P03-CH0	191392	OK	0.8220483	-0.2355093	-0.5184322	0	-97.128	-54.359	11.876	B5-03822-P03-CH1	191392	OK	0.736542	-0.62794	-0.2513907	0	-101.231	-20.472	8.546	B5-03822-P04-CH0	191392	OK	0.6860931	-0.4494609	0.5720674	0	-127.904	-26.208	14.771	B5-03822-P04-CH1	191392	OK	0.7754351	-0.6306732	0.0308497	0	-113.666	-39.887	11.251	NA
0.659474168045597	B5-03822-P01-CH0	191400	OK	0.1962888	0.0786502	0.085511	-0.9736389	95.522	56.301	-229.265	B5-03822-P02-CH0	191400	OK	0.8006404	0.1281278	-0.5852847	0	-87.321	-97.734	5.266	B5-03822-P02-CH1	191400	OK	0.7949195	-0.0009532	-0.6067142	0	-85.078	-75.318	7.386	B5-03822-P03-CH0	191400	OK	0.8217349	-0.2424168	-0.5157381	0	-96.536	-54	11.689	B5-03822-P03-CH1	191400	OK	0.7376656	-0.6262468	-0.2523179	0	-101.595	-20.131	7.941	B5-03822-P04-CH0	191400	OK	0.6866478	-0.4509421	0.5702332	0	-127.978	-26.106	14.58	B5-03822-P04-CH1	191400	OK	0.7756659	-0.6303646	0.0313514	0	-113.564	-39.899	11.268	NA
0.669466200894772	B5-03822-P01-CH0	191408	OK	0.1966637	0.0785399	0.0862491	-0.973507	95.473	56.374	-229.25	B5-03822-P02-CH0	191408	OK	0.7988908	0.1289993	-0.5874799	0	-87.884	-96.344	6.052	B5-03822-P02-CH1	191408	OK	0.7947877	-0.0065551	-0.6068521	0	-84.556	-75.418	7.47	B5-03822-P03-CH0	191408	OK	0.8205228	-0.2490742	-0.5144943	0	-96.518	-53.711	11.16	B5-03822-P03-CH1	191408	OK	0.7383657	-0.6255538	-0.251989	0	-101.611	-20.15	7.615	B5-03822-P04-CH0	191408	OK	0.6868342	-0.4533049	0.5681316	0	-127.855	-26.189	14.102	B5-03822-P04-CH1	191408	OK	0.7762575	-0.6296196	0.0316781	0	-113.428	-39.829	11.257	NA
0.679458233743948	B5-03822-P01-CH0	191416	OK	0.1965644	0.0784599	0.0862127	-0.9735368	95.413	56.344	-229.202	B5-03822-P02-CH0	191416	OK	0.8010897	0.1261209	-0.5851058	0	-87.009	-96.35	5.834	B5-03822-P02-CH1	191416	OK	0.7947099	-0.0097764	-0.6069106	0	-84.163	-74.57	7.277	B5-03822-P03-CH0	191416	OK	0.8191178	-0.2565512	-0.5130571	0	-96.254	-53.932	10.765	B5-03822-P03-CH1	191416	OK	0.7389217	-0.6255321	-0.2504084	0	-100.879	-20.253	8.033	B5-03822-P04-CH0	191416	OK	0.6871198	-0.4578085	0.5641612	0	-127.991	-26.301	13.692	B5-03822-P04-CH1	191416	OK	0.7763563	-0.6295208	0.0312145	0	-113.355	-39.718	11.229	NA
0.689450266593124	B5-03822-P01-CH0	191424	OK	0.1966208	0.0786327	0.0862236	-0.9735105	95.47	56.328	-229.207	B5-03822-P02-CH0	191424	OK	0.8026626	0.1229276	-0.5836279	0	-86.674	-96.239	6.19	B5-03822-P02-CH1	191424	OK	0.7947368	-0.0151547	-0.6067649	0	-83.873	-74.58	7.616	B5-03822-P03-CH0	191424	OK	0.8188571	-0.2597949	-0.5118395	0	-96.16	-53.352	11.203	B5-03822-P03-CH1	191424	OK	0.7390167	-0.6257368	-0.2496152	0	-101.251	-20.617	7.665	B5-03822-P04-CH0	191424	OK	0.6877691	-0.4629392	0.5591609	0	-127.834	-25.785	14.161	B5-03822-P04-CH1	191424	OK	0.7763882	-0.6294923	0.0309957	0	-113.333	-39.729	11.358	NA
0.6994422994423	B5-03822-P01-CH0	191432	OK	0.1964224	0.0788315	0.0860042	-0.9735538	95.516	56.314	-229.181	B5-03822-P02-CH0	191432	OK	0.8058308	0.1216016	-0.5795254	0	-85.695	-96.702	5.413	B5-03822-P02-CH1	191432	OK	0.7942359	-0.020008	-0.60728	0	-83.98	-74.727	6.925	B5-03822-P03-CH0	191432	OK	0.819213	-0.2616908	-0.5103019	0	-95.862	-52.69	11.373	B5-03822-P03-CH1	191432	OK	0.7393905	-0.625187	-0.2498856	0	-101.229	-20.667	8.357	B5-03822-P04-CH0	191432	OK	0.6844509	-0.4730614	0.5547431	0	-127.243	-25.899	9.375	B5-03822-P04-CH1	191432	OK	0.7762175	-0.6297359	0.0303157	0	-113.36	-39.671	11.362	NA
0.709434332291475	B5-03822-P01-CH0	191440	OK	0.1963141	0.0789857	0.0859158	-0.973571	95.558	56.295	-229.149	B5-03822-P02-CH0	191440	OK	0.805714	0.1224515	-0.5795089	0	-86.155	-96.617	5.457	B5-03822-P02-CH1	191440	OK	0.7937227	-0.0221469	-0.6078765	0	-84.066	-74.543	7.188	B5-03822-P03-CH0	191440	OK	0.8179389	-0.2651447	-0.5105627	0	-96.029	-53.069	10.696	B5-03822-P03-CH1	191440	OK	0.7393847	-0.6255325	-0.2490368	0	-101.167	-20.967	7.846	B5-03822-P04-CH0	191440	OK	0.6840731	-0.4794926	0.5496642	0	-126.874	-25.158	8.181	B5-03822-P04-CH1	191440	OK	0.7761437	-0.6298474	0.0298878	0	-113.34	-39.618	11.339	NA
0.719426365140651	B5-03822-P01-CH0	191448	OK	0.1963212	0.0789358	0.0858433	-0.97358	95.514	56.25	-229.115	B5-03822-P02-CH0	191448	OK	0.8063114	0.1229045	-0.5785813	0	-86.292	-96.833	5.014	B5-03822-P02-CH1	191448	OK	0.7939878	-0.0243638	-0.6074453	0	-83.745	-75.167	7.253	B5-03822-P03-CH0	191448	OK	0.8174847	-0.2676396	-0.5099881	0	-95.775	-53.144	10.889	B5-03822-P03-CH1	191448	OK	0.7407466	-0.6236483	-0.2497144	0	-101.326	-20.495	8.411	B5-03822-P04-CH0	191448	OK	0.6845035	-0.4808502	0.5479397	0	-126.556	-25.352	9.535	B5-03822-P04-CH1	191448	OK	0.776078	-0.6299351	0.0297454	0	-113.161	-39.626	11.236	NA
0.729418397989827	B5-03822-P01-CH0	191456	OK	0.19621	0.0789985	0.0856925	-0.9736106	95.542	56.229	-229.13	B5-03822-P02-CH0	191456	OK	0.8034955	0.1266653	-0.5816793	0	-87.686	-95.311	6.749	B5-03822-P02-CH1	191456	OK	0.7939586	-0.0234032	-0.6075212	0	-83.769	-74.672	7.347	B5-03822-P03-CH0	191456	OK	0.817831	-0.2682734	-0.509099	0	-95.512	-52.762	11.162	B5-03822-P03-CH1	191456	OK	0.7412833	-0.6230842	-0.2495297	0	-101.059	-20.575	8.596	B5-03822-P04-CH0	191456	OK	0.6845302	-0.4828857	0.5461134	0	-126.296	-25.251	10.057	B5-03822-P04-CH1	191456	OK	0.7760036	-0.6300498	0.0292528	0	-113.13	-39.587	11.282	NA
0.739410430839002	B5-03822-P01-CH0	191464	OK	0.1965184	0.0788961	0.0861279	-0.9735183	95.497	56.239	-229.124	B5-03822-P02-CH0	191464	OK	0.8038086	0.1287515	-0.580788	0	-87.362	-95.415	6.391	B5-03822-P02-CH1	191464	OK	0.7930406	-0.0234358	-0.6087179	0	-83.889	-74.856	7.684	B5-03822-P03-CH0	191464	OK	0.817841	-0.2688337	-0.5087873	0	-95.366	-53.035	10.755	B5-03822-P03-CH1	191464	OK	0.7419515	-0.6225569	-0.2488594	0	-100.973	-20.654	8.652	B5-03822-P04-CH0	191464	OK	0.6846294	-0.4852047	0.5439291	0	-126.01	-25.029	9.47	B5-03822-P04-CH1	191464	OK	0.7762841	-0.6296958	0.0294303	0	-112.916	-39.618	11.218	NA
