Wav.Time	B5.03822.P01.CH0	Frame	State	Q0	Qx	Qy	Qz	Tx	Ty	Tz	B5.03822.P02.CH0	Frame.1	State.1	Q0.1	Qx.1	Qy.1	Qz.1	Tx.1	Ty.1	Tz.1	B5.03822.P02.CH1	Frame.2	State.2	Q0.2	Qx.2	Qy.2	Qz.2	Tx.2	Ty.2	Tz.2	B5.03822.P03.CH0	Frame.3	State.3	Q0.3	Qx.3	Qy.3	Qz.3	Tx.3	Ty.3	Tz.3	B5.03822.P03.CH1	Frame.4	State.4	Q0.4	Qx.4	Qy.4	Qz.4	Tx.4	Ty.4	Tz.4	B5.03822.P04.CH0	Frame.5	State.5	Q0.5	Qx.5	Qy.5	Qz.5	Tx.5	Ty.5	Tz.5	B5.03822.P04.CH1	Frame.6	State.6	Q0.6	Qx.6	Qy.6	Qz.6	Tx.6	Ty.6	Tz.6	X
0	B5-03822-P01-CH0	73384	OK	0.2262359	0.0811185	0.0196036	-0.970491	93.103	-6.563	-260.609	B5-03822-P02-CH0	73384	OK	0.6596332	0.2678712	-0.7022315	0	-75.579	-95.56	4.621	B5-03822-P02-CH1	73384	OK	0.6873444	-0.1628413	-0.707842	0	-76.53	-73.564	1	B5-03822-P03-CH0	73384	OK	0.7291579	-0.6576132	-0.1894032	0	-90.648	-58.879	5.228	B5-03822-P03-CH1	73384	OK	0.7173528	-0.6798481	0.1523533	0	-99.84	-27.247	-6.769	B5-03822-P04-CH0	73384	OK	0.7458411	0.01846	0.6658681	0	-122.968	-36.504	2.489	B5-03822-P04-CH1	73384	OK	0.70553	-0.7068581	0.0507837	0	-110.049	-46.995	-2.965	NA
0.00999206349206349	B5-03822-P01-CH0	73392	OK	0.2261092	0.0810634	0.0196724	-0.9705237	93.066	-6.513	-260.64	B5-03822-P02-CH0	73392	OK	0.6598551	0.2683001	-0.7018592	0	-75.57	-95.531	4.537	B5-03822-P02-CH1	73392	OK	0.688471	-0.1610699	-0.7071521	0	-76.795	-73.477	0.958	B5-03822-P03-CH0	73392	OK	0.730677	-0.6561739	-0.1885391	0	-91.588	-58.583	4.881	B5-03822-P03-CH1	73392	OK	0.7174544	-0.6798113	0.1520386	0	-99.903	-27.121	-6.784	B5-03822-P04-CH0	73392	OK	0.7456521	0.0181305	0.6660888	0	-122.884	-36.495	2.616	B5-03822-P04-CH1	73392	OK	0.7055223	-0.7068591	0.0508774	0	-109.968	-46.986	-2.727	NA
0.019984126984127	B5-03822-P01-CH0	73400	OK	0.225973	0.0811919	0.0193292	-0.9705516	93.102	-6.55	-260.75	B5-03822-P02-CH0	73400	OK	0.6603389	0.2687163	-0.7012447	0	-75.549	-95.741	4.642	B5-03822-P02-CH1	73400	OK	0.6907816	-0.1602644	-0.7050788	0	-76.356	-73.732	1.09	B5-03822-P03-CH0	73400	OK	0.7311764	-0.6565089	-0.1854109	0	-92.128	-59.169	4.846	B5-03822-P03-CH1	73400	OK	0.7172325	-0.6800817	0.1518764	0	-99.994	-27.14	-6.653	B5-03822-P04-CH0	73400	OK	0.7456757	0.017845	0.66607	0	-122.85	-36.672	2.83	B5-03822-P04-CH1	73400	OK	0.7052499	-0.7071321	0.0508607	0	-110.077	-47.043	-2.556	NA
0.0299761904761905	B5-03822-P01-CH0	73408	OK	0.2259958	0.0811938	0.0193986	-0.9705448	93.083	-6.558	-260.779	B5-03822-P02-CH0	73408	OK	0.6608853	0.2689118	-0.7006547	0	-75.407	-95.761	4.296	B5-03822-P02-CH1	73408	OK	0.6912566	-0.1593618	-0.7048178	0	-77.045	-73.746	1.805	B5-03822-P03-CH0	73408	OK	0.7341139	-0.6542641	-0.1817011	0	-92.238	-58.998	5.432	B5-03822-P03-CH1	73408	OK	0.7170721	-0.6801934	0.1521334	0	-100.037	-27.324	-6.245	B5-03822-P04-CH0	73408	OK	0.7454273	0.0169316	0.6663718	0	-122.684	-36.511	2.702	B5-03822-P04-CH1	73408	OK	0.7052625	-0.7071089	0.0510082	0	-109.856	-47.13	-2.291	NA
0.039968253968254	B5-03822-P01-CH0	73416	OK	0.2260493	0.0811269	0.0197001	-0.9705318	93.022	-6.473	-260.782	B5-03822-P02-CH0	73416	OK	0.6608715	0.2694254	-0.7004704	0	-75.593	-95.611	4.058	B5-03822-P02-CH1	73416	OK	0.6928371	-0.1571425	-0.7037634	0	-77.365	-74.071	1.386	B5-03822-P03-CH0	73416	OK	0.7372731	-0.6518702	-0.1774644	0	-92.033	-59.273	5.332	B5-03822-P03-CH1	73416	OK	0.717021	-0.6802537	0.1521043	0	-100.014	-27.321	-5.843	B5-03822-P04-CH0	73416	OK	0.7452462	0.0157672	0.6666029	0	-122.434	-36.413	2.768	B5-03822-P04-CH1	73416	OK	0.705511	-0.7068538	0.0511069	0	-109.751	-47.064	-2.222	NA
0.0499603174603175	B5-03822-P01-CH0	73424	OK	0.2260101	0.0810734	0.0193389	-0.9705527	92.969	-6.561	-260.729	B5-03822-P02-CH0	73424	OK	0.6614767	0.2699566	-0.6996942	0	-75.622	-95.717	3.795	B5-03822-P02-CH1	73424	OK	0.6942645	-0.1542827	-0.7029891	0	-77.525	-74.017	2.835	B5-03822-P03-CH0	73424	OK	0.739964	-0.6486004	-0.1782437	0	-92.295	-59.463	5.841	B5-03822-P03-CH1	73424	OK	0.7163359	-0.6810761	0.1516516	0	-99.966	-27.412	-5.73	B5-03822-P04-CH0	73424	OK	0.7450124	0.0142626	0.6668981	0	-122.005	-36.441	2.982	B5-03822-P04-CH1	73424	OK	0.7053259	-0.7070336	0.051175	0	-109.633	-47.171	-2.26	NA
0.059952380952381	B5-03822-P01-CH0	73432	OK	0.2260425	0.0810873	0.0192816	-0.9705451	92.967	-6.58	-260.729	B5-03822-P02-CH0	73432	OK	0.6657319	0.2747475	-0.6937686	0	-76.294	-97.441	4.343	B5-03822-P02-CH1	73432	OK	0.696619	-0.1525045	-0.7010452	0	-77.469	-74.799	1.197	B5-03822-P03-CH0	73432	OK	0.7430437	-0.6447926	-0.1792442	0	-92.754	-59.873	5.84	B5-03822-P03-CH1	73432	OK	0.7157486	-0.6818662	0.1508722	0	-99.964	-27.357	-5.751	B5-03822-P04-CH0	73432	OK	0.7480461	0.0005556	0.6636465	0	-121.157	-36.507	4.368	B5-03822-P04-CH1	73432	OK	0.7054808	-0.7068903	0.0510179	0	-109.696	-47.154	-2.122	NA
0.0699444444444444	B5-03822-P01-CH0	73440	OK	0.2257569	0.0810094	0.0190973	-0.9706217	92.908	-6.592	-260.664	B5-03822-P02-CH0	73440	OK	0.6668131	0.278159	-0.6913666	0	-76.816	-97.749	2.951	B5-03822-P02-CH1	73440	OK	0.6993957	-0.1470976	-0.699434	0	-77.478	-75.287	2.19	B5-03822-P03-CH0	73440	OK	0.7478714	-0.6386551	-0.18113	0	-93.112	-59.387	6.691	B5-03822-P03-CH1	73440	OK	0.7100703	-0.6899636	0.1405362	0	-99.749	-26.51	-10.078	B5-03822-P04-CH0	73440	OK	0.7474547	-0.0050953	0.6642932	0	-120.237	-35.666	1.66	B5-03822-P04-CH1	73440	OK	0.7054457	-0.7069555	0.0506002	0	-109.593	-47.156	-1.978	NA
0.0799365079365079	B5-03822-P01-CH0	73448	OK	0.2259222	0.0812045	0.0190388	-0.9705681	92.936	-6.56	-260.59	B5-03822-P02-CH0	73448	OK	0.6689162	0.2798067	-0.6886649	0	-76.365	-97.999	3.19	B5-03822-P02-CH1	73448	OK	0.7015256	-0.1404327	-0.6986705	0	-77.89	-75.413	1.833	B5-03822-P03-CH0	73448	OK	0.7517597	-0.6343587	-0.1801289	0	-92.899	-60.107	7.243	B5-03822-P03-CH1	73448	OK	0.7105195	-0.6902316	0.1369028	0	-100.387	-25.583	-10.478	B5-03822-P04-CH0	73448	OK	0.7493421	-0.009347	0.6621171	0	-119.489	-35.726	1.31	B5-03822-P04-CH1	73448	OK	0.7056677	-0.7067362	0.050568	0	-109.734	-47.137	-2.043	NA
0.0899285714285714	B5-03822-P01-CH0	73456	OK	0.2258022	0.081482	0.0186284	-0.9705808	93.018	-6.557	-260.605	B5-03822-P02-CH0	73456	OK	0.6699998	0.2823458	-0.6865721	0	-76.83	-98.583	3.878	B5-03822-P02-CH1	73456	OK	0.7032499	-0.1342985	-0.6981429	0	-78.176	-75.97	2.576	B5-03822-P03-CH0	73456	OK	0.7562984	-0.6294634	-0.1782935	0	-92.902	-60.271	8.888	B5-03822-P03-CH1	73456	OK	0.7104032	-0.6907889	0.1346775	0	-100.435	-25.317	-10.75	B5-03822-P04-CH0	73456	OK	0.7509425	-0.0075051	0.6603249	0	-118.341	-35.216	0.816	B5-03822-P04-CH1	73456	OK	0.705434	-0.7069716	0.050538	0	-109.765	-47.25	-1.921	NA
0.0999206349206349	B5-03822-P01-CH0	73464	OK	0.22568	0.0813226	0.0184032	-0.9706269	92.954	-6.578	-260.598	B5-03822-P02-CH0	73464	OK	0.6667321	0.2851717	-0.6885821	0	-77.963	-96.793	5.429	B5-03822-P02-CH1	73464	OK	0.705392	-0.1283223	-0.6971051	0	-77.944	-76.258	1.557	B5-03822-P03-CH0	73464	OK	0.7580543	-0.628064	-0.1757534	0	-92.901	-61.206	8.052	B5-03822-P03-CH1	73464	OK	0.7107925	-0.6906733	0.1332082	0	-100.138	-25.495	-7.412	B5-03822-P04-CH0	73464	OK	0.7558121	7.48e-05	0.6547885	0	-118.663	-35.366	3.365	B5-03822-P04-CH1	73464	OK	0.7055296	-0.7069092	0.0500738	0	-109.635	-47.208	-1.703	NA
0.109912698412698	B5-03822-P01-CH0	73472	OK	0.2255622	0.0813053	0.0179654	-0.9706639	92.983	-6.681	-260.637	B5-03822-P02-CH0	73472	OK	0.6685393	0.285749	-0.6865878	0	-77.558	-98.106	4.368	B5-03822-P02-CH1	73472	OK	0.706542	-0.1239253	-0.6967359	0	-77.868	-75.586	2.236	B5-03822-P03-CH0	73472	OK	0.7616122	-0.624245	-0.1739687	0	-93.403	-60.735	8.216	B5-03822-P03-CH1	73472	OK	0.7108873	-0.6913685	0.1290307	0	-100.235	-25.017	-8.596	B5-03822-P04-CH0	73472	OK	0.7580267	0.0069597	0.6521864	0	-118.922	-34.723	2.086	B5-03822-P04-CH1	73472	OK	0.7053463	-0.7071259	0.0495936	0	-109.698	-47.381	-1.749	NA
0.119904761904762	B5-03822-P01-CH0	73480	OK	0.2256296	0.0811047	0.0180491	-0.9706634	92.904	-6.651	-260.602	B5-03822-P02-CH0	73480	OK	0.6682864	0.2854871	-0.6869428	0	-77.189	-98.531	4.949	B5-03822-P02-CH1	73480	OK	0.7072544	-0.1206209	-0.696593	0	-77.95	-75.627	3.387	B5-03822-P03-CH0	73480	OK	0.7664019	-0.6206716	-0.165514	0	-93.935	-60.466	8.03	B5-03822-P03-CH1	73480	OK	0.7113165	-0.6919069	0.1236678	0	-101.737	-24.908	-7.158	B5-03822-P04-CH0	73480	OK	0.7578433	0.0161447	0.6522368	0	-117.882	-34.254	1.07	B5-03822-P04-CH1	73480	OK	0.7055944	-0.7068966	0.0493324	0	-109.552	-47.38	-1.774	NA
0.129896825396825	B5-03822-P01-CH0	73488	OK	0.2255442	0.0808285	0.0181647	-0.9707042	92.821	-6.647	-260.57	B5-03822-P02-CH0	73488	OK	0.6667959	0.2842335	-0.6889083	0	-77.027	-98.503	5.306	B5-03822-P02-CH1	73488	OK	0.7068636	-0.1205678	-0.6969987	0	-78.347	-76.142	3.432	B5-03822-P03-CH0	73488	OK	0.7704582	-0.6199647	-0.1484517	0	-92.826	-61.682	9.052	B5-03822-P03-CH1	73488	OK	0.7104729	-0.6936861	0.1184391	0	-100.583	-24.902	-7.87	B5-03822-P04-CH0	73488	OK	0.7601194	0.025137	0.6492971	0	-118.231	-34.353	1.762	B5-03822-P04-CH1	73488	OK	0.7058501	-0.7066748	0.0488505	0	-109.758	-47.386	-1.949	NA
0.139888888888889	B5-03822-P01-CH0	73496	OK	0.2254396	0.0808325	0.018243	-0.9707267	92.876	-6.623	-260.654	B5-03822-P02-CH0	73496	OK	0.6642176	0.2847188	-0.6911948	0	-77.372	-98.897	5.11	B5-03822-P02-CH1	73496	OK	0.7073063	-0.1222395	-0.696258	0	-78.095	-76.257	2.449	B5-03822-P03-CH0	73496	OK	0.7765664	-0.6156234	-0.1339869	0	-93.283	-61.671	9.753	B5-03822-P03-CH1	73496	OK	0.7103005	-0.6948066	0.1127695	0	-100.265	-24.517	-7.252	B5-03822-P04-CH0	73496	OK	0.7613681	0.033791	0.6474387	0	-117.979	-35.077	2.242	B5-03822-P04-CH1	73496	OK	0.7061093	-0.7064395	0.0485068	0	-109.944	-47.393	-1.857	NA
0.149880952380952	B5-03822-P01-CH0	73504	OK	0.2254413	0.080791	0.0182808	-0.970729	92.908	-6.601	-260.779	B5-03822-P02-CH0	73504	OK	0.6623497	0.2834534	-0.6935035	0	-76.979	-98.922	4.294	B5-03822-P02-CH1	73504	OK	0.7080148	-0.1265407	-0.694768	0	-77.999	-75.719	2.93	B5-03822-P03-CH0	73504	OK	0.783254	-0.6106022	-0.1169535	0	-93.277	-62.308	9.92	B5-03822-P03-CH1	73504	OK	0.7100065	-0.6956924	0.1091001	0	-100.629	-24.804	-7.912	B5-03822-P04-CH0	73504	OK	0.7634336	0.0405942	0.6446093	0	-118.247	-34.32	4.136	B5-03822-P04-CH1	73504	OK	0.7063477	-0.70621	0.048378	0	-109.986	-47.392	-1.644	NA
0.159873015873016	B5-03822-P01-CH0	73512	OK	0.2254267	0.0806312	0.0188197	-0.9707354	92.863	-6.507	-260.779	B5-03822-P02-CH0	73512	OK	0.659371	0.2820971	-0.6968868	0	-76.816	-98.671	4.513	B5-03822-P02-CH1	73512	OK	0.7090204	-0.1301676	-0.6930703	0	-77.297	-76.594	2.093	B5-03822-P03-CH0	73512	OK	0.7925254	-0.6017983	-0.0987031	0	-93.54	-62.485	11.165	B5-03822-P03-CH1	73512	OK	0.7114173	-0.6950036	0.1041894	0	-101.265	-24.077	-7.53	B5-03822-P04-CH0	73512	OK	0.7644089	0.0469135	0.6430227	0	-119.302	-34.927	1.398	B5-03822-P04-CH1	73512	OK	0.7068126	-0.7057477	0.0483334	0	-110.099	-47.374	-1.833	NA
0.169865079365079	B5-03822-P01-CH0	73520	OK	0.2254503	0.0805666	0.0191148	-0.9707295	92.893	-6.492	-260.826	B5-03822-P02-CH0	73520	OK	0.6565598	0.2798089	-0.7004542	0	-76.242	-99.377	4.498	B5-03822-P02-CH1	73520	OK	0.7066892	-0.134597	-0.6946035	0	-77.565	-76.184	1.925	B5-03822-P03-CH0	73520	OK	0.802553	-0.5909925	-0.0814644	0	-94.504	-62.687	11.253	B5-03822-P03-CH1	73520	OK	0.7116359	-0.6953771	0.1001251	0	-100.383	-24.151	-8.172	B5-03822-P04-CH0	73520	OK	0.7637281	0.0529375	0.6433638	0	-118.974	-35.347	1.725	B5-03822-P04-CH1	73520	OK	0.7071358	-0.7054088	0.0485541	0	-110.149	-47.396	-2.047	NA
0.179857142857143	B5-03822-P01-CH0	73528	OK	0.2252184	0.0804564	0.018871	-0.9707973	92.866	-6.573	-260.847	B5-03822-P02-CH0	73528	OK	0.6525518	0.2774273	-0.7051313	0	-76.304	-99.392	4.262	B5-03822-P02-CH1	73528	OK	0.705106	-0.1401013	-0.6951239	0	-77.696	-76.679	1.842	B5-03822-P03-CH0	73528	OK	0.8123436	-0.5804147	-0.0567147	0	-93.685	-63.549	12.182	B5-03822-P03-CH1	73528	OK	0.7109599	-0.6965921	0.0964126	0	-100.684	-25.308	-5.512	B5-03822-P04-CH0	73528	OK	0.7632602	0.0578856	0.6434929	0	-119.093	-35.581	1.997	B5-03822-P04-CH1	73528	OK	0.7070262	-0.7054964	0.0488749	0	-110.155	-47.503	-1.902	NA
0.189849206349206	B5-03822-P01-CH0	73536	OK	0.2251355	0.0802908	0.0188858	-0.9708299	92.813	-6.643	-260.829	B5-03822-P02-CH0	73536	OK	0.6508208	0.2731185	-0.7084057	0	-75.097	-99.804	3.483	B5-03822-P02-CH1	73536	OK	0.7056365	-0.1488942	-0.6927537	0	-77.091	-77.486	2.98	B5-03822-P03-CH0	73536	OK	0.8213152	-0.5694319	-0.0344766	0	-94.345	-64.661	11.728	B5-03822-P03-CH1	73536	OK	0.7109161	-0.6971038	0.0929767	0	-100.962	-25.594	-5.225	B5-03822-P04-CH0	73536	OK	0.763012	0.0632781	0.6432795	0	-119.717	-36.111	2.633	B5-03822-P04-CH1	73536	OK	0.7070502	-0.7054325	0.049448	0	-110.158	-47.636	-1.939	NA
0.19984126984127	B5-03822-P01-CH0	73544	OK	0.2251471	0.0804763	0.0189421	-0.9708108	92.89	-6.654	-260.831	B5-03822-P02-CH0	73544	OK	0.6456288	0.2704768	-0.7141469	0	-75.351	-99.723	4.415	B5-03822-P02-CH1	73544	OK	0.7044854	-0.1568828	-0.6921619	0	-77.545	-77.598	2.424	B5-03822-P03-CH0	73544	OK	0.8322045	-0.5542775	-0.0145655	0	-95.218	-64.656	13.054	B5-03822-P03-CH1	73544	OK	0.7105597	-0.6982393	0.0869873	0	-101.389	-25.051	-7.211	B5-03822-P04-CH0	73544	OK	0.7628002	0.0726969	0.6425348	0	-121.296	-37.194	2.632	B5-03822-P04-CH1	73544	OK	0.70704	-0.7053437	0.0508398	0	-110.393	-47.842	-2.272	NA
0.209833333333333	B5-03822-P01-CH0	73552	OK	0.2251254	0.0806702	0.0191825	-0.970795	92.973	-6.636	-260.843	B5-03822-P02-CH0	73552	OK	0.63984	0.2670221	-0.7206275	0	-76.347	-99.837	5.415	B5-03822-P02-CH1	73552	OK	0.7025291	-0.1685449	-0.6914084	0	-77.864	-78.117	3.002	B5-03822-P03-CH0	73552	OK	0.8426143	-0.5385017	0.0041293	0	-95.784	-64.484	13.675	B5-03822-P03-CH1	73552	OK	0.7102617	-0.6995119	0.0788128	0	-101.402	-24.182	-6.492	B5-03822-P04-CH0	73552	OK	0.760831	0.0846867	0.6434007	0	-121.523	-38.945	4.412	B5-03822-P04-CH1	73552	OK	0.7072317	-0.7050278	0.0525279	0	-110.579	-47.971	-2.318	NA
0.219825396825397	B5-03822-P01-CH0	73560	OK	0.2250096	0.0807518	0.0191878	-0.9708149	93.015	-6.647	-260.879	B5-03822-P02-CH0	73560	OK	0.6387039	0.2606082	-0.7239757	0	-75.37	-99.95	5.268	B5-03822-P02-CH1	73560	OK	0.7030457	-0.1787739	-0.688307	0	-76.901	-78.257	3.684	B5-03822-P03-CH0	73560	OK	0.8479352	-0.5296111	0.0227576	0	-95.705	-66.267	13.194	B5-03822-P03-CH1	73560	OK	0.7091794	-0.7019226	0.0660996	0	-101.386	-23.605	-8.307	B5-03822-P04-CH0	73560	OK	0.7578063	0.102435	0.6443886	0	-122.157	-39.107	3.646	B5-03822-P04-CH1	73560	OK	0.7072398	-0.7048944	0.0541825	0	-110.873	-48.125	-2.4	NA
0.22981746031746	B5-03822-P01-CH0	73568	OK	0.2249144	0.0808294	0.0192909	-0.9708285	93.031	-6.651	-260.917	B5-03822-P02-CH0	73568	OK	0.6378962	0.2575413	-0.725783	0	-74.732	-100.347	5.643	B5-03822-P02-CH1	73568	OK	0.702814	-0.1867152	-0.6864327	0	-76.87	-78.86	1.8	B5-03822-P03-CH0	73568	OK	0.8546286	-0.5182942	0.031324	0	-96.696	-66.499	14.416	B5-03822-P03-CH1	73568	OK	0.7091742	-0.7029778	0.0537969	0	-100.806	-22.902	-6.809	B5-03822-P04-CH0	73568	OK	0.7573247	0.1226416	0.6414191	0	-123.76	-39.434	2.895	B5-03822-P04-CH1	73568	OK	0.7073576	-0.7046103	0.0562989	0	-110.981	-48.25	-2.395	NA
0.239809523809524	B5-03822-P01-CH0	73576	OK	0.2248461	0.0808755	0.0191496	-0.9708433	93.024	-6.749	-260.866	B5-03822-P02-CH0	73576	OK	0.6369904	0.2544723	-0.7276587	0	-74.691	-101.64	5.284	B5-03822-P02-CH1	73576	OK	0.7021194	-0.1941706	-0.6850738	0	-77.441	-78.868	2.92	B5-03822-P03-CH0	73576	OK	0.8603481	-0.5081214	0.0401731	0	-97.232	-66.675	14.692	B5-03822-P03-CH1	73576	OK	0.7050411	-0.7078437	0.0432945	0	-100.138	-24.388	-8.059	B5-03822-P04-CH0	73576	OK	0.7559841	0.1413064	0.6391561	0	-124.5	-40.221	3.114	B5-03822-P04-CH1	73576	OK	0.707103	-0.7034195	0.0721555	0	-111.759	-49.692	-0.992	NA
0.249801587301587	B5-03822-P01-CH0	73584	OK	0.2249322	0.0809847	0.0194263	-0.9708087	93.022	-6.766	-260.786	B5-03822-P02-CH0	73584	OK	0.6357363	0.2506623	-0.7300738	0	-74.178	-101.964	5.214	B5-03822-P02-CH1	73584	OK	0.7036209	-0.2007807	-0.6816192	0	-77.034	-79.517	2.65	B5-03822-P03-CH0	73584	OK	0.8658747	-0.4968923	0.0579567	0	-96.17	-66.937	14.77	B5-03822-P03-CH1	73584	OK	0.7035587	-0.7098888	0.0326044	0	-100.303	-23.826	-10.059	B5-03822-P04-CH0	73584	OK	0.7530115	0.1563548	0.6391611	0	-124.798	-39.865	2.621	B5-03822-P04-CH1	73584	OK	0.7073624	-0.7030108	0.0735812	0	-112.32	-50.029	0.385	NA
0.259793650793651	B5-03822-P01-CH0	73592	OK	0.2247254	0.0808065	0.0193744	-0.9708725	92.949	-6.85	-260.776	B5-03822-P02-CH0	73592	OK	0.6337177	0.2478868	-0.7327714	0	-73.925	-101.698	4.456	B5-03822-P02-CH1	73592	OK	0.7041088	-0.2064312	-0.679424	0	-76.949	-80.187	2.049	B5-03822-P03-CH0	73592	OK	0.8702144	-0.488271	0.0657138	0	-96.93	-67.429	14.965	B5-03822-P03-CH1	73592	OK	0.703483	-0.7103527	0.0225988	0	-101.071	-23.069	-8.011	B5-03822-P04-CH0	73592	OK	0.7514742	0.1689664	0.6377592	0	-125.24	-39.829	3.021	B5-03822-P04-CH1	73592	OK	0.7069019	-0.7033407	0.0748442	0	-111.856	-50.514	-0.396	NA
0.269785714285714	B5-03822-P01-CH0	73600	OK	0.2243547	0.0810807	0.0187842	-0.970947	93.037	-6.967	-260.758	B5-03822-P02-CH0	73600	OK	0.6334581	0.2441145	-0.7342608	0	-72.899	-101.095	4.617	B5-03822-P02-CH1	73600	OK	0.7049236	-0.2120244	-0.6768518	0	-76.471	-80.133	2.39	B5-03822-P03-CH0	73600	OK	0.8737544	-0.4810692	0.0715936	0	-97.309	-67.659	15.159	B5-03822-P03-CH1	73600	OK	0.7013715	-0.7125801	0.0175375	0	-100.32	-24.298	-6.748	B5-03822-P04-CH0	73600	OK	0.7523519	0.1767392	0.6346101	0	-126.337	-40.74	3.176	B5-03822-P04-CH1	73600	OK	0.7067134	-0.7044299	0.0658392	0	-111.74	-49.501	-1.62	NA
0.279777777777778	B5-03822-P01-CH0	73608	OK	0.2242931	0.0812136	0.0192685	-0.9709406	93.073	-6.906	-260.777	B5-03822-P02-CH0	73608	OK	0.6304295	0.2427471	-0.7373144	0	-73.722	-101.186	6.615	B5-03822-P02-CH1	73608	OK	0.7045572	-0.2153044	-0.6761976	0	-76.833	-79.845	2.511	B5-03822-P03-CH0	73608	OK	0.8761694	-0.4753671	0.0797078	0	-97.007	-68.118	15.564	B5-03822-P03-CH1	73608	OK	0.7023245	-0.7117395	0.0129311	0	-100.985	-23.959	-7.179	B5-03822-P04-CH0	73608	OK	0.7502881	0.1833201	0.6351863	0	-125.741	-40.668	2.268	B5-03822-P04-CH1	73608	OK	0.7070489	-0.7039058	0.0678119	0	-112.038	-49.596	-1.534	NA
0.289769841269841	B5-03822-P01-CH0	73616	OK	0.224212	0.0811464	0.0193091	-0.9709642	93.016	-6.903	-260.808	B5-03822-P02-CH0	73616	OK	0.6291692	0.2391979	-0.7395475	0	-73.414	-100.633	5.873	B5-03822-P02-CH1	73616	OK	0.7040736	-0.2178265	-0.6758934	0	-77.314	-79.232	2.662	B5-03822-P03-CH0	73616	OK	0.8796143	-0.4681689	0.0842414	0	-97.392	-67.825	15.701	B5-03822-P03-CH1	73616	OK	0.7037114	-0.7104312	0.0088229	0	-100.648	-23.453	-8.562	B5-03822-P04-CH0	73616	OK	0.7504207	0.1868557	0.6339982	0	-126.016	-40.049	4.005	B5-03822-P04-CH1	73616	OK	0.7071563	-0.7036306	0.0695264	0	-112.195	-49.7	-1.312	NA
0.299761904761905	B5-03822-P01-CH0	73624	OK	0.22433	0.0810888	0.0193728	-0.9709405	92.991	-6.967	-260.869	B5-03822-P02-CH0	73624	OK	0.6267098	0.2389661	-0.7417075	0	-74.019	-101.219	6.221	B5-03822-P02-CH1	73624	OK	0.703425	-0.2200011	-0.6758645	0	-77.451	-79.511	2.922	B5-03822-P03-CH0	73624	OK	0.881519	-0.4638561	0.088101	0	-97.362	-67.848	15.503	B5-03822-P03-CH1	73624	OK	0.7063413	-0.7078283	0.0078145	0	-100.698	-23.051	-8.022	B5-03822-P04-CH0	73624	OK	0.7495983	0.1899411	0.6340542	0	-125.538	-39.947	3.459	B5-03822-P04-CH1	73624	OK	0.7073267	-0.7033262	0.0708599	0	-112.297	-49.806	-1.097	NA
0.309753968253968	B5-03822-P01-CH0	73632	OK	0.2243989	0.0808928	0.0196249	-0.9709358	92.872	-6.955	-260.837	B5-03822-P02-CH0	73632	OK	0.6293163	0.2373041	-0.7400322	0	-72.336	-101.787	4.467	B5-03822-P02-CH1	73632	OK	0.70468	-0.221442	-0.6740842	0	-76.321	-79.275	4.265	B5-03822-P03-CH0	73632	OK	0.8817475	-0.4627866	0.0913776	0	-97.214	-68.026	14.92	B5-03822-P03-CH1	73632	OK	0.7078833	-0.7062412	0.0111606	0	-100.546	-23.645	-7.045	B5-03822-P04-CH0	73632	OK	0.7498316	0.1883503	0.6342529	0	-125.584	-39.675	2.766	B5-03822-P04-CH1	73632	OK	0.7074448	-0.7030938	0.0719797	0	-112.158	-49.916	-0.924	NA
0.319746031746032	B5-03822-P01-CH0	73640	OK	0.2244724	0.0808458	0.019909	-0.970917	92.838	-7.003	-260.777	B5-03822-P02-CH0	73640	OK	0.6281398	0.2359523	-0.7414627	0	-72.554	-101.479	3.769	B5-03822-P02-CH1	73640	OK	0.705208	-0.2235825	-0.6728243	0	-75.751	-79.99	2.871	B5-03822-P03-CH0	73640	OK	0.8815185	-0.4624208	0.0953533	0	-96.436	-68.099	15.054	B5-03822-P03-CH1	73640	OK	0.7089045	-0.7050786	0.0178475	0	-99.478	-24.32	-6.671	B5-03822-P04-CH0	73640	OK	0.7501185	0.1855525	0.6347381	0	-124.697	-40.231	3.82	B5-03822-P04-CH1	73640	OK	0.7077181	-0.7027308	0.0728324	0	-112.256	-50.011	-0.878	NA
0.329738095238095	B5-03822-P01-CH0	73648	OK	0.224557	0.0808504	0.0200086	-0.970895	92.875	-7.017	-260.894	B5-03822-P02-CH0	73648	OK	0.6268186	0.2362623	-0.7424813	0	-73.144	-101.525	5.171	B5-03822-P02-CH1	73648	OK	0.7042373	-0.2259032	-0.6730658	0	-75.913	-80.373	2.571	B5-03822-P03-CH0	73648	OK	0.8823319	-0.461329	0.0930907	0	-97.137	-67.707	15.391	B5-03822-P03-CH1	73648	OK	0.7100246	-0.7037555	0.0243582	0	-100.007	-24.537	-5.72	B5-03822-P04-CH0	73648	OK	0.7496531	0.182431	0.6361912	0	-124.576	-39.778	2.069	B5-03822-P04-CH1	73648	OK	0.7077688	-0.7026353	0.07326	0	-112.349	-50.124	-0.721	NA
0.339730158730159	B5-03822-P01-CH0	73656	OK	0.2245878	0.0807569	0.0199094	-0.9708977	92.818	-7.068	-260.906	B5-03822-P02-CH0	73656	OK	0.6278128	0.2357284	-0.7418108	0	-72.61	-101.743	4.661	B5-03822-P02-CH1	73656	OK	0.7034027	-0.2263048	-0.6738032	0	-75.868	-79.916	3.647	B5-03822-P03-CH0	73656	OK	0.879766	-0.4662474	0.0928718	0	-97.222	-68.788	15.299	B5-03822-P03-CH1	73656	OK	0.7099421	-0.7037012	0.0280502	0	-99.549	-24.494	-7.143	B5-03822-P04-CH0	73656	OK	0.7489623	0.179629	0.6378	0	-123.781	-39.803	2.479	B5-03822-P04-CH1	73656	OK	0.7077994	-0.7025992	0.0733097	0	-112.202	-50.118	-0.767	NA
0.349722222222222	B5-03822-P01-CH0	73664	OK	0.2244463	0.0806183	0.0203934	-0.9709319	92.762	-7.03	-260.819	B5-03822-P02-CH0	73664	OK	0.6277915	0.2348407	-0.7421103	0	-72.272	-101.542	4.773	B5-03822-P02-CH1	73664	OK	0.70311	-0.2265406	-0.6740295	0	-75.718	-79.717	3.655	B5-03822-P03-CH0	73664	OK	0.8790122	-0.4674023	0.0941946	0	-96.508	-68.809	14.823	B5-03822-P03-CH1	73664	OK	0.7093314	-0.7042085	0.0306476	0	-99.301	-25.303	-5.303	B5-03822-P04-CH0	73664	OK	0.7503478	0.1829079	0.6352345	0	-125.147	-40.232	3.16	B5-03822-P04-CH1	73664	OK	0.708112	-0.7023326	0.0728436	0	-112.276	-50.009	-1.09	NA
0.359714285714286	B5-03822-P01-CH0	73672	OK	0.2247868	0.0807095	0.021022	-0.9708321	92.826	-6.977	-260.892	B5-03822-P02-CH0	73672	OK	0.6282047	0.2321645	-0.7426025	0	-71.793	-101.932	3.789	B5-03822-P02-CH1	73672	OK	0.7036965	-0.2228486	-0.6746479	0	-76.356	-80.044	3.223	B5-03822-P03-CH0	73672	OK	0.8788241	-0.4674304	0.0957967	0	-96.023	-69.146	14.956	B5-03822-P03-CH1	73672	OK	0.7104893	-0.7030201	0.0311065	0	-100.224	-24.882	-6.285	B5-03822-P04-CH0	73672	OK	0.7500363	0.1839168	0.6353111	0	-124.992	-40.148	3.171	B5-03822-P04-CH1	73672	OK	0.7086269	-0.7017824	0.0731392	0	-112.256	-50.046	-0.861	NA
0.369706349206349	B5-03822-P01-CH0	73680	OK	0.2249576	0.0804729	0.0213538	-0.9708049	92.728	-6.944	-260.904	B5-03822-P02-CH0	73680	OK	0.6275746	0.2358085	-0.7419869	0	-72.725	-101.784	5.143	B5-03822-P02-CH1	73680	OK	0.703835	-0.2244402	-0.6739755	0	-76.071	-79.939	3.278	B5-03822-P03-CH0	73680	OK	0.880332	-0.465308	0.0922175	0	-96.637	-68.672	14.844	B5-03822-P03-CH1	73680	OK	0.7116543	-0.7018533	0.0308223	0	-100.867	-23.97	-6.712	B5-03822-P04-CH0	73680	OK	0.7493678	0.1843437	0.6359759	0	-124.618	-39.946	3.023	B5-03822-P04-CH1	73680	OK	0.7090601	-0.7013648	0.0729462	0	-112.161	-49.836	-1.188	NA
0.379698412698413	B5-03822-P01-CH0	73688	OK	0.2249223	0.0802615	0.0212023	-0.9708339	92.639	-7.017	-260.892	B5-03822-P02-CH0	73688	OK	0.6277718	0.2346043	-0.7422018	0	-72.373	-101.792	4.769	B5-03822-P02-CH1	73688	OK	0.7036001	-0.225774	-0.6737751	0	-75.863	-80.053	3.443	B5-03822-P03-CH0	73688	OK	0.8806947	-0.464561	0.0925203	0	-96.518	-68.559	14.968	B5-03822-P03-CH1	73688	OK	0.7104767	-0.7028929	0.0341227	0	-99.313	-25.009	-6.871	B5-03822-P04-CH0	73688	OK	0.7490357	0.1835673	0.6365913	0	-124.342	-39.74	3.013	B5-03822-P04-CH1	73688	OK	0.7088519	-0.7015934	0.0727713	0	-111.971	-49.954	-1.366	NA
0.389690476190476	B5-03822-P01-CH0	73696	OK	0.2248251	0.0801534	0.0213979	-0.9708611	92.647	-7.017	-260.899	B5-03822-P02-CH0	73696	OK	0.6277895	0.2337942	-0.7424423	0	-72.228	-101.748	4.506	B5-03822-P02-CH1	73696	OK	0.7035086	-0.2265982	-0.6735941	0	-75.679	-80.029	3.367	B5-03822-P03-CH0	73696	OK	0.8810363	-0.464015	0.092006	0	-96.41	-68.361	15.096	B5-03822-P03-CH1	73696	OK	0.7113578	-0.7019593	0.0349741	0	-99.445	-24.75	-6.176	B5-03822-P04-CH0	73696	OK	0.7487298	0.1820003	0.6374006	0	-124.239	-39.506	2.629	B5-03822-P04-CH1	73696	OK	0.708996	-0.7014771	0.0724887	0	-111.866	-49.938	-1.345	NA
0.39968253968254	B5-03822-P01-CH0	73704	OK	0.2246953	0.080058	0.0214507	-0.9708978	92.606	-6.985	-260.917	B5-03822-P02-CH0	73704	OK	0.6282486	0.2328357	-0.7423552	0	-71.936	-101.716	4.268	B5-03822-P02-CH1	73704	OK	0.7032048	-0.2274479	-0.6736249	0	-75.591	-80	3.195	B5-03822-P03-CH0	73704	OK	0.8810841	-0.4642038	0.0905849	0	-96.318	-68.199	15.261	B5-03822-P03-CH1	73704	OK	0.7114614	-0.7021511	0.0284004	0	-99.959	-24.001	-7.844	B5-03822-P04-CH0	73704	OK	0.7489023	0.1793399	0.6379518	0	-124.284	-39.21	2.618	B5-03822-P04-CH1	73704	OK	0.7091021	-0.7013954	0.0722406	0	-111.764	-49.848	-1.278	NA
0.409674603174603	B5-03822-P01-CH0	73712	OK	0.2246879	0.0801397	0.0215286	-0.9708911	92.655	-6.996	-260.973	B5-03822-P02-CH0	73712	OK	0.6280234	0.2318629	-0.7428501	0	-71.933	-101.767	4.486	B5-03822-P02-CH1	73712	OK	0.7026503	-0.2283352	-0.6739032	0	-75.582	-80.029	3.234	B5-03822-P03-CH0	73712	OK	0.8789962	-0.4705052	0.0773979	0	-96.35	-69.218	14.925	B5-03822-P03-CH1	73712	OK	0.7117762	-0.7016983	0.0315307	0	-99.923	-24.212	-7.49	B5-03822-P04-CH0	73712	OK	0.7486674	0.1770419	0.6388688	0	-124.13	-39.102	2.52	B5-03822-P04-CH1	73712	OK	0.709333	-0.7012038	0.071833	0	-111.914	-49.75	-1.283	NA
0.419666666666667	B5-03822-P01-CH0	73720	OK	0.2245303	0.0801757	0.0214184	-0.970927	92.635	-6.963	-261.01	B5-03822-P02-CH0	73720	OK	0.6281683	0.2312117	-0.7429305	0	-71.767	-101.848	4.8	B5-03822-P02-CH1	73720	OK	0.7020792	-0.2288885	-0.6743107	0	-75.527	-79.883	3.533	B5-03822-P03-CH0	73720	OK	0.8791875	-0.4705613	0.0748431	0	-96.382	-68.448	14.727	B5-03822-P03-CH1	73720	OK	0.712106	-0.701254	0.0338809	0	-99.853	-24.145	-7.256	B5-03822-P04-CH0	73720	OK	0.749203	0.1593759	0.6428796	0	-123.873	-38.712	3.298	B5-03822-P04-CH1	73720	OK	0.7091855	-0.7013875	0.0714953	0	-111.78	-49.734	-0.92	NA
0.42965873015873	B5-03822-P01-CH0	73728	OK	0.2243863	0.0802888	0.0211191	-0.9709575	92.616	-7.006	-260.927	B5-03822-P02-CH0	73728	OK	0.6281863	0.2303822	-0.7431729	0	-71.517	-101.903	4.959	B5-03822-P02-CH1	73728	OK	0.6986461	-0.2331378	-0.6764173	0	-75.162	-79.363	2.96	B5-03822-P03-CH0	73728	OK	0.8784366	-0.4724195	0.0718961	0	-96.239	-68.123	15.407	B5-03822-P03-CH1	73728	OK	0.7122197	-0.701025	0.0361535	0	-99.979	-24.172	-7.436	B5-03822-P04-CH0	73728	OK	0.7504516	0.1522614	0.6431477	0	-124.286	-38.486	2.037	B5-03822-P04-CH1	73728	OK	0.7089444	-0.7016557	0.0712536	0	-111.764	-49.769	-0.891	NA
0.439650793650794	B5-03822-P01-CH0	73736	OK	0.2244955	0.0803271	0.0215528	-0.9709196	92.64	-6.953	-260.945	B5-03822-P02-CH0	73736	OK	0.6259727	0.2217854	-0.7476425	0	-70.036	-100.918	4.001	B5-03822-P02-CH1	73736	OK	0.6970676	-0.2344985	-0.6775745	0	-74.814	-78.8	2.55	B5-03822-P03-CH0	73736	OK	0.8774036	-0.4741803	0.072911	0	-95.716	-68.035	15.478	B5-03822-P03-CH1	73736	OK	0.714865	-0.6972173	0.0534419	0	-100.401	-24.532	-7.014	B5-03822-P04-CH0	73736	OK	0.7520992	0.145763	0.6427286	0	-124.433	-38.795	2.618	B5-03822-P04-CH1	73736	OK	0.7092635	-0.7013431	0.0711558	0	-111.842	-49.77	-0.741	NA
0.449642857142857	B5-03822-P01-CH0	73744	OK	0.2243947	0.080508	0.0208975	-0.9709422	92.653	-7.012	-260.945	B5-03822-P02-CH0	73744	OK	0.6232007	0.2198624	-0.7505207	0	-70.572	-100.762	5.238	B5-03822-P02-CH1	73744	OK	0.6941435	-0.2368299	-0.679762	0	-75.078	-78.848	2.885	B5-03822-P03-CH0	73744	OK	0.876196	-0.4769316	0.0694027	0	-96.33	-67.584	14.778	B5-03822-P03-CH1	73744	OK	0.7136993	-0.6980653	0.0577763	0	-99.13	-24.861	-7.399	B5-03822-P04-CH0	73744	OK	0.7521953	0.1372795	0.6444816	0	-124.056	-38.71	2.397	B5-03822-P04-CH1	73744	OK	0.7088799	-0.7017456	0.07101	0	-111.821	-49.799	-0.396	NA
0.459634920634921	B5-03822-P01-CH0	73752	OK	0.2242039	0.0805894	0.0205083	-0.9709878	92.605	-7.004	-260.906	B5-03822-P02-CH0	73752	OK	0.6235106	0.218504	-0.7506601	0	-69.919	-100.484	5.353	B5-03822-P02-CH1	73752	OK	0.6929739	-0.2375103	-0.6807173	0	-74.536	-78.739	1.563	B5-03822-P03-CH0	73752	OK	0.8730691	-0.4832054	0.0652912	0	-95.892	-68.122	15.224	B5-03822-P03-CH1	73752	OK	0.7133543	-0.6980403	0.0621722	0	-99.668	-25.078	-5.103	B5-03822-P04-CH0	73752	OK	0.7519907	0.127118	0.6468006	0	-123.884	-37.683	2.04	B5-03822-P04-CH1	73752	OK	0.7086972	-0.7020066	0.0702497	0	-111.844	-49.587	-0.576	NA
0.469626984126984	B5-03822-P01-CH0	73760	OK	0.2242091	0.0808622	0.0204575	-0.970965	92.7	-7.014	-260.84	B5-03822-P02-CH0	73760	OK	0.6230849	0.2187469	-0.7509427	0	-70.213	-100.904	4.951	B5-03822-P02-CH1	73760	OK	0.6924533	-0.2399222	-0.6804012	0	-73.726	-79.519	1.868	B5-03822-P03-CH0	73760	OK	0.8712682	-0.4874311	0.0574683	0	-95.368	-68.067	14.909	B5-03822-P03-CH1	73760	OK	0.7117032	-0.6991778	0.0680362	0	-100.051	-25.776	-4.473	B5-03822-P04-CH0	73760	OK	0.7530422	0.117349	0.647423	0	-123.732	-37.491	3.021	B5-03822-P04-CH1	73760	OK	0.7084854	-0.7022258	0.0701952	0	-111.88	-49.777	-0.278	NA
0.479619047619048	B5-03822-P01-CH0	73768	OK	0.2242837	0.0811084	0.0204361	-0.9709277	92.764	-6.96	-260.822	B5-03822-P02-CH0	73768	OK	0.6233413	0.2175364	-0.7510816	0	-70.065	-100.596	4.528	B5-03822-P02-CH1	73768	OK	0.6898369	-0.2390255	-0.6833681	0	-74.548	-79.055	2.335	B5-03822-P03-CH0	73768	OK	0.8695704	-0.492056	0.041572	0	-95.977	-67.141	14.716	B5-03822-P03-CH1	73768	OK	0.7109315	-0.6994549	0.0730704	0	-99.911	-25.126	-7.84	B5-03822-P04-CH0	73768	OK	0.7539073	0.1031508	0.6488326	0	-123.18	-37.059	3.468	B5-03822-P04-CH1	73768	OK	0.7084825	-0.7022848	0.0696319	0	-111.947	-49.702	-0.229	NA
0.489611111111111	B5-03822-P01-CH0	73776	OK	0.2245068	0.0812911	0.0202787	-0.9708642	92.802	-6.973	-260.766	B5-03822-P02-CH0	73776	OK	0.622984	0.2173503	-0.7514319	0	-70.467	-101.021	3.798	B5-03822-P02-CH1	73776	OK	0.6887613	-0.2367868	-0.6852298	0	-74.543	-78.81	1.546	B5-03822-P03-CH0	73776	OK	0.8652028	-0.5007918	0.0251317	0	-95.686	-66.79	14.767	B5-03822-P03-CH1	73776	OK	0.7100497	-0.6995311	0.0805339	0	-99.967	-25.11	-7.367	B5-03822-P04-CH0	73776	OK	0.7542247	0.0880951	0.6506799	0	-122.428	-36.834	2.538	B5-03822-P04-CH1	73776	OK	0.708358	-0.7024421	0.0693111	0	-111.944	-49.749	-0.249	NA
0.499603174603175	B5-03822-P01-CH0	73784	OK	0.2245247	0.0813476	0.0203862	-0.970853	92.816	-6.942	-260.706	B5-03822-P02-CH0	73784	OK	0.6218386	0.2165565	-0.7526088	0	-70.794	-100.127	3.96	B5-03822-P02-CH1	73784	OK	0.6890471	-0.2337499	-0.6859847	0	-74.399	-78.197	1.066	B5-03822-P03-CH0	73784	OK	0.859796	-0.5106205	0.0041928	0	-96.039	-66.305	15.054	B5-03822-P03-CH1	73784	OK	0.7093795	-0.6994238	0.0871032	0	-100.344	-25.175	-6.918	B5-03822-P04-CH0	73784	OK	0.7546899	0.0723419	0.6520811	0	-121.23	-37.189	2.706	B5-03822-P04-CH1	73784	OK	0.7083408	-0.7025294	0.0685983	0	-111.865	-49.724	-0.269	NA
0.509595238095238	B5-03822-P01-CH0	73792	OK	0.2245897	0.0813881	0.0201354	-0.9708398	92.78	-6.93	-260.599	B5-03822-P02-CH0	73792	OK	0.6229447	0.221049	-0.7503847	0	-71.094	-100.158	4.24	B5-03822-P02-CH1	73792	OK	0.6892785	-0.2282911	-0.6875888	0	-74.61	-77.337	2.737	B5-03822-P03-CH0	73792	OK	0.8528652	-0.5220155	-0.0109902	0	-95.19	-66.168	15.275	B5-03822-P03-CH1	73792	OK	0.7083606	-0.699695	0.0930173	0	-100.999	-25.382	-6.003	B5-03822-P04-CH0	73792	OK	0.7547752	0.0607379	0.6531656	0	-120.556	-35.732	2.734	B5-03822-P04-CH1	73792	OK	0.7082257	-0.7027335	0.0676906	0	-111.623	-49.577	-0.377	NA
0.519587301587302	B5-03822-P01-CH0	73800	OK	0.2248518	0.0814275	0.0202785	-0.9707729	92.816	-6.893	-260.578	B5-03822-P02-CH0	73800	OK	0.6251438	0.2254948	-0.7472265	0	-71.149	-100.09	4.646	B5-03822-P02-CH1	73800	OK	0.6900515	-0.2224139	-0.6887387	0	-74.959	-78.659	1.416	B5-03822-P03-CH0	73800	OK	0.8465856	-0.5314865	-0.0285466	0	-95.253	-65.685	14.213	B5-03822-P03-CH1	73800	OK	0.7077821	-0.6997045	0.0972531	0	-100.535	-25.328	-8.034	B5-03822-P04-CH0	73800	OK	0.7552006	0.0529599	0.6533509	0	-120.742	-34.655	0.378	B5-03822-P04-CH1	73800	OK	0.708456	-0.7025742	0.06693	0	-111.626	-49.467	-0.65	NA
0.529579365079365	B5-03822-P01-CH0	73808	OK	0.2250958	0.0816348	0.0202754	-0.970699	92.919	-6.853	-260.534	B5-03822-P02-CH0	73808	OK	0.6271356	0.2303124	-0.7440814	0	-72.055	-100.157	4.543	B5-03822-P02-CH1	73808	OK	0.6913683	-0.2166294	-0.6892616	0	-75.109	-79.055	0.792	B5-03822-P03-CH0	73808	OK	0.8388124	-0.5426408	-0.043985	0	-94.441	-66.267	13.265	B5-03822-P03-CH1	73808	OK	0.7081745	-0.6989858	0.0995371	0	-100.16	-25.268	-7.873	B5-03822-P04-CH0	73808	OK	0.7572752	0.0474117	0.6513727	0	-120.901	-35.33	1.949	B5-03822-P04-CH1	73808	OK	0.7085538	-0.70256	0.066038	0	-111.567	-49.357	-0.599	NA
0.539571428571429	B5-03822-P01-CH0	73816	OK	0.2249688	0.0818402	0.0196782	-0.9707234	92.997	-6.832	-260.508	B5-03822-P02-CH0	73816	OK	0.6315274	0.2352271	-0.7388108	0	-72.092	-99.977	3.489	B5-03822-P02-CH1	73816	OK	0.6919834	-0.2099086	-0.6907223	0	-75.648	-78.696	0.547	B5-03822-P03-CH0	73816	OK	0.8328666	-0.549535	-0.0659124	0	-94.541	-65.56	13.225	B5-03822-P03-CH1	73816	OK	0.7084332	-0.6983274	0.1022804	0	-100.287	-25.493	-6.408	B5-03822-P04-CH0	73816	OK	0.7566441	0.0453297	0.6522538	0	-119.835	-35.166	2.886	B5-03822-P04-CH1	73816	OK	0.7080846	-0.7031546	0.0647289	0	-111.552	-49.236	-0.745	NA
0.549563492063492	B5-03822-P01-CH0	73824	OK	0.2251761	0.0817497	0.0198173	-0.9706802	93.017	-6.756	-260.519	B5-03822-P02-CH0	73824	OK	0.6345582	0.2407362	-0.7344262	0	-72.795	-100.361	3.557	B5-03822-P02-CH1	73824	OK	0.6932621	-0.2049265	-0.6909361	0	-75.88	-78.84	1.296	B5-03822-P03-CH0	73824	OK	0.8264806	-0.5570932	-0.081099	0	-94.391	-66.157	13	B5-03822-P03-CH1	73824	OK	0.7095231	-0.6972119	0.1023353	0	-100.655	-25.19	-8.233	B5-03822-P04-CH0	73824	OK	0.7539879	0.044469	0.6553814	0	-119.004	-34.451	0.644	B5-03822-P04-CH1	73824	OK	0.7081258	-0.7031967	0.063814	0	-111.453	-49.118	-1.036	NA
0.559555555555556	B5-03822-P01-CH0	73832	OK	0.2254086	0.0818432	0.0198306	-0.970618	93.119	-6.774	-260.411	B5-03822-P02-CH0	73832	OK	0.6350123	0.2460807	-0.7322593	0	-74.235	-100.345	5.077	B5-03822-P02-CH1	73832	OK	0.6944774	-0.2005648	-0.6909956	0	-76.249	-78.07	2.097	B5-03822-P03-CH0	73832	OK	0.8235393	-0.5594442	-0.0938357	0	-95.088	-65.647	12.146	B5-03822-P03-CH1	73832	OK	0.7106623	-0.6958005	0.1040228	0	-100.287	-25.68	-7.759	B5-03822-P04-CH0	73832	OK	0.7553363	0.0481185	0.6535684	0	-120.526	-35.02	1.631	B5-03822-P04-CH1	73832	OK	0.7080641	-0.7033199	0.0631379	0	-111.407	-49.161	-1.206	NA
0.569547619047619	B5-03822-P01-CH0	73840	OK	0.2254909	0.08185	0.0196641	-0.9706018	93.132	-6.714	-260.408	B5-03822-P02-CH0	73840	OK	0.6362531	0.2488129	-0.7302562	0	-74.927	-100.006	5.037	B5-03822-P02-CH1	73840	OK	0.6962892	-0.1960734	-0.6904612	0	-76.083	-78.228	1.983	B5-03822-P03-CH0	73840	OK	0.8220244	-0.5602624	-0.1018913	0	-95.744	-64.77	12.353	B5-03822-P03-CH1	73840	OK	0.7131712	-0.6933854	0.1029732	0	-100.654	-25.319	-7.295	B5-03822-P04-CH0	73840	OK	0.7543889	0.0541475	0.6541907	0	-121.232	-36.202	2.925	B5-03822-P04-CH1	73840	OK	0.7078911	-0.7035647	0.0623449	0	-111.303	-49.021	-1.381	NA
0.579539682539683	B5-03822-P01-CH0	73848	OK	0.2256404	0.0816631	0.0198759	-0.9705784	93.131	-6.651	-260.466	B5-03822-P02-CH0	73848	OK	0.6386331	0.2497025	-0.7278712	0	-74.765	-99.98	5.092	B5-03822-P02-CH1	73848	OK	0.6959307	-0.1923898	-0.6918574	0	-77.076	-78.749	1.421	B5-03822-P03-CH0	73848	OK	0.8209048	-0.5617031	-0.1029803	0	-95.618	-64.486	11.923	B5-03822-P03-CH1	73848	OK	0.7149026	-0.691881	0.1010688	0	-100.454	-25.635	-8.514	B5-03822-P04-CH0	73848	OK	0.7512736	0.0606905	0.6571945	0	-121.362	-37.1	3.217	B5-03822-P04-CH1	73848	OK	0.7080315	-0.7034618	0.0619109	0	-111.276	-48.903	-1.277	NA
0.589531746031746	B5-03822-P01-CH0	73856	OK	0.2257147	0.0815112	0.0201908	-0.9705674	93.122	-6.564	-260.466	B5-03822-P02-CH0	73856	OK	0.6413226	0.2500667	-0.7253771	0	-74.463	-100.542	4.714	B5-03822-P02-CH1	73856	OK	0.697506	-0.1881062	-0.6914488	0	-76.879	-77.824	2.848	B5-03822-P03-CH0	73856	OK	0.8194226	-0.564364	-0.1001992	0	-94.9	-64.874	11.243	B5-03822-P03-CH1	73856	OK	0.7179841	-0.6890925	0.0982362	0	-99.99	-25.594	-6.115	B5-03822-P04-CH0	73856	OK	0.749645	0.0657376	0.6585673	0	-122.896	-37.435	3.224	B5-03822-P04-CH1	73856	OK	0.7083971	-0.7031452	0.0613215	0	-111.266	-48.614	-1.378	NA
0.59952380952381	B5-03822-P01-CH0	73864	OK	0.2258297	0.081532	0.020307	-0.9705365	93.176	-6.513	-260.448	B5-03822-P02-CH0	73864	OK	0.6420305	0.2517676	-0.7241615	0	-74.605	-100.962	4.687	B5-03822-P02-CH1	73864	OK	0.6968798	-0.1847771	-0.6929762	0	-77.111	-78.38	2.963	B5-03822-P03-CH0	73864	OK	0.8185391	-0.565203	-0.1026617	0	-95.525	-64.252	11.492	B5-03822-P03-CH1	73864	OK	0.719957	-0.686938	0.0988849	0	-100.193	-26.452	-5.09	B5-03822-P04-CH0	73864	OK	0.7478544	0.0730108	0.6598358	0	-123.687	-38.26	3.527	B5-03822-P04-CH1	73864	OK	0.7084917	-0.7030746	0.0610378	0	-111.408	-48.468	-1.692	NA
0.609515873015873	B5-03822-P01-CH0	73872	OK	0.2258792	0.0816554	0.0203507	-0.9705137	93.278	-6.442	-260.509	B5-03822-P02-CH0	73872	OK	0.6403912	0.2528496	-0.7252353	0	-74.395	-100.64	5.396	B5-03822-P02-CH1	73872	OK	0.6956137	-0.1814086	-0.6951349	0	-76.537	-78.103	2.586	B5-03822-P03-CH0	73872	OK	0.8159704	-0.5683532	-0.1056733	0	-94.867	-63.778	12.258	B5-03822-P03-CH1	73872	OK	0.722562	-0.6835069	0.1035493	0	-100.39	-26.706	-4.715	B5-03822-P04-CH0	73872	OK	0.7458937	0.0779044	0.6614934	0	-123.709	-37.571	3.345	B5-03822-P04-CH1	73872	OK	0.7083363	-0.7032188	0.0611808	0	-111.538	-48.494	-1.553	NA
0.619507936507937	B5-03822-P01-CH0	73880	OK	0.2258245	0.081647	0.0200968	-0.9705324	93.285	-6.465	-260.454	B5-03822-P02-CH0	73880	OK	0.6381287	0.2516158	-0.7276546	0	-74.124	-99.854	4.883	B5-03822-P02-CH1	73880	OK	0.6937545	-0.1797299	-0.6974252	0	-75.613	-77.361	2.804	B5-03822-P03-CH0	73880	OK	0.811377	-0.5747446	-0.1064706	0	-93.543	-63.889	11.199	B5-03822-P03-CH1	73880	OK	0.7235223	-0.6819516	0.1070396	0	-100.166	-27.666	-3.77	B5-03822-P04-CH0	73880	OK	0.7446418	0.0831309	0.6622672	0	-123.802	-37.953	2.645	B5-03822-P04-CH1	73880	OK	0.7079617	-0.7035872	0.0612803	0	-111.492	-48.532	-1.606	NA
0.6295	B5-03822-P01-CH0	73888	OK	0.2256724	0.0814361	0.0200587	-0.9705863	93.216	-6.468	-260.505	B5-03822-P02-CH0	73888	OK	0.6370614	0.2477285	-0.7299201	0	-73.548	-100.02	3.937	B5-03822-P02-CH1	73888	OK	0.6898427	-0.1809381	-0.700984	0	-76.072	-77.502	2.373	B5-03822-P03-CH0	73888	OK	0.8055091	-0.5821574	-0.11067	0	-93.754	-64.076	10.859	B5-03822-P03-CH1	73888	OK	0.7237482	-0.6816141	0.10766	0	-99.568	-28.192	-4.584	B5-03822-P04-CH0	73888	OK	0.7450716	0.083858	0.6616919	0	-124.602	-39.15	0.669	B5-03822-P04-CH1	73888	OK	0.7077297	-0.703806	0.0614477	0	-111.435	-48.539	-1.658	NA
0.639492063492064	B5-03822-P01-CH0	73896	OK	0.2256741	0.0814562	0.0201754	-0.9705818	93.216	-6.443	-260.5	B5-03822-P02-CH0	73896	OK	0.6370855	0.245665	-0.7305962	0	-72.739	-99.889	3.81	B5-03822-P02-CH1	73896	OK	0.6890606	-0.1821555	-0.7014377	0	-75.183	-77.473	2.75	B5-03822-P03-CH0	73896	OK	0.8009834	-0.5880204	-0.1125065	0	-93.273	-63.661	11.223	B5-03822-P03-CH1	73896	OK	0.7254177	-0.6798395	0.1076446	0	-99.247	-27.155	-5.559	B5-03822-P04-CH0	73896	OK	0.7466832	0.0819512	0.6601123	0	-124.876	-38.863	3.372	B5-03822-P04-CH1	73896	OK	0.7076147	-0.7038988	0.0617089	0	-111.44	-48.568	-1.658	NA
0.649484126984127	B5-03822-P01-CH0	73904	OK	0.2256684	0.0816139	0.0200857	-0.9705717	93.232	-6.431	-260.402	B5-03822-P02-CH0	73904	OK	0.6326035	0.2451934	-0.734638	0	-73.693	-98.603	4.703	B5-03822-P02-CH1	73904	OK	0.6876583	-0.1816324	-0.7029479	0	-75.06	-77.389	1.862	B5-03822-P03-CH0	73904	OK	0.796891	-0.5921712	-0.1195741	0	-93.723	-62.942	11.103	B5-03822-P03-CH1	73904	OK	0.7265605	-0.6784243	0.1088593	0	-100.224	-26.695	-6.209	B5-03822-P04-CH0	73904	OK	0.7472718	0.0810826	0.6595533	0	-125.411	-38.934	2.462	B5-03822-P04-CH1	73904	OK	0.7073668	-0.7041109	0.0621297	0	-111.483	-48.629	-1.72	NA
0.659476190476191	B5-03822-P01-CH0	73912	OK	0.2255997	0.0815701	0.0199449	-0.9705943	93.226	-6.412	-260.542	B5-03822-P02-CH0	73912	OK	0.6314045	0.243893	-0.736101	0	-73.32	-98.513	4.644	B5-03822-P02-CH1	73912	OK	0.6862008	-0.1807146	-0.7046068	0	-75.255	-77.107	1.565	B5-03822-P03-CH0	73912	OK	0.7922109	-0.5976637	-0.1232882	0	-93.754	-62.909	10.026	B5-03822-P03-CH1	73912	OK	0.7253066	-0.6792337	0.1121246	0	-100.395	-27.593	-6.607	B5-03822-P04-CH0	73912	OK	0.7475992	0.0771443	0.6596546	0	-125.015	-39.191	3.896	B5-03822-P04-CH1	73912	OK	0.7072167	-0.704246	0.0623065	0	-111.496	-48.58	-1.732	NA
0.669468253968254	B5-03822-P01-CH0	73920	OK	0.2256356	0.0814675	0.0199608	-0.9705942	93.164	-6.433	-260.516	B5-03822-P02-CH0	73920	OK	0.6310601	0.2419246	-0.7370452	0	-72.653	-98.349	3.595	B5-03822-P02-CH1	73920	OK	0.6865994	-0.1826153	-0.7037279	0	-74.747	-76.619	0.421	B5-03822-P03-CH0	73920	OK	0.7890123	-0.6015241	-0.1250136	0	-93.481	-62.472	9.474	B5-03822-P03-CH1	73920	OK	0.7252987	-0.6787449	0.1150964	0	-99.473	-27.502	-6.554	B5-03822-P04-CH0	73920	OK	0.7482467	0.0733775	0.6593501	0	-124.944	-38.628	4.171	B5-03822-P04-CH1	73920	OK	0.7070975	-0.7043416	0.062579	0	-111.326	-48.634	-1.883	NA
0.679460317460318	B5-03822-P01-CH0	73928	OK	0.2257456	0.0814899	0.020005	-0.9705659	93.138	-6.399	-260.572	B5-03822-P02-CH0	73928	OK	0.6274924	0.2426338	-0.7398528	0	-73.652	-97.498	4.625	B5-03822-P02-CH1	73928	OK	0.6862515	-0.1830998	-0.7039413	0	-74.568	-76.582	1.24	B5-03822-P03-CH0	73928	OK	0.7857232	-0.6054597	-0.1267184	0	-93.326	-62.183	10.004	B5-03822-P03-CH1	73928	OK	0.7253319	-0.6782063	0.1180247	0	-99.439	-27.565	-5.93	B5-03822-P04-CH0	73928	OK	0.7468949	0.0769406	0.6604757	0	-124.495	-38.407	2.637	B5-03822-P04-CH1	73928	OK	0.7070578	-0.7043624	0.0627928	0	-111.204	-48.598	-2.158	NA
0.689452380952381	B5-03822-P01-CH0	73936	OK	0.2257277	0.0814918	0.0198688	-0.9705727	93.114	-6.435	-260.559	B5-03822-P02-CH0	73936	OK	0.6283756	0.2418529	-0.7393587	0	-72.83	-97.579	4.475	B5-03822-P02-CH1	73936	OK	0.685791	-0.1841918	-0.7041051	0	-74.497	-76.296	1.264	B5-03822-P03-CH0	73936	OK	0.7826385	-0.6096908	-0.1255156	0	-92.253	-62.273	9.876	B5-03822-P03-CH1	73936	OK	0.724716	-0.680233	0.1098621	0	-99.744	-26.845	-7.25	B5-03822-P04-CH0	73936	OK	0.7466561	0.0765852	0.6607869	0	-124.297	-38.456	3.085	B5-03822-P04-CH1	73936	OK	0.7067499	-0.7046624	0.0628931	0	-111.064	-48.689	-2.335	NA
0.699444444444445	B5-03822-P01-CH0	73944	OK	0.2258226	0.0815819	0.0195036	-0.9705504	93.097	-6.468	-260.535	B5-03822-P02-CH0	73944	OK	0.6285686	0.2420254	-0.7391381	0	-72.524	-97.968	4.004	B5-03822-P02-CH1	73944	OK	0.684248	-0.1862573	-0.7050623	0	-74.871	-76.354	0.869	B5-03822-P03-CH0	73944	OK	0.7788408	-0.6137081	-0.1294962	0	-92.78	-62.308	9.067	B5-03822-P03-CH1	73944	OK	0.7249096	-0.6796154	0.112379	0	-99.619	-27.148	-6.651	B5-03822-P04-CH0	73944	OK	0.7469471	0.075451	0.6605885	0	-124.306	-38.477	3.243	B5-03822-P04-CH1	73944	OK	0.7062994	-0.7050925	0.0631332	0	-110.86	-48.828	-2.041	NA
0.709436507936508	B5-03822-P01-CH0	73952	OK	0.2258818	0.0812457	0.0201048	-0.9705526	93.013	-6.444	-260.557	B5-03822-P02-CH0	73952	OK	0.6265668	0.2421363	-0.7407996	0	-72.861	-97.043	4.107	B5-03822-P02-CH1	73952	OK	0.6844932	-0.1862476	-0.7048269	0	-74.411	-76.212	1.311	B5-03822-P03-CH0	73952	OK	0.7764823	-0.6154562	-0.1352363	0	-93.368	-61.671	9.178	B5-03822-P03-CH1	73952	OK	0.7255762	-0.6786468	0.1139198	0	-99.537	-27.18	-6.827	B5-03822-P04-CH0	73952	OK	0.749244	0.0629429	0.6592963	0	-124.118	-38.432	4.11	B5-03822-P04-CH1	73952	OK	0.7067445	-0.7046714	0.062853	0	-110.75	-48.701	-2.353	NA
0.719428571428572	B5-03822-P01-CH0	73960	OK	0.226008	0.0811729	0.0202695	-0.9705259	93.003	-6.409	-260.662	B5-03822-P02-CH0	73960	OK	0.6282854	0.2415962	-0.7395193	0	-72.031	-98.079	4.146	B5-03822-P02-CH1	73960	OK	0.6838634	-0.1871497	-0.7051991	0	-74.634	-76.978	0.479	B5-03822-P03-CH0	73960	OK	0.7739967	-0.6179997	-0.1378603	0	-93.128	-61.509	8.721	B5-03822-P03-CH1	73960	OK	0.7259283	-0.6780047	0.1154896	0	-99.485	-27.095	-6.819	B5-03822-P04-CH0	73960	OK	0.7478029	0.0619594	0.6610233	0	-122.999	-38.54	2.97	B5-03822-P04-CH1	73960	OK	0.7068627	-0.7045678	0.0626846	0	-110.716	-48.616	-2.269	NA
0.729420634920635	B5-03822-P01-CH0	73968	OK	0.2264253	0.0812918	0.0208034	-0.9704074	93.075	-6.286	-260.701	B5-03822-P02-CH0	73968	OK	0.6286691	0.2400659	-0.7396915	0	-71.272	-97.727	4.265	B5-03822-P02-CH1	73968	OK	0.6845236	-0.1887993	-0.704118	0	-74.26	-75.984	1.293	B5-03822-P03-CH0	73968	OK	0.7710243	-0.6210202	-0.1409094	0	-93.667	-61.74	8.345	B5-03822-P03-CH1	73968	OK	0.7265285	-0.6770248	0.1174471	0	-99.719	-27.061	-6.46	B5-03822-P04-CH0	73968	OK	0.7497838	0.0609847	0.6588666	0	-123.582	-38.303	3.848	B5-03822-P04-CH1	73968	OK	0.7073293	-0.7041024	0.0626503	0	-110.714	-48.473	-2.145	NA
0.739412698412699	B5-03822-P01-CH0	73976	OK	0.2265185	0.0812828	0.0206936	-0.9703887	93.092	-6.312	-260.671	B5-03822-P02-CH0	73976	OK	0.6270602	0.2408515	-0.7408009	0	-72.138	-97.943	4.446	B5-03822-P02-CH1	73976	OK	0.6847669	-0.1861283	-0.7045924	0	-74.754	-76.519	1.877	B5-03822-P03-CH0	73976	OK	0.7694429	-0.6229894	-0.1408612	0	-92.737	-61.522	8.291	B5-03822-P03-CH1	73976	OK	0.7262323	-0.6770305	0.119232	0	-99.724	-27.31	-6.364	B5-03822-P04-CH0	73976	OK	0.7506188	0.0598237	0.6580217	0	-123.593	-38.514	4.129	B5-03822-P04-CH1	73976	OK	0.7072647	-0.7041891	0.062404	0	-110.705	-48.457	-2.234	NA
0.749404761904762	B5-03822-P01-CH0	73984	OK	0.2264844	0.0813523	0.0204947	-0.9703951	93.143	-6.295	-260.818	B5-03822-P02-CH0	73984	OK	0.6279903	0.2413938	-0.739836	0	-72.527	-98.005	4.787	B5-03822-P02-CH1	73984	OK	0.6844603	-0.1872504	-0.7045931	0	-74.675	-76.383	1.876	B5-03822-P03-CH0	73984	OK	0.7677489	-0.6251457	-0.1405508	0	-92.314	-61.127	8.007	B5-03822-P03-CH1	73984	OK	0.7260345	-0.6770061	0.1205678	0	-99.583	-27.317	-6.194	B5-03822-P04-CH0	73984	OK	0.7487776	0.0653421	0.6595927	0	-123.682	-38.511	4.523	B5-03822-P04-CH1	73984	OK	0.7071683	-0.7043252	0.0619593	0	-110.561	-48.388	-1.787	NA
0.759396825396826	B5-03822-P01-CH0	73992	OK	0.2264547	0.0814597	0.0203195	-0.9703967	93.174	-6.248	-260.83	B5-03822-P02-CH0	73992	OK	0.6273373	0.241242	-0.7404392	0	-72.533	-97.622	4.798	B5-03822-P02-CH1	73992	OK	0.6839259	-0.1883137	-0.7048286	0	-74.787	-76.065	1.875	B5-03822-P03-CH0	73992	OK	0.7668774	-0.62628	-0.1402584	0	-92.03	-60.715	8.722	B5-03822-P03-CH1	73992	OK	0.7259405	-0.6769044	0.1216994	0	-99.673	-27.241	-6.073	B5-03822-P04-CH0	73992	OK	0.7490613	0.0634734	0.659453	0	-123.624	-38.407	4.3	B5-03822-P04-CH1	73992	OK	0.7070502	-0.7044925	0.0614027	0	-110.594	-48.268	-1.669	NA
0.769388888888889	B5-03822-P01-CH0	74000	OK	0.2267214	0.081624	0.0205038	-0.9703167	93.273	-6.175	-260.947	B5-03822-P02-CH0	74000	OK	0.6270786	0.2408816	-0.7407756	0	-72.409	-97.586	4.838	B5-03822-P02-CH1	74000	OK	0.6837864	-0.1898558	-0.7045502	0	-74.719	-75.966	1.935	B5-03822-P03-CH0	74000	OK	0.7664185	-0.6271816	-0.1387293	0	-91.965	-60.64	8.929	B5-03822-P03-CH1	74000	OK	0.7261055	-0.676505	0.1229297	0	-99.801	-27.243	-5.588	B5-03822-P04-CH0	74000	OK	0.7492039	0.0623303	0.6594001	0	-123.526	-38.36	4.097	B5-03822-P04-CH1	74000	OK	0.7072259	-0.7043456	0.0610646	0	-110.691	-48.174	-1.703	NA
0.779380952380953	B5-03822-P01-CH0	74008	OK	0.2267117	0.0817276	0.0204867	-0.9703106	93.365	-6.194	-260.993	B5-03822-P02-CH0	74008	OK	0.6269464	0.2411113	-0.7408127	0	-72.275	-97.441	4.886	B5-03822-P02-CH1	74008	OK	0.6835437	-0.1907184	-0.7045527	0	-74.81	-75.83	2.018	B5-03822-P03-CH0	74008	OK	0.7654259	-0.6286317	-0.1376424	0	-91.944	-60.936	8.281	B5-03822-P03-CH1	74008	OK	0.7259973	-0.6764672	0.1237743	0	-99.925	-27.369	-5.246	B5-03822-P04-CH0	74008	OK	0.7496266	0.06099	0.6590449	0	-123.584	-38.32	4.138	B5-03822-P04-CH1	74008	OK	0.7071479	-0.7044607	0.0606372	0	-110.74	-48.205	-1.572	NA
0.789373015873016	B5-03822-P01-CH0	74016	OK	0.2267742	0.0815185	0.0206559	-0.97031	93.324	-6.166	-261.044	B5-03822-P02-CH0	74016	OK	0.6266372	0.2415127	-0.7409436	0	-72.253	-97.21	4.954	B5-03822-P02-CH1	74016	OK	0.6838199	-0.1913947	-0.7041011	0	-74.71	-75.601	1.997	B5-03822-P03-CH0	74016	OK	0.7653005	-0.62858	-0.1385723	0	-91.926	-60.803	7.802	B5-03822-P03-CH1	74016	OK	0.7259882	-0.6763436	0.1245012	0	-99.888	-27.397	-4.919	B5-03822-P04-CH0	74016	OK	0.7496484	0.0601037	0.6591015	0	-123.446	-38.299	4.055	B5-03822-P04-CH1	74016	OK	0.7072373	-0.7044145	0.0601291	0	-110.78	-48.149	-1.421	NA
0.799365079365079	B5-03822-P01-CH0	74024	OK	0.2268297	0.0814006	0.0210791	-0.9702978	93.313	-6.085	-261.095	B5-03822-P02-CH0	74024	OK	0.6263841	0.2420299	-0.7409889	0	-72.252	-97.006	4.928	B5-03822-P02-CH1	74024	OK	0.6841608	-0.1919329	-0.7036233	0	-74.671	-75.459	1.765	B5-03822-P03-CH0	74024	OK	0.7649013	-0.6288462	-0.1395653	0	-92.41	-60.796	8.144	B5-03822-P03-CH1	74024	OK	0.7260803	-0.6761054	0.1252555	0	-99.989	-27.371	-4.783	B5-03822-P04-CH0	74024	OK	0.7497499	0.0593721	0.6590524	0	-123.348	-38.263	4.009	B5-03822-P04-CH1	74024	OK	0.7074389	-0.7042587	0.0595812	0	-110.819	-48.073	-1.507	NA
