Wav.Time	B5.03822.P01.CH0	Frame	State	Q0	Qx	Qy	Qz	Tx	Ty	Tz	B5.03822.P02.CH0	Frame.1	State.1	Q0.1	Qx.1	Qy.1	Qz.1	Tx.1	Ty.1	Tz.1	B5.03822.P02.CH1	Frame.2	State.2	Q0.2	Qx.2	Qy.2	Qz.2	Tx.2	Ty.2	Tz.2	B5.03822.P03.CH0	Frame.3	State.3	Q0.3	Qx.3	Qy.3	Qz.3	Tx.3	Ty.3	Tz.3	B5.03822.P03.CH1	Frame.4	State.4	Q0.4	Qx.4	Qy.4	Qz.4	Tx.4	Ty.4	Tz.4	B5.03822.P04.CH0	Frame.5	State.5	Q0.5	Qx.5	Qy.5	Qz.5	Tx.5	Ty.5	Tz.5	B5.03822.P04.CH1	Frame.6	State.6	Q0.6	Qx.6	Qy.6	Qz.6	Tx.6	Ty.6	Tz.6	X
0	B5-03822-P01-CH0	44256	OK	0.2198045	0.0789791	0.0234551	-0.9720587	93.987	-9.057	-263.737	B5-03822-P02-CH0	44256	OK	0.7337985	0.2100511	-0.6460791	0	-81.516	-94.591	3.6	B5-03822-P02-CH1	44256	OK	0.7349258	-0.0827584	-0.6730788	0	-79.369	-72.192	3.971	B5-03822-P03-CH0	44256	OK	0.6605834	-0.6338815	-0.4022733	0	-87.648	-55.436	-1.04	B5-03822-P03-CH1	44256	OK	0.7159701	-0.6742436	0.1810592	0	-99.016	-26.395	-7.755	B5-03822-P04-CH0	44256	OK	0.738346	0.0491903	0.6726258	0	-123.312	-36.831	2.477	B5-03822-P04-CH1	44256	OK	0.7062456	-0.7064722	0.0459804	0	-109.539	-46.253	-3.426	NA
0.00999219359875098	B5-03822-P01-CH0	44264	OK	0.2195856	0.0790704	0.0236273	-0.9720966	93.983	-9.037	-263.724	B5-03822-P02-CH0	44264	OK	0.7357307	0.2101508	-0.6438455	0	-81.634	-93.913	3.259	B5-03822-P02-CH1	44264	OK	0.7375013	-0.0776561	-0.6708662	0	-79.745	-71.689	4.531	B5-03822-P03-CH0	44264	OK	0.6590478	-0.631937	-0.4078132	0	-88.883	-54.985	-0.562	B5-03822-P03-CH1	44264	OK	0.7160336	-0.6742295	0.1808604	0	-99.049	-26.471	-7.82	B5-03822-P04-CH0	44264	OK	0.7382153	0.0496954	0.6727321	0	-123.374	-36.705	2.263	B5-03822-P04-CH1	44264	OK	0.706349	-0.7064317	0.0450042	0	-109.621	-46.072	-3.461	NA
0.019984387197502	B5-03822-P01-CH0	44272	OK	0.2193124	0.0790927	0.0234895	-0.9721598	93.936	-9.112	-263.659	B5-03822-P02-CH0	44272	OK	0.7376114	0.2072779	-0.6426238	0	-81.772	-94.549	2.99	B5-03822-P02-CH1	44272	OK	0.7387395	-0.0774755	-0.6695234	0	-79.987	-71.265	5.496	B5-03822-P03-CH0	44272	OK	0.6576864	-0.6302423	-0.4126056	0	-88.902	-55.361	-1.077	B5-03822-P03-CH1	44272	OK	0.7162459	-0.6741152	0.1804453	0	-99.085	-26.331	-7.849	B5-03822-P04-CH0	44272	OK	0.7380738	0.0505643	0.6728227	0	-123.341	-36.823	2.317	B5-03822-P04-CH1	44272	OK	0.7062427	-0.7065905	0.0441714	0	-109.668	-45.97	-3.697	NA
0.0299765807962529	B5-03822-P01-CH0	44280	OK	0.2190617	0.0792274	0.023244	-0.9722112	93.954	-9.127	-263.698	B5-03822-P02-CH0	44280	OK	0.7369857	0.2082838	-0.6430163	0	-82.271	-93.799	3.887	B5-03822-P02-CH1	44280	OK	0.7387758	-0.0790766	-0.669296	0	-80.251	-71.487	4.455	B5-03822-P03-CH0	44280	OK	0.6566748	-0.6300496	-0.4145066	0	-88.535	-55.229	-0.932	B5-03822-P03-CH1	44280	OK	0.7161044	-0.6743414	0.1801618	0	-99.145	-26.382	-7.872	B5-03822-P04-CH0	44280	OK	0.7379138	0.0508122	0.6729794	0	-123.41	-36.605	2.284	B5-03822-P04-CH1	44280	OK	0.7058893	-0.7069896	0.0434285	0	-109.775	-45.915	-3.748	NA
0.0399687743950039	B5-03822-P01-CH0	44288	OK	0.2188505	0.0792277	0.0231261	-0.9722616	93.915	-9.158	-263.703	B5-03822-P02-CH0	44288	OK	0.7370905	0.2109186	-0.6420365	0	-82.107	-94.005	2.329	B5-03822-P02-CH1	44288	OK	0.7366701	-0.0841622	-0.6709947	0	-80.56	-72.25	4.559	B5-03822-P03-CH0	44288	OK	0.6554442	-0.6313305	-0.4145054	0	-89.343	-54.805	-1.69	B5-03822-P03-CH1	44288	OK	0.7160398	-0.6744368	0.1800611	0	-99.048	-26.426	-7.846	B5-03822-P04-CH0	44288	OK	0.7376247	0.0513898	0.6732525	0	-123.357	-36.608	2.281	B5-03822-P04-CH1	44288	OK	0.7057278	-0.7071875	0.0428269	0	-109.884	-45.879	-3.609	NA
0.0499609679937549	B5-03822-P01-CH0	44296	OK	0.2186063	0.0792935	0.0231599	-0.9723104	93.878	-9.183	-263.623	B5-03822-P02-CH0	44296	OK	0.7380251	0.2137949	-0.6400084	0	-80.74	-94.582	0.697	B5-03822-P02-CH1	44296	OK	0.7351465	-0.086161	-0.6724105	0	-80.024	-71.757	5.052	B5-03822-P03-CH0	44296	OK	0.6554917	-0.6350539	-0.4087018	0	-89.278	-54.781	-3.221	B5-03822-P03-CH1	44296	OK	0.7160704	-0.6743828	0.1801416	0	-99.002	-26.598	-7.345	B5-03822-P04-CH0	44296	OK	0.7375506	0.0520101	0.673286	0	-123.477	-36.677	2.19	B5-03822-P04-CH1	44296	OK	0.7056269	-0.7073208	0.0422855	0	-109.821	-45.817	-3.911	NA
0.0599531615925059	B5-03822-P01-CH0	44304	OK	0.2184877	0.0795596	0.0227578	-0.9723248	93.915	-9.258	-263.535	B5-03822-P02-CH0	44304	OK	0.7358688	0.215838	-0.641803	0	-80.539	-94.561	1.236	B5-03822-P02-CH1	44304	OK	0.7327431	-0.0872102	-0.6748941	0	-80.019	-71.799	4.311	B5-03822-P03-CH0	44304	OK	0.6560851	-0.6389009	-0.4016939	0	-89.025	-54.964	-1.541	B5-03822-P03-CH1	44304	OK	0.7159102	-0.6745316	0.1802209	0	-99.005	-26.751	-7.145	B5-03822-P04-CH0	44304	OK	0.7374825	0.0527786	0.6733008	0	-123.601	-36.755	2.097	B5-03822-P04-CH1	44304	OK	0.7053745	-0.7075785	0.0421832	0	-109.977	-45.803	-3.898	NA
0.0699453551912568	B5-03822-P01-CH0	44312	OK	0.2178961	0.0797256	0.0220759	-0.9724596	93.915	-9.342	-263.437	B5-03822-P02-CH0	44312	OK	0.7301177	0.2179255	-0.6476393	0	-82.402	-94.075	4.494	B5-03822-P02-CH1	44312	OK	0.7324295	-0.0870072	-0.6752605	0	-79.551	-71.602	4.46	B5-03822-P03-CH0	44312	OK	0.6571661	-0.640546	-0.3972827	0	-89.43	-54.963	-0.715	B5-03822-P03-CH1	44312	OK	0.7157526	-0.6748817	0.1795352	0	-99.007	-26.618	-7.177	B5-03822-P04-CH0	44312	OK	0.7374325	0.0530962	0.6733305	0	-123.813	-36.792	1.887	B5-03822-P04-CH1	44312	OK	0.7049219	-0.7080838	0.0412608	0	-110.043	-45.66	-3.832	NA
0.0799375487900078	B5-03822-P01-CH0	44320	OK	0.2176965	0.079831	0.0219677	-0.9724982	93.937	-9.388	-263.523	B5-03822-P02-CH0	44320	OK	0.7303337	0.2184852	-0.647207	0	-81.15	-94.525	2.191	B5-03822-P02-CH1	44320	OK	0.7325676	-0.0883608	-0.6749349	0	-79.864	-72.729	3.615	B5-03822-P03-CH0	44320	OK	0.6601672	-0.641614	-0.3905263	0	-89.596	-55.304	-1.917	B5-03822-P03-CH1	44320	OK	0.7158274	-0.674772	0.1796494	0	-99.168	-26.779	-6.933	B5-03822-P04-CH0	44320	OK	0.7374302	0.0540367	0.6732583	0	-124.03	-36.938	1.922	B5-03822-P04-CH1	44320	OK	0.7047953	-0.7082147	0.0411755	0	-110.058	-45.637	-3.725	NA
0.0899297423887588	B5-03822-P01-CH0	44328	OK	0.21753	0.0797146	0.0219147	-0.9725462	93.858	-9.426	-263.495	B5-03822-P02-CH0	44328	OK	0.7269916	0.2169136	-0.6514842	0	-81.155	-94.652	4.368	B5-03822-P02-CH1	44328	OK	0.7344281	-0.089161	-0.6728044	0	-80.023	-72.529	5.408	B5-03822-P03-CH0	44328	OK	0.6657557	-0.641354	-0.3813586	0	-89.085	-56.017	-0.636	B5-03822-P03-CH1	44328	OK	0.7159321	-0.6748318	0.1790062	0	-99.215	-26.699	-7.391	B5-03822-P04-CH0	44328	OK	0.7374584	0.0545862	0.673183	0	-124.211	-36.993	2.016	B5-03822-P04-CH1	44328	OK	0.7047384	-0.7082665	0.0412593	0	-110.055	-45.579	-3.734	NA
0.0999219359875098	B5-03822-P01-CH0	44336	OK	0.2173251	0.0797147	0.0216772	-0.9725973	93.771	-9.464	-263.493	B5-03822-P02-CH0	44336	OK	0.7248695	0.2154027	-0.6543439	0	-80.962	-94.486	3.013	B5-03822-P02-CH1	44336	OK	0.736299	-0.0883877	-0.6708588	0	-80.832	-72.636	5.917	B5-03822-P03-CH0	44336	OK	0.6752564	-0.6423518	-0.3625093	0	-90.318	-56.194	-1.352	B5-03822-P03-CH1	44336	OK	0.7159547	-0.6748395	0.1788869	0	-99.176	-26.682	-7.221	B5-03822-P04-CH0	44336	OK	0.7373733	0.0551698	0.6732287	0	-124.368	-37.035	1.892	B5-03822-P04-CH1	44336	OK	0.7043602	-0.7086218	0.0416164	0	-110.201	-45.665	-3.718	NA
0.109914129586261	B5-03822-P01-CH0	44344	OK	0.2171855	0.0797043	0.0214274	-0.9726349	93.754	-9.561	-263.545	B5-03822-P02-CH0	44344	OK	0.7215558	0.2149482	-0.6581448	0	-81.023	-93.995	3.476	B5-03822-P02-CH1	44344	OK	0.7381865	-0.0906124	-0.6684834	0	-81.234	-73.194	5.354	B5-03822-P03-CH0	44344	OK	0.688661	-0.649805	-0.3217134	0	-90.778	-57.376	-0.042	B5-03822-P03-CH1	44344	OK	0.7159374	-0.6748717	0.1788347	0	-99.128	-26.694	-7.241	B5-03822-P04-CH0	44344	OK	0.737632	0.0558068	0.6728927	0	-124.588	-37.282	2.221	B5-03822-P04-CH1	44344	OK	0.7040562	-0.7088834	0.0422988	0	-110.211	-45.824	-3.959	NA
0.119906323185012	B5-03822-P01-CH0	44352	OK	0.2173488	0.0796788	0.021565	-0.9725974	93.746	-9.595	-263.557	B5-03822-P02-CH0	44352	OK	0.7189029	0.2096382	-0.6627446	0	-80.599	-94.944	2.405	B5-03822-P02-CH1	44352	OK	0.739111	-0.0957368	-0.6667454	0	-81.187	-73.759	5.214	B5-03822-P03-CH0	44352	OK	0.7019115	-0.6547054	-0.2805015	0	-91.377	-58.021	0.311	B5-03822-P03-CH1	44352	OK	0.7160883	-0.674626	0.1791574	0	-99.186	-26.819	-7.261	B5-03822-P04-CH0	44352	OK	0.7377833	0.0571318	0.6726156	0	-124.901	-37.509	2.089	B5-03822-P04-CH1	44352	OK	0.704094	-0.7087643	0.0436439	0	-110.206	-45.986	-3.976	NA
0.129898516783763	B5-03822-P01-CH0	44360	OK	0.2173867	0.0796726	0.0217216	-0.972586	93.675	-9.621	-263.443	B5-03822-P02-CH0	44360	OK	0.7159889	0.2049972	-0.667335	0	-79.979	-95.295	1.724	B5-03822-P02-CH1	44360	OK	0.7401518	-0.1017904	-0.664691	0	-81.466	-74.096	4.767	B5-03822-P03-CH0	44360	OK	0.7148089	-0.6597944	-0.2317748	0	-91.824	-57.607	2.49	B5-03822-P03-CH1	44360	OK	0.7161756	-0.6744398	0.179509	0	-99.153	-26.916	-7.39	B5-03822-P04-CH0	44360	OK	0.7379191	0.0588504	0.6723184	0	-125.105	-37.877	2.09	B5-03822-P04-CH1	44360	OK	0.7041985	-0.7085594	0.0452555	0	-110.335	-46.15	-4.034	NA
0.139890710382514	B5-03822-P01-CH0	44368	OK	0.2173641	0.0795823	0.0218221	-0.9725962	93.605	-9.64	-263.347	B5-03822-P02-CH0	44368	OK	0.7112441	0.1990887	-0.6741628	0	-79.979	-95.424	3.632	B5-03822-P02-CH1	44368	OK	0.7410907	-0.1083251	-0.6626086	0	-81.596	-73.925	5.435	B5-03822-P03-CH0	44368	OK	0.7216726	-0.6667968	-0.1859317	0	-93.157	-58.322	3.555	B5-03822-P03-CH1	44368	OK	0.7164008	-0.6741092	0.1798521	0	-99.255	-26.975	-7.285	B5-03822-P04-CH0	44368	OK	0.738286	0.0604056	0.6717774	0	-125.464	-38.069	2.241	B5-03822-P04-CH1	44368	OK	0.7043237	-0.708295	0.0473956	0	-110.459	-46.28	-4.271	NA
0.149882903981265	B5-03822-P01-CH0	44376	OK	0.2173801	0.0798933	0.0216819	-0.9725702	93.714	-9.68	-263.364	B5-03822-P02-CH0	44376	OK	0.7083427	0.1936629	-0.6787822	0	-79.294	-96.037	1.962	B5-03822-P02-CH1	44376	OK	0.7404322	-0.1149525	-0.6622281	0	-81.821	-73.966	5.874	B5-03822-P03-CH0	44376	OK	0.7255708	-0.673226	-0.142526	0	-92.283	-60.565	3.817	B5-03822-P03-CH1	44376	OK	0.7165835	-0.6739033	0.1798956	0	-99.45	-26.929	-7.511	B5-03822-P04-CH0	44376	OK	0.7388571	0.062381	0.6709686	0	-125.906	-38.493	2.751	B5-03822-P04-CH1	44376	OK	0.7043351	-0.7081104	0.0499171	0	-110.946	-46.581	-3.909	NA
0.159875097580016	B5-03822-P01-CH0	44384	OK	0.2173374	0.0798654	0.0218887	-0.9725774	93.702	-9.659	-263.403	B5-03822-P02-CH0	44384	OK	0.7045263	0.1884397	-0.6842026	0	-78.843	-96.578	2.579	B5-03822-P02-CH1	44384	OK	0.7379554	-0.1181313	-0.6644297	0	-82.659	-74.513	6.121	B5-03822-P03-CH0	44384	OK	0.7307122	-0.6732563	-0.1130736	0	-94.041	-60.898	4.247	B5-03822-P03-CH1	44384	OK	0.7168528	-0.6735459	0.1801608	0	-99.473	-26.921	-7.288	B5-03822-P04-CH0	44384	OK	0.7394239	0.0640197	0.6701894	0	-126.397	-38.786	2.997	B5-03822-P04-CH1	44384	OK	0.7046308	-0.7076553	0.0521476	0	-111.212	-46.696	-4.02	NA
0.169867291178767	B5-03822-P01-CH0	44392	OK	0.2172028	0.0799167	0.0217388	-0.9726067	93.649	-9.741	-263.326	B5-03822-P02-CH0	44392	OK	0.700921	0.1846968	-0.6889099	0	-78.733	-97.316	2.745	B5-03822-P02-CH1	44392	OK	0.7366481	-0.1219236	-0.6651949	0	-82.22	-75.41	5.572	B5-03822-P03-CH0	44392	OK	0.7353995	-0.6713956	-0.0917359	0	-94.847	-60.673	5.291	B5-03822-P03-CH1	44392	OK	0.716846	-0.6734915	0.1803915	0	-99.45	-26.998	-7.436	B5-03822-P04-CH0	44392	OK	0.7396257	0.0656619	0.6698077	0	-126.629	-39.181	3.161	B5-03822-P04-CH1	44392	OK	0.705661	-0.7050365	0.07047	0	-112.713	-48.689	-2.076	NA
0.179859484777518	B5-03822-P01-CH0	44400	OK	0.2174692	0.0799879	0.0223525	-0.9725274	93.598	-9.674	-263.224	B5-03822-P02-CH0	44400	OK	0.6982915	0.1830371	-0.6920162	0	-78.411	-97.354	1.025	B5-03822-P02-CH1	44400	OK	0.7356464	-0.1245353	-0.6658193	0	-81.692	-75.48	4.566	B5-03822-P03-CH0	44400	OK	0.737907	-0.6705747	-0.0763073	0	-94.299	-61.504	4.432	B5-03822-P03-CH1	44400	OK	0.7174829	-0.6727157	0.1807538	0	-99.346	-26.873	-7.348	B5-03822-P04-CH0	44400	OK	0.739932	0.0677014	0.6692662	0	-126.944	-39.497	3.221	B5-03822-P04-CH1	44400	OK	0.7045703	-0.705787	0.0737925	0	-112.992	-50.002	-3.728	NA
0.189851678376269	B5-03822-P01-CH0	44408	OK	0.2171276	0.0801787	0.0224729	-0.9725852	93.616	-9.656	-263.189	B5-03822-P02-CH0	44408	OK	0.6947923	0.1826351	-0.695635	0	-79.277	-97.459	2.354	B5-03822-P02-CH1	44408	OK	0.7328475	-0.1261154	-0.6686026	0	-82.7	-75.755	5.695	B5-03822-P03-CH0	44408	OK	0.7393307	-0.6689953	-0.0763893	0	-95.368	-61.652	4.846	B5-03822-P03-CH1	44408	OK	0.7177722	-0.6723686	0.1808966	0	-99.478	-26.853	-6.951	B5-03822-P04-CH0	44408	OK	0.7402288	0.0689959	0.6688056	0	-127.323	-39.715	3.195	B5-03822-P04-CH1	44408	OK	0.7059503	-0.7043779	0.0740666	0	-113.412	-49.445	-1.118	NA
0.19984387197502	B5-03822-P01-CH0	44416	OK	0.2170232	0.0802465	0.0225057	-0.9726021	93.629	-9.682	-263.206	B5-03822-P02-CH0	44416	OK	0.6945815	0.1799531	-0.696544	0	-78.915	-97.878	1.898	B5-03822-P02-CH1	44416	OK	0.7338257	-0.1292666	-0.6669258	0	-82.043	-75.607	4.275	B5-03822-P03-CH0	44416	OK	0.7409644	-0.6669456	-0.078456	0	-95.563	-61.901	5.38	B5-03822-P03-CH1	44416	OK	0.7177298	-0.6722606	0.1814652	0	-99.589	-27.045	-6.661	B5-03822-P04-CH0	44416	OK	0.7406385	0.0703535	0.6682103	0	-127.654	-40.072	3.44	B5-03822-P04-CH1	44416	OK	0.7056788	-0.7044184	0.0762373	0	-113.353	-49.909	-1.055	NA
0.209836065573771	B5-03822-P01-CH0	44424	OK	0.2170768	0.0801674	0.0227842	-0.9725902	93.538	-9.683	-263.158	B5-03822-P02-CH0	44424	OK	0.694518	0.1770809	-0.6973429	0	-78.781	-97.62	2.803	B5-03822-P02-CH1	44424	OK	0.7319541	-0.1323774	-0.6683707	0	-82.453	-76.289	4.984	B5-03822-P03-CH0	44424	OK	0.7418121	-0.6657619	-0.0804732	0	-94.965	-62.529	5.218	B5-03822-P03-CH1	44424	OK	0.7179447	-0.6718926	0.1819775	0	-99.626	-27.063	-6.711	B5-03822-P04-CH0	44424	OK	0.7406807	0.0720926	0.6679781	0	-127.787	-40.467	3.407	B5-03822-P04-CH1	44424	OK	0.7057255	-0.7052928	0.0671828	0	-112.737	-48.405	-3.421	NA
0.219828259172521	B5-03822-P01-CH0	44432	OK	0.2167995	0.0801924	0.0226713	-0.9726527	93.5	-9.716	-263.121	B5-03822-P02-CH0	44432	OK	0.696029	0.1760046	-0.6961078	0	-78.657	-97.659	3.59	B5-03822-P02-CH1	44432	OK	0.7309068	-0.1363774	-0.6687125	0	-82.92	-76.393	4.54	B5-03822-P03-CH0	44432	OK	0.74271	-0.6635695	-0.089763	0	-96.191	-62.112	6.454	B5-03822-P03-CH1	44432	OK	0.717692	-0.6720532	0.1823808	0	-99.569	-27.171	-6.4	B5-03822-P04-CH0	44432	OK	0.7408125	0.0729372	0.6677402	0	-127.843	-40.652	3.806	B5-03822-P04-CH1	44432	OK	0.7059332	-0.7049023	0.0690725	0	-113.121	-48.556	-3.337	NA
0.229820452771272	B5-03822-P01-CH0	44440	OK	0.2164219	0.0801468	0.0225098	-0.9727442	93.485	-9.788	-263.161	B5-03822-P02-CH0	44440	OK	0.6970471	0.1781226	-0.6945486	0	-79.317	-97.906	2.848	B5-03822-P02-CH1	44440	OK	0.7310089	-0.1373057	-0.6684109	0	-82.82	-76.566	4.447	B5-03822-P03-CH0	44440	OK	0.7423157	-0.6627402	-0.098706	0	-96.536	-62.286	5.122	B5-03822-P03-CH1	44440	OK	0.71748	-0.672286	0.1823566	0	-99.672	-27.174	-6.025	B5-03822-P04-CH0	44440	OK	0.7407685	0.0732218	0.6677578	0	-127.936	-40.747	3.795	B5-03822-P04-CH1	44440	OK	0.7060245	-0.70466	0.0705953	0	-113.354	-48.749	-3.074	NA
0.239812646370023	B5-03822-P01-CH0	44448	OK	0.2164062	0.0801472	0.0223838	-0.9727506	93.464	-9.857	-263.214	B5-03822-P02-CH0	44448	OK	0.6973733	0.1794899	-0.6938687	0	-79.708	-97.724	3.463	B5-03822-P02-CH1	44448	OK	0.7302991	-0.1361708	-0.6694182	0	-83.066	-76.97	4.095	B5-03822-P03-CH0	44448	OK	0.7421276	-0.6616286	-0.1072112	0	-96.238	-62.436	5.671	B5-03822-P03-CH1	44448	OK	0.7170424	-0.6727103	0.1825131	0	-99.622	-27.218	-5.992	B5-03822-P04-CH0	44448	OK	0.7406014	0.073705	0.6678901	0	-127.878	-40.915	3.776	B5-03822-P04-CH1	44448	OK	0.7059652	-0.7045614	0.0721556	0	-113.419	-49.067	-2.579	NA
0.249804839968774	B5-03822-P01-CH0	44456	OK	0.2164064	0.0801753	0.022551	-0.9727444	93.435	-9.838	-263.193	B5-03822-P02-CH0	44456	OK	0.6997488	0.1791558	-0.6915597	0	-78.941	-99.023	1.899	B5-03822-P02-CH1	44456	OK	0.7307302	-0.1347574	-0.6692338	0	-82.969	-76.853	3.653	B5-03822-P03-CH0	44456	OK	0.7421205	-0.6604214	-0.1144585	0	-96.035	-62.542	6.243	B5-03822-P03-CH1	44456	OK	0.7167339	-0.6730259	0.1825614	0	-99.69	-27.213	-5.939	B5-03822-P04-CH0	44456	OK	0.7404562	0.0738013	0.6680404	0	-127.831	-40.953	3.571	B5-03822-P04-CH1	44456	OK	0.706181	-0.7042366	0.0732062	0	-113.471	-49.143	-2.636	NA
0.259797033567525	B5-03822-P01-CH0	44464	OK	0.2164052	0.0802099	0.0222571	-0.9727486	93.411	-9.93	-263.126	B5-03822-P02-CH0	44464	OK	0.6967241	0.1803383	-0.6943009	0	-79.117	-98.201	2.86	B5-03822-P02-CH1	44464	OK	0.7306835	-0.1349261	-0.6692508	0	-83.029	-77.375	4.61	B5-03822-P03-CH0	44464	OK	0.7414689	-0.6598565	-0.12171	0	-96.947	-62.686	5.819	B5-03822-P03-CH1	44464	OK	0.7146629	-0.6763567	0.1783214	0	-99.696	-25.281	-8.366	B5-03822-P04-CH0	44464	OK	0.7402237	0.0739068	0.6682863	0	-127.654	-41.025	3.459	B5-03822-P04-CH1	44464	OK	0.7060199	-0.7042787	0.0743464	0	-113.486	-49.406	-2.44	NA
0.269789227166276	B5-03822-P01-CH0	44472	OK	0.216524	0.0801872	0.0222804	-0.9727235	93.426	-9.917	-263.191	B5-03822-P02-CH0	44472	OK	0.696884	0.1799072	-0.6942522	0	-79.019	-98.375	2.502	B5-03822-P02-CH1	44472	OK	0.7316806	-0.1332301	-0.6685008	0	-82.746	-76.777	4.278	B5-03822-P03-CH0	44472	OK	0.7409429	-0.6603573	-0.1221964	0	-96.145	-63.184	6.056	B5-03822-P03-CH1	44472	OK	0.7128089	-0.6785779	0.1773006	0	-99.045	-25.433	-10.034	B5-03822-P04-CH0	44472	OK	0.7402429	0.0736361	0.668295	0	-127.548	-40.966	3.664	B5-03822-P04-CH1	44472	OK	0.7061178	-0.7041229	0.0748903	0	-113.493	-49.463	-2.528	NA
0.279781420765027	B5-03822-P01-CH0	44480	OK	0.2162979	0.0802158	0.0219224	-0.9727795	93.465	-9.979	-263.256	B5-03822-P02-CH0	44480	OK	0.6969918	0.179914	-0.6941422	0	-79.121	-98.515	2.731	B5-03822-P02-CH1	44480	OK	0.7319111	-0.1340737	-0.6680796	0	-82.866	-76.832	4.253	B5-03822-P03-CH0	44480	OK	0.7408724	-0.6596354	-0.1264485	0	-96.431	-62.946	6.186	B5-03822-P03-CH1	44480	OK	0.7106527	-0.6806265	0.178102	0	-98.446	-26.325	-7.505	B5-03822-P04-CH0	44480	OK	0.7401077	0.0725358	0.668565	0	-127.446	-40.721	3.577	B5-03822-P04-CH1	44480	OK	0.7059698	-0.7042847	0.0747641	0	-113.501	-49.443	-2.313	NA
0.289773614363778	B5-03822-P01-CH0	44488	OK	0.2165819	0.0801363	0.0217148	-0.9727276	93.48	-10.031	-263.281	B5-03822-P02-CH0	44488	OK	0.6972484	0.1797112	-0.693937	0	-79.092	-98.646	2.843	B5-03822-P02-CH1	44488	OK	0.735777	-0.1340159	-0.6638312	0	-83.252	-77.304	6.243	B5-03822-P03-CH0	44488	OK	0.7415481	-0.6584755	-0.1285159	0	-95.56	-63.001	5.745	B5-03822-P03-CH1	44488	OK	0.7103175	-0.6813253	0.1767624	0	-98.996	-25.86	-5.954	B5-03822-P04-CH0	44488	OK	0.73984	0.0718337	0.668937	0	-127.237	-40.676	3.479	B5-03822-P04-CH1	44488	OK	0.7058876	-0.7043149	0.0752552	0	-113.463	-49.598	-2.305	NA
0.299765807962529	B5-03822-P01-CH0	44496	OK	0.2167153	0.0803353	0.0213685	-0.9726891	93.545	-10.051	-263.122	B5-03822-P02-CH0	44496	OK	0.6978117	0.1799722	-0.6933028	0	-79.03	-98.843	2.708	B5-03822-P02-CH1	44496	OK	0.7381494	-0.1297987	-0.662033	0	-83.131	-77.152	5.427	B5-03822-P03-CH0	44496	OK	0.7427177	-0.6559188	-0.1346879	0	-95.632	-62.936	6.374	B5-03822-P03-CH1	44496	OK	0.7082119	-0.6844716	0.1730161	0	-99.842	-25.506	-8.729	B5-03822-P04-CH0	44496	OK	0.7396475	0.0702994	0.6693128	0	-127.03	-40.485	3.511	B5-03822-P04-CH1	44496	OK	0.705665	-0.7045463	0.0751756	0	-113.445	-49.663	-2.316	NA
0.30975800156128	B5-03822-P01-CH0	44504	OK	0.2166232	0.0802554	0.0212727	-0.9727183	93.547	-10.066	-263.102	B5-03822-P02-CH0	44504	OK	0.6983023	0.181174	-0.6924954	0	-79.034	-99.141	2.716	B5-03822-P02-CH1	44504	OK	0.7403338	-0.1246429	-0.6605831	0	-83.255	-77.46	4.891	B5-03822-P03-CH0	44504	OK	0.7448098	-0.6527159	-0.1386369	0	-95.128	-63.075	6.441	B5-03822-P03-CH1	44504	OK	0.7054953	-0.687064	0.1738373	0	-99.84	-25.761	-7.074	B5-03822-P04-CH0	44504	OK	0.740014	0.0532283	0.6704819	0	-126.599	-39.407	3.366	B5-03822-P04-CH1	44504	OK	0.7056519	-0.704622	0.0745877	0	-113.439	-49.664	-2.131	NA
0.319750195160031	B5-03822-P01-CH0	44512	OK	0.2167377	0.0802447	0.0213445	-0.9726921	93.525	-10.002	-262.999	B5-03822-P02-CH0	44512	OK	0.6982043	0.1824191	-0.6922673	0	-79.137	-99.333	3.021	B5-03822-P02-CH1	44512	OK	0.7407225	-0.1142342	-0.6620277	0	-84.008	-77.924	5.629	B5-03822-P03-CH0	44512	OK	0.7491797	-0.6463586	-0.1447422	0	-95.204	-62.579	6.8	B5-03822-P03-CH1	44512	OK	0.7031538	-0.6896964	0.1728977	0	-99.705	-24.997	-9.37	B5-03822-P04-CH0	44512	OK	0.7399338	0.0421295	0.6713591	0	-125.34	-38.293	5.39	B5-03822-P04-CH1	44512	OK	0.7057428	-0.7045959	0.0739707	0	-113.115	-49.59	-1.948	NA
0.329742388758782	B5-03822-P01-CH0	44520	OK	0.2168847	0.0801622	0.0212753	-0.9726677	93.492	-9.982	-262.944	B5-03822-P02-CH0	44520	OK	0.6977314	0.1834483	-0.6924721	0	-79.323	-99.698	3.585	B5-03822-P02-CH1	44520	OK	0.7424409	-0.1051553	-0.661607	0	-83.966	-78.199	6.364	B5-03822-P03-CH0	44520	OK	0.7545297	-0.6381357	-0.153192	0	-96.389	-61.68	6.467	B5-03822-P03-CH1	44520	OK	0.7000643	-0.6919241	0.1764963	0	-99.949	-25.154	-9.834	B5-03822-P04-CH0	44520	OK	0.7389702	0.0274455	0.6731789	0	-124.283	-38.684	3.355	B5-03822-P04-CH1	44520	OK	0.7056885	-0.7047426	0.0730859	0	-112.832	-49.572	-1.955	NA
0.339734582357533	B5-03822-P01-CH0	44528	OK	0.2166401	0.0800506	0.0213664	-0.9727294	93.476	-9.903	-262.948	B5-03822-P02-CH0	44528	OK	0.6975695	0.185347	-0.6921295	0	-79.359	-99.854	3.796	B5-03822-P02-CH1	44528	OK	0.7445565	-0.0951974	-0.6607367	0	-83.811	-78.523	5.331	B5-03822-P03-CH0	44528	OK	0.7561795	-0.6343164	-0.1607337	0	-96.19	-62.178	6.765	B5-03822-P03-CH1	44528	OK	0.6967727	-0.6949349	0.1776888	0	-100.055	-25.02	-12.828	B5-03822-P04-CH0	44528	OK	0.7379532	0.0097239	0.6747818	0	-122.91	-36.977	3.093	B5-03822-P04-CH1	44528	OK	0.7059266	-0.7047096	0.0710772	0	-112.761	-49.287	-2.235	NA
0.349726775956284	B5-03822-P01-CH0	44536	OK	0.2163598	0.0798086	0.0210442	-0.9728187	93.378	-9.913	-262.847	B5-03822-P02-CH0	44536	OK	0.6976154	0.1874958	-0.6915042	0	-79.366	-100.025	3.545	B5-03822-P02-CH1	44536	OK	0.7436847	-0.087048	-0.6628392	0	-84.668	-78.477	6.585	B5-03822-P03-CH0	44536	OK	0.7573974	-0.6299921	-0.1716368	0	-95.644	-61.894	6.903	B5-03822-P03-CH1	44536	OK	0.6948959	-0.6968246	0.1776375	0	-99.485	-24.124	-13.534	B5-03822-P04-CH0	44536	OK	0.7379927	-0.0047229	0.6747922	0	-122.181	-36.015	4.264	B5-03822-P04-CH1	44536	OK	0.705787	-0.7050485	0.0690738	0	-112.526	-49.134	-2.311	NA
0.359718969555035	B5-03822-P01-CH0	44544	OK	0.2162256	0.0798244	0.0209665	-0.9728489	93.329	-9.809	-262.678	B5-03822-P02-CH0	44544	OK	0.6963162	0.1992411	-0.6895264	0	-79.882	-100.995	3.073	B5-03822-P02-CH1	44544	OK	0.7464604	-0.0777981	-0.6608663	0	-83.677	-77.844	6.896	B5-03822-P03-CH0	44544	OK	0.7579359	-0.6267382	-0.1809211	0	-95.367	-61.954	6.592	B5-03822-P03-CH1	44544	OK	0.6950825	-0.6971246	0.1757199	0	-99.748	-22.459	-14.256	B5-03822-P04-CH0	44544	OK	0.7394342	-0.0139878	0.6730835	0	-122.665	-35.346	4.282	B5-03822-P04-CH1	44544	OK	0.7056677	-0.7053463	0.0672294	0	-112.288	-49.045	-2.114	NA
0.369711163153786	B5-03822-P01-CH0	44552	OK	0.2160126	0.0801046	0.0204031	-0.9728852	93.387	-9.778	-262.562	B5-03822-P02-CH0	44552	OK	0.6944911	0.2052414	-0.6896072	0	-81.124	-100.73	3.396	B5-03822-P02-CH1	44552	OK	0.7465301	-0.0694188	-0.6617204	0	-83.966	-78.359	7.488	B5-03822-P03-CH0	44552	OK	0.7574314	-0.6255641	-0.1869952	0	-94.741	-62.683	6.965	B5-03822-P03-CH1	44552	OK	0.692453	-0.6996439	0.1760889	0	-100.007	-23.344	-12.352	B5-03822-P04-CH0	44552	OK	0.7381361	-0.0173828	0.6744279	0	-122.014	-34.207	2.291	B5-03822-P04-CH1	44552	OK	0.7059123	-0.7061822	0.0547222	0	-110.927	-48.521	-0.118	NA
0.379703356752537	B5-03822-P01-CH0	44560	OK	0.2158601	0.0800509	0.0199097	-0.9729336	93.316	-9.738	-262.392	B5-03822-P02-CH0	44560	OK	0.6966208	0.210181	-0.6859616	0	-80.577	-101.706	2.549	B5-03822-P02-CH1	44560	OK	0.747461	-0.0611023	-0.6614896	0	-83.92	-78.095	6.814	B5-03822-P03-CH0	44560	OK	0.7586379	-0.6218771	-0.194261	0	-94.511	-61.728	7.803	B5-03822-P03-CH1	44560	OK	0.6928349	-0.7001662	0.1724735	0	-100.668	-22.779	-11.444	B5-03822-P04-CH0	44560	OK	0.7382171	-0.0141424	0.6744149	0	-121.588	-34.285	2.324	B5-03822-P04-CH1	44560	OK	0.7051025	-0.707153	0.0525846	0	-110.531	-48.185	-2.747	NA
0.389695550351288	B5-03822-P01-CH0	44568	OK	0.2160207	0.0801302	0.020209	-0.9728853	93.321	-9.628	-262.285	B5-03822-P02-CH0	44568	OK	0.69634	0.2158835	-0.6844742	0	-80.331	-100.832	2.706	B5-03822-P02-CH1	44568	OK	0.7463148	-0.054825	-0.6633313	0	-84.253	-77.894	7.445	B5-03822-P03-CH0	44568	OK	0.7583812	-0.6195646	-0.202479	0	-95.726	-61.078	6.549	B5-03822-P03-CH1	44568	OK	0.6920367	-0.7022172	0.1672605	0	-100.313	-22.766	-15.065	B5-03822-P04-CH0	44568	OK	0.7390026	-0.0094841	0.6736358	0	-121.887	-34.074	2.365	B5-03822-P04-CH1	44568	OK	0.7053348	-0.7062797	0.0605961	0	-111.685	-48.498	-2.307	NA
0.399687743950039	B5-03822-P01-CH0	44576	OK	0.2161352	0.0800068	0.0204767	-0.9728644	93.307	-9.543	-262.34	B5-03822-P02-CH0	44576	OK	0.6943621	0.2220604	-0.6845074	0	-81.03	-99.926	4.113	B5-03822-P02-CH1	44576	OK	0.746561	-0.0485695	-0.6635417	0	-83.948	-77.634	5.763	B5-03822-P03-CH0	44576	OK	0.7585211	-0.6187556	-0.2044194	0	-95.28	-60.926	6.843	B5-03822-P03-CH1	44576	OK	0.6929504	-0.7020451	0.1641717	0	-99.956	-23.028	-13.948	B5-03822-P04-CH0	44576	OK	0.7379	-0.0048738	0.6748925	0	-121.536	-34.063	1.42	B5-03822-P04-CH1	44576	OK	0.7056427	-0.7061401	0.0586045	0	-111.525	-48.279	-2.347	NA
0.40967993754879	B5-03822-P01-CH0	44584	OK	0.2163521	0.080289	0.0204177	-0.9727942	93.431	-9.432	-262.274	B5-03822-P02-CH0	44584	OK	0.6955063	0.2279891	-0.6813897	0	-80.745	-100.536	2.864	B5-03822-P02-CH1	44584	OK	0.74633	-0.047583	-0.663873	0	-83.602	-77.596	6.092	B5-03822-P03-CH0	44584	OK	0.7580128	-0.6196072	-0.2037242	0	-94.949	-61.178	5.933	B5-03822-P03-CH1	44584	OK	0.6947821	-0.7010735	0.160542	0	-99.507	-22.892	-13.512	B5-03822-P04-CH0	44584	OK	0.7390606	0.0033796	0.6736305	0	-121.96	-35.837	2.504	B5-03822-P04-CH1	44584	OK	0.7057127	-0.7062039	0.05697	0	-111.463	-48.085	-2.529	NA
0.419672131147541	B5-03822-P01-CH0	44592	OK	0.2166499	0.0802227	0.0208096	-0.9727251	93.448	-9.299	-262.393	B5-03822-P02-CH0	44592	OK	0.6948051	0.2330784	-0.6803825	0	-80.696	-100.042	3.595	B5-03822-P02-CH1	44592	OK	0.7453752	-0.0486228	-0.6648697	0	-83.551	-77.709	5.658	B5-03822-P03-CH0	44592	OK	0.7581279	-0.6214111	-0.1977125	0	-94.808	-61.689	4.888	B5-03822-P03-CH1	44592	OK	0.6972739	-0.6985955	0.1605409	0	-99.966	-23.598	-13.046	B5-03822-P04-CH0	44592	OK	0.7389903	0.0115489	0.6736171	0	-122.671	-35.358	1.558	B5-03822-P04-CH1	44592	OK	0.7060555	-0.7059582	0.0557545	0	-111.457	-47.906	-2.549	NA
0.429664324746292	B5-03822-P01-CH0	44600	OK	0.2169274	0.080389	0.0208283	-0.9726491	93.511	-9.23	-262.322	B5-03822-P02-CH0	44600	OK	0.6941926	0.2370003	-0.6796525	0	-81.466	-101.283	3.263	B5-03822-P02-CH1	44600	OK	0.7442166	-0.0501889	-0.6660501	0	-83.62	-78.727	5.141	B5-03822-P03-CH0	44600	OK	0.7598176	-0.6210172	-0.1923923	0	-94.924	-61.147	6.636	B5-03822-P03-CH1	44600	OK	0.6996603	-0.6959017	0.1618527	0	-100.067	-25.206	-11.296	B5-03822-P04-CH0	44600	OK	0.7389845	0.0236885	0.6733058	0	-122.525	-36.311	3.625	B5-03822-P04-CH1	44600	OK	0.706161	-0.705918	0.0549214	0	-111.356	-47.77	-2.56	NA
0.439656518345043	B5-03822-P01-CH0	44608	OK	0.2174734	0.0804748	0.0210931	-0.9725144	93.566	-9.129	-262.29	B5-03822-P02-CH0	44608	OK	0.6960882	0.2399276	-0.6766802	0	-80.285	-101.25	1.74	B5-03822-P02-CH1	44608	OK	0.7420668	-0.0508694	-0.668393	0	-83.843	-78.142	6.408	B5-03822-P03-CH0	44608	OK	0.7607373	-0.6216253	-0.1867103	0	-94.674	-61.302	7.077	B5-03822-P03-CH1	44608	OK	0.705372	-0.6905722	0.1598758	0	-99.42	-25.08	-9.78	B5-03822-P04-CH0	44608	OK	0.7386839	0.0368518	0.6730439	0	-122.967	-36.299	3.624	B5-03822-P04-CH1	44608	OK	0.7060951	-0.7059804	0.0549673	0	-111.24	-47.878	-2.763	NA
0.449648711943794	B5-03822-P01-CH0	44616	OK	0.2180803	0.0805173	0.021345	-0.9723695	93.637	-9.047	-262.344	B5-03822-P02-CH0	44616	OK	0.6969705	0.2403303	-0.6756282	0	-79.59	-102.155	1.586	B5-03822-P02-CH1	44616	OK	0.7392361	-0.0508529	-0.6715236	0	-84.066	-78.607	6.151	B5-03822-P03-CH0	44616	OK	0.7596796	-0.621622	-0.190979	0	-94.989	-61.435	6.388	B5-03822-P03-CH1	44616	OK	0.7089073	-0.6866211	0.161251	0	-99.255	-26.513	-8.797	B5-03822-P04-CH0	44616	OK	0.7383062	0.0491043	0.6726758	0	-124.287	-37.435	1.082	B5-03822-P04-CH1	44616	OK	0.7062033	-0.705855	0.0551877	0	-111.161	-47.909	-2.809	NA
0.459640905542545	B5-03822-P01-CH0	44624	OK	0.2184447	0.0803964	0.0216172	-0.9722916	93.662	-9.011	-262.39	B5-03822-P02-CH0	44624	OK	0.6933565	0.2403957	-0.6793134	0	-80.378	-101.24	3.796	B5-03822-P02-CH1	44624	OK	0.7385639	-0.0513908	-0.672222	0	-82.753	-78.3	6.02	B5-03822-P03-CH0	44624	OK	0.7600723	-0.621421	-0.1900685	0	-94.963	-61.485	6.328	B5-03822-P03-CH1	44624	OK	0.713088	-0.6826512	0.1596646	0	-99.594	-26.066	-8.56	B5-03822-P04-CH0	44624	OK	0.737071	0.0545494	0.6736102	0	-124.286	-37.682	2.447	B5-03822-P04-CH1	44624	OK	0.7064097	-0.7056584	0.0550595	0	-111.075	-47.823	-3.035	NA
0.469633099141296	B5-03822-P01-CH0	44632	OK	0.2189013	0.0801251	0.0220502	-0.9722016	93.628	-8.955	-262.455	B5-03822-P02-CH0	44632	OK	0.6918657	0.2373901	-0.6818855	0	-79.598	-101.143	3.503	B5-03822-P02-CH1	44632	OK	0.734039	-0.055823	-0.6768091	0	-82.579	-78.226	5.58	B5-03822-P03-CH0	44632	OK	0.7610566	-0.6253463	-0.172438	0	-94.409	-61.246	7.248	B5-03822-P03-CH1	44632	OK	0.7148939	-0.6798841	0.1633534	0	-99.815	-26.671	-7.306	B5-03822-P04-CH0	44632	OK	0.7356871	0.0567127	0.6749431	0	-124.174	-38.073	2.49	B5-03822-P04-CH1	44632	OK	0.7065608	-0.7054705	0.0555266	0	-110.987	-47.893	-3.423	NA
0.479625292740047	B5-03822-P01-CH0	44640	OK	0.2191717	0.0801734	0.0224121	-0.9721284	93.705	-8.886	-262.498	B5-03822-P02-CH0	44640	OK	0.6907106	0.2338267	-0.6842835	0	-78.525	-101.228	2.11	B5-03822-P02-CH1	44640	OK	0.7299762	-0.0627491	-0.680586	0	-81.604	-77.479	4.554	B5-03822-P03-CH0	44640	OK	0.7586909	-0.6289337	-0.1697958	0	-94.428	-60.955	6.873	B5-03822-P03-CH1	44640	OK	0.7172219	-0.6774158	0.163403	0	-100.29	-25.722	-10.71	B5-03822-P04-CH0	44640	OK	0.7358059	0.061258	0.6744162	0	-124.736	-38.43	2.822	B5-03822-P04-CH1	44640	OK	0.7067448	-0.7052678	0.0557602	0	-111.016	-47.891	-3.333	NA
0.489617486338798	B5-03822-P01-CH0	44648	OK	0.2193161	0.0801607	0.0223522	-0.9720983	93.717	-8.823	-262.435	B5-03822-P02-CH0	44648	OK	0.6883507	0.2311829	-0.687552	0	-78.412	-100.71	2.198	B5-03822-P02-CH1	44648	OK	0.7246704	-0.0698678	-0.6855445	0	-81.552	-77.72	4.236	B5-03822-P03-CH0	44648	OK	0.7553453	-0.6341697	-0.1651734	0	-94.414	-61.02	5.045	B5-03822-P03-CH1	44648	OK	0.7174554	-0.6762644	0.1671053	0	-100.315	-27.109	-6.819	B5-03822-P04-CH0	44648	OK	0.7367147	0.0680785	0.672768	0	-125.305	-38.339	3.289	B5-03822-P04-CH1	44648	OK	0.7067235	-0.7052643	0.0560718	0	-110.947	-47.829	-3.204	NA
0.499609679937549	B5-03822-P01-CH0	44656	OK	0.2193132	0.0803096	0.0216153	-0.9721033	93.769	-8.907	-262.425	B5-03822-P02-CH0	44656	OK	0.6864641	0.2309272	-0.6895213	0	-78.073	-99.921	2.743	B5-03822-P02-CH1	44656	OK	0.7210021	-0.0769011	-0.6886525	0	-81.044	-77.463	4.045	B5-03822-P03-CH0	44656	OK	0.751676	-0.6386066	-0.1648175	0	-94.511	-60.777	4.997	B5-03822-P03-CH1	44656	OK	0.7177168	-0.675993	0.1670812	0	-99.457	-26.842	-7.552	B5-03822-P04-CH0	44656	OK	0.737546	0.0694443	0.6717168	0	-125.323	-38.7	4.651	B5-03822-P04-CH1	44656	OK	0.7061073	-0.7058568	0.056379	0	-110.793	-47.969	-3.104	NA
0.5096018735363	B5-03822-P01-CH0	44664	OK	0.2193305	0.0802937	0.021173	-0.9721105	93.758	-8.947	-262.469	B5-03822-P02-CH0	44664	OK	0.6865363	0.2305546	-0.6895742	0	-77.347	-100.625	0.764	B5-03822-P02-CH1	44664	OK	0.7180539	-0.082463	-0.691085	0	-80.71	-77.792	2.985	B5-03822-P03-CH0	44664	OK	0.7477605	-0.6431336	-0.1650252	0	-94.238	-60.926	5.307	B5-03822-P03-CH1	44664	OK	0.7176379	-0.6758971	0.1678064	0	-99.119	-26.643	-8.502	B5-03822-P04-CH0	44664	OK	0.736685	0.0680523	0.6728032	0	-124.867	-38.708	4.609	B5-03822-P04-CH1	44664	OK	0.7057332	-0.7062145	0.0565839	0	-110.65	-47.995	-3.071	NA
0.519594067135051	B5-03822-P01-CH0	44672	OK	0.2191521	0.0804643	0.0205099	-0.9721508	93.836	-9.015	-262.425	B5-03822-P02-CH0	44672	OK	0.6837686	0.2319714	-0.6918452	0	-77.266	-99.952	1.687	B5-03822-P02-CH1	44672	OK	0.7161878	-0.0858442	-0.6926079	0	-79.879	-76.876	3.222	B5-03822-P03-CH0	44672	OK	0.7445205	-0.6468044	-0.1653281	0	-93.665	-60.938	5.479	B5-03822-P03-CH1	44672	OK	0.7169688	-0.6765597	0.1679964	0	-99.404	-26.953	-7.95	B5-03822-P04-CH0	44672	OK	0.7363483	0.0679086	0.6731861	0	-124.855	-38.834	4.635	B5-03822-P04-CH1	44672	OK	0.7051655	-0.7067735	0.0566821	0	-110.603	-48.101	-3.061	NA
0.529586260733802	B5-03822-P01-CH0	44680	OK	0.2191568	0.0804155	0.0206217	-0.9721514	93.859	-8.922	-262.558	B5-03822-P02-CH0	44680	OK	0.6816403	0.2323962	-0.6938	0	-77.136	-100.011	3.002	B5-03822-P02-CH1	44680	OK	0.711764	-0.092055	-0.6963604	0	-80.139	-76.499	3.14	B5-03822-P03-CH0	44680	OK	0.7421473	-0.6483282	-0.1699644	0	-94.047	-59.95	5.042	B5-03822-P03-CH1	44680	OK	0.7168061	-0.6761074	0.1704928	0	-99.121	-27.645	-4.894	B5-03822-P04-CH0	44680	OK	0.7373887	0.0622834	0.672591	0	-125.176	-38.632	3.349	B5-03822-P04-CH1	44680	OK	0.7050747	-0.7068598	0.0567353	0	-110.723	-48.103	-3.167	NA
0.539578454332553	B5-03822-P01-CH0	44688	OK	0.2188528	0.0804216	0.0199966	-0.9722325	93.85	-8.989	-262.542	B5-03822-P02-CH0	44688	OK	0.6807631	0.2337732	-0.6941986	0	-76.497	-99.066	2.105	B5-03822-P02-CH1	44688	OK	0.7100483	-0.0975081	-0.697369	0	-79.051	-75.786	3.119	B5-03822-P03-CH0	44688	OK	0.7391287	-0.6508867	-0.1733071	0	-94.264	-59.27	4.066	B5-03822-P03-CH1	44688	OK	0.7177755	-0.6757403	0.1678491	0	-99.584	-26.462	-5.226	B5-03822-P04-CH0	44688	OK	0.7366812	0.0637046	0.6732329	0	-125.03	-38.585	3.269	B5-03822-P04-CH1	44688	OK	0.7047978	-0.7071788	0.0561986	0	-110.71	-47.941	-3.169	NA
0.549570647931304	B5-03822-P01-CH0	44696	OK	0.21848	0.0805801	0.0194356	-0.9723146	93.915	-9.021	-262.544	B5-03822-P02-CH0	44696	OK	0.6787109	0.2357624	-0.695534	0	-77.019	-98.492	3.539	B5-03822-P02-CH1	44696	OK	0.706217	-0.1039373	-0.7003246	0	-79.638	-75.301	4.239	B5-03822-P03-CH0	44696	OK	0.7357303	-0.6543211	-0.1748277	0	-93.702	-58.858	2.905	B5-03822-P03-CH1	44696	OK	0.7155768	-0.6785958	0.1657034	0	-99.441	-26.57	-8.419	B5-03822-P04-CH0	44696	OK	0.7366752	0.0640747	0.6732044	0	-125.077	-38.502	3.788	B5-03822-P04-CH1	44696	OK	0.7041633	-0.7078355	0.0558835	0	-110.686	-48.065	-3.019	NA
0.559562841530055	B5-03822-P01-CH0	44704	OK	0.218318	0.0808212	0.0188883	-0.9723417	94.055	-9.046	-262.638	B5-03822-P02-CH0	44704	OK	0.6796532	0.2366087	-0.6943254	0	-76.121	-98.22	2.863	B5-03822-P02-CH1	44704	OK	0.7053372	-0.1094101	-0.7003776	0	-79.275	-75.207	2.989	B5-03822-P03-CH0	44704	OK	0.7327707	-0.657536	-0.1751957	0	-92.729	-58.873	3.503	B5-03822-P03-CH1	44704	OK	0.7155648	-0.678389	0.1665993	0	-99.526	-26.777	-7.786	B5-03822-P04-CH0	44704	OK	0.736858	0.0642258	0.6729898	0	-125.127	-38.546	4.253	B5-03822-P04-CH1	44704	OK	0.7039317	-0.708098	0.0554749	0	-110.823	-47.932	-2.866	NA
0.569555035128806	B5-03822-P01-CH0	44712	OK	0.2182797	0.0806999	0.0190109	-0.972358	94.019	-8.987	-262.648	B5-03822-P02-CH0	44712	OK	0.6771151	0.2369534	-0.6966838	0	-76.56	-97.396	3.649	B5-03822-P02-CH1	44712	OK	0.7052154	-0.1138246	-0.6997966	0	-78.491	-74.573	2.254	B5-03822-P03-CH0	44712	OK	0.730601	-0.6588446	-0.1792927	0	-93.609	-58.274	3.293	B5-03822-P03-CH1	44712	OK	0.7156887	-0.6780294	0.1675286	0	-99.437	-26.978	-7.087	B5-03822-P04-CH0	44712	OK	0.7368335	0.0640255	0.6730358	0	-125.022	-38.288	4.406	B5-03822-P04-CH1	44712	OK	0.7040609	-0.7080011	0.0550697	0	-110.881	-47.742	-2.856	NA
0.579547228727557	B5-03822-P01-CH0	44720	OK	0.2185529	0.0805125	0.0191199	-0.97231	93.981	-8.997	-262.717	B5-03822-P02-CH0	44720	OK	0.676246	0.2369494	-0.6975288	0	-76.558	-97.391	4.994	B5-03822-P02-CH1	44720	OK	0.7027478	-0.1169054	-0.7017682	0	-78.744	-75.043	2.316	B5-03822-P03-CH0	44720	OK	0.7287709	-0.6606278	-0.1801776	0	-94.264	-58.251	3.564	B5-03822-P03-CH1	44720	OK	0.7158796	-0.6776222	0.1683581	0	-99.236	-27.049	-6.942	B5-03822-P04-CH0	44720	OK	0.7366746	0.0632557	0.6732825	0	-124.783	-38.039	4.428	B5-03822-P04-CH1	44720	OK	0.7041443	-0.7078981	0.0553281	0	-110.603	-47.784	-2.6	NA
0.589539422326308	B5-03822-P01-CH0	44728	OK	0.2186406	0.0802139	0.0191559	-0.9723143	93.899	-9.019	-262.83	B5-03822-P02-CH0	44728	OK	0.6768806	0.2362625	-0.6971461	0	-75.978	-97.772	3.403	B5-03822-P02-CH1	44728	OK	0.7014952	-0.1211279	-0.7023051	0	-78.656	-74.991	3.162	B5-03822-P03-CH0	44728	OK	0.7276796	-0.6625747	-0.177418	0	-93.035	-58.568	4.556	B5-03822-P03-CH1	44728	OK	0.7158771	-0.677468	0.1689884	0	-99.017	-27.134	-6.555	B5-03822-P04-CH0	44728	OK	0.7364339	0.0618511	0.6736762	0	-124.473	-37.87	4.478	B5-03822-P04-CH1	44728	OK	0.7041685	-0.707879	0.0552635	0	-110.486	-47.743	-2.633	NA
0.599531615925059	B5-03822-P01-CH0	44736	OK	0.2189631	0.0800088	0.0200906	-0.9722397	93.895	-8.865	-262.909	B5-03822-P02-CH0	44736	OK	0.6771548	0.234969	-0.697317	0	-75.332	-97.588	2.889	B5-03822-P02-CH1	44736	OK	0.7018666	-0.1245493	-0.7013349	0	-78.217	-74.302	2.13	B5-03822-P03-CH0	44736	OK	0.7269338	-0.6633517	-0.177572	0	-92.934	-58.016	3.137	B5-03822-P03-CH1	44736	OK	0.7165816	-0.6766208	0.1693963	0	-99.057	-27.071	-6.236	B5-03822-P04-CH0	44736	OK	0.7364242	0.0610281	0.6737618	0	-124.326	-37.839	4.415	B5-03822-P04-CH1	44736	OK	0.7048388	-0.7072221	0.0551286	0	-110.499	-47.571	-2.729	NA
0.60952380952381	B5-03822-P01-CH0	44744	OK	0.2192294	0.0798477	0.020646	-0.9721813	93.887	-8.801	-262.984	B5-03822-P02-CH0	44744	OK	0.6765011	0.2334608	-0.6984571	0	-75.25	-97.204	2.621	B5-03822-P02-CH1	44744	OK	0.7023707	-0.1286648	-0.7000863	0	-77.807	-73.88	1.733	B5-03822-P03-CH0	44744	OK	0.7256222	-0.664929	-0.1770361	0	-92.954	-58.227	2.936	B5-03822-P03-CH1	44744	OK	0.7169779	-0.6761693	0.1695224	0	-99.043	-27.041	-6.343	B5-03822-P04-CH0	44744	OK	0.7366324	0.0596067	0.6736614	0	-124.262	-37.626	4.248	B5-03822-P04-CH1	44744	OK	0.705359	-0.7067175	0.0549456	0	-110.525	-47.396	-2.761	NA
