Wav.Time	B5.03822.P01.CH0	Frame	State	Q0	Qx	Qy	Qz	Tx	Ty	Tz	B5.03822.P02.CH0	Frame.1	State.1	Q0.1	Qx.1	Qy.1	Qz.1	Tx.1	Ty.1	Tz.1	B5.03822.P02.CH1	Frame.2	State.2	Q0.2	Qx.2	Qy.2	Qz.2	Tx.2	Ty.2	Tz.2	B5.03822.P03.CH0	Frame.3	State.3	Q0.3	Qx.3	Qy.3	Qz.3	Tx.3	Ty.3	Tz.3	B5.03822.P03.CH1	Frame.4	State.4	Q0.4	Qx.4	Qy.4	Qz.4	Tx.4	Ty.4	Tz.4	B5.03822.P04.CH0	Frame.5	State.5	Q0.5	Qx.5	Qy.5	Qz.5	Tx.5	Ty.5	Tz.5	B5.03822.P04.CH1	Frame.6	State.6	Q0.6	Qx.6	Qy.6	Qz.6	Tx.6	Ty.6	Tz.6	X
0	B5-03822-P01-CH0	517496	OK	0.2044116	0.0710219	0.0860473	-0.9725059	96.496	58.121	-234.694	B5-03822-P02-CH0	517496	OK	0.8359751	0.0244301	-0.5482234	0	-92.252	-95.634	8.934	B5-03822-P02-CH1	517496	OK	0.7900336	-0.0277388	-0.6124357	0	-86.095	-78.327	7.252	B5-03822-P03-CH0	517496	OK	0.8767477	-0.2316027	-0.4215136	0	-97.966	-56.017	13.832	B5-03822-P03-CH1	517496	OK	0.7050014	-0.6818974	-0.1949074	0	-103.176	-18.428	6.185	B5-03822-P04-CH0	517496	OK	0.686212	-0.5561287	0.4688646	0	-122.162	-24.91	10.55	B5-03822-P04-CH1	517496	OK	0.7760743	-0.630033	0.0276962	0	-112.888	-39.779	11.467	NA
0.0099921329075848	B5-03822-P01-CH0	517504	OK	0.204079	0.0712928	0.0855742	-0.9725976	96.61	58.063	-234.663	B5-03822-P02-CH0	517504	OK	0.8360233	0.0206046	-0.548307	0	-92.134	-96.243	8.64	B5-03822-P02-CH1	517504	OK	0.7919467	-0.0279166	-0.6099517	0	-86.714	-78.232	7.999	B5-03822-P03-CH0	517504	OK	0.8786489	-0.2209973	-0.423245	0	-98.568	-55.992	14.208	B5-03822-P03-CH1	517504	OK	0.7049806	-0.6807911	-0.1988113	0	-103.196	-18.761	6.236	B5-03822-P04-CH0	517504	OK	0.6875895	-0.5470205	0.4774823	0	-122.563	-25.233	11.352	B5-03822-P04-CH1	517504	OK	0.7758864	-0.6302778	0.0273919	0	-113.091	-39.732	11.542	NA
0.0199842658151696	B5-03822-P01-CH0	517512	OK	0.2040088	0.071387	0.0852869	-0.9726307	96.643	58.018	-234.612	B5-03822-P02-CH0	517512	OK	0.8349761	0.0156332	-0.5500641	0	-92.449	-96.363	8.892	B5-03822-P02-CH1	517512	OK	0.7953589	-0.0284218	-0.6054721	0	-87.009	-78.561	8.311	B5-03822-P03-CH0	517512	OK	0.8802097	-0.2111466	-0.4250271	0	-99.189	-56.312	14.501	B5-03822-P03-CH1	517512	OK	0.7062559	-0.6785743	-0.2018402	0	-103.549	-18.351	6.625	B5-03822-P04-CH0	517512	OK	0.6900677	-0.5364052	0.4858766	0	-123.163	-24.917	10.832	B5-03822-P04-CH1	517512	OK	0.7758356	-0.6303271	0.027693	0	-113.244	-39.738	11.526	NA
0.0299763987227544	B5-03822-P01-CH0	517520	OK	0.2040013	0.0715076	0.0848036	-0.9726657	96.693	57.939	-234.565	B5-03822-P02-CH0	517520	OK	0.8335312	0.0097702	-0.552386	0	-92.906	-96.354	9.276	B5-03822-P02-CH1	517520	OK	0.7990318	-0.0278721	-0.6006424	0	-87.563	-78.712	8.527	B5-03822-P03-CH0	517520	OK	0.8834248	-0.2015276	-0.4230215	0	-99.031	-56.364	14.747	B5-03822-P03-CH1	517520	OK	0.7066859	-0.677865	-0.2027168	0	-103.178	-18.743	6.806	B5-03822-P04-CH0	517520	OK	0.6918675	-0.523366	0.4974007	0	-124.057	-25.789	11.572	B5-03822-P04-CH1	517520	OK	0.7756387	-0.6305348	0.0284674	0	-113.341	-39.846	11.529	NA
0.0399685316303392	B5-03822-P01-CH0	517528	OK	0.2038595	0.0716411	0.0844143	-0.9727194	96.751	57.909	-234.536	B5-03822-P02-CH0	517528	OK	0.8347634	0.0029465	-0.5506009	0	-92.506	-96.903	8.72	B5-03822-P02-CH1	517528	OK	0.8030671	-0.0263252	-0.5953068	0	-88.191	-78.233	8.614	B5-03822-P03-CH0	517528	OK	0.8827569	-0.1927185	-0.4284855	0	-100.557	-56.805	14.794	B5-03822-P03-CH1	517528	OK	0.7075694	-0.6770135	-0.2024801	0	-103.135	-18.682	7.507	B5-03822-P04-CH0	517528	OK	0.6911222	-0.5130609	0.509037	0	-124.313	-26.625	9.959	B5-03822-P04-CH1	517528	OK	0.7753631	-0.6308383	0.0292426	0	-113.557	-39.974	11.52	NA
0.049960664537924	B5-03822-P01-CH0	517536	OK	0.2037752	0.0716193	0.0839426	-0.9727795	96.774	57.877	-234.538	B5-03822-P02-CH0	517536	OK	0.8362025	-0.0033503	-0.5484105	0	-92.294	-96.72	8.588	B5-03822-P02-CH1	517536	OK	0.8070018	-0.0265503	-0.5899518	0	-88.843	-78.355	9.687	B5-03822-P03-CH0	517536	OK	0.8833229	-0.1854589	-0.4305178	0	-101.086	-56.969	15.167	B5-03822-P03-CH1	517536	OK	0.7073974	-0.6768738	-0.2035457	0	-103.153	-19.088	6.352	B5-03822-P04-CH0	517536	OK	0.6912635	-0.5016611	0.5200874	0	-125.032	-27.549	11.052	B5-03822-P04-CH1	517536	OK	0.7751411	-0.6310599	0.0303261	0	-113.747	-40.084	11.467	NA
0.0599527974455088	B5-03822-P01-CH0	517544	OK	0.2037385	0.0715034	0.0836631	-0.9728198	96.758	57.891	-234.545	B5-03822-P02-CH0	517544	OK	0.8370639	-0.0145277	-0.5469122	0	-92.013	-97.677	8.702	B5-03822-P02-CH1	517544	OK	0.8095815	-0.0295395	-0.5862638	0	-89.77	-79.164	9.734	B5-03822-P03-CH0	517544	OK	0.8838224	-0.1809767	-0.4313994	0	-101.152	-57.002	15.11	B5-03822-P03-CH1	517544	OK	0.7078268	-0.6751895	-0.2076063	0	-102.615	-19.519	6.728	B5-03822-P04-CH0	517544	OK	0.6918325	-0.4869269	0.5331698	0	-126.646	-28.576	14.219	B5-03822-P04-CH1	517544	OK	0.7750902	-0.6310486	0.0318252	0	-113.871	-40.167	11.41	NA
0.0699449303530936	B5-03822-P01-CH0	517552	OK	0.2037772	0.0714191	0.0833895	-0.9728414	96.765	57.878	-234.513	B5-03822-P02-CH0	517552	OK	0.8387751	-0.023394	-0.5439753	0	-91.18	-97.796	8.82	B5-03822-P02-CH1	517552	OK	0.8136344	-0.0332625	-0.5804246	0	-89.727	-79.354	9.044	B5-03822-P03-CH0	517552	OK	0.8818495	-0.1810026	-0.4354073	0	-101.511	-57.646	14.841	B5-03822-P03-CH1	517552	OK	0.7090599	-0.6713853	-0.2155826	0	-102.987	-19.632	6.364	B5-03822-P04-CH0	517552	OK	0.6885526	-0.479471	0.5440615	0	-127.758	-28.67	11.24	B5-03822-P04-CH1	517552	OK	0.7761387	-0.6292113	0.0412539	0	-115.543	-40.861	11.722	NA
0.0799370632606784	B5-03822-P01-CH0	517560	OK	0.2041364	0.0714109	0.0839399	-0.9727193	96.786	58.051	-234.435	B5-03822-P02-CH0	517560	OK	0.8385085	-0.0323554	-0.543927	0	-91.181	-97.913	8.908	B5-03822-P02-CH1	517560	OK	0.8178275	-0.0358136	-0.5743479	0	-89.57	-79.917	9.57	B5-03822-P03-CH0	517560	OK	0.8782468	-0.1831132	-0.4417603	0	-102.239	-58.625	14.611	B5-03822-P03-CH1	517560	OK	0.7121806	-0.6666261	-0.2200191	0	-103.07	-19.988	7.723	B5-03822-P04-CH0	517560	OK	0.6870316	-0.4768505	0.5482711	0	-128.847	-29.394	12.52	B5-03822-P04-CH1	517560	OK	0.7762942	-0.6288416	0.0438822	0	-116.148	-41.285	11.603	NA
0.0899291961682632	B5-03822-P01-CH0	517568	OK	0.2042861	0.0713042	0.0838217	-0.9727059	96.78	58.059	-234.403	B5-03822-P02-CH0	517568	OK	0.8378471	-0.0430641	-0.5442038	0	-90.663	-98.876	8.323	B5-03822-P02-CH1	517568	OK	0.8186032	-0.0410545	-0.5728904	0	-90.285	-79.091	11.082	B5-03822-P03-CH0	517568	OK	0.8762816	-0.1884197	-0.4434282	0	-101.691	-58.634	14.253	B5-03822-P03-CH1	517568	OK	0.7154756	-0.6618544	-0.223704	0	-102.753	-20.122	6.71	B5-03822-P04-CH0	517568	OK	0.6833375	-0.4802221	0.5499424	0	-129.128	-30.1	10.549	B5-03822-P04-CH1	517568	OK	0.7764861	-0.6284291	0.0463271	0	-116.17	-41.458	11.576	NA
0.099921329075848	B5-03822-P01-CH0	517576	OK	0.2048929	0.0712272	0.0847602	-0.9725026	96.803	58.18	-234.341	B5-03822-P02-CH0	517576	OK	0.836769	-0.0518862	-0.5450922	0	-90.011	-98.845	7.784	B5-03822-P02-CH1	517576	OK	0.8210055	-0.0489694	-0.5688163	0	-89.723	-78.739	9.588	B5-03822-P03-CH0	517576	OK	0.873458	-0.1951461	-0.446082	0	-101.432	-58.215	14.011	B5-03822-P03-CH1	517576	OK	0.7184965	-0.6572873	-0.2274559	0	-102.457	-20.665	7.948	B5-03822-P04-CH0	517576	OK	0.6830134	-0.4708691	0.5583682	0	-130.372	-31.137	11.127	B5-03822-P04-CH1	517576	OK	0.7766325	-0.6279239	0.0505332	0	-115.812	-42.109	11.411	NA
0.109913461983433	B5-03822-P01-CH0	517584	OK	0.205039	0.0708943	0.0847812	-0.9724943	96.723	58.196	-234.349	B5-03822-P02-CH0	517584	OK	0.8368984	-0.0592323	-0.5441439	0	-89.267	-98.51	7.66	B5-03822-P02-CH1	517584	OK	0.8222461	-0.0561615	-0.5663543	0	-89.983	-78.472	9.442	B5-03822-P03-CH0	517584	OK	0.8698654	-0.204918	-0.4487124	0	-101.8	-59.129	14.738	B5-03822-P03-CH1	517584	OK	0.720282	-0.6529978	-0.2340678	0	-102.583	-20.462	7.212	B5-03822-P04-CH0	517584	OK	0.6801923	-0.4670464	0.5649833	0	-130.935	-31.246	6.936	B5-03822-P04-CH1	517584	OK	0.7772972	-0.627068	0.050939	0	-116.443	-42.036	11.39	NA
0.119905594891018	B5-03822-P01-CH0	517592	OK	0.2051025	0.0708674	0.0847667	-0.9724841	96.757	58.218	-234.329	B5-03822-P02-CH0	517592	OK	0.8364939	-0.0647321	-0.5441395	0	-89.098	-99.4	7.612	B5-03822-P02-CH1	517592	OK	0.8238303	-0.0605845	-0.5635895	0	-89.932	-78.854	9.089	B5-03822-P03-CH0	517592	OK	0.8694626	-0.2089261	-0.4476434	0	-101.56	-58.663	14.242	B5-03822-P03-CH1	517592	OK	0.7203319	-0.6517208	-0.2374488	0	-102.353	-20.821	7.459	B5-03822-P04-CH0	517592	OK	0.6794178	-0.463095	0.5691525	0	-131.024	-31.889	9.009	B5-03822-P04-CH1	517592	OK	0.7776415	-0.626538	0.0521904	0	-116.554	-42.045	11.63	NA
0.129897727798602	B5-03822-P01-CH0	517600	OK	0.2052873	0.0707286	0.0849132	-0.9724425	96.739	58.266	-234.334	B5-03822-P02-CH0	517600	OK	0.8353327	-0.0624175	-0.5461899	0	-89.778	-98.281	7.964	B5-03822-P02-CH1	517600	OK	0.8232676	-0.0603494	-0.5644364	0	-90.717	-77.561	10.638	B5-03822-P03-CH0	517600	OK	0.868034	-0.2114349	-0.4492352	0	-101.555	-58.375	14.2	B5-03822-P03-CH1	517600	OK	0.7205882	-0.6505429	-0.2398886	0	-102.437	-20.579	7.431	B5-03822-P04-CH0	517600	OK	0.6794491	-0.462221	0.5698252	0	-131.362	-31.788	9.106	B5-03822-P04-CH1	517600	OK	0.7775943	-0.6263222	0.0553865	0	-115.445	-42.177	11.971	NA
0.139889860706187	B5-03822-P01-CH0	517608	OK	0.2054539	0.0707196	0.0850991	-0.9723917	96.741	58.371	-234.342	B5-03822-P02-CH0	517608	OK	0.8360572	-0.0606289	-0.5452821	0	-89.804	-98.48	7.837	B5-03822-P02-CH1	517608	OK	0.8235741	-0.0599903	-0.5640273	0	-90.582	-78.152	9.572	B5-03822-P03-CH0	517608	OK	0.8653358	-0.2160756	-0.4522227	0	-101.359	-58.197	14.153	B5-03822-P03-CH1	517608	OK	0.7201865	-0.6508673	-0.2402149	0	-102.639	-20.411	7.534	B5-03822-P04-CH0	517608	OK	0.6809095	-0.459425	0.5703428	0	-131.914	-32.3	12.754	B5-03822-P04-CH1	517608	OK	0.7767786	-0.627329	0.0554375	0	-115.844	-42.822	11.908	NA
0.149881993613772	B5-03822-P01-CH0	517616	OK	0.2054648	0.0706352	0.0851186	-0.9723938	96.723	58.361	-234.288	B5-03822-P02-CH0	517616	OK	0.8382491	-0.0532817	-0.5426781	0	-89.699	-97.544	8.145	B5-03822-P02-CH1	517616	OK	0.8223892	-0.0599708	-0.5657557	0	-90.881	-78.222	10.211	B5-03822-P03-CH0	517616	OK	0.8602593	-0.2247027	-0.4576709	0	-101.468	-58.996	13.355	B5-03822-P03-CH1	517616	OK	0.7197326	-0.6522916	-0.2376984	0	-102.284	-20.693	6.802	B5-03822-P04-CH0	517616	OK	0.6804847	-0.4648005	0.5664813	0	-131.972	-31.532	12.03	B5-03822-P04-CH1	517616	OK	0.7769126	-0.6275489	0.0508833	0	-115.931	-42.074	11.223	NA
0.159874126521357	B5-03822-P01-CH0	517624	OK	0.2055156	0.0706607	0.0848834	-0.9724018	96.731	58.345	-234.281	B5-03822-P02-CH0	517624	OK	0.8385143	-0.0443305	-0.5430732	0	-90.907	-97.329	8.692	B5-03822-P02-CH1	517624	OK	0.8228875	-0.0584625	-0.5651887	0	-90.493	-78.008	10.184	B5-03822-P03-CH0	517624	OK	0.8571436	-0.2334597	-0.4591311	0	-100.497	-59.187	13.495	B5-03822-P03-CH1	517624	OK	0.719917	-0.6534051	-0.2340542	0	-101.536	-20.816	7.507	B5-03822-P04-CH0	517624	OK	0.6764945	-0.4737265	0.5638602	0	-131.285	-31.778	9.105	B5-03822-P04-CH1	517624	OK	0.7768604	-0.6275051	0.052204	0	-115.968	-42.241	11.345	NA
0.169866259428942	B5-03822-P01-CH0	517632	OK	0.2058561	0.0704805	0.0859032	-0.9722533	96.676	58.442	-234.236	B5-03822-P02-CH0	517632	OK	0.8410919	-0.0318428	-0.5399542	0	-91.417	-96.148	8.876	B5-03822-P02-CH1	517632	OK	0.8226407	-0.054078	-0.565984	0	-90.059	-77.942	9.932	B5-03822-P03-CH0	517632	OK	0.8528826	-0.2407414	-0.4632871	0	-100.24	-58.68	13.455	B5-03822-P03-CH1	517632	OK	0.7203375	-0.6536593	-0.2320419	0	-101.726	-20.934	7.799	B5-03822-P04-CH0	517632	OK	0.6747402	-0.4824203	0.5585662	0	-130.48	-31.389	7.475	B5-03822-P04-CH1	517632	OK	0.7775408	-0.6265695	0.0533012	0	-115.995	-42.371	11.34	NA
0.179858392336526	B5-03822-P01-CH0	517640	OK	0.205627	0.0703847	0.0855409	-0.9723406	96.647	58.373	-234.254	B5-03822-P02-CH0	517640	OK	0.8447801	-0.0211995	-0.5346935	0	-91.768	-96.339	8.76	B5-03822-P02-CH1	517640	OK	0.8211287	-0.045663	-0.5689135	0	-89.874	-77.405	9.569	B5-03822-P03-CH0	517640	OK	0.8476119	-0.2502802	-0.4678823	0	-99.763	-58.074	12.77	B5-03822-P03-CH1	517640	OK	0.7204289	-0.6546625	-0.2289088	0	-101.443	-20.994	7.781	B5-03822-P04-CH0	517640	OK	0.6735989	-0.490053	0.5532744	0	-130.228	-31.364	8.043	B5-03822-P04-CH1	517640	OK	0.7772988	-0.6268298	0.0537684	0	-115.919	-42.485	11.47	NA
0.189850525244111	B5-03822-P01-CH0	517648	OK	0.2053369	0.070433	0.0849604	-0.9724493	96.659	58.339	-234.273	B5-03822-P02-CH0	517648	OK	0.847017	-0.0092263	-0.5314857	0	-93.327	-94.639	10.842	B5-03822-P02-CH1	517648	OK	0.8206892	-0.0355718	-0.5702666	0	-89.356	-76.536	9.667	B5-03822-P03-CH0	517648	OK	0.8447335	-0.2608757	-0.4672999	0	-98.774	-56.518	13.017	B5-03822-P03-CH1	517648	OK	0.7203454	-0.653085	-0.2336291	0	-101.979	-20.652	7.391	B5-03822-P04-CH0	517648	OK	0.6727474	-0.5026579	0.5429052	0	-129.929	-29.786	6.129	B5-03822-P04-CH1	517648	OK	0.7770236	-0.6271892	0.0535538	0	-115.873	-42.448	11.664	NA
0.199842658151696	B5-03822-P01-CH0	517656	OK	0.2048327	0.070573	0.0840153	-0.9726276	96.681	58.262	-234.27	B5-03822-P02-CH0	517656	OK	0.8524132	0.0012839	-0.5228671	0	-93.528	-93.123	11.093	B5-03822-P02-CH1	517656	OK	0.8199779	-0.0272825	-0.5717446	0	-89.271	-75.458	10.197	B5-03822-P03-CH0	517656	OK	0.8435012	-0.2743151	-0.4617976	0	-98.642	-56.328	13.266	B5-03822-P03-CH1	517656	OK	0.7196739	-0.6537051	-0.2339641	0	-102.029	-20.674	7.235	B5-03822-P04-CH0	517656	OK	0.6708618	-0.5129332	0.5355782	0	-129.225	-29.818	6.327	B5-03822-P04-CH1	517656	OK	0.7764916	-0.6279199	0.0527002	0	-115.817	-42.345	11.866	NA
0.209834791059281	B5-03822-P01-CH0	517664	OK	0.2047364	0.070709	0.083955	-0.9726432	96.702	58.271	-234.226	B5-03822-P02-CH0	517664	OK	0.8565883	0.003847	-0.5159862	0	-93.626	-92.949	9.879	B5-03822-P02-CH1	517664	OK	0.8202074	-0.0237924	-0.5715714	0	-89.33	-75.384	10.794	B5-03822-P03-CH0	517664	OK	0.8447905	-0.2825659	-0.4544068	0	-98.191	-55.43	13.16	B5-03822-P03-CH1	517664	OK	0.7196394	-0.6542629	-0.2325064	0	-102.019	-20.703	7.09	B5-03822-P04-CH0	517664	OK	0.6698729	-0.5238235	0.5261931	0	-128.378	-29.272	6.677	B5-03822-P04-CH1	517664	OK	0.7764769	-0.627994	0.0520305	0	-115.69	-42.254	11.972	NA
0.219826923966866	B5-03822-P01-CH0	517672	OK	0.2045845	0.0706166	0.0834778	-0.9727229	96.635	58.259	-234.264	B5-03822-P02-CH0	517672	OK	0.8593539	0.0053092	-0.5113538	0	-94.13	-91.149	11.661	B5-03822-P02-CH1	517672	OK	0.8214719	-0.0207949	-0.5698697	0	-88.751	-73.712	9.897	B5-03822-P03-CH0	517672	OK	0.846294	-0.2879981	-0.4481558	0	-97.474	-54.931	13.121	B5-03822-P03-CH1	517672	OK	0.7205237	-0.6584713	-0.2173963	0	-101.665	-21.127	7.089	B5-03822-P04-CH0	517672	OK	0.667665	-0.5372427	0.5153579	0	-127.298	-28.646	5.615	B5-03822-P04-CH1	517672	OK	0.7761775	-0.6284472	0.0510158	0	-115.477	-42.113	12.096	NA
0.22981905687445	B5-03822-P01-CH0	517680	OK	0.2046298	0.0704989	0.0838474	-0.9726902	96.591	58.298	-234.275	B5-03822-P02-CH0	517680	OK	0.863281	0.0052378	-0.5046964	0	-94.328	-90.336	11.388	B5-03822-P02-CH1	517680	OK	0.8206077	-0.022681	-0.5710417	0	-88.717	-73.821	9.204	B5-03822-P03-CH0	517680	OK	0.8465756	-0.289713	-0.4465154	0	-97.278	-54.729	12.793	B5-03822-P03-CH1	517680	OK	0.7212861	-0.6585516	-0.2146069	0	-101.592	-20.913	7.7	B5-03822-P04-CH0	517680	OK	0.6669791	-0.5472647	0.5056088	0	-127.343	-28.145	4.33	B5-03822-P04-CH1	517680	OK	0.7764363	-0.6282291	0.0497476	0	-115.399	-41.962	12.123	NA
0.239811189782035	B5-03822-P01-CH0	517688	OK	0.2043772	0.0704469	0.0833206	-0.9727923	96.576	58.191	-234.255	B5-03822-P02-CH0	517688	OK	0.866501	0.0020325	-0.4991712	0	-94.52	-89.883	11.913	B5-03822-P02-CH1	517688	OK	0.8193836	-0.0193824	-0.5729178	0	-88.491	-73.164	9.035	B5-03822-P03-CH0	517688	OK	0.8462279	-0.2884631	-0.4479815	0	-96.468	-53.941	12.473	B5-03822-P03-CH1	517688	OK	0.7205687	-0.6598349	-0.2130696	0	-101.265	-21.189	7.555	B5-03822-P04-CH0	517688	OK	0.6642653	-0.5579619	0.4974235	0	-126.516	-27.781	2.84	B5-03822-P04-CH1	517688	OK	0.7761965	-0.628649	0.0481603	0	-115.237	-41.776	12.095	NA
0.24980332268962	B5-03822-P01-CH0	517696	OK	0.2044068	0.0704461	0.0834179	-0.9727778	96.554	58.245	-234.281	B5-03822-P02-CH0	517696	OK	0.8687194	0.0002416	-0.4953046	0	-94.782	-89.505	12.691	B5-03822-P02-CH1	517696	OK	0.8163657	-0.0154734	-0.577328	0	-88.694	-72.177	10.661	B5-03822-P03-CH0	517696	OK	0.8451795	-0.2853788	-0.4519187	0	-95.688	-53.498	12.455	B5-03822-P03-CH1	517696	OK	0.7209127	-0.6602186	-0.2107042	0	-101.245	-21.034	7.658	B5-03822-P04-CH0	517696	OK	0.6643168	-0.5634276	0.4911542	0	-125.832	-26.988	4.475	B5-03822-P04-CH1	517696	OK	0.7763811	-0.6285317	0.0466928	0	-115.061	-41.494	12.191	NA
0.259795455597205	B5-03822-P01-CH0	517704	OK	0.2043501	0.0704804	0.0835865	-0.9727728	96.547	58.247	-234.184	B5-03822-P02-CH0	517704	OK	0.871479	0.0022859	-0.4904275	0	-94.734	-88.248	12.614	B5-03822-P02-CH1	517704	OK	0.8143807	-0.0151353	-0.5801336	0	-88.034	-72.992	9.11	B5-03822-P03-CH0	517704	OK	0.8450292	-0.2825874	-0.4539493	0	-95.032	-53.034	11.772	B5-03822-P03-CH1	517704	OK	0.7209421	-0.6604842	-0.209769	0	-101.3	-21.109	7.11	B5-03822-P04-CH0	517704	OK	0.6619755	-0.5716031	0.4848281	0	-125.054	-26.607	1.754	B5-03822-P04-CH1	517704	OK	0.7756947	-0.6299136	0.0388143	0	-114.129	-40.786	11.554	NA
0.26978758850479	B5-03822-P01-CH0	517712	OK	0.2042117	0.0705686	0.0834557	-0.9728067	96.57	58.25	-234.159	B5-03822-P02-CH0	517712	OK	0.8725459	0.0009143	-0.4885313	0	-95.246	-87.899	12.359	B5-03822-P02-CH1	517712	OK	0.8128889	-0.0175622	-0.5821539	0	-87.363	-73.26	8.214	B5-03822-P03-CH0	517712	OK	0.8468279	-0.2831661	-0.4502216	0	-94.701	-51.915	12.758	B5-03822-P03-CH1	517712	OK	0.7211836	-0.6606468	-0.2084224	0	-101.102	-21.209	7.314	B5-03822-P04-CH0	517712	OK	0.6611172	-0.5763997	0.4802994	0	-124.614	-25.599	0.462	B5-03822-P04-CH1	517712	OK	0.7763997	-0.6287539	0.0432678	0	-114.705	-41.023	12.141	NA
0.279779721412375	B5-03822-P01-CH0	517720	OK	0.2038819	0.0708413	0.0827478	-0.9729165	96.651	58.232	-234.218	B5-03822-P02-CH0	517720	OK	0.8740901	-0.0046117	-0.485742	0	-94.85	-88.899	12.788	B5-03822-P02-CH1	517720	OK	0.8109457	-0.0200051	-0.5847793	0	-87.338	-72.359	9.378	B5-03822-P03-CH0	517720	OK	0.8461496	-0.2898964	-0.4472035	0	-95.471	-52.515	12.285	B5-03822-P03-CH1	517720	OK	0.7202047	-0.6594811	-0.215383	0	-101.445	-20.931	6.964	B5-03822-P04-CH0	517720	OK	0.6600083	-0.5783921	0.4794284	0	-124.833	-25.658	0.2	B5-03822-P04-CH1	517720	OK	0.7758885	-0.6295244	0.041182	0	-114.611	-40.796	12.297	NA
0.289771854319959	B5-03822-P01-CH0	517728	OK	0.2039181	0.0709917	0.0828503	-0.9728892	96.693	58.22	-234.218	B5-03822-P02-CH0	517728	OK	0.8746382	-0.0046281	-0.4847541	0	-94.457	-87.998	12.677	B5-03822-P02-CH1	517728	OK	0.8083106	-0.0240988	-0.5882629	0	-87.597	-72.258	9.98	B5-03822-P03-CH0	517728	OK	0.8470258	-0.2932409	-0.4433476	0	-95.032	-52.105	12.561	B5-03822-P03-CH1	517728	OK	0.7204864	-0.6597954	-0.2134698	0	-101.548	-20.966	6.994	B5-03822-P04-CH0	517728	OK	0.6601207	-0.5792558	0.4782294	0	-124.704	-25.013	1.205	B5-03822-P04-CH1	517728	OK	0.7759075	-0.6296083	0.0395095	0	-114.487	-40.623	12.323	NA
0.299763987227544	B5-03822-P01-CH0	517736	OK	0.2041772	0.070841	0.0832461	-0.9728121	96.661	58.215	-234.229	B5-03822-P02-CH0	517736	OK	0.8740674	-0.006536	-0.4857608	0	-93.922	-88.635	11.609	B5-03822-P02-CH1	517736	OK	0.8067959	-0.0291294	-0.5901117	0	-86.843	-72.468	9.076	B5-03822-P03-CH0	517736	OK	0.8454329	-0.2982675	-0.4430346	0	-95.301	-52.198	12.264	B5-03822-P03-CH1	517736	OK	0.7211045	-0.6598163	-0.2113073	0	-101.507	-20.987	6.931	B5-03822-P04-CH0	517736	OK	0.6586048	-0.5816376	0.4774279	0	-124.39	-25.574	0.767	B5-03822-P04-CH1	517736	OK	0.7760753	-0.6294751	0.038317	0	-114.293	-40.521	12.201	NA
0.309756120135129	B5-03822-P01-CH0	517744	OK	0.2043093	0.0707095	0.0835235	-0.9727701	96.604	58.249	-234.219	B5-03822-P02-CH0	517744	OK	0.871184	-0.0074986	-0.4908994	0	-94.099	-88.698	11.671	B5-03822-P02-CH1	517744	OK	0.8050025	-0.0369515	-0.5921195	0	-86.219	-73.152	8.292	B5-03822-P03-CH0	517744	OK	0.8456526	-0.303135	-0.4392959	0	-94.645	-51.893	12.368	B5-03822-P03-CH1	517744	OK	0.72166	-0.6597902	-0.2094842	0	-101.427	-20.93	6.931	B5-03822-P04-CH0	517744	OK	0.6575415	-0.5854028	0.4742814	0	-123.873	-25.262	0.23	B5-03822-P04-CH1	517744	OK	0.7762011	-0.6293996	0.0369876	0	-114.091	-40.331	12.136	NA
0.319748253042714	B5-03822-P01-CH0	517752	OK	0.2044389	0.070737	0.0840961	-0.9726916	96.626	58.274	-234.209	B5-03822-P02-CH0	517752	OK	0.8692392	-0.0085839	-0.4943172	0	-93.498	-88.667	12.181	B5-03822-P02-CH1	517752	OK	0.8026981	-0.0431387	-0.5948234	0	-86.008	-73.034	7.968	B5-03822-P03-CH0	517752	OK	0.8456302	-0.3063161	-0.437127	0	-94.56	-52.021	12.577	B5-03822-P03-CH1	517752	OK	0.7223943	-0.6594764	-0.2079358	0	-101.429	-20.89	6.922	B5-03822-P04-CH0	517752	OK	0.6583568	-0.5868655	0.4713334	0	-124.224	-25.001	-0.2	B5-03822-P04-CH1	517752	OK	0.7764044	-0.6292265	0.0356414	0	-114.043	-40.248	12.047	NA
0.329740385950299	B5-03822-P01-CH0	517760	OK	0.2044871	0.0707163	0.0840734	-0.9726849	96.592	58.246	-234.157	B5-03822-P02-CH0	517760	OK	0.8679652	-0.008711	-0.4965487	0	-92.848	-88.856	11.317	B5-03822-P02-CH1	517760	OK	0.8006632	-0.0475721	-0.597223	0	-85.898	-72.063	8.785	B5-03822-P03-CH0	517760	OK	0.8459446	-0.3088014	-0.4347635	0	-94.434	-52.008	12.257	B5-03822-P03-CH1	517760	OK	0.7226894	-0.6595727	-0.2066008	0	-101.408	-20.904	6.704	B5-03822-P04-CH0	517760	OK	0.6595333	-0.5874724	0.4689265	0	-124.309	-24.653	1.874	B5-03822-P04-CH1	517760	OK	0.7762132	-0.6295302	0.0344195	0	-113.838	-40.166	11.849	NA
0.339732518857883	B5-03822-P01-CH0	517768	OK	0.2046004	0.0709086	0.0845329	-0.9726072	96.64	58.335	-234.146	B5-03822-P02-CH0	517768	OK	0.8657522	-0.010743	-0.5003576	0	-92.878	-89.071	11.555	B5-03822-P02-CH1	517768	OK	0.7997964	-0.0526302	-0.5979597	0	-85.55	-72.662	8.389	B5-03822-P03-CH0	517768	OK	0.8453673	-0.3114468	-0.4339989	0	-94.3	-52.056	12.165	B5-03822-P03-CH1	517768	OK	0.7232974	-0.6593377	-0.2052187	0	-101.433	-20.865	6.801	B5-03822-P04-CH0	517768	OK	0.6579563	-0.593235	0.4638597	0	-123.43	-24.489	0.615	B5-03822-P04-CH1	517768	OK	0.7764292	-0.6293208	0.0333621	0	-113.776	-40.009	11.839	NA
0.349724651765468	B5-03822-P01-CH0	517776	OK	0.2045676	0.0710303	0.084421	-0.972615	96.659	58.292	-234.114	B5-03822-P02-CH0	517776	OK	0.8648452	-0.0105614	-0.5019275	0	-92.475	-88.326	11.362	B5-03822-P02-CH1	517776	OK	0.8000402	-0.0556969	-0.5973555	0	-85.197	-71.745	8.986	B5-03822-P03-CH0	517776	OK	0.8430791	-0.3136766	-0.4368348	0	-94.452	-52.217	12.58	B5-03822-P03-CH1	517776	OK	0.7235544	-0.6593394	-0.2043051	0	-101.448	-20.881	6.764	B5-03822-P04-CH0	517776	OK	0.6564152	-0.5975273	0.4605217	0	-123.02	-24.743	-0.768	B5-03822-P04-CH1	517776	OK	0.7762188	-0.6296411	0.0321937	0	-113.668	-39.959	11.778	NA
0.359716784673053	B5-03822-P01-CH0	517784	OK	0.2046039	0.0711663	0.0843689	-0.9726019	96.695	58.283	-234.149	B5-03822-P02-CH0	517784	OK	0.8632419	-0.014397	-0.5045852	0	-92.328	-89.052	11.329	B5-03822-P02-CH1	517784	OK	0.7991678	-0.0602974	-0.5980761	0	-85.25	-72.6	8.209	B5-03822-P03-CH0	517784	OK	0.8408615	-0.3151622	-0.4400282	0	-94.129	-52.378	12.08	B5-03822-P03-CH1	517784	OK	0.7238067	-0.6593651	-0.2033262	0	-101.494	-20.914	6.833	B5-03822-P04-CH0	517784	OK	0.6583318	-0.5987405	0.4561897	0	-123.32	-23.902	0.715	B5-03822-P04-CH1	517784	OK	0.7760971	-0.6298414	0.0311941	0	-113.626	-39.9	11.79	NA
0.369708917580638	B5-03822-P01-CH0	517792	OK	0.2043741	0.0714329	0.0836531	-0.9726925	96.75	58.24	-234.159	B5-03822-P02-CH0	517792	OK	0.8628514	-0.0152395	-0.5052278	0	-91.847	-88.941	10.764	B5-03822-P02-CH1	517792	OK	0.7986278	-0.0638301	-0.5984307	0	-85.388	-72.196	8.41	B5-03822-P03-CH0	517792	OK	0.8383458	-0.3175305	-0.4431147	0	-94.167	-52.402	11.7	B5-03822-P03-CH1	517792	OK	0.7236105	-0.6597044	-0.2029235	0	-101.607	-20.862	6.715	B5-03822-P04-CH0	517792	OK	0.6577431	-0.6006738	0.4544941	0	-123.264	-23.991	1.966	B5-03822-P04-CH1	517792	OK	0.7754285	-0.6307241	0.0299647	0	-113.61	-39.878	11.829	NA
0.379701050488223	B5-03822-P01-CH0	517800	OK	0.2046968	0.0713561	0.0841028	-0.9725915	96.711	58.179	-234.06	B5-03822-P02-CH0	517800	OK	0.8613475	-0.0157998	-0.5077705	0	-91.546	-88.582	10.503	B5-03822-P02-CH1	517800	OK	0.7989761	-0.0682288	-0.5974797	0	-84.882	-72.606	7.482	B5-03822-P03-CH0	517800	OK	0.8376661	-0.3180094	-0.4440557	0	-94.363	-52.098	12.039	B5-03822-P03-CH1	517800	OK	0.7241394	-0.659492	-0.2017237	0	-101.594	-20.987	6.612	B5-03822-P04-CH0	517800	OK	0.6575709	-0.6023132	0.4525697	0	-123.22	-24.217	1.643	B5-03822-P04-CH1	517800	OK	0.7757418	-0.6303593	0.0295257	0	-113.41	-39.847	11.621	NA
0.389693183395807	B5-03822-P01-CH0	517808	OK	0.204577	0.0712202	0.0838807	-0.9726459	96.66	58.154	-234.099	B5-03822-P02-CH0	517808	OK	0.8578164	-0.0182746	-0.5136313	0	-91.681	-88.644	11.521	B5-03822-P02-CH1	517808	OK	0.798742	-0.072654	-0.5972709	0	-84.569	-73.149	6.864	B5-03822-P03-CH0	517808	OK	0.8377739	-0.3172613	-0.4443874	0	-94.196	-51.877	12.061	B5-03822-P03-CH1	517808	OK	0.7243052	-0.6595029	-0.2010918	0	-101.454	-20.968	6.609	B5-03822-P04-CH0	517808	OK	0.6551017	-0.608124	0.4483603	0	-122.786	-24.409	-2.152	B5-03822-P04-CH1	517808	OK	0.7754764	-0.6307157	0.0288803	0	-113.181	-39.803	11.593	NA
0.399685316303392	B5-03822-P01-CH0	517816	OK	0.2045229	0.0713618	0.0838307	-0.9726512	96.674	58.178	-234.039	B5-03822-P02-CH0	517816	OK	0.8551698	-0.016393	-0.5180887	0	-91.356	-88.455	10.85	B5-03822-P02-CH1	517816	OK	0.7983594	-0.0759954	-0.5973666	0	-84.324	-72.763	7.257	B5-03822-P03-CH0	517816	OK	0.838376	-0.3163669	-0.4438893	0	-93.896	-51.359	12.09	B5-03822-P03-CH1	517816	OK	0.7244661	-0.6594761	-0.2005993	0	-101.448	-20.941	6.7	B5-03822-P04-CH0	517816	OK	0.6574106	-0.606989	0.446515	0	-122.849	-23.526	0.452	B5-03822-P04-CH1	517816	OK	0.775416	-0.6308279	0.0280369	0	-113.124	-39.681	11.539	NA
0.409677449210977	B5-03822-P01-CH0	517824	OK	0.2045253	0.0716121	0.0836032	-0.9726519	96.773	58.116	-234.009	B5-03822-P02-CH0	517824	OK	0.8521591	-0.0154679	-0.5230541	0	-90.984	-88.406	11.029	B5-03822-P02-CH1	517824	OK	0.7965561	-0.0789292	-0.5993901	0	-84.873	-72.192	8.494	B5-03822-P03-CH0	517824	OK	0.8360239	-0.3189622	-0.4464607	0	-94.575	-52.224	11.536	B5-03822-P03-CH1	517824	OK	0.7243605	-0.6597499	-0.2000798	0	-101.507	-21.075	6.731	B5-03822-P04-CH0	517824	OK	0.6565336	-0.6088704	0.445242	0	-122.575	-23.725	-0.093	B5-03822-P04-CH1	517824	OK	0.7751767	-0.6311461	0.02749	0	-113.085	-39.711	11.504	NA
0.419669582118562	B5-03822-P01-CH0	517832	OK	0.2046591	0.0717486	0.0835521	-0.972618	96.814	58.146	-233.987	B5-03822-P02-CH0	517832	OK	0.8481151	-0.01653	-0.5295541	0	-91.047	-89.009	10.451	B5-03822-P02-CH1	517832	OK	0.7965528	-0.0810587	-0.5991102	0	-84.259	-72.485	7.211	B5-03822-P03-CH0	517832	OK	0.8365953	-0.3186591	-0.4456059	0	-94.096	-51.749	12.226	B5-03822-P03-CH1	517832	OK	0.724449	-0.6598411	-0.1994577	0	-101.52	-21.092	6.884	B5-03822-P04-CH0	517832	OK	0.6565734	-0.6085921	0.4455638	0	-122.868	-23.803	-0.398	B5-03822-P04-CH1	517832	OK	0.7751008	-0.6312468	0.0273163	0	-112.995	-39.666	11.482	NA
0.429661715026147	B5-03822-P01-CH0	517840	OK	0.2046099	0.0718607	0.0834435	-0.9726294	96.868	58.161	-234.022	B5-03822-P02-CH0	517840	OK	0.8461107	-0.0166936	-0.5327458	0	-90.406	-89.04	9.962	B5-03822-P02-CH1	517840	OK	0.7960635	-0.0834682	-0.5994297	0	-84.093	-72.642	7.524	B5-03822-P03-CH0	517840	OK	0.8367622	-0.3191947	-0.4449087	0	-94.141	-51.978	11.924	B5-03822-P03-CH1	517840	OK	0.7245336	-0.6598058	-0.1992669	0	-101.55	-21.034	6.97	B5-03822-P04-CH0	517840	OK	0.6565282	-0.6085318	0.4457127	0	-123.174	-24.006	-0.826	B5-03822-P04-CH1	517840	OK	0.7750552	-0.6313196	0.0269252	0	-112.907	-39.574	11.61	NA
0.439653847933731	B5-03822-P01-CH0	517848	OK	0.2048009	0.0716475	0.0833844	-0.97261	96.821	58.095	-234.033	B5-03822-P02-CH0	517848	OK	0.8453228	-0.0218021	-0.5338109	0	-89.23	-90.86	9.265	B5-03822-P02-CH1	517848	OK	0.7956886	-0.0843502	-0.5998038	0	-84.471	-72.346	7.532	B5-03822-P03-CH0	517848	OK	0.8379079	-0.3185058	-0.443243	0	-94.083	-52	11.564	B5-03822-P03-CH1	517848	OK	0.7247246	-0.6597189	-0.1988597	0	-101.537	-21.041	6.859	B5-03822-P04-CH0	517848	OK	0.6574026	-0.6040886	0.4504428	0	-123.137	-24.042	1.171	B5-03822-P04-CH1	517848	OK	0.7750519	-0.6313331	0.0267037	0	-112.77	-39.57	11.511	NA
0.449645980841316	B5-03822-P01-CH0	517856	OK	0.204947	0.0716337	0.0839251	-0.9725338	96.846	58.147	-234.015	B5-03822-P02-CH0	517856	OK	0.842837	-0.0209445	-0.5377612	0	-89.54	-90.363	9.19	B5-03822-P02-CH1	517856	OK	0.7973536	-0.0853788	-0.5974427	0	-84.305	-71.47	8.749	B5-03822-P03-CH0	517856	OK	0.8381151	-0.3164955	-0.44429	0	-94.358	-51.924	11.648	B5-03822-P03-CH1	517856	OK	0.7252218	-0.6593301	-0.1983358	0	-101.538	-21.005	6.875	B5-03822-P04-CH0	517856	OK	0.6575712	-0.6051356	0.4487884	0	-123.138	-23.93	0.772	B5-03822-P04-CH1	517856	OK	0.7753272	-0.6310007	0.0265689	0	-112.684	-39.535	11.409	NA
0.459638113748901	B5-03822-P01-CH0	517864	OK	0.2049843	0.0716767	0.0839612	-0.9725196	96.896	58.168	-234.046	B5-03822-P02-CH0	517864	OK	0.8408049	-0.0201285	-0.540964	0	-89.838	-89.528	9.859	B5-03822-P02-CH1	517864	OK	0.798421	-0.0896784	-0.5953837	0	-84.193	-72.193	8.079	B5-03822-P03-CH0	517864	OK	0.8373139	-0.317764	-0.4448949	0	-94.367	-52.05	12.02	B5-03822-P03-CH1	517864	OK	0.7254399	-0.6591491	-0.1981401	0	-101.524	-20.962	6.982	B5-03822-P04-CH0	517864	OK	0.657262	-0.6060225	0.448044	0	-123.122	-24.006	0.541	B5-03822-P04-CH1	517864	OK	0.7753827	-0.6309495	0.0261615	0	-112.717	-39.464	11.465	NA
0.469630246656486	B5-03822-P01-CH0	517872	OK	0.2050308	0.0715389	0.0838497	-0.9725296	96.884	58.096	-234.104	B5-03822-P02-CH0	517872	OK	0.8411598	-0.0218161	-0.5403465	0	-89.038	-90.34	9.276	B5-03822-P02-CH1	517872	OK	0.798819	-0.0935311	-0.594256	0	-84.234	-73.115	7.48	B5-03822-P03-CH0	517872	OK	0.8372642	-0.3173172	-0.4453071	0	-94.321	-52.004	12.078	B5-03822-P03-CH1	517872	OK	0.7255792	-0.6590636	-0.1979143	0	-101.442	-21.038	7.122	B5-03822-P04-CH0	517872	OK	0.6569706	-0.6069143	0.4472636	0	-123.082	-24.028	0.155	B5-03822-P04-CH1	517872	OK	0.7753656	-0.6309796	0.0259409	0	-112.674	-39.46	11.393	NA
0.479622379564071	B5-03822-P01-CH0	517880	OK	0.2048601	0.0716733	0.0837368	-0.9725654	96.951	58.112	-234.146	B5-03822-P02-CH0	517880	OK	0.8402407	-0.0240696	-0.541679	0	-88.81	-91	9.093	B5-03822-P02-CH1	517880	OK	0.7998117	-0.0945683	-0.5927547	0	-84.07	-73.135	7.421	B5-03822-P03-CH0	517880	OK	0.8369252	-0.3172315	-0.4460049	0	-94.403	-51.998	12.029	B5-03822-P03-CH1	517880	OK	0.7256279	-0.6589921	-0.1979735	0	-101.524	-20.961	7.134	B5-03822-P04-CH0	517880	OK	0.656729	-0.6075349	0.4467756	0	-123.104	-24.013	0.147	B5-03822-P04-CH1	517880	OK	0.775224	-0.6311739	0.0254401	0	-112.739	-39.405	11.421	NA
0.489614512471655	B5-03822-P01-CH0	517888	OK	0.2051797	0.0718064	0.0844138	-0.9724297	97.017	58.198	-234.172	B5-03822-P02-CH0	517888	OK	0.83907	-0.0216577	-0.5435922	0	-88.943	-90.091	9.115	B5-03822-P02-CH1	517888	OK	0.7993654	-0.0932071	-0.5935717	0	-84.463	-71.858	8.196	B5-03822-P03-CH0	517888	OK	0.8368553	-0.317199	-0.4461592	0	-94.481	-52.047	11.876	B5-03822-P03-CH1	517888	OK	0.7261144	-0.658664	-0.1972806	0	-101.648	-20.976	7.138	B5-03822-P04-CH0	517888	OK	0.6571561	-0.607371	0.4463703	0	-123.182	-23.914	-0.017	B5-03822-P04-CH1	517888	OK	0.7755598	-0.630763	0.0253976	0	-112.884	-39.444	11.37	NA
