Wav.Time	B5.03822.P01.CH0	Frame	State	Q0	Qx	Qy	Qz	Tx	Ty	Tz	B5.03822.P02.CH0	Frame.1	State.1	Q0.1	Qx.1	Qy.1	Qz.1	Tx.1	Ty.1	Tz.1	B5.03822.P02.CH1	Frame.2	State.2	Q0.2	Qx.2	Qy.2	Qz.2	Tx.2	Ty.2	Tz.2	B5.03822.P03.CH0	Frame.3	State.3	Q0.3	Qx.3	Qy.3	Qz.3	Tx.3	Ty.3	Tz.3	B5.03822.P03.CH1	Frame.4	State.4	Q0.4	Qx.4	Qy.4	Qz.4	Tx.4	Ty.4	Tz.4	B5.03822.P04.CH0	Frame.5	State.5	Q0.5	Qx.5	Qy.5	Qz.5	Tx.5	Ty.5	Tz.5	B5.03822.P04.CH1	Frame.6	State.6	Q0.6	Qx.6	Qy.6	Qz.6	Tx.6	Ty.6	Tz.6	X
0	B5-03822-P01-CH0	725880	OK	0.1998946	0.0754648	0.0862326	-0.9730936	96.64	52.106	-231.439	B5-03822-P02-CH0	725880	OK	0.802803	0.1479271	-0.5776027	0	-90.892	-97.999	4.712	B5-03822-P02-CH1	725880	OK	0.7804242	-0.011802	-0.625139	0	-86.812	-76.3	7.213	B5-03822-P03-CH0	725880	OK	0.8196581	-0.2302145	-0.5245587	0	-98.637	-53.664	11.526	B5-03822-P03-CH1	725880	OK	0.7282885	-0.6533397	-0.206744	0	-102.635	-18.972	6.485	B5-03822-P04-CH0	725880	OK	0.6931776	-0.5763623	0.4327949	0	-120.549	-23.935	6.825	B5-03822-P04-CH1	725880	OK	0.775465	-0.630742	0.0286091	0	-112.611	-39.933	10.88	NA
0.00999178415327484	B5-03822-P01-CH0	725888	OK	0.1999824	0.0754041	0.086518	-0.9730549	96.591	52.082	-231.439	B5-03822-P02-CH0	725888	OK	0.7999353	0.1483799	-0.5814525	0	-91.566	-96.863	6.131	B5-03822-P02-CH1	725888	OK	0.780611	-0.0107638	-0.6249245	0	-87.273	-77.291	7.267	B5-03822-P03-CH0	725888	OK	0.8218275	-0.2245443	-0.5236214	0	-98.632	-53.338	11.902	B5-03822-P03-CH1	725888	OK	0.7287847	-0.6510651	-0.2121018	0	-102.653	-18.84	6.496	B5-03822-P04-CH0	725888	OK	0.6945049	-0.5689889	0.4403573	0	-120.79	-24.159	7.775	B5-03822-P04-CH1	725888	OK	0.7757074	-0.6304304	0.0289057	0	-112.522	-39.928	10.83	NA
0.0199835683065497	B5-03822-P01-CH0	725896	OK	0.1997211	0.0755812	0.0861901	-0.9731239	96.611	52.055	-231.43	B5-03822-P02-CH0	725896	OK	0.8002836	0.1443977	-0.5819755	0	-91.38	-97.791	6.317	B5-03822-P02-CH1	725896	OK	0.78139	-0.0072708	-0.6240007	0	-87.535	-76.527	7.183	B5-03822-P03-CH0	725896	OK	0.8236371	-0.2212447	-0.5221807	0	-98.412	-53.903	12	B5-03822-P03-CH1	725896	OK	0.7287667	-0.6492122	-0.2177672	0	-102.724	-18.563	6.527	B5-03822-P04-CH0	725896	OK	0.6953657	-0.5611259	0.4490036	0	-121.284	-24.295	7.837	B5-03822-P04-CH1	725896	OK	0.7754184	-0.630783	0.028966	0	-112.455	-39.943	10.888	NA
0.0299753524598245	B5-03822-P01-CH0	725904	OK	0.1998431	0.0755418	0.0861327	-0.973107	96.561	52.052	-231.462	B5-03822-P02-CH0	725904	OK	0.7995066	0.1427831	-0.5834399	0	-91.484	-97.876	6.283	B5-03822-P02-CH1	725904	OK	0.7826333	-0.0040398	-0.62247	0	-87.566	-75.962	7.373	B5-03822-P03-CH0	725904	OK	0.8250879	-0.2176242	-0.5214112	0	-98.624	-54.108	11.813	B5-03822-P03-CH1	725904	OK	0.7291414	-0.6473945	-0.2218854	0	-102.583	-18.609	6.72	B5-03822-P04-CH0	725904	OK	0.6963686	-0.5526479	0.4578767	0	-121.392	-24.174	7.115	B5-03822-P04-CH1	725904	OK	0.7753998	-0.6307929	0.0292475	0	-112.494	-39.983	10.876	NA
0.0399671366130993	B5-03822-P01-CH0	725912	OK	0.1998088	0.0755896	0.08603	-0.9731195	96.573	52.016	-231.47	B5-03822-P02-CH0	725912	OK	0.7983018	0.1412782	-0.5854526	0	-91.855	-97.795	6.173	B5-03822-P02-CH1	725912	OK	0.7846202	-0.0044899	-0.6199604	0	-87.342	-77.384	6.832	B5-03822-P03-CH0	725912	OK	0.8264104	-0.2125963	-0.5213911	0	-99.072	-53.987	11.598	B5-03822-P03-CH1	725912	OK	0.7293742	-0.6459413	-0.2253288	0	-102.251	-18.947	6.951	B5-03822-P04-CH0	725912	OK	0.698564	-0.5415347	0.4677056	0	-121.893	-24.386	7.891	B5-03822-P04-CH1	725912	OK	0.7754549	-0.6307138	0.0294933	0	-112.523	-39.982	10.914	NA
0.0499589207663742	B5-03822-P01-CH0	725920	OK	0.1997105	0.0756937	0.0858143	-0.9731506	96.573	52.006	-231.441	B5-03822-P02-CH0	725920	OK	0.796339	0.1391523	-0.5886262	0	-92.384	-97.648	6.81	B5-03822-P02-CH1	725920	OK	0.7863328	-0.0042322	-0.6177886	0	-87.358	-77.652	7.388	B5-03822-P03-CH0	725920	OK	0.8277435	-0.2096619	-0.5204638	0	-99.064	-54.354	11.982	B5-03822-P03-CH1	725920	OK	0.7298533	-0.643806	-0.2298434	0	-102.42	-18.69	6.653	B5-03822-P04-CH0	725920	OK	0.70067	-0.5291567	0.4785966	0	-122.137	-24.449	9.143	B5-03822-P04-CH1	725920	OK	0.7753019	-0.6308872	0.0298063	0	-112.588	-40.023	10.913	NA
0.059950704919649	B5-03822-P01-CH0	725928	OK	0.1995693	0.0757882	0.0857431	-0.9731785	96.608	52.032	-231.463	B5-03822-P02-CH0	725928	OK	0.7954082	0.1363116	-0.5905463	0	-92.376	-98.228	6.663	B5-03822-P02-CH1	725928	OK	0.7875277	-0.0025115	-0.6162741	0	-87.747	-78.479	6.601	B5-03822-P03-CH0	725928	OK	0.828149	-0.2071767	-0.5208138	0	-99.694	-55.052	12.092	B5-03822-P03-CH1	725928	OK	0.7307471	-0.6413966	-0.2337075	0	-102.447	-18.696	6.935	B5-03822-P04-CH0	725928	OK	0.7028624	-0.5145944	0.4910978	0	-122.864	-24.935	10.411	B5-03822-P04-CH1	725928	OK	0.7752189	-0.6309769	0.030064	0	-112.765	-40.054	10.991	NA
0.0699424890729238	B5-03822-P01-CH0	725936	OK	0.1995464	0.0761215	0.0858042	-0.9731518	96.716	52.042	-231.343	B5-03822-P02-CH0	725936	OK	0.7937867	0.1328459	-0.5935104	0	-92.501	-98.946	6.923	B5-03822-P02-CH1	725936	OK	0.7889989	-0.0002959	-0.6143945	0	-87.899	-78.384	6.599	B5-03822-P03-CH0	725936	OK	0.8293088	-0.2011851	-0.521317	0	-99.924	-55.024	12.533	B5-03822-P03-CH1	725936	OK	0.7319691	-0.639105	-0.2361481	0	-102.279	-18.99	7.333	B5-03822-P04-CH0	725936	OK	0.7045613	-0.5016955	0.5018914	0	-123.987	-25.339	10.307	B5-03822-P04-CH1	725936	OK	0.7753097	-0.6308497	0.030389	0	-112.974	-40.093	10.897	NA
0.0799342732261987	B5-03822-P01-CH0	725944	OK	0.1998001	0.0761512	0.0862897	-0.9730545	96.754	52.085	-231.322	B5-03822-P02-CH0	725944	OK	0.7953781	0.1285171	-0.5923319	0	-91.135	-100.368	4.845	B5-03822-P02-CH1	725944	OK	0.7899547	0.0006327	-0.6131649	0	-88.411	-78.716	7.818	B5-03822-P03-CH0	725944	OK	0.8297193	-0.1951449	-0.5229572	0	-100.374	-54.95	12.394	B5-03822-P03-CH1	725944	OK	0.7343146	-0.6346896	-0.2407305	0	-102.228	-18.769	7.136	B5-03822-P04-CH0	725944	OK	0.7061842	-0.4883033	0.5127024	0	-124.531	-25.499	12.052	B5-03822-P04-CH1	725944	OK	0.7757609	-0.6302522	0.0312597	0	-113.084	-40.128	10.89	NA
0.0899260573794735	B5-03822-P01-CH0	725952	OK	0.1999854	0.0759578	0.0866177	-0.9730024	96.711	52.12	-231.268	B5-03822-P02-CH0	725952	OK	0.7952149	0.1242675	-0.5934567	0	-90.607	-101.335	4.027	B5-03822-P02-CH1	725952	OK	0.7912619	0.0019595	-0.6114742	0	-88.993	-78.053	8.245	B5-03822-P03-CH0	725952	OK	0.8309273	-0.1891272	-0.5232501	0	-100.49	-55.008	12.53	B5-03822-P03-CH1	725952	OK	0.7368359	-0.6293128	-0.2470591	0	-101.811	-19.051	7.685	B5-03822-P04-CH0	725952	OK	0.7058057	-0.4742049	0.5262775	0	-125.309	-26.495	13.286	B5-03822-P04-CH1	725952	OK	0.7759277	-0.6300003	0.0321853	0	-113.2	-40.241	10.791	NA
0.0999178415327484	B5-03822-P01-CH0	725960	OK	0.199933	0.0759387	0.0863838	-0.9730354	96.733	52.053	-231.202	B5-03822-P02-CH0	725960	OK	0.7929789	0.1190524	-0.597504	0	-90.711	-101.665	4.147	B5-03822-P02-CH1	725960	OK	0.7921477	0.0012997	-0.610328	0	-89.526	-78.349	8.413	B5-03822-P03-CH0	725960	OK	0.8311096	-0.1864361	-0.523926	0	-100.641	-55.76	12.652	B5-03822-P03-CH1	725960	OK	0.7392081	-0.6226288	-0.2567191	0	-102.314	-19.287	7.559	B5-03822-P04-CH0	725960	OK	0.7036294	-0.4626845	0.5392854	0	-126.006	-26.706	12.477	B5-03822-P04-CH1	725960	OK	0.775853	-0.6300425	0.0331439	0	-113.23	-40.323	10.651	NA
0.109909625686023	B5-03822-P01-CH0	725968	OK	0.199914	0.0759766	0.0863138	-0.9730426	96.775	52.097	-231.145	B5-03822-P02-CH0	725968	OK	0.7899576	0.1130067	-0.6026578	0	-90.664	-101.364	4.856	B5-03822-P02-CH1	725968	OK	0.7942849	-0.0001803	-0.6075454	0	-89.428	-78.439	7.596	B5-03822-P03-CH0	725968	OK	0.8303676	-0.1864953	-0.5250801	0	-101.365	-56.369	12.94	B5-03822-P03-CH1	725968	OK	0.7417927	-0.615783	-0.2656216	0	-102.083	-19.677	7.337	B5-03822-P04-CH0	725968	OK	0.7021224	-0.4488931	0.5527379	0	-127.137	-26.9	13.114	B5-03822-P04-CH1	725968	OK	0.7757893	-0.6300787	0.0339383	0	-113.499	-40.384	10.583	NA
0.119901409839298	B5-03822-P01-CH0	725976	OK	0.2003901	0.0757889	0.0869454	-0.972903	96.76	52.172	-231.143	B5-03822-P02-CH0	725976	OK	0.7877804	0.1016159	-0.6075164	0	-89.814	-102.769	4.105	B5-03822-P02-CH1	725976	OK	0.7952576	-0.0065065	-0.6062368	0	-89.99	-77.896	8.593	B5-03822-P03-CH0	725976	OK	0.8318625	-0.1840738	-0.5235663	0	-101.386	-55.986	12.356	B5-03822-P03-CH1	725976	OK	0.7448159	-0.6076435	-0.2757147	0	-101.862	-19.716	7.419	B5-03822-P04-CH0	725976	OK	0.7003741	-0.4337867	0.5668379	0	-127.827	-27.711	14.338	B5-03822-P04-CH1	725976	OK	0.7763572	-0.6293037	0.0353035	0	-113.716	-40.463	10.541	NA
0.129893193992573	B5-03822-P01-CH0	725984	OK	0.2003671	0.0757271	0.086877	-0.9729187	96.777	52.192	-231.107	B5-03822-P02-CH0	725984	OK	0.7805705	0.0923796	-0.6182036	0	-90.505	-101.866	4.796	B5-03822-P02-CH1	725984	OK	0.7984031	-0.0163459	-0.6019014	0	-90.345	-78.341	7.997	B5-03822-P03-CH0	725984	OK	0.8322364	-0.1853156	-0.522533	0	-101.335	-56.055	12.128	B5-03822-P03-CH1	725984	OK	0.7459958	-0.6020758	-0.2845961	0	-102.281	-19.854	7.423	B5-03822-P04-CH0	725984	OK	0.6973077	-0.4297587	0.5736457	0	-128.633	-27.926	11.167	B5-03822-P04-CH1	725984	OK	0.7763666	-0.6292284	0.0364214	0	-113.888	-40.513	10.555	NA
0.139884978145848	B5-03822-P01-CH0	725992	OK	0.2007089	0.0757213	0.0873913	-0.9728026	96.82	52.253	-231.002	B5-03822-P02-CH0	725992	OK	0.7754368	0.0800253	-0.6263335	0	-89.446	-102.449	5.07	B5-03822-P02-CH1	725992	OK	0.8017469	-0.0262213	-0.5970882	0	-90.465	-78.445	9.014	B5-03822-P03-CH0	725992	OK	0.8312363	-0.1894949	-0.522626	0	-101.453	-56.349	12.324	B5-03822-P03-CH1	725992	OK	0.7466996	-0.6008319	-0.2853783	0	-101.559	-20.239	7.959	B5-03822-P04-CH0	725992	OK	0.6966446	-0.4325834	0.5723268	0	-128.471	-27.402	8.608	B5-03822-P04-CH1	725992	OK	0.776594	-0.6288686	0.0377632	0	-114.201	-40.71	10.476	NA
0.149876762299123	B5-03822-P01-CH0	726000	OK	0.2006306	0.0755816	0.0866344	-0.9728974	96.819	52.142	-230.962	B5-03822-P02-CH0	726000	OK	0.7692241	0.069805	-0.6351547	0	-88.719	-101.995	4.796	B5-03822-P02-CH1	726000	OK	0.8063757	-0.0354134	-0.5903423	0	-89.574	-78.341	7.844	B5-03822-P03-CH0	726000	OK	0.8305717	-0.1942339	-0.5219424	0	-100.99	-55.698	12.154	B5-03822-P03-CH1	726000	OK	0.7466078	-0.6012621	-0.2847115	0	-101.377	-20.1	8.474	B5-03822-P04-CH0	726000	OK	0.6991162	-0.427457	0.5731641	0	-128.691	-27.902	11.437	B5-03822-P04-CH1	726000	OK	0.776255	-0.6292193	0.0388752	0	-114.301	-40.824	10.515	NA
0.159868546452397	B5-03822-P01-CH0	726008	OK	0.2006831	0.0755974	0.0860304	-0.9729389	96.851	52.109	-230.913	B5-03822-P02-CH0	726008	OK	0.7657931	0.0536828	-0.6408425	0	-87.082	-102.456	4.013	B5-03822-P02-CH1	726008	OK	0.8090997	-0.0448496	-0.5859575	0	-89.554	-78.141	8.487	B5-03822-P03-CH0	726008	OK	0.8285656	-0.2034376	-0.5216246	0	-101.217	-55.905	11.841	B5-03822-P03-CH1	726008	OK	0.7455212	-0.6028209	-0.2842623	0	-101.511	-20.177	7.943	B5-03822-P04-CH0	726008	OK	0.7004861	-0.4165561	0.5794827	0	-129.464	-29.192	14.338	B5-03822-P04-CH1	726008	OK	0.77595	-0.6295136	0.0401771	0	-114.352	-40.925	10.472	NA
0.169860330605672	B5-03822-P01-CH0	726016	OK	0.2008079	0.0753064	0.0859352	-0.9729441	96.807	52.118	-230.946	B5-03822-P02-CH0	726016	OK	0.7639003	0.0417045	-0.6439853	0	-86.218	-102.935	3.978	B5-03822-P02-CH1	726016	OK	0.8131363	-0.0494905	-0.5799655	0	-89.179	-77.721	8.685	B5-03822-P03-CH0	726016	OK	0.8293679	-0.2103984	-0.5175726	0	-100.804	-55.086	12.091	B5-03822-P03-CH1	726016	OK	0.7443518	-0.6044614	-0.2838428	0	-100.948	-20.392	7.692	B5-03822-P04-CH0	726016	OK	0.7013228	-0.410921	0.5824863	0	-129.739	-29.004	13.829	B5-03822-P04-CH1	726016	OK	0.7760269	-0.6293353	0.0414657	0	-114.363	-40.977	10.562	NA
0.179852114758947	B5-03822-P01-CH0	726024	OK	0.200921	0.0753041	0.0859212	-0.9729222	96.868	52.148	-230.895	B5-03822-P02-CH0	726024	OK	0.7618323	0.0358933	-0.6467791	0	-86.142	-103.199	4.03	B5-03822-P02-CH1	726024	OK	0.8143746	-0.0481051	-0.5783424	0	-89.939	-76.838	9.358	B5-03822-P03-CH0	726024	OK	0.8288439	-0.2166325	-0.5158373	0	-101.049	-55.209	11.467	B5-03822-P03-CH1	726024	OK	0.7432905	-0.6053674	-0.284692	0	-101.084	-20.415	7.931	B5-03822-P04-CH0	726024	OK	0.7011847	-0.406352	0.5858482	0	-129.88	-29.686	13.485	B5-03822-P04-CH1	726024	OK	0.7760881	-0.6291943	0.0424475	0	-114.602	-41.073	10.549	NA
0.189843898912222	B5-03822-P01-CH0	726032	OK	0.2009487	0.0753142	0.0859369	-0.9729143	96.914	52.167	-230.852	B5-03822-P02-CH0	726032	OK	0.7593412	0.0342633	-0.64979	0	-86.384	-102.716	4.597	B5-03822-P02-CH1	726032	OK	0.8153559	-0.0451648	-0.5771957	0	-90.118	-75.95	9.169	B5-03822-P03-CH0	726032	OK	0.8291117	-0.2214531	-0.5133539	0	-100.941	-55.541	11.32	B5-03822-P03-CH1	726032	OK	0.7422713	-0.6069046	-0.2840776	0	-101.238	-20.551	7.804	B5-03822-P04-CH0	726032	OK	0.7024497	-0.4041179	0.5858781	0	-130.422	-29.359	13.886	B5-03822-P04-CH1	726032	OK	0.7762631	-0.6289216	0.043281	0	-114.696	-41.077	10.547	NA
0.199835683065497	B5-03822-P01-CH0	726040	OK	0.2008757	0.0751543	0.0857442	-0.9729587	96.897	52.233	-230.901	B5-03822-P02-CH0	726040	OK	0.7580732	0.0361626	-0.6511661	0	-86.642	-102.181	5.007	B5-03822-P02-CH1	726040	OK	0.8151695	-0.0425729	-0.5776559	0	-90.303	-75.983	9.539	B5-03822-P03-CH0	726040	OK	0.8297242	-0.2274022	-0.5097509	0	-100.304	-55.822	12.015	B5-03822-P03-CH1	726040	OK	0.741897	-0.6073713	-0.284058	0	-101.238	-20.542	8.056	B5-03822-P04-CH0	726040	OK	0.7041159	-0.4022918	0.5851342	0	-130.808	-28.733	15.689	B5-03822-P04-CH1	726040	OK	0.7761435	-0.6290312	0.0438296	0	-114.828	-41.097	10.66	NA
0.209827467218772	B5-03822-P01-CH0	726048	OK	0.2008285	0.0752485	0.0855491	-0.9729784	96.968	52.255	-230.917	B5-03822-P02-CH0	726048	OK	0.7605186	0.0380508	-0.6482003	0	-85.767	-102.512	4.088	B5-03822-P02-CH1	726048	OK	0.8165749	-0.0395425	-0.5758835	0	-89.597	-76.965	8.482	B5-03822-P03-CH0	726048	OK	0.8291458	-0.2309165	-0.5091117	0	-100.538	-55.717	11.801	B5-03822-P03-CH1	726048	OK	0.7416649	-0.6080131	-0.2832899	0	-101.225	-20.596	7.72	B5-03822-P04-CH0	726048	OK	0.7030052	-0.4016974	0.5868756	0	-130.865	-29.916	15.666	B5-03822-P04-CH1	726048	OK	0.7761172	-0.6290218	0.0444271	0	-114.827	-41.111	10.838	NA
0.219819251372046	B5-03822-P01-CH0	726056	OK	0.2006965	0.0753168	0.0853712	-0.973016	97.02	52.255	-230.896	B5-03822-P02-CH0	726056	OK	0.7610909	0.0403606	-0.6473884	0	-86.36	-102.325	3.825	B5-03822-P02-CH1	726056	OK	0.8169543	-0.034617	-0.5756625	0	-89.696	-76.541	9.237	B5-03822-P03-CH0	726056	OK	0.8290963	-0.23404	-0.5077643	0	-100.517	-55.954	11.637	B5-03822-P03-CH1	726056	OK	0.742262	-0.6082683	-0.2811704	0	-100.859	-20.67	7.997	B5-03822-P04-CH0	726056	OK	0.7032886	-0.4041328	0.5848605	0	-130.45	-29.364	17.085	B5-03822-P04-CH1	726056	OK	0.7759759	-0.629191	0.0444988	0	-114.924	-41.159	10.936	NA
0.229811035525321	B5-03822-P01-CH0	726064	OK	0.2009434	0.075282	0.0857417	-0.9729351	97.052	52.315	-230.885	B5-03822-P02-CH0	726064	OK	0.7632113	0.0418583	-0.6447918	0	-86.615	-102.323	4.35	B5-03822-P02-CH1	726064	OK	0.8183187	-0.0284469	-0.5740603	0	-89.598	-76.342	9.185	B5-03822-P03-CH0	726064	OK	0.829039	-0.2363311	-0.5067958	0	-100.48	-55.851	11.525	B5-03822-P03-CH1	726064	OK	0.7425585	-0.6087725	-0.2792902	0	-101.108	-20.914	7.983	B5-03822-P04-CH0	726064	OK	0.7020771	-0.4101182	0.5821432	0	-129.915	-28.986	15.301	B5-03822-P04-CH1	726064	OK	0.7761611	-0.628941	0.0448015	0	-115.003	-41.271	10.926	NA
0.239802819678596	B5-03822-P01-CH0	726072	OK	0.2011394	0.0752998	0.0860649	-0.9728647	97.081	52.393	-230.905	B5-03822-P02-CH0	726072	OK	0.7660386	0.0464508	-0.6411141	0	-86.997	-102.392	4.501	B5-03822-P02-CH1	726072	OK	0.8188273	-0.0221019	-0.5736143	0	-90.201	-76.126	9.212	B5-03822-P03-CH0	726072	OK	0.8292007	-0.2396496	-0.5049697	0	-100.082	-55.965	11.46	B5-03822-P03-CH1	726072	OK	0.7434583	-0.6062517	-0.2823625	0	-101.413	-20.428	8.089	B5-03822-P04-CH0	726072	OK	0.7013774	-0.4159252	0.5788575	0	-129.611	-29.032	13.9	B5-03822-P04-CH1	726072	OK	0.7763738	-0.6286612	0.0450417	0	-114.996	-41.312	10.941	NA
0.249794603831871	B5-03822-P01-CH0	726080	OK	0.2011691	0.075272	0.0865383	-0.9728187	97.097	52.511	-230.948	B5-03822-P02-CH0	726080	OK	0.7681757	0.0507566	-0.638224	0	-87.859	-101.816	4.819	B5-03822-P02-CH1	726080	OK	0.8208829	-0.0172235	-0.5708368	0	-90.74	-76.267	9.786	B5-03822-P03-CH0	726080	OK	0.8287554	-0.2420817	-0.5045402	0	-99.977	-55.665	11.803	B5-03822-P03-CH1	726080	OK	0.7434473	-0.6067923	-0.281228	0	-101.306	-20.502	8.049	B5-03822-P04-CH0	726080	OK	0.7009365	-0.4217867	0.5751383	0	-129.519	-29.132	11.978	B5-03822-P04-CH1	726080	OK	0.7766547	-0.6283216	0.0449397	0	-114.992	-41.272	11.041	NA
0.259786387985146	B5-03822-P01-CH0	726088	OK	0.2015886	0.0751241	0.087686	-0.9726405	97.067	52.698	-230.958	B5-03822-P02-CH0	726088	OK	0.772885	0.0535286	-0.6322843	0	-87.551	-102.591	4.179	B5-03822-P02-CH1	726088	OK	0.8250755	-0.0137428	-0.5648553	0	-90.491	-75.836	9.838	B5-03822-P03-CH0	726088	OK	0.82717	-0.2438554	-0.5062849	0	-99.988	-55.627	11.409	B5-03822-P03-CH1	726088	OK	0.7440592	-0.606854	-0.2794711	0	-101.277	-20.475	7.964	B5-03822-P04-CH0	726088	OK	0.7018315	-0.4255121	0.5712898	0	-129.33	-28.699	12.105	B5-03822-P04-CH1	726088	OK	0.7774885	-0.6272865	0.0449807	0	-115.052	-41.171	11.08	NA
0.269778172138421	B5-03822-P01-CH0	726096	OK	0.2017268	0.0752462	0.0878809	-0.9725848	97.093	52.757	-230.887	B5-03822-P02-CH0	726096	OK	0.773751	0.0560427	-0.631006	0	-88.95	-101.373	5.587	B5-03822-P02-CH1	726096	OK	0.8267467	-0.0133858	-0.5624151	0	-91.327	-76.663	10.279	B5-03822-P03-CH0	726096	OK	0.8269596	-0.2458972	-0.5056406	0	-99.399	-55.305	11.488	B5-03822-P03-CH1	726096	OK	0.7440828	-0.6075218	-0.2779534	0	-101.255	-20.592	7.83	B5-03822-P04-CH0	726096	OK	0.7025821	-0.428229	0.5683294	0	-128.878	-28.477	13.119	B5-03822-P04-CH1	726096	OK	0.7774978	-0.6272817	0.0448868	0	-115.052	-41.222	10.993	NA
0.279769956291695	B5-03822-P01-CH0	726104	OK	0.2017343	0.0752212	0.0881177	-0.9725638	97.067	52.857	-230.908	B5-03822-P02-CH0	726104	OK	0.7766483	0.0573197	-0.6273212	0	-88.823	-100.811	5.49	B5-03822-P02-CH1	726104	OK	0.830694	-0.0091579	-0.5566539	0	-91.005	-75.526	10.157	B5-03822-P03-CH0	726104	OK	0.825959	-0.2476934	-0.5063988	0	-99.409	-54.905	11.385	B5-03822-P03-CH1	726104	OK	0.744389	-0.6078948	-0.2763131	0	-101.128	-20.601	7.809	B5-03822-P04-CH0	726104	OK	0.703239	-0.4313518	0.5651465	0	-129.081	-28.129	12.619	B5-03822-P04-CH1	726104	OK	0.7776333	-0.6271326	0.0446219	0	-114.924	-41.13	11.082	NA
0.28976174044497	B5-03822-P01-CH0	726112	OK	0.2017045	0.0752117	0.0880153	-0.97258	97.062	52.914	-230.947	B5-03822-P02-CH0	726112	OK	0.7789697	0.0550378	-0.6246416	0	-88.634	-101.69	4.752	B5-03822-P02-CH1	726112	OK	0.8327344	-0.0107585	-0.5535682	0	-91.554	-75.329	10.884	B5-03822-P03-CH0	726112	OK	0.825688	-0.2487426	-0.5063265	0	-98.932	-54.387	12.138	B5-03822-P03-CH1	726112	OK	0.7444538	-0.6084584	-0.2748945	0	-101.103	-20.682	7.725	B5-03822-P04-CH0	726112	OK	0.7040512	-0.4330325	0.5628453	0	-129.058	-27.918	13.755	B5-03822-P04-CH1	726112	OK	0.7775268	-0.6273033	0.0440754	0	-114.891	-41.091	11.212	NA
0.299753524598245	B5-03822-P01-CH0	726120	OK	0.2017216	0.0752882	0.087944	-0.972577	97.067	52.937	-230.915	B5-03822-P02-CH0	726120	OK	0.7788178	0.0536115	-0.624955	0	-88.842	-100.137	5.413	B5-03822-P02-CH1	726120	OK	0.8356481	-0.0142824	-0.5490794	0	-91.456	-75.394	9.996	B5-03822-P03-CH0	726120	OK	0.8250426	-0.2465222	-0.5084599	0	-98.934	-53.951	11.479	B5-03822-P03-CH1	726120	OK	0.7446737	-0.6088604	-0.2734046	0	-101.071	-20.724	7.638	B5-03822-P04-CH0	726120	OK	0.701994	-0.4378989	0.5616484	0	-128.348	-28.102	11.877	B5-03822-P04-CH1	726120	OK	0.7776402	-0.6272233	0.0432037	0	-114.835	-40.956	11.317	NA
0.30974530875152	B5-03822-P01-CH0	726128	OK	0.2017306	0.0750934	0.0879982	-0.9725852	96.989	52.983	-230.963	B5-03822-P02-CH0	726128	OK	0.7813601	0.0491125	-0.6221449	0	-88.013	-100.185	4.457	B5-03822-P02-CH1	726128	OK	0.8385765	-0.0164148	-0.5445365	0	-91.316	-74.577	9.45	B5-03822-P03-CH0	726128	OK	0.8255729	-0.2448117	-0.5084255	0	-98.712	-53.675	11.342	B5-03822-P03-CH1	726128	OK	0.7449442	-0.6091824	-0.2719465	0	-101.061	-20.775	7.6	B5-03822-P04-CH0	726128	OK	0.7055807	-0.4352862	0.5591797	0	-128.86	-27.79	16.056	B5-03822-P04-CH1	726128	OK	0.7776016	-0.62732	0.04249	0	-114.715	-40.907	11.33	NA
0.319737092904795	B5-03822-P01-CH0	726136	OK	0.2018642	0.0749911	0.0884824	-0.9725215	96.948	53.097	-230.969	B5-03822-P02-CH0	726136	OK	0.7832481	0.0429354	-0.6202249	0	-87.687	-99.584	4.291	B5-03822-P02-CH1	726136	OK	0.8386673	-0.0209522	-0.5442409	0	-92.093	-73.52	9.854	B5-03822-P03-CH0	726136	OK	0.8268254	-0.2440177	-0.5067694	0	-98.378	-53.218	10.726	B5-03822-P03-CH1	726136	OK	0.7456178	-0.6090985	-0.2702836	0	-101.004	-20.707	7.589	B5-03822-P04-CH0	726136	OK	0.7039458	-0.440264	0.55734	0	-128.116	-27.401	14.056	B5-03822-P04-CH1	726136	OK	0.7778356	-0.6270636	0.0419891	0	-114.557	-40.809	11.245	NA
0.32972887705807	B5-03822-P01-CH0	726144	OK	0.2018415	0.0748291	0.0887728	-0.9725122	96.874	53.182	-230.983	B5-03822-P02-CH0	726144	OK	0.7844709	0.0365969	-0.6190848	0	-87.968	-97.938	4.911	B5-03822-P02-CH1	726144	OK	0.8414804	-0.026888	-0.5396182	0	-91.68	-72.712	10.086	B5-03822-P03-CH0	726144	OK	0.8284238	-0.2400029	-0.5060757	0	-98.306	-52.134	11.085	B5-03822-P03-CH1	726144	OK	0.7460482	-0.609199	-0.2688656	0	-100.967	-20.674	7.502	B5-03822-P04-CH0	726144	OK	0.7021232	-0.4462719	0.5548553	0	-127.571	-26.808	11.631	B5-03822-P04-CH1	726144	OK	0.7780106	-0.6269028	0.0411379	0	-114.38	-40.613	11.202	NA
0.339720661211344	B5-03822-P01-CH0	726152	OK	0.2015432	0.0747084	0.0885558	-0.9726031	96.824	53.198	-231.028	B5-03822-P02-CH0	726152	OK	0.7872594	0.0312112	-0.6158316	0	-88.041	-97.274	5.39	B5-03822-P02-CH1	726152	OK	0.8438412	-0.0331351	-0.535569	0	-91.845	-71.285	10.351	B5-03822-P03-CH0	726152	OK	0.8314854	-0.2333537	-0.5041608	0	-97.885	-51.001	11.25	B5-03822-P03-CH1	726152	OK	0.7460826	-0.6095142	-0.2680545	0	-100.968	-20.682	7.431	B5-03822-P04-CH0	726152	OK	0.7021409	-0.4477469	0.5536432	0	-127.547	-26.594	11.979	B5-03822-P04-CH1	726152	OK	0.7778737	-0.6271539	0.0398814	0	-114.191	-40.401	11.239	NA
0.349712445364619	B5-03822-P01-CH0	726160	OK	0.2015631	0.0746669	0.0885977	-0.9725984	96.794	53.23	-231.034	B5-03822-P02-CH0	726160	OK	0.7899971	0.0274528	-0.6124957	0	-87.854	-95.88	4.887	B5-03822-P02-CH1	726160	OK	0.8450625	-0.043499	-0.5328951	0	-92.247	-70.843	10.542	B5-03822-P03-CH0	726160	OK	0.8357101	-0.2236797	-0.5015537	0	-97.406	-50.159	12.083	B5-03822-P03-CH1	726160	OK	0.7463086	-0.6097247	-0.2669443	0	-101.003	-20.696	7.393	B5-03822-P04-CH0	726160	OK	0.7027551	-0.4485877	0.5521814	0	-127.296	-26.337	13.139	B5-03822-P04-CH1	726160	OK	0.777765	-0.6273501	0.0389022	0	-114.071	-40.316	11.157	NA
0.359704229517894	B5-03822-P01-CH0	726168	OK	0.2012325	0.0747598	0.0879958	-0.9727143	96.804	53.148	-230.999	B5-03822-P02-CH0	726168	OK	0.7910325	0.0236362	-0.6113173	0	-88.115	-95.388	6.086	B5-03822-P02-CH1	726168	OK	0.8452531	-0.050008	-0.5320211	0	-92.517	-69.778	10.396	B5-03822-P03-CH0	726168	OK	0.8384888	-0.2144327	-0.5009542	0	-97.436	-50.008	12.065	B5-03822-P03-CH1	726168	OK	0.7461959	-0.6101235	-0.2663476	0	-100.991	-20.725	7.288	B5-03822-P04-CH0	726168	OK	0.6995727	-0.4532388	0.5524243	0	-126.432	-26.51	10.657	B5-03822-P04-CH1	726168	OK	0.7772507	-0.6280782	0.0374044	0	-113.958	-40.236	11.185	NA
0.369696013671169	B5-03822-P01-CH0	726176	OK	0.2011337	0.0746373	0.088414	-0.9727063	96.775	53.243	-231.084	B5-03822-P02-CH0	726176	OK	0.7912025	0.0213447	-0.6111817	0	-88.616	-94.994	6.196	B5-03822-P02-CH1	726176	OK	0.8454259	-0.0562057	-0.531127	0	-92.416	-69.455	10.102	B5-03822-P03-CH0	726176	OK	0.8398901	-0.2041769	-0.5028881	0	-97.828	-49.657	12.332	B5-03822-P03-CH1	726176	OK	0.7467806	-0.609782	-0.2654893	0	-101.042	-20.594	7.315	B5-03822-P04-CH0	726176	OK	0.6998028	-0.4535111	0.5519092	0	-126.397	-26.045	10.757	B5-03822-P04-CH1	726176	OK	0.777426	-0.6279356	0.0361343	0	-113.785	-40.018	11.291	NA
0.379687797824444	B5-03822-P01-CH0	726184	OK	0.2007774	0.0747566	0.0878423	-0.9728225	96.799	53.196	-231.101	B5-03822-P02-CH0	726184	OK	0.7910845	0.0205695	-0.6113609	0	-89.028	-93.404	6.94	B5-03822-P02-CH1	726184	OK	0.844535	-0.0630289	-0.5317782	0	-92.534	-69.672	9.747	B5-03822-P03-CH0	726184	OK	0.8429318	-0.1934979	-0.5020205	0	-97.389	-49.384	12.285	B5-03822-P03-CH1	726184	OK	0.7465621	-0.6102018	-0.2651391	0	-101.136	-20.622	7.299	B5-03822-P04-CH0	726184	OK	0.7018614	-0.4468236	0.5547425	0	-127.431	-26.396	12.603	B5-03822-P04-CH1	726184	OK	0.7769302	-0.6286527	0.0342817	0	-113.757	-39.857	11.29	NA
0.389679581977719	B5-03822-P01-CH0	726192	OK	0.2003838	0.0748459	0.0874637	-0.9729309	96.799	53.143	-231.103	B5-03822-P02-CH0	726192	OK	0.790519	0.014455	-0.6122669	0	-89.131	-93.281	7.042	B5-03822-P02-CH1	726192	OK	0.8428628	-0.0723987	-0.5332361	0	-92.826	-70.093	9.969	B5-03822-P03-CH0	726192	OK	0.8446092	-0.1837356	-0.5028683	0	-97.645	-49.386	12.517	B5-03822-P03-CH1	726192	OK	0.7466268	-0.6102292	-0.2648939	0	-101.182	-20.519	7.327	B5-03822-P04-CH0	726192	OK	0.7017281	-0.4480752	0.5539009	0	-127.324	-26.242	12.885	B5-03822-P04-CH1	726192	OK	0.7766356	-0.6291041	0.0326368	0	-113.625	-39.632	11.308	NA
0.399671366130993	B5-03822-P01-CH0	726200	OK	0.2004897	0.0746286	0.0876062	-0.972913	96.706	53.107	-231.123	B5-03822-P02-CH0	726200	OK	0.7914595	0.0058935	-0.6111931	0	-87.994	-94.084	5.638	B5-03822-P02-CH1	726200	OK	0.8434157	-0.0794169	-0.5313595	0	-92.222	-69.511	9.575	B5-03822-P03-CH0	726200	OK	0.8463037	-0.1775228	-0.5022506	0	-97.519	-49.059	12.245	B5-03822-P03-CH1	726200	OK	0.7470299	-0.6102622	-0.2636785	0	-101.043	-20.558	7.324	B5-03822-P04-CH0	726200	OK	0.7013551	-0.4496343	0.5531094	0	-127.046	-26.05	12.431	B5-03822-P04-CH1	726200	OK	0.7765155	-0.6292977	0.0317508	0	-113.444	-39.57	11.139	NA
0.409663150284268	B5-03822-P01-CH0	726208	OK	0.2002293	0.0746977	0.0876253	-0.9729596	96.71	53.083	-231.124	B5-03822-P02-CH0	726208	OK	0.7900866	0.000304	-0.6129952	0	-87.711	-92.98	6.077	B5-03822-P02-CH1	726208	OK	0.8423265	-0.085637	-0.5321206	0	-92.434	-69.252	9.562	B5-03822-P03-CH0	726208	OK	0.8461403	-0.1718178	-0.504505	0	-97.592	-48.688	12.498	B5-03822-P03-CH1	726208	OK	0.7472235	-0.6102436	-0.2631725	0	-101.039	-20.514	7.335	B5-03822-P04-CH0	726208	OK	0.7008987	-0.4516174	0.5520713	0	-126.803	-25.763	12.016	B5-03822-P04-CH1	726208	OK	0.7763507	-0.6295861	0.0300168	0	-113.445	-39.401	11.064	NA
0.419654934437543	B5-03822-P01-CH0	726216	OK	0.1999594	0.0747616	0.0872635	-0.9730427	96.701	53.035	-231.193	B5-03822-P02-CH0	726216	OK	0.7890074	-0.0078361	-0.6143337	0	-87.326	-93.023	5.795	B5-03822-P02-CH1	726216	OK	0.8406315	-0.0922314	-0.5336967	0	-92.671	-68.774	9.474	B5-03822-P03-CH0	726216	OK	0.8466409	-0.1672296	-0.5052062	0	-96.795	-48.048	13.953	B5-03822-P03-CH1	726216	OK	0.7470009	-0.6106314	-0.2629048	0	-101.096	-20.58	7.337	B5-03822-P04-CH0	726216	OK	0.7003479	-0.4534511	0.5512666	0	-126.597	-25.551	11.67	B5-03822-P04-CH1	726216	OK	0.7760456	-0.6300333	0.0284835	0	-113.371	-39.206	11.124	NA
0.429646718590818	B5-03822-P01-CH0	726224	OK	0.1996664	0.0748327	0.0868467	-0.9731347	96.673	52.939	-231.165	B5-03822-P02-CH0	726224	OK	0.7869738	-0.0147437	-0.6168103	0	-87.445	-92.683	6.3	B5-03822-P02-CH1	726224	OK	0.8397771	-0.0988755	-0.5338521	0	-92.42	-68.42	9.03	B5-03822-P03-CH0	726224	OK	0.844953	-0.1642197	-0.5090053	0	-96.765	-47.94	13.742	B5-03822-P03-CH1	726224	OK	0.7469319	-0.6108512	-0.2625902	0	-101.046	-20.586	7.336	B5-03822-P04-CH0	726224	OK	0.699946	-0.4550798	0.5504343	0	-126.418	-25.376	11.377	B5-03822-P04-CH1	726224	OK	0.7757713	-0.630435	0.027031	0	-113.187	-39.014	11.139	NA
0.439638502744093	B5-03822-P01-CH0	726232	OK	0.199611	0.0749086	0.0867538	-0.9731485	96.656	52.863	-231.162	B5-03822-P02-CH0	726232	OK	0.786308	-0.0196384	-0.6175225	0	-87.244	-91.184	7.299	B5-03822-P02-CH1	726232	OK	0.8371564	-0.1044414	-0.5368996	0	-92.864	-68.683	9.612	B5-03822-P03-CH0	726232	OK	0.8426782	-0.164965	-0.5125232	0	-97.177	-48.635	13.356	B5-03822-P03-CH1	726232	OK	0.7470328	-0.6108898	-0.2622128	0	-101.08	-20.591	7.347	B5-03822-P04-CH0	726232	OK	0.699422	-0.4568127	0.5496644	0	-126.214	-25.259	10.756	B5-03822-P04-CH1	726232	OK	0.7756137	-0.6306721	0.0260016	0	-113.098	-38.923	11.123	NA
0.449630286897368	B5-03822-P01-CH0	726240	OK	0.1992464	0.0750931	0.0861929	-0.9732588	96.665	52.8	-231.189	B5-03822-P02-CH0	726240	OK	0.7873821	-0.0273921	-0.6158564	0	-86.378	-91.771	6.977	B5-03822-P02-CH1	726240	OK	0.8362145	-0.1071558	-0.5378317	0	-93.118	-68.818	9.465	B5-03822-P03-CH0	726240	OK	0.8412761	-0.165815	-0.5145483	0	-97.627	-48.859	12.987	B5-03822-P03-CH1	726240	OK	0.7468318	-0.6111102	-0.2622718	0	-101.151	-20.513	7.373	B5-03822-P04-CH0	726240	OK	0.6990157	-0.4584275	0.5488363	0	-126.09	-25.047	10.741	B5-03822-P04-CH1	726240	OK	0.7752422	-0.6311808	0.0247043	0	-113.008	-38.702	11.223	NA
0.459622071050642	B5-03822-P01-CH0	726248	OK	0.1991671	0.0750513	0.08665	-0.9732377	96.644	52.781	-231.236	B5-03822-P02-CH0	726248	OK	0.7867206	-0.0337908	-0.6163837	0	-86.262	-92.095	6.9	B5-03822-P02-CH1	726248	OK	0.8364897	-0.1098487	-0.5368596	0	-92.639	-68.443	9.655	B5-03822-P03-CH0	726248	OK	0.8418042	-0.1642378	-0.5141903	0	-97.574	-48.456	11.904	B5-03822-P03-CH1	726248	OK	0.7472035	-0.6108887	-0.2617286	0	-101.121	-20.551	7.481	B5-03822-P04-CH0	726248	OK	0.6992593	-0.4596205	0.5475267	0	-126.017	-24.803	10.734	B5-03822-P04-CH1	726248	OK	0.7755685	-0.6308167	0.0237434	0	-112.957	-38.516	11.258	NA
0.469613855203917	B5-03822-P01-CH0	726256	OK	0.1990924	0.0750994	0.0863554	-0.9732754	96.623	52.639	-231.241	B5-03822-P02-CH0	726256	OK	0.7864363	-0.0378162	-0.6165126	0	-85.94	-92.086	6.348	B5-03822-P02-CH1	726256	OK	0.8360715	-0.1149056	-0.5364524	0	-92.143	-68.98	9.385	B5-03822-P03-CH0	726256	OK	0.8424301	-0.1657617	-0.5126739	0	-97.54	-48.269	12.025	B5-03822-P03-CH1	726256	OK	0.7471404	-0.6111268	-0.2613528	0	-101.046	-20.669	7.499	B5-03822-P04-CH0	726256	OK	0.6993159	-0.4608018	0.5464604	0	-125.952	-24.702	10.937	B5-03822-P04-CH1	726256	OK	0.7754194	-0.6310262	0.0230341	0	-112.869	-38.449	11.224	NA
0.479605639357192	B5-03822-P01-CH0	726264	OK	0.1992574	0.074994	0.0869302	-0.9731986	96.573	52.597	-231.216	B5-03822-P02-CH0	726264	OK	0.7859447	-0.0414725	-0.6169043	0	-85.875	-91.481	6.574	B5-03822-P02-CH1	726264	OK	0.8363218	-0.1183057	-0.535322	0	-91.653	-69.391	8.695	B5-03822-P03-CH0	726264	OK	0.8449226	-0.16908	-0.507462	0	-96.905	-48.312	12.406	B5-03822-P03-CH1	726264	OK	0.7477691	-0.6105608	-0.2608771	0	-100.998	-20.611	7.471	B5-03822-P04-CH0	726264	OK	0.6995702	-0.4618967	0.545209	0	-125.845	-24.597	10.863	B5-03822-P04-CH1	726264	OK	0.7758444	-0.6305111	0.0228285	0	-112.725	-38.357	11.184	NA
0.489597423510467	B5-03822-P01-CH0	726272	OK	0.1994712	0.0748581	0.0873589	-0.9731269	96.532	52.579	-231.231	B5-03822-P02-CH0	726272	OK	0.7865982	-0.0461618	-0.6157373	0	-85.284	-92.417	5.938	B5-03822-P02-CH1	726272	OK	0.8359043	-0.1194807	-0.5357129	0	-91.844	-69.214	8.386	B5-03822-P03-CH0	726272	OK	0.8461138	-0.17239	-0.5043542	0	-97.005	-48.305	12.837	B5-03822-P03-CH1	726272	OK	0.7481916	-0.6103285	-0.2602083	0	-100.954	-20.643	7.524	B5-03822-P04-CH0	726272	OK	0.6994928	-0.4632932	0.5441225	0	-125.685	-24.502	10.484	B5-03822-P04-CH1	726272	OK	0.7761363	-0.6301643	0.0224793	0	-112.696	-38.262	11.086	NA
0.499589207663742	B5-03822-P01-CH0	726280	OK	0.1993293	0.0749434	0.0875912	-0.9731285	96.567	52.56	-231.199	B5-03822-P02-CH0	726280	OK	0.7858866	-0.0470766	-0.6165761	0	-85.52	-90.981	6.779	B5-03822-P02-CH1	726280	OK	0.8371942	-0.1206766	-0.5334257	0	-91.561	-68.633	8.917	B5-03822-P03-CH0	726280	OK	0.84731	-0.1740101	-0.501783	0	-97.275	-47.943	13.283	B5-03822-P03-CH1	726280	OK	0.7484241	-0.6100357	-0.2602266	0	-100.97	-20.605	7.643	B5-03822-P04-CH0	726280	OK	0.6996851	-0.4640477	0.5432316	0	-125.763	-24.478	10.376	B5-03822-P04-CH1	726280	OK	0.7763153	-0.6299649	0.0218805	0	-112.666	-38.132	11.17	NA
0.509580991817017	B5-03822-P01-CH0	726288	OK	0.1996457	0.0749341	0.0878991	-0.9730366	96.554	52.542	-231.129	B5-03822-P02-CH0	726288	OK	0.7847506	-0.0498996	-0.6177997	0	-85.897	-90.834	6.758	B5-03822-P02-CH1	726288	OK	0.8381988	-0.1226027	-0.531405	0	-91.47	-68.415	8.912	B5-03822-P03-CH0	726288	OK	0.8488783	-0.1791731	-0.4972952	0	-97.154	-48.334	12.679	B5-03822-P03-CH1	726288	OK	0.7487235	-0.6099351	-0.2596001	0	-100.977	-20.611	7.634	B5-03822-P04-CH0	726288	OK	0.700151	-0.4634354	0.543154	0	-125.788	-24.578	10.775	B5-03822-P04-CH1	726288	OK	0.7766594	-0.6295365	0.0219998	0	-112.545	-38.03	11.104	NA
0.519572775970292	B5-03822-P01-CH0	726296	OK	0.1996504	0.0749587	0.0876192	-0.973059	96.562	52.477	-231.093	B5-03822-P02-CH0	726296	OK	0.7857393	-0.0530307	-0.6162804	0	-85.109	-91.484	5.915	B5-03822-P02-CH1	726296	OK	0.839648	-0.1253204	-0.5284752	0	-90.835	-68.297	8.483	B5-03822-P03-CH0	726296	OK	0.8497014	-0.1850575	-0.4937219	0	-96.965	-48.615	12.68	B5-03822-P03-CH1	726296	OK	0.7487173	-0.6099903	-0.2594885	0	-100.954	-20.565	7.698	B5-03822-P04-CH0	726296	OK	0.7002426	-0.4634952	0.5429848	0	-125.844	-24.627	11.005	B5-03822-P04-CH1	726296	OK	0.7765066	-0.6297308	0.0218313	0	-112.511	-37.985	11.09	NA
0.529564560123566	B5-03822-P01-CH0	726304	OK	0.1995585	0.0749485	0.0869085	-0.9731423	96.586	52.367	-231.125	B5-03822-P02-CH0	726304	OK	0.7856134	-0.0553206	-0.6162395	0	-84.547	-91.876	5.791	B5-03822-P02-CH1	726304	OK	0.8388409	-0.1291291	-0.5288398	0	-90.914	-68.441	9.014	B5-03822-P03-CH0	726304	OK	0.8492777	-0.1924495	-0.4916203	0	-97.09	-48.997	12.764	B5-03822-P03-CH1	726304	OK	0.7484249	-0.6103242	-0.2595466	0	-100.896	-20.576	7.788	B5-03822-P04-CH0	726304	OK	0.6997813	-0.4643407	0.5428571	0	-125.754	-24.639	11.063	B5-03822-P04-CH1	726304	OK	0.7760453	-0.6303076	0.0215872	0	-112.539	-37.975	11.104	NA
0.539556344276841	B5-03822-P01-CH0	726312	OK	0.1997802	0.0748954	0.0870034	-0.9730925	96.597	52.351	-231.08	B5-03822-P02-CH0	726312	OK	0.7848588	-0.0562175	-0.6171194	0	-84.176	-92.303	5.867	B5-03822-P02-CH1	726312	OK	0.8386346	-0.130426	-0.5288488	0	-90.705	-68.714	8.382	B5-03822-P03-CH0	726312	OK	0.8501535	-0.1970535	-0.4882713	0	-96.818	-48.578	12.961	B5-03822-P03-CH1	726312	OK	0.7486274	-0.6103534	-0.2588932	0	-100.811	-20.564	7.791	B5-03822-P04-CH0	726312	OK	0.6997578	-0.4646449	0.5426271	0	-125.708	-24.684	10.989	B5-03822-P04-CH1	726312	OK	0.7761471	-0.6301832	0.0215588	0	-112.548	-37.933	11.008	NA
0.549548128430116	B5-03822-P01-CH0	726320	OK	0.200034	0.0747911	0.0871043	-0.9730393	96.601	52.318	-231.097	B5-03822-P02-CH0	726320	OK	0.7836078	-0.0544056	-0.618869	0	-84.295	-91.727	5.889	B5-03822-P02-CH1	726320	OK	0.8396589	-0.1290833	-0.5275513	0	-89.985	-68.109	8.692	B5-03822-P03-CH0	726320	OK	0.8504512	-0.2029977	-0.4853089	0	-96.709	-48.618	12.53	B5-03822-P03-CH1	726320	OK	0.7488473	-0.6103799	-0.2581939	0	-100.697	-20.597	7.865	B5-03822-P04-CH0	726320	OK	0.6998705	-0.4649075	0.5422567	0	-125.723	-24.734	10.942	B5-03822-P04-CH1	726320	OK	0.7761943	-0.6301242	0.0215828	0	-112.547	-37.962	10.907	NA
0.559539912583391	B5-03822-P01-CH0	726328	OK	0.2000782	0.0750457	0.0866447	-0.9730517	96.699	52.358	-231.076	B5-03822-P02-CH0	726328	OK	0.782677	-0.0527714	-0.620187	0	-84.329	-91.513	5.841	B5-03822-P02-CH1	726328	OK	0.8381028	-0.130898	-0.5295747	0	-89.846	-68.863	8.671	B5-03822-P03-CH0	726328	OK	0.8504058	-0.2093605	-0.482678	0	-96.835	-48.432	12.5	B5-03822-P03-CH1	726328	OK	0.7485569	-0.610768	-0.2581184	0	-100.812	-20.51	7.879	B5-03822-P04-CH0	726328	OK	0.6997458	-0.4651257	0.5422304	0	-125.816	-24.775	10.996	B5-03822-P04-CH1	726328	OK	0.7757924	-0.6306205	0.0215408	0	-112.622	-37.96	10.885	NA
0.569531696736666	B5-03822-P01-CH0	726336	OK	0.2003314	0.0752458	0.0866509	-0.9729836	96.791	52.362	-231.001	B5-03822-P02-CH0	726336	OK	0.7813944	-0.05268	-0.62181	0	-84.269	-92.387	5.351	B5-03822-P02-CH1	726336	OK	0.8362472	-0.1295501	-0.5328297	0	-89.399	-68.514	8.075	B5-03822-P03-CH0	726336	OK	0.8512932	-0.2189289	-0.4768333	0	-96.541	-48.545	12.347	B5-03822-P03-CH1	726336	OK	0.7485865	-0.6109882	-0.2575105	0	-100.833	-20.525	7.911	B5-03822-P04-CH0	726336	OK	0.6998069	-0.4650961	0.542177	0	-125.804	-24.831	10.993	B5-03822-P04-CH1	726336	OK	0.7757322	-0.6306927	0.021593	0	-112.683	-38.002	10.851	NA
0.57952348088994	B5-03822-P01-CH0	726344	OK	0.2005465	0.0752421	0.0864422	-0.9729581	96.811	52.404	-231.035	B5-03822-P02-CH0	726344	OK	0.7814986	-0.0520396	-0.6217329	0	-83.537	-92.872	4.926	B5-03822-P02-CH1	726344	OK	0.8328858	-0.1294846	-0.5380845	0	-88.973	-68.624	7.998	B5-03822-P03-CH0	726344	OK	0.8517188	-0.2279514	-0.4718191	0	-96.562	-48.425	12.79	B5-03822-P03-CH1	726344	OK	0.7484	-0.6115552	-0.2567055	0	-100.754	-20.636	7.987	B5-03822-P04-CH0	726344	OK	0.6997919	-0.4652376	0.5420751	0	-125.79	-24.802	10.985	B5-03822-P04-CH1	726344	OK	0.7756004	-0.6308514	0.0216925	0	-112.652	-37.983	10.884	NA
0.589515265043215	B5-03822-P01-CH0	726352	OK	0.2007956	0.0752002	0.0863982	-0.9729139	96.819	52.429	-231.055	B5-03822-P02-CH0	726352	OK	0.780582	-0.0495636	-0.6230852	0	-83.599	-91.824	5.431	B5-03822-P02-CH1	726352	OK	0.8294695	-0.1287224	-0.5435171	0	-88.794	-69.122	7.818	B5-03822-P03-CH0	726352	OK	0.8515872	-0.2360341	-0.4680675	0	-96.728	-48.728	12.768	B5-03822-P03-CH1	726352	OK	0.7483935	-0.6118708	-0.2559713	0	-100.657	-20.682	7.896	B5-03822-P04-CH0	726352	OK	0.6997908	-0.4655074	0.5418447	0	-125.678	-24.821	11.113	B5-03822-P04-CH1	726352	OK	0.7755686	-0.630884	0.0218811	0	-112.58	-38.015	10.883	NA
0.59950704919649	B5-03822-P01-CH0	726360	OK	0.2008256	0.0754606	0.0858715	-0.9729342	96.905	52.487	-231.107	B5-03822-P02-CH0	726360	OK	0.7798694	-0.0483338	-0.6240734	0	-83.475	-92.148	5.649	B5-03822-P02-CH1	726360	OK	0.8268919	-0.1264543	-0.547959	0	-88.473	-68.422	8.562	B5-03822-P03-CH0	726360	OK	0.8520623	-0.2419383	-0.4641719	0	-96.558	-48.875	12.699	B5-03822-P03-CH1	726360	OK	0.7480158	-0.612522	-0.2555176	0	-100.684	-20.694	7.88	B5-03822-P04-CH0	726360	OK	0.6996644	-0.4662876	0.5413369	0	-125.675	-24.769	11.351	B5-03822-P04-CH1	726360	OK	0.7751402	-0.6314073	0.0219652	0	-112.659	-38.047	10.879	NA
0.609498833349765	B5-03822-P01-CH0	726368	OK	0.2010521	0.0755173	0.0859937	-0.9728722	96.952	52.562	-231.094	B5-03822-P02-CH0	726368	OK	0.7775198	-0.0451253	-0.6272373	0	-83.826	-92.283	5.861	B5-03822-P02-CH1	726368	OK	0.8226017	-0.1266585	-0.5543322	0	-88.411	-69.048	7.584	B5-03822-P03-CH0	726368	OK	0.8522226	-0.2473562	-0.4610114	0	-96.408	-48.789	13.324	B5-03822-P03-CH1	726368	OK	0.7481391	-0.6126154	-0.254932	0	-100.732	-20.698	7.827	B5-03822-P04-CH0	726368	OK	0.6997638	-0.4674511	0.5402037	0	-125.631	-24.636	11.284	B5-03822-P04-CH1	726368	OK	0.7751635	-0.6313757	0.0220527	0	-112.765	-38.105	10.9	NA
0.61949061750304	B5-03822-P01-CH0	726376	OK	0.2014249	0.0756047	0.0862742	-0.9727634	97	52.645	-231.129	B5-03822-P02-CH0	726376	OK	0.7755571	-0.0433301	-0.6297887	0	-83.666	-92.018	5.191	B5-03822-P02-CH1	726376	OK	0.818448	-0.128539	-0.5600184	0	-87.717	-69.378	7.566	B5-03822-P03-CH0	726376	OK	0.8513093	-0.2552355	-0.4583965	0	-96.537	-49.244	12.679	B5-03822-P03-CH1	726376	OK	0.7483903	-0.6126778	-0.2540432	0	-100.713	-20.751	7.937	B5-03822-P04-CH0	726376	OK	0.6997744	-0.4685022	0.5392786	0	-125.552	-24.653	11.118	B5-03822-P04-CH1	726376	OK	0.775458	-0.6310082	0.0222153	0	-112.771	-38.108	10.947	NA
0.629482401656315	B5-03822-P01-CH0	726384	OK	0.2018958	0.0757413	0.087076	-0.9725837	97.06	52.796	-231.089	B5-03822-P02-CH0	726384	OK	0.774343	-0.0415307	-0.6314017	0	-83.244	-91.598	5.526	B5-03822-P02-CH1	726384	OK	0.8130808	-0.1293982	-0.5675876	0	-87.228	-69.477	6.969	B5-03822-P03-CH0	726384	OK	0.85089	-0.2645673	-0.4538616	0	-96.421	-49.481	12.16	B5-03822-P03-CH1	726384	OK	0.7488991	-0.6124816	-0.2530145	0	-100.777	-20.759	7.9	B5-03822-P04-CH0	726384	OK	0.7003929	-0.4689134	0.5381172	0	-125.622	-24.618	11.116	B5-03822-P04-CH1	726384	OK	0.7759895	-0.6303426	0.0225524	0	-112.837	-38.153	10.902	NA
0.639474185809589	B5-03822-P01-CH0	726392	OK	0.2015869	0.0758399	0.0861287	-0.9727245	97.081	52.776	-231.128	B5-03822-P02-CH0	726392	OK	0.7736921	-0.040002	-0.6322976	0	-82.858	-92.323	5.326	B5-03822-P02-CH1	726392	OK	0.8071824	-0.1283243	-0.5761853	0	-86.648	-69.118	6.826	B5-03822-P03-CH0	726392	OK	0.8520682	-0.2718866	-0.4472778	0	-95.677	-48.897	12.592	B5-03822-P03-CH1	726392	OK	0.7483016	-0.6130359	-0.2534396	0	-100.85	-20.776	8.002	B5-03822-P04-CH0	726392	OK	0.7002075	-0.4701579	0.5372719	0	-125.665	-24.551	11.485	B5-03822-P04-CH1	726392	OK	0.7754572	-0.6310112	0.0221587	0	-112.821	-38.129	11.028	NA
0.649465969962864	B5-03822-P01-CH0	726400	OK	0.2019892	0.0758746	0.0868036	-0.9725783	97.107	52.913	-231.085	B5-03822-P02-CH0	726400	OK	0.7743222	-0.0377033	-0.6316673	0	-82.261	-92.891	4.911	B5-03822-P02-CH1	726400	OK	0.8013922	-0.1306571	-0.5836945	0	-86.54	-70.013	6.448	B5-03822-P03-CH0	726400	OK	0.8517004	-0.2769531	-0.4448634	0	-95.853	-48.838	12.381	B5-03822-P03-CH1	726400	OK	0.7486107	-0.6129408	-0.2527562	0	-100.937	-20.808	7.863	B5-03822-P04-CH0	726400	OK	0.7007902	-0.4703091	0.536379	0	-125.706	-24.518	11.596	B5-03822-P04-CH1	726400	OK	0.7759747	-0.6303618	0.0225239	0	-112.849	-38.142	11.012	NA
0.659457754116139	B5-03822-P01-CH0	726408	OK	0.2021647	0.0757747	0.0868609	-0.9725445	97.092	52.917	-231.038	B5-03822-P02-CH0	726408	OK	0.7750255	-0.0345154	-0.6309867	0	-82.167	-93.348	4.613	B5-03822-P02-CH1	726408	OK	0.7988053	-0.1299461	-0.5873875	0	-85.931	-69.702	6.498	B5-03822-P03-CH0	726408	OK	0.8513313	-0.2818394	-0.4424947	0	-95.791	-49.413	12.121	B5-03822-P03-CH1	726408	OK	0.7487223	-0.612985	-0.2523179	0	-100.904	-20.844	7.736	B5-03822-P04-CH0	726408	OK	0.7007116	-0.47129	0.5356201	0	-125.607	-24.528	11.486	B5-03822-P04-CH1	726408	OK	0.7760924	-0.6302103	0.0227043	0	-112.747	-38.188	10.959	NA
0.669449538269414	B5-03822-P01-CH0	726416	OK	0.2022368	0.0757263	0.0869363	-0.9725265	97.098	53.027	-231.088	B5-03822-P02-CH0	726416	OK	0.7757662	-0.0318136	-0.630218	0	-81.727	-93.794	4.488	B5-03822-P02-CH1	726416	OK	0.7947473	-0.1280035	-0.593289	0	-86.095	-69.478	6.715	B5-03822-P03-CH0	726416	OK	0.8510354	-0.2861233	-0.4403092	0	-96.031	-49.466	12.56	B5-03822-P03-CH1	726416	OK	0.748752	-0.6130206	-0.2521433	0	-100.945	-20.813	7.704	B5-03822-P04-CH0	726416	OK	0.7006105	-0.4723602	0.5348091	0	-125.574	-24.516	11.465	B5-03822-P04-CH1	726416	OK	0.7761956	-0.6300822	0.0227344	0	-112.781	-38.178	10.964	NA
0.679441322422689	B5-03822-P01-CH0	726424	OK	0.2025071	0.0758323	0.0871779	-0.9724404	97.151	53.11	-231.052	B5-03822-P02-CH0	726424	OK	0.7737991	-0.027886	-0.632817	0	-82.643	-93.235	5.129	B5-03822-P02-CH1	726424	OK	0.7900717	-0.1255195	-0.6000263	0	-86.02	-69.574	6.372	B5-03822-P03-CH0	726424	OK	0.8513409	-0.2900806	-0.4371178	0	-95.963	-49.401	12.26	B5-03822-P03-CH1	726424	OK	0.7489522	-0.6129657	-0.2516819	0	-101.037	-20.773	7.65	B5-03822-P04-CH0	726424	OK	0.7006677	-0.4732133	0.5339793	0	-125.594	-24.546	11.349	B5-03822-P04-CH1	726424	OK	0.7763862	-0.6298379	0.0229946	0	-112.836	-38.24	10.943	NA
0.689433106575964	B5-03822-P01-CH0	726432	OK	0.2025407	0.0759371	0.0870759	-0.9724344	97.187	53.155	-230.972	B5-03822-P02-CH0	726432	OK	0.7731425	-0.0209733	-0.6338854	0	-83.011	-92.609	5.42	B5-03822-P02-CH1	726432	OK	0.7860946	-0.1242898	-0.6054811	0	-85.566	-69.555	6.445	B5-03822-P03-CH0	726432	OK	0.8518489	-0.2918392	-0.434952	0	-95.913	-49.147	12.412	B5-03822-P03-CH1	726432	OK	0.7489905	-0.6129704	-0.2515561	0	-101.086	-20.737	7.673	B5-03822-P04-CH0	726432	OK	0.7003641	-0.4748385	0.5329338	0	-125.579	-24.478	10.9	B5-03822-P04-CH1	726432	OK	0.7762137	-0.6300428	0.0232036	0	-112.856	-38.348	10.888	NA
