Wav.Time	B5.03822.P01.CH0	Frame	State	Q0	Qx	Qy	Qz	Tx	Ty	Tz	B5.03822.P02.CH0	Frame.1	State.1	Q0.1	Qx.1	Qy.1	Qz.1	Tx.1	Ty.1	Tz.1	B5.03822.P02.CH1	Frame.2	State.2	Q0.2	Qx.2	Qy.2	Qz.2	Tx.2	Ty.2	Tz.2	B5.03822.P03.CH0	Frame.3	State.3	Q0.3	Qx.3	Qy.3	Qz.3	Tx.3	Ty.3	Tz.3	B5.03822.P03.CH1	Frame.4	State.4	Q0.4	Qx.4	Qy.4	Qz.4	Tx.4	Ty.4	Tz.4	B5.03822.P04.CH0	Frame.5	State.5	Q0.5	Qx.5	Qy.5	Qz.5	Tx.5	Ty.5	Tz.5	B5.03822.P04.CH1	Frame.6	State.6	Q0.6	Qx.6	Qy.6	Qz.6	Tx.6	Ty.6	Tz.6	X
0	B5-03822-P01-CH0	523336	OK	0.2060463	0.0705941	0.0824008	-0.9725078	96.969	58.982	-234.262	B5-03822-P02-CH0	523336	OK	0.8619132	0.0894329	-0.4991067	0	-98.135	-88.287	13.536	B5-03822-P02-CH1	523336	OK	0.7648745	-0.0300088	-0.64348	0	-83.664	-73.931	4.558	B5-03822-P03-CH0	523336	OK	0.8265929	-0.3179446	-0.4643872	0	-94.871	-52.149	11.116	B5-03822-P03-CH1	523336	OK	0.6916751	-0.6915337	-0.2082469	0	-102.697	-17.342	4.949	B5-03822-P04-CH0	523336	OK	0.6477995	-0.6179244	0.4455617	0	-121.682	-20.336	-2.668	B5-03822-P04-CH1	523336	OK	0.7741371	-0.6323061	0.030012	0	-112.94	-40.15	11.15	NA
0.00999181153943059	B5-03822-P01-CH0	523344	OK	0.2061047	0.0704964	0.0828021	-0.9724685	96.963	59.025	-234.27	B5-03822-P02-CH0	523344	OK	0.865759	0.0856469	-0.4930781	0	-98.139	-88.122	15.078	B5-03822-P02-CH1	523344	OK	0.7662381	-0.0277209	-0.6419585	0	-83.459	-73.719	4.421	B5-03822-P03-CH0	523344	OK	0.8277927	-0.3219796	-0.4594437	0	-94.73	-51.772	11.26	B5-03822-P03-CH1	523344	OK	0.6930191	-0.6892841	-0.2112156	0	-102.264	-17.263	5.069	B5-03822-P04-CH0	523344	OK	0.6492466	-0.6140942	0.4487395	0	-121.525	-20.081	-4.742	B5-03822-P04-CH1	523344	OK	0.7744217	-0.631967	0.0298122	0	-113.085	-40.084	11.086	NA
0.0199836230788612	B5-03822-P01-CH0	523352	OK	0.2061584	0.0705424	0.0828122	-0.9724529	96.992	59.006	-234.251	B5-03822-P02-CH0	523352	OK	0.8686135	0.0824587	-0.4885807	0	-98.827	-87.571	15.86	B5-03822-P02-CH1	523352	OK	0.7663751	-0.0264793	-0.6418473	0	-83.716	-73.392	4.803	B5-03822-P03-CH0	523352	OK	0.8283204	-0.32628	-0.4554412	0	-94.683	-51.348	11.192	B5-03822-P03-CH1	523352	OK	0.693695	-0.6882168	-0.2124734	0	-102.171	-17.24	5.391	B5-03822-P04-CH0	523352	OK	0.6513054	-0.6045572	0.4585977	0	-121.817	-20.87	-2.662	B5-03822-P04-CH1	523352	OK	0.7743644	-0.6320299	0.0299672	0	-113.091	-40.134	11.01	NA
0.0299754346182918	B5-03822-P01-CH0	523360	OK	0.206321	0.0704727	0.0833292	-0.9723793	97.003	59.059	-234.261	B5-03822-P02-CH0	523360	OK	0.8717164	0.083305	-0.4828776	0	-99.346	-86.446	16.174	B5-03822-P02-CH1	523360	OK	0.7656722	-0.0232558	-0.6428104	0	-83.994	-71.662	5.787	B5-03822-P03-CH0	523360	OK	0.8291538	-0.3314817	-0.4501376	0	-94.375	-50.92	11.433	B5-03822-P03-CH1	523360	OK	0.6944691	-0.6872362	-0.2131175	0	-102.686	-17.191	5.363	B5-03822-P04-CH0	523360	OK	0.6545494	-0.591186	0.4712369	0	-122.709	-21.786	0.379	B5-03822-P04-CH1	523360	OK	0.7745518	-0.6317906	0.0301693	0	-113.214	-40.185	10.919	NA
0.0399672461577223	B5-03822-P01-CH0	523368	OK	0.2063509	0.0704585	0.0835123	-0.9723583	97.01	59.103	-234.263	B5-03822-P02-CH0	523368	OK	0.8757419	0.0809386	-0.4759465	0	-99.468	-86.028	16.906	B5-03822-P02-CH1	523368	OK	0.7658406	-0.0215174	-0.6426703	0	-83.334	-72.201	4.814	B5-03822-P03-CH0	523368	OK	0.8288912	-0.3384114	-0.4454404	0	-94.4	-50.934	11.282	B5-03822-P03-CH1	523368	OK	0.6942579	-0.6874582	-0.2130897	0	-103.07	-17.583	5.044	B5-03822-P04-CH0	523368	OK	0.6560751	-0.5804377	0.4823459	0	-122.89	-22.153	0.518	B5-03822-P04-CH1	523368	OK	0.7746826	-0.631623	0.0303195	0	-113.239	-40.12	10.961	NA
0.0499590576971529	B5-03822-P01-CH0	523376	OK	0.206248	0.0707025	0.0837191	-0.9723446	97.114	59.144	-234.234	B5-03822-P02-CH0	523376	OK	0.8796702	0.0781809	-0.4691141	0	-99.682	-85.769	16.75	B5-03822-P02-CH1	523376	OK	0.7649564	-0.0185581	-0.6438147	0	-83.106	-71.715	4.47	B5-03822-P03-CH0	523376	OK	0.8292602	-0.344807	-0.4398132	0	-94.233	-50.63	11.573	B5-03822-P03-CH1	523376	OK	0.6947459	-0.6872002	-0.2123299	0	-103.007	-17.896	5.349	B5-03822-P04-CH0	523376	OK	0.6567492	-0.5697545	0.4940246	0	-123.206	-22.462	-1.054	B5-03822-P04-CH1	523376	OK	0.7747924	-0.6314937	0.0302076	0	-113.45	-40.077	10.954	NA
0.0599508692365835	B5-03822-P01-CH0	523384	OK	0.2063479	0.070421	0.0840399	-0.9723162	97.023	59.178	-234.273	B5-03822-P02-CH0	523384	OK	0.8828683	0.0776771	-0.4631521	0	-99.842	-84.834	16.701	B5-03822-P02-CH1	523384	OK	0.7645974	-0.018748	-0.6442354	0	-82.393	-71.785	3.95	B5-03822-P03-CH0	523384	OK	0.8286233	-0.351743	-0.4355	0	-94.071	-50.609	10.816	B5-03822-P03-CH1	523384	OK	0.6964959	-0.685427	-0.2123284	0	-102.211	-18.36	5.972	B5-03822-P04-CH0	523384	OK	0.6589078	-0.5542231	0.5086033	0	-124.183	-23.093	1.818	B5-03822-P04-CH1	523384	OK	0.7750749	-0.6311389	0.0303757	0	-113.444	-39.983	10.985	NA
0.0699426807760141	B5-03822-P01-CH0	523392	OK	0.2063902	0.0704494	0.0843494	-0.9722783	97.038	59.186	-234.228	B5-03822-P02-CH0	523392	OK	0.8861801	0.0761276	-0.4570442	0	-99.749	-84.288	16.423	B5-03822-P02-CH1	523392	OK	0.7629063	-0.0188436	-0.6462344	0	-82.708	-71.597	4.716	B5-03822-P03-CH0	523392	OK	0.8282685	-0.3571525	-0.4317563	0	-93.864	-50.128	10.631	B5-03822-P03-CH1	523392	OK	0.6991903	-0.6816139	-0.2157205	0	-102.806	-18.65	5.373	B5-03822-P04-CH0	523392	OK	0.6576912	-0.5460741	0.5188886	0	-124.588	-23.856	-1.539	B5-03822-P04-CH1	523392	OK	0.7753852	-0.6307533	0.0304644	0	-113.505	-39.869	10.901	NA
0.0799344923154447	B5-03822-P01-CH0	523400	OK	0.2059524	0.0706846	0.0836655	-0.9724132	97.105	59.172	-234.281	B5-03822-P02-CH0	523400	OK	0.8890871	0.0715217	-0.4521159	0	-99.906	-84.341	16.134	B5-03822-P02-CH1	523400	OK	0.7612687	-0.0176808	-0.6481955	0	-83.32	-71	5.427	B5-03822-P03-CH0	523400	OK	0.8257095	-0.3665167	-0.4287998	0	-93.869	-50.574	10.9	B5-03822-P03-CH1	523400	OK	0.7019606	-0.6773815	-0.2200127	0	-103.271	-19.183	4.99	B5-03822-P04-CH0	523400	OK	0.6588382	-0.5397172	0.5240588	0	-125.654	-24.353	-1.963	B5-03822-P04-CH1	523400	OK	0.7748049	-0.6314754	0.0302676	0	-113.725	-39.855	11.013	NA
0.0899263038548753	B5-03822-P01-CH0	523408	OK	0.2059745	0.0707311	0.0839419	-0.9723813	97.137	59.181	-234.268	B5-03822-P02-CH0	523408	OK	0.8922264	0.0643983	-0.4469731	0	-99.487	-84.514	16.722	B5-03822-P02-CH1	523408	OK	0.7618062	-0.0205031	-0.6474805	0	-82.806	-70.563	5.012	B5-03822-P03-CH0	523408	OK	0.8229264	-0.3756518	-0.4262368	0	-93.965	-50.442	11.124	B5-03822-P03-CH1	523408	OK	0.705846	-0.6743302	-0.2169335	0	-102.384	-19.686	6.344	B5-03822-P04-CH0	523408	OK	0.6611246	-0.5397494	0.521138	0	-126.666	-25.564	1.179	B5-03822-P04-CH1	523408	OK	0.7748517	-0.6314001	0.0306386	0	-113.882	-39.915	10.927	NA
0.0999181153943059	B5-03822-P01-CH0	523416	OK	0.2059022	0.0706545	0.0839427	-0.9724021	97.106	59.21	-234.29	B5-03822-P02-CH0	523416	OK	0.8953962	0.0631267	-0.4407729	0	-99.123	-82.911	16.38	B5-03822-P02-CH1	523416	OK	0.7619871	-0.0257728	-0.6470792	0	-82.466	-69.988	4.839	B5-03822-P03-CH0	523416	OK	0.8192958	-0.3880735	-0.4220821	0	-93.345	-50.328	10.615	B5-03822-P03-CH1	523416	OK	0.7082675	-0.6730383	-0.2130178	0	-102.208	-19.968	7.036	B5-03822-P04-CH0	523416	OK	0.6628518	-0.5433471	0.5151713	0	-127.111	-26.445	5.439	B5-03822-P04-CH1	523416	OK	0.774752	-0.6315096	0.0309029	0	-113.972	-39.893	10.905	NA
0.109909926933736	B5-03822-P01-CH0	523424	OK	0.20575	0.0706408	0.083889	-0.97244	97.092	59.207	-234.299	B5-03822-P02-CH0	523424	OK	0.8967733	0.05526	-0.4390262	0	-99.394	-83.406	16.47	B5-03822-P02-CH1	523424	OK	0.7629189	-0.0319609	-0.6457037	0	-81.823	-69.407	5.569	B5-03822-P03-CH0	523424	OK	0.8157135	-0.3969471	-0.4207666	0	-93.223	-49.954	10.749	B5-03822-P03-CH1	523424	OK	0.7096071	-0.671267	-0.2141457	0	-102.335	-20.106	6.269	B5-03822-P04-CH0	523424	OK	0.6612912	-0.5487744	0.5114105	0	-127.23	-26.747	2.385	B5-03822-P04-CH1	523424	OK	0.7746454	-0.6316267	0.0311791	0	-114.024	-39.889	10.928	NA
0.119901738473167	B5-03822-P01-CH0	523432	OK	0.2055851	0.0704635	0.0837942	-0.9724959	97.016	59.228	-234.326	B5-03822-P02-CH0	523432	OK	0.8989025	0.0530368	-0.4349269	0	-99.002	-82.697	16.263	B5-03822-P02-CH1	523432	OK	0.7639049	-0.0377646	-0.6442229	0	-81.48	-70.099	5.285	B5-03822-P03-CH0	523432	OK	0.8143242	-0.4006811	-0.4199177	0	-93.301	-49.759	10.845	B5-03822-P03-CH1	523432	OK	0.7119685	-0.6691298	-0.2129932	0	-101.513	-20.928	6.883	B5-03822-P04-CH0	523432	OK	0.6617292	-0.5414976	0.5185506	0	-127.767	-27.743	4.212	B5-03822-P04-CH1	523432	OK	0.7746598	-0.6316009	0.0313436	0	-114.089	-39.749	10.966	NA
0.129893550012598	B5-03822-P01-CH0	523440	OK	0.2054754	0.0704802	0.0838016	-0.9725172	97.033	59.207	-234.343	B5-03822-P02-CH0	523440	OK	0.9002512	0.051532	-0.4323103	0	-98.555	-82.589	15.886	B5-03822-P02-CH1	523440	OK	0.7639614	-0.0398605	-0.6440295	0	-81.486	-69.912	4.994	B5-03822-P03-CH0	523440	OK	0.814381	-0.4022991	-0.4182572	0	-93.077	-50.248	10.787	B5-03822-P03-CH1	523440	OK	0.7162822	-0.6641054	-0.2142519	0	-102.562	-20.027	6.187	B5-03822-P04-CH0	523440	OK	0.6613087	-0.5387819	0.5219051	0	-127.799	-27.274	1.45	B5-03822-P04-CH1	523440	OK	0.7747009	-0.6315334	0.0316874	0	-114.134	-39.739	11.107	NA
0.139885361552028	B5-03822-P01-CH0	523448	OK	0.2054354	0.070485	0.0840037	-0.9725079	97.039	59.206	-234.322	B5-03822-P02-CH0	523448	OK	0.8992073	0.0447316	-0.4352301	0	-98.974	-83.259	16.807	B5-03822-P02-CH1	523448	OK	0.7646859	-0.0441621	-0.6428882	0	-80.811	-70.914	4.038	B5-03822-P03-CH0	523448	OK	0.8155055	-0.4037169	-0.4146848	0	-92.784	-50.299	11.069	B5-03822-P03-CH1	523448	OK	0.7164972	-0.6644033	-0.2126032	0	-101.799	-20.671	7.427	B5-03822-P04-CH0	523448	OK	0.6618113	-0.5360933	0.5240323	0	-128.057	-27.398	2.189	B5-03822-P04-CH1	523448	OK	0.774703	-0.6315268	0.0317686	0	-114.313	-39.796	11.074	NA
0.149877173091459	B5-03822-P01-CH0	523456	OK	0.2054864	0.0701135	0.0841269	-0.9725133	96.895	59.248	-234.4	B5-03822-P02-CH0	523456	OK	0.900891	0.044461	-0.4317623	0	-98.084	-83.06	15.972	B5-03822-P02-CH1	523456	OK	0.7631162	-0.0462422	-0.6446047	0	-81.289	-69.322	5.788	B5-03822-P03-CH0	523456	OK	0.8166074	-0.4030961	-0.4131173	0	-92.848	-50.092	11.248	B5-03822-P03-CH1	523456	OK	0.7167585	-0.6634827	-0.2145879	0	-101.991	-20.155	7.484	B5-03822-P04-CH0	523456	OK	0.6614197	-0.5373804	0.5232077	0	-127.68	-26.646	1.726	B5-03822-P04-CH1	523456	OK	0.7747902	-0.6314049	0.0320622	0	-114.253	-39.72	11.117	NA
0.159868984630889	B5-03822-P01-CH0	523464	OK	0.2055811	0.0702141	0.0843373	-0.9724678	96.945	59.29	-234.428	B5-03822-P02-CH0	523464	OK	0.9002479	0.0438282	-0.433166	0	-98.329	-82.417	16.262	B5-03822-P02-CH1	523464	OK	0.7634445	-0.0493112	-0.6439883	0	-80.467	-70.09	4	B5-03822-P03-CH0	523464	OK	0.8186071	-0.4022349	-0.4099871	0	-92.609	-49.908	11.304	B5-03822-P03-CH1	523464	OK	0.7157531	-0.6644534	-0.2149401	0	-101.677	-20.455	6.994	B5-03822-P04-CH0	523464	OK	0.6600962	-0.5396817	0.52251	0	-127.753	-27.113	0.143	B5-03822-P04-CH1	523464	OK	0.7748418	-0.6313326	0.0322388	0	-114.383	-39.758	11.111	NA
0.16986079617032	B5-03822-P01-CH0	523472	OK	0.2055856	0.0700728	0.0845109	-0.972462	96.894	59.302	-234.407	B5-03822-P02-CH0	523472	OK	0.8999861	0.0425769	-0.4338344	0	-98.513	-82.347	15.775	B5-03822-P02-CH1	523472	OK	0.7621536	-0.0513278	-0.6453584	0	-80.773	-70.042	3.848	B5-03822-P03-CH0	523472	OK	0.8210037	-0.4010241	-0.4063651	0	-92.682	-49.959	10.611	B5-03822-P03-CH1	523472	OK	0.7154226	-0.6648026	-0.2149604	0	-101.575	-20.593	6.561	B5-03822-P04-CH0	523472	OK	0.6607272	-0.5401264	0.5212513	0	-128.156	-27.187	1.085	B5-03822-P04-CH1	523472	OK	0.7749153	-0.6312358	0.0323662	0	-114.387	-39.758	11.144	NA
0.179852607709751	B5-03822-P01-CH0	523480	OK	0.2054984	0.0700805	0.0844649	-0.9724838	96.92	59.253	-234.396	B5-03822-P02-CH0	523480	OK	0.9007793	0.0393622	-0.4324896	0	-98.134	-82.889	15.909	B5-03822-P02-CH1	523480	OK	0.7613853	-0.0525307	-0.6461679	0	-81.126	-69.416	5.12	B5-03822-P03-CH0	523480	OK	0.8236781	-0.4018753	-0.4000632	0	-92.456	-50.34	10.493	B5-03822-P03-CH1	523480	OK	0.715706	-0.6642991	-0.2155729	0	-101.724	-20.442	6.297	B5-03822-P04-CH0	523480	OK	0.6620694	-0.5395202	0.5201751	0	-128.529	-27.095	4.43	B5-03822-P04-CH1	523480	OK	0.774865	-0.6313083	0.0321569	0	-114.456	-39.783	11.12	NA
0.189844419249181	B5-03822-P01-CH0	523488	OK	0.2053715	0.0700375	0.084324	-0.972526	96.911	59.259	-234.405	B5-03822-P02-CH0	523488	OK	0.9014752	0.0386605	-0.4311006	0	-97.884	-82.568	15.687	B5-03822-P02-CH1	523488	OK	0.7610708	-0.0551106	-0.6463235	0	-81.162	-69.434	4.705	B5-03822-P03-CH0	523488	OK	0.8263325	-0.4010734	-0.3953667	0	-92.55	-50.181	11.467	B5-03822-P03-CH1	523488	OK	0.7155329	-0.6640696	-0.2168508	0	-101.303	-20.649	6.68	B5-03822-P04-CH0	523488	OK	0.6606999	-0.544036	0.5172044	0	-128.193	-26.604	3.374	B5-03822-P04-CH1	523488	OK	0.7748695	-0.6313213	0.031791	0	-114.485	-39.676	11.162	NA
0.199836230788612	B5-03822-P01-CH0	523496	OK	0.2057548	0.069902	0.0850466	-0.9723918	96.876	59.367	-234.389	B5-03822-P02-CH0	523496	OK	0.902163	0.0385885	-0.4296659	0	-97.527	-82.491	14.996	B5-03822-P02-CH1	523496	OK	0.7613498	-0.0578266	-0.6457574	0	-80.76	-70.225	3.815	B5-03822-P03-CH0	523496	OK	0.8288224	-0.3987104	-0.3925348	0	-92.897	-50.04	11.472	B5-03822-P03-CH1	523496	OK	0.7170267	-0.6625711	-0.2165003	0	-101.015	-20.278	7.441	B5-03822-P04-CH0	523496	OK	0.6576776	-0.5506188	0.5140808	0	-127.698	-27.125	0.064	B5-03822-P04-CH1	523496	OK	0.7754308	-0.6306196	0.0320312	0	-114.455	-39.624	11.111	NA
0.209828042328042	B5-03822-P01-CH0	523504	OK	0.2054409	0.0700439	0.0842301	-0.972519	96.963	59.301	-234.453	B5-03822-P02-CH0	523504	OK	0.901657	0.0365262	-0.4309067	0	-97.866	-82.643	15.417	B5-03822-P02-CH1	523504	OK	0.7629388	-0.0605355	-0.6436302	0	-79.736	-70.645	3.607	B5-03822-P03-CH0	523504	OK	0.830128	-0.3982819	-0.3902038	0	-92.912	-50.342	11.857	B5-03822-P03-CH1	523504	OK	0.7161616	-0.6640736	-0.2147528	0	-101.467	-20.413	6.692	B5-03822-P04-CH0	523504	OK	0.6575598	-0.5538187	0.5107837	0	-127.708	-26.648	1.094	B5-03822-P04-CH1	523504	OK	0.7749867	-0.6311911	0.031518	0	-114.47	-39.573	11.349	NA
0.219819853867473	B5-03822-P01-CH0	523512	OK	0.205637	0.0698737	0.0844585	-0.97247	96.936	59.3	-234.47	B5-03822-P02-CH0	523512	OK	0.9015077	0.0364841	-0.4312223	0	-97.976	-82.274	16.076	B5-03822-P02-CH1	523512	OK	0.7614158	-0.0613127	-0.6453579	0	-80.38	-70.514	4.346	B5-03822-P03-CH0	523512	OK	0.8311822	-0.3988192	-0.3874009	0	-92.494	-50.624	12.138	B5-03822-P03-CH1	523512	OK	0.7165952	-0.6634686	-0.2151763	0	-101.582	-20.359	7.052	B5-03822-P04-CH0	523512	OK	0.6577608	-0.5553194	0.5088919	0	-127.549	-26.351	2.127	B5-03822-P04-CH1	523512	OK	0.7751816	-0.6309562	0.0314276	0	-114.399	-39.578	11.359	NA
0.229811665406904	B5-03822-P01-CH0	523520	OK	0.2057217	0.0697384	0.0848055	-0.9724316	96.894	59.338	-234.44	B5-03822-P02-CH0	523520	OK	0.9015631	0.0353753	-0.4311991	0	-97.982	-82.502	16.299	B5-03822-P02-CH1	523520	OK	0.7603096	-0.063459	-0.6464537	0	-80.913	-70.155	4.827	B5-03822-P03-CH0	523520	OK	0.8318973	-0.3989138	-0.3857651	0	-92.374	-50.278	11.552	B5-03822-P03-CH1	523520	OK	0.7168587	-0.663211	-0.2150923	0	-101.462	-20.338	7.006	B5-03822-P04-CH0	523520	OK	0.6548948	-0.5624198	0.504774	0	-126.974	-26.511	-2.557	B5-03822-P04-CH1	523520	OK	0.7755281	-0.6305525	0.0309785	0	-114.367	-39.451	11.243	NA
0.239803476946334	B5-03822-P01-CH0	523528	OK	0.205655	0.0697165	0.0845275	-0.9724715	96.903	59.317	-234.433	B5-03822-P02-CH0	523528	OK	0.9010555	0.038081	-0.4320288	0	-98.226	-82.689	15.714	B5-03822-P02-CH1	523528	OK	0.7605415	-0.0632634	-0.6462	0	-80.957	-69.528	4.853	B5-03822-P03-CH0	523528	OK	0.8317591	-0.4008572	-0.3840446	0	-92.265	-50.524	11.432	B5-03822-P03-CH1	523528	OK	0.7166985	-0.6632907	-0.2153805	0	-101.42	-20.345	6.948	B5-03822-P04-CH0	523528	OK	0.6554472	-0.5626192	0.5038339	0	-127.348	-26.635	-1.185	B5-03822-P04-CH1	523528	OK	0.7754863	-0.6306188	0.0306741	0	-114.269	-39.363	11.286	NA
0.249795288485765	B5-03822-P01-CH0	523536	OK	0.2057112	0.0698778	0.0844346	-0.9724561	96.986	59.307	-234.4	B5-03822-P02-CH0	523536	OK	0.9012505	0.0371479	-0.4317032	0	-98.251	-82.593	15.742	B5-03822-P02-CH1	523536	OK	0.7610837	-0.0631109	-0.6455762	0	-80.821	-69.862	4.558	B5-03822-P03-CH0	523536	OK	0.8313189	-0.4005594	-0.3853064	0	-92.791	-50.605	11.879	B5-03822-P03-CH1	523536	OK	0.7166283	-0.6634262	-0.2151967	0	-101.399	-20.428	6.832	B5-03822-P04-CH0	523536	OK	0.6570459	-0.5594415	0.5052879	0	-127.417	-26.697	2.85	B5-03822-P04-CH1	523536	OK	0.7755019	-0.6306062	0.0305408	0	-114.281	-39.37	11.341	NA
0.259787100025195	B5-03822-P01-CH0	523544	OK	0.2057265	0.0698842	0.084276	-0.9724661	97.012	59.262	-234.377	B5-03822-P02-CH0	523544	OK	0.9016788	0.0327345	-0.4311657	0	-98.55	-82.239	16.481	B5-03822-P02-CH1	523544	OK	0.7612565	-0.0601002	-0.6456597	0	-80.813	-70.303	4.424	B5-03822-P03-CH0	523544	OK	0.8313445	-0.3995175	-0.3863316	0	-93.211	-50.665	11.742	B5-03822-P03-CH1	523544	OK	0.7167531	-0.6633578	-0.214992	0	-101.282	-20.465	6.87	B5-03822-P04-CH0	523544	OK	0.6564424	-0.5626921	0.5024549	0	-126.985	-26.185	2.306	B5-03822-P04-CH1	523544	OK	0.775484	-0.6306471	0.0301445	0	-114.259	-39.364	11.365	NA
0.269778911564626	B5-03822-P01-CH0	523552	OK	0.2057889	0.0698426	0.0843559	-0.972449	97.024	59.298	-234.433	B5-03822-P02-CH0	523552	OK	0.9026771	0.0299486	-0.4292752	0	-98.135	-82.838	15.933	B5-03822-P02-CH1	523552	OK	0.7612075	-0.0610125	-0.6456319	0	-80.805	-70.259	4.515	B5-03822-P03-CH0	523552	OK	0.8328857	-0.3981753	-0.3843928	0	-92.85	-50.839	11.769	B5-03822-P03-CH1	523552	OK	0.716982	-0.6631661	-0.2148197	0	-101.24	-20.455	7.008	B5-03822-P04-CH0	523552	OK	0.6547293	-0.5684176	0.4982278	0	-126.543	-25.785	-1.457	B5-03822-P04-CH1	523552	OK	0.7756536	-0.6304568	0.0297609	0	-114.267	-39.29	11.478	NA
0.279770723104056	B5-03822-P01-CH0	523560	OK	0.2059	0.0696129	0.0842108	-0.9724545	96.949	59.28	-234.454	B5-03822-P02-CH0	523560	OK	0.9040864	0.0312696	-0.4262041	0	-97.634	-82.083	15.384	B5-03822-P02-CH1	523560	OK	0.7614866	-0.0615248	-0.645254	0	-80.612	-70.253	4.391	B5-03822-P03-CH0	523560	OK	0.8339512	-0.3975401	-0.3827366	0	-92.604	-51.273	11.577	B5-03822-P03-CH1	523560	OK	0.7171802	-0.6630584	-0.2144904	0	-101.143	-20.407	7.042	B5-03822-P04-CH0	523560	OK	0.6535464	-0.5716124	0.4961213	0	-126.127	-25.591	-2.79	B5-03822-P04-CH1	523560	OK	0.7756479	-0.6304739	0.0295473	0	-114.141	-39.268	11.477	NA
0.289762534643487	B5-03822-P01-CH0	523568	OK	0.2061062	0.069552	0.0843921	-0.9723995	96.943	59.262	-234.456	B5-03822-P02-CH0	523568	OK	0.9023654	0.0331394	-0.4296957	0	-97.998	-82.565	15.697	B5-03822-P02-CH1	523568	OK	0.7616392	-0.0618714	-0.6450408	0	-80.461	-70.388	4.287	B5-03822-P03-CH0	523568	OK	0.8357271	-0.3949464	-0.3815462	0	-92.367	-51.074	12.01	B5-03822-P03-CH1	523568	OK	0.717453	-0.6630003	-0.2137562	0	-101.127	-20.413	6.983	B5-03822-P04-CH0	523568	OK	0.6569309	-0.5605603	0.5041964	0	-127.211	-26.207	1.72	B5-03822-P04-CH1	523568	OK	0.7758614	-0.630225	0.02925	0	-114.122	-39.277	11.521	NA
0.299754346182918	B5-03822-P01-CH0	523576	OK	0.2057835	0.0696929	0.0838657	-0.9725033	96.997	59.188	-234.464	B5-03822-P02-CH0	523576	OK	0.9024934	0.0322135	-0.4294973	0	-98.085	-82.581	15.788	B5-03822-P02-CH1	523576	OK	0.7615407	-0.0610864	-0.6452319	0	-80.506	-70.279	4.396	B5-03822-P03-CH0	523576	OK	0.8367568	-0.3910161	-0.3833334	0	-92.313	-50.691	12.099	B5-03822-P03-CH1	523576	OK	0.7170088	-0.6634687	-0.2137934	0	-101.102	-20.491	7.052	B5-03822-P04-CH0	523576	OK	0.6561421	-0.5633257	0.5021371	0	-127.153	-26.088	1.369	B5-03822-P04-CH1	523576	OK	0.7754999	-0.6306961	0.0286751	0	-114.114	-39.272	11.623	NA
0.309746157722348	B5-03822-P01-CH0	523584	OK	0.2060548	0.0695641	0.0843591	-0.9724124	96.921	59.249	-234.394	B5-03822-P02-CH0	523584	OK	0.9026183	0.0316381	-0.4292775	0	-98.028	-82.545	15.638	B5-03822-P02-CH1	523584	OK	0.7615002	-0.0605228	-0.6453329	0	-80.483	-70.152	4.347	B5-03822-P03-CH0	523584	OK	0.8373445	-0.3869996	-0.386116	0	-92.172	-50.256	12.064	B5-03822-P03-CH1	523584	OK	0.7173248	-0.6633892	-0.2129789	0	-101.076	-20.463	6.982	B5-03822-P04-CH0	523584	OK	0.6554129	-0.5660445	0.5000275	0	-126.805	-25.901	0.332	B5-03822-P04-CH1	523584	OK	0.7758053	-0.6303194	0.0287	0	-114.044	-39.254	11.427	NA
0.319737969261779	B5-03822-P01-CH0	523592	OK	0.2060265	0.0698132	0.0842123	-0.9724132	96.986	59.291	-234.391	B5-03822-P02-CH0	523592	OK	0.9026541	0.0306176	-0.4292763	0	-98.097	-82.558	15.741	B5-03822-P02-CH1	523592	OK	0.7615594	-0.0595184	-0.6453563	0	-80.454	-70.108	4.415	B5-03822-P03-CH0	523592	OK	0.836739	-0.3850309	-0.3893829	0	-91.782	-50.348	12.696	B5-03822-P03-CH1	523592	OK	0.717045	-0.6638053	-0.212624	0	-101.12	-20.503	6.954	B5-03822-P04-CH0	523592	OK	0.6487452	-0.5846966	0.4870929	0	-125.2	-24.856	-7.454	B5-03822-P04-CH1	523592	OK	0.7758821	-0.6302491	0.0281607	0	-114.118	-39.104	11.525	NA
0.329729780801209	B5-03822-P01-CH0	523600	OK	0.205886	0.0699903	0.0836596	-0.972478	97.048	59.248	-234.426	B5-03822-P02-CH0	523600	OK	0.9026876	0.0293948	-0.4292914	0	-98.161	-82.597	15.97	B5-03822-P02-CH1	523600	OK	0.7615205	-0.0579694	-0.6455432	0	-80.503	-70.181	4.511	B5-03822-P03-CH0	523600	OK	0.8342451	-0.3834258	-0.3962572	0	-92.175	-50.691	12.439	B5-03822-P03-CH1	523600	OK	0.7167302	-0.6641607	-0.2125757	0	-101.16	-20.495	7.005	B5-03822-P04-CH0	523600	OK	0.6495111	-0.5839092	0.4870169	0	-125.61	-25.129	-4.205	B5-03822-P04-CH1	523600	OK	0.7756094	-0.630596	0.0279058	0	-114.019	-39.075	11.721	NA
0.33972159234064	B5-03822-P01-CH0	523608	OK	0.2063278	0.0697838	0.0846117	-0.9723168	96.984	59.286	-234.394	B5-03822-P02-CH0	523608	OK	0.9025081	0.029022	-0.4296939	0	-98.142	-82.578	15.97	B5-03822-P02-CH1	523608	OK	0.7617013	-0.0564554	-0.6454642	0	-80.317	-70.36	4.366	B5-03822-P03-CH0	523608	OK	0.8330548	-0.3798651	-0.402147	0	-92.236	-50.767	11.849	B5-03822-P03-CH1	523608	OK	0.7173551	-0.6638567	-0.2114141	0	-101.127	-20.553	6.836	B5-03822-P04-CH0	523608	OK	0.6490145	-0.5866789	0.4843429	0	-124.874	-24.843	-3.881	B5-03822-P04-CH1	523608	OK	0.776381	-0.6296404	0.0280282	0	-113.894	-39.037	11.652	NA
0.349713403880071	B5-03822-P01-CH0	523616	OK	0.206215	0.0698251	0.0844537	-0.9723515	96.975	59.283	-234.414	B5-03822-P02-CH0	523616	OK	0.9026862	0.028118	-0.4293798	0	-98.058	-82.626	15.979	B5-03822-P02-CH1	523616	OK	0.7608922	-0.044459	-0.6473534	0	-80.265	-71.127	4.24	B5-03822-P03-CH0	523616	OK	0.832838	-0.3763464	-0.4058871	0	-91.59	-50.535	12.2	B5-03822-P03-CH1	523616	OK	0.7172161	-0.6641283	-0.2110323	0	-101.172	-20.545	6.816	B5-03822-P04-CH0	523616	OK	0.6478882	-0.5904955	0.4812027	0	-124.685	-24.638	-5.271	B5-03822-P04-CH1	523616	OK	0.7762914	-0.6297781	0.0274104	0	-113.864	-38.972	11.661	NA
0.359705215419501	B5-03822-P01-CH0	523624	OK	0.2060386	0.0697375	0.0843618	-0.9724031	96.928	59.308	-234.462	B5-03822-P02-CH0	523624	OK	0.9027137	0.0278693	-0.4293382	0	-98.021	-82.528	16.054	B5-03822-P02-CH1	523624	OK	0.75976	-0.039647	-0.6489937	0	-80.559	-70.707	4.041	B5-03822-P03-CH0	523624	OK	0.830723	-0.3724779	-0.4137144	0	-91.355	-50.852	12.367	B5-03822-P03-CH1	523624	OK	0.717155	-0.6642827	-0.2107537	0	-101.214	-20.444	6.772	B5-03822-P04-CH0	523624	OK	0.6467312	-0.5933517	0.4792416	0	-124.146	-24.136	-5.017	B5-03822-P04-CH1	523624	OK	0.776393	-0.6296766	0.0268582	0	-113.788	-38.805	11.785	NA
0.369697026958932	B5-03822-P01-CH0	523632	OK	0.2058679	0.0698246	0.0838648	-0.972476	96.937	59.274	-234.473	B5-03822-P02-CH0	523632	OK	0.9026243	0.0269521	-0.4295847	0	-98.038	-82.591	16.165	B5-03822-P02-CH1	523632	OK	0.7587775	-0.0339114	-0.6504666	0	-80.851	-70.445	4.38	B5-03822-P03-CH0	523632	OK	0.8274807	-0.3683539	-0.423782	0	-90.987	-51.53	12.127	B5-03822-P03-CH1	523632	OK	0.7167091	-0.6648846	-0.2103726	0	-101.196	-20.467	6.833	B5-03822-P04-CH0	523632	OK	0.6453583	-0.595111	0.4789109	0	-124.547	-24.205	-6.712	B5-03822-P04-CH1	523632	OK	0.7760319	-0.6301348	0.0265451	0	-113.691	-38.811	11.847	NA
0.379688838498362	B5-03822-P01-CH0	523640	OK	0.2057641	0.0700124	0.0839238	-0.9724794	96.98	59.349	-234.471	B5-03822-P02-CH0	523640	OK	0.902325	0.0266546	-0.4302315	0	-98.125	-82.579	16.278	B5-03822-P02-CH1	523640	OK	0.7589455	-0.0268496	-0.6506004	0	-80.605	-70.298	4.183	B5-03822-P03-CH0	523640	OK	0.823301	-0.3602678	-0.4386144	0	-91.153	-51.864	11.936	B5-03822-P03-CH1	523640	OK	0.7163903	-0.6653334	-0.2100391	0	-101.289	-20.478	6.867	B5-03822-P04-CH0	523640	OK	0.6461156	-0.5952715	0.4776886	0	-124.742	-23.246	-5.926	B5-03822-P04-CH1	523640	OK	0.7761901	-0.6299562	0.0261557	0	-113.628	-38.64	11.957	NA
0.389680650037793	B5-03822-P01-CH0	523648	OK	0.2057823	0.0702105	0.0840767	-0.9724481	97.023	59.394	-234.418	B5-03822-P02-CH0	523648	OK	0.90203	0.0265652	-0.4308552	0	-98.187	-82.596	16.265	B5-03822-P02-CH1	523648	OK	0.7569997	-0.0187828	-0.6531452	0	-81.571	-70.59	5.421	B5-03822-P03-CH0	523648	OK	0.8193919	-0.3493702	-0.4544639	0	-90.661	-51.969	11.428	B5-03822-P03-CH1	523648	OK	0.7162147	-0.6656496	-0.2096354	0	-101.394	-20.459	6.97	B5-03822-P04-CH0	523648	OK	0.6438043	-0.5972852	0.4782954	0	-124.235	-23.394	-7.526	B5-03822-P04-CH1	523648	OK	0.7763942	-0.6297209	0.0257627	0	-113.603	-38.527	12.006	NA
0.399672461577223	B5-03822-P01-CH0	523656	OK	0.2058626	0.0701456	0.0840235	-0.9724404	96.995	59.353	-234.415	B5-03822-P02-CH0	523656	OK	0.9016708	0.0266726	-0.4315997	0	-98.203	-82.535	16.491	B5-03822-P02-CH1	523656	OK	0.7570908	-0.010551	-0.6532245	0	-81.244	-71.713	5.087	B5-03822-P03-CH0	523656	OK	0.8130627	-0.3390503	-0.4732589	0	-90.539	-52.527	10.678	B5-03822-P03-CH1	523656	OK	0.7160176	-0.6660094	-0.2091657	0	-101.367	-20.476	6.982	B5-03822-P04-CH0	523656	OK	0.6425445	-0.5962694	0.4812477	0	-123.863	-23.842	-5.906	B5-03822-P04-CH1	523656	OK	0.7765113	-0.6295939	0.025334	0	-113.496	-38.466	12.03	NA
0.409664273116654	B5-03822-P01-CH0	523664	OK	0.2060191	0.0701673	0.084473	-0.9723667	96.995	59.39	-234.362	B5-03822-P02-CH0	523664	OK	0.8985037	0.0290228	-0.4380055	0	-98.817	-82.937	16.511	B5-03822-P02-CH1	523664	OK	0.7571583	-0.0005795	-0.6532312	0	-81.476	-71.847	5.537	B5-03822-P03-CH0	523664	OK	0.8077969	-0.3297288	-0.4886135	0	-90	-52.733	10.698	B5-03822-P03-CH1	523664	OK	0.7160625	-0.6661493	-0.2085657	0	-101.466	-20.413	6.937	B5-03822-P04-CH0	523664	OK	0.6421697	-0.5992595	0.4780231	0	-123.733	-23.16	-7.901	B5-03822-P04-CH1	523664	OK	0.7769144	-0.6291158	0.0248479	0	-113.473	-38.376	12.073	NA
0.419656084656085	B5-03822-P01-CH0	523672	OK	0.2059912	0.0702018	0.0844358	-0.9723734	96.999	59.385	-234.352	B5-03822-P02-CH0	523672	OK	0.8991239	0.0313467	-0.4365702	0	-98.108	-82.978	16.26	B5-03822-P02-CH1	523672	OK	0.7597512	0.0078152	-0.650167	0	-80.907	-72.612	4.749	B5-03822-P03-CH0	523672	OK	0.8044288	-0.3212321	-0.4997041	0	-89.537	-53.102	11.071	B5-03822-P03-CH1	523672	OK	0.7145974	-0.667997	-0.2076791	0	-101.639	-19.803	6.674	B5-03822-P04-CH0	523672	OK	0.6420807	-0.599732	0.4775499	0	-124.045	-23.248	-8.058	B5-03822-P04-CH1	523672	OK	0.7768469	-0.6292156	0.0244279	0	-113.385	-38.386	12.172	NA
0.429647896195515	B5-03822-P01-CH0	523680	OK	0.2059949	0.0702584	0.0842871	-0.9723814	96.967	59.408	-234.289	B5-03822-P02-CH0	523680	OK	0.8976924	0.032829	-0.4393979	0	-98.4	-83.408	16.123	B5-03822-P02-CH1	523680	OK	0.7591936	0.0167893	-0.6506483	0	-82.335	-72.157	5.54	B5-03822-P03-CH0	523680	OK	0.8029231	-0.3139961	-0.5066764	0	-90.046	-53.723	9.689	B5-03822-P03-CH1	523680	OK	0.7142149	-0.6686247	-0.2069738	0	-100.929	-20.1	6.691	B5-03822-P04-CH0	523680	OK	0.6410007	-0.601095	0.477287	0	-123.318	-22.829	-9.046	B5-03822-P04-CH1	523680	OK	0.7766938	-0.6294305	0.0237486	0	-113.443	-38.342	12.129	NA
0.439639707734946	B5-03822-P01-CH0	523688	OK	0.2056274	0.0703118	0.0832223	-0.972547	96.961	59.334	-234.28	B5-03822-P02-CH0	523688	OK	0.8954219	0.0320457	-0.4440638	0	-98.762	-84.184	16.71	B5-03822-P02-CH1	523688	OK	0.761057	0.0236855	-0.6482525	0	-82.514	-72.39	5.389	B5-03822-P03-CH0	523688	OK	0.8045931	-0.3075929	-0.5079533	0	-89.855	-53.161	10.31	B5-03822-P03-CH1	523688	OK	0.71301	-0.669206	-0.209237	0	-101.156	-20.064	6.547	B5-03822-P04-CH0	523688	OK	0.6402	-0.6004625	0.4791542	0	-122.963	-22.238	-9.52	B5-03822-P04-CH1	523688	OK	0.7760081	-0.6303036	0.022996	0	-113.309	-38.268	12.2	NA
0.449631519274376	B5-03822-P01-CH0	523696	OK	0.2056612	0.0703183	0.0831295	-0.9725473	96.979	59.262	-234.179	B5-03822-P02-CH0	523696	OK	0.8934465	0.037215	-0.4476252	0	-98.839	-83.874	16.733	B5-03822-P02-CH1	523696	OK	0.7641824	0.0276894	-0.6444056	0	-81.99	-73.122	5.069	B5-03822-P03-CH0	523696	OK	0.8062563	-0.3005	-0.5095591	0	-89.602	-52.857	9.939	B5-03822-P03-CH1	523696	OK	0.7126736	-0.6691868	-0.210441	0	-100.688	-20.12	6.458	B5-03822-P04-CH0	523696	OK	0.6417398	-0.5931884	0.4861044	0	-123.394	-22.477	-6.444	B5-03822-P04-CH1	523696	OK	0.7761069	-0.6302005	0.0224806	0	-113.215	-38.2	12.186	NA
0.459623330813807	B5-03822-P01-CH0	523704	OK	0.2058144	0.0703665	0.0831304	-0.9725113	96.994	59.255	-234.094	B5-03822-P02-CH0	523704	OK	0.8922555	0.0425195	-0.4495244	0	-98.729	-83.538	15.753	B5-03822-P02-CH1	523704	OK	0.765009	0.0316344	-0.6432422	0	-82.554	-73.14	5.916	B5-03822-P03-CH0	523704	OK	0.8057396	-0.2964841	-0.5127191	0	-90.035	-53.289	10.112	B5-03822-P03-CH1	523704	OK	0.7134878	-0.6687997	-0.2089068	0	-101.286	-20.264	6.877	B5-03822-P04-CH0	523704	OK	0.6418605	-0.5908215	0.4888201	0	-123.157	-22.533	-6.37	B5-03822-P04-CH1	523704	OK	0.7760835	-0.6302417	0.022134	0	-113.169	-38.187	12.105	NA
0.469615142353238	B5-03822-P01-CH0	523712	OK	0.2062278	0.0701978	0.0838339	-0.9723756	96.951	59.287	-233.979	B5-03822-P02-CH0	523712	OK	0.8893188	0.0460269	-0.4549655	0	-99.122	-83.374	15.981	B5-03822-P02-CH1	523712	OK	0.7675132	0.0315712	-0.6402552	0	-82.31	-73.423	5.643	B5-03822-P03-CH0	523712	OK	0.8065181	-0.2932164	-0.5133738	0	-89.61	-53.638	9.91	B5-03822-P03-CH1	523712	OK	0.7136454	-0.6686913	-0.2087156	0	-101.231	-20.223	6.72	B5-03822-P04-CH0	523712	OK	0.6432824	-0.5888814	0.4892919	0	-123.302	-22.203	-7.619	B5-03822-P04-CH1	523712	OK	0.7766065	-0.6296012	0.0220143	0	-113.109	-38.123	11.967	NA
0.479606953892668	B5-03822-P01-CH0	523720	OK	0.2065996	0.0701862	0.0842015	-0.9722657	96.97	59.285	-233.918	B5-03822-P02-CH0	523720	OK	0.8863723	0.0460121	-0.460681	0	-99.395	-84.008	16.203	B5-03822-P02-CH1	523720	OK	0.76953	0.0308414	-0.6378655	0	-82.56	-73.298	5.138	B5-03822-P03-CH0	523720	OK	0.8064507	-0.2894532	-0.5156104	0	-89.804	-53.772	10.19	B5-03822-P03-CH1	523720	OK	0.713699	-0.6686576	-0.2086402	0	-101.213	-20.174	6.578	B5-03822-P04-CH0	523720	OK	0.6439851	-0.5887081	0.4885754	0	-123.141	-21.762	-8.516	B5-03822-P04-CH1	523720	OK	0.7768214	-0.6293386	0.0219423	0	-113.047	-38.167	11.941	NA
0.489598765432099	B5-03822-P01-CH0	523728	OK	0.2066931	0.0701764	0.0840885	-0.9722563	96.99	59.277	-233.919	B5-03822-P02-CH0	523728	OK	0.8854774	0.0483592	-0.4621593	0	-98.688	-84.187	15.961	B5-03822-P02-CH1	523728	OK	0.771887	0.0273664	-0.6351705	0	-82.794	-73.558	5.223	B5-03822-P03-CH0	523728	OK	0.8070134	-0.2844763	-0.5174965	0	-89.891	-54.013	9.748	B5-03822-P03-CH1	523728	OK	0.7133984	-0.6688161	-0.2091597	0	-101.237	-20.141	6.585	B5-03822-P04-CH0	523728	OK	0.6447551	-0.5869245	0.4897045	0	-123.382	-21.933	-7.92	B5-03822-P04-CH1	523728	OK	0.7767276	-0.6294653	0.0216251	0	-112.979	-38.15	11.957	NA
0.499590576971529	B5-03822-P01-CH0	523736	OK	0.206888	0.0704143	0.08417	-0.9721906	97.079	59.351	-233.842	B5-03822-P02-CH0	523736	OK	0.8823608	0.0497868	-0.4679323	0	-98.952	-84.413	15.521	B5-03822-P02-CH1	523736	OK	0.7743185	0.0219063	-0.6324168	0	-82.868	-73.943	5.694	B5-03822-P03-CH0	523736	OK	0.8070846	-0.2829185	-0.5182389	0	-90.343	-54.463	9.33	B5-03822-P03-CH1	523736	OK	0.713275	-0.6688163	-0.2095795	0	-101.352	-20.026	6.631	B5-03822-P04-CH0	523736	OK	0.6453128	-0.58463	0.4917104	0	-123.777	-22.19	-7.852	B5-03822-P04-CH1	523736	OK	0.776728	-0.6294732	0.0213815	0	-113.05	-38.096	11.958	NA
0.50958238851096	B5-03822-P01-CH0	523744	OK	0.2067329	0.0705915	0.0834336	-0.9722742	97.186	59.31	-233.95	B5-03822-P02-CH0	523744	OK	0.8794269	0.0509783	-0.4732965	0	-99.255	-84.47	15.495	B5-03822-P02-CH1	523744	OK	0.7747558	0.0174775	-0.632019	0	-83.538	-73.934	6.896	B5-03822-P03-CH0	523744	OK	0.8082727	-0.2817411	-0.5170273	0	-90.305	-54.556	10.073	B5-03822-P03-CH1	523744	OK	0.7125167	-0.6692899	-0.210644	0	-101.317	-20.065	6.857	B5-03822-P04-CH0	523744	OK	0.6438808	-0.586528	0.4913272	0	-123.451	-21.944	-8.992	B5-03822-P04-CH1	523744	OK	0.7762075	-0.6301315	0.020884	0	-113.055	-38.086	12.133	NA
0.51957420005039	B5-03822-P01-CH0	523752	OK	0.2070288	0.0706506	0.083845	-0.9721716	97.231	59.356	-233.867	B5-03822-P02-CH0	523752	OK	0.8778575	0.0506859	-0.4762322	0	-98.723	-84.515	15.698	B5-03822-P02-CH1	523752	OK	0.776424	0.013637	-0.6300633	0	-83.332	-74.496	5.959	B5-03822-P03-CH0	523752	OK	0.8099756	-0.2814749	-0.5145012	0	-90.116	-54.718	9.953	B5-03822-P03-CH1	523752	OK	0.7124512	-0.6692309	-0.2110528	0	-101.345	-20.067	6.772	B5-03822-P04-CH0	523752	OK	0.6448985	-0.5838754	0.4931486	0	-123.461	-21.589	-6.637	B5-03822-P04-CH1	523752	OK	0.7765074	-0.6297618	0.0208894	0	-113.008	-38.033	12.061	NA
0.529566011589821	B5-03822-P01-CH0	523760	OK	0.2071764	0.0706048	0.0838792	-0.9721405	97.252	59.349	-233.883	B5-03822-P02-CH0	523760	OK	0.8756405	0.0459663	-0.4807711	0	-98.68	-85.413	15.166	B5-03822-P02-CH1	523760	OK	0.7770628	0.0119737	-0.6293092	0	-83.635	-73.97	5.977	B5-03822-P03-CH0	523760	OK	0.8123757	-0.2826619	-0.510047	0	-89.949	-55.061	9.715	B5-03822-P03-CH1	523760	OK	0.7122627	-0.6692049	-0.2117703	0	-101.352	-20.051	6.81	B5-03822-P04-CH0	523760	OK	0.6431717	-0.5888071	0.4895268	0	-123.387	-22.122	-9.039	B5-03822-P04-CH1	523760	OK	0.7765352	-0.6297282	0.0208677	0	-112.907	-38.007	12.101	NA
0.539557823129252	B5-03822-P01-CH0	523768	OK	0.2071524	0.0707532	0.0838939	-0.9721336	97.324	59.338	-233.871	B5-03822-P02-CH0	523768	OK	0.8735536	0.0436636	-0.4847655	0	-98.661	-85.408	15.079	B5-03822-P02-CH1	523768	OK	0.7772209	0.0087056	-0.6291676	0	-83.8	-73.929	6.209	B5-03822-P03-CH0	523768	OK	0.8142669	-0.2825151	-0.5071042	0	-90.255	-54.991	9.337	B5-03822-P03-CH1	523768	OK	0.7120045	-0.6692925	-0.2123608	0	-101.383	-20.078	6.683	B5-03822-P04-CH0	523768	OK	0.6436072	-0.5873379	0.4907179	0	-123.39	-22.047	-8.595	B5-03822-P04-CH1	523768	OK	0.7764117	-0.6298944	0.0204414	0	-113.013	-38.019	12.034	NA
0.549549634668682	B5-03822-P01-CH0	523776	OK	0.2069566	0.0708564	0.0834326	-0.9722075	97.339	59.329	-233.899	B5-03822-P02-CH0	523776	OK	0.8727669	0.040159	-0.4864825	0	-97.866	-85.559	14.328	B5-03822-P02-CH1	523776	OK	0.776496	0.0049937	-0.6301024	0	-84.409	-73.543	7.449	B5-03822-P03-CH0	523776	OK	0.8167298	-0.2824214	-0.5031805	0	-90.273	-54.445	10.011	B5-03822-P03-CH1	523776	OK	0.7116135	-0.6695142	-0.2129717	0	-101.365	-20.013	6.649	B5-03822-P04-CH0	523776	OK	0.6433951	-0.5873166	0.4910214	0	-123.319	-21.878	-8.909	B5-03822-P04-CH1	523776	OK	0.7759128	-0.6305208	0.020071	0	-113.063	-38.031	12.086	NA
0.559541446208113	B5-03822-P01-CH0	523784	OK	0.2068127	0.0709124	0.0833327	-0.9722426	97.35	59.303	-233.88	B5-03822-P02-CH0	523784	OK	0.8707637	0.0328774	-0.4906013	0	-97.512	-86.425	14.23	B5-03822-P02-CH1	523784	OK	0.7777382	-0.0011432	-0.6285873	0	-83.782	-74.273	6.731	B5-03822-P03-CH0	523784	OK	0.8192701	-0.2811727	-0.4997384	0	-90.537	-53.766	10.476	B5-03822-P03-CH1	523784	OK	0.7117324	-0.6692408	-0.213433	0	-101.308	-19.914	6.774	B5-03822-P04-CH0	523784	OK	0.643557	-0.5870054	0.4911814	0	-123.335	-21.743	-9.082	B5-03822-P04-CH1	523784	OK	0.7757548	-0.6307274	0.0196808	0	-113.119	-38.007	12.068	NA
0.569533257747543	B5-03822-P01-CH0	523792	OK	0.2064803	0.0712394	0.0824716	-0.9723627	97.443	59.19	-233.886	B5-03822-P02-CH0	523792	OK	0.8690042	0.0297566	-0.4939092	0	-97.296	-85.86	13.959	B5-03822-P02-CH1	523792	OK	0.7792707	-0.0090762	-0.6266218	0	-82.796	-75.224	5.946	B5-03822-P03-CH0	523792	OK	0.8198958	-0.2854216	-0.4962917	0	-90.706	-54.724	10.363	B5-03822-P03-CH1	523792	OK	0.7111382	-0.6696468	-0.2141393	0	-101.379	-19.983	6.778	B5-03822-P04-CH0	523792	OK	0.643444	-0.5862387	0.4922438	0	-123.413	-21.84	-8.285	B5-03822-P04-CH1	523792	OK	0.7751441	-0.6314925	0.0192082	0	-113.148	-38.025	12.132	NA
0.579525069286974	B5-03822-P01-CH0	523800	OK	0.2063772	0.0713132	0.0823696	-0.9723879	97.447	59.185	-233.903	B5-03822-P02-CH0	523800	OK	0.8680683	0.0242169	-0.4958538	0	-96.451	-86.41	13.798	B5-03822-P02-CH1	523800	OK	0.7787299	-0.0168174	-0.6271339	0	-82.8	-75.748	5.893	B5-03822-P03-CH0	523800	OK	0.82175	-0.2886188	-0.4913513	0	-90.229	-54.745	10.949	B5-03822-P03-CH1	523800	OK	0.7111769	-0.6696037	-0.2141457	0	-101.35	-19.98	6.827	B5-03822-P04-CH0	523800	OK	0.64364	-0.5854739	0.4928973	0	-123.468	-21.854	-7.907	B5-03822-P04-CH1	523800	OK	0.7749714	-0.6317085	0.0190708	0	-113.177	-38.018	12.116	NA
0.589516880826405	B5-03822-P01-CH0	523808	OK	0.2065037	0.0712114	0.0829056	-0.9723229	97.394	59.164	-233.826	B5-03822-P02-CH0	523808	OK	0.867687	0.0200699	-0.4967056	0	-95.559	-86.807	12.852	B5-03822-P02-CH1	523808	OK	0.7765715	-0.0244277	-0.6295554	0	-83.542	-73.534	7.701	B5-03822-P03-CH0	523808	OK	0.821306	-0.2905415	-0.4909604	0	-90.235	-54.661	10.274	B5-03822-P03-CH1	523808	OK	0.7117979	-0.669172	-0.2134306	0	-101.218	-19.978	6.611	B5-03822-P04-CH0	523808	OK	0.6440234	-0.5851742	0.4927525	0	-123.335	-21.8	-7.97	B5-03822-P04-CH1	523808	OK	0.7753213	-0.6312746	0.0192163	0	-113.098	-38.015	12.005	NA
0.599508692365835	B5-03822-P01-CH0	523816	OK	0.2063781	0.071197	0.0827628	-0.9723628	97.358	59.087	-233.808	B5-03822-P02-CH0	523816	OK	0.866299	0.0134924	-0.4993435	0	-95.136	-87.571	12.428	B5-03822-P02-CH1	523816	OK	0.7769968	-0.0348073	-0.6285415	0	-83.073	-74.249	6.944	B5-03822-P03-CH0	523816	OK	0.8197934	-0.2934487	-0.4917588	0	-90.318	-54.706	10.51	B5-03822-P03-CH1	523816	OK	0.7118665	-0.6691859	-0.2131578	0	-101.19	-20.053	6.535	B5-03822-P04-CH0	523816	OK	0.644064	-0.5855246	0.4922829	0	-123.187	-21.707	-7.918	B5-03822-P04-CH1	523816	OK	0.7752849	-0.6313266	0.0189733	0	-113.012	-37.995	12.032	NA
0.609500503905266	B5-03822-P01-CH0	523824	OK	0.2063259	0.0712667	0.0827121	-0.9723731	97.328	59.028	-233.737	B5-03822-P02-CH0	523824	OK	0.8642823	0.0116057	-0.5028731	0	-95.069	-86.86	12.482	B5-03822-P02-CH1	523824	OK	0.778474	-0.0449782	-0.6260633	0	-82.307	-74.766	5.617	B5-03822-P03-CH0	523824	OK	0.8203646	-0.2947478	-0.4900262	0	-89.745	-54.855	10.16	B5-03822-P03-CH1	523824	OK	0.7137272	-0.6686021	-0.2087219	0	-101.054	-20.48	7.191	B5-03822-P04-CH0	523824	OK	0.6444908	-0.5848347	0.4925444	0	-123.182	-21.792	-7.109	B5-03822-P04-CH1	523824	OK	0.7752589	-0.6313597	0.0189336	0	-112.998	-38	11.952	NA
0.619492315444696	B5-03822-P01-CH0	523832	OK	0.2061213	0.0713315	0.0824526	-0.9724337	97.308	58.944	-233.739	B5-03822-P02-CH0	523832	OK	0.8633578	0.0057788	-0.5045592	0	-94.274	-87.351	12.072	B5-03822-P02-CH1	523832	OK	0.7804984	-0.054201	-0.6228037	0	-81.807	-75.41	5.468	B5-03822-P03-CH0	523832	OK	0.8210266	-0.2946517	-0.4889741	0	-89.955	-54.835	10.064	B5-03822-P03-CH1	523832	OK	0.7138296	-0.668574	-0.2084611	0	-100.83	-20.694	6.908	B5-03822-P04-CH0	523832	OK	0.6445139	-0.5853476	0.4919045	0	-123.166	-21.842	-7.098	B5-03822-P04-CH1	523832	OK	0.7751238	-0.6315332	0.018679	0	-113.005	-37.979	11.941	NA
0.629484126984127	B5-03822-P01-CH0	523840	OK	0.2060691	0.0712635	0.0828232	-0.9724183	97.24	58.928	-233.647	B5-03822-P02-CH0	523840	OK	0.8604548	0.0015037	-0.5095245	0	-94.169	-87.541	12.078	B5-03822-P02-CH1	523840	OK	0.7815253	-0.0600195	-0.6209798	0	-82.18	-74.686	6.796	B5-03822-P03-CH0	523840	OK	0.8227707	-0.2934445	-0.4867635	0	-90.526	-54.473	10.516	B5-03822-P03-CH1	523840	OK	0.7145966	-0.6674797	-0.2093382	0	-101.269	-20.294	6.446	B5-03822-P04-CH0	523840	OK	0.644825	-0.5858963	0.4908425	0	-123.074	-21.835	-7.157	B5-03822-P04-CH1	523840	OK	0.775375	-0.6312274	0.0185867	0	-112.966	-37.93	11.802	NA
0.639475938523558	B5-03822-P01-CH0	523848	OK	0.2063439	0.0711808	0.0835612	-0.9723029	97.174	59.01	-233.612	B5-03822-P02-CH0	523848	OK	0.8575194	-0.0015454	-0.5144493	0	-94.053	-87.709	11.672	B5-03822-P02-CH1	523848	OK	0.7836147	-0.0645844	-0.6178809	0	-81.893	-74.38	5.83	B5-03822-P03-CH0	523848	OK	0.8253037	-0.2914458	-0.4836663	0	-90.6	-54.373	10.403	B5-03822-P03-CH1	523848	OK	0.7140198	-0.6678284	-0.2101927	0	-100.959	-20.146	6.403	B5-03822-P04-CH0	523848	OK	0.6459383	-0.5849274	0.4905341	0	-123.212	-21.862	-6.284	B5-03822-P04-CH1	523848	OK	0.7759481	-0.630514	0.0188832	0	-112.867	-37.843	11.795	NA
0.649467750062988	B5-03822-P01-CH0	523856	OK	0.2065127	0.0712169	0.0838113	-0.9722429	97.178	59.006	-233.591	B5-03822-P02-CH0	523856	OK	0.8549968	-0.004872	-0.5186105	0	-93.655	-88.069	11.761	B5-03822-P02-CH1	523856	OK	0.7841956	-0.0675912	-0.6168214	0	-82.131	-74.235	5.776	B5-03822-P03-CH0	523856	OK	0.8285478	-0.2881667	-0.4800713	0	-90.365	-53.969	10.523	B5-03822-P03-CH1	523856	OK	0.7144982	-0.667476	-0.2096855	0	-101.093	-20.176	6.434	B5-03822-P04-CH0	523856	OK	0.6466389	-0.5846958	0.4898868	0	-123.277	-21.936	-5.682	B5-03822-P04-CH1	523856	OK	0.7761384	-0.6302731	0.0191055	0	-112.838	-37.878	11.72	NA
0.659459561602419	B5-03822-P01-CH0	523864	OK	0.2068255	0.071227	0.0842385	-0.9721388	97.138	59.041	-233.528	B5-03822-P02-CH0	523864	OK	0.8534397	-0.0054412	-0.5211631	0	-92.858	-87.833	11.44	B5-03822-P02-CH1	523864	OK	0.7850095	-0.0736175	-0.6150939	0	-81.825	-74.642	5.532	B5-03822-P03-CH0	523864	OK	0.8300782	-0.2874118	-0.4778751	0	-90.632	-54.216	10.242	B5-03822-P03-CH1	523864	OK	0.7150035	-0.6672318	-0.2087386	0	-101.045	-20.255	6.212	B5-03822-P04-CH0	523864	OK	0.6472453	-0.5847493	0.4890213	0	-123.245	-22.006	-5.257	B5-03822-P04-CH1	523864	OK	0.7764267	-0.6299059	0.0194982	0	-112.771	-37.915	11.602	NA
0.669451373141849	B5-03822-P01-CH0	523872	OK	0.2068688	0.0711805	0.0842827	-0.9721291	97.101	59.041	-233.52	B5-03822-P02-CH0	523872	OK	0.8513993	-0.009678	-0.5244289	0	-92.343	-88.536	11.158	B5-03822-P02-CH1	523872	OK	0.7850763	-0.0779849	-0.6144701	0	-82.043	-74.307	6.3	B5-03822-P03-CH0	523872	OK	0.8323508	-0.286264	-0.4745998	0	-90.467	-54.388	11.078	B5-03822-P03-CH1	523872	OK	0.7153476	-0.6670216	-0.2082308	0	-101.092	-20.24	6.133	B5-03822-P04-CH0	523872	OK	0.6458377	-0.5952959	0.4780339	0	-122.509	-22.224	-8.465	B5-03822-P04-CH1	523872	OK	0.776429	-0.629908	0.0193386	0	-112.806	-37.946	11.581	NA
0.67944318468128	B5-03822-P01-CH0	523880	OK	0.206865	0.0712402	0.0840737	-0.9721437	97.089	59.068	-233.543	B5-03822-P02-CH0	523880	OK	0.8505747	-0.0092832	-0.5257723	0	-91.537	-88.071	11.114	B5-03822-P02-CH1	523880	OK	0.7853043	-0.0805508	-0.6138474	0	-82.149	-74.687	5.864	B5-03822-P03-CH0	523880	OK	0.8349162	-0.2847042	-0.4710186	0	-90.31	-54.156	11.59	B5-03822-P03-CH1	523880	OK	0.7154237	-0.6670275	-0.2079502	0	-101.118	-20.258	6.228	B5-03822-P04-CH0	523880	OK	0.6481099	-0.5933034	0.4774354	0	-123.053	-22.005	-5.238	B5-03822-P04-CH1	523880	OK	0.7763143	-0.6300505	0.0192996	0	-112.793	-37.954	11.718	NA
0.68943499622071	B5-03822-P01-CH0	523888	OK	0.2069924	0.0712351	0.0840607	-0.972118	97.058	59.115	-233.48	B5-03822-P02-CH0	523888	OK	0.848849	-0.0104996	-0.5285311	0	-91.276	-89.232	9.666	B5-03822-P02-CH1	523888	OK	0.7858208	-0.0817441	-0.6130282	0	-82.007	-74.745	5.809	B5-03822-P03-CH0	523888	OK	0.8355214	-0.28464	-0.4699829	0	-90.983	-54.832	10.932	B5-03822-P03-CH1	523888	OK	0.7155994	-0.6669612	-0.2075577	0	-101.145	-20.267	6.177	B5-03822-P04-CH0	523888	OK	0.6495002	-0.5918227	0.4773839	0	-123.638	-22.199	-3.321	B5-03822-P04-CH1	523888	OK	0.776286	-0.6300775	0.0195526	0	-112.75	-37.963	11.666	NA
0.699426807760141	B5-03822-P01-CH0	523896	OK	0.2070591	0.0712421	0.084278	-0.9720845	97.049	59.177	-233.43	B5-03822-P02-CH0	523896	OK	0.8478172	-0.0108695	-0.5301772	0	-90.56	-89.423	9.487	B5-03822-P02-CH1	523896	OK	0.7866565	-0.0811907	-0.6120291	0	-81.708	-74.274	5.306	B5-03822-P03-CH0	523896	OK	0.8388789	-0.2804589	-0.4665028	0	-90.896	-53.933	11.553	B5-03822-P03-CH1	523896	OK	0.715874	-0.6667562	-0.2072691	0	-101.212	-20.257	6.113	B5-03822-P04-CH0	523896	OK	0.6488411	-0.5944389	0.4750238	0	-123.565	-22.312	-4.8	B5-03822-P04-CH1	523896	OK	0.7763725	-0.6299689	0.0196207	0	-112.78	-37.969	11.548	NA
0.709418619299572	B5-03822-P01-CH0	523904	OK	0.2072429	0.0712924	0.0841757	-0.9720505	97.048	59.217	-233.39	B5-03822-P02-CH0	523904	OK	0.8465554	-0.0096527	-0.5322131	0	-90.335	-89.362	9.281	B5-03822-P02-CH1	523904	OK	0.7860889	-0.079856	-0.6129333	0	-82.247	-73.449	6.387	B5-03822-P03-CH0	523904	OK	0.8410617	-0.2807355	-0.4623882	0	-90.789	-53.949	11.765	B5-03822-P03-CH1	523904	OK	0.7159603	-0.666789	-0.2068654	0	-101.236	-20.306	6.036	B5-03822-P04-CH0	523904	OK	0.6485446	-0.5967283	0.4725518	0	-123.143	-22.094	-5.018	B5-03822-P04-CH1	523904	OK	0.7763753	-0.629963	0.0196955	0	-112.787	-37.987	11.6	NA
0.719410430839002	B5-03822-P01-CH0	523912	OK	0.2077564	0.071209	0.0849943	-0.9718758	97.018	59.383	-233.335	B5-03822-P02-CH0	523912	OK	0.8441859	-0.0087411	-0.5359792	0	-90.647	-89.066	9.282	B5-03822-P02-CH1	523912	OK	0.7864232	-0.0781023	-0.6127304	0	-82.076	-73.252	5.748	B5-03822-P03-CH0	523912	OK	0.8429132	-0.2814284	-0.4585798	0	-90.964	-54.375	11.347	B5-03822-P03-CH1	523912	OK	0.7166581	-0.6663176	-0.205966	0	-101.283	-20.292	5.894	B5-03822-P04-CH0	523912	OK	0.6490938	-0.5979739	0.4702175	0	-123.08	-21.93	-4.941	B5-03822-P04-CH1	523912	OK	0.7769564	-0.6292308	0.0201828	0	-112.793	-37.961	11.557	NA
