Wav.Time	B5.03822.P01.CH0	Frame	State	Q0	Qx	Qy	Qz	Tx	Ty	Tz	B5.03822.P02.CH0	Frame.1	State.1	Q0.1	Qx.1	Qy.1	Qz.1	Tx.1	Ty.1	Tz.1	B5.03822.P02.CH1	Frame.2	State.2	Q0.2	Qx.2	Qy.2	Qz.2	Tx.2	Ty.2	Tz.2	B5.03822.P03.CH0	Frame.3	State.3	Q0.3	Qx.3	Qy.3	Qz.3	Tx.3	Ty.3	Tz.3	B5.03822.P03.CH1	Frame.4	State.4	Q0.4	Qx.4	Qy.4	Qz.4	Tx.4	Ty.4	Tz.4	B5.03822.P04.CH0	Frame.5	State.5	Q0.5	Qx.5	Qy.5	Qz.5	Tx.5	Ty.5	Tz.5	B5.03822.P04.CH1	Frame.6	State.6	Q0.6	Qx.6	Qy.6	Qz.6	Tx.6	Ty.6	Tz.6	X
0	B5-03822-P01-CH0	112976	OK	0.1967197	0.0771733	0.0870223	-0.9735362	95.585	54.923	-229.79	B5-03822-P02-CH0	112976	OK	0.7997851	0.1204847	-0.5880707	0	-88.279	-101.161	3.722	B5-03822-P02-CH1	112976	OK	0.7924289	0.0195846	-0.6096498	0	-86.446	-79.691	6.855	B5-03822-P03-CH0	112976	OK	0.85343	-0.1636884	-0.4948367	0	-99.197	-58.024	13.53	B5-03822-P03-CH1	112976	OK	0.7191662	-0.6399295	-0.2707217	0	-101.485	-17.641	6.262	B5-03822-P04-CH0	112976	OK	0.6876742	-0.4975999	0.5286763	0	-122.578	-21.906	8.326	B5-03822-P04-CH1	112976	OK	0.7769287	-0.6290412	0.0262461	0	-112.414	-39.492	10.906	NA
0.00999199679871949	B5-03822-P01-CH0	112984	OK	0.1965392	0.0771604	0.0868532	-0.9735888	95.571	54.873	-229.739	B5-03822-P02-CH0	112984	OK	0.7975983	0.1229669	-0.5905219	0	-88.466	-101.213	3.337	B5-03822-P02-CH1	112984	OK	0.7900713	0.0196089	-0.6127013	0	-86.396	-79.924	7.512	B5-03822-P03-CH0	112984	OK	0.8577504	-0.1605488	-0.4883527	0	-98.85	-57.86	13.352	B5-03822-P03-CH1	112984	OK	0.7191177	-0.6373396	-0.2768896	0	-101.513	-17.177	5.955	B5-03822-P04-CH0	112984	OK	0.6892639	-0.4817963	0.5410984	0	-122.85	-22.309	10.211	B5-03822-P04-CH1	112984	OK	0.776814	-0.6291656	0.0266574	0	-112.386	-39.545	10.824	NA
0.019983993597439	B5-03822-P01-CH0	112992	OK	0.1967747	0.0768792	0.0874588	-0.9735093	95.497	54.882	-229.701	B5-03822-P02-CH0	112992	OK	0.7952655	0.1252384	-0.5931847	0	-88.556	-101.613	3.383	B5-03822-P02-CH1	112992	OK	0.7895523	0.0183152	-0.6134099	0	-85.522	-80.976	6.126	B5-03822-P03-CH0	112992	OK	0.8608396	-0.1597841	-0.48314	0	-98.673	-58.174	13.901	B5-03822-P03-CH1	112992	OK	0.7189421	-0.6346992	-0.2833357	0	-101.8	-16.936	6.2	B5-03822-P04-CH0	112992	OK	0.6903275	-0.4674959	0.5521735	0	-122.963	-22.533	11.188	B5-03822-P04-CH1	112992	OK	0.7772527	-0.6285878	0.0274888	0	-112.325	-39.613	10.666	NA
0.0299759903961585	B5-03822-P01-CH0	113000	OK	0.1968496	0.0769648	0.0877441	-0.9734617	95.523	54.909	-229.65	B5-03822-P02-CH0	113000	OK	0.7951307	0.1282087	-0.5927306	0	-87.841	-102.21	3.151	B5-03822-P02-CH1	113000	OK	0.7871075	0.0171616	-0.616577	0	-85.715	-80.399	6.455	B5-03822-P03-CH0	113000	OK	0.8629031	-0.1576352	-0.4801555	0	-99.027	-58.477	13.892	B5-03822-P03-CH1	113000	OK	0.7185292	-0.6327339	-0.2887275	0	-101.605	-17.061	6.338	B5-03822-P04-CH0	113000	OK	0.6911537	-0.4536051	0.5626269	0	-123.965	-23.118	10.761	B5-03822-P04-CH1	113000	OK	0.777269	-0.6285328	0.0282741	0	-112.394	-39.775	10.586	NA
0.039967987194878	B5-03822-P01-CH0	113008	OK	0.1967239	0.0769958	0.0875907	-0.9734984	95.553	54.924	-229.695	B5-03822-P02-CH0	113008	OK	0.7934875	0.1328785	-0.5939031	0	-87.828	-101.938	2.986	B5-03822-P02-CH1	113008	OK	0.7849173	0.0159581	-0.619395	0	-86.158	-79.818	6.811	B5-03822-P03-CH0	113008	OK	0.8647614	-0.1583434	-0.476566	0	-99.371	-59.197	14.256	B5-03822-P03-CH1	113008	OK	0.7178527	-0.6307373	-0.2947167	0	-101.292	-17.148	6.538	B5-03822-P04-CH0	113008	OK	0.6927564	-0.4381659	0.5727994	0	-124.559	-23.451	13.259	B5-03822-P04-CH1	113008	OK	0.7771344	-0.6286746	0.0288177	0	-112.473	-39.84	10.645	NA
0.0499599839935974	B5-03822-P01-CH0	113016	OK	0.1966344	0.0767618	0.0871283	-0.9735765	95.475	54.798	-229.673	B5-03822-P02-CH0	113016	OK	0.7923438	0.1334361	-0.5953033	0	-87.504	-102.404	2.929	B5-03822-P02-CH1	113016	OK	0.7846141	0.012562	-0.6198572	0	-85.379	-80.917	5.948	B5-03822-P03-CH0	113016	OK	0.8683371	-0.1585521	-0.4699488	0	-98.77	-59.43	14.238	B5-03822-P03-CH1	113016	OK	0.7168332	-0.6292158	-0.3003958	0	-101.796	-17.018	6.653	B5-03822-P04-CH0	113016	OK	0.6919822	-0.4271231	0.5820021	0	-124.708	-23.41	12.557	B5-03822-P04-CH1	113016	OK	0.7768803	-0.6289623	0.0293852	0	-112.471	-39.945	10.492	NA
0.0599519807923169	B5-03822-P01-CH0	113024	OK	0.1964596	0.0767673	0.0867328	-0.9736467	95.477	54.714	-229.686	B5-03822-P02-CH0	113024	OK	0.7929514	0.1351027	-0.5941173	0	-86.724	-103.16	2.086	B5-03822-P02-CH1	113024	OK	0.7836194	0.0089043	-0.6211774	0	-84.753	-81.52	5.075	B5-03822-P03-CH0	113024	OK	0.8703053	-0.1578519	-0.4665314	0	-98.658	-59.57	13.814	B5-03822-P03-CH1	113024	OK	0.7157032	-0.6281368	-0.3053082	0	-101.841	-17.021	6.089	B5-03822-P04-CH0	113024	OK	0.6921307	-0.4124661	0.5923063	0	-125.794	-24.244	12.878	B5-03822-P04-CH1	113024	OK	0.7767421	-0.6291122	0.0298262	0	-112.523	-39.994	10.523	NA
0.0699439775910364	B5-03822-P01-CH0	113032	OK	0.1961416	0.0767718	0.08585	-0.9737886	95.5	54.58	-229.726	B5-03822-P02-CH0	113032	OK	0.7901578	0.1375889	-0.5972604	0	-87.966	-103.135	3.679	B5-03822-P02-CH1	113032	OK	0.7823616	0.0068743	-0.6227865	0	-84.44	-81.731	5.64	B5-03822-P03-CH0	113032	OK	0.8714369	-0.158104	-0.4643284	0	-98.746	-59.87	14.378	B5-03822-P03-CH1	113032	OK	0.7142098	-0.626858	-0.3113733	0	-101.532	-17.224	5.689	B5-03822-P04-CH0	113032	OK	0.6931631	-0.3905633	0.605793	0	-126.897	-24.875	17.142	B5-03822-P04-CH1	113032	OK	0.7761476	-0.6298135	0.0304931	0	-112.604	-40.129	10.464	NA
0.0799359743897559	B5-03822-P01-CH0	113040	OK	0.196164	0.0767827	0.0857803	-0.9737894	95.538	54.507	-229.7	B5-03822-P02-CH0	113040	OK	0.7922453	0.1366914	-0.5946955	0	-86.588	-104.36	2.28	B5-03822-P02-CH1	113040	OK	0.7806758	0.0055993	-0.6249112	0	-84.483	-81.403	5.178	B5-03822-P03-CH0	113040	OK	0.8739242	-0.1566127	-0.4601401	0	-98.556	-59.85	14.816	B5-03822-P03-CH1	113040	OK	0.7123655	-0.6237738	-0.3216234	0	-101.862	-17.079	5.851	B5-03822-P04-CH0	113040	OK	0.6901072	-0.3727728	0.6203165	0	-127.45	-24.974	15.09	B5-03822-P04-CH1	113040	OK	0.7759903	-0.6299535	0.0315851	0	-112.847	-40.377	10.436	NA
0.0899279711884754	B5-03822-P01-CH0	113048	OK	0.1960006	0.0769003	0.0854639	-0.9738409	95.593	54.514	-229.728	B5-03822-P02-CH0	113048	OK	0.7922132	0.1364414	-0.5947957	0	-86.099	-104.477	1.8	B5-03822-P02-CH1	113048	OK	0.779564	0.0024357	-0.6263178	0	-84.405	-81.62	5.882	B5-03822-P03-CH0	113048	OK	0.875142	-0.1578899	-0.457381	0	-99	-60.057	15.183	B5-03822-P03-CH1	113048	OK	0.7107085	-0.6200174	-0.3323729	0	-100.73	-17.266	5.83	B5-03822-P04-CH0	113048	OK	0.6889145	-0.3445197	0.6377327	0	-128.538	-25.871	17.372	B5-03822-P04-CH1	113048	OK	0.7757823	-0.6301571	0.0326171	0	-113.145	-40.481	10.439	NA
0.0999199679871949	B5-03822-P01-CH0	113056	OK	0.1961003	0.0769143	0.085359	-0.9738289	95.611	54.511	-229.738	B5-03822-P02-CH0	113056	OK	0.7913978	0.1356232	-0.5960671	0	-85.759	-104.445	1.895	B5-03822-P02-CH1	113056	OK	0.7798624	-0.0039283	-0.6259386	0	-83.591	-82.884	5.364	B5-03822-P03-CH0	113056	OK	0.8781219	-0.1605516	-0.450694	0	-98.79	-60.691	14.874	B5-03822-P03-CH1	113056	OK	0.7082278	-0.6151313	-0.346449	0	-101.514	-16.855	5.901	B5-03822-P04-CH0	113056	OK	0.6875976	-0.3200899	0.65173	0	-129.95	-25.787	16.668	B5-03822-P04-CH1	113056	OK	0.776441	-0.6288239	0.0414716	0	-114.711	-41.041	10.629	NA
0.109911964785914	B5-03822-P01-CH0	113064	OK	0.1962791	0.0768891	0.0854311	-0.9737885	95.645	54.523	-229.746	B5-03822-P02-CH0	113064	OK	0.7873129	0.1359494	-0.6013785	0	-86.864	-103.75	2.936	B5-03822-P02-CH1	113064	OK	0.777601	-0.006872	-0.6287205	0	-83.688	-82.481	5.855	B5-03822-P03-CH0	113064	OK	0.8801347	-0.1631517	-0.4458076	0	-98.801	-61.22	14.933	B5-03822-P03-CH1	113064	OK	0.7071692	-0.6100487	-0.3574245	0	-100.538	-16.616	6.559	B5-03822-P04-CH0	113064	OK	0.685085	-0.2961654	0.6655408	0	-130.986	-27.847	18.445	B5-03822-P04-CH1	113064	OK	0.7763581	-0.6287034	0.0447236	0	-114.998	-41.47	10.602	NA
0.119903961584634	B5-03822-P01-CH0	113072	OK	0.1962086	0.0770651	0.085011	-0.9738256	95.731	54.498	-229.813	B5-03822-P02-CH0	113072	OK	0.7854345	0.1352971	-0.6039763	0	-86.388	-103.439	2.98	B5-03822-P02-CH1	113072	OK	0.7767793	-0.0118162	-0.629662	0	-82.746	-82.3	5.608	B5-03822-P03-CH0	113072	OK	0.8828885	-0.1652335	-0.4395518	0	-98.175	-60.851	15.515	B5-03822-P03-CH1	113072	OK	0.7049608	-0.6023848	-0.3743833	0	-101.716	-15.776	5.861	B5-03822-P04-CH0	113072	OK	0.68244	-0.2741091	0.6775985	0	-131.889	-27.627	16.071	B5-03822-P04-CH1	113072	OK	0.7758818	-0.6290618	0.0478411	0	-115.207	-41.928	10.543	NA
0.129895958383353	B5-03822-P01-CH0	113080	OK	0.1963136	0.077117	0.0852613	-0.9737784	95.786	54.529	-229.808	B5-03822-P02-CH0	113080	OK	0.7869394	0.131405	-0.6028757	0	-84.655	-104.501	1.293	B5-03822-P02-CH1	113080	OK	0.775801	-0.0166928	-0.6307568	0	-82.615	-81.972	5.431	B5-03822-P03-CH0	113080	OK	0.8843286	-0.1695739	-0.4349801	0	-98.325	-60.912	15.305	B5-03822-P03-CH1	113080	OK	0.7037997	-0.5981243	-0.3832926	0	-100.886	-16.152	6.414	B5-03822-P04-CH0	113080	OK	0.682553	-0.2485469	0.6872742	0	-132.686	-28.628	18.307	B5-03822-P04-CH1	113080	OK	0.7769284	-0.6275661	0.050429	0	-115.262	-41.841	11.326	NA
0.139887955182073	B5-03822-P01-CH0	113088	OK	0.1963918	0.0768704	0.0854984	-0.9737614	95.725	54.47	-229.767	B5-03822-P02-CH0	113088	OK	0.7861524	0.1297064	-0.6042687	0	-84.281	-104.377	1.525	B5-03822-P02-CH1	113088	OK	0.7753124	-0.0211952	-0.6312222	0	-82.923	-81.835	6.06	B5-03822-P03-CH0	113088	OK	0.8855629	-0.173471	-0.4309132	0	-98.479	-61.536	14.974	B5-03822-P03-CH1	113088	OK	0.7027637	-0.5934938	-0.3922861	0	-100.261	-16.177	5.832	B5-03822-P04-CH0	113088	OK	0.6822117	-0.2299659	0.6940481	0	-133.5	-28.906	18.343	B5-03822-P04-CH1	113088	OK	0.7772758	-0.6269618	0.0525479	0	-115.292	-41.994	11.405	NA
0.149879951980792	B5-03822-P01-CH0	113096	OK	0.1963201	0.0771268	0.0854045	-0.9737638	95.834	54.529	-229.808	B5-03822-P02-CH0	113096	OK	0.7836934	0.1327145	-0.6068044	0	-84.863	-103.877	2.572	B5-03822-P02-CH1	113096	OK	0.7771671	-0.0247612	-0.628807	0	-82.197	-82.787	5.22	B5-03822-P03-CH0	113096	OK	0.8867839	-0.1730887	-0.4285495	0	-98.917	-61.571	15.493	B5-03822-P03-CH1	113096	OK	0.7005347	-0.5910677	-0.3998626	0	-100.609	-16.211	6.018	B5-03822-P04-CH0	113096	OK	0.6814545	-0.2157114	0.6993486	0	-133.931	-29.145	18.391	B5-03822-P04-CH1	113096	OK	0.777395	-0.6267508	0.0532967	0	-116.069	-42.113	11.106	NA
0.159871948779512	B5-03822-P01-CH0	113104	OK	0.1963163	0.0770462	0.0853223	-0.9737782	95.815	54.503	-229.774	B5-03822-P02-CH0	113104	OK	0.7823046	0.1378414	-0.6074531	0	-84.745	-104.123	2.445	B5-03822-P02-CH1	113104	OK	0.776185	-0.0242066	-0.6300403	0	-82.641	-81.691	6.203	B5-03822-P03-CH0	113104	OK	0.8882216	-0.1755695	-0.4245441	0	-98.907	-62.254	15.204	B5-03822-P03-CH1	113104	OK	0.699068	-0.589202	-0.4051482	0	-101.22	-15.817	5.763	B5-03822-P04-CH0	113104	OK	0.6802575	-0.2083591	0.7027348	0	-134.137	-28.805	17.39	B5-03822-P04-CH1	113104	OK	0.7777783	-0.6261632	0.0545938	0	-116.132	-42.109	11.021	NA
0.169863945578231	B5-03822-P01-CH0	113112	OK	0.1962735	0.0770344	0.085447	-0.9737768	95.801	54.519	-229.733	B5-03822-P02-CH0	113112	OK	0.7800817	0.1446156	-0.6087355	0	-85.302	-103.792	2.785	B5-03822-P02-CH1	113112	OK	0.7763887	-0.0269087	-0.6296797	0	-82.073	-82.674	5.987	B5-03822-P03-CH0	113112	OK	0.8898998	-0.1758894	-0.4208815	0	-98.733	-62.063	15.62	B5-03822-P03-CH1	113112	OK	0.6986074	-0.5890414	-0.4061747	0	-101.077	-15.824	5.563	B5-03822-P04-CH0	113112	OK	0.6794969	-0.2039232	0.7047689	0	-134.305	-29.116	17.188	B5-03822-P04-CH1	113112	OK	0.7773884	-0.6265324	0.0558972	0	-115.474	-42.423	11.34	NA
0.179855942376951	B5-03822-P01-CH0	113120	OK	0.1960238	0.0769614	0.0849381	-0.9738774	95.77	54.454	-229.748	B5-03822-P02-CH0	113120	OK	0.7796377	0.1493852	-0.6081522	0	-85.173	-104.019	3.459	B5-03822-P02-CH1	113120	OK	0.7776789	-0.0290957	-0.6279881	0	-81.079	-83.718	5.229	B5-03822-P03-CH0	113120	OK	0.8916614	-0.1766285	-0.416824	0	-98.303	-61.849	15.906	B5-03822-P03-CH1	113120	OK	0.6984338	-0.5895302	-0.4057639	0	-101.038	-15.717	5.794	B5-03822-P04-CH0	113120	OK	0.6790559	-0.2041496	0.7051284	0	-134.32	-28.811	16.722	B5-03822-P04-CH1	113120	OK	0.776763	-0.6272561	0.0564714	0	-115.065	-42.603	11.253	NA
0.18984793917567	B5-03822-P01-CH0	113128	OK	0.1960609	0.076857	0.0852273	-0.9738529	95.748	54.434	-229.691	B5-03822-P02-CH0	113128	OK	0.780109	0.1546126	-0.6062383	0	-84.801	-104.18	2.277	B5-03822-P02-CH1	113128	OK	0.7769594	-0.0292076	-0.6288728	0	-81.266	-82.872	5.321	B5-03822-P03-CH0	113128	OK	0.8929742	-0.1784927	-0.4132039	0	-98.023	-62.055	15.631	B5-03822-P03-CH1	113128	OK	0.6994457	-0.5908006	-0.402157	0	-100.908	-15.77	5.822	B5-03822-P04-CH0	113128	OK	0.6798504	-0.2070191	0.7035243	0	-134.02	-28.469	17.106	B5-03822-P04-CH1	113128	OK	0.7766707	-0.6277855	0.0516521	0	-115.457	-42.201	10.737	NA
0.19983993597439	B5-03822-P01-CH0	113136	OK	0.1956836	0.0769322	0.0849127	-0.9739503	95.772	54.431	-229.699	B5-03822-P02-CH0	113136	OK	0.7809028	0.159408	-0.6039701	0	-84.622	-104.768	2.443	B5-03822-P02-CH1	113136	OK	0.7767038	-0.0308496	-0.6291101	0	-81.164	-82.765	5.434	B5-03822-P03-CH0	113136	OK	0.8944174	-0.1813368	-0.408821	0	-97.664	-61.859	15.741	B5-03822-P03-CH1	113136	OK	0.6989896	-0.5931244	-0.399521	0	-101.483	-15.974	5.663	B5-03822-P04-CH0	113136	OK	0.6805027	-0.2133505	0.7009976	0	-133.798	-28.005	16.784	B5-03822-P04-CH1	113136	OK	0.7765824	-0.6278385	0.0523313	0	-115.6	-42.227	10.943	NA
0.209831932773109	B5-03822-P01-CH0	113144	OK	0.19576	0.0769184	0.0853413	-0.9738986	95.778	54.45	-229.67	B5-03822-P02-CH0	113144	OK	0.781383	0.1648772	-0.6018772	0	-84.373	-104.886	1.535	B5-03822-P02-CH1	113144	OK	0.7772118	-0.0338623	-0.6283273	0	-80.589	-82.718	5.815	B5-03822-P03-CH0	113144	OK	0.8953583	-0.1809379	-0.4069336	0	-97.681	-61.75	15.607	B5-03822-P03-CH1	113144	OK	0.6996542	-0.5948449	-0.3957821	0	-101.589	-15.981	5.927	B5-03822-P04-CH0	113144	OK	0.6821034	-0.2180198	0.6979988	0	-133.665	-28.121	17.479	B5-03822-P04-CH1	113144	OK	0.776994	-0.6272612	0.0531392	0	-115.601	-42.306	11.114	NA
0.219823929571829	B5-03822-P01-CH0	113152	OK	0.1957044	0.0767801	0.0854268	-0.9739132	95.715	54.457	-229.576	B5-03822-P02-CH0	113152	OK	0.7810411	0.1710095	-0.6006084	0	-84.411	-104.444	1.281	B5-03822-P02-CH1	113152	OK	0.7770567	-0.0358828	-0.6284069	0	-80.458	-82.937	5.827	B5-03822-P03-CH0	113152	OK	0.8959397	-0.1808404	-0.4056954	0	-97.792	-61.593	15.336	B5-03822-P03-CH1	113152	OK	0.7010506	-0.5959276	-0.3916611	0	-100.988	-16.149	6.083	B5-03822-P04-CH0	113152	OK	0.6794667	-0.2262301	0.6979577	0	-132.35	-27.59	16.793	B5-03822-P04-CH1	113152	OK	0.7773235	-0.6268438	0.0532441	0	-115.639	-42.206	11.153	NA
0.229815926370548	B5-03822-P01-CH0	113160	OK	0.1957088	0.0766097	0.0851115	-0.9739533	95.637	54.429	-229.525	B5-03822-P02-CH0	113160	OK	0.7806542	0.1748647	-0.6000011	0	-84.569	-104.254	2.17	B5-03822-P02-CH1	113160	OK	0.7768735	-0.0366077	-0.6285917	0	-80.475	-83.291	5.554	B5-03822-P03-CH0	113160	OK	0.8964044	-0.18311	-0.4036458	0	-97.223	-62.289	15.584	B5-03822-P03-CH1	113160	OK	0.7022799	-0.5968337	-0.3880623	0	-101.148	-16.003	5.554	B5-03822-P04-CH0	113160	OK	0.6809324	-0.2303991	0.69516	0	-132.619	-27.301	17.345	B5-03822-P04-CH1	113160	OK	0.7772015	-0.6269767	0.0534614	0	-115.529	-42.209	11.094	NA
0.239807923169268	B5-03822-P01-CH0	113168	OK	0.1957117	0.0767658	0.0848519	-0.9739631	95.681	54.447	-229.445	B5-03822-P02-CH0	113168	OK	0.7811564	0.1791137	-0.5980911	0	-84.129	-104.101	1.452	B5-03822-P02-CH1	113168	OK	0.7772095	-0.0358578	-0.6282194	0	-80.215	-82.677	5.357	B5-03822-P03-CH0	113168	OK	0.8966855	-0.1830116	-0.4030656	0	-97.264	-62.219	15.784	B5-03822-P03-CH1	113168	OK	0.7034093	-0.5983039	-0.3837288	0	-100.941	-16.101	5.704	B5-03822-P04-CH0	113168	OK	0.6809169	-0.2380829	0.6925812	0	-132.354	-26.842	17.455	B5-03822-P04-CH1	113168	OK	0.776971	-0.6272725	0.0533408	0	-115.529	-42.272	11.163	NA
0.249799919967987	B5-03822-P01-CH0	113176	OK	0.1958198	0.0767038	0.0851961	-0.9739162	95.669	54.51	-229.423	B5-03822-P02-CH0	113176	OK	0.7802016	0.1825694	-0.5982925	0	-84.477	-104.428	1.983	B5-03822-P02-CH1	113176	OK	0.7771541	-0.0374791	-0.6281933	0	-80.114	-82.795	5.146	B5-03822-P03-CH0	113176	OK	0.8991583	-0.179298	-0.3992074	0	-96.724	-61.013	15.251	B5-03822-P03-CH1	113176	OK	0.7038276	-0.5996821	-0.3807993	0	-101.113	-16.441	5.457	B5-03822-P04-CH0	113176	OK	0.6805087	-0.248871	0.6891815	0	-132.054	-26.74	16.69	B5-03822-P04-CH1	113176	OK	0.7772341	-0.6269698	0.0530663	0	-115.443	-42.221	11.267	NA
0.259791916766707	B5-03822-P01-CH0	113184	OK	0.1959716	0.0766025	0.0855657	-0.9738612	95.678	54.573	-229.431	B5-03822-P02-CH0	113184	OK	0.7794209	0.18685	-0.5979884	0	-84.674	-103.759	1.745	B5-03822-P02-CH1	113184	OK	0.7773183	-0.0381268	-0.6279511	0	-80.081	-82.45	4.934	B5-03822-P03-CH0	113184	OK	0.8994066	-0.1818145	-0.3975063	0	-96.563	-61.424	15.17	B5-03822-P03-CH1	113184	OK	0.70574	-0.6002107	-0.3764016	0	-100.545	-16.337	6.042	B5-03822-P04-CH0	113184	OK	0.6805098	-0.2589278	0.6854654	0	-131.678	-26.679	16.846	B5-03822-P04-CH1	113184	OK	0.7774815	-0.6267041	0.0525785	0	-115.402	-42.18	11.309	NA
0.269783913565426	B5-03822-P01-CH0	113192	OK	0.196103	0.0767634	0.0856743	-0.9738126	95.76	54.621	-229.39	B5-03822-P02-CH0	113192	OK	0.7772538	0.1887665	-0.6002031	0	-85.669	-103.285	2.881	B5-03822-P02-CH1	113192	OK	0.7766388	-0.0400807	-0.6286698	0	-80.365	-82.352	5.201	B5-03822-P03-CH0	113192	OK	0.8988967	-0.1840548	-0.3976287	0	-96.698	-61.949	15.767	B5-03822-P03-CH1	113192	OK	0.7065033	-0.6005179	-0.3744746	0	-100.949	-16.151	5.691	B5-03822-P04-CH0	113192	OK	0.6815509	-0.2675796	0.6810944	0	-131.675	-26.7	16.908	B5-03822-P04-CH1	113192	OK	0.7775363	-0.6266878	0.0519586	0	-115.48	-42.163	11.348	NA
0.279775910364146	B5-03822-P01-CH0	113200	OK	0.1965224	0.0767145	0.0864801	-0.9736606	95.77	54.75	-229.369	B5-03822-P02-CH0	113200	OK	0.7788454	0.189136	-0.5980196	0	-84.795	-103.169	1.756	B5-03822-P02-CH1	113200	OK	0.7765763	-0.0369435	-0.6289391	0	-80.746	-82.708	5.224	B5-03822-P03-CH0	113200	OK	0.8997029	-0.182501	-0.3965199	0	-96.757	-61.756	15.492	B5-03822-P03-CH1	113200	OK	0.7080045	-0.6018802	-0.3694183	0	-100.58	-16.685	5.956	B5-03822-P04-CH0	113200	OK	0.6829072	-0.2746902	0.6768922	0	-131.458	-26.503	17.367	B5-03822-P04-CH1	113200	OK	0.7780467	-0.6260755	0.0516986	0	-115.503	-42.138	11.287	NA
0.289767907162865	B5-03822-P01-CH0	113208	OK	0.1966708	0.0766515	0.086339	-0.9736481	95.756	54.774	-229.357	B5-03822-P02-CH0	113208	OK	0.7795543	0.1895122	-0.596976	0	-84.464	-103.133	1.575	B5-03822-P02-CH1	113208	OK	0.7768662	-0.038402	-0.6284936	0	-80.56	-82.635	5.248	B5-03822-P03-CH0	113208	OK	0.8999603	-0.1838379	-0.3953164	0	-96.814	-61.899	15.234	B5-03822-P03-CH1	113208	OK	0.7088603	-0.6022778	-0.3671219	0	-100.94	-16.694	5.363	B5-03822-P04-CH0	113208	OK	0.6839797	-0.2794484	0.6738549	0	-131.443	-26.713	17.491	B5-03822-P04-CH1	113208	OK	0.7780015	-0.6261613	0.0513384	0	-115.384	-42.088	11.318	NA
0.299759903961585	B5-03822-P01-CH0	113216	OK	0.1971536	0.0765751	0.0869152	-0.9735053	95.755	54.856	-229.323	B5-03822-P02-CH0	113216	OK	0.7799222	0.1890859	-0.5966304	0	-84.04	-103.811	1.148	B5-03822-P02-CH1	113216	OK	0.7770471	-0.0398652	-0.6281788	0	-80.43	-82.649	5.048	B5-03822-P03-CH0	113216	OK	0.8994982	-0.1845994	-0.3960127	0	-96.929	-61.935	15.246	B5-03822-P03-CH1	113216	OK	0.7106355	-0.6028919	-0.3626549	0	-100.89	-16.615	5.418	B5-03822-P04-CH0	113216	OK	0.6861228	-0.2858419	0.6689767	0	-131.427	-26.172	17.888	B5-03822-P04-CH1	113216	OK	0.7784017	-0.625684	0.051092	0	-115.346	-42.069	11.249	NA
0.309751900760304	B5-03822-P01-CH0	113224	OK	0.1971259	0.0765687	0.0863798	-0.973559	95.751	54.852	-229.332	B5-03822-P02-CH0	113224	OK	0.7804831	0.1888662	-0.5959662	0	-83.724	-104.749	1.397	B5-03822-P02-CH1	113224	OK	0.7773544	-0.0407695	-0.6277404	0	-80.312	-82.589	5.088	B5-03822-P03-CH0	113224	OK	0.8989748	-0.182551	-0.3981451	0	-96.949	-61.671	15.122	B5-03822-P03-CH1	113224	OK	0.7117999	-0.6040576	-0.3584067	0	-100.881	-16.505	6.607	B5-03822-P04-CH0	113224	OK	0.6857554	-0.2966495	0.6646342	0	-131.031	-25.938	16.573	B5-03822-P04-CH1	113224	OK	0.778047	-0.6261906	0.0502813	0	-115.341	-41.995	11.223	NA
0.319743897559024	B5-03822-P01-CH0	113232	OK	0.1973841	0.0766222	0.0868309	-0.9734624	95.785	54.974	-229.336	B5-03822-P02-CH0	113232	OK	0.7802302	0.1887879	-0.596322	0	-83.407	-104.48	1.109	B5-03822-P02-CH1	113232	OK	0.7775267	-0.0413959	-0.6274859	0	-80.258	-82.461	5.004	B5-03822-P03-CH0	113232	OK	0.8992333	-0.1829229	-0.3973899	0	-96.928	-61.685	15.129	B5-03822-P03-CH1	113232	OK	0.7124465	-0.6054173	-0.3548095	0	-101.753	-16.174	5.94	B5-03822-P04-CH0	113232	OK	0.6878173	-0.304071	0.6591268	0	-131.171	-26.628	16.99	B5-03822-P04-CH1	113232	OK	0.7781726	-0.6260497	0.0500916	0	-115.299	-41.994	11.175	NA
0.329735894357743	B5-03822-P01-CH0	113240	OK	0.1971959	0.076682	0.0863384	-0.9735396	95.822	54.959	-229.378	B5-03822-P02-CH0	113240	OK	0.7794905	0.1874098	-0.5977224	0	-84.23	-103.694	1.951	B5-03822-P02-CH1	113240	OK	0.7776792	-0.0418577	-0.6272663	0	-80.248	-82.438	5.122	B5-03822-P03-CH0	113240	OK	0.8995911	-0.1831094	-0.3964932	0	-96.854	-61.542	15.288	B5-03822-P03-CH1	113240	OK	0.712319	-0.6085378	-0.3496904	0	-101.357	-16.701	5.509	B5-03822-P04-CH0	113240	OK	0.6882054	-0.3143907	0.6538592	0	-130.591	-26.221	16.88	B5-03822-P04-CH1	113240	OK	0.7777322	-0.6266653	0.0492263	0	-115.294	-41.987	11.218	NA
0.339727891156463	B5-03822-P01-CH0	113248	OK	0.1973166	0.0765825	0.0866111	-0.9734987	95.821	54.984	-229.428	B5-03822-P02-CH0	113248	OK	0.7792719	0.1885226	-0.5976575	0	-84.166	-103.736	1.92	B5-03822-P02-CH1	113248	OK	0.7779065	-0.0421745	-0.6269632	0	-80.165	-82.357	5.133	B5-03822-P03-CH0	113248	OK	0.8999969	-0.1831824	-0.3955374	0	-96.742	-61.488	15.31	B5-03822-P03-CH1	113248	OK	0.7131558	-0.60964	-0.3460462	0	-101.284	-16.633	5.847	B5-03822-P04-CH0	113248	OK	0.6883538	-0.3240847	0.6489516	0	-129.991	-25.552	16.898	B5-03822-P04-CH1	113248	OK	0.7780739	-0.6262885	0.0486178	0	-115.237	-41.841	11.178	NA
0.349719887955182	B5-03822-P01-CH0	113256	OK	0.1973789	0.0766323	0.0864976	-0.9734923	95.835	55.001	-229.387	B5-03822-P02-CH0	113256	OK	0.7794061	0.1910312	-0.5966853	0	-82.997	-104.325	0.948	B5-03822-P02-CH1	113256	OK	0.7780633	-0.0426032	-0.6267396	0	-80.075	-82.339	5.201	B5-03822-P03-CH0	113256	OK	0.9001523	-0.1829462	-0.3952929	0	-96.713	-61.393	15.391	B5-03822-P03-CH1	113256	OK	0.7136813	-0.6108783	-0.3427634	0	-101.538	-16.64	6.311	B5-03822-P04-CH0	113256	OK	0.6896738	-0.3312776	0.6438984	0	-130.026	-25.728	17.535	B5-03822-P04-CH1	113256	OK	0.7780098	-0.626418	0.0479712	0	-115.198	-41.79	11.182	NA
0.359711884753902	B5-03822-P01-CH0	113264	OK	0.1973702	0.0766244	0.0861762	-0.9735232	95.811	54.973	-229.311	B5-03822-P02-CH0	113264	OK	0.7801139	0.190915	-0.5957968	0	-82.547	-104.761	0.967	B5-03822-P02-CH1	113264	OK	0.7782965	-0.0428506	-0.626433	0	-79.965	-82.365	5.173	B5-03822-P03-CH0	113264	OK	0.9001979	-0.1829859	-0.3951706	0	-96.651	-61.356	15.387	B5-03822-P03-CH1	113264	OK	0.7141794	-0.6136947	-0.3366403	0	-100.83	-17.121	6.378	B5-03822-P04-CH0	113264	OK	0.6904656	-0.342187	0.637311	0	-129.699	-25.414	17.354	B5-03822-P04-CH1	113264	OK	0.7777942	-0.6267251	0.0474538	0	-115.111	-41.75	11.045	NA
0.369703881552621	B5-03822-P01-CH0	113272	OK	0.1972212	0.0766227	0.0859476	-0.9735737	95.807	55.029	-229.304	B5-03822-P02-CH0	113272	OK	0.7778044	0.1925864	-0.5982732	0	-83.905	-103.976	1.955	B5-03822-P02-CH1	113272	OK	0.7783682	-0.0427701	-0.6263495	0	-79.965	-82.271	5.273	B5-03822-P03-CH0	113272	OK	0.9002238	-0.1824287	-0.3953692	0	-96.662	-61.156	15.447	B5-03822-P03-CH1	113272	OK	0.7142953	-0.6157036	-0.332703	0	-101.718	-16.877	6.68	B5-03822-P04-CH0	113272	OK	0.6901347	-0.3566292	0.629706	0	-129.149	-25.482	16.72	B5-03822-P04-CH1	113272	OK	0.7775542	-0.6270873	0.0465947	0	-115.128	-41.653	11.04	NA
0.379695878351341	B5-03822-P01-CH0	113280	OK	0.1969219	0.0766602	0.0851588	-0.9737006	95.829	54.961	-229.322	B5-03822-P02-CH0	113280	OK	0.7800957	0.190173	-0.5960579	0	-83.454	-104.22	1.64	B5-03822-P02-CH1	113280	OK	0.778532	-0.0427901	-0.6261445	0	-79.894	-82.333	5.459	B5-03822-P03-CH0	113280	OK	0.9000514	-0.1822058	-0.3958643	0	-96.642	-61.067	15.664	B5-03822-P03-CH1	113280	OK	0.7138553	-0.6186525	-0.3281459	0	-102.293	-16.744	5.504	B5-03822-P04-CH0	113280	OK	0.6906637	-0.3706853	0.6209477	0	-129.135	-25.145	16.067	B5-03822-P04-CH1	113280	OK	0.7770376	-0.6277925	0.0457075	0	-115.027	-41.593	11.117	NA
0.38968787515006	B5-03822-P01-CH0	113288	OK	0.1966062	0.0768274	0.0845336	-0.9738057	95.888	54.943	-229.365	B5-03822-P02-CH0	113288	OK	0.780016	0.1908219	-0.5959547	0	-83.564	-104.218	1.8	B5-03822-P02-CH1	113288	OK	0.7783919	-0.0426253	-0.6263299	0	-79.962	-82.328	5.645	B5-03822-P03-CH0	113288	OK	0.8998001	-0.1817947	-0.3966238	0	-96.651	-60.959	15.853	B5-03822-P03-CH1	113288	OK	0.7142389	-0.6233101	-0.318351	0	-101.467	-17.116	6.565	B5-03822-P04-CH0	113288	OK	0.6910555	-0.3850745	0.6116861	0	-128.953	-24.962	17.101	B5-03822-P04-CH1	113288	OK	0.7766355	-0.6283466	0.0449205	0	-114.909	-41.496	11.264	NA
0.39967987194878	B5-03822-P01-CH0	113296	OK	0.1963359	0.0769085	0.0839145	-0.9739074	95.902	54.897	-229.375	B5-03822-P02-CH0	113296	OK	0.7803002	0.1912259	-0.595453	0	-83.494	-104.204	1.896	B5-03822-P02-CH1	113296	OK	0.7783738	-0.0422736	-0.6263762	0	-79.936	-82.251	5.74	B5-03822-P03-CH0	113296	OK	0.8975464	-0.177783	-0.4034893	0	-96.74	-60.674	15.467	B5-03822-P03-CH1	113296	OK	0.7135815	-0.6272073	-0.3121097	0	-101.692	-17.23	6.957	B5-03822-P04-CH0	113296	OK	0.6899909	-0.4015733	0.6022055	0	-128.471	-25.007	16.874	B5-03822-P04-CH1	113296	OK	0.77617	-0.6289782	0.0441207	0	-114.778	-41.454	11.356	NA
0.409671868747499	B5-03822-P01-CH0	113304	OK	0.1964577	0.07684	0.0843778	-0.9738482	95.865	54.962	-229.357	B5-03822-P02-CH0	113304	OK	0.7801882	0.1918898	-0.5953862	0	-83.494	-104.069	1.665	B5-03822-P02-CH1	113304	OK	0.7783183	-0.0417657	-0.6264793	0	-79.892	-82.114	5.6	B5-03822-P03-CH0	113304	OK	0.8974197	-0.1756176	-0.4047177	0	-96.484	-60.003	16.043	B5-03822-P03-CH1	113304	OK	0.7131756	-0.6310396	-0.3052368	0	-101.606	-17.524	6.601	B5-03822-P04-CH0	113304	OK	0.6896242	-0.4154578	0.5931385	0	-127.811	-25.18	16.984	B5-03822-P04-CH1	113304	OK	0.7765198	-0.6285895	0.0434998	0	-114.671	-41.31	11.306	NA
0.419663865546218	B5-03822-P01-CH0	113312	OK	0.1962181	0.0767933	0.0838333	-0.9739472	95.844	54.859	-229.371	B5-03822-P02-CH0	113312	OK	0.7805843	0.1937432	-0.5942657	0	-84.601	-104.281	1.813	B5-03822-P02-CH1	113312	OK	0.7781948	-0.0411409	-0.6266739	0	-79.904	-82.097	5.663	B5-03822-P03-CH0	113312	OK	0.8966418	-0.1751274	-0.4066497	0	-96.122	-60.406	15.379	B5-03822-P03-CH1	113312	OK	0.7129018	-0.6341002	-0.2994794	0	-101.688	-17.619	7.08	B5-03822-P04-CH0	113312	OK	0.6878262	-0.4301687	0.5846793	0	-126.738	-24.467	15.424	B5-03822-P04-CH1	113312	OK	0.7761769	-0.6290769	0.0425638	0	-114.537	-41.25	11.271	NA
0.429655862344938	B5-03822-P01-CH0	113320	OK	0.1962499	0.0768164	0.0840593	-0.9739195	95.851	54.855	-229.361	B5-03822-P02-CH0	113320	OK	0.7804887	0.1950629	-0.5939594	0	-85.174	-103.568	2.565	B5-03822-P02-CH1	113320	OK	0.7781207	-0.0404736	-0.6268095	0	-79.902	-81.922	5.614	B5-03822-P03-CH0	113320	OK	0.8933882	-0.172824	-0.414716	0	-97.012	-60.642	14.842	B5-03822-P03-CH1	113320	OK	0.713485	-0.6368351	-0.292199	0	-101.487	-17.779	6.685	B5-03822-P04-CH0	113320	OK	0.6880556	-0.4407801	0.5764481	0	-126.402	-24.134	13.699	B5-03822-P04-CH1	113320	OK	0.7763464	-0.6289168	0.0418329	0	-114.509	-41.172	11.274	NA
0.439647859143657	B5-03822-P01-CH0	113328	OK	0.1960272	0.0770668	0.083412	-0.9740003	95.898	54.822	-229.352	B5-03822-P02-CH0	113328	OK	0.7842827	0.1928855	-0.5896574	0	-84.289	-103.707	2.252	B5-03822-P02-CH1	113328	OK	0.7780006	-0.0400549	-0.6269854	0	-79.988	-81.876	5.691	B5-03822-P03-CH0	113328	OK	0.8916534	-0.1689453	-0.4200139	0	-96.955	-60.356	15.042	B5-03822-P03-CH1	113328	OK	0.7137155	-0.6390986	-0.2866411	0	-101.811	-17.852	6.485	B5-03822-P04-CH0	113328	OK	0.6873902	-0.4516518	0.5687753	0	-125.611	-23.679	12.422	B5-03822-P04-CH1	113328	OK	0.7757664	-0.6296878	0.0409848	0	-114.499	-41.166	11.312	NA
0.449639855942377	B5-03822-P01-CH0	113336	OK	0.1960876	0.0769623	0.0838115	-0.9739621	95.852	54.875	-229.353	B5-03822-P02-CH0	113336	OK	0.7878664	0.189118	-0.5860895	0	-83.796	-103.947	1.884	B5-03822-P02-CH1	113336	OK	0.778046	-0.0395427	-0.6269615	0	-80.053	-81.837	5.42	B5-03822-P03-CH0	113336	OK	0.8899428	-0.1655095	-0.4249806	0	-96.624	-60.186	15.028	B5-03822-P03-CH1	113336	OK	0.7147261	-0.6407932	-0.2802691	0	-101.954	-17.825	6.365	B5-03822-P04-CH0	113336	OK	0.6871022	-0.4604837	0.5620012	0	-125.403	-23.737	10.93	B5-03822-P04-CH1	113336	OK	0.7760012	-0.6294287	0.0405182	0	-114.354	-41.023	11.234	NA
0.459631852741096	B5-03822-P01-CH0	113344	OK	0.1959029	0.0771364	0.0836761	-0.9739971	95.906	54.916	-229.465	B5-03822-P02-CH0	113344	OK	0.7892946	0.1877417	-0.5846084	0	-84.589	-103.301	2.413	B5-03822-P02-CH1	113344	OK	0.7791009	-0.0375787	-0.6257712	0	-80.693	-81.8	5.995	B5-03822-P03-CH0	113344	OK	0.8885008	-0.1621318	-0.429278	0	-96.748	-59.476	15.5	B5-03822-P03-CH1	113344	OK	0.7153792	-0.6423754	-0.27493	0	-102.026	-17.649	7.46	B5-03822-P04-CH0	113344	OK	0.6891567	-0.4637774	0.5567527	0	-125.699	-23.694	13.034	B5-03822-P04-CH1	113344	OK	0.7758541	-0.629659	0.0397487	0	-114.297	-40.924	11.454	NA
0.469623849539816	B5-03822-P01-CH0	113352	OK	0.1957996	0.0772471	0.0835133	-0.9740231	95.905	54.875	-229.466	B5-03822-P02-CH0	113352	OK	0.7905931	0.1865849	-0.5832226	0	-85.382	-103.264	2.938	B5-03822-P02-CH1	113352	OK	0.7803347	-0.0364475	-0.624299	0	-80.947	-81.55	6.083	B5-03822-P03-CH0	113352	OK	0.8873697	-0.161337	-0.4319091	0	-96.833	-59.671	15.429	B5-03822-P03-CH1	113352	OK	0.7157875	-0.6432892	-0.2717115	0	-101.876	-17.745	7.343	B5-03822-P04-CH0	113352	OK	0.6894517	-0.4696242	0.5514612	0	-125.364	-23.78	12.549	B5-03822-P04-CH1	113352	OK	0.775799	-0.6297736	0.0390022	0	-114.163	-40.813	11.543	NA
0.479615846338535	B5-03822-P01-CH0	113360	OK	0.1958023	0.0774297	0.0835652	-0.9740036	95.929	54.827	-229.419	B5-03822-P02-CH0	113360	OK	0.794015	0.185192	-0.5790027	0	-85.197	-103.816	1.892	B5-03822-P02-CH1	113360	OK	0.7814653	-0.0345596	-0.6229908	0	-81.308	-81.025	5.824	B5-03822-P03-CH0	113360	OK	0.8853603	-0.1610371	-0.4361241	0	-97.018	-59.53	15.361	B5-03822-P03-CH1	113360	OK	0.7162715	-0.6441093	-0.2684742	0	-102.043	-18.006	6.909	B5-03822-P04-CH0	113360	OK	0.6910387	-0.4736221	0.546029	0	-125.519	-23.821	12.324	B5-03822-P04-CH1	113360	OK	0.7757946	-0.6298243	0.0382634	0	-114.161	-40.767	11.431	NA
0.489607843137255	B5-03822-P01-CH0	113368	OK	0.1958947	0.0773096	0.0838193	-0.9739727	95.867	54.825	-229.407	B5-03822-P02-CH0	113368	OK	0.7959016	0.1848962	-0.5765015	0	-85.407	-102.549	2.917	B5-03822-P02-CH1	113368	OK	0.7832098	-0.0340574	-0.620824	0	-81.172	-81.129	6.002	B5-03822-P03-CH0	113368	OK	0.8830617	-0.160933	-0.4407977	0	-96.741	-59.342	15.299	B5-03822-P03-CH1	113368	OK	0.7162709	-0.6450169	-0.2662878	0	-102.504	-18.243	6.392	B5-03822-P04-CH0	113368	OK	0.6914774	-0.4759549	0.543439	0	-125.187	-23.847	11.612	B5-03822-P04-CH1	113368	OK	0.7758282	-0.629816	0.0377132	0	-114.146	-40.744	11.315	NA
0.499599839935974	B5-03822-P01-CH0	113376	OK	0.195896	0.0773382	0.0841212	-0.9739441	95.861	54.864	-229.454	B5-03822-P02-CH0	113376	OK	0.7969238	0.1829402	-0.5757128	0	-86.491	-101.882	3.867	B5-03822-P02-CH1	113376	OK	0.7841014	-0.0316222	-0.6198266	0	-81.556	-81.105	5.997	B5-03822-P03-CH0	113376	OK	0.8804094	-0.1615725	-0.4458403	0	-96.476	-58.997	14.896	B5-03822-P03-CH1	113376	OK	0.7175852	-0.6446648	-0.2635883	0	-102.813	-18.033	6.615	B5-03822-P04-CH0	113376	OK	0.6922465	-0.4744197	0.5438021	0	-125.357	-24.112	11.231	B5-03822-P04-CH1	113376	OK	0.7760425	-0.6295863	0.0371361	0	-114.091	-40.6	11.236	NA
0.509591836734694	B5-03822-P01-CH0	113384	OK	0.1956808	0.0774054	0.0837759	-0.9740118	95.873	54.802	-229.442	B5-03822-P02-CH0	113384	OK	0.800776	0.1770482	-0.572199	0	-86.344	-102.073	3.862	B5-03822-P02-CH1	113384	OK	0.7860457	-0.0294342	-0.6174672	0	-81.39	-81.534	5.912	B5-03822-P03-CH0	113384	OK	0.877783	-0.1654582	-0.4495782	0	-95.863	-58.643	14.55	B5-03822-P03-CH1	113384	OK	0.7182805	-0.6441686	-0.2629066	0	-102.443	-18.485	6.758	B5-03822-P04-CH0	113384	OK	0.6945321	-0.4649904	0.5490074	0	-126.235	-24.377	13.002	B5-03822-P04-CH1	113384	OK	0.7756752	-0.630063	0.0367227	0	-114.051	-40.618	11.205	NA
0.519583833533413	B5-03822-P01-CH0	113392	OK	0.1958755	0.0774839	0.0845356	-0.9739008	95.894	54.916	-229.472	B5-03822-P02-CH0	113392	OK	0.8038513	0.1726083	-0.5692358	0	-85.975	-101.67	2.971	B5-03822-P02-CH1	113392	OK	0.7860877	-0.0223289	-0.6177116	0	-82.133	-79.921	6.346	B5-03822-P03-CH0	113392	OK	0.8713282	-0.17115	-0.4598856	0	-96.337	-58.369	14.746	B5-03822-P03-CH1	113392	OK	0.7206789	-0.641188	-0.2636284	0	-102.663	-18.288	7.509	B5-03822-P04-CH0	113392	OK	0.6945587	-0.4552057	0.557114	0	-126.919	-25.099	12.795	B5-03822-P04-CH1	113392	OK	0.7760987	-0.6295542	0.0365015	0	-114.159	-40.567	11.283	NA
0.529575830332133	B5-03822-P01-CH0	113400	OK	0.1960102	0.0774207	0.0849343	-0.973844	95.836	54.962	-229.437	B5-03822-P02-CH0	113400	OK	0.8035046	0.1687301	-0.5708858	0	-86.678	-100.912	3.472	B5-03822-P02-CH1	113400	OK	0.7867152	-0.0175342	-0.617067	0	-82.399	-79.37	6.648	B5-03822-P03-CH0	113400	OK	0.8649998	-0.175681	-0.4700123	0	-96.438	-57.66	14.582	B5-03822-P03-CH1	113400	OK	0.7224276	-0.6391302	-0.263839	0	-102.208	-18.857	6.836	B5-03822-P04-CH0	113400	OK	0.6933563	-0.4482973	0.5641689	0	-127.301	-26.232	12.352	B5-03822-P04-CH1	113400	OK	0.7763783	-0.6292175	0.0363607	0	-114.124	-40.476	11.213	NA
0.539567827130852	B5-03822-P01-CH0	113408	OK	0.1958899	0.0772762	0.0849733	-0.9738763	95.783	54.935	-229.453	B5-03822-P02-CH0	113408	OK	0.806089	0.1623537	-0.5690886	0	-85.57	-101.253	3.273	B5-03822-P02-CH1	113408	OK	0.7869764	-0.0169849	-0.6167493	0	-82.425	-79.303	6.773	B5-03822-P03-CH0	113408	OK	0.8597838	-0.1810427	-0.4774886	0	-95.931	-57.401	14.156	B5-03822-P03-CH1	113408	OK	0.7247966	-0.6348979	-0.2675343	0	-102.496	-18.796	7.553	B5-03822-P04-CH0	113408	OK	0.694174	-0.441867	0.5682218	0	-127.98	-26.505	13.448	B5-03822-P04-CH1	113408	OK	0.7764754	-0.6291108	0.0361322	0	-114.073	-40.383	11.229	NA
0.549559823929572	B5-03822-P01-CH0	113416	OK	0.1956698	0.0775686	0.0847714	-0.9739149	95.875	54.88	-229.445	B5-03822-P02-CH0	113416	OK	0.8027794	0.1613707	-0.574025	0	-87.093	-100.056	4.661	B5-03822-P02-CH1	113416	OK	0.7869822	-0.016699	-0.6167496	0	-82.408	-79.059	6.838	B5-03822-P03-CH0	113416	OK	0.8553182	-0.1847157	-0.4840568	0	-95.523	-57.322	14.009	B5-03822-P03-CH1	113416	OK	0.7272276	-0.631344	-0.2693412	0	-102.009	-19.077	8.3	B5-03822-P04-CH0	113416	OK	0.6959306	-0.4325335	0.5732324	0	-128.83	-26.837	15.879	B5-03822-P04-CH1	113416	OK	0.7763033	-0.6293458	0.0357347	0	-114.227	-40.403	11.26	NA
0.559551820728291	B5-03822-P01-CH0	113424	OK	0.195823	0.077432	0.0850442	-0.9738712	95.813	54.85	-229.43	B5-03822-P02-CH0	113424	OK	0.802915	0.1614516	-0.5738126	0	-86.781	-99.543	3.798	B5-03822-P02-CH1	113424	OK	0.7851816	-0.0170564	-0.6190306	0	-82.77	-78.074	6.712	B5-03822-P03-CH0	113424	OK	0.850965	-0.1879823	-0.4904296	0	-95.799	-57.268	13.292	B5-03822-P03-CH1	113424	OK	0.7291523	-0.6276509	-0.2727477	0	-101.604	-19.131	8.034	B5-03822-P04-CH0	113424	OK	0.6954994	-0.4243917	0.5798036	0	-129.041	-26.746	14.612	B5-03822-P04-CH1	113424	OK	0.7764973	-0.6290912	0.0360028	0	-114.129	-40.409	11.197	NA
0.569543817527011	B5-03822-P01-CH0	113432	OK	0.1958773	0.0773427	0.085146	-0.9738585	95.789	54.85	-229.502	B5-03822-P02-CH0	113432	OK	0.8046621	0.1598342	-0.5718146	0	-85.984	-99.674	3.267	B5-03822-P02-CH1	113432	OK	0.7839321	-0.0202831	-0.6205151	0	-82.609	-78.108	6.821	B5-03822-P03-CH0	113432	OK	0.8477535	-0.1927333	-0.4941335	0	-95.747	-57.381	13.223	B5-03822-P03-CH1	113432	OK	0.7310108	-0.6234507	-0.277367	0	-101.834	-19.198	8.141	B5-03822-P04-CH0	113432	OK	0.6977867	-0.4088546	0.5881595	0	-130.197	-28.187	17.254	B5-03822-P04-CH1	113432	OK	0.7767054	-0.6288152	0.0363333	0	-114.043	-40.342	11.222	NA
0.57953581432573	B5-03822-P01-CH0	113440	OK	0.195887	0.0772395	0.0854565	-0.9738375	95.728	54.903	-229.523	B5-03822-P02-CH0	113440	OK	0.8046664	0.1589944	-0.5720427	0	-86.086	-99.806	3.2	B5-03822-P02-CH1	113440	OK	0.7838311	-0.0224387	-0.6205685	0	-82.189	-78.303	6.131	B5-03822-P03-CH0	113440	OK	0.846351	-0.1974043	-0.4946933	0	-95.134	-57.346	13.271	B5-03822-P03-CH1	113440	OK	0.733465	-0.6189476	-0.2809501	0	-102.157	-18.852	7.484	B5-03822-P04-CH0	113440	OK	0.6983778	-0.4022939	0.5919696	0	-130.246	-27.219	16.276	B5-03822-P04-CH1	113440	OK	0.7769061	-0.62855	0.0366311	0	-113.93	-40.275	11.25	NA
0.58952781112445	B5-03822-P01-CH0	113448	OK	0.1957895	0.0773275	0.0855582	-0.9738412	95.731	54.898	-229.511	B5-03822-P02-CH0	113448	OK	0.8020906	0.1616508	-0.5749084	0	-87.272	-97.965	4.193	B5-03822-P02-CH1	113448	OK	0.7831858	-0.0227672	-0.6213708	0	-82.236	-77.761	6.67	B5-03822-P03-CH0	113448	OK	0.843443	-0.1998716	-0.4986535	0	-95.507	-56.998	13.179	B5-03822-P03-CH1	113448	OK	0.7345746	-0.6164265	-0.2835818	0	-101.722	-18.985	8.242	B5-03822-P04-CH0	113448	OK	0.698908	-0.3983174	0.5940293	0	-130.207	-27.088	17.684	B5-03822-P04-CH1	113448	OK	0.7769894	-0.6284452	0.0366626	0	-113.965	-40.231	11.263	NA
0.599519807923169	B5-03822-P01-CH0	113456	OK	0.1957874	0.0773724	0.0853572	-0.9738557	95.734	54.812	-229.476	B5-03822-P02-CH0	113456	OK	0.8026772	0.1599496	-0.5745654	0	-87.111	-98.339	4.488	B5-03822-P02-CH1	113456	OK	0.7831929	-0.0240211	-0.6213146	0	-82.071	-78.581	6.082	B5-03822-P03-CH0	113456	OK	0.8409956	-0.2035012	-0.5013119	0	-95.676	-56.407	12.586	B5-03822-P03-CH1	113456	OK	0.7356485	-0.6145598	-0.2848465	0	-101.512	-19.008	8.361	B5-03822-P04-CH0	113456	OK	0.696975	-0.400493	0.5948372	0	-130.107	-27.204	14.434	B5-03822-P04-CH1	113456	OK	0.7768135	-0.6286533	0.0368214	0	-113.998	-40.337	11.302	NA
0.609511804721889	B5-03822-P01-CH0	113464	OK	0.1959153	0.0773501	0.085397	-0.9738283	95.7	54.79	-229.458	B5-03822-P02-CH0	113464	OK	0.8012274	0.1595091	-0.5767075	0	-87.762	-97.87	5.66	B5-03822-P02-CH1	113464	OK	0.7832841	-0.0232627	-0.6212285	0	-82.107	-78.014	6.383	B5-03822-P03-CH0	113464	OK	0.8393307	-0.2086656	-0.5019786	0	-95.235	-56.132	12.698	B5-03822-P03-CH1	113464	OK	0.7364112	-0.6134128	-0.2853477	0	-101.325	-19.185	8.747	B5-03822-P04-CH0	113464	OK	0.6986051	-0.3966403	0.5955059	0	-130.49	-27.938	17.083	B5-03822-P04-CH1	113464	OK	0.7768453	-0.6285967	0.0371171	0	-113.951	-40.364	11.286	NA
0.619503801520608	B5-03822-P01-CH0	113472	OK	0.1958118	0.0774383	0.0850345	-0.9738738	95.709	54.697	-229.42	B5-03822-P02-CH0	113472	OK	0.8032687	0.1581316	-0.5742419	0	-87.025	-98.506	4.1	B5-03822-P02-CH1	113472	OK	0.7835833	-0.0219713	-0.6208982	0	-82.018	-77.41	6.575	B5-03822-P03-CH0	113472	OK	0.8373387	-0.213385	-0.5033197	0	-95.043	-56.012	12.617	B5-03822-P03-CH1	113472	OK	0.7362522	-0.6132642	-0.2860765	0	-101.629	-19.398	7.994	B5-03822-P04-CH0	113472	OK	0.6973953	-0.40085	0.5941035	0	-129.968	-27.368	15.479	B5-03822-P04-CH1	113472	OK	0.7766264	-0.6288646	0.0371575	0	-113.857	-40.382	11.3	NA
0.629495798319328	B5-03822-P01-CH0	113480	OK	0.1956561	0.0775432	0.0846704	-0.9739285	95.737	54.62	-229.424	B5-03822-P02-CH0	113480	OK	0.8047883	0.1574256	-0.5723049	0	-86.247	-98.495	3.405	B5-03822-P02-CH1	113480	OK	0.7835735	-0.0214515	-0.6209286	0	-82.138	-76.823	6.892	B5-03822-P03-CH0	113480	OK	0.8341336	-0.2183906	-0.5064846	0	-95.148	-55.978	12.682	B5-03822-P03-CH1	113480	OK	0.7370793	-0.6118053	-0.2870687	0	-102.129	-19.025	7.979	B5-03822-P04-CH0	113480	OK	0.6976108	-0.403278	0.5922045	0	-129.88	-27.214	15.845	B5-03822-P04-CH1	113480	OK	0.7762971	-0.6292646	0.0372671	0	-113.829	-40.447	11.287	NA
0.639487795118047	B5-03822-P01-CH0	113488	OK	0.1957678	0.0776449	0.0846443	-0.9739002	95.763	54.621	-229.419	B5-03822-P02-CH0	113488	OK	0.8051905	0.1572988	-0.5717739	0	-85.773	-98.222	3.122	B5-03822-P02-CH1	113488	OK	0.7832787	-0.0227008	-0.6212561	0	-82.281	-77.317	6.383	B5-03822-P03-CH0	113488	OK	0.8324675	-0.2230087	-0.507213	0	-94.821	-55.923	12.282	B5-03822-P03-CH1	113488	OK	0.7377726	-0.6119844	-0.2848977	0	-101.516	-19.303	7.815	B5-03822-P04-CH0	113488	OK	0.6970129	-0.4063203	0.5908272	0	-129.764	-27.462	14.848	B5-03822-P04-CH1	113488	OK	0.7762259	-0.6293514	0.0372854	0	-113.848	-40.478	11.263	NA
0.649479791916767	B5-03822-P01-CH0	113496	OK	0.1958891	0.0775346	0.0845514	-0.9738926	95.711	54.581	-229.386	B5-03822-P02-CH0	113496	OK	0.8037014	0.1566164	-0.5740517	0	-86.004	-97.922	4.251	B5-03822-P02-CH1	113496	OK	0.7829984	-0.0225891	-0.6216134	0	-82.368	-77.921	6.844	B5-03822-P03-CH0	113496	OK	0.8323176	-0.2264408	-0.5059368	0	-94.295	-55.409	12.406	B5-03822-P03-CH1	113496	OK	0.7384011	-0.6115892	-0.2841171	0	-101.44	-19.342	8.603	B5-03822-P04-CH0	113496	OK	0.698108	-0.4094267	0.5873798	0	-129.628	-26.676	14.521	B5-03822-P04-CH1	113496	OK	0.7761378	-0.6294542	0.0373834	0	-113.711	-40.507	11.184	NA
0.659471788715486	B5-03822-P01-CH0	113504	OK	0.1958552	0.0776921	0.0844168	-0.9738986	95.754	54.548	-229.336	B5-03822-P02-CH0	113504	OK	0.802611	0.1587122	-0.5750008	0	-86.932	-98.263	4.298	B5-03822-P02-CH1	113504	OK	0.7828215	-0.0228775	-0.6218256	0	-82.326	-77.658	6.783	B5-03822-P03-CH0	113504	OK	0.8299329	-0.2315221	-0.5075519	0	-94.822	-55.764	12.425	B5-03822-P03-CH1	113504	OK	0.7388188	-0.6114841	-0.2832559	0	-101.312	-19.597	8.233	B5-03822-P04-CH0	113504	OK	0.6987413	-0.4111793	0.5853992	0	-129.669	-27.24	15.243	B5-03822-P04-CH1	113504	OK	0.7761145	-0.6295022	0.037057	0	-113.756	-40.464	11.161	NA
0.669463785514206	B5-03822-P01-CH0	113512	OK	0.196051	0.0777166	0.084631	-0.9738387	95.745	54.541	-229.26	B5-03822-P02-CH0	113512	OK	0.8023496	0.1585649	-0.5754062	0	-86.929	-98.022	4.261	B5-03822-P02-CH1	113512	OK	0.782652	-0.0229951	-0.6220346	0	-82.283	-77.414	6.64	B5-03822-P03-CH0	113512	OK	0.829594	-0.2341609	-0.5068949	0	-94.593	-55.4	12.047	B5-03822-P03-CH1	113512	OK	0.7400093	-0.6106304	-0.281987	0	-100.833	-19.681	8.071	B5-03822-P04-CH0	113512	OK	0.6981568	-0.4163416	0.5824403	0	-129.35	-26.671	13.359	B5-03822-P04-CH1	113512	OK	0.7762525	-0.6293402	0.0369193	0	-113.703	-40.474	11.095	NA
0.679455782312925	B5-03822-P01-CH0	113520	OK	0.1960735	0.0778166	0.0843095	-0.973854	95.78	54.508	-229.252	B5-03822-P02-CH0	113520	OK	0.8021627	0.1581678	-0.575776	0	-86.955	-97.792	4.557	B5-03822-P02-CH1	113520	OK	0.7826888	-0.0234118	-0.6219728	0	-82.183	-77.302	6.661	B5-03822-P03-CH0	113520	OK	0.8282241	-0.2358378	-0.5083555	0	-94.652	-55.27	11.939	B5-03822-P03-CH1	113520	OK	0.7405306	-0.6101642	-0.2816276	0	-100.722	-19.705	8.21	B5-03822-P04-CH0	113520	OK	0.6990504	-0.4164905	0.5812609	0	-129.462	-27.146	15.196	B5-03822-P04-CH1	113520	OK	0.7760825	-0.6295586	0.0367683	0	-113.665	-40.463	11.157	NA
